%!PS-Adobe-3.0 EPSF-3.0
%%Creator: cairo 1.17.4 (https://cairographics.org)
%%CreationDate: Thu Feb 24 10:47:50 2022
%%Pages: 1
%%DocumentData: Clean7Bit
%%LanguageLevel: 2
%%BoundingBox: 0 0 90 59
%%EndComments
%%BeginProlog
50 dict begin
/q { gsave } bind def
/Q { grestore } bind def
/cm { 6 array astore concat } bind def
/w { setlinewidth } bind def
/J { setlinecap } bind def
/j { setlinejoin } bind def
/M { setmiterlimit } bind def
/d { setdash } bind def
/m { moveto } bind def
/l { lineto } bind def
/c { curveto } bind def
/h { closepath } bind def
/re { exch dup neg 3 1 roll 5 3 roll moveto 0 rlineto
      0 exch rlineto 0 rlineto closepath } bind def
/S { stroke } bind def
/f { fill } bind def
/f* { eofill } bind def
/n { newpath } bind def
/W { clip } bind def
/W* { eoclip } bind def
/BT { } bind def
/ET { } bind def
/BDC { mark 3 1 roll /BDC pdfmark } bind def
/EMC { mark /EMC pdfmark } bind def
/cairo_store_point { /cairo_point_y exch def /cairo_point_x exch def } def
/Tj { show currentpoint cairo_store_point } bind def
/TJ {
  {
    dup
    type /stringtype eq
    { show } { -0.001 mul 0 cairo_font_matrix dtransform rmoveto } ifelse
  } forall
  currentpoint cairo_store_point
} bind def
/cairo_selectfont { cairo_font_matrix aload pop pop pop 0 0 6 array astore
    cairo_font exch selectfont cairo_point_x cairo_point_y moveto } bind def
/Tf { pop /cairo_font exch def /cairo_font_matrix where
      { pop cairo_selectfont } if } bind def
/Td { matrix translate cairo_font_matrix matrix concatmatrix dup
      /cairo_font_matrix exch def dup 4 get exch 5 get cairo_store_point
      /cairo_font where { pop cairo_selectfont } if } bind def
/Tm { 2 copy 8 2 roll 6 array astore /cairo_font_matrix exch def
      cairo_store_point /cairo_font where { pop cairo_selectfont } if } bind def
/g { setgray } bind def
/rg { setrgbcolor } bind def
/d1 { setcachedevice } bind def
/cairo_data_source {
  CairoDataIndex CairoData length lt
    { CairoData CairoDataIndex get /CairoDataIndex CairoDataIndex 1 add def }
    { () } ifelse
} def
/cairo_flush_ascii85_file { cairo_ascii85_file status { cairo_ascii85_file flushfile } if } def
/cairo_image { image cairo_flush_ascii85_file } def
/cairo_imagemask { imagemask cairo_flush_ascii85_file } def
%%EndProlog
%%BeginSetup
%%EndSetup
%%Page: 1 1
%%BeginPageSetup
%%PageBoundingBox: 0 0 90 59
%%EndPageSetup
q 0 0 90 59 rectclip
1 0 0 -1 0 59 cm q
Q q
q
0 0 90 59 re W n
  q
0 g
5.38588 w
0 J
0 j
[] 0.0 d
10 M q 1 0 0 -1 0 0 cm
87.73 -45.215 m 8.363 -45.215 l 5.23 -45.215 2.691 -42.676 2.691 -39.547
 c 2.691 -8.363 l 2.691 -5.234 5.23 -2.695 8.363 -2.695 c 87.73 -2.695 l
 S Q
1 g
3.68517 w
q 1 0 0 -1 0 0 cm
87.73 -45.215 m 8.363 -45.215 l 5.23 -45.215 2.691 -42.676 2.691 -39.547
 c 2.691 -8.363 l 2.691 -5.234 5.23 -2.695 8.363 -2.695 c 87.73 -2.695 l
 S Q
  Q
Q
0 g
0.850361 w
0 J
0 j
[] 0.0 d
10 M q 1 0 0 -1 0 0 cm
87.73 -47.906 m 87.73 -42.52 l S Q
Q q
0 g
0.850361 w
0 J
0 j
[] 0.0 d
10 M q 1 0 0 -1 0 0 cm
87.73 -5.387 m 87.73 0 l S Q
q 1 0 0 -1 0 0 cm
56.977 -23.953 m 56.977 -5.812 l 61.512 -5.812 l 61.512 -42.098 l 56.977
 -42.098 l h
56.977 -23.953 m S Q
24.055 38.84 m 25.371 42.52 l 26.684 38.84 l 25.371 40.312 l f
26.684 9.066 m 25.371 5.387 l 24.055 9.066 l 25.371 7.594 l f
0.567043 w
q 1 0 0 -1 0 0 cm
25.371 -40.312 m 25.371 -7.594 l S Q
1 g
20.582 23.98 m 20.582 17.777 l 30.137 17.777 l 30.137 30.184 l 20.582 30.184
 l f
0 g
26.18 20.758 m 26.18 20.758 24.977 20.977 24.727 20.992 c 24.727 21.164
 l 25.07 21.164 25.305 21.195 25.305 21.477 c 25.305 21.648 25.195 22.07
 25.133 22.289 c 24.117 25.992 l 24.07 26.195 23.945 26.648 23.945 26.852
 c 23.945 27.023 24.008 27.305 24.32 27.305 c 24.945 27.305 25.523 26.461
 25.648 26.227 c 25.523 26.133 l 25.242 26.555 24.914 26.867 24.773 26.867
 c 24.68 26.867 24.633 26.789 24.633 26.695 c 24.633 26.57 24.68 26.477 
24.727 26.258 c h
26.18 20.758 m f
48.891 22.641 m 45.215 23.953 l 48.891 25.27 l 47.422 23.953 l f
q 1 0 0 -1 0 0 cm
56.551 -23.953 m 47.422 -23.953 l S Q
42.168 20.906 m 37.668 20.906 l 37.652 21.047 l 37.934 21.047 38.324 21.078
 38.324 21.484 c 38.324 21.609 38.309 21.75 38.199 22.078 c 37.152 25.906
 l 36.902 26.812 36.59 26.797 36.215 26.797 c 36.199 26.953 l 38.605 26.953
 l 38.637 26.797 l 38.402 26.797 37.996 26.766 37.996 26.328 c 37.996 26.25
 37.996 26.141 38.027 26.031 c 38.574 23.906 l 39.746 23.922 40.059 23.969
 40.059 24.406 c 40.059 24.531 40.027 24.688 39.996 24.906 c 40.168 24.906
 l 40.777 22.734 l 40.621 22.734 l 40.496 23.031 40.387 23.609 38.668 23.609
 c 39.309 21.219 l 40.262 21.219 l 41.105 21.219 41.699 21.391 41.699 22.016
 c 41.699 22.125 41.668 22.219 41.652 22.328 c 41.824 22.328 l h
42.168 20.906 m f
69.598 25.27 m 73.277 23.953 l 69.598 22.641 l 71.066 23.953 l f
q 1 0 0 -1 0 0 cm
61.938 -23.953 m 71.066 -23.953 l S Q
82.23 19.707 m 77.73 19.707 l 77.715 19.848 l 77.996 19.848 78.387 19.879
 78.387 20.285 c 78.387 20.41 78.371 20.551 78.262 20.879 c 77.215 24.707
 l 76.965 25.613 76.652 25.598 76.277 25.598 c 76.262 25.754 l 78.668 25.754
 l 78.699 25.598 l 78.465 25.598 78.059 25.566 78.059 25.129 c 78.059 25.051
 78.059 24.941 78.09 24.832 c 78.637 22.707 l 79.809 22.723 80.121 22.77
 80.121 23.207 c 80.121 23.332 80.09 23.488 80.059 23.707 c 80.23 23.707
 l 80.84 21.535 l 80.684 21.535 l 80.559 21.832 80.449 22.41 78.73 22.41
 c 79.371 20.02 l 80.324 20.02 l 81.168 20.02 81.762 20.191 81.762 20.816
 c 81.762 20.926 81.73 21.02 81.715 21.129 c 81.887 21.129 l h
82.23 19.707 m f
84.281 26.895 m 83.953 27.426 83.641 27.629 83.203 27.629 c 82.797 27.629
 82.5 27.426 82.297 27.02 c 82.172 26.754 82.125 26.535 82.109 26.098 c 
84.266 26.098 l 84.203 25.645 84.141 25.457 83.953 25.223 c 83.75 24.973
 83.438 24.832 83.062 24.832 c 82.719 24.832 82.391 24.957 82.125 25.191
 c 81.797 25.473 81.609 25.973 81.609 26.551 c 81.609 27.504 82.109 28.098
 82.922 28.098 c 83.578 28.098 84.094 27.691 84.391 26.941 c h
82.125 25.879 m 82.203 25.332 82.438 25.082 82.859 25.082 c 83.297 25.082
 83.453 25.27 83.547 25.879 c h
82.125 25.879 m f
86.375 28.035 m 87.781 28.035 l 87.781 27.926 l 87.562 27.926 87.422 27.816
 87.203 27.52 c 86.312 26.145 l 86.891 25.316 l 87.016 25.129 87.219 25.02
 87.453 25.004 c 87.453 24.895 l 86.359 24.895 l 86.359 25.004 l 86.562 
25.02 86.625 25.066 86.625 25.16 c 86.625 25.238 86.547 25.395 86.375 25.613
 c 86.344 25.645 86.25 25.77 86.172 25.91 c 86.109 25.832 l 86 25.676 85.938
 25.582 85.922 25.551 c 85.797 25.332 85.75 25.223 85.75 25.16 c 85.75 25.051
 85.844 25.004 86.047 25.004 c 86.047 24.895 l 84.609 24.895 l 84.609 25.004
 l 84.672 25.004 l 84.875 25.004 84.984 25.098 85.203 25.426 c 85.859 26.426
 l 85.062 27.582 l 84.859 27.863 84.781 27.91 84.562 27.926 c 84.562 28.035
 l 85.562 28.035 l 85.562 27.926 l 85.359 27.926 85.281 27.895 85.281 27.801
 c 85.281 27.754 85.328 27.66 85.422 27.52 c 85.984 26.66 l 86.609 27.645
 l 86.641 27.676 86.656 27.707 86.656 27.77 c 86.656 27.895 86.609 27.91
 86.375 27.926 c h
86.375 28.035 m f
89.699 24.895 m 88.996 24.895 l 88.996 24.098 l 88.996 24.02 88.98 24.004
 88.949 24.004 c 88.543 24.582 88.324 24.816 88.121 24.941 c 88.043 24.988
 88.012 25.035 88.012 25.066 c 88.012 25.098 88.012 25.113 88.043 25.129
 c 88.402 25.129 l 88.402 27.223 l 88.402 27.801 88.621 28.098 89.027 28.098
 c 89.371 28.098 89.637 27.941 89.855 27.582 c 89.777 27.504 l 89.621 27.676
 89.512 27.738 89.355 27.738 c 89.09 27.738 88.996 27.551 88.996 27.113 
c 88.996 25.129 l 89.699 25.129 l h
89.699 24.895 m f
65.629 57.867 m 69.309 56.555 l 65.629 55.238 l 67.098 56.555 l f
q 1 0 0 -1 0 0 cm
55.133 -56.555 m 67.098 -56.555 l S Q
76.23 54.828 m 76.23 54.609 76.027 54.5 75.855 54.5 c 75.402 54.5 74.824
 55.172 74.387 55.875 c 74.371 55.875 74.309 55.578 74.309 55.578 c 74.168
 54.984 73.996 54.641 73.684 54.5 c 73.684 54.5 72.668 54.703 72.543 54.75
 c 72.543 54.906 l 72.73 54.859 72.871 54.828 72.965 54.828 c 73.465 54.828
 73.543 55.312 73.887 56.609 c 73.48 57.203 72.84 58.203 72.59 58.203 c 
72.387 58.203 72.371 57.984 72.09 57.984 c 71.902 57.984 71.762 58.125 71.762
 58.312 c 71.762 58.547 71.934 58.703 72.184 58.703 c 72.824 58.703 73.402
 57.578 73.949 56.875 c 73.98 56.938 74.184 57.734 74.184 57.734 c 74.402
 58.562 74.574 58.703 74.793 58.703 c 75.074 58.703 75.496 58.422 75.918
 57.641 c 75.793 57.562 l 75.637 57.766 75.387 58.188 75.152 58.188 c 74.84
 58.188 74.668 56.922 74.449 56.125 c 74.496 56.047 75.121 55.047 75.449
 55.047 c 75.621 55.047 75.777 55.188 75.934 55.188 c 76.152 55.188 76.23
 55 76.23 54.828 c h
76.23 54.828 m f
Q q
15.953 16.074 6.297 6.18 re W n
q
15 16 8 7 re W n
  q
0 g
0.0566575 w
2 J
0 j
[] 0.0 d
10 M q 1 0 0 -1 0 0 cm
30.758 -17.152 m 17.148 -30.758 l S Q
  Q
Q
Q q
12.953 13.074 m 22.25 13.074 l 22.25 15.449 l 12.953 15.449 l h
12.953 15.449 m 22.25 15.449 l 22.25 22.254 l 12.953 22.254 l h
12.953 15.449 m W n
q
12 13 11 10 re W n
  q
0 g
0.0566575 w
2 J
0 j
[] 0.0 d
10 M q 1 0 0 -1 0 0 cm
28.355 -14.75 m 14.75 -28.355 l S Q
  Q
Q
Q q
10.953 11.074 m 22.25 11.074 l 22.25 15.449 l 10.953 15.449 l h
10.953 15.449 m 22.25 15.449 l 22.25 22.254 l 10.953 22.254 l h
10.953 15.449 m W n
q
10 11 13 12 re W n
  q
0 g
0.0566575 w
2 J
0 j
[] 0.0 d
10 M q 1 0 0 -1 0 0 cm
25.957 -12.352 m 12.348 -25.957 l S Q
  Q
Q
Q q
8.953 9.074 m 22.25 9.074 l 22.25 15.449 l 8.953 15.449 l h
8.953 15.449 m 22.25 15.449 l 22.25 22.254 l 8.953 22.254 l h
8.953 15.449 m W n
q
8 9 15 14 re W n
  q
0 g
0.0566575 w
2 J
0 j
[] 0.0 d
10 M q 1 0 0 -1 0 0 cm
23.555 -9.953 m 9.949 -23.559 l S Q
  Q
Q
Q q
8.645 8.648 m 22.25 8.648 l 22.25 15.449 l 8.645 15.449 l h
8.645 15.449 m 22.25 15.449 l 22.25 22.074 l 8.645 22.074 l h
8.645 15.449 m W n
q
8 8 15 15 re W n
  q
0 g
0.0566575 w
2 J
0 j
[] 0.0 d
10 M q 1 0 0 -1 0 0 cm
21.156 -7.551 m 7.551 -21.156 l S Q
  Q
Q
Q q
8.645 8.648 m 19.953 8.648 l 19.953 15.449 l 8.645 15.449 l h
8.645 15.449 m 19.953 15.449 l 19.953 20.074 l 8.645 20.074 l h
8.645 15.449 m W n
q
8 8 12 13 re W n
  q
0 g
0.0566575 w
2 J
0 j
[] 0.0 d
10 M q 1 0 0 -1 0 0 cm
18.758 -5.152 m 5.148 -18.758 l S Q
  Q
Q
Q q
8.645 8.648 m 17.953 8.648 l 17.953 15.449 l 8.645 15.449 l h
8.645 15.449 m 17.953 15.449 l 17.953 18.074 l 8.645 18.074 l h
8.645 15.449 m W n
q
8 8 10 11 re W n
  q
0 g
0.0566575 w
2 J
0 j
[] 0.0 d
10 M q 1 0 0 -1 0 0 cm
16.355 -2.75 m 2.75 -16.355 l S Q
  Q
Q
Q q
8.645 8.648 6.309 6.426 re W n
q
8 8 7 8 re W n
  q
0 g
0.0566575 w
2 J
0 j
[] 0.0 d
10 M q 1 0 0 -1 0 0 cm
13.957 -0.352 m 0.348 -13.957 l S Q
  Q
Q
Q q
40.953 35.074 m 54.852 35.074 l 54.852 36.566 l 40.953 36.566 l h
40.953 36.566 m 54.852 36.566 l 54.852 41.812 l 40.953 41.812 l h
40.953 36.566 m W n
q
40 35 15 7 re W n
  q
0 g
0.0566575 w
2 J
0 j
[] 0.0 d
10 M q 1 0 0 -1 0 0 cm
59.719 -36.191 m 42.711 -53.199 l S Q
  Q
Q
Q q
38.953 32.074 m 54.852 32.074 l 54.852 36.566 l 38.953 36.566 l h
38.953 36.566 m 54.852 36.566 l 54.852 41.812 l 38.953 41.812 l h
38.953 36.566 m W n
q
38 32 17 10 re W n
  q
0 g
0.0566575 w
2 J
0 j
[] 0.0 d
10 M q 1 0 0 -1 0 0 cm
57.316 -33.789 m 40.309 -50.797 l S Q
  Q
Q
Q q
36.953 31.324 m 54.852 31.324 l 54.852 36.566 l 36.953 36.566 l h
36.953 36.566 m 54.852 36.566 l 54.852 41.812 l 36.953 41.812 l h
36.953 36.566 m W n
q
36 31 19 11 re W n
  q
0 g
0.0566575 w
2 J
0 j
[] 0.0 d
10 M q 1 0 0 -1 0 0 cm
54.918 -31.391 m 37.91 -48.398 l S Q
  Q
Q
Q q
33.953 31.324 m 53.953 31.324 l 53.953 36.566 l 33.953 36.566 l h
33.953 36.566 m 53.953 36.566 l 53.953 41.812 l 33.953 41.812 l h
33.953 36.566 m W n
q
33 31 21 11 re W n
  q
0 g
0.0566575 w
2 J
0 j
[] 0.0 d
10 M q 1 0 0 -1 0 0 cm
52.516 -28.988 m 35.508 -45.996 l S Q
  Q
Q
Q q
31.953 31.324 m 50.953 31.324 l 50.953 36.566 l 31.953 36.566 l h
31.953 36.566 m 50.953 36.566 l 50.953 41.812 l 31.953 41.812 l h
31.953 36.566 m W n
q
31 31 20 11 re W n
  q
0 g
0.0566575 w
2 J
0 j
[] 0.0 d
10 M q 1 0 0 -1 0 0 cm
50.117 -26.59 m 33.109 -43.598 l S Q
  Q
Q
Q q
31.324 31.324 m 48.953 31.324 l 48.953 36.566 l 31.324 36.566 l h
31.324 36.566 m 48.953 36.566 l 48.953 41.812 l 31.324 41.812 l h
31.324 36.566 m W n
q
31 31 18 11 re W n
  q
0 g
0.0566575 w
2 J
0 j
[] 0.0 d
10 M q 1 0 0 -1 0 0 cm
47.719 -24.191 m 30.711 -41.199 l S Q
  Q
Q
Q q
31.324 31.324 m 46.953 31.324 l 46.953 36.566 l 31.324 36.566 l h
31.324 36.566 m 46.953 36.566 l 46.953 40.074 l 31.324 40.074 l h
31.324 36.566 m W n
q
31 31 16 10 re W n
  q
0 g
0.0566575 w
2 J
0 j
[] 0.0 d
10 M q 1 0 0 -1 0 0 cm
45.316 -21.789 m 28.309 -38.797 l S Q
  Q
Q
Q q
31.324 31.324 m 43.953 31.324 l 43.953 36.566 l 31.324 36.566 l h
31.324 36.566 m 43.953 36.566 l 43.953 38.074 l 31.324 38.074 l h
31.324 36.566 m W n
q
31 31 13 8 re W n
  q
0 g
0.0566575 w
2 J
0 j
[] 0.0 d
10 M q 1 0 0 -1 0 0 cm
42.918 -19.391 m 25.91 -36.398 l S Q
  Q
Q
Q Q
showpage
%%Trailer
end
%%EOF
