%!PS-Adobe-3.0 EPSF-3.0
%%Creator: cairo 1.17.4 (https://cairographics.org)
%%CreationDate: Thu Feb 24 10:47:51 2022
%%Pages: 1
%%DocumentData: Clean7Bit
%%LanguageLevel: 2
%%BoundingBox: 0 0 151 104
%%EndComments
%%BeginProlog
50 dict begin
/q { gsave } bind def
/Q { grestore } bind def
/cm { 6 array astore concat } bind def
/w { setlinewidth } bind def
/J { setlinecap } bind def
/j { setlinejoin } bind def
/M { setmiterlimit } bind def
/d { setdash } bind def
/m { moveto } bind def
/l { lineto } bind def
/c { curveto } bind def
/h { closepath } bind def
/re { exch dup neg 3 1 roll 5 3 roll moveto 0 rlineto
      0 exch rlineto 0 rlineto closepath } bind def
/S { stroke } bind def
/f { fill } bind def
/f* { eofill } bind def
/n { newpath } bind def
/W { clip } bind def
/W* { eoclip } bind def
/BT { } bind def
/ET { } bind def
/BDC { mark 3 1 roll /BDC pdfmark } bind def
/EMC { mark /EMC pdfmark } bind def
/cairo_store_point { /cairo_point_y exch def /cairo_point_x exch def } def
/Tj { show currentpoint cairo_store_point } bind def
/TJ {
  {
    dup
    type /stringtype eq
    { show } { -0.001 mul 0 cairo_font_matrix dtransform rmoveto } ifelse
  } forall
  currentpoint cairo_store_point
} bind def
/cairo_selectfont { cairo_font_matrix aload pop pop pop 0 0 6 array astore
    cairo_font exch selectfont cairo_point_x cairo_point_y moveto } bind def
/Tf { pop /cairo_font exch def /cairo_font_matrix where
      { pop cairo_selectfont } if } bind def
/Td { matrix translate cairo_font_matrix matrix concatmatrix dup
      /cairo_font_matrix exch def dup 4 get exch 5 get cairo_store_point
      /cairo_font where { pop cairo_selectfont } if } bind def
/Tm { 2 copy 8 2 roll 6 array astore /cairo_font_matrix exch def
      cairo_store_point /cairo_font where { pop cairo_selectfont } if } bind def
/g { setgray } bind def
/rg { setrgbcolor } bind def
/d1 { setcachedevice } bind def
/cairo_data_source {
  CairoDataIndex CairoData length lt
    { CairoData CairoDataIndex get /CairoDataIndex CairoDataIndex 1 add def }
    { () } ifelse
} def
/cairo_flush_ascii85_file { cairo_ascii85_file status { cairo_ascii85_file flushfile } if } def
/cairo_image { image cairo_flush_ascii85_file } def
/cairo_imagemask { imagemask cairo_flush_ascii85_file } def
%%EndProlog
%%BeginSetup
%%EndSetup
%%Page: 1 1
%%BeginPageSetup
%%PageBoundingBox: 0 0 151 104
%%EndPageSetup
q 0 0 151 104 rectclip
1 0 0 -1 0 104 cm q
0 g
1.13366 w
0 J
0 j
[] 0.0 d
10 M q 1 0 0 -1 0 0 cm
2.527 -100.238 m 2.527 -100.238 4.02 -100.238 4.785 -100.238 c 5.582 -100.238
 6.277 -100.238 7.039 -100.238 c 7.84 -100.238 8.535 -100.238 9.332 -100.238
 c 10.098 -100.238 10.793 -100.238 11.59 -100.238 c 12.391 -100.238 13.082
 -100.238 13.848 -100.238 c 14.645 -100.238 15.34 -100.238 16.141 -100.238
 c 16.902 -100.203 17.598 -100.203 18.398 -100.133 c 19.16 -100.098 19.891
 -100.031 20.652 -99.926 c 21.453 -99.82 22.148 -99.719 22.91 -99.508 c 
23.711 -99.336 24.438 -99.125 25.203 -98.848 c 26.004 -98.57 26.695 -98.258
 27.461 -97.91 c 28.258 -97.496 28.988 -97.113 29.719 -96.625 c 30.551 -96.105
 31.246 -95.621 32.008 -95.027 c 32.809 -94.438 33.504 -93.848 34.266 -93.188
 c 35.066 -92.461 35.762 -91.801 36.523 -91.07 c 37.324 -90.27 38.016 -89.578
 38.816 -88.742 c 39.613 -87.91 40.309 -87.145 41.074 -86.277 c 41.871 -85.375
 42.566 -84.574 43.332 -83.672 c 44.129 -82.77 44.824 -81.938 45.621 -81
 c 46.387 -80.062 47.082 -79.195 47.879 -78.254 c 48.645 -77.316 49.375 
-76.449 50.137 -75.512 c 50.938 -74.539 51.629 -73.707 52.395 -72.77 c 53.191
 -71.797 53.887 -70.965 54.688 -70.027 c 55.449 -69.086 56.145 -68.254 56.945
 -67.352 c 57.707 -66.449 58.438 -65.613 59.199 -64.711 c 60 -63.844 60.695
 -63.047 61.492 -62.176 c 62.258 -61.309 62.953 -60.547 63.75 -59.676 c 
64.516 -58.844 65.207 -58.113 66.008 -57.281 c 66.805 -56.48 67.5 -55.754
 68.301 -54.953 c 69.062 -54.156 69.758 -53.496 70.559 -52.73 c 71.32 -51.969
 72.016 -51.309 72.812 -50.578 c 73.578 -49.848 74.309 -49.188 75.07 -48.496
 c 75.871 -47.801 76.566 -47.211 77.363 -46.516 c 78.129 -45.855 78.82 -45.266
 79.621 -44.641 c 80.383 -43.98 81.113 -43.426 81.879 -42.801 c 82.676 -42.211
 83.371 -41.652 84.168 -41.062 c 84.934 -40.508 85.629 -39.988 86.426 -39.43
 c 87.191 -38.875 87.922 -38.391 88.684 -37.832 c 89.484 -37.312 90.176 
-36.828 90.977 -36.305 c 91.738 -35.82 92.434 -35.367 93.234 -34.883 c 93.996
 -34.395 94.691 -33.98 95.492 -33.492 c 96.289 -33.043 96.984 -32.625 97.746
 -32.172 c 98.547 -31.723 99.242 -31.34 100.039 -30.922 c 100.805 -30.508
 101.5 -30.125 102.297 -29.707 c 103.062 -29.289 103.789 -28.945 104.555
 -28.562 c 105.352 -28.18 106.047 -27.832 106.848 -27.449 c 107.609 -27.102
 108.305 -26.754 109.105 -26.41 c 109.867 -26.062 110.598 -25.75 111.359
 -25.402 c 112.16 -25.09 112.855 -24.777 113.652 -24.465 c 114.418 -24.117
 115.113 -23.84 115.91 -23.527 c 116.676 -23.215 117.402 -22.938 118.168
 -22.656 c 118.965 -22.344 119.66 -22.102 120.426 -21.824 c 121.223 -21.547
 121.918 -21.27 122.715 -20.992 c 123.48 -20.746 124.176 -20.504 124.973
 -20.227 c 125.773 -19.984 126.469 -19.742 127.23 -19.496 c 128.031 -19.254
 128.723 -19.047 129.523 -18.805 c 130.289 -18.559 130.98 -18.352 131.781
 -18.109 c 132.543 -17.867 133.273 -17.691 134.039 -17.449 c 134.836 -17.242
 135.531 -17.031 136.328 -16.824 c 137.094 -16.617 138.586 -16.234 138.586
 -16.234 c S Q
q 1 0 0 -1 0 0 cm
2.512 -100.258 m 5.941 -100.258 l 8.227 -100.258 m 11.652 -100.258 l 13.938
 -100.258 m 15.926 -100.258 l 16.098 -100.223 l 16.305 -100.223 l 17.363
 -100.203 l 19.645 -100.109 m 20.453 -100.051 l 20.664 -100.051 l 20.836
 -100.016 l 22.738 -99.773 l 22.91 -99.738 l 23.047 -99.715 l 25.289 -99.273
 m 25.398 -99.254 l 26.332 -98.977 l 27.266 -98.668 l 27.438 -98.598 l 27.645
 -98.527 l 28.547 -98.207 l 30.637 -97.289 m 30.859 -97.18 l 31.793 -96.695
 l 32.004 -96.625 l 32.176 -96.488 l 33.145 -95.969 l 33.648 -95.672 l 35.586
 -94.457 m 36.324 -93.965 l 36.531 -93.828 l 36.738 -93.688 l 37.672 -93.031
 l 38.395 -92.496 l 40.215 -91.113 m 40.852 -90.645 l 41.059 -90.473 l 41.266
 -90.336 l 42.91 -88.996 l 44.676 -87.551 m 45.418 -86.945 l 45.59 -86.773
 l 45.797 -86.602 l 46.73 -85.84 l 47.305 -85.352 l 49.047 -83.871 m 49.945
 -83.109 l 50.117 -82.938 l 50.324 -82.762 l 51.258 -81.969 l 51.645 -81.637
 l 53.406 -80.18 m 53.539 -80.066 l 54.473 -79.273 l 54.68 -79.098 l 54.855
 -78.926 l 55.789 -78.164 l 56.023 -77.973 l 57.793 -76.523 m 58.07 -76.297
 l 59.004 -75.539 l 59.211 -75.398 l 59.383 -75.227 l 60.316 -74.5 l 60.465
 -74.383 l 62.277 -72.988 m 63.531 -72.012 l 63.738 -71.875 l 63.945 -71.699
 l 65.004 -70.914 l 66.844 -69.559 m 67.129 -69.348 l 68.062 -68.691 l 68.27
 -68.555 l 68.477 -68.414 l 69.648 -67.59 l 71.543 -66.312 m 71.656 -66.238
 l 72.625 -65.617 l 72.797 -65.477 l 73.004 -65.34 l 73.938 -64.75 l 74.418
 -64.449 l 76.359 -63.25 m 77.152 -62.781 l 77.328 -62.641 l 77.535 -62.539
 l 78.469 -61.984 l 79.301 -61.492 l 81.289 -60.371 m 81.684 -60.152 l 81.891
 -60.051 l 82.062 -59.945 l 82.996 -59.426 l 83.965 -58.941 l 84.137 -58.84
 l 84.312 -58.75 l 86.344 -57.703 m 86.418 -57.664 l 86.625 -57.594 l 88.492
 -56.66 l 88.664 -56.559 l 88.875 -56.488 l 89.43 -56.223 l 91.504 -55.266
 m 93.023 -54.586 l 93.23 -54.484 l 93.402 -54.414 l 94.645 -53.895 l 96.75
 -53.012 m 97.551 -52.684 l 97.758 -52.617 l 97.93 -52.512 l 99.832 -51.785
 l 99.934 -51.746 l 102.078 -50.957 m 102.289 -50.887 l 102.496 -50.82 l
 104.363 -50.16 l 104.57 -50.094 l 104.742 -50.023 l 105.312 -49.828 l 107.473
 -49.086 m 108.891 -48.641 l 109.098 -48.57 l 109.27 -48.504 l 110.742 -48.047
 l 112.934 -47.402 m 113.418 -47.258 l 113.629 -47.188 l 113.836 -47.152
 l 115.703 -46.602 l 115.91 -46.566 l 116.082 -46.496 l 116.223 -46.457 
l 118.43 -45.859 m 120.23 -45.391 l 120.438 -45.355 l 120.609 -45.285 l 
121.746 -45.016 l 123.969 -44.477 m 124.758 -44.285 l 124.969 -44.25 l 125.176
 -44.215 l 127.043 -43.766 l 127.25 -43.73 l 127.309 -43.719 l 129.543 -43.238
 m 129.703 -43.211 l 131.57 -42.797 l 131.777 -42.762 l 131.949 -42.734 
l 132.898 -42.543 l 135.141 -42.098 m 136.098 -41.902 l 136.305 -41.867 
l 136.48 -41.832 l 137 -41.727 l 137.723 -41.59 l 138.312 -41.488 l 138.512
 -41.465 l S Q
0.850362 w
q 1 0 0 -1 0 0 cm
115.887 -23.535 m 115.887 -46.566 l 77.352 -46.566 l S Q
113.719 30.887 m 115.898 36.949 l 118.047 30.887 l 115.898 33.312 l f
100.867 44.383 m 94.82 46.559 l 100.867 48.703 l 98.449 46.559 l f
1 g
118.012 23.586 m 118.012 22.41 117.059 21.457 115.883 21.457 c 114.707 
21.457 113.754 22.41 113.754 23.586 c 113.754 24.762 114.707 25.715 115.883
 25.715 c 117.059 25.715 118.012 24.762 118.012 23.586 c f
0 g
118.012 23.586 m 118.012 22.41 117.059 21.457 115.883 21.457 c 114.707 
21.457 113.754 22.41 113.754 23.586 c 113.754 24.762 114.707 25.715 115.883
 25.715 c 117.059 25.715 118.012 24.762 118.012 23.586 c h
118.012 23.586 m 117.801 23.586 l 117.801 22.527 116.941 21.668 115.883
 21.668 c 114.824 21.668 113.965 22.527 113.965 23.586 c 113.965 24.645 
114.824 25.504 115.883 25.504 c 116.941 25.504 117.801 24.645 117.801 23.586
 c f
1 g
118.012 46.586 m 118.012 45.41 117.059 44.457 115.883 44.457 c 114.707 
44.457 113.754 45.41 113.754 46.586 c 113.754 47.762 114.707 48.715 115.883
 48.715 c 117.059 48.715 118.012 47.762 118.012 46.586 c f
0 g
118.012 46.586 m 118.012 45.41 117.059 44.457 115.883 44.457 c 114.707 
44.457 113.754 45.41 113.754 46.586 c 113.754 47.762 114.707 48.715 115.883
 48.715 c 117.059 48.715 118.012 47.762 118.012 46.586 c h
118.012 46.586 m 117.801 46.586 l 117.801 45.527 116.941 44.668 115.883
 44.668 c 114.824 44.668 113.965 45.527 113.965 46.586 c 113.965 47.645 
114.824 48.504 115.883 48.504 c 116.941 48.504 117.801 47.645 117.801 46.586
 c f
1 g
79.512 46.586 m 79.512 45.41 78.559 44.457 77.383 44.457 c 76.207 44.457
 75.254 45.41 75.254 46.586 c 75.254 47.762 76.207 48.715 77.383 48.715 
c 78.559 48.715 79.512 47.762 79.512 46.586 c f
0 g
79.512 46.586 m 79.512 45.41 78.559 44.457 77.383 44.457 c 76.207 44.457
 75.254 45.41 75.254 46.586 c 75.254 47.762 76.207 48.715 77.383 48.715 
c 78.559 48.715 79.512 47.762 79.512 46.586 c h
79.512 46.586 m 79.301 46.586 l 79.301 45.527 78.441 44.668 77.383 44.668
 c 76.324 44.668 75.465 45.527 75.465 46.586 c 75.465 47.645 76.324 48.504
 77.383 48.504 c 78.441 48.504 79.301 47.645 79.301 46.586 c f
125.707 36.867 m 125.301 36.836 125.223 36.758 124.91 36.086 c 122.676 
30.992 l 122.488 30.992 l 120.629 35.398 l 120.051 36.711 119.941 36.852
 119.52 36.867 c 119.52 37.039 l 121.285 37.039 l 121.285 36.867 l 120.863
 36.867 120.676 36.758 120.676 36.508 c 120.676 36.398 120.707 36.273 120.754
 36.148 c 121.16 35.102 l 123.52 35.102 l 123.879 35.961 l 123.988 36.211
 124.051 36.445 124.051 36.57 c 124.051 36.789 123.895 36.867 123.426 36.867
 c 123.426 37.039 l 125.707 37.039 l h
121.316 34.727 m 122.348 32.273 l 123.395 34.727 l h
121.316 34.727 m f
96.047 37.066 m 96.797 37.113 96.891 37.207 96.906 37.879 c 96.906 41.848
 l 96.891 42.52 96.781 42.629 96.047 42.66 c 96.047 42.832 l 99.031 42.832
 l 99.734 42.832 100.375 42.645 100.703 42.332 c 101.031 42.051 101.203 
41.645 101.203 41.223 c 101.203 40.816 101.062 40.457 100.766 40.207 c 100.5
 39.957 100.266 39.848 99.672 39.707 c 100.141 39.598 100.328 39.504 100.547
 39.316 c 100.766 39.113 100.906 38.801 100.906 38.426 c 100.906 37.41 100.094
 36.895 98.547 36.895 c 96.047 36.895 l h
97.812 39.91 m 98.688 39.91 99.094 39.957 99.422 40.098 c 99.938 40.301
 100.172 40.676 100.172 41.223 c 100.172 41.707 99.984 42.066 99.625 42.27
 c 99.344 42.426 98.969 42.504 98.391 42.504 c 97.938 42.504 97.812 42.426
 97.812 42.129 c h
97.812 39.551 m 97.812 37.488 l 97.828 37.301 97.859 37.238 98.016 37.238
 c 98.406 37.223 l 99.406 37.207 99.984 37.66 99.984 38.457 c 99.984 39.16
 99.531 39.535 98.672 39.551 c h
97.812 39.551 m f
3.809 13.234 m 2.52 9.551 l 1.199 13.234 l 2.52 11.777 l f
134.91 101.574 m 138.57 100.238 l 134.91 98.941 l 136.379 100.238 l f
0.567044 w
q 1 0 0 -1 0 0 cm
2.504 -11.75 m 2.504 -100.234 l 136.379 -100.234 l S Q
150.504 97.207 m 145.488 97.207 l 145.066 98.738 l 145.238 98.738 l 145.613
 97.754 146.082 97.535 146.863 97.535 c 146.863 97.535 147.379 97.535 147.488
 97.535 c 146.191 102.207 l 145.941 103.113 145.629 103.098 145.27 103.098
 c 145.254 103.254 l 147.613 103.254 l 147.645 103.098 l 147.301 103.098
 146.957 103.113 146.957 102.66 c 146.957 102.535 146.988 102.395 147.035
 102.207 c 148.316 97.535 l 149.066 97.535 l 149.504 97.535 149.973 97.598
 149.973 98.223 c 149.973 98.363 149.957 98.52 149.91 98.738 c 150.082 98.738
 l h
150.504 97.207 m f
4.812 0 m 4.625 0 l 4.516 0.203 4.391 0.297 4.203 0.297 c 3.906 0.297 3.531
 0 2.844 0 c 1.953 0 1.109 0.578 1.109 1.547 c 1.109 2.906 3.203 3.562 3.203
 4.812 c 3.203 5.375 2.75 6.016 1.953 6.016 c 1.266 6.016 0.531 5.469 0.531
 4.5 c 0.531 4.344 0.547 4.25 0.562 4.156 c 0.391 4.156 l 0 6.297 l 0.156
 6.297 l 0.25 6.125 0.344 5.953 0.578 5.953 c 0.859 5.953 1.406 6.328 2.094
 6.328 c 3.406 6.328 4.047 5.391 4.047 4.531 c 4.047 3.062 1.922 2.359 1.922
 1.234 c 1.922 0.688 2.359 0.312 2.953 0.312 c 3.688 0.312 4.25 0.812 4.266
 1.547 c 4.266 1.688 4.266 1.797 4.25 1.906 c 4.406 1.906 l h
4.812 0 m f
Q Q
showpage
%%Trailer
end
%%EOF
