%!PS-Adobe-3.0 EPSF-3.0
%%Creator: cairo 1.17.4 (https://cairographics.org)
%%CreationDate: Thu Feb 24 10:47:52 2022
%%Pages: 1
%%DocumentData: Clean7Bit
%%LanguageLevel: 2
%%BoundingBox: 0 0 203 197
%%EndComments
%%BeginProlog
50 dict begin
/q { gsave } bind def
/Q { grestore } bind def
/cm { 6 array astore concat } bind def
/w { setlinewidth } bind def
/J { setlinecap } bind def
/j { setlinejoin } bind def
/M { setmiterlimit } bind def
/d { setdash } bind def
/m { moveto } bind def
/l { lineto } bind def
/c { curveto } bind def
/h { closepath } bind def
/re { exch dup neg 3 1 roll 5 3 roll moveto 0 rlineto
      0 exch rlineto 0 rlineto closepath } bind def
/S { stroke } bind def
/f { fill } bind def
/f* { eofill } bind def
/n { newpath } bind def
/W { clip } bind def
/W* { eoclip } bind def
/BT { } bind def
/ET { } bind def
/BDC { mark 3 1 roll /BDC pdfmark } bind def
/EMC { mark /EMC pdfmark } bind def
/cairo_store_point { /cairo_point_y exch def /cairo_point_x exch def } def
/Tj { show currentpoint cairo_store_point } bind def
/TJ {
  {
    dup
    type /stringtype eq
    { show } { -0.001 mul 0 cairo_font_matrix dtransform rmoveto } ifelse
  } forall
  currentpoint cairo_store_point
} bind def
/cairo_selectfont { cairo_font_matrix aload pop pop pop 0 0 6 array astore
    cairo_font exch selectfont cairo_point_x cairo_point_y moveto } bind def
/Tf { pop /cairo_font exch def /cairo_font_matrix where
      { pop cairo_selectfont } if } bind def
/Td { matrix translate cairo_font_matrix matrix concatmatrix dup
      /cairo_font_matrix exch def dup 4 get exch 5 get cairo_store_point
      /cairo_font where { pop cairo_selectfont } if } bind def
/Tm { 2 copy 8 2 roll 6 array astore /cairo_font_matrix exch def
      cairo_store_point /cairo_font where { pop cairo_selectfont } if } bind def
/g { setgray } bind def
/rg { setrgbcolor } bind def
/d1 { setcachedevice } bind def
/cairo_data_source {
  CairoDataIndex CairoData length lt
    { CairoData CairoDataIndex get /CairoDataIndex CairoDataIndex 1 add def }
    { () } ifelse
} def
/cairo_flush_ascii85_file { cairo_ascii85_file status { cairo_ascii85_file flushfile } if } def
/cairo_image { image cairo_flush_ascii85_file } def
/cairo_imagemask { imagemask cairo_flush_ascii85_file } def
%%EndProlog
%%BeginSetup
%%EndSetup
%%Page: 1 1
%%BeginPageSetup
%%PageBoundingBox: 0 0 203 197
%%EndPageSetup
q 0 0 203 197 rectclip
1 0 0 -1 0 197 cm q
0 g
0.567041 w
0 J
0 j
[] 0.0 d
10 M q 1 0 0 -1 0 0 cm
27.492 -2.996 170.086 -170.086 re S Q
0.398505 w
q 1 0 0 -1 0 0 cm
27.492 -173.086 m 27.492 -168.832 l S Q
q 1 0 0 -1 0 0 cm
55.844 -173.086 m 55.844 -168.832 l S Q
q 1 0 0 -1 0 0 cm
84.195 -173.086 m 84.195 -168.832 l S Q
q 1 0 0 -1 0 0 cm
112.547 -173.086 m 112.547 -168.832 l S Q
q 1 0 0 -1 0 0 cm
140.863 -173.086 m 140.863 -168.832 l S Q
q 1 0 0 -1 0 0 cm
169.215 -173.086 m 169.215 -168.832 l S Q
q 1 0 0 -1 0 0 cm
197.566 -173.086 m 197.566 -168.832 l S Q
q 1 0 0 -1 0 0 cm
27.492 -173.086 m 27.492 -168.832 l S Q
0.398507 w
q 1 0 0 -1 0 0 cm
27.492 -173.086 m 31.742 -173.086 l S Q
0.398504 w
q 1 0 0 -1 0 0 cm
27.496 -144.742 m 31.734 -144.742 l S Q
q 1 0 0 -1 0 0 cm
27.504 -116.395 m 31.73 -116.395 l S Q
0.398507 w
q 1 0 0 -1 0 0 cm
27.48 -88.051 m 31.727 -88.051 l S Q
0.398508 w
q 1 0 0 -1 0 0 cm
27.48 -59.688 m 31.75 -59.688 l S Q
q 1 0 0 -1 0 0 cm
27.512 -31.344 m 31.734 -31.344 l S Q
0.398505 w
q 1 0 0 -1 0 0 cm
27.492 -2.996 m 31.734 -2.996 l S Q
0.398507 w
q 1 0 0 -1 0 0 cm
27.492 -173.086 m 31.742 -173.086 l S Q
0.398505 w
q 1 0 0 -1 0 0 cm
27.492 -2.996 m 27.492 -7.238 l S Q
q 1 0 0 -1 0 0 cm
55.828 -2.996 m 55.828 -7.238 l S Q
q 1 0 0 -1 0 0 cm
84.199 -2.996 m 84.199 -7.238 l S Q
q 1 0 0 -1 0 0 cm
112.535 -2.996 m 112.535 -7.238 l S Q
q 1 0 0 -1 0 0 cm
140.871 -2.996 m 140.871 -7.238 l S Q
q 1 0 0 -1 0 0 cm
169.242 -2.996 m 169.242 -7.238 l S Q
q 1 0 0 -1 0 0 cm
197.578 -2.996 m 197.578 -7.238 l S Q
q 1 0 0 -1 0 0 cm
27.492 -2.996 m 27.492 -7.238 l S Q
0.398507 w
q 1 0 0 -1 0 0 cm
197.566 -173.086 m 193.316 -173.086 l S Q
0.398504 w
q 1 0 0 -1 0 0 cm
197.566 -144.742 m 193.332 -144.742 l S Q
q 1 0 0 -1 0 0 cm
197.562 -116.395 m 193.301 -116.395 l S Q
0.398507 w
q 1 0 0 -1 0 0 cm
197.551 -88.051 m 193.301 -88.051 l S Q
0.398508 w
q 1 0 0 -1 0 0 cm
197.586 -59.688 m 193.32 -59.688 l S Q
q 1 0 0 -1 0 0 cm
197.578 -31.344 m 193.324 -31.344 l S Q
0.398505 w
q 1 0 0 -1 0 0 cm
197.578 -2.996 m 193.336 -2.996 l S Q
0.398507 w
q 1 0 0 -1 0 0 cm
197.566 -173.086 m 193.316 -173.086 l S Q
25.879 181.41 m 25.723 181.379 l 25.457 181.832 25.238 181.91 24.801 181.91
 c 22.738 181.91 l 24.16 180.613 25.457 179.441 25.457 178.129 c 25.457 
177.207 24.66 176.551 23.785 176.551 c 22.926 176.551 22.238 177.02 21.973
 178.238 c 22.176 178.238 l 22.426 177.738 22.77 177.223 23.457 177.223 
c 24.238 177.223 24.676 177.816 24.676 178.488 c 24.676 179.457 23.645 180.879
 21.879 182.426 c 21.879 182.566 l 25.41 182.566 l h
25.879 181.41 m f
28.133 182.191 m 28.133 181.91 27.914 181.691 27.633 181.691 c 27.352 181.691
 27.133 181.91 27.133 182.191 c 27.133 182.473 27.352 182.691 27.633 182.691
 c 27.914 182.691 28.133 182.473 28.133 182.191 c h
28.133 182.191 m f
32.984 176.645 m 30.516 176.645 l 29.406 179.191 l 29.547 179.16 29.688
 179.129 29.859 179.129 c 30.812 179.129 32.109 179.629 32.109 180.801 c
 32.109 181.707 31.453 182.285 30.828 182.285 c 30.281 182.285 30.078 181.785
 29.562 181.785 c 29.312 181.785 29.234 182.004 29.234 182.113 c 29.234 
182.426 29.672 182.676 30.297 182.676 c 31.641 182.676 32.703 181.691 32.703
 180.488 c 32.703 179.066 31.578 178.582 30.359 178.551 c 30.25 178.551 
30.125 178.566 30.016 178.582 c 30.578 177.316 l 32.672 177.301 l h
32.984 176.645 m f
54.062 180.629 m 54.062 179.691 53.516 179.285 52.984 179.066 c 53.562 
178.629 53.75 178.223 53.75 177.738 c 53.75 177.223 53.328 176.551 52.359
 176.551 c 51.656 176.551 50.984 176.941 50.688 177.91 c 50.828 177.941 
l 51.016 177.582 51.375 177.129 52.031 177.129 c 52.672 177.129 53.047 177.566
 53.047 178.066 c 53.047 178.77 52.5 179.27 51.688 179.457 c 51.672 179.645
 l 53.062 179.582 53.406 180.488 53.406 181.051 c 53.406 181.723 52.922 
182.332 52.281 182.332 c 51.703 182.332 51.453 181.832 50.969 181.832 c 
50.812 181.832 50.625 181.988 50.625 182.191 c 50.625 182.566 51.188 182.676
 51.594 182.676 c 53.016 182.676 54.062 181.863 54.062 180.629 c h
54.062 180.629 m f
56.332 182.191 m 56.332 181.91 56.113 181.691 55.832 181.691 c 55.551 181.691
 55.332 181.91 55.332 182.191 c 55.332 182.473 55.551 182.691 55.832 182.691
 c 56.113 182.691 56.332 182.473 56.332 182.191 c h
56.332 182.191 m f
61.246 179.613 m 61.246 178.004 60.512 176.551 59.262 176.551 c 57.996 
176.551 57.262 178.004 57.262 179.613 c 57.262 181.238 57.949 182.676 59.262
 182.676 c 60.465 182.676 61.246 181.238 61.246 179.613 c h
60.387 179.613 m 60.387 180.91 60.262 182.426 59.262 182.426 c 58.309 182.426
 58.121 180.91 58.121 179.613 c 58.121 178.535 58.246 176.785 59.262 176.785
 c 60.262 176.785 60.387 178.535 60.387 179.613 c h
60.387 179.613 m f
82.383 180.629 m 82.383 179.691 81.836 179.285 81.305 179.066 c 81.883 
178.629 82.07 178.223 82.07 177.738 c 82.07 177.223 81.648 176.551 80.68
 176.551 c 79.977 176.551 79.305 176.941 79.008 177.91 c 79.148 177.941 
l 79.336 177.582 79.695 177.129 80.352 177.129 c 80.992 177.129 81.367 177.566
 81.367 178.066 c 81.367 178.77 80.82 179.27 80.008 179.457 c 79.992 179.645
 l 81.383 179.582 81.727 180.488 81.727 181.051 c 81.727 181.723 81.242 
182.332 80.602 182.332 c 80.023 182.332 79.773 181.832 79.289 181.832 c 
79.133 181.832 78.945 181.988 78.945 182.191 c 78.945 182.566 79.508 182.676
 79.914 182.676 c 81.336 182.676 82.383 181.863 82.383 180.629 c h
82.383 180.629 m f
84.652 182.191 m 84.652 181.91 84.434 181.691 84.152 181.691 c 83.871 181.691
 83.652 181.91 83.652 182.191 c 83.652 182.473 83.871 182.691 84.152 182.691
 c 84.434 182.691 84.652 182.473 84.652 182.191 c h
84.652 182.191 m f
89.504 176.645 m 87.035 176.645 l 85.926 179.191 l 86.066 179.16 86.207
 179.129 86.379 179.129 c 87.332 179.129 88.629 179.629 88.629 180.801 c
 88.629 181.707 87.973 182.285 87.348 182.285 c 86.801 182.285 86.598 181.785
 86.082 181.785 c 85.832 181.785 85.754 182.004 85.754 182.113 c 85.754 
182.426 86.191 182.676 86.816 182.676 c 88.16 182.676 89.223 181.691 89.223
 180.488 c 89.223 179.066 88.098 178.582 86.879 178.551 c 86.77 178.551 
86.645 178.566 86.535 178.582 c 87.098 177.316 l 89.191 177.301 l h
89.504 176.645 m f
110.941 181.082 m 110.941 180.473 l 110.066 180.473 l 110.066 176.551 l
 109.629 176.551 l 107.035 180.457 l 107.035 181.082 l 109.332 181.082 l
 109.332 182.566 l 110.066 182.566 l 110.066 181.082 l h
109.332 180.473 m 107.395 180.473 l 109.316 177.488 l 109.332 177.488 l
 h
109.332 180.473 m f
113.211 182.191 m 113.211 181.91 112.992 181.691 112.711 181.691 c 112.43
 181.691 112.211 181.91 112.211 182.191 c 112.211 182.473 112.43 182.691
 112.711 182.691 c 112.992 182.691 113.211 182.473 113.211 182.191 c h
113.211 182.191 m f
118.129 179.613 m 118.129 178.004 117.395 176.551 116.145 176.551 c 114.879
 176.551 114.145 178.004 114.145 179.613 c 114.145 181.238 114.832 182.676
 116.145 182.676 c 117.348 182.676 118.129 181.238 118.129 179.613 c h
117.27 179.613 m 117.27 180.91 117.145 182.426 116.145 182.426 c 115.191
 182.426 115.004 180.91 115.004 179.613 c 115.004 178.535 115.129 176.785
 116.145 176.785 c 117.145 176.785 117.27 178.535 117.27 179.613 c h
117.27 179.613 m f
139.262 181.082 m 139.262 180.473 l 138.387 180.473 l 138.387 176.551 l
 137.949 176.551 l 135.355 180.457 l 135.355 181.082 l 137.652 181.082 l
 137.652 182.566 l 138.387 182.566 l 138.387 181.082 l h
137.652 180.473 m 135.715 180.473 l 137.637 177.488 l 137.652 177.488 l
 h
137.652 180.473 m f
141.531 182.191 m 141.531 181.91 141.312 181.691 141.031 181.691 c 140.75
 181.691 140.531 181.91 140.531 182.191 c 140.531 182.473 140.75 182.691
 141.031 182.691 c 141.312 182.691 141.531 182.473 141.531 182.191 c h
141.531 182.191 m f
146.383 176.645 m 143.914 176.645 l 142.805 179.191 l 142.945 179.16 143.086
 179.129 143.258 179.129 c 144.211 179.129 145.508 179.629 145.508 180.801
 c 145.508 181.707 144.852 182.285 144.227 182.285 c 143.68 182.285 143.477
 181.785 142.961 181.785 c 142.711 181.785 142.633 182.004 142.633 182.113
 c 142.633 182.426 143.07 182.676 143.695 182.676 c 145.039 182.676 146.102
 181.691 146.102 180.488 c 146.102 179.066 144.977 178.582 143.758 178.551
 c 143.648 178.551 143.523 178.566 143.414 178.582 c 143.977 177.316 l 146.07
 177.301 l h
146.383 176.645 m f
167.746 176.645 m 165.277 176.645 l 164.168 179.191 l 164.309 179.16 164.449
 179.129 164.621 179.129 c 165.574 179.129 166.871 179.629 166.871 180.801
 c 166.871 181.707 166.215 182.285 165.59 182.285 c 165.043 182.285 164.84
 181.785 164.324 181.785 c 164.074 181.785 163.996 182.004 163.996 182.113
 c 163.996 182.426 164.434 182.676 165.059 182.676 c 166.402 182.676 167.465
 181.691 167.465 180.488 c 167.465 179.066 166.34 178.582 165.121 178.551
 c 165.012 178.551 164.887 178.566 164.777 178.582 c 165.34 177.316 l 167.434
 177.301 l h
167.746 176.645 m f
169.73 182.191 m 169.73 181.91 169.512 181.691 169.23 181.691 c 168.949
 181.691 168.73 181.91 168.73 182.191 c 168.73 182.473 168.949 182.691 169.23
 182.691 c 169.512 182.691 169.73 182.473 169.73 182.191 c h
169.73 182.191 m f
174.648 179.613 m 174.648 178.004 173.914 176.551 172.664 176.551 c 171.398
 176.551 170.664 178.004 170.664 179.613 c 170.664 181.238 171.352 182.676
 172.664 182.676 c 173.867 182.676 174.648 181.238 174.648 179.613 c h
173.789 179.613 m 173.789 180.91 173.664 182.426 172.664 182.426 c 171.711
 182.426 171.523 180.91 171.523 179.613 c 171.523 178.535 171.648 176.785
 172.664 176.785 c 173.664 176.785 173.789 178.535 173.789 179.613 c h
173.789 179.613 m f
196.062 176.645 m 193.594 176.645 l 192.484 179.191 l 192.625 179.16 192.766
 179.129 192.938 179.129 c 193.891 179.129 195.188 179.629 195.188 180.801
 c 195.188 181.707 194.531 182.285 193.906 182.285 c 193.359 182.285 193.156
 181.785 192.641 181.785 c 192.391 181.785 192.312 182.004 192.312 182.113
 c 192.312 182.426 192.75 182.676 193.375 182.676 c 194.719 182.676 195.781
 181.691 195.781 180.488 c 195.781 179.066 194.656 178.582 193.438 178.551
 c 193.328 178.551 193.203 178.566 193.094 178.582 c 193.656 177.316 l 195.75
 177.301 l h
196.062 176.645 m f
198.051 182.191 m 198.051 181.91 197.832 181.691 197.551 181.691 c 197.27
 181.691 197.051 181.91 197.051 182.191 c 197.051 182.473 197.27 182.691
 197.551 182.691 c 197.832 182.691 198.051 182.473 198.051 182.191 c h
198.051 182.191 m f
202.902 176.645 m 200.434 176.645 l 199.324 179.191 l 199.465 179.16 199.605
 179.129 199.777 179.129 c 200.73 179.129 202.027 179.629 202.027 180.801
 c 202.027 181.707 201.371 182.285 200.746 182.285 c 200.199 182.285 199.996
 181.785 199.48 181.785 c 199.23 181.785 199.152 182.004 199.152 182.113
 c 199.152 182.426 199.59 182.676 200.215 182.676 c 201.559 182.676 202.621
 181.691 202.621 180.488 c 202.621 179.066 201.496 178.582 200.277 178.551
 c 200.168 178.551 200.043 178.566 199.934 178.582 c 200.496 177.316 l 202.59
 177.301 l h
202.902 176.645 m f
23.809 173.254 m 23.809 171.645 23.074 170.191 21.824 170.191 c 20.559 
170.191 19.824 171.645 19.824 173.254 c 19.824 174.879 20.512 176.316 21.824
 176.316 c 23.027 176.316 23.809 174.879 23.809 173.254 c h
22.949 173.254 m 22.949 174.551 22.824 176.066 21.824 176.066 c 20.871 
176.066 20.684 174.551 20.684 173.254 c 20.684 172.176 20.809 170.426 21.824
 170.426 c 22.824 170.426 22.949 172.176 22.949 173.254 c h
22.949 173.254 m f
18.617 147.766 m 18.617 147.625 l 18.023 147.625 17.805 147.641 17.805 
146.469 c 17.805 146.453 17.805 141.719 17.805 141.719 c 17.68 141.719 l
 16.148 142.453 l 16.195 142.594 l 16.523 142.453 16.602 142.422 16.727 
142.422 c 16.992 142.422 17.039 142.656 17.039 142.969 c 17.039 146.469 
l 17.039 147.641 16.82 147.609 16.227 147.625 c 16.227 147.766 l h
18.617 147.766 m f
23.809 144.812 m 23.809 143.203 23.074 141.75 21.824 141.75 c 20.559 141.75
 19.824 143.203 19.824 144.812 c 19.824 146.438 20.512 147.875 21.824 147.875
 c 23.027 147.875 23.809 146.438 23.809 144.812 c h
22.949 144.812 m 22.949 146.109 22.824 147.625 21.824 147.625 c 20.871 
147.625 20.684 146.109 20.684 144.812 c 20.684 143.734 20.809 141.984 21.824
 141.984 c 22.824 141.984 22.949 143.734 22.949 144.812 c h
22.949 144.812 m f
19.398 118.289 m 19.242 118.258 l 18.977 118.711 18.758 118.789 18.32 118.789
 c 16.258 118.789 l 17.68 117.492 18.977 116.32 18.977 115.008 c 18.977 
114.086 18.18 113.43 17.305 113.43 c 16.445 113.43 15.758 113.898 15.492
 115.117 c 15.695 115.117 l 15.945 114.617 16.289 114.102 16.977 114.102
 c 17.758 114.102 18.195 114.695 18.195 115.367 c 18.195 116.336 17.164 
117.758 15.398 119.305 c 15.398 119.445 l 18.93 119.445 l h
19.398 118.289 m f
23.809 116.492 m 23.809 114.883 23.074 113.43 21.824 113.43 c 20.559 113.43
 19.824 114.883 19.824 116.492 c 19.824 118.117 20.512 119.555 21.824 119.555
 c 23.027 119.555 23.809 118.117 23.809 116.492 c h
22.949 116.492 m 22.949 117.789 22.824 119.305 21.824 119.305 c 20.871 
119.305 20.684 117.789 20.684 116.492 c 20.684 115.414 20.809 113.664 21.824
 113.664 c 22.824 113.664 22.949 115.414 22.949 116.492 c h
22.949 116.492 m f
19.023 89.191 m 19.023 88.254 18.477 87.848 17.945 87.629 c 18.523 87.191
 18.711 86.785 18.711 86.301 c 18.711 85.785 18.289 85.113 17.32 85.113 
c 16.617 85.113 15.945 85.504 15.648 86.473 c 15.789 86.504 l 15.977 86.145
 16.336 85.691 16.992 85.691 c 17.633 85.691 18.008 86.129 18.008 86.629
 c 18.008 87.332 17.461 87.832 16.648 88.02 c 16.633 88.207 l 18.023 88.145
 18.367 89.051 18.367 89.613 c 18.367 90.285 17.883 90.895 17.242 90.895
 c 16.664 90.895 16.414 90.395 15.93 90.395 c 15.773 90.395 15.586 90.551
 15.586 90.754 c 15.586 91.129 16.148 91.238 16.555 91.238 c 17.977 91.238
 19.023 90.426 19.023 89.191 c h
19.023 89.191 m f
23.809 88.176 m 23.809 86.566 23.074 85.113 21.824 85.113 c 20.559 85.113
 19.824 86.566 19.824 88.176 c 19.824 89.801 20.512 91.238 21.824 91.238
 c 23.027 91.238 23.809 89.801 23.809 88.176 c h
22.949 88.176 m 22.949 89.473 22.824 90.988 21.824 90.988 c 20.871 90.988
 20.684 89.473 20.684 88.176 c 20.684 87.098 20.809 85.348 21.824 85.348
 c 22.824 85.348 22.949 87.098 22.949 88.176 c h
22.949 88.176 m f
19.383 61.324 m 19.383 60.715 l 18.508 60.715 l 18.508 56.793 l 18.07 56.793
 l 15.477 60.699 l 15.477 61.324 l 17.773 61.324 l 17.773 62.809 l 18.508
 62.809 l 18.508 61.324 l h
17.773 60.715 m 15.836 60.715 l 17.758 57.73 l 17.773 57.73 l h
17.773 60.715 m f
23.809 59.855 m 23.809 58.246 23.074 56.793 21.824 56.793 c 20.559 56.793
 19.824 58.246 19.824 59.855 c 19.824 61.48 20.512 62.918 21.824 62.918 
c 23.027 62.918 23.809 61.48 23.809 59.855 c h
22.949 59.855 m 22.949 61.152 22.824 62.668 21.824 62.668 c 20.871 62.668
 20.684 61.152 20.684 59.855 c 20.684 58.777 20.809 57.027 21.824 57.027
 c 22.824 57.027 22.949 58.777 22.949 59.855 c h
22.949 59.855 m f
19.305 28.445 m 16.836 28.445 l 15.727 30.992 l 15.867 30.961 16.008 30.93
 16.18 30.93 c 17.133 30.93 18.43 31.43 18.43 32.602 c 18.43 33.508 17.773
 34.086 17.148 34.086 c 16.602 34.086 16.398 33.586 15.883 33.586 c 15.633
 33.586 15.555 33.805 15.555 33.914 c 15.555 34.227 15.992 34.477 16.617
 34.477 c 17.961 34.477 19.023 33.492 19.023 32.289 c 19.023 30.867 17.898
 30.383 16.68 30.352 c 16.57 30.352 16.445 30.367 16.336 30.383 c 16.898
 29.117 l 18.992 29.102 l h
19.305 28.445 m f
23.809 31.414 m 23.809 29.805 23.074 28.352 21.824 28.352 c 20.559 28.352
 19.824 29.805 19.824 31.414 c 19.824 33.039 20.512 34.477 21.824 34.477
 c 23.027 34.477 23.809 33.039 23.809 31.414 c h
22.949 31.414 m 22.949 32.711 22.824 34.227 21.824 34.227 c 20.871 34.227
 20.684 32.711 20.684 31.414 c 20.684 30.336 20.809 28.586 21.824 28.586
 c 22.824 28.586 22.949 30.336 22.949 31.414 c h
22.949 31.414 m f
19.32 4.031 m 19.32 3.047 18.617 2.312 17.727 2.312 c 17.273 2.312 16.898
 2.453 16.508 2.766 c 16.898 1.172 18.07 0.172 19.195 0.156 c 19.195 0 l
 16.43 0 15.555 2.344 15.555 3.672 c 15.555 5.094 16.383 6.156 17.492 6.156
 c 18.508 6.156 19.32 5.203 19.32 4.031 c h
18.555 4.484 m 18.555 5.312 18.18 5.891 17.586 5.891 c 16.664 5.891 16.383
 4.547 16.383 3.828 c 16.383 3.594 16.414 3.344 16.461 3.047 c 16.852 2.797
 17.164 2.688 17.477 2.688 c 18.383 2.688 18.555 3.734 18.555 4.484 c h
18.555 4.484 m f
23.809 3.094 m 23.809 1.484 23.074 0.031 21.824 0.031 c 20.559 0.031 19.824
 1.484 19.824 3.094 c 19.824 4.719 20.512 6.156 21.824 6.156 c 23.027 6.156
 23.809 4.719 23.809 3.094 c h
22.949 3.094 m 22.949 4.391 22.824 5.906 21.824 5.906 c 20.871 5.906 20.684
 4.391 20.684 3.094 c 20.684 2.016 20.809 0.266 21.824 0.266 c 22.824 0.266
 22.949 2.016 22.949 3.094 c h
22.949 3.094 m f
97.254 194.566 m 99.379 194.566 l 99.379 194.426 l 98.801 194.41 98.707
 194.316 98.691 193.816 c 98.691 188.457 l 98.66 188.441 l 98.207 188.582
 97.879 188.676 97.238 188.832 c 97.238 188.973 l 97.285 188.973 l 97.395
 188.973 97.504 188.957 97.566 188.957 c 97.863 188.957 97.941 189.082 97.941
 189.504 c 97.941 193.785 l 97.941 194.27 97.816 194.395 97.254 194.426 
c h
97.254 194.566 m f
99.742 194.566 m 101.648 194.566 l 101.648 194.426 l 101.195 194.41 101.055
 194.285 101.055 193.973 c 101.055 191.441 l 101.492 191.035 101.68 190.941
 101.977 190.941 c 102.414 190.941 102.633 191.207 102.633 191.801 c 102.633
 193.676 l 102.617 194.254 102.508 194.41 102.07 194.426 c 102.07 194.566
 l 103.93 194.566 l 103.93 194.426 l 103.492 194.395 103.398 194.285 103.383
 193.848 c 103.383 191.785 l 103.383 190.941 102.992 190.441 102.336 190.441
 c 101.914 190.441 101.633 190.598 101.023 191.16 c 101.023 190.457 l 100.961
 190.441 l 100.508 190.613 100.195 190.707 99.727 190.848 c 99.727 191.004
 l 99.789 190.973 99.867 190.957 99.977 190.957 c 100.227 190.957 100.305
 191.098 100.305 191.535 c 100.305 193.754 l 100.289 194.285 100.195 194.41
 99.742 194.426 c h
99.742 194.566 m f
107.23 196.488 m 107.23 196.332 l 106.137 195.691 105.637 194.426 105.637
 192.301 c 105.637 190.191 106.137 188.957 107.23 188.285 c 107.23 188.129
 l 105.684 188.926 104.777 190.457 104.777 192.301 c 104.777 194.176 105.652
 195.629 107.23 196.488 c h
107.23 196.488 m f
113.559 188.52 m 108.543 188.52 l 108.121 190.051 l 108.293 190.051 l 108.668
 189.066 109.137 188.848 109.918 188.848 c 109.918 188.848 110.434 188.848
 110.543 188.848 c 109.246 193.52 l 108.996 194.426 108.684 194.41 108.324
 194.41 c 108.309 194.566 l 110.668 194.566 l 110.699 194.41 l 110.355 194.41
 110.012 194.426 110.012 193.973 c 110.012 193.848 110.043 193.707 110.09
 193.52 c 111.371 188.848 l 112.121 188.848 l 112.559 188.848 113.027 188.91
 113.027 189.535 c 113.027 189.676 113.012 189.832 112.965 190.051 c 113.137
 190.051 l h
113.559 188.52 m f
117.531 188.129 m 117.094 188.129 l 113.984 196.488 l 114.438 196.488 l
 h
117.531 188.129 m f
121.77 188.801 m 122.316 188.832 122.379 188.863 122.379 189.082 c 122.379
 189.27 122.176 189.551 121.676 190.004 c 120.098 191.441 l 120.098 189.613
 l 120.098 188.941 120.191 188.848 120.926 188.801 c 120.926 188.629 l 118.379
 188.629 l 118.379 188.801 l 119.066 188.848 119.16 188.957 119.176 189.613
 c 119.176 193.488 l 119.176 194.254 119.066 194.348 118.379 194.395 c 118.379
 194.566 l 120.895 194.566 l 120.895 194.395 l 120.207 194.348 120.098 194.254
 120.098 193.582 c 120.098 191.91 l 120.332 191.723 l 121.27 192.66 l 121.973
 193.363 122.441 193.973 122.441 194.191 c 122.441 194.332 122.332 194.379
 122.066 194.395 c 122.02 194.395 121.926 194.395 121.816 194.395 c 121.816
 194.566 l 124.551 194.566 l 124.551 194.395 l 124.082 194.395 123.957 194.301
 123.145 193.426 c 121.051 191.191 l 122.754 189.504 l 123.363 188.91 123.504
 188.848 124.113 188.801 c 124.113 188.629 l 121.77 188.629 l h
121.77 188.801 m f
127.258 192.316 m 127.258 190.457 126.383 189.004 124.805 188.129 c 124.805
 188.301 l 125.898 188.941 126.398 190.191 126.398 192.316 c 126.398 194.426
 125.898 195.676 124.805 196.332 c 124.805 196.488 l 126.352 195.707 127.258
 194.176 127.258 192.316 c h
127.258 192.316 m f
1.773 116.758 m 1.773 116.945 l 1.867 117.008 2.008 117.102 2.008 117.305
 c 2.008 117.523 1.758 118.102 1.758 118.711 c 1.758 120.68 3.664 122.523
 5.602 122.523 c 7.18 122.523 8.086 121.367 8.086 120.086 c 8.086 118.945
 7.383 117.945 6.586 117.492 c 6.586 117.742 l 7.117 118.164 7.68 118.852
 7.68 119.773 c 7.68 120.758 6.992 121.414 5.695 121.414 c 4.117 121.414
 2.055 120.367 2.055 118.633 c 2.055 117.695 2.695 117.305 3.648 117.305
 c 3.648 117.148 l h
1.773 116.758 m f
7.816 113.047 m 7.238 113.047 6.816 113.328 6.816 113.938 c 6.816 114.375
 7.051 114.734 7.41 115.047 c 6.801 114.844 l 6.801 114.844 6.988 115.953
 7.004 116.203 c 7.223 116.203 l 7.223 115.906 7.176 115.688 7.426 115.688
 c 7.551 115.688 7.848 115.797 8.02 115.844 c 10.895 116.75 l 11.129 116.828
 11.316 116.953 11.316 117.344 c 11.52 117.375 l 11.52 115.609 l 11.316 
115.562 l 11.316 115.875 11.316 116.109 11.16 116.109 c 11.098 116.109 11.035
 116.109 10.91 116.078 c 10.16 115.812 l 10.27 115.672 10.316 115.5 10.316
 115.297 c 10.316 114.344 9.004 113.047 7.816 113.047 c h
7.895 113.781 m 8.801 113.781 10.066 114.625 10.066 115.297 c 10.066 115.453
 10.02 115.609 9.926 115.75 c 8.957 115.453 7.238 115.125 7.238 114.156 
c 7.238 113.781 7.738 113.781 7.895 113.781 c h
7.895 113.781 m f
11.363 112.039 m 11.316 111.836 11.27 111.742 11.16 111.555 c 10.941 111.227
 10.629 110.992 10.082 110.992 c 9.551 110.992 9.316 111.242 9.316 111.57
 c 9.316 111.867 9.504 112.055 9.785 112.055 c 10.051 112.055 10.223 111.867
 10.223 111.617 c 10.223 111.539 10.207 111.461 10.16 111.383 c 10.145 111.352
 10.145 111.352 10.145 111.336 c 10.145 111.305 10.207 111.289 10.285 111.289
 c 10.363 111.289 10.863 111.289 11.145 112.039 c h
11.363 112.039 m f
10.223 110.258 m 10.223 108.711 l 10.113 108.711 l 10.113 109.07 10.035
 109.18 9.754 109.18 c 7.785 109.18 l 7.77 109.18 7.707 109.133 7.66 109.07
 c 7.504 108.898 7.379 108.602 7.379 108.367 c 7.379 108.055 7.629 107.898
 8.113 107.898 c 9.629 107.898 l 10.02 107.914 10.098 107.977 10.113 108.367
 c 10.223 108.367 l 10.223 106.82 l 10.113 106.82 l 10.113 107.211 10.004
 107.305 9.566 107.32 c 7.801 107.32 l 7.504 107.102 7.379 106.883 7.379
 106.555 c 7.379 106.164 7.566 106.039 8.145 106.039 c 9.613 106.039 l 10.035
 106.039 10.082 106.086 10.113 106.492 c 10.223 106.492 l 10.223 104.961
 l 10.113 104.961 l 10.098 105.148 l 10.066 105.367 9.957 105.445 9.691 
105.445 c 8.254 105.445 l 7.441 105.445 7.02 105.727 7.02 106.258 c 7.02
 106.664 7.191 107.008 7.598 107.398 c 7.207 107.523 7.02 107.758 7.02 108.133
 c 7.02 108.445 7.113 108.633 7.551 109.211 c 7.035 109.211 l 7.02 109.258
 l 7.145 109.633 7.223 109.867 7.332 110.242 c 7.441 110.242 l 7.426 110.148
 7.426 110.086 7.426 110.008 c 7.426 109.836 7.535 109.773 7.863 109.773
 c 9.629 109.773 l 10.02 109.789 10.113 109.867 10.113 110.258 c h
10.223 110.258 m f
1.508 100.699 m 1.508 101.137 l 9.867 104.246 l 9.867 103.793 l h
1.508 100.699 m f
2.008 96.855 m 2.008 99.418 l 2.18 99.418 l 2.227 98.699 2.32 98.605 2.992
 98.59 c 7.133 98.59 l 7.539 98.59 7.727 98.699 7.727 98.934 c 7.727 99.059
 7.664 99.105 7.43 99.168 c 7.117 99.262 6.977 99.402 6.977 99.637 c 6.977
 99.887 7.18 100.074 7.43 100.074 c 7.805 100.074 8.07 99.715 8.07 99.184
 c 8.07 98.215 7.43 97.668 6.305 97.668 c 2.992 97.668 l 2.32 97.652 2.227
 97.574 2.18 96.855 c h
2.008 96.855 m f
2.18 91.426 m 2.211 90.879 2.242 90.816 2.461 90.816 c 2.648 90.816 2.93
 91.02 3.383 91.52 c 4.82 93.098 l 2.992 93.098 l 2.32 93.098 2.227 93.004
 2.18 92.27 c 2.008 92.27 l 2.008 94.816 l 2.18 94.816 l 2.227 94.129 2.336
 94.035 2.992 94.02 c 6.867 94.02 l 7.633 94.02 7.727 94.129 7.773 94.816
 c 7.945 94.816 l 7.945 92.301 l 7.773 92.301 l 7.727 92.988 7.633 93.098
 6.961 93.098 c 5.289 93.098 l 5.102 92.863 l 6.039 91.926 l 6.742 91.223
 7.352 90.754 7.57 90.754 c 7.711 90.754 7.758 90.863 7.773 91.129 c 7.773
 91.176 7.773 91.27 7.773 91.379 c 7.945 91.379 l 7.945 88.645 l 7.773 88.645
 l 7.773 89.113 7.68 89.238 6.805 90.051 c 4.57 92.145 l 2.883 90.441 l 
2.289 89.832 2.227 89.691 2.18 89.082 c 2.008 89.082 l 2.008 91.426 l h
2.18 91.426 m f
2.469 83.523 0.438 4.703 re f
4.703 79.973 m 4.516 79.973 l 4.516 80.504 4.516 80.676 3.672 80.676 c 
3.656 80.676 0 80.676 0 80.676 c 0 80.848 l 0.578 82.191 l 0.766 82.113 
l 0.641 81.801 0.625 81.738 0.625 81.645 c 0.625 81.441 0.797 81.426 1 81.426
 c 3.672 81.426 l 4.516 81.426 4.5 81.582 4.516 82.113 c 4.703 82.113 l 
h
4.703 79.973 m f
7.945 76.867 m 7.945 74.867 l 7.805 74.867 l 7.805 75.336 7.711 75.477 
7.352 75.477 c 4.82 75.477 l 4.805 75.477 4.711 75.414 4.648 75.352 c 4.445
 75.117 4.289 74.742 4.289 74.43 c 4.289 74.023 4.602 73.836 5.227 73.836
 c 7.18 73.836 l 7.68 73.852 7.789 73.945 7.805 74.445 c 7.945 74.445 l 
7.945 72.43 l 7.805 72.43 l 7.805 72.93 7.664 73.055 7.086 73.086 c 4.836
 73.086 l 4.445 72.805 4.289 72.523 4.289 72.102 c 4.289 71.586 4.523 71.43
 5.273 71.43 c 7.164 71.43 l 7.695 71.445 7.758 71.508 7.805 72.023 c 7.945
 72.023 l 7.945 70.055 l 7.805 70.055 l 7.789 70.289 l 7.742 70.57 7.617
 70.68 7.258 70.68 c 5.414 70.68 l 4.352 70.68 3.82 71.023 3.82 71.711 c
 3.82 72.242 4.055 72.695 4.57 73.18 c 4.055 73.336 3.82 73.648 3.82 74.133
 c 3.82 74.539 3.93 74.773 4.508 75.523 c 3.836 75.523 l 3.82 75.586 l 3.992
 76.055 4.086 76.367 4.227 76.836 c 4.383 76.836 l 4.352 76.727 4.336 76.648
 4.336 76.555 c 4.336 76.32 4.477 76.242 4.914 76.242 c 7.18 76.242 l 7.68
 76.258 7.805 76.367 7.805 76.867 c h
7.945 76.867 m f
3.82 67.797 m 3.82 68.984 4.68 69.781 5.914 69.781 c 7.133 69.781 8.039
 68.953 8.039 67.828 c 8.039 66.688 7.086 65.828 5.852 65.828 c 4.664 65.828
 3.82 66.656 3.82 67.797 c h
4.07 67.922 m 4.07 67.172 4.93 66.641 6.164 66.641 c 7.18 66.641 7.789 
67.047 7.789 67.719 c 7.789 68.062 7.57 68.391 7.211 68.578 c 6.742 68.844
 6.117 68.984 5.477 68.984 c 4.633 68.984 4.07 68.562 4.07 67.922 c h
4.07 67.922 m f
7.945 65.418 m 7.945 63.293 l 7.805 63.293 l 7.789 63.871 7.695 63.965 
7.195 63.98 c 1.836 63.98 l 1.82 64.012 l 1.961 64.465 2.055 64.793 2.211
 65.434 c 2.352 65.434 l 2.352 65.387 l 2.352 65.277 2.336 65.168 2.336 
65.105 c 2.336 64.809 2.461 64.73 2.883 64.73 c 7.164 64.73 l 7.648 64.73
 7.773 64.855 7.805 65.418 c h
7.945 65.418 m f
2.469 57.961 0.438 4.703 re f
4.703 54.41 m 4.516 54.41 l 4.516 54.941 4.516 55.113 3.672 55.113 c 3.656
 55.113 0 55.113 0 55.113 c 0 55.285 l 0.578 56.629 l 0.766 56.551 l 0.641
 56.238 0.625 56.176 0.625 56.082 c 0.625 55.879 0.797 55.863 1 55.863 c
 3.672 55.863 l 4.516 55.863 4.5 56.02 4.516 56.551 c 4.703 56.551 l h
4.703 54.41 m f
1.13366 w
q 1 0 0 -1 0 0 cm
39.41 -173.074 m 39.41 -153.531 l 173.762 -11.504 l 173.762 -173.074 l S Q
1 g
41.492 153.496 m 41.492 152.32 40.539 151.367 39.363 151.367 c 38.188 151.367
 37.234 152.32 37.234 153.496 c 37.234 154.672 38.188 155.625 39.363 155.625
 c 40.539 155.625 41.492 154.672 41.492 153.496 c f
0 g
41.492 153.496 m 41.492 152.32 40.539 151.367 39.363 151.367 c 38.188 151.367
 37.234 152.32 37.234 153.496 c 37.234 154.672 38.188 155.625 39.363 155.625
 c 40.539 155.625 41.492 154.672 41.492 153.496 c h
41.492 153.496 m 41.281 153.496 l 41.281 152.438 40.422 151.578 39.363 
151.578 c 38.305 151.578 37.445 152.438 37.445 153.496 c 37.445 154.555 
38.305 155.414 39.363 155.414 c 40.422 155.414 41.281 154.555 41.281 153.496
 c f
1 g
57.992 139.098 m 57.992 137.922 57.039 136.969 55.863 136.969 c 54.688 
136.969 53.734 137.922 53.734 139.098 c 53.734 140.273 54.688 141.227 55.863
 141.227 c 57.039 141.227 57.992 140.273 57.992 139.098 c f
0 g
57.992 139.098 m 57.992 137.922 57.039 136.969 55.863 136.969 c 54.688 
136.969 53.734 137.922 53.734 139.098 c 53.734 140.273 54.688 141.227 55.863
 141.227 c 57.039 141.227 57.992 140.273 57.992 139.098 c h
57.992 139.098 m 57.781 139.098 l 57.781 138.039 56.922 137.18 55.863 137.18
 c 54.805 137.18 53.945 138.039 53.945 139.098 c 53.945 140.156 54.805 141.016
 55.863 141.016 c 56.922 141.016 57.781 140.156 57.781 139.098 c f
1 g
80.094 114.098 m 80.094 112.922 79.141 111.969 77.965 111.969 c 76.789 
111.969 75.836 112.922 75.836 114.098 c 75.836 115.273 76.789 116.227 77.965
 116.227 c 79.141 116.227 80.094 115.273 80.094 114.098 c f
0 g
80.094 114.098 m 80.094 112.922 79.141 111.969 77.965 111.969 c 76.789 
111.969 75.836 112.922 75.836 114.098 c 75.836 115.273 76.789 116.227 77.965
 116.227 c 79.141 116.227 80.094 115.273 80.094 114.098 c h
80.094 114.098 m 79.883 114.098 l 79.883 113.039 79.023 112.18 77.965 112.18
 c 76.906 112.18 76.047 113.039 76.047 114.098 c 76.047 115.156 76.906 116.016
 77.965 116.016 c 79.023 116.016 79.883 115.156 79.883 114.098 c f
1 g
99.895 90.297 m 99.895 89.121 98.941 88.168 97.766 88.168 c 96.59 88.168
 95.637 89.121 95.637 90.297 c 95.637 91.473 96.59 92.426 97.766 92.426 
c 98.941 92.426 99.895 91.473 99.895 90.297 c f
0 g
99.895 90.297 m 99.895 89.121 98.941 88.168 97.766 88.168 c 96.59 88.168
 95.637 89.121 95.637 90.297 c 95.637 91.473 96.59 92.426 97.766 92.426 
c 98.941 92.426 99.895 91.473 99.895 90.297 c h
99.895 90.297 m 99.684 90.297 l 99.684 89.238 98.824 88.379 97.766 88.379
 c 96.707 88.379 95.848 89.238 95.848 90.297 c 95.848 91.355 96.707 92.215
 97.766 92.215 c 98.824 92.215 99.684 91.355 99.684 90.297 c f
1 g
117.492 72.195 m 117.492 71.02 116.539 70.066 115.363 70.066 c 114.188 
70.066 113.234 71.02 113.234 72.195 c 113.234 73.371 114.188 74.324 115.363
 74.324 c 116.539 74.324 117.492 73.371 117.492 72.195 c f
0 g
117.492 72.195 m 117.492 71.02 116.539 70.066 115.363 70.066 c 114.188 
70.066 113.234 71.02 113.234 72.195 c 113.234 73.371 114.188 74.324 115.363
 74.324 c 116.539 74.324 117.492 73.371 117.492 72.195 c h
117.492 72.195 m 117.281 72.195 l 117.281 71.137 116.422 70.277 115.363
 70.277 c 114.305 70.277 113.445 71.137 113.445 72.195 c 113.445 73.254 
114.305 74.113 115.363 74.113 c 116.422 74.113 117.281 73.254 117.281 72.195
 c f
1 g
132.793 59.695 m 132.793 58.52 131.84 57.566 130.664 57.566 c 129.488 57.566
 128.535 58.52 128.535 59.695 c 128.535 60.871 129.488 61.824 130.664 61.824
 c 131.84 61.824 132.793 60.871 132.793 59.695 c f
0 g
132.793 59.695 m 132.793 58.52 131.84 57.566 130.664 57.566 c 129.488 57.566
 128.535 58.52 128.535 59.695 c 128.535 60.871 129.488 61.824 130.664 61.824
 c 131.84 61.824 132.793 60.871 132.793 59.695 c h
132.793 59.695 m 132.582 59.695 l 132.582 58.637 131.723 57.777 130.664
 57.777 c 129.605 57.777 128.746 58.637 128.746 59.695 c 128.746 60.754 
129.605 61.613 130.664 61.613 c 131.723 61.613 132.582 60.754 132.582 59.695
 c f
1 g
145.895 45.496 m 145.895 44.32 144.941 43.367 143.766 43.367 c 142.59 43.367
 141.637 44.32 141.637 45.496 c 141.637 46.672 142.59 47.625 143.766 47.625
 c 144.941 47.625 145.895 46.672 145.895 45.496 c f
0 g
145.895 45.496 m 145.895 44.32 144.941 43.367 143.766 43.367 c 142.59 43.367
 141.637 44.32 141.637 45.496 c 141.637 46.672 142.59 47.625 143.766 47.625
 c 144.941 47.625 145.895 46.672 145.895 45.496 c h
145.895 45.496 m 145.684 45.496 l 145.684 44.438 144.824 43.578 143.766
 43.578 c 142.707 43.578 141.848 44.438 141.848 45.496 c 141.848 46.555 
142.707 47.414 143.766 47.414 c 144.824 47.414 145.684 46.555 145.684 45.496
 c f
1 g
153.793 35.598 m 153.793 34.422 152.84 33.469 151.664 33.469 c 150.488 
33.469 149.535 34.422 149.535 35.598 c 149.535 36.773 150.488 37.727 151.664
 37.727 c 152.84 37.727 153.793 36.773 153.793 35.598 c f
0 g
153.793 35.598 m 153.793 34.422 152.84 33.469 151.664 33.469 c 150.488 
33.469 149.535 34.422 149.535 35.598 c 149.535 36.773 150.488 37.727 151.664
 37.727 c 152.84 37.727 153.793 36.773 153.793 35.598 c h
153.793 35.598 m 153.582 35.598 l 153.582 34.539 152.723 33.68 151.664 
33.68 c 150.605 33.68 149.746 34.539 149.746 35.598 c 149.746 36.656 150.605
 37.516 151.664 37.516 c 152.723 37.516 153.582 36.656 153.582 35.598 c f
1 g
164.594 23.996 m 164.594 22.82 163.641 21.867 162.465 21.867 c 161.289 
21.867 160.336 22.82 160.336 23.996 c 160.336 25.172 161.289 26.125 162.465
 26.125 c 163.641 26.125 164.594 25.172 164.594 23.996 c f
0 g
164.594 23.996 m 164.594 22.82 163.641 21.867 162.465 21.867 c 161.289 
21.867 160.336 22.82 160.336 23.996 c 160.336 25.172 161.289 26.125 162.465
 26.125 c 163.641 26.125 164.594 25.172 164.594 23.996 c h
164.594 23.996 m 164.383 23.996 l 164.383 22.938 163.523 22.078 162.465
 22.078 c 161.406 22.078 160.547 22.938 160.547 23.996 c 160.547 25.055 
161.406 25.914 162.465 25.914 c 163.523 25.914 164.383 25.055 164.383 23.996
 c f
1 g
174.793 12.598 m 174.793 11.422 173.84 10.469 172.664 10.469 c 171.488 
10.469 170.535 11.422 170.535 12.598 c 170.535 13.773 171.488 14.727 172.664
 14.727 c 173.84 14.727 174.793 13.773 174.793 12.598 c f
0 g
174.793 12.598 m 174.793 11.422 173.84 10.469 172.664 10.469 c 171.488 
10.469 170.535 11.422 170.535 12.598 c 170.535 13.773 171.488 14.727 172.664
 14.727 c 173.84 14.727 174.793 13.773 174.793 12.598 c h
174.793 12.598 m 174.582 12.598 l 174.582 11.539 173.723 10.68 172.664 
10.68 c 171.605 10.68 170.746 11.539 170.746 12.598 c 170.746 13.656 171.605
 14.516 172.664 14.516 c 173.723 14.516 174.582 13.656 174.582 12.598 c f
Q Q
showpage
%%Trailer
end
%%EOF
