%!PS-Adobe-3.0 EPSF-3.0
%%Creator: cairo 1.17.4 (https://cairographics.org)
%%CreationDate: Thu Feb 24 10:47:55 2022
%%Pages: 1
%%DocumentData: Clean7Bit
%%LanguageLevel: 2
%%BoundingBox: 0 0 249 86
%%EndComments
%%BeginProlog
50 dict begin
/q { gsave } bind def
/Q { grestore } bind def
/cm { 6 array astore concat } bind def
/w { setlinewidth } bind def
/J { setlinecap } bind def
/j { setlinejoin } bind def
/M { setmiterlimit } bind def
/d { setdash } bind def
/m { moveto } bind def
/l { lineto } bind def
/c { curveto } bind def
/h { closepath } bind def
/re { exch dup neg 3 1 roll 5 3 roll moveto 0 rlineto
      0 exch rlineto 0 rlineto closepath } bind def
/S { stroke } bind def
/f { fill } bind def
/f* { eofill } bind def
/n { newpath } bind def
/W { clip } bind def
/W* { eoclip } bind def
/BT { } bind def
/ET { } bind def
/BDC { mark 3 1 roll /BDC pdfmark } bind def
/EMC { mark /EMC pdfmark } bind def
/cairo_store_point { /cairo_point_y exch def /cairo_point_x exch def } def
/Tj { show currentpoint cairo_store_point } bind def
/TJ {
  {
    dup
    type /stringtype eq
    { show } { -0.001 mul 0 cairo_font_matrix dtransform rmoveto } ifelse
  } forall
  currentpoint cairo_store_point
} bind def
/cairo_selectfont { cairo_font_matrix aload pop pop pop 0 0 6 array astore
    cairo_font exch selectfont cairo_point_x cairo_point_y moveto } bind def
/Tf { pop /cairo_font exch def /cairo_font_matrix where
      { pop cairo_selectfont } if } bind def
/Td { matrix translate cairo_font_matrix matrix concatmatrix dup
      /cairo_font_matrix exch def dup 4 get exch 5 get cairo_store_point
      /cairo_font where { pop cairo_selectfont } if } bind def
/Tm { 2 copy 8 2 roll 6 array astore /cairo_font_matrix exch def
      cairo_store_point /cairo_font where { pop cairo_selectfont } if } bind def
/g { setgray } bind def
/rg { setrgbcolor } bind def
/d1 { setcachedevice } bind def
/cairo_data_source {
  CairoDataIndex CairoData length lt
    { CairoData CairoDataIndex get /CairoDataIndex CairoDataIndex 1 add def }
    { () } ifelse
} def
/cairo_flush_ascii85_file { cairo_ascii85_file status { cairo_ascii85_file flushfile } if } def
/cairo_image { image cairo_flush_ascii85_file } def
/cairo_imagemask { imagemask cairo_flush_ascii85_file } def
%%EndProlog
%%BeginSetup
%%EndSetup
%%Page: 1 1
%%BeginPageSetup
%%PageBoundingBox: 0 0 249 86
%%EndPageSetup
q 0 0 249 86 rectclip
1 0 0 -1 0 86 cm q
0.74902 g
95.551 14.531 m 95.551 3.191 l 129.566 3.191 l 129.566 25.871 l 95.551 
25.871 l f
135.234 14.531 m 135.234 3.191 l 152.246 3.191 l 152.246 25.871 l 135.234
 25.871 l f
0 g
0.283298 w
0 J
0 j
[] 0.0 d
10 M q 1 0 0 -1 0 0 cm
95.551 -25.871 m 95.551 -23.734 l 95.551 -22.934 m 95.551 -20.801 l 95.551
 -20 m 95.551 -17.867 l 95.551 -17.066 m 95.551 -14.93 l 95.551 -14.133 
m 95.551 -11.996 l 95.551 -11.195 m 95.551 -9.062 l 95.551 -8.262 m 95.551
 -6.129 l 95.551 -5.328 m 95.551 -3.191 l S Q
q 1 0 0 -1 0 0 cm
152.246 -25.871 m 152.246 -23.734 l 152.246 -22.934 m 152.246 -20.801 l
 152.246 -20 m 152.246 -17.867 l 152.246 -17.066 m 152.246 -14.93 l 152.246
 -14.133 m 152.246 -11.996 l 152.246 -11.195 m 152.246 -9.062 l 152.246 
-8.262 m 152.246 -6.129 l 152.246 -5.328 m 152.246 -3.191 l S Q
Q q
125.07 25.871 m 248.621 25.871 l 248.621 27.289 l 125.07 27.289 l h
125.07 27.289 m 248.621 27.289 l 248.621 28.703 l 125.07 28.703 l h
125.07 27.289 m W n
q
125 25 124 4 re W n
  q
0 g
0.510386 w
2 J
0 j
[] 0.0 d
10 M q 1 0 0 -1 0 0 cm
248.035 -25.285 m 133.234 -140.086 l S Q
  Q
Q
Q q
123.07 25.871 m 248.621 25.871 l 248.621 27.289 l 123.07 27.289 l h
123.07 27.289 m 248.621 27.289 l 248.621 28.703 l 123.07 28.703 l h
123.07 27.289 m W n
q
123 25 126 4 re W n
  q
0 g
0.510386 w
2 J
0 j
[] 0.0 d
10 M q 1 0 0 -1 0 0 cm
245.637 -22.883 m 130.832 -137.688 l S Q
  Q
Q
Q q
121.07 25.871 m 248.621 25.871 l 248.621 27.289 l 121.07 27.289 l h
121.07 27.289 m 248.621 27.289 l 248.621 28.703 l 121.07 28.703 l h
121.07 27.289 m W n
q
121 25 128 4 re W n
  q
0 g
0.510386 w
2 J
0 j
[] 0.0 d
10 M q 1 0 0 -1 0 0 cm
243.234 -20.484 m 128.434 -135.289 l S Q
  Q
Q
Q q
118.07 25.871 m 248.07 25.871 l 248.07 27.289 l 118.07 27.289 l h
118.07 27.289 m 248.07 27.289 l 248.07 28.703 l 118.07 28.703 l h
118.07 27.289 m W n
q
118 25 131 4 re W n
  q
0 g
0.510386 w
2 J
0 j
[] 0.0 d
10 M q 1 0 0 -1 0 0 cm
240.836 -18.082 m 126.035 -132.887 l S Q
  Q
Q
Q q
116.07 25.871 m 246.07 25.871 l 246.07 27.289 l 116.07 27.289 l h
116.07 27.289 m 246.07 27.289 l 246.07 28.703 l 116.07 28.703 l h
116.07 27.289 m W n
q
116 25 131 4 re W n
  q
0 g
0.510386 w
2 J
0 j
[] 0.0 d
10 M q 1 0 0 -1 0 0 cm
238.438 -15.684 m 123.633 -130.488 l S Q
  Q
Q
Q q
113.07 25.871 m 244.07 25.871 l 244.07 27.289 l 113.07 27.289 l h
113.07 27.289 m 244.07 27.289 l 244.07 28.703 l 113.07 28.703 l h
113.07 27.289 m W n
q
113 25 132 4 re W n
  q
0 g
0.510386 w
2 J
0 j
[] 0.0 d
10 M q 1 0 0 -1 0 0 cm
236.035 -13.285 m 121.234 -128.086 l S Q
  Q
Q
Q q
111.07 25.871 m 241.07 25.871 l 241.07 27.289 l 111.07 27.289 l h
111.07 27.289 m 241.07 27.289 l 241.07 28.703 l 111.07 28.703 l h
111.07 27.289 m W n
q
111 25 131 4 re W n
  q
0 g
0.510386 w
2 J
0 j
[] 0.0 d
10 M q 1 0 0 -1 0 0 cm
233.637 -10.883 m 118.832 -125.688 l S Q
  Q
Q
Q q
109.07 25.871 m 239.07 25.871 l 239.07 27.289 l 109.07 27.289 l h
109.07 27.289 m 239.07 27.289 l 239.07 28.703 l 109.07 28.703 l h
109.07 27.289 m W n
q
109 25 131 4 re W n
  q
0 g
0.510386 w
2 J
0 j
[] 0.0 d
10 M q 1 0 0 -1 0 0 cm
231.234 -8.484 m 116.434 -123.289 l S Q
  Q
Q
Q q
106.07 25.871 m 236.07 25.871 l 236.07 27.289 l 106.07 27.289 l h
106.07 27.289 m 236.07 27.289 l 236.07 28.703 l 106.07 28.703 l h
106.07 27.289 m W n
q
106 25 131 4 re W n
  q
0 g
0.510386 w
2 J
0 j
[] 0.0 d
10 M q 1 0 0 -1 0 0 cm
228.836 -6.082 m 114.035 -120.887 l S Q
  Q
Q
Q q
104.07 25.871 m 234.07 25.871 l 234.07 27.289 l 104.07 27.289 l h
104.07 27.289 m 234.07 27.289 l 234.07 28.703 l 104.07 28.703 l h
104.07 27.289 m W n
q
104 25 131 4 re W n
  q
0 g
0.510386 w
2 J
0 j
[] 0.0 d
10 M q 1 0 0 -1 0 0 cm
226.438 -3.684 m 111.633 -118.488 l S Q
  Q
Q
Q q
101.07 25.871 m 232.07 25.871 l 232.07 27.289 l 101.07 27.289 l h
101.07 27.289 m 232.07 27.289 l 232.07 28.703 l 101.07 28.703 l h
101.07 27.289 m W n
q
101 25 132 4 re W n
  q
0 g
0.510386 w
2 J
0 j
[] 0.0 d
10 M q 1 0 0 -1 0 0 cm
224.035 -1.285 m 109.234 -116.086 l S Q
  Q
Q
Q q
99.07 25.871 m 229.07 25.871 l 229.07 27.289 l 99.07 27.289 l h
99.07 27.289 m 229.07 27.289 l 229.07 28.703 l 99.07 28.703 l h
99.07 27.289 m W n
q
99 25 131 4 re W n
  q
0 g
0.510386 w
2 J
0 j
[] 0.0 d
10 M q 1 0 0 -1 0 0 cm
221.637 1.117 m 106.832 -113.688 l S Q
  Q
Q
Q q
97.07 25.871 m 227.07 25.871 l 227.07 27.289 l 97.07 27.289 l h
97.07 27.289 m 227.07 27.289 l 227.07 28.703 l 97.07 28.703 l h
97.07 27.289 m W n
q
97 25 131 4 re W n
  q
0 g
0.510386 w
2 J
0 j
[] 0.0 d
10 M q 1 0 0 -1 0 0 cm
219.234 3.516 m 104.434 -111.289 l S Q
  Q
Q
Q q
94.07 25.871 m 224.07 25.871 l 224.07 27.289 l 94.07 27.289 l h
94.07 27.289 m 224.07 27.289 l 224.07 28.703 l 94.07 28.703 l h
94.07 27.289 m W n
q
94 25 131 4 re W n
  q
0 g
0.510386 w
2 J
0 j
[] 0.0 d
10 M q 1 0 0 -1 0 0 cm
216.836 5.918 m 102.035 -108.887 l S Q
  Q
Q
Q q
92.07 25.871 m 222.07 25.871 l 222.07 27.289 l 92.07 27.289 l h
92.07 27.289 m 222.07 27.289 l 222.07 28.703 l 92.07 28.703 l h
92.07 27.289 m W n
q
92 25 131 4 re W n
  q
0 g
0.510386 w
2 J
0 j
[] 0.0 d
10 M q 1 0 0 -1 0 0 cm
214.438 8.316 m 99.633 -106.488 l S Q
  Q
Q
Q q
89.07 25.871 m 220.07 25.871 l 220.07 27.289 l 89.07 27.289 l h
89.07 27.289 m 220.07 27.289 l 220.07 28.703 l 89.07 28.703 l h
89.07 27.289 m W n
q
89 25 132 4 re W n
  q
0 g
0.510386 w
2 J
0 j
[] 0.0 d
10 M q 1 0 0 -1 0 0 cm
212.035 10.715 m 97.234 -104.086 l S Q
  Q
Q
Q q
87.07 25.871 m 217.07 25.871 l 217.07 27.289 l 87.07 27.289 l h
87.07 27.289 m 217.07 27.289 l 217.07 28.703 l 87.07 28.703 l h
87.07 27.289 m W n
q
87 25 131 4 re W n
  q
0 g
0.510386 w
2 J
0 j
[] 0.0 d
10 M q 1 0 0 -1 0 0 cm
209.637 13.117 m 94.832 -101.688 l S Q
  Q
Q
Q q
85.07 25.871 m 215.07 25.871 l 215.07 27.289 l 85.07 27.289 l h
85.07 27.289 m 215.07 27.289 l 215.07 28.703 l 85.07 28.703 l h
85.07 27.289 m W n
q
85 25 131 4 re W n
  q
0 g
0.510386 w
2 J
0 j
[] 0.0 d
10 M q 1 0 0 -1 0 0 cm
207.234 15.516 m 92.434 -99.289 l S Q
  Q
Q
Q q
82.07 25.871 m 212.07 25.871 l 212.07 27.289 l 82.07 27.289 l h
82.07 27.289 m 212.07 27.289 l 212.07 28.703 l 82.07 28.703 l h
82.07 27.289 m W n
q
82 25 131 4 re W n
  q
0 g
0.510386 w
2 J
0 j
[] 0.0 d
10 M q 1 0 0 -1 0 0 cm
204.836 17.918 m 90.035 -96.887 l S Q
  Q
Q
Q q
80.07 25.871 m 210.07 25.871 l 210.07 27.289 l 80.07 27.289 l h
80.07 27.289 m 210.07 27.289 l 210.07 28.703 l 80.07 28.703 l h
80.07 27.289 m W n
q
80 25 131 4 re W n
  q
0 g
0.510386 w
2 J
0 j
[] 0.0 d
10 M q 1 0 0 -1 0 0 cm
202.438 20.316 m 87.633 -94.488 l S Q
  Q
Q
Q q
77.07 25.871 m 208.07 25.871 l 208.07 27.289 l 77.07 27.289 l h
77.07 27.289 m 208.07 27.289 l 208.07 28.703 l 77.07 28.703 l h
77.07 27.289 m W n
q
77 25 132 4 re W n
  q
0 g
0.510386 w
2 J
0 j
[] 0.0 d
10 M q 1 0 0 -1 0 0 cm
200.035 22.715 m 85.234 -92.086 l S Q
  Q
Q
Q q
75.07 25.871 m 205.07 25.871 l 205.07 27.289 l 75.07 27.289 l h
75.07 27.289 m 205.07 27.289 l 205.07 28.703 l 75.07 28.703 l h
75.07 27.289 m W n
q
75 25 131 4 re W n
  q
0 g
0.510386 w
2 J
0 j
[] 0.0 d
10 M q 1 0 0 -1 0 0 cm
197.637 25.117 m 82.832 -89.688 l S Q
  Q
Q
Q q
73.07 25.871 m 203.07 25.871 l 203.07 27.289 l 73.07 27.289 l h
73.07 27.289 m 203.07 27.289 l 203.07 28.703 l 73.07 28.703 l h
73.07 27.289 m W n
q
73 25 131 4 re W n
  q
0 g
0.510386 w
2 J
0 j
[] 0.0 d
10 M q 1 0 0 -1 0 0 cm
195.234 27.516 m 80.434 -87.289 l S Q
  Q
Q
Q q
70.07 25.871 m 200.07 25.871 l 200.07 27.289 l 70.07 27.289 l h
70.07 27.289 m 200.07 27.289 l 200.07 28.703 l 70.07 28.703 l h
70.07 27.289 m W n
q
70 25 131 4 re W n
  q
0 g
0.510386 w
2 J
0 j
[] 0.0 d
10 M q 1 0 0 -1 0 0 cm
192.836 29.918 m 78.035 -84.887 l S Q
  Q
Q
Q q
68.07 25.871 m 198.07 25.871 l 198.07 27.289 l 68.07 27.289 l h
68.07 27.289 m 198.07 27.289 l 198.07 28.703 l 68.07 28.703 l h
68.07 27.289 m W n
q
68 25 131 4 re W n
  q
0 g
0.510386 w
2 J
0 j
[] 0.0 d
10 M q 1 0 0 -1 0 0 cm
190.438 32.316 m 75.633 -82.488 l S Q
  Q
Q
Q q
65.07 25.871 m 196.07 25.871 l 196.07 27.289 l 65.07 27.289 l h
65.07 27.289 m 196.07 27.289 l 196.07 28.703 l 65.07 28.703 l h
65.07 27.289 m W n
q
65 25 132 4 re W n
  q
0 g
0.510386 w
2 J
0 j
[] 0.0 d
10 M q 1 0 0 -1 0 0 cm
188.035 34.715 m 73.234 -80.086 l S Q
  Q
Q
Q q
63.07 25.871 m 193.07 25.871 l 193.07 27.289 l 63.07 27.289 l h
63.07 27.289 m 193.07 27.289 l 193.07 28.703 l 63.07 28.703 l h
63.07 27.289 m W n
q
63 25 131 4 re W n
  q
0 g
0.510386 w
2 J
0 j
[] 0.0 d
10 M q 1 0 0 -1 0 0 cm
185.637 37.117 m 70.832 -77.688 l S Q
  Q
Q
Q q
61.07 25.871 m 191.07 25.871 l 191.07 27.289 l 61.07 27.289 l h
61.07 27.289 m 191.07 27.289 l 191.07 28.703 l 61.07 28.703 l h
61.07 27.289 m W n
q
61 25 131 4 re W n
  q
0 g
0.510386 w
2 J
0 j
[] 0.0 d
10 M q 1 0 0 -1 0 0 cm
183.234 39.516 m 68.434 -75.289 l S Q
  Q
Q
Q q
58.07 25.871 m 188.07 25.871 l 188.07 27.289 l 58.07 27.289 l h
58.07 27.289 m 188.07 27.289 l 188.07 28.703 l 58.07 28.703 l h
58.07 27.289 m W n
q
58 25 131 4 re W n
  q
0 g
0.510386 w
2 J
0 j
[] 0.0 d
10 M q 1 0 0 -1 0 0 cm
180.836 41.918 m 66.035 -72.887 l S Q
  Q
Q
Q q
56.07 25.871 m 186.07 25.871 l 186.07 27.289 l 56.07 27.289 l h
56.07 27.289 m 186.07 27.289 l 186.07 28.703 l 56.07 28.703 l h
56.07 27.289 m W n
q
56 25 131 4 re W n
  q
0 g
0.510386 w
2 J
0 j
[] 0.0 d
10 M q 1 0 0 -1 0 0 cm
178.438 44.316 m 63.633 -70.488 l S Q
  Q
Q
Q q
53.07 25.871 m 184.07 25.871 l 184.07 27.289 l 53.07 27.289 l h
53.07 27.289 m 184.07 27.289 l 184.07 28.703 l 53.07 28.703 l h
53.07 27.289 m W n
q
53 25 132 4 re W n
  q
0 g
0.510386 w
2 J
0 j
[] 0.0 d
10 M q 1 0 0 -1 0 0 cm
176.035 46.715 m 61.234 -68.086 l S Q
  Q
Q
Q q
51.07 25.871 m 181.07 25.871 l 181.07 27.289 l 51.07 27.289 l h
51.07 27.289 m 181.07 27.289 l 181.07 28.703 l 51.07 28.703 l h
51.07 27.289 m W n
q
51 25 131 4 re W n
  q
0 g
0.510386 w
2 J
0 j
[] 0.0 d
10 M q 1 0 0 -1 0 0 cm
173.637 49.117 m 58.832 -65.688 l S Q
  Q
Q
Q q
49.07 25.871 m 179.07 25.871 l 179.07 27.289 l 49.07 27.289 l h
49.07 27.289 m 179.07 27.289 l 179.07 28.703 l 49.07 28.703 l h
49.07 27.289 m W n
q
49 25 131 4 re W n
  q
0 g
0.510386 w
2 J
0 j
[] 0.0 d
10 M q 1 0 0 -1 0 0 cm
171.234 51.516 m 56.434 -63.289 l S Q
  Q
Q
Q q
46.07 25.871 m 176.07 25.871 l 176.07 27.289 l 46.07 27.289 l h
46.07 27.289 m 176.07 27.289 l 176.07 28.703 l 46.07 28.703 l h
46.07 27.289 m W n
q
46 25 131 4 re W n
  q
0 g
0.510386 w
2 J
0 j
[] 0.0 d
10 M q 1 0 0 -1 0 0 cm
168.836 53.918 m 54.035 -60.887 l S Q
  Q
Q
Q q
44.07 25.871 m 174.07 25.871 l 174.07 27.289 l 44.07 27.289 l h
44.07 27.289 m 174.07 27.289 l 174.07 28.703 l 44.07 28.703 l h
44.07 27.289 m W n
q
44 25 131 4 re W n
  q
0 g
0.510386 w
2 J
0 j
[] 0.0 d
10 M q 1 0 0 -1 0 0 cm
166.438 56.316 m 51.633 -58.488 l S Q
  Q
Q
Q q
41.07 25.871 m 172.07 25.871 l 172.07 27.289 l 41.07 27.289 l h
41.07 27.289 m 172.07 27.289 l 172.07 28.703 l 41.07 28.703 l h
41.07 27.289 m W n
q
41 25 132 4 re W n
  q
0 g
0.510386 w
2 J
0 j
[] 0.0 d
10 M q 1 0 0 -1 0 0 cm
164.035 58.715 m 49.234 -56.086 l S Q
  Q
Q
Q q
39.07 25.871 m 169.07 25.871 l 169.07 27.289 l 39.07 27.289 l h
39.07 27.289 m 169.07 27.289 l 169.07 28.703 l 39.07 28.703 l h
39.07 27.289 m W n
q
39 25 131 4 re W n
  q
0 g
0.510386 w
2 J
0 j
[] 0.0 d
10 M q 1 0 0 -1 0 0 cm
161.637 61.117 m 46.832 -53.688 l S Q
  Q
Q
Q q
37.07 25.871 m 167.07 25.871 l 167.07 27.289 l 37.07 27.289 l h
37.07 27.289 m 167.07 27.289 l 167.07 28.703 l 37.07 28.703 l h
37.07 27.289 m W n
q
37 25 131 4 re W n
  q
0 g
0.510386 w
2 J
0 j
[] 0.0 d
10 M q 1 0 0 -1 0 0 cm
159.234 63.516 m 44.434 -51.289 l S Q
  Q
Q
Q q
34.07 25.871 m 164.07 25.871 l 164.07 27.289 l 34.07 27.289 l h
34.07 27.289 m 164.07 27.289 l 164.07 28.703 l 34.07 28.703 l h
34.07 27.289 m W n
q
34 25 131 4 re W n
  q
0 g
0.510386 w
2 J
0 j
[] 0.0 d
10 M q 1 0 0 -1 0 0 cm
156.836 65.918 m 42.035 -48.887 l S Q
  Q
Q
Q q
32.07 25.871 m 162.07 25.871 l 162.07 27.289 l 32.07 27.289 l h
32.07 27.289 m 162.07 27.289 l 162.07 28.703 l 32.07 28.703 l h
32.07 27.289 m W n
q
32 25 131 4 re W n
  q
0 g
0.510386 w
2 J
0 j
[] 0.0 d
10 M q 1 0 0 -1 0 0 cm
154.438 68.316 m 39.633 -46.488 l S Q
  Q
Q
Q q
29.07 25.871 m 160.07 25.871 l 160.07 27.289 l 29.07 27.289 l h
29.07 27.289 m 160.07 27.289 l 160.07 28.703 l 29.07 28.703 l h
29.07 27.289 m W n
q
29 25 132 4 re W n
  q
0 g
0.510386 w
2 J
0 j
[] 0.0 d
10 M q 1 0 0 -1 0 0 cm
152.035 70.715 m 37.234 -44.086 l S Q
  Q
Q
Q q
27.07 25.871 m 157.07 25.871 l 157.07 27.289 l 27.07 27.289 l h
27.07 27.289 m 157.07 27.289 l 157.07 28.703 l 27.07 28.703 l h
27.07 27.289 m W n
q
27 25 131 4 re W n
  q
0 g
0.510386 w
2 J
0 j
[] 0.0 d
10 M q 1 0 0 -1 0 0 cm
149.637 73.117 m 34.832 -41.688 l S Q
  Q
Q
Q q
25.07 25.871 m 155.07 25.871 l 155.07 27.289 l 25.07 27.289 l h
25.07 27.289 m 155.07 27.289 l 155.07 28.703 l 25.07 28.703 l h
25.07 27.289 m W n
q
25 25 131 4 re W n
  q
0 g
0.510386 w
2 J
0 j
[] 0.0 d
10 M q 1 0 0 -1 0 0 cm
147.234 75.516 m 32.434 -39.289 l S Q
  Q
Q
Q q
22.07 25.871 m 152.07 25.871 l 152.07 27.289 l 22.07 27.289 l h
22.07 27.289 m 152.07 27.289 l 152.07 28.703 l 22.07 28.703 l h
22.07 27.289 m W n
q
22 25 131 4 re W n
  q
0 g
0.510386 w
2 J
0 j
[] 0.0 d
10 M q 1 0 0 -1 0 0 cm
144.836 77.918 m 30.035 -36.887 l S Q
  Q
Q
Q q
21.852 25.871 m 150.07 25.871 l 150.07 27.289 l 21.852 27.289 l h
21.852 27.289 m 150.07 27.289 l 150.07 28.703 l 21.852 28.703 l h
21.852 27.289 m W n
q
21 25 130 4 re W n
  q
0 g
0.510386 w
2 J
0 j
[] 0.0 d
10 M q 1 0 0 -1 0 0 cm
142.438 80.316 m 27.633 -34.488 l S Q
  Q
Q
Q q
21.852 25.871 m 148.07 25.871 l 148.07 27.289 l 21.852 27.289 l h
21.852 27.289 m 148.07 27.289 l 148.07 28.703 l 21.852 28.703 l h
21.852 27.289 m W n
q
21 25 128 4 re W n
  q
0 g
0.510386 w
2 J
0 j
[] 0.0 d
10 M q 1 0 0 -1 0 0 cm
140.035 82.715 m 25.234 -32.086 l S Q
  Q
Q
Q q
21.852 25.871 m 145.07 25.871 l 145.07 27.289 l 21.852 27.289 l h
21.852 27.289 m 145.07 27.289 l 145.07 28.703 l 21.852 28.703 l h
21.852 27.289 m W n
q
21 25 125 4 re W n
  q
0 g
0.510386 w
2 J
0 j
[] 0.0 d
10 M q 1 0 0 -1 0 0 cm
137.637 85.117 m 22.832 -29.688 l S Q
  Q
Q
Q q
21.852 25.871 m 143.07 25.871 l 143.07 27.289 l 21.852 27.289 l h
21.852 27.289 m 143.07 27.289 l 143.07 28.703 l 21.852 28.703 l h
21.852 27.289 m W n
q
21 25 123 4 re W n
  q
0 g
0.510386 w
2 J
0 j
[] 0.0 d
10 M q 1 0 0 -1 0 0 cm
135.234 87.516 m 20.434 -27.289 l S Q
  Q
Q
Q q
0 g
0.708483 w
0 J
0 j
[] 0.0 d
10 M q 1 0 0 -1 0 0 cm
21.852 -27.289 m 21.852 -25.871 l 248.621 -25.871 l 248.621 -28.703 l 21.852
 -28.703 l h
21.852 -27.289 m S Q
Q q
126.07 0.355 m 248.621 0.355 l 248.621 1.773 l 126.07 1.773 l h
126.07 1.773 m 248.621 1.773 l 248.621 3.191 l 126.07 3.191 l h
126.07 1.773 m W n
q
126 0 123 4 re W n
  q
0 g
0.510386 w
2 J
0 j
[] 0.0 d
10 M q 1 0 0 -1 0 0 cm
248.793 -0.527 m 133.988 -115.332 l S Q
  Q
Q
Q q
124.07 0.355 m 248.621 0.355 l 248.621 1.773 l 124.07 1.773 l h
124.07 1.773 m 248.621 1.773 l 248.621 3.191 l 124.07 3.191 l h
124.07 1.773 m W n
q
124 0 125 4 re W n
  q
0 g
0.510386 w
2 J
0 j
[] 0.0 d
10 M q 1 0 0 -1 0 0 cm
246.391 1.871 m 131.59 -112.93 l S Q
  Q
Q
Q q
121.07 0.355 m 248.621 0.355 l 248.621 1.773 l 121.07 1.773 l h
121.07 1.773 m 248.621 1.773 l 248.621 3.191 l 121.07 3.191 l h
121.07 1.773 m W n
q
121 0 128 4 re W n
  q
0 g
0.510386 w
2 J
0 j
[] 0.0 d
10 M q 1 0 0 -1 0 0 cm
243.992 4.273 m 129.188 -110.531 l S Q
  Q
Q
Q q
119.07 0.355 m 248.621 0.355 l 248.621 1.773 l 119.07 1.773 l h
119.07 1.773 m 248.621 1.773 l 248.621 3.191 l 119.07 3.191 l h
119.07 1.773 m W n
q
119 0 130 4 re W n
  q
0 g
0.510386 w
2 J
0 j
[] 0.0 d
10 M q 1 0 0 -1 0 0 cm
241.594 6.672 m 126.789 -108.129 l S Q
  Q
Q
Q q
117.07 0.355 m 247.07 0.355 l 247.07 1.773 l 117.07 1.773 l h
117.07 1.773 m 247.07 1.773 l 247.07 3.191 l 117.07 3.191 l h
117.07 1.773 m W n
q
117 0 131 4 re W n
  q
0 g
0.510386 w
2 J
0 j
[] 0.0 d
10 M q 1 0 0 -1 0 0 cm
239.191 9.07 m 124.391 -105.73 l S Q
  Q
Q
Q q
114.07 0.355 m 244.07 0.355 l 244.07 1.773 l 114.07 1.773 l h
114.07 1.773 m 244.07 1.773 l 244.07 3.191 l 114.07 3.191 l h
114.07 1.773 m W n
q
114 0 131 4 re W n
  q
0 g
0.510386 w
2 J
0 j
[] 0.0 d
10 M q 1 0 0 -1 0 0 cm
236.793 11.473 m 121.988 -103.332 l S Q
  Q
Q
Q q
112.07 0.355 m 242.07 0.355 l 242.07 1.773 l 112.07 1.773 l h
112.07 1.773 m 242.07 1.773 l 242.07 3.191 l 112.07 3.191 l h
112.07 1.773 m W n
q
112 0 131 4 re W n
  q
0 g
0.510386 w
2 J
0 j
[] 0.0 d
10 M q 1 0 0 -1 0 0 cm
234.391 13.871 m 119.59 -100.93 l S Q
  Q
Q
Q q
109.07 0.355 m 240.07 0.355 l 240.07 1.773 l 109.07 1.773 l h
109.07 1.773 m 240.07 1.773 l 240.07 3.191 l 109.07 3.191 l h
109.07 1.773 m W n
q
109 0 132 4 re W n
  q
0 g
0.510386 w
2 J
0 j
[] 0.0 d
10 M q 1 0 0 -1 0 0 cm
231.992 16.273 m 117.188 -98.531 l S Q
  Q
Q
Q q
107.07 0.355 m 237.07 0.355 l 237.07 1.773 l 107.07 1.773 l h
107.07 1.773 m 237.07 1.773 l 237.07 3.191 l 107.07 3.191 l h
107.07 1.773 m W n
q
107 0 131 4 re W n
  q
0 g
0.510386 w
2 J
0 j
[] 0.0 d
10 M q 1 0 0 -1 0 0 cm
229.594 18.672 m 114.789 -96.129 l S Q
  Q
Q
Q q
105.07 0.355 m 235.07 0.355 l 235.07 1.773 l 105.07 1.773 l h
105.07 1.773 m 235.07 1.773 l 235.07 3.191 l 105.07 3.191 l h
105.07 1.773 m W n
q
105 0 131 4 re W n
  q
0 g
0.510386 w
2 J
0 j
[] 0.0 d
10 M q 1 0 0 -1 0 0 cm
227.191 21.074 m 112.391 -93.73 l S Q
  Q
Q
Q q
102.07 0.355 m 232.07 0.355 l 232.07 1.773 l 102.07 1.773 l h
102.07 1.773 m 232.07 1.773 l 232.07 3.191 l 102.07 3.191 l h
102.07 1.773 m W n
q
102 0 131 4 re W n
  q
0 g
0.510386 w
2 J
0 j
[] 0.0 d
10 M q 1 0 0 -1 0 0 cm
224.793 23.473 m 109.988 -91.332 l S Q
  Q
Q
Q q
100.07 0.355 m 230.07 0.355 l 230.07 1.773 l 100.07 1.773 l h
100.07 1.773 m 230.07 1.773 l 230.07 3.191 l 100.07 3.191 l h
100.07 1.773 m W n
q
100 0 131 4 re W n
  q
0 g
0.510386 w
2 J
0 j
[] 0.0 d
10 M q 1 0 0 -1 0 0 cm
222.391 25.871 m 107.59 -88.93 l S Q
  Q
Q
Q q
97.07 0.355 m 228.07 0.355 l 228.07 1.773 l 97.07 1.773 l h
97.07 1.773 m 228.07 1.773 l 228.07 3.191 l 97.07 3.191 l h
97.07 1.773 m W n
q
97 0 132 4 re W n
  q
0 g
0.510386 w
2 J
0 j
[] 0.0 d
10 M q 1 0 0 -1 0 0 cm
219.992 28.273 m 105.188 -86.531 l S Q
  Q
Q
Q q
95.07 0.355 m 225.07 0.355 l 225.07 1.773 l 95.07 1.773 l h
95.07 1.773 m 225.07 1.773 l 225.07 3.191 l 95.07 3.191 l h
95.07 1.773 m W n
q
95 0 131 4 re W n
  q
0 g
0.510386 w
2 J
0 j
[] 0.0 d
10 M q 1 0 0 -1 0 0 cm
217.594 30.672 m 102.789 -84.129 l S Q
  Q
Q
Q q
93.07 0.355 m 223.07 0.355 l 223.07 1.773 l 93.07 1.773 l h
93.07 1.773 m 223.07 1.773 l 223.07 3.191 l 93.07 3.191 l h
93.07 1.773 m W n
q
93 0 131 4 re W n
  q
0 g
0.510386 w
2 J
0 j
[] 0.0 d
10 M q 1 0 0 -1 0 0 cm
215.191 33.07 m 100.391 -81.73 l S Q
  Q
Q
Q q
90.07 0.355 m 220.07 0.355 l 220.07 1.773 l 90.07 1.773 l h
90.07 1.773 m 220.07 1.773 l 220.07 3.191 l 90.07 3.191 l h
90.07 1.773 m W n
q
90 0 131 4 re W n
  q
0 g
0.510386 w
2 J
0 j
[] 0.0 d
10 M q 1 0 0 -1 0 0 cm
212.793 35.473 m 97.988 -79.332 l S Q
  Q
Q
Q q
88.07 0.355 m 218.07 0.355 l 218.07 1.773 l 88.07 1.773 l h
88.07 1.773 m 218.07 1.773 l 218.07 3.191 l 88.07 3.191 l h
88.07 1.773 m W n
q
88 0 131 4 re W n
  q
0 g
0.510386 w
2 J
0 j
[] 0.0 d
10 M q 1 0 0 -1 0 0 cm
210.391 37.871 m 95.59 -76.93 l S Q
  Q
Q
Q q
85.07 0.355 m 216.07 0.355 l 216.07 1.773 l 85.07 1.773 l h
85.07 1.773 m 216.07 1.773 l 216.07 3.191 l 85.07 3.191 l h
85.07 1.773 m W n
q
85 0 132 4 re W n
  q
0 g
0.510386 w
2 J
0 j
[] 0.0 d
10 M q 1 0 0 -1 0 0 cm
207.992 40.273 m 93.188 -74.531 l S Q
  Q
Q
Q q
83.07 0.355 m 213.07 0.355 l 213.07 1.773 l 83.07 1.773 l h
83.07 1.773 m 213.07 1.773 l 213.07 3.191 l 83.07 3.191 l h
83.07 1.773 m W n
q
83 0 131 4 re W n
  q
0 g
0.510386 w
2 J
0 j
[] 0.0 d
10 M q 1 0 0 -1 0 0 cm
205.594 42.672 m 90.789 -72.129 l S Q
  Q
Q
Q q
81.07 0.355 m 211.07 0.355 l 211.07 1.773 l 81.07 1.773 l h
81.07 1.773 m 211.07 1.773 l 211.07 3.191 l 81.07 3.191 l h
81.07 1.773 m W n
q
81 0 131 4 re W n
  q
0 g
0.510386 w
2 J
0 j
[] 0.0 d
10 M q 1 0 0 -1 0 0 cm
203.191 45.07 m 88.391 -69.73 l S Q
  Q
Q
Q q
78.07 0.355 m 208.07 0.355 l 208.07 1.773 l 78.07 1.773 l h
78.07 1.773 m 208.07 1.773 l 208.07 3.191 l 78.07 3.191 l h
78.07 1.773 m W n
q
78 0 131 4 re W n
  q
0 g
0.510386 w
2 J
0 j
[] 0.0 d
10 M q 1 0 0 -1 0 0 cm
200.793 47.473 m 85.988 -67.332 l S Q
  Q
Q
Q q
76.07 0.355 m 206.07 0.355 l 206.07 1.773 l 76.07 1.773 l h
76.07 1.773 m 206.07 1.773 l 206.07 3.191 l 76.07 3.191 l h
76.07 1.773 m W n
q
76 0 131 4 re W n
  q
0 g
0.510386 w
2 J
0 j
[] 0.0 d
10 M q 1 0 0 -1 0 0 cm
198.391 49.871 m 83.59 -64.93 l S Q
  Q
Q
Q q
73.07 0.355 m 204.07 0.355 l 204.07 1.773 l 73.07 1.773 l h
73.07 1.773 m 204.07 1.773 l 204.07 3.191 l 73.07 3.191 l h
73.07 1.773 m W n
q
73 0 132 4 re W n
  q
0 g
0.510386 w
2 J
0 j
[] 0.0 d
10 M q 1 0 0 -1 0 0 cm
195.992 52.273 m 81.188 -62.531 l S Q
  Q
Q
Q q
71.07 0.355 m 201.07 0.355 l 201.07 1.773 l 71.07 1.773 l h
71.07 1.773 m 201.07 1.773 l 201.07 3.191 l 71.07 3.191 l h
71.07 1.773 m W n
q
71 0 131 4 re W n
  q
0 g
0.510386 w
2 J
0 j
[] 0.0 d
10 M q 1 0 0 -1 0 0 cm
193.594 54.672 m 78.789 -60.129 l S Q
  Q
Q
Q q
69.07 0.355 m 199.07 0.355 l 199.07 1.773 l 69.07 1.773 l h
69.07 1.773 m 199.07 1.773 l 199.07 3.191 l 69.07 3.191 l h
69.07 1.773 m W n
q
69 0 131 4 re W n
  q
0 g
0.510386 w
2 J
0 j
[] 0.0 d
10 M q 1 0 0 -1 0 0 cm
191.191 57.07 m 76.391 -57.73 l S Q
  Q
Q
Q q
66.07 0.355 m 196.07 0.355 l 196.07 1.773 l 66.07 1.773 l h
66.07 1.773 m 196.07 1.773 l 196.07 3.191 l 66.07 3.191 l h
66.07 1.773 m W n
q
66 0 131 4 re W n
  q
0 g
0.510386 w
2 J
0 j
[] 0.0 d
10 M q 1 0 0 -1 0 0 cm
188.793 59.473 m 73.988 -55.332 l S Q
  Q
Q
Q q
64.07 0.355 m 194.07 0.355 l 194.07 1.773 l 64.07 1.773 l h
64.07 1.773 m 194.07 1.773 l 194.07 3.191 l 64.07 3.191 l h
64.07 1.773 m W n
q
64 0 131 4 re W n
  q
0 g
0.510386 w
2 J
0 j
[] 0.0 d
10 M q 1 0 0 -1 0 0 cm
186.391 61.871 m 71.59 -52.93 l S Q
  Q
Q
Q q
61.07 0.355 m 192.07 0.355 l 192.07 1.773 l 61.07 1.773 l h
61.07 1.773 m 192.07 1.773 l 192.07 3.191 l 61.07 3.191 l h
61.07 1.773 m W n
q
61 0 132 4 re W n
  q
0 g
0.510386 w
2 J
0 j
[] 0.0 d
10 M q 1 0 0 -1 0 0 cm
183.992 64.273 m 69.188 -50.531 l S Q
  Q
Q
Q q
59.07 0.355 m 189.07 0.355 l 189.07 1.773 l 59.07 1.773 l h
59.07 1.773 m 189.07 1.773 l 189.07 3.191 l 59.07 3.191 l h
59.07 1.773 m W n
q
59 0 131 4 re W n
  q
0 g
0.510386 w
2 J
0 j
[] 0.0 d
10 M q 1 0 0 -1 0 0 cm
181.594 66.672 m 66.789 -48.129 l S Q
  Q
Q
Q q
57.07 0.355 m 187.07 0.355 l 187.07 1.773 l 57.07 1.773 l h
57.07 1.773 m 187.07 1.773 l 187.07 3.191 l 57.07 3.191 l h
57.07 1.773 m W n
q
57 0 131 4 re W n
  q
0 g
0.510386 w
2 J
0 j
[] 0.0 d
10 M q 1 0 0 -1 0 0 cm
179.191 69.074 m 64.391 -45.73 l S Q
  Q
Q
Q q
54.07 0.355 m 184.07 0.355 l 184.07 1.773 l 54.07 1.773 l h
54.07 1.773 m 184.07 1.773 l 184.07 3.191 l 54.07 3.191 l h
54.07 1.773 m W n
q
54 0 131 4 re W n
  q
0 g
0.510386 w
2 J
0 j
[] 0.0 d
10 M q 1 0 0 -1 0 0 cm
176.793 71.473 m 61.988 -43.332 l S Q
  Q
Q
Q q
52.07 0.355 m 182.07 0.355 l 182.07 1.773 l 52.07 1.773 l h
52.07 1.773 m 182.07 1.773 l 182.07 3.191 l 52.07 3.191 l h
52.07 1.773 m W n
q
52 0 131 4 re W n
  q
0 g
0.510386 w
2 J
0 j
[] 0.0 d
10 M q 1 0 0 -1 0 0 cm
174.391 73.871 m 59.59 -40.93 l S Q
  Q
Q
Q q
49.07 0.355 m 180.07 0.355 l 180.07 1.773 l 49.07 1.773 l h
49.07 1.773 m 180.07 1.773 l 180.07 3.191 l 49.07 3.191 l h
49.07 1.773 m W n
q
49 0 132 4 re W n
  q
0 g
0.510386 w
2 J
0 j
[] 0.0 d
10 M q 1 0 0 -1 0 0 cm
171.992 76.273 m 57.188 -38.531 l S Q
  Q
Q
Q q
47.07 0.355 m 177.07 0.355 l 177.07 1.773 l 47.07 1.773 l h
47.07 1.773 m 177.07 1.773 l 177.07 3.191 l 47.07 3.191 l h
47.07 1.773 m W n
q
47 0 131 4 re W n
  q
0 g
0.510386 w
2 J
0 j
[] 0.0 d
10 M q 1 0 0 -1 0 0 cm
169.594 78.672 m 54.789 -36.129 l S Q
  Q
Q
Q q
45.07 0.355 m 175.07 0.355 l 175.07 1.773 l 45.07 1.773 l h
45.07 1.773 m 175.07 1.773 l 175.07 3.191 l 45.07 3.191 l h
45.07 1.773 m W n
q
45 0 131 4 re W n
  q
0 g
0.510386 w
2 J
0 j
[] 0.0 d
10 M q 1 0 0 -1 0 0 cm
167.191 81.07 m 52.391 -33.73 l S Q
  Q
Q
Q q
42.07 0.355 m 172.07 0.355 l 172.07 1.773 l 42.07 1.773 l h
42.07 1.773 m 172.07 1.773 l 172.07 3.191 l 42.07 3.191 l h
42.07 1.773 m W n
q
42 0 131 4 re W n
  q
0 g
0.510386 w
2 J
0 j
[] 0.0 d
10 M q 1 0 0 -1 0 0 cm
164.793 83.473 m 49.988 -31.332 l S Q
  Q
Q
Q q
40.07 0.355 m 170.07 0.355 l 170.07 1.773 l 40.07 1.773 l h
40.07 1.773 m 170.07 1.773 l 170.07 3.191 l 40.07 3.191 l h
40.07 1.773 m W n
q
40 0 131 4 re W n
  q
0 g
0.510386 w
2 J
0 j
[] 0.0 d
10 M q 1 0 0 -1 0 0 cm
162.391 85.871 m 47.59 -28.93 l S Q
  Q
Q
Q q
37.07 0.355 m 168.07 0.355 l 168.07 1.773 l 37.07 1.773 l h
37.07 1.773 m 168.07 1.773 l 168.07 3.191 l 37.07 3.191 l h
37.07 1.773 m W n
q
37 0 132 4 re W n
  q
0 g
0.510386 w
2 J
0 j
[] 0.0 d
10 M q 1 0 0 -1 0 0 cm
159.992 88.273 m 45.188 -26.531 l S Q
  Q
Q
Q q
35.07 0.355 m 165.07 0.355 l 165.07 1.773 l 35.07 1.773 l h
35.07 1.773 m 165.07 1.773 l 165.07 3.191 l 35.07 3.191 l h
35.07 1.773 m W n
q
35 0 131 4 re W n
  q
0 g
0.510386 w
2 J
0 j
[] 0.0 d
10 M q 1 0 0 -1 0 0 cm
157.594 90.672 m 42.789 -24.129 l S Q
  Q
Q
Q q
33.07 0.355 m 163.07 0.355 l 163.07 1.773 l 33.07 1.773 l h
33.07 1.773 m 163.07 1.773 l 163.07 3.191 l 33.07 3.191 l h
33.07 1.773 m W n
q
33 0 131 4 re W n
  q
0 g
0.510386 w
2 J
0 j
[] 0.0 d
10 M q 1 0 0 -1 0 0 cm
155.191 93.074 m 40.391 -21.73 l S Q
  Q
Q
Q q
30.07 0.355 m 160.07 0.355 l 160.07 1.773 l 30.07 1.773 l h
30.07 1.773 m 160.07 1.773 l 160.07 3.191 l 30.07 3.191 l h
30.07 1.773 m W n
q
30 0 131 4 re W n
  q
0 g
0.510386 w
2 J
0 j
[] 0.0 d
10 M q 1 0 0 -1 0 0 cm
152.793 95.473 m 37.988 -19.332 l S Q
  Q
Q
Q q
28.07 0.355 m 158.07 0.355 l 158.07 1.773 l 28.07 1.773 l h
28.07 1.773 m 158.07 1.773 l 158.07 3.191 l 28.07 3.191 l h
28.07 1.773 m W n
q
28 0 131 4 re W n
  q
0 g
0.510386 w
2 J
0 j
[] 0.0 d
10 M q 1 0 0 -1 0 0 cm
150.391 97.871 m 35.59 -16.93 l S Q
  Q
Q
Q q
25.07 0.355 m 156.07 0.355 l 156.07 1.773 l 25.07 1.773 l h
25.07 1.773 m 156.07 1.773 l 156.07 3.191 l 25.07 3.191 l h
25.07 1.773 m W n
q
25 0 132 4 re W n
  q
0 g
0.510386 w
2 J
0 j
[] 0.0 d
10 M q 1 0 0 -1 0 0 cm
147.992 100.273 m 33.188 -14.531 l S Q
  Q
Q
Q q
23.07 0.355 m 153.07 0.355 l 153.07 1.773 l 23.07 1.773 l h
23.07 1.773 m 153.07 1.773 l 153.07 3.191 l 23.07 3.191 l h
23.07 1.773 m W n
q
23 0 131 4 re W n
  q
0 g
0.510386 w
2 J
0 j
[] 0.0 d
10 M q 1 0 0 -1 0 0 cm
145.594 102.672 m 30.789 -12.129 l S Q
  Q
Q
Q q
21.852 0.355 m 151.07 0.355 l 151.07 1.773 l 21.852 1.773 l h
21.852 1.773 m 151.07 1.773 l 151.07 3.191 l 21.852 3.191 l h
21.852 1.773 m W n
q
21 0 131 4 re W n
  q
0 g
0.510386 w
2 J
0 j
[] 0.0 d
10 M q 1 0 0 -1 0 0 cm
143.191 105.074 m 28.391 -9.73 l S Q
  Q
Q
Q q
21.852 0.355 m 148.07 0.355 l 148.07 1.773 l 21.852 1.773 l h
21.852 1.773 m 148.07 1.773 l 148.07 3.191 l 21.852 3.191 l h
21.852 1.773 m W n
q
21 0 128 4 re W n
  q
0 g
0.510386 w
2 J
0 j
[] 0.0 d
10 M q 1 0 0 -1 0 0 cm
140.793 107.473 m 25.988 -7.332 l S Q
  Q
Q
Q q
21.852 0.355 m 146.07 0.355 l 146.07 1.773 l 21.852 1.773 l h
21.852 1.773 m 146.07 1.773 l 146.07 3.191 l 21.852 3.191 l h
21.852 1.773 m W n
q
21 0 126 4 re W n
  q
0 g
0.510386 w
2 J
0 j
[] 0.0 d
10 M q 1 0 0 -1 0 0 cm
138.391 109.871 m 23.59 -4.93 l S Q
  Q
Q
Q q
21.852 0.355 m 144.07 0.355 l 144.07 1.773 l 21.852 1.773 l h
21.852 1.773 m 144.07 1.773 l 144.07 3.191 l 21.852 3.191 l h
21.852 1.773 m W n
q
21 0 124 4 re W n
  q
0 g
0.510386 w
2 J
0 j
[] 0.0 d
10 M q 1 0 0 -1 0 0 cm
135.992 112.273 m 21.188 -2.531 l S Q
  Q
Q
Q q
21.852 0.355 m 141.07 0.355 l 141.07 1.773 l 21.852 1.773 l h
21.852 1.773 m 141.07 1.773 l 141.07 3.191 l 21.852 3.191 l h
21.852 1.773 m W n
q
21 0 121 4 re W n
  q
0 g
0.510386 w
2 J
0 j
[] 0.0 d
10 M q 1 0 0 -1 0 0 cm
133.594 114.672 m 18.789 -0.129 l S Q
  Q
Q
Q q
0 g
0.708483 w
0 J
0 j
[] 0.0 d
10 M q 1 0 0 -1 0 0 cm
21.852 -1.773 m 21.852 -0.355 l 248.621 -0.355 l 248.621 -3.191 l 21.852
 -3.191 l h
21.852 -1.773 m S Q
Q q
129.566 25.062 5.668 0.809 re W n
q
129 25 7 1 re W n
  q
0 g
0.283298 w
2 J
0 j
[] 0.0 d
10 M q 1 0 0 -1 0 0 cm
135.234 -25.871 m 129.566 -25.871 l S Q
  Q
Q
Q q
129.566 23.062 5.668 1 re W n
q
129 23 7 2 re W n
  q
0 g
0.283298 w
2 J
0 j
[] 0.0 d
10 M q 1 0 0 -1 0 0 cm
135.234 -23.57 m 129.566 -23.57 l S Q
  Q
Q
Q q
129.566 21.062 5.668 1 re W n
q
129 21 7 2 re W n
  q
0 g
0.283298 w
2 J
0 j
[] 0.0 d
10 M q 1 0 0 -1 0 0 cm
135.234 -21.27 m 129.566 -21.27 l S Q
  Q
Q
Q q
129.566 18.062 5.668 2 re W n
q
129 18 7 3 re W n
  q
0 g
0.283298 w
2 J
0 j
[] 0.0 d
10 M q 1 0 0 -1 0 0 cm
135.234 -18.969 m 129.566 -18.969 l S Q
  Q
Q
Q q
129.566 16.062 5.668 1 re W n
q
129 16 7 2 re W n
  q
0 g
0.283298 w
2 J
0 j
[] 0.0 d
10 M q 1 0 0 -1 0 0 cm
135.234 -16.668 m 129.566 -16.668 l S Q
  Q
Q
Q q
129.566 14.062 m 135.234 14.062 l 135.234 14.531 l 129.566 14.531 l h
129.566 14.531 m 135.234 14.531 l 135.234 15.062 l 129.566 15.062 l h
129.566 14.531 m W n
q
129 14 7 2 re W n
  q
0 g
0.283298 w
2 J
0 j
[] 0.0 d
10 M q 1 0 0 -1 0 0 cm
135.234 -14.371 m 129.566 -14.371 l S Q
  Q
Q
Q q
129.566 11.062 5.668 2 re W n
q
129 11 7 3 re W n
  q
0 g
0.283298 w
2 J
0 j
[] 0.0 d
10 M q 1 0 0 -1 0 0 cm
135.234 -12.07 m 129.566 -12.07 l S Q
  Q
Q
Q q
129.566 9.062 5.668 1 re W n
q
129 9 7 2 re W n
  q
0 g
0.283298 w
2 J
0 j
[] 0.0 d
10 M q 1 0 0 -1 0 0 cm
135.234 -9.77 m 129.566 -9.77 l S Q
  Q
Q
Q q
129.566 7.062 5.668 1 re W n
q
129 7 7 2 re W n
  q
0 g
0.283298 w
2 J
0 j
[] 0.0 d
10 M q 1 0 0 -1 0 0 cm
135.234 -7.469 m 129.566 -7.469 l S Q
  Q
Q
Q q
129.566 4.062 5.668 2 re W n
q
129 4 7 3 re W n
  q
0 g
0.283298 w
2 J
0 j
[] 0.0 d
10 M q 1 0 0 -1 0 0 cm
135.234 -5.168 m 129.566 -5.168 l S Q
  Q
Q
Q q
129.566 3.191 5.668 0.871 re W n
q
129 3 7 2 re W n
  q
0 g
0.283298 w
2 J
0 j
[] 0.0 d
10 M q 1 0 0 -1 0 0 cm
135.234 -2.871 m 129.566 -2.871 l S Q
  Q
Q
Q q
0 g
0.283298 w
0 J
0 j
[] 0.0 d
10 M q 1 0 0 -1 0 0 cm
129.566 -14.531 m 129.566 -3.191 l 135.234 -3.191 l 135.234 -25.871 l 129.566
 -25.871 l h
129.566 -14.531 m S Q
30.711 14.953 m 30.711 14.875 l 29.477 14.531 28.133 13.484 27.898 12.953
 c 27.664 12.953 l 28.008 13.844 28.805 14.422 29.211 14.688 c 22.352 14.688
 l 22.352 15.141 l 29.211 15.141 l 28.805 15.406 28.008 15.984 27.664 16.859
 c 27.898 16.859 l 28.133 16.344 29.477 15.281 30.711 14.953 c h
30.711 14.953 m f
48.902 11.125 m 43.887 11.125 l 43.465 12.656 l 43.637 12.656 l 44.012 
11.672 44.48 11.453 45.262 11.453 c 45.262 11.453 45.777 11.453 45.887 11.453
 c 44.59 16.125 l 44.34 17.031 44.027 17.016 43.668 17.016 c 43.652 17.172
 l 46.012 17.172 l 46.043 17.016 l 45.699 17.016 45.355 17.031 45.355 16.578
 c 45.355 16.453 45.387 16.312 45.434 16.125 c 46.715 11.453 l 47.465 11.453
 l 47.902 11.453 48.371 11.516 48.371 12.141 c 48.371 12.281 48.355 12.438
 48.309 12.656 c 48.48 12.656 l h
48.902 11.125 m f
51.422 10.324 m 51.422 10.105 51.188 9.949 50.969 9.949 c 50.812 9.949 
50.672 10.027 50.609 10.246 c 49.672 13.434 l 49.875 13.512 l 51.375 10.496
 l 51.391 10.434 51.422 10.387 51.422 10.324 c h
51.422 10.324 m f
53.887 17.062 m 53.887 16.484 53.527 16.297 53.324 16.297 c 53.184 16.297
 52.809 16.375 52.809 16.797 c 52.809 17.141 53.09 17.25 53.246 17.25 c 
53.324 17.25 53.34 17.203 53.418 17.203 c 53.465 17.203 53.559 17.266 53.559
 17.422 c 53.559 17.547 53.527 17.875 52.965 18.281 c 52.965 18.469 l 53.434
 18.156 53.887 17.672 53.887 17.062 c h
53.887 17.062 m f
61.363 14.25 m 61.363 13.547 61.051 13.078 60.379 13.078 c 59.785 13.078
 59.332 13.5 58.926 14.062 c 59.238 13.078 l 59.238 13.078 58.035 13.312
 57.77 13.328 c 57.77 13.484 l 58.098 13.484 58.363 13.453 58.363 13.812
 c 58.363 13.984 58.254 14.375 58.191 14.594 c 57.129 18.328 l 57.035 18.672
 56.879 18.922 56.441 18.922 c 56.41 19.078 l 58.379 19.078 l 58.41 18.922
 l 58.066 18.922 57.77 18.906 57.77 18.656 c 57.77 18.578 57.785 18.484 
57.832 18.312 c 58.145 17.062 l 58.316 17.203 58.582 17.281 58.801 17.281
 c 59.879 17.281 61.363 15.75 61.363 14.25 c h
60.598 14.344 m 60.598 15.516 59.613 17.078 58.77 17.078 c 58.566 17.078
 58.379 17 58.207 16.828 c 58.41 16.031 58.957 13.5 60.113 13.5 c 60.598
 13.5 60.598 14.141 60.598 14.344 c h
60.598 14.344 m f
64.02 10.324 m 64.02 10.105 63.785 9.949 63.566 9.949 c 63.41 9.949 63.27
 10.027 63.207 10.246 c 62.27 13.434 l 62.473 13.512 l 63.973 10.496 l 63.988
 10.434 64.02 10.387 64.02 10.324 c h
64.02 10.324 m f
207.996 11.125 m 202.98 11.125 l 202.559 12.656 l 202.73 12.656 l 203.105
 11.672 203.574 11.453 204.355 11.453 c 204.355 11.453 204.871 11.453 204.98
 11.453 c 203.684 16.125 l 203.434 17.031 203.121 17.016 202.762 17.016 
c 202.746 17.172 l 205.105 17.172 l 205.137 17.016 l 204.793 17.016 204.449
 17.031 204.449 16.578 c 204.449 16.453 204.48 16.312 204.527 16.125 c 205.809
 11.453 l 206.559 11.453 l 206.996 11.453 207.465 11.516 207.465 12.141 
c 207.465 12.281 207.449 12.438 207.402 12.656 c 207.574 12.656 l h
207.996 11.125 m f
210.512 10.324 m 210.512 10.105 210.277 9.949 210.059 9.949 c 209.902 9.949
 209.762 10.027 209.699 10.246 c 208.762 13.434 l 208.965 13.512 l 210.465
 10.496 l 210.48 10.434 210.512 10.387 210.512 10.324 c h
210.512 10.324 m f
212.551 10.324 m 212.551 10.105 212.316 9.949 212.098 9.949 c 211.941 9.949
 211.801 10.027 211.738 10.246 c 210.801 13.434 l 211.004 13.512 l 212.504
 10.496 l 212.52 10.434 212.551 10.387 212.551 10.324 c h
212.551 10.324 m f
215.02 17.062 m 215.02 16.484 214.66 16.297 214.457 16.297 c 214.316 16.297
 213.941 16.375 213.941 16.797 c 213.941 17.141 214.223 17.25 214.379 17.25
 c 214.457 17.25 214.473 17.203 214.551 17.203 c 214.598 17.203 214.691 
17.266 214.691 17.422 c 214.691 17.547 214.66 17.875 214.098 18.281 c 214.098
 18.469 l 214.566 18.156 215.02 17.672 215.02 17.062 c h
215.02 17.062 m f
222.613 14.25 m 222.613 13.547 222.301 13.078 221.629 13.078 c 221.035 
13.078 220.582 13.5 220.176 14.062 c 220.488 13.078 l 220.488 13.078 219.285
 13.312 219.02 13.328 c 219.02 13.484 l 219.348 13.484 219.613 13.453 219.613
 13.812 c 219.613 13.984 219.504 14.375 219.441 14.594 c 218.379 18.328 
l 218.285 18.672 218.129 18.922 217.691 18.922 c 217.66 19.078 l 219.629
 19.078 l 219.66 18.922 l 219.316 18.922 219.02 18.906 219.02 18.656 c 219.02
 18.578 219.035 18.484 219.082 18.312 c 219.395 17.062 l 219.566 17.203 
219.832 17.281 220.051 17.281 c 221.129 17.281 222.613 15.75 222.613 14.25
 c h
221.848 14.344 m 221.848 15.516 220.863 17.078 220.02 17.078 c 219.816 
17.078 219.629 17 219.457 16.828 c 219.66 16.031 220.207 13.5 221.363 13.5
 c 221.848 13.5 221.848 14.141 221.848 14.344 c h
221.848 14.344 m f
225.27 10.324 m 225.27 10.105 225.035 9.949 224.816 9.949 c 224.66 9.949
 224.52 10.027 224.457 10.246 c 223.52 13.434 l 223.723 13.512 l 225.223
 10.496 l 225.238 10.434 225.27 10.387 225.27 10.324 c h
225.27 10.324 m f
227.312 10.324 m 227.312 10.105 227.078 9.949 226.859 9.949 c 226.703 9.949
 226.562 10.027 226.5 10.246 c 225.562 13.434 l 225.766 13.512 l 227.266
 10.496 l 227.281 10.434 227.312 10.387 227.312 10.324 c h
227.312 10.324 m f
248.121 14.953 m 248.121 14.875 l 246.887 14.531 245.543 13.484 245.309
 12.953 c 245.074 12.953 l 245.418 13.844 246.215 14.422 246.621 14.688 
c 239.762 14.688 l 239.762 15.141 l 246.621 15.141 l 246.215 15.406 245.418
 15.984 245.074 16.859 c 245.309 16.859 l 245.543 16.344 246.887 15.281 
248.121 14.953 c h
248.121 14.953 m f
114.25 10.664 m 114.25 10.523 l 112.531 10.523 l 112.531 10.664 l 112.719
 10.664 113.031 10.742 113.031 10.992 c 113.031 11.211 112.812 11.57 112.688
 11.758 c 110.297 15.273 l 110.125 11.352 l 110.094 10.789 110.406 10.664
 110.891 10.664 c 110.891 10.523 l 108.578 10.523 l 108.578 10.664 l 109.188
 10.664 109.234 10.945 109.312 11.68 c 109.516 16.711 l 109.672 16.711 l
 113.297 11.383 l 113.469 11.164 113.859 10.664 114.25 10.664 c h
114.25 10.664 m f
116.809 9.848 m 116.809 9.629 116.574 9.473 116.355 9.473 c 116.199 9.473
 116.059 9.551 115.996 9.77 c 115.059 12.957 l 115.262 13.035 l 116.762 
10.02 l 116.777 9.957 116.809 9.91 116.809 9.848 c h
116.809 9.848 m f
116.074 19.691 m 116.074 19.504 l 115.543 19.504 115.371 19.504 115.371
 18.66 c 115.371 18.645 115.371 14.988 115.371 14.988 c 115.199 14.988 l
 113.855 15.566 l 113.934 15.754 l 114.246 15.629 114.309 15.613 114.402
 15.613 c 114.605 15.613 114.621 15.785 114.621 15.988 c 114.621 18.66 l
 114.621 19.504 114.465 19.488 113.934 19.504 c 113.934 19.691 l h
116.074 19.691 m f
144.469 10.664 m 144.469 10.523 l 142.75 10.523 l 142.75 10.664 l 142.938
 10.664 143.25 10.742 143.25 10.992 c 143.25 11.211 143.031 11.57 142.906
 11.758 c 140.516 15.273 l 140.344 11.352 l 140.312 10.789 140.625 10.664
 141.109 10.664 c 141.109 10.523 l 138.797 10.523 l 138.797 10.664 l 139.406
 10.664 139.453 10.945 139.531 11.68 c 139.734 16.711 l 139.891 16.711 l
 143.516 11.383 l 143.688 11.164 144.078 10.664 144.469 10.664 c h
144.469 10.664 m f
147.031 9.848 m 147.031 9.629 146.797 9.473 146.578 9.473 c 146.422 9.473
 146.281 9.551 146.219 9.77 c 145.281 12.957 l 145.484 13.035 l 146.984 
10.02 l 147 9.957 147.031 9.91 147.031 9.848 c h
147.031 9.848 m f
149.07 9.848 m 149.07 9.629 148.836 9.473 148.617 9.473 c 148.461 9.473
 148.32 9.551 148.258 9.77 c 147.32 12.957 l 147.523 13.035 l 149.023 10.02
 l 149.039 9.957 149.07 9.91 149.07 9.848 c h
149.07 9.848 m f
146.297 19.691 m 146.297 19.504 l 145.766 19.504 145.594 19.504 145.594
 18.66 c 145.594 18.645 145.594 14.988 145.594 14.988 c 145.422 14.988 l
 144.078 15.566 l 144.156 15.754 l 144.469 15.629 144.531 15.613 144.625
 15.613 c 144.828 15.613 144.844 15.785 144.844 15.988 c 144.844 18.66 l
 144.844 19.504 144.688 19.488 144.156 19.504 c 144.156 19.691 l h
146.297 19.691 m f
2.562 10.746 m 1.906 11.184 1.641 11.402 1.297 11.824 c 0.672 12.605 0.359
 13.496 0.359 14.543 c 0.359 15.699 0.688 16.574 1.469 17.48 c 1.844 17.918
 2.078 18.105 2.547 18.402 c 2.641 18.246 l 1.938 17.684 1.688 17.371 1.438
 16.699 c 1.219 16.105 1.125 15.434 1.125 14.527 c 1.125 13.574 1.234 12.84
 1.484 12.293 c 1.734 11.73 2 11.402 2.641 10.887 c h
2.562 10.746 m f
6.891 16.215 m 6.734 16.34 6.625 16.387 6.484 16.387 c 6.281 16.387 6.219
 16.262 6.219 15.871 c 6.219 14.121 l 6.219 13.652 6.172 13.387 6.047 13.184
 c 5.844 12.855 5.453 12.684 4.938 12.684 c 4.094 12.684 3.422 13.121 3.422
 13.684 c 3.422 13.887 3.594 14.074 3.812 14.074 c 4.031 14.074 4.219 13.887
 4.219 13.699 c 4.219 13.668 4.203 13.621 4.203 13.559 c 4.172 13.465 4.172
 13.402 4.172 13.34 c 4.172 13.09 4.453 12.902 4.812 12.902 c 5.25 12.902
 5.5 13.152 5.5 13.637 c 5.5 14.184 l 4.125 14.73 3.969 14.824 3.578 15.152
 c 3.375 15.34 3.25 15.637 3.25 15.934 c 3.25 16.496 3.641 16.902 4.203 
16.902 c 4.594 16.902 4.953 16.715 5.5 16.246 c 5.547 16.715 5.719 16.902
 6.078 16.902 c 6.391 16.902 6.578 16.793 6.891 16.449 c h
5.5 15.699 m 5.5 15.98 5.453 16.074 5.266 16.184 c 5.031 16.309 4.797 16.371
 4.609 16.371 c 4.297 16.371 4.047 16.074 4.047 15.684 c 4.047 15.652 l 
4.047 15.121 4.453 14.777 5.5 14.402 c h
5.5 15.699 m f
7.227 18.402 m 7.883 17.949 8.164 17.73 8.492 17.324 c 9.133 16.543 9.445
 15.637 9.445 14.59 c 9.445 13.449 9.102 12.574 8.32 11.668 c 7.945 11.23
 7.711 11.027 7.258 10.746 c 7.148 10.887 l 7.867 11.449 8.102 11.762 8.352
 12.434 c 8.57 13.043 8.664 13.715 8.664 14.621 c 8.664 15.559 8.555 16.293
 8.305 16.84 c 8.07 17.402 7.789 17.73 7.148 18.246 c h
7.227 18.402 m f
0.74902 g
112.559 71.223 m 112.559 59.887 l 129.566 59.887 l 129.566 82.562 l 112.559
 82.562 l f
135.234 71.223 m 135.234 59.887 l 194.762 59.887 l 194.762 82.562 l 135.234
 82.562 l f
0 g
q 1 0 0 -1 0 0 cm
112.559 -82.562 m 112.559 -80.426 l 112.559 -79.625 m 112.559 -77.492 l
 112.559 -76.691 m 112.559 -74.559 l 112.559 -73.758 m 112.559 -71.621 l
 112.559 -70.824 m 112.559 -68.688 l 112.559 -67.887 m 112.559 -65.754 l
 112.559 -64.953 m 112.559 -62.82 l 112.559 -62.02 m 112.559 -59.887 l S Q
q 1 0 0 -1 0 0 cm
194.762 -82.562 m 194.762 -80.426 l 194.762 -79.625 m 194.762 -77.492 l
 194.762 -76.691 m 194.762 -74.559 l 194.762 -73.758 m 194.762 -71.621 l
 194.762 -70.824 m 194.762 -68.688 l 194.762 -67.887 m 194.762 -65.754 l
 194.762 -64.953 m 194.762 -62.82 l 194.762 -62.02 m 194.762 -59.887 l S Q
Q q
125.07 82.562 m 248.621 82.562 l 248.621 83.98 l 125.07 83.98 l h
125.07 83.98 m 248.621 83.98 l 248.621 85.398 l 125.07 85.398 l h
125.07 83.98 m W n
q
125 82 124 4 re W n
  q
0 g
0.510386 w
2 J
0 j
[] 0.0 d
10 M q 1 0 0 -1 0 0 cm
248.035 -81.977 m 133.234 -196.781 l S Q
  Q
Q
Q q
123.07 82.562 m 248.621 82.562 l 248.621 83.98 l 123.07 83.98 l h
123.07 83.98 m 248.621 83.98 l 248.621 85.398 l 123.07 85.398 l h
123.07 83.98 m W n
q
123 82 126 4 re W n
  q
0 g
0.510386 w
2 J
0 j
[] 0.0 d
10 M q 1 0 0 -1 0 0 cm
245.637 -79.578 m 130.832 -194.379 l S Q
  Q
Q
Q q
121.07 82.562 m 248.621 82.562 l 248.621 83.98 l 121.07 83.98 l h
121.07 83.98 m 248.621 83.98 l 248.621 85.398 l 121.07 85.398 l h
121.07 83.98 m W n
q
121 82 128 4 re W n
  q
0 g
0.510386 w
2 J
0 j
[] 0.0 d
10 M q 1 0 0 -1 0 0 cm
243.234 -77.176 m 128.434 -191.98 l S Q
  Q
Q
Q q
118.07 82.562 m 248.07 82.562 l 248.07 83.98 l 118.07 83.98 l h
118.07 83.98 m 248.07 83.98 l 248.07 85.398 l 118.07 85.398 l h
118.07 83.98 m W n
q
118 82 131 4 re W n
  q
0 g
0.510386 w
2 J
0 j
[] 0.0 d
10 M q 1 0 0 -1 0 0 cm
240.836 -74.777 m 126.035 -189.578 l S Q
  Q
Q
Q q
116.07 82.562 m 246.07 82.562 l 246.07 83.98 l 116.07 83.98 l h
116.07 83.98 m 246.07 83.98 l 246.07 85.398 l 116.07 85.398 l h
116.07 83.98 m W n
q
116 82 131 4 re W n
  q
0 g
0.510386 w
2 J
0 j
[] 0.0 d
10 M q 1 0 0 -1 0 0 cm
238.438 -72.375 m 123.633 -187.18 l S Q
  Q
Q
Q q
113.07 82.562 m 244.07 82.562 l 244.07 83.98 l 113.07 83.98 l h
113.07 83.98 m 244.07 83.98 l 244.07 85.398 l 113.07 85.398 l h
113.07 83.98 m W n
q
113 82 132 4 re W n
  q
0 g
0.510386 w
2 J
0 j
[] 0.0 d
10 M q 1 0 0 -1 0 0 cm
236.035 -69.977 m 121.234 -184.781 l S Q
  Q
Q
Q q
111.07 82.562 m 241.07 82.562 l 241.07 83.98 l 111.07 83.98 l h
111.07 83.98 m 241.07 83.98 l 241.07 85.398 l 111.07 85.398 l h
111.07 83.98 m W n
q
111 82 131 4 re W n
  q
0 g
0.510386 w
2 J
0 j
[] 0.0 d
10 M q 1 0 0 -1 0 0 cm
233.637 -67.578 m 118.832 -182.379 l S Q
  Q
Q
Q q
109.07 82.562 m 239.07 82.562 l 239.07 83.98 l 109.07 83.98 l h
109.07 83.98 m 239.07 83.98 l 239.07 85.398 l 109.07 85.398 l h
109.07 83.98 m W n
q
109 82 131 4 re W n
  q
0 g
0.510386 w
2 J
0 j
[] 0.0 d
10 M q 1 0 0 -1 0 0 cm
231.234 -65.176 m 116.434 -179.98 l S Q
  Q
Q
Q q
106.07 82.562 m 236.07 82.562 l 236.07 83.98 l 106.07 83.98 l h
106.07 83.98 m 236.07 83.98 l 236.07 85.398 l 106.07 85.398 l h
106.07 83.98 m W n
q
106 82 131 4 re W n
  q
0 g
0.510386 w
2 J
0 j
[] 0.0 d
10 M q 1 0 0 -1 0 0 cm
228.836 -62.777 m 114.035 -177.578 l S Q
  Q
Q
Q q
104.07 82.562 m 234.07 82.562 l 234.07 83.98 l 104.07 83.98 l h
104.07 83.98 m 234.07 83.98 l 234.07 85.398 l 104.07 85.398 l h
104.07 83.98 m W n
q
104 82 131 4 re W n
  q
0 g
0.510386 w
2 J
0 j
[] 0.0 d
10 M q 1 0 0 -1 0 0 cm
226.438 -60.375 m 111.633 -175.18 l S Q
  Q
Q
Q q
101.07 82.562 m 232.07 82.562 l 232.07 83.98 l 101.07 83.98 l h
101.07 83.98 m 232.07 83.98 l 232.07 85.398 l 101.07 85.398 l h
101.07 83.98 m W n
q
101 82 132 4 re W n
  q
0 g
0.510386 w
2 J
0 j
[] 0.0 d
10 M q 1 0 0 -1 0 0 cm
224.035 -57.977 m 109.234 -172.781 l S Q
  Q
Q
Q q
99.07 82.562 m 229.07 82.562 l 229.07 83.98 l 99.07 83.98 l h
99.07 83.98 m 229.07 83.98 l 229.07 85.398 l 99.07 85.398 l h
99.07 83.98 m W n
q
99 82 131 4 re W n
  q
0 g
0.510386 w
2 J
0 j
[] 0.0 d
10 M q 1 0 0 -1 0 0 cm
221.637 -55.578 m 106.832 -170.379 l S Q
  Q
Q
Q q
97.07 82.562 m 227.07 82.562 l 227.07 83.98 l 97.07 83.98 l h
97.07 83.98 m 227.07 83.98 l 227.07 85.398 l 97.07 85.398 l h
97.07 83.98 m W n
q
97 82 131 4 re W n
  q
0 g
0.510386 w
2 J
0 j
[] 0.0 d
10 M q 1 0 0 -1 0 0 cm
219.234 -53.176 m 104.434 -167.98 l S Q
  Q
Q
Q q
94.07 82.562 m 224.07 82.562 l 224.07 83.98 l 94.07 83.98 l h
94.07 83.98 m 224.07 83.98 l 224.07 85.398 l 94.07 85.398 l h
94.07 83.98 m W n
q
94 82 131 4 re W n
  q
0 g
0.510386 w
2 J
0 j
[] 0.0 d
10 M q 1 0 0 -1 0 0 cm
216.836 -50.777 m 102.035 -165.578 l S Q
  Q
Q
Q q
92.07 82.562 m 222.07 82.562 l 222.07 83.98 l 92.07 83.98 l h
92.07 83.98 m 222.07 83.98 l 222.07 85.398 l 92.07 85.398 l h
92.07 83.98 m W n
q
92 82 131 4 re W n
  q
0 g
0.510386 w
2 J
0 j
[] 0.0 d
10 M q 1 0 0 -1 0 0 cm
214.438 -48.375 m 99.633 -163.18 l S Q
  Q
Q
Q q
89.07 82.562 m 220.07 82.562 l 220.07 83.98 l 89.07 83.98 l h
89.07 83.98 m 220.07 83.98 l 220.07 85.398 l 89.07 85.398 l h
89.07 83.98 m W n
q
89 82 132 4 re W n
  q
0 g
0.510386 w
2 J
0 j
[] 0.0 d
10 M q 1 0 0 -1 0 0 cm
212.035 -45.977 m 97.234 -160.781 l S Q
  Q
Q
Q q
87.07 82.562 m 217.07 82.562 l 217.07 83.98 l 87.07 83.98 l h
87.07 83.98 m 217.07 83.98 l 217.07 85.398 l 87.07 85.398 l h
87.07 83.98 m W n
q
87 82 131 4 re W n
  q
0 g
0.510386 w
2 J
0 j
[] 0.0 d
10 M q 1 0 0 -1 0 0 cm
209.637 -43.578 m 94.832 -158.379 l S Q
  Q
Q
Q q
85.07 82.562 m 215.07 82.562 l 215.07 83.98 l 85.07 83.98 l h
85.07 83.98 m 215.07 83.98 l 215.07 85.398 l 85.07 85.398 l h
85.07 83.98 m W n
q
85 82 131 4 re W n
  q
0 g
0.510386 w
2 J
0 j
[] 0.0 d
10 M q 1 0 0 -1 0 0 cm
207.234 -41.176 m 92.434 -155.98 l S Q
  Q
Q
Q q
82.07 82.562 m 212.07 82.562 l 212.07 83.98 l 82.07 83.98 l h
82.07 83.98 m 212.07 83.98 l 212.07 85.398 l 82.07 85.398 l h
82.07 83.98 m W n
q
82 82 131 4 re W n
  q
0 g
0.510386 w
2 J
0 j
[] 0.0 d
10 M q 1 0 0 -1 0 0 cm
204.836 -38.777 m 90.035 -153.578 l S Q
  Q
Q
Q q
80.07 82.562 m 210.07 82.562 l 210.07 83.98 l 80.07 83.98 l h
80.07 83.98 m 210.07 83.98 l 210.07 85.398 l 80.07 85.398 l h
80.07 83.98 m W n
q
80 82 131 4 re W n
  q
0 g
0.510386 w
2 J
0 j
[] 0.0 d
10 M q 1 0 0 -1 0 0 cm
202.438 -36.375 m 87.633 -151.18 l S Q
  Q
Q
Q q
77.07 82.562 m 208.07 82.562 l 208.07 83.98 l 77.07 83.98 l h
77.07 83.98 m 208.07 83.98 l 208.07 85.398 l 77.07 85.398 l h
77.07 83.98 m W n
q
77 82 132 4 re W n
  q
0 g
0.510386 w
2 J
0 j
[] 0.0 d
10 M q 1 0 0 -1 0 0 cm
200.035 -33.977 m 85.234 -148.781 l S Q
  Q
Q
Q q
75.07 82.562 m 205.07 82.562 l 205.07 83.98 l 75.07 83.98 l h
75.07 83.98 m 205.07 83.98 l 205.07 85.398 l 75.07 85.398 l h
75.07 83.98 m W n
q
75 82 131 4 re W n
  q
0 g
0.510386 w
2 J
0 j
[] 0.0 d
10 M q 1 0 0 -1 0 0 cm
197.637 -31.578 m 82.832 -146.379 l S Q
  Q
Q
Q q
73.07 82.562 m 203.07 82.562 l 203.07 83.98 l 73.07 83.98 l h
73.07 83.98 m 203.07 83.98 l 203.07 85.398 l 73.07 85.398 l h
73.07 83.98 m W n
q
73 82 131 4 re W n
  q
0 g
0.510386 w
2 J
0 j
[] 0.0 d
10 M q 1 0 0 -1 0 0 cm
195.234 -29.176 m 80.434 -143.98 l S Q
  Q
Q
Q q
70.07 82.562 m 200.07 82.562 l 200.07 83.98 l 70.07 83.98 l h
70.07 83.98 m 200.07 83.98 l 200.07 85.398 l 70.07 85.398 l h
70.07 83.98 m W n
q
70 82 131 4 re W n
  q
0 g
0.510386 w
2 J
0 j
[] 0.0 d
10 M q 1 0 0 -1 0 0 cm
192.836 -26.777 m 78.035 -141.578 l S Q
  Q
Q
Q q
68.07 82.562 m 198.07 82.562 l 198.07 83.98 l 68.07 83.98 l h
68.07 83.98 m 198.07 83.98 l 198.07 85.398 l 68.07 85.398 l h
68.07 83.98 m W n
q
68 82 131 4 re W n
  q
0 g
0.510386 w
2 J
0 j
[] 0.0 d
10 M q 1 0 0 -1 0 0 cm
190.438 -24.375 m 75.633 -139.18 l S Q
  Q
Q
Q q
65.07 82.562 m 196.07 82.562 l 196.07 83.98 l 65.07 83.98 l h
65.07 83.98 m 196.07 83.98 l 196.07 85.398 l 65.07 85.398 l h
65.07 83.98 m W n
q
65 82 132 4 re W n
  q
0 g
0.510386 w
2 J
0 j
[] 0.0 d
10 M q 1 0 0 -1 0 0 cm
188.035 -21.977 m 73.234 -136.781 l S Q
  Q
Q
Q q
63.07 82.562 m 193.07 82.562 l 193.07 83.98 l 63.07 83.98 l h
63.07 83.98 m 193.07 83.98 l 193.07 85.398 l 63.07 85.398 l h
63.07 83.98 m W n
q
63 82 131 4 re W n
  q
0 g
0.510386 w
2 J
0 j
[] 0.0 d
10 M q 1 0 0 -1 0 0 cm
185.637 -19.578 m 70.832 -134.379 l S Q
  Q
Q
Q q
61.07 82.562 m 191.07 82.562 l 191.07 83.98 l 61.07 83.98 l h
61.07 83.98 m 191.07 83.98 l 191.07 85.398 l 61.07 85.398 l h
61.07 83.98 m W n
q
61 82 131 4 re W n
  q
0 g
0.510386 w
2 J
0 j
[] 0.0 d
10 M q 1 0 0 -1 0 0 cm
183.234 -17.176 m 68.434 -131.98 l S Q
  Q
Q
Q q
58.07 82.562 m 188.07 82.562 l 188.07 83.98 l 58.07 83.98 l h
58.07 83.98 m 188.07 83.98 l 188.07 85.398 l 58.07 85.398 l h
58.07 83.98 m W n
q
58 82 131 4 re W n
  q
0 g
0.510386 w
2 J
0 j
[] 0.0 d
10 M q 1 0 0 -1 0 0 cm
180.836 -14.777 m 66.035 -129.578 l S Q
  Q
Q
Q q
56.07 82.562 m 186.07 82.562 l 186.07 83.98 l 56.07 83.98 l h
56.07 83.98 m 186.07 83.98 l 186.07 85.398 l 56.07 85.398 l h
56.07 83.98 m W n
q
56 82 131 4 re W n
  q
0 g
0.510386 w
2 J
0 j
[] 0.0 d
10 M q 1 0 0 -1 0 0 cm
178.438 -12.375 m 63.633 -127.18 l S Q
  Q
Q
Q q
53.07 82.562 m 184.07 82.562 l 184.07 83.98 l 53.07 83.98 l h
53.07 83.98 m 184.07 83.98 l 184.07 85.398 l 53.07 85.398 l h
53.07 83.98 m W n
q
53 82 132 4 re W n
  q
0 g
0.510386 w
2 J
0 j
[] 0.0 d
10 M q 1 0 0 -1 0 0 cm
176.035 -9.977 m 61.234 -124.781 l S Q
  Q
Q
Q q
51.07 82.562 m 181.07 82.562 l 181.07 83.98 l 51.07 83.98 l h
51.07 83.98 m 181.07 83.98 l 181.07 85.398 l 51.07 85.398 l h
51.07 83.98 m W n
q
51 82 131 4 re W n
  q
0 g
0.510386 w
2 J
0 j
[] 0.0 d
10 M q 1 0 0 -1 0 0 cm
173.637 -7.578 m 58.832 -122.379 l S Q
  Q
Q
Q q
49.07 82.562 m 179.07 82.562 l 179.07 83.98 l 49.07 83.98 l h
49.07 83.98 m 179.07 83.98 l 179.07 85.398 l 49.07 85.398 l h
49.07 83.98 m W n
q
49 82 131 4 re W n
  q
0 g
0.510386 w
2 J
0 j
[] 0.0 d
10 M q 1 0 0 -1 0 0 cm
171.234 -5.176 m 56.434 -119.98 l S Q
  Q
Q
Q q
46.07 82.562 m 176.07 82.562 l 176.07 83.98 l 46.07 83.98 l h
46.07 83.98 m 176.07 83.98 l 176.07 85.398 l 46.07 85.398 l h
46.07 83.98 m W n
q
46 82 131 4 re W n
  q
0 g
0.510386 w
2 J
0 j
[] 0.0 d
10 M q 1 0 0 -1 0 0 cm
168.836 -2.777 m 54.035 -117.578 l S Q
  Q
Q
Q q
44.07 82.562 m 174.07 82.562 l 174.07 83.98 l 44.07 83.98 l h
44.07 83.98 m 174.07 83.98 l 174.07 85.398 l 44.07 85.398 l h
44.07 83.98 m W n
q
44 82 131 4 re W n
  q
0 g
0.510386 w
2 J
0 j
[] 0.0 d
10 M q 1 0 0 -1 0 0 cm
166.438 -0.375 m 51.633 -115.18 l S Q
  Q
Q
Q q
41.07 82.562 m 172.07 82.562 l 172.07 83.98 l 41.07 83.98 l h
41.07 83.98 m 172.07 83.98 l 172.07 85.398 l 41.07 85.398 l h
41.07 83.98 m W n
q
41 82 132 4 re W n
  q
0 g
0.510386 w
2 J
0 j
[] 0.0 d
10 M q 1 0 0 -1 0 0 cm
164.035 2.023 m 49.234 -112.781 l S Q
  Q
Q
Q q
39.07 82.562 m 169.07 82.562 l 169.07 83.98 l 39.07 83.98 l h
39.07 83.98 m 169.07 83.98 l 169.07 85.398 l 39.07 85.398 l h
39.07 83.98 m W n
q
39 82 131 4 re W n
  q
0 g
0.510386 w
2 J
0 j
[] 0.0 d
10 M q 1 0 0 -1 0 0 cm
161.637 4.422 m 46.832 -110.379 l S Q
  Q
Q
Q q
37.07 82.562 m 167.07 82.562 l 167.07 83.98 l 37.07 83.98 l h
37.07 83.98 m 167.07 83.98 l 167.07 85.398 l 37.07 85.398 l h
37.07 83.98 m W n
q
37 82 131 4 re W n
  q
0 g
0.510386 w
2 J
0 j
[] 0.0 d
10 M q 1 0 0 -1 0 0 cm
159.234 6.824 m 44.434 -107.98 l S Q
  Q
Q
Q q
34.07 82.562 m 164.07 82.562 l 164.07 83.98 l 34.07 83.98 l h
34.07 83.98 m 164.07 83.98 l 164.07 85.398 l 34.07 85.398 l h
34.07 83.98 m W n
q
34 82 131 4 re W n
  q
0 g
0.510386 w
2 J
0 j
[] 0.0 d
10 M q 1 0 0 -1 0 0 cm
156.836 9.223 m 42.035 -105.578 l S Q
  Q
Q
Q q
32.07 82.562 m 162.07 82.562 l 162.07 83.98 l 32.07 83.98 l h
32.07 83.98 m 162.07 83.98 l 162.07 85.398 l 32.07 85.398 l h
32.07 83.98 m W n
q
32 82 131 4 re W n
  q
0 g
0.510386 w
2 J
0 j
[] 0.0 d
10 M q 1 0 0 -1 0 0 cm
154.438 11.625 m 39.633 -103.18 l S Q
  Q
Q
Q q
29.07 82.562 m 160.07 82.562 l 160.07 83.98 l 29.07 83.98 l h
29.07 83.98 m 160.07 83.98 l 160.07 85.398 l 29.07 85.398 l h
29.07 83.98 m W n
q
29 82 132 4 re W n
  q
0 g
0.510386 w
2 J
0 j
[] 0.0 d
10 M q 1 0 0 -1 0 0 cm
152.035 14.023 m 37.234 -100.781 l S Q
  Q
Q
Q q
27.07 82.562 m 157.07 82.562 l 157.07 83.98 l 27.07 83.98 l h
27.07 83.98 m 157.07 83.98 l 157.07 85.398 l 27.07 85.398 l h
27.07 83.98 m W n
q
27 82 131 4 re W n
  q
0 g
0.510386 w
2 J
0 j
[] 0.0 d
10 M q 1 0 0 -1 0 0 cm
149.637 16.422 m 34.832 -98.379 l S Q
  Q
Q
Q q
25.07 82.562 m 155.07 82.562 l 155.07 83.98 l 25.07 83.98 l h
25.07 83.98 m 155.07 83.98 l 155.07 85.398 l 25.07 85.398 l h
25.07 83.98 m W n
q
25 82 131 4 re W n
  q
0 g
0.510386 w
2 J
0 j
[] 0.0 d
10 M q 1 0 0 -1 0 0 cm
147.234 18.824 m 32.434 -95.98 l S Q
  Q
Q
Q q
22.07 82.562 m 152.07 82.562 l 152.07 83.98 l 22.07 83.98 l h
22.07 83.98 m 152.07 83.98 l 152.07 85.398 l 22.07 85.398 l h
22.07 83.98 m W n
q
22 82 131 4 re W n
  q
0 g
0.510386 w
2 J
0 j
[] 0.0 d
10 M q 1 0 0 -1 0 0 cm
144.836 21.223 m 30.035 -93.578 l S Q
  Q
Q
Q q
21.852 82.562 m 150.07 82.562 l 150.07 83.98 l 21.852 83.98 l h
21.852 83.98 m 150.07 83.98 l 150.07 85.398 l 21.852 85.398 l h
21.852 83.98 m W n
q
21 82 130 4 re W n
  q
0 g
0.510386 w
2 J
0 j
[] 0.0 d
10 M q 1 0 0 -1 0 0 cm
142.438 23.625 m 27.633 -91.18 l S Q
  Q
Q
Q q
21.852 82.562 m 148.07 82.562 l 148.07 83.98 l 21.852 83.98 l h
21.852 83.98 m 148.07 83.98 l 148.07 85.398 l 21.852 85.398 l h
21.852 83.98 m W n
q
21 82 128 4 re W n
  q
0 g
0.510386 w
2 J
0 j
[] 0.0 d
10 M q 1 0 0 -1 0 0 cm
140.035 26.023 m 25.234 -88.781 l S Q
  Q
Q
Q q
21.852 82.562 m 145.07 82.562 l 145.07 83.98 l 21.852 83.98 l h
21.852 83.98 m 145.07 83.98 l 145.07 85.398 l 21.852 85.398 l h
21.852 83.98 m W n
q
21 82 125 4 re W n
  q
0 g
0.510386 w
2 J
0 j
[] 0.0 d
10 M q 1 0 0 -1 0 0 cm
137.637 28.422 m 22.832 -86.379 l S Q
  Q
Q
Q q
21.852 82.562 m 143.07 82.562 l 143.07 83.98 l 21.852 83.98 l h
21.852 83.98 m 143.07 83.98 l 143.07 85.398 l 21.852 85.398 l h
21.852 83.98 m W n
q
21 82 123 4 re W n
  q
0 g
0.510386 w
2 J
0 j
[] 0.0 d
10 M q 1 0 0 -1 0 0 cm
135.234 30.824 m 20.434 -83.98 l S Q
  Q
Q
Q q
21.07 82.062 227.93 3.699 re W n
q
21 82 228 4 re W n
  q
0 g
0.708483 w
0 J
0 j
[] 0.0 d
10 M q 1 0 0 -1 0 0 cm
21.852 -83.98 m 21.852 -82.562 l 248.621 -82.562 l 248.621 -85.398 l 21.852
 -85.398 l h
21.852 -83.98 m S Q
  Q
Q
Q q
126.07 57.051 m 248.621 57.051 l 248.621 58.469 l 126.07 58.469 l h
126.07 58.469 m 248.621 58.469 l 248.621 59.887 l 126.07 59.887 l h
126.07 58.469 m W n
q
126 57 123 3 re W n
  q
0 g
0.510386 w
2 J
0 j
[] 0.0 d
10 M q 1 0 0 -1 0 0 cm
248.793 -57.219 m 133.988 -172.023 l S Q
  Q
Q
Q q
124.07 57.051 m 248.621 57.051 l 248.621 58.469 l 124.07 58.469 l h
124.07 58.469 m 248.621 58.469 l 248.621 59.887 l 124.07 59.887 l h
124.07 58.469 m W n
q
124 57 125 3 re W n
  q
0 g
0.510386 w
2 J
0 j
[] 0.0 d
10 M q 1 0 0 -1 0 0 cm
246.391 -54.82 m 131.59 -169.625 l S Q
  Q
Q
Q q
121.07 57.051 m 248.621 57.051 l 248.621 58.469 l 121.07 58.469 l h
121.07 58.469 m 248.621 58.469 l 248.621 59.887 l 121.07 59.887 l h
121.07 58.469 m W n
q
121 57 128 3 re W n
  q
0 g
0.510386 w
2 J
0 j
[] 0.0 d
10 M q 1 0 0 -1 0 0 cm
243.992 -52.422 m 129.188 -167.223 l S Q
  Q
Q
Q q
119.07 57.051 m 248.621 57.051 l 248.621 58.469 l 119.07 58.469 l h
119.07 58.469 m 248.621 58.469 l 248.621 59.887 l 119.07 59.887 l h
119.07 58.469 m W n
q
119 57 130 3 re W n
  q
0 g
0.510386 w
2 J
0 j
[] 0.0 d
10 M q 1 0 0 -1 0 0 cm
241.594 -50.02 m 126.789 -164.824 l S Q
  Q
Q
Q q
117.07 57.051 m 247.07 57.051 l 247.07 58.469 l 117.07 58.469 l h
117.07 58.469 m 247.07 58.469 l 247.07 59.887 l 117.07 59.887 l h
117.07 58.469 m W n
q
117 57 131 3 re W n
  q
0 g
0.510386 w
2 J
0 j
[] 0.0 d
10 M q 1 0 0 -1 0 0 cm
239.191 -47.621 m 124.391 -162.422 l S Q
  Q
Q
Q q
114.07 57.051 m 244.07 57.051 l 244.07 58.469 l 114.07 58.469 l h
114.07 58.469 m 244.07 58.469 l 244.07 59.887 l 114.07 59.887 l h
114.07 58.469 m W n
q
114 57 131 3 re W n
  q
0 g
0.510386 w
2 J
0 j
[] 0.0 d
10 M q 1 0 0 -1 0 0 cm
236.793 -45.219 m 121.988 -160.023 l S Q
  Q
Q
Q q
112.07 57.051 m 242.07 57.051 l 242.07 58.469 l 112.07 58.469 l h
112.07 58.469 m 242.07 58.469 l 242.07 59.887 l 112.07 59.887 l h
112.07 58.469 m W n
q
112 57 131 3 re W n
  q
0 g
0.510386 w
2 J
0 j
[] 0.0 d
10 M q 1 0 0 -1 0 0 cm
234.391 -42.82 m 119.59 -157.625 l S Q
  Q
Q
Q q
109.07 57.051 m 240.07 57.051 l 240.07 58.469 l 109.07 58.469 l h
109.07 58.469 m 240.07 58.469 l 240.07 59.887 l 109.07 59.887 l h
109.07 58.469 m W n
q
109 57 132 3 re W n
  q
0 g
0.510386 w
2 J
0 j
[] 0.0 d
10 M q 1 0 0 -1 0 0 cm
231.992 -40.422 m 117.188 -155.223 l S Q
  Q
Q
Q q
107.07 57.051 m 237.07 57.051 l 237.07 58.469 l 107.07 58.469 l h
107.07 58.469 m 237.07 58.469 l 237.07 59.887 l 107.07 59.887 l h
107.07 58.469 m W n
q
107 57 131 3 re W n
  q
0 g
0.510386 w
2 J
0 j
[] 0.0 d
10 M q 1 0 0 -1 0 0 cm
229.594 -38.02 m 114.789 -152.824 l S Q
  Q
Q
Q q
105.07 57.051 m 235.07 57.051 l 235.07 58.469 l 105.07 58.469 l h
105.07 58.469 m 235.07 58.469 l 235.07 59.887 l 105.07 59.887 l h
105.07 58.469 m W n
q
105 57 131 3 re W n
  q
0 g
0.510386 w
2 J
0 j
[] 0.0 d
10 M q 1 0 0 -1 0 0 cm
227.191 -35.621 m 112.391 -150.422 l S Q
  Q
Q
Q q
102.07 57.051 m 232.07 57.051 l 232.07 58.469 l 102.07 58.469 l h
102.07 58.469 m 232.07 58.469 l 232.07 59.887 l 102.07 59.887 l h
102.07 58.469 m W n
q
102 57 131 3 re W n
  q
0 g
0.510386 w
2 J
0 j
[] 0.0 d
10 M q 1 0 0 -1 0 0 cm
224.793 -33.219 m 109.988 -148.023 l S Q
  Q
Q
Q q
100.07 57.051 m 230.07 57.051 l 230.07 58.469 l 100.07 58.469 l h
100.07 58.469 m 230.07 58.469 l 230.07 59.887 l 100.07 59.887 l h
100.07 58.469 m W n
q
100 57 131 3 re W n
  q
0 g
0.510386 w
2 J
0 j
[] 0.0 d
10 M q 1 0 0 -1 0 0 cm
222.391 -30.82 m 107.59 -145.625 l S Q
  Q
Q
Q q
97.07 57.051 m 228.07 57.051 l 228.07 58.469 l 97.07 58.469 l h
97.07 58.469 m 228.07 58.469 l 228.07 59.887 l 97.07 59.887 l h
97.07 58.469 m W n
q
97 57 132 3 re W n
  q
0 g
0.510386 w
2 J
0 j
[] 0.0 d
10 M q 1 0 0 -1 0 0 cm
219.992 -28.422 m 105.188 -143.223 l S Q
  Q
Q
Q q
95.07 57.051 m 225.07 57.051 l 225.07 58.469 l 95.07 58.469 l h
95.07 58.469 m 225.07 58.469 l 225.07 59.887 l 95.07 59.887 l h
95.07 58.469 m W n
q
95 57 131 3 re W n
  q
0 g
0.510386 w
2 J
0 j
[] 0.0 d
10 M q 1 0 0 -1 0 0 cm
217.594 -26.02 m 102.789 -140.824 l S Q
  Q
Q
Q q
93.07 57.051 m 223.07 57.051 l 223.07 58.469 l 93.07 58.469 l h
93.07 58.469 m 223.07 58.469 l 223.07 59.887 l 93.07 59.887 l h
93.07 58.469 m W n
q
93 57 131 3 re W n
  q
0 g
0.510386 w
2 J
0 j
[] 0.0 d
10 M q 1 0 0 -1 0 0 cm
215.191 -23.621 m 100.391 -138.422 l S Q
  Q
Q
Q q
90.07 57.051 m 220.07 57.051 l 220.07 58.469 l 90.07 58.469 l h
90.07 58.469 m 220.07 58.469 l 220.07 59.887 l 90.07 59.887 l h
90.07 58.469 m W n
q
90 57 131 3 re W n
  q
0 g
0.510386 w
2 J
0 j
[] 0.0 d
10 M q 1 0 0 -1 0 0 cm
212.793 -21.219 m 97.988 -136.023 l S Q
  Q
Q
Q q
88.07 57.051 m 218.07 57.051 l 218.07 58.469 l 88.07 58.469 l h
88.07 58.469 m 218.07 58.469 l 218.07 59.887 l 88.07 59.887 l h
88.07 58.469 m W n
q
88 57 131 3 re W n
  q
0 g
0.510386 w
2 J
0 j
[] 0.0 d
10 M q 1 0 0 -1 0 0 cm
210.391 -18.82 m 95.59 -133.625 l S Q
  Q
Q
Q q
85.07 57.051 m 216.07 57.051 l 216.07 58.469 l 85.07 58.469 l h
85.07 58.469 m 216.07 58.469 l 216.07 59.887 l 85.07 59.887 l h
85.07 58.469 m W n
q
85 57 132 3 re W n
  q
0 g
0.510386 w
2 J
0 j
[] 0.0 d
10 M q 1 0 0 -1 0 0 cm
207.992 -16.422 m 93.188 -131.223 l S Q
  Q
Q
Q q
83.07 57.051 m 213.07 57.051 l 213.07 58.469 l 83.07 58.469 l h
83.07 58.469 m 213.07 58.469 l 213.07 59.887 l 83.07 59.887 l h
83.07 58.469 m W n
q
83 57 131 3 re W n
  q
0 g
0.510386 w
2 J
0 j
[] 0.0 d
10 M q 1 0 0 -1 0 0 cm
205.59 -14.02 m 90.789 -128.824 l S Q
  Q
Q
Q q
81.07 57.051 m 211.07 57.051 l 211.07 58.469 l 81.07 58.469 l h
81.07 58.469 m 211.07 58.469 l 211.07 59.887 l 81.07 59.887 l h
81.07 58.469 m W n
q
81 57 131 3 re W n
  q
0 g
0.510386 w
2 J
0 j
[] 0.0 d
10 M q 1 0 0 -1 0 0 cm
203.191 -11.621 m 88.391 -126.422 l S Q
  Q
Q
Q q
78.07 57.051 m 208.07 57.051 l 208.07 58.469 l 78.07 58.469 l h
78.07 58.469 m 208.07 58.469 l 208.07 59.887 l 78.07 59.887 l h
78.07 58.469 m W n
q
78 57 131 3 re W n
  q
0 g
0.510386 w
2 J
0 j
[] 0.0 d
10 M q 1 0 0 -1 0 0 cm
200.793 -9.219 m 85.988 -124.023 l S Q
  Q
Q
Q q
76.07 57.051 m 206.07 57.051 l 206.07 58.469 l 76.07 58.469 l h
76.07 58.469 m 206.07 58.469 l 206.07 59.887 l 76.07 59.887 l h
76.07 58.469 m W n
q
76 57 131 3 re W n
  q
0 g
0.510386 w
2 J
0 j
[] 0.0 d
10 M q 1 0 0 -1 0 0 cm
198.391 -6.82 m 83.59 -121.625 l S Q
  Q
Q
Q q
73.07 57.051 m 204.07 57.051 l 204.07 58.469 l 73.07 58.469 l h
73.07 58.469 m 204.07 58.469 l 204.07 59.887 l 73.07 59.887 l h
73.07 58.469 m W n
q
73 57 132 3 re W n
  q
0 g
0.510386 w
2 J
0 j
[] 0.0 d
10 M q 1 0 0 -1 0 0 cm
195.992 -4.422 m 81.188 -119.223 l S Q
  Q
Q
Q q
71.07 57.051 m 201.07 57.051 l 201.07 58.469 l 71.07 58.469 l h
71.07 58.469 m 201.07 58.469 l 201.07 59.887 l 71.07 59.887 l h
71.07 58.469 m W n
q
71 57 131 3 re W n
  q
0 g
0.510386 w
2 J
0 j
[] 0.0 d
10 M q 1 0 0 -1 0 0 cm
193.594 -2.02 m 78.789 -116.824 l S Q
  Q
Q
Q q
69.07 57.051 m 199.07 57.051 l 199.07 58.469 l 69.07 58.469 l h
69.07 58.469 m 199.07 58.469 l 199.07 59.887 l 69.07 59.887 l h
69.07 58.469 m W n
q
69 57 131 3 re W n
  q
0 g
0.510386 w
2 J
0 j
[] 0.0 d
10 M q 1 0 0 -1 0 0 cm
191.191 0.379 m 76.391 -114.422 l S Q
  Q
Q
Q q
66.07 57.051 m 196.07 57.051 l 196.07 58.469 l 66.07 58.469 l h
66.07 58.469 m 196.07 58.469 l 196.07 59.887 l 66.07 59.887 l h
66.07 58.469 m W n
q
66 57 131 3 re W n
  q
0 g
0.510386 w
2 J
0 j
[] 0.0 d
10 M q 1 0 0 -1 0 0 cm
188.793 2.781 m 73.988 -112.023 l S Q
  Q
Q
Q q
64.07 57.051 m 194.07 57.051 l 194.07 58.469 l 64.07 58.469 l h
64.07 58.469 m 194.07 58.469 l 194.07 59.887 l 64.07 59.887 l h
64.07 58.469 m W n
q
64 57 131 3 re W n
  q
0 g
0.510386 w
2 J
0 j
[] 0.0 d
10 M q 1 0 0 -1 0 0 cm
186.391 5.18 m 71.59 -109.625 l S Q
  Q
Q
Q q
61.07 57.051 m 192.07 57.051 l 192.07 58.469 l 61.07 58.469 l h
61.07 58.469 m 192.07 58.469 l 192.07 59.887 l 61.07 59.887 l h
61.07 58.469 m W n
q
61 57 132 3 re W n
  q
0 g
0.510386 w
2 J
0 j
[] 0.0 d
10 M q 1 0 0 -1 0 0 cm
183.992 7.578 m 69.188 -107.223 l S Q
  Q
Q
Q q
59.07 57.051 m 189.07 57.051 l 189.07 58.469 l 59.07 58.469 l h
59.07 58.469 m 189.07 58.469 l 189.07 59.887 l 59.07 59.887 l h
59.07 58.469 m W n
q
59 57 131 3 re W n
  q
0 g
0.510386 w
2 J
0 j
[] 0.0 d
10 M q 1 0 0 -1 0 0 cm
181.594 9.98 m 66.789 -104.824 l S Q
  Q
Q
Q q
57.07 57.051 m 187.07 57.051 l 187.07 58.469 l 57.07 58.469 l h
57.07 58.469 m 187.07 58.469 l 187.07 59.887 l 57.07 59.887 l h
57.07 58.469 m W n
q
57 57 131 3 re W n
  q
0 g
0.510386 w
2 J
0 j
[] 0.0 d
10 M q 1 0 0 -1 0 0 cm
179.191 12.379 m 64.391 -102.422 l S Q
  Q
Q
Q q
54.07 57.051 m 184.07 57.051 l 184.07 58.469 l 54.07 58.469 l h
54.07 58.469 m 184.07 58.469 l 184.07 59.887 l 54.07 59.887 l h
54.07 58.469 m W n
q
54 57 131 3 re W n
  q
0 g
0.510386 w
2 J
0 j
[] 0.0 d
10 M q 1 0 0 -1 0 0 cm
176.793 14.781 m 61.988 -100.023 l S Q
  Q
Q
Q q
52.07 57.051 m 182.07 57.051 l 182.07 58.469 l 52.07 58.469 l h
52.07 58.469 m 182.07 58.469 l 182.07 59.887 l 52.07 59.887 l h
52.07 58.469 m W n
q
52 57 131 3 re W n
  q
0 g
0.510386 w
2 J
0 j
[] 0.0 d
10 M q 1 0 0 -1 0 0 cm
174.391 17.18 m 59.59 -97.625 l S Q
  Q
Q
Q q
49.07 57.051 m 180.07 57.051 l 180.07 58.469 l 49.07 58.469 l h
49.07 58.469 m 180.07 58.469 l 180.07 59.887 l 49.07 59.887 l h
49.07 58.469 m W n
q
49 57 132 3 re W n
  q
0 g
0.510386 w
2 J
0 j
[] 0.0 d
10 M q 1 0 0 -1 0 0 cm
171.992 19.578 m 57.188 -95.223 l S Q
  Q
Q
Q q
47.07 57.051 m 177.07 57.051 l 177.07 58.469 l 47.07 58.469 l h
47.07 58.469 m 177.07 58.469 l 177.07 59.887 l 47.07 59.887 l h
47.07 58.469 m W n
q
47 57 131 3 re W n
  q
0 g
0.510386 w
2 J
0 j
[] 0.0 d
10 M q 1 0 0 -1 0 0 cm
169.594 21.98 m 54.789 -92.824 l S Q
  Q
Q
Q q
45.07 57.051 m 175.07 57.051 l 175.07 58.469 l 45.07 58.469 l h
45.07 58.469 m 175.07 58.469 l 175.07 59.887 l 45.07 59.887 l h
45.07 58.469 m W n
q
45 57 131 3 re W n
  q
0 g
0.510386 w
2 J
0 j
[] 0.0 d
10 M q 1 0 0 -1 0 0 cm
167.191 24.379 m 52.391 -90.422 l S Q
  Q
Q
Q q
42.07 57.051 m 172.07 57.051 l 172.07 58.469 l 42.07 58.469 l h
42.07 58.469 m 172.07 58.469 l 172.07 59.887 l 42.07 59.887 l h
42.07 58.469 m W n
q
42 57 131 3 re W n
  q
0 g
0.510386 w
2 J
0 j
[] 0.0 d
10 M q 1 0 0 -1 0 0 cm
164.793 26.781 m 49.988 -88.023 l S Q
  Q
Q
Q q
40.07 57.051 m 170.07 57.051 l 170.07 58.469 l 40.07 58.469 l h
40.07 58.469 m 170.07 58.469 l 170.07 59.887 l 40.07 59.887 l h
40.07 58.469 m W n
q
40 57 131 3 re W n
  q
0 g
0.510386 w
2 J
0 j
[] 0.0 d
10 M q 1 0 0 -1 0 0 cm
162.391 29.18 m 47.59 -85.625 l S Q
  Q
Q
Q q
37.07 57.051 m 168.07 57.051 l 168.07 58.469 l 37.07 58.469 l h
37.07 58.469 m 168.07 58.469 l 168.07 59.887 l 37.07 59.887 l h
37.07 58.469 m W n
q
37 57 132 3 re W n
  q
0 g
0.510386 w
2 J
0 j
[] 0.0 d
10 M q 1 0 0 -1 0 0 cm
159.992 31.578 m 45.188 -83.223 l S Q
  Q
Q
Q q
35.07 57.051 m 165.07 57.051 l 165.07 58.469 l 35.07 58.469 l h
35.07 58.469 m 165.07 58.469 l 165.07 59.887 l 35.07 59.887 l h
35.07 58.469 m W n
q
35 57 131 3 re W n
  q
0 g
0.510386 w
2 J
0 j
[] 0.0 d
10 M q 1 0 0 -1 0 0 cm
157.594 33.98 m 42.789 -80.824 l S Q
  Q
Q
Q q
33.07 57.051 m 163.07 57.051 l 163.07 58.469 l 33.07 58.469 l h
33.07 58.469 m 163.07 58.469 l 163.07 59.887 l 33.07 59.887 l h
33.07 58.469 m W n
q
33 57 131 3 re W n
  q
0 g
0.510386 w
2 J
0 j
[] 0.0 d
10 M q 1 0 0 -1 0 0 cm
155.191 36.379 m 40.391 -78.422 l S Q
  Q
Q
Q q
30.07 57.051 m 160.07 57.051 l 160.07 58.469 l 30.07 58.469 l h
30.07 58.469 m 160.07 58.469 l 160.07 59.887 l 30.07 59.887 l h
30.07 58.469 m W n
q
30 57 131 3 re W n
  q
0 g
0.510386 w
2 J
0 j
[] 0.0 d
10 M q 1 0 0 -1 0 0 cm
152.793 38.781 m 37.988 -76.023 l S Q
  Q
Q
Q q
28.07 57.051 m 158.07 57.051 l 158.07 58.469 l 28.07 58.469 l h
28.07 58.469 m 158.07 58.469 l 158.07 59.887 l 28.07 59.887 l h
28.07 58.469 m W n
q
28 57 131 3 re W n
  q
0 g
0.510386 w
2 J
0 j
[] 0.0 d
10 M q 1 0 0 -1 0 0 cm
150.391 41.18 m 35.59 -73.625 l S Q
  Q
Q
Q q
25.07 57.051 m 156.07 57.051 l 156.07 58.469 l 25.07 58.469 l h
25.07 58.469 m 156.07 58.469 l 156.07 59.887 l 25.07 59.887 l h
25.07 58.469 m W n
q
25 57 132 3 re W n
  q
0 g
0.510386 w
2 J
0 j
[] 0.0 d
10 M q 1 0 0 -1 0 0 cm
147.992 43.578 m 33.188 -71.223 l S Q
  Q
Q
Q q
23.07 57.051 m 153.07 57.051 l 153.07 58.469 l 23.07 58.469 l h
23.07 58.469 m 153.07 58.469 l 153.07 59.887 l 23.07 59.887 l h
23.07 58.469 m W n
q
23 57 131 3 re W n
  q
0 g
0.510386 w
2 J
0 j
[] 0.0 d
10 M q 1 0 0 -1 0 0 cm
145.594 45.98 m 30.789 -68.824 l S Q
  Q
Q
Q q
21.852 57.051 m 151.07 57.051 l 151.07 58.469 l 21.852 58.469 l h
21.852 58.469 m 151.07 58.469 l 151.07 59.887 l 21.852 59.887 l h
21.852 58.469 m W n
q
21 57 131 3 re W n
  q
0 g
0.510386 w
2 J
0 j
[] 0.0 d
10 M q 1 0 0 -1 0 0 cm
143.191 48.379 m 28.391 -66.422 l S Q
  Q
Q
Q q
21.852 57.051 m 148.07 57.051 l 148.07 58.469 l 21.852 58.469 l h
21.852 58.469 m 148.07 58.469 l 148.07 59.887 l 21.852 59.887 l h
21.852 58.469 m W n
q
21 57 128 3 re W n
  q
0 g
0.510386 w
2 J
0 j
[] 0.0 d
10 M q 1 0 0 -1 0 0 cm
140.793 50.781 m 25.988 -64.023 l S Q
  Q
Q
Q q
21.852 57.051 m 146.07 57.051 l 146.07 58.469 l 21.852 58.469 l h
21.852 58.469 m 146.07 58.469 l 146.07 59.887 l 21.852 59.887 l h
21.852 58.469 m W n
q
21 57 126 3 re W n
  q
0 g
0.510386 w
2 J
0 j
[] 0.0 d
10 M q 1 0 0 -1 0 0 cm
138.391 53.18 m 23.59 -61.625 l S Q
  Q
Q
Q q
21.852 57.051 m 144.07 57.051 l 144.07 58.469 l 21.852 58.469 l h
21.852 58.469 m 144.07 58.469 l 144.07 59.887 l 21.852 59.887 l h
21.852 58.469 m W n
q
21 57 124 3 re W n
  q
0 g
0.510386 w
2 J
0 j
[] 0.0 d
10 M q 1 0 0 -1 0 0 cm
135.992 55.578 m 21.188 -59.223 l S Q
  Q
Q
Q q
21.852 57.051 m 141.07 57.051 l 141.07 58.469 l 21.852 58.469 l h
21.852 58.469 m 141.07 58.469 l 141.07 59.887 l 21.852 59.887 l h
21.852 58.469 m W n
q
21 57 121 3 re W n
  q
0 g
0.510386 w
2 J
0 j
[] 0.0 d
10 M q 1 0 0 -1 0 0 cm
133.594 57.98 m 18.789 -56.824 l S Q
  Q
Q
Q q
0 g
0.708483 w
0 J
0 j
[] 0.0 d
10 M q 1 0 0 -1 0 0 cm
21.852 -58.469 m 21.852 -57.051 l 248.621 -57.051 l 248.621 -59.887 l 21.852
 -59.887 l h
21.852 -58.469 m S Q
Q q
129.566 82.062 5.668 0.5 re W n
q
129 82 7 1 re W n
  q
0 g
0.283298 w
2 J
0 j
[] 0.0 d
10 M q 1 0 0 -1 0 0 cm
135.234 -82.562 m 129.566 -82.562 l S Q
  Q
Q
Q q
129.566 80.062 5.668 1 re W n
q
129 80 7 2 re W n
  q
0 g
0.283298 w
2 J
0 j
[] 0.0 d
10 M q 1 0 0 -1 0 0 cm
135.234 -80.262 m 129.566 -80.262 l S Q
  Q
Q
Q q
129.566 77.062 5.668 2 re W n
q
129 77 7 3 re W n
  q
0 g
0.283298 w
2 J
0 j
[] 0.0 d
10 M q 1 0 0 -1 0 0 cm
135.234 -77.961 m 129.566 -77.961 l S Q
  Q
Q
Q q
129.566 75.062 5.668 1 re W n
q
129 75 7 2 re W n
  q
0 g
0.283298 w
2 J
0 j
[] 0.0 d
10 M q 1 0 0 -1 0 0 cm
135.234 -75.664 m 129.566 -75.664 l S Q
  Q
Q
Q q
129.566 73.062 5.668 1 re W n
q
129 73 7 2 re W n
  q
0 g
0.283298 w
2 J
0 j
[] 0.0 d
10 M q 1 0 0 -1 0 0 cm
135.234 -73.363 m 129.566 -73.363 l S Q
  Q
Q
Q q
129.566 70.062 m 135.234 70.062 l 135.234 71.223 l 129.566 71.223 l h
129.566 71.223 m 135.234 71.223 l 135.234 72.062 l 129.566 72.062 l h
129.566 71.223 m W n
q
129 70 7 3 re W n
  q
0 g
0.283298 w
2 J
0 j
[] 0.0 d
10 M q 1 0 0 -1 0 0 cm
135.234 -71.062 m 129.566 -71.062 l S Q
  Q
Q
Q q
129.566 68.062 5.668 1 re W n
q
129 68 7 2 re W n
  q
0 g
0.283298 w
2 J
0 j
[] 0.0 d
10 M q 1 0 0 -1 0 0 cm
135.234 -68.762 m 129.566 -68.762 l S Q
  Q
Q
Q q
129.566 66.062 5.668 1 re W n
q
129 66 7 2 re W n
  q
0 g
0.283298 w
2 J
0 j
[] 0.0 d
10 M q 1 0 0 -1 0 0 cm
135.234 -66.461 m 129.566 -66.461 l S Q
  Q
Q
Q q
129.566 63.062 5.668 2 re W n
q
129 63 7 3 re W n
  q
0 g
0.283298 w
2 J
0 j
[] 0.0 d
10 M q 1 0 0 -1 0 0 cm
135.234 -64.164 m 129.566 -64.164 l S Q
  Q
Q
Q q
129.566 61.062 5.668 1 re W n
q
129 61 7 2 re W n
  q
0 g
0.283298 w
2 J
0 j
[] 0.0 d
10 M q 1 0 0 -1 0 0 cm
135.234 -61.863 m 129.566 -61.863 l S Q
  Q
Q
Q q
129.566 59.887 5.668 0.176 re W n
q
129 59 7 2 re W n
  q
0 g
0.283298 w
2 J
0 j
[] 0.0 d
10 M q 1 0 0 -1 0 0 cm
135.234 -59.562 m 129.566 -59.562 l S Q
  Q
Q
Q q
0 g
0.283298 w
0 J
0 j
[] 0.0 d
10 M q 1 0 0 -1 0 0 cm
129.566 -71.223 m 129.566 -59.887 l 135.234 -59.887 l 135.234 -82.562 l
 129.566 -82.562 l h
129.566 -71.223 m S Q
30.711 71.645 m 30.711 71.566 l 29.477 71.223 28.133 70.176 27.898 69.645
 c 27.664 69.645 l 28.008 70.535 28.805 71.113 29.211 71.379 c 22.352 71.379
 l 22.352 71.832 l 29.211 71.832 l 28.805 72.098 28.008 72.676 27.664 73.551
 c 27.898 73.551 l 28.133 73.035 29.477 71.973 30.711 71.645 c h
30.711 71.645 m f
48.902 67.816 m 43.887 67.816 l 43.465 69.348 l 43.637 69.348 l 44.012 
68.363 44.48 68.145 45.262 68.145 c 45.262 68.145 45.777 68.145 45.887 68.145
 c 44.59 72.816 l 44.34 73.723 44.027 73.707 43.668 73.707 c 43.652 73.863
 l 46.012 73.863 l 46.043 73.707 l 45.699 73.707 45.355 73.723 45.355 73.27
 c 45.355 73.145 45.387 73.004 45.434 72.816 c 46.715 68.145 l 47.465 68.145
 l 47.902 68.145 48.371 68.207 48.371 68.832 c 48.371 68.973 48.355 69.129
 48.309 69.348 c 48.48 69.348 l h
48.902 67.816 m f
51.422 67.02 m 51.422 66.801 51.188 66.645 50.969 66.645 c 50.812 66.645
 50.672 66.723 50.609 66.941 c 49.672 70.129 l 49.875 70.207 l 51.375 67.191
 l 51.391 67.129 51.422 67.082 51.422 67.02 c h
51.422 67.02 m f
53.887 73.754 m 53.887 73.176 53.527 72.988 53.324 72.988 c 53.184 72.988
 52.809 73.066 52.809 73.488 c 52.809 73.832 53.09 73.941 53.246 73.941 
c 53.324 73.941 53.34 73.895 53.418 73.895 c 53.465 73.895 53.559 73.957
 53.559 74.113 c 53.559 74.238 53.527 74.566 52.965 74.973 c 52.965 75.16
 l 53.434 74.848 53.887 74.363 53.887 73.754 c h
53.887 73.754 m f
61.363 70.941 m 61.363 70.238 61.051 69.77 60.379 69.77 c 59.785 69.77 
59.332 70.191 58.926 70.754 c 59.238 69.77 l 59.238 69.77 58.035 70.004 
57.77 70.02 c 57.77 70.176 l 58.098 70.176 58.363 70.145 58.363 70.504 c
 58.363 70.676 58.254 71.066 58.191 71.285 c 57.129 75.02 l 57.035 75.363
 56.879 75.613 56.441 75.613 c 56.41 75.77 l 58.379 75.77 l 58.41 75.613
 l 58.066 75.613 57.77 75.598 57.77 75.348 c 57.77 75.27 57.785 75.176 57.832
 75.004 c 58.145 73.754 l 58.316 73.895 58.582 73.973 58.801 73.973 c 59.879
 73.973 61.363 72.441 61.363 70.941 c h
60.598 71.035 m 60.598 72.207 59.613 73.77 58.77 73.77 c 58.566 73.77 58.379
 73.691 58.207 73.52 c 58.41 72.723 58.957 70.191 60.113 70.191 c 60.598
 70.191 60.598 70.832 60.598 71.035 c h
60.598 71.035 m f
64.02 67.02 m 64.02 66.801 63.785 66.645 63.566 66.645 c 63.41 66.645 63.27
 66.723 63.207 66.941 c 62.27 70.129 l 62.473 70.207 l 63.973 67.191 l 63.988
 67.129 64.02 67.082 64.02 67.02 c h
64.02 67.02 m f
207.996 67.816 m 202.98 67.816 l 202.559 69.348 l 202.73 69.348 l 203.105
 68.363 203.574 68.145 204.355 68.145 c 204.355 68.145 204.871 68.145 204.98
 68.145 c 203.684 72.816 l 203.434 73.723 203.121 73.707 202.762 73.707 
c 202.746 73.863 l 205.105 73.863 l 205.137 73.707 l 204.793 73.707 204.449
 73.723 204.449 73.27 c 204.449 73.145 204.48 73.004 204.527 72.816 c 205.809
 68.145 l 206.559 68.145 l 206.996 68.145 207.465 68.207 207.465 68.832 
c 207.465 68.973 207.449 69.129 207.402 69.348 c 207.574 69.348 l h
207.996 67.816 m f
210.512 67.02 m 210.512 66.801 210.277 66.645 210.059 66.645 c 209.902 
66.645 209.762 66.723 209.699 66.941 c 208.762 70.129 l 208.965 70.207 l
 210.465 67.191 l 210.48 67.129 210.512 67.082 210.512 67.02 c h
210.512 67.02 m f
212.551 67.02 m 212.551 66.801 212.316 66.645 212.098 66.645 c 211.941 
66.645 211.801 66.723 211.738 66.941 c 210.801 70.129 l 211.004 70.207 l
 212.504 67.191 l 212.52 67.129 212.551 67.082 212.551 67.02 c h
212.551 67.02 m f
215.02 73.754 m 215.02 73.176 214.66 72.988 214.457 72.988 c 214.316 72.988
 213.941 73.066 213.941 73.488 c 213.941 73.832 214.223 73.941 214.379 73.941
 c 214.457 73.941 214.473 73.895 214.551 73.895 c 214.598 73.895 214.691
 73.957 214.691 74.113 c 214.691 74.238 214.66 74.566 214.098 74.973 c 214.098
 75.16 l 214.566 74.848 215.02 74.363 215.02 73.754 c h
215.02 73.754 m f
222.613 70.941 m 222.613 70.238 222.301 69.77 221.629 69.77 c 221.035 69.77
 220.582 70.191 220.176 70.754 c 220.488 69.77 l 220.488 69.77 219.285 70.004
 219.02 70.02 c 219.02 70.176 l 219.348 70.176 219.613 70.145 219.613 70.504
 c 219.613 70.676 219.504 71.066 219.441 71.285 c 218.379 75.02 l 218.285
 75.363 218.129 75.613 217.691 75.613 c 217.66 75.77 l 219.629 75.77 l 219.66
 75.613 l 219.316 75.613 219.02 75.598 219.02 75.348 c 219.02 75.27 219.035
 75.176 219.082 75.004 c 219.395 73.754 l 219.566 73.895 219.832 73.973 
220.051 73.973 c 221.129 73.973 222.613 72.441 222.613 70.941 c h
221.848 71.035 m 221.848 72.207 220.863 73.77 220.02 73.77 c 219.816 73.77
 219.629 73.691 219.457 73.52 c 219.66 72.723 220.207 70.191 221.363 70.191
 c 221.848 70.191 221.848 70.832 221.848 71.035 c h
221.848 71.035 m f
225.27 67.02 m 225.27 66.801 225.035 66.645 224.816 66.645 c 224.66 66.645
 224.52 66.723 224.457 66.941 c 223.52 70.129 l 223.723 70.207 l 225.223
 67.191 l 225.238 67.129 225.27 67.082 225.27 67.02 c h
225.27 67.02 m f
227.312 67.02 m 227.312 66.801 227.078 66.645 226.859 66.645 c 226.703 
66.645 226.562 66.723 226.5 66.941 c 225.562 70.129 l 225.766 70.207 l 227.266
 67.191 l 227.281 67.129 227.312 67.082 227.312 67.02 c h
227.312 67.02 m f
248.121 71.645 m 248.121 71.566 l 246.887 71.223 245.543 70.176 245.309
 69.645 c 245.074 69.645 l 245.418 70.535 246.215 71.113 246.621 71.379 
c 239.762 71.379 l 239.762 71.832 l 246.621 71.832 l 246.215 72.098 245.418
 72.676 245.074 73.551 c 245.309 73.551 l 245.543 73.035 246.887 71.973 
248.121 71.645 c h
248.121 71.645 m f
122.754 67.355 m 122.754 67.215 l 121.035 67.215 l 121.035 67.355 l 121.223
 67.355 121.535 67.434 121.535 67.684 c 121.535 67.902 121.316 68.262 121.191
 68.449 c 118.801 71.965 l 118.629 68.043 l 118.598 67.48 118.91 67.355 
119.395 67.355 c 119.395 67.215 l 117.082 67.215 l 117.082 67.355 l 117.691
 67.355 117.738 67.637 117.816 68.371 c 118.02 73.402 l 118.176 73.402 l
 121.801 68.074 l 121.973 67.855 122.363 67.355 122.754 67.355 c h
122.754 67.355 m f
125.312 66.539 m 125.312 66.32 125.078 66.164 124.859 66.164 c 124.703 
66.164 124.562 66.242 124.5 66.461 c 123.562 69.648 l 123.766 69.727 l 125.266
 66.711 l 125.281 66.648 125.312 66.602 125.312 66.539 c h
125.312 66.539 m f
125.234 75.414 m 125.016 75.383 l 124.781 75.742 124.594 75.805 124.25 
75.805 c 122.594 75.805 l 123.781 74.82 124.844 73.93 124.844 72.961 c 124.844
 72.227 124.141 71.711 123.375 71.711 c 122.609 71.711 122 72.07 121.766
 73.086 c 122.016 73.086 l 122.234 72.695 122.516 72.305 123.094 72.305 
c 123.734 72.305 124.094 72.727 124.094 73.227 c 124.094 73.961 123.203 
75.023 121.688 76.211 c 121.688 76.383 l 124.781 76.383 l h
125.234 75.414 m f
165.73 67.355 m 165.73 67.215 l 164.012 67.215 l 164.012 67.355 l 164.199
 67.355 164.512 67.434 164.512 67.684 c 164.512 67.902 164.293 68.262 164.168
 68.449 c 161.777 71.965 l 161.605 68.043 l 161.574 67.48 161.887 67.355
 162.371 67.355 c 162.371 67.215 l 160.059 67.215 l 160.059 67.355 l 160.668
 67.355 160.715 67.637 160.793 68.371 c 160.996 73.402 l 161.152 73.402 
l 164.777 68.074 l 164.949 67.855 165.34 67.355 165.73 67.355 c h
165.73 67.355 m f
168.289 66.539 m 168.289 66.32 168.055 66.164 167.836 66.164 c 167.68 66.164
 167.539 66.242 167.477 66.461 c 166.539 69.648 l 166.742 69.727 l 168.242
 66.711 l 168.258 66.648 168.289 66.602 168.289 66.539 c h
168.289 66.539 m f
170.328 66.539 m 170.328 66.32 170.094 66.164 169.875 66.164 c 169.719 
66.164 169.578 66.242 169.516 66.461 c 168.578 69.648 l 168.781 69.727 l
 170.281 66.711 l 170.297 66.648 170.328 66.602 170.328 66.539 c h
170.328 66.539 m f
168.215 75.414 m 167.996 75.383 l 167.762 75.742 167.574 75.805 167.23 
75.805 c 165.574 75.805 l 166.762 74.82 167.824 73.93 167.824 72.961 c 167.824
 72.227 167.121 71.711 166.355 71.711 c 165.59 71.711 164.98 72.07 164.746
 73.086 c 164.996 73.086 l 165.215 72.695 165.496 72.305 166.074 72.305 
c 166.715 72.305 167.074 72.727 167.074 73.227 c 167.074 73.961 166.184 
75.023 164.668 76.211 c 164.668 76.383 l 167.762 76.383 l h
168.215 75.414 m f
2.203 67.441 m 1.547 67.879 1.281 68.098 0.938 68.52 c 0.312 69.301 0 70.191
 0 71.238 c 0 72.395 0.328 73.27 1.109 74.176 c 1.484 74.613 1.719 74.801
 2.188 75.098 c 2.281 74.941 l 1.578 74.379 1.328 74.066 1.078 73.395 c 
0.859 72.801 0.766 72.129 0.766 71.223 c 0.766 70.27 0.875 69.535 1.125 
68.988 c 1.375 68.426 1.641 68.098 2.281 67.582 c h
2.203 67.441 m f
3.938 67.395 m 3.891 67.379 l 3.516 67.504 3.281 67.582 2.844 67.707 c 
2.594 67.77 l 2.594 67.91 l 2.641 67.91 2.672 67.91 2.734 67.91 c 3.094 
67.91 3.188 67.988 3.188 68.363 c 3.188 73.02 l 3.188 73.301 3.938 73.598
 4.656 73.598 c 5.844 73.598 6.766 72.613 6.766 71.332 c 6.766 70.207 6.078
 69.379 5.188 69.379 c 4.641 69.379 4.109 69.691 3.938 70.145 c h
3.938 70.613 m 3.938 70.27 4.359 69.941 4.828 69.941 c 5.078 69.941 5.297
 70.035 5.484 70.207 c 5.766 70.488 5.969 71.098 5.969 71.738 c 5.969 72.738
 5.547 73.301 4.812 73.301 c 4.344 73.301 3.938 73.113 3.938 72.879 c h
3.938 70.613 m f
7.348 75.098 m 8.004 74.645 8.285 74.426 8.613 74.02 c 9.254 73.238 9.566
 72.332 9.566 71.285 c 9.566 70.145 9.223 69.27 8.441 68.363 c 8.066 67.926
 7.832 67.723 7.379 67.441 c 7.27 67.582 l 7.988 68.145 8.223 68.457 8.473
 69.129 c 8.691 69.738 8.785 70.41 8.785 71.316 c 8.785 72.254 8.676 72.988
 8.426 73.535 c 8.191 74.098 7.91 74.426 7.27 74.941 c h
7.348 75.098 m f
Q Q
showpage
%%Trailer
end
%%EOF
