%!PS-Adobe-3.0 EPSF-3.0
%%Creator: cairo 1.17.4 (https://cairographics.org)
%%CreationDate: Thu Feb 24 10:49:12 2022
%%Pages: 1
%%DocumentData: Clean7Bit
%%LanguageLevel: 2
%%BoundingBox: 0 0 342 140
%%EndComments
%%BeginProlog
50 dict begin
/q { gsave } bind def
/Q { grestore } bind def
/cm { 6 array astore concat } bind def
/w { setlinewidth } bind def
/J { setlinecap } bind def
/j { setlinejoin } bind def
/M { setmiterlimit } bind def
/d { setdash } bind def
/m { moveto } bind def
/l { lineto } bind def
/c { curveto } bind def
/h { closepath } bind def
/re { exch dup neg 3 1 roll 5 3 roll moveto 0 rlineto
      0 exch rlineto 0 rlineto closepath } bind def
/S { stroke } bind def
/f { fill } bind def
/f* { eofill } bind def
/n { newpath } bind def
/W { clip } bind def
/W* { eoclip } bind def
/BT { } bind def
/ET { } bind def
/BDC { mark 3 1 roll /BDC pdfmark } bind def
/EMC { mark /EMC pdfmark } bind def
/cairo_store_point { /cairo_point_y exch def /cairo_point_x exch def } def
/Tj { show currentpoint cairo_store_point } bind def
/TJ {
  {
    dup
    type /stringtype eq
    { show } { -0.001 mul 0 cairo_font_matrix dtransform rmoveto } ifelse
  } forall
  currentpoint cairo_store_point
} bind def
/cairo_selectfont { cairo_font_matrix aload pop pop pop 0 0 6 array astore
    cairo_font exch selectfont cairo_point_x cairo_point_y moveto } bind def
/Tf { pop /cairo_font exch def /cairo_font_matrix where
      { pop cairo_selectfont } if } bind def
/Td { matrix translate cairo_font_matrix matrix concatmatrix dup
      /cairo_font_matrix exch def dup 4 get exch 5 get cairo_store_point
      /cairo_font where { pop cairo_selectfont } if } bind def
/Tm { 2 copy 8 2 roll 6 array astore /cairo_font_matrix exch def
      cairo_store_point /cairo_font where { pop cairo_selectfont } if } bind def
/g { setgray } bind def
/rg { setrgbcolor } bind def
/d1 { setcachedevice } bind def
/cairo_data_source {
  CairoDataIndex CairoData length lt
    { CairoData CairoDataIndex get /CairoDataIndex CairoDataIndex 1 add def }
    { () } ifelse
} def
/cairo_flush_ascii85_file { cairo_ascii85_file status { cairo_ascii85_file flushfile } if } def
/cairo_image { image cairo_flush_ascii85_file } def
/cairo_imagemask { imagemask cairo_flush_ascii85_file } def
%%EndProlog
%%BeginSetup
%%EndSetup
%%Page: 1 1
%%BeginPageSetup
%%PageBoundingBox: 0 0 342 140
%%EndPageSetup
q 0 0 342 140 rectclip
1 0 0 -1 0 140 cm q
0 g
29.102 50.426 m 31.023 50.426 l 31.023 50.27 l 30.43 50.27 30.336 50.191
 30.32 49.676 c 30.32 48.426 l 30.602 48.691 30.789 48.77 31.133 48.77 c
 32.07 48.77 32.805 47.879 32.805 46.723 c 32.805 45.738 32.242 45.02 31.477
 45.02 c 31.023 45.02 30.68 45.223 30.32 45.66 c 30.32 45.035 l 30.273 45.02
 l 29.836 45.191 29.57 45.301 29.133 45.426 c 29.133 45.566 l 29.195 45.551
 29.242 45.551 29.32 45.551 c 29.602 45.551 29.648 45.629 29.648 46.004 
c 29.648 49.738 l 29.648 50.16 29.57 50.238 29.102 50.285 c h
30.32 46.035 m 30.32 45.785 30.773 45.504 31.133 45.504 c 31.727 45.504
 32.117 46.113 32.117 47.035 c 32.117 47.926 31.727 48.52 31.148 48.52 c
 30.773 48.52 30.32 48.223 30.32 47.988 c h
30.32 46.035 m f
36.891 48.566 m 36.469 48.504 36.422 48.441 36.422 47.879 c 36.422 46.285
 l 36.422 45.457 36.094 45.02 35.438 45.02 c 34.969 45.02 34.641 45.223 
34.266 45.691 c 34.266 43.27 l 34.234 43.254 l 33.953 43.348 33.75 43.41
 33.312 43.535 c 33.094 43.598 l 33.094 43.723 l 33.125 43.723 33.141 43.723
 33.188 43.723 c 33.531 43.723 33.594 43.785 33.594 44.129 c 33.594 47.879
 l 33.578 48.457 33.547 48.52 33.094 48.566 c 33.094 48.691 l 34.812 48.691
 l 34.812 48.566 l 34.344 48.535 34.281 48.441 34.266 47.879 c 34.266 45.957
 l 34.594 45.598 34.844 45.457 35.156 45.457 c 35.547 45.457 35.75 45.738
 35.75 46.301 c 35.75 47.879 l 35.734 48.441 35.656 48.535 35.203 48.566
 c 35.203 48.691 l 36.891 48.691 l h
36.891 48.566 m f
40.492 48.16 m 40.367 48.27 40.273 48.316 40.148 48.316 c 39.961 48.316
 39.914 48.207 39.914 47.848 c 39.914 46.301 l 39.914 45.879 39.867 45.66
 39.742 45.457 c 39.57 45.176 39.227 45.02 38.758 45.02 c 38.008 45.02 37.43
 45.41 37.43 45.926 c 37.43 46.098 37.57 46.254 37.758 46.254 c 37.961 46.254
 38.117 46.098 38.117 45.926 c 38.117 45.895 38.117 45.848 38.102 45.801
 c 38.086 45.723 38.086 45.66 38.086 45.613 c 38.086 45.395 38.336 45.223
 38.664 45.223 c 39.055 45.223 39.258 45.441 39.258 45.879 c 39.258 46.363
 l 38.039 46.848 37.898 46.926 37.555 47.223 c 37.383 47.379 37.273 47.66
 37.273 47.926 c 37.273 48.426 37.617 48.77 38.102 48.77 c 38.461 48.77 
38.789 48.598 39.273 48.191 c 39.305 48.613 39.461 48.77 39.789 48.77 c 
40.055 48.77 40.227 48.676 40.492 48.379 c h
39.258 47.707 m 39.258 47.957 39.227 48.035 39.055 48.129 c 38.852 48.238
 38.648 48.316 38.477 48.316 c 38.195 48.316 37.977 48.035 37.977 47.691
 c 37.977 47.66 l 37.977 47.191 38.336 46.879 39.258 46.551 c h
39.258 47.707 m f
42.969 46.191 m 42.938 45.098 l 42.844 45.098 l 42.797 45.16 42.766 45.191
 42.719 45.191 c 42.672 45.191 42.594 45.176 42.5 45.129 c 42.312 45.066
 42.141 45.02 41.938 45.02 c 41.312 45.02 40.859 45.441 40.859 46.02 c 40.859
 46.457 41.109 46.785 41.797 47.16 c 42.25 47.426 l 42.531 47.582 42.672
 47.77 42.672 48.02 c 42.672 48.379 42.406 48.598 42 48.598 c 41.453 48.598
 41.172 48.301 41 47.473 c 40.875 47.473 l 40.875 48.723 l 40.969 48.723
 l 41.031 48.645 41.062 48.629 41.156 48.629 c 41.234 48.629 41.344 48.645
 41.516 48.691 c 41.734 48.738 41.938 48.77 42.109 48.77 c 42.719 48.77 
43.219 48.316 43.219 47.754 c 43.219 47.348 43.031 47.082 42.562 46.801 
c 41.703 46.285 l 41.469 46.16 41.359 45.973 41.359 45.754 c 41.359 45.426
 41.594 45.207 41.969 45.207 c 42.422 45.207 42.656 45.473 42.844 46.191
 c h
42.969 46.191 m f
46.824 47.379 m 46.449 47.988 46.105 48.223 45.59 48.223 c 45.137 48.223
 44.793 47.988 44.559 47.535 c 44.418 47.238 44.355 46.973 44.34 46.488 
c 46.809 46.488 l 46.73 45.973 46.652 45.738 46.465 45.473 c 46.215 45.191
 45.855 45.02 45.434 45.02 c 45.043 45.02 44.668 45.176 44.355 45.441 c 
43.996 45.77 43.777 46.332 43.777 46.988 c 43.777 48.082 44.34 48.77 45.262
 48.77 c 46.027 48.77 46.621 48.301 46.949 47.441 c h
44.355 46.223 m 44.449 45.613 44.715 45.316 45.215 45.316 c 45.699 45.316
 45.887 45.535 45.996 46.223 c h
44.355 46.223 m f
53.887 47.973 m 53.887 47.879 53.84 47.832 53.777 47.832 c 53.73 47.832
 53.668 47.816 53.512 48.082 c 53.449 48.176 53.355 48.363 53.215 48.363
 c 53.152 48.363 53.09 48.301 53.059 48.238 c 52.98 48.051 52.809 47.613
 52.762 47.488 c 52.965 47.129 53.449 46.176 53.449 44.785 c 52.73 44.91
 l 52.715 45.691 52.543 46.27 52.465 46.52 c 52.184 45.645 51.965 44.801
 51.105 44.801 c 50.168 44.801 49.496 45.676 49.496 46.895 c 49.496 47.926
 50.184 48.785 50.871 48.785 c 51.605 48.785 52.121 48.285 52.324 48.035
 c 52.496 48.566 52.793 48.785 53.105 48.785 c 53.387 48.785 53.668 48.566
 53.824 48.191 c 53.84 48.129 53.887 48.035 53.887 47.973 c h
52.121 47.238 m 51.887 47.645 51.512 48.254 50.949 48.254 c 50.434 48.254
 50.152 47.66 50.152 46.848 c 50.152 46.129 50.418 45.16 51.074 45.16 c 
51.496 45.16 51.605 45.535 51.809 46.098 c 51.934 46.473 52.043 46.832 52.121
 47.238 c h
52.121 47.238 m f
29.102 69.09 m 31.023 69.09 l 31.023 68.934 l 30.43 68.934 30.336 68.855
 30.32 68.34 c 30.32 67.09 l 30.602 67.355 30.789 67.434 31.133 67.434 c
 32.07 67.434 32.805 66.543 32.805 65.387 c 32.805 64.402 32.242 63.684 
31.477 63.684 c 31.023 63.684 30.68 63.887 30.32 64.324 c 30.32 63.699 l
 30.273 63.684 l 29.836 63.855 29.57 63.965 29.133 64.09 c 29.133 64.23 
l 29.195 64.215 29.242 64.215 29.32 64.215 c 29.602 64.215 29.648 64.293
 29.648 64.668 c 29.648 68.402 l 29.648 68.824 29.57 68.902 29.102 68.949
 c h
30.32 64.699 m 30.32 64.449 30.773 64.168 31.133 64.168 c 31.727 64.168
 32.117 64.777 32.117 65.699 c 32.117 66.59 31.727 67.184 31.148 67.184 
c 30.773 67.184 30.32 66.887 30.32 66.652 c h
30.32 64.699 m f
36.891 67.23 m 36.469 67.168 36.422 67.105 36.422 66.543 c 36.422 64.949
 l 36.422 64.121 36.094 63.684 35.438 63.684 c 34.969 63.684 34.641 63.887
 34.266 64.355 c 34.266 61.934 l 34.234 61.918 l 33.953 62.012 33.75 62.074
 33.312 62.199 c 33.094 62.262 l 33.094 62.387 l 33.125 62.387 33.141 62.387
 33.188 62.387 c 33.531 62.387 33.594 62.449 33.594 62.793 c 33.594 66.543
 l 33.578 67.121 33.547 67.184 33.094 67.23 c 33.094 67.355 l 34.812 67.355
 l 34.812 67.23 l 34.344 67.199 34.281 67.105 34.266 66.543 c 34.266 64.621
 l 34.594 64.262 34.844 64.121 35.156 64.121 c 35.547 64.121 35.75 64.402
 35.75 64.965 c 35.75 66.543 l 35.734 67.105 35.656 67.199 35.203 67.23 
c 35.203 67.355 l 36.891 67.355 l h
36.891 67.23 m f
40.492 66.824 m 40.367 66.934 40.273 66.98 40.148 66.98 c 39.961 66.98 
39.914 66.871 39.914 66.512 c 39.914 64.965 l 39.914 64.543 39.867 64.324
 39.742 64.121 c 39.57 63.84 39.227 63.684 38.758 63.684 c 38.008 63.684
 37.43 64.074 37.43 64.59 c 37.43 64.762 37.57 64.918 37.758 64.918 c 37.961
 64.918 38.117 64.762 38.117 64.59 c 38.117 64.559 38.117 64.512 38.102 
64.465 c 38.086 64.387 38.086 64.324 38.086 64.277 c 38.086 64.059 38.336
 63.887 38.664 63.887 c 39.055 63.887 39.258 64.105 39.258 64.543 c 39.258
 65.027 l 38.039 65.512 37.898 65.59 37.555 65.887 c 37.383 66.043 37.273
 66.324 37.273 66.59 c 37.273 67.09 37.617 67.434 38.102 67.434 c 38.461
 67.434 38.789 67.262 39.273 66.855 c 39.305 67.277 39.461 67.434 39.789
 67.434 c 40.055 67.434 40.227 67.34 40.492 67.043 c h
39.258 66.371 m 39.258 66.621 39.227 66.699 39.055 66.793 c 38.852 66.902
 38.648 66.98 38.477 66.98 c 38.195 66.98 37.977 66.699 37.977 66.355 c 
37.977 66.324 l 37.977 65.855 38.336 65.543 39.258 65.215 c h
39.258 66.371 m f
42.969 64.855 m 42.938 63.762 l 42.844 63.762 l 42.797 63.824 42.766 63.855
 42.719 63.855 c 42.672 63.855 42.594 63.84 42.5 63.793 c 42.312 63.73 42.141
 63.684 41.938 63.684 c 41.312 63.684 40.859 64.105 40.859 64.684 c 40.859
 65.121 41.109 65.449 41.797 65.824 c 42.25 66.09 l 42.531 66.246 42.672
 66.434 42.672 66.684 c 42.672 67.043 42.406 67.262 42 67.262 c 41.453 67.262
 41.172 66.965 41 66.137 c 40.875 66.137 l 40.875 67.387 l 40.969 67.387
 l 41.031 67.309 41.062 67.293 41.156 67.293 c 41.234 67.293 41.344 67.309
 41.516 67.355 c 41.734 67.402 41.938 67.434 42.109 67.434 c 42.719 67.434
 43.219 66.98 43.219 66.418 c 43.219 66.012 43.031 65.746 42.562 65.465 
c 41.703 64.949 l 41.469 64.824 41.359 64.637 41.359 64.418 c 41.359 64.09
 41.594 63.871 41.969 63.871 c 42.422 63.871 42.656 64.137 42.844 64.855
 c h
42.969 64.855 m f
46.824 66.043 m 46.449 66.652 46.105 66.887 45.59 66.887 c 45.137 66.887
 44.793 66.652 44.559 66.199 c 44.418 65.902 44.355 65.637 44.34 65.152 
c 46.809 65.152 l 46.73 64.637 46.652 64.402 46.465 64.137 c 46.215 63.855
 45.855 63.684 45.434 63.684 c 45.043 63.684 44.668 63.84 44.355 64.105 
c 43.996 64.434 43.777 64.996 43.777 65.652 c 43.777 66.746 44.34 67.434
 45.262 67.434 c 46.027 67.434 46.621 66.965 46.949 66.105 c h
44.355 64.887 m 44.449 64.277 44.715 63.98 45.215 63.98 c 45.699 63.98 
45.887 64.199 45.996 64.887 c h
44.355 64.887 m f
53.309 65.699 m 53.309 64.652 52.543 64.105 52.105 63.934 c 52.48 63.684
 52.809 63.246 52.809 62.715 c 52.809 61.855 52.012 61.246 51.293 61.246
 c 49.918 61.246 49.699 62.793 49.699 64.012 c 49.699 68.855 l 50.387 68.855
 l 50.387 67.105 l 50.574 67.34 50.902 67.449 51.293 67.449 c 52.168 67.449
 53.309 66.84 53.309 65.699 c h
52.496 65.621 m 52.496 66.793 51.793 67.121 51.293 67.121 c 50.824 67.121
 50.605 66.637 50.465 66.121 c 50.355 65.637 50.34 64.293 50.34 64.105 c
 50.34 62.887 50.543 61.543 51.324 61.543 c 51.855 61.559 51.996 62.277 
51.996 62.684 c 51.996 63.043 51.887 63.402 51.621 63.699 c 51.418 63.59
 51.215 63.527 51.012 63.527 c 50.762 63.527 50.449 63.699 50.449 63.996
 c 50.449 64.246 50.715 64.418 50.996 64.418 c 51.309 64.418 51.574 64.23
 51.715 64.137 c 52.262 64.48 52.496 65.121 52.496 65.621 c h
52.496 65.621 m f
1.41739 w
0 J
0 j
[] 0.0 d
10 M q 1 0 0 -1 0 0 cm
0.707 0 m 0.707 -113.387 l 142.438 -113.387 l 142.438 0 l S Q
0.850361 w
q 1 0 0 -1 0 0 cm
128.266 -79.371 m 128.266 -79.008 l 128.195 -77.914 l 128.18 -77.84 l 128.031
 -76.84 m 127.973 -76.473 l 127.617 -75.055 l 127.211 -73.93 l 126.812 -73.004
 m 126.484 -72.285 l 125.715 -70.941 l 125.328 -70.371 l 124.758 -69.539
 m 123.809 -68.336 l 122.805 -67.227 l 122.09 -66.512 m 121.422 -65.859 
l 120.059 -64.672 l 119.832 -64.496 l 119.035 -63.875 m 118.582 -63.523 
l 117 -62.41 l 116.559 -62.129 l 115.711 -61.586 m 115.324 -61.34 l 113.535
 -60.312 l 113.086 -60.074 l 112.191 -59.605 m 111.66 -59.328 l 109.695 
-58.387 l 109.465 -58.289 l 108.539 -57.887 m 107.633 -57.496 l 105.73 -56.75
 l 104.781 -56.402 m 103.27 -55.863 l 101.914 -55.43 l 100.953 -55.125 m
 98.594 -54.445 l 98.035 -54.301 l 97.059 -54.051 m 96.152 -53.82 l 94.109
 -53.359 l 93.121 -53.152 m 91.066 -52.746 l 90.145 -52.59 l 89.148 -52.418
 m 88.43 -52.297 l 86.152 -51.977 l 85.152 -51.852 m 82.996 -51.602 l 82.141
 -51.523 l 81.133 -51.434 m 80.207 -51.352 l 78.113 -51.219 l 77.105 -51.16
 m 74.488 -51.062 l 74.078 -51.055 l 73.066 -51.035 m 72.301 -51.023 l 70.84
 -51.023 l 70.039 -51.039 l 69.031 -51.055 m 68.656 -51.062 l 66.004 -51.164
 l 64.996 -51.223 m 62.938 -51.352 l 61.973 -51.438 l 60.969 -51.527 m 60.145
 -51.602 l 57.957 -51.855 l 56.953 -51.98 m 54.711 -52.297 l 53.957 -52.426
 l 52.961 -52.594 m 52.078 -52.746 l 49.988 -53.16 l 49 -53.367 m 46.992
 -53.82 l 46.051 -54.062 l 45.07 -54.312 m 44.547 -54.445 l 42.172 -55.129
 l 42.156 -55.133 l 41.195 -55.441 m 39.875 -55.863 l 38.328 -56.414 l 37.379
 -56.766 m 35.512 -57.496 l 34.574 -57.902 l 33.645 -58.305 m 33.453 -58.387
 l 31.484 -59.328 l 30.922 -59.625 l 30.027 -60.094 m 29.605 -60.312 l 27.824
 -61.34 l 27.402 -61.609 l 26.551 -62.148 m 26.141 -62.41 l 24.562 -63.523
 l 24.082 -63.898 l 23.285 -64.52 m 23.086 -64.672 l 21.719 -65.859 l 21.027
 -66.539 l 20.316 -67.254 m 19.332 -68.336 l 18.367 -69.57 l 17.797 -70.402
 m 17.43 -70.941 l 16.664 -72.285 l 16.316 -73.039 l 15.922 -73.969 m 15.531
 -75.055 l 15.172 -76.473 l 15.113 -76.883 l 14.961 -77.879 m 14.953 -77.914
 l 14.879 -79.008 l 14.879 -79.734 l 14.953 -80.828 l 14.965 -80.902 l 15.117
 -81.902 m 15.172 -82.27 l 15.531 -83.688 l 15.938 -84.812 l 16.336 -85.738
 m 16.664 -86.457 l 17.43 -87.801 l 17.816 -88.371 l 18.391 -89.203 m 19.332
 -90.406 l 20.344 -91.52 l 21.055 -92.234 m 21.719 -92.883 l 23.086 -94.07
 l 23.316 -94.246 l 24.113 -94.867 m 24.562 -95.219 l 26.141 -96.332 l 26.586
 -96.613 l 27.438 -97.156 m 27.824 -97.402 l 29.605 -98.43 l 30.062 -98.668
 l 30.957 -99.137 m 31.484 -99.414 l 33.453 -100.352 l 33.684 -100.453 l
 34.609 -100.855 m 35.512 -101.246 l 37.418 -101.992 l 38.367 -102.34 m 
39.875 -102.875 l 41.234 -103.312 l 42.195 -103.621 m 44.547 -104.297 l 
45.109 -104.441 l 46.09 -104.691 m 46.992 -104.922 l 49.039 -105.383 l 50.027
 -105.59 m 52.078 -105.996 l 53.004 -106.152 l 53.996 -106.324 m 54.711 
-106.445 l 56.992 -106.766 l 57.996 -106.891 m 60.145 -107.141 l 61.008 
-107.219 l 62.012 -107.309 m 62.938 -107.391 l 65.035 -107.523 l 66.043 
-107.582 m 68.656 -107.68 l 69.07 -107.688 l 70.078 -107.707 m 70.84 -107.719
 l 72.301 -107.719 l 73.109 -107.703 l 74.117 -107.688 m 74.488 -107.68 
l 77.145 -107.578 l 78.152 -107.52 m 80.207 -107.391 l 81.176 -107.305 l
 82.18 -107.215 m 82.996 -107.141 l 85.191 -106.887 l 86.191 -106.762 m 
88.43 -106.445 l 89.188 -106.316 l 90.184 -106.148 m 91.066 -105.996 l 93.16
 -105.582 l 94.148 -105.375 m 96.152 -104.922 l 97.098 -104.68 l 98.074 
-104.43 m 98.594 -104.297 l 100.969 -103.613 l 100.988 -103.605 l 101.953
 -103.297 m 103.27 -102.875 l 104.82 -102.324 l 105.766 -101.977 m 107.633
 -101.246 l 108.574 -100.84 l 109.5 -100.438 m 109.695 -100.352 l 111.66
 -99.414 l 112.227 -99.117 l 113.121 -98.648 m 113.535 -98.43 l 115.324 
-97.402 l 115.742 -97.133 l 116.594 -96.59 m 117 -96.332 l 118.582 -95.219
 l 119.066 -94.844 l 119.863 -94.223 m 120.059 -94.07 l 121.422 -92.883 
l 122.117 -92.203 l 122.832 -91.488 m 123.809 -90.406 l 124.781 -89.172 
l 125.352 -88.34 m 125.715 -87.801 l 126.484 -86.457 l 126.832 -85.699 l
 127.227 -84.773 m 127.617 -83.688 l 127.973 -82.27 l 128.035 -81.859 l 
128.188 -80.863 m 128.195 -80.828 l 128.266 -79.734 l 128.266 -79.371 l S Q
0.567043 w
q 1 0 0 -1 0 0 cm
0.707 -14.172 m 0.707 -13.961 l 0.941 -13.965 l 1.176 -13.973 l 1.414 -13.988
 l 1.652 -14.012 l 2.121 -14.066 l 2.359 -14.102 l 2.594 -14.137 l 2.832
 -14.172 l 3.066 -14.211 l 3.305 -14.246 l 3.539 -14.281 l 3.777 -14.309
 l 4.012 -14.336 l 4.25 -14.355 l 4.484 -14.375 l 4.723 -14.383 l 4.957 
-14.387 l 5.195 -14.383 l 5.43 -14.375 l 5.664 -14.355 l 5.902 -14.336 l
 6.137 -14.309 l 6.375 -14.281 l 6.609 -14.246 l 6.848 -14.211 l 7.082 -14.172
 l 7.32 -14.137 l 7.555 -14.102 l 7.793 -14.066 l 8.027 -14.039 l 8.266 
-14.012 l 8.5 -13.988 l 8.738 -13.973 l 8.973 -13.965 l 9.211 -13.961 l 
9.445 -13.965 l 9.684 -13.973 l 9.918 -13.988 l 10.156 -14.012 l 10.391 
-14.039 l 10.629 -14.066 l 11.098 -14.137 l 11.336 -14.172 l 11.57 -14.211
 l 11.809 -14.246 l 12.043 -14.281 l 12.281 -14.309 l 12.516 -14.336 l 12.754
 -14.355 l 12.988 -14.375 l 13.223 -14.383 l 13.461 -14.387 l 13.695 -14.383
 l 13.934 -14.375 l 14.168 -14.355 l 14.406 -14.336 l 14.641 -14.309 l 14.879
 -14.281 l 15.113 -14.246 l 15.352 -14.211 l 15.586 -14.172 l 15.824 -14.137
 l 16.059 -14.102 l 16.297 -14.066 l 16.531 -14.039 l 16.77 -14.012 l 17.004
 -13.988 l 17.238 -13.973 l 17.477 -13.965 l 17.711 -13.961 l 17.949 -13.965
 l 18.184 -13.973 l 18.422 -13.988 l 18.656 -14.012 l 18.895 -14.039 l 19.129
 -14.066 l 19.367 -14.102 l 19.602 -14.137 l 19.84 -14.172 l 20.074 -14.211
 l 20.312 -14.246 l 20.547 -14.281 l 20.785 -14.309 l 21.02 -14.336 l 21.258
 -14.355 l 21.492 -14.375 l 21.73 -14.383 l 21.965 -14.387 l 22.199 -14.383
 l 22.438 -14.375 l 22.672 -14.355 l 22.91 -14.336 l 23.145 -14.309 l 23.383
 -14.281 l 23.617 -14.246 l 23.855 -14.211 l 24.09 -14.172 l 24.328 -14.137
 l 24.797 -14.066 l 25.273 -14.012 l 25.508 -13.988 l 25.742 -13.973 l 25.98
 -13.965 l 26.215 -13.961 l 26.453 -13.965 l 26.688 -13.973 l 26.926 -13.988
 l 27.16 -14.012 l 27.398 -14.039 l 27.633 -14.066 l 27.871 -14.102 l 28.34
 -14.172 l 28.578 -14.211 l 28.816 -14.246 l 29.051 -14.281 l 29.285 -14.309
 l 29.523 -14.336 l 29.762 -14.355 l 29.996 -14.375 l 30.23 -14.383 l 30.469
 -14.387 l 30.703 -14.383 l 30.941 -14.375 l 31.176 -14.355 l 31.414 -14.336
 l 31.648 -14.309 l 31.887 -14.281 l 32.121 -14.246 l 32.359 -14.211 l 32.594
 -14.172 l 32.828 -14.137 l 33.305 -14.066 l 33.773 -14.012 l 34.012 -13.988
 l 34.246 -13.973 l 34.484 -13.965 l 34.719 -13.961 l 34.957 -13.965 l 35.191
 -13.973 l 35.43 -13.988 l 35.664 -14.012 l 35.902 -14.039 l 36.137 -14.066
 l 36.375 -14.102 l 36.844 -14.172 l 37.082 -14.211 l 37.316 -14.246 l 37.555
 -14.281 l 37.789 -14.309 l 38.027 -14.336 l 38.262 -14.355 l 38.5 -14.375
 l 38.734 -14.383 l 38.973 -14.387 l 39.207 -14.383 l 39.445 -14.375 l 39.68
 -14.355 l 39.918 -14.336 l 40.152 -14.309 l 40.391 -14.281 l 40.625 -14.246
 l 40.863 -14.211 l 41.098 -14.172 l 41.332 -14.137 l 41.57 -14.102 l 41.805
 -14.066 l 42.043 -14.039 l 42.277 -14.012 l 42.516 -13.988 l 42.75 -13.973
 l 42.988 -13.965 l 43.223 -13.961 l 43.461 -13.965 l 43.695 -13.973 l 43.934
 -13.988 l 44.168 -14.012 l 44.406 -14.039 l 44.641 -14.066 l 44.879 -14.102
 l 45.348 -14.172 l 45.586 -14.211 l 45.82 -14.246 l 46.059 -14.281 l 46.293
 -14.309 l 46.531 -14.336 l 46.766 -14.355 l 47.004 -14.375 l 47.238 -14.383
 l 47.473 -14.387 l 47.711 -14.383 l 47.949 -14.375 l 48.418 -14.336 l 48.656
 -14.309 l 48.891 -14.281 l 49.129 -14.246 l 49.363 -14.211 l 49.602 -14.172
 l 49.836 -14.137 l 50.074 -14.102 l 50.309 -14.066 l 50.547 -14.039 l 50.781
 -14.012 l 51.02 -13.988 l 51.254 -13.973 l 51.492 -13.965 l 51.727 -13.961
 l 51.961 -13.965 l 52.199 -13.973 l 52.438 -13.988 l 52.672 -14.012 l 52.906
 -14.039 l 53.145 -14.066 l 53.383 -14.102 l 53.852 -14.172 l 54.09 -14.211
 l 54.324 -14.246 l 54.562 -14.281 l 54.797 -14.309 l 55.035 -14.336 l 55.27
 -14.355 l 55.508 -14.375 l 55.742 -14.383 l 55.98 -14.387 l 56.215 -14.383
 l 56.449 -14.375 l 56.688 -14.355 l 56.922 -14.336 l 57.16 -14.309 l 57.395
 -14.281 l 57.633 -14.246 l 57.867 -14.211 l 58.105 -14.172 l 58.34 -14.137
 l 58.578 -14.102 l 58.812 -14.066 l 59.047 -14.039 l 59.285 -14.012 l 59.523
 -13.988 l 59.758 -13.973 l 59.992 -13.965 l 60.23 -13.961 l 60.465 -13.965
 l 60.703 -13.973 l 60.938 -13.988 l 61.176 -14.012 l 61.41 -14.039 l 61.648
 -14.066 l 61.883 -14.102 l 62.121 -14.137 l 62.355 -14.172 l 62.594 -14.211
 l 62.828 -14.246 l 63.066 -14.281 l 63.535 -14.336 l 64.012 -14.375 l 64.246
 -14.383 l 64.48 -14.387 l 64.719 -14.383 l 64.953 -14.375 l 65.191 -14.355
 l 65.426 -14.336 l 65.664 -14.309 l 65.898 -14.281 l 66.137 -14.246 l 66.371
 -14.211 l 66.609 -14.172 l 66.844 -14.137 l 67.082 -14.102 l 67.316 -14.066
 l 67.555 -14.039 l 67.789 -14.012 l 68.027 -13.988 l 68.262 -13.973 l 68.496
 -13.965 l 68.734 -13.961 l 68.969 -13.965 l 69.207 -13.973 l 69.441 -13.988
 l 69.68 -14.012 l 69.914 -14.039 l 70.152 -14.066 l 70.387 -14.102 l 70.625
 -14.137 l 70.859 -14.172 l 71.094 -14.211 l 71.57 -14.281 l 72.039 -14.336
 l 72.516 -14.375 l 72.75 -14.383 l 72.984 -14.387 l 73.223 -14.383 l 73.457
 -14.375 l 73.695 -14.355 l 73.93 -14.336 l 74.168 -14.309 l 74.402 -14.281
 l 74.641 -14.246 l 74.875 -14.211 l 75.113 -14.172 l 75.582 -14.102 l 75.82
 -14.066 l 76.055 -14.039 l 76.293 -14.012 l 76.527 -13.988 l 76.766 -13.973
 l 77 -13.965 l 77.238 -13.961 l 77.473 -13.965 l 77.711 -13.973 l 77.945
 -13.988 l 78.184 -14.012 l 78.418 -14.039 l 78.656 -14.066 l 78.891 -14.102
 l 79.129 -14.137 l 79.363 -14.172 l 79.598 -14.211 l 79.836 -14.246 l 80.07
 -14.281 l 80.309 -14.309 l 80.543 -14.336 l 80.781 -14.355 l 81.016 -14.375
 l 81.254 -14.383 l 81.488 -14.387 l 81.727 -14.383 l 81.961 -14.375 l 82.199
 -14.355 l 82.434 -14.336 l 82.672 -14.309 l 82.906 -14.281 l 83.145 -14.246
 l 83.379 -14.211 l 83.613 -14.172 l 83.852 -14.137 l 84.086 -14.102 l 84.324
 -14.066 l 84.559 -14.039 l 84.797 -14.012 l 85.031 -13.988 l 85.27 -13.973
 l 85.504 -13.965 l 85.742 -13.961 l 85.977 -13.965 l 86.215 -13.973 l 86.449
 -13.988 l 86.688 -14.012 l 87.156 -14.066 l 87.633 -14.137 l 87.867 -14.172
 l 88.102 -14.211 l 88.34 -14.246 l 88.574 -14.281 l 88.812 -14.309 l 89.047
 -14.336 l 89.285 -14.355 l 89.52 -14.375 l 89.758 -14.383 l 89.992 -14.387
 l 90.23 -14.383 l 90.465 -14.375 l 90.699 -14.355 l 90.938 -14.336 l 91.172
 -14.309 l 91.41 -14.281 l 91.645 -14.246 l 91.883 -14.211 l 92.117 -14.172
 l 92.355 -14.137 l 92.59 -14.102 l 92.828 -14.066 l 93.062 -14.039 l 93.301
 -14.012 l 93.535 -13.988 l 93.773 -13.973 l 94.008 -13.965 l 94.246 -13.961
 l 94.48 -13.965 l 94.715 -13.973 l 94.953 -13.988 l 95.188 -14.012 l 95.426
 -14.039 l 95.66 -14.066 l 95.898 -14.102 l 96.133 -14.137 l 96.371 -14.172
 l 96.605 -14.211 l 96.844 -14.246 l 97.078 -14.281 l 97.316 -14.309 l 97.551
 -14.336 l 97.789 -14.355 l 98.023 -14.375 l 98.262 -14.383 l 98.496 -14.387
 l 98.734 -14.383 l 98.969 -14.375 l 99.203 -14.355 l 99.441 -14.336 l 99.68
 -14.309 l 99.914 -14.281 l 100.148 -14.246 l 100.387 -14.211 l 100.621 
-14.172 l 100.859 -14.137 l 101.094 -14.102 l 101.332 -14.066 l 101.566 
-14.039 l 101.805 -14.012 l 102.039 -13.988 l 102.277 -13.973 l 102.512 
-13.965 l 102.746 -13.961 l 102.984 -13.965 l 103.223 -13.973 l 103.457 
-13.988 l 103.691 -14.012 l 103.93 -14.039 l 104.164 -14.066 l 104.402 -14.102
 l 104.637 -14.137 l 104.875 -14.172 l 105.109 -14.211 l 105.348 -14.246
 l 105.582 -14.281 l 105.82 -14.309 l 106.055 -14.336 l 106.289 -14.355 
l 106.527 -14.375 l 106.766 -14.383 l 107 -14.387 l 107.234 -14.383 l 107.473
 -14.375 l 107.707 -14.355 l 107.945 -14.336 l 108.18 -14.309 l 108.418 
-14.281 l 108.652 -14.246 l 108.891 -14.211 l 109.125 -14.172 l 109.363 
-14.137 l 109.598 -14.102 l 109.836 -14.066 l 110.07 -14.039 l 110.309 -14.012
 l 110.543 -13.988 l 110.777 -13.973 l 111.016 -13.965 l 111.25 -13.961 
l 111.488 -13.965 l 111.723 -13.973 l 111.961 -13.988 l 112.195 -14.012 
l 112.434 -14.039 l 112.668 -14.066 l 112.906 -14.102 l 113.141 -14.137 
l 113.379 -14.172 l 113.613 -14.211 l 113.852 -14.246 l 114.086 -14.281 
l 114.32 -14.309 l 114.559 -14.336 l 114.793 -14.355 l 115.031 -14.375 l
 115.266 -14.383 l 115.504 -14.387 l 115.738 -14.383 l 115.977 -14.375 l
 116.211 -14.355 l 116.449 -14.336 l 116.684 -14.309 l 116.922 -14.281 l
 117.156 -14.246 l 117.395 -14.211 l 117.629 -14.172 l 117.863 -14.137 l
 118.102 -14.102 l 118.336 -14.066 l 118.574 -14.039 l 118.809 -14.012 l
 119.047 -13.988 l 119.281 -13.973 l 119.52 -13.965 l 119.754 -13.961 l 
119.992 -13.965 l 120.227 -13.973 l 120.465 -13.988 l 120.699 -14.012 l 
120.938 -14.039 l 121.172 -14.066 l 121.41 -14.102 l 121.879 -14.172 l 122.117
 -14.211 l 122.352 -14.246 l 122.59 -14.281 l 122.824 -14.309 l 123.062 
-14.336 l 123.297 -14.355 l 123.535 -14.375 l 123.77 -14.383 l 124.008 -14.387
 l 124.242 -14.383 l 124.48 -14.375 l 124.715 -14.355 l 124.953 -14.336 
l 125.422 -14.281 l 125.898 -14.211 l 126.133 -14.172 l 126.367 -14.137 
l 126.605 -14.102 l 126.84 -14.066 l 127.078 -14.039 l 127.312 -14.012 l
 127.551 -13.988 l 127.785 -13.973 l 128.023 -13.965 l 128.258 -13.961 l
 128.496 -13.965 l 128.73 -13.973 l 128.965 -13.988 l 129.203 -14.012 l 
129.441 -14.039 l 129.676 -14.066 l 129.91 -14.102 l 130.387 -14.172 l 130.621
 -14.211 l 130.855 -14.246 l 131.094 -14.281 l 131.328 -14.309 l 131.566
 -14.336 l 131.801 -14.355 l 132.039 -14.375 l 132.273 -14.383 l 132.512
 -14.387 l 132.746 -14.383 l 132.984 -14.375 l 133.453 -14.336 l 133.93 
-14.281 l 134.398 -14.211 l 134.637 -14.172 l 134.871 -14.137 l 135.109 
-14.102 l 135.344 -14.066 l 135.582 -14.039 l 135.816 -14.012 l 136.055 
-13.988 l 136.289 -13.973 l 136.527 -13.965 l 136.762 -13.961 l 136.996 
-13.965 l 137.234 -13.973 l 137.473 -13.988 l 137.707 -14.012 l 137.941 
-14.039 l 138.18 -14.066 l 138.414 -14.102 l 138.652 -14.137 l 138.887 -14.172
 l 139.125 -14.211 l 139.359 -14.246 l 139.598 -14.281 l 139.832 -14.309
 l 140.07 -14.336 l 140.305 -14.355 l 140.543 -14.375 l 140.777 -14.383 
l 141.016 -14.387 l 141.25 -14.383 l 141.488 -14.375 l 141.957 -14.336 l
 142.195 -14.309 l 142.43 -14.281 l 142.438 -14.281 l 142.438 -14.172 l S Q
q 1 0 0 -1 0 0 cm
48.895 -86.457 m 48.895 -86.457 57.656 -79.594 63.066 -79.371 c 68.281 
-79.152 72.09 -85.723 77.242 -85.039 c 82.023 -84.406 83.832 -77.496 88.578
 -76.535 c 92.492 -75.746 99.918 -79.371 99.918 -79.371 c S Q
0.425176 w
q 1 0 0 -1 0 0 cm
66.754 -71.434 m 66.754 -69.398 65.102 -67.75 63.066 -67.75 c 61.031 -67.75
 59.383 -69.398 59.383 -71.434 c 59.383 -73.469 61.031 -75.117 63.066 -75.117
 c 65.102 -75.117 66.754 -73.469 66.754 -71.434 c h
66.754 -71.434 m S Q
0.850361 w
q 1 0 0 -1 0 0 cm
61.082 -71.434 m 65.055 -71.434 l S Q
0.567043 w
q 1 0 0 -1 0 0 cm
63.066 -79.371 m 63.066 -75.117 l S Q
0.425176 w
q 1 0 0 -1 0 0 cm
73.555 -92.977 m 73.555 -95.012 75.207 -96.664 77.242 -96.664 c 79.277 
-96.664 80.926 -95.012 80.926 -92.977 c 80.926 -90.941 79.277 -89.293 77.242
 -89.293 c 75.207 -89.293 73.555 -90.941 73.555 -92.977 c h
73.555 -92.977 m S Q
0.850361 w
q 1 0 0 -1 0 0 cm
79.227 -92.977 m 75.258 -92.977 l S Q
0.567043 w
q 1 0 0 -1 0 0 cm
77.242 -85.039 m 77.242 -89.293 l S Q
0.425176 w
q 1 0 0 -1 0 0 cm
92.266 -68.598 m 92.266 -66.562 90.613 -64.914 88.578 -64.914 c 86.543 
-64.914 84.895 -66.562 84.895 -68.598 c 84.895 -70.633 86.543 -72.285 88.578
 -72.285 c 90.613 -72.285 92.266 -70.633 92.266 -68.598 c h
92.266 -68.598 m S Q
0.850361 w
q 1 0 0 -1 0 0 cm
86.594 -68.598 m 90.562 -68.598 l S Q
0.567043 w
q 1 0 0 -1 0 0 cm
88.578 -76.535 m 88.578 -72.285 l S Q
0.425176 w
q 1 0 0 -1 0 0 cm
78.09 -34.016 m 78.09 -31.98 76.441 -30.332 74.406 -30.332 c 72.371 -30.332
 70.723 -31.98 70.723 -34.016 c 70.723 -36.051 72.371 -37.703 74.406 -37.703
 c 76.441 -37.703 78.09 -36.051 78.09 -34.016 c h
78.09 -34.016 m S Q
0.850361 w
q 1 0 0 -1 0 0 cm
72.422 -34.016 m 76.391 -34.016 l S Q
q 1 0 0 -1 0 0 cm
74.406 -36 m 74.406 -32.031 l S Q
0.425176 w
q 1 0 0 -1 0 0 cm
103.605 -39.684 m 103.605 -37.652 101.953 -36 99.918 -36 c 97.883 -36 96.234
 -37.652 96.234 -39.684 c 96.234 -41.719 97.883 -43.371 99.918 -43.371 c
 101.953 -43.371 103.605 -41.719 103.605 -39.684 c h
103.605 -39.684 m S Q
0.850361 w
q 1 0 0 -1 0 0 cm
97.934 -39.684 m 101.902 -39.684 l S Q
0.425176 w
q 1 0 0 -1 0 0 cm
58.25 -96.379 m 58.25 -94.344 56.598 -92.695 54.562 -92.695 c 52.527 -92.695
 50.879 -94.344 50.879 -96.379 c 50.879 -98.414 52.527 -100.062 54.562 -100.062
 c 56.598 -100.062 58.25 -98.414 58.25 -96.379 c h
58.25 -96.379 m S Q
0.850361 w
q 1 0 0 -1 0 0 cm
52.578 -96.379 m 56.547 -96.379 l S Q
q 1 0 0 -1 0 0 cm
54.562 -98.363 m 54.562 -94.395 l S Q
0.425176 w
q 1 0 0 -1 0 0 cm
44.074 -76.535 m 44.074 -74.5 42.426 -72.852 40.391 -72.852 c 38.355 -72.852
 36.707 -74.5 36.707 -76.535 c 36.707 -78.57 38.355 -80.223 40.391 -80.223
 c 42.426 -80.223 44.074 -78.57 44.074 -76.535 c h
44.074 -76.535 m S Q
0.850361 w
q 1 0 0 -1 0 0 cm
38.406 -76.535 m 42.375 -76.535 l S Q
q 1 0 0 -1 0 0 cm
40.391 -78.52 m 40.391 -74.551 l S Q
0.425176 w
q 1 0 0 -1 0 0 cm
106.438 -90.711 m 106.438 -88.672 104.789 -87.023 102.754 -87.023 c 100.719
 -87.023 99.066 -88.672 99.066 -90.711 c 99.066 -92.746 100.719 -94.395 
102.754 -94.395 c 104.789 -94.395 106.438 -92.746 106.438 -90.711 c h
106.438 -90.711 m S Q
0.850361 w
q 1 0 0 -1 0 0 cm
100.77 -90.711 m 104.738 -90.711 l S Q
q 1 0 0 -1 0 0 cm
102.754 -92.695 m 102.754 -88.723 l S Q
0.425176 w
q 1 0 0 -1 0 0 cm
109.273 -65.199 m 109.273 -63.164 107.621 -61.512 105.586 -61.512 c 103.555
 -61.512 101.902 -63.164 101.902 -65.199 c 101.902 -67.23 103.555 -68.883
 105.586 -68.883 c 107.621 -68.883 109.273 -67.23 109.273 -65.199 c h
109.273 -65.199 m S Q
0.850361 w
q 1 0 0 -1 0 0 cm
103.602 -65.199 m 107.57 -65.199 l S Q
q 1 0 0 -1 0 0 cm
105.586 -67.184 m 105.586 -63.211 l S Q
0.425176 w
q 1 0 0 -1 0 0 cm
123.445 -79.371 m 123.445 -77.336 121.797 -75.684 119.762 -75.684 c 117.727
 -75.684 116.074 -77.336 116.074 -79.371 c 116.074 -81.406 117.727 -83.055
 119.762 -83.055 c 121.797 -83.055 123.445 -81.406 123.445 -79.371 c h
123.445 -79.371 m S Q
0.850361 w
q 1 0 0 -1 0 0 cm
117.777 -79.371 m 121.746 -79.371 l S Q
q 1 0 0 -1 0 0 cm
119.762 -81.355 m 119.762 -77.387 l S Q
0.425176 w
q 1 0 0 -1 0 0 cm
29.902 -82.207 m 29.902 -80.172 28.254 -78.52 26.219 -78.52 c 24.184 -78.52
 22.531 -80.172 22.531 -82.207 c 22.531 -84.238 24.184 -85.891 26.219 -85.891
 c 28.254 -85.891 29.902 -84.238 29.902 -82.207 c h
29.902 -82.207 m S Q
0.850361 w
q 1 0 0 -1 0 0 cm
24.234 -82.207 m 28.203 -82.207 l S Q
0.425176 w
q 1 0 0 -1 0 0 cm
80.926 -59.527 m 80.926 -57.492 79.277 -55.844 77.242 -55.844 c 75.207 
-55.844 73.555 -57.492 73.555 -59.527 c 73.555 -61.562 75.207 -63.215 77.242
 -63.215 c 79.277 -63.215 80.926 -61.562 80.926 -59.527 c h
80.926 -59.527 m S Q
0.850361 w
q 1 0 0 -1 0 0 cm
75.258 -59.527 m 79.227 -59.527 l S Q
69.293 132.281 m 68.637 132.719 68.371 132.938 68.027 133.359 c 67.402 
134.141 67.09 135.031 67.09 136.078 c 67.09 137.234 67.418 138.109 68.199
 139.016 c 68.574 139.453 68.809 139.641 69.277 139.938 c 69.371 139.781
 l 68.668 139.219 68.418 138.906 68.168 138.234 c 67.949 137.641 67.855 
136.969 67.855 136.062 c 67.855 135.109 67.965 134.375 68.215 133.828 c 
68.465 133.266 68.73 132.938 69.371 132.422 c h
69.293 132.281 m f
73.621 137.75 m 73.465 137.875 73.355 137.922 73.215 137.922 c 73.012 137.922
 72.949 137.797 72.949 137.406 c 72.949 135.656 l 72.949 135.188 72.902 
134.922 72.777 134.719 c 72.574 134.391 72.184 134.219 71.668 134.219 c 
70.824 134.219 70.152 134.656 70.152 135.219 c 70.152 135.422 70.324 135.609
 70.543 135.609 c 70.762 135.609 70.949 135.422 70.949 135.234 c 70.949 
135.203 70.934 135.156 70.934 135.094 c 70.902 135 70.902 134.938 70.902
 134.875 c 70.902 134.625 71.184 134.438 71.543 134.438 c 71.98 134.438 
72.23 134.688 72.23 135.172 c 72.23 135.719 l 70.855 136.266 70.699 136.359
 70.309 136.688 c 70.105 136.875 69.98 137.172 69.98 137.469 c 69.98 138.031
 70.371 138.438 70.934 138.438 c 71.324 138.438 71.684 138.25 72.23 137.781
 c 72.277 138.25 72.449 138.438 72.809 138.438 c 73.121 138.438 73.309 138.328
 73.621 137.984 c h
72.23 137.234 m 72.23 137.516 72.184 137.609 71.996 137.719 c 71.762 137.844
 71.527 137.906 71.34 137.906 c 71.027 137.906 70.777 137.609 70.777 137.219
 c 70.777 137.188 l 70.777 136.656 71.184 136.312 72.23 135.938 c h
72.23 137.234 m f
73.957 139.938 m 74.613 139.484 74.895 139.266 75.223 138.859 c 75.863 
138.078 76.176 137.172 76.176 136.125 c 76.176 134.984 75.832 134.109 75.051
 133.203 c 74.676 132.766 74.441 132.562 73.988 132.281 c 73.879 132.422
 l 74.598 132.984 74.832 133.297 75.082 133.969 c 75.301 134.578 75.395 
135.25 75.395 136.156 c 75.395 137.094 75.285 137.828 75.035 138.375 c 74.801
 138.938 74.52 139.266 73.879 139.781 c h
73.957 139.938 m f
227.527 50.426 m 229.449 50.426 l 229.449 50.27 l 228.855 50.27 228.762
 50.191 228.746 49.676 c 228.746 48.426 l 229.027 48.691 229.215 48.77 229.559
 48.77 c 230.496 48.77 231.23 47.879 231.23 46.723 c 231.23 45.738 230.668
 45.02 229.902 45.02 c 229.449 45.02 229.105 45.223 228.746 45.66 c 228.746
 45.035 l 228.699 45.02 l 228.262 45.191 227.996 45.301 227.559 45.426 c
 227.559 45.566 l 227.621 45.551 227.668 45.551 227.746 45.551 c 228.027
 45.551 228.074 45.629 228.074 46.004 c 228.074 49.738 l 228.074 50.16 227.996
 50.238 227.527 50.285 c h
228.746 46.035 m 228.746 45.785 229.199 45.504 229.559 45.504 c 230.152
 45.504 230.543 46.113 230.543 47.035 c 230.543 47.926 230.152 48.52 229.574
 48.52 c 229.199 48.52 228.746 48.223 228.746 47.988 c h
228.746 46.035 m f
235.312 48.566 m 234.891 48.504 234.844 48.441 234.844 47.879 c 234.844
 46.285 l 234.844 45.457 234.516 45.02 233.859 45.02 c 233.391 45.02 233.062
 45.223 232.688 45.691 c 232.688 43.27 l 232.656 43.254 l 232.375 43.348
 232.172 43.41 231.734 43.535 c 231.516 43.598 l 231.516 43.723 l 231.547
 43.723 231.562 43.723 231.609 43.723 c 231.953 43.723 232.016 43.785 232.016
 44.129 c 232.016 47.879 l 232 48.457 231.969 48.52 231.516 48.566 c 231.516
 48.691 l 233.234 48.691 l 233.234 48.566 l 232.766 48.535 232.703 48.441
 232.688 47.879 c 232.688 45.957 l 233.016 45.598 233.266 45.457 233.578
 45.457 c 233.969 45.457 234.172 45.738 234.172 46.301 c 234.172 47.879 
l 234.156 48.441 234.078 48.535 233.625 48.566 c 233.625 48.691 l 235.312
 48.691 l h
235.312 48.566 m f
238.914 48.16 m 238.789 48.27 238.695 48.316 238.57 48.316 c 238.383 48.316
 238.336 48.207 238.336 47.848 c 238.336 46.301 l 238.336 45.879 238.289
 45.66 238.164 45.457 c 237.992 45.176 237.648 45.02 237.18 45.02 c 236.43
 45.02 235.852 45.41 235.852 45.926 c 235.852 46.098 235.992 46.254 236.18
 46.254 c 236.383 46.254 236.539 46.098 236.539 45.926 c 236.539 45.895 
236.539 45.848 236.523 45.801 c 236.508 45.723 236.508 45.66 236.508 45.613
 c 236.508 45.395 236.758 45.223 237.086 45.223 c 237.477 45.223 237.68 
45.441 237.68 45.879 c 237.68 46.363 l 236.461 46.848 236.32 46.926 235.977
 47.223 c 235.805 47.379 235.695 47.66 235.695 47.926 c 235.695 48.426 236.039
 48.77 236.523 48.77 c 236.883 48.77 237.211 48.598 237.695 48.191 c 237.727
 48.613 237.883 48.77 238.211 48.77 c 238.477 48.77 238.648 48.676 238.914
 48.379 c h
237.68 47.707 m 237.68 47.957 237.648 48.035 237.477 48.129 c 237.273 48.238
 237.07 48.316 236.898 48.316 c 236.617 48.316 236.398 48.035 236.398 47.691
 c 236.398 47.66 l 236.398 47.191 236.758 46.879 237.68 46.551 c h
237.68 47.707 m f
241.395 46.191 m 241.363 45.098 l 241.27 45.098 l 241.223 45.16 241.191
 45.191 241.145 45.191 c 241.098 45.191 241.02 45.176 240.926 45.129 c 240.738
 45.066 240.566 45.02 240.363 45.02 c 239.738 45.02 239.285 45.441 239.285
 46.02 c 239.285 46.457 239.535 46.785 240.223 47.16 c 240.676 47.426 l 
240.957 47.582 241.098 47.77 241.098 48.02 c 241.098 48.379 240.832 48.598
 240.426 48.598 c 239.879 48.598 239.598 48.301 239.426 47.473 c 239.301
 47.473 l 239.301 48.723 l 239.395 48.723 l 239.457 48.645 239.488 48.629
 239.582 48.629 c 239.66 48.629 239.77 48.645 239.941 48.691 c 240.16 48.738
 240.363 48.77 240.535 48.77 c 241.145 48.77 241.645 48.316 241.645 47.754
 c 241.645 47.348 241.457 47.082 240.988 46.801 c 240.129 46.285 l 239.895
 46.16 239.785 45.973 239.785 45.754 c 239.785 45.426 240.02 45.207 240.395
 45.207 c 240.848 45.207 241.082 45.473 241.27 46.191 c h
241.395 46.191 m f
245.25 47.379 m 244.875 47.988 244.531 48.223 244.016 48.223 c 243.562 
48.223 243.219 47.988 242.984 47.535 c 242.844 47.238 242.781 46.973 242.766
 46.488 c 245.234 46.488 l 245.156 45.973 245.078 45.738 244.891 45.473 
c 244.641 45.191 244.281 45.02 243.859 45.02 c 243.469 45.02 243.094 45.176
 242.781 45.441 c 242.422 45.77 242.203 46.332 242.203 46.988 c 242.203 
48.082 242.766 48.77 243.688 48.77 c 244.453 48.77 245.047 48.301 245.375
 47.441 c h
242.781 46.223 m 242.875 45.613 243.141 45.316 243.641 45.316 c 244.125
 45.316 244.312 45.535 244.422 46.223 c h
242.781 46.223 m f
252.312 47.973 m 252.312 47.879 252.266 47.832 252.203 47.832 c 252.156
 47.832 252.094 47.816 251.938 48.082 c 251.875 48.176 251.781 48.363 251.641
 48.363 c 251.578 48.363 251.516 48.301 251.484 48.238 c 251.406 48.051 
251.234 47.613 251.188 47.488 c 251.391 47.129 251.875 46.176 251.875 44.785
 c 251.156 44.91 l 251.141 45.691 250.969 46.27 250.891 46.52 c 250.609 
45.645 250.391 44.801 249.531 44.801 c 248.594 44.801 247.922 45.676 247.922
 46.895 c 247.922 47.926 248.609 48.785 249.297 48.785 c 250.031 48.785 
250.547 48.285 250.75 48.035 c 250.922 48.566 251.219 48.785 251.531 48.785
 c 251.812 48.785 252.094 48.566 252.25 48.191 c 252.266 48.129 252.312 
48.035 252.312 47.973 c h
250.547 47.238 m 250.312 47.645 249.938 48.254 249.375 48.254 c 248.859
 48.254 248.578 47.66 248.578 46.848 c 248.578 46.129 248.844 45.16 249.5
 45.16 c 249.922 45.16 250.031 45.535 250.234 46.098 c 250.359 46.473 250.469
 46.832 250.547 47.238 c h
250.547 47.238 m f
227.527 69.09 m 229.449 69.09 l 229.449 68.934 l 228.855 68.934 228.762
 68.855 228.746 68.34 c 228.746 67.09 l 229.027 67.355 229.215 67.434 229.559
 67.434 c 230.496 67.434 231.23 66.543 231.23 65.387 c 231.23 64.402 230.668
 63.684 229.902 63.684 c 229.449 63.684 229.105 63.887 228.746 64.324 c 
228.746 63.699 l 228.699 63.684 l 228.262 63.855 227.996 63.965 227.559 
64.09 c 227.559 64.23 l 227.621 64.215 227.668 64.215 227.746 64.215 c 228.027
 64.215 228.074 64.293 228.074 64.668 c 228.074 68.402 l 228.074 68.824 
227.996 68.902 227.527 68.949 c h
228.746 64.699 m 228.746 64.449 229.199 64.168 229.559 64.168 c 230.152
 64.168 230.543 64.777 230.543 65.699 c 230.543 66.59 230.152 67.184 229.574
 67.184 c 229.199 67.184 228.746 66.887 228.746 66.652 c h
228.746 64.699 m f
235.312 67.23 m 234.891 67.168 234.844 67.105 234.844 66.543 c 234.844 
64.949 l 234.844 64.121 234.516 63.684 233.859 63.684 c 233.391 63.684 233.062
 63.887 232.688 64.355 c 232.688 61.934 l 232.656 61.918 l 232.375 62.012
 232.172 62.074 231.734 62.199 c 231.516 62.262 l 231.516 62.387 l 231.547
 62.387 231.562 62.387 231.609 62.387 c 231.953 62.387 232.016 62.449 232.016
 62.793 c 232.016 66.543 l 232 67.121 231.969 67.184 231.516 67.23 c 231.516
 67.355 l 233.234 67.355 l 233.234 67.23 l 232.766 67.199 232.703 67.105
 232.688 66.543 c 232.688 64.621 l 233.016 64.262 233.266 64.121 233.578
 64.121 c 233.969 64.121 234.172 64.402 234.172 64.965 c 234.172 66.543 
l 234.156 67.105 234.078 67.199 233.625 67.23 c 233.625 67.355 l 235.312
 67.355 l h
235.312 67.23 m f
238.914 66.824 m 238.789 66.934 238.695 66.98 238.57 66.98 c 238.383 66.98
 238.336 66.871 238.336 66.512 c 238.336 64.965 l 238.336 64.543 238.289
 64.324 238.164 64.121 c 237.992 63.84 237.648 63.684 237.18 63.684 c 236.43
 63.684 235.852 64.074 235.852 64.59 c 235.852 64.762 235.992 64.918 236.18
 64.918 c 236.383 64.918 236.539 64.762 236.539 64.59 c 236.539 64.559 236.539
 64.512 236.523 64.465 c 236.508 64.387 236.508 64.324 236.508 64.277 c 
236.508 64.059 236.758 63.887 237.086 63.887 c 237.477 63.887 237.68 64.105
 237.68 64.543 c 237.68 65.027 l 236.461 65.512 236.32 65.59 235.977 65.887
 c 235.805 66.043 235.695 66.324 235.695 66.59 c 235.695 67.09 236.039 67.434
 236.523 67.434 c 236.883 67.434 237.211 67.262 237.695 66.855 c 237.727
 67.277 237.883 67.434 238.211 67.434 c 238.477 67.434 238.648 67.34 238.914
 67.043 c h
237.68 66.371 m 237.68 66.621 237.648 66.699 237.477 66.793 c 237.273 66.902
 237.07 66.98 236.898 66.98 c 236.617 66.98 236.398 66.699 236.398 66.355
 c 236.398 66.324 l 236.398 65.855 236.758 65.543 237.68 65.215 c h
237.68 66.371 m f
241.395 64.855 m 241.363 63.762 l 241.27 63.762 l 241.223 63.824 241.191
 63.855 241.145 63.855 c 241.098 63.855 241.02 63.84 240.926 63.793 c 240.738
 63.73 240.566 63.684 240.363 63.684 c 239.738 63.684 239.285 64.105 239.285
 64.684 c 239.285 65.121 239.535 65.449 240.223 65.824 c 240.676 66.09 l
 240.957 66.246 241.098 66.434 241.098 66.684 c 241.098 67.043 240.832 67.262
 240.426 67.262 c 239.879 67.262 239.598 66.965 239.426 66.137 c 239.301
 66.137 l 239.301 67.387 l 239.395 67.387 l 239.457 67.309 239.488 67.293
 239.582 67.293 c 239.66 67.293 239.77 67.309 239.941 67.355 c 240.16 67.402
 240.363 67.434 240.535 67.434 c 241.145 67.434 241.645 66.98 241.645 66.418
 c 241.645 66.012 241.457 65.746 240.988 65.465 c 240.129 64.949 l 239.895
 64.824 239.785 64.637 239.785 64.418 c 239.785 64.09 240.02 63.871 240.395
 63.871 c 240.848 63.871 241.082 64.137 241.27 64.855 c h
241.395 64.855 m f
245.25 66.043 m 244.875 66.652 244.531 66.887 244.016 66.887 c 243.562 
66.887 243.219 66.652 242.984 66.199 c 242.844 65.902 242.781 65.637 242.766
 65.152 c 245.234 65.152 l 245.156 64.637 245.078 64.402 244.891 64.137 
c 244.641 63.855 244.281 63.684 243.859 63.684 c 243.469 63.684 243.094 
63.84 242.781 64.105 c 242.422 64.434 242.203 64.996 242.203 65.652 c 242.203
 66.746 242.766 67.434 243.688 67.434 c 244.453 67.434 245.047 66.965 245.375
 66.105 c h
242.781 64.887 m 242.875 64.277 243.141 63.98 243.641 63.98 c 244.125 63.98
 244.312 64.199 244.422 64.887 c h
242.781 64.887 m f
251.734 65.699 m 251.734 64.652 250.969 64.105 250.531 63.934 c 250.906
 63.684 251.234 63.246 251.234 62.715 c 251.234 61.855 250.438 61.246 249.719
 61.246 c 248.344 61.246 248.125 62.793 248.125 64.012 c 248.125 68.855 
l 248.812 68.855 l 248.812 67.105 l 249 67.34 249.328 67.449 249.719 67.449
 c 250.594 67.449 251.734 66.84 251.734 65.699 c h
250.922 65.621 m 250.922 66.793 250.219 67.121 249.719 67.121 c 249.25 
67.121 249.031 66.637 248.891 66.121 c 248.781 65.637 248.766 64.293 248.766
 64.105 c 248.766 62.887 248.969 61.543 249.75 61.543 c 250.281 61.559 250.422
 62.277 250.422 62.684 c 250.422 63.043 250.312 63.402 250.047 63.699 c 
249.844 63.59 249.641 63.527 249.438 63.527 c 249.188 63.527 248.875 63.699
 248.875 63.996 c 248.875 64.246 249.141 64.418 249.422 64.418 c 249.734
 64.418 250 64.23 250.141 64.137 c 250.688 64.48 250.922 65.121 250.922 
65.621 c h
250.922 65.621 m f
Q q
197.926 0.066 143.602 115 re W n
q
197 0 145 116 re W n
  q
0 g
1.41739 w
0 J
0 j
[] 0.0 d
10 M q 1 0 0 -1 0 0 cm
199.129 0 m 199.129 -113.387 l 340.863 -113.387 l 340.863 0 l S Q
  Q
Q
0 g
0.850361 w
0 J
0 j
[] 0.0 d
10 M q 1 0 0 -1 0 0 cm
326.695 -79.371 m 326.695 -79.008 l 326.617 -77.914 l 326.609 -77.84 l 
326.457 -76.84 m 326.402 -76.473 l 326.035 -75.055 l 325.637 -73.93 l 325.238
 -73.004 m 324.906 -72.285 l 324.141 -70.941 l 323.754 -70.367 l 323.184
 -69.539 m 322.238 -68.336 l 321.227 -67.227 l 320.516 -66.512 m 319.848
 -65.859 l 318.484 -64.672 l 318.258 -64.496 l 317.461 -63.875 m 317.008
 -63.523 l 315.426 -62.41 l 314.984 -62.129 l 314.133 -61.586 m 313.742 
-61.34 l 311.961 -60.312 l 311.512 -60.074 l 310.617 -59.605 m 310.086 -59.328
 l 308.117 -58.387 l 307.891 -58.289 l 306.961 -57.887 m 306.059 -57.496
 l 304.156 -56.75 l 303.207 -56.402 m 301.699 -55.863 l 300.34 -55.43 l 
299.375 -55.125 m 297.02 -54.445 l 296.461 -54.301 l 295.484 -54.051 m 294.574
 -53.82 l 292.535 -53.359 l 291.547 -53.152 m 289.488 -52.746 l 288.57 -52.59
 l 287.574 -52.418 m 286.859 -52.297 l 284.578 -51.977 l 283.578 -51.852
 m 281.422 -51.602 l 280.566 -51.523 l 279.559 -51.434 m 278.629 -51.352
 l 276.539 -51.219 l 275.531 -51.16 m 272.914 -51.062 l 272.504 -51.055 
l 271.492 -51.035 m 270.727 -51.023 l 269.266 -51.023 l 268.465 -51.039 
l 267.453 -51.055 m 267.078 -51.062 l 264.426 -51.164 l 263.418 -51.223 
m 261.367 -51.352 l 260.398 -51.438 l 259.391 -51.527 m 258.574 -51.602 
l 256.383 -51.855 l 255.379 -51.98 m 253.141 -52.297 l 252.383 -52.426 l
 251.387 -52.598 m 250.504 -52.746 l 248.414 -53.16 l 247.426 -53.367 m 
245.418 -53.82 l 244.477 -54.062 l 243.496 -54.312 m 242.973 -54.445 l 240.602
 -55.129 l 240.582 -55.137 l 239.621 -55.441 m 238.301 -55.863 l 236.754
 -56.418 l 235.805 -56.766 m 233.934 -57.496 l 233 -57.902 l 232.07 -58.305
 m 231.879 -58.387 l 229.91 -59.328 l 229.348 -59.625 l 228.453 -60.094 
m 228.031 -60.312 l 226.25 -61.34 l 225.828 -61.609 l 224.977 -62.148 m 
224.57 -62.41 l 222.988 -63.523 l 222.508 -63.898 l 221.711 -64.52 m 221.512
 -64.672 l 220.152 -65.859 l 219.453 -66.539 l 218.742 -67.254 m 217.762
 -68.336 l 216.789 -69.566 l 216.219 -70.402 m 215.852 -70.941 l 215.09 
-72.285 l 214.742 -73.039 l 214.348 -73.969 m 213.957 -75.055 l 213.598 
-76.473 l 213.539 -76.883 l 213.387 -77.879 m 213.379 -77.914 l 213.305 
-79.008 l 213.305 -79.734 l 213.379 -80.828 l 213.391 -80.902 l 213.543 
-81.902 m 213.598 -82.27 l 213.957 -83.688 l 214.363 -84.812 l 214.762 -85.738
 m 215.09 -86.457 l 215.852 -87.801 l 216.242 -88.375 l 216.812 -89.207 
m 217.762 -90.406 l 218.766 -91.52 l 219.484 -92.23 m 220.152 -92.883 l 
221.512 -94.07 l 221.742 -94.246 l 222.539 -94.867 m 222.988 -95.219 l 224.57
 -96.332 l 225.012 -96.613 l 225.863 -97.156 m 226.25 -97.402 l 228.031 
-98.43 l 228.488 -98.668 l 229.383 -99.137 m 229.91 -99.414 l 231.879 -100.352
 l 232.109 -100.453 l 233.035 -100.855 m 233.934 -101.246 l 235.844 -101.992
 l 236.793 -102.34 m 238.301 -102.875 l 239.66 -103.309 l 240.621 -103.617
 m 242.973 -104.297 l 243.535 -104.441 l 244.516 -104.691 m 245.418 -104.922
 l 247.465 -105.383 l 248.453 -105.59 m 250.504 -105.996 l 251.43 -106.152
 l 252.422 -106.324 m 253.141 -106.445 l 255.418 -106.766 l 256.422 -106.891
 m 258.574 -107.141 l 259.434 -107.219 l 260.438 -107.309 m 261.367 -107.391
 l 263.461 -107.523 l 264.469 -107.582 m 267.078 -107.68 l 267.496 -107.688
 l 268.504 -107.707 m 269.266 -107.719 l 270.727 -107.719 l 271.535 -107.703
 l 272.543 -107.688 m 272.914 -107.68 l 275.57 -107.578 l 276.578 -107.52
 m 278.629 -107.391 l 279.598 -107.305 l 280.605 -107.215 m 281.422 -107.141
 l 283.617 -106.887 l 284.617 -106.762 m 286.859 -106.445 l 287.613 -106.316
 l 288.609 -106.145 m 289.488 -105.996 l 291.586 -105.582 l 292.574 -105.375
 m 294.574 -104.922 l 295.523 -104.68 l 296.5 -104.43 m 297.02 -104.297 
l 299.395 -103.613 l 299.414 -103.605 l 300.375 -103.297 m 301.699 -102.875
 l 303.246 -102.324 l 304.195 -101.98 m 306.059 -101.246 l 307 -100.84 l
 307.926 -100.438 m 308.117 -100.352 l 310.086 -99.414 l 310.652 -99.117
 l 311.547 -98.648 m 311.961 -98.43 l 313.742 -97.402 l 314.168 -97.133 
l 315.02 -96.59 m 315.426 -96.332 l 317.008 -95.219 l 317.492 -94.844 l 
318.289 -94.223 m 318.484 -94.07 l 319.848 -92.883 l 320.543 -92.203 l 321.258
 -91.488 m 322.238 -90.406 l 323.207 -89.172 l 323.777 -88.34 m 324.141 
-87.801 l 324.906 -86.457 l 325.254 -85.699 l 325.652 -84.773 m 326.035 
-83.688 l 326.402 -82.27 l 326.461 -81.859 l 326.613 -80.863 m 326.617 -80.828
 l 326.695 -79.734 l 326.695 -79.371 l S Q
Q q
190.926 5.066 150.602 18 re W n
q
190 5 152 19 re W n
  q
0 g
0.567043 w
0 J
0 j
[] 0.0 d
10 M q 1 0 0 -1 0 0 cm
199.129 -14.172 m 199.129 -13.961 l 199.367 -13.965 l 199.602 -13.973 l
 199.84 -13.988 l 200.074 -14.012 l 200.312 -14.039 l 200.547 -14.066 l 
200.785 -14.102 l 201.02 -14.137 l 201.258 -14.172 l 201.492 -14.211 l 201.73
 -14.246 l 201.965 -14.281 l 202.203 -14.309 l 202.438 -14.336 l 202.672
 -14.355 l 202.91 -14.375 l 203.148 -14.383 l 203.383 -14.387 l 203.617 
-14.383 l 203.855 -14.375 l 204.09 -14.355 l 204.328 -14.336 l 204.562 -14.309
 l 204.801 -14.281 l 205.035 -14.246 l 205.273 -14.211 l 205.508 -14.172
 l 205.746 -14.137 l 206.215 -14.066 l 206.691 -14.012 l 206.926 -13.988
 l 207.16 -13.973 l 207.398 -13.965 l 207.637 -13.961 l 207.871 -13.965 
l 208.105 -13.973 l 208.344 -13.988 l 208.578 -14.012 l 208.816 -14.039 
l 209.051 -14.066 l 209.289 -14.102 l 209.523 -14.137 l 209.762 -14.172 
l 209.996 -14.211 l 210.234 -14.246 l 210.469 -14.281 l 210.703 -14.309 
l 210.941 -14.336 l 211.18 -14.355 l 211.414 -14.375 l 211.648 -14.383 l
 211.887 -14.387 l 212.121 -14.383 l 212.359 -14.375 l 212.594 -14.355 l
 212.832 -14.336 l 213.066 -14.309 l 213.305 -14.281 l 213.539 -14.246 l
 213.777 -14.211 l 214.012 -14.172 l 214.246 -14.137 l 214.723 -14.066 l
 215.191 -14.012 l 215.43 -13.988 l 215.664 -13.973 l 215.902 -13.965 l 
216.137 -13.961 l 216.375 -13.965 l 216.609 -13.973 l 216.848 -13.988 l 
217.082 -14.012 l 217.32 -14.039 l 217.555 -14.066 l 217.793 -14.102 l 218.027
 -14.137 l 218.266 -14.172 l 218.5 -14.211 l 218.738 -14.246 l 218.973 -14.281
 l 219.207 -14.309 l 219.445 -14.336 l 219.68 -14.355 l 219.918 -14.375 
l 220.152 -14.383 l 220.391 -14.387 l 220.625 -14.383 l 220.863 -14.375 
l 221.098 -14.355 l 221.336 -14.336 l 221.57 -14.309 l 221.809 -14.281 l
 222.043 -14.246 l 222.281 -14.211 l 222.516 -14.172 l 222.75 -14.137 l 
222.988 -14.102 l 223.223 -14.066 l 223.461 -14.039 l 223.695 -14.012 l 
223.934 -13.988 l 224.168 -13.973 l 224.406 -13.965 l 224.641 -13.961 l 
224.879 -13.965 l 225.113 -13.973 l 225.352 -13.988 l 225.586 -14.012 l 
225.82 -14.039 l 226.059 -14.066 l 226.293 -14.102 l 226.531 -14.137 l 226.766
 -14.172 l 227.004 -14.211 l 227.238 -14.246 l 227.477 -14.281 l 227.711
 -14.309 l 227.949 -14.336 l 228.184 -14.355 l 228.422 -14.375 l 228.656
 -14.383 l 228.895 -14.387 l 229.129 -14.383 l 229.367 -14.375 l 229.836
 -14.336 l 230.312 -14.281 l 230.781 -14.211 l 231.02 -14.172 l 231.254 
-14.137 l 231.492 -14.102 l 231.727 -14.066 l 231.965 -14.039 l 232.199 
-14.012 l 232.438 -13.988 l 232.672 -13.973 l 232.91 -13.965 l 233.145 -13.961
 l 233.379 -13.965 l 233.617 -13.973 l 233.855 -13.988 l 234.09 -14.012 
l 234.324 -14.039 l 234.562 -14.066 l 234.797 -14.102 l 235.035 -14.137 
l 235.27 -14.172 l 235.508 -14.211 l 235.742 -14.246 l 235.98 -14.281 l 
236.215 -14.309 l 236.453 -14.336 l 236.922 -14.375 l 237.16 -14.383 l 237.398
 -14.387 l 237.633 -14.383 l 237.867 -14.375 l 238.105 -14.355 l 238.34 
-14.336 l 238.578 -14.309 l 238.812 -14.281 l 239.051 -14.246 l 239.285 
-14.211 l 239.523 -14.172 l 239.758 -14.137 l 239.996 -14.102 l 240.23 -14.066
 l 240.469 -14.039 l 240.703 -14.012 l 240.941 -13.988 l 241.176 -13.973
 l 241.41 -13.965 l 241.648 -13.961 l 241.887 -13.965 l 242.121 -13.973 
l 242.355 -13.988 l 242.594 -14.012 l 242.828 -14.039 l 243.066 -14.066 
l 243.301 -14.102 l 243.539 -14.137 l 243.773 -14.172 l 244.012 -14.211 
l 244.246 -14.246 l 244.484 -14.281 l 244.719 -14.309 l 244.957 -14.336 
l 245.191 -14.355 l 245.43 -14.375 l 245.664 -14.383 l 245.898 -14.387 l
 246.137 -14.383 l 246.371 -14.375 l 246.609 -14.355 l 246.844 -14.336 l
 247.082 -14.309 l 247.316 -14.281 l 247.555 -14.246 l 247.789 -14.211 l
 248.027 -14.172 l 248.262 -14.137 l 248.5 -14.102 l 248.734 -14.066 l 248.973
 -14.039 l 249.207 -14.012 l 249.445 -13.988 l 249.68 -13.973 l 249.914 
-13.965 l 250.152 -13.961 l 250.391 -13.965 l 250.625 -13.973 l 250.859 
-13.988 l 251.098 -14.012 l 251.332 -14.039 l 251.57 -14.066 l 251.805 -14.102
 l 252.043 -14.137 l 252.277 -14.172 l 252.516 -14.211 l 252.75 -14.246 
l 252.988 -14.281 l 253.457 -14.336 l 253.695 -14.355 l 253.93 -14.375 l
 254.168 -14.383 l 254.402 -14.387 l 254.641 -14.383 l 254.875 -14.375 l
 255.113 -14.355 l 255.348 -14.336 l 255.586 -14.309 l 255.82 -14.281 l 
256.059 -14.246 l 256.293 -14.211 l 256.531 -14.172 l 257 -14.102 l 257.238
 -14.066 l 257.473 -14.039 l 257.711 -14.012 l 257.945 -13.988 l 258.184
 -13.973 l 258.418 -13.965 l 258.656 -13.961 l 258.891 -13.965 l 259.129
 -13.973 l 259.363 -13.988 l 259.602 -14.012 l 259.836 -14.039 l 260.074
 -14.066 l 260.309 -14.102 l 260.547 -14.137 l 260.781 -14.172 l 261.02 
-14.211 l 261.488 -14.281 l 261.727 -14.309 l 261.961 -14.336 l 262.199 
-14.355 l 262.434 -14.375 l 262.672 -14.383 l 262.906 -14.387 l 263.145 
-14.383 l 263.379 -14.375 l 263.617 -14.355 l 263.852 -14.336 l 264.09 -14.309
 l 264.324 -14.281 l 264.562 -14.246 l 264.797 -14.211 l 265.031 -14.172
 l 265.27 -14.137 l 265.504 -14.102 l 265.742 -14.066 l 265.977 -14.039 
l 266.215 -14.012 l 266.449 -13.988 l 266.688 -13.973 l 266.922 -13.965 
l 267.16 -13.961 l 267.395 -13.965 l 267.629 -13.973 l 267.867 -13.988 l
 268.105 -14.012 l 268.574 -14.066 l 268.812 -14.102 l 269.047 -14.137 l
 269.285 -14.172 l 269.52 -14.211 l 269.758 -14.246 l 269.992 -14.281 l 
270.23 -14.309 l 270.465 -14.336 l 270.703 -14.355 l 270.938 -14.375 l 271.176
 -14.383 l 271.41 -14.387 l 271.648 -14.383 l 271.883 -14.375 l 272.121 
-14.355 l 272.355 -14.336 l 272.59 -14.309 l 272.828 -14.281 l 273.062 -14.246
 l 273.301 -14.211 l 273.535 -14.172 l 273.773 -14.137 l 274.008 -14.102
 l 274.246 -14.066 l 274.48 -14.039 l 274.719 -14.012 l 274.953 -13.988 
l 275.191 -13.973 l 275.426 -13.965 l 275.664 -13.961 l 275.898 -13.965 
l 276.137 -13.973 l 276.371 -13.988 l 276.609 -14.012 l 277.078 -14.066 
l 277.555 -14.137 l 277.789 -14.172 l 278.023 -14.211 l 278.262 -14.246 
l 278.496 -14.281 l 278.734 -14.309 l 278.969 -14.336 l 279.207 -14.355 
l 279.441 -14.375 l 279.68 -14.383 l 279.914 -14.387 l 280.152 -14.383 l
 280.387 -14.375 l 280.621 -14.355 l 280.859 -14.336 l 281.098 -14.309 l
 281.332 -14.281 l 281.566 -14.246 l 281.805 -14.211 l 282.039 -14.172 l
 282.277 -14.137 l 282.512 -14.102 l 282.75 -14.066 l 282.984 -14.039 l 
283.223 -14.012 l 283.457 -13.988 l 283.695 -13.973 l 283.93 -13.965 l 284.164
 -13.961 l 284.402 -13.965 l 284.641 -13.973 l 284.875 -13.988 l 285.109
 -14.012 l 285.348 -14.039 l 285.582 -14.066 l 285.82 -14.102 l 286.055 
-14.137 l 286.293 -14.172 l 286.527 -14.211 l 286.766 -14.246 l 287 -14.281
 l 287.238 -14.309 l 287.473 -14.336 l 287.707 -14.355 l 287.945 -14.375
 l 288.184 -14.383 l 288.418 -14.387 l 288.652 -14.383 l 288.891 -14.375
 l 289.125 -14.355 l 289.363 -14.336 l 289.598 -14.309 l 289.836 -14.281
 l 290.07 -14.246 l 290.309 -14.211 l 290.543 -14.172 l 290.781 -14.137 
l 291.016 -14.102 l 291.254 -14.066 l 291.488 -14.039 l 291.727 -14.012 
l 291.961 -13.988 l 292.195 -13.973 l 292.434 -13.965 l 292.668 -13.961 
l 292.906 -13.965 l 293.141 -13.973 l 293.379 -13.988 l 293.613 -14.012 
l 293.852 -14.039 l 294.086 -14.066 l 294.324 -14.102 l 294.559 -14.137 
l 294.797 -14.172 l 295.031 -14.211 l 295.27 -14.246 l 295.504 -14.281 l
 295.738 -14.309 l 295.977 -14.336 l 296.211 -14.355 l 296.449 -14.375 l
 296.684 -14.383 l 296.922 -14.387 l 297.156 -14.383 l 297.395 -14.375 l
 297.629 -14.355 l 297.867 -14.336 l 298.102 -14.309 l 298.34 -14.281 l 
298.574 -14.246 l 298.812 -14.211 l 299.047 -14.172 l 299.281 -14.137 l 
299.52 -14.102 l 299.754 -14.066 l 299.992 -14.039 l 300.227 -14.012 l 300.465
 -13.988 l 300.699 -13.973 l 300.938 -13.965 l 301.172 -13.961 l 301.41 
-13.965 l 301.645 -13.973 l 301.883 -13.988 l 302.117 -14.012 l 302.355 
-14.039 l 302.59 -14.066 l 302.828 -14.102 l 303.297 -14.172 l 303.535 -14.211
 l 303.773 -14.246 l 304.008 -14.281 l 304.242 -14.309 l 304.48 -14.336 
l 304.715 -14.355 l 304.953 -14.375 l 305.188 -14.383 l 305.426 -14.387 
l 305.66 -14.383 l 305.898 -14.375 l 306.133 -14.355 l 306.371 -14.336 l
 306.84 -14.281 l 307.316 -14.211 l 307.551 -14.172 l 307.785 -14.137 l 
308.262 -14.066 l 308.73 -14.012 l 308.969 -13.988 l 309.203 -13.973 l 309.441
 -13.965 l 309.676 -13.961 l 309.914 -13.965 l 310.148 -13.973 l 310.387
 -13.988 l 310.621 -14.012 l 310.859 -14.039 l 311.094 -14.066 l 311.328
 -14.102 l 311.805 -14.172 l 312.039 -14.211 l 312.273 -14.246 l 312.512
 -14.281 l 312.746 -14.309 l 312.984 -14.336 l 313.219 -14.355 l 313.457
 -14.375 l 313.691 -14.383 l 313.93 -14.387 l 314.164 -14.383 l 314.402 
-14.375 l 314.871 -14.336 l 315.348 -14.281 l 315.816 -14.211 l 316.055 
-14.172 l 316.289 -14.137 l 316.527 -14.102 l 316.762 -14.066 l 317 -14.039
 l 317.234 -14.012 l 317.473 -13.988 l 317.707 -13.973 l 317.945 -13.965
 l 318.18 -13.961 l 318.418 -13.965 l 318.652 -13.973 l 318.891 -13.988 
l 319.125 -14.012 l 319.359 -14.039 l 319.598 -14.066 l 319.832 -14.102 
l 320.07 -14.137 l 320.305 -14.172 l 320.543 -14.211 l 320.777 -14.246 l
 321.016 -14.281 l 321.25 -14.309 l 321.488 -14.336 l 321.723 -14.355 l 
321.961 -14.375 l 322.195 -14.383 l 322.434 -14.387 l 322.668 -14.383 l 
322.906 -14.375 l 323.375 -14.336 l 323.613 -14.309 l 323.848 -14.281 l 
324.086 -14.246 l 324.32 -14.211 l 324.559 -14.172 l 324.793 -14.137 l 325.031
 -14.102 l 325.266 -14.066 l 325.504 -14.039 l 325.738 -14.012 l 325.977
 -13.988 l 326.211 -13.973 l 326.445 -13.965 l 326.684 -13.961 l 326.918
 -13.965 l 327.156 -13.973 l 327.391 -13.988 l 327.629 -14.012 l 327.863
 -14.039 l 328.102 -14.066 l 328.336 -14.102 l 328.574 -14.137 l 328.809
 -14.172 l 329.047 -14.211 l 329.281 -14.246 l 329.52 -14.281 l 329.754 
-14.309 l 329.992 -14.336 l 330.461 -14.375 l 330.699 -14.383 l 330.934 
-14.387 l 331.172 -14.383 l 331.406 -14.375 l 331.645 -14.355 l 331.879 
-14.336 l 332.117 -14.309 l 332.352 -14.281 l 332.59 -14.246 l 332.824 -14.211
 l 333.062 -14.172 l 333.297 -14.137 l 333.535 -14.102 l 333.77 -14.066 
l 334.004 -14.039 l 334.242 -14.012 l 334.48 -13.988 l 334.715 -13.973 l
 334.949 -13.965 l 335.188 -13.961 l 335.422 -13.965 l 335.66 -13.973 l 
335.895 -13.988 l 336.133 -14.012 l 336.367 -14.039 l 336.605 -14.066 l 
336.84 -14.102 l 337.078 -14.137 l 337.312 -14.172 l 337.547 -14.211 l 338.023
 -14.281 l 338.492 -14.336 l 338.73 -14.355 l 338.965 -14.375 l 339.203 
-14.383 l 339.438 -14.387 l 339.676 -14.383 l 339.91 -14.375 l 340.148 -14.355
 l 340.383 -14.336 l 340.621 -14.309 l 340.855 -14.281 l 340.863 -14.281
 l 340.863 -14.172 l S Q
  Q
Q
Q q
0 g
0.567043 w
0 J
0 j
[] 0.0 d
10 M q 1 0 0 -1 0 0 cm
247.32 -86.457 m 247.32 -86.457 256.078 -79.594 261.492 -79.371 c 266.707
 -79.152 270.516 -85.723 275.664 -85.039 c 280.449 -84.406 282.258 -77.496
 287.004 -76.535 c 290.918 -75.746 298.344 -79.371 298.344 -79.371 c S Q
0.425176 w
q 1 0 0 -1 0 0 cm
265.18 -71.434 m 265.18 -69.398 263.527 -67.75 261.492 -67.75 c 259.457
 -67.75 257.809 -69.398 257.809 -71.434 c 257.809 -73.469 259.457 -75.117
 261.492 -75.117 c 263.527 -75.117 265.18 -73.469 265.18 -71.434 c h
265.18 -71.434 m S Q
0.850361 w
q 1 0 0 -1 0 0 cm
259.508 -71.434 m 263.477 -71.434 l S Q
0.567043 w
q 1 0 0 -1 0 0 cm
261.492 -79.371 m 261.492 -75.117 l S Q
0.425176 w
q 1 0 0 -1 0 0 cm
271.98 -92.977 m 271.98 -95.012 273.629 -96.664 275.664 -96.664 c 277.699
 -96.664 279.352 -95.012 279.352 -92.977 c 279.352 -90.941 277.699 -89.293
 275.664 -89.293 c 273.629 -89.293 271.98 -90.941 271.98 -92.977 c h
271.98 -92.977 m S Q
0.850361 w
q 1 0 0 -1 0 0 cm
277.652 -92.977 m 273.684 -92.977 l S Q
0.567043 w
q 1 0 0 -1 0 0 cm
275.664 -85.039 m 275.664 -89.293 l S Q
0.425176 w
q 1 0 0 -1 0 0 cm
290.691 -68.598 m 290.691 -66.562 289.039 -64.914 287.004 -64.914 c 284.969
 -64.914 283.32 -66.562 283.32 -68.598 c 283.32 -70.633 284.969 -72.285 
287.004 -72.285 c 289.039 -72.285 290.691 -70.633 290.691 -68.598 c h
290.691 -68.598 m S Q
0.850361 w
q 1 0 0 -1 0 0 cm
285.02 -68.598 m 288.988 -68.598 l S Q
0.567043 w
q 1 0 0 -1 0 0 cm
287.004 -76.535 m 287.004 -72.285 l S Q
0.425176 w
q 1 0 0 -1 0 0 cm
251.004 -25.512 m 251.004 -23.477 249.355 -21.828 247.32 -21.828 c 245.285
 -21.828 243.637 -23.477 243.637 -25.512 c 243.637 -27.547 245.285 -29.199
 247.32 -29.199 c 249.355 -29.199 251.004 -27.547 251.004 -25.512 c h
251.004 -25.512 m S Q
0.850361 w
q 1 0 0 -1 0 0 cm
245.336 -25.512 m 249.305 -25.512 l S Q
q 1 0 0 -1 0 0 cm
247.32 -27.496 m 247.32 -23.527 l S Q
0.425176 w
q 1 0 0 -1 0 0 cm
304.863 -31.184 m 304.863 -29.145 303.215 -27.496 301.18 -27.496 c 299.145
 -27.496 297.492 -29.145 297.492 -31.184 c 297.492 -33.219 299.145 -34.867
 301.18 -34.867 c 303.215 -34.867 304.863 -33.219 304.863 -31.184 c h
304.863 -31.184 m S Q
0.850361 w
q 1 0 0 -1 0 0 cm
299.195 -31.184 m 303.164 -31.184 l S Q
q 1 0 0 -1 0 0 cm
301.18 -33.168 m 301.18 -29.199 l S Q
0.425176 w
q 1 0 0 -1 0 0 cm
276.516 -39.684 m 276.516 -37.652 274.867 -36 272.832 -36 c 270.797 -36
 269.148 -37.652 269.148 -39.684 c 269.148 -41.719 270.797 -43.371 272.832
 -43.371 c 274.867 -43.371 276.516 -41.719 276.516 -39.684 c h
276.516 -39.684 m S Q
0.850361 w
q 1 0 0 -1 0 0 cm
270.848 -39.684 m 274.816 -39.684 l S Q
0.425176 w
q 1 0 0 -1 0 0 cm
327.539 -45.355 m 327.539 -43.32 325.891 -41.672 323.855 -41.672 c 321.82
 -41.672 320.168 -43.32 320.168 -45.355 c 320.168 -47.391 321.82 -49.039
 323.855 -49.039 c 325.891 -49.039 327.539 -47.391 327.539 -45.355 c h
327.539 -45.355 m S Q
0.850361 w
q 1 0 0 -1 0 0 cm
321.871 -45.355 m 325.84 -45.355 l S Q
0.425176 w
q 1 0 0 -1 0 0 cm
239.668 -79.371 m 239.668 -77.336 238.016 -75.684 235.98 -75.684 c 233.945
 -75.684 232.297 -77.336 232.297 -79.371 c 232.297 -81.406 233.945 -83.055
 235.98 -83.055 c 238.016 -83.055 239.668 -81.406 239.668 -79.371 c h
239.668 -79.371 m S Q
0.850361 w
q 1 0 0 -1 0 0 cm
233.996 -79.371 m 237.965 -79.371 l S Q
q 1 0 0 -1 0 0 cm
235.98 -81.355 m 235.98 -77.387 l S Q
0.425176 w
q 1 0 0 -1 0 0 cm
251.004 -96.379 m 251.004 -94.344 249.355 -92.695 247.32 -92.695 c 245.285
 -92.695 243.637 -94.344 243.637 -96.379 c 243.637 -98.414 245.285 -100.062
 247.32 -100.062 c 249.355 -100.062 251.004 -98.414 251.004 -96.379 c h
251.004 -96.379 m S Q
0.850361 w
q 1 0 0 -1 0 0 cm
245.336 -96.379 m 249.305 -96.379 l S Q
q 1 0 0 -1 0 0 cm
247.32 -98.363 m 247.32 -94.395 l S Q
0.425176 w
q 1 0 0 -1 0 0 cm
296.359 -93.543 m 296.359 -91.508 294.711 -89.859 292.672 -89.859 c 290.641
 -89.859 288.988 -91.508 288.988 -93.543 c 288.988 -95.578 290.641 -97.227
 292.672 -97.227 c 294.711 -97.227 296.359 -95.578 296.359 -93.543 c h
296.359 -93.543 m S Q
0.850361 w
q 1 0 0 -1 0 0 cm
290.691 -93.543 m 294.66 -93.543 l S Q
q 1 0 0 -1 0 0 cm
292.672 -95.527 m 292.672 -91.559 l S Q
0.425176 w
q 1 0 0 -1 0 0 cm
313.367 -73.703 m 313.367 -71.668 311.715 -70.016 309.684 -70.016 c 307.648
 -70.016 305.996 -71.668 305.996 -73.703 c 305.996 -75.734 307.648 -77.387
 309.684 -77.387 c 311.715 -77.387 313.367 -75.734 313.367 -73.703 c h
313.367 -73.703 m S Q
0.850361 w
q 1 0 0 -1 0 0 cm
307.695 -73.703 m 311.668 -73.703 l S Q
q 1 0 0 -1 0 0 cm
309.684 -75.688 m 309.684 -71.719 l S Q
0.425176 w
q 1 0 0 -1 0 0 cm
279.352 -59.527 m 279.352 -57.492 277.699 -55.844 275.664 -55.844 c 273.629
 -55.844 271.98 -57.492 271.98 -59.527 c 271.98 -61.562 273.629 -63.215 
275.664 -63.215 c 277.699 -63.215 279.352 -61.562 279.352 -59.527 c h
279.352 -59.527 m S Q
0.850361 w
q 1 0 0 -1 0 0 cm
273.684 -59.527 m 277.652 -59.527 l S Q
267.359 132.281 m 266.703 132.719 266.438 132.938 266.094 133.359 c 265.469
 134.141 265.156 135.031 265.156 136.078 c 265.156 137.234 265.484 138.109
 266.266 139.016 c 266.641 139.453 266.875 139.641 267.344 139.938 c 267.438
 139.781 l 266.734 139.219 266.484 138.906 266.234 138.234 c 266.016 137.641
 265.922 136.969 265.922 136.062 c 265.922 135.109 266.031 134.375 266.281
 133.828 c 266.531 133.266 266.797 132.938 267.438 132.422 c h
267.359 132.281 m f
269.094 132.234 m 269.047 132.219 l 268.672 132.344 268.438 132.422 268
 132.547 c 267.75 132.609 l 267.75 132.75 l 267.797 132.75 267.828 132.75
 267.891 132.75 c 268.25 132.75 268.344 132.828 268.344 133.203 c 268.344
 137.859 l 268.344 138.141 269.094 138.438 269.812 138.438 c 271 138.438
 271.922 137.453 271.922 136.172 c 271.922 135.047 271.234 134.219 270.344
 134.219 c 269.797 134.219 269.266 134.531 269.094 134.984 c h
269.094 135.453 m 269.094 135.109 269.516 134.781 269.984 134.781 c 270.234
 134.781 270.453 134.875 270.641 135.047 c 270.922 135.328 271.125 135.938
 271.125 136.578 c 271.125 137.578 270.703 138.141 269.969 138.141 c 269.5
 138.141 269.094 137.953 269.094 137.719 c h
269.094 135.453 m f
272.504 139.938 m 273.16 139.484 273.441 139.266 273.77 138.859 c 274.41
 138.078 274.723 137.172 274.723 136.125 c 274.723 134.984 274.379 134.109
 273.598 133.203 c 273.223 132.766 272.988 132.562 272.535 132.281 c 272.426
 132.422 l 273.145 132.984 273.379 133.297 273.629 133.969 c 273.848 134.578
 273.941 135.25 273.941 136.156 c 273.941 137.094 273.832 137.828 273.582
 138.375 c 273.348 138.938 273.066 139.266 272.426 139.781 c h
272.504 139.938 m f
Q Q
showpage
%%Trailer
end
%%EOF
