%!PS-Adobe-3.0 EPSF-3.0
%%Creator: cairo 1.17.4 (https://cairographics.org)
%%CreationDate: Thu Feb 24 10:49:13 2022
%%Pages: 1
%%DocumentData: Clean7Bit
%%LanguageLevel: 2
%%BoundingBox: 0 0 202 161
%%EndComments
%%BeginProlog
50 dict begin
/q { gsave } bind def
/Q { grestore } bind def
/cm { 6 array astore concat } bind def
/w { setlinewidth } bind def
/J { setlinecap } bind def
/j { setlinejoin } bind def
/M { setmiterlimit } bind def
/d { setdash } bind def
/m { moveto } bind def
/l { lineto } bind def
/c { curveto } bind def
/h { closepath } bind def
/re { exch dup neg 3 1 roll 5 3 roll moveto 0 rlineto
      0 exch rlineto 0 rlineto closepath } bind def
/S { stroke } bind def
/f { fill } bind def
/f* { eofill } bind def
/n { newpath } bind def
/W { clip } bind def
/W* { eoclip } bind def
/BT { } bind def
/ET { } bind def
/BDC { mark 3 1 roll /BDC pdfmark } bind def
/EMC { mark /EMC pdfmark } bind def
/cairo_store_point { /cairo_point_y exch def /cairo_point_x exch def } def
/Tj { show currentpoint cairo_store_point } bind def
/TJ {
  {
    dup
    type /stringtype eq
    { show } { -0.001 mul 0 cairo_font_matrix dtransform rmoveto } ifelse
  } forall
  currentpoint cairo_store_point
} bind def
/cairo_selectfont { cairo_font_matrix aload pop pop pop 0 0 6 array astore
    cairo_font exch selectfont cairo_point_x cairo_point_y moveto } bind def
/Tf { pop /cairo_font exch def /cairo_font_matrix where
      { pop cairo_selectfont } if } bind def
/Td { matrix translate cairo_font_matrix matrix concatmatrix dup
      /cairo_font_matrix exch def dup 4 get exch 5 get cairo_store_point
      /cairo_font where { pop cairo_selectfont } if } bind def
/Tm { 2 copy 8 2 roll 6 array astore /cairo_font_matrix exch def
      cairo_store_point /cairo_font where { pop cairo_selectfont } if } bind def
/g { setgray } bind def
/rg { setrgbcolor } bind def
/d1 { setcachedevice } bind def
/cairo_data_source {
  CairoDataIndex CairoData length lt
    { CairoData CairoDataIndex get /CairoDataIndex CairoDataIndex 1 add def }
    { () } ifelse
} def
/cairo_flush_ascii85_file { cairo_ascii85_file status { cairo_ascii85_file flushfile } if } def
/cairo_image { image cairo_flush_ascii85_file } def
/cairo_imagemask { imagemask cairo_flush_ascii85_file } def
%%EndProlog
%%BeginSetup
%%EndSetup
%%Page: 1 1
%%BeginPageSetup
%%PageBoundingBox: 0 0 202 161
%%EndPageSetup
q 0 0 202 161 rectclip
1 0 0 -1 0 161 cm q
Q q
13.016 79.617 188.984 72 re W n
q
13 79 189 73 re W n
  q
0 g
0.850361 w
0 J
0 j
[] 0.0 d
10 M q 1 0 0 -1 0 0 cm
25.996 -92.488 m 25.996 -92.488 27.113 -92.77 27.695 -92.934 c 28.285 -93.098
 28.809 -93.262 29.398 -93.438 c 31.16 -93.965 32.734 -94.469 34.5 -94.992
 c 37.43 -95.859 40.07 -96.594 43.004 -97.449 c 48.879 -99.168 54.09 -100.93
 60.012 -102.477 c 65.836 -104 71.117 -105.156 77.02 -106.34 c 82.859 -107.516
 88.156 -108.301 94.027 -109.312 c 99.895 -110.32 105.152 -111.281 111.035
 -112.191 c 116.891 -113.098 122.18 -113.715 128.043 -114.57 c 133.918 -115.426
 139.191 -116.199 145.051 -117.141 c 150.93 -118.086 156.254 -118.723 162.059
 -120.031 c 168.008 -121.375 173.422 -122.547 179.066 -124.848 c 182.16 
-126.109 184.863 -127.523 187.57 -129.473 c 189.523 -130.883 191.051 -132.457
 192.672 -134.238 c 193.32 -134.949 193.82 -135.656 194.375 -136.445 c 195
 -137.332 196.074 -139.098 196.074 -139.098 c S Q
  Q
Q
Q q
13.016 0 188.984 151.617 re W n
q
13 0 189 152 re W n
  q
0 g
0.850361 w
0 J
0 j
[] 0.0 d
10 M q 1 0 0 -1 0 0 cm
25.996 -139.098 m 25.996 -139.098 27.121 -137.801 27.695 -137.102 c 28.297
 -136.371 28.82 -135.703 29.398 -134.953 c 31.195 -132.605 32.777 -130.473
 34.5 -128.07 c 37.5 -123.883 40.137 -120.078 43.004 -115.793 c 49.02 -106.805
 53.707 -98.254 60.012 -89.469 c 65.512 -81.801 70.613 -74.98 77.02 -68.059
 c 82.461 -62.18 87.793 -57.289 94.027 -52.258 c 99.594 -47.766 104.875 
-44.031 111.035 -40.395 c 116.668 -37.07 122.035 -34.613 128.043 -32.023
 c 133.793 -29.543 139.133 -27.73 145.051 -25.676 c 150.875 -23.652 156.215
 -22.176 162.059 -20.203 c 167.957 -18.215 173.281 -16.488 179.066 -14.195
 c 182.047 -13.016 184.703 -11.891 187.57 -10.457 c 189.379 -9.551 190.941
 -8.621 192.672 -7.574 c 193.27 -7.215 193.797 -6.871 194.375 -6.48 c 194.969
 -6.074 196.074 -5.27 196.074 -5.27 c S Q
  Q
Q
0 g
61.301 70.617 m 61.301 70.258 60.91 70.07 60.566 70.07 c 59.316 70.07 58.707
 71.867 58.52 72.508 c 58.52 72.508 57.941 72.508 57.707 72.508 c 57.613
 72.852 l 58.426 72.852 l 58.145 73.961 57.613 76.789 57.066 77.742 c 56.816
 78.18 56.426 78.242 56.254 78.242 c 56.191 78.242 56.113 78.211 56.113 
78.164 c 56.113 78.039 56.301 78.039 56.301 77.852 c 56.301 77.742 56.207
 77.617 56.02 77.617 c 55.785 77.617 55.613 77.805 55.613 77.992 c 55.613
 78.242 55.879 78.43 56.254 78.43 c 58.004 78.43 58.66 74.664 59.113 72.852
 c 59.848 72.852 l 59.926 72.508 l 59.207 72.508 l 59.504 71.555 59.801 
70.258 60.582 70.258 c 60.691 70.258 60.801 70.336 60.801 70.414 c 60.801
 70.508 60.66 70.57 60.66 70.742 c 60.66 70.898 60.77 71.023 60.926 71.023
 c 61.129 71.023 61.301 70.836 61.301 70.617 c h
61.301 70.617 m f
60.137 74.305 m 60.715 74.336 60.793 74.414 60.793 74.93 c 60.793 78.023
 l 60.793 78.555 60.699 78.633 60.137 78.664 c 60.137 78.789 l 62.465 78.789
 l 62.996 78.789 63.496 78.648 63.762 78.398 c 64.012 78.18 64.137 77.867
 64.137 77.539 c 64.137 77.227 64.027 76.945 63.809 76.742 c 63.59 76.555
 63.402 76.477 62.949 76.367 c 63.309 76.273 63.465 76.211 63.621 76.055
 c 63.809 75.898 63.902 75.648 63.902 75.367 c 63.902 74.586 63.277 74.18
 62.074 74.18 c 60.137 74.18 l h
61.512 76.523 m 62.184 76.523 62.512 76.555 62.762 76.664 c 63.152 76.82
 63.34 77.117 63.34 77.539 c 63.34 77.914 63.199 78.195 62.918 78.352 c 
62.699 78.477 62.402 78.523 61.949 78.523 c 61.605 78.523 61.512 78.461 
61.512 78.242 c h
61.512 76.242 m 61.512 74.648 l 61.512 74.492 61.543 74.445 61.668 74.445
 c 61.965 74.43 l 62.746 74.414 63.199 74.773 63.199 75.383 c 63.199 75.945
 62.84 76.227 62.168 76.242 c h
61.512 76.242 m f
163.109 108.035 m 163.109 107.676 162.719 107.488 162.375 107.488 c 161.125
 107.488 160.516 109.285 160.328 109.926 c 160.328 109.926 159.75 109.926
 159.516 109.926 c 159.422 110.27 l 160.234 110.27 l 159.953 111.379 159.422
 114.207 158.875 115.16 c 158.625 115.598 158.234 115.66 158.062 115.66 
c 158 115.66 157.922 115.629 157.922 115.582 c 157.922 115.457 158.109 115.457
 158.109 115.27 c 158.109 115.16 158.016 115.035 157.828 115.035 c 157.594
 115.035 157.422 115.223 157.422 115.41 c 157.422 115.66 157.688 115.848
 158.062 115.848 c 159.812 115.848 160.469 112.082 160.922 110.27 c 161.656
 110.27 l 161.734 109.926 l 161.016 109.926 l 161.312 108.973 161.609 107.676
 162.391 107.676 c 162.5 107.676 162.609 107.754 162.609 107.832 c 162.609
 107.926 162.469 107.988 162.469 108.16 c 162.469 108.316 162.578 108.441
 162.734 108.441 c 162.938 108.441 163.109 108.254 163.109 108.035 c h
163.109 108.035 m f
166.742 116.078 m 166.43 116.047 166.352 115.984 166.117 115.469 c 164.383
 111.5 l 164.242 111.5 l 162.789 114.922 l 162.336 115.938 162.258 116.062
 161.93 116.078 c 161.93 116.203 l 163.305 116.203 l 163.305 116.078 l 162.977
 116.078 162.836 115.984 162.836 115.781 c 162.836 115.703 162.852 115.609
 162.883 115.516 c 163.211 114.703 l 165.039 114.703 l 165.32 115.359 l 
165.398 115.562 165.445 115.734 165.445 115.828 c 165.445 116.016 165.336
 116.062 164.961 116.078 c 164.961 116.203 l 166.742 116.203 l h
163.32 114.406 m 164.133 112.5 l 164.93 114.406 l h
163.32 114.406 m f
q
13 0 189 152 re W n
  q
0 g
0.850361 w
0 J
0 j
[] 0.0 d
10 M q 1 0 0 -1 0 0 cm
25.996 -139.098 m 28.23 -137.34 l 29.566 -136.285 m 31.801 -134.531 l 33.141
 -133.477 m 35.371 -131.719 l 36.711 -130.664 m 38.941 -128.91 l 40.281 
-127.855 m 42.516 -126.102 l 43.852 -125.047 m 46.086 -123.289 l 47.426 
-122.234 m 49.656 -120.48 l 50.996 -119.426 m 53.227 -117.668 l 54.566 -116.617
 m 56.797 -114.859 l 58.137 -113.805 m 60.371 -112.051 l 61.711 -110.996
 m 63.941 -109.238 l 65.281 -108.184 m 67.512 -106.43 l 68.852 -105.375 
m 71.082 -103.617 l 72.422 -102.566 m 74.656 -100.809 l 75.992 -99.754 m
 78.227 -98 l 79.566 -96.945 m 81.797 -95.188 l 83.137 -94.137 m 85.367 
-92.379 l 86.707 -91.324 m 88.941 -89.57 l 90.277 -88.516 m 92.512 -86.758
 l 93.852 -85.703 m 96.082 -83.949 l 97.422 -82.895 m 99.652 -81.137 l 100.992
 -80.086 m 103.223 -78.328 l 104.562 -77.273 m 106.797 -75.52 l 108.133 
-74.465 m 110.367 -72.707 l 111.707 -71.656 m 113.938 -69.898 l 115.277 
-68.844 m 117.508 -67.09 l 118.848 -66.035 m 121.082 -64.277 l 122.418 -63.227
 m 124.652 -61.469 l 125.992 -60.414 m 128.223 -58.66 l 129.562 -57.605 
m 131.793 -55.848 l 133.133 -54.793 m 135.367 -53.039 l 136.703 -51.984 
m 138.938 -50.227 l 140.277 -49.176 m 142.508 -47.418 l 143.848 -46.363 
m 146.078 -44.609 l 147.418 -43.555 m 149.652 -41.797 l 150.988 -40.746 
m 153.223 -38.988 l 154.559 -37.934 m 156.793 -36.176 l 158.133 -35.125 
m 160.363 -33.367 l 161.703 -32.312 m 163.934 -30.559 l 165.273 -29.504 
m 167.508 -27.746 l 168.844 -26.695 m 171.078 -24.938 l 172.418 -23.883 
m 174.648 -22.129 l 175.988 -21.074 m 178.219 -19.316 l 179.559 -18.262 
m 181.793 -16.508 l 183.129 -15.453 m 185.363 -13.699 l 186.703 -12.645 
m 188.934 -10.887 l 190.273 -9.832 m 192.504 -8.078 l 193.844 -7.023 m 196.074
 -5.27 l S Q
  Q
Q
Q q
13.016 79.617 188.984 72 re W n
q
13 79 189 73 re W n
  q
0 g
0.850361 w
0 J
0 j
[] 0.0 d
10 M q 1 0 0 -1 0 0 cm
196.074 -139.098 m 193.324 -138.344 l 191.672 -137.891 m 188.918 -137.137
 l 187.27 -136.684 m 184.516 -135.93 l 182.867 -135.477 m 180.113 -134.723
 l 178.461 -134.27 m 175.711 -133.516 l 174.059 -133.062 m 171.305 -132.309
 l 169.656 -131.855 m 166.902 -131.102 l 165.254 -130.648 m 162.5 -129.895
 l 160.848 -129.441 m 158.098 -128.688 l 156.445 -128.234 m 153.695 -127.48
 l 152.043 -127.027 m 149.289 -126.273 l 147.637 -125.82 m 144.887 -125.066
 l 143.234 -124.617 m 140.484 -123.859 l 138.832 -123.41 m 136.078 -122.656
 l 134.43 -122.203 m 131.676 -121.449 l 130.027 -120.996 m 127.273 -120.242
 l 125.621 -119.789 m 122.871 -119.035 l 121.219 -118.582 m 118.465 -117.828
 l 116.812 -117.375 m 114.062 -116.621 l 112.41 -116.168 m 109.66 -115.414
 l 108.008 -114.961 m 105.258 -114.207 l 103.605 -113.754 m 100.852 -113
 l 99.203 -112.547 m 96.449 -111.793 l 94.797 -111.34 m 92.047 -110.586 
l 90.395 -110.137 m 87.645 -109.379 l 85.992 -108.93 m 83.238 -108.176 l
 81.59 -107.723 m 78.836 -106.969 l 77.184 -106.516 m 74.434 -105.762 l 
72.781 -105.309 m 70.031 -104.555 l 68.379 -104.102 m 65.625 -103.348 l 
63.977 -102.895 m 61.223 -102.141 l 59.57 -101.688 m 56.82 -100.934 l 55.168
 -100.48 m 52.418 -99.727 l 50.766 -99.273 m 48.012 -98.52 l 46.363 -98.066
 m 43.609 -97.312 l 41.957 -96.859 m 39.207 -96.105 l 37.555 -95.652 m 34.805
 -94.898 l 33.152 -94.449 m 30.398 -93.691 l 28.75 -93.242 m 25.996 -92.488
 l S Q
  Q
Q
Q q
0 g
0.567043 w
0 J
0 j
[] 0.0 d
10 M q 1 0 0 -1 0 0 cm
25.996 -3.039 170.078 -136.059 re S Q
0.398506 w
q 1 0 0 -1 0 0 cm
25.996 -139.098 m 25.996 -134.844 l S Q
q 1 0 0 -1 0 0 cm
60.012 -139.098 m 60.012 -134.844 l S Q
q 1 0 0 -1 0 0 cm
94.027 -139.098 m 94.027 -134.844 l S Q
q 1 0 0 -1 0 0 cm
128.043 -139.098 m 128.043 -134.844 l S Q
q 1 0 0 -1 0 0 cm
162.055 -139.098 m 162.055 -134.844 l S Q
q 1 0 0 -1 0 0 cm
196.07 -139.098 m 196.07 -134.844 l S Q
q 1 0 0 -1 0 0 cm
25.996 -139.098 m 25.996 -134.844 l S Q
q 1 0 0 -1 0 0 cm
25.996 -139.098 m 30.246 -139.098 l S Q
q 1 0 0 -1 0 0 cm
25.996 -105.082 m 30.246 -105.082 l S Q
q 1 0 0 -1 0 0 cm
25.996 -71.07 m 30.246 -71.07 l S Q
q 1 0 0 -1 0 0 cm
25.996 -37.055 m 30.246 -37.055 l S Q
q 1 0 0 -1 0 0 cm
25.996 -3.039 m 30.246 -3.039 l S Q
q 1 0 0 -1 0 0 cm
25.996 -139.098 m 30.246 -139.098 l S Q
q 1 0 0 -1 0 0 cm
25.996 -3.039 m 25.996 -7.293 l S Q
q 1 0 0 -1 0 0 cm
60.012 -3.039 m 60.012 -7.293 l S Q
q 1 0 0 -1 0 0 cm
94.027 -3.039 m 94.027 -7.293 l S Q
q 1 0 0 -1 0 0 cm
128.043 -3.039 m 128.043 -7.293 l S Q
q 1 0 0 -1 0 0 cm
162.055 -3.039 m 162.055 -7.293 l S Q
q 1 0 0 -1 0 0 cm
196.07 -3.039 m 196.07 -7.293 l S Q
q 1 0 0 -1 0 0 cm
25.996 -3.039 m 25.996 -7.293 l S Q
q 1 0 0 -1 0 0 cm
196.074 -139.098 m 191.824 -139.098 l S Q
q 1 0 0 -1 0 0 cm
196.074 -105.082 m 191.824 -105.082 l S Q
q 1 0 0 -1 0 0 cm
196.074 -71.07 m 191.824 -71.07 l S Q
q 1 0 0 -1 0 0 cm
196.074 -37.055 m 191.824 -37.055 l S Q
q 1 0 0 -1 0 0 cm
196.074 -3.039 m 191.824 -3.039 l S Q
q 1 0 0 -1 0 0 cm
196.074 -139.098 m 191.824 -139.098 l S Q
27.949 145.621 m 27.949 144.012 27.215 142.559 25.965 142.559 c 24.699 
142.559 23.965 144.012 23.965 145.621 c 23.965 147.246 24.652 148.684 25.965
 148.684 c 27.168 148.684 27.949 147.246 27.949 145.621 c h
27.09 145.621 m 27.09 146.918 26.965 148.434 25.965 148.434 c 25.012 148.434
 24.824 146.918 24.824 145.621 c 24.824 144.543 24.949 142.793 25.965 142.793
 c 26.965 142.793 27.09 144.543 27.09 145.621 c h
27.09 145.621 m f
58.551 145.621 m 58.551 144.012 57.816 142.559 56.566 142.559 c 55.301 
142.559 54.566 144.012 54.566 145.621 c 54.566 147.246 55.254 148.684 56.566
 148.684 c 57.77 148.684 58.551 147.246 58.551 145.621 c h
57.691 145.621 m 57.691 146.918 57.566 148.434 56.566 148.434 c 55.613 
148.434 55.426 146.918 55.426 145.621 c 55.426 144.543 55.551 142.793 56.566
 142.793 c 57.566 142.793 57.691 144.543 57.691 145.621 c h
57.691 145.621 m f
60.477 148.199 m 60.477 147.918 60.258 147.699 59.977 147.699 c 59.695 
147.699 59.477 147.918 59.477 148.199 c 59.477 148.48 59.695 148.699 59.977
 148.699 c 60.258 148.699 60.477 148.48 60.477 148.199 c h
60.477 148.199 m f
65.422 147.418 m 65.266 147.387 l 65 147.84 64.781 147.918 64.344 147.918
 c 62.281 147.918 l 63.703 146.621 65 145.449 65 144.137 c 65 143.215 64.203
 142.559 63.328 142.559 c 62.469 142.559 61.781 143.027 61.516 144.246 c
 61.719 144.246 l 61.969 143.746 62.312 143.23 63 143.23 c 63.781 143.23
 64.219 143.824 64.219 144.496 c 64.219 145.465 63.188 146.887 61.422 148.434
 c 61.422 148.574 l 64.953 148.574 l h
65.422 147.418 m f
92.629 145.621 m 92.629 144.012 91.895 142.559 90.645 142.559 c 89.379 
142.559 88.645 144.012 88.645 145.621 c 88.645 147.246 89.332 148.684 90.645
 148.684 c 91.848 148.684 92.629 147.246 92.629 145.621 c h
91.77 145.621 m 91.77 146.918 91.645 148.434 90.645 148.434 c 89.691 148.434
 89.504 146.918 89.504 145.621 c 89.504 144.543 89.629 142.793 90.645 142.793
 c 91.645 142.793 91.77 144.543 91.77 145.621 c h
91.77 145.621 m f
94.555 148.199 m 94.555 147.918 94.336 147.699 94.055 147.699 c 93.773 
147.699 93.555 147.918 93.555 148.199 c 93.555 148.48 93.773 148.699 94.055
 148.699 c 94.336 148.699 94.555 148.48 94.555 148.199 c h
94.555 148.199 m f
99.484 147.09 m 99.484 146.48 l 98.609 146.48 l 98.609 142.559 l 98.172
 142.559 l 95.578 146.465 l 95.578 147.09 l 97.875 147.09 l 97.875 148.574
 l 98.609 148.574 l 98.609 147.09 l h
97.875 146.48 m 95.938 146.48 l 97.859 143.496 l 97.875 143.496 l h
97.875 146.48 m f
126.59 145.621 m 126.59 144.012 125.855 142.559 124.605 142.559 c 123.34
 142.559 122.605 144.012 122.605 145.621 c 122.605 147.246 123.293 148.684
 124.605 148.684 c 125.809 148.684 126.59 147.246 126.59 145.621 c h
125.73 145.621 m 125.73 146.918 125.605 148.434 124.605 148.434 c 123.652
 148.434 123.465 146.918 123.465 145.621 c 123.465 144.543 123.59 142.793
 124.605 142.793 c 125.605 142.793 125.73 144.543 125.73 145.621 c h
125.73 145.621 m f
128.516 148.199 m 128.516 147.918 128.297 147.699 128.016 147.699 c 127.734
 147.699 127.516 147.918 127.516 148.199 c 127.516 148.48 127.734 148.699
 128.016 148.699 c 128.297 148.699 128.516 148.48 128.516 148.199 c h
128.516 148.199 m f
133.383 146.559 m 133.383 145.574 132.68 144.84 131.789 144.84 c 131.336
 144.84 130.961 144.98 130.57 145.293 c 130.961 143.699 132.133 142.699 
133.258 142.684 c 133.258 142.527 l 130.492 142.527 129.617 144.871 129.617
 146.199 c 129.617 147.621 130.445 148.684 131.555 148.684 c 132.57 148.684
 133.383 147.73 133.383 146.559 c h
132.617 147.012 m 132.617 147.84 132.242 148.418 131.648 148.418 c 130.727
 148.418 130.445 147.074 130.445 146.355 c 130.445 146.121 130.477 145.871
 130.523 145.574 c 130.914 145.324 131.227 145.215 131.539 145.215 c 132.445
 145.215 132.617 146.262 132.617 147.012 c h
132.617 147.012 m f
160.672 145.621 m 160.672 144.012 159.938 142.559 158.688 142.559 c 157.422
 142.559 156.688 144.012 156.688 145.621 c 156.688 147.246 157.375 148.684
 158.688 148.684 c 159.891 148.684 160.672 147.246 160.672 145.621 c h
159.812 145.621 m 159.812 146.918 159.688 148.434 158.688 148.434 c 157.734
 148.434 157.547 146.918 157.547 145.621 c 157.547 144.543 157.672 142.793
 158.688 142.793 c 159.688 142.793 159.812 144.543 159.812 145.621 c h
159.812 145.621 m f
162.594 148.199 m 162.594 147.918 162.375 147.699 162.094 147.699 c 161.812
 147.699 161.594 147.918 161.594 148.199 c 161.594 148.48 161.812 148.699
 162.094 148.699 c 162.375 148.699 162.594 148.48 162.594 148.199 c h
162.594 148.199 m f
167.246 147.199 m 167.246 146.559 166.965 146.074 165.871 145.262 c 166.559
 144.887 167.09 144.465 167.09 143.809 c 167.09 143.121 166.449 142.527 
165.496 142.527 c 164.652 142.527 163.855 143.074 163.855 143.918 c 163.855
 144.574 164.199 144.965 164.965 145.574 c 164.105 146.23 163.793 146.559
 163.793 147.23 c 163.793 147.98 164.465 148.684 165.512 148.684 c 166.73
 148.684 167.246 147.855 167.246 147.199 c h
166.48 143.793 m 166.48 144.434 166.105 144.777 165.621 145.105 c 165.027
 144.684 164.512 144.215 164.512 143.699 c 164.512 143.215 164.855 142.793
 165.465 142.793 c 166.137 142.793 166.48 143.215 166.48 143.793 c h
166.605 147.449 m 166.605 148.027 166.168 148.418 165.59 148.418 c 164.902
 148.418 164.465 147.871 164.465 147.137 c 164.465 146.465 164.793 146.074
 165.199 145.73 c 166.184 146.48 166.605 146.855 166.605 147.449 c h
166.605 147.449 m f
193.883 148.574 m 193.883 148.434 l 193.289 148.434 193.07 148.449 193.07
 147.277 c 193.07 147.262 193.07 142.527 193.07 142.527 c 192.945 142.527
 l 191.414 143.262 l 191.461 143.402 l 191.789 143.262 191.867 143.23 191.992
 143.23 c 192.258 143.23 192.305 143.465 192.305 143.777 c 192.305 147.277
 l 192.305 148.449 192.086 148.418 191.492 148.434 c 191.492 148.574 l h
193.883 148.574 m f
196.555 148.199 m 196.555 147.918 196.336 147.699 196.055 147.699 c 195.773
 147.699 195.555 147.918 195.555 148.199 c 195.555 148.48 195.773 148.699
 196.055 148.699 c 196.336 148.699 196.555 148.48 196.555 148.199 c h
196.555 148.199 m f
201.473 145.621 m 201.473 144.012 200.738 142.559 199.488 142.559 c 198.223
 142.559 197.488 144.012 197.488 145.621 c 197.488 147.246 198.176 148.684
 199.488 148.684 c 200.691 148.684 201.473 147.246 201.473 145.621 c h
200.613 145.621 m 200.613 146.918 200.488 148.434 199.488 148.434 c 198.535
 148.434 198.348 146.918 198.348 145.621 c 198.348 144.543 198.473 142.793
 199.488 142.793 c 200.488 142.793 200.613 144.543 200.613 145.621 c h
200.613 145.621 m f
22.312 139.145 m 22.312 137.535 21.578 136.082 20.328 136.082 c 19.062 
136.082 18.328 137.535 18.328 139.145 c 18.328 140.77 19.016 142.207 20.328
 142.207 c 21.531 142.207 22.312 140.77 22.312 139.145 c h
21.453 139.145 m 21.453 140.441 21.328 141.957 20.328 141.957 c 19.375 
141.957 19.188 140.441 19.188 139.145 c 19.188 138.066 19.312 136.316 20.328
 136.316 c 21.328 136.316 21.453 138.066 21.453 139.145 c h
21.453 139.145 m f
17.121 108.137 m 17.121 107.996 l 16.527 107.996 16.309 108.012 16.309 
106.84 c 16.309 106.824 16.309 102.09 16.309 102.09 c 16.184 102.09 l 14.652
 102.824 l 14.699 102.965 l 15.027 102.824 15.105 102.793 15.23 102.793 
c 15.496 102.793 15.543 103.027 15.543 103.34 c 15.543 106.84 l 15.543 108.012
 15.324 107.98 14.73 107.996 c 14.73 108.137 l h
17.121 108.137 m f
22.312 105.184 m 22.312 103.574 21.578 102.121 20.328 102.121 c 19.062 
102.121 18.328 103.574 18.328 105.184 c 18.328 106.809 19.016 108.246 20.328
 108.246 c 21.531 108.246 22.312 106.809 22.312 105.184 c h
21.453 105.184 m 21.453 106.48 21.328 107.996 20.328 107.996 c 19.375 107.996
 19.188 106.48 19.188 105.184 c 19.188 104.105 19.312 102.355 20.328 102.355
 c 21.328 102.355 21.453 104.105 21.453 105.184 c h
21.453 105.184 m f
17.902 72.898 m 17.746 72.867 l 17.48 73.32 17.262 73.398 16.824 73.398
 c 14.762 73.398 l 16.184 72.102 17.48 70.93 17.48 69.617 c 17.48 68.695
 16.684 68.039 15.809 68.039 c 14.949 68.039 14.262 68.508 13.996 69.727
 c 14.199 69.727 l 14.449 69.227 14.793 68.711 15.48 68.711 c 16.262 68.711
 16.699 69.305 16.699 69.977 c 16.699 70.945 15.668 72.367 13.902 73.914
 c 13.902 74.055 l 17.434 74.055 l h
17.902 72.898 m f
22.312 71.102 m 22.312 69.492 21.578 68.039 20.328 68.039 c 19.062 68.039
 18.328 69.492 18.328 71.102 c 18.328 72.727 19.016 74.164 20.328 74.164
 c 21.531 74.164 22.312 72.727 22.312 71.102 c h
21.453 71.102 m 21.453 72.398 21.328 73.914 20.328 73.914 c 19.375 73.914
 19.188 72.398 19.188 71.102 c 19.188 70.023 19.312 68.273 20.328 68.273
 c 21.328 68.273 21.453 70.023 21.453 71.102 c h
21.453 71.102 m f
17.527 38.16 m 17.527 37.223 16.98 36.816 16.449 36.598 c 17.027 36.16 
17.215 35.754 17.215 35.27 c 17.215 34.754 16.793 34.082 15.824 34.082 c
 15.121 34.082 14.449 34.473 14.152 35.441 c 14.293 35.473 l 14.48 35.113
 14.84 34.66 15.496 34.66 c 16.137 34.66 16.512 35.098 16.512 35.598 c 16.512
 36.301 15.965 36.801 15.152 36.988 c 15.137 37.176 l 16.527 37.113 16.871
 38.02 16.871 38.582 c 16.871 39.254 16.387 39.863 15.746 39.863 c 15.168
 39.863 14.918 39.363 14.434 39.363 c 14.277 39.363 14.09 39.52 14.09 39.723
 c 14.09 40.098 14.652 40.207 15.059 40.207 c 16.48 40.207 17.527 39.395
 17.527 38.16 c h
17.527 38.16 m f
22.312 37.145 m 22.312 35.535 21.578 34.082 20.328 34.082 c 19.062 34.082
 18.328 35.535 18.328 37.145 c 18.328 38.77 19.016 40.207 20.328 40.207 
c 21.531 40.207 22.312 38.77 22.312 37.145 c h
21.453 37.145 m 21.453 38.441 21.328 39.957 20.328 39.957 c 19.375 39.957
 19.188 38.441 19.188 37.145 c 19.188 36.066 19.312 34.316 20.328 34.316
 c 21.328 34.316 21.453 36.066 21.453 37.145 c h
21.453 37.145 m f
17.887 4.531 m 17.887 3.922 l 17.012 3.922 l 17.012 0 l 16.574 0 l 13.98
 3.906 l 13.98 4.531 l 16.277 4.531 l 16.277 6.016 l 17.012 6.016 l 17.012
 4.531 l h
16.277 3.922 m 14.34 3.922 l 16.262 0.938 l 16.277 0.938 l h
16.277 3.922 m f
22.312 3.062 m 22.312 1.453 21.578 0 20.328 0 c 19.062 0 18.328 1.453 18.328
 3.062 c 18.328 4.688 19.016 6.125 20.328 6.125 c 21.531 6.125 22.312 4.688
 22.312 3.062 c h
21.453 3.062 m 21.453 4.359 21.328 5.875 20.328 5.875 c 19.375 5.875 19.188
 4.359 19.188 3.062 c 19.188 1.984 19.312 0.234 20.328 0.234 c 21.328 0.234
 21.453 1.984 21.453 3.062 c h
21.453 3.062 m f
110.637 154.41 m 110.637 154.191 110.434 154.082 110.262 154.082 c 109.809
 154.082 109.23 154.754 108.793 155.457 c 108.777 155.457 108.715 155.16
 108.715 155.16 c 108.574 154.566 108.402 154.223 108.09 154.082 c 108.09
 154.082 107.074 154.285 106.949 154.332 c 106.949 154.488 l 107.137 154.441
 107.277 154.41 107.371 154.41 c 107.871 154.41 107.949 154.895 108.293 
156.191 c 107.887 156.785 107.246 157.785 106.996 157.785 c 106.793 157.785
 106.777 157.566 106.496 157.566 c 106.309 157.566 106.168 157.707 106.168
 157.895 c 106.168 158.129 106.34 158.285 106.59 158.285 c 107.23 158.285
 107.809 157.16 108.355 156.457 c 108.387 156.52 108.59 157.316 108.59 157.316
 c 108.809 158.145 108.98 158.285 109.199 158.285 c 109.48 158.285 109.902
 158.004 110.324 157.223 c 110.199 157.145 l 110.043 157.348 109.793 157.77
 109.559 157.77 c 109.246 157.77 109.074 156.504 108.855 155.707 c 108.902
 155.629 109.527 154.629 109.855 154.629 c 110.027 154.629 110.184 154.77
 110.34 154.77 c 110.559 154.77 110.637 154.582 110.637 154.41 c h
110.637 154.41 m f
111.039 155.973 m 111.617 156.004 111.695 156.082 111.695 156.598 c 111.695
 159.691 l 111.695 160.223 111.602 160.301 111.039 160.332 c 111.039 160.457
 l 113.367 160.457 l 113.898 160.457 114.398 160.316 114.664 160.066 c 114.914
 159.848 115.039 159.535 115.039 159.207 c 115.039 158.895 114.93 158.613
 114.711 158.41 c 114.492 158.223 114.305 158.145 113.852 158.035 c 114.211
 157.941 114.367 157.879 114.523 157.723 c 114.711 157.566 114.805 157.316
 114.805 157.035 c 114.805 156.254 114.18 155.848 112.977 155.848 c 111.039
 155.848 l h
112.414 158.191 m 113.086 158.191 113.414 158.223 113.664 158.332 c 114.055
 158.488 114.242 158.785 114.242 159.207 c 114.242 159.582 114.102 159.863
 113.82 160.02 c 113.602 160.145 113.305 160.191 112.852 160.191 c 112.508
 160.191 112.414 160.129 112.414 159.91 c h
112.414 157.91 m 112.414 156.316 l 112.414 156.16 112.445 156.113 112.57
 156.113 c 112.867 156.098 l 113.648 156.082 114.102 156.441 114.102 157.051
 c 114.102 157.613 113.742 157.895 113.07 157.91 c h
112.414 157.91 m f
0.547 103.738 m 0.188 103.738 0 104.129 0 104.473 c 0 105.723 1.797 106.332
 2.438 106.52 c 2.438 106.52 2.438 107.098 2.438 107.332 c 2.781 107.426
 l 2.781 106.613 l 3.891 106.895 6.719 107.426 7.672 107.973 c 8.109 108.223
 8.172 108.613 8.172 108.785 c 8.172 108.848 8.141 108.926 8.094 108.926
 c 7.969 108.926 7.969 108.738 7.781 108.738 c 7.672 108.738 7.547 108.832
 7.547 109.02 c 7.547 109.254 7.734 109.426 7.922 109.426 c 8.172 109.426
 8.359 109.16 8.359 108.785 c 8.359 107.035 4.594 106.379 2.781 105.926 
c 2.781 105.191 l 2.438 105.113 l 2.438 105.832 l 1.484 105.535 0.188 105.238
 0.188 104.457 c 0.188 104.348 0.266 104.238 0.344 104.238 c 0.438 104.238
 0.5 104.379 0.672 104.379 c 0.828 104.379 0.953 104.27 0.953 104.113 c 
0.953 103.91 0.766 103.738 0.547 103.738 c h
0.547 103.738 m f
8.594 100.105 m 8.562 100.418 8.5 100.496 7.984 100.73 c 4.016 102.465 
l 4.016 102.605 l 7.438 104.059 l 8.453 104.512 8.578 104.59 8.594 104.918
 c 8.719 104.918 l 8.719 103.543 l 8.594 103.543 l 8.594 103.871 8.5 104.012
 8.297 104.012 c 8.219 104.012 8.125 103.996 8.031 103.965 c 7.219 103.637
 l 7.219 101.809 l 7.875 101.527 l 8.078 101.449 8.25 101.402 8.344 101.402
 c 8.531 101.402 8.578 101.512 8.594 101.887 c 8.719 101.887 l 8.719 100.105
 l h
6.922 103.527 m 5.016 102.715 l 6.922 101.918 l h
6.922 103.527 m f
0 95.723 m 0 96.16 l 8.359 99.27 l 8.359 98.816 l h
0 95.723 m f
6.438 95.125 m 6.438 93.031 l 6.297 93.031 l 6.297 93.203 l 6.266 93.578
 6.172 93.688 5.844 93.703 c 4.188 93.703 l 5.859 92.438 l 5.906 92.406 
5.953 92.375 5.984 92.359 c 6.062 92.281 6.125 92.25 6.172 92.25 c 6.25 
92.25 6.297 92.328 6.297 92.438 c 6.297 92.609 l 6.438 92.609 l 6.438 90.656
 l 6.297 90.656 l 6.281 91.047 6.109 91.328 5.641 91.703 c 3.906 93.078 
l 3.672 92.812 l 2.656 91.703 2.516 91.453 2.531 90.875 c 2.406 90.875 l
 2.406 92.719 l 2.531 92.719 l 2.531 92.359 2.578 92.266 2.688 92.266 c 
2.766 92.266 2.891 92.344 3 92.469 c 4.094 93.703 l 0.328 93.703 l 0.312
 93.734 l 0.422 94.078 0.5 94.344 0.641 94.859 c 0.703 95.125 l 0.844 95.125
 l 0.844 95.016 0.828 94.922 0.828 94.844 c 0.828 94.531 0.953 94.453 1.375
 94.453 c 5.703 94.453 l 6.172 94.469 6.203 94.484 6.297 95.125 c h
6.438 95.125 m f
0.672 90.605 m 0.75 89.934 0.828 89.855 1.484 89.855 c 5.359 89.855 l 6.125
 89.855 6.203 89.918 6.266 90.605 c 6.438 90.605 l 6.438 88.09 l 6.266 88.09
 l 6.25 88.793 6.125 88.918 5.453 88.934 c 3.828 88.934 l 3.844 88.699 3.859
 88.543 3.859 88.309 c 3.859 87.605 3.766 87.137 3.547 86.746 c 3.266 86.215
 2.719 85.887 2.125 85.887 c 1.75 85.887 1.406 86.012 1.141 86.246 c 0.75
 86.605 0.5 87.387 0.5 88.23 c 0.5 90.605 l h
1.141 88.934 m 0.891 88.934 0.828 88.871 0.828 88.637 c 0.828 87.418 1.25
 86.855 2.172 86.855 c 3.047 86.855 3.5 87.387 3.5 88.418 c 3.5 88.605 3.484
 88.73 3.469 88.934 c h
1.141 88.934 m f
5.844 81.859 m 5.969 82.016 6.016 82.125 6.016 82.266 c 6.016 82.469 5.891
 82.531 5.5 82.531 c 3.75 82.531 l 3.281 82.531 3.016 82.578 2.812 82.703
 c 2.484 82.906 2.312 83.297 2.312 83.812 c 2.312 84.656 2.75 85.328 3.312
 85.328 c 3.516 85.328 3.703 85.156 3.703 84.938 c 3.703 84.719 3.516 84.531
 3.328 84.531 c 3.297 84.531 3.25 84.547 3.188 84.547 c 3.094 84.578 3.031
 84.578 2.969 84.578 c 2.719 84.578 2.531 84.297 2.531 83.938 c 2.531 83.5
 2.781 83.25 3.266 83.25 c 3.812 83.25 l 4.359 84.625 4.453 84.781 4.781
 85.172 c 4.969 85.375 5.266 85.5 5.562 85.5 c 6.125 85.5 6.531 85.109 6.531
 84.547 c 6.531 84.156 6.344 83.797 5.875 83.25 c 6.344 83.203 6.531 83.031
 6.531 82.672 c 6.531 82.359 6.422 82.172 6.078 81.859 c h
5.328 83.25 m 5.609 83.25 5.703 83.297 5.812 83.484 c 5.938 83.719 6 83.953
 6 84.141 c 6 84.453 5.703 84.703 5.312 84.703 c 5.281 84.703 l 4.75 84.703
 4.406 84.297 4.031 83.25 c h
5.328 83.25 m f
5.844 73.34 m 5.969 73.496 6.016 73.605 6.016 73.746 c 6.016 73.949 5.891
 74.012 5.5 74.012 c 3.75 74.012 l 3.281 74.012 3.016 74.059 2.812 74.184
 c 2.484 74.387 2.312 74.777 2.312 75.293 c 2.312 76.137 2.75 76.809 3.312
 76.809 c 3.516 76.809 3.703 76.637 3.703 76.418 c 3.703 76.199 3.516 76.012
 3.328 76.012 c 3.297 76.012 3.25 76.027 3.188 76.027 c 3.094 76.059 3.031
 76.059 2.969 76.059 c 2.719 76.059 2.531 75.777 2.531 75.418 c 2.531 74.98
 2.781 74.73 3.266 74.73 c 3.812 74.73 l 4.359 76.105 4.453 76.262 4.781
 76.652 c 4.969 76.855 5.266 76.98 5.562 76.98 c 6.125 76.98 6.531 76.59
 6.531 76.027 c 6.531 75.637 6.344 75.277 5.875 74.73 c 6.344 74.684 6.531
 74.512 6.531 74.152 c 6.531 73.84 6.422 73.652 6.078 73.34 c h
5.328 74.73 m 5.609 74.73 5.703 74.777 5.812 74.965 c 5.938 75.199 6 75.434
 6 75.621 c 6 75.934 5.703 76.184 5.312 76.184 c 5.281 76.184 l 4.75 76.184
 4.406 75.777 4.031 74.73 c h
5.328 74.73 m f
6.438 73.191 m 6.438 71.285 l 6.297 71.285 l 6.281 71.738 6.156 71.879 
5.844 71.879 c 3.312 71.879 l 2.906 71.441 2.812 71.254 2.812 70.957 c 2.812
 70.52 3.078 70.301 3.672 70.301 c 5.547 70.301 l 6.125 70.316 6.281 70.426
 6.297 70.863 c 6.438 70.863 l 6.438 69.004 l 6.297 69.004 l 6.266 69.441
 6.156 69.535 5.719 69.551 c 3.656 69.551 l 2.812 69.551 2.312 69.941 2.312
 70.598 c 2.312 71.02 2.469 71.301 3.031 71.91 c 2.328 71.91 l 2.312 71.973
 l 2.484 72.426 2.578 72.738 2.719 73.207 c 2.875 73.207 l 2.844 73.145 
2.828 73.066 2.828 72.957 c 2.828 72.707 2.969 72.629 3.406 72.629 c 5.625
 72.629 l 6.156 72.645 6.281 72.738 6.297 73.191 c h
6.438 73.191 m f
5.922 64.5 m 5.922 64.625 5.922 64.672 5.922 64.703 c 5.922 65.016 5.828
 65.109 5.422 65.109 c 0.328 65.109 l 0.312 65.141 l 0.453 65.562 0.547 
65.875 0.703 66.469 c 0.844 66.469 l 0.844 66.391 0.844 66.344 0.844 66.266
 c 0.844 65.938 0.938 65.859 1.297 65.859 c 2.703 65.859 l 2.406 66.203 
2.312 66.438 2.312 66.797 c 2.312 67.828 3.328 68.672 4.594 68.672 c 5.75
 68.672 6.531 68 6.531 67 c 6.531 66.5 6.344 66.156 5.922 65.859 c 6.5 65.859
 l 6.531 65.828 l 6.062 64.5 l h
5.516 65.859 m 5.578 65.859 5.688 65.922 5.797 66.016 c 5.969 66.156 6.062
 66.391 6.062 66.656 c 6.062 67.406 5.344 67.891 4.234 67.891 c 3.234 67.891
 2.562 67.453 2.562 66.766 c 2.562 66.281 2.984 65.859 3.453 65.859 c h
5.516 65.859 m f
0.547 53.578 m 0.188 53.578 0 53.969 0 54.312 c 0 55.562 1.797 56.172 2.438
 56.359 c 2.438 56.359 2.438 56.938 2.438 57.172 c 2.781 57.266 l 2.781 
56.453 l 3.891 56.734 6.719 57.266 7.672 57.812 c 8.109 58.062 8.172 58.453
 8.172 58.625 c 8.172 58.688 8.141 58.766 8.094 58.766 c 7.969 58.766 7.969
 58.578 7.781 58.578 c 7.672 58.578 7.547 58.672 7.547 58.859 c 7.547 59.094
 7.734 59.266 7.922 59.266 c 8.172 59.266 8.359 59 8.359 58.625 c 8.359 
56.875 4.594 56.219 2.781 55.766 c 2.781 55.031 l 2.438 54.953 l 2.438 55.672
 l 1.484 55.375 0.188 55.078 0.188 54.297 c 0.188 54.188 0.266 54.078 0.344
 54.078 c 0.438 54.078 0.5 54.219 0.672 54.219 c 0.828 54.219 0.953 54.109
 0.953 53.953 c 0.953 53.75 0.766 53.578 0.547 53.578 c h
0.547 53.578 m f
4.234 54.742 m 4.266 54.164 4.344 54.086 4.859 54.086 c 7.953 54.086 l 
8.484 54.086 8.562 54.18 8.594 54.742 c 8.719 54.742 l 8.719 52.414 l 8.719
 51.883 8.578 51.383 8.328 51.117 c 8.109 50.867 7.797 50.742 7.469 50.742
 c 7.156 50.742 6.875 50.852 6.672 51.07 c 6.484 51.289 6.406 51.477 6.297
 51.93 c 6.203 51.57 6.141 51.414 5.984 51.258 c 5.828 51.07 5.578 50.977
 5.297 50.977 c 4.516 50.977 4.109 51.602 4.109 52.805 c 4.109 54.742 l 
h
6.453 53.367 m 6.453 52.695 6.484 52.367 6.594 52.117 c 6.75 51.727 7.047
 51.539 7.469 51.539 c 7.844 51.539 8.125 51.68 8.281 51.961 c 8.406 52.18
 8.453 52.477 8.453 52.93 c 8.453 53.273 8.391 53.367 8.172 53.367 c h
6.172 53.367 m 4.578 53.367 l 4.422 53.367 4.375 53.336 4.375 53.211 c 
4.359 52.914 l 4.344 52.133 4.703 51.68 5.312 51.68 c 5.875 51.68 6.156 
52.039 6.172 52.711 c h
6.172 53.367 m f
0 45.801 m 0 46.238 l 8.359 49.348 l 8.359 48.895 l h
0 45.801 m f
6.438 45.207 m 6.438 43.113 l 6.297 43.113 l 6.297 43.285 l 6.266 43.66
 6.172 43.77 5.844 43.785 c 4.188 43.785 l 5.859 42.52 l 5.906 42.488 5.953
 42.457 5.984 42.441 c 6.062 42.363 6.125 42.332 6.172 42.332 c 6.25 42.332
 6.297 42.41 6.297 42.52 c 6.297 42.691 l 6.438 42.691 l 6.438 40.738 l 
6.297 40.738 l 6.281 41.129 6.109 41.41 5.641 41.785 c 3.906 43.16 l 3.672
 42.895 l 2.656 41.785 2.516 41.535 2.531 40.957 c 2.406 40.957 l 2.406 
42.801 l 2.531 42.801 l 2.531 42.441 2.578 42.348 2.688 42.348 c 2.766 42.348
 2.891 42.426 3 42.551 c 4.094 43.785 l 0.328 43.785 l 0.312 43.816 l 0.422
 44.16 0.5 44.426 0.641 44.941 c 0.703 45.207 l 0.844 45.207 l 0.844 45.098
 0.828 45.004 0.828 44.926 c 0.828 44.613 0.953 44.535 1.375 44.535 c 5.703
 44.535 l 6.172 44.551 6.203 44.566 6.297 45.207 c h
6.438 45.207 m f
0.672 40.688 m 0.75 40.016 0.828 39.938 1.484 39.938 c 5.359 39.938 l 6.125
 39.938 6.203 40 6.266 40.688 c 6.438 40.688 l 6.438 38.172 l 6.266 38.172
 l 6.25 38.875 6.125 39 5.453 39.016 c 3.828 39.016 l 3.844 38.781 3.859
 38.625 3.859 38.391 c 3.859 37.688 3.766 37.219 3.547 36.828 c 3.266 36.297
 2.719 35.969 2.125 35.969 c 1.75 35.969 1.406 36.094 1.141 36.328 c 0.75
 36.688 0.5 37.469 0.5 38.312 c 0.5 40.688 l h
1.141 39.016 m 0.891 39.016 0.828 38.953 0.828 38.719 c 0.828 37.5 1.25
 36.938 2.172 36.938 c 3.047 36.938 3.5 37.469 3.5 38.5 c 3.5 38.688 3.484
 38.812 3.469 39.016 c h
1.141 39.016 m f
5.844 31.938 m 5.969 32.094 6.016 32.203 6.016 32.344 c 6.016 32.547 5.891
 32.609 5.5 32.609 c 3.75 32.609 l 3.281 32.609 3.016 32.656 2.812 32.781
 c 2.484 32.984 2.312 33.375 2.312 33.891 c 2.312 34.734 2.75 35.406 3.312
 35.406 c 3.516 35.406 3.703 35.234 3.703 35.016 c 3.703 34.797 3.516 34.609
 3.328 34.609 c 3.297 34.609 3.25 34.625 3.188 34.625 c 3.094 34.656 3.031
 34.656 2.969 34.656 c 2.719 34.656 2.531 34.375 2.531 34.016 c 2.531 33.578
 2.781 33.328 3.266 33.328 c 3.812 33.328 l 4.359 34.703 4.453 34.859 4.781
 35.25 c 4.969 35.453 5.266 35.578 5.562 35.578 c 6.125 35.578 6.531 35.188
 6.531 34.625 c 6.531 34.234 6.344 33.875 5.875 33.328 c 6.344 33.281 6.531
 33.109 6.531 32.75 c 6.531 32.438 6.422 32.25 6.078 31.938 c h
5.328 33.328 m 5.609 33.328 5.703 33.375 5.812 33.562 c 5.938 33.797 6 
34.031 6 34.219 c 6 34.531 5.703 34.781 5.312 34.781 c 5.281 34.781 l 4.75
 34.781 4.406 34.375 4.031 33.328 c h
5.328 33.328 m f
Q Q
showpage
%%Trailer
end
%%EOF
