%!PS-Adobe-3.0 EPSF-3.0
%%Creator: cairo 1.17.4 (https://cairographics.org)
%%CreationDate: Thu Feb 24 10:49:14 2022
%%Pages: 1
%%DocumentData: Clean7Bit
%%LanguageLevel: 2
%%BoundingBox: 0 0 197 161
%%EndComments
%%BeginProlog
50 dict begin
/q { gsave } bind def
/Q { grestore } bind def
/cm { 6 array astore concat } bind def
/w { setlinewidth } bind def
/J { setlinecap } bind def
/j { setlinejoin } bind def
/M { setmiterlimit } bind def
/d { setdash } bind def
/m { moveto } bind def
/l { lineto } bind def
/c { curveto } bind def
/h { closepath } bind def
/re { exch dup neg 3 1 roll 5 3 roll moveto 0 rlineto
      0 exch rlineto 0 rlineto closepath } bind def
/S { stroke } bind def
/f { fill } bind def
/f* { eofill } bind def
/n { newpath } bind def
/W { clip } bind def
/W* { eoclip } bind def
/BT { } bind def
/ET { } bind def
/BDC { mark 3 1 roll /BDC pdfmark } bind def
/EMC { mark /EMC pdfmark } bind def
/cairo_store_point { /cairo_point_y exch def /cairo_point_x exch def } def
/Tj { show currentpoint cairo_store_point } bind def
/TJ {
  {
    dup
    type /stringtype eq
    { show } { -0.001 mul 0 cairo_font_matrix dtransform rmoveto } ifelse
  } forall
  currentpoint cairo_store_point
} bind def
/cairo_selectfont { cairo_font_matrix aload pop pop pop 0 0 6 array astore
    cairo_font exch selectfont cairo_point_x cairo_point_y moveto } bind def
/Tf { pop /cairo_font exch def /cairo_font_matrix where
      { pop cairo_selectfont } if } bind def
/Td { matrix translate cairo_font_matrix matrix concatmatrix dup
      /cairo_font_matrix exch def dup 4 get exch 5 get cairo_store_point
      /cairo_font where { pop cairo_selectfont } if } bind def
/Tm { 2 copy 8 2 roll 6 array astore /cairo_font_matrix exch def
      cairo_store_point /cairo_font where { pop cairo_selectfont } if } bind def
/g { setgray } bind def
/rg { setrgbcolor } bind def
/d1 { setcachedevice } bind def
/cairo_data_source {
  CairoDataIndex CairoData length lt
    { CairoData CairoDataIndex get /CairoDataIndex CairoDataIndex 1 add def }
    { () } ifelse
} def
/cairo_flush_ascii85_file { cairo_ascii85_file status { cairo_ascii85_file flushfile } if } def
/cairo_image { image cairo_flush_ascii85_file } def
/cairo_imagemask { imagemask cairo_flush_ascii85_file } def
%%EndProlog
%%BeginSetup
%%EndSetup
%%Page: 1 1
%%BeginPageSetup
%%PageBoundingBox: 0 0 197 161
%%EndPageSetup
q 0 0 197 161 rectclip
1 0 0 -1 0 161 cm q
0 g
1.13366 w
0 J
0 j
[] 0.0 d
10 M q 1 0 0 -1 0 0 cm
21.441 -139.117 m 21.441 -139.117 23.598 -132.758 24.848 -129.422 c 26.516
 -124.938 28.078 -120.941 29.957 -116.562 c 31.625 -112.668 33.188 -109.262
 35.066 -105.473 c 36.18 -103.25 37.082 -101.199 38.473 -99.113 c 43.617
 -91.258 48.309 -83.926 55.469 -77.844 c 60.578 -73.496 66.348 -71.098 72.465
 -68.32 c 78.164 -65.711 83.656 -64.391 89.496 -62.203 c 95.367 -59.977 
100.688 -57.996 106.492 -55.562 c 112.434 -53.062 117.684 -50.664 123.488
 -47.918 c 129.43 -45.137 134.715 -42.598 140.52 -39.504 c 146.461 -36.309
 151.777 -33.352 157.516 -29.738 c 163.562 -25.914 168.742 -22.129 174.512
 -17.922 c 176.316 -16.637 177.883 -15.418 179.621 -14.098 c 181.391 -12.742
 182.957 -11.527 184.73 -10.172 c 185.91 -9.266 186.953 -8.469 188.137 -7.562
 c 189.316 -6.625 191.539 -4.887 191.539 -4.887 c S Q
q 1 0 0 -1 0 0 cm
21.441 -85.23 m 21.441 -85.23 23.668 -85.914 24.867 -86.258 c 26.617 -86.773
 28.191 -87.254 29.973 -87.73 c 31.723 -88.211 33.297 -88.621 35.047 -89.102
 c 36.246 -89.375 37.273 -89.652 38.473 -89.926 c 44.297 -91.191 49.574 
-92.289 55.465 -93.215 c 61.324 -94.141 66.602 -94.586 72.496 -95.27 c 78.355
 -95.953 83.633 -96.402 89.492 -97.188 c 95.383 -97.977 100.66 -98.766 106.484
 -99.93 c 112.414 -101.094 117.691 -102.328 123.516 -103.938 c 129.441 -105.551
 134.754 -107.125 140.508 -109.285 c 146.504 -111.512 151.816 -113.773 157.504
 -116.719 c 163.602 -119.836 168.777 -123.23 174.535 -126.93 c 176.316 -128.094
 177.891 -129.227 179.641 -130.457 c 181.387 -131.691 182.961 -132.824 184.742
 -134.09 c 185.91 -134.914 186.973 -135.699 188.137 -136.559 c 189.301 -137.449
 191.527 -139.129 191.527 -139.129 c S Q
56.766 58.734 m 56.766 58.375 56.375 58.188 56.031 58.188 c 54.781 58.188
 54.172 59.984 53.984 60.625 c 53.984 60.625 53.406 60.625 53.172 60.625
 c 53.078 60.969 l 53.891 60.969 l 53.609 62.078 53.078 64.906 52.531 65.859
 c 52.281 66.297 51.891 66.359 51.719 66.359 c 51.656 66.359 51.578 66.328
 51.578 66.281 c 51.578 66.156 51.766 66.156 51.766 65.969 c 51.766 65.859
 51.672 65.734 51.484 65.734 c 51.25 65.734 51.078 65.922 51.078 66.109 
c 51.078 66.359 51.344 66.547 51.719 66.547 c 53.469 66.547 54.125 62.781
 54.578 60.969 c 55.312 60.969 l 55.391 60.625 l 54.672 60.625 l 54.969 
59.672 55.266 58.375 56.047 58.375 c 56.156 58.375 56.266 58.453 56.266 
58.531 c 56.266 58.625 56.125 58.688 56.125 58.859 c 56.125 59.016 56.234
 59.141 56.391 59.141 c 56.594 59.141 56.766 58.953 56.766 58.734 c h
56.766 58.734 m f
55.602 62.422 m 56.18 62.453 56.258 62.531 56.258 63.047 c 56.258 66.141
 l 56.258 66.672 56.164 66.75 55.602 66.781 c 55.602 66.906 l 57.93 66.906
 l 58.461 66.906 58.961 66.766 59.227 66.516 c 59.477 66.297 59.602 65.984
 59.602 65.656 c 59.602 65.344 59.492 65.062 59.273 64.859 c 59.055 64.672
 58.867 64.594 58.414 64.484 c 58.773 64.391 58.93 64.328 59.086 64.172 
c 59.273 64.016 59.367 63.766 59.367 63.484 c 59.367 62.703 58.742 62.297
 57.539 62.297 c 55.602 62.297 l h
56.977 64.641 m 57.648 64.641 57.977 64.672 58.227 64.781 c 58.617 64.938
 58.805 65.234 58.805 65.656 c 58.805 66.031 58.664 66.312 58.383 66.469
 c 58.164 66.594 57.867 66.641 57.414 66.641 c 57.07 66.641 56.977 66.578
 56.977 66.359 c h
56.977 64.359 m 56.977 62.766 l 56.977 62.609 57.008 62.562 57.133 62.562
 c 57.43 62.547 l 58.211 62.531 58.664 62.891 58.664 63.5 c 58.664 64.062
 58.305 64.344 57.633 64.359 c h
56.977 64.359 m f
158.574 101.258 m 158.574 100.898 158.184 100.711 157.84 100.711 c 156.59
 100.711 155.98 102.508 155.793 103.148 c 155.793 103.148 155.215 103.148
 154.98 103.148 c 154.887 103.492 l 155.699 103.492 l 155.418 104.602 154.887
 107.43 154.34 108.383 c 154.09 108.82 153.699 108.883 153.527 108.883 c
 153.465 108.883 153.387 108.852 153.387 108.805 c 153.387 108.68 153.574
 108.68 153.574 108.492 c 153.574 108.383 153.48 108.258 153.293 108.258
 c 153.059 108.258 152.887 108.445 152.887 108.633 c 152.887 108.883 153.152
 109.07 153.527 109.07 c 155.277 109.07 155.934 105.305 156.387 103.492 
c 157.121 103.492 l 157.199 103.148 l 156.48 103.148 l 156.777 102.195 157.074
 100.898 157.855 100.898 c 157.965 100.898 158.074 100.977 158.074 101.055
 c 158.074 101.148 157.934 101.211 157.934 101.383 c 157.934 101.539 158.043
 101.664 158.199 101.664 c 158.402 101.664 158.574 101.477 158.574 101.258
 c h
158.574 101.258 m f
162.207 109.301 m 161.895 109.27 161.816 109.207 161.582 108.691 c 159.848
 104.723 l 159.707 104.723 l 158.254 108.145 l 157.801 109.16 157.723 109.285
 157.395 109.301 c 157.395 109.426 l 158.77 109.426 l 158.77 109.301 l 158.441
 109.301 158.301 109.207 158.301 109.004 c 158.301 108.926 158.316 108.832
 158.348 108.738 c 158.676 107.926 l 160.504 107.926 l 160.785 108.582 l
 160.863 108.785 160.91 108.957 160.91 109.051 c 160.91 109.238 160.801 
109.285 160.426 109.301 c 160.426 109.426 l 162.207 109.426 l h
158.785 107.629 m 159.598 105.723 l 160.395 107.629 l h
158.785 107.629 m f
0.567043 w
q 1 0 0 -1 0 0 cm
21.441 -139.117 m 23.672 -137.355 l 25.012 -136.297 m 27.246 -134.539 l
 28.586 -133.48 m 30.816 -131.719 l 32.156 -130.66 m 34.387 -128.902 l 35.727
 -127.844 m 37.961 -126.082 l 39.301 -125.023 m 41.531 -123.262 l 42.871
 -122.207 m 45.102 -120.445 l 46.441 -119.387 m 48.676 -117.625 l 50.012
 -116.57 m 52.246 -114.809 l 53.586 -113.75 m 55.816 -111.988 l 57.156 -110.934
 m 59.391 -109.172 l 60.727 -108.113 m 62.961 -106.352 l 64.301 -105.297
 m 66.531 -103.535 l 67.871 -102.477 m 70.102 -100.715 l 71.441 -99.66 m
 73.676 -97.898 l 75.016 -96.84 m 77.246 -95.078 l 78.586 -94.023 m 80.816
 -92.262 l 82.156 -91.203 m 84.391 -89.441 l 85.727 -88.387 m 87.961 -86.625
 l 89.301 -85.566 m 91.531 -83.805 l 92.871 -82.75 m 95.105 -80.988 l 96.441
 -79.93 m 98.676 -78.168 l 100.016 -77.113 m 102.246 -75.352 l 103.586 -74.293
 m 105.816 -72.531 l 107.156 -71.477 m 109.391 -69.715 l 110.73 -68.656 
m 112.961 -66.895 l 114.301 -65.84 m 116.531 -64.078 l 117.871 -63.02 m 
120.105 -61.258 l 121.441 -60.203 m 123.676 -58.441 l 125.016 -57.383 m 
127.246 -55.621 l 128.586 -54.566 m 130.82 -52.805 l 132.156 -51.746 m 134.391
 -49.984 l 135.73 -48.93 m 137.961 -47.168 l 139.301 -46.109 m 141.531 -44.348
 l 142.871 -43.289 m 145.105 -41.531 l 146.445 -40.473 m 148.676 -38.711
 l 150.016 -37.656 m 152.246 -35.895 l 153.586 -34.836 m 155.82 -33.074 
l 157.156 -32.02 m 159.391 -30.258 l 160.73 -29.199 m 162.961 -27.438 l 
164.301 -26.383 m 166.535 -24.617 l 167.871 -23.562 m 170.105 -21.801 l 
171.445 -20.742 m 173.676 -18.984 l 175.016 -17.926 m 177.246 -16.164 l 
178.586 -15.105 m 180.82 -13.348 l 182.16 -12.289 m 184.391 -10.527 l 185.73
 -9.473 m 187.965 -7.711 l 189.301 -6.652 m 191.535 -4.891 l S Q
0.567044 w
q 1 0 0 -1 0 0 cm
191.527 -139.129 m 188.844 -138.277 l 187.234 -137.77 m 184.551 -136.918
 l 182.941 -136.41 m 180.262 -135.559 l 178.652 -135.047 m 175.969 -134.199
 l 174.359 -133.688 m 171.676 -132.84 l 170.066 -132.328 m 167.383 -131.477
 l 165.773 -130.969 m 163.09 -130.117 l 161.48 -129.609 m 158.801 -128.758
 l 157.188 -128.246 m 154.508 -127.398 l 152.898 -126.887 m 150.215 -126.039
 l 148.605 -125.527 m 145.922 -124.676 l 144.312 -124.168 m 141.629 -123.316
 l 140.02 -122.809 m 137.34 -121.957 l 135.727 -121.445 m 133.047 -120.598
 l 131.438 -120.086 m 128.754 -119.238 l 127.145 -118.727 m 124.461 -117.875
 l 122.852 -117.367 m 120.168 -116.516 l 118.559 -116.008 m 115.879 -115.156
 l 114.266 -114.645 m 111.586 -113.797 l 109.977 -113.285 m 107.293 -112.438
 l 105.684 -111.926 m 103 -111.074 l 101.391 -110.566 m 98.707 -109.715 
l 97.098 -109.207 m 94.414 -108.355 l 92.805 -107.844 m 90.125 -106.996 
l 88.516 -106.484 m 85.832 -105.637 l 84.223 -105.125 m 81.539 -104.273 
l 79.93 -103.766 m 77.246 -102.914 l 75.637 -102.406 m 72.953 -101.555 l
 71.344 -101.043 m 68.66 -100.195 l 67.051 -99.684 m 64.371 -98.836 l 62.762
 -98.324 m 60.078 -97.473 l 58.469 -96.965 m 55.785 -96.113 l 54.176 -95.605
 m 51.492 -94.754 l 49.883 -94.242 m 47.199 -93.395 l 45.59 -92.883 m 42.91
 -92.031 l 41.301 -91.523 m 38.617 -90.672 l 37.008 -90.164 m 34.324 -89.312
 l 32.715 -88.805 m 30.031 -87.953 l 28.422 -87.441 m 25.738 -86.594 l 24.129
 -86.082 m 21.449 -85.234 l S Q
0.85036 w
1 J
q 1 0 0 -1 0 0 cm
21.699 -138.781 m 21.715 -138.762 l 23.078 -136.867 m 23.094 -136.848 l
 24.457 -134.953 m 24.473 -134.934 l 25.836 -133.039 m 25.852 -133.02 l 
27.219 -131.125 m 27.23 -131.105 l 28.598 -129.211 m 28.609 -129.191 l 29.977
 -127.293 m 29.988 -127.277 l 31.355 -125.379 m 31.367 -125.359 l 32.734
 -123.465 m 32.746 -123.445 l 34.113 -121.551 m 34.129 -121.531 l 35.492
 -119.637 m 35.508 -119.617 l 36.871 -117.723 m 36.887 -117.703 l 38.25 
-115.809 m 38.266 -115.789 l 39.629 -113.895 m 39.645 -113.875 l 41.012 
-111.98 m 41.023 -111.961 l 42.391 -110.066 m 42.402 -110.047 l 43.77 -108.152
 m 43.781 -108.133 l 45.148 -106.238 m 45.16 -106.219 l 46.527 -104.32 m
 46.539 -104.305 l 47.906 -102.406 m 47.922 -102.391 l 49.285 -100.492 m
 49.301 -100.473 l 50.664 -98.578 m 50.68 -98.559 l 52.043 -96.664 m 52.059
 -96.645 l 53.426 -94.75 m 53.438 -94.73 l 54.805 -92.836 m 54.816 -92.816
 l 56.184 -90.922 m 56.195 -90.902 l 57.562 -89.008 m 57.574 -88.988 l 58.941
 -87.094 m 58.953 -87.074 l 60.32 -85.18 m 60.336 -85.16 l 61.699 -83.266
 m 61.715 -83.246 l 63.078 -81.352 m 63.094 -81.332 l 64.457 -79.438 m 64.473
 -79.418 l 65.836 -77.52 m 65.852 -77.504 l 67.219 -75.605 m 67.23 -75.59
 l 68.598 -73.691 m 68.609 -73.672 l 69.977 -71.777 m 69.988 -71.758 l 71.355
 -69.863 m 71.367 -69.844 l S Q
0.850362 w
q 1 0 0 -1 0 0 cm
21.777 -138.797 m 21.793 -138.781 l 23.484 -137.121 m 23.5 -137.105 l 25.188
 -135.445 m 25.207 -135.43 l 26.895 -133.77 m 26.91 -133.754 l 28.602 -132.094
 m 28.617 -132.078 l 30.305 -130.418 m 30.324 -130.402 l 32.012 -128.742
 m 32.027 -128.727 l 33.719 -127.066 m 33.734 -127.051 l 35.422 -125.391
 m 35.441 -125.375 l 37.129 -123.715 m 37.145 -123.699 l 38.836 -122.039
 m 38.852 -122.023 l 40.539 -120.363 m 40.559 -120.344 l 42.246 -118.688
 m 42.262 -118.668 l 43.953 -117.012 m 43.969 -116.992 l 45.656 -115.336
 m 45.676 -115.316 l 47.363 -113.656 m 47.379 -113.641 l 49.07 -111.98 m
 49.086 -111.965 l 50.773 -110.305 m 50.793 -110.289 l 52.48 -108.629 m 
52.496 -108.613 l 54.188 -106.953 m 54.203 -106.938 l 55.891 -105.277 m 
55.91 -105.262 l 57.598 -103.602 m 57.613 -103.586 l 59.305 -101.926 m 59.32
 -101.91 l 61.008 -100.25 m 61.027 -100.234 l 62.715 -98.574 m 62.73 -98.559
 l 64.422 -96.898 m 64.438 -96.883 l 66.125 -95.223 m 66.145 -95.207 l 67.832
 -93.547 m 67.848 -93.531 l 69.539 -91.871 m 69.555 -91.852 l 71.242 -90.195
 m 71.262 -90.176 l 72.949 -88.52 m 72.965 -88.5 l 74.656 -86.844 m 74.672
 -86.824 l 76.359 -85.164 m 76.379 -85.148 l 78.066 -83.488 m 78.082 -83.473
 l 79.773 -81.812 m 79.789 -81.797 l 81.477 -80.137 m 81.496 -80.121 l 83.184
 -78.461 m 83.199 -78.445 l 84.891 -76.785 m 84.906 -76.77 l 86.594 -75.109
 m 86.613 -75.094 l 88.301 -73.434 m 88.316 -73.418 l 90.008 -71.758 m 90.023
 -71.742 l 91.711 -70.082 m 91.73 -70.066 l 93.418 -68.406 m 93.434 -68.391
 l 95.125 -66.73 m 95.141 -66.711 l 96.828 -65.055 m 96.848 -65.035 l 98.535
 -63.379 m 98.551 -63.359 l 100.242 -61.699 m 100.258 -61.684 l 101.945 
-60.023 m 101.965 -60.008 l 103.652 -58.348 m 103.668 -58.332 l 105.359 
-56.672 m 105.375 -56.656 l S Q
1 g
74.09 68.297 m 74.09 67.434 73.391 66.734 72.527 66.734 c 71.664 66.734
 70.965 67.434 70.965 68.297 c 70.965 69.16 71.664 69.859 72.527 69.859 
c 73.391 69.859 74.09 69.16 74.09 68.297 c f
0 g
74.09 68.297 m 74.09 67.434 73.391 66.734 72.527 66.734 c 71.664 66.734
 70.965 67.434 70.965 68.297 c 70.965 69.16 71.664 69.859 72.527 69.859 
c 73.391 69.859 74.09 69.16 74.09 68.297 c h
74.09 68.297 m 73.934 68.297 l 73.934 67.52 73.305 66.891 72.527 66.891
 c 71.75 66.891 71.121 67.52 71.121 68.297 c 71.121 69.074 71.75 69.703 
72.527 69.703 c 73.305 69.703 73.934 69.074 73.934 68.297 c f
1 g
108.09 55.598 m 108.09 54.734 107.391 54.035 106.527 54.035 c 105.664 54.035
 104.965 54.734 104.965 55.598 c 104.965 56.461 105.664 57.16 106.527 57.16
 c 107.391 57.16 108.09 56.461 108.09 55.598 c f
0 g
108.09 55.598 m 108.09 54.734 107.391 54.035 106.527 54.035 c 105.664 54.035
 104.965 54.734 104.965 55.598 c 104.965 56.461 105.664 57.16 106.527 57.16
 c 107.391 57.16 108.09 56.461 108.09 55.598 c h
108.09 55.598 m 107.934 55.598 l 107.934 54.82 107.305 54.191 106.527 54.191
 c 105.75 54.191 105.121 54.82 105.121 55.598 c 105.121 56.375 105.75 57.004
 106.527 57.004 c 107.305 57.004 107.934 56.375 107.934 55.598 c f
0.567042 w
0 J
q 1 0 0 -1 0 0 cm
21.465 -3.062 170.086 -136.047 re S Q
0.398506 w
q 1 0 0 -1 0 0 cm
21.449 -139.125 m 21.449 -134.879 l S Q
q 1 0 0 -1 0 0 cm
55.477 -139.125 m 55.477 -134.879 l S Q
q 1 0 0 -1 0 0 cm
89.469 -139.125 m 89.469 -134.879 l S Q
q 1 0 0 -1 0 0 cm
123.496 -139.125 m 123.496 -134.879 l S Q
q 1 0 0 -1 0 0 cm
157.523 -139.125 m 157.523 -134.879 l S Q
q 1 0 0 -1 0 0 cm
191.516 -139.125 m 191.516 -134.879 l S Q
q 1 0 0 -1 0 0 cm
21.449 -139.125 m 21.449 -134.879 l S Q
q 1 0 0 -1 0 0 cm
21.477 -139.117 m 25.719 -139.117 l S Q
0.398504 w
q 1 0 0 -1 0 0 cm
21.445 -105.117 m 25.711 -105.117 l S Q
0.398505 w
q 1 0 0 -1 0 0 cm
21.453 -71.098 m 25.711 -71.098 l S Q
0.398507 w
q 1 0 0 -1 0 0 cm
21.457 -37.082 m 25.707 -37.082 l S Q
q 1 0 0 -1 0 0 cm
21.465 -3.062 m 25.707 -3.062 l S Q
0.398506 w
q 1 0 0 -1 0 0 cm
21.477 -139.117 m 25.719 -139.117 l S Q
0.398507 w
q 1 0 0 -1 0 0 cm
21.465 -3.062 m 21.465 -7.305 l S Q
q 1 0 0 -1 0 0 cm
55.469 -3.062 m 55.469 -7.305 l S Q
q 1 0 0 -1 0 0 cm
89.473 -3.062 m 89.473 -7.305 l S Q
q 1 0 0 -1 0 0 cm
123.512 -3.062 m 123.512 -7.305 l S Q
q 1 0 0 -1 0 0 cm
157.512 -3.062 m 157.512 -7.305 l S Q
q 1 0 0 -1 0 0 cm
191.516 -3.062 m 191.516 -7.305 l S Q
q 1 0 0 -1 0 0 cm
21.465 -3.062 m 21.465 -7.305 l S Q
0.398506 w
q 1 0 0 -1 0 0 cm
191.551 -139.117 m 187.309 -139.117 l S Q
0.398504 w
q 1 0 0 -1 0 0 cm
191.539 -105.117 m 187.27 -105.117 l S Q
0.398505 w
q 1 0 0 -1 0 0 cm
191.52 -71.098 m 187.297 -71.098 l S Q
0.398507 w
q 1 0 0 -1 0 0 cm
191.523 -37.082 m 187.273 -37.082 l S Q
q 1 0 0 -1 0 0 cm
191.551 -3.062 m 187.273 -3.062 l S Q
0.398506 w
q 1 0 0 -1 0 0 cm
191.551 -139.117 m 187.309 -139.117 l S Q
23.41 145.652 m 23.41 144.043 22.676 142.59 21.426 142.59 c 20.16 142.59
 19.426 144.043 19.426 145.652 c 19.426 147.277 20.113 148.715 21.426 148.715
 c 22.629 148.715 23.41 147.277 23.41 145.652 c h
22.551 145.652 m 22.551 146.949 22.426 148.465 21.426 148.465 c 20.473 
148.465 20.285 146.949 20.285 145.652 c 20.285 144.574 20.41 142.824 21.426
 142.824 c 22.426 142.824 22.551 144.574 22.551 145.652 c h
22.551 145.652 m f
54.012 145.652 m 54.012 144.043 53.277 142.59 52.027 142.59 c 50.762 142.59
 50.027 144.043 50.027 145.652 c 50.027 147.277 50.715 148.715 52.027 148.715
 c 53.23 148.715 54.012 147.277 54.012 145.652 c h
53.152 145.652 m 53.152 146.949 53.027 148.465 52.027 148.465 c 51.074 
148.465 50.887 146.949 50.887 145.652 c 50.887 144.574 51.012 142.824 52.027
 142.824 c 53.027 142.824 53.152 144.574 53.152 145.652 c h
53.152 145.652 m f
55.938 148.23 m 55.938 147.949 55.719 147.73 55.438 147.73 c 55.156 147.73
 54.938 147.949 54.938 148.23 c 54.938 148.512 55.156 148.73 55.438 148.73
 c 55.719 148.73 55.938 148.512 55.938 148.23 c h
55.938 148.23 m f
60.883 147.449 m 60.727 147.418 l 60.461 147.871 60.242 147.949 59.805 
147.949 c 57.742 147.949 l 59.164 146.652 60.461 145.48 60.461 144.168 c
 60.461 143.246 59.664 142.59 58.789 142.59 c 57.93 142.59 57.242 143.059
 56.977 144.277 c 57.18 144.277 l 57.43 143.777 57.773 143.262 58.461 143.262
 c 59.242 143.262 59.68 143.855 59.68 144.527 c 59.68 145.496 58.648 146.918
 56.883 148.465 c 56.883 148.605 l 60.414 148.605 l h
60.883 147.449 m f
88.09 145.652 m 88.09 144.043 87.355 142.59 86.105 142.59 c 84.84 142.59
 84.105 144.043 84.105 145.652 c 84.105 147.277 84.793 148.715 86.105 148.715
 c 87.309 148.715 88.09 147.277 88.09 145.652 c h
87.23 145.652 m 87.23 146.949 87.105 148.465 86.105 148.465 c 85.152 148.465
 84.965 146.949 84.965 145.652 c 84.965 144.574 85.09 142.824 86.105 142.824
 c 87.105 142.824 87.23 144.574 87.23 145.652 c h
87.23 145.652 m f
90.016 148.23 m 90.016 147.949 89.797 147.73 89.516 147.73 c 89.234 147.73
 89.016 147.949 89.016 148.23 c 89.016 148.512 89.234 148.73 89.516 148.73
 c 89.797 148.73 90.016 148.512 90.016 148.23 c h
90.016 148.23 m f
94.945 147.121 m 94.945 146.512 l 94.07 146.512 l 94.07 142.59 l 93.633
 142.59 l 91.039 146.496 l 91.039 147.121 l 93.336 147.121 l 93.336 148.605
 l 94.07 148.605 l 94.07 147.121 l h
93.336 146.512 m 91.398 146.512 l 93.32 143.527 l 93.336 143.527 l h
93.336 146.512 m f
122.051 145.652 m 122.051 144.043 121.316 142.59 120.066 142.59 c 118.801
 142.59 118.066 144.043 118.066 145.652 c 118.066 147.277 118.754 148.715
 120.066 148.715 c 121.27 148.715 122.051 147.277 122.051 145.652 c h
121.191 145.652 m 121.191 146.949 121.066 148.465 120.066 148.465 c 119.113
 148.465 118.926 146.949 118.926 145.652 c 118.926 144.574 119.051 142.824
 120.066 142.824 c 121.066 142.824 121.191 144.574 121.191 145.652 c h
121.191 145.652 m f
123.977 148.23 m 123.977 147.949 123.758 147.73 123.477 147.73 c 123.195
 147.73 122.977 147.949 122.977 148.23 c 122.977 148.512 123.195 148.73 
123.477 148.73 c 123.758 148.73 123.977 148.512 123.977 148.23 c h
123.977 148.23 m f
128.844 146.59 m 128.844 145.605 128.141 144.871 127.25 144.871 c 126.797
 144.871 126.422 145.012 126.031 145.324 c 126.422 143.73 127.594 142.73
 128.719 142.715 c 128.719 142.559 l 125.953 142.559 125.078 144.902 125.078
 146.23 c 125.078 147.652 125.906 148.715 127.016 148.715 c 128.031 148.715
 128.844 147.762 128.844 146.59 c h
128.078 147.043 m 128.078 147.871 127.703 148.449 127.109 148.449 c 126.188
 148.449 125.906 147.105 125.906 146.387 c 125.906 146.152 125.938 145.902
 125.984 145.605 c 126.375 145.355 126.688 145.246 127 145.246 c 127.906
 145.246 128.078 146.293 128.078 147.043 c h
128.078 147.043 m f
156.133 145.652 m 156.133 144.043 155.398 142.59 154.148 142.59 c 152.883
 142.59 152.148 144.043 152.148 145.652 c 152.148 147.277 152.836 148.715
 154.148 148.715 c 155.352 148.715 156.133 147.277 156.133 145.652 c h
155.273 145.652 m 155.273 146.949 155.148 148.465 154.148 148.465 c 153.195
 148.465 153.008 146.949 153.008 145.652 c 153.008 144.574 153.133 142.824
 154.148 142.824 c 155.148 142.824 155.273 144.574 155.273 145.652 c h
155.273 145.652 m f
158.055 148.23 m 158.055 147.949 157.836 147.73 157.555 147.73 c 157.273
 147.73 157.055 147.949 157.055 148.23 c 157.055 148.512 157.273 148.73 
157.555 148.73 c 157.836 148.73 158.055 148.512 158.055 148.23 c h
158.055 148.23 m f
162.707 147.23 m 162.707 146.59 162.426 146.105 161.332 145.293 c 162.02
 144.918 162.551 144.496 162.551 143.84 c 162.551 143.152 161.91 142.559
 160.957 142.559 c 160.113 142.559 159.316 143.105 159.316 143.949 c 159.316
 144.605 159.66 144.996 160.426 145.605 c 159.566 146.262 159.254 146.59
 159.254 147.262 c 159.254 148.012 159.926 148.715 160.973 148.715 c 162.191
 148.715 162.707 147.887 162.707 147.23 c h
161.941 143.824 m 161.941 144.465 161.566 144.809 161.082 145.137 c 160.488
 144.715 159.973 144.246 159.973 143.73 c 159.973 143.246 160.316 142.824
 160.926 142.824 c 161.598 142.824 161.941 143.246 161.941 143.824 c h
162.066 147.48 m 162.066 148.059 161.629 148.449 161.051 148.449 c 160.363
 148.449 159.926 147.902 159.926 147.168 c 159.926 146.496 160.254 146.105
 160.66 145.762 c 161.645 146.512 162.066 146.887 162.066 147.48 c h
162.066 147.48 m f
189.34 148.605 m 189.34 148.465 l 188.746 148.465 188.527 148.48 188.527
 147.309 c 188.527 147.293 188.527 142.559 188.527 142.559 c 188.402 142.559
 l 186.871 143.293 l 186.918 143.434 l 187.246 143.293 187.324 143.262 187.449
 143.262 c 187.715 143.262 187.762 143.496 187.762 143.809 c 187.762 147.309
 l 187.762 148.48 187.543 148.449 186.949 148.465 c 186.949 148.605 l h
189.34 148.605 m f
192.016 148.23 m 192.016 147.949 191.797 147.73 191.516 147.73 c 191.234
 147.73 191.016 147.949 191.016 148.23 c 191.016 148.512 191.234 148.73 
191.516 148.73 c 191.797 148.73 192.016 148.512 192.016 148.23 c h
192.016 148.23 m f
196.93 145.652 m 196.93 144.043 196.195 142.59 194.945 142.59 c 193.68 
142.59 192.945 144.043 192.945 145.652 c 192.945 147.277 193.633 148.715
 194.945 148.715 c 196.148 148.715 196.93 147.277 196.93 145.652 c h
196.07 145.652 m 196.07 146.949 195.945 148.465 194.945 148.465 c 193.992
 148.465 193.805 146.949 193.805 145.652 c 193.805 144.574 193.93 142.824
 194.945 142.824 c 195.945 142.824 196.07 144.574 196.07 145.652 c h
196.07 145.652 m f
17.773 139.176 m 17.773 137.566 17.039 136.113 15.789 136.113 c 14.523 
136.113 13.789 137.566 13.789 139.176 c 13.789 140.801 14.477 142.238 15.789
 142.238 c 16.992 142.238 17.773 140.801 17.773 139.176 c h
16.914 139.176 m 16.914 140.473 16.789 141.988 15.789 141.988 c 14.836 
141.988 14.648 140.473 14.648 139.176 c 14.648 138.098 14.773 136.348 15.789
 136.348 c 16.789 136.348 16.914 138.098 16.914 139.176 c h
16.914 139.176 m f
17.805 107.012 m 17.648 106.98 l 17.383 107.434 17.164 107.512 16.727 107.512
 c 14.664 107.512 l 16.086 106.215 17.383 105.043 17.383 103.73 c 17.383
 102.809 16.586 102.152 15.711 102.152 c 14.852 102.152 14.164 102.621 13.898
 103.84 c 14.102 103.84 l 14.352 103.34 14.695 102.824 15.383 102.824 c 
16.164 102.824 16.602 103.418 16.602 104.09 c 16.602 105.059 15.57 106.48
 13.805 108.027 c 13.805 108.168 l 17.336 108.168 l h
17.805 107.012 m f
17.789 72.602 m 17.789 71.992 l 16.914 71.992 l 16.914 68.07 l 16.477 68.07
 l 13.883 71.977 l 13.883 72.602 l 16.18 72.602 l 16.18 74.086 l 16.914 
74.086 l 16.914 72.602 l h
16.18 71.992 m 14.242 71.992 l 16.164 69.008 l 16.18 69.008 l h
16.18 71.992 m f
17.727 38.113 m 17.727 37.129 17.023 36.395 16.133 36.395 c 15.68 36.395
 15.305 36.535 14.914 36.848 c 15.305 35.254 16.477 34.254 17.602 34.238
 c 17.602 34.082 l 14.836 34.082 13.961 36.426 13.961 37.754 c 13.961 39.176
 14.789 40.238 15.898 40.238 c 16.914 40.238 17.727 39.285 17.727 38.113
 c h
16.961 38.566 m 16.961 39.395 16.586 39.973 15.992 39.973 c 15.07 39.973
 14.789 38.629 14.789 37.91 c 14.789 37.676 14.82 37.426 14.867 37.129 c
 15.258 36.879 15.57 36.77 15.883 36.77 c 16.789 36.77 16.961 37.816 16.961
 38.566 c h
16.961 38.566 m f
17.508 4.672 m 17.508 4.031 17.227 3.547 16.133 2.734 c 16.82 2.359 17.352
 1.938 17.352 1.281 c 17.352 0.594 16.711 0 15.758 0 c 14.914 0 14.117 0.547
 14.117 1.391 c 14.117 2.047 14.461 2.438 15.227 3.047 c 14.367 3.703 14.055
 4.031 14.055 4.703 c 14.055 5.453 14.727 6.156 15.773 6.156 c 16.992 6.156
 17.508 5.328 17.508 4.672 c h
16.742 1.266 m 16.742 1.906 16.367 2.25 15.883 2.578 c 15.289 2.156 14.773
 1.688 14.773 1.172 c 14.773 0.688 15.117 0.266 15.727 0.266 c 16.398 0.266
 16.742 0.688 16.742 1.266 c h
16.867 4.922 m 16.867 5.5 16.43 5.891 15.852 5.891 c 15.164 5.891 14.727
 5.344 14.727 4.609 c 14.727 3.938 15.055 3.547 15.461 3.203 c 16.445 3.953
 16.867 4.328 16.867 4.922 c h
16.867 4.922 m f
106.098 154.441 m 106.098 154.223 105.895 154.113 105.723 154.113 c 105.27
 154.113 104.691 154.785 104.254 155.488 c 104.238 155.488 104.176 155.191
 104.176 155.191 c 104.035 154.598 103.863 154.254 103.551 154.113 c 103.551
 154.113 102.535 154.316 102.41 154.363 c 102.41 154.52 l 102.598 154.473
 102.738 154.441 102.832 154.441 c 103.332 154.441 103.41 154.926 103.754
 156.223 c 103.348 156.816 102.707 157.816 102.457 157.816 c 102.254 157.816
 102.238 157.598 101.957 157.598 c 101.77 157.598 101.629 157.738 101.629
 157.926 c 101.629 158.16 101.801 158.316 102.051 158.316 c 102.691 158.316
 103.27 157.191 103.816 156.488 c 103.848 156.551 104.051 157.348 104.051
 157.348 c 104.27 158.176 104.441 158.316 104.66 158.316 c 104.941 158.316
 105.363 158.035 105.785 157.254 c 105.66 157.176 l 105.504 157.379 105.254
 157.801 105.02 157.801 c 104.707 157.801 104.535 156.535 104.316 155.738
 c 104.363 155.66 104.988 154.66 105.316 154.66 c 105.488 154.66 105.645
 154.801 105.801 154.801 c 106.02 154.801 106.098 154.613 106.098 154.441
 c h
106.098 154.441 m f
106.5 156.004 m 107.078 156.035 107.156 156.113 107.156 156.629 c 107.156
 159.723 l 107.156 160.254 107.062 160.332 106.5 160.363 c 106.5 160.488
 l 108.828 160.488 l 109.359 160.488 109.859 160.348 110.125 160.098 c 110.375
 159.879 110.5 159.566 110.5 159.238 c 110.5 158.926 110.391 158.645 110.172
 158.441 c 109.953 158.254 109.766 158.176 109.312 158.066 c 109.672 157.973
 109.828 157.91 109.984 157.754 c 110.172 157.598 110.266 157.348 110.266
 157.066 c 110.266 156.285 109.641 155.879 108.438 155.879 c 106.5 155.879
 l h
107.875 158.223 m 108.547 158.223 108.875 158.254 109.125 158.363 c 109.516
 158.52 109.703 158.816 109.703 159.238 c 109.703 159.613 109.562 159.895
 109.281 160.051 c 109.062 160.176 108.766 160.223 108.312 160.223 c 107.969
 160.223 107.875 160.16 107.875 159.941 c h
107.875 157.941 m 107.875 156.348 l 107.875 156.191 107.906 156.145 108.031
 156.145 c 108.328 156.129 l 109.109 156.113 109.562 156.473 109.562 157.082
 c 109.562 157.645 109.203 157.926 108.531 157.941 c h
107.875 157.941 m f
0.547 103.77 m 0.188 103.77 0 104.16 0 104.504 c 0 105.754 1.797 106.363
 2.438 106.551 c 2.438 106.551 2.438 107.129 2.438 107.363 c 2.781 107.457
 l 2.781 106.645 l 3.891 106.926 6.719 107.457 7.672 108.004 c 8.109 108.254
 8.172 108.645 8.172 108.816 c 8.172 108.879 8.141 108.957 8.094 108.957
 c 7.969 108.957 7.969 108.77 7.781 108.77 c 7.672 108.77 7.547 108.863 
7.547 109.051 c 7.547 109.285 7.734 109.457 7.922 109.457 c 8.172 109.457
 8.359 109.191 8.359 108.816 c 8.359 107.066 4.594 106.41 2.781 105.957 
c 2.781 105.223 l 2.438 105.145 l 2.438 105.863 l 1.484 105.566 0.188 105.27
 0.188 104.488 c 0.188 104.379 0.266 104.27 0.344 104.27 c 0.438 104.27 
0.5 104.41 0.672 104.41 c 0.828 104.41 0.953 104.301 0.953 104.145 c 0.953
 103.941 0.766 103.77 0.547 103.77 c h
0.547 103.77 m f
8.594 100.137 m 8.562 100.449 8.5 100.527 7.984 100.762 c 4.016 102.496
 l 4.016 102.637 l 7.438 104.09 l 8.453 104.543 8.578 104.621 8.594 104.949
 c 8.719 104.949 l 8.719 103.574 l 8.594 103.574 l 8.594 103.902 8.5 104.043
 8.297 104.043 c 8.219 104.043 8.125 104.027 8.031 103.996 c 7.219 103.668
 l 7.219 101.84 l 7.875 101.559 l 8.078 101.48 8.25 101.434 8.344 101.434
 c 8.531 101.434 8.578 101.543 8.594 101.918 c 8.719 101.918 l 8.719 100.137
 l h
6.922 103.559 m 5.016 102.746 l 6.922 101.949 l h
6.922 103.559 m f
0 95.75 m 0 96.188 l 8.359 99.297 l 8.359 98.844 l h
0 95.75 m f
6.438 95.156 m 6.438 93.062 l 6.297 93.062 l 6.297 93.234 l 6.266 93.609
 6.172 93.719 5.844 93.734 c 4.188 93.734 l 5.859 92.469 l 5.906 92.438 
5.953 92.406 5.984 92.391 c 6.062 92.312 6.125 92.281 6.172 92.281 c 6.25
 92.281 6.297 92.359 6.297 92.469 c 6.297 92.641 l 6.438 92.641 l 6.438 
90.688 l 6.297 90.688 l 6.281 91.078 6.109 91.359 5.641 91.734 c 3.906 93.109
 l 3.672 92.844 l 2.656 91.734 2.516 91.484 2.531 90.906 c 2.406 90.906 
l 2.406 92.75 l 2.531 92.75 l 2.531 92.391 2.578 92.297 2.688 92.297 c 2.766
 92.297 2.891 92.375 3 92.5 c 4.094 93.734 l 0.328 93.734 l 0.312 93.766
 l 0.422 94.109 0.5 94.375 0.641 94.891 c 0.703 95.156 l 0.844 95.156 l 
0.844 95.047 0.828 94.953 0.828 94.875 c 0.828 94.562 0.953 94.484 1.375
 94.484 c 5.703 94.484 l 6.172 94.5 6.203 94.516 6.297 95.156 c h
6.438 95.156 m f
0.672 90.637 m 0.75 89.965 0.828 89.887 1.484 89.887 c 5.359 89.887 l 6.125
 89.887 6.203 89.949 6.266 90.637 c 6.438 90.637 l 6.438 88.121 l 6.266 
88.121 l 6.25 88.824 6.125 88.949 5.453 88.965 c 3.828 88.965 l 3.844 88.73
 3.859 88.574 3.859 88.34 c 3.859 87.637 3.766 87.168 3.547 86.777 c 3.266
 86.246 2.719 85.918 2.125 85.918 c 1.75 85.918 1.406 86.043 1.141 86.277
 c 0.75 86.637 0.5 87.418 0.5 88.262 c 0.5 90.637 l h
1.141 88.965 m 0.891 88.965 0.828 88.902 0.828 88.668 c 0.828 87.449 1.25
 86.887 2.172 86.887 c 3.047 86.887 3.5 87.418 3.5 88.449 c 3.5 88.637 3.484
 88.762 3.469 88.965 c h
1.141 88.965 m f
5.844 81.887 m 5.969 82.043 6.016 82.152 6.016 82.293 c 6.016 82.496 5.891
 82.559 5.5 82.559 c 3.75 82.559 l 3.281 82.559 3.016 82.605 2.812 82.73
 c 2.484 82.934 2.312 83.324 2.312 83.84 c 2.312 84.684 2.75 85.355 3.312
 85.355 c 3.516 85.355 3.703 85.184 3.703 84.965 c 3.703 84.746 3.516 84.559
 3.328 84.559 c 3.297 84.559 3.25 84.574 3.188 84.574 c 3.094 84.605 3.031
 84.605 2.969 84.605 c 2.719 84.605 2.531 84.324 2.531 83.965 c 2.531 83.527
 2.781 83.277 3.266 83.277 c 3.812 83.277 l 4.359 84.652 4.453 84.809 4.781
 85.199 c 4.969 85.402 5.266 85.527 5.562 85.527 c 6.125 85.527 6.531 85.137
 6.531 84.574 c 6.531 84.184 6.344 83.824 5.875 83.277 c 6.344 83.23 6.531
 83.059 6.531 82.699 c 6.531 82.387 6.422 82.199 6.078 81.887 c h
5.328 83.277 m 5.609 83.277 5.703 83.324 5.812 83.512 c 5.938 83.746 6 
83.98 6 84.168 c 6 84.48 5.703 84.73 5.312 84.73 c 5.281 84.73 l 4.75 84.73
 4.406 84.324 4.031 83.277 c h
5.328 83.277 m f
5.844 73.367 m 5.969 73.523 6.016 73.633 6.016 73.773 c 6.016 73.977 5.891
 74.039 5.5 74.039 c 3.75 74.039 l 3.281 74.039 3.016 74.086 2.812 74.211
 c 2.484 74.414 2.312 74.805 2.312 75.32 c 2.312 76.164 2.75 76.836 3.312
 76.836 c 3.516 76.836 3.703 76.664 3.703 76.445 c 3.703 76.227 3.516 76.039
 3.328 76.039 c 3.297 76.039 3.25 76.055 3.188 76.055 c 3.094 76.086 3.031
 76.086 2.969 76.086 c 2.719 76.086 2.531 75.805 2.531 75.445 c 2.531 75.008
 2.781 74.758 3.266 74.758 c 3.812 74.758 l 4.359 76.133 4.453 76.289 4.781
 76.68 c 4.969 76.883 5.266 77.008 5.562 77.008 c 6.125 77.008 6.531 76.617
 6.531 76.055 c 6.531 75.664 6.344 75.305 5.875 74.758 c 6.344 74.711 6.531
 74.539 6.531 74.18 c 6.531 73.867 6.422 73.68 6.078 73.367 c h
5.328 74.758 m 5.609 74.758 5.703 74.805 5.812 74.992 c 5.938 75.227 6 
75.461 6 75.648 c 6 75.961 5.703 76.211 5.312 76.211 c 5.281 76.211 l 4.75
 76.211 4.406 75.805 4.031 74.758 c h
5.328 74.758 m f
6.438 73.223 m 6.438 71.316 l 6.297 71.316 l 6.281 71.77 6.156 71.91 5.844
 71.91 c 3.312 71.91 l 2.906 71.473 2.812 71.285 2.812 70.988 c 2.812 70.551
 3.078 70.332 3.672 70.332 c 5.547 70.332 l 6.125 70.348 6.281 70.457 6.297
 70.895 c 6.438 70.895 l 6.438 69.035 l 6.297 69.035 l 6.266 69.473 6.156
 69.566 5.719 69.582 c 3.656 69.582 l 2.812 69.582 2.312 69.973 2.312 70.629
 c 2.312 71.051 2.469 71.332 3.031 71.941 c 2.328 71.941 l 2.312 72.004 
l 2.484 72.457 2.578 72.77 2.719 73.238 c 2.875 73.238 l 2.844 73.176 2.828
 73.098 2.828 72.988 c 2.828 72.738 2.969 72.66 3.406 72.66 c 5.625 72.66
 l 6.156 72.676 6.281 72.77 6.297 73.223 c h
6.438 73.223 m f
5.922 64.531 m 5.922 64.656 5.922 64.703 5.922 64.734 c 5.922 65.047 5.828
 65.141 5.422 65.141 c 0.328 65.141 l 0.312 65.172 l 0.453 65.594 0.547 
65.906 0.703 66.5 c 0.844 66.5 l 0.844 66.422 0.844 66.375 0.844 66.297 
c 0.844 65.969 0.938 65.891 1.297 65.891 c 2.703 65.891 l 2.406 66.234 2.312
 66.469 2.312 66.828 c 2.312 67.859 3.328 68.703 4.594 68.703 c 5.75 68.703
 6.531 68.031 6.531 67.031 c 6.531 66.531 6.344 66.188 5.922 65.891 c 6.5
 65.891 l 6.531 65.859 l 6.062 64.531 l h
5.516 65.891 m 5.578 65.891 5.688 65.953 5.797 66.047 c 5.969 66.188 6.062
 66.422 6.062 66.688 c 6.062 67.438 5.344 67.922 4.234 67.922 c 3.234 67.922
 2.562 67.484 2.562 66.797 c 2.562 66.312 2.984 65.891 3.453 65.891 c h
5.516 65.891 m f
0.547 53.609 m 0.188 53.609 0 54 0 54.344 c 0 55.594 1.797 56.203 2.438
 56.391 c 2.438 56.391 2.438 56.969 2.438 57.203 c 2.781 57.297 l 2.781 
56.484 l 3.891 56.766 6.719 57.297 7.672 57.844 c 8.109 58.094 8.172 58.484
 8.172 58.656 c 8.172 58.719 8.141 58.797 8.094 58.797 c 7.969 58.797 7.969
 58.609 7.781 58.609 c 7.672 58.609 7.547 58.703 7.547 58.891 c 7.547 59.125
 7.734 59.297 7.922 59.297 c 8.172 59.297 8.359 59.031 8.359 58.656 c 8.359
 56.906 4.594 56.25 2.781 55.797 c 2.781 55.062 l 2.438 54.984 l 2.438 55.703
 l 1.484 55.406 0.188 55.109 0.188 54.328 c 0.188 54.219 0.266 54.109 0.344
 54.109 c 0.438 54.109 0.5 54.25 0.672 54.25 c 0.828 54.25 0.953 54.141 
0.953 53.984 c 0.953 53.781 0.766 53.609 0.547 53.609 c h
0.547 53.609 m f
4.234 54.773 m 4.266 54.195 4.344 54.117 4.859 54.117 c 7.953 54.117 l 
8.484 54.117 8.562 54.211 8.594 54.773 c 8.719 54.773 l 8.719 52.445 l 8.719
 51.914 8.578 51.414 8.328 51.148 c 8.109 50.898 7.797 50.773 7.469 50.773
 c 7.156 50.773 6.875 50.883 6.672 51.102 c 6.484 51.32 6.406 51.508 6.297
 51.961 c 6.203 51.602 6.141 51.445 5.984 51.289 c 5.828 51.102 5.578 51.008
 5.297 51.008 c 4.516 51.008 4.109 51.633 4.109 52.836 c 4.109 54.773 l 
h
6.453 53.398 m 6.453 52.727 6.484 52.398 6.594 52.148 c 6.75 51.758 7.047
 51.57 7.469 51.57 c 7.844 51.57 8.125 51.711 8.281 51.992 c 8.406 52.211
 8.453 52.508 8.453 52.961 c 8.453 53.305 8.391 53.398 8.172 53.398 c h
6.172 53.398 m 4.578 53.398 l 4.422 53.398 4.375 53.367 4.375 53.242 c 
4.359 52.945 l 4.344 52.164 4.703 51.711 5.312 51.711 c 5.875 51.711 6.156
 52.07 6.172 52.742 c h
6.172 53.398 m f
0 45.832 m 0 46.27 l 8.359 49.379 l 8.359 48.926 l h
0 45.832 m f
6.438 45.234 m 6.438 43.141 l 6.297 43.141 l 6.297 43.312 l 6.266 43.688
 6.172 43.797 5.844 43.812 c 4.188 43.812 l 5.859 42.547 l 5.906 42.516 
5.953 42.484 5.984 42.469 c 6.062 42.391 6.125 42.359 6.172 42.359 c 6.25
 42.359 6.297 42.438 6.297 42.547 c 6.297 42.719 l 6.438 42.719 l 6.438 
40.766 l 6.297 40.766 l 6.281 41.156 6.109 41.438 5.641 41.812 c 3.906 43.188
 l 3.672 42.922 l 2.656 41.812 2.516 41.562 2.531 40.984 c 2.406 40.984 
l 2.406 42.828 l 2.531 42.828 l 2.531 42.469 2.578 42.375 2.688 42.375 c
 2.766 42.375 2.891 42.453 3 42.578 c 4.094 43.812 l 0.328 43.812 l 0.312
 43.844 l 0.422 44.188 0.5 44.453 0.641 44.969 c 0.703 45.234 l 0.844 45.234
 l 0.844 45.125 0.828 45.031 0.828 44.953 c 0.828 44.641 0.953 44.562 1.375
 44.562 c 5.703 44.562 l 6.172 44.578 6.203 44.594 6.297 45.234 c h
6.438 45.234 m f
0.672 40.715 m 0.75 40.043 0.828 39.965 1.484 39.965 c 5.359 39.965 l 6.125
 39.965 6.203 40.027 6.266 40.715 c 6.438 40.715 l 6.438 38.199 l 6.266 
38.199 l 6.25 38.902 6.125 39.027 5.453 39.043 c 3.828 39.043 l 3.844 38.809
 3.859 38.652 3.859 38.418 c 3.859 37.715 3.766 37.246 3.547 36.855 c 3.266
 36.324 2.719 35.996 2.125 35.996 c 1.75 35.996 1.406 36.121 1.141 36.355
 c 0.75 36.715 0.5 37.496 0.5 38.34 c 0.5 40.715 l h
1.141 39.043 m 0.891 39.043 0.828 38.98 0.828 38.746 c 0.828 37.527 1.25
 36.965 2.172 36.965 c 3.047 36.965 3.5 37.496 3.5 38.527 c 3.5 38.715 3.484
 38.84 3.469 39.043 c h
1.141 39.043 m f
5.844 31.969 m 5.969 32.125 6.016 32.234 6.016 32.375 c 6.016 32.578 5.891
 32.641 5.5 32.641 c 3.75 32.641 l 3.281 32.641 3.016 32.688 2.812 32.812
 c 2.484 33.016 2.312 33.406 2.312 33.922 c 2.312 34.766 2.75 35.438 3.312
 35.438 c 3.516 35.438 3.703 35.266 3.703 35.047 c 3.703 34.828 3.516 34.641
 3.328 34.641 c 3.297 34.641 3.25 34.656 3.188 34.656 c 3.094 34.688 3.031
 34.688 2.969 34.688 c 2.719 34.688 2.531 34.406 2.531 34.047 c 2.531 33.609
 2.781 33.359 3.266 33.359 c 3.812 33.359 l 4.359 34.734 4.453 34.891 4.781
 35.281 c 4.969 35.484 5.266 35.609 5.562 35.609 c 6.125 35.609 6.531 35.219
 6.531 34.656 c 6.531 34.266 6.344 33.906 5.875 33.359 c 6.344 33.312 6.531
 33.141 6.531 32.781 c 6.531 32.469 6.422 32.281 6.078 31.969 c h
5.328 33.359 m 5.609 33.359 5.703 33.406 5.812 33.594 c 5.938 33.828 6 
34.062 6 34.25 c 6 34.562 5.703 34.812 5.312 34.812 c 5.281 34.812 l 4.75
 34.812 4.406 34.406 4.031 33.359 c h
5.328 33.359 m f
Q Q
showpage
%%Trailer
end
%%EOF
