<?xml version="1.0" encoding="UTF-8" standalone="no"?>
<svg
   width="202pt"
   height="171pt"
   viewBox="0 0 202 171"
   version="1.2"
   id="svg221"
   xmlns="http://www.w3.org/2000/svg"
   xmlns:svg="http://www.w3.org/2000/svg">
  <defs
     id="defs225" />
  <g
     id="surface1">
    <path
       style="fill:none;stroke-width:8.5036;stroke-linecap:butt;stroke-linejoin:miter;stroke:rgb(0%,0%,0%);stroke-opacity:1;stroke-miterlimit:10;"
       d="M 659.726562 1242.8125 L 656.25 1245.585938 L 633.671875 1263.984375 L 610.742188 1282.734375 L 588.164062 1301.523438 L 565.546875 1319.921875 L 542.617188 1339.023438 L 520.039062 1357.8125 L 474.882812 1396.015625 L 451.953125 1415.46875 L 384.21875 1473.828125 L 361.289062 1493.632812 L 338.710938 1513.4375 L 316.09375 1533.59375 L 293.164062 1553.398438 L 248.007812 1593.710938 L 225.429688 1614.179688 L 202.5 1634.6875 L 179.921875 1655.195312 L 157.34375 1676.054688 L 134.765625 1696.875 "
       transform="matrix(0.1,0,0,-0.1,0,171)"
       id="path2" />
    <path
       style="fill:none;stroke-width:8.5036;stroke-linecap:butt;stroke-linejoin:miter;stroke:rgb(0%,0%,0%);stroke-opacity:1;stroke-miterlimit:10"
       d="M 659.805 1242.93 L 678.75 1227.42 L 681.804 1224.97 M 692.871 1216.07 L 701.484 1209.14 L 715.024 1198.3 M 724.258 1190.9 M 726.105 1189.41 L 746.992 1172.62 L 748.247 1171.63 M 759.397 1162.83 L 769.727 1154.69 L 781.645 1145.18 M 792.148 1136.8 M 792.748 1136.32 L 814.883 1118.87"
       transform="matrix(0.1,0,0,-0.1,0,171)"
       id="path4" />
    <path
       style="fill:none;stroke-width:8.5036;stroke-linecap:butt;stroke-linejoin:miter;stroke:rgb(0%,0%,0%);stroke-opacity:1;stroke-miterlimit:10;"
       d="M 659.804688 1242.929688 L 678.75 1215.703125 L 701.484375 1183.984375 L 724.257812 1152.617188 L 746.992188 1120.9375 L 769.726562 1089.921875 L 792.148438 1058.554688 L 814.882812 1027.539062 L 837.617188 996.835938 L 860.390625 966.171875 L 883.125 935.507812 L 905.507812 904.84375 L 928.28125 874.84375 L 951.015625 844.53125 L 973.75 814.53125 L 996.523438 784.570312 L 1018.90625 754.570312 L 1041.640625 724.921875 L 1064.414062 695.3125 L 1109.882812 636.71875 L 1132.304688 607.421875 L 1155.039062 578.476562 L 1177.773438 549.492188 L 1200.546875 520.898438 L 1223.28125 491.953125 L 1245.703125 463.710938 L 1268.4375 435.078125 "
       transform="matrix(0.1,0,0,-0.1,0,171)"
       id="path6" />
    <path
       style="fill:none;stroke-width:8.50361;stroke-linecap:butt;stroke-linejoin:miter;stroke:rgb(0%,0%,0%);stroke-opacity:1;stroke-miterlimit:10"
       d="M 659.57 1242.93 L 656.094 1247.77 L 642.782 1266.62 M 634.405 1278.48 L 633.633 1279.57 L 617.605 1302.16 M 610.82 1311.72 M 609.215 1314.01 L 592.534 1337.77 M 588.008 1344.22 M 584.23 1349.68 L 567.709 1373.56 M 565.547 1376.68 M 559.389 1385.45 L 542.734 1409.18"
       transform="matrix(0.1,0,0,-0.1,0,171)"
       id="path8" />
    <path
       style="fill:none;stroke-width:8.50359;stroke-linecap:butt;stroke-linejoin:miter;stroke:rgb(0%,0%,0%);stroke-opacity:1;stroke-miterlimit:10;"
       d="M 399.648438 1457.421875 L 406.601562 1450.15625 L 429.414062 1416.601562 L 452.265625 1383.046875 L 474.726562 1350.195312 L 497.578125 1316.992188 L 520.039062 1284.101562 L 542.890625 1251.25 L 565.390625 1218.710938 L 588.203125 1186.210938 L 610.703125 1154.023438 L 633.515625 1121.875 L 656.367188 1090.039062 L 678.867188 1057.851562 L 701.679688 1026.367188 L 724.179688 994.53125 L 746.992188 963.398438 L 769.492188 931.914062 L 792.34375 900.78125 L 814.804688 869.648438 L 837.65625 838.867188 L 860.117188 808.085938 L 882.96875 777.265625 L 905.78125 746.835938 L 928.28125 716.40625 L 951.132812 686.289062 L 973.59375 656.210938 L 996.445312 626.09375 L 1018.945312 596.367188 L 1041.757812 566.601562 L 1064.257812 536.835938 L 1087.070312 507.421875 L 1109.921875 478.046875 L 1132.382812 448.984375 L 1155.234375 419.570312 L 1177.734375 390.859375 L 1200.546875 361.796875 L 1223.046875 333.085938 L 1245.859375 304.375 L 1268.359375 275.664062 "
       transform="matrix(0.1,0,0,-0.1,0,171)"
       id="path10" />
    <path
       style="fill:none;stroke-width:8.50362;stroke-linecap:butt;stroke-linejoin:miter;stroke:rgb(0%,0%,0%);stroke-opacity:1;stroke-miterlimit:10"
       d="M 399.766 1457.38 L 385.613 1481.26 M 384.141 1483.75 M 378.07 1492.91 L 362.739 1516.06 M 361.602 1517.77 M 354.998 1527.58 L 339.488 1550.6 M 338.711 1551.76 M 331.806 1562.16 L 316.456 1585.29 M 316.133 1585.78 M 308.836 1596.9 L 293.603 1620.1 M 293.594 1620.12"
       transform="matrix(0.1,0,0,-0.1,0,171)"
       id="path12" />
    <path
       style=" stroke:none;fill-rule:nonzero;fill:rgb(0%,0%,0%);fill-opacity:1;"
       d="M 106.023438 114.304688 C 106.023438 113.285156 105.195312 112.457031 104.175781 112.457031 C 103.15625 112.457031 102.328125 113.285156 102.328125 114.304688 C 102.328125 115.324219 103.15625 116.152344 104.175781 116.152344 C 105.195312 116.152344 106.023438 115.324219 106.023438 114.304688 "
       id="path14" />
    <path
       style=" stroke:none;fill-rule:nonzero;fill:rgb(0%,0%,0%);fill-opacity:1;"
       d="M 67.824219 62.503906 C 67.824219 61.484375 66.996094 60.65625 65.976562 60.65625 C 64.957031 60.65625 64.128906 61.484375 64.128906 62.503906 C 64.128906 63.523438 64.957031 64.351562 65.976562 64.351562 C 66.996094 64.351562 67.824219 63.523438 67.824219 62.503906 "
       id="path16" />
    <path
       style=" stroke:none;fill-rule:nonzero;fill:rgb(0%,0%,0%);fill-opacity:1;"
       d="M 41.824219 25.207031 C 41.824219 24.1875 40.996094 23.359375 39.976562 23.359375 C 38.957031 23.359375 38.128906 24.1875 38.128906 25.207031 C 38.128906 26.226562 38.957031 27.054688 39.976562 27.054688 C 40.996094 27.054688 41.824219 26.226562 41.824219 25.207031 "
       id="path18" />
    <path
       style=" stroke:none;fill-rule:nonzero;fill:rgb(0%,0%,0%);fill-opacity:1;"
       d="M 67.824219 46.707031 C 67.824219 45.6875 66.996094 44.859375 65.976562 44.859375 C 64.957031 44.859375 64.128906 45.6875 64.128906 46.707031 C 64.128906 47.726562 64.957031 48.554688 65.976562 48.554688 C 66.996094 48.554688 67.824219 47.726562 67.824219 46.707031 "
       id="path20" />
    <path
       style=" stroke:none;fill-rule:nonzero;fill:rgb(0%,0%,0%);fill-opacity:1;"
       d="M 106.023438 98.503906 C 106.023438 97.484375 105.195312 96.65625 104.175781 96.65625 C 103.15625 96.65625 102.328125 97.484375 102.328125 98.503906 C 102.328125 99.523438 103.15625 100.351562 104.175781 100.351562 C 105.195312 100.351562 106.023438 99.523438 106.023438 98.503906 "
       id="path22" />
    <path
       style=" stroke:none;fill-rule:nonzero;fill:rgb(0%,0%,0%);fill-opacity:1;"
       d="M 100.585938 121.246094 C 100.429688 121.371094 100.320312 121.417969 100.179688 121.417969 C 99.976562 121.417969 99.914062 121.292969 99.914062 120.902344 L 99.914062 119.152344 C 99.914062 118.683594 99.867188 118.417969 99.742188 118.214844 C 99.539062 117.886719 99.148438 117.714844 98.632812 117.714844 C 97.789062 117.714844 97.117188 118.152344 97.117188 118.714844 C 97.117188 118.917969 97.289062 119.105469 97.507812 119.105469 C 97.726562 119.105469 97.914062 118.917969 97.914062 118.730469 C 97.914062 118.699219 97.898438 118.652344 97.898438 118.589844 C 97.867188 118.496094 97.867188 118.433594 97.867188 118.371094 C 97.867188 118.121094 98.148438 117.933594 98.507812 117.933594 C 98.945312 117.933594 99.195312 118.183594 99.195312 118.667969 L 99.195312 119.214844 C 97.820312 119.761719 97.664062 119.855469 97.273438 120.183594 C 97.070312 120.371094 96.945312 120.667969 96.945312 120.964844 C 96.945312 121.527344 97.335938 121.933594 97.898438 121.933594 C 98.289062 121.933594 98.648438 121.746094 99.195312 121.277344 C 99.242188 121.746094 99.414062 121.933594 99.773438 121.933594 C 100.085938 121.933594 100.273438 121.824219 100.585938 121.480469 Z M 99.195312 120.730469 C 99.195312 121.011719 99.148438 121.105469 98.960938 121.214844 C 98.726562 121.339844 98.492188 121.402344 98.304688 121.402344 C 97.992188 121.402344 97.742188 121.105469 97.742188 120.714844 L 97.742188 120.683594 C 97.742188 120.152344 98.148438 119.808594 99.195312 119.433594 Z M 99.195312 120.730469 "
       id="path24" />
    <path
       style=" stroke:none;fill-rule:nonzero;fill:rgb(0%,0%,0%);fill-opacity:1;"
       d="M 59.300781 65.980469 L 59.253906 65.964844 C 58.878906 66.089844 58.644531 66.167969 58.207031 66.292969 L 57.957031 66.355469 L 57.957031 66.496094 C 58.003906 66.496094 58.035156 66.496094 58.097656 66.496094 C 58.457031 66.496094 58.550781 66.574219 58.550781 66.949219 L 58.550781 71.605469 C 58.550781 71.886719 59.300781 72.183594 60.019531 72.183594 C 61.207031 72.183594 62.128906 71.199219 62.128906 69.917969 C 62.128906 68.792969 61.441406 67.964844 60.550781 67.964844 C 60.003906 67.964844 59.472656 68.277344 59.300781 68.730469 Z M 59.300781 69.199219 C 59.300781 68.855469 59.722656 68.527344 60.191406 68.527344 C 60.441406 68.527344 60.660156 68.621094 60.847656 68.792969 C 61.128906 69.074219 61.332031 69.683594 61.332031 70.324219 C 61.332031 71.324219 60.910156 71.886719 60.175781 71.886719 C 59.707031 71.886719 59.300781 71.699219 59.300781 71.464844 Z M 59.300781 69.199219 "
       id="path26" />
    <path
       style=" stroke:none;fill-rule:nonzero;fill:rgb(0%,0%,0%);fill-opacity:1;"
       d="M 35.980469 31.40625 C 35.558594 32.046875 35.230469 32.25 34.730469 32.25 C 33.902344 32.25 33.339844 31.53125 33.339844 30.5 C 33.339844 29.578125 33.824219 28.953125 34.558594 28.953125 C 34.871094 28.953125 34.996094 29.03125 35.074219 29.375 L 35.136719 29.578125 C 35.214844 29.828125 35.371094 29.984375 35.558594 29.984375 C 35.792969 29.984375 35.980469 29.8125 35.980469 29.609375 C 35.980469 29.109375 35.355469 28.6875 34.605469 28.6875 C 34.167969 28.6875 33.714844 28.859375 33.339844 29.1875 C 32.886719 29.578125 32.636719 30.1875 32.636719 30.90625 C 32.636719 32.0625 33.355469 32.90625 34.339844 32.90625 C 34.746094 32.90625 35.105469 32.765625 35.433594 32.484375 C 35.667969 32.28125 35.839844 32.015625 36.105469 31.5 Z M 35.980469 31.40625 "
       id="path28" />
    <path
       style=" stroke:none;fill-rule:nonzero;fill:rgb(0%,0%,0%);fill-opacity:1;"
       d="M 73.851562 42.59375 C 73.726562 42.59375 73.679688 42.59375 73.648438 42.59375 C 73.335938 42.59375 73.242188 42.5 73.242188 42.09375 L 73.242188 37 L 73.210938 36.984375 C 72.789062 37.125 72.476562 37.21875 71.882812 37.375 L 71.882812 37.515625 C 71.960938 37.515625 72.007812 37.515625 72.085938 37.515625 C 72.414062 37.515625 72.492188 37.609375 72.492188 37.96875 L 72.492188 39.375 C 72.148438 39.078125 71.914062 38.984375 71.554688 38.984375 C 70.523438 38.984375 69.679688 40 69.679688 41.265625 C 69.679688 42.421875 70.351562 43.203125 71.351562 43.203125 C 71.851562 43.203125 72.195312 43.015625 72.492188 42.59375 L 72.492188 43.171875 L 72.523438 43.203125 L 73.851562 42.734375 Z M 72.492188 42.1875 C 72.492188 42.25 72.429688 42.359375 72.335938 42.46875 C 72.195312 42.640625 71.960938 42.734375 71.695312 42.734375 C 70.945312 42.734375 70.460938 42.015625 70.460938 40.90625 C 70.460938 39.90625 70.898438 39.234375 71.585938 39.234375 C 72.070312 39.234375 72.492188 39.65625 72.492188 40.125 Z M 72.492188 42.1875 "
       id="path30" />
    <path
       style=" stroke:none;fill-rule:nonzero;fill:rgb(0%,0%,0%);fill-opacity:1;"
       d="M 111.3125 93.4375 C 110.890625 94.109375 110.5 94.375 109.921875 94.375 C 109.421875 94.375 109.03125 94.109375 108.765625 93.609375 C 108.609375 93.265625 108.546875 92.984375 108.53125 92.421875 L 111.28125 92.421875 C 111.21875 91.84375 111.125 91.578125 110.90625 91.296875 C 110.640625 90.96875 110.21875 90.78125 109.75 90.78125 C 109.3125 90.78125 108.890625 90.9375 108.546875 91.25 C 108.125 91.609375 107.875 92.25 107.875 92.984375 C 107.875 94.21875 108.53125 95 109.5625 95 C 110.40625 95 111.078125 94.46875 111.453125 93.5 Z M 108.546875 92.140625 C 108.640625 91.4375 108.953125 91.109375 109.5 91.109375 C 110.046875 91.109375 110.25 91.359375 110.375 92.140625 Z M 108.546875 92.140625 "
       id="path32" />
    <path
       style="fill:none;stroke-width:2.83298;stroke-linecap:butt;stroke-linejoin:miter;stroke:rgb(0%,0%,0%);stroke-opacity:1;stroke-miterlimit:10"
       d="M 399.648 1457.42 L 399.648 1427.81 M 399.648 1408.07 L 399.648 1378.46 M 399.648 1358.72 L 399.648 1329.11 M 399.648 1309.37 L 399.648 1279.75 M 399.648 1260.01 L 399.648 1230.4 M 399.648 1210.66 L 399.648 1181.05 M 399.648 1161.31 L 399.648 1131.7 M 399.648 1111.96 L 399.648 1082.35 M 399.648 1062.61 L 399.648 1033 M 399.648 1013.25 L 399.648 983.642 M 399.648 963.902 L 399.648 934.29 M 399.648 914.549 L 399.648 884.938 M 399.648 865.197 L 399.648 835.586 M 399.648 815.845 L 399.648 786.234 M 399.648 766.492 L 399.648 736.881 M 399.648 717.14 L 399.648 687.528 M 399.648 667.788 L 399.648 638.177 M 399.648 618.435 L 399.648 588.824 M 399.648 569.083 L 399.648 539.472 M 399.648 519.731 L 399.648 490.119 M 399.648 470.378 L 399.648 440.766 M 399.648 421.026 L 399.648 391.415 M 399.648 371.674 L 399.648 342.063 M 399.648 322.322 L 399.648 292.71 M 399.648 292.617"
       transform="matrix(0.1,0,0,-0.1,0,171)"
       id="path34" />
    <path
       style=" stroke:none;fill-rule:nonzero;fill:rgb(0%,0%,0%);fill-opacity:1;"
       d="M 42.1875 146.71875 L 37.171875 146.71875 L 36.75 148.25 L 36.921875 148.25 C 37.296875 147.265625 37.765625 147.046875 38.546875 147.046875 C 38.546875 147.046875 39.0625 147.046875 39.171875 147.046875 L 37.875 151.71875 C 37.625 152.625 37.3125 152.609375 36.953125 152.609375 L 36.9375 152.765625 L 39.296875 152.765625 L 39.328125 152.609375 C 38.984375 152.609375 38.640625 152.625 38.640625 152.171875 C 38.640625 152.046875 38.671875 151.90625 38.71875 151.71875 L 40 147.046875 L 40.75 147.046875 C 41.1875 147.046875 41.65625 147.109375 41.65625 147.734375 C 41.65625 147.875 41.640625 148.03125 41.59375 148.25 L 41.765625 148.25 Z M 42.1875 146.71875 "
       id="path36" />
    <path
       style=" stroke:none;fill-rule:nonzero;fill:rgb(0%,0%,0%);fill-opacity:1;"
       d="M 43.332031 151.90625 L 42.472656 151.90625 L 42.472656 151.109375 C 42.472656 150.6875 42.597656 150.484375 42.863281 150.484375 C 43.019531 150.484375 43.113281 150.546875 43.238281 150.75 C 43.347656 150.9375 43.441406 151 43.550781 151 C 43.722656 151 43.847656 150.875 43.847656 150.71875 C 43.847656 150.46875 43.535156 150.28125 43.113281 150.28125 C 42.675781 150.28125 42.316406 150.46875 42.144531 150.78125 C 41.957031 151.109375 41.894531 151.359375 41.894531 151.90625 L 41.316406 151.90625 L 41.316406 152.140625 L 41.894531 152.140625 L 41.894531 154.328125 C 41.878906 154.84375 41.816406 154.921875 41.316406 154.9375 L 41.316406 155.046875 L 43.128906 155.046875 L 43.128906 154.9375 C 42.550781 154.921875 42.472656 154.84375 42.472656 154.328125 L 42.472656 152.140625 L 43.332031 152.140625 Z M 43.332031 151.90625 "
       id="path38" />
    <path
       style="fill:none;stroke-width:2.83298;stroke-linecap:butt;stroke-linejoin:miter;stroke:rgb(0%,0%,0%);stroke-opacity:1;stroke-miterlimit:10"
       d="M 659.805 1242.93 L 659.805 1212.28 M 659.805 1191.85 L 659.805 1161.2 M 659.805 1140.76 L 659.805 1110.11 M 659.805 1089.68 L 659.805 1059.03 M 659.805 1038.59 L 659.805 1007.94 M 659.805 987.511 L 659.805 956.86 M 659.805 936.427 L 659.805 905.776 M 659.805 885.343 L 659.805 854.693 M 659.805 834.26 L 659.805 803.609 M 659.805 783.176 L 659.805 752.526 M 659.805 732.092 L 659.805 701.441 M 659.805 681.008 L 659.805 650.359 M 659.805 629.926 L 659.805 599.276 M 659.805 578.843 L 659.805 548.193 M 659.805 527.76 L 659.805 497.11 M 659.805 476.677 L 659.805 446.027 M 659.805 425.593 L 659.805 394.943 M 659.805 374.51 L 659.805 343.859 M 659.805 323.426 L 659.805 292.777 M 659.805 292.734"
       transform="matrix(0.1,0,0,-0.1,0,171)"
       id="path40" />
    <path
       style=" stroke:none;fill-rule:nonzero;fill:rgb(0%,0%,0%);fill-opacity:1;"
       d="M 66.257812 147.558594 L 61.242188 147.558594 L 60.820312 149.089844 L 60.992188 149.089844 C 61.367188 148.105469 61.835938 147.886719 62.617188 147.886719 C 62.617188 147.886719 63.132812 147.886719 63.242188 147.886719 L 61.945312 152.558594 C 61.695312 153.464844 61.382812 153.449219 61.023438 153.449219 L 61.007812 153.605469 L 63.367188 153.605469 L 63.398438 153.449219 C 63.054688 153.449219 62.710938 153.464844 62.710938 153.011719 C 62.710938 152.886719 62.742188 152.746094 62.789062 152.558594 L 64.070312 147.886719 L 64.820312 147.886719 C 65.257812 147.886719 65.726562 147.949219 65.726562 148.574219 C 65.726562 148.714844 65.710938 148.871094 65.664062 149.089844 L 65.835938 149.089844 Z M 66.257812 147.558594 "
       id="path42" />
    <path
       style=" stroke:none;fill-rule:nonzero;fill:rgb(0%,0%,0%);fill-opacity:1;"
       d="M 70.738281 148.917969 C 70.738281 148.824219 70.675781 148.730469 70.519531 148.636719 C 70.347656 148.542969 69.769531 148.339844 69.457031 148.230469 C 69.769531 148.121094 70.347656 147.917969 70.519531 147.824219 C 70.675781 147.730469 70.738281 147.636719 70.738281 147.542969 C 70.738281 147.402344 70.613281 147.261719 70.441406 147.261719 C 70.363281 147.261719 70.300781 147.277344 70.222656 147.324219 C 70.050781 147.402344 69.550781 147.777344 69.300781 147.980469 C 69.363281 147.667969 69.441406 147.105469 69.441406 146.917969 C 69.441406 146.667969 69.332031 146.574219 69.144531 146.574219 C 68.957031 146.574219 68.847656 146.667969 68.847656 146.917969 C 68.847656 147.105469 68.925781 147.667969 68.988281 147.980469 C 68.738281 147.777344 68.238281 147.402344 68.066406 147.324219 C 67.972656 147.277344 67.925781 147.261719 67.832031 147.261719 C 67.675781 147.261719 67.550781 147.402344 67.550781 147.542969 C 67.550781 147.636719 67.597656 147.730469 67.769531 147.824219 C 67.941406 147.917969 68.503906 148.121094 68.816406 148.230469 C 68.503906 148.339844 67.941406 148.542969 67.769531 148.636719 C 67.597656 148.730469 67.550781 148.824219 67.550781 148.917969 C 67.550781 149.058594 67.675781 149.214844 67.832031 149.214844 C 67.925781 149.214844 67.972656 149.183594 68.066406 149.136719 C 68.238281 149.042969 68.738281 148.683594 68.988281 148.480469 C 68.925781 148.777344 68.847656 149.339844 68.847656 149.527344 C 68.847656 149.777344 68.957031 149.886719 69.144531 149.886719 C 69.332031 149.886719 69.441406 149.777344 69.441406 149.527344 C 69.441406 149.339844 69.363281 148.777344 69.300781 148.480469 C 69.550781 148.683594 70.050781 149.042969 70.222656 149.136719 C 70.300781 149.183594 70.363281 149.214844 70.441406 149.214844 C 70.613281 149.214844 70.738281 149.058594 70.738281 148.917969 Z M 70.738281 148.917969 "
       id="path44" />
    <path
       style=" stroke:none;fill-rule:nonzero;fill:rgb(0%,0%,0%);fill-opacity:1;"
       d="M 67.402344 153.585938 L 66.542969 153.585938 L 66.542969 152.789062 C 66.542969 152.367188 66.667969 152.164062 66.933594 152.164062 C 67.089844 152.164062 67.183594 152.226562 67.308594 152.429688 C 67.417969 152.617188 67.511719 152.679688 67.621094 152.679688 C 67.792969 152.679688 67.917969 152.554688 67.917969 152.398438 C 67.917969 152.148438 67.605469 151.960938 67.183594 151.960938 C 66.746094 151.960938 66.386719 152.148438 66.214844 152.460938 C 66.027344 152.789062 65.964844 153.039062 65.964844 153.585938 L 65.386719 153.585938 L 65.386719 153.820312 L 65.964844 153.820312 L 65.964844 156.007812 C 65.949219 156.523438 65.886719 156.601562 65.386719 156.617188 L 65.386719 156.726562 L 67.199219 156.726562 L 67.199219 156.617188 C 66.621094 156.601562 66.542969 156.523438 66.542969 156.007812 L 66.542969 153.820312 L 67.402344 153.820312 Z M 67.402344 153.585938 "
       id="path46" />
    <path
       style="fill:none;stroke-width:2.83298;stroke-linecap:butt;stroke-linejoin:miter;stroke:rgb(0%,0%,0%);stroke-opacity:1;stroke-miterlimit:10"
       d="M 1041.68 724.922 L 1041.68 694.77 M 1041.68 674.669 L 1041.68 644.518 M 1041.68 624.416 L 1041.68 594.264 M 1041.68 574.162 L 1041.68 544.011 M 1041.68 523.91 L 1041.68 493.759 M 1041.68 473.658 L 1041.68 443.506 M 1041.68 423.405 L 1041.68 393.253 M 1041.68 373.152 L 1041.68 343 M 1041.68 322.901 L 1041.68 292.751 M 1041.68 292.617"
       transform="matrix(0.1,0,0,-0.1,0,171)"
       id="path48" />
    <path
       style=" stroke:none;fill-rule:nonzero;fill:rgb(0%,0%,0%);fill-opacity:1;"
       d="M 105.667969 147.800781 L 100.652344 147.800781 L 100.230469 149.332031 L 100.402344 149.332031 C 100.777344 148.347656 101.246094 148.128906 102.027344 148.128906 C 102.027344 148.128906 102.542969 148.128906 102.652344 148.128906 L 101.355469 152.800781 C 101.105469 153.707031 100.792969 153.691406 100.433594 153.691406 L 100.417969 153.847656 L 102.777344 153.847656 L 102.808594 153.691406 C 102.464844 153.691406 102.121094 153.707031 102.121094 153.253906 C 102.121094 153.128906 102.152344 152.988281 102.199219 152.800781 L 103.480469 148.128906 L 104.230469 148.128906 C 104.667969 148.128906 105.136719 148.191406 105.136719 148.816406 C 105.136719 148.957031 105.121094 149.113281 105.074219 149.332031 L 105.246094 149.332031 Z M 105.667969 147.800781 "
       id="path50" />
    <path
       style=" stroke:none;fill-rule:nonzero;fill:rgb(0%,0%,0%);fill-opacity:1;"
       d="M 108.1875 147.121094 C 108.1875 146.902344 107.953125 146.746094 107.734375 146.746094 C 107.578125 146.746094 107.4375 146.824219 107.375 147.042969 L 106.4375 150.230469 L 106.640625 150.308594 L 108.140625 147.292969 C 108.15625 147.230469 108.1875 147.183594 108.1875 147.121094 Z M 108.1875 147.121094 "
       id="path52" />
    <path
       style=" stroke:none;fill-rule:nonzero;fill:rgb(0%,0%,0%);fill-opacity:1;"
       d="M 95.054688 168.453125 L 98.527344 167.238281 L 95.054688 165.992188 L 96.4375 167.238281 "
       id="path54" />
    <path
       style="fill:none;stroke-width:2.83298;stroke-linecap:butt;stroke-linejoin:miter;stroke:rgb(0%,0%,0%);stroke-opacity:1;stroke-miterlimit:10;"
       d="M 701.679688 37.695312 L 964.375 37.695312 "
       transform="matrix(0.1,0,0,-0.1,0,171)"
       id="path56" />
    <path
       style=" stroke:none;fill-rule:nonzero;fill:rgb(0%,0%,0%);fill-opacity:1;"
       d="M 64.449219 164.1875 L 59.433594 164.1875 L 59.011719 165.71875 L 59.183594 165.71875 C 59.558594 164.734375 60.027344 164.515625 60.808594 164.515625 C 60.808594 164.515625 61.324219 164.515625 61.433594 164.515625 L 60.136719 169.1875 C 59.886719 170.09375 59.574219 170.078125 59.214844 170.078125 L 59.199219 170.234375 L 61.558594 170.234375 L 61.589844 170.078125 C 61.246094 170.078125 60.902344 170.09375 60.902344 169.640625 C 60.902344 169.515625 60.933594 169.375 60.980469 169.1875 L 62.261719 164.515625 L 63.011719 164.515625 C 63.449219 164.515625 63.917969 164.578125 63.917969 165.203125 C 63.917969 165.34375 63.902344 165.5 63.855469 165.71875 L 64.027344 165.71875 Z M 64.449219 164.1875 "
       id="path58" />
    <path
       style=" stroke:none;fill-rule:nonzero;fill:rgb(0%,0%,0%);fill-opacity:1;"
       d="M 5.617188 49.078125 L 4.375 45.632812 L 3.171875 49.078125 L 4.375 47.699219 "
       id="path60" />
    <path
       style="fill:none;stroke-width:2.83298;stroke-linecap:butt;stroke-linejoin:miter;stroke:rgb(0%,0%,0%);stroke-opacity:1;stroke-miterlimit:10;"
       d="M 44.140625 973.164062 L 44.140625 1232.96875 "
       transform="matrix(0.1,0,0,-0.1,0,171)"
       id="path62" />
    <path
       style=" stroke:none;fill-rule:nonzero;fill:rgb(0%,0%,0%);fill-opacity:1;"
       d="M 5.09375 96.609375 L 5.09375 96.78125 C 5.8125 97 6.125 97.375 6.125 97.796875 C 6.125 98 5.921875 98.125 5.609375 98.125 C 5.390625 98.125 5.140625 98.0625 5.015625 98.03125 L 2.34375 97.390625 L 2.34375 98.078125 L 4.15625 98.53125 C 5.59375 98.875 6.265625 99.5625 6.265625 100.0625 C 6.265625 100.40625 5.796875 100.65625 5.375 100.65625 C 5.203125 100.65625 5.015625 100.640625 4.828125 100.59375 L 2.34375 100.03125 L 2.34375 100.65625 C 2.34375 100.609375 5.640625 101.4375 5.640625 101.4375 C 6.859375 101.71875 7.734375 102.046875 8.015625 102.046875 C 8.15625 102.046875 8.359375 102 8.359375 101.765625 C 8.359375 101.625 8.28125 101.390625 7.875 101.296875 C 7.875 101.296875 6.234375 100.90625 5.734375 100.8125 C 5.953125 100.8125 6.546875 100.59375 6.546875 100.140625 C 6.546875 99.390625 5.65625 98.75 5.53125 98.6875 C 5.9375 98.671875 6.546875 98.515625 6.546875 97.921875 C 6.546875 97.1875 5.71875 96.765625 5.09375 96.609375 Z M 5.09375 96.609375 "
       id="path64" />
    <path
       style=" stroke:none;fill-rule:nonzero;fill:rgb(0%,0%,0%);fill-opacity:1;"
       d="M 8.59375 91.214844 C 8.5625 91.527344 8.5 91.605469 7.984375 91.839844 L 4.015625 93.574219 L 4.015625 93.714844 L 7.4375 95.167969 C 8.453125 95.621094 8.578125 95.699219 8.59375 96.027344 L 8.71875 96.027344 L 8.71875 94.652344 L 8.59375 94.652344 C 8.59375 94.980469 8.5 95.121094 8.296875 95.121094 C 8.21875 95.121094 8.125 95.105469 8.03125 95.074219 L 7.21875 94.746094 L 7.21875 92.917969 L 7.875 92.636719 C 8.078125 92.558594 8.25 92.511719 8.34375 92.511719 C 8.53125 92.511719 8.578125 92.621094 8.59375 92.996094 L 8.71875 92.996094 L 8.71875 91.214844 Z M 6.921875 94.636719 L 5.015625 93.824219 L 6.921875 93.027344 Z M 6.921875 94.636719 "
       id="path66" />
    <path
       style=" stroke:none;fill-rule:nonzero;fill:rgb(0%,0%,0%);fill-opacity:1;"
       d="M 0 86.710938 L 0 87.148438 L 8.359375 90.257812 L 8.359375 89.804688 Z M 0 86.710938 "
       id="path68" />
    <path
       style=" stroke:none;fill-rule:nonzero;fill:rgb(0%,0%,0%);fill-opacity:1;"
       d="M 0.390625 79.402344 L 0.390625 84.417969 L 1.921875 84.839844 L 1.921875 84.667969 C 0.9375 84.292969 0.71875 83.824219 0.71875 83.042969 C 0.71875 83.042969 0.71875 82.527344 0.71875 82.417969 L 5.390625 83.714844 C 6.296875 83.964844 6.28125 84.277344 6.28125 84.636719 L 6.4375 84.652344 L 6.4375 82.292969 L 6.28125 82.261719 C 6.28125 82.605469 6.296875 82.949219 5.84375 82.949219 C 5.71875 82.949219 5.578125 82.917969 5.390625 82.871094 L 0.71875 81.589844 L 0.71875 80.839844 C 0.71875 80.402344 0.78125 79.933594 1.40625 79.933594 C 1.546875 79.933594 1.703125 79.949219 1.921875 79.996094 L 1.921875 79.824219 Z M 0.390625 79.402344 "
       id="path70" />
    <path
       style=" stroke:none;fill-rule:nonzero;fill:rgb(0%,0%,0%);fill-opacity:1;"
       d="M 18.363281 13.152344 L 19.066406 12.308594 L 19.003906 12.246094 C 18.910156 12.261719 18.878906 12.277344 18.847656 12.246094 C 18.816406 12.214844 18.769531 12.152344 18.722656 12.058594 C 18.613281 11.886719 18.519531 11.714844 18.378906 11.589844 C 17.910156 11.167969 17.285156 11.167969 16.894531 11.605469 C 16.613281 11.933594 16.582031 12.339844 16.847656 13.089844 L 16.988281 13.589844 C 17.097656 13.886719 17.082031 14.121094 16.925781 14.308594 C 16.675781 14.574219 16.332031 14.574219 16.035156 14.292969 C 15.628906 13.933594 15.613281 13.511719 16.035156 12.777344 L 15.941406 12.699219 L 15.113281 13.621094 L 15.191406 13.683594 C 15.285156 13.683594 15.316406 13.683594 15.378906 13.746094 C 15.441406 13.792969 15.503906 13.886719 15.613281 14.027344 C 15.738281 14.214844 15.878906 14.386719 16.003906 14.496094 C 16.457031 14.902344 17.128906 14.886719 17.503906 14.464844 C 17.785156 14.167969 17.816406 13.839844 17.644531 13.324219 L 17.347656 12.386719 C 17.253906 12.121094 17.300781 11.917969 17.457031 11.746094 C 17.675781 11.511719 17.988281 11.496094 18.269531 11.746094 C 18.613281 12.042969 18.613281 12.402344 18.269531 13.058594 Z M 18.363281 13.152344 "
       id="path72" />
    <path
       style=" stroke:none;fill-rule:nonzero;fill:rgb(0%,0%,0%);fill-opacity:1;"
       d="M 21.058594 14.007812 C 20.292969 13.320312 19.246094 13.414062 18.511719 14.242188 C 17.792969 15.039062 17.808594 16.117188 18.558594 16.789062 C 19.308594 17.476562 20.417969 17.367188 21.167969 16.554688 C 21.871094 15.757812 21.824219 14.695312 21.058594 14.007812 Z M 20.839844 14.117188 C 21.339844 14.570312 21.167969 15.460938 20.449219 16.273438 C 19.839844 16.945312 19.214844 17.085938 18.777344 16.695312 C 18.542969 16.492188 18.449219 16.148438 18.542969 15.804688 C 18.636719 15.335938 18.933594 14.851562 19.308594 14.429688 C 19.808594 13.867188 20.402344 13.726562 20.839844 14.117188 Z M 20.839844 14.117188 "
       id="path74" />
    <path
       style=" stroke:none;fill-rule:nonzero;fill:rgb(0%,0%,0%);fill-opacity:1;"
       d="M 20.203125 18.171875 L 21.59375 19.4375 L 21.671875 19.34375 C 21.328125 18.984375 21.296875 18.875 21.609375 18.53125 L 24.78125 15 L 24.78125 14.96875 C 24.375 14.78125 24.109375 14.65625 23.59375 14.390625 L 23.515625 14.484375 L 23.5625 14.515625 C 23.609375 14.5625 23.6875 14.609375 23.75 14.65625 C 23.921875 14.828125 23.921875 14.953125 23.671875 15.234375 L 21.109375 18.0625 C 20.8125 18.375 20.671875 18.390625 20.28125 18.078125 Z M 20.203125 18.171875 "
       id="path76" />
    <path
       style=" stroke:none;fill-rule:nonzero;fill:rgb(0%,0%,0%);fill-opacity:1;"
       d="M 21.777344 19.585938 L 23.183594 20.851562 L 23.261719 20.757812 C 22.902344 20.398438 22.902344 20.304688 23.292969 19.851562 L 25.183594 17.757812 L 25.167969 17.710938 L 23.949219 17.210938 L 23.871094 17.304688 L 23.917969 17.335938 C 24.011719 17.382812 24.089844 17.460938 24.152344 17.507812 C 24.292969 17.632812 24.261719 17.773438 24.027344 18.039062 L 22.792969 19.398438 C 22.371094 19.835938 22.277344 19.851562 21.855469 19.492188 Z M 26.074219 16.132812 C 25.933594 16.007812 25.667969 16.023438 25.511719 16.195312 C 25.371094 16.351562 25.371094 16.601562 25.527344 16.742188 C 25.714844 16.914062 25.964844 16.898438 26.105469 16.742188 C 26.261719 16.570312 26.246094 16.304688 26.074219 16.132812 Z M 26.074219 16.132812 "
       id="path78" />
    <path
       style=" stroke:none;fill-rule:nonzero;fill:rgb(0%,0%,0%);fill-opacity:1;"
       d="M 26.507812 23.21875 C 26.414062 23.15625 26.382812 23.125 26.367188 23.109375 C 26.148438 22.921875 26.164062 22.796875 26.414062 22.53125 L 29.429688 19.171875 L 29.414062 19.140625 C 29.039062 18.984375 28.789062 18.859375 28.304688 18.625 L 28.226562 18.71875 C 28.273438 18.765625 28.304688 18.78125 28.351562 18.828125 C 28.585938 19.03125 28.570312 19.125 28.351562 19.375 L 27.523438 20.296875 C 27.460938 19.90625 27.367188 19.6875 27.132812 19.46875 C 26.445312 18.859375 25.289062 19.03125 24.539062 19.875 C 23.851562 20.640625 23.851562 21.5625 24.492188 22.140625 C 24.835938 22.453125 25.148438 22.515625 25.601562 22.421875 L 25.257812 22.8125 L 25.273438 22.84375 L 26.414062 23.3125 Z M 25.851562 22.15625 C 25.804688 22.203125 25.695312 22.25 25.601562 22.234375 C 25.382812 22.265625 25.164062 22.203125 24.992188 22.046875 C 24.492188 21.59375 24.601562 20.84375 25.273438 20.109375 C 25.867188 19.4375 26.554688 19.265625 26.992188 19.65625 C 27.320312 19.953125 27.351562 20.484375 27.070312 20.796875 Z M 25.851562 22.15625 "
       id="path80" />
    <path
       style=" stroke:none;fill-rule:nonzero;fill:rgb(0%,0%,0%);fill-opacity:1;"
       d="M 87.425781 69.027344 L 88.535156 70.527344 L 88.628906 70.449219 C 88.347656 70.042969 88.363281 69.933594 88.722656 69.652344 L 92.535156 66.824219 L 92.519531 66.777344 C 92.191406 66.527344 91.941406 66.339844 91.488281 65.964844 L 91.394531 66.042969 L 91.425781 66.074219 C 91.472656 66.136719 91.535156 66.199219 91.582031 66.261719 C 91.738281 66.464844 91.691406 66.605469 91.394531 66.824219 L 88.332031 69.105469 C 87.988281 69.339844 87.832031 69.324219 87.519531 68.949219 Z M 87.425781 69.027344 "
       id="path82" />
    <path
       style=" stroke:none;fill-rule:nonzero;fill:rgb(0%,0%,0%);fill-opacity:1;"
       d="M 88.6875 70.710938 L 89.8125 72.226562 L 89.90625 72.148438 C 89.625 71.710938 89.65625 71.632812 90.109375 71.273438 L 92.375 69.585938 L 92.375 69.539062 L 91.296875 68.804688 L 91.203125 68.882812 L 91.234375 68.929688 C 91.296875 69.007812 91.375 69.085938 91.421875 69.148438 C 91.53125 69.289062 91.484375 69.414062 91.1875 69.617188 L 89.71875 70.726562 C 89.21875 71.085938 89.125 71.070312 88.78125 70.632812 Z M 93.578125 68.179688 C 93.453125 68.023438 93.203125 67.976562 93.015625 68.117188 C 92.84375 68.242188 92.78125 68.492188 92.921875 68.664062 C 93.0625 68.867188 93.328125 68.898438 93.5 68.773438 C 93.6875 68.632812 93.71875 68.367188 93.578125 68.179688 Z M 93.578125 68.179688 "
       id="path84" />
    <path
       style=" stroke:none;fill-rule:nonzero;fill:rgb(0%,0%,0%);fill-opacity:1;"
       d="M 94.335938 72.632812 C 94.273438 72.226562 94.195312 71.976562 94.007812 71.726562 C 93.398438 70.929688 92.242188 70.851562 91.304688 71.539062 C 90.507812 72.132812 90.257812 72.976562 90.710938 73.570312 C 90.976562 73.945312 91.398438 74.164062 91.929688 74.226562 L 90.726562 75.132812 C 90.351562 75.382812 90.179688 75.351562 89.820312 74.914062 L 89.710938 74.992188 L 90.835938 76.507812 L 90.929688 76.445312 C 90.742188 76.023438 90.757812 75.960938 91.023438 75.742188 L 94.851562 72.898438 L 94.789062 72.820312 Z M 92.335938 73.929688 C 92.195312 74.039062 92.085938 74.085938 91.976562 74.070312 C 91.757812 74.007812 91.523438 73.835938 91.367188 73.648438 C 91.226562 73.445312 91.164062 73.226562 91.195312 73.023438 C 91.226562 72.679688 91.523438 72.226562 91.960938 71.914062 C 92.710938 71.351562 93.429688 71.351562 93.820312 71.882812 C 94.117188 72.289062 94.070312 72.648438 93.648438 72.945312 Z M 92.335938 73.929688 "
       id="path86" />
    <path
       style=" stroke:none;fill-rule:nonzero;fill:rgb(0%,0%,0%);fill-opacity:1;"
       d="M 94.855469 78.355469 L 94.839844 78.324219 C 94.636719 77.996094 94.636719 77.902344 94.933594 77.683594 L 97.121094 76.058594 L 96.371094 75.042969 L 96.261719 75.121094 C 96.542969 75.542969 96.542969 75.652344 96.230469 75.886719 L 94.714844 77.011719 C 94.542969 77.136719 94.417969 77.183594 94.292969 77.136719 C 94.011719 77.058594 93.777344 76.949219 93.636719 76.746094 C 93.449219 76.496094 93.527344 76.121094 93.792969 75.917969 L 95.871094 74.371094 L 95.183594 73.449219 L 95.089844 73.511719 C 95.292969 73.824219 95.292969 73.980469 94.980469 74.214844 L 93.371094 75.417969 C 92.871094 75.777344 92.761719 76.339844 93.121094 76.808594 C 93.292969 77.042969 93.574219 77.214844 93.886719 77.246094 L 94.355469 77.324219 L 93.824219 77.714844 L 93.824219 77.761719 C 94.199219 77.964844 94.433594 78.152344 94.761719 78.417969 Z M 94.855469 78.355469 "
       id="path88" />
    <path
       style=" stroke:none;fill-rule:nonzero;fill:rgb(0%,0%,0%);fill-opacity:1;"
       d="M 94.707031 78.796875 L 95.832031 80.3125 L 95.925781 80.234375 C 95.644531 79.796875 95.675781 79.71875 96.128906 79.359375 L 98.394531 77.671875 L 98.394531 77.625 L 97.316406 76.890625 L 97.222656 76.96875 L 97.253906 77.015625 C 97.316406 77.09375 97.394531 77.171875 97.441406 77.234375 C 97.550781 77.375 97.503906 77.5 97.207031 77.703125 L 95.738281 78.8125 C 95.238281 79.171875 95.144531 79.15625 94.800781 78.71875 Z M 99.597656 76.265625 C 99.472656 76.109375 99.222656 76.0625 99.035156 76.203125 C 98.863281 76.328125 98.800781 76.578125 98.941406 76.75 C 99.082031 76.953125 99.347656 76.984375 99.519531 76.859375 C 99.707031 76.71875 99.738281 76.453125 99.597656 76.265625 Z M 99.597656 76.265625 "
       id="path90" />
    <path
       style=" stroke:none;fill-rule:nonzero;fill:rgb(0%,0%,0%);fill-opacity:1;"
       d="M 98.621094 83.277344 C 98.558594 83.230469 98.527344 83.183594 98.511719 83.167969 C 98.339844 82.933594 98.371094 82.808594 98.667969 82.589844 L 102.277344 79.902344 L 102.277344 79.871094 C 101.949219 79.636719 101.730469 79.464844 101.292969 79.121094 L 101.199219 79.199219 C 101.230469 79.261719 101.261719 79.277344 101.308594 79.339844 C 101.480469 79.589844 101.449219 79.683594 101.183594 79.886719 L 100.199219 80.621094 C 100.230469 80.230469 100.167969 79.996094 99.980469 79.746094 C 99.417969 79.011719 98.261719 78.949219 97.355469 79.621094 C 96.527344 80.246094 96.339844 81.136719 96.871094 81.839844 C 97.136719 82.199219 97.433594 82.339844 97.886719 82.339844 L 97.480469 82.636719 L 97.496094 82.667969 L 98.511719 83.355469 Z M 98.183594 82.121094 C 98.121094 82.152344 98.042969 82.167969 97.933594 82.152344 C 97.714844 82.136719 97.511719 82.027344 97.371094 81.839844 C 96.980469 81.292969 97.246094 80.589844 98.027344 79.996094 C 98.761719 79.464844 99.449219 79.433594 99.792969 79.902344 C 100.058594 80.246094 99.980469 80.777344 99.652344 81.027344 Z M 98.183594 82.121094 "
       id="path92" />
    <path
       style=" stroke:none;fill-rule:nonzero;fill:rgb(0%,0%,0%);fill-opacity:1;"
       d="M 78.898438 89.746094 L 79.773438 89.074219 L 79.710938 88.996094 C 79.617188 88.980469 79.585938 88.980469 79.554688 88.933594 C 79.539062 88.902344 79.507812 88.839844 79.476562 88.730469 C 79.414062 88.558594 79.351562 88.386719 79.242188 88.214844 C 78.867188 87.714844 78.257812 87.605469 77.789062 87.949219 C 77.445312 88.214844 77.320312 88.605469 77.429688 89.386719 L 77.492188 89.902344 C 77.523438 90.230469 77.460938 90.449219 77.273438 90.589844 C 76.976562 90.808594 76.648438 90.714844 76.398438 90.386719 C 76.070312 89.949219 76.132812 89.558594 76.710938 88.917969 L 76.632812 88.824219 L 75.617188 89.574219 L 75.679688 89.636719 C 75.773438 89.652344 75.804688 89.667969 75.867188 89.746094 C 75.914062 89.808594 75.960938 89.902344 76.039062 90.074219 C 76.132812 90.277344 76.226562 90.449219 76.320312 90.589844 C 76.679688 91.074219 77.351562 91.214844 77.804688 90.871094 C 78.132812 90.636719 78.226562 90.324219 78.179688 89.777344 L 78.085938 88.777344 C 78.039062 88.511719 78.132812 88.324219 78.304688 88.199219 C 78.570312 87.996094 78.882812 88.058594 79.101562 88.355469 C 79.367188 88.714844 79.289062 89.058594 78.820312 89.652344 Z M 78.898438 89.746094 "
       id="path94" />
    <path
       style=" stroke:none;fill-rule:nonzero;fill:rgb(0%,0%,0%);fill-opacity:1;"
       d="M 81.398438 91.125 C 80.773438 90.296875 79.726562 90.171875 78.835938 90.828125 C 77.976562 91.484375 77.773438 92.546875 78.367188 93.34375 C 78.976562 94.15625 80.101562 94.28125 80.992188 93.625 C 81.835938 92.984375 82.007812 91.953125 81.398438 91.125 Z M 81.148438 91.1875 C 81.554688 91.734375 81.210938 92.5625 80.335938 93.21875 C 79.617188 93.75 78.960938 93.78125 78.601562 93.3125 C 78.414062 93.0625 78.398438 92.6875 78.554688 92.375 C 78.757812 91.9375 79.117188 91.515625 79.570312 91.1875 C 80.195312 90.71875 80.804688 90.71875 81.148438 91.1875 Z M 81.148438 91.1875 "
       id="path96" />
    <path
       style=" stroke:none;fill-rule:nonzero;fill:rgb(0%,0%,0%);fill-opacity:1;"
       d="M 79.730469 95.039062 L 80.839844 96.539062 L 80.933594 96.460938 C 80.652344 96.054688 80.652344 95.945312 81.027344 95.664062 L 84.839844 92.835938 L 84.824219 92.789062 C 84.496094 92.539062 84.246094 92.351562 83.808594 91.992188 L 83.699219 92.054688 L 83.730469 92.085938 C 83.777344 92.148438 83.839844 92.226562 83.886719 92.289062 C 84.042969 92.492188 83.996094 92.617188 83.699219 92.835938 L 80.636719 95.117188 C 80.292969 95.351562 80.136719 95.335938 79.824219 94.960938 Z M 79.730469 95.039062 "
       id="path98" />
    <path
       style=" stroke:none;fill-rule:nonzero;fill:rgb(0%,0%,0%);fill-opacity:1;"
       d="M 83.484375 99.460938 L 83.46875 99.429688 C 83.265625 99.101562 83.28125 99.023438 83.578125 98.789062 L 85.765625 97.164062 L 85.015625 96.148438 L 84.90625 96.226562 C 85.1875 96.648438 85.171875 96.757812 84.859375 96.992188 L 83.34375 98.117188 C 83.171875 98.242188 83.0625 98.289062 82.921875 98.242188 C 82.65625 98.179688 82.421875 98.054688 82.28125 97.851562 C 82.09375 97.601562 82.171875 97.226562 82.4375 97.023438 L 84.515625 95.476562 L 83.828125 94.554688 L 83.734375 94.632812 C 83.9375 94.929688 83.921875 95.085938 83.625 95.320312 L 82 96.523438 C 81.5 96.882812 81.40625 97.445312 81.75 97.914062 C 81.9375 98.148438 82.21875 98.320312 82.515625 98.351562 L 83 98.429688 L 82.46875 98.820312 L 82.46875 98.867188 C 82.84375 99.085938 83.078125 99.257812 83.390625 99.523438 Z M 83.484375 99.460938 "
       id="path100" />
    <path
       style=" stroke:none;fill-rule:nonzero;fill:rgb(0%,0%,0%);fill-opacity:1;"
       d="M 87.363281 99.296875 L 86.878906 98.65625 L 87.628906 98.109375 C 87.691406 98.0625 87.707031 98.046875 87.675781 98 C 86.847656 98.03125 86.503906 98 86.238281 97.890625 C 86.160156 97.859375 86.097656 97.859375 86.050781 97.890625 C 86.035156 97.90625 86.019531 97.90625 86.019531 97.9375 L 86.269531 98.28125 L 84.347656 99.703125 C 83.816406 100.109375 83.675781 100.5 83.957031 100.875 C 84.191406 101.1875 84.535156 101.3125 85.019531 101.28125 L 85.019531 101.15625 C 84.753906 101.125 84.613281 101.0625 84.519531 100.921875 C 84.332031 100.6875 84.441406 100.46875 84.847656 100.171875 L 86.675781 98.8125 L 87.160156 99.453125 Z M 87.363281 99.296875 "
       id="path102" />
    <path
       style=" stroke:none;fill-rule:nonzero;fill:rgb(0%,0%,0%);fill-opacity:1;"
       d="M 84.636719 101.640625 L 85.761719 103.171875 L 85.855469 103.09375 C 85.574219 102.640625 85.605469 102.5625 86.058594 102.203125 L 88.324219 100.515625 L 88.339844 100.46875 L 87.246094 99.75 L 87.152344 99.8125 L 87.183594 99.859375 C 87.261719 99.9375 87.324219 100.015625 87.371094 100.078125 C 87.480469 100.21875 87.433594 100.359375 87.136719 100.578125 L 85.667969 101.671875 C 85.167969 102.015625 85.074219 102.015625 84.730469 101.5625 Z M 89.527344 99.109375 C 89.402344 98.953125 89.167969 98.90625 88.964844 99.046875 C 88.792969 99.171875 88.746094 99.421875 88.886719 99.59375 C 89.027344 99.796875 89.277344 99.828125 89.449219 99.703125 C 89.652344 99.5625 89.667969 99.296875 89.527344 99.109375 Z M 89.527344 99.109375 "
       id="path104" />
    <path
       style=" stroke:none;fill-rule:nonzero;fill:rgb(0%,0%,0%);fill-opacity:1;"
       d="M 89.984375 102.6875 C 89.359375 101.859375 88.3125 101.734375 87.421875 102.390625 C 86.5625 103.046875 86.359375 104.109375 86.953125 104.90625 C 87.5625 105.71875 88.6875 105.84375 89.578125 105.1875 C 90.421875 104.546875 90.59375 103.515625 89.984375 102.6875 Z M 89.734375 102.75 C 90.140625 103.296875 89.796875 104.125 88.921875 104.78125 C 88.203125 105.3125 87.546875 105.34375 87.1875 104.875 C 87 104.625 86.984375 104.25 87.140625 103.9375 C 87.34375 103.5 87.703125 103.078125 88.15625 102.75 C 88.78125 102.28125 89.390625 102.28125 89.734375 102.75 Z M 89.734375 102.75 "
       id="path106" />
    <path
       style=" stroke:none;fill-rule:nonzero;fill:rgb(0%,0%,0%);fill-opacity:1;"
       d="M 88.285156 106.570312 L 89.300781 107.929688 L 89.394531 107.851562 C 89.175781 107.539062 89.191406 107.351562 89.410156 107.195312 L 91.207031 105.851562 C 91.722656 105.960938 91.910156 106.039062 92.066406 106.242188 C 92.300781 106.554688 92.207031 106.851562 91.785156 107.164062 L 90.441406 108.164062 C 90.035156 108.460938 89.863281 108.460938 89.613281 108.148438 L 89.519531 108.226562 L 90.503906 109.554688 L 90.597656 109.476562 C 90.394531 109.148438 90.425781 109.023438 90.738281 108.789062 L 92.207031 107.695312 C 92.800781 107.242188 92.972656 106.710938 92.613281 106.226562 C 92.394531 105.945312 92.128906 105.820312 91.394531 105.695312 L 91.910156 105.304688 L 91.894531 105.257812 C 91.519531 105.023438 91.285156 104.851562 90.941406 104.585938 L 90.832031 104.664062 C 90.894531 104.710938 90.941406 104.757812 90.988281 104.835938 C 91.113281 105.007812 91.050781 105.148438 90.738281 105.367188 L 89.160156 106.554688 C 88.785156 106.804688 88.644531 106.820312 88.378906 106.492188 Z M 88.285156 106.570312 "
       id="path108" />
    <path
       style=" stroke:none;fill-rule:nonzero;fill:rgb(0%,0%,0%);fill-opacity:1;"
       d="M 74.941406 15.027344 L 74.910156 13.933594 L 74.816406 13.933594 C 74.769531 13.996094 74.738281 14.027344 74.691406 14.027344 C 74.644531 14.027344 74.566406 14.011719 74.472656 13.964844 C 74.285156 13.902344 74.113281 13.855469 73.910156 13.855469 C 73.285156 13.855469 72.832031 14.277344 72.832031 14.855469 C 72.832031 15.292969 73.082031 15.621094 73.769531 15.996094 L 74.222656 16.261719 C 74.503906 16.417969 74.644531 16.605469 74.644531 16.855469 C 74.644531 17.214844 74.378906 17.433594 73.972656 17.433594 C 73.425781 17.433594 73.144531 17.136719 72.972656 16.308594 L 72.847656 16.308594 L 72.847656 17.558594 L 72.941406 17.558594 C 73.003906 17.480469 73.035156 17.464844 73.128906 17.464844 C 73.207031 17.464844 73.316406 17.480469 73.488281 17.527344 C 73.707031 17.574219 73.910156 17.605469 74.082031 17.605469 C 74.691406 17.605469 75.191406 17.152344 75.191406 16.589844 C 75.191406 16.183594 75.003906 15.917969 74.535156 15.636719 L 73.675781 15.121094 C 73.441406 14.996094 73.332031 14.808594 73.332031 14.589844 C 73.332031 14.261719 73.566406 14.042969 73.941406 14.042969 C 74.394531 14.042969 74.628906 14.308594 74.816406 15.027344 Z M 74.941406 15.027344 "
       id="path110" />
    <path
       style=" stroke:none;fill-rule:nonzero;fill:rgb(0%,0%,0%);fill-opacity:1;"
       d="M 75.71875 17.527344 L 77.59375 17.527344 L 77.59375 17.402344 C 77.09375 17.386719 77 17.308594 77 16.855469 L 77 12.105469 L 76.96875 12.089844 C 76.5625 12.214844 76.265625 12.292969 75.703125 12.433594 L 75.703125 12.558594 L 75.75 12.558594 C 75.828125 12.558594 75.921875 12.542969 76 12.542969 C 76.25 12.542969 76.328125 12.652344 76.328125 13.027344 L 76.328125 16.839844 C 76.3125 17.261719 76.203125 17.371094 75.71875 17.402344 Z M 75.71875 17.527344 "
       id="path112" />
    <path
       style=" stroke:none;fill-rule:nonzero;fill:rgb(0%,0%,0%);fill-opacity:1;"
       d="M 79.691406 13.855469 C 78.660156 13.855469 77.941406 14.621094 77.941406 15.730469 C 77.941406 16.808594 78.675781 17.605469 79.675781 17.605469 C 80.691406 17.605469 81.457031 16.777344 81.457031 15.667969 C 81.457031 14.605469 80.722656 13.855469 79.691406 13.855469 Z M 79.597656 14.089844 C 80.269531 14.089844 80.738281 14.855469 80.738281 15.949219 C 80.738281 16.855469 80.378906 17.386719 79.785156 17.386719 C 79.472656 17.386719 79.175781 17.199219 79.003906 16.871094 C 78.785156 16.464844 78.660156 15.902344 78.660156 15.339844 C 78.660156 14.574219 79.019531 14.089844 79.597656 14.089844 Z M 79.597656 14.089844 "
       id="path114" />
    <path
       style=" stroke:none;fill-rule:nonzero;fill:rgb(0%,0%,0%);fill-opacity:1;"
       d="M 81.714844 19.261719 L 83.636719 19.261719 L 83.636719 19.105469 C 83.042969 19.105469 82.949219 19.027344 82.933594 18.511719 L 82.933594 17.261719 C 83.214844 17.527344 83.402344 17.605469 83.746094 17.605469 C 84.683594 17.605469 85.417969 16.714844 85.417969 15.558594 C 85.417969 14.574219 84.855469 13.855469 84.089844 13.855469 C 83.636719 13.855469 83.292969 14.058594 82.933594 14.496094 L 82.933594 13.871094 L 82.886719 13.855469 C 82.449219 14.027344 82.183594 14.136719 81.746094 14.261719 L 81.746094 14.402344 C 81.808594 14.386719 81.855469 14.386719 81.933594 14.386719 C 82.214844 14.386719 82.261719 14.464844 82.261719 14.839844 L 82.261719 18.574219 C 82.261719 18.996094 82.183594 19.074219 81.714844 19.121094 Z M 82.933594 14.871094 C 82.933594 14.621094 83.386719 14.339844 83.746094 14.339844 C 84.339844 14.339844 84.730469 14.949219 84.730469 15.871094 C 84.730469 16.761719 84.339844 17.355469 83.761719 17.355469 C 83.386719 17.355469 82.933594 17.058594 82.933594 16.824219 Z M 82.933594 14.871094 "
       id="path116" />
    <path
       style=" stroke:none;fill-rule:nonzero;fill:rgb(0%,0%,0%);fill-opacity:1;"
       d="M 88.878906 16.214844 C 88.503906 16.824219 88.160156 17.058594 87.644531 17.058594 C 87.191406 17.058594 86.847656 16.824219 86.613281 16.371094 C 86.472656 16.074219 86.410156 15.808594 86.394531 15.324219 L 88.863281 15.324219 C 88.785156 14.808594 88.707031 14.574219 88.519531 14.308594 C 88.269531 14.027344 87.910156 13.855469 87.488281 13.855469 C 87.097656 13.855469 86.722656 14.011719 86.410156 14.277344 C 86.050781 14.605469 85.832031 15.167969 85.832031 15.824219 C 85.832031 16.917969 86.394531 17.605469 87.316406 17.605469 C 88.082031 17.605469 88.675781 17.136719 89.003906 16.277344 Z M 86.410156 15.058594 C 86.503906 14.449219 86.769531 14.152344 87.269531 14.152344 C 87.753906 14.152344 87.941406 14.371094 88.050781 15.058594 Z M 86.410156 15.058594 "
       id="path118" />
    <path
       style=" stroke:none;fill-rule:nonzero;fill:rgb(0%,0%,0%);fill-opacity:1;"
       d="M 97.917969 14.121094 L 92.089844 14.121094 L 92.089844 14.683594 L 97.917969 14.683594 Z M 97.917969 15.761719 L 92.089844 15.761719 L 92.089844 16.324219 L 97.917969 16.324219 Z M 97.917969 15.761719 "
       id="path120" />
    <path
       style=" stroke:none;fill-rule:nonzero;fill:rgb(0%,0%,0%);fill-opacity:1;"
       d="M 101.351562 15.464844 L 106.726562 15.464844 L 106.726562 14.980469 L 101.351562 14.980469 Z M 101.351562 15.464844 "
       id="path122" />
    <path
       style=" stroke:none;fill-rule:nonzero;fill:rgb(0%,0%,0%);fill-opacity:1;"
       d="M 116.300781 5.894531 L 113.910156 5.894531 L 113.863281 6.144531 C 114.191406 6.144531 114.535156 6.144531 114.535156 6.488281 C 114.535156 6.597656 114.488281 6.722656 114.394531 7.019531 L 114.035156 8.378906 L 111.535156 8.378906 L 111.957031 6.941406 C 112.128906 6.363281 112.394531 6.144531 112.925781 6.144531 L 112.972656 5.894531 L 110.472656 5.894531 L 110.425781 6.144531 C 110.738281 6.144531 111.097656 6.144531 111.097656 6.488281 C 111.097656 6.597656 111.066406 6.722656 110.972656 7.019531 L 109.941406 10.582031 C 109.707031 11.394531 109.457031 11.394531 109.050781 11.394531 L 109.003906 11.644531 L 111.410156 11.644531 L 111.441406 11.394531 C 111.175781 11.394531 110.832031 11.378906 110.832031 11.003906 C 110.832031 10.941406 110.832031 10.832031 110.863281 10.738281 L 111.410156 8.816406 L 113.894531 8.816406 L 113.378906 10.582031 C 113.128906 11.394531 112.832031 11.394531 112.425781 11.394531 L 112.363281 11.644531 L 114.910156 11.644531 L 114.957031 11.394531 C 114.597656 11.394531 114.300781 11.410156 114.300781 11.035156 C 114.300781 10.941406 114.300781 10.800781 114.363281 10.628906 L 115.425781 6.941406 C 115.597656 6.363281 115.832031 6.144531 116.253906 6.144531 Z M 116.300781 5.894531 "
       id="path124" />
    <path
       style=" stroke:none;fill-rule:nonzero;fill:rgb(0%,0%,0%);fill-opacity:1;"
       d="M 120.847656 7.339844 C 120.847656 7.246094 120.785156 7.167969 120.644531 7.121094 C 120.441406 7.011719 119.707031 6.761719 119.441406 6.699219 C 119.707031 6.636719 120.441406 6.386719 120.644531 6.277344 C 120.785156 6.214844 120.847656 6.136719 120.847656 6.058594 C 120.847656 5.949219 120.722656 5.839844 120.597656 5.839844 C 120.519531 5.839844 120.472656 5.855469 120.378906 5.886719 C 120.175781 5.996094 119.550781 6.417969 119.363281 6.558594 C 119.425781 6.355469 119.535156 5.683594 119.535156 5.480469 C 119.535156 5.292969 119.425781 5.199219 119.269531 5.199219 C 119.113281 5.199219 119.003906 5.292969 119.003906 5.480469 C 119.003906 5.683594 119.113281 6.355469 119.175781 6.558594 C 118.988281 6.417969 118.363281 5.996094 118.160156 5.886719 C 118.066406 5.855469 118.019531 5.839844 117.941406 5.839844 C 117.800781 5.839844 117.691406 5.949219 117.691406 6.058594 C 117.691406 6.136719 117.753906 6.214844 117.894531 6.277344 C 118.097656 6.386719 118.832031 6.636719 119.097656 6.699219 C 118.832031 6.761719 118.097656 7.011719 117.894531 7.121094 C 117.753906 7.167969 117.691406 7.246094 117.691406 7.339844 C 117.691406 7.449219 117.800781 7.558594 117.941406 7.558594 C 118.019531 7.558594 118.066406 7.527344 118.160156 7.496094 C 118.363281 7.402344 118.988281 6.964844 119.175781 6.824219 C 119.113281 7.042969 119.003906 7.714844 119.003906 7.902344 C 119.003906 8.089844 119.113281 8.183594 119.269531 8.183594 C 119.425781 8.183594 119.535156 8.089844 119.535156 7.902344 C 119.535156 7.714844 119.425781 7.042969 119.363281 6.824219 C 119.550781 6.964844 120.175781 7.402344 120.378906 7.496094 C 120.472656 7.527344 120.519531 7.558594 120.597656 7.558594 C 120.722656 7.558594 120.847656 7.449219 120.847656 7.339844 Z M 120.847656 7.339844 "
       id="path126" />
    <path
       style=" stroke:none;fill-rule:nonzero;fill:rgb(0%,0%,0%);fill-opacity:1;"
       d="M 120.207031 13.816406 C 119.941406 13.800781 119.878906 13.738281 119.675781 13.285156 L 118.191406 9.894531 L 118.066406 9.894531 L 116.816406 12.832031 C 116.441406 13.707031 116.363281 13.800781 116.082031 13.816406 L 116.082031 13.925781 L 117.269531 13.925781 L 117.269531 13.816406 C 116.972656 13.816406 116.863281 13.738281 116.863281 13.566406 C 116.863281 13.488281 116.878906 13.410156 116.910156 13.332031 L 117.175781 12.628906 L 118.753906 12.628906 L 118.988281 13.207031 C 119.066406 13.363281 119.113281 13.519531 119.113281 13.613281 C 119.113281 13.753906 119.003906 13.800781 118.691406 13.816406 L 118.691406 13.925781 L 120.207031 13.925781 Z M 117.285156 12.394531 L 117.972656 10.738281 L 118.660156 12.394531 Z M 117.285156 12.394531 "
       id="path128" />
    <path
       style=" stroke:none;fill-rule:nonzero;fill:rgb(0%,0%,0%);fill-opacity:1;"
       d="M 124.332031 6.253906 C 123.753906 6.644531 123.503906 6.847656 123.222656 7.207031 C 122.644531 7.910156 122.363281 8.707031 122.363281 9.628906 C 122.363281 10.660156 122.660156 11.425781 123.363281 12.238281 C 123.691406 12.628906 123.894531 12.800781 124.316406 13.050781 L 124.410156 12.925781 C 123.769531 12.425781 123.550781 12.144531 123.332031 11.550781 C 123.144531 11.019531 123.050781 10.410156 123.050781 9.613281 C 123.050781 8.769531 123.160156 8.113281 123.378906 7.628906 C 123.597656 7.128906 123.832031 6.847656 124.410156 6.378906 Z M 124.332031 6.253906 "
       id="path130" />
    <path
       style=" stroke:none;fill-rule:nonzero;fill:rgb(0%,0%,0%);fill-opacity:1;"
       d="M 127.144531 9.144531 L 127.113281 8.050781 L 127.019531 8.050781 C 126.972656 8.113281 126.941406 8.144531 126.894531 8.144531 C 126.847656 8.144531 126.769531 8.128906 126.675781 8.082031 C 126.488281 8.019531 126.316406 7.972656 126.113281 7.972656 C 125.488281 7.972656 125.035156 8.394531 125.035156 8.972656 C 125.035156 9.410156 125.285156 9.738281 125.972656 10.113281 L 126.425781 10.378906 C 126.707031 10.535156 126.847656 10.722656 126.847656 10.972656 C 126.847656 11.332031 126.582031 11.550781 126.175781 11.550781 C 125.628906 11.550781 125.347656 11.253906 125.175781 10.425781 L 125.050781 10.425781 L 125.050781 11.675781 L 125.144531 11.675781 C 125.207031 11.597656 125.238281 11.582031 125.332031 11.582031 C 125.410156 11.582031 125.519531 11.597656 125.691406 11.644531 C 125.910156 11.691406 126.113281 11.722656 126.285156 11.722656 C 126.894531 11.722656 127.394531 11.269531 127.394531 10.707031 C 127.394531 10.300781 127.207031 10.035156 126.738281 9.753906 L 125.878906 9.238281 C 125.644531 9.113281 125.535156 8.925781 125.535156 8.707031 C 125.535156 8.378906 125.769531 8.160156 126.144531 8.160156 C 126.597656 8.160156 126.832031 8.425781 127.019531 9.144531 Z M 127.144531 9.144531 "
       id="path132" />
    <path
       style=" stroke:none;fill-rule:nonzero;fill:rgb(0%,0%,0%);fill-opacity:1;"
       d="M 128.042969 13.050781 C 128.636719 12.660156 128.871094 12.472656 129.167969 12.097656 C 129.730469 11.410156 130.011719 10.613281 130.011719 9.675781 C 130.011719 8.660156 129.714844 7.878906 129.027344 7.066406 C 128.699219 6.691406 128.480469 6.519531 128.074219 6.253906 L 127.980469 6.378906 C 128.621094 6.894531 128.824219 7.160156 129.058594 7.769531 C 129.246094 8.300781 129.324219 8.894531 129.324219 9.707031 C 129.324219 10.535156 129.230469 11.191406 129.011719 11.675781 C 128.792969 12.175781 128.558594 12.472656 127.980469 12.925781 Z M 128.042969 13.050781 "
       id="path134" />
    <path
       style=" stroke:none;fill-rule:nonzero;fill:rgb(0%,0%,0%);fill-opacity:1;"
       d="M 108.417969 15.375 L 130.378906 15.375 L 130.378906 14.894531 L 108.417969 14.894531 Z M 108.417969 15.375 "
       id="path136" />
    <path
       style=" stroke:none;fill-rule:nonzero;fill:rgb(0%,0%,0%);fill-opacity:1;"
       d="M 119.984375 17.414062 L 114.96875 17.414062 L 114.515625 18.960938 L 114.796875 18.960938 C 115.171875 18.039062 115.609375 17.835938 116.34375 17.835938 C 116.34375 17.835938 116.71875 17.835938 116.890625 17.835938 L 115.65625 22.101562 C 115.40625 22.914062 115.140625 22.914062 114.765625 22.914062 L 114.703125 23.164062 L 117.125 23.164062 L 117.171875 22.914062 C 116.8125 22.914062 116.5 22.929688 116.5 22.539062 C 116.5 22.445312 116.515625 22.304688 116.5625 22.148438 L 117.796875 17.835938 L 118.5 17.835938 C 118.90625 17.835938 119.34375 17.882812 119.34375 18.414062 C 119.34375 18.539062 119.328125 18.679688 119.25 18.960938 L 119.53125 18.960938 Z M 119.984375 17.414062 "
       id="path138" />
    <path
       style=" stroke:none;fill-rule:nonzero;fill:rgb(0%,0%,0%);fill-opacity:1;"
       d="M 124.25 20.042969 L 124.125 20.027344 C 123.890625 20.355469 123.703125 20.417969 123.3125 20.417969 L 121.53125 20.417969 C 122.75 19.480469 123.875 18.621094 123.875 17.667969 C 123.875 17.011719 123.1875 16.527344 122.4375 16.527344 C 121.6875 16.527344 121.078125 16.871094 120.859375 17.761719 L 121.03125 17.761719 C 121.25 17.402344 121.546875 17.027344 122.15625 17.027344 C 122.828125 17.027344 123.203125 17.449219 123.203125 17.949219 C 123.203125 18.636719 122.3125 19.667969 120.78125 20.792969 L 120.78125 20.886719 L 123.84375 20.886719 Z M 124.25 20.042969 "
       id="path140" />
    <path
       style=" stroke:none;fill-rule:nonzero;fill:rgb(0%,0%,0%);fill-opacity:1;"
       d="M 48.804688 27.945312 L 47.492188 31.371094 L 50.671875 29.570312 L 48.839844 29.8125 "
       id="path142" />
    <path
       style="fill:none;stroke-width:2.83298;stroke-linecap:butt;stroke-linejoin:miter;stroke:rgb(0%,0%,0%);stroke-opacity:1;stroke-miterlimit:10;"
       d="M 701.5625 1568.4375 C 606.210938 1568.4375 537.226562 1468.242188 488.359375 1412.109375 "
       transform="matrix(0.1,0,0,-0.1,0,171)"
       id="path144" />
    <path
       style=" stroke:none;fill-rule:nonzero;fill:rgb(0%,0%,0%);fill-opacity:1;"
       d="M 127.101562 83.054688 L 127.070312 81.960938 L 126.976562 81.960938 C 126.929688 82.023438 126.898438 82.054688 126.851562 82.054688 C 126.804688 82.054688 126.726562 82.039062 126.632812 81.992188 C 126.445312 81.929688 126.273438 81.882812 126.070312 81.882812 C 125.445312 81.882812 124.992188 82.304688 124.992188 82.882812 C 124.992188 83.320312 125.242188 83.648438 125.929688 84.023438 L 126.382812 84.289062 C 126.664062 84.445312 126.804688 84.632812 126.804688 84.882812 C 126.804688 85.242188 126.539062 85.460938 126.132812 85.460938 C 125.585938 85.460938 125.304688 85.164062 125.132812 84.335938 L 125.007812 84.335938 L 125.007812 85.585938 L 125.101562 85.585938 C 125.164062 85.507812 125.195312 85.492188 125.289062 85.492188 C 125.367188 85.492188 125.476562 85.507812 125.648438 85.554688 C 125.867188 85.601562 126.070312 85.632812 126.242188 85.632812 C 126.851562 85.632812 127.351562 85.179688 127.351562 84.617188 C 127.351562 84.210938 127.164062 83.945312 126.695312 83.664062 L 125.835938 83.148438 C 125.601562 83.023438 125.492188 82.835938 125.492188 82.617188 C 125.492188 82.289062 125.726562 82.070312 126.101562 82.070312 C 126.554688 82.070312 126.789062 82.335938 126.976562 83.054688 Z M 127.101562 83.054688 "
       id="path146" />
    <path
       style=" stroke:none;fill-rule:nonzero;fill:rgb(0%,0%,0%);fill-opacity:1;"
       d="M 127.878906 85.554688 L 129.753906 85.554688 L 129.753906 85.429688 C 129.253906 85.414062 129.160156 85.335938 129.160156 84.882812 L 129.160156 80.132812 L 129.128906 80.117188 C 128.722656 80.242188 128.425781 80.320312 127.863281 80.460938 L 127.863281 80.585938 L 127.910156 80.585938 C 127.988281 80.585938 128.082031 80.570312 128.160156 80.570312 C 128.410156 80.570312 128.488281 80.679688 128.488281 81.054688 L 128.488281 84.867188 C 128.472656 85.289062 128.363281 85.398438 127.878906 85.429688 Z M 127.878906 85.554688 "
       id="path148" />
    <path
       style=" stroke:none;fill-rule:nonzero;fill:rgb(0%,0%,0%);fill-opacity:1;"
       d="M 131.851562 81.882812 C 130.820312 81.882812 130.101562 82.648438 130.101562 83.757812 C 130.101562 84.835938 130.835938 85.632812 131.835938 85.632812 C 132.851562 85.632812 133.617188 84.804688 133.617188 83.695312 C 133.617188 82.632812 132.882812 81.882812 131.851562 81.882812 Z M 131.757812 82.117188 C 132.429688 82.117188 132.898438 82.882812 132.898438 83.976562 C 132.898438 84.882812 132.539062 85.414062 131.945312 85.414062 C 131.632812 85.414062 131.335938 85.226562 131.164062 84.898438 C 130.945312 84.492188 130.820312 83.929688 130.820312 83.367188 C 130.820312 82.601562 131.179688 82.117188 131.757812 82.117188 Z M 131.757812 82.117188 "
       id="path150" />
    <path
       style=" stroke:none;fill-rule:nonzero;fill:rgb(0%,0%,0%);fill-opacity:1;"
       d="M 133.875 87.289062 L 135.796875 87.289062 L 135.796875 87.132812 C 135.203125 87.132812 135.109375 87.054688 135.09375 86.539062 L 135.09375 85.289062 C 135.375 85.554688 135.5625 85.632812 135.90625 85.632812 C 136.84375 85.632812 137.578125 84.742188 137.578125 83.585938 C 137.578125 82.601562 137.015625 81.882812 136.25 81.882812 C 135.796875 81.882812 135.453125 82.085938 135.09375 82.523438 L 135.09375 81.898438 L 135.046875 81.882812 C 134.609375 82.054688 134.34375 82.164062 133.90625 82.289062 L 133.90625 82.429688 C 133.96875 82.414062 134.015625 82.414062 134.09375 82.414062 C 134.375 82.414062 134.421875 82.492188 134.421875 82.867188 L 134.421875 86.601562 C 134.421875 87.023438 134.34375 87.101562 133.875 87.148438 Z M 135.09375 82.898438 C 135.09375 82.648438 135.546875 82.367188 135.90625 82.367188 C 136.5 82.367188 136.890625 82.976562 136.890625 83.898438 C 136.890625 84.789062 136.5 85.382812 135.921875 85.382812 C 135.546875 85.382812 135.09375 85.085938 135.09375 84.851562 Z M 135.09375 82.898438 "
       id="path152" />
    <path
       style=" stroke:none;fill-rule:nonzero;fill:rgb(0%,0%,0%);fill-opacity:1;"
       d="M 141.039062 84.242188 C 140.664062 84.851562 140.320312 85.085938 139.804688 85.085938 C 139.351562 85.085938 139.007812 84.851562 138.773438 84.398438 C 138.632812 84.101562 138.570312 83.835938 138.554688 83.351562 L 141.023438 83.351562 C 140.945312 82.835938 140.867188 82.601562 140.679688 82.335938 C 140.429688 82.054688 140.070312 81.882812 139.648438 81.882812 C 139.257812 81.882812 138.882812 82.039062 138.570312 82.304688 C 138.210938 82.632812 137.992188 83.195312 137.992188 83.851562 C 137.992188 84.945312 138.554688 85.632812 139.476562 85.632812 C 140.242188 85.632812 140.835938 85.164062 141.164062 84.304688 Z M 138.570312 83.085938 C 138.664062 82.476562 138.929688 82.179688 139.429688 82.179688 C 139.914062 82.179688 140.101562 82.398438 140.210938 83.085938 Z M 138.570312 83.085938 "
       id="path154" />
    <path
       style=" stroke:none;fill-rule:nonzero;fill:rgb(0%,0%,0%);fill-opacity:1;"
       d="M 150.078125 82.148438 L 144.25 82.148438 L 144.25 82.710938 L 150.078125 82.710938 Z M 150.078125 83.789062 L 144.25 83.789062 L 144.25 84.351562 L 150.078125 84.351562 Z M 150.078125 83.789062 "
       id="path156" />
    <path
       style=" stroke:none;fill-rule:nonzero;fill:rgb(0%,0%,0%);fill-opacity:1;"
       d="M 153.511719 83.492188 L 158.886719 83.492188 L 158.886719 83.007812 L 153.511719 83.007812 Z M 153.511719 83.492188 "
       id="path158" />
    <path
       style=" stroke:none;fill-rule:nonzero;fill:rgb(0%,0%,0%);fill-opacity:1;"
       d="M 168.460938 73.925781 L 166.070312 73.925781 L 166.023438 74.175781 C 166.351562 74.175781 166.695312 74.175781 166.695312 74.519531 C 166.695312 74.628906 166.648438 74.753906 166.554688 75.050781 L 166.195312 76.410156 L 163.695312 76.410156 L 164.117188 74.972656 C 164.289062 74.394531 164.554688 74.175781 165.085938 74.175781 L 165.132812 73.925781 L 162.632812 73.925781 L 162.585938 74.175781 C 162.898438 74.175781 163.257812 74.175781 163.257812 74.519531 C 163.257812 74.628906 163.226562 74.753906 163.132812 75.050781 L 162.101562 78.613281 C 161.867188 79.425781 161.617188 79.425781 161.210938 79.425781 L 161.164062 79.675781 L 163.570312 79.675781 L 163.601562 79.425781 C 163.335938 79.425781 162.992188 79.410156 162.992188 79.035156 C 162.992188 78.972656 162.992188 78.863281 163.023438 78.769531 L 163.570312 76.847656 L 166.054688 76.847656 L 165.539062 78.613281 C 165.289062 79.425781 164.992188 79.425781 164.585938 79.425781 L 164.523438 79.675781 L 167.070312 79.675781 L 167.117188 79.425781 C 166.757812 79.425781 166.460938 79.441406 166.460938 79.066406 C 166.460938 78.972656 166.460938 78.832031 166.523438 78.660156 L 167.585938 74.972656 C 167.757812 74.394531 167.992188 74.175781 168.414062 74.175781 Z M 168.460938 73.925781 "
       id="path160" />
    <path
       style=" stroke:none;fill-rule:nonzero;fill:rgb(0%,0%,0%);fill-opacity:1;"
       d="M 173.007812 75.367188 C 173.007812 75.273438 172.945312 75.195312 172.804688 75.148438 C 172.601562 75.039062 171.867188 74.789062 171.601562 74.726562 C 171.867188 74.664062 172.601562 74.414062 172.804688 74.304688 C 172.945312 74.242188 173.007812 74.164062 173.007812 74.085938 C 173.007812 73.976562 172.882812 73.867188 172.757812 73.867188 C 172.679688 73.867188 172.632812 73.882812 172.539062 73.914062 C 172.335938 74.023438 171.710938 74.445312 171.523438 74.585938 C 171.585938 74.382812 171.695312 73.710938 171.695312 73.507812 C 171.695312 73.320312 171.585938 73.226562 171.429688 73.226562 C 171.273438 73.226562 171.164062 73.320312 171.164062 73.507812 C 171.164062 73.710938 171.273438 74.382812 171.335938 74.585938 C 171.148438 74.445312 170.523438 74.023438 170.320312 73.914062 C 170.226562 73.882812 170.179688 73.867188 170.101562 73.867188 C 169.960938 73.867188 169.851562 73.976562 169.851562 74.085938 C 169.851562 74.164062 169.914062 74.242188 170.054688 74.304688 C 170.257812 74.414062 170.992188 74.664062 171.257812 74.726562 C 170.992188 74.789062 170.257812 75.039062 170.054688 75.148438 C 169.914062 75.195312 169.851562 75.273438 169.851562 75.367188 C 169.851562 75.476562 169.960938 75.585938 170.101562 75.585938 C 170.179688 75.585938 170.226562 75.554688 170.320312 75.523438 C 170.523438 75.429688 171.148438 74.992188 171.335938 74.851562 C 171.273438 75.070312 171.164062 75.742188 171.164062 75.929688 C 171.164062 76.117188 171.273438 76.210938 171.429688 76.210938 C 171.585938 76.210938 171.695312 76.117188 171.695312 75.929688 C 171.695312 75.742188 171.585938 75.070312 171.523438 74.851562 C 171.710938 74.992188 172.335938 75.429688 172.539062 75.523438 C 172.632812 75.554688 172.679688 75.585938 172.757812 75.585938 C 172.882812 75.585938 173.007812 75.476562 173.007812 75.367188 Z M 173.007812 75.367188 "
       id="path162" />
    <path
       style=" stroke:none;fill-rule:nonzero;fill:rgb(0%,0%,0%);fill-opacity:1;"
       d="M 172.367188 81.847656 C 172.101562 81.832031 172.039062 81.769531 171.835938 81.316406 L 170.351562 77.925781 L 170.226562 77.925781 L 168.976562 80.863281 C 168.601562 81.738281 168.523438 81.832031 168.242188 81.847656 L 168.242188 81.957031 L 169.429688 81.957031 L 169.429688 81.847656 C 169.132812 81.847656 169.023438 81.769531 169.023438 81.597656 C 169.023438 81.519531 169.039062 81.441406 169.070312 81.363281 L 169.335938 80.660156 L 170.914062 80.660156 L 171.148438 81.238281 C 171.226562 81.394531 171.273438 81.550781 171.273438 81.644531 C 171.273438 81.785156 171.164062 81.832031 170.851562 81.847656 L 170.851562 81.957031 L 172.367188 81.957031 Z M 169.445312 80.425781 L 170.132812 78.769531 L 170.820312 80.425781 Z M 169.445312 80.425781 "
       id="path164" />
    <path
       style=" stroke:none;fill-rule:nonzero;fill:rgb(0%,0%,0%);fill-opacity:1;"
       d="M 176.492188 74.285156 C 175.914062 74.675781 175.664062 74.878906 175.382812 75.238281 C 174.804688 75.941406 174.523438 76.738281 174.523438 77.660156 C 174.523438 78.691406 174.820312 79.457031 175.523438 80.269531 C 175.851562 80.660156 176.054688 80.832031 176.476562 81.082031 L 176.570312 80.957031 C 175.929688 80.457031 175.710938 80.175781 175.492188 79.582031 C 175.304688 79.050781 175.210938 78.441406 175.210938 77.644531 C 175.210938 76.800781 175.320312 76.144531 175.539062 75.660156 C 175.757812 75.160156 175.992188 74.878906 176.570312 74.410156 Z M 176.492188 74.285156 "
       id="path166" />
    <path
       style=" stroke:none;fill-rule:nonzero;fill:rgb(0%,0%,0%);fill-opacity:1;"
       d="M 176.960938 79.675781 L 178.835938 79.675781 L 178.835938 79.550781 C 178.335938 79.535156 178.242188 79.457031 178.242188 79.003906 L 178.242188 74.253906 L 178.210938 74.238281 C 177.804688 74.363281 177.507812 74.441406 176.945312 74.582031 L 176.945312 74.707031 L 176.992188 74.707031 C 177.070312 74.707031 177.164062 74.691406 177.242188 74.691406 C 177.492188 74.691406 177.570312 74.800781 177.570312 75.175781 L 177.570312 78.988281 C 177.554688 79.410156 177.445312 79.519531 176.960938 79.550781 Z M 176.960938 79.675781 "
       id="path168" />
    <path
       style=" stroke:none;fill-rule:nonzero;fill:rgb(0%,0%,0%);fill-opacity:1;"
       d="M 179.246094 81.082031 C 179.839844 80.691406 180.074219 80.503906 180.371094 80.128906 C 180.933594 79.441406 181.214844 78.644531 181.214844 77.707031 C 181.214844 76.691406 180.917969 75.910156 180.230469 75.097656 C 179.902344 74.722656 179.683594 74.550781 179.277344 74.285156 L 179.183594 74.410156 C 179.824219 74.925781 180.027344 75.191406 180.261719 75.800781 C 180.449219 76.332031 180.527344 76.925781 180.527344 77.738281 C 180.527344 78.566406 180.433594 79.222656 180.214844 79.707031 C 179.996094 80.207031 179.761719 80.503906 179.183594 80.957031 Z M 179.246094 81.082031 "
       id="path170" />
    <path
       style=" stroke:none;fill-rule:nonzero;fill:rgb(0%,0%,0%);fill-opacity:1;"
       d="M 160.578125 83.40625 L 181.699219 83.40625 L 181.699219 82.925781 L 160.578125 82.925781 Z M 160.578125 83.40625 "
       id="path172" />
    <path
       style=" stroke:none;fill-rule:nonzero;fill:rgb(0%,0%,0%);fill-opacity:1;"
       d="M 171.664062 85.445312 L 166.648438 85.445312 L 166.195312 86.992188 L 166.476562 86.992188 C 166.851562 86.070312 167.289062 85.867188 168.023438 85.867188 C 168.023438 85.867188 168.398438 85.867188 168.570312 85.867188 L 167.335938 90.132812 C 167.085938 90.945312 166.820312 90.945312 166.445312 90.945312 L 166.382812 91.195312 L 168.804688 91.195312 L 168.851562 90.945312 C 168.492188 90.945312 168.179688 90.960938 168.179688 90.570312 C 168.179688 90.476562 168.195312 90.335938 168.242188 90.179688 L 169.476562 85.867188 L 170.179688 85.867188 C 170.585938 85.867188 171.023438 85.914062 171.023438 86.445312 C 171.023438 86.570312 171.007812 86.710938 170.929688 86.992188 L 171.210938 86.992188 Z M 171.664062 85.445312 "
       id="path174" />
    <path
       style=" stroke:none;fill-rule:nonzero;fill:rgb(0%,0%,0%);fill-opacity:1;"
       d="M 176.050781 88.070312 L 175.925781 88.054688 C 175.691406 88.382812 175.503906 88.445312 175.113281 88.445312 L 173.332031 88.445312 C 174.550781 87.507812 175.675781 86.648438 175.675781 85.695312 C 175.675781 85.039062 174.988281 84.554688 174.238281 84.554688 C 173.488281 84.554688 172.878906 84.898438 172.660156 85.789062 L 172.832031 85.789062 C 173.050781 85.429688 173.347656 85.054688 173.957031 85.054688 C 174.628906 85.054688 175.003906 85.476562 175.003906 85.976562 C 175.003906 86.664062 174.113281 87.695312 172.582031 88.820312 L 172.582031 88.914062 L 175.644531 88.914062 Z M 176.050781 88.070312 "
       id="path176" />
    <path
       style=" stroke:none;fill-rule:nonzero;fill:rgb(0%,0%,0%);fill-opacity:1;"
       d="M 101.65625 89.476562 L 99.640625 92.554688 L 103.128906 91.460938 L 101.28125 91.292969 "
       id="path178" />
    <path
       style="fill:none;stroke-width:2.83298;stroke-linecap:butt;stroke-linejoin:miter;stroke:rgb(0%,0%,0%);stroke-opacity:1;stroke-miterlimit:10;"
       d="M 1223.359375 888.085938 C 1139.804688 888.085938 1063.085938 835 1013.085938 796.992188 "
       transform="matrix(0.1,0,0,-0.1,0,171)"
       id="path180" />
    <path
       style=" stroke:none;fill-rule:nonzero;fill:rgb(0%,0%,0%);fill-opacity:1;"
       d="M 140.714844 108.085938 L 140.683594 106.992188 L 140.589844 106.992188 C 140.542969 107.054688 140.511719 107.085938 140.464844 107.085938 C 140.417969 107.085938 140.339844 107.070312 140.246094 107.023438 C 140.058594 106.960938 139.886719 106.914062 139.683594 106.914062 C 139.058594 106.914062 138.605469 107.335938 138.605469 107.914062 C 138.605469 108.351562 138.855469 108.679688 139.542969 109.054688 L 139.996094 109.320312 C 140.277344 109.476562 140.417969 109.664062 140.417969 109.914062 C 140.417969 110.273438 140.152344 110.492188 139.746094 110.492188 C 139.199219 110.492188 138.917969 110.195312 138.746094 109.367188 L 138.621094 109.367188 L 138.621094 110.617188 L 138.714844 110.617188 C 138.777344 110.539062 138.808594 110.523438 138.902344 110.523438 C 138.980469 110.523438 139.089844 110.539062 139.261719 110.585938 C 139.480469 110.632812 139.683594 110.664062 139.855469 110.664062 C 140.464844 110.664062 140.964844 110.210938 140.964844 109.648438 C 140.964844 109.242188 140.777344 108.976562 140.308594 108.695312 L 139.449219 108.179688 C 139.214844 108.054688 139.105469 107.867188 139.105469 107.648438 C 139.105469 107.320312 139.339844 107.101562 139.714844 107.101562 C 140.167969 107.101562 140.402344 107.367188 140.589844 108.085938 Z M 140.714844 108.085938 "
       id="path182" />
    <path
       style=" stroke:none;fill-rule:nonzero;fill:rgb(0%,0%,0%);fill-opacity:1;"
       d="M 141.488281 110.585938 L 143.363281 110.585938 L 143.363281 110.460938 C 142.863281 110.445312 142.769531 110.367188 142.769531 109.914062 L 142.769531 105.164062 L 142.738281 105.148438 C 142.332031 105.273438 142.035156 105.351562 141.472656 105.492188 L 141.472656 105.617188 L 141.519531 105.617188 C 141.597656 105.617188 141.691406 105.601562 141.769531 105.601562 C 142.019531 105.601562 142.097656 105.710938 142.097656 106.085938 L 142.097656 109.898438 C 142.082031 110.320312 141.972656 110.429688 141.488281 110.460938 Z M 141.488281 110.585938 "
       id="path184" />
    <path
       style=" stroke:none;fill-rule:nonzero;fill:rgb(0%,0%,0%);fill-opacity:1;"
       d="M 145.460938 106.914062 C 144.429688 106.914062 143.710938 107.679688 143.710938 108.789062 C 143.710938 109.867188 144.445312 110.664062 145.445312 110.664062 C 146.460938 110.664062 147.226562 109.835938 147.226562 108.726562 C 147.226562 107.664062 146.492188 106.914062 145.460938 106.914062 Z M 145.367188 107.148438 C 146.039062 107.148438 146.507812 107.914062 146.507812 109.007812 C 146.507812 109.914062 146.148438 110.445312 145.554688 110.445312 C 145.242188 110.445312 144.945312 110.257812 144.773438 109.929688 C 144.554688 109.523438 144.429688 108.960938 144.429688 108.398438 C 144.429688 107.632812 144.789062 107.148438 145.367188 107.148438 Z M 145.367188 107.148438 "
       id="path186" />
    <path
       style=" stroke:none;fill-rule:nonzero;fill:rgb(0%,0%,0%);fill-opacity:1;"
       d="M 147.484375 112.320312 L 149.40625 112.320312 L 149.40625 112.164062 C 148.8125 112.164062 148.71875 112.085938 148.703125 111.570312 L 148.703125 110.320312 C 148.984375 110.585938 149.171875 110.664062 149.515625 110.664062 C 150.453125 110.664062 151.1875 109.773438 151.1875 108.617188 C 151.1875 107.632812 150.625 106.914062 149.859375 106.914062 C 149.40625 106.914062 149.0625 107.117188 148.703125 107.554688 L 148.703125 106.929688 L 148.65625 106.914062 C 148.21875 107.085938 147.953125 107.195312 147.515625 107.320312 L 147.515625 107.460938 C 147.578125 107.445312 147.625 107.445312 147.703125 107.445312 C 147.984375 107.445312 148.03125 107.523438 148.03125 107.898438 L 148.03125 111.632812 C 148.03125 112.054688 147.953125 112.132812 147.484375 112.179688 Z M 148.703125 107.929688 C 148.703125 107.679688 149.15625 107.398438 149.515625 107.398438 C 150.109375 107.398438 150.5 108.007812 150.5 108.929688 C 150.5 109.820312 150.109375 110.414062 149.53125 110.414062 C 149.15625 110.414062 148.703125 110.117188 148.703125 109.882812 Z M 148.703125 107.929688 "
       id="path188" />
    <path
       style=" stroke:none;fill-rule:nonzero;fill:rgb(0%,0%,0%);fill-opacity:1;"
       d="M 154.648438 109.273438 C 154.273438 109.882812 153.929688 110.117188 153.414062 110.117188 C 152.960938 110.117188 152.617188 109.882812 152.382812 109.429688 C 152.242188 109.132812 152.179688 108.867188 152.164062 108.382812 L 154.632812 108.382812 C 154.554688 107.867188 154.476562 107.632812 154.289062 107.367188 C 154.039062 107.085938 153.679688 106.914062 153.257812 106.914062 C 152.867188 106.914062 152.492188 107.070312 152.179688 107.335938 C 151.820312 107.664062 151.601562 108.226562 151.601562 108.882812 C 151.601562 109.976562 152.164062 110.664062 153.085938 110.664062 C 153.851562 110.664062 154.445312 110.195312 154.773438 109.335938 Z M 152.179688 108.117188 C 152.273438 107.507812 152.539062 107.210938 153.039062 107.210938 C 153.523438 107.210938 153.710938 107.429688 153.820312 108.117188 Z M 152.179688 108.117188 "
       id="path190" />
    <path
       style=" stroke:none;fill-rule:nonzero;fill:rgb(0%,0%,0%);fill-opacity:1;"
       d="M 163.6875 107.179688 L 157.859375 107.179688 L 157.859375 107.742188 L 163.6875 107.742188 Z M 163.6875 108.820312 L 157.859375 108.820312 L 157.859375 109.382812 L 163.6875 109.382812 Z M 163.6875 108.820312 "
       id="path192" />
    <path
       style=" stroke:none;fill-rule:nonzero;fill:rgb(0%,0%,0%);fill-opacity:1;"
       d="M 167.121094 108.523438 L 172.496094 108.523438 L 172.496094 108.039062 L 167.121094 108.039062 Z M 167.121094 108.523438 "
       id="path194" />
    <path
       style=" stroke:none;fill-rule:nonzero;fill:rgb(0%,0%,0%);fill-opacity:1;"
       d="M 182.074219 99.195312 L 179.683594 99.195312 L 179.636719 99.445312 C 179.964844 99.445312 180.308594 99.445312 180.308594 99.789062 C 180.308594 99.898438 180.261719 100.023438 180.167969 100.320312 L 179.808594 101.679688 L 177.308594 101.679688 L 177.730469 100.242188 C 177.902344 99.664062 178.167969 99.445312 178.699219 99.445312 L 178.746094 99.195312 L 176.246094 99.195312 L 176.199219 99.445312 C 176.511719 99.445312 176.871094 99.445312 176.871094 99.789062 C 176.871094 99.898438 176.839844 100.023438 176.746094 100.320312 L 175.714844 103.882812 C 175.480469 104.695312 175.230469 104.695312 174.824219 104.695312 L 174.777344 104.945312 L 177.183594 104.945312 L 177.214844 104.695312 C 176.949219 104.695312 176.605469 104.679688 176.605469 104.304688 C 176.605469 104.242188 176.605469 104.132812 176.636719 104.039062 L 177.183594 102.117188 L 179.667969 102.117188 L 179.152344 103.882812 C 178.902344 104.695312 178.605469 104.695312 178.199219 104.695312 L 178.136719 104.945312 L 180.683594 104.945312 L 180.730469 104.695312 C 180.371094 104.695312 180.074219 104.710938 180.074219 104.335938 C 180.074219 104.242188 180.074219 104.101562 180.136719 103.929688 L 181.199219 100.242188 C 181.371094 99.664062 181.605469 99.445312 182.027344 99.445312 Z M 182.074219 99.195312 "
       id="path196" />
    <path
       style=" stroke:none;fill-rule:nonzero;fill:rgb(0%,0%,0%);fill-opacity:1;"
       d="M 185.976562 106.875 C 185.710938 106.859375 185.648438 106.796875 185.445312 106.34375 L 183.960938 102.953125 L 183.835938 102.953125 L 182.585938 105.890625 C 182.210938 106.765625 182.132812 106.859375 181.851562 106.875 L 181.851562 106.984375 L 183.039062 106.984375 L 183.039062 106.875 C 182.742188 106.875 182.632812 106.796875 182.632812 106.625 C 182.632812 106.546875 182.648438 106.46875 182.679688 106.390625 L 182.945312 105.6875 L 184.523438 105.6875 L 184.757812 106.265625 C 184.835938 106.421875 184.882812 106.578125 184.882812 106.671875 C 184.882812 106.8125 184.773438 106.859375 184.460938 106.875 L 184.460938 106.984375 L 185.976562 106.984375 Z M 183.054688 105.453125 L 183.742188 103.796875 L 184.429688 105.453125 Z M 183.054688 105.453125 "
       id="path198" />
    <path
       style=" stroke:none;fill-rule:nonzero;fill:rgb(0%,0%,0%);fill-opacity:1;"
       d="M 188.902344 99.554688 C 188.324219 99.945312 188.074219 100.148438 187.792969 100.507812 C 187.214844 101.210938 186.933594 102.007812 186.933594 102.929688 C 186.933594 103.960938 187.230469 104.726562 187.933594 105.539062 C 188.261719 105.929688 188.464844 106.101562 188.886719 106.351562 L 188.980469 106.226562 C 188.339844 105.726562 188.121094 105.445312 187.902344 104.851562 C 187.714844 104.320312 187.621094 103.710938 187.621094 102.914062 C 187.621094 102.070312 187.730469 101.414062 187.949219 100.929688 C 188.167969 100.429688 188.402344 100.148438 188.980469 99.679688 Z M 188.902344 99.554688 "
       id="path200" />
    <path
       style=" stroke:none;fill-rule:nonzero;fill:rgb(0%,0%,0%);fill-opacity:1;"
       d="M 191.714844 102.445312 L 191.683594 101.351562 L 191.589844 101.351562 C 191.542969 101.414062 191.511719 101.445312 191.464844 101.445312 C 191.417969 101.445312 191.339844 101.429688 191.246094 101.382812 C 191.058594 101.320312 190.886719 101.273438 190.683594 101.273438 C 190.058594 101.273438 189.605469 101.695312 189.605469 102.273438 C 189.605469 102.710938 189.855469 103.039062 190.542969 103.414062 L 190.996094 103.679688 C 191.277344 103.835938 191.417969 104.023438 191.417969 104.273438 C 191.417969 104.632812 191.152344 104.851562 190.746094 104.851562 C 190.199219 104.851562 189.917969 104.554688 189.746094 103.726562 L 189.621094 103.726562 L 189.621094 104.976562 L 189.714844 104.976562 C 189.777344 104.898438 189.808594 104.882812 189.902344 104.882812 C 189.980469 104.882812 190.089844 104.898438 190.261719 104.945312 C 190.480469 104.992188 190.683594 105.023438 190.855469 105.023438 C 191.464844 105.023438 191.964844 104.570312 191.964844 104.007812 C 191.964844 103.601562 191.777344 103.335938 191.308594 103.054688 L 190.449219 102.539062 C 190.214844 102.414062 190.105469 102.226562 190.105469 102.007812 C 190.105469 101.679688 190.339844 101.460938 190.714844 101.460938 C 191.167969 101.460938 191.402344 101.726562 191.589844 102.445312 Z M 191.714844 102.445312 "
       id="path202" />
    <path
       style=" stroke:none;fill-rule:nonzero;fill:rgb(0%,0%,0%);fill-opacity:1;"
       d="M 192.488281 104.945312 L 194.363281 104.945312 L 194.363281 104.820312 C 193.863281 104.804688 193.769531 104.726562 193.769531 104.273438 L 193.769531 99.523438 L 193.738281 99.507812 C 193.332031 99.632812 193.035156 99.710938 192.472656 99.851562 L 192.472656 99.976562 L 192.519531 99.976562 C 192.597656 99.976562 192.691406 99.960938 192.769531 99.960938 C 193.019531 99.960938 193.097656 100.070312 193.097656 100.445312 L 193.097656 104.257812 C 193.082031 104.679688 192.972656 104.789062 192.488281 104.820312 Z M 192.488281 104.945312 "
       id="path204" />
    <path
       style=" stroke:none;fill-rule:nonzero;fill:rgb(0%,0%,0%);fill-opacity:1;"
       d="M 194.617188 104.945312 L 196.304688 104.945312 L 196.304688 104.820312 C 195.914062 104.804688 195.789062 104.695312 195.789062 104.414062 L 195.789062 102.179688 C 196.164062 101.820312 196.335938 101.710938 196.601562 101.710938 C 196.992188 101.710938 197.179688 101.960938 197.179688 102.492188 L 197.179688 104.164062 C 197.164062 104.679688 197.070312 104.804688 196.679688 104.820312 L 196.679688 104.945312 L 198.335938 104.945312 L 198.335938 104.820312 C 197.945312 104.789062 197.867188 104.695312 197.851562 104.304688 L 197.851562 102.476562 C 197.851562 101.726562 197.507812 101.273438 196.914062 101.273438 C 196.554688 101.273438 196.304688 101.414062 195.757812 101.929688 L 195.757812 101.289062 L 195.710938 101.273438 C 195.289062 101.429688 195.023438 101.523438 194.601562 101.632812 L 194.601562 101.773438 C 194.664062 101.742188 194.726562 101.742188 194.820312 101.742188 C 195.039062 101.742188 195.117188 101.867188 195.117188 102.257812 L 195.117188 104.226562 C 195.101562 104.695312 195.023438 104.804688 194.617188 104.820312 Z M 194.617188 104.945312 "
       id="path206" />
    <path
       style=" stroke:none;fill-rule:nonzero;fill:rgb(0%,0%,0%);fill-opacity:1;"
       d="M 198.734375 106.351562 C 199.328125 105.960938 199.5625 105.773438 199.859375 105.398438 C 200.421875 104.710938 200.703125 103.914062 200.703125 102.976562 C 200.703125 101.960938 200.40625 101.179688 199.71875 100.367188 C 199.390625 99.992188 199.171875 99.820312 198.765625 99.554688 L 198.671875 99.679688 C 199.3125 100.195312 199.515625 100.460938 199.75 101.070312 C 199.9375 101.601562 200.015625 102.195312 200.015625 103.007812 C 200.015625 103.835938 199.921875 104.492188 199.703125 104.976562 C 199.484375 105.476562 199.25 105.773438 198.671875 106.226562 Z M 198.734375 106.351562 "
       id="path208" />
    <path
       style=" stroke:none;fill-rule:nonzero;fill:rgb(0%,0%,0%);fill-opacity:1;"
       d="M 174.175781 108.4375 L 201.296875 108.4375 L 201.296875 107.957031 L 174.175781 107.957031 Z M 174.175781 108.4375 "
       id="path210" />
    <path
       style=" stroke:none;fill-rule:nonzero;fill:rgb(0%,0%,0%);fill-opacity:1;"
       d="M 188.273438 110.476562 L 183.257812 110.476562 L 182.804688 112.023438 L 183.085938 112.023438 C 183.460938 111.101562 183.898438 110.898438 184.632812 110.898438 C 184.632812 110.898438 185.007812 110.898438 185.179688 110.898438 L 183.945312 115.164062 C 183.695312 115.976562 183.429688 115.976562 183.054688 115.976562 L 182.992188 116.226562 L 185.414062 116.226562 L 185.460938 115.976562 C 185.101562 115.976562 184.789062 115.992188 184.789062 115.601562 C 184.789062 115.507812 184.804688 115.367188 184.851562 115.210938 L 186.085938 110.898438 L 186.789062 110.898438 C 187.195312 110.898438 187.632812 110.945312 187.632812 111.476562 C 187.632812 111.601562 187.617188 111.742188 187.539062 112.023438 L 187.820312 112.023438 Z M 188.273438 110.476562 "
       id="path212" />
    <path
       style=" stroke:none;fill-rule:nonzero;fill:rgb(0%,0%,0%);fill-opacity:1;"
       d="M 192.539062 113.101562 L 192.414062 113.085938 C 192.179688 113.414062 191.992188 113.476562 191.601562 113.476562 L 189.820312 113.476562 C 191.039062 112.539062 192.164062 111.679688 192.164062 110.726562 C 192.164062 110.070312 191.476562 109.585938 190.726562 109.585938 C 189.976562 109.585938 189.367188 109.929688 189.148438 110.820312 L 189.320312 110.820312 C 189.539062 110.460938 189.835938 110.085938 190.445312 110.085938 C 191.117188 110.085938 191.492188 110.507812 191.492188 111.007812 C 191.492188 111.695312 190.601562 112.726562 189.070312 113.851562 L 189.070312 113.945312 L 192.132812 113.945312 Z M 192.539062 113.101562 "
       id="path214" />
    <path
       style=" stroke:none;fill-rule:nonzero;fill:rgb(0%,0%,0%);fill-opacity:1;"
       d="M 110.710938 117.15625 L 108.703125 120.253906 L 112.207031 119.09375 L 110.371094 118.992188 "
       id="path216" />
    <path
       style="fill:none;stroke-width:2.83298;stroke-linecap:butt;stroke-linejoin:miter;stroke:rgb(0%,0%,0%);stroke-opacity:1;stroke-miterlimit:10;"
       d="M 1359.453125 632.96875 C 1258.90625 632.96875 1166.523438 568.90625 1103.4375 520.15625 "
       transform="matrix(0.1,0,0,-0.1,0,171)"
       id="path218" />
    <path
       style="display:none;fill:none;stroke:#000000;stroke-width:8.5036;stroke-linecap:butt;stroke-linejoin:miter;stroke-miterlimit:10;stroke-dasharray:28.4016, 14.2007;stroke-opacity:1"
       d="m 659.80469,1242.9297 18.94531,-15.5078 22.73437,-18.2813 22.77344,-18.2422 22.73438,-18.2812 22.73437,-17.9297 22.42188,-17.8906 22.73437,-17.9297"
       transform="matrix(0.1,0,0,-0.1,0,171)"
       id="path837" />
    <path
       style="display:none;fill:none;stroke:#000000;stroke-width:8.50361;stroke-linecap:butt;stroke-linejoin:miter;stroke-miterlimit:10;stroke-dasharray:29.0353, 14.5176;stroke-opacity:1"
       d="m 659.57031,1242.9297 -3.47656,4.8437 -22.46094,31.7969 -22.8125,32.1485 -22.8125,32.5 -22.46094,32.4609 -22.8125,32.5"
       transform="matrix(0.1,0,0,-0.1,0,171)"
       id="path1673" />
    <path
       style="display:none;fill:none;stroke:#000000;stroke-width:8.50362;stroke-linecap:butt;stroke-linejoin:miter;stroke-miterlimit:10;stroke-dasharray:27.7608, 13.8803;stroke-opacity:1"
       d="m 399.76562,1457.3828 -15.625,26.3672 -22.53906,34.0234 -22.89062,33.9844 -22.57813,34.0235 -22.53906,34.3359"
       transform="matrix(0.1,0,0,-0.1,0,171)"
       id="path1956" />
    <path
       style="display:none;fill:none;stroke:#000000;stroke-width:2.83298;stroke-linecap:butt;stroke-linejoin:miter;stroke-miterlimit:10;stroke-dasharray:29.6113, 19.7409;stroke-opacity:1"
       d="M 399.64844,1457.4219 V 292.61719"
       transform="matrix(0.1,0,0,-0.1,0,171)"
       id="path2241" />
    <path
       style="display:none;fill:none;stroke:#000000;stroke-width:2.83298;stroke-linecap:butt;stroke-linejoin:miter;stroke-miterlimit:10;stroke-dasharray:30.6501, 20.4334;stroke-opacity:1"
       d="M 659.80469,1242.9297 V 292.73437"
       transform="matrix(0.1,0,0,-0.1,0,171)"
       id="path2528" />
    <path
       style="display:none;fill:none;stroke:#000000;stroke-width:2.83298;stroke-linecap:butt;stroke-linejoin:miter;stroke-miterlimit:10;stroke-dasharray:30.1515, 20.101;stroke-opacity:1"
       d="M 1041.6797,724.92187 V 292.61719"
       transform="matrix(0.1,0,0,-0.1,0,171)"
       id="path2817" />
  </g>
</svg>
