%!PS-Adobe-3.0 EPSF-3.0
%%Creator: cairo 1.17.4 (https://cairographics.org)
%%CreationDate: Thu Feb 24 10:49:17 2022
%%Pages: 1
%%DocumentData: Clean7Bit
%%LanguageLevel: 2
%%BoundingBox: 0 0 146 140
%%EndComments
%%BeginProlog
50 dict begin
/q { gsave } bind def
/Q { grestore } bind def
/cm { 6 array astore concat } bind def
/w { setlinewidth } bind def
/J { setlinecap } bind def
/j { setlinejoin } bind def
/M { setmiterlimit } bind def
/d { setdash } bind def
/m { moveto } bind def
/l { lineto } bind def
/c { curveto } bind def
/h { closepath } bind def
/re { exch dup neg 3 1 roll 5 3 roll moveto 0 rlineto
      0 exch rlineto 0 rlineto closepath } bind def
/S { stroke } bind def
/f { fill } bind def
/f* { eofill } bind def
/n { newpath } bind def
/W { clip } bind def
/W* { eoclip } bind def
/BT { } bind def
/ET { } bind def
/BDC { mark 3 1 roll /BDC pdfmark } bind def
/EMC { mark /EMC pdfmark } bind def
/cairo_store_point { /cairo_point_y exch def /cairo_point_x exch def } def
/Tj { show currentpoint cairo_store_point } bind def
/TJ {
  {
    dup
    type /stringtype eq
    { show } { -0.001 mul 0 cairo_font_matrix dtransform rmoveto } ifelse
  } forall
  currentpoint cairo_store_point
} bind def
/cairo_selectfont { cairo_font_matrix aload pop pop pop 0 0 6 array astore
    cairo_font exch selectfont cairo_point_x cairo_point_y moveto } bind def
/Tf { pop /cairo_font exch def /cairo_font_matrix where
      { pop cairo_selectfont } if } bind def
/Td { matrix translate cairo_font_matrix matrix concatmatrix dup
      /cairo_font_matrix exch def dup 4 get exch 5 get cairo_store_point
      /cairo_font where { pop cairo_selectfont } if } bind def
/Tm { 2 copy 8 2 roll 6 array astore /cairo_font_matrix exch def
      cairo_store_point /cairo_font where { pop cairo_selectfont } if } bind def
/g { setgray } bind def
/rg { setrgbcolor } bind def
/d1 { setcachedevice } bind def
/cairo_data_source {
  CairoDataIndex CairoData length lt
    { CairoData CairoDataIndex get /CairoDataIndex CairoDataIndex 1 add def }
    { () } ifelse
} def
/cairo_flush_ascii85_file { cairo_ascii85_file status { cairo_ascii85_file flushfile } if } def
/cairo_image { image cairo_flush_ascii85_file } def
/cairo_imagemask { imagemask cairo_flush_ascii85_file } def
%%EndProlog
%%BeginSetup
%%EndSetup
%%Page: 1 1
%%BeginPageSetup
%%PageBoundingBox: 0 0 146 140
%%EndPageSetup
q 0 0 146 140 rectclip
1 0 0 -1 0 140 cm q
0 g
1.13366 w
0 J
0 j
[] 0.0 d
10 M q 1 0 0 -1 0 0 cm
26.145 -95.484 m 27.281 -94.918 l 28.414 -94.34 l 29.547 -93.75 l 30.68
 -93.148 l 31.812 -92.535 l 32.949 -91.91 l 34.082 -91.277 l 35.215 -90.629
 l 36.348 -89.973 l 37.484 -89.293 l 38.617 -88.613 l 40.883 -87.207 l 42.016
 -86.48 l 43.152 -85.742 l 44.285 -84.984 l 45.418 -84.223 l 46.551 -83.441
 l 47.684 -82.648 l 48.82 -81.844 l 49.953 -81.027 l 52.219 -79.348 l 53.355
 -78.488 l 54.488 -77.602 l 55.621 -76.719 l 56.754 -75.809 l 57.887 -74.883
 l 59.023 -73.953 l 60.156 -73 l 62.422 -71.047 l 63.555 -70.051 l 64.691
 -69.031 l 65.824 -68 l 66.957 -66.957 l 68.09 -65.891 l 69.227 -64.812 
l 70.359 -63.711 l 71.492 -62.602 l 72.625 -61.48 l 73.758 -60.336 l 74.895
 -59.168 l 76.027 -57.988 l 77.16 -56.797 l 78.293 -55.57 l 79.43 -54.348
 l 80.562 -53.098 l 81.695 -51.828 l 82.828 -50.547 l 83.961 -49.246 l 85.098
 -47.918 l 86.23 -46.582 l 87.363 -45.219 l 88.496 -43.848 l 89.629 -42.453
 l 90.766 -41.035 l 91.898 -39.609 l 93.031 -38.156 l 94.164 -36.68 l 95.301
 -35.184 l 96.434 -33.676 l 97.566 -32.145 l 98.699 -30.602 l 99.836 -29.039
 l 100.969 -27.441 l 102.102 -25.84 l 103.234 -24.211 l 104.367 -22.562 
l 105.504 -20.887 l 106.637 -19.211 l 107.77 -17.496 l 108.902 -15.762 l
 110.035 -14.016 l 111.172 -12.234 l 112.305 -10.445 l 113.438 -8.629 l 
114.57 -6.793 l 115.707 -4.945 l 116.84 -3.062 l S Q
q 1 0 0 -1 0 0 cm
26.145 -101.176 m 27.281 -100.754 l 28.414 -100.336 l 29.547 -99.906 l 
30.68 -99.473 l 31.812 -99.031 l 32.949 -98.566 l 34.082 -98.113 l 35.215
 -97.637 l 36.348 -97.152 l 37.484 -96.664 l 38.617 -96.164 l 39.75 -95.652
 l 40.883 -95.133 l 42.016 -94.609 l 43.152 -94.066 l 44.285 -93.52 l 45.418
 -92.965 l 46.551 -92.398 l 47.684 -91.82 l 48.82 -91.23 l 49.953 -90.641
 l 51.086 -90.031 l 52.219 -89.406 l 53.355 -88.781 l 54.488 -88.148 l 55.621
 -87.488 l 56.754 -86.832 l 57.887 -86.164 l 59.023 -85.484 l 61.289 -84.078
 l 62.422 -83.363 l 63.555 -82.637 l 64.691 -81.898 l 65.824 -81.141 l 66.957
 -80.379 l 68.09 -79.609 l 69.227 -78.828 l 70.359 -78.02 l 71.492 -77.215
 l 72.625 -76.391 l 73.758 -75.562 l 74.895 -74.711 l 76.027 -73.848 l 77.16
 -72.977 l 78.293 -72.09 l 79.43 -71.195 l 80.562 -70.289 l 81.695 -69.359
 l 83.961 -67.477 l 85.098 -66.512 l 86.23 -65.539 l 87.363 -64.539 l 88.496
 -63.543 l 89.629 -62.523 l 90.766 -61.492 l 91.898 -60.445 l 93.031 -59.391
 l 94.164 -58.328 l 95.301 -57.238 l 96.434 -56.137 l 97.566 -55.027 l 98.699
 -53.895 l 99.836 -52.75 l 100.969 -51.59 l 102.102 -50.422 l 103.234 -49.234
 l 104.367 -48.031 l 105.504 -46.816 l 106.637 -45.582 l 107.77 -44.336 
l 108.902 -43.078 l 110.035 -41.805 l 111.172 -40.516 l 112.305 -39.211 
l 113.438 -37.883 l 114.57 -36.547 l 115.707 -35.195 l 116.84 -33.824 l 
117.973 -32.441 l 119.105 -31.047 l 120.238 -29.629 l 121.375 -28.188 l 
122.508 -26.75 l 123.641 -25.285 l 124.773 -23.801 l 125.91 -22.305 l 127.043
 -20.797 l 128.176 -19.266 l 129.309 -17.723 l 130.441 -16.16 l 131.578 
-14.582 l 132.711 -12.984 l 133.844 -11.375 l 134.977 -9.742 l 136.113 -8.098
 l 137.246 -6.441 l 138.379 -4.762 l 139.512 -3.062 l S Q
38.375 33.008 m 33.359 33.008 l 32.906 34.555 l 33.188 34.555 l 33.562 
33.633 34 33.43 34.734 33.43 c 34.734 33.43 35.109 33.43 35.281 33.43 c 
34.047 37.695 l 33.797 38.508 33.531 38.508 33.156 38.508 c 33.094 38.758
 l 35.516 38.758 l 35.562 38.508 l 35.203 38.508 34.891 38.523 34.891 38.133
 c 34.891 38.039 34.906 37.898 34.953 37.742 c 36.188 33.43 l 36.891 33.43
 l 37.297 33.43 37.734 33.477 37.734 34.008 c 37.734 34.133 37.719 34.273
 37.641 34.555 c 37.922 34.555 l h
38.375 33.008 m f
42.719 34.449 m 42.719 34.355 42.656 34.277 42.516 34.23 c 42.312 34.121
 41.578 33.871 41.312 33.809 c 41.578 33.746 42.312 33.496 42.516 33.387
 c 42.656 33.324 42.719 33.246 42.719 33.168 c 42.719 33.059 42.594 32.949
 42.469 32.949 c 42.391 32.949 42.344 32.965 42.25 32.996 c 42.047 33.105
 41.422 33.527 41.234 33.668 c 41.297 33.465 41.406 32.793 41.406 32.59 
c 41.406 32.402 41.297 32.309 41.141 32.309 c 40.984 32.309 40.875 32.402
 40.875 32.59 c 40.875 32.793 40.984 33.465 41.047 33.668 c 40.859 33.527
 40.234 33.105 40.031 32.996 c 39.938 32.965 39.891 32.949 39.812 32.949
 c 39.672 32.949 39.562 33.059 39.562 33.168 c 39.562 33.246 39.625 33.324
 39.766 33.387 c 39.969 33.496 40.703 33.746 40.969 33.809 c 40.703 33.871
 39.969 34.121 39.766 34.23 c 39.625 34.277 39.562 34.355 39.562 34.449 
c 39.562 34.559 39.672 34.668 39.812 34.668 c 39.891 34.668 39.938 34.637
 40.031 34.605 c 40.234 34.512 40.859 34.074 41.047 33.934 c 40.984 34.152
 40.875 34.824 40.875 35.012 c 40.875 35.199 40.984 35.293 41.141 35.293
 c 41.297 35.293 41.406 35.199 41.406 35.012 c 41.406 34.824 41.297 34.152
 41.234 33.934 c 41.422 34.074 42.047 34.512 42.25 34.605 c 42.344 34.637
 42.391 34.668 42.469 34.668 c 42.594 34.668 42.719 34.559 42.719 34.449
 c h
42.719 34.449 m f
39.344 38.469 m 38.609 38.469 l 38.609 37.766 l 38.609 37.422 38.734 37.234
 38.953 37.234 c 39.078 37.234 39.156 37.297 39.266 37.469 c 39.359 37.625
 39.438 37.688 39.547 37.688 c 39.688 37.688 39.797 37.578 39.797 37.438
 c 39.797 37.219 39.531 37.062 39.172 37.062 c 38.797 37.062 38.484 37.234
 38.328 37.5 c 38.172 37.766 38.125 37.984 38.109 38.469 c 37.625 38.469
 l 37.625 38.656 l 38.109 38.656 l 38.109 40.531 l 38.109 40.984 38.047 
41.047 37.625 41.062 c 37.625 41.156 l 39.172 41.156 l 39.172 41.062 l 38.688
 41.047 38.625 40.984 38.625 40.531 c 38.625 38.656 l 39.344 38.656 l h
39.344 38.469 m f
40.262 41.844 m 40.855 41.797 41.09 41.422 41.09 41.062 c 41.09 40.75 40.902
 40.453 40.59 40.453 c 40.371 40.453 40.168 40.625 40.168 40.844 c 40.168
 41.078 40.34 41.219 40.496 41.219 c 40.621 41.219 40.637 41.156 40.73 41.156
 c 40.793 41.156 40.84 41.203 40.84 41.281 c 40.84 41.5 40.574 41.641 40.262
 41.672 c h
40.262 41.844 m f
41.93 37.312 m 42.43 37.344 42.492 37.391 42.492 37.844 c 42.492 40.5 l
 42.492 40.953 42.414 41.031 41.93 41.047 c 41.93 41.156 l 43.914 41.156
 l 44.383 41.156 44.805 41.031 45.039 40.828 c 45.242 40.641 45.367 40.359
 45.367 40.078 c 45.367 39.812 45.273 39.578 45.07 39.406 c 44.898 39.234
 44.742 39.172 44.352 39.078 c 44.664 39 44.789 38.938 44.93 38.812 c 45.07
 38.672 45.164 38.469 45.164 38.219 c 45.164 37.547 44.633 37.188 43.602
 37.188 c 41.93 37.188 l h
43.102 39.203 m 43.68 39.203 43.961 39.234 44.18 39.328 c 44.523 39.469
 44.68 39.719 44.68 40.078 c 44.68 40.406 44.555 40.641 44.32 40.781 c 44.117
 40.891 43.883 40.938 43.477 40.938 c 43.195 40.938 43.102 40.875 43.102
 40.688 c h
43.102 38.969 m 43.102 37.594 l 43.117 37.469 43.133 37.422 43.242 37.422
 c 43.508 37.422 l 44.164 37.391 44.555 37.703 44.555 38.234 c 44.555 38.703
 44.242 38.953 43.68 38.969 c h
43.102 38.969 m f
55.07 35.914 m 55.07 35.352 l 49.242 35.352 l 49.242 35.914 l h
55.07 37.555 m 55.07 36.992 l 49.242 36.992 l 49.242 37.555 l h
55.07 37.555 m f
62.082 37.008 m 62.082 36.195 61.598 35.82 61.082 35.633 c 61.613 35.258
 61.785 34.898 61.785 34.477 c 61.785 34.008 61.363 33.383 60.363 33.383
 c 59.66 33.383 58.988 33.727 58.676 34.648 c 58.91 34.711 l 59.098 34.383
 59.441 33.992 60.051 33.992 c 60.645 33.992 60.988 34.336 60.988 34.758
 c 60.988 35.336 60.473 35.773 59.676 35.945 c 59.66 36.195 l 61.02 36.133
 61.348 36.914 61.348 37.383 c 61.348 37.93 60.895 38.461 60.301 38.461 
c 59.738 38.461 59.473 38.008 59.02 38.008 c 58.832 38.008 58.629 38.164
 58.629 38.383 c 58.629 38.727 59.191 38.852 59.629 38.852 c 61.051 38.852
 62.082 38.102 62.082 37.008 c h
62.082 37.008 m f
66.777 37.492 m 66.777 36.961 66.512 36.523 65.48 35.82 c 66.121 35.477
 66.621 35.117 66.621 34.539 c 66.621 33.93 65.965 33.383 65.012 33.383 
c 64.152 33.383 63.355 33.883 63.355 34.648 c 63.355 35.227 63.668 35.586
 64.418 36.086 c 63.59 36.633 63.293 36.945 63.293 37.523 c 63.293 38.211
 63.98 38.852 65.027 38.852 c 66.262 38.852 66.777 38.086 66.777 37.492 
c h
65.934 34.539 m 65.934 35.07 65.574 35.352 65.137 35.617 c 64.59 35.273
 64.105 34.883 64.105 34.445 c 64.105 34.055 64.418 33.711 64.98 33.711 
c 65.605 33.711 65.934 34.07 65.934 34.539 c h
66.043 37.727 m 66.043 38.195 65.637 38.523 65.105 38.523 c 64.465 38.523
 64.059 38.055 64.059 37.445 c 64.059 36.898 64.355 36.57 64.715 36.289 
c 65.637 36.914 66.043 37.227 66.043 37.727 c h
66.043 37.727 m f
71.613 36.117 m 71.613 34.68 70.957 33.383 69.707 33.383 c 68.441 33.383
 67.801 34.68 67.801 36.117 c 67.801 37.57 68.426 38.852 69.707 38.852 c
 70.926 38.852 71.613 37.57 71.613 36.117 c h
70.629 36.117 m 70.629 37.227 70.348 38.539 69.691 38.539 c 68.879 38.539
 68.785 37.227 68.785 36.117 c 68.785 35.195 68.832 33.695 69.707 33.695
 c 70.582 33.695 70.629 35.195 70.629 36.117 c h
70.629 36.117 m f
76.676 33.633 m 77.145 33.664 77.207 33.695 77.207 33.883 c 77.207 34.055
 77.035 34.289 76.598 34.695 c 75.176 35.992 l 75.176 34.352 l 75.191 33.758
 75.27 33.68 75.91 33.633 c 75.91 33.477 l 73.645 33.477 l 73.645 33.633
 l 74.27 33.68 74.348 33.773 74.363 34.352 c 74.363 37.805 l 74.363 38.477
 74.27 38.57 73.645 38.602 c 73.645 38.758 l 75.895 38.758 l 75.895 38.602
 l 75.285 38.57 75.191 38.477 75.176 37.883 c 75.176 36.398 l 75.395 36.227
 l 76.238 37.07 l 76.848 37.68 77.27 38.227 77.27 38.43 c 77.27 38.539 77.16
 38.586 76.926 38.602 c 76.895 38.602 76.801 38.602 76.707 38.602 c 76.707
 38.758 l 79.145 38.758 l 79.145 38.602 l 78.723 38.602 78.613 38.523 77.895
 37.742 c 76.035 35.758 l 77.551 34.258 l 78.082 33.742 78.223 33.68 78.754
 33.633 c 78.754 33.477 l 76.676 33.477 l h
76.676 33.633 m f
83.945 40.477 m 87.363 41.16 l 85.152 38.465 l 85.676 40.145 l f
0.425176 w
q 1 0 0 -1 0 0 cm
80.562 -37.078 m 85.676 -40.145 l S Q
88.258 79.496 m 83.242 79.496 l 82.789 81.043 l 83.07 81.043 l 83.445 80.121
 83.883 79.918 84.617 79.918 c 84.617 79.918 84.992 79.918 85.164 79.918
 c 83.93 84.184 l 83.68 84.996 83.414 84.996 83.039 84.996 c 82.977 85.246
 l 85.398 85.246 l 85.445 84.996 l 85.086 84.996 84.773 85.012 84.773 84.621
 c 84.773 84.527 84.789 84.387 84.836 84.23 c 86.07 79.918 l 86.773 79.918
 l 87.18 79.918 87.617 79.965 87.617 80.496 c 87.617 80.621 87.602 80.762
 87.523 81.043 c 87.805 81.043 l h
88.258 79.496 m f
92.602 80.938 m 92.602 80.844 92.539 80.766 92.398 80.719 c 92.195 80.609
 91.461 80.359 91.195 80.297 c 91.461 80.234 92.195 79.984 92.398 79.875
 c 92.539 79.812 92.602 79.734 92.602 79.656 c 92.602 79.547 92.477 79.438
 92.352 79.438 c 92.273 79.438 92.227 79.453 92.133 79.484 c 91.93 79.594
 91.305 80.016 91.117 80.156 c 91.18 79.953 91.289 79.281 91.289 79.078 
c 91.289 78.891 91.18 78.797 91.023 78.797 c 90.867 78.797 90.758 78.891
 90.758 79.078 c 90.758 79.281 90.867 79.953 90.93 80.156 c 90.742 80.016
 90.117 79.594 89.914 79.484 c 89.82 79.453 89.773 79.438 89.695 79.438 
c 89.555 79.438 89.445 79.547 89.445 79.656 c 89.445 79.734 89.508 79.812
 89.648 79.875 c 89.852 79.984 90.586 80.234 90.852 80.297 c 90.586 80.359
 89.852 80.609 89.648 80.719 c 89.508 80.766 89.445 80.844 89.445 80.938
 c 89.445 81.047 89.555 81.156 89.695 81.156 c 89.773 81.156 89.82 81.125
 89.914 81.094 c 90.117 81 90.742 80.562 90.93 80.422 c 90.867 80.641 90.758
 81.312 90.758 81.5 c 90.758 81.688 90.867 81.781 91.023 81.781 c 91.18 
81.781 91.289 81.688 91.289 81.5 c 91.289 81.312 91.18 80.641 91.117 80.422
 c 91.305 80.562 91.93 81 92.133 81.094 c 92.227 81.125 92.273 81.156 92.352
 81.156 c 92.477 81.156 92.602 81.047 92.602 80.938 c h
92.602 80.938 m f
89.223 84.957 m 88.488 84.957 l 88.488 84.254 l 88.488 83.91 88.613 83.723
 88.832 83.723 c 88.957 83.723 89.035 83.785 89.145 83.957 c 89.238 84.113
 89.316 84.176 89.426 84.176 c 89.566 84.176 89.676 84.066 89.676 83.926
 c 89.676 83.707 89.41 83.551 89.051 83.551 c 88.676 83.551 88.363 83.723
 88.207 83.988 c 88.051 84.254 88.004 84.473 87.988 84.957 c 87.504 84.957
 l 87.504 85.145 l 87.988 85.145 l 87.988 87.02 l 87.988 87.473 87.926 87.535
 87.504 87.551 c 87.504 87.645 l 89.051 87.645 l 89.051 87.551 l 88.566 
87.535 88.504 87.473 88.504 87.02 c 88.504 85.145 l 89.223 85.145 l h
89.223 84.957 m f
90.145 88.332 m 90.738 88.285 90.973 87.91 90.973 87.551 c 90.973 87.238
 90.785 86.941 90.473 86.941 c 90.254 86.941 90.051 87.113 90.051 87.332
 c 90.051 87.566 90.223 87.707 90.379 87.707 c 90.504 87.707 90.52 87.645
 90.613 87.645 c 90.676 87.645 90.723 87.691 90.723 87.77 c 90.723 87.988
 90.457 88.129 90.145 88.16 c h
90.145 88.332 m f
91.809 83.801 m 92.309 83.832 92.371 83.879 92.371 84.332 c 92.371 86.988
 l 92.371 87.441 92.293 87.52 91.809 87.535 c 91.809 87.645 l 93.793 87.645
 l 94.262 87.645 94.684 87.52 94.918 87.316 c 95.121 87.129 95.246 86.848
 95.246 86.566 c 95.246 86.301 95.152 86.066 94.949 85.895 c 94.777 85.723
 94.621 85.66 94.23 85.566 c 94.543 85.488 94.668 85.426 94.809 85.301 c
 94.949 85.16 95.043 84.957 95.043 84.707 c 95.043 84.035 94.512 83.676 
93.48 83.676 c 91.809 83.676 l h
92.98 85.691 m 93.559 85.691 93.84 85.723 94.059 85.816 c 94.402 85.957
 94.559 86.207 94.559 86.566 c 94.559 86.895 94.434 87.129 94.199 87.27 
c 93.996 87.379 93.762 87.426 93.355 87.426 c 93.074 87.426 92.98 87.363
 92.98 87.176 c h
92.98 85.457 m 92.98 84.082 l 92.996 83.957 93.012 83.91 93.121 83.91 c
 93.387 83.91 l 94.043 83.879 94.434 84.191 94.434 84.723 c 94.434 85.191
 94.121 85.441 93.559 85.457 c h
92.98 85.457 m f
104.953 82.402 m 104.953 81.84 l 99.125 81.84 l 99.125 82.402 l h
104.953 84.043 m 104.953 83.48 l 99.125 83.48 l 99.125 84.043 l h
104.953 84.043 m f
112.199 83.934 m 112.199 83.309 l 111.34 83.309 l 111.34 79.871 l 110.84
 79.871 l 108.277 83.324 l 108.277 83.934 l 110.527 83.934 l 110.527 85.246
 l 111.34 85.246 l 111.34 83.934 l h
110.574 80.793 m 110.527 80.73 l 110.527 83.309 l 108.777 83.309 l h
110.574 80.793 m f
116.816 82.605 m 116.816 81.168 116.16 79.871 114.91 79.871 c 113.645 79.871
 113.004 81.168 113.004 82.605 c 113.004 84.059 113.629 85.34 114.91 85.34
 c 116.129 85.34 116.816 84.059 116.816 82.605 c h
115.832 82.605 m 115.832 83.715 115.551 85.027 114.895 85.027 c 114.082
 85.027 113.988 83.715 113.988 82.605 c 113.988 81.684 114.035 80.184 114.91
 80.184 c 115.785 80.184 115.832 81.684 115.832 82.605 c h
115.832 82.605 m f
121.496 82.605 m 121.496 81.168 120.84 79.871 119.59 79.871 c 118.324 79.871
 117.684 81.168 117.684 82.605 c 117.684 84.059 118.309 85.34 119.59 85.34
 c 120.809 85.34 121.496 84.059 121.496 82.605 c h
120.512 82.605 m 120.512 83.715 120.23 85.027 119.574 85.027 c 118.762 
85.027 118.668 83.715 118.668 82.605 c 118.668 81.684 118.715 80.184 119.59
 80.184 c 120.465 80.184 120.512 81.684 120.512 82.605 c h
120.512 82.605 m f
126.559 80.121 m 127.027 80.152 127.09 80.184 127.09 80.371 c 127.09 80.543
 126.918 80.777 126.48 81.184 c 125.059 82.48 l 125.059 80.84 l 125.074 
80.246 125.152 80.168 125.793 80.121 c 125.793 79.965 l 123.527 79.965 l
 123.527 80.121 l 124.152 80.168 124.23 80.262 124.246 80.84 c 124.246 84.293
 l 124.246 84.965 124.152 85.059 123.527 85.09 c 123.527 85.246 l 125.777
 85.246 l 125.777 85.09 l 125.168 85.059 125.074 84.965 125.059 84.371 c
 125.059 82.887 l 125.277 82.715 l 126.121 83.559 l 126.73 84.168 127.152
 84.715 127.152 84.918 c 127.152 85.027 127.043 85.074 126.809 85.09 c 126.777
 85.09 126.684 85.09 126.59 85.09 c 126.59 85.246 l 129.027 85.246 l 129.027
 85.09 l 128.605 85.09 128.496 85.012 127.777 84.23 c 125.918 82.246 l 127.434
 80.746 l 127.965 80.23 128.105 80.168 128.637 80.121 c 128.637 79.965 l
 126.559 79.965 l h
126.559 80.121 m f
77.176 79.035 m 73.758 78.352 l 75.973 81.047 l 75.449 79.363 l f
q 1 0 0 -1 0 0 cm
80.562 -82.434 m 75.449 -79.363 l S Q
0.567043 w
q 1 0 0 -1 0 0 cm
26.129 -3.062 113.367 -113.387 re S Q
0.398506 w
q 1 0 0 -1 0 0 cm
26.129 -116.449 m 26.129 -112.195 l S Q
q 1 0 0 -1 0 0 cm
82.812 -116.449 m 82.812 -112.195 l S Q
q 1 0 0 -1 0 0 cm
139.496 -116.449 m 139.496 -112.195 l S Q
q 1 0 0 -1 0 0 cm
26.129 -116.449 m 26.129 -112.195 l S Q
q 1 0 0 -1 0 0 cm
26.129 -116.449 m 30.379 -116.449 l S Q
q 1 0 0 -1 0 0 cm
26.129 -93.77 m 30.379 -93.77 l S Q
q 1 0 0 -1 0 0 cm
26.129 -71.094 m 30.379 -71.094 l S Q
q 1 0 0 -1 0 0 cm
26.129 -48.418 m 30.379 -48.418 l S Q
q 1 0 0 -1 0 0 cm
26.129 -25.742 m 30.379 -25.742 l S Q
q 1 0 0 -1 0 0 cm
26.129 -3.062 m 30.379 -3.062 l S Q
q 1 0 0 -1 0 0 cm
26.129 -116.449 m 30.379 -116.449 l S Q
q 1 0 0 -1 0 0 cm
26.129 -3.062 m 26.129 -7.312 l S Q
q 1 0 0 -1 0 0 cm
82.812 -3.062 m 82.812 -7.312 l S Q
q 1 0 0 -1 0 0 cm
139.496 -3.062 m 139.496 -7.312 l S Q
q 1 0 0 -1 0 0 cm
26.129 -3.062 m 26.129 -7.312 l S Q
q 1 0 0 -1 0 0 cm
139.496 -116.449 m 135.242 -116.449 l S Q
q 1 0 0 -1 0 0 cm
139.496 -93.77 m 135.242 -93.77 l S Q
q 1 0 0 -1 0 0 cm
139.496 -71.094 m 135.242 -71.094 l S Q
q 1 0 0 -1 0 0 cm
139.496 -48.418 m 135.242 -48.418 l S Q
q 1 0 0 -1 0 0 cm
139.496 -25.742 m 135.242 -25.742 l S Q
q 1 0 0 -1 0 0 cm
139.496 -3.062 m 135.242 -3.062 l S Q
q 1 0 0 -1 0 0 cm
139.496 -116.449 m 135.242 -116.449 l S Q
23.297 123.988 m 23.297 123.051 22.75 122.645 22.219 122.426 c 22.797 121.988
 22.984 121.582 22.984 121.098 c 22.984 120.582 22.562 119.91 21.594 119.91
 c 20.891 119.91 20.219 120.301 19.922 121.27 c 20.062 121.301 l 20.25 120.941
 20.609 120.488 21.266 120.488 c 21.906 120.488 22.281 120.926 22.281 121.426
 c 22.281 122.129 21.734 122.629 20.922 122.816 c 20.906 123.004 l 22.297
 122.941 22.641 123.848 22.641 124.41 c 22.641 125.082 22.156 125.691 21.516
 125.691 c 20.938 125.691 20.688 125.191 20.203 125.191 c 20.047 125.191
 19.859 125.348 19.859 125.551 c 19.859 125.926 20.422 126.035 20.828 126.035
 c 22.25 126.035 23.297 125.223 23.297 123.988 c h
23.297 123.988 m f
28.082 122.973 m 28.082 121.363 27.348 119.91 26.098 119.91 c 24.832 119.91
 24.098 121.363 24.098 122.973 c 24.098 124.598 24.785 126.035 26.098 126.035
 c 27.301 126.035 28.082 124.598 28.082 122.973 c h
27.223 122.973 m 27.223 124.27 27.098 125.785 26.098 125.785 c 25.145 125.785
 24.957 124.27 24.957 122.973 c 24.957 121.895 25.082 120.145 26.098 120.145
 c 27.098 120.145 27.223 121.895 27.223 122.973 c h
27.223 122.973 m f
32.52 122.973 m 32.52 121.363 31.785 119.91 30.535 119.91 c 29.27 119.91
 28.535 121.363 28.535 122.973 c 28.535 124.598 29.223 126.035 30.535 126.035
 c 31.738 126.035 32.52 124.598 32.52 122.973 c h
31.66 122.973 m 31.66 124.27 31.535 125.785 30.535 125.785 c 29.582 125.785
 29.395 124.27 29.395 122.973 c 29.395 121.895 29.52 120.145 30.535 120.145
 c 31.535 120.145 31.66 121.895 31.66 122.973 c h
31.66 122.973 m f
80.059 123.988 m 80.059 123.051 79.512 122.645 78.98 122.426 c 79.559 121.988
 79.746 121.582 79.746 121.098 c 79.746 120.582 79.324 119.91 78.355 119.91
 c 77.652 119.91 76.98 120.301 76.684 121.27 c 76.824 121.301 l 77.012 120.941
 77.371 120.488 78.027 120.488 c 78.668 120.488 79.043 120.926 79.043 121.426
 c 79.043 122.129 78.496 122.629 77.684 122.816 c 77.668 123.004 l 79.059
 122.941 79.402 123.848 79.402 124.41 c 79.402 125.082 78.918 125.691 78.277
 125.691 c 77.699 125.691 77.449 125.191 76.965 125.191 c 76.809 125.191
 76.621 125.348 76.621 125.551 c 76.621 125.926 77.184 126.035 77.59 126.035
 c 79.012 126.035 80.059 125.223 80.059 123.988 c h
80.059 123.988 m f
84.777 120.004 m 82.309 120.004 l 81.199 122.551 l 81.34 122.52 81.48 122.488
 81.652 122.488 c 82.605 122.488 83.902 122.988 83.902 124.16 c 83.902 125.066
 83.246 125.645 82.621 125.645 c 82.074 125.645 81.871 125.145 81.355 125.145
 c 81.105 125.145 81.027 125.363 81.027 125.473 c 81.027 125.785 81.465 
126.035 82.09 126.035 c 83.434 126.035 84.496 125.051 84.496 123.848 c 84.496
 122.426 83.371 121.941 82.152 121.91 c 82.043 121.91 81.918 121.926 81.809
 121.941 c 82.371 120.676 l 84.465 120.66 l h
84.777 120.004 m f
89.281 122.973 m 89.281 121.363 88.547 119.91 87.297 119.91 c 86.031 119.91
 85.297 121.363 85.297 122.973 c 85.297 124.598 85.984 126.035 87.297 126.035
 c 88.5 126.035 89.281 124.598 89.281 122.973 c h
88.422 122.973 m 88.422 124.27 88.297 125.785 87.297 125.785 c 86.344 125.785
 86.156 124.27 86.156 122.973 c 86.156 121.895 86.281 120.145 87.297 120.145
 c 88.297 120.145 88.422 121.895 88.422 122.973 c h
88.422 122.973 m f
137.055 124.441 m 137.055 123.832 l 136.18 123.832 l 136.18 119.91 l 135.742
 119.91 l 133.148 123.816 l 133.148 124.441 l 135.445 124.441 l 135.445 
125.926 l 136.18 125.926 l 136.18 124.441 l h
135.445 123.832 m 133.508 123.832 l 135.43 120.848 l 135.445 120.848 l 
h
135.445 123.832 m f
141.48 122.973 m 141.48 121.363 140.746 119.91 139.496 119.91 c 138.23 
119.91 137.496 121.363 137.496 122.973 c 137.496 124.598 138.184 126.035
 139.496 126.035 c 140.699 126.035 141.48 124.598 141.48 122.973 c h
140.621 122.973 m 140.621 124.27 140.496 125.785 139.496 125.785 c 138.543
 125.785 138.355 124.27 138.355 122.973 c 138.355 121.895 138.48 120.145
 139.496 120.145 c 140.496 120.145 140.621 121.895 140.621 122.973 c h
140.621 122.973 m f
145.922 122.973 m 145.922 121.363 145.188 119.91 143.938 119.91 c 142.672
 119.91 141.938 121.363 141.938 122.973 c 141.938 124.598 142.625 126.035
 143.938 126.035 c 145.141 126.035 145.922 124.598 145.922 122.973 c h
145.062 122.973 m 145.062 124.27 144.938 125.785 143.938 125.785 c 142.984
 125.785 142.797 124.27 142.797 122.973 c 142.797 121.895 142.922 120.145
 143.938 120.145 c 144.938 120.145 145.062 121.895 145.062 122.973 c h
145.062 122.973 m f
22.441 116.496 m 22.441 114.887 21.707 113.434 20.457 113.434 c 19.191 
113.434 18.457 114.887 18.457 116.496 c 18.457 118.121 19.145 119.559 20.457
 119.559 c 21.66 119.559 22.441 118.121 22.441 116.496 c h
21.582 116.496 m 21.582 117.793 21.457 119.309 20.457 119.309 c 19.504 
119.309 19.316 117.793 19.316 116.496 c 19.316 115.418 19.441 113.668 20.457
 113.668 c 21.457 113.668 21.582 115.418 21.582 116.496 c h
21.582 116.496 m f
15.602 93.812 m 15.602 92.203 14.867 90.75 13.617 90.75 c 12.352 90.75 
11.617 92.203 11.617 93.812 c 11.617 95.438 12.305 96.875 13.617 96.875 
c 14.82 96.875 15.602 95.438 15.602 93.812 c h
14.742 93.812 m 14.742 95.109 14.617 96.625 13.617 96.625 c 12.664 96.625
 12.477 95.109 12.477 93.812 c 12.477 92.734 12.602 90.984 13.617 90.984
 c 14.617 90.984 14.742 92.734 14.742 93.812 c h
14.742 93.812 m f
17.527 96.391 m 17.527 96.109 17.309 95.891 17.027 95.891 c 16.746 95.891
 16.527 96.109 16.527 96.391 c 16.527 96.672 16.746 96.891 17.027 96.891
 c 17.309 96.891 17.527 96.672 17.527 96.391 c h
17.527 96.391 m f
22.473 95.609 m 22.316 95.578 l 22.051 96.031 21.832 96.109 21.395 96.109
 c 19.332 96.109 l 20.754 94.812 22.051 93.641 22.051 92.328 c 22.051 91.406
 21.254 90.75 20.379 90.75 c 19.52 90.75 18.832 91.219 18.566 92.438 c 18.77
 92.438 l 19.02 91.938 19.363 91.422 20.051 91.422 c 20.832 91.422 21.27
 92.016 21.27 92.688 c 21.27 93.656 20.238 95.078 18.473 96.625 c 18.473
 96.766 l 22.004 96.766 l h
22.473 95.609 m f
15.602 71.133 m 15.602 69.523 14.867 68.07 13.617 68.07 c 12.352 68.07 
11.617 69.523 11.617 71.133 c 11.617 72.758 12.305 74.195 13.617 74.195 
c 14.82 74.195 15.602 72.758 15.602 71.133 c h
14.742 71.133 m 14.742 72.43 14.617 73.945 13.617 73.945 c 12.664 73.945
 12.477 72.43 12.477 71.133 c 12.477 70.055 12.602 68.305 13.617 68.305 
c 14.617 68.305 14.742 70.055 14.742 71.133 c h
14.742 71.133 m f
17.527 73.711 m 17.527 73.43 17.309 73.211 17.027 73.211 c 16.746 73.211
 16.527 73.43 16.527 73.711 c 16.527 73.992 16.746 74.211 17.027 74.211 
c 17.309 74.211 17.527 73.992 17.527 73.711 c h
17.527 73.711 m f
22.457 72.602 m 22.457 71.992 l 21.582 71.992 l 21.582 68.07 l 21.145 68.07
 l 18.551 71.977 l 18.551 72.602 l 20.848 72.602 l 20.848 74.086 l 21.582
 74.086 l 21.582 72.602 l h
20.848 71.992 m 18.91 71.992 l 20.832 69.008 l 20.848 69.008 l h
20.848 71.992 m f
15.602 48.453 m 15.602 46.844 14.867 45.391 13.617 45.391 c 12.352 45.391
 11.617 46.844 11.617 48.453 c 11.617 50.078 12.305 51.516 13.617 51.516
 c 14.82 51.516 15.602 50.078 15.602 48.453 c h
14.742 48.453 m 14.742 49.75 14.617 51.266 13.617 51.266 c 12.664 51.266
 12.477 49.75 12.477 48.453 c 12.477 47.375 12.602 45.625 13.617 45.625 
c 14.617 45.625 14.742 47.375 14.742 48.453 c h
14.742 48.453 m f
17.527 51.031 m 17.527 50.75 17.309 50.531 17.027 50.531 c 16.746 50.531
 16.527 50.75 16.527 51.031 c 16.527 51.312 16.746 51.531 17.027 51.531 
c 17.309 51.531 17.527 51.312 17.527 51.031 c h
17.527 51.031 m f
22.395 49.391 m 22.395 48.406 21.691 47.672 20.801 47.672 c 20.348 47.672
 19.973 47.812 19.582 48.125 c 19.973 46.531 21.145 45.531 22.27 45.516 
c 22.27 45.359 l 19.504 45.359 18.629 47.703 18.629 49.031 c 18.629 50.453
 19.457 51.516 20.566 51.516 c 21.582 51.516 22.395 50.562 22.395 49.391
 c h
21.629 49.844 m 21.629 50.672 21.254 51.25 20.66 51.25 c 19.738 51.25 19.457
 49.906 19.457 49.188 c 19.457 48.953 19.488 48.703 19.535 48.406 c 19.926
 48.156 20.238 48.047 20.551 48.047 c 21.457 48.047 21.629 49.094 21.629
 49.844 c h
21.629 49.844 m f
15.602 25.773 m 15.602 24.164 14.867 22.711 13.617 22.711 c 12.352 22.711
 11.617 24.164 11.617 25.773 c 11.617 27.398 12.305 28.836 13.617 28.836
 c 14.82 28.836 15.602 27.398 15.602 25.773 c h
14.742 25.773 m 14.742 27.07 14.617 28.586 13.617 28.586 c 12.664 28.586
 12.477 27.07 12.477 25.773 c 12.477 24.695 12.602 22.945 13.617 22.945 
c 14.617 22.945 14.742 24.695 14.742 25.773 c h
14.742 25.773 m f
17.527 28.352 m 17.527 28.07 17.309 27.852 17.027 27.852 c 16.746 27.852
 16.527 28.07 16.527 28.352 c 16.527 28.633 16.746 28.852 17.027 28.852 
c 17.309 28.852 17.527 28.633 17.527 28.352 c h
17.527 28.352 m f
22.176 27.352 m 22.176 26.711 21.895 26.227 20.801 25.414 c 21.488 25.039
 22.02 24.617 22.02 23.961 c 22.02 23.273 21.379 22.68 20.426 22.68 c 19.582
 22.68 18.785 23.227 18.785 24.07 c 18.785 24.727 19.129 25.117 19.895 25.727
 c 19.035 26.383 18.723 26.711 18.723 27.383 c 18.723 28.133 19.395 28.836
 20.441 28.836 c 21.66 28.836 22.176 28.008 22.176 27.352 c h
21.41 23.945 m 21.41 24.586 21.035 24.93 20.551 25.258 c 19.957 24.836 
19.441 24.367 19.441 23.852 c 19.441 23.367 19.785 22.945 20.395 22.945 
c 21.066 22.945 21.41 23.367 21.41 23.945 c h
21.535 27.602 m 21.535 28.18 21.098 28.57 20.52 28.57 c 19.832 28.57 19.395
 28.023 19.395 27.289 c 19.395 26.617 19.723 26.227 20.129 25.883 c 21.113
 26.633 21.535 27.008 21.535 27.602 c h
21.535 27.602 m f
14.852 6.047 m 14.852 5.906 l 14.258 5.906 14.039 5.922 14.039 4.75 c 14.039
 4.734 14.039 0 14.039 0 c 13.914 0 l 12.383 0.734 l 12.43 0.875 l 12.758
 0.734 12.836 0.703 12.961 0.703 c 13.227 0.703 13.273 0.938 13.273 1.25
 c 13.273 4.75 l 13.273 5.922 13.055 5.891 12.461 5.906 c 12.461 6.047 l
 h
14.852 6.047 m f
17.527 5.672 m 17.527 5.391 17.309 5.172 17.027 5.172 c 16.746 5.172 16.527
 5.391 16.527 5.672 c 16.527 5.953 16.746 6.172 17.027 6.172 c 17.309 6.172
 17.527 5.953 17.527 5.672 c h
17.527 5.672 m f
22.441 3.094 m 22.441 1.484 21.707 0.031 20.457 0.031 c 19.191 0.031 18.457
 1.484 18.457 3.094 c 18.457 4.719 19.145 6.156 20.457 6.156 c 21.66 6.156
 22.441 4.719 22.441 3.094 c h
21.582 3.094 m 21.582 4.391 21.457 5.906 20.457 5.906 c 19.504 5.906 19.316
 4.391 19.316 3.094 c 19.316 2.016 19.441 0.266 20.457 0.266 c 21.457 0.266
 21.582 2.016 21.582 3.094 c h
21.582 3.094 m f
80.359 131.879 m 75.344 131.879 l 74.922 133.41 l 75.094 133.41 l 75.469
 132.426 75.938 132.207 76.719 132.207 c 76.719 132.207 77.234 132.207 77.344
 132.207 c 76.047 136.879 l 75.797 137.785 75.484 137.77 75.125 137.77 c
 75.109 137.926 l 77.469 137.926 l 77.5 137.77 l 77.156 137.77 76.812 137.785
 76.812 137.332 c 76.812 137.207 76.844 137.066 76.891 136.879 c 78.172 
132.207 l 78.922 132.207 l 79.359 132.207 79.828 132.27 79.828 132.895 c
 79.828 133.035 79.812 133.191 79.766 133.41 c 79.938 133.41 l h
80.359 131.879 m f
Q q
80.648 130.648 4 9.352 re W n
q
80 130 5 10 re W n
  q
0 g
84.332 131.488 m 83.895 131.488 l 80.785 139.848 l 81.238 139.848 l h
84.332 131.488 m f
  Q
Q
Q q
0 g
88.57 132.16 m 89.117 132.191 89.18 132.223 89.18 132.441 c 89.18 132.629
 88.977 132.91 88.477 133.363 c 86.898 134.801 l 86.898 132.973 l 86.898
 132.301 86.992 132.207 87.727 132.16 c 87.727 131.988 l 85.18 131.988 l
 85.18 132.16 l 85.867 132.207 85.961 132.316 85.977 132.973 c 85.977 136.848
 l 85.977 137.613 85.867 137.707 85.18 137.754 c 85.18 137.926 l 87.695 
137.926 l 87.695 137.754 l 87.008 137.707 86.898 137.613 86.898 136.941 
c 86.898 135.27 l 87.133 135.082 l 88.07 136.02 l 88.773 136.723 89.242 
137.332 89.242 137.551 c 89.242 137.691 89.133 137.738 88.867 137.754 c 
88.82 137.754 88.727 137.754 88.617 137.754 c 88.617 137.926 l 91.352 137.926
 l 91.352 137.754 l 90.883 137.754 90.758 137.66 89.945 136.785 c 87.852
 134.551 l 89.555 132.863 l 90.164 132.27 90.305 132.207 90.914 132.16 c
 90.914 131.988 l 88.57 131.988 l h
88.57 132.16 m f
0.328 60.152 m 0.109 60.152 0 60.355 0 60.527 c 0 60.98 0.672 61.559 1.375
 61.996 c 1.375 62.012 1.078 62.074 1.078 62.074 c 0.484 62.215 0.141 62.387
 0 62.699 c 0 62.699 0.203 63.715 0.25 63.84 c 0.406 63.84 l 0.359 63.652
 0.328 63.512 0.328 63.418 c 0.328 62.918 0.812 62.84 2.109 62.496 c 2.703
 62.902 3.703 63.543 3.703 63.793 c 3.703 63.996 3.484 64.012 3.484 64.293
 c 3.484 64.48 3.625 64.621 3.812 64.621 c 4.047 64.621 4.203 64.449 4.203
 64.199 c 4.203 63.559 3.078 62.98 2.375 62.434 c 2.438 62.402 3.234 62.199
 3.234 62.199 c 4.062 61.98 4.203 61.809 4.203 61.59 c 4.203 61.309 3.922
 60.887 3.141 60.465 c 3.062 60.59 l 3.266 60.746 3.688 60.996 3.688 61.23
 c 3.688 61.543 2.422 61.715 1.625 61.934 c 1.547 61.887 0.547 61.262 0.547
 60.934 c 0.547 60.762 0.688 60.605 0.688 60.449 c 0.688 60.23 0.5 60.152
 0.328 60.152 c h
0.328 60.152 m f
1.891 59.75 m 1.922 59.172 2 59.094 2.516 59.094 c 5.609 59.094 l 6.141
 59.094 6.219 59.188 6.25 59.75 c 6.375 59.75 l 6.375 57.422 l 6.375 56.891
 6.234 56.391 5.984 56.125 c 5.766 55.875 5.453 55.75 5.125 55.75 c 4.812
 55.75 4.531 55.859 4.328 56.078 c 4.141 56.297 4.062 56.484 3.953 56.938
 c 3.859 56.578 3.797 56.422 3.641 56.266 c 3.484 56.078 3.234 55.984 2.953
 55.984 c 2.172 55.984 1.766 56.609 1.766 57.812 c 1.766 59.75 l h
4.109 58.375 m 4.109 57.703 4.141 57.375 4.25 57.125 c 4.406 56.734 4.703
 56.547 5.125 56.547 c 5.5 56.547 5.781 56.688 5.938 56.969 c 6.062 57.188
 6.109 57.484 6.109 57.938 c 6.109 58.281 6.047 58.375 5.828 58.375 c h
3.828 58.375 m 2.234 58.375 l 2.078 58.375 2.031 58.344 2.031 58.219 c 
2.016 57.922 l 2 57.141 2.359 56.688 2.969 56.688 c 3.531 56.688 3.812 57.047
 3.828 57.719 c h
3.828 58.375 m f
Q Q
showpage
%%Trailer
end
%%EOF
