<?xml version="1.0" encoding="UTF-8" standalone="no"?>
<svg
   width="153pt"
   height="140.8pt"
   viewBox="0 0 153 140.8"
   version="1.2"
   id="svg375"
   xmlns:xlink="http://www.w3.org/1999/xlink"
   xmlns="http://www.w3.org/2000/svg"
   xmlns:svg="http://www.w3.org/2000/svg">
  <defs
     id="defs112">
    <g
       id="g107">
      <symbol
         overflow="visible"
         id="glyph0-0">
        <path
           style="stroke:none;"
           d=""
           id="path2" />
      </symbol>
      <symbol
         overflow="visible"
         id="glyph0-1">
        <path
           style="stroke:none;"
           d="M 6.15625 -5.75 L 1.140625 -5.75 L 0.6875 -4.203125 L 0.96875 -4.203125 C 1.34375 -5.125 1.78125 -5.328125 2.515625 -5.328125 C 2.515625 -5.328125 2.890625 -5.328125 3.0625 -5.328125 L 1.828125 -1.0625 C 1.578125 -0.25 1.3125 -0.25 0.9375 -0.25 L 0.875 0 L 3.296875 0 L 3.34375 -0.25 C 2.984375 -0.25 2.671875 -0.234375 2.671875 -0.625 C 2.671875 -0.71875 2.6875 -0.859375 2.734375 -1.015625 L 3.96875 -5.328125 L 4.671875 -5.328125 C 5.078125 -5.328125 5.515625 -5.28125 5.515625 -4.75 C 5.515625 -4.625 5.5 -4.484375 5.421875 -4.203125 L 5.703125 -4.203125 Z M 6.15625 -5.75 "
           id="path5" />
      </symbol>
      <symbol
         overflow="visible"
         id="glyph0-2">
        <path
           style="stroke:none;"
           d="M 4.0625 -1.75 C 4.0625 -2.5625 3.578125 -2.9375 3.0625 -3.125 C 3.59375 -3.5 3.765625 -3.859375 3.765625 -4.28125 C 3.765625 -4.75 3.34375 -5.375 2.34375 -5.375 C 1.640625 -5.375 0.96875 -5.03125 0.65625 -4.109375 L 0.890625 -4.046875 C 1.078125 -4.375 1.421875 -4.765625 2.03125 -4.765625 C 2.625 -4.765625 2.96875 -4.421875 2.96875 -4 C 2.96875 -3.421875 2.453125 -2.984375 1.65625 -2.8125 L 1.640625 -2.5625 C 3 -2.625 3.328125 -1.84375 3.328125 -1.375 C 3.328125 -0.828125 2.875 -0.296875 2.28125 -0.296875 C 1.71875 -0.296875 1.453125 -0.75 1 -0.75 C 0.8125 -0.75 0.609375 -0.59375 0.609375 -0.375 C 0.609375 -0.03125 1.171875 0.09375 1.609375 0.09375 C 3.03125 0.09375 4.0625 -0.65625 4.0625 -1.75 Z M 4.0625 -1.75 "
           id="path8" />
      </symbol>
      <symbol
         overflow="visible"
         id="glyph0-3">
        <path
           style="stroke:none;"
           d="M 4.078125 -1.265625 C 4.078125 -1.796875 3.8125 -2.234375 2.78125 -2.9375 C 3.421875 -3.28125 3.921875 -3.640625 3.921875 -4.21875 C 3.921875 -4.828125 3.265625 -5.375 2.3125 -5.375 C 1.453125 -5.375 0.65625 -4.875 0.65625 -4.109375 C 0.65625 -3.53125 0.96875 -3.171875 1.71875 -2.671875 C 0.890625 -2.125 0.59375 -1.8125 0.59375 -1.234375 C 0.59375 -0.546875 1.28125 0.09375 2.328125 0.09375 C 3.5625 0.09375 4.078125 -0.671875 4.078125 -1.265625 Z M 3.234375 -4.21875 C 3.234375 -3.6875 2.875 -3.40625 2.4375 -3.140625 C 1.890625 -3.484375 1.40625 -3.875 1.40625 -4.3125 C 1.40625 -4.703125 1.71875 -5.046875 2.28125 -5.046875 C 2.90625 -5.046875 3.234375 -4.6875 3.234375 -4.21875 Z M 3.34375 -1.03125 C 3.34375 -0.5625 2.9375 -0.234375 2.40625 -0.234375 C 1.765625 -0.234375 1.359375 -0.703125 1.359375 -1.3125 C 1.359375 -1.859375 1.65625 -2.1875 2.015625 -2.46875 C 2.9375 -1.84375 3.34375 -1.53125 3.34375 -1.03125 Z M 3.34375 -1.03125 "
           id="path11" />
      </symbol>
      <symbol
         overflow="visible"
         id="glyph0-4">
        <path
           style="stroke:none;"
           d="M 4.234375 -2.640625 C 4.234375 -4.078125 3.578125 -5.375 2.328125 -5.375 C 1.0625 -5.375 0.421875 -4.078125 0.421875 -2.640625 C 0.421875 -1.1875 1.046875 0.09375 2.328125 0.09375 C 3.546875 0.09375 4.234375 -1.1875 4.234375 -2.640625 Z M 3.25 -2.640625 C 3.25 -1.53125 2.96875 -0.21875 2.3125 -0.21875 C 1.5 -0.21875 1.40625 -1.53125 1.40625 -2.640625 C 1.40625 -3.5625 1.453125 -5.0625 2.328125 -5.0625 C 3.203125 -5.0625 3.25 -3.5625 3.25 -2.640625 Z M 3.25 -2.640625 "
           id="path14" />
      </symbol>
      <symbol
         overflow="visible"
         id="glyph0-5">
        <path
           style="stroke:none;"
           d="M 4.296875 -1.3125 L 4.296875 -1.9375 L 3.4375 -1.9375 L 3.4375 -5.375 L 2.9375 -5.375 L 0.375 -1.921875 L 0.375 -1.3125 L 2.625 -1.3125 L 2.625 0 L 3.4375 0 L 3.4375 -1.3125 Z M 2.671875 -4.453125 L 2.625 -4.515625 L 2.625 -1.9375 L 0.875 -1.9375 Z M 2.671875 -4.453125 "
           id="path17" />
      </symbol>
      <symbol
         overflow="visible"
         id="glyph1-0">
        <path
           style="stroke:none;"
           d=""
           id="path20" />
      </symbol>
      <symbol
         overflow="visible"
         id="glyph1-1">
        <path
           style="stroke:none;"
           d="M 3.78125 -1.1875 C 3.78125 -1.28125 3.71875 -1.359375 3.578125 -1.40625 C 3.375 -1.515625 2.640625 -1.765625 2.375 -1.828125 C 2.640625 -1.890625 3.375 -2.140625 3.578125 -2.25 C 3.71875 -2.3125 3.78125 -2.390625 3.78125 -2.46875 C 3.78125 -2.578125 3.65625 -2.6875 3.53125 -2.6875 C 3.453125 -2.6875 3.40625 -2.671875 3.3125 -2.640625 C 3.109375 -2.53125 2.484375 -2.109375 2.296875 -1.96875 C 2.359375 -2.171875 2.46875 -2.84375 2.46875 -3.046875 C 2.46875 -3.234375 2.359375 -3.328125 2.203125 -3.328125 C 2.046875 -3.328125 1.9375 -3.234375 1.9375 -3.046875 C 1.9375 -2.84375 2.046875 -2.171875 2.109375 -1.96875 C 1.921875 -2.109375 1.296875 -2.53125 1.09375 -2.640625 C 1 -2.671875 0.953125 -2.6875 0.875 -2.6875 C 0.734375 -2.6875 0.625 -2.578125 0.625 -2.46875 C 0.625 -2.390625 0.6875 -2.3125 0.828125 -2.25 C 1.03125 -2.140625 1.765625 -1.890625 2.03125 -1.828125 C 1.765625 -1.765625 1.03125 -1.515625 0.828125 -1.40625 C 0.6875 -1.359375 0.625 -1.28125 0.625 -1.1875 C 0.625 -1.078125 0.734375 -0.96875 0.875 -0.96875 C 0.953125 -0.96875 1 -1 1.09375 -1.03125 C 1.296875 -1.125 1.921875 -1.5625 2.109375 -1.703125 C 2.046875 -1.484375 1.9375 -0.8125 1.9375 -0.625 C 1.9375 -0.4375 2.046875 -0.34375 2.203125 -0.34375 C 2.359375 -0.34375 2.46875 -0.4375 2.46875 -0.625 C 2.46875 -0.8125 2.359375 -1.484375 2.296875 -1.703125 C 2.484375 -1.5625 3.109375 -1.125 3.3125 -1.03125 C 3.40625 -1 3.453125 -0.96875 3.53125 -0.96875 C 3.65625 -0.96875 3.78125 -1.078125 3.78125 -1.1875 Z M 3.78125 -1.1875 "
           id="path23" />
      </symbol>
      <symbol
         overflow="visible"
         id="glyph2-0">
        <path
           style="stroke:none;"
           d=""
           id="path26" />
      </symbol>
      <symbol
         overflow="visible"
         id="glyph2-1">
        <path
           style="stroke:none;"
           d="M 1.84375 -2.6875 L 1.109375 -2.6875 L 1.109375 -3.390625 C 1.109375 -3.734375 1.234375 -3.921875 1.453125 -3.921875 C 1.578125 -3.921875 1.65625 -3.859375 1.765625 -3.6875 C 1.859375 -3.53125 1.9375 -3.46875 2.046875 -3.46875 C 2.1875 -3.46875 2.296875 -3.578125 2.296875 -3.71875 C 2.296875 -3.9375 2.03125 -4.09375 1.671875 -4.09375 C 1.296875 -4.09375 0.984375 -3.921875 0.828125 -3.65625 C 0.671875 -3.390625 0.625 -3.171875 0.609375 -2.6875 L 0.125 -2.6875 L 0.125 -2.5 L 0.609375 -2.5 L 0.609375 -0.625 C 0.609375 -0.171875 0.546875 -0.109375 0.125 -0.09375 L 0.125 0 L 1.671875 0 L 1.671875 -0.09375 C 1.1875 -0.109375 1.125 -0.171875 1.125 -0.625 L 1.125 -2.5 L 1.84375 -2.5 Z M 1.84375 -2.6875 "
           id="path29" />
      </symbol>
      <symbol
         overflow="visible"
         id="glyph2-2">
        <path
           style="stroke:none;"
           d="M 0.109375 -3.84375 C 0.609375 -3.8125 0.671875 -3.765625 0.671875 -3.3125 L 0.671875 -0.65625 C 0.671875 -0.203125 0.59375 -0.125 0.109375 -0.109375 L 0.109375 0 L 2.09375 0 C 2.5625 0 2.984375 -0.125 3.21875 -0.328125 C 3.421875 -0.515625 3.546875 -0.796875 3.546875 -1.078125 C 3.546875 -1.34375 3.453125 -1.578125 3.25 -1.75 C 3.078125 -1.921875 2.921875 -1.984375 2.53125 -2.078125 C 2.84375 -2.15625 2.96875 -2.21875 3.109375 -2.34375 C 3.25 -2.484375 3.34375 -2.6875 3.34375 -2.9375 C 3.34375 -3.609375 2.8125 -3.96875 1.78125 -3.96875 L 0.109375 -3.96875 Z M 1.28125 -1.953125 C 1.859375 -1.953125 2.140625 -1.921875 2.359375 -1.828125 C 2.703125 -1.6875 2.859375 -1.4375 2.859375 -1.078125 C 2.859375 -0.75 2.734375 -0.515625 2.5 -0.375 C 2.296875 -0.265625 2.0625 -0.21875 1.65625 -0.21875 C 1.375 -0.21875 1.28125 -0.28125 1.28125 -0.46875 Z M 1.28125 -2.1875 L 1.28125 -3.5625 C 1.296875 -3.6875 1.3125 -3.734375 1.421875 -3.734375 L 1.6875 -3.734375 C 2.34375 -3.765625 2.734375 -3.453125 2.734375 -2.921875 C 2.734375 -2.453125 2.421875 -2.203125 1.859375 -2.1875 Z M 1.28125 -2.1875 "
           id="path32" />
      </symbol>
      <symbol
         overflow="visible"
         id="glyph3-0">
        <path
           style="stroke:none;"
           d=""
           id="path35" />
      </symbol>
      <symbol
         overflow="visible"
         id="glyph3-1">
        <path
           style="stroke:none;"
           d="M 0.84375 0.6875 C 1.4375 0.640625 1.671875 0.265625 1.671875 -0.09375 C 1.671875 -0.40625 1.484375 -0.703125 1.171875 -0.703125 C 0.953125 -0.703125 0.75 -0.53125 0.75 -0.3125 C 0.75 -0.078125 0.921875 0.0625 1.078125 0.0625 C 1.203125 0.0625 1.21875 0 1.3125 0 C 1.375 0 1.421875 0.046875 1.421875 0.125 C 1.421875 0.34375 1.15625 0.484375 0.84375 0.515625 Z M 0.84375 0.6875 "
           id="path38" />
      </symbol>
      <symbol
         overflow="visible"
         id="glyph4-0">
        <path
           style="stroke:none;"
           d=""
           id="path41" />
      </symbol>
      <symbol
         overflow="visible"
         id="glyph4-1">
        <path
           style="stroke:none;"
           d="M 6.53125 -2.84375 L 6.53125 -3.40625 L 0.703125 -3.40625 L 0.703125 -2.84375 Z M 6.53125 -1.203125 L 6.53125 -1.765625 L 0.703125 -1.765625 L 0.703125 -1.203125 Z M 6.53125 -1.203125 "
           id="path44" />
      </symbol>
      <symbol
         overflow="visible"
         id="glyph5-0">
        <path
           style="stroke:none;"
           d=""
           id="path47" />
      </symbol>
      <symbol
         overflow="visible"
         id="glyph5-1">
        <path
           style="stroke:none;"
           d="M 3.296875 -5.125 C 3.765625 -5.09375 3.828125 -5.0625 3.828125 -4.875 C 3.828125 -4.703125 3.65625 -4.46875 3.21875 -4.0625 L 1.796875 -2.765625 L 1.796875 -4.40625 C 1.8125 -5 1.890625 -5.078125 2.53125 -5.125 L 2.53125 -5.28125 L 0.265625 -5.28125 L 0.265625 -5.125 C 0.890625 -5.078125 0.96875 -4.984375 0.984375 -4.40625 L 0.984375 -0.953125 C 0.984375 -0.28125 0.890625 -0.1875 0.265625 -0.15625 L 0.265625 0 L 2.515625 0 L 2.515625 -0.15625 C 1.90625 -0.1875 1.8125 -0.28125 1.796875 -0.875 L 1.796875 -2.359375 L 2.015625 -2.53125 L 2.859375 -1.6875 C 3.46875 -1.078125 3.890625 -0.53125 3.890625 -0.328125 C 3.890625 -0.21875 3.78125 -0.171875 3.546875 -0.15625 C 3.515625 -0.15625 3.421875 -0.15625 3.328125 -0.15625 L 3.328125 0 L 5.765625 0 L 5.765625 -0.15625 C 5.34375 -0.15625 5.234375 -0.234375 4.515625 -1.015625 L 2.65625 -3 L 4.171875 -4.5 C 4.703125 -5.015625 4.84375 -5.078125 5.375 -5.125 L 5.375 -5.28125 L 3.296875 -5.28125 Z M 3.296875 -5.125 "
           id="path50" />
      </symbol>
      <symbol
         overflow="visible"
         id="glyph6-0">
        <path
           style="stroke:none;"
           d=""
           id="path53" />
      </symbol>
      <symbol
         overflow="visible"
         id="glyph6-1">
        <path
           style="stroke:none;"
           d="M 3.890625 -1.9375 C 3.890625 -2.875 3.34375 -3.28125 2.8125 -3.5 C 3.390625 -3.9375 3.578125 -4.34375 3.578125 -4.828125 C 3.578125 -5.34375 3.15625 -6.015625 2.1875 -6.015625 C 1.484375 -6.015625 0.8125 -5.625 0.515625 -4.65625 L 0.65625 -4.625 C 0.84375 -4.984375 1.203125 -5.4375 1.859375 -5.4375 C 2.5 -5.4375 2.875 -5 2.875 -4.5 C 2.875 -3.796875 2.328125 -3.296875 1.515625 -3.109375 L 1.5 -2.921875 C 2.890625 -2.984375 3.234375 -2.078125 3.234375 -1.515625 C 3.234375 -0.84375 2.75 -0.234375 2.109375 -0.234375 C 1.53125 -0.234375 1.28125 -0.734375 0.796875 -0.734375 C 0.640625 -0.734375 0.453125 -0.578125 0.453125 -0.375 C 0.453125 0 1.015625 0.109375 1.421875 0.109375 C 2.84375 0.109375 3.890625 -0.703125 3.890625 -1.9375 Z M 3.890625 -1.9375 "
           id="path56" />
      </symbol>
      <symbol
         overflow="visible"
         id="glyph6-2">
        <path
           style="stroke:none;"
           d="M 4.234375 -2.953125 C 4.234375 -4.5625 3.5 -6.015625 2.25 -6.015625 C 0.984375 -6.015625 0.25 -4.5625 0.25 -2.953125 C 0.25 -1.328125 0.9375 0.109375 2.25 0.109375 C 3.453125 0.109375 4.234375 -1.328125 4.234375 -2.953125 Z M 3.375 -2.953125 C 3.375 -1.65625 3.25 -0.140625 2.25 -0.140625 C 1.296875 -0.140625 1.109375 -1.65625 1.109375 -2.953125 C 1.109375 -4.03125 1.234375 -5.78125 2.25 -5.78125 C 3.25 -5.78125 3.375 -4.03125 3.375 -2.953125 Z M 3.375 -2.953125 "
           id="path59" />
      </symbol>
      <symbol
         overflow="visible"
         id="glyph6-3">
        <path
           style="stroke:none;"
           d="M 4.171875 -5.921875 L 1.703125 -5.921875 L 0.59375 -3.375 C 0.734375 -3.40625 0.875 -3.4375 1.046875 -3.4375 C 2 -3.4375 3.296875 -2.9375 3.296875 -1.765625 C 3.296875 -0.859375 2.640625 -0.28125 2.015625 -0.28125 C 1.46875 -0.28125 1.265625 -0.78125 0.75 -0.78125 C 0.5 -0.78125 0.421875 -0.5625 0.421875 -0.453125 C 0.421875 -0.140625 0.859375 0.109375 1.484375 0.109375 C 2.828125 0.109375 3.890625 -0.875 3.890625 -2.078125 C 3.890625 -3.5 2.765625 -3.984375 1.546875 -4.015625 C 1.4375 -4.015625 1.3125 -4 1.203125 -3.984375 L 1.765625 -5.25 L 3.859375 -5.265625 Z M 4.171875 -5.921875 "
           id="path62" />
      </symbol>
      <symbol
         overflow="visible"
         id="glyph6-4">
        <path
           style="stroke:none;"
           d="M 4.25 -1.484375 L 4.25 -2.09375 L 3.375 -2.09375 L 3.375 -6.015625 L 2.9375 -6.015625 L 0.34375 -2.109375 L 0.34375 -1.484375 L 2.640625 -1.484375 L 2.640625 0 L 3.375 0 L 3.375 -1.484375 Z M 2.640625 -2.09375 L 0.703125 -2.09375 L 2.625 -5.078125 L 2.640625 -5.078125 Z M 2.640625 -2.09375 "
           id="path65" />
      </symbol>
      <symbol
         overflow="visible"
         id="glyph6-5">
        <path
           style="stroke:none;"
           d="M 1.71875 -0.375 C 1.71875 -0.65625 1.5 -0.875 1.21875 -0.875 C 0.9375 -0.875 0.71875 -0.65625 0.71875 -0.375 C 0.71875 -0.09375 0.9375 0.125 1.21875 0.125 C 1.5 0.125 1.71875 -0.09375 1.71875 -0.375 Z M 1.71875 -0.375 "
           id="path68" />
      </symbol>
      <symbol
         overflow="visible"
         id="glyph6-6">
        <path
           style="stroke:none;"
           d="M 4.265625 -1.15625 L 4.109375 -1.1875 C 3.84375 -0.734375 3.625 -0.65625 3.1875 -0.65625 L 1.125 -0.65625 C 2.546875 -1.953125 3.84375 -3.125 3.84375 -4.4375 C 3.84375 -5.359375 3.046875 -6.015625 2.171875 -6.015625 C 1.3125 -6.015625 0.625 -5.546875 0.359375 -4.328125 L 0.5625 -4.328125 C 0.8125 -4.828125 1.15625 -5.34375 1.84375 -5.34375 C 2.625 -5.34375 3.0625 -4.75 3.0625 -4.078125 C 3.0625 -3.109375 2.03125 -1.6875 0.265625 -0.140625 L 0.265625 0 L 3.796875 0 Z M 4.265625 -1.15625 "
           id="path71" />
      </symbol>
      <symbol
         overflow="visible"
         id="glyph6-7">
        <path
           style="stroke:none;"
           d="M 4.1875 -2.015625 C 4.1875 -3 3.484375 -3.734375 2.59375 -3.734375 C 2.140625 -3.734375 1.765625 -3.59375 1.375 -3.28125 C 1.765625 -4.875 2.9375 -5.875 4.0625 -5.890625 L 4.0625 -6.046875 C 1.296875 -6.046875 0.421875 -3.703125 0.421875 -2.375 C 0.421875 -0.953125 1.25 0.109375 2.359375 0.109375 C 3.375 0.109375 4.1875 -0.84375 4.1875 -2.015625 Z M 3.421875 -1.5625 C 3.421875 -0.734375 3.046875 -0.15625 2.453125 -0.15625 C 1.53125 -0.15625 1.25 -1.5 1.25 -2.21875 C 1.25 -2.453125 1.28125 -2.703125 1.328125 -3 C 1.71875 -3.25 2.03125 -3.359375 2.34375 -3.359375 C 3.25 -3.359375 3.421875 -2.3125 3.421875 -1.5625 Z M 3.421875 -1.5625 "
           id="path74" />
      </symbol>
      <symbol
         overflow="visible"
         id="glyph6-8">
        <path
           style="stroke:none;"
           d="M 3.96875 -1.375 C 3.96875 -2.015625 3.6875 -2.5 2.59375 -3.3125 C 3.28125 -3.6875 3.8125 -4.109375 3.8125 -4.765625 C 3.8125 -5.453125 3.171875 -6.046875 2.21875 -6.046875 C 1.375 -6.046875 0.578125 -5.5 0.578125 -4.65625 C 0.578125 -4 0.921875 -3.609375 1.6875 -3 C 0.828125 -2.34375 0.515625 -2.015625 0.515625 -1.34375 C 0.515625 -0.59375 1.1875 0.109375 2.234375 0.109375 C 3.453125 0.109375 3.96875 -0.71875 3.96875 -1.375 Z M 3.203125 -4.78125 C 3.203125 -4.140625 2.828125 -3.796875 2.34375 -3.46875 C 1.75 -3.890625 1.234375 -4.359375 1.234375 -4.875 C 1.234375 -5.359375 1.578125 -5.78125 2.1875 -5.78125 C 2.859375 -5.78125 3.203125 -5.359375 3.203125 -4.78125 Z M 3.328125 -1.125 C 3.328125 -0.546875 2.890625 -0.15625 2.3125 -0.15625 C 1.625 -0.15625 1.1875 -0.703125 1.1875 -1.4375 C 1.1875 -2.109375 1.515625 -2.5 1.921875 -2.84375 C 2.90625 -2.09375 3.328125 -1.71875 3.328125 -1.125 Z M 3.328125 -1.125 "
           id="path77" />
      </symbol>
      <symbol
         overflow="visible"
         id="glyph6-9">
        <path
           style="stroke:none;"
           d="M 3.484375 0 L 3.484375 -0.140625 C 2.890625 -0.140625 2.671875 -0.125 2.671875 -1.296875 C 2.671875 -1.3125 2.671875 -6.046875 2.671875 -6.046875 L 2.546875 -6.046875 L 1.015625 -5.3125 L 1.0625 -5.171875 C 1.390625 -5.3125 1.46875 -5.34375 1.59375 -5.34375 C 1.859375 -5.34375 1.90625 -5.109375 1.90625 -4.796875 L 1.90625 -1.296875 C 1.90625 -0.125 1.6875 -0.15625 1.09375 -0.140625 L 1.09375 0 Z M 3.484375 0 "
           id="path80" />
      </symbol>
      <symbol
         overflow="visible"
         id="glyph6-10">
        <path
           style="stroke:none;"
           d="M 6.171875 -6.046875 L 1.15625 -6.046875 L 0.734375 -4.515625 L 0.90625 -4.515625 C 1.28125 -5.5 1.75 -5.71875 2.53125 -5.71875 C 2.53125 -5.71875 3.046875 -5.71875 3.15625 -5.71875 L 1.859375 -1.046875 C 1.609375 -0.140625 1.296875 -0.15625 0.9375 -0.15625 L 0.921875 0 L 3.28125 0 L 3.3125 -0.15625 C 2.96875 -0.15625 2.625 -0.140625 2.625 -0.59375 C 2.625 -0.71875 2.65625 -0.859375 2.703125 -1.046875 L 3.984375 -5.71875 L 4.734375 -5.71875 C 5.171875 -5.71875 5.640625 -5.65625 5.640625 -5.03125 C 5.640625 -4.890625 5.625 -4.734375 5.578125 -4.515625 L 5.75 -4.515625 Z M 6.171875 -6.046875 "
           id="path83" />
      </symbol>
      <symbol
         overflow="visible"
         id="glyph6-11">
        <path
           style="stroke:none;"
           d="M 3.90625 -6.4375 L 3.46875 -6.4375 L 0.359375 1.921875 L 0.8125 1.921875 Z M 3.90625 -6.4375 "
           id="path86" />
      </symbol>
      <symbol
         overflow="visible"
         id="glyph7-0">
        <path
           style="stroke:none;"
           d=""
           id="path89" />
      </symbol>
      <symbol
         overflow="visible"
         id="glyph7-1">
        <path
           style="stroke:none;"
           d="M 3.703125 -5.765625 C 4.25 -5.734375 4.3125 -5.703125 4.3125 -5.484375 C 4.3125 -5.296875 4.109375 -5.015625 3.609375 -4.5625 L 2.03125 -3.125 L 2.03125 -4.953125 C 2.03125 -5.625 2.125 -5.71875 2.859375 -5.765625 L 2.859375 -5.9375 L 0.3125 -5.9375 L 0.3125 -5.765625 C 1 -5.71875 1.09375 -5.609375 1.109375 -4.953125 L 1.109375 -1.078125 C 1.109375 -0.3125 1 -0.21875 0.3125 -0.171875 L 0.3125 0 L 2.828125 0 L 2.828125 -0.171875 C 2.140625 -0.21875 2.03125 -0.3125 2.03125 -0.984375 L 2.03125 -2.65625 L 2.265625 -2.84375 L 3.203125 -1.90625 C 3.90625 -1.203125 4.375 -0.59375 4.375 -0.375 C 4.375 -0.234375 4.265625 -0.1875 4 -0.171875 C 3.953125 -0.171875 3.859375 -0.171875 3.75 -0.171875 L 3.75 0 L 6.484375 0 L 6.484375 -0.171875 C 6.015625 -0.171875 5.890625 -0.265625 5.078125 -1.140625 L 2.984375 -3.375 L 4.6875 -5.0625 C 5.296875 -5.65625 5.4375 -5.71875 6.046875 -5.765625 L 6.046875 -5.9375 L 3.703125 -5.9375 Z M 3.703125 -5.765625 "
           id="path92" />
      </symbol>
      <symbol
         overflow="visible"
         id="glyph8-0">
        <path
           style="stroke:none;"
           d=""
           id="path95" />
      </symbol>
      <symbol
         overflow="visible"
         id="glyph8-1">
        <path
           style="stroke:none;"
           d="M -3.765625 -4.640625 C -3.984375 -4.640625 -4.09375 -4.4375 -4.09375 -4.265625 C -4.09375 -3.8125 -3.421875 -3.234375 -2.71875 -2.796875 C -2.71875 -2.78125 -3.015625 -2.71875 -3.015625 -2.71875 C -3.609375 -2.578125 -3.953125 -2.40625 -4.09375 -2.09375 C -4.09375 -2.09375 -3.890625 -1.078125 -3.84375 -0.953125 L -3.6875 -0.953125 C -3.734375 -1.140625 -3.765625 -1.28125 -3.765625 -1.375 C -3.765625 -1.875 -3.28125 -1.953125 -1.984375 -2.296875 C -1.390625 -1.890625 -0.390625 -1.25 -0.390625 -1 C -0.390625 -0.796875 -0.609375 -0.78125 -0.609375 -0.5 C -0.609375 -0.3125 -0.46875 -0.171875 -0.28125 -0.171875 C -0.046875 -0.171875 0.109375 -0.34375 0.109375 -0.59375 C 0.109375 -1.234375 -1.015625 -1.8125 -1.71875 -2.359375 C -1.65625 -2.390625 -0.859375 -2.59375 -0.859375 -2.59375 C -0.03125 -2.8125 0.109375 -2.984375 0.109375 -3.203125 C 0.109375 -3.484375 -0.171875 -3.90625 -0.953125 -4.328125 L -1.03125 -4.203125 C -0.828125 -4.046875 -0.40625 -3.796875 -0.40625 -3.5625 C -0.40625 -3.25 -1.671875 -3.078125 -2.46875 -2.859375 C -2.546875 -2.90625 -3.546875 -3.53125 -3.546875 -3.859375 C -3.546875 -4.03125 -3.40625 -4.1875 -3.40625 -4.34375 C -3.40625 -4.5625 -3.59375 -4.640625 -3.765625 -4.640625 Z M -3.765625 -4.640625 "
           id="path98" />
      </symbol>
      <symbol
         overflow="visible"
         id="glyph9-0">
        <path
           style="stroke:none;"
           d=""
           id="path101" />
      </symbol>
      <symbol
         overflow="visible"
         id="glyph9-1">
        <path
           style="stroke:none;"
           d="M -4.484375 -0.125 C -4.453125 -0.703125 -4.375 -0.78125 -3.859375 -0.78125 L -0.765625 -0.78125 C -0.234375 -0.78125 -0.15625 -0.6875 -0.125 -0.125 L 0 -0.125 L 0 -2.453125 C 0 -2.984375 -0.140625 -3.484375 -0.390625 -3.75 C -0.609375 -4 -0.921875 -4.125 -1.25 -4.125 C -1.5625 -4.125 -1.84375 -4.015625 -2.046875 -3.796875 C -2.234375 -3.578125 -2.3125 -3.390625 -2.421875 -2.9375 C -2.515625 -3.296875 -2.578125 -3.453125 -2.734375 -3.609375 C -2.890625 -3.796875 -3.140625 -3.890625 -3.421875 -3.890625 C -4.203125 -3.890625 -4.609375 -3.265625 -4.609375 -2.0625 L -4.609375 -0.125 Z M -2.265625 -1.5 C -2.265625 -2.171875 -2.234375 -2.5 -2.125 -2.75 C -1.96875 -3.140625 -1.671875 -3.328125 -1.25 -3.328125 C -0.875 -3.328125 -0.59375 -3.1875 -0.4375 -2.90625 C -0.3125 -2.6875 -0.265625 -2.390625 -0.265625 -1.9375 C -0.265625 -1.59375 -0.328125 -1.5 -0.546875 -1.5 Z M -2.546875 -1.5 L -4.140625 -1.5 C -4.296875 -1.5 -4.34375 -1.53125 -4.34375 -1.65625 L -4.359375 -1.953125 C -4.375 -2.734375 -4.015625 -3.1875 -3.40625 -3.1875 C -2.84375 -3.1875 -2.5625 -2.828125 -2.546875 -2.15625 Z M -2.546875 -1.5 "
           id="path104" />
      </symbol>
    </g>
    <clipPath
       id="clip1">
      <path
         d="M 83 131 L 87 131 L 87 140.800781 L 83 140.800781 Z M 83 131 "
         id="path109" />
    </clipPath>
  </defs>
  <g
     id="surface1">
    <path
       style="fill:none;stroke-width:11.3366;stroke-linecap:butt;stroke-linejoin:miter;stroke:rgb(0%,0%,0%);stroke-opacity:1;stroke-miterlimit:10;"
       d="M 284.960938 449.640625 L 296.328125 455.304688 L 307.65625 461.085938 L 318.984375 466.984375 L 330.3125 473 L 341.640625 479.132812 L 353.007812 485.382812 L 364.335938 491.710938 L 375.664062 498.195312 L 386.992188 504.757812 L 398.359375 511.554688 L 409.6875 518.351562 L 432.34375 532.414062 L 443.671875 539.679688 L 455.039062 547.0625 L 466.367188 554.640625 L 477.695312 562.257812 L 489.023438 570.070312 L 500.351562 578 L 511.71875 586.046875 L 523.046875 594.210938 L 545.703125 611.007812 L 557.070312 619.601562 L 568.398438 628.46875 L 579.726562 637.296875 L 591.054688 646.398438 L 602.382812 655.65625 L 613.75 664.953125 L 625.078125 674.484375 L 647.734375 694.015625 L 659.0625 703.976562 L 670.429688 714.171875 L 681.757812 724.484375 L 693.085938 734.914062 L 704.414062 745.578125 L 715.78125 756.359375 L 727.109375 767.375 L 738.4375 778.46875 L 749.765625 789.679688 L 761.09375 801.125 L 772.460938 812.804688 L 783.789062 824.601562 L 795.117188 836.515625 L 806.445312 848.78125 L 817.8125 861.007812 L 829.140625 873.507812 L 840.46875 886.203125 L 851.796875 899.015625 L 863.125 912.023438 L 874.492188 925.304688 L 885.820312 938.664062 L 897.148438 952.296875 L 908.476562 966.007812 L 919.804688 979.953125 L 931.171875 994.132812 L 942.5 1008.390625 L 953.828125 1022.921875 L 965.15625 1037.6875 L 976.523438 1052.648438 L 987.851562 1067.726562 L 999.179688 1083.039062 L 1010.507812 1098.46875 L 1021.875 1114.09375 L 1033.203125 1130.070312 L 1044.53125 1146.085938 L 1055.859375 1162.375 L 1067.1875 1178.859375 L 1078.554688 1195.617188 L 1089.882812 1212.375 L 1101.210938 1229.523438 L 1112.539062 1246.867188 L 1123.867188 1264.328125 L 1135.234375 1282.140625 L 1146.5625 1300.03125 L 1157.890625 1318.195312 L 1169.21875 1336.554688 L 1180.585938 1355.03125 L 1191.914062 1373.859375 "
       transform="matrix(0.1,0,0,-0.1,0,140.8)"
       id="path114" />
    <path
       style="fill:none;stroke-width:11.3366;stroke-linecap:butt;stroke-linejoin:miter;stroke:rgb(0%,0%,0%);stroke-opacity:1;stroke-miterlimit:10;"
       d="M 284.960938 392.726562 L 296.328125 396.945312 L 307.65625 401.125 L 318.984375 405.421875 L 330.3125 409.757812 L 341.640625 414.171875 L 353.007812 418.820312 L 364.335938 423.351562 L 375.664062 428.117188 L 386.992188 432.960938 L 398.359375 437.84375 L 409.6875 442.84375 L 421.015625 447.960938 L 432.34375 453.15625 L 443.671875 458.390625 L 455.039062 463.820312 L 466.367188 469.289062 L 477.695312 474.835938 L 489.023438 480.5 L 500.351562 486.28125 L 511.71875 492.179688 L 523.046875 498.078125 L 534.375 504.171875 L 545.703125 510.421875 L 557.070312 516.671875 L 568.398438 523 L 579.726562 529.601562 L 591.054688 536.164062 L 602.382812 542.84375 L 613.75 549.640625 L 636.40625 563.703125 L 647.734375 570.851562 L 659.0625 578.117188 L 670.429688 585.5 L 681.757812 593.078125 L 693.085938 600.695312 L 704.414062 608.390625 L 715.78125 616.203125 L 727.109375 624.289062 L 738.4375 632.335938 L 749.765625 640.578125 L 761.09375 648.859375 L 772.460938 657.375 L 783.789062 666.007812 L 795.117188 674.71875 L 806.445312 683.585938 L 817.8125 692.53125 L 829.140625 701.59375 L 840.46875 710.890625 L 863.125 729.71875 L 874.492188 739.367188 L 885.820312 749.09375 L 897.148438 759.09375 L 908.476562 769.054688 L 919.804688 779.25 L 931.171875 789.5625 L 942.5 800.03125 L 953.828125 810.578125 L 965.15625 821.203125 L 976.523438 832.101562 L 987.851562 843.117188 L 999.179688 854.210938 L 1010.507812 865.539062 L 1021.875 876.984375 L 1033.203125 888.585938 L 1044.53125 900.265625 L 1055.859375 912.140625 L 1067.1875 924.171875 L 1078.554688 936.320312 L 1089.882812 948.664062 L 1101.210938 961.125 L 1112.539062 973.703125 L 1123.867188 986.4375 L 1135.234375 999.328125 L 1146.5625 1012.375 L 1157.890625 1025.65625 L 1169.21875 1039.015625 L 1180.585938 1052.53125 L 1191.914062 1066.242188 L 1203.242188 1080.070312 L 1214.570312 1094.015625 L 1225.898438 1108.195312 L 1237.265625 1122.609375 L 1248.59375 1136.984375 L 1259.921875 1151.632812 L 1271.25 1166.476562 L 1282.617188 1181.4375 L 1293.945312 1196.515625 L 1305.273438 1211.828125 L 1316.601562 1227.257812 L 1327.929688 1242.882812 L 1339.296875 1258.664062 L 1350.625 1274.640625 L 1361.953125 1290.734375 L 1373.28125 1307.0625 L 1384.648438 1323.507812 L 1395.976562 1340.070312 L 1407.304688 1356.867188 L 1418.632812 1373.859375 "
       transform="matrix(0.1,0,0,-0.1,0,140.8)"
       id="path116" />
    <g
       style="fill:rgb(0%,0%,0%);fill-opacity:1;"
       id="g120">
      <use
         xlink:href="#glyph0-1"
         x="34.5719"
         y="39.11"
         id="use118" />
    </g>
    <g
       style="fill:rgb(0%,0%,0%);fill-opacity:1;"
       id="g124">
      <use
         xlink:href="#glyph1-1"
         x="41.29221"
         y="35.99008"
         id="use122" />
    </g>
    <g
       style="fill:rgb(0%,0%,0%);fill-opacity:1;"
       id="g128">
      <use
         xlink:href="#glyph2-1"
         x="39.85198"
         y="41.51"
         id="use126" />
    </g>
    <g
       style="fill:rgb(0%,0%,0%);fill-opacity:1;"
       id="g132">
      <use
         xlink:href="#glyph3-1"
         x="41.7719"
         y="41.51"
         id="use130" />
    </g>
    <g
       style="fill:rgb(0%,0%,0%);fill-opacity:1;"
       id="g136">
      <use
         xlink:href="#glyph2-2"
         x="44.1719"
         y="41.51"
         id="use134" />
    </g>
    <g
       style="fill:rgb(0%,0%,0%);fill-opacity:1;"
       id="g140">
      <use
         xlink:href="#glyph4-1"
         x="50.89221"
         y="39.11"
         id="use138" />
    </g>
    <g
       style="fill:rgb(0%,0%,0%);fill-opacity:1;"
       id="g144">
      <use
         xlink:href="#glyph0-2"
         x="60.37229"
         y="39.11"
         id="use142" />
    </g>
    <g
       style="fill:rgb(0%,0%,0%);fill-opacity:1;"
       id="g148">
      <use
         xlink:href="#glyph0-3"
         x="65.052369"
         y="39.11"
         id="use146" />
    </g>
    <g
       style="fill:rgb(0%,0%,0%);fill-opacity:1;"
       id="g152">
      <use
         xlink:href="#glyph0-4"
         x="69.732448"
         y="39.11"
         id="use150" />
    </g>
    <g
       style="fill:rgb(0%,0%,0%);fill-opacity:1;"
       id="g156">
      <use
         xlink:href="#glyph5-1"
         x="75.73249"
         y="39.11"
         id="use154" />
    </g>
    <path
       style=" stroke:none;fill-rule:nonzero;fill:rgb(0%,0%,0%);fill-opacity:1;"
       d="M 86.296875 40.828125 L 89.714844 41.511719 L 87.503906 38.816406 L 88.027344 40.496094 "
       id="path158" />
    <path
       style="fill:none;stroke-width:4.25176;stroke-linecap:butt;stroke-linejoin:miter;stroke:rgb(0%,0%,0%);stroke-opacity:1;stroke-miterlimit:10;"
       d="M 829.140625 1033.703125 L 880.273438 1003.039062 "
       transform="matrix(0.1,0,0,-0.1,0,140.8)"
       id="path160" />
    <g
       style="fill:rgb(0%,0%,0%);fill-opacity:1;"
       id="g164">
      <use
         xlink:href="#glyph0-1"
         x="84.4539"
         y="85.5988"
         id="use162" />
    </g>
    <g
       style="fill:rgb(0%,0%,0%);fill-opacity:1;"
       id="g168">
      <use
         xlink:href="#glyph1-1"
         x="91.17382"
         y="82.47888"
         id="use166" />
    </g>
    <g
       style="fill:rgb(0%,0%,0%);fill-opacity:1;"
       id="g172">
      <use
         xlink:href="#glyph2-1"
         x="89.73359"
         y="87.9988"
         id="use170" />
    </g>
    <g
       style="fill:rgb(0%,0%,0%);fill-opacity:1;"
       id="g176">
      <use
         xlink:href="#glyph3-1"
         x="91.65351"
         y="87.9988"
         id="use174" />
    </g>
    <g
       style="fill:rgb(0%,0%,0%);fill-opacity:1;"
       id="g180">
      <use
         xlink:href="#glyph2-2"
         x="94.05351"
         y="87.9988"
         id="use178" />
    </g>
    <g
       style="fill:rgb(0%,0%,0%);fill-opacity:1;"
       id="g184">
      <use
         xlink:href="#glyph4-1"
         x="100.77382"
         y="85.5988"
         id="use182" />
    </g>
    <g
       style="fill:rgb(0%,0%,0%);fill-opacity:1;"
       id="g188">
      <use
         xlink:href="#glyph0-5"
         x="110.2539"
         y="85.5988"
         id="use186" />
    </g>
    <g
       style="fill:rgb(0%,0%,0%);fill-opacity:1;"
       id="g192">
      <use
         xlink:href="#glyph0-4"
         x="114.933979"
         y="85.5988"
         id="use190" />
    </g>
    <g
       style="fill:rgb(0%,0%,0%);fill-opacity:1;"
       id="g196">
      <use
         xlink:href="#glyph0-4"
         x="119.614058"
         y="85.5988"
         id="use194" />
    </g>
    <g
       style="fill:rgb(0%,0%,0%);fill-opacity:1;"
       id="g200">
      <use
         xlink:href="#glyph5-1"
         x="125.6141"
         y="85.5988"
         id="use198" />
    </g>
    <path
       style=" stroke:none;fill-rule:nonzero;fill:rgb(0%,0%,0%);fill-opacity:1;"
       d="M 79.527344 79.386719 L 76.109375 78.703125 L 78.324219 81.398438 L 77.800781 79.714844 "
       id="path202" />
    <path
       style="fill:none;stroke-width:4.25176;stroke-linecap:butt;stroke-linejoin:miter;stroke:rgb(0%,0%,0%);stroke-opacity:1;stroke-miterlimit:10;"
       d="M 829.140625 580.148438 L 778.007812 610.851562 "
       transform="matrix(0.1,0,0,-0.1,0,140.8)"
       id="path204" />
    <path
       style="fill:none;stroke-width:5.67043;stroke-linecap:butt;stroke-linejoin:miter;stroke:rgb(0%,0%,0%);stroke-opacity:1;stroke-miterlimit:10;"
       d="M 284.804688 239.992188 L 1418.476562 239.992188 L 1418.476562 1373.859375 L 284.804688 1373.859375 Z M 284.804688 239.992188 "
       transform="matrix(0.1,0,0,-0.1,0,140.8)"
       id="path206" />
    <path
       style="fill:none;stroke-width:3.98506;stroke-linecap:butt;stroke-linejoin:miter;stroke:rgb(0%,0%,0%);stroke-opacity:1;stroke-miterlimit:10;"
       d="M 284.804688 239.992188 L 284.804688 282.53125 "
       transform="matrix(0.1,0,0,-0.1,0,140.8)"
       id="path208" />
    <path
       style="fill:none;stroke-width:3.98506;stroke-linecap:butt;stroke-linejoin:miter;stroke:rgb(0%,0%,0%);stroke-opacity:1;stroke-miterlimit:10;"
       d="M 851.640625 239.992188 L 851.640625 282.53125 "
       transform="matrix(0.1,0,0,-0.1,0,140.8)"
       id="path210" />
    <path
       style="fill:none;stroke-width:3.98506;stroke-linecap:butt;stroke-linejoin:miter;stroke:rgb(0%,0%,0%);stroke-opacity:1;stroke-miterlimit:10;"
       d="M 1418.476562 239.992188 L 1418.476562 282.53125 "
       transform="matrix(0.1,0,0,-0.1,0,140.8)"
       id="path212" />
    <path
       style="fill:none;stroke-width:3.98506;stroke-linecap:butt;stroke-linejoin:miter;stroke:rgb(0%,0%,0%);stroke-opacity:1;stroke-miterlimit:10;"
       d="M 284.804688 239.992188 L 284.804688 282.53125 "
       transform="matrix(0.1,0,0,-0.1,0,140.8)"
       id="path214" />
    <path
       style="fill:none;stroke-width:3.98506;stroke-linecap:butt;stroke-linejoin:miter;stroke:rgb(0%,0%,0%);stroke-opacity:1;stroke-miterlimit:10;"
       d="M 284.804688 239.992188 L 327.304688 239.992188 "
       transform="matrix(0.1,0,0,-0.1,0,140.8)"
       id="path216" />
    <path
       style="fill:none;stroke-width:3.98506;stroke-linecap:butt;stroke-linejoin:miter;stroke:rgb(0%,0%,0%);stroke-opacity:1;stroke-miterlimit:10;"
       d="M 284.804688 466.789062 L 327.304688 466.789062 "
       transform="matrix(0.1,0,0,-0.1,0,140.8)"
       id="path218" />
    <path
       style="fill:none;stroke-width:3.98506;stroke-linecap:butt;stroke-linejoin:miter;stroke:rgb(0%,0%,0%);stroke-opacity:1;stroke-miterlimit:10;"
       d="M 284.804688 693.546875 L 327.304688 693.546875 "
       transform="matrix(0.1,0,0,-0.1,0,140.8)"
       id="path220" />
    <path
       style="fill:none;stroke-width:3.98506;stroke-linecap:butt;stroke-linejoin:miter;stroke:rgb(0%,0%,0%);stroke-opacity:1;stroke-miterlimit:10;"
       d="M 284.804688 920.304688 L 327.304688 920.304688 "
       transform="matrix(0.1,0,0,-0.1,0,140.8)"
       id="path222" />
    <path
       style="fill:none;stroke-width:3.98506;stroke-linecap:butt;stroke-linejoin:miter;stroke:rgb(0%,0%,0%);stroke-opacity:1;stroke-miterlimit:10;"
       d="M 284.804688 1147.0625 L 327.304688 1147.0625 "
       transform="matrix(0.1,0,0,-0.1,0,140.8)"
       id="path224" />
    <path
       style="fill:none;stroke-width:3.98506;stroke-linecap:butt;stroke-linejoin:miter;stroke:rgb(0%,0%,0%);stroke-opacity:1;stroke-miterlimit:10;"
       d="M 284.804688 1373.859375 L 327.304688 1373.859375 "
       transform="matrix(0.1,0,0,-0.1,0,140.8)"
       id="path226" />
    <path
       style="fill:none;stroke-width:3.98506;stroke-linecap:butt;stroke-linejoin:miter;stroke:rgb(0%,0%,0%);stroke-opacity:1;stroke-miterlimit:10;"
       d="M 284.804688 239.992188 L 327.304688 239.992188 "
       transform="matrix(0.1,0,0,-0.1,0,140.8)"
       id="path228" />
    <path
       style="fill:none;stroke-width:3.98506;stroke-linecap:butt;stroke-linejoin:miter;stroke:rgb(0%,0%,0%);stroke-opacity:1;stroke-miterlimit:10;"
       d="M 284.804688 1373.859375 L 284.804688 1331.359375 "
       transform="matrix(0.1,0,0,-0.1,0,140.8)"
       id="path230" />
    <path
       style="fill:none;stroke-width:3.98506;stroke-linecap:butt;stroke-linejoin:miter;stroke:rgb(0%,0%,0%);stroke-opacity:1;stroke-miterlimit:10;"
       d="M 851.640625 1373.859375 L 851.640625 1331.359375 "
       transform="matrix(0.1,0,0,-0.1,0,140.8)"
       id="path232" />
    <path
       style="fill:none;stroke-width:3.98506;stroke-linecap:butt;stroke-linejoin:miter;stroke:rgb(0%,0%,0%);stroke-opacity:1;stroke-miterlimit:10;"
       d="M 1418.476562 1373.859375 L 1418.476562 1331.359375 "
       transform="matrix(0.1,0,0,-0.1,0,140.8)"
       id="path234" />
    <path
       style="fill:none;stroke-width:3.98506;stroke-linecap:butt;stroke-linejoin:miter;stroke:rgb(0%,0%,0%);stroke-opacity:1;stroke-miterlimit:10;"
       d="M 284.804688 1373.859375 L 284.804688 1331.359375 "
       transform="matrix(0.1,0,0,-0.1,0,140.8)"
       id="path236" />
    <path
       style="fill:none;stroke-width:3.98506;stroke-linecap:butt;stroke-linejoin:miter;stroke:rgb(0%,0%,0%);stroke-opacity:1;stroke-miterlimit:10;"
       d="M 1418.476562 239.992188 L 1375.9375 239.992188 "
       transform="matrix(0.1,0,0,-0.1,0,140.8)"
       id="path238" />
    <path
       style="fill:none;stroke-width:3.98506;stroke-linecap:butt;stroke-linejoin:miter;stroke:rgb(0%,0%,0%);stroke-opacity:1;stroke-miterlimit:10;"
       d="M 1418.476562 466.789062 L 1375.9375 466.789062 "
       transform="matrix(0.1,0,0,-0.1,0,140.8)"
       id="path240" />
    <path
       style="fill:none;stroke-width:3.98506;stroke-linecap:butt;stroke-linejoin:miter;stroke:rgb(0%,0%,0%);stroke-opacity:1;stroke-miterlimit:10;"
       d="M 1418.476562 693.546875 L 1375.9375 693.546875 "
       transform="matrix(0.1,0,0,-0.1,0,140.8)"
       id="path242" />
    <path
       style="fill:none;stroke-width:3.98506;stroke-linecap:butt;stroke-linejoin:miter;stroke:rgb(0%,0%,0%);stroke-opacity:1;stroke-miterlimit:10;"
       d="M 1418.476562 920.304688 L 1375.9375 920.304688 "
       transform="matrix(0.1,0,0,-0.1,0,140.8)"
       id="path244" />
    <path
       style="fill:none;stroke-width:3.98506;stroke-linecap:butt;stroke-linejoin:miter;stroke:rgb(0%,0%,0%);stroke-opacity:1;stroke-miterlimit:10;"
       d="M 1418.476562 1147.0625 L 1375.9375 1147.0625 "
       transform="matrix(0.1,0,0,-0.1,0,140.8)"
       id="path246" />
    <path
       style="fill:none;stroke-width:3.98506;stroke-linecap:butt;stroke-linejoin:miter;stroke:rgb(0%,0%,0%);stroke-opacity:1;stroke-miterlimit:10;"
       d="M 1418.476562 1373.859375 L 1375.9375 1373.859375 "
       transform="matrix(0.1,0,0,-0.1,0,140.8)"
       id="path248" />
    <path
       style="fill:none;stroke-width:3.98506;stroke-linecap:butt;stroke-linejoin:miter;stroke:rgb(0%,0%,0%);stroke-opacity:1;stroke-miterlimit:10;"
       d="M 1418.476562 239.992188 L 1375.9375 239.992188 "
       transform="matrix(0.1,0,0,-0.1,0,140.8)"
       id="path250" />
    <g
       style="fill:rgb(0%,0%,0%);fill-opacity:1;"
       id="g254">
      <use
         xlink:href="#glyph6-1"
         x="21.7602"
         y="126.2801"
         id="use252" />
    </g>
    <g
       style="fill:rgb(0%,0%,0%);fill-opacity:1;"
       id="g258">
      <use
         xlink:href="#glyph6-2"
         x="26.200043"
         y="126.2801"
         id="use256" />
    </g>
    <g
       style="fill:rgb(0%,0%,0%);fill-opacity:1;"
       id="g262">
      <use
         xlink:href="#glyph6-2"
         x="30.639886"
         y="126.2801"
         id="use260" />
    </g>
    <g
       style="fill:rgb(0%,0%,0%);fill-opacity:1;"
       id="g266">
      <use
         xlink:href="#glyph6-1"
         x="78.519996"
         y="126.2801"
         id="use264" />
    </g>
    <g
       style="fill:rgb(0%,0%,0%);fill-opacity:1;"
       id="g270">
      <use
         xlink:href="#glyph6-3"
         x="82.959839"
         y="126.2801"
         id="use268" />
    </g>
    <g
       style="fill:rgb(0%,0%,0%);fill-opacity:1;"
       id="g274">
      <use
         xlink:href="#glyph6-2"
         x="87.399682"
         y="126.2801"
         id="use272" />
    </g>
    <g
       style="fill:rgb(0%,0%,0%);fill-opacity:1;"
       id="g278">
      <use
         xlink:href="#glyph6-4"
         x="135.159464"
         y="126.2801"
         id="use276" />
    </g>
    <g
       style="fill:rgb(0%,0%,0%);fill-opacity:1;"
       id="g282">
      <use
         xlink:href="#glyph6-2"
         x="139.599306"
         y="126.2801"
         id="use280" />
    </g>
    <g
       style="fill:rgb(0%,0%,0%);fill-opacity:1;"
       id="g286">
      <use
         xlink:href="#glyph6-2"
         x="144.039149"
         y="126.2801"
         id="use284" />
    </g>
    <g
       style="fill:rgb(0%,0%,0%);fill-opacity:1;"
       id="g290">
      <use
         xlink:href="#glyph6-2"
         x="20.5602"
         y="119.80002"
         id="use288" />
    </g>
    <g
       style="fill:rgb(0%,0%,0%);fill-opacity:1;"
       id="g294">
      <use
         xlink:href="#glyph6-2"
         x="13.71997"
         y="97.11992"
         id="use292" />
    </g>
    <g
       style="fill:rgb(0%,0%,0%);fill-opacity:1;"
       id="g298">
      <use
         xlink:href="#glyph6-5"
         x="18.159814"
         y="97.11992"
         id="use296" />
    </g>
    <g
       style="fill:rgb(0%,0%,0%);fill-opacity:1;"
       id="g302">
      <use
         xlink:href="#glyph6-6"
         x="20.559814"
         y="97.11992"
         id="use300" />
    </g>
    <g
       style="fill:rgb(0%,0%,0%);fill-opacity:1;"
       id="g306">
      <use
         xlink:href="#glyph6-2"
         x="13.71997"
         y="74.43982"
         id="use304" />
    </g>
    <g
       style="fill:rgb(0%,0%,0%);fill-opacity:1;"
       id="g310">
      <use
         xlink:href="#glyph6-5"
         x="18.159814"
         y="74.43982"
         id="use308" />
    </g>
    <g
       style="fill:rgb(0%,0%,0%);fill-opacity:1;"
       id="g314">
      <use
         xlink:href="#glyph6-4"
         x="20.559814"
         y="74.43982"
         id="use312" />
    </g>
    <g
       style="fill:rgb(0%,0%,0%);fill-opacity:1;"
       id="g318">
      <use
         xlink:href="#glyph6-2"
         x="13.71997"
         y="51.76012"
         id="use316" />
    </g>
    <g
       style="fill:rgb(0%,0%,0%);fill-opacity:1;"
       id="g322">
      <use
         xlink:href="#glyph6-5"
         x="18.159814"
         y="51.76012"
         id="use320" />
    </g>
    <g
       style="fill:rgb(0%,0%,0%);fill-opacity:1;"
       id="g326">
      <use
         xlink:href="#glyph6-7"
         x="20.559814"
         y="51.76012"
         id="use324" />
    </g>
    <g
       style="fill:rgb(0%,0%,0%);fill-opacity:1;"
       id="g330">
      <use
         xlink:href="#glyph6-2"
         x="13.71997"
         y="29.08002"
         id="use328" />
    </g>
    <g
       style="fill:rgb(0%,0%,0%);fill-opacity:1;"
       id="g334">
      <use
         xlink:href="#glyph6-5"
         x="18.159814"
         y="29.08002"
         id="use332" />
    </g>
    <g
       style="fill:rgb(0%,0%,0%);fill-opacity:1;"
       id="g338">
      <use
         xlink:href="#glyph6-8"
         x="20.559814"
         y="29.08002"
         id="use336" />
    </g>
    <g
       style="fill:rgb(0%,0%,0%);fill-opacity:1;"
       id="g342">
      <use
         xlink:href="#glyph6-9"
         x="13.71997"
         y="6.39952"
         id="use340" />
    </g>
    <g
       style="fill:rgb(0%,0%,0%);fill-opacity:1;"
       id="g346">
      <use
         xlink:href="#glyph6-5"
         x="18.159814"
         y="6.39952"
         id="use344" />
    </g>
    <g
       style="fill:rgb(0%,0%,0%);fill-opacity:1;"
       id="g350">
      <use
         xlink:href="#glyph6-2"
         x="20.559814"
         y="6.39952"
         id="use348" />
    </g>
    <g
       style="fill:rgb(0%,0%,0%);fill-opacity:1;"
       id="g354">
      <use
         xlink:href="#glyph6-10"
         x="76.54027"
         y="138.27952"
         id="use352" />
    </g>
    <g
       clip-path="url(#clip1)"
       clip-rule="nonzero"
       id="g360">
      <g
         style="fill:rgb(0%,0%,0%);fill-opacity:1;"
         id="g358">
        <use
           xlink:href="#glyph6-11"
           x="82.780108"
           y="138.27952"
           id="use356" />
      </g>
    </g>
    <g
       style="fill:rgb(0%,0%,0%);fill-opacity:1;"
       id="g364">
      <use
         xlink:href="#glyph7-1"
         x="87.21997"
         y="138.27952"
         id="use362" />
    </g>
    <g
       style="fill:rgb(0%,0%,0%);fill-opacity:1;"
       id="g368">
      <use
         xlink:href="#glyph8-1"
         x="6.44688"
         y="65.1469"
         id="use366" />
    </g>
    <g
       style="fill:rgb(0%,0%,0%);fill-opacity:1;"
       id="g372">
      <use
         xlink:href="#glyph9-1"
         x="8.72696"
         y="60.22659"
         id="use370" />
    </g>
  </g>
</svg>
