%!PS-Adobe-3.0 EPSF-3.0
%%Creator: cairo 1.17.4 (https://cairographics.org)
%%CreationDate: Thu Feb 24 10:49:18 2022
%%Pages: 1
%%DocumentData: Clean7Bit
%%LanguageLevel: 2
%%BoundingBox: 0 0 115 86
%%EndComments
%%BeginProlog
50 dict begin
/q { gsave } bind def
/Q { grestore } bind def
/cm { 6 array astore concat } bind def
/w { setlinewidth } bind def
/J { setlinecap } bind def
/j { setlinejoin } bind def
/M { setmiterlimit } bind def
/d { setdash } bind def
/m { moveto } bind def
/l { lineto } bind def
/c { curveto } bind def
/h { closepath } bind def
/re { exch dup neg 3 1 roll 5 3 roll moveto 0 rlineto
      0 exch rlineto 0 rlineto closepath } bind def
/S { stroke } bind def
/f { fill } bind def
/f* { eofill } bind def
/n { newpath } bind def
/W { clip } bind def
/W* { eoclip } bind def
/BT { } bind def
/ET { } bind def
/BDC { mark 3 1 roll /BDC pdfmark } bind def
/EMC { mark /EMC pdfmark } bind def
/cairo_store_point { /cairo_point_y exch def /cairo_point_x exch def } def
/Tj { show currentpoint cairo_store_point } bind def
/TJ {
  {
    dup
    type /stringtype eq
    { show } { -0.001 mul 0 cairo_font_matrix dtransform rmoveto } ifelse
  } forall
  currentpoint cairo_store_point
} bind def
/cairo_selectfont { cairo_font_matrix aload pop pop pop 0 0 6 array astore
    cairo_font exch selectfont cairo_point_x cairo_point_y moveto } bind def
/Tf { pop /cairo_font exch def /cairo_font_matrix where
      { pop cairo_selectfont } if } bind def
/Td { matrix translate cairo_font_matrix matrix concatmatrix dup
      /cairo_font_matrix exch def dup 4 get exch 5 get cairo_store_point
      /cairo_font where { pop cairo_selectfont } if } bind def
/Tm { 2 copy 8 2 roll 6 array astore /cairo_font_matrix exch def
      cairo_store_point /cairo_font where { pop cairo_selectfont } if } bind def
/g { setgray } bind def
/rg { setrgbcolor } bind def
/d1 { setcachedevice } bind def
/cairo_data_source {
  CairoDataIndex CairoData length lt
    { CairoData CairoDataIndex get /CairoDataIndex CairoDataIndex 1 add def }
    { () } ifelse
} def
/cairo_flush_ascii85_file { cairo_ascii85_file status { cairo_ascii85_file flushfile } if } def
/cairo_image { image cairo_flush_ascii85_file } def
/cairo_imagemask { imagemask cairo_flush_ascii85_file } def
%%EndProlog
%%BeginSetup
%%EndSetup
%%Page: 1 1
%%BeginPageSetup
%%PageBoundingBox: 0 0 115 86
%%EndPageSetup
q 0 0 115 86 rectclip
1 0 0 -1 0 86 cm q
Q q
q
0 0 115 86 re W n
  q
0 g
1.41739 w
0 J
0 j
[] 0.0 d
10 M q 1 0 0 -1 0 0 cm
20.547 0 m 20.547 -28.344 l 0.707 -28.344 l 0.707 -85.039 l 114.09 -85.039
 l 114.09 -28.344 l 94.25 -28.344 l 94.25 0 l S Q
  Q
Q
Q q
0 g
1.41739 w
0 J
0 j
[] 0.0 d
10 M q 1 0 0 -1 0 0 cm
37.555 0 m 37.555 -28.344 l 77.242 -28.344 l 77.242 0 l S Q
Q q
56.926 28.059 1 57.699 re W n
q
56 28 2 58 re W n
  q
0 g
0.567043 w
0 J
0 j
[] 0.0 d
10 M q 1 0 0 -1 0 0 cm
57.398 -85.039 m 57.398 -79.938 l 57.398 -77.668 m 57.398 -72.566 l 57.398
 -70.297 m 57.398 -65.195 l 57.398 -62.93 m 57.398 -57.828 l 57.398 -55.559
 m 57.398 -50.457 l 57.398 -48.188 m 57.398 -43.086 l 57.398 -40.82 m 57.398
 -35.715 l 57.398 -33.449 m 57.398 -28.348 l S Q
  Q
Q
Q q
23.926 12.047 m 36.422 12.047 l 36.422 14.172 l 23.926 14.172 l h
23.926 14.172 m 36.422 14.172 l 36.422 16.297 l 23.926 16.297 l h
23.926 14.172 m W n
q
23 12 14 5 re W n
  q
0 g
0.510386 w
2 J
0 j
[] 0.0 d
10 M q 1 0 0 -1 0 0 cm
40.66 -16.285 m 31.164 -25.781 l S Q
  Q
Q
Q q
21.684 12.047 m 36.422 12.047 l 36.422 14.172 l 21.684 14.172 l h
21.684 14.172 m 36.422 14.172 l 36.422 16.297 l 21.684 16.297 l h
21.684 14.172 m W n
q
21 12 16 5 re W n
  q
0 g
0.510386 w
2 J
0 j
[] 0.0 d
10 M q 1 0 0 -1 0 0 cm
38.262 -13.883 m 28.766 -23.379 l S Q
q 1 0 0 -1 0 0 cm
35.859 -11.484 m 26.363 -20.98 l S Q
q 1 0 0 -1 0 0 cm
33.461 -9.086 m 23.965 -18.582 l S Q
q 1 0 0 -1 0 0 cm
31.059 -6.684 m 21.562 -16.18 l S Q
  Q
Q
Q q
21.684 12.047 m 35.926 12.047 l 35.926 14.172 l 21.684 14.172 l h
21.684 14.172 m 35.926 14.172 l 35.926 16.297 l 21.684 16.297 l h
21.684 14.172 m W n
q
21 12 15 5 re W n
  q
0 g
0.510386 w
2 J
0 j
[] 0.0 d
10 M q 1 0 0 -1 0 0 cm
28.66 -4.285 m 19.164 -13.781 l S Q
  Q
Q
Q q
0 g
1.41739 w
0 J
0 j
[] 0.0 d
10 M q 1 0 0 -1 0 0 cm
21.684 -14.172 m 21.684 -12.047 l 36.422 -12.047 l 36.422 -16.297 l 21.684
 -16.297 l h
21.684 -14.172 m S Q
Q q
78.375 12.047 m 93.113 12.047 l 93.113 14.172 l 78.375 14.172 l h
78.375 14.172 m 93.113 14.172 l 93.113 16.297 l 78.375 16.297 l h
78.375 14.172 m W n
q
78 12 16 5 re W n
  q
0 g
0.510386 w
2 J
0 j
[] 0.0 d
10 M q 1 0 0 -1 0 0 cm
93.008 -11.938 m 83.512 -21.434 l S Q
q 1 0 0 -1 0 0 cm
90.605 -9.539 m 81.109 -19.035 l S Q
q 1 0 0 -1 0 0 cm
88.207 -7.137 m 78.711 -16.633 l S Q
q 1 0 0 -1 0 0 cm
85.809 -4.738 m 76.312 -14.234 l S Q
  Q
Q
Q q
78.375 12.047 m 90.926 12.047 l 90.926 14.172 l 78.375 14.172 l h
78.375 14.172 m 90.926 14.172 l 90.926 16.297 l 78.375 16.297 l h
78.375 14.172 m W n
q
78 12 13 5 re W n
  q
0 g
0.510386 w
2 J
0 j
[] 0.0 d
10 M q 1 0 0 -1 0 0 cm
83.406 -2.336 m 73.91 -11.832 l S Q
  Q
Q
Q q
0 g
1.41739 w
0 J
0 j
[] 0.0 d
10 M q 1 0 0 -1 0 0 cm
78.375 -14.172 m 78.375 -12.047 l 93.113 -12.047 l 93.113 -16.297 l 78.375
 -16.297 l h
78.375 -14.172 m S Q
31.191 43.84 m 31.191 43.793 31.176 43.746 31.129 43.746 c 31.098 43.746
 31.051 43.762 30.91 44.012 c 30.848 44.105 30.707 44.324 30.566 44.324 
c 30.473 44.324 30.395 44.246 30.363 44.168 c 30.254 43.949 30.066 43.387
 30.035 43.309 c 30.238 42.949 30.754 41.918 30.754 40.465 c 30.113 40.59
 l 30.098 41.605 29.816 42.355 29.785 42.449 c 29.488 41.48 29.301 40.465
 28.395 40.465 c 27.473 40.465 26.801 41.387 26.801 42.684 c 26.801 43.762
 27.473 44.668 28.16 44.668 c 28.988 44.668 29.52 44.012 29.66 43.793 c 
29.832 44.418 30.129 44.668 30.441 44.668 c 30.723 44.668 30.988 44.449 
31.129 44.059 c 31.16 43.996 31.191 43.918 31.191 43.84 c h
29.504 43.074 m 29.254 43.527 28.848 44.215 28.254 44.215 c 27.691 44.215
 27.379 43.559 27.379 42.621 c 27.379 41.824 27.676 40.73 28.379 40.73 c
 28.816 40.73 28.957 41.152 29.176 41.809 c 29.301 42.215 29.41 42.605 29.504
 43.074 c h
29.504 43.074 m f
25.422 59.16 m 25.016 59.129 24.938 59.051 24.625 58.379 c 22.391 53.285
 l 22.203 53.285 l 20.344 57.691 l 19.766 59.004 19.656 59.145 19.234 59.16
 c 19.234 59.332 l 21 59.332 l 21 59.16 l 20.578 59.16 20.391 59.051 20.391
 58.801 c 20.391 58.691 20.422 58.566 20.469 58.441 c 20.875 57.395 l 23.234
 57.395 l 23.594 58.254 l 23.703 58.504 23.766 58.738 23.766 58.863 c 23.766
 59.082 23.609 59.16 23.141 59.16 c 23.141 59.332 l 25.422 59.332 l h
21.031 57.02 m 22.062 54.566 l 23.109 57.02 l h
21.031 57.02 m f
29.387 54.645 m 29.387 54.551 29.324 54.457 29.168 54.363 c 28.996 54.27
 28.418 54.066 28.105 53.957 c 28.418 53.848 28.996 53.645 29.168 53.551
 c 29.324 53.457 29.387 53.363 29.387 53.27 c 29.387 53.129 29.262 52.988
 29.09 52.988 c 29.012 52.988 28.949 53.004 28.871 53.051 c 28.699 53.129
 28.199 53.504 27.949 53.707 c 28.012 53.395 28.09 52.832 28.09 52.645 c
 28.09 52.395 27.98 52.301 27.793 52.301 c 27.605 52.301 27.496 52.395 27.496
 52.645 c 27.496 52.832 27.574 53.395 27.637 53.707 c 27.387 53.504 26.887
 53.129 26.715 53.051 c 26.621 53.004 26.574 52.988 26.48 52.988 c 26.324
 52.988 26.199 53.129 26.199 53.27 c 26.199 53.363 26.246 53.457 26.418 
53.551 c 26.59 53.645 27.152 53.848 27.465 53.957 c 27.152 54.066 26.59 
54.27 26.418 54.363 c 26.246 54.457 26.199 54.551 26.199 54.645 c 26.199
 54.785 26.324 54.941 26.48 54.941 c 26.574 54.941 26.621 54.91 26.715 54.863
 c 26.887 54.77 27.387 54.41 27.637 54.207 c 27.574 54.504 27.496 55.066
 27.496 55.254 c 27.496 55.504 27.605 55.613 27.793 55.613 c 27.98 55.613
 28.09 55.504 28.09 55.254 c 28.09 55.066 28.012 54.504 27.949 54.207 c 
28.199 54.41 28.699 54.77 28.871 54.863 c 28.949 54.91 29.012 54.941 29.09
 54.941 c 29.262 54.941 29.387 54.785 29.387 54.645 c h
29.387 54.645 m f
33.254 53.27 m 32.598 53.707 32.332 53.926 31.988 54.348 c 31.363 55.129
 31.051 56.02 31.051 57.066 c 31.051 58.223 31.379 59.098 32.16 60.004 c
 32.535 60.441 32.77 60.629 33.238 60.926 c 33.332 60.77 l 32.629 60.207
 32.379 59.895 32.129 59.223 c 31.91 58.629 31.816 57.957 31.816 57.051 
c 31.816 56.098 31.926 55.363 32.176 54.816 c 32.426 54.254 32.691 53.926
 33.332 53.41 c h
33.254 53.27 m f
33.801 59.332 m 35.926 59.332 l 35.926 59.191 l 35.348 59.176 35.254 59.082
 35.238 58.582 c 35.238 53.223 l 35.207 53.207 l 34.754 53.348 34.426 53.441
 33.785 53.598 c 33.785 53.738 l 33.832 53.738 l 33.941 53.738 34.051 53.723
 34.113 53.723 c 34.41 53.723 34.488 53.848 34.488 54.27 c 34.488 58.551
 l 34.488 59.035 34.363 59.16 33.801 59.191 c h
33.801 59.332 m f
36.477 60.926 m 37.133 60.473 37.414 60.254 37.742 59.848 c 38.383 59.066
 38.695 58.16 38.695 57.113 c 38.695 55.973 38.352 55.098 37.57 54.191 c
 37.195 53.754 36.961 53.551 36.508 53.27 c 36.398 53.41 l 37.117 53.973
 37.352 54.285 37.602 54.957 c 37.82 55.566 37.914 56.238 37.914 57.145 
c 37.914 58.082 37.805 58.816 37.555 59.363 c 37.32 59.926 37.039 60.254
 36.398 60.77 c h
36.477 60.926 m f
30.047 70.465 m 30.047 69.762 29.734 69.293 29.062 69.293 c 28.469 69.293
 28.016 69.715 27.609 70.277 c 27.922 69.293 l 27.922 69.293 26.719 69.527
 26.453 69.543 c 26.453 69.699 l 26.781 69.699 27.047 69.668 27.047 70.027
 c 27.047 70.199 26.938 70.59 26.875 70.809 c 25.812 74.543 l 25.719 74.887
 25.562 75.137 25.125 75.137 c 25.094 75.293 l 27.062 75.293 l 27.094 75.137
 l 26.75 75.137 26.453 75.121 26.453 74.871 c 26.453 74.793 26.469 74.699
 26.516 74.527 c 26.828 73.277 l 27 73.418 27.266 73.496 27.484 73.496 c
 28.562 73.496 30.047 71.965 30.047 70.465 c h
29.281 70.559 m 29.281 71.73 28.297 73.293 27.453 73.293 c 27.25 73.293
 27.062 73.215 26.891 73.043 c 27.094 72.246 27.641 69.715 28.797 69.715
 c 29.281 69.715 29.281 70.355 29.281 70.559 c h
29.281 70.559 m f
32.703 66.66 m 32.703 66.441 32.469 66.285 32.25 66.285 c 32.094 66.285
 31.953 66.363 31.891 66.582 c 30.953 69.77 l 31.156 69.848 l 32.656 66.832
 l 32.672 66.77 32.703 66.723 32.703 66.66 c h
32.703 66.66 m f
87.559 42.961 m 87.559 41.742 86.652 41.258 86.262 41.102 c 86.668 40.852
 87.043 40.414 87.043 39.805 c 87.043 38.898 86.262 38.242 85.543 38.242
 c 84.168 38.242 83.98 39.867 83.965 41.18 c 83.949 41.711 83.965 42.492
 83.965 43.289 c 83.965 44.898 83.965 46.602 83.965 46.602 c 84.574 46.602
 l 84.574 44.289 l 84.699 44.648 85.09 44.836 85.543 44.836 c 86.418 44.836
 87.559 44.18 87.559 42.961 c h
86.824 42.883 m 86.824 44.211 86.09 44.57 85.559 44.57 c 85.043 44.57 84.793
 44.039 84.652 43.445 c 84.543 42.898 84.527 41.492 84.527 41.289 c 84.527
 39.898 84.637 38.461 85.574 38.461 c 86.168 38.461 86.324 39.289 86.324
 39.758 c 86.324 40.195 86.184 40.602 85.871 40.961 c 85.574 40.883 85.434
 40.82 85.23 40.82 c 84.996 40.82 84.637 40.914 84.637 41.164 c 84.637 41.336
 84.918 41.492 85.246 41.492 c 85.543 41.492 85.902 41.289 85.98 41.258 
c 86.59 41.648 86.824 42.289 86.824 42.883 c h
86.824 42.883 m f
66.906 52.91 m 66.25 53.348 65.984 53.566 65.641 53.988 c 65.016 54.77 
64.703 55.66 64.703 56.707 c 64.703 57.863 65.031 58.738 65.812 59.645 c
 66.188 60.082 66.422 60.27 66.891 60.566 c 66.984 60.41 l 66.281 59.848
 66.031 59.535 65.781 58.863 c 65.562 58.27 65.469 57.598 65.469 56.691 
c 65.469 55.738 65.578 55.004 65.828 54.457 c 66.078 53.895 66.344 53.566
 66.984 53.051 c h
66.906 52.91 m f
73.594 58.801 m 73.188 58.77 73.109 58.691 72.797 58.02 c 70.562 52.926
 l 70.375 52.926 l 68.516 57.332 l 67.938 58.645 67.828 58.785 67.406 58.801
 c 67.406 58.973 l 69.172 58.973 l 69.172 58.801 l 68.75 58.801 68.562 58.691
 68.562 58.441 c 68.562 58.332 68.594 58.207 68.641 58.082 c 69.047 57.035
 l 71.406 57.035 l 71.766 57.895 l 71.875 58.145 71.938 58.379 71.938 58.504
 c 71.938 58.723 71.781 58.801 71.312 58.801 c 71.312 58.973 l 73.594 58.973
 l h
69.203 56.66 m 70.234 54.207 l 71.281 56.66 l h
69.203 56.66 m f
77.539 56.41 m 75.57 56.41 l 75.57 57.004 l 77.539 57.004 l 77.539 58.973
 l 78.133 58.973 l 78.133 57.004 l 80.102 57.004 l 80.102 56.41 l 78.133
 56.41 l 78.133 54.441 l 77.539 54.441 l h
77.539 56.41 m f
81.941 53.207 m 82.691 53.254 82.785 53.348 82.801 54.02 c 82.801 57.988
 l 82.785 58.66 82.676 58.77 81.941 58.801 c 81.941 58.973 l 84.926 58.973
 l 85.629 58.973 86.27 58.785 86.598 58.473 c 86.926 58.191 87.098 57.785
 87.098 57.363 c 87.098 56.957 86.957 56.598 86.66 56.348 c 86.395 56.098
 86.16 55.988 85.566 55.848 c 86.035 55.738 86.223 55.645 86.441 55.457 
c 86.66 55.254 86.801 54.941 86.801 54.566 c 86.801 53.551 85.988 53.035
 84.441 53.035 c 81.941 53.035 l h
83.707 56.051 m 84.582 56.051 84.988 56.098 85.316 56.238 c 85.832 56.441
 86.066 56.816 86.066 57.363 c 86.066 57.848 85.879 58.207 85.52 58.41 c
 85.238 58.566 84.863 58.645 84.285 58.645 c 83.832 58.645 83.707 58.566
 83.707 58.27 c h
83.707 55.691 m 83.707 53.629 l 83.723 53.441 83.754 53.379 83.91 53.379
 c 84.301 53.363 l 85.301 53.348 85.879 53.801 85.879 54.598 c 85.879 55.301
 85.426 55.676 84.566 55.691 c h
83.707 55.691 m f
88.129 60.566 m 88.785 60.113 89.066 59.895 89.395 59.488 c 90.035 58.707
 90.348 57.801 90.348 56.754 c 90.348 55.613 90.004 54.738 89.223 53.832
 c 88.848 53.395 88.613 53.191 88.16 52.91 c 88.051 53.051 l 88.77 53.613
 89.004 53.926 89.254 54.598 c 89.473 55.207 89.566 55.879 89.566 56.785
 c 89.566 57.723 89.457 58.457 89.207 59.004 c 88.973 59.566 88.691 59.895
 88.051 60.41 c h
88.129 60.566 m f
93.426 52.91 m 92.77 53.348 92.504 53.566 92.16 53.988 c 91.535 54.77 91.223
 55.66 91.223 56.707 c 91.223 57.863 91.551 58.738 92.332 59.645 c 92.707
 60.082 92.941 60.27 93.41 60.566 c 93.504 60.41 l 92.801 59.848 92.551 
59.535 92.301 58.863 c 92.082 58.27 91.988 57.598 91.988 56.691 c 91.988
 55.738 92.098 55.004 92.348 54.457 c 92.598 53.895 92.863 53.566 93.504
 53.051 c h
93.426 52.91 m f
96.613 56.16 m 96.582 54.926 l 96.473 54.926 l 96.426 55.004 96.379 55.02
 96.332 55.02 c 96.285 55.02 96.191 55.004 96.098 54.957 c 95.879 54.895
 95.676 54.848 95.457 54.848 c 94.754 54.848 94.238 55.316 94.238 55.957
 c 94.238 56.457 94.535 56.816 95.285 57.254 c 95.816 57.551 l 96.129 57.723
 96.285 57.941 96.285 58.223 c 96.285 58.613 95.988 58.863 95.535 58.863
 c 94.91 58.863 94.598 58.52 94.395 57.613 c 94.254 57.613 l 94.254 59.004
 l 94.363 59.004 l 94.426 58.926 94.473 58.895 94.582 58.895 c 94.676 58.895
 94.785 58.926 94.988 58.973 c 95.223 59.02 95.457 59.066 95.645 59.066 
c 96.348 59.066 96.91 58.535 96.91 57.91 c 96.91 57.473 96.691 57.176 96.16
 56.848 c 95.191 56.27 l 94.926 56.113 94.801 55.91 94.801 55.66 c 94.801
 55.301 95.082 55.051 95.488 55.051 c 96.004 55.051 96.27 55.348 96.473 
56.16 c h
96.613 56.16 m f
97.453 58.973 m 99.578 58.973 l 99.578 58.832 l 99 58.816 98.906 58.723
 98.891 58.223 c 98.891 52.863 l 98.859 52.848 l 98.406 52.988 98.078 53.082
 97.438 53.238 c 97.438 53.379 l 97.484 53.379 l 97.594 53.379 97.703 53.363
 97.766 53.363 c 98.062 53.363 98.141 53.488 98.141 53.91 c 98.141 58.191
 l 98.141 58.676 98.016 58.801 97.453 58.832 c h
97.453 58.973 m f
99.941 58.973 m 101.848 58.973 l 101.848 58.832 l 101.395 58.816 101.254
 58.691 101.254 58.379 c 101.254 55.848 l 101.691 55.441 101.879 55.348 
102.176 55.348 c 102.613 55.348 102.832 55.613 102.832 56.207 c 102.832 
58.082 l 102.816 58.66 102.707 58.816 102.27 58.832 c 102.27 58.973 l 104.129
 58.973 l 104.129 58.832 l 103.691 58.801 103.598 58.691 103.582 58.254 
c 103.582 56.191 l 103.582 55.348 103.191 54.848 102.535 54.848 c 102.113
 54.848 101.832 55.004 101.223 55.566 c 101.223 54.863 l 101.16 54.848 l
 100.707 55.02 100.395 55.113 99.926 55.254 c 99.926 55.41 l 99.988 55.379
 100.066 55.363 100.176 55.363 c 100.426 55.363 100.504 55.504 100.504 55.941
 c 100.504 58.16 l 100.488 58.691 100.395 58.816 99.941 58.832 c h
99.941 58.973 m f
104.57 60.566 m 105.227 60.113 105.508 59.895 105.836 59.488 c 106.477 
58.707 106.789 57.801 106.789 56.754 c 106.789 55.613 106.445 54.738 105.664
 53.832 c 105.289 53.395 105.055 53.191 104.602 52.91 c 104.492 53.051 l
 105.211 53.613 105.445 53.926 105.695 54.598 c 105.914 55.207 106.008 55.879
 106.008 56.785 c 106.008 57.723 105.898 58.457 105.648 59.004 c 105.414
 59.566 105.133 59.895 104.492 60.41 c h
104.57 60.566 m f
85.777 70.465 m 85.777 69.762 85.465 69.293 84.793 69.293 c 84.199 69.293
 83.746 69.715 83.34 70.277 c 83.652 69.293 l 83.652 69.293 82.449 69.527
 82.184 69.543 c 82.184 69.699 l 82.512 69.699 82.777 69.668 82.777 70.027
 c 82.777 70.199 82.668 70.59 82.605 70.809 c 81.543 74.543 l 81.449 74.887
 81.293 75.137 80.855 75.137 c 80.824 75.293 l 82.793 75.293 l 82.824 75.137
 l 82.48 75.137 82.184 75.121 82.184 74.871 c 82.184 74.793 82.199 74.699
 82.246 74.527 c 82.559 73.277 l 82.73 73.418 82.996 73.496 83.215 73.496
 c 84.293 73.496 85.777 71.965 85.777 70.465 c h
85.012 70.559 m 85.012 71.73 84.027 73.293 83.184 73.293 c 82.98 73.293
 82.793 73.215 82.621 73.043 c 82.824 72.246 83.371 69.715 84.527 69.715
 c 85.012 69.715 85.012 70.355 85.012 70.559 c h
85.012 70.559 m f
88.434 66.66 m 88.434 66.441 88.199 66.285 87.98 66.285 c 87.824 66.285
 87.684 66.363 87.621 66.582 c 86.684 69.77 l 86.887 69.848 l 88.387 66.832
 l 88.402 66.77 88.434 66.723 88.434 66.66 c h
88.434 66.66 m f
90.477 66.66 m 90.477 66.441 90.242 66.285 90.023 66.285 c 89.867 66.285
 89.727 66.363 89.664 66.582 c 88.727 69.77 l 88.93 69.848 l 90.43 66.832
 l 90.445 66.77 90.477 66.723 90.477 66.66 c h
90.477 66.66 m f
Q Q
showpage
%%Trailer
end
%%EOF
