<?xml version="1.0" encoding="UTF-8" standalone="no"?>
<svg
   width="210pt"
   height="209pt"
   viewBox="0 0 210 209"
   version="1.2"
   id="svg251"
   xmlns="http://www.w3.org/2000/svg"
   xmlns:svg="http://www.w3.org/2000/svg">
  <defs
     id="defs255" />
  <g
     id="surface1">
    <path
       style="fill:none;stroke-width:8.50363;stroke-linecap:butt;stroke-linejoin:miter;stroke:rgb(0%,0%,0%);stroke-opacity:1;stroke-miterlimit:10;"
       d="M 596.5625 1751.015625 L 594.726562 1751.757812 L 583.476562 1757.539062 L 572.265625 1763.671875 L 560.703125 1769.492188 L 538.28125 1781.054688 L 526.640625 1786.875 L 515.46875 1792.304688 L 504.21875 1798.085938 L 492.65625 1803.867188 L 481.40625 1809.648438 L 470.195312 1815.078125 L 458.945312 1820.898438 L 447.382812 1826.328125 L 436.132812 1832.109375 L 424.960938 1837.539062 L 413.320312 1843.320312 L 390.9375 1854.179688 L 379.296875 1860 L 368.125 1865.429688 L 356.875 1870.859375 L 345.3125 1876.289062 L 334.0625 1881.71875 L 322.851562 1887.148438 L 311.25 1892.578125 L 300.039062 1898.007812 L 288.789062 1903.085938 L 277.617188 1908.515625 L 265.976562 1913.945312 L 254.804688 1918.984375 L 243.515625 1924.453125 L 231.992188 1929.882812 L 220.742188 1934.921875 "
       transform="matrix(0.1,0,0,-0.1,0,209)"
       id="path2" />
    <path
       style="fill:none;stroke-width:8.50361;stroke-linecap:butt;stroke-linejoin:miter;stroke:rgb(0%,0%,0%);stroke-opacity:1;stroke-miterlimit:10"
       d="M 596.562 1750.82 L 606.016 1746.09 L 617.656 1739.92 L 621.083 1738.14 M 628.867 1734.1 M 633.342 1731.8 L 640.117 1728.32 L 651.406 1722.5 L 657.837 1719.08 M 663.008 1716.33 M 670.06 1712.67 L 674.219 1710.51 L 685.469 1704.38 L 694.451 1699.74 M 696.758 1698.55 M 706.574 1693.15 L 707.969 1692.38 L 719.57 1686.21 L 730.859 1680.39"
       transform="matrix(0.1,0,0,-0.1,0,209)"
       id="path4" />
    <path
       style="fill:none;stroke-width:8.50362;stroke-linecap:butt;stroke-linejoin:miter;stroke:rgb(0%,0%,0%);stroke-opacity:1;stroke-miterlimit:10;"
       d="M 596.5625 1750.898438 L 606.132812 1743.164062 L 617.578125 1734.296875 L 628.632812 1725.078125 L 640.078125 1716.210938 L 651.523438 1706.992188 L 662.929688 1697.773438 L 674.023438 1688.554688 L 685.507812 1679.335938 L 696.875 1670.117188 L 708.320312 1660.507812 L 719.453125 1651.289062 L 730.820312 1641.679688 L 742.265625 1632.460938 L 753.398438 1622.890625 L 764.765625 1613.28125 L 776.210938 1603.671875 L 787.65625 1594.101562 L 798.710938 1584.492188 L 810.15625 1574.921875 L 821.601562 1565.3125 L 833.046875 1555.351562 L 844.101562 1545.742188 L 866.992188 1525.820312 L 878.046875 1515.859375 L 889.492188 1506.289062 L 900.9375 1495.9375 L 912.421875 1485.976562 L 923.4375 1476.015625 L 934.921875 1466.054688 L 946.367188 1455.742188 L 957.382812 1445.78125 L 968.867188 1435.429688 L 980.3125 1425.46875 L 991.679688 1415.15625 L 1002.8125 1404.804688 L 1014.257812 1394.492188 L 1025.625 1384.140625 L 1037.070312 1373.828125 L 1048.203125 1363.125 L 1059.570312 1352.773438 L 1071.015625 1342.460938 L 1082.148438 1331.757812 L 1093.515625 1321.054688 L 1104.960938 1310.703125 L 1116.40625 1300.039062 L 1127.460938 1289.335938 L 1161.835938 1257.226562 L 1172.851562 1246.132812 L 1184.296875 1235.46875 L 1195.78125 1224.765625 L 1206.796875 1213.671875 L 1218.28125 1202.617188 L 1229.726562 1191.914062 L 1241.171875 1180.859375 L 1252.226562 1169.765625 L 1263.671875 1158.710938 L 1275.117188 1147.617188 L 1286.5625 1136.5625 L 1297.617188 1125.117188 L 1320.507812 1103.007812 L 1331.5625 1091.5625 L 1343.007812 1080.117188 L 1354.453125 1069.0625 L 1365.820312 1057.617188 L 1376.953125 1046.171875 L 1388.398438 1034.726562 L 1399.765625 1023.28125 L 1410.898438 1011.835938 L 1422.34375 1000.429688 L 1433.710938 988.59375 L 1445.195312 977.1875 L 1456.289062 965.742188 L 1467.695312 953.90625 L 1479.140625 942.109375 L 1490.585938 930.664062 L 1501.640625 918.867188 L 1524.53125 895.273438 L 1535.585938 883.4375 L 1558.476562 859.84375 L 1569.921875 847.65625 L 1580.976562 835.859375 L 1592.421875 824.0625 L 1615.3125 799.6875 L 1626.367188 787.890625 L 1637.8125 775.703125 L 1649.257812 763.554688 L 1660.3125 751.367188 L 1683.203125 726.992188 L 1694.609375 714.84375 L 1705.703125 702.65625 L 1717.148438 690.117188 L 1725.9375 680.507812 "
       transform="matrix(0.1,0,0,-0.1,0,209)"
       id="path6" />
    <path
       style="fill:none;stroke-width:8.50363;stroke-linecap:butt;stroke-linejoin:miter;stroke:rgb(0%,0%,0%);stroke-opacity:1;stroke-miterlimit:10"
       d="M 596.562 1751.02 L 594.727 1752.11 L 583.477 1761.52 L 576.444 1766.96 M 572.266 1770.2 M 566.222 1774.75 L 560.703 1778.91 L 549.453 1787.93 L 546.01 1790.61 M 538.281 1796.64 M 535.837 1798.46 L 526.641 1805.31 L 515.589 1814.28 M 515.469 1814.38"
       transform="matrix(0.1,0,0,-0.1,0,209)"
       id="path8" />
    <path
       style="fill:none;stroke-width:8.50361;stroke-linecap:butt;stroke-linejoin:miter;stroke:rgb(0%,0%,0%);stroke-opacity:1;stroke-miterlimit:10"
       d="M 1725.82 681.914 L 1728.44 677.852 L 1739.92 665.664 L 1744.46 660.5 M 1750.98 653.086 M 1753.96 649.917 L 1762.46 640.898 L 1773.25 629 M 1773.87 628.32 M 1782.69 618.353 L 1784.96 615.781 L 1801.83 597.304 M 1807.93 590.625 M 1811.35 586.733 L 1818.98 578.047 L 1830.39 565.593 M 1830.47 565.508"
       transform="matrix(0.1,0,0,-0.1,0,209)"
       id="path10" />
    <path
       style="fill:none;stroke-width:8.50361;stroke-linecap:butt;stroke-linejoin:miter;stroke:rgb(0%,0%,0%);stroke-opacity:1;stroke-miterlimit:10;"
       d="M 1725.976562 682.070312 L 1728.515625 675.78125 L 1739.648438 648.007812 L 1751.09375 620.234375 L 1762.578125 592.5 L 1773.710938 564.726562 L 1785.195312 536.992188 L 1796.640625 509.21875 L 1807.773438 481.09375 L 1819.257812 453.359375 L 1830.3125 425.585938 L 1841.796875 397.460938 L 1853.242188 369.6875 L 1864.375 341.5625 L 1875.859375 313.828125 L 1887.34375 285.703125 L 1898.398438 257.929688 L 1908.007812 234.257812 "
       transform="matrix(0.1,0,0,-0.1,0,209)"
       id="path12" />
    <path
       style="fill:none;stroke-width:8.50362;stroke-linecap:butt;stroke-linejoin:miter;stroke:rgb(0%,0%,0%);stroke-opacity:1;stroke-miterlimit:10"
       d="M 1725.94 681.992 L 1717.15 703.75 L 1714.09 711.156 M 1708.08 725.702 L 1705.7 731.445 L 1696.3 754.896 M 1694.61 759.102 M 1690.34 769.464 L 1683.2 786.797 L 1678.33 798.563 M 1672.32 813.107 L 1660.31 842.109"
       transform="matrix(0.1,0,0,-0.1,0,209)"
       id="path14" />
    <path
       style="fill:none;stroke-width:8.5036;stroke-linecap:butt;stroke-linejoin:miter;stroke:rgb(0%,0%,0%);stroke-opacity:1;stroke-miterlimit:10;"
       d="M 473.242188 1813.59375 L 481.367188 1807.304688 L 492.8125 1798.4375 L 504.257812 1789.960938 L 515.351562 1781.09375 L 538.203125 1763.359375 L 549.257812 1754.492188 L 560.703125 1745.664062 L 572.1875 1736.40625 L 583.632812 1727.539062 L 594.726562 1718.320312 L 606.171875 1709.453125 L 617.617188 1700.234375 L 628.632812 1691.015625 L 640.078125 1681.796875 L 651.523438 1672.539062 L 663.007812 1662.96875 L 674.0625 1653.710938 L 685.546875 1644.492188 L 696.992188 1634.882812 L 708.007812 1625.664062 L 730.898438 1606.445312 L 741.992188 1596.875 L 764.882812 1577.65625 L 776.328125 1568.085938 L 787.421875 1558.085938 L 798.867188 1548.515625 L 810.273438 1538.515625 L 821.40625 1528.945312 L 832.8125 1518.984375 L 844.257812 1508.984375 L 855.703125 1499.023438 L 866.796875 1489.0625 L 889.6875 1469.140625 L 900.78125 1458.789062 L 912.226562 1448.828125 L 923.632812 1438.476562 L 935.078125 1428.515625 L 946.171875 1418.164062 L 957.617188 1407.851562 L 969.0625 1397.5 L 980.15625 1387.148438 L 991.601562 1376.835938 L 1003.046875 1366.484375 L 1014.140625 1356.171875 L 1025.585938 1345.429688 L 1036.992188 1335.117188 L 1048.4375 1324.414062 L 1059.492188 1313.710938 L 1070.976562 1303.359375 L 1082.421875 1292.65625 L 1093.515625 1281.953125 L 1116.40625 1260.546875 L 1127.851562 1249.453125 L 1138.867188 1238.75 L 1150.3125 1228.046875 L 1161.757812 1216.953125 L 1172.851562 1205.898438 L 1184.335938 1195.195312 L 1195.78125 1184.101562 L 1206.796875 1173.046875 L 1218.242188 1161.953125 L 1229.6875 1150.898438 L 1241.132812 1139.804688 L 1252.226562 1128.75 L 1263.671875 1117.304688 L 1275.117188 1106.210938 L 1286.210938 1094.765625 L 1297.65625 1083.710938 L 1354.492188 1026.835938 L 1365.585938 1015.390625 L 1377.03125 1003.59375 L 1388.476562 992.148438 L 1399.570312 980.703125 L 1411.015625 968.867188 L 1422.421875 957.421875 L 1433.867188 945.625 L 1444.921875 934.179688 L 1456.40625 922.34375 L 1467.851562 910.546875 L 1478.945312 898.710938 L 1501.835938 875.117188 L 1513.242188 863.28125 L 1524.296875 851.09375 L 1535.742188 839.296875 L 1547.226562 827.460938 L 1558.28125 815.273438 L 1569.765625 803.125 L 1581.210938 791.289062 L 1592.226562 779.101562 L 1615.117188 754.726562 L 1626.5625 742.578125 L 1637.65625 730.390625 L 1660.546875 706.015625 L 1671.640625 693.476562 L 1683.085938 681.289062 L 1694.492188 668.710938 L 1705.9375 656.523438 L 1717.03125 643.984375 L 1728.476562 631.445312 L 1739.921875 619.257812 L 1751.015625 606.71875 L 1761.328125 595.273438 "
       transform="matrix(0.1,0,0,-0.1,0,209)"
       id="path16" />
    <path
       style="fill:none;stroke-width:2.83298;stroke-linecap:butt;stroke-linejoin:miter;stroke:rgb(0%,0%,0%);stroke-opacity:1;stroke-miterlimit:10;"
       d="M 596.5625 1680.039062 L 596.5625 1566.71875 "
       transform="matrix(0.1,0,0,-0.1,0,209)"
       id="path18" />
    <path
       style="fill:none;stroke-width:2.83298;stroke-linecap:butt;stroke-linejoin:miter;stroke:rgb(0%,0%,0%);stroke-opacity:1;stroke-miterlimit:10;"
       d="M 473.515625 1680.117188 L 473.515625 1566.679688 "
       transform="matrix(0.1,0,0,-0.1,0,209)"
       id="path20" />
    <path
       style=" stroke:none;fill-rule:nonzero;fill:rgb(0%,0%,0%);fill-opacity:1;"
       d="M 51.941406 45.019531 L 47.351562 46.648438 L 51.941406 48.3125 L 50.097656 46.648438 "
       id="path22" />
    <path
       style="fill:none;stroke-width:4.25176;stroke-linecap:butt;stroke-linejoin:miter;stroke:rgb(0%,0%,0%);stroke-opacity:1;stroke-miterlimit:10;"
       d="M 596.5625 1623.59375 L 500.976562 1623.59375 "
       transform="matrix(0.1,0,0,-0.1,0,209)"
       id="path24" />
    <path
       style=" stroke:none;fill-rule:nonzero;fill:rgb(0%,0%,0%);fill-opacity:1;"
       d="M 49.695312 54.039062 L 49.460938 54.039062 L 46.695312 59.914062 L 52.476562 59.914062 Z M 49.367188 55.382812 L 51.257812 59.351562 L 47.492188 59.351562 Z M 49.367188 55.382812 "
       id="path26" />
    <path
       style=" stroke:none;fill-rule:nonzero;fill:rgb(0%,0%,0%);fill-opacity:1;"
       d="M 59.167969 54.164062 L 54.152344 54.164062 L 53.699219 55.710938 L 53.980469 55.710938 C 54.355469 54.789062 54.792969 54.585938 55.527344 54.585938 C 55.527344 54.585938 55.902344 54.585938 56.074219 54.585938 L 54.839844 58.851562 C 54.589844 59.664062 54.324219 59.664062 53.949219 59.664062 L 53.886719 59.914062 L 56.308594 59.914062 L 56.355469 59.664062 C 55.996094 59.664062 55.683594 59.679688 55.683594 59.289062 C 55.683594 59.195312 55.699219 59.054688 55.746094 58.898438 L 56.980469 54.585938 L 57.683594 54.585938 C 58.089844 54.585938 58.527344 54.632812 58.527344 55.164062 C 58.527344 55.289062 58.511719 55.429688 58.433594 55.710938 L 58.714844 55.710938 Z M 59.167969 54.164062 "
       id="path28" />
    <path
       style=" stroke:none;fill-rule:nonzero;fill:rgb(0%,0%,0%);fill-opacity:1;"
       d="M 60.136719 59.265625 L 59.402344 59.265625 L 59.402344 58.5625 C 59.402344 58.21875 59.527344 58.03125 59.746094 58.03125 C 59.871094 58.03125 59.949219 58.09375 60.058594 58.265625 C 60.152344 58.421875 60.230469 58.484375 60.339844 58.484375 C 60.480469 58.484375 60.589844 58.375 60.589844 58.234375 C 60.589844 58.015625 60.324219 57.859375 59.964844 57.859375 C 59.589844 57.859375 59.277344 58.03125 59.121094 58.296875 C 58.964844 58.5625 58.917969 58.78125 58.902344 59.265625 L 58.417969 59.265625 L 58.417969 59.453125 L 58.902344 59.453125 L 58.902344 61.328125 C 58.902344 61.78125 58.839844 61.84375 58.417969 61.859375 L 58.417969 61.953125 L 59.964844 61.953125 L 59.964844 61.859375 C 59.480469 61.84375 59.417969 61.78125 59.417969 61.328125 L 59.417969 59.453125 L 60.136719 59.453125 Z M 60.136719 59.265625 "
       id="path30" />
    <path
       style="fill:none;stroke-width:2.83298;stroke-linecap:butt;stroke-linejoin:miter;stroke:rgb(0%,0%,0%);stroke-opacity:1;stroke-miterlimit:10;"
       d="M 1725.9375 546.210938 L 1725.9375 376.132812 "
       transform="matrix(0.1,0,0,-0.1,0,209)"
       id="path32" />
    <path
       style="fill:none;stroke-width:2.83298;stroke-linecap:butt;stroke-linejoin:miter;stroke:rgb(0%,0%,0%);stroke-opacity:1;stroke-miterlimit:10;"
       d="M 1761.328125 546.171875 L 1761.328125 376.328125 "
       transform="matrix(0.1,0,0,-0.1,0,209)"
       id="path34" />
    <path
       style=" stroke:none;fill-rule:nonzero;fill:rgb(0%,0%,0%);fill-opacity:1;"
       d="M 167.984375 168.769531 L 172.59375 167.144531 L 167.984375 165.484375 L 169.832031 167.144531 "
       id="path36" />
    <path
       style="fill:none;stroke-width:4.25175;stroke-linecap:butt;stroke-linejoin:miter;stroke:rgb(0%,0%,0%);stroke-opacity:1;stroke-miterlimit:10;"
       d="M 1669.296875 418.789062 L 1698.398438 418.789062 "
       transform="matrix(0.1,0,0,-0.1,0,209)"
       id="path38" />
    <path
       style=" stroke:none;fill-rule:nonzero;fill:rgb(0%,0%,0%);fill-opacity:1;"
       d="M 180.730469 165.46875 L 176.152344 167.132812 L 180.730469 168.757812 L 178.882812 167.132812 "
       id="path40" />
    <path
       style="fill:none;stroke-width:4.25177;stroke-linecap:butt;stroke-linejoin:miter;stroke:rgb(0%,0%,0%);stroke-opacity:1;stroke-miterlimit:10;"
       d="M 1788.671875 418.75 L 1817.929688 418.75 "
       transform="matrix(0.1,0,0,-0.1,0,209)"
       id="path42" />
    <path
       style=" stroke:none;fill-rule:nonzero;fill:rgb(0%,0%,0%);fill-opacity:1;"
       d="M 170.082031 173.097656 L 169.847656 173.097656 L 167.082031 178.972656 L 172.863281 178.972656 Z M 169.753906 174.441406 L 171.644531 178.410156 L 167.878906 178.410156 Z M 169.753906 174.441406 "
       id="path44" />
    <path
       style=" stroke:none;fill-rule:nonzero;fill:rgb(0%,0%,0%);fill-opacity:1;"
       d="M 179.558594 173.222656 L 174.542969 173.222656 L 174.089844 174.769531 L 174.371094 174.769531 C 174.746094 173.847656 175.183594 173.644531 175.917969 173.644531 C 175.917969 173.644531 176.292969 173.644531 176.464844 173.644531 L 175.230469 177.910156 C 174.980469 178.722656 174.714844 178.722656 174.339844 178.722656 L 174.277344 178.972656 L 176.699219 178.972656 L 176.746094 178.722656 C 176.386719 178.722656 176.074219 178.738281 176.074219 178.347656 C 176.074219 178.253906 176.089844 178.113281 176.136719 177.957031 L 177.371094 173.644531 L 178.074219 173.644531 C 178.480469 173.644531 178.917969 173.691406 178.917969 174.222656 C 178.917969 174.347656 178.902344 174.488281 178.824219 174.769531 L 179.105469 174.769531 Z M 179.558594 173.222656 "
       id="path46" />
    <path
       style=" stroke:none;fill-rule:nonzero;fill:rgb(0%,0%,0%);fill-opacity:1;"
       d="M 179.605469 176.816406 L 179.574219 176.800781 C 179.324219 176.894531 179.167969 176.941406 178.871094 177.019531 L 178.699219 177.066406 L 178.699219 177.160156 C 178.730469 177.160156 178.761719 177.160156 178.808594 177.160156 C 179.042969 177.160156 179.089844 177.207031 179.089844 177.472656 L 179.089844 180.566406 C 179.089844 180.753906 179.605469 180.957031 180.089844 180.957031 C 180.871094 180.957031 181.480469 180.300781 181.480469 179.441406 C 181.480469 178.691406 181.027344 178.144531 180.433594 178.144531 C 180.058594 178.144531 179.714844 178.347656 179.605469 178.644531 Z M 179.605469 178.972656 C 179.605469 178.738281 179.886719 178.519531 180.199219 178.519531 C 180.355469 178.519531 180.511719 178.582031 180.636719 178.691406 C 180.824219 178.878906 180.964844 179.285156 180.964844 179.722656 C 180.964844 180.378906 180.667969 180.769531 180.183594 180.769531 C 179.871094 180.769531 179.605469 180.628906 179.605469 180.472656 Z M 179.605469 178.972656 "
       id="path48" />
    <path
       style=" stroke:none;fill-rule:nonzero;fill:rgb(100%,100%,100%);fill-opacity:1;"
       d="M 61.449219 33.902344 C 61.449219 32.882812 60.621094 32.054688 59.601562 32.054688 C 58.582031 32.054688 57.753906 32.882812 57.753906 33.902344 C 57.753906 34.921875 58.582031 35.75 59.601562 35.75 C 60.621094 35.75 61.449219 34.921875 61.449219 33.902344 "
       id="path50" />
    <path
       style=" stroke:none;fill-rule:nonzero;fill:rgb(0%,0%,0%);fill-opacity:1;"
       d="M 61.449219 33.902344 C 61.449219 32.882812 60.621094 32.054688 59.601562 32.054688 C 58.582031 32.054688 57.753906 32.882812 57.753906 33.902344 C 57.753906 34.921875 58.582031 35.75 59.601562 35.75 C 60.621094 35.75 61.449219 34.921875 61.449219 33.902344 Z M 61.449219 33.902344 L 61.261719 33.902344 C 61.261719 32.984375 60.519531 32.242188 59.601562 32.242188 C 58.683594 32.242188 57.941406 32.984375 57.941406 33.902344 C 57.941406 34.820312 58.683594 35.5625 59.601562 35.5625 C 60.519531 35.5625 61.261719 34.820312 61.261719 33.902344 "
       id="path52" />
    <path
       style=" stroke:none;fill-rule:nonzero;fill:rgb(100%,100%,100%);fill-opacity:1;"
       d="M 174.449219 140.804688 C 174.449219 139.785156 173.621094 138.957031 172.601562 138.957031 C 171.582031 138.957031 170.753906 139.785156 170.753906 140.804688 C 170.753906 141.824219 171.582031 142.652344 172.601562 142.652344 C 173.621094 142.652344 174.449219 141.824219 174.449219 140.804688 "
       id="path54" />
    <path
       style=" stroke:none;fill-rule:nonzero;fill:rgb(0%,0%,0%);fill-opacity:1;"
       d="M 174.449219 140.804688 C 174.449219 139.785156 173.621094 138.957031 172.601562 138.957031 C 171.582031 138.957031 170.753906 139.785156 170.753906 140.804688 C 170.753906 141.824219 171.582031 142.652344 172.601562 142.652344 C 173.621094 142.652344 174.449219 141.824219 174.449219 140.804688 Z M 174.449219 140.804688 L 174.261719 140.804688 C 174.261719 139.886719 173.519531 139.144531 172.601562 139.144531 C 171.683594 139.144531 170.941406 139.886719 170.941406 140.804688 C 170.941406 141.722656 171.683594 142.464844 172.601562 142.464844 C 173.519531 142.464844 174.261719 141.722656 174.261719 140.804688 "
       id="path56" />
    <path
       style=" stroke:none;fill-rule:nonzero;fill:rgb(100%,100%,100%);fill-opacity:1;"
       d="M 47.304688 25.164062 L 45.195312 28.820312 L 49.414062 28.820312 "
       id="path58" />
    <path
       style=" stroke:none;fill-rule:nonzero;fill:rgb(0%,0%,0%);fill-opacity:1;"
       d="M 47.304688 25.164062 L 45.195312 28.820312 L 49.414062 28.820312 Z M 47.304688 25.53125 L 45.511719 28.636719 L 49.097656 28.636719 "
       id="path60" />
    <path
       style=" stroke:none;fill-rule:nonzero;fill:rgb(100%,100%,100%);fill-opacity:1;"
       d="M 176.101562 147.066406 L 173.992188 150.722656 L 178.210938 150.722656 "
       id="path62" />
    <path
       style=" stroke:none;fill-rule:nonzero;fill:rgb(0%,0%,0%);fill-opacity:1;"
       d="M 176.101562 147.066406 L 173.992188 150.722656 L 178.210938 150.722656 Z M 176.101562 147.433594 L 174.308594 150.539062 L 177.894531 150.539062 "
       id="path64" />
    <path
       style=" stroke:none;fill-rule:nonzero;fill:rgb(0%,0%,0%);fill-opacity:1;"
       d="M 29.632812 14.183594 L 31.617188 15.152344 L 31.679688 15.011719 C 31.179688 14.714844 31.117188 14.589844 31.382812 14.074219 L 32.101562 12.589844 L 34.273438 13.636719 L 33.585938 15.042969 C 33.289062 15.652344 33.164062 15.699219 32.585938 15.464844 L 32.523438 15.605469 L 34.523438 16.574219 L 34.585938 16.433594 C 34.085938 16.121094 34.023438 16.011719 34.273438 15.480469 L 35.820312 12.308594 C 36.085938 11.792969 36.195312 11.761719 36.773438 11.964844 L 36.835938 11.824219 L 34.835938 10.855469 L 34.773438 10.996094 C 35.304688 11.308594 35.351562 11.402344 35.101562 11.949219 L 34.414062 13.339844 L 32.242188 12.292969 L 32.929688 10.902344 C 33.179688 10.371094 33.289062 10.339844 33.867188 10.542969 L 33.929688 10.402344 L 31.945312 9.433594 L 31.882812 9.574219 C 32.398438 9.886719 32.445312 9.996094 32.195312 10.542969 L 30.679688 13.636719 C 30.382812 14.246094 30.257812 14.277344 29.695312 14.042969 Z M 29.632812 14.183594 "
       id="path66" />
    <path
       style=" stroke:none;fill-rule:nonzero;fill:rgb(0%,0%,0%);fill-opacity:1;"
       d="M 37.480469 19.339844 L 37.371094 19.277344 C 37.011719 19.464844 36.824219 19.449219 36.464844 19.277344 L 34.871094 18.496094 C 36.371094 18.183594 37.761719 17.902344 38.167969 17.042969 C 38.464844 16.449219 38.058594 15.714844 37.386719 15.386719 C 36.714844 15.058594 36.027344 15.105469 35.433594 15.808594 L 35.589844 15.886719 C 35.933594 15.667969 36.371094 15.449219 36.917969 15.714844 C 37.511719 16.011719 37.667969 16.558594 37.449219 17.011719 C 37.152344 17.636719 35.902344 18.167969 34.027344 18.511719 L 33.980469 18.589844 L 36.746094 19.917969 Z M 37.480469 19.339844 "
       id="path68" />
    <path
       style=" stroke:none;fill-rule:nonzero;fill:rgb(0%,0%,0%);fill-opacity:1;"
       d="M 43.492188 14.960938 C 42.132812 14.289062 40.648438 14.835938 39.945312 16.273438 C 39.617188 16.945312 39.539062 17.726562 39.726562 18.335938 C 39.929688 18.976562 40.414062 19.570312 41.054688 19.867188 C 42.460938 20.570312 43.914062 20.039062 44.617188 18.601562 C 44.960938 17.898438 45.054688 17.164062 44.882812 16.554688 C 44.664062 15.851562 44.179688 15.289062 43.492188 14.960938 Z M 43.367188 15.226562 C 43.710938 15.382812 43.976562 15.664062 44.117188 16.007812 C 44.335938 16.554688 44.226562 17.335938 43.804688 18.195312 C 43.601562 18.617188 43.289062 19.070312 42.945312 19.382812 C 42.804688 19.507812 42.585938 19.632812 42.351562 19.726562 C 41.960938 19.851562 41.585938 19.820312 41.195312 19.632812 C 40.882812 19.476562 40.617188 19.195312 40.460938 18.851562 C 40.257812 18.320312 40.367188 17.492188 40.757812 16.695312 C 41.101562 15.960938 41.664062 15.367188 42.117188 15.195312 C 42.554688 15.007812 42.976562 15.023438 43.367188 15.226562 Z M 43.367188 15.226562 "
       id="path70" />
    <path
       style=" stroke:none;fill-rule:nonzero;fill:rgb(0%,0%,0%);fill-opacity:1;"
       d="M 48.199219 17.253906 C 47.511719 17.347656 47.199219 17.425781 46.777344 17.628906 C 45.964844 17.988281 45.355469 18.597656 44.964844 19.425781 C 44.511719 20.347656 44.433594 21.160156 44.699219 22.207031 C 44.824219 22.707031 44.949219 22.941406 45.214844 23.347656 L 45.339844 23.285156 C 44.980469 22.550781 44.917969 22.207031 44.980469 21.582031 C 45.058594 21.003906 45.230469 20.425781 45.574219 19.707031 C 45.949219 18.957031 46.324219 18.410156 46.746094 18.066406 C 47.167969 17.707031 47.496094 17.566406 48.214844 17.394531 Z M 48.199219 17.253906 "
       id="path72" />
    <path
       style=" stroke:none;fill-rule:nonzero;fill:rgb(0%,0%,0%);fill-opacity:1;"
       d="M 49.464844 21.082031 L 49.917969 20.082031 L 49.839844 20.035156 C 49.761719 20.082031 49.714844 20.097656 49.667969 20.082031 C 49.636719 20.050781 49.574219 20.003906 49.511719 19.910156 C 49.371094 19.769531 49.230469 19.660156 49.042969 19.582031 C 48.480469 19.300781 47.886719 19.472656 47.636719 19.988281 C 47.449219 20.378906 47.527344 20.785156 47.980469 21.441406 L 48.261719 21.863281 C 48.464844 22.128906 48.511719 22.363281 48.402344 22.582031 C 48.246094 22.910156 47.902344 23.003906 47.542969 22.816406 C 47.058594 22.582031 46.917969 22.191406 47.121094 21.363281 L 47.011719 21.316406 L 46.464844 22.441406 L 46.558594 22.472656 C 46.636719 22.425781 46.683594 22.425781 46.761719 22.472656 C 46.839844 22.503906 46.917969 22.566406 47.058594 22.691406 C 47.246094 22.832031 47.402344 22.941406 47.558594 23.003906 C 48.105469 23.285156 48.761719 23.097656 48.996094 22.597656 C 49.183594 22.238281 49.121094 21.894531 48.824219 21.441406 L 48.277344 20.613281 C 48.121094 20.378906 48.105469 20.175781 48.199219 19.972656 C 48.355469 19.675781 48.667969 19.597656 48.996094 19.769531 C 49.402344 19.957031 49.496094 20.300781 49.355469 21.019531 Z M 49.464844 21.082031 "
       id="path74" />
    <path
       style=" stroke:none;fill-rule:nonzero;fill:rgb(0%,0%,0%);fill-opacity:1;"
       d="M 48.566406 24.980469 C 49.269531 24.886719 49.566406 24.839844 49.988281 24.621094 C 50.800781 24.261719 51.394531 23.667969 51.800781 22.824219 C 52.253906 21.902344 52.332031 21.058594 52.066406 20.042969 C 51.941406 19.558594 51.816406 19.308594 51.566406 18.886719 L 51.425781 18.964844 C 51.769531 19.714844 51.847656 20.027344 51.800781 20.683594 C 51.722656 21.246094 51.535156 21.808594 51.175781 22.542969 C 50.816406 23.277344 50.441406 23.839844 50.035156 24.167969 C 49.613281 24.527344 49.285156 24.699219 48.550781 24.855469 Z M 48.566406 24.980469 "
       id="path76" />
    <path
       style=" stroke:none;fill-rule:nonzero;fill:rgb(0%,0%,0%);fill-opacity:1;"
       d="M 111.292969 72.710938 L 112.886719 74.226562 L 112.996094 74.117188 C 112.605469 73.679688 112.589844 73.539062 112.996094 73.117188 L 114.121094 71.929688 L 115.871094 73.585938 L 114.792969 74.726562 C 114.324219 75.210938 114.199219 75.226562 113.730469 74.820312 L 113.621094 74.929688 L 115.230469 76.460938 L 115.339844 76.351562 C 114.949219 75.914062 114.933594 75.773438 115.324219 75.335938 L 117.761719 72.789062 C 118.167969 72.382812 118.292969 72.382812 118.761719 72.757812 L 118.871094 72.632812 L 117.261719 71.101562 L 117.152344 71.226562 C 117.574219 71.695312 117.589844 71.789062 117.183594 72.226562 L 116.105469 73.351562 L 114.355469 71.695312 L 115.433594 70.570312 C 115.824219 70.148438 115.949219 70.148438 116.417969 70.523438 L 116.527344 70.398438 L 114.933594 68.882812 L 114.824219 69.007812 C 115.230469 69.460938 115.246094 69.554688 114.855469 70.007812 L 112.464844 72.507812 C 111.980469 72.976562 111.855469 72.992188 111.402344 72.601562 Z M 111.292969 72.710938 "
       id="path78" />
    <path
       style=" stroke:none;fill-rule:nonzero;fill:rgb(0%,0%,0%);fill-opacity:1;"
       d="M 117.191406 80.007812 L 117.128906 79.898438 C 116.722656 79.976562 116.550781 79.882812 116.269531 79.617188 L 114.988281 78.382812 C 116.503906 78.554688 117.910156 78.710938 118.566406 78.023438 C 119.019531 77.554688 118.863281 76.726562 118.332031 76.210938 C 117.785156 75.679688 117.097656 75.507812 116.316406 76.007812 L 116.441406 76.117188 C 116.863281 76.023438 117.316406 75.945312 117.769531 76.367188 C 118.253906 76.835938 118.238281 77.398438 117.894531 77.757812 C 117.410156 78.257812 116.066406 78.398438 114.175781 78.148438 L 114.113281 78.210938 L 116.332031 80.335938 Z M 117.191406 80.007812 "
       id="path80" />
    <path
       style=" stroke:none;fill-rule:nonzero;fill:rgb(0%,0%,0%);fill-opacity:1;"
       d="M 124.359375 77.722656 C 123.265625 76.675781 121.6875 76.753906 120.578125 77.925781 C 120.0625 78.457031 119.75 79.160156 119.734375 79.785156 C 119.734375 80.488281 120.015625 81.191406 120.53125 81.675781 C 121.671875 82.769531 123.21875 82.707031 124.328125 81.535156 C 124.875 80.972656 125.171875 80.316406 125.1875 79.675781 C 125.203125 78.925781 124.921875 78.253906 124.359375 77.722656 Z M 124.15625 77.941406 C 124.4375 78.207031 124.59375 78.550781 124.625 78.925781 C 124.65625 79.503906 124.328125 80.222656 123.671875 80.910156 C 123.359375 81.253906 122.90625 81.582031 122.5 81.769531 C 122.296875 81.847656 122.078125 81.925781 121.8125 81.925781 C 121.421875 81.941406 121.0625 81.785156 120.75 81.488281 C 120.5 81.238281 120.328125 80.910156 120.28125 80.503906 C 120.25 79.957031 120.609375 79.207031 121.21875 78.550781 C 121.78125 77.972656 122.484375 77.566406 122.96875 77.535156 C 123.4375 77.488281 123.84375 77.644531 124.15625 77.941406 Z M 124.15625 77.941406 "
       id="path82" />
    <path
       style=" stroke:none;fill-rule:nonzero;fill:rgb(0%,0%,0%);fill-opacity:1;"
       d="M 128.152344 81.335938 C 127.464844 81.210938 127.136719 81.195312 126.683594 81.257812 C 125.777344 81.367188 125.027344 81.757812 124.386719 82.429688 C 123.667969 83.164062 123.371094 83.929688 123.324219 84.992188 C 123.292969 85.507812 123.308594 85.773438 123.449219 86.242188 L 123.589844 86.210938 C 123.464844 85.414062 123.511719 85.054688 123.761719 84.476562 C 124.011719 83.960938 124.355469 83.460938 124.902344 82.882812 C 125.480469 82.273438 126.011719 81.867188 126.496094 81.664062 C 127.011719 81.460938 127.371094 81.414062 128.121094 81.476562 Z M 128.152344 81.335938 "
       id="path84" />
    <path
       style=" stroke:none;fill-rule:nonzero;fill:rgb(0%,0%,0%);fill-opacity:1;"
       d="M 124.765625 85.566406 L 126.125 86.847656 L 126.21875 86.753906 C 125.859375 86.394531 125.84375 86.285156 126.15625 85.957031 L 129.421875 82.519531 L 129.421875 82.488281 C 129.046875 82.300781 128.765625 82.160156 128.265625 81.863281 L 128.171875 81.957031 L 128.203125 81.988281 C 128.265625 82.035156 128.34375 82.097656 128.40625 82.144531 C 128.59375 82.316406 128.5625 82.457031 128.3125 82.738281 L 125.671875 85.488281 C 125.375 85.785156 125.21875 85.785156 124.859375 85.472656 Z M 124.765625 85.566406 "
       id="path86" />
    <path
       style=" stroke:none;fill-rule:nonzero;fill:rgb(0%,0%,0%);fill-opacity:1;"
       d="M 125.453125 88.148438 C 126.140625 88.273438 126.4375 88.304688 126.921875 88.242188 C 127.796875 88.132812 128.5625 87.742188 129.203125 87.070312 C 129.90625 86.335938 130.21875 85.570312 130.28125 84.507812 C 130.3125 84.007812 130.265625 83.726562 130.15625 83.242188 L 130.015625 83.273438 C 130.125 84.101562 130.078125 84.429688 129.828125 85.039062 C 129.59375 85.539062 129.234375 86.039062 128.6875 86.617188 C 128.109375 87.226562 127.59375 87.632812 127.109375 87.820312 C 126.59375 88.039062 126.21875 88.085938 125.484375 88.007812 Z M 125.453125 88.148438 "
       id="path88" />
    <path
       style=" stroke:none;fill-rule:nonzero;fill:rgb(0%,0%,0%);fill-opacity:1;"
       d="M 104.488281 83.425781 L 105.222656 82.597656 L 105.144531 82.535156 C 105.082031 82.550781 105.035156 82.566406 105.003906 82.519531 C 104.957031 82.488281 104.925781 82.425781 104.878906 82.332031 C 104.800781 82.144531 104.707031 82.003906 104.550781 81.863281 C 104.113281 81.425781 103.488281 81.410156 103.097656 81.832031 C 102.785156 82.144531 102.738281 82.550781 102.972656 83.300781 L 103.113281 83.816406 C 103.207031 84.113281 103.175781 84.332031 103.003906 84.519531 C 102.753906 84.785156 102.410156 84.769531 102.113281 84.488281 C 101.722656 84.097656 101.722656 83.691406 102.175781 82.972656 L 102.082031 82.894531 L 101.222656 83.785156 L 101.300781 83.847656 C 101.394531 83.847656 101.425781 83.847656 101.488281 83.910156 C 101.550781 83.972656 101.613281 84.066406 101.707031 84.207031 C 101.832031 84.394531 101.957031 84.566406 102.082031 84.675781 C 102.535156 85.097656 103.207031 85.128906 103.597656 84.722656 C 103.878906 84.425781 103.910156 84.097656 103.769531 83.582031 L 103.519531 82.597656 C 103.425781 82.347656 103.488281 82.144531 103.628906 81.972656 C 103.863281 81.738281 104.191406 81.753906 104.457031 82.003906 C 104.785156 82.316406 104.769531 82.691406 104.394531 83.332031 Z M 104.488281 83.425781 "
       id="path90" />
    <path
       style=" stroke:none;fill-rule:nonzero;fill:rgb(0%,0%,0%);fill-opacity:1;"
       d="M 107.175781 84.371094 C 106.425781 83.652344 105.378906 83.699219 104.613281 84.496094 C 103.863281 85.277344 103.847656 86.371094 104.566406 87.058594 C 105.300781 87.761719 106.410156 87.683594 107.175781 86.886719 C 107.925781 86.121094 107.910156 85.089844 107.175781 84.371094 Z M 106.925781 84.464844 C 107.410156 84.933594 107.238281 85.808594 106.472656 86.589844 C 105.847656 87.246094 105.207031 87.402344 104.785156 86.980469 C 104.550781 86.761719 104.488281 86.417969 104.582031 86.074219 C 104.707031 85.621094 105.003906 85.121094 105.394531 84.714844 C 105.925781 84.167969 106.519531 84.058594 106.925781 84.464844 Z M 106.925781 84.464844 "
       id="path92" />
    <path
       style=" stroke:none;fill-rule:nonzero;fill:rgb(0%,0%,0%);fill-opacity:1;"
       d="M 106.171875 88.503906 L 107.515625 89.800781 L 107.609375 89.707031 C 107.25 89.363281 107.25 89.222656 107.5625 88.894531 L 110.84375 85.472656 L 110.84375 85.441406 C 110.46875 85.253906 110.1875 85.113281 109.6875 84.816406 L 109.59375 84.910156 L 109.625 84.941406 C 109.6875 84.988281 109.765625 85.050781 109.828125 85.097656 C 110 85.269531 109.984375 85.410156 109.734375 85.675781 L 107.078125 88.425781 C 106.78125 88.722656 106.625 88.722656 106.265625 88.410156 Z M 106.171875 88.503906 "
       id="path94" />
    <path
       style=" stroke:none;fill-rule:nonzero;fill:rgb(0%,0%,0%);fill-opacity:1;"
       d="M 110.621094 92.238281 L 110.589844 92.222656 C 110.339844 91.925781 110.339844 91.847656 110.605469 91.566406 L 112.496094 89.613281 L 111.574219 88.722656 L 111.480469 88.816406 C 111.824219 89.191406 111.839844 89.316406 111.574219 89.597656 L 110.277344 90.941406 C 110.121094 91.097656 109.996094 91.160156 109.855469 91.144531 C 109.574219 91.113281 109.339844 91.035156 109.167969 90.863281 C 108.933594 90.644531 108.949219 90.269531 109.183594 90.035156 L 110.980469 88.160156 L 110.152344 87.347656 L 110.074219 87.425781 C 110.324219 87.707031 110.324219 87.863281 110.074219 88.128906 L 108.667969 89.582031 C 108.246094 90.035156 108.246094 90.597656 108.667969 91.003906 C 108.871094 91.207031 109.183594 91.332031 109.480469 91.316406 L 109.964844 91.300781 L 109.496094 91.785156 L 109.511719 91.832031 C 109.917969 91.988281 110.183594 92.113281 110.542969 92.316406 Z M 110.621094 92.238281 "
       id="path96" />
    <path
       style=" stroke:none;fill-rule:nonzero;fill:rgb(0%,0%,0%);fill-opacity:1;"
       d="M 114.410156 91.449219 L 113.832031 90.902344 L 114.472656 90.230469 C 114.535156 90.167969 114.519531 90.136719 114.488281 90.105469 C 113.691406 90.261719 113.347656 90.308594 113.082031 90.230469 C 112.988281 90.214844 112.910156 90.214844 112.878906 90.261719 C 112.863281 90.277344 112.847656 90.292969 112.863281 90.308594 L 113.175781 90.605469 L 111.519531 92.339844 C 111.050781 92.824219 110.988281 93.230469 111.316406 93.558594 C 111.597656 93.824219 111.941406 93.902344 112.425781 93.761719 L 112.410156 93.652344 C 112.128906 93.667969 112.003906 93.636719 111.878906 93.527344 C 111.660156 93.324219 111.722656 93.089844 112.066406 92.730469 L 113.660156 91.074219 L 114.238281 91.621094 Z M 114.410156 91.449219 "
       id="path98" />
    <path
       style=" stroke:none;fill-rule:nonzero;fill:rgb(0%,0%,0%);fill-opacity:1;"
       d="M 112.109375 94.210938 L 113.46875 95.507812 L 113.5625 95.414062 C 113.1875 95.039062 113.203125 94.945312 113.609375 94.523438 L 115.5625 92.476562 L 115.5625 92.445312 L 114.359375 91.898438 L 114.28125 91.992188 L 114.328125 92.039062 C 114.40625 92.085938 114.484375 92.148438 114.546875 92.195312 C 114.6875 92.320312 114.65625 92.460938 114.40625 92.710938 L 113.125 94.054688 C 112.703125 94.476562 112.59375 94.492188 112.203125 94.117188 Z M 116.515625 90.898438 C 116.359375 90.757812 116.125 90.757812 115.953125 90.929688 C 115.796875 91.085938 115.796875 91.335938 115.953125 91.492188 C 116.125 91.664062 116.375 91.648438 116.53125 91.492188 C 116.703125 91.320312 116.6875 91.054688 116.515625 90.898438 Z M 116.515625 90.898438 "
       id="path100" />
    <path
       style=" stroke:none;fill-rule:nonzero;fill:rgb(0%,0%,0%);fill-opacity:1;"
       d="M 117.558594 94.351562 C 116.808594 93.632812 115.761719 93.679688 114.996094 94.476562 C 114.246094 95.257812 114.230469 96.351562 114.949219 97.039062 C 115.683594 97.742188 116.792969 97.664062 117.558594 96.867188 C 118.308594 96.101562 118.292969 95.070312 117.558594 94.351562 Z M 117.308594 94.445312 C 117.792969 94.914062 117.621094 95.789062 116.855469 96.570312 C 116.230469 97.226562 115.589844 97.382812 115.167969 96.960938 C 114.933594 96.742188 114.871094 96.398438 114.964844 96.054688 C 115.089844 95.601562 115.386719 95.101562 115.777344 94.695312 C 116.308594 94.148438 116.902344 94.039062 117.308594 94.445312 Z M 117.308594 94.445312 "
       id="path102" />
    <path
       style=" stroke:none;fill-rule:nonzero;fill:rgb(0%,0%,0%);fill-opacity:1;"
       d="M 116.519531 98.453125 L 117.738281 99.625 L 117.832031 99.53125 C 117.550781 99.265625 117.550781 99.078125 117.753906 98.875 L 119.300781 97.265625 C 119.816406 97.28125 120.003906 97.3125 120.191406 97.5 C 120.472656 97.78125 120.441406 98.078125 120.082031 98.46875 L 118.925781 99.671875 C 118.550781 100.03125 118.394531 100.0625 118.113281 99.796875 L 118.019531 99.890625 L 119.207031 101.03125 L 119.300781 100.9375 C 119.035156 100.65625 119.035156 100.515625 119.300781 100.234375 L 120.582031 98.921875 C 121.097656 98.390625 121.160156 97.8125 120.722656 97.40625 C 120.472656 97.15625 120.191406 97.078125 119.441406 97.078125 L 119.878906 96.609375 L 119.863281 96.578125 C 119.441406 96.390625 119.191406 96.265625 118.816406 96.0625 L 118.722656 96.171875 C 118.785156 96.171875 118.832031 96.21875 118.894531 96.28125 C 119.050781 96.4375 119.035156 96.578125 118.753906 96.859375 L 117.394531 98.28125 C 117.050781 98.609375 116.910156 98.640625 116.613281 98.359375 Z M 116.519531 98.453125 "
       id="path104" />
    <path
       style=" stroke:none;fill-rule:nonzero;fill:rgb(0%,0%,0%);fill-opacity:1;"
       d="M 184.054688 157.492188 L 184.882812 159.539062 L 185.023438 159.476562 C 184.851562 158.914062 184.898438 158.789062 185.429688 158.570312 L 186.945312 157.945312 L 187.851562 160.179688 L 186.414062 160.773438 C 185.789062 161.023438 185.664062 160.976562 185.398438 160.414062 L 185.257812 160.476562 L 186.101562 162.539062 L 186.242188 162.476562 C 186.054688 161.898438 186.117188 161.789062 186.648438 161.554688 L 189.914062 160.226562 C 190.460938 160.023438 190.554688 160.070312 190.851562 160.617188 L 190.992188 160.554688 L 190.148438 158.492188 L 190.007812 158.554688 C 190.195312 159.148438 190.148438 159.257812 189.601562 159.476562 L 188.179688 160.054688 L 187.273438 157.820312 L 188.695312 157.242188 C 189.242188 157.023438 189.335938 157.070312 189.632812 157.617188 L 189.773438 157.554688 L 188.945312 155.507812 L 188.804688 155.570312 C 188.976562 156.148438 188.929688 156.257812 188.398438 156.492188 L 185.210938 157.789062 C 184.570312 158.023438 184.445312 157.976562 184.195312 157.429688 Z M 184.054688 157.492188 "
       id="path106" />
    <path
       style=" stroke:none;fill-rule:nonzero;fill:rgb(0%,0%,0%);fill-opacity:1;"
       d="M 186.441406 166.582031 L 186.410156 166.441406 C 186.035156 166.347656 185.894531 166.207031 185.753906 165.847656 L 185.082031 164.191406 C 186.394531 164.972656 187.613281 165.675781 188.503906 165.316406 C 189.113281 165.082031 189.300781 164.269531 189.019531 163.566406 C 188.722656 162.878906 188.191406 162.441406 187.285156 162.582031 L 187.347656 162.738281 C 187.769531 162.800781 188.222656 162.925781 188.457031 163.488281 C 188.707031 164.113281 188.457031 164.628906 187.988281 164.816406 C 187.347656 165.082031 186.066406 164.644531 184.457031 163.644531 L 184.363281 163.675781 L 185.503906 166.503906 Z M 186.441406 166.582031 "
       id="path108" />
    <path
       style=" stroke:none;fill-rule:nonzero;fill:rgb(0%,0%,0%);fill-opacity:1;"
       d="M 193.910156 167.429688 C 193.347656 166.039062 191.863281 165.460938 190.378906 166.054688 C 189.675781 166.335938 189.113281 166.867188 188.847656 167.429688 C 188.550781 168.039062 188.535156 168.820312 188.800781 169.476562 C 189.394531 170.929688 190.816406 171.507812 192.316406 170.898438 C 193.035156 170.601562 193.582031 170.132812 193.863281 169.554688 C 194.175781 168.882812 194.207031 168.148438 193.910156 167.429688 Z M 193.628906 167.539062 C 193.769531 167.898438 193.785156 168.289062 193.660156 168.648438 C 193.457031 169.195312 192.847656 169.695312 191.972656 170.054688 C 191.535156 170.226562 191.003906 170.367188 190.535156 170.367188 C 190.332031 170.351562 190.097656 170.320312 189.847656 170.226562 C 189.503906 170.054688 189.222656 169.789062 189.066406 169.398438 C 188.925781 169.054688 188.941406 168.664062 189.035156 168.289062 C 189.253906 167.773438 189.878906 167.226562 190.707031 166.898438 C 191.457031 166.585938 192.253906 166.523438 192.722656 166.695312 C 193.160156 166.835938 193.472656 167.148438 193.628906 167.539062 Z M 193.628906 167.539062 "
       id="path110" />
    <path
       style=" stroke:none;fill-rule:nonzero;fill:rgb(0%,0%,0%);fill-opacity:1;"
       d="M 195.875 172.28125 C 195.296875 171.90625 195 171.734375 194.578125 171.609375 C 193.703125 171.34375 192.859375 171.375 192.015625 171.71875 C 191.046875 172.109375 190.453125 172.6875 189.96875 173.640625 C 189.734375 174.09375 189.640625 174.34375 189.578125 174.828125 L 189.71875 174.875 C 189.953125 174.09375 190.125 173.78125 190.59375 173.359375 C 191.015625 172.984375 191.546875 172.65625 192.28125 172.359375 C 193.0625 172.046875 193.703125 171.890625 194.234375 171.90625 C 194.796875 171.921875 195.125 172.03125 195.78125 172.40625 Z M 195.875 172.28125 "
       id="path112" />
    <path
       style=" stroke:none;fill-rule:nonzero;fill:rgb(0%,0%,0%);fill-opacity:1;"
       d="M 195.257812 176.898438 L 195.554688 176.773438 L 195.320312 176.195312 C 195.257812 176.054688 195.242188 175.960938 195.242188 175.757812 L 195.226562 175.585938 C 195.226562 175.367188 195.179688 175.148438 195.101562 174.945312 C 194.820312 174.273438 194.054688 173.929688 193.382812 174.195312 C 192.914062 174.382812 192.726562 174.679688 192.679688 175.304688 L 192.429688 175.164062 C 192.226562 175.085938 192.101562 175.023438 192.054688 175.007812 C 191.835938 174.914062 191.726562 174.898438 191.617188 174.945312 C 191.445312 175.023438 191.398438 175.148438 191.382812 175.507812 C 190.789062 175.148438 190.445312 175.039062 190.179688 175.148438 C 189.789062 175.304688 189.695312 176.023438 189.992188 176.726562 C 190.210938 177.289062 190.632812 177.789062 191.117188 178.039062 C 191.429688 178.210938 191.726562 178.257812 192.007812 178.132812 C 192.460938 177.945312 192.632812 177.460938 192.445312 176.914062 L 192.117188 175.960938 C 191.960938 175.539062 191.945312 175.351562 192.070312 175.304688 C 192.226562 175.242188 192.570312 175.382812 192.710938 175.539062 C 192.789062 175.820312 192.820312 175.960938 192.835938 175.976562 C 192.945312 176.242188 193.195312 176.507812 193.476562 176.679688 C 193.789062 176.804688 194.085938 176.820312 194.460938 176.679688 C 194.679688 176.585938 194.835938 176.492188 195.007812 176.289062 Z M 191.414062 175.664062 C 191.460938 175.945312 191.664062 176.539062 191.804688 176.914062 C 192.085938 177.585938 192.085938 177.867188 191.804688 177.976562 C 191.398438 178.148438 190.867188 177.710938 190.539062 176.867188 C 190.273438 176.210938 190.320312 175.695312 190.632812 175.570312 C 190.804688 175.492188 190.960938 175.523438 191.414062 175.664062 Z M 193.929688 174.695312 C 194.367188 174.523438 194.726562 174.617188 194.851562 174.960938 C 194.945312 175.179688 194.898438 175.414062 194.726562 175.632812 C 194.523438 175.882812 194.242188 176.101562 193.929688 176.226562 C 193.523438 176.398438 193.179688 176.304688 193.039062 175.945312 C 192.851562 175.492188 193.210938 174.992188 193.914062 174.710938 Z M 193.929688 174.695312 "
       id="path114" />
    <path
       style=" stroke:none;fill-rule:nonzero;fill:rgb(0%,0%,0%);fill-opacity:1;"
       d="M 191.292969 179.066406 C 191.871094 179.457031 192.136719 179.613281 192.589844 179.738281 C 193.449219 180.003906 194.292969 179.957031 195.167969 179.613281 C 196.105469 179.222656 196.699219 178.660156 197.199219 177.722656 C 197.433594 177.285156 197.511719 177.019531 197.605469 176.519531 L 197.449219 176.488281 C 197.214844 177.285156 197.042969 177.566406 196.574219 178.019531 C 196.136719 178.378906 195.621094 178.691406 194.871094 178.988281 C 194.105469 179.300781 193.464844 179.457031 192.917969 179.441406 C 192.371094 179.425781 192.027344 179.316406 191.386719 178.957031 Z M 191.292969 179.066406 "
       id="path116" />
    <path
       style="fill:none;stroke-width:5.67042;stroke-linecap:butt;stroke-linejoin:miter;stroke:rgb(0%,0%,0%);stroke-opacity:1;stroke-miterlimit:10;"
       d="M 220.3125 234.335938 L 2034.21875 234.335938 L 2034.21875 2077.148438 L 220.3125 2077.148438 Z M 220.3125 234.335938 "
       transform="matrix(0.1,0,0,-0.1,0,209)"
       id="path118" />
    <path
       style="fill:none;stroke-width:3.98507;stroke-linecap:butt;stroke-linejoin:miter;stroke:rgb(0%,0%,0%);stroke-opacity:1;stroke-miterlimit:10;"
       d="M 220.351562 234.53125 L 220.351562 276.992188 "
       transform="matrix(0.1,0,0,-0.1,0,209)"
       id="path120" />
    <path
       style="fill:none;stroke-width:3.98508;stroke-linecap:butt;stroke-linejoin:miter;stroke:rgb(0%,0%,0%);stroke-opacity:1;stroke-miterlimit:10;"
       d="M 673.828125 234.414062 L 673.828125 276.835938 "
       transform="matrix(0.1,0,0,-0.1,0,209)"
       id="path122" />
    <path
       style="fill:none;stroke-width:3.98505;stroke-linecap:butt;stroke-linejoin:miter;stroke:rgb(0%,0%,0%);stroke-opacity:1;stroke-miterlimit:10;"
       d="M 1127.304688 234.375 L 1127.304688 277.109375 "
       transform="matrix(0.1,0,0,-0.1,0,209)"
       id="path124" />
    <path
       style="fill:none;stroke-width:3.98507;stroke-linecap:butt;stroke-linejoin:miter;stroke:rgb(0%,0%,0%);stroke-opacity:1;stroke-miterlimit:10;"
       d="M 1580.742188 234.53125 L 1580.742188 276.875 "
       transform="matrix(0.1,0,0,-0.1,0,209)"
       id="path126" />
    <path
       style="fill:none;stroke-width:3.98507;stroke-linecap:butt;stroke-linejoin:miter;stroke:rgb(0%,0%,0%);stroke-opacity:1;stroke-miterlimit:10;"
       d="M 2034.21875 234.335938 L 2034.21875 276.953125 "
       transform="matrix(0.1,0,0,-0.1,0,209)"
       id="path128" />
    <path
       style="fill:none;stroke-width:3.98507;stroke-linecap:butt;stroke-linejoin:miter;stroke:rgb(0%,0%,0%);stroke-opacity:1;stroke-miterlimit:10;"
       d="M 220.351562 234.53125 L 220.351562 276.992188 "
       transform="matrix(0.1,0,0,-0.1,0,209)"
       id="path130" />
    <path
       style="fill:none;stroke-width:3.98505;stroke-linecap:butt;stroke-linejoin:miter;stroke:rgb(0%,0%,0%);stroke-opacity:1;stroke-miterlimit:10;"
       d="M 220.429688 234.375 L 262.890625 234.375 "
       transform="matrix(0.1,0,0,-0.1,0,209)"
       id="path132" />
    <path
       style="fill:none;stroke-width:3.98505;stroke-linecap:butt;stroke-linejoin:miter;stroke:rgb(0%,0%,0%);stroke-opacity:1;stroke-miterlimit:10;"
       d="M 220.429688 518.046875 L 262.890625 518.046875 "
       transform="matrix(0.1,0,0,-0.1,0,209)"
       id="path134" />
    <path
       style="fill:none;stroke-width:3.98505;stroke-linecap:butt;stroke-linejoin:miter;stroke:rgb(0%,0%,0%);stroke-opacity:1;stroke-miterlimit:10;"
       d="M 220.429688 801.367188 L 262.890625 801.367188 "
       transform="matrix(0.1,0,0,-0.1,0,209)"
       id="path136" />
    <path
       style="fill:none;stroke-width:3.98505;stroke-linecap:butt;stroke-linejoin:miter;stroke:rgb(0%,0%,0%);stroke-opacity:1;stroke-miterlimit:10;"
       d="M 220.429688 1085.039062 L 262.890625 1085.039062 "
       transform="matrix(0.1,0,0,-0.1,0,209)"
       id="path138" />
    <path
       style="fill:none;stroke-width:3.98505;stroke-linecap:butt;stroke-linejoin:miter;stroke:rgb(0%,0%,0%);stroke-opacity:1;stroke-miterlimit:10;"
       d="M 220.429688 1368.359375 L 262.890625 1368.359375 "
       transform="matrix(0.1,0,0,-0.1,0,209)"
       id="path140" />
    <path
       style="fill:none;stroke-width:3.98505;stroke-linecap:butt;stroke-linejoin:miter;stroke:rgb(0%,0%,0%);stroke-opacity:1;stroke-miterlimit:10;"
       d="M 220.429688 1651.679688 L 262.890625 1651.679688 "
       transform="matrix(0.1,0,0,-0.1,0,209)"
       id="path142" />
    <path
       style="fill:none;stroke-width:3.98505;stroke-linecap:butt;stroke-linejoin:miter;stroke:rgb(0%,0%,0%);stroke-opacity:1;stroke-miterlimit:10;"
       d="M 220.429688 1935.351562 L 262.890625 1935.351562 "
       transform="matrix(0.1,0,0,-0.1,0,209)"
       id="path144" />
    <path
       style="fill:none;stroke-width:3.98505;stroke-linecap:butt;stroke-linejoin:miter;stroke:rgb(0%,0%,0%);stroke-opacity:1;stroke-miterlimit:10;"
       d="M 220.429688 234.375 L 262.890625 234.375 "
       transform="matrix(0.1,0,0,-0.1,0,209)"
       id="path146" />
    <path
       style="fill:none;stroke-width:3.98507;stroke-linecap:butt;stroke-linejoin:miter;stroke:rgb(0%,0%,0%);stroke-opacity:1;stroke-miterlimit:10;"
       d="M 220.351562 2077.109375 L 220.351562 2034.296875 "
       transform="matrix(0.1,0,0,-0.1,0,209)"
       id="path148" />
    <path
       style="fill:none;stroke-width:3.98508;stroke-linecap:butt;stroke-linejoin:miter;stroke:rgb(0%,0%,0%);stroke-opacity:1;stroke-miterlimit:10;"
       d="M 673.828125 2077.109375 L 673.828125 2034.335938 "
       transform="matrix(0.1,0,0,-0.1,0,209)"
       id="path150" />
    <path
       style="fill:none;stroke-width:3.98505;stroke-linecap:butt;stroke-linejoin:miter;stroke:rgb(0%,0%,0%);stroke-opacity:1;stroke-miterlimit:10;"
       d="M 1127.304688 2076.953125 L 1127.304688 2034.570312 "
       transform="matrix(0.1,0,0,-0.1,0,209)"
       id="path152" />
    <path
       style="fill:none;stroke-width:3.98507;stroke-linecap:butt;stroke-linejoin:miter;stroke:rgb(0%,0%,0%);stroke-opacity:1;stroke-miterlimit:10;"
       d="M 1580.742188 2077.148438 L 1580.742188 2034.453125 "
       transform="matrix(0.1,0,0,-0.1,0,209)"
       id="path154" />
    <path
       style="fill:none;stroke-width:3.98507;stroke-linecap:butt;stroke-linejoin:miter;stroke:rgb(0%,0%,0%);stroke-opacity:1;stroke-miterlimit:10;"
       d="M 2034.21875 2077.148438 L 2034.21875 2034.492188 "
       transform="matrix(0.1,0,0,-0.1,0,209)"
       id="path156" />
    <path
       style="fill:none;stroke-width:3.98507;stroke-linecap:butt;stroke-linejoin:miter;stroke:rgb(0%,0%,0%);stroke-opacity:1;stroke-miterlimit:10;"
       d="M 220.351562 2077.109375 L 220.351562 2034.296875 "
       transform="matrix(0.1,0,0,-0.1,0,209)"
       id="path158" />
    <path
       style="fill:none;stroke-width:3.98507;stroke-linecap:butt;stroke-linejoin:miter;stroke:rgb(0%,0%,0%);stroke-opacity:1;stroke-miterlimit:10;"
       d="M 2034.21875 234.335938 L 1991.5625 234.335938 "
       transform="matrix(0.1,0,0,-0.1,0,209)"
       id="path160" />
    <path
       style="fill:none;stroke-width:3.98507;stroke-linecap:butt;stroke-linejoin:miter;stroke:rgb(0%,0%,0%);stroke-opacity:1;stroke-miterlimit:10;"
       d="M 2034.21875 518.046875 L 1991.5625 518.046875 "
       transform="matrix(0.1,0,0,-0.1,0,209)"
       id="path162" />
    <path
       style="fill:none;stroke-width:3.98507;stroke-linecap:butt;stroke-linejoin:miter;stroke:rgb(0%,0%,0%);stroke-opacity:1;stroke-miterlimit:10;"
       d="M 2034.21875 801.367188 L 1991.5625 801.367188 "
       transform="matrix(0.1,0,0,-0.1,0,209)"
       id="path164" />
    <path
       style="fill:none;stroke-width:3.98507;stroke-linecap:butt;stroke-linejoin:miter;stroke:rgb(0%,0%,0%);stroke-opacity:1;stroke-miterlimit:10;"
       d="M 2034.21875 1084.726562 L 1991.5625 1084.726562 "
       transform="matrix(0.1,0,0,-0.1,0,209)"
       id="path166" />
    <path
       style="fill:none;stroke-width:3.98507;stroke-linecap:butt;stroke-linejoin:miter;stroke:rgb(0%,0%,0%);stroke-opacity:1;stroke-miterlimit:10;"
       d="M 2034.21875 1368.4375 L 1991.5625 1368.4375 "
       transform="matrix(0.1,0,0,-0.1,0,209)"
       id="path168" />
    <path
       style="fill:none;stroke-width:3.98507;stroke-linecap:butt;stroke-linejoin:miter;stroke:rgb(0%,0%,0%);stroke-opacity:1;stroke-miterlimit:10;"
       d="M 2034.21875 1651.757812 L 1991.5625 1651.757812 "
       transform="matrix(0.1,0,0,-0.1,0,209)"
       id="path170" />
    <path
       style="fill:none;stroke-width:3.98507;stroke-linecap:butt;stroke-linejoin:miter;stroke:rgb(0%,0%,0%);stroke-opacity:1;stroke-miterlimit:10;"
       d="M 2034.21875 1935.117188 L 1991.5625 1935.117188 "
       transform="matrix(0.1,0,0,-0.1,0,209)"
       id="path172" />
    <path
       style="fill:none;stroke-width:3.98507;stroke-linecap:butt;stroke-linejoin:miter;stroke:rgb(0%,0%,0%);stroke-opacity:1;stroke-miterlimit:10;"
       d="M 2034.21875 234.335938 L 1991.5625 234.335938 "
       transform="matrix(0.1,0,0,-0.1,0,209)"
       id="path174" />
    <path
       style=" stroke:none;fill-rule:nonzero;fill:rgb(0%,0%,0%);fill-opacity:1;"
       d="M 19.578125 193.875 L 19.421875 193.84375 C 19.15625 194.296875 18.9375 194.375 18.5 194.375 L 16.4375 194.375 C 17.859375 193.078125 19.15625 191.90625 19.15625 190.59375 C 19.15625 189.671875 18.359375 189.015625 17.484375 189.015625 C 16.625 189.015625 15.9375 189.484375 15.671875 190.703125 L 15.875 190.703125 C 16.125 190.203125 16.46875 189.6875 17.15625 189.6875 C 17.9375 189.6875 18.375 190.28125 18.375 190.953125 C 18.375 191.921875 17.34375 193.34375 15.578125 194.890625 L 15.578125 195.03125 L 19.109375 195.03125 Z M 19.578125 193.875 "
       id="path176" />
    <path
       style=" stroke:none;fill-rule:nonzero;fill:rgb(0%,0%,0%);fill-opacity:1;"
       d="M 24.003906 193.546875 L 24.003906 192.9375 L 23.128906 192.9375 L 23.128906 189.015625 L 22.691406 189.015625 L 20.097656 192.921875 L 20.097656 193.546875 L 22.394531 193.546875 L 22.394531 195.03125 L 23.128906 195.03125 L 23.128906 193.546875 Z M 22.394531 192.9375 L 20.457031 192.9375 L 22.378906 189.953125 L 22.394531 189.953125 Z M 22.394531 192.9375 "
       id="path178" />
    <path
       style=" stroke:none;fill-rule:nonzero;fill:rgb(0%,0%,0%);fill-opacity:1;"
       d="M 28.425781 192.078125 C 28.425781 190.46875 27.691406 189.015625 26.441406 189.015625 C 25.175781 189.015625 24.441406 190.46875 24.441406 192.078125 C 24.441406 193.703125 25.128906 195.140625 26.441406 195.140625 C 27.644531 195.140625 28.425781 193.703125 28.425781 192.078125 Z M 27.566406 192.078125 C 27.566406 193.375 27.441406 194.890625 26.441406 194.890625 C 25.488281 194.890625 25.300781 193.375 25.300781 192.078125 C 25.300781 191 25.425781 189.25 26.441406 189.25 C 27.441406 189.25 27.566406 191 27.566406 192.078125 Z M 27.566406 192.078125 "
       id="path180" />
    <path
       style=" stroke:none;fill-rule:nonzero;fill:rgb(0%,0%,0%);fill-opacity:1;"
       d="M 64.9375 193.875 L 64.78125 193.84375 C 64.515625 194.296875 64.296875 194.375 63.859375 194.375 L 61.796875 194.375 C 63.21875 193.078125 64.515625 191.90625 64.515625 190.59375 C 64.515625 189.671875 63.71875 189.015625 62.84375 189.015625 C 61.984375 189.015625 61.296875 189.484375 61.03125 190.703125 L 61.234375 190.703125 C 61.484375 190.203125 61.828125 189.6875 62.515625 189.6875 C 63.296875 189.6875 63.734375 190.28125 63.734375 190.953125 C 63.734375 191.921875 62.703125 193.34375 60.9375 194.890625 L 60.9375 195.03125 L 64.46875 195.03125 Z M 64.9375 193.875 "
       id="path182" />
    <path
       style=" stroke:none;fill-rule:nonzero;fill:rgb(0%,0%,0%);fill-opacity:1;"
       d="M 69.082031 193.65625 C 69.082031 193.015625 68.800781 192.53125 67.707031 191.71875 C 68.394531 191.34375 68.925781 190.921875 68.925781 190.265625 C 68.925781 189.578125 68.285156 188.984375 67.332031 188.984375 C 66.488281 188.984375 65.691406 189.53125 65.691406 190.375 C 65.691406 191.03125 66.035156 191.421875 66.800781 192.03125 C 65.941406 192.6875 65.628906 193.015625 65.628906 193.6875 C 65.628906 194.4375 66.300781 195.140625 67.347656 195.140625 C 68.566406 195.140625 69.082031 194.3125 69.082031 193.65625 Z M 68.316406 190.25 C 68.316406 190.890625 67.941406 191.234375 67.457031 191.5625 C 66.863281 191.140625 66.347656 190.671875 66.347656 190.15625 C 66.347656 189.671875 66.691406 189.25 67.300781 189.25 C 67.972656 189.25 68.316406 189.671875 68.316406 190.25 Z M 68.441406 193.90625 C 68.441406 194.484375 68.003906 194.875 67.425781 194.875 C 66.738281 194.875 66.300781 194.328125 66.300781 193.59375 C 66.300781 192.921875 66.628906 192.53125 67.035156 192.1875 C 68.019531 192.9375 68.441406 193.3125 68.441406 193.90625 Z M 68.441406 193.90625 "
       id="path184" />
    <path
       style=" stroke:none;fill-rule:nonzero;fill:rgb(0%,0%,0%);fill-opacity:1;"
       d="M 73.785156 192.078125 C 73.785156 190.46875 73.050781 189.015625 71.800781 189.015625 C 70.535156 189.015625 69.800781 190.46875 69.800781 192.078125 C 69.800781 193.703125 70.488281 195.140625 71.800781 195.140625 C 73.003906 195.140625 73.785156 193.703125 73.785156 192.078125 Z M 72.925781 192.078125 C 72.925781 193.375 72.800781 194.890625 71.800781 194.890625 C 70.847656 194.890625 70.660156 193.375 70.660156 192.078125 C 70.660156 191 70.785156 189.25 71.800781 189.25 C 72.800781 189.25 72.925781 191 72.925781 192.078125 Z M 72.925781 192.078125 "
       id="path186" />
    <path
       style=" stroke:none;fill-rule:nonzero;fill:rgb(0%,0%,0%);fill-opacity:1;"
       d="M 109.921875 193.09375 C 109.921875 192.15625 109.375 191.75 108.84375 191.53125 C 109.421875 191.09375 109.609375 190.6875 109.609375 190.203125 C 109.609375 189.6875 109.1875 189.015625 108.21875 189.015625 C 107.515625 189.015625 106.84375 189.40625 106.546875 190.375 L 106.6875 190.40625 C 106.875 190.046875 107.234375 189.59375 107.890625 189.59375 C 108.53125 189.59375 108.90625 190.03125 108.90625 190.53125 C 108.90625 191.234375 108.359375 191.734375 107.546875 191.921875 L 107.53125 192.109375 C 108.921875 192.046875 109.265625 192.953125 109.265625 193.515625 C 109.265625 194.1875 108.78125 194.796875 108.140625 194.796875 C 107.5625 194.796875 107.3125 194.296875 106.828125 194.296875 C 106.671875 194.296875 106.484375 194.453125 106.484375 194.65625 C 106.484375 195.03125 107.046875 195.140625 107.453125 195.140625 C 108.875 195.140625 109.921875 194.328125 109.921875 193.09375 Z M 109.921875 193.09375 "
       id="path188" />
    <path
       style=" stroke:none;fill-rule:nonzero;fill:rgb(0%,0%,0%);fill-opacity:1;"
       d="M 114.738281 193.875 L 114.582031 193.84375 C 114.316406 194.296875 114.097656 194.375 113.660156 194.375 L 111.597656 194.375 C 113.019531 193.078125 114.316406 191.90625 114.316406 190.59375 C 114.316406 189.671875 113.519531 189.015625 112.644531 189.015625 C 111.785156 189.015625 111.097656 189.484375 110.832031 190.703125 L 111.035156 190.703125 C 111.285156 190.203125 111.628906 189.6875 112.316406 189.6875 C 113.097656 189.6875 113.535156 190.28125 113.535156 190.953125 C 113.535156 191.921875 112.503906 193.34375 110.738281 194.890625 L 110.738281 195.03125 L 114.269531 195.03125 Z M 114.738281 193.875 "
       id="path190" />
    <path
       style=" stroke:none;fill-rule:nonzero;fill:rgb(0%,0%,0%);fill-opacity:1;"
       d="M 119.148438 192.078125 C 119.148438 190.46875 118.414062 189.015625 117.164062 189.015625 C 115.898438 189.015625 115.164062 190.46875 115.164062 192.078125 C 115.164062 193.703125 115.851562 195.140625 117.164062 195.140625 C 118.367188 195.140625 119.148438 193.703125 119.148438 192.078125 Z M 118.289062 192.078125 C 118.289062 193.375 118.164062 194.890625 117.164062 194.890625 C 116.210938 194.890625 116.023438 193.375 116.023438 192.078125 C 116.023438 191 116.148438 189.25 117.164062 189.25 C 118.164062 189.25 118.289062 191 118.289062 192.078125 Z M 118.289062 192.078125 "
       id="path192" />
    <path
       style=" stroke:none;fill-rule:nonzero;fill:rgb(0%,0%,0%);fill-opacity:1;"
       d="M 155.28125 193.09375 C 155.28125 192.15625 154.734375 191.75 154.203125 191.53125 C 154.78125 191.09375 154.96875 190.6875 154.96875 190.203125 C 154.96875 189.6875 154.546875 189.015625 153.578125 189.015625 C 152.875 189.015625 152.203125 189.40625 151.90625 190.375 L 152.046875 190.40625 C 152.234375 190.046875 152.59375 189.59375 153.25 189.59375 C 153.890625 189.59375 154.265625 190.03125 154.265625 190.53125 C 154.265625 191.234375 153.71875 191.734375 152.90625 191.921875 L 152.890625 192.109375 C 154.28125 192.046875 154.625 192.953125 154.625 193.515625 C 154.625 194.1875 154.140625 194.796875 153.5 194.796875 C 152.921875 194.796875 152.671875 194.296875 152.1875 194.296875 C 152.03125 194.296875 151.84375 194.453125 151.84375 194.65625 C 151.84375 195.03125 152.40625 195.140625 152.8125 195.140625 C 154.234375 195.140625 155.28125 194.328125 155.28125 193.09375 Z M 155.28125 193.09375 "
       id="path194" />
    <path
       style=" stroke:none;fill-rule:nonzero;fill:rgb(0%,0%,0%);fill-opacity:1;"
       d="M 160.019531 193.015625 C 160.019531 192.03125 159.316406 191.296875 158.425781 191.296875 C 157.972656 191.296875 157.597656 191.4375 157.207031 191.75 C 157.597656 190.15625 158.769531 189.15625 159.894531 189.140625 L 159.894531 188.984375 C 157.128906 188.984375 156.253906 191.328125 156.253906 192.65625 C 156.253906 194.078125 157.082031 195.140625 158.191406 195.140625 C 159.207031 195.140625 160.019531 194.1875 160.019531 193.015625 Z M 159.253906 193.46875 C 159.253906 194.296875 158.878906 194.875 158.285156 194.875 C 157.363281 194.875 157.082031 193.53125 157.082031 192.8125 C 157.082031 192.578125 157.113281 192.328125 157.160156 192.03125 C 157.550781 191.78125 157.863281 191.671875 158.175781 191.671875 C 159.082031 191.671875 159.253906 192.71875 159.253906 193.46875 Z M 159.253906 193.46875 "
       id="path196" />
    <path
       style=" stroke:none;fill-rule:nonzero;fill:rgb(0%,0%,0%);fill-opacity:1;"
       d="M 164.507812 192.078125 C 164.507812 190.46875 163.773438 189.015625 162.523438 189.015625 C 161.257812 189.015625 160.523438 190.46875 160.523438 192.078125 C 160.523438 193.703125 161.210938 195.140625 162.523438 195.140625 C 163.726562 195.140625 164.507812 193.703125 164.507812 192.078125 Z M 163.648438 192.078125 C 163.648438 193.375 163.523438 194.890625 162.523438 194.890625 C 161.570312 194.890625 161.382812 193.375 161.382812 192.078125 C 161.382812 191 161.507812 189.25 162.523438 189.25 C 163.523438 189.25 163.648438 191 163.648438 192.078125 Z M 163.648438 192.078125 "
       id="path198" />
    <path
       style=" stroke:none;fill-rule:nonzero;fill:rgb(0%,0%,0%);fill-opacity:1;"
       d="M 201.003906 193.546875 L 201.003906 192.9375 L 200.128906 192.9375 L 200.128906 189.015625 L 199.691406 189.015625 L 197.097656 192.921875 L 197.097656 193.546875 L 199.394531 193.546875 L 199.394531 195.03125 L 200.128906 195.03125 L 200.128906 193.546875 Z M 199.394531 192.9375 L 197.457031 192.9375 L 199.378906 189.953125 L 199.394531 189.953125 Z M 199.394531 192.9375 "
       id="path200" />
    <path
       style=" stroke:none;fill-rule:nonzero;fill:rgb(0%,0%,0%);fill-opacity:1;"
       d="M 205.425781 192.078125 C 205.425781 190.46875 204.691406 189.015625 203.441406 189.015625 C 202.175781 189.015625 201.441406 190.46875 201.441406 192.078125 C 201.441406 193.703125 202.128906 195.140625 203.441406 195.140625 C 204.644531 195.140625 205.425781 193.703125 205.425781 192.078125 Z M 204.566406 192.078125 C 204.566406 193.375 204.441406 194.890625 203.441406 194.890625 C 202.488281 194.890625 202.300781 193.375 202.300781 192.078125 C 202.300781 191 202.425781 189.25 203.441406 189.25 C 204.441406 189.25 204.566406 191 204.566406 192.078125 Z M 204.566406 192.078125 "
       id="path202" />
    <path
       style=" stroke:none;fill-rule:nonzero;fill:rgb(0%,0%,0%);fill-opacity:1;"
       d="M 209.867188 192.078125 C 209.867188 190.46875 209.132812 189.015625 207.882812 189.015625 C 206.617188 189.015625 205.882812 190.46875 205.882812 192.078125 C 205.882812 193.703125 206.570312 195.140625 207.882812 195.140625 C 209.085938 195.140625 209.867188 193.703125 209.867188 192.078125 Z M 209.007812 192.078125 C 209.007812 193.375 208.882812 194.890625 207.882812 194.890625 C 206.929688 194.890625 206.742188 193.375 206.742188 192.078125 C 206.742188 191 206.867188 189.25 207.882812 189.25 C 208.882812 189.25 209.007812 191 209.007812 192.078125 Z M 209.007812 192.078125 "
       id="path204" />
    <path
       style=" stroke:none;fill-rule:nonzero;fill:rgb(0%,0%,0%);fill-opacity:1;"
       d="M 18.347656 185.71875 C 18.347656 184.109375 17.613281 182.65625 16.363281 182.65625 C 15.097656 182.65625 14.363281 184.109375 14.363281 185.71875 C 14.363281 187.34375 15.050781 188.78125 16.363281 188.78125 C 17.566406 188.78125 18.347656 187.34375 18.347656 185.71875 Z M 17.488281 185.71875 C 17.488281 187.015625 17.363281 188.53125 16.363281 188.53125 C 15.410156 188.53125 15.222656 187.015625 15.222656 185.71875 C 15.222656 184.640625 15.347656 182.890625 16.363281 182.890625 C 17.363281 182.890625 17.488281 184.640625 17.488281 185.71875 Z M 17.488281 185.71875 "
       id="path206" />
    <path
       style=" stroke:none;fill-rule:nonzero;fill:rgb(0%,0%,0%);fill-opacity:1;"
       d="M 18.378906 159.078125 L 18.222656 159.046875 C 17.957031 159.5 17.738281 159.578125 17.300781 159.578125 L 15.238281 159.578125 C 16.660156 158.28125 17.957031 157.109375 17.957031 155.796875 C 17.957031 154.875 17.160156 154.21875 16.285156 154.21875 C 15.425781 154.21875 14.738281 154.6875 14.472656 155.90625 L 14.675781 155.90625 C 14.925781 155.40625 15.269531 154.890625 15.957031 154.890625 C 16.738281 154.890625 17.175781 155.484375 17.175781 156.15625 C 17.175781 157.125 16.144531 158.546875 14.378906 160.09375 L 14.378906 160.234375 L 17.910156 160.234375 Z M 18.378906 159.078125 "
       id="path208" />
    <path
       style=" stroke:none;fill-rule:nonzero;fill:rgb(0%,0%,0%);fill-opacity:1;"
       d="M 18.363281 130.429688 L 18.363281 129.820312 L 17.488281 129.820312 L 17.488281 125.898438 L 17.050781 125.898438 L 14.457031 129.804688 L 14.457031 130.429688 L 16.753906 130.429688 L 16.753906 131.914062 L 17.488281 131.914062 L 17.488281 130.429688 Z M 16.753906 129.820312 L 14.816406 129.820312 L 16.738281 126.835938 L 16.753906 126.835938 Z M 16.753906 129.820312 "
       id="path210" />
    <path
       style=" stroke:none;fill-rule:nonzero;fill:rgb(0%,0%,0%);fill-opacity:1;"
       d="M 18.300781 101.578125 C 18.300781 100.59375 17.597656 99.859375 16.707031 99.859375 C 16.253906 99.859375 15.878906 100 15.488281 100.3125 C 15.878906 98.71875 17.050781 97.71875 18.175781 97.703125 L 18.175781 97.546875 C 15.410156 97.546875 14.535156 99.890625 14.535156 101.21875 C 14.535156 102.640625 15.363281 103.703125 16.472656 103.703125 C 17.488281 103.703125 18.300781 102.75 18.300781 101.578125 Z M 17.535156 102.03125 C 17.535156 102.859375 17.160156 103.4375 16.566406 103.4375 C 15.644531 103.4375 15.363281 102.09375 15.363281 101.375 C 15.363281 101.140625 15.394531 100.890625 15.441406 100.59375 C 15.832031 100.34375 16.144531 100.234375 16.457031 100.234375 C 17.363281 100.234375 17.535156 101.28125 17.535156 102.03125 Z M 17.535156 102.03125 "
       id="path212" />
    <path
       style=" stroke:none;fill-rule:nonzero;fill:rgb(0%,0%,0%);fill-opacity:1;"
       d="M 18.082031 73.898438 C 18.082031 73.257812 17.800781 72.773438 16.707031 71.960938 C 17.394531 71.585938 17.925781 71.164062 17.925781 70.507812 C 17.925781 69.820312 17.285156 69.226562 16.332031 69.226562 C 15.488281 69.226562 14.691406 69.773438 14.691406 70.617188 C 14.691406 71.273438 15.035156 71.664062 15.800781 72.273438 C 14.941406 72.929688 14.628906 73.257812 14.628906 73.929688 C 14.628906 74.679688 15.300781 75.382812 16.347656 75.382812 C 17.566406 75.382812 18.082031 74.554688 18.082031 73.898438 Z M 17.316406 70.492188 C 17.316406 71.132812 16.941406 71.476562 16.457031 71.804688 C 15.863281 71.382812 15.347656 70.914062 15.347656 70.398438 C 15.347656 69.914062 15.691406 69.492188 16.300781 69.492188 C 16.972656 69.492188 17.316406 69.914062 17.316406 70.492188 Z M 17.441406 74.148438 C 17.441406 74.726562 17.003906 75.117188 16.425781 75.117188 C 15.738281 75.117188 15.300781 74.570312 15.300781 73.835938 C 15.300781 73.164062 15.628906 72.773438 16.035156 72.429688 C 17.019531 73.179688 17.441406 73.554688 17.441406 74.148438 Z M 17.441406 74.148438 "
       id="path214" />
    <path
       style=" stroke:none;fill-rule:nonzero;fill:rgb(0%,0%,0%);fill-opacity:1;"
       d="M 13.15625 46.953125 L 13.15625 46.8125 C 12.5625 46.8125 12.34375 46.828125 12.34375 45.65625 C 12.34375 45.640625 12.34375 40.90625 12.34375 40.90625 L 12.21875 40.90625 L 10.6875 41.640625 L 10.734375 41.78125 C 11.0625 41.640625 11.140625 41.609375 11.265625 41.609375 C 11.53125 41.609375 11.578125 41.84375 11.578125 42.15625 L 11.578125 45.65625 C 11.578125 46.828125 11.359375 46.796875 10.765625 46.8125 L 10.765625 46.953125 Z M 13.15625 46.953125 "
       id="path216" />
    <path
       style=" stroke:none;fill-rule:nonzero;fill:rgb(0%,0%,0%);fill-opacity:1;"
       d="M 18.347656 44 C 18.347656 42.390625 17.613281 40.9375 16.363281 40.9375 C 15.097656 40.9375 14.363281 42.390625 14.363281 44 C 14.363281 45.625 15.050781 47.0625 16.363281 47.0625 C 17.566406 47.0625 18.347656 45.625 18.347656 44 Z M 17.488281 44 C 17.488281 45.296875 17.363281 46.8125 16.363281 46.8125 C 15.410156 46.8125 15.222656 45.296875 15.222656 44 C 15.222656 42.921875 15.347656 41.171875 16.363281 41.171875 C 17.363281 41.171875 17.488281 42.921875 17.488281 44 Z M 17.488281 44 "
       id="path218" />
    <path
       style=" stroke:none;fill-rule:nonzero;fill:rgb(0%,0%,0%);fill-opacity:1;"
       d="M 13.15625 18.511719 L 13.15625 18.371094 C 12.5625 18.371094 12.34375 18.386719 12.34375 17.214844 C 12.34375 17.199219 12.34375 12.464844 12.34375 12.464844 L 12.21875 12.464844 L 10.6875 13.199219 L 10.734375 13.339844 C 11.0625 13.199219 11.140625 13.167969 11.265625 13.167969 C 11.53125 13.167969 11.578125 13.402344 11.578125 13.714844 L 11.578125 17.214844 C 11.578125 18.386719 11.359375 18.355469 10.765625 18.371094 L 10.765625 18.511719 Z M 13.15625 18.511719 "
       id="path220" />
    <path
       style=" stroke:none;fill-rule:nonzero;fill:rgb(0%,0%,0%);fill-opacity:1;"
       d="M 18.378906 17.355469 L 18.222656 17.324219 C 17.957031 17.777344 17.738281 17.855469 17.300781 17.855469 L 15.238281 17.855469 C 16.660156 16.558594 17.957031 15.386719 17.957031 14.074219 C 17.957031 13.152344 17.160156 12.496094 16.285156 12.496094 C 15.425781 12.496094 14.738281 12.964844 14.472656 14.183594 L 14.675781 14.183594 C 14.925781 13.683594 15.269531 13.167969 15.957031 13.167969 C 16.738281 13.167969 17.175781 13.761719 17.175781 14.433594 C 17.175781 15.402344 16.144531 16.824219 14.378906 18.371094 L 14.378906 18.511719 L 17.910156 18.511719 Z M 18.378906 17.355469 "
       id="path222" />
    <path
       style=" stroke:none;fill-rule:nonzero;fill:rgb(0%,0%,0%);fill-opacity:1;"
       d="M 115.964844 200.988281 L 110.949219 200.988281 L 110.527344 202.519531 L 110.699219 202.519531 C 111.074219 201.535156 111.542969 201.316406 112.324219 201.316406 C 112.324219 201.316406 112.839844 201.316406 112.949219 201.316406 L 111.652344 205.988281 C 111.402344 206.894531 111.089844 206.878906 110.730469 206.878906 L 110.714844 207.035156 L 113.074219 207.035156 L 113.105469 206.878906 C 112.761719 206.878906 112.417969 206.894531 112.417969 206.441406 C 112.417969 206.316406 112.449219 206.175781 112.496094 205.988281 L 113.777344 201.316406 L 114.527344 201.316406 C 114.964844 201.316406 115.433594 201.378906 115.433594 202.003906 C 115.433594 202.144531 115.417969 202.300781 115.371094 202.519531 L 115.542969 202.519531 Z M 115.964844 200.988281 "
       id="path224" />
    <path
       style=" stroke:none;fill-rule:nonzero;fill:rgb(0%,0%,0%);fill-opacity:1;"
       d="M 119.9375 200.597656 L 119.5 200.597656 L 116.390625 208.957031 L 116.84375 208.957031 Z M 119.9375 200.597656 "
       id="path226" />
    <path
       style=" stroke:none;fill-rule:nonzero;fill:rgb(0%,0%,0%);fill-opacity:1;"
       d="M 124.175781 201.269531 C 124.722656 201.300781 124.785156 201.332031 124.785156 201.550781 C 124.785156 201.738281 124.582031 202.019531 124.082031 202.472656 L 122.503906 203.910156 L 122.503906 202.082031 C 122.503906 201.410156 122.597656 201.316406 123.332031 201.269531 L 123.332031 201.097656 L 120.785156 201.097656 L 120.785156 201.269531 C 121.472656 201.316406 121.566406 201.425781 121.582031 202.082031 L 121.582031 205.957031 C 121.582031 206.722656 121.472656 206.816406 120.785156 206.863281 L 120.785156 207.035156 L 123.300781 207.035156 L 123.300781 206.863281 C 122.613281 206.816406 122.503906 206.722656 122.503906 206.050781 L 122.503906 204.378906 L 122.738281 204.191406 L 123.675781 205.128906 C 124.378906 205.832031 124.847656 206.441406 124.847656 206.660156 C 124.847656 206.800781 124.738281 206.847656 124.472656 206.863281 C 124.425781 206.863281 124.332031 206.863281 124.222656 206.863281 L 124.222656 207.035156 L 126.957031 207.035156 L 126.957031 206.863281 C 126.488281 206.863281 126.363281 206.769531 125.550781 205.894531 L 123.457031 203.660156 L 125.160156 201.972656 C 125.769531 201.378906 125.910156 201.316406 126.519531 201.269531 L 126.519531 201.097656 L 124.175781 201.097656 Z M 124.175781 201.269531 "
       id="path228" />
    <path
       style=" stroke:none;fill-rule:nonzero;fill:rgb(0%,0%,0%);fill-opacity:1;"
       d="M 6.597656 112.496094 L 6.597656 112.667969 C 7.316406 112.886719 7.628906 113.261719 7.628906 113.683594 C 7.628906 113.886719 7.425781 114.011719 7.113281 114.011719 C 6.894531 114.011719 6.644531 113.949219 6.519531 113.917969 L 3.847656 113.277344 L 3.847656 113.964844 L 5.660156 114.417969 C 7.097656 114.761719 7.769531 115.449219 7.769531 115.949219 C 7.769531 116.292969 7.300781 116.542969 6.878906 116.542969 C 6.707031 116.542969 6.519531 116.527344 6.332031 116.480469 L 3.847656 115.917969 L 3.847656 116.542969 C 3.847656 116.496094 7.144531 117.324219 7.144531 117.324219 C 8.363281 117.605469 9.238281 117.933594 9.519531 117.933594 C 9.660156 117.933594 9.863281 117.886719 9.863281 117.652344 C 9.863281 117.511719 9.785156 117.277344 9.378906 117.183594 C 9.378906 117.183594 7.738281 116.792969 7.238281 116.699219 C 7.457031 116.699219 8.050781 116.480469 8.050781 116.027344 C 8.050781 115.277344 7.160156 114.636719 7.035156 114.574219 C 7.441406 114.558594 8.050781 114.402344 8.050781 113.808594 C 8.050781 113.074219 7.222656 112.652344 6.597656 112.496094 Z M 6.597656 112.496094 "
       id="path230" />
    <path
       style=" stroke:none;fill-rule:nonzero;fill:rgb(0%,0%,0%);fill-opacity:1;"
       d="M 10.097656 107.101562 C 10.066406 107.414062 10.003906 107.492188 9.488281 107.726562 L 5.519531 109.460938 L 5.519531 109.601562 L 8.941406 111.054688 C 9.957031 111.507812 10.082031 111.585938 10.097656 111.914062 L 10.222656 111.914062 L 10.222656 110.539062 L 10.097656 110.539062 C 10.097656 110.867188 10.003906 111.007812 9.800781 111.007812 C 9.722656 111.007812 9.628906 110.992188 9.535156 110.960938 L 8.722656 110.632812 L 8.722656 108.804688 L 9.378906 108.523438 C 9.582031 108.445312 9.753906 108.398438 9.847656 108.398438 C 10.035156 108.398438 10.082031 108.507812 10.097656 108.882812 L 10.222656 108.882812 L 10.222656 107.101562 Z M 8.425781 110.523438 L 6.519531 109.710938 L 8.425781 108.914062 Z M 8.425781 110.523438 "
       id="path232" />
    <path
       style=" stroke:none;fill-rule:nonzero;fill:rgb(0%,0%,0%);fill-opacity:1;"
       d="M 1.503906 102.71875 L 1.503906 103.15625 L 9.863281 106.265625 L 9.863281 105.8125 Z M 1.503906 102.71875 "
       id="path234" />
    <path
       style=" stroke:none;fill-rule:nonzero;fill:rgb(0%,0%,0%);fill-opacity:1;"
       d="M 7.941406 102.121094 L 7.941406 100.027344 L 7.800781 100.027344 L 7.800781 100.199219 C 7.769531 100.574219 7.675781 100.683594 7.347656 100.699219 L 5.691406 100.699219 L 7.363281 99.433594 C 7.410156 99.402344 7.457031 99.371094 7.488281 99.355469 C 7.566406 99.277344 7.628906 99.246094 7.675781 99.246094 C 7.753906 99.246094 7.800781 99.324219 7.800781 99.433594 L 7.800781 99.605469 L 7.941406 99.605469 L 7.941406 97.652344 L 7.800781 97.652344 C 7.785156 98.042969 7.613281 98.324219 7.144531 98.699219 L 5.410156 100.074219 L 5.175781 99.808594 C 4.160156 98.699219 4.019531 98.449219 4.035156 97.871094 L 3.910156 97.871094 L 3.910156 99.714844 L 4.035156 99.714844 C 4.035156 99.355469 4.082031 99.261719 4.191406 99.261719 C 4.269531 99.261719 4.394531 99.339844 4.503906 99.464844 L 5.597656 100.699219 L 1.832031 100.699219 L 1.816406 100.730469 C 1.925781 101.074219 2.003906 101.339844 2.144531 101.855469 L 2.207031 102.121094 L 2.347656 102.121094 C 2.347656 102.011719 2.332031 101.917969 2.332031 101.839844 C 2.332031 101.527344 2.457031 101.449219 2.878906 101.449219 L 7.207031 101.449219 C 7.675781 101.464844 7.707031 101.480469 7.800781 102.121094 Z M 7.941406 102.121094 "
       id="path236" />
    <path
       style=" stroke:none;fill-rule:nonzero;fill:rgb(0%,0%,0%);fill-opacity:1;"
       d="M 2.003906 94.429688 L 2.003906 96.992188 L 2.175781 96.992188 C 2.222656 96.273438 2.316406 96.179688 2.988281 96.164062 L 7.128906 96.164062 C 7.535156 96.164062 7.722656 96.273438 7.722656 96.507812 C 7.722656 96.632812 7.660156 96.679688 7.425781 96.742188 C 7.113281 96.835938 6.972656 96.976562 6.972656 97.210938 C 6.972656 97.460938 7.175781 97.648438 7.425781 97.648438 C 7.800781 97.648438 8.066406 97.289062 8.066406 96.757812 C 8.066406 95.789062 7.425781 95.242188 6.300781 95.242188 L 2.988281 95.242188 C 2.316406 95.226562 2.222656 95.148438 2.175781 94.429688 Z M 2.003906 94.429688 "
       id="path238" />
    <path
       style=" stroke:none;fill-rule:nonzero;fill:rgb(0%,0%,0%);fill-opacity:1;"
       d="M 7.941406 92.441406 L 7.941406 90.441406 L 7.800781 90.441406 C 7.800781 90.910156 7.707031 91.050781 7.347656 91.050781 L 4.816406 91.050781 C 4.800781 91.050781 4.707031 90.988281 4.644531 90.925781 C 4.441406 90.691406 4.285156 90.316406 4.285156 90.003906 C 4.285156 89.597656 4.597656 89.410156 5.222656 89.410156 L 7.175781 89.410156 C 7.675781 89.425781 7.785156 89.519531 7.800781 90.019531 L 7.941406 90.019531 L 7.941406 88.003906 L 7.800781 88.003906 C 7.800781 88.503906 7.660156 88.628906 7.082031 88.660156 L 4.832031 88.660156 C 4.441406 88.378906 4.285156 88.097656 4.285156 87.675781 C 4.285156 87.160156 4.519531 87.003906 5.269531 87.003906 L 7.160156 87.003906 C 7.691406 87.019531 7.753906 87.082031 7.800781 87.597656 L 7.941406 87.597656 L 7.941406 85.628906 L 7.800781 85.628906 L 7.785156 85.863281 C 7.738281 86.144531 7.613281 86.253906 7.253906 86.253906 L 5.410156 86.253906 C 4.347656 86.253906 3.816406 86.597656 3.816406 87.285156 C 3.816406 87.816406 4.050781 88.269531 4.566406 88.753906 C 4.050781 88.910156 3.816406 89.222656 3.816406 89.707031 C 3.816406 90.113281 3.925781 90.347656 4.503906 91.097656 L 3.832031 91.097656 L 3.816406 91.160156 C 3.988281 91.628906 4.082031 91.941406 4.222656 92.410156 L 4.378906 92.410156 C 4.347656 92.300781 4.332031 92.222656 4.332031 92.128906 C 4.332031 91.894531 4.472656 91.816406 4.910156 91.816406 L 7.175781 91.816406 C 7.675781 91.832031 7.800781 91.941406 7.800781 92.441406 Z M 7.941406 92.441406 "
       id="path240" />
    <path
       style=" stroke:none;fill-rule:nonzero;fill:rgb(0%,0%,0%);fill-opacity:1;"
       d="M 3.816406 83.375 C 3.816406 84.5625 4.675781 85.359375 5.910156 85.359375 C 7.128906 85.359375 8.035156 84.53125 8.035156 83.40625 C 8.035156 82.265625 7.082031 81.40625 5.847656 81.40625 C 4.660156 81.40625 3.816406 82.234375 3.816406 83.375 Z M 4.066406 83.5 C 4.066406 82.75 4.925781 82.21875 6.160156 82.21875 C 7.175781 82.21875 7.785156 82.625 7.785156 83.296875 C 7.785156 83.640625 7.566406 83.96875 7.207031 84.15625 C 6.738281 84.421875 6.113281 84.5625 5.472656 84.5625 C 4.628906 84.5625 4.066406 84.140625 4.066406 83.5 Z M 4.066406 83.5 "
       id="path242" />
    <path
       style=" stroke:none;fill-rule:nonzero;fill:rgb(0%,0%,0%);fill-opacity:1;"
       d="M 7.941406 80.996094 L 7.941406 78.871094 L 7.800781 78.871094 C 7.785156 79.449219 7.691406 79.542969 7.191406 79.558594 L 1.832031 79.558594 L 1.816406 79.589844 C 1.957031 80.042969 2.050781 80.371094 2.207031 81.011719 L 2.347656 81.011719 L 2.347656 80.964844 C 2.347656 80.855469 2.332031 80.746094 2.332031 80.683594 C 2.332031 80.386719 2.457031 80.308594 2.878906 80.308594 L 7.160156 80.308594 C 7.644531 80.308594 7.769531 80.433594 7.800781 80.996094 Z M 7.941406 80.996094 "
       id="path244" />
    <path
       style=" stroke:none;fill-rule:nonzero;fill:rgb(0%,0%,0%);fill-opacity:1;"
       d="M 2.46875 78.242188 L 2.90625 78.242188 L 2.90625 73.539062 L 2.46875 73.539062 Z M 2.46875 78.242188 "
       id="path246" />
    <path
       style=" stroke:none;fill-rule:nonzero;fill:rgb(0%,0%,0%);fill-opacity:1;"
       d="M 4.703125 69.988281 L 4.515625 69.988281 C 4.515625 70.519531 4.515625 70.691406 3.671875 70.691406 C 3.65625 70.691406 0 70.691406 0 70.691406 L 0 70.863281 L 0.578125 72.207031 L 0.765625 72.128906 C 0.640625 71.816406 0.625 71.753906 0.625 71.660156 C 0.625 71.457031 0.796875 71.441406 1 71.441406 L 3.671875 71.441406 C 4.515625 71.441406 4.5 71.597656 4.515625 72.128906 L 4.703125 72.128906 Z M 4.703125 69.988281 "
       id="path248" />
    <path
       style="display:none;fill:none;stroke:#000000;stroke-width:8.50361;stroke-linecap:butt;stroke-linejoin:miter;stroke-miterlimit:10;stroke-dasharray:27.6043, 13.802;stroke-opacity:1"
       d="m 596.5625,1750.8203 9.45312,-4.7265 11.64063,-6.1719 11.21094,-5.8203 11.25,-5.7813 11.28906,-5.8203 11.60156,-6.1719 11.21094,-5.8203 11.25,-6.1328 11.28906,-5.8203 11.21094,-6.1719 11.60156,-6.1719 11.28906,-5.8203"
       transform="matrix(0.1,0,0,-0.1,0,209)"
       id="path852" />
    <path
       style="display:none;fill:none;stroke:#000000;stroke-width:8.50363;stroke-linecap:butt;stroke-linejoin:miter;stroke-miterlimit:10;stroke-dasharray:25.6977, 12.8488;stroke-opacity:1"
       d="m 596.5625,1751.0156 -1.83594,1.0938 -11.25,9.414 -11.21094,8.6719 -11.5625,8.711 -11.25,9.0234 -11.17187,8.7109 -11.64063,8.6719 -11.17187,9.0625"
       transform="matrix(0.1,0,0,-0.1,0,209)"
       id="path1717" />
    <path
       style="display:none;fill:none;stroke:#000000;stroke-width:8.50361;stroke-linecap:butt;stroke-linejoin:miter;stroke-miterlimit:10;stroke-dasharray:28.4528, 14.2263;stroke-opacity:1"
       d="m 1725.8203,681.91406 2.6172,-4.0625 11.4844,-12.1875 11.0547,-12.57812 11.4843,-12.1875 11.4063,-12.57813 11.0937,-12.53906 22.9688,-25.15625 11.0547,-12.57813 11.4844,-12.53906"
       transform="matrix(0.1,0,0,-0.1,0,209)"
       id="path2030" />
    <path
       style="display:none;fill:none;stroke:#000000;stroke-width:8.50362;stroke-linecap:butt;stroke-linejoin:miter;stroke-miterlimit:10;stroke-dasharray:31.4795, 15.7396;stroke-opacity:1"
       d="m 1725.9375,681.99219 -8.7891,21.75781 -11.4453,27.69531 -11.0937,27.65625 -11.4063,27.69531 -22.8906,55.3125"
       transform="matrix(0.1,0,0,-0.1,0,209)"
       id="path2345" />
  </g>
</svg>
