%!PS-Adobe-3.0 EPSF-3.0
%%Creator: cairo 1.17.4 (https://cairographics.org)
%%CreationDate: Thu Feb 24 10:49:19 2022
%%Pages: 1
%%DocumentData: Clean7Bit
%%LanguageLevel: 2
%%BoundingBox: 0 0 210 208
%%EndComments
%%BeginProlog
50 dict begin
/q { gsave } bind def
/Q { grestore } bind def
/cm { 6 array astore concat } bind def
/w { setlinewidth } bind def
/J { setlinecap } bind def
/j { setlinejoin } bind def
/M { setmiterlimit } bind def
/d { setdash } bind def
/m { moveto } bind def
/l { lineto } bind def
/c { curveto } bind def
/h { closepath } bind def
/re { exch dup neg 3 1 roll 5 3 roll moveto 0 rlineto
      0 exch rlineto 0 rlineto closepath } bind def
/S { stroke } bind def
/f { fill } bind def
/f* { eofill } bind def
/n { newpath } bind def
/W { clip } bind def
/W* { eoclip } bind def
/BT { } bind def
/ET { } bind def
/BDC { mark 3 1 roll /BDC pdfmark } bind def
/EMC { mark /EMC pdfmark } bind def
/cairo_store_point { /cairo_point_y exch def /cairo_point_x exch def } def
/Tj { show currentpoint cairo_store_point } bind def
/TJ {
  {
    dup
    type /stringtype eq
    { show } { -0.001 mul 0 cairo_font_matrix dtransform rmoveto } ifelse
  } forall
  currentpoint cairo_store_point
} bind def
/cairo_selectfont { cairo_font_matrix aload pop pop pop 0 0 6 array astore
    cairo_font exch selectfont cairo_point_x cairo_point_y moveto } bind def
/Tf { pop /cairo_font exch def /cairo_font_matrix where
      { pop cairo_selectfont } if } bind def
/Td { matrix translate cairo_font_matrix matrix concatmatrix dup
      /cairo_font_matrix exch def dup 4 get exch 5 get cairo_store_point
      /cairo_font where { pop cairo_selectfont } if } bind def
/Tm { 2 copy 8 2 roll 6 array astore /cairo_font_matrix exch def
      cairo_store_point /cairo_font where { pop cairo_selectfont } if } bind def
/g { setgray } bind def
/rg { setrgbcolor } bind def
/d1 { setcachedevice } bind def
/cairo_data_source {
  CairoDataIndex CairoData length lt
    { CairoData CairoDataIndex get /CairoDataIndex CairoDataIndex 1 add def }
    { () } ifelse
} def
/cairo_flush_ascii85_file { cairo_ascii85_file status { cairo_ascii85_file flushfile } if } def
/cairo_image { image cairo_flush_ascii85_file } def
/cairo_imagemask { imagemask cairo_flush_ascii85_file } def
%%EndProlog
%%BeginSetup
%%EndSetup
%%Page: 1 1
%%BeginPageSetup
%%PageBoundingBox: 0 0 210 208
%%EndPageSetup
q 0 0 210 208 rectclip
1 0 0 -1 0 208 cm q
0 g
0.850363 w
0 J
0 j
[] 0.0 d
10 M q 1 0 0 -1 0 0 cm
59.656 -32.898 m 59.473 -32.824 l 58.348 -32.246 l 57.227 -31.633 l 56.07
 -31.051 l 53.828 -29.895 l 52.664 -29.312 l 51.547 -28.77 l 50.422 -28.191
 l 49.266 -27.613 l 48.141 -27.035 l 47.02 -26.492 l 45.895 -25.91 l 44.738
 -25.367 l 43.613 -24.789 l 42.496 -24.246 l 41.332 -23.668 l 39.094 -22.582
 l 37.93 -22 l 36.812 -21.457 l 35.688 -20.914 l 34.531 -20.371 l 33.406
 -19.828 l 32.285 -19.285 l 31.125 -18.742 l 30.004 -18.199 l 28.879 -17.691
 l 27.762 -17.148 l 26.598 -16.605 l 25.48 -16.102 l 24.352 -15.555 l 23.199
 -15.012 l 22.074 -14.508 l S Q
0.850361 w
q 1 0 0 -1 0 0 cm
59.656 -32.918 m 60.602 -33.391 l 61.766 -34.008 l 62.109 -34.184 l 63.336
 -34.82 m 64.012 -35.168 l 65.141 -35.75 l 65.785 -36.09 l 67.008 -36.73
 m 67.422 -36.949 l 68.547 -37.559 l 69.445 -38.023 l 70.656 -38.684 m 70.797
 -38.762 l 71.957 -39.379 l 73.086 -39.961 l S Q
0.850362 w
q 1 0 0 -1 0 0 cm
59.656 -32.91 m 60.613 -33.684 l 61.758 -34.57 l 62.863 -35.492 l 64.008
 -36.379 l 65.152 -37.301 l 66.293 -38.223 l 67.402 -39.145 l 68.551 -40.066
 l 69.688 -40.988 l 70.832 -41.949 l 71.945 -42.871 l 73.082 -43.832 l 74.227
 -44.754 l 75.34 -45.711 l 76.477 -46.672 l 77.621 -47.633 l 78.766 -48.59
 l 79.871 -49.551 l 81.016 -50.508 l 82.16 -51.469 l 83.305 -52.465 l 84.41
 -53.426 l 86.699 -55.418 l 87.805 -56.414 l 88.949 -57.371 l 90.094 -58.406
 l 91.242 -59.402 l 92.344 -60.398 l 93.492 -61.395 l 94.637 -62.426 l 95.738
 -63.422 l 96.887 -64.457 l 98.031 -65.453 l 99.168 -66.484 l 100.281 -67.52
 l 101.426 -68.551 l 102.562 -69.586 l 103.707 -70.617 l 104.82 -71.688 
l 105.957 -72.723 l 107.102 -73.754 l 108.215 -74.824 l 109.352 -75.895 
l 110.496 -76.93 l 111.641 -77.996 l 112.746 -79.066 l 116.184 -82.277 l
 117.285 -83.387 l 118.43 -84.453 l 119.578 -85.523 l 120.68 -86.633 l 121.828
 -87.738 l 122.973 -88.809 l 124.117 -89.914 l 125.223 -91.023 l 126.367
 -92.129 l 127.512 -93.238 l 128.656 -94.344 l 129.762 -95.488 l 132.051
 -97.699 l 133.156 -98.844 l 134.301 -99.988 l 135.445 -101.094 l 136.582
 -102.238 l 137.695 -103.383 l 138.84 -104.527 l 139.977 -105.672 l 141.09
 -106.816 l 142.234 -107.957 l 143.371 -109.141 l 144.52 -110.281 l 145.629
 -111.426 l 146.77 -112.609 l 147.914 -113.789 l 149.059 -114.934 l 150.164
 -116.113 l 152.453 -118.473 l 153.559 -119.656 l 155.848 -122.016 l 156.992
 -123.234 l 158.098 -124.414 l 159.242 -125.594 l 161.531 -128.031 l 162.637
 -129.211 l 163.781 -130.43 l 164.926 -131.645 l 166.031 -132.863 l 168.32
 -135.301 l 169.461 -136.516 l 170.57 -137.734 l 171.715 -138.988 l 172.594
 -139.949 l S Q
0.850363 w
q 1 0 0 -1 0 0 cm
59.656 -32.895 m 59.473 -32.789 l 58.348 -31.848 l 57.645 -31.301 l 56.621
 -30.523 m 56.07 -30.105 l 54.945 -29.207 l 54.602 -28.938 l 53.582 -28.152
 m 52.664 -27.469 l 51.559 -26.57 l S Q
0.850361 w
q 1 0 0 -1 0 0 cm
172.582 -139.809 m 172.844 -140.215 l 173.992 -141.434 l 174.445 -141.949
 l 175.395 -143.008 m 176.246 -143.91 l 177.324 -145.098 l 178.27 -146.164
 m 178.496 -146.422 l 180.184 -148.27 l 181.137 -149.324 m 181.898 -150.195
 l 183.039 -151.438 l S Q
q 1 0 0 -1 0 0 cm
172.598 -139.793 m 172.852 -140.422 l 173.965 -143.199 l 175.109 -145.977
 l 176.258 -148.75 l 177.371 -151.527 l 178.52 -154.301 l 179.664 -157.078
 l 180.777 -159.891 l 181.926 -162.664 l 183.031 -165.441 l 184.18 -168.254
 l 185.324 -171.031 l 186.438 -173.844 l 187.586 -176.617 l 188.734 -179.43
 l 189.84 -182.207 l 190.801 -184.574 l S Q
0.850362 w
q 1 0 0 -1 0 0 cm
172.594 -139.801 m 171.715 -137.625 l 171.41 -136.883 l 170.809 -135.43
 m 170.57 -134.855 l 169.629 -132.508 l 169.035 -131.051 m 168.32 -129.32
 l 167.832 -128.141 l 167.23 -126.688 m 166.031 -123.789 l S Q
0.85036 w
q 1 0 0 -1 0 0 cm
47.324 -26.641 m 48.137 -27.27 l 49.281 -28.156 l 50.426 -29.004 l 51.535
 -29.891 l 53.82 -31.664 l 54.926 -32.551 l 56.07 -33.434 l 57.219 -34.359
 l 58.363 -35.246 l 59.473 -36.168 l 60.617 -37.055 l 61.762 -37.977 l 62.863
 -38.898 l 64.008 -39.82 l 65.152 -40.746 l 66.301 -41.703 l 67.406 -42.629
 l 68.555 -43.551 l 69.699 -44.512 l 70.801 -45.434 l 73.09 -47.355 l 74.199
 -48.312 l 76.488 -50.234 l 77.633 -51.191 l 78.742 -52.191 l 79.887 -53.148
 l 81.027 -54.148 l 82.141 -55.105 l 83.281 -56.102 l 84.426 -57.102 l 85.57
 -58.098 l 86.68 -59.094 l 88.969 -61.086 l 90.078 -62.121 l 91.223 -63.117
 l 92.363 -64.152 l 93.508 -65.148 l 94.617 -66.184 l 95.762 -67.215 l 96.906
 -68.25 l 98.016 -69.285 l 99.16 -70.316 l 100.305 -71.352 l 101.414 -72.383
 l 102.559 -73.457 l 103.699 -74.488 l 104.844 -75.559 l 105.949 -76.629
 l 107.098 -77.664 l 108.242 -78.734 l 109.352 -79.805 l 111.641 -81.945
 l 112.785 -83.055 l 113.887 -84.125 l 115.031 -85.195 l 116.176 -86.305
 l 117.285 -87.41 l 118.434 -88.48 l 119.578 -89.59 l 120.68 -90.695 l 121.824
 -91.805 l 122.969 -92.91 l 124.113 -94.02 l 125.223 -95.125 l 126.367 -96.27
 l 127.512 -97.379 l 128.621 -98.523 l 129.766 -99.629 l 135.449 -105.316
 l 136.559 -106.461 l 137.703 -107.641 l 138.848 -108.785 l 139.957 -109.93
 l 141.102 -111.113 l 142.242 -112.258 l 143.387 -113.438 l 144.492 -114.582
 l 145.641 -115.766 l 146.785 -116.945 l 147.895 -118.129 l 150.184 -120.488
 l 151.324 -121.672 l 152.43 -122.891 l 153.574 -124.07 l 154.723 -125.254
 l 155.828 -126.473 l 156.977 -127.688 l 158.121 -128.871 l 159.223 -130.09
 l 161.512 -132.527 l 162.656 -133.742 l 163.766 -134.961 l 166.055 -137.398
 l 167.164 -138.652 l 168.309 -139.871 l 169.449 -141.129 l 170.594 -142.348
 l 171.703 -143.602 l 172.848 -144.855 l 173.992 -146.074 l 175.102 -147.328
 l 176.133 -148.473 l S Q
0.283298 w
q 1 0 0 -1 0 0 cm
59.656 -39.996 m 59.656 -51.328 l S Q
q 1 0 0 -1 0 0 cm
47.352 -39.988 m 47.352 -51.332 l S Q
51.941 44.02 m 47.352 45.648 l 51.941 47.312 l 50.098 45.648 l f
0.425176 w
q 1 0 0 -1 0 0 cm
59.656 -45.641 m 50.098 -45.641 l S Q
49.695 53.039 m 49.461 53.039 l 46.695 58.914 l 52.477 58.914 l h
49.367 54.383 m 51.258 58.352 l 47.492 58.352 l h
49.367 54.383 m f
59.168 53.164 m 54.152 53.164 l 53.699 54.711 l 53.98 54.711 l 54.355 53.789
 54.793 53.586 55.527 53.586 c 55.527 53.586 55.902 53.586 56.074 53.586
 c 54.84 57.852 l 54.59 58.664 54.324 58.664 53.949 58.664 c 53.887 58.914
 l 56.309 58.914 l 56.355 58.664 l 55.996 58.664 55.684 58.68 55.684 58.289
 c 55.684 58.195 55.699 58.055 55.746 57.898 c 56.98 53.586 l 57.684 53.586
 l 58.09 53.586 58.527 53.633 58.527 54.164 c 58.527 54.289 58.512 54.43
 58.434 54.711 c 58.715 54.711 l h
59.168 53.164 m f
60.137 58.266 m 59.402 58.266 l 59.402 57.562 l 59.402 57.219 59.527 57.031
 59.746 57.031 c 59.871 57.031 59.949 57.094 60.059 57.266 c 60.152 57.422
 60.23 57.484 60.34 57.484 c 60.48 57.484 60.59 57.375 60.59 57.234 c 60.59
 57.016 60.324 56.859 59.965 56.859 c 59.59 56.859 59.277 57.031 59.121 
57.297 c 58.965 57.562 58.918 57.781 58.902 58.266 c 58.418 58.266 l 58.418
 58.453 l 58.902 58.453 l 58.902 60.328 l 58.902 60.781 58.84 60.844 58.418
 60.859 c 58.418 60.953 l 59.965 60.953 l 59.965 60.859 l 59.48 60.844 59.418
 60.781 59.418 60.328 c 59.418 58.453 l 60.137 58.453 l h
60.137 58.266 m f
0.283298 w
q 1 0 0 -1 0 0 cm
172.594 -153.379 m 172.594 -170.387 l S Q
q 1 0 0 -1 0 0 cm
176.133 -153.383 m 176.133 -170.367 l S Q
167.984 167.77 m 172.594 166.145 l 167.984 164.484 l 169.832 166.145 l f
0.425175 w
q 1 0 0 -1 0 0 cm
166.93 -166.121 m 169.84 -166.121 l S Q
180.73 164.469 m 176.152 166.133 l 180.73 167.758 l 178.883 166.133 l f
0.425177 w
q 1 0 0 -1 0 0 cm
178.867 -166.125 m 181.793 -166.125 l S Q
170.082 172.098 m 169.848 172.098 l 167.082 177.973 l 172.863 177.973 l
 h
169.754 173.441 m 171.645 177.41 l 167.879 177.41 l h
169.754 173.441 m f
179.559 172.223 m 174.543 172.223 l 174.09 173.77 l 174.371 173.77 l 174.746
 172.848 175.184 172.645 175.918 172.645 c 175.918 172.645 176.293 172.645
 176.465 172.645 c 175.23 176.91 l 174.98 177.723 174.715 177.723 174.34
 177.723 c 174.277 177.973 l 176.699 177.973 l 176.746 177.723 l 176.387
 177.723 176.074 177.738 176.074 177.348 c 176.074 177.254 176.09 177.113
 176.137 176.957 c 177.371 172.645 l 178.074 172.645 l 178.48 172.645 178.918
 172.691 178.918 173.223 c 178.918 173.348 178.902 173.488 178.824 173.77
 c 179.105 173.77 l h
179.559 172.223 m f
179.605 175.816 m 179.574 175.801 l 179.324 175.895 179.168 175.941 178.871
 176.02 c 178.699 176.066 l 178.699 176.16 l 178.73 176.16 178.762 176.16
 178.809 176.16 c 179.043 176.16 179.09 176.207 179.09 176.473 c 179.09 
179.566 l 179.09 179.754 179.605 179.957 180.09 179.957 c 180.871 179.957
 181.48 179.301 181.48 178.441 c 181.48 177.691 181.027 177.145 180.434 
177.145 c 180.059 177.145 179.715 177.348 179.605 177.645 c h
179.605 177.973 m 179.605 177.738 179.887 177.52 180.199 177.52 c 180.355
 177.52 180.512 177.582 180.637 177.691 c 180.824 177.879 180.965 178.285
 180.965 178.723 c 180.965 179.379 180.668 179.77 180.184 179.77 c 179.871
 179.77 179.605 179.629 179.605 179.473 c h
179.605 177.973 m f
1 g
61.449 32.902 m 61.449 31.883 60.621 31.055 59.602 31.055 c 58.582 31.055
 57.754 31.883 57.754 32.902 c 57.754 33.922 58.582 34.75 59.602 34.75 c
 60.621 34.75 61.449 33.922 61.449 32.902 c f
0 g
61.449 32.902 m 61.449 31.883 60.621 31.055 59.602 31.055 c 58.582 31.055
 57.754 31.883 57.754 32.902 c 57.754 33.922 58.582 34.75 59.602 34.75 c
 60.621 34.75 61.449 33.922 61.449 32.902 c h
61.449 32.902 m 61.262 32.902 l 61.262 31.984 60.52 31.242 59.602 31.242
 c 58.684 31.242 57.941 31.984 57.941 32.902 c 57.941 33.82 58.684 34.562
 59.602 34.562 c 60.52 34.562 61.262 33.82 61.262 32.902 c f
1 g
174.449 139.805 m 174.449 138.785 173.621 137.957 172.602 137.957 c 171.582
 137.957 170.754 138.785 170.754 139.805 c 170.754 140.824 171.582 141.652
 172.602 141.652 c 173.621 141.652 174.449 140.824 174.449 139.805 c f
0 g
174.449 139.805 m 174.449 138.785 173.621 137.957 172.602 137.957 c 171.582
 137.957 170.754 138.785 170.754 139.805 c 170.754 140.824 171.582 141.652
 172.602 141.652 c 173.621 141.652 174.449 140.824 174.449 139.805 c h
174.449 139.805 m 174.262 139.805 l 174.262 138.887 173.52 138.145 172.602
 138.145 c 171.684 138.145 170.941 138.887 170.941 139.805 c 170.941 140.723
 171.684 141.465 172.602 141.465 c 173.52 141.465 174.262 140.723 174.262
 139.805 c f
1 g
47.305 24.164 m 45.195 27.82 l 49.414 27.82 l f
0 g
47.305 24.164 m 45.195 27.82 l 49.414 27.82 l h
47.305 24.531 m 45.512 27.637 l 49.098 27.637 l f
1 g
176.102 146.066 m 173.992 149.723 l 178.211 149.723 l f
0 g
176.102 146.066 m 173.992 149.723 l 178.211 149.723 l h
176.102 146.434 m 174.309 149.539 l 177.895 149.539 l f
29.633 13.184 m 31.617 14.152 l 31.68 14.012 l 31.18 13.715 31.117 13.59
 31.383 13.074 c 32.102 11.59 l 34.273 12.637 l 33.586 14.043 l 33.289 14.652
 33.164 14.699 32.586 14.465 c 32.523 14.605 l 34.523 15.574 l 34.586 15.434
 l 34.086 15.121 34.023 15.012 34.273 14.48 c 35.82 11.309 l 36.086 10.793
 36.195 10.762 36.773 10.965 c 36.836 10.824 l 34.836 9.855 l 34.773 9.996
 l 35.305 10.309 35.352 10.402 35.102 10.949 c 34.414 12.34 l 32.242 11.293
 l 32.93 9.902 l 33.18 9.371 33.289 9.34 33.867 9.543 c 33.93 9.402 l 31.945
 8.434 l 31.883 8.574 l 32.398 8.887 32.445 8.996 32.195 9.543 c 30.68 12.637
 l 30.383 13.246 30.258 13.277 29.695 13.043 c h
29.633 13.184 m f
37.48 18.34 m 37.371 18.277 l 37.012 18.465 36.824 18.449 36.465 18.277
 c 34.871 17.496 l 36.371 17.184 37.762 16.902 38.168 16.043 c 38.465 15.449
 38.059 14.715 37.387 14.387 c 36.715 14.059 36.027 14.105 35.434 14.809
 c 35.59 14.887 l 35.934 14.668 36.371 14.449 36.918 14.715 c 37.512 15.012
 37.668 15.559 37.449 16.012 c 37.152 16.637 35.902 17.168 34.027 17.512
 c 33.98 17.59 l 36.746 18.918 l h
37.48 18.34 m f
43.492 13.961 m 42.133 13.289 40.648 13.836 39.945 15.273 c 39.617 15.945
 39.539 16.727 39.727 17.336 c 39.93 17.977 40.414 18.57 41.055 18.867 c
 42.461 19.57 43.914 19.039 44.617 17.602 c 44.961 16.898 45.055 16.164 
44.883 15.555 c 44.664 14.852 44.18 14.289 43.492 13.961 c h
43.367 14.227 m 43.711 14.383 43.977 14.664 44.117 15.008 c 44.336 15.555
 44.227 16.336 43.805 17.195 c 43.602 17.617 43.289 18.07 42.945 18.383 
c 42.805 18.508 42.586 18.633 42.352 18.727 c 41.961 18.852 41.586 18.82
 41.195 18.633 c 40.883 18.477 40.617 18.195 40.461 17.852 c 40.258 17.32
 40.367 16.492 40.758 15.695 c 41.102 14.961 41.664 14.367 42.117 14.195
 c 42.555 14.008 42.977 14.023 43.367 14.227 c h
43.367 14.227 m f
48.199 16.254 m 47.512 16.348 47.199 16.426 46.777 16.629 c 45.965 16.988
 45.355 17.598 44.965 18.426 c 44.512 19.348 44.434 20.16 44.699 21.207 
c 44.824 21.707 44.949 21.941 45.215 22.348 c 45.34 22.285 l 44.98 21.551
 44.918 21.207 44.98 20.582 c 45.059 20.004 45.23 19.426 45.574 18.707 c
 45.949 17.957 46.324 17.41 46.746 17.066 c 47.168 16.707 47.496 16.566 
48.215 16.395 c h
48.199 16.254 m f
49.465 20.082 m 49.918 19.082 l 49.84 19.035 l 49.762 19.082 49.715 19.098
 49.668 19.082 c 49.637 19.051 49.574 19.004 49.512 18.91 c 49.371 18.77
 49.23 18.66 49.043 18.582 c 48.48 18.301 47.887 18.473 47.637 18.988 c 
47.449 19.379 47.527 19.785 47.98 20.441 c 48.262 20.863 l 48.465 21.129
 48.512 21.363 48.402 21.582 c 48.246 21.91 47.902 22.004 47.543 21.816 
c 47.059 21.582 46.918 21.191 47.121 20.363 c 47.012 20.316 l 46.465 21.441
 l 46.559 21.473 l 46.637 21.426 46.684 21.426 46.762 21.473 c 46.84 21.504
 46.918 21.566 47.059 21.691 c 47.246 21.832 47.402 21.941 47.559 22.004
 c 48.105 22.285 48.762 22.098 48.996 21.598 c 49.184 21.238 49.121 20.895
 48.824 20.441 c 48.277 19.613 l 48.121 19.379 48.105 19.176 48.199 18.973
 c 48.355 18.676 48.668 18.598 48.996 18.77 c 49.402 18.957 49.496 19.301
 49.355 20.02 c h
49.465 20.082 m f
48.566 23.98 m 49.27 23.887 49.566 23.84 49.988 23.621 c 50.801 23.262 
51.395 22.668 51.801 21.824 c 52.254 20.902 52.332 20.059 52.066 19.043 
c 51.941 18.559 51.816 18.309 51.566 17.887 c 51.426 17.965 l 51.77 18.715
 51.848 19.027 51.801 19.684 c 51.723 20.246 51.535 20.809 51.176 21.543
 c 50.816 22.277 50.441 22.84 50.035 23.168 c 49.613 23.527 49.285 23.699
 48.551 23.855 c h
48.566 23.98 m f
111.293 71.711 m 112.887 73.227 l 112.996 73.117 l 112.605 72.68 112.59
 72.539 112.996 72.117 c 114.121 70.93 l 115.871 72.586 l 114.793 73.727
 l 114.324 74.211 114.199 74.227 113.73 73.82 c 113.621 73.93 l 115.23 75.461
 l 115.34 75.352 l 114.949 74.914 114.934 74.773 115.324 74.336 c 117.762
 71.789 l 118.168 71.383 118.293 71.383 118.762 71.758 c 118.871 71.633 
l 117.262 70.102 l 117.152 70.227 l 117.574 70.695 117.59 70.789 117.184
 71.227 c 116.105 72.352 l 114.355 70.695 l 115.434 69.57 l 115.824 69.148
 115.949 69.148 116.418 69.523 c 116.527 69.398 l 114.934 67.883 l 114.824
 68.008 l 115.23 68.461 115.246 68.555 114.855 69.008 c 112.465 71.508 l
 111.98 71.977 111.855 71.992 111.402 71.602 c h
111.293 71.711 m f
117.191 79.008 m 117.129 78.898 l 116.723 78.977 116.551 78.883 116.27 
78.617 c 114.988 77.383 l 116.504 77.555 117.91 77.711 118.566 77.023 c 
119.02 76.555 118.863 75.727 118.332 75.211 c 117.785 74.68 117.098 74.508
 116.316 75.008 c 116.441 75.117 l 116.863 75.023 117.316 74.945 117.77 
75.367 c 118.254 75.836 118.238 76.398 117.895 76.758 c 117.41 77.258 116.066
 77.398 114.176 77.148 c 114.113 77.211 l 116.332 79.336 l h
117.191 79.008 m f
124.359 76.723 m 123.266 75.676 121.688 75.754 120.578 76.926 c 120.062
 77.457 119.75 78.16 119.734 78.785 c 119.734 79.488 120.016 80.191 120.531
 80.676 c 121.672 81.77 123.219 81.707 124.328 80.535 c 124.875 79.973 125.172
 79.316 125.188 78.676 c 125.203 77.926 124.922 77.254 124.359 76.723 c 
h
124.156 76.941 m 124.438 77.207 124.594 77.551 124.625 77.926 c 124.656
 78.504 124.328 79.223 123.672 79.91 c 123.359 80.254 122.906 80.582 122.5
 80.77 c 122.297 80.848 122.078 80.926 121.812 80.926 c 121.422 80.941 121.062
 80.785 120.75 80.488 c 120.5 80.238 120.328 79.91 120.281 79.504 c 120.25
 78.957 120.609 78.207 121.219 77.551 c 121.781 76.973 122.484 76.566 122.969
 76.535 c 123.438 76.488 123.844 76.645 124.156 76.941 c h
124.156 76.941 m f
128.152 80.336 m 127.465 80.211 127.137 80.195 126.684 80.258 c 125.777
 80.367 125.027 80.758 124.387 81.43 c 123.668 82.164 123.371 82.93 123.324
 83.992 c 123.293 84.508 123.309 84.773 123.449 85.242 c 123.59 85.211 l
 123.465 84.414 123.512 84.055 123.762 83.477 c 124.012 82.961 124.355 82.461
 124.902 81.883 c 125.48 81.273 126.012 80.867 126.496 80.664 c 127.012 
80.461 127.371 80.414 128.121 80.477 c h
128.152 80.336 m f
124.766 84.566 m 126.125 85.848 l 126.219 85.754 l 125.859 85.395 125.844
 85.285 126.156 84.957 c 129.422 81.52 l 129.422 81.488 l 129.047 81.301
 128.766 81.16 128.266 80.863 c 128.172 80.957 l 128.203 80.988 l 128.266
 81.035 128.344 81.098 128.406 81.145 c 128.594 81.316 128.562 81.457 128.312
 81.738 c 125.672 84.488 l 125.375 84.785 125.219 84.785 124.859 84.473 
c h
124.766 84.566 m f
125.453 87.148 m 126.141 87.273 126.438 87.305 126.922 87.242 c 127.797
 87.133 128.562 86.742 129.203 86.07 c 129.906 85.336 130.219 84.57 130.281
 83.508 c 130.312 83.008 130.266 82.727 130.156 82.242 c 130.016 82.273 
l 130.125 83.102 130.078 83.43 129.828 84.039 c 129.594 84.539 129.234 85.039
 128.688 85.617 c 128.109 86.227 127.594 86.633 127.109 86.82 c 126.594 
87.039 126.219 87.086 125.484 87.008 c h
125.453 87.148 m f
104.488 82.426 m 105.223 81.598 l 105.145 81.535 l 105.082 81.551 105.035
 81.566 105.004 81.52 c 104.957 81.488 104.926 81.426 104.879 81.332 c 104.801
 81.145 104.707 81.004 104.551 80.863 c 104.113 80.426 103.488 80.41 103.098
 80.832 c 102.785 81.145 102.738 81.551 102.973 82.301 c 103.113 82.816 
l 103.207 83.113 103.176 83.332 103.004 83.52 c 102.754 83.785 102.41 83.77
 102.113 83.488 c 101.723 83.098 101.723 82.691 102.176 81.973 c 102.082
 81.895 l 101.223 82.785 l 101.301 82.848 l 101.395 82.848 101.426 82.848
 101.488 82.91 c 101.551 82.973 101.613 83.066 101.707 83.207 c 101.832 
83.395 101.957 83.566 102.082 83.676 c 102.535 84.098 103.207 84.129 103.598
 83.723 c 103.879 83.426 103.91 83.098 103.77 82.582 c 103.52 81.598 l 103.426
 81.348 103.488 81.145 103.629 80.973 c 103.863 80.738 104.191 80.754 104.457
 81.004 c 104.785 81.316 104.77 81.691 104.395 82.332 c h
104.488 82.426 m f
107.176 83.371 m 106.426 82.652 105.379 82.699 104.613 83.496 c 103.863
 84.277 103.848 85.371 104.566 86.059 c 105.301 86.762 106.41 86.684 107.176
 85.887 c 107.926 85.121 107.91 84.09 107.176 83.371 c h
106.926 83.465 m 107.41 83.934 107.238 84.809 106.473 85.59 c 105.848 86.246
 105.207 86.402 104.785 85.98 c 104.551 85.762 104.488 85.418 104.582 85.074
 c 104.707 84.621 105.004 84.121 105.395 83.715 c 105.926 83.168 106.52 
83.059 106.926 83.465 c h
106.926 83.465 m f
106.172 87.504 m 107.516 88.801 l 107.609 88.707 l 107.25 88.363 107.25
 88.223 107.562 87.895 c 110.844 84.473 l 110.844 84.441 l 110.469 84.254
 110.188 84.113 109.688 83.816 c 109.594 83.91 l 109.625 83.941 l 109.688
 83.988 109.766 84.051 109.828 84.098 c 110 84.27 109.984 84.41 109.734 
84.676 c 107.078 87.426 l 106.781 87.723 106.625 87.723 106.266 87.41 c 
h
106.172 87.504 m f
110.621 91.238 m 110.59 91.223 l 110.34 90.926 110.34 90.848 110.605 90.566
 c 112.496 88.613 l 111.574 87.723 l 111.48 87.816 l 111.824 88.191 111.84
 88.316 111.574 88.598 c 110.277 89.941 l 110.121 90.098 109.996 90.16 109.855
 90.145 c 109.574 90.113 109.34 90.035 109.168 89.863 c 108.934 89.645 108.949
 89.27 109.184 89.035 c 110.98 87.16 l 110.152 86.348 l 110.074 86.426 l
 110.324 86.707 110.324 86.863 110.074 87.129 c 108.668 88.582 l 108.246
 89.035 108.246 89.598 108.668 90.004 c 108.871 90.207 109.184 90.332 109.48
 90.316 c 109.965 90.301 l 109.496 90.785 l 109.512 90.832 l 109.918 90.988
 110.184 91.113 110.543 91.316 c h
110.621 91.238 m f
114.41 90.449 m 113.832 89.902 l 114.473 89.23 l 114.535 89.168 114.52 
89.137 114.488 89.105 c 113.691 89.262 113.348 89.309 113.082 89.23 c 112.988
 89.215 112.91 89.215 112.879 89.262 c 112.863 89.277 112.848 89.293 112.863
 89.309 c 113.176 89.605 l 111.52 91.34 l 111.051 91.824 110.988 92.23 111.316
 92.559 c 111.598 92.824 111.941 92.902 112.426 92.762 c 112.41 92.652 l
 112.129 92.668 112.004 92.637 111.879 92.527 c 111.66 92.324 111.723 92.09
 112.066 91.73 c 113.66 90.074 l 114.238 90.621 l h
114.41 90.449 m f
112.109 93.211 m 113.469 94.508 l 113.562 94.414 l 113.188 94.039 113.203
 93.945 113.609 93.523 c 115.562 91.477 l 115.562 91.445 l 114.359 90.898
 l 114.281 90.992 l 114.328 91.039 l 114.406 91.086 114.484 91.148 114.547
 91.195 c 114.688 91.32 114.656 91.461 114.406 91.711 c 113.125 93.055 l
 112.703 93.477 112.594 93.492 112.203 93.117 c h
116.516 89.898 m 116.359 89.758 116.125 89.758 115.953 89.93 c 115.797 
90.086 115.797 90.336 115.953 90.492 c 116.125 90.664 116.375 90.648 116.531
 90.492 c 116.703 90.32 116.688 90.055 116.516 89.898 c h
116.516 89.898 m f
117.559 93.352 m 116.809 92.633 115.762 92.68 114.996 93.477 c 114.246 
94.258 114.23 95.352 114.949 96.039 c 115.684 96.742 116.793 96.664 117.559
 95.867 c 118.309 95.102 118.293 94.07 117.559 93.352 c h
117.309 93.445 m 117.793 93.914 117.621 94.789 116.855 95.57 c 116.23 96.227
 115.59 96.383 115.168 95.961 c 114.934 95.742 114.871 95.398 114.965 95.055
 c 115.09 94.602 115.387 94.102 115.777 93.695 c 116.309 93.148 116.902 
93.039 117.309 93.445 c h
117.309 93.445 m f
116.52 97.453 m 117.738 98.625 l 117.832 98.531 l 117.551 98.266 117.551
 98.078 117.754 97.875 c 119.301 96.266 l 119.816 96.281 120.004 96.312 
120.191 96.5 c 120.473 96.781 120.441 97.078 120.082 97.469 c 118.926 98.672
 l 118.551 99.031 118.395 99.062 118.113 98.797 c 118.02 98.891 l 119.207
 100.031 l 119.301 99.938 l 119.035 99.656 119.035 99.516 119.301 99.234
 c 120.582 97.922 l 121.098 97.391 121.16 96.812 120.723 96.406 c 120.473
 96.156 120.191 96.078 119.441 96.078 c 119.879 95.609 l 119.863 95.578 
l 119.441 95.391 119.191 95.266 118.816 95.062 c 118.723 95.172 l 118.785
 95.172 118.832 95.219 118.895 95.281 c 119.051 95.438 119.035 95.578 118.754
 95.859 c 117.395 97.281 l 117.051 97.609 116.91 97.641 116.613 97.359 c
 h
116.52 97.453 m f
184.055 156.492 m 184.883 158.539 l 185.023 158.477 l 184.852 157.914 184.898
 157.789 185.43 157.57 c 186.945 156.945 l 187.852 159.18 l 186.414 159.773
 l 185.789 160.023 185.664 159.977 185.398 159.414 c 185.258 159.477 l 186.102
 161.539 l 186.242 161.477 l 186.055 160.898 186.117 160.789 186.648 160.555
 c 189.914 159.227 l 190.461 159.023 190.555 159.07 190.852 159.617 c 190.992
 159.555 l 190.148 157.492 l 190.008 157.555 l 190.195 158.148 190.148 158.258
 189.602 158.477 c 188.18 159.055 l 187.273 156.82 l 188.695 156.242 l 189.242
 156.023 189.336 156.07 189.633 156.617 c 189.773 156.555 l 188.945 154.508
 l 188.805 154.57 l 188.977 155.148 188.93 155.258 188.398 155.492 c 185.211
 156.789 l 184.57 157.023 184.445 156.977 184.195 156.43 c h
184.055 156.492 m f
186.441 165.582 m 186.41 165.441 l 186.035 165.348 185.895 165.207 185.754
 164.848 c 185.082 163.191 l 186.395 163.973 187.613 164.676 188.504 164.316
 c 189.113 164.082 189.301 163.27 189.02 162.566 c 188.723 161.879 188.191
 161.441 187.285 161.582 c 187.348 161.738 l 187.77 161.801 188.223 161.926
 188.457 162.488 c 188.707 163.113 188.457 163.629 187.988 163.816 c 187.348
 164.082 186.066 163.645 184.457 162.645 c 184.363 162.676 l 185.504 165.504
 l h
186.441 165.582 m f
193.91 166.43 m 193.348 165.039 191.863 164.461 190.379 165.055 c 189.676
 165.336 189.113 165.867 188.848 166.43 c 188.551 167.039 188.535 167.82
 188.801 168.477 c 189.395 169.93 190.816 170.508 192.316 169.898 c 193.035
 169.602 193.582 169.133 193.863 168.555 c 194.176 167.883 194.207 167.148
 193.91 166.43 c h
193.629 166.539 m 193.77 166.898 193.785 167.289 193.66 167.648 c 193.457
 168.195 192.848 168.695 191.973 169.055 c 191.535 169.227 191.004 169.367
 190.535 169.367 c 190.332 169.352 190.098 169.32 189.848 169.227 c 189.504
 169.055 189.223 168.789 189.066 168.398 c 188.926 168.055 188.941 167.664
 189.035 167.289 c 189.254 166.773 189.879 166.227 190.707 165.898 c 191.457
 165.586 192.254 165.523 192.723 165.695 c 193.16 165.836 193.473 166.148
 193.629 166.539 c h
193.629 166.539 m f
195.875 171.281 m 195.297 170.906 195 170.734 194.578 170.609 c 193.703
 170.344 192.859 170.375 192.016 170.719 c 191.047 171.109 190.453 171.688
 189.969 172.641 c 189.734 173.094 189.641 173.344 189.578 173.828 c 189.719
 173.875 l 189.953 173.094 190.125 172.781 190.594 172.359 c 191.016 171.984
 191.547 171.656 192.281 171.359 c 193.062 171.047 193.703 170.891 194.234
 170.906 c 194.797 170.922 195.125 171.031 195.781 171.406 c h
195.875 171.281 m f
195.258 175.898 m 195.555 175.773 l 195.32 175.195 l 195.258 175.055 195.242
 174.961 195.242 174.758 c 195.227 174.586 l 195.227 174.367 195.18 174.148
 195.102 173.945 c 194.82 173.273 194.055 172.93 193.383 173.195 c 192.914
 173.383 192.727 173.68 192.68 174.305 c 192.43 174.164 l 192.227 174.086
 192.102 174.023 192.055 174.008 c 191.836 173.914 191.727 173.898 191.617
 173.945 c 191.445 174.023 191.398 174.148 191.383 174.508 c 190.789 174.148
 190.445 174.039 190.18 174.148 c 189.789 174.305 189.695 175.023 189.992
 175.727 c 190.211 176.289 190.633 176.789 191.117 177.039 c 191.43 177.211
 191.727 177.258 192.008 177.133 c 192.461 176.945 192.633 176.461 192.445
 175.914 c 192.117 174.961 l 191.961 174.539 191.945 174.352 192.07 174.305
 c 192.227 174.242 192.57 174.383 192.711 174.539 c 192.789 174.82 192.82
 174.961 192.836 174.977 c 192.945 175.242 193.195 175.508 193.477 175.68
 c 193.789 175.805 194.086 175.82 194.461 175.68 c 194.68 175.586 194.836
 175.492 195.008 175.289 c h
191.414 174.664 m 191.461 174.945 191.664 175.539 191.805 175.914 c 192.086
 176.586 192.086 176.867 191.805 176.977 c 191.398 177.148 190.867 176.711
 190.539 175.867 c 190.273 175.211 190.32 174.695 190.633 174.57 c 190.805
 174.492 190.961 174.523 191.414 174.664 c h
193.93 173.695 m 194.367 173.523 194.727 173.617 194.852 173.961 c 194.945
 174.18 194.898 174.414 194.727 174.633 c 194.523 174.883 194.242 175.102
 193.93 175.227 c 193.523 175.398 193.18 175.305 193.039 174.945 c 192.852
 174.492 193.211 173.992 193.914 173.711 c h
193.93 173.695 m f
191.293 178.066 m 191.871 178.457 192.137 178.613 192.59 178.738 c 193.449
 179.004 194.293 178.957 195.168 178.613 c 196.105 178.223 196.699 177.66
 197.199 176.723 c 197.434 176.285 197.512 176.02 197.605 175.52 c 197.449
 175.488 l 197.215 176.285 197.043 176.566 196.574 177.02 c 196.137 177.379
 195.621 177.691 194.871 177.988 c 194.105 178.301 193.465 178.457 192.918
 178.441 c 192.371 178.426 192.027 178.316 191.387 177.957 c h
191.293 178.066 m f
0.567042 w
q 1 0 0 -1 0 0 cm
22.031 -0.285 181.391 -184.281 re S Q
0.398507 w
q 1 0 0 -1 0 0 cm
22.035 -184.547 m 22.035 -180.301 l S Q
0.398508 w
q 1 0 0 -1 0 0 cm
67.383 -184.559 m 67.383 -180.316 l S Q
0.398505 w
q 1 0 0 -1 0 0 cm
112.73 -184.562 m 112.73 -180.289 l S Q
0.398507 w
q 1 0 0 -1 0 0 cm
158.074 -184.547 m 158.074 -180.312 l S Q
q 1 0 0 -1 0 0 cm
203.422 -184.566 m 203.422 -180.305 l S Q
q 1 0 0 -1 0 0 cm
22.035 -184.547 m 22.035 -180.301 l S Q
0.398505 w
q 1 0 0 -1 0 0 cm
22.043 -184.562 m 26.289 -184.562 l S Q
q 1 0 0 -1 0 0 cm
22.043 -156.195 m 26.289 -156.195 l S Q
q 1 0 0 -1 0 0 cm
22.043 -127.863 m 26.289 -127.863 l S Q
q 1 0 0 -1 0 0 cm
22.043 -99.496 m 26.289 -99.496 l S Q
q 1 0 0 -1 0 0 cm
22.043 -71.164 m 26.289 -71.164 l S Q
q 1 0 0 -1 0 0 cm
22.043 -42.832 m 26.289 -42.832 l S Q
q 1 0 0 -1 0 0 cm
22.043 -14.465 m 26.289 -14.465 l S Q
q 1 0 0 -1 0 0 cm
22.043 -184.562 m 26.289 -184.562 l S Q
0.398507 w
q 1 0 0 -1 0 0 cm
22.035 -0.289 m 22.035 -4.57 l S Q
0.398508 w
q 1 0 0 -1 0 0 cm
67.383 -0.289 m 67.383 -4.566 l S Q
0.398505 w
q 1 0 0 -1 0 0 cm
112.73 -0.305 m 112.73 -4.543 l S Q
0.398507 w
q 1 0 0 -1 0 0 cm
158.074 -0.285 m 158.074 -4.555 l S Q
q 1 0 0 -1 0 0 cm
203.422 -0.285 m 203.422 -4.551 l S Q
q 1 0 0 -1 0 0 cm
22.035 -0.289 m 22.035 -4.57 l S Q
q 1 0 0 -1 0 0 cm
203.422 -184.566 m 199.156 -184.566 l S Q
q 1 0 0 -1 0 0 cm
203.422 -156.195 m 199.156 -156.195 l S Q
q 1 0 0 -1 0 0 cm
203.422 -127.863 m 199.156 -127.863 l S Q
q 1 0 0 -1 0 0 cm
203.422 -99.527 m 199.156 -99.527 l S Q
q 1 0 0 -1 0 0 cm
203.422 -71.156 m 199.156 -71.156 l S Q
q 1 0 0 -1 0 0 cm
203.422 -42.824 m 199.156 -42.824 l S Q
q 1 0 0 -1 0 0 cm
203.422 -14.488 m 199.156 -14.488 l S Q
q 1 0 0 -1 0 0 cm
203.422 -184.566 m 199.156 -184.566 l S Q
19.578 192.875 m 19.422 192.844 l 19.156 193.297 18.938 193.375 18.5 193.375
 c 16.438 193.375 l 17.859 192.078 19.156 190.906 19.156 189.594 c 19.156
 188.672 18.359 188.016 17.484 188.016 c 16.625 188.016 15.938 188.484 15.672
 189.703 c 15.875 189.703 l 16.125 189.203 16.469 188.688 17.156 188.688
 c 17.938 188.688 18.375 189.281 18.375 189.953 c 18.375 190.922 17.344 
192.344 15.578 193.891 c 15.578 194.031 l 19.109 194.031 l h
19.578 192.875 m f
24.004 192.547 m 24.004 191.938 l 23.129 191.938 l 23.129 188.016 l 22.691
 188.016 l 20.098 191.922 l 20.098 192.547 l 22.395 192.547 l 22.395 194.031
 l 23.129 194.031 l 23.129 192.547 l h
22.395 191.938 m 20.457 191.938 l 22.379 188.953 l 22.395 188.953 l h
22.395 191.938 m f
28.426 191.078 m 28.426 189.469 27.691 188.016 26.441 188.016 c 25.176 
188.016 24.441 189.469 24.441 191.078 c 24.441 192.703 25.129 194.141 26.441
 194.141 c 27.645 194.141 28.426 192.703 28.426 191.078 c h
27.566 191.078 m 27.566 192.375 27.441 193.891 26.441 193.891 c 25.488 
193.891 25.301 192.375 25.301 191.078 c 25.301 190 25.426 188.25 26.441 
188.25 c 27.441 188.25 27.566 190 27.566 191.078 c h
27.566 191.078 m f
64.938 192.875 m 64.781 192.844 l 64.516 193.297 64.297 193.375 63.859 
193.375 c 61.797 193.375 l 63.219 192.078 64.516 190.906 64.516 189.594 
c 64.516 188.672 63.719 188.016 62.844 188.016 c 61.984 188.016 61.297 188.484
 61.031 189.703 c 61.234 189.703 l 61.484 189.203 61.828 188.688 62.516 
188.688 c 63.297 188.688 63.734 189.281 63.734 189.953 c 63.734 190.922 
62.703 192.344 60.938 193.891 c 60.938 194.031 l 64.469 194.031 l h
64.938 192.875 m f
69.082 192.656 m 69.082 192.016 68.801 191.531 67.707 190.719 c 68.395 
190.344 68.926 189.922 68.926 189.266 c 68.926 188.578 68.285 187.984 67.332
 187.984 c 66.488 187.984 65.691 188.531 65.691 189.375 c 65.691 190.031
 66.035 190.422 66.801 191.031 c 65.941 191.688 65.629 192.016 65.629 192.688
 c 65.629 193.438 66.301 194.141 67.348 194.141 c 68.566 194.141 69.082 
193.312 69.082 192.656 c h
68.316 189.25 m 68.316 189.891 67.941 190.234 67.457 190.562 c 66.863 190.141
 66.348 189.672 66.348 189.156 c 66.348 188.672 66.691 188.25 67.301 188.25
 c 67.973 188.25 68.316 188.672 68.316 189.25 c h
68.441 192.906 m 68.441 193.484 68.004 193.875 67.426 193.875 c 66.738 
193.875 66.301 193.328 66.301 192.594 c 66.301 191.922 66.629 191.531 67.035
 191.188 c 68.02 191.938 68.441 192.312 68.441 192.906 c h
68.441 192.906 m f
73.785 191.078 m 73.785 189.469 73.051 188.016 71.801 188.016 c 70.535 
188.016 69.801 189.469 69.801 191.078 c 69.801 192.703 70.488 194.141 71.801
 194.141 c 73.004 194.141 73.785 192.703 73.785 191.078 c h
72.926 191.078 m 72.926 192.375 72.801 193.891 71.801 193.891 c 70.848 
193.891 70.66 192.375 70.66 191.078 c 70.66 190 70.785 188.25 71.801 188.25
 c 72.801 188.25 72.926 190 72.926 191.078 c h
72.926 191.078 m f
109.922 192.094 m 109.922 191.156 109.375 190.75 108.844 190.531 c 109.422
 190.094 109.609 189.688 109.609 189.203 c 109.609 188.688 109.188 188.016
 108.219 188.016 c 107.516 188.016 106.844 188.406 106.547 189.375 c 106.688
 189.406 l 106.875 189.047 107.234 188.594 107.891 188.594 c 108.531 188.594
 108.906 189.031 108.906 189.531 c 108.906 190.234 108.359 190.734 107.547
 190.922 c 107.531 191.109 l 108.922 191.047 109.266 191.953 109.266 192.516
 c 109.266 193.188 108.781 193.797 108.141 193.797 c 107.562 193.797 107.312
 193.297 106.828 193.297 c 106.672 193.297 106.484 193.453 106.484 193.656
 c 106.484 194.031 107.047 194.141 107.453 194.141 c 108.875 194.141 109.922
 193.328 109.922 192.094 c h
109.922 192.094 m f
114.738 192.875 m 114.582 192.844 l 114.316 193.297 114.098 193.375 113.66
 193.375 c 111.598 193.375 l 113.02 192.078 114.316 190.906 114.316 189.594
 c 114.316 188.672 113.52 188.016 112.645 188.016 c 111.785 188.016 111.098
 188.484 110.832 189.703 c 111.035 189.703 l 111.285 189.203 111.629 188.688
 112.316 188.688 c 113.098 188.688 113.535 189.281 113.535 189.953 c 113.535
 190.922 112.504 192.344 110.738 193.891 c 110.738 194.031 l 114.27 194.031
 l h
114.738 192.875 m f
119.148 191.078 m 119.148 189.469 118.414 188.016 117.164 188.016 c 115.898
 188.016 115.164 189.469 115.164 191.078 c 115.164 192.703 115.852 194.141
 117.164 194.141 c 118.367 194.141 119.148 192.703 119.148 191.078 c h
118.289 191.078 m 118.289 192.375 118.164 193.891 117.164 193.891 c 116.211
 193.891 116.023 192.375 116.023 191.078 c 116.023 190 116.148 188.25 117.164
 188.25 c 118.164 188.25 118.289 190 118.289 191.078 c h
118.289 191.078 m f
155.281 192.094 m 155.281 191.156 154.734 190.75 154.203 190.531 c 154.781
 190.094 154.969 189.688 154.969 189.203 c 154.969 188.688 154.547 188.016
 153.578 188.016 c 152.875 188.016 152.203 188.406 151.906 189.375 c 152.047
 189.406 l 152.234 189.047 152.594 188.594 153.25 188.594 c 153.891 188.594
 154.266 189.031 154.266 189.531 c 154.266 190.234 153.719 190.734 152.906
 190.922 c 152.891 191.109 l 154.281 191.047 154.625 191.953 154.625 192.516
 c 154.625 193.188 154.141 193.797 153.5 193.797 c 152.922 193.797 152.672
 193.297 152.188 193.297 c 152.031 193.297 151.844 193.453 151.844 193.656
 c 151.844 194.031 152.406 194.141 152.812 194.141 c 154.234 194.141 155.281
 193.328 155.281 192.094 c h
155.281 192.094 m f
160.02 192.016 m 160.02 191.031 159.316 190.297 158.426 190.297 c 157.973
 190.297 157.598 190.438 157.207 190.75 c 157.598 189.156 158.77 188.156
 159.895 188.141 c 159.895 187.984 l 157.129 187.984 156.254 190.328 156.254
 191.656 c 156.254 193.078 157.082 194.141 158.191 194.141 c 159.207 194.141
 160.02 193.188 160.02 192.016 c h
159.254 192.469 m 159.254 193.297 158.879 193.875 158.285 193.875 c 157.363
 193.875 157.082 192.531 157.082 191.812 c 157.082 191.578 157.113 191.328
 157.16 191.031 c 157.551 190.781 157.863 190.672 158.176 190.672 c 159.082
 190.672 159.254 191.719 159.254 192.469 c h
159.254 192.469 m f
164.508 191.078 m 164.508 189.469 163.773 188.016 162.523 188.016 c 161.258
 188.016 160.523 189.469 160.523 191.078 c 160.523 192.703 161.211 194.141
 162.523 194.141 c 163.727 194.141 164.508 192.703 164.508 191.078 c h
163.648 191.078 m 163.648 192.375 163.523 193.891 162.523 193.891 c 161.57
 193.891 161.383 192.375 161.383 191.078 c 161.383 190 161.508 188.25 162.523
 188.25 c 163.523 188.25 163.648 190 163.648 191.078 c h
163.648 191.078 m f
201.004 192.547 m 201.004 191.938 l 200.129 191.938 l 200.129 188.016 l
 199.691 188.016 l 197.098 191.922 l 197.098 192.547 l 199.395 192.547 l
 199.395 194.031 l 200.129 194.031 l 200.129 192.547 l h
199.395 191.938 m 197.457 191.938 l 199.379 188.953 l 199.395 188.953 l
 h
199.395 191.938 m f
205.426 191.078 m 205.426 189.469 204.691 188.016 203.441 188.016 c 202.176
 188.016 201.441 189.469 201.441 191.078 c 201.441 192.703 202.129 194.141
 203.441 194.141 c 204.645 194.141 205.426 192.703 205.426 191.078 c h
204.566 191.078 m 204.566 192.375 204.441 193.891 203.441 193.891 c 202.488
 193.891 202.301 192.375 202.301 191.078 c 202.301 190 202.426 188.25 203.441
 188.25 c 204.441 188.25 204.566 190 204.566 191.078 c h
204.566 191.078 m f
209.867 191.078 m 209.867 189.469 209.133 188.016 207.883 188.016 c 206.617
 188.016 205.883 189.469 205.883 191.078 c 205.883 192.703 206.57 194.141
 207.883 194.141 c 209.086 194.141 209.867 192.703 209.867 191.078 c h
209.008 191.078 m 209.008 192.375 208.883 193.891 207.883 193.891 c 206.93
 193.891 206.742 192.375 206.742 191.078 c 206.742 190 206.867 188.25 207.883
 188.25 c 208.883 188.25 209.008 190 209.008 191.078 c h
209.008 191.078 m f
18.348 184.719 m 18.348 183.109 17.613 181.656 16.363 181.656 c 15.098 
181.656 14.363 183.109 14.363 184.719 c 14.363 186.344 15.051 187.781 16.363
 187.781 c 17.566 187.781 18.348 186.344 18.348 184.719 c h
17.488 184.719 m 17.488 186.016 17.363 187.531 16.363 187.531 c 15.41 187.531
 15.223 186.016 15.223 184.719 c 15.223 183.641 15.348 181.891 16.363 181.891
 c 17.363 181.891 17.488 183.641 17.488 184.719 c h
17.488 184.719 m f
18.379 158.078 m 18.223 158.047 l 17.957 158.5 17.738 158.578 17.301 158.578
 c 15.238 158.578 l 16.66 157.281 17.957 156.109 17.957 154.797 c 17.957
 153.875 17.16 153.219 16.285 153.219 c 15.426 153.219 14.738 153.688 14.473
 154.906 c 14.676 154.906 l 14.926 154.406 15.27 153.891 15.957 153.891 
c 16.738 153.891 17.176 154.484 17.176 155.156 c 17.176 156.125 16.145 157.547
 14.379 159.094 c 14.379 159.234 l 17.91 159.234 l h
18.379 158.078 m f
18.363 129.43 m 18.363 128.82 l 17.488 128.82 l 17.488 124.898 l 17.051
 124.898 l 14.457 128.805 l 14.457 129.43 l 16.754 129.43 l 16.754 130.914
 l 17.488 130.914 l 17.488 129.43 l h
16.754 128.82 m 14.816 128.82 l 16.738 125.836 l 16.754 125.836 l h
16.754 128.82 m f
18.301 100.578 m 18.301 99.594 17.598 98.859 16.707 98.859 c 16.254 98.859
 15.879 99 15.488 99.312 c 15.879 97.719 17.051 96.719 18.176 96.703 c 18.176
 96.547 l 15.41 96.547 14.535 98.891 14.535 100.219 c 14.535 101.641 15.363
 102.703 16.473 102.703 c 17.488 102.703 18.301 101.75 18.301 100.578 c 
h
17.535 101.031 m 17.535 101.859 17.16 102.438 16.566 102.438 c 15.645 102.438
 15.363 101.094 15.363 100.375 c 15.363 100.141 15.395 99.891 15.441 99.594
 c 15.832 99.344 16.145 99.234 16.457 99.234 c 17.363 99.234 17.535 100.281
 17.535 101.031 c h
17.535 101.031 m f
18.082 72.898 m 18.082 72.258 17.801 71.773 16.707 70.961 c 17.395 70.586
 17.926 70.164 17.926 69.508 c 17.926 68.82 17.285 68.227 16.332 68.227 
c 15.488 68.227 14.691 68.773 14.691 69.617 c 14.691 70.273 15.035 70.664
 15.801 71.273 c 14.941 71.93 14.629 72.258 14.629 72.93 c 14.629 73.68 
15.301 74.383 16.348 74.383 c 17.566 74.383 18.082 73.555 18.082 72.898 
c h
17.316 69.492 m 17.316 70.133 16.941 70.477 16.457 70.805 c 15.863 70.383
 15.348 69.914 15.348 69.398 c 15.348 68.914 15.691 68.492 16.301 68.492
 c 16.973 68.492 17.316 68.914 17.316 69.492 c h
17.441 73.148 m 17.441 73.727 17.004 74.117 16.426 74.117 c 15.738 74.117
 15.301 73.57 15.301 72.836 c 15.301 72.164 15.629 71.773 16.035 71.43 c
 17.02 72.18 17.441 72.555 17.441 73.148 c h
17.441 73.148 m f
13.156 45.953 m 13.156 45.812 l 12.562 45.812 12.344 45.828 12.344 44.656
 c 12.344 44.641 12.344 39.906 12.344 39.906 c 12.219 39.906 l 10.688 40.641
 l 10.734 40.781 l 11.062 40.641 11.141 40.609 11.266 40.609 c 11.531 40.609
 11.578 40.844 11.578 41.156 c 11.578 44.656 l 11.578 45.828 11.359 45.797
 10.766 45.812 c 10.766 45.953 l h
13.156 45.953 m f
18.348 43 m 18.348 41.391 17.613 39.938 16.363 39.938 c 15.098 39.938 14.363
 41.391 14.363 43 c 14.363 44.625 15.051 46.062 16.363 46.062 c 17.566 46.062
 18.348 44.625 18.348 43 c h
17.488 43 m 17.488 44.297 17.363 45.812 16.363 45.812 c 15.41 45.812 15.223
 44.297 15.223 43 c 15.223 41.922 15.348 40.172 16.363 40.172 c 17.363 40.172
 17.488 41.922 17.488 43 c h
17.488 43 m f
13.156 17.512 m 13.156 17.371 l 12.562 17.371 12.344 17.387 12.344 16.215
 c 12.344 16.199 12.344 11.465 12.344 11.465 c 12.219 11.465 l 10.688 12.199
 l 10.734 12.34 l 11.062 12.199 11.141 12.168 11.266 12.168 c 11.531 12.168
 11.578 12.402 11.578 12.715 c 11.578 16.215 l 11.578 17.387 11.359 17.355
 10.766 17.371 c 10.766 17.512 l h
13.156 17.512 m f
18.379 16.355 m 18.223 16.324 l 17.957 16.777 17.738 16.855 17.301 16.855
 c 15.238 16.855 l 16.66 15.559 17.957 14.387 17.957 13.074 c 17.957 12.152
 17.16 11.496 16.285 11.496 c 15.426 11.496 14.738 11.965 14.473 13.184 
c 14.676 13.184 l 14.926 12.684 15.27 12.168 15.957 12.168 c 16.738 12.168
 17.176 12.762 17.176 13.434 c 17.176 14.402 16.145 15.824 14.379 17.371
 c 14.379 17.512 l 17.91 17.512 l h
18.379 16.355 m f
115.965 199.988 m 110.949 199.988 l 110.527 201.52 l 110.699 201.52 l 111.074
 200.535 111.543 200.316 112.324 200.316 c 112.324 200.316 112.84 200.316
 112.949 200.316 c 111.652 204.988 l 111.402 205.895 111.09 205.879 110.73
 205.879 c 110.715 206.035 l 113.074 206.035 l 113.105 205.879 l 112.762
 205.879 112.418 205.895 112.418 205.441 c 112.418 205.316 112.449 205.176
 112.496 204.988 c 113.777 200.316 l 114.527 200.316 l 114.965 200.316 115.434
 200.379 115.434 201.004 c 115.434 201.145 115.418 201.301 115.371 201.52
 c 115.543 201.52 l h
115.965 199.988 m f
119.938 199.598 m 119.5 199.598 l 116.391 207.957 l 116.844 207.957 l h
119.938 199.598 m f
124.176 200.27 m 124.723 200.301 124.785 200.332 124.785 200.551 c 124.785
 200.738 124.582 201.02 124.082 201.473 c 122.504 202.91 l 122.504 201.082
 l 122.504 200.41 122.598 200.316 123.332 200.27 c 123.332 200.098 l 120.785
 200.098 l 120.785 200.27 l 121.473 200.316 121.566 200.426 121.582 201.082
 c 121.582 204.957 l 121.582 205.723 121.473 205.816 120.785 205.863 c 120.785
 206.035 l 123.301 206.035 l 123.301 205.863 l 122.613 205.816 122.504 205.723
 122.504 205.051 c 122.504 203.379 l 122.738 203.191 l 123.676 204.129 l
 124.379 204.832 124.848 205.441 124.848 205.66 c 124.848 205.801 124.738
 205.848 124.473 205.863 c 124.426 205.863 124.332 205.863 124.223 205.863
 c 124.223 206.035 l 126.957 206.035 l 126.957 205.863 l 126.488 205.863
 126.363 205.77 125.551 204.895 c 123.457 202.66 l 125.16 200.973 l 125.77
 200.379 125.91 200.316 126.52 200.27 c 126.52 200.098 l 124.176 200.098
 l h
124.176 200.27 m f
6.598 111.496 m 6.598 111.668 l 7.316 111.887 7.629 112.262 7.629 112.684
 c 7.629 112.887 7.426 113.012 7.113 113.012 c 6.895 113.012 6.645 112.949
 6.52 112.918 c 3.848 112.277 l 3.848 112.965 l 5.66 113.418 l 7.098 113.762
 7.77 114.449 7.77 114.949 c 7.77 115.293 7.301 115.543 6.879 115.543 c 
6.707 115.543 6.52 115.527 6.332 115.48 c 3.848 114.918 l 3.848 115.543 
l 3.848 115.496 7.145 116.324 7.145 116.324 c 8.363 116.605 9.238 116.934
 9.52 116.934 c 9.66 116.934 9.863 116.887 9.863 116.652 c 9.863 116.512
 9.785 116.277 9.379 116.184 c 9.379 116.184 7.738 115.793 7.238 115.699
 c 7.457 115.699 8.051 115.48 8.051 115.027 c 8.051 114.277 7.16 113.637
 7.035 113.574 c 7.441 113.559 8.051 113.402 8.051 112.809 c 8.051 112.074
 7.223 111.652 6.598 111.496 c h
6.598 111.496 m f
10.098 106.102 m 10.066 106.414 10.004 106.492 9.488 106.727 c 5.52 108.461
 l 5.52 108.602 l 8.941 110.055 l 9.957 110.508 10.082 110.586 10.098 110.914
 c 10.223 110.914 l 10.223 109.539 l 10.098 109.539 l 10.098 109.867 10.004
 110.008 9.801 110.008 c 9.723 110.008 9.629 109.992 9.535 109.961 c 8.723
 109.633 l 8.723 107.805 l 9.379 107.523 l 9.582 107.445 9.754 107.398 9.848
 107.398 c 10.035 107.398 10.082 107.508 10.098 107.883 c 10.223 107.883
 l 10.223 106.102 l h
8.426 109.523 m 6.52 108.711 l 8.426 107.914 l h
8.426 109.523 m f
1.504 101.719 m 1.504 102.156 l 9.863 105.266 l 9.863 104.812 l h
1.504 101.719 m f
7.941 101.121 m 7.941 99.027 l 7.801 99.027 l 7.801 99.199 l 7.77 99.574
 7.676 99.684 7.348 99.699 c 5.691 99.699 l 7.363 98.434 l 7.41 98.402 7.457
 98.371 7.488 98.355 c 7.566 98.277 7.629 98.246 7.676 98.246 c 7.754 98.246
 7.801 98.324 7.801 98.434 c 7.801 98.605 l 7.941 98.605 l 7.941 96.652 
l 7.801 96.652 l 7.785 97.043 7.613 97.324 7.145 97.699 c 5.41 99.074 l 
5.176 98.809 l 4.16 97.699 4.02 97.449 4.035 96.871 c 3.91 96.871 l 3.91
 98.715 l 4.035 98.715 l 4.035 98.355 4.082 98.262 4.191 98.262 c 4.27 98.262
 4.395 98.34 4.504 98.465 c 5.598 99.699 l 1.832 99.699 l 1.816 99.73 l 
1.926 100.074 2.004 100.34 2.145 100.855 c 2.207 101.121 l 2.348 101.121
 l 2.348 101.012 2.332 100.918 2.332 100.84 c 2.332 100.527 2.457 100.449
 2.879 100.449 c 7.207 100.449 l 7.676 100.465 7.707 100.48 7.801 101.121
 c h
7.941 101.121 m f
2.004 93.43 m 2.004 95.992 l 2.176 95.992 l 2.223 95.273 2.316 95.18 2.988
 95.164 c 7.129 95.164 l 7.535 95.164 7.723 95.273 7.723 95.508 c 7.723 
95.633 7.66 95.68 7.426 95.742 c 7.113 95.836 6.973 95.977 6.973 96.211 
c 6.973 96.461 7.176 96.648 7.426 96.648 c 7.801 96.648 8.066 96.289 8.066
 95.758 c 8.066 94.789 7.426 94.242 6.301 94.242 c 2.988 94.242 l 2.316 
94.227 2.223 94.148 2.176 93.43 c h
2.004 93.43 m f
7.941 91.441 m 7.941 89.441 l 7.801 89.441 l 7.801 89.91 7.707 90.051 7.348
 90.051 c 4.816 90.051 l 4.801 90.051 4.707 89.988 4.645 89.926 c 4.441 
89.691 4.285 89.316 4.285 89.004 c 4.285 88.598 4.598 88.41 5.223 88.41 
c 7.176 88.41 l 7.676 88.426 7.785 88.52 7.801 89.02 c 7.941 89.02 l 7.941
 87.004 l 7.801 87.004 l 7.801 87.504 7.66 87.629 7.082 87.66 c 4.832 87.66
 l 4.441 87.379 4.285 87.098 4.285 86.676 c 4.285 86.16 4.52 86.004 5.27
 86.004 c 7.16 86.004 l 7.691 86.02 7.754 86.082 7.801 86.598 c 7.941 86.598
 l 7.941 84.629 l 7.801 84.629 l 7.785 84.863 l 7.738 85.145 7.613 85.254
 7.254 85.254 c 5.41 85.254 l 4.348 85.254 3.816 85.598 3.816 86.285 c 3.816
 86.816 4.051 87.27 4.566 87.754 c 4.051 87.91 3.816 88.223 3.816 88.707
 c 3.816 89.113 3.926 89.348 4.504 90.098 c 3.832 90.098 l 3.816 90.16 l
 3.988 90.629 4.082 90.941 4.223 91.41 c 4.379 91.41 l 4.348 91.301 4.332
 91.223 4.332 91.129 c 4.332 90.895 4.473 90.816 4.91 90.816 c 7.176 90.816
 l 7.676 90.832 7.801 90.941 7.801 91.441 c h
7.941 91.441 m f
3.816 82.375 m 3.816 83.562 4.676 84.359 5.91 84.359 c 7.129 84.359 8.035
 83.531 8.035 82.406 c 8.035 81.266 7.082 80.406 5.848 80.406 c 4.66 80.406
 3.816 81.234 3.816 82.375 c h
4.066 82.5 m 4.066 81.75 4.926 81.219 6.16 81.219 c 7.176 81.219 7.785 
81.625 7.785 82.297 c 7.785 82.641 7.566 82.969 7.207 83.156 c 6.738 83.422
 6.113 83.562 5.473 83.562 c 4.629 83.562 4.066 83.141 4.066 82.5 c h
4.066 82.5 m f
7.941 79.996 m 7.941 77.871 l 7.801 77.871 l 7.785 78.449 7.691 78.543 
7.191 78.559 c 1.832 78.559 l 1.816 78.59 l 1.957 79.043 2.051 79.371 2.207
 80.012 c 2.348 80.012 l 2.348 79.965 l 2.348 79.855 2.332 79.746 2.332 
79.684 c 2.332 79.387 2.457 79.309 2.879 79.309 c 7.16 79.309 l 7.645 79.309
 7.77 79.434 7.801 79.996 c h
7.941 79.996 m f
2.469 72.539 0.438 4.703 re f
4.703 68.988 m 4.516 68.988 l 4.516 69.52 4.516 69.691 3.672 69.691 c 3.656
 69.691 0 69.691 0 69.691 c 0 69.863 l 0.578 71.207 l 0.766 71.129 l 0.641
 70.816 0.625 70.754 0.625 70.66 c 0.625 70.457 0.797 70.441 1 70.441 c 
3.672 70.441 l 4.516 70.441 4.5 70.598 4.516 71.129 c 4.703 71.129 l h
4.703 68.988 m f
Q Q
showpage
%%Trailer
end
%%EOF
