%!PS-Adobe-3.0 EPSF-3.0
%%Creator: cairo 1.16.0 (https://cairographics.org)
%%CreationDate: Sun Apr 25 08:52:18 2021
%%Pages: 1
%%DocumentData: Clean7Bit
%%LanguageLevel: 2
%%BoundingBox: 131 486 502 712
%%EndComments
%%BeginProlog
50 dict begin
/q { gsave } bind def
/Q { grestore } bind def
/cm { 6 array astore concat } bind def
/w { setlinewidth } bind def
/J { setlinecap } bind def
/j { setlinejoin } bind def
/M { setmiterlimit } bind def
/d { setdash } bind def
/m { moveto } bind def
/l { lineto } bind def
/c { curveto } bind def
/h { closepath } bind def
/re { exch dup neg 3 1 roll 5 3 roll moveto 0 rlineto
      0 exch rlineto 0 rlineto closepath } bind def
/S { stroke } bind def
/f { fill } bind def
/f* { eofill } bind def
/n { newpath } bind def
/W { clip } bind def
/W* { eoclip } bind def
/BT { } bind def
/ET { } bind def
/BDC { mark 3 1 roll /BDC pdfmark } bind def
/EMC { mark /EMC pdfmark } bind def
/cairo_store_point { /cairo_point_y exch def /cairo_point_x exch def } def
/Tj { show currentpoint cairo_store_point } bind def
/TJ {
  {
    dup
    type /stringtype eq
    { show } { -0.001 mul 0 cairo_font_matrix dtransform rmoveto } ifelse
  } forall
  currentpoint cairo_store_point
} bind def
/cairo_selectfont { cairo_font_matrix aload pop pop pop 0 0 6 array astore
    cairo_font exch selectfont cairo_point_x cairo_point_y moveto } bind def
/Tf { pop /cairo_font exch def /cairo_font_matrix where
      { pop cairo_selectfont } if } bind def
/Td { matrix translate cairo_font_matrix matrix concatmatrix dup
      /cairo_font_matrix exch def dup 4 get exch 5 get cairo_store_point
      /cairo_font where { pop cairo_selectfont } if } bind def
/Tm { 2 copy 8 2 roll 6 array astore /cairo_font_matrix exch def
      cairo_store_point /cairo_font where { pop cairo_selectfont } if } bind def
/g { setgray } bind def
/rg { setrgbcolor } bind def
/d1 { setcachedevice } bind def
/cairo_data_source {
  CairoDataIndex CairoData length lt
    { CairoData CairoDataIndex get /CairoDataIndex CairoDataIndex 1 add def }
    { () } ifelse
} def
/cairo_flush_ascii85_file { cairo_ascii85_file status { cairo_ascii85_file flushfile } if } def
/cairo_image { image cairo_flush_ascii85_file } def
/cairo_imagemask { imagemask cairo_flush_ascii85_file } def
%%EndProlog
%%BeginSetup
%%EndSetup
%%Page: 1 1
%%BeginPageSetup
%%PageBoundingBox: 131 486 502 712
%%EndPageSetup
q 131 486 371 226 rectclip
1 0 0 -1 0 794 cm q
0 g
1.13366 w
0 J
0 j
[] 0.0 d
10 M q 1 0 0 -1 0 0 cm
194.785 -126.129 m 195.691 -130.73 l 196.598 -135.176 l 197.504 -139.438
 l 198.414 -143.543 l 199.32 -147.512 l 200.227 -151.344 l 201.133 -155.062
 l 202.039 -158.645 l 202.949 -162.117 l 203.855 -165.473 l 204.762 -168.715
 l 205.672 -171.867 l 206.578 -174.93 l 207.484 -177.898 l 208.391 -180.758
 l 209.297 -183.547 l 210.203 -186.266 l 211.113 -188.898 l 212.02 -191.438
 l 212.926 -193.91 l 213.832 -196.312 l 214.738 -198.648 l 215.648 -200.895
 l 216.555 -203.094 l 217.461 -205.227 l 218.367 -207.266 l 219.277 -209.262
 l 220.184 -211.188 l 221.09 -213.051 l 221.996 -214.84 l 222.902 -216.586
 l 223.812 -218.242 l 224.719 -219.875 l 225.625 -221.414 l 226.531 -222.914
 l 227.438 -224.363 l 228.348 -225.727 l 229.254 -227.062 l 230.16 -228.312
 l 231.066 -229.535 l 231.977 -230.691 l 232.883 -231.781 l 233.789 -232.824
 l 234.695 -233.82 l 235.602 -234.773 l 236.512 -235.656 l 237.418 -236.496
 l 238.324 -237.289 l 239.23 -238.016 l 240.141 -238.719 l 241.047 -239.355
 l 241.953 -239.945 l 242.859 -240.488 l 243.766 -240.988 l 244.676 -241.465
 l 245.582 -241.871 l 246.488 -242.234 l 247.395 -242.574 l 248.301 -242.867
 l 249.211 -243.117 l 250.117 -243.324 l 251.023 -243.504 l 251.93 -243.664
 l 252.84 -243.777 l 253.746 -243.844 l 254.652 -243.891 l 255.559 -243.91
 l 256.465 -243.91 l 257.371 -243.867 l 258.281 -243.801 l 259.188 -243.73
 l 260.094 -243.617 l 261.004 -243.504 l 261.91 -243.367 l 262.816 -243.211
 l 263.723 -243.051 l 264.629 -242.867 l 265.535 -242.664 l 266.445 -242.484
 l 267.352 -242.281 l 268.258 -242.074 l 269.164 -241.871 l 270.074 -241.691
 l 270.98 -241.484 l 271.887 -241.305 l 272.793 -241.121 l 273.699 -240.965
 l 274.609 -240.805 l 275.516 -240.672 l 276.422 -240.555 l 277.328 -240.465
 l 278.234 -240.422 l 279.145 -240.375 l 280.051 -240.375 l 280.957 -240.422
 l 281.863 -240.488 l 282.77 -240.602 l 283.68 -240.762 l 284.586 -240.988
 l 285.492 -241.234 l S Q
234.02 236.719 m 240.137 238.719 l 236.672 233.297 l 237.262 236.492 l f
[ 2.80264 1.12079] 0 d
q 1 0 0 -1 0 0 cm
285.492 -244.637 m 285.395 -244.609 l 285.156 -244.547 l 284.859 -244.465
 l 284.652 -244.406 l 284.586 -244.391 l 284.508 -244.367 l 283.758 -244.16
 l 283.68 -244.141 l 283.602 -244.117 l 282.852 -243.891 l 282.77 -243.867
 l 282.691 -243.844 l 281.941 -243.617 l 281.785 -243.57 l 281.035 -243.348
 l 280.879 -243.301 l 280.129 -243.074 l 279.973 -243.027 l 279.223 -242.805
 l 279.145 -242.777 l 279.066 -242.754 l 278.312 -242.508 l 278.234 -242.484
 l 278.156 -242.457 l 277.406 -242.215 l 277.328 -242.188 l 277.25 -242.164
 l 276.5 -241.922 l 276.344 -241.867 l 275.594 -241.602 l 275.516 -241.578
 l 275.438 -241.551 l 274.688 -241.309 l 274.609 -241.281 l 274.527 -241.254
 l 273.777 -240.992 l 273.621 -240.938 l 272.871 -240.652 l 272.715 -240.598
 l 271.965 -240.336 l 271.887 -240.309 l 271.809 -240.277 l 271.059 -239.996
 l 270.98 -239.965 l 270.902 -239.938 l 270.148 -239.656 l 270.074 -239.629
 l 269.992 -239.598 l 269.242 -239.293 l 269.164 -239.266 l 269.086 -239.234
 l 268.336 -238.953 l 268.258 -238.922 l 268.18 -238.895 l 267.43 -238.594
 l 267.352 -238.562 l 267.273 -238.527 l 266.523 -238.211 l 266.367 -238.141
 l 265.613 -237.824 l 265.535 -237.789 l 265.461 -237.758 l 264.707 -237.438
 l 264.629 -237.402 l 264.551 -237.371 l 263.801 -237.055 l 263.645 -236.984
 l 262.895 -236.645 l 262.738 -236.574 l 261.984 -236.238 l 261.91 -236.203
 l 261.828 -236.164 l 261.078 -235.809 l 261.004 -235.77 l 260.922 -235.734
 l 260.172 -235.379 l 260.094 -235.34 l 260.016 -235.305 l 259.266 -234.949
 l 258.203 -234.418 l 257.449 -234.043 l 257.371 -234.004 l 257.297 -233.961
 l 256.543 -233.566 l 256.465 -233.527 l 256.387 -233.484 l 255.637 -233.07
 l 255.48 -232.984 l 254.73 -232.594 l 254.574 -232.508 l 253.824 -232.074
 l 253.746 -232.031 l 253.668 -231.984 l 252.914 -231.574 l 252.84 -231.531
 l 252.758 -231.484 l 252.008 -231.031 l 251.93 -230.984 l 251.852 -230.941
 l 251.102 -230.512 l 250.945 -230.418 l 250.195 -229.945 l 250.117 -229.898
 l 250.039 -229.848 l 249.285 -229.379 l 249.211 -229.332 l 249.129 -229.281
 l 248.379 -228.793 l 248.223 -228.691 l 247.473 -228.203 l 247.316 -228.102
 l 246.566 -227.594 l 246.41 -227.484 l 245.66 -226.961 l 245.582 -226.902
 l 245.504 -226.852 l 244.754 -226.324 l 244.676 -226.27 l 244.594 -226.215
 l 243.844 -225.668 l 243.766 -225.613 l 242.859 -224.934 l 242.781 -224.871
 l 242.031 -224.312 l 241.953 -224.25 l 241.871 -224.191 l 241.125 -223.59
 l 241.047 -223.523 l 240.969 -223.465 l 240.215 -222.863 l 240.141 -222.801
 l 240.059 -222.734 l 239.309 -222.117 l 239.152 -221.984 l 238.402 -221.348
 l 238.246 -221.215 l 237.496 -220.555 l 237.418 -220.488 l 237.34 -220.418
 l 236.59 -219.742 l 236.512 -219.672 l 236.43 -219.598 l 235.68 -218.902
 l 235.602 -218.832 l 235.523 -218.758 l 234.773 -218.047 l 234.695 -217.969
 l 234.617 -217.895 l 233.867 -217.16 l 233.789 -217.086 l 233.711 -217.008
 l 233.332 -216.633 l 232.961 -216.258 l 232.883 -216.18 l 232.805 -216.098
 l 232.426 -215.703 l 232.055 -215.309 l 231.977 -215.227 l 231.895 -215.145
 l 231.145 -214.355 l 231.066 -214.273 l 230.988 -214.188 l 230.609 -213.777
 l 230.238 -213.363 l 230.16 -213.273 l 230.082 -213.188 l 229.703 -212.754
 l 229.332 -212.324 l 229.254 -212.23 l 229.176 -212.145 l 228.797 -211.711
 l 228.426 -211.281 l 228.348 -211.188 l 228.266 -211.098 l 227.891 -210.648
 l 227.516 -210.195 l 227.438 -210.102 l 226.531 -208.969 l 226.453 -208.867
 l 226.078 -208.391 l 225.703 -207.91 l 225.547 -207.707 l 225.168 -207.211
 l 224.797 -206.715 l 224.641 -206.504 l 224.262 -205.984 l 223.891 -205.469
 l 223.812 -205.359 l 223.73 -205.254 l 223.355 -204.727 l 222.98 -204.203
 l 222.902 -204.09 l 222.824 -203.98 l 222.445 -203.438 l 222.074 -202.891
 l 221.996 -202.777 l 221.918 -202.656 l 221.539 -202.086 l 221.168 -201.512
 l 221.09 -201.395 l 221.012 -201.273 l 220.633 -200.691 l 220.262 -200.109
 l 220.184 -199.988 l 220.102 -199.859 l 219.727 -199.254 l 219.355 -198.641
 l 219.277 -198.512 l 219.195 -198.383 l 218.82 -197.766 l 218.445 -197.145
 l 218.367 -197.016 l 218.289 -196.883 l 217.91 -196.234 l 217.539 -195.586
 l 217.383 -195.312 l 216.633 -193.961 l 216.555 -193.816 l 216.477 -193.676
 l 215.723 -192.285 l 215.648 -192.141 l 215.566 -191.988 l 214.816 -190.547
 l 214.738 -190.395 l 213.91 -188.738 l 213.754 -188.418 l 213.004 -186.859
 l 212.926 -186.699 l 212.848 -186.527 l 212.098 -184.895 l 212.02 -184.727
 l 211.941 -184.551 l 211.188 -182.883 l 211.113 -182.707 l 211.031 -182.523
 l 210.281 -180.758 l 210.203 -180.574 l 210.125 -180.387 l 209.375 -178.566
 l 209.297 -178.375 l 209.219 -178.18 l 208.469 -176.281 l 208.391 -176.086
 l 208.312 -175.879 l 207.559 -173.91 l 207.484 -173.703 l 207.402 -173.488
 l 206.652 -171.426 l 206.578 -171.211 l 206.496 -170.988 l 205.746 -168.848
 l 205.672 -168.625 l 205.59 -168.391 l 205.211 -167.266 l 204.84 -166.137
 l 204.762 -165.902 l 204.684 -165.66 l 204.305 -164.496 l 203.93 -163.336
 l 203.855 -163.09 l 203.773 -162.836 l 203.395 -161.605 l 203.023 -160.379
 l 202.949 -160.121 l 202.867 -159.855 l 202.488 -158.578 l 202.117 -157.305
 l 202.039 -157.035 l 201.961 -156.758 l 201.582 -155.414 l 201.211 -154.074
 l 201.133 -153.793 l 201.055 -153.5 l 200.676 -152.094 l 200.305 -150.688
 l 200.227 -150.391 l 200.148 -150.086 l 199.77 -148.613 l 199.395 -147.141
 l 199.32 -146.832 l 199.238 -146.508 l 198.859 -144.961 l 198.488 -143.414
 l 198.414 -143.09 l 198.332 -142.75 l 197.953 -141.117 l 197.582 -139.484
 l 197.504 -139.145 l 197.426 -138.789 l 197.047 -137.082 l 196.676 -135.371
 l 196.598 -135.016 l 196.52 -134.641 l 196.141 -132.84 l 195.77 -131.039
 l 195.691 -130.66 l 195.656 -130.5 l 195.559 -130.012 l 195.414 -129.281
 l 195.262 -128.52 l 195.117 -127.781 l 194.988 -127.113 l 194.883 -126.574
 l 194.809 -126.215 l 194.785 -126.082 l S Q
240.285 225.836 m 246.488 227.539 l 242.77 222.289 l 243.512 225.453 l f
1 g
196.363 126.102 m 196.363 125.238 195.664 124.539 194.801 124.539 c 193.938
 124.539 193.238 125.238 193.238 126.102 c 193.238 126.965 193.938 127.664
 194.801 127.664 c 195.664 127.664 196.363 126.965 196.363 126.102 c f
0 g
196.363 126.102 m 196.363 125.238 195.664 124.539 194.801 124.539 c 193.938
 124.539 193.238 125.238 193.238 126.102 c 193.238 126.965 193.938 127.664
 194.801 127.664 c 195.664 127.664 196.363 126.965 196.363 126.102 c h
196.363 126.102 m 196.207 126.102 l 196.207 125.324 195.578 124.695 194.801
 124.695 c 194.023 124.695 193.395 125.324 193.395 126.102 c 193.395 126.879
 194.023 127.508 194.801 127.508 c 195.578 127.508 196.207 126.879 196.207
 126.102 c f
1 g
287.062 241.199 m 287.062 240.336 286.363 239.637 285.5 239.637 c 284.637
 239.637 283.938 240.336 283.938 241.199 c 283.938 242.062 284.637 242.762
 285.5 242.762 c 286.363 242.762 287.062 242.062 287.062 241.199 c f
0 g
287.062 241.199 m 287.062 240.336 286.363 239.637 285.5 239.637 c 284.637
 239.637 283.938 240.336 283.938 241.199 c 283.938 242.062 284.637 242.762
 285.5 242.762 c 286.363 242.762 287.062 242.062 287.062 241.199 c h
287.062 241.199 m 286.906 241.199 l 286.906 240.422 286.277 239.793 285.5
 239.793 c 284.723 239.793 284.094 240.422 284.094 241.199 c 284.094 241.977
 284.723 242.605 285.5 242.605 c 286.277 242.605 286.906 241.977 286.906
 241.199 c f
1 g
287.062 244.602 m 287.062 243.738 286.363 243.039 285.5 243.039 c 284.637
 243.039 283.938 243.738 283.938 244.602 c 283.938 245.465 284.637 246.164
 285.5 246.164 c 286.363 246.164 287.062 245.465 287.062 244.602 c f
0 g
287.062 244.602 m 287.062 243.738 286.363 243.039 285.5 243.039 c 284.637
 243.039 283.938 243.738 283.938 244.602 c 283.938 245.465 284.637 246.164
 285.5 246.164 c 286.363 246.164 287.062 245.465 287.062 244.602 c h
287.062 244.602 m 286.906 244.602 l 286.906 243.824 286.277 243.195 285.5
 243.195 c 284.723 243.195 284.094 243.824 284.094 244.602 c 284.094 245.379
 284.723 246.008 285.5 246.008 c 286.277 246.008 286.906 245.379 286.906
 244.602 c f
0.567043 w
[] 0.0 d
q 1 0 0 -1 0 0 cm
149.43 -85.852 158.742 -181.418 re S Q
0.398506 w
q 1 0 0 -1 0 0 cm
149.43 -267.27 m 149.43 -263.02 l S Q
q 1 0 0 -1 0 0 cm
194.785 -267.27 m 194.785 -263.02 l S Q
q 1 0 0 -1 0 0 cm
240.145 -267.27 m 240.145 -263.02 l S Q
q 1 0 0 -1 0 0 cm
285.5 -267.27 m 285.5 -263.02 l S Q
q 1 0 0 -1 0 0 cm
149.43 -267.27 m 149.43 -263.02 l S Q
q 1 0 0 -1 0 0 cm
149.43 -267.27 m 153.684 -267.27 l S Q
q 1 0 0 -1 0 0 cm
149.43 -221.914 m 153.684 -221.914 l S Q
q 1 0 0 -1 0 0 cm
149.43 -176.562 m 153.684 -176.562 l S Q
q 1 0 0 -1 0 0 cm
149.43 -131.207 m 153.684 -131.207 l S Q
q 1 0 0 -1 0 0 cm
149.43 -85.852 m 153.684 -85.852 l S Q
q 1 0 0 -1 0 0 cm
149.43 -267.27 m 153.684 -267.27 l S Q
q 1 0 0 -1 0 0 cm
149.43 -85.852 m 149.43 -90.105 l S Q
q 1 0 0 -1 0 0 cm
194.785 -85.852 m 194.785 -90.105 l S Q
q 1 0 0 -1 0 0 cm
240.145 -85.852 m 240.145 -90.105 l S Q
q 1 0 0 -1 0 0 cm
285.5 -85.852 m 285.5 -90.105 l S Q
q 1 0 0 -1 0 0 cm
149.43 -85.852 m 149.43 -90.105 l S Q
q 1 0 0 -1 0 0 cm
308.172 -267.27 m 303.922 -267.27 l S Q
q 1 0 0 -1 0 0 cm
308.172 -221.914 m 303.922 -221.914 l S Q
q 1 0 0 -1 0 0 cm
308.172 -176.562 m 303.922 -176.562 l S Q
q 1 0 0 -1 0 0 cm
308.172 -131.207 m 303.922 -131.207 l S Q
q 1 0 0 -1 0 0 cm
308.172 -85.852 m 303.922 -85.852 l S Q
q 1 0 0 -1 0 0 cm
308.172 -267.27 m 303.922 -267.27 l S Q
151.383 273.797 m 151.383 272.188 150.648 270.734 149.398 270.734 c 148.133
 270.734 147.398 272.188 147.398 273.797 c 147.398 275.422 148.086 276.859
 149.398 276.859 c 150.602 276.859 151.383 275.422 151.383 273.797 c h
150.523 273.797 m 150.523 275.094 150.398 276.609 149.398 276.609 c 148.445
 276.609 148.258 275.094 148.258 273.797 c 148.258 272.719 148.383 270.969
 149.398 270.969 c 150.398 270.969 150.523 272.719 150.523 273.797 c h
150.523 273.797 m f
191.105 273.797 m 191.105 272.188 190.371 270.734 189.121 270.734 c 187.855
 270.734 187.121 272.188 187.121 273.797 c 187.121 275.422 187.809 276.859
 189.121 276.859 c 190.324 276.859 191.105 275.422 191.105 273.797 c h
190.246 273.797 m 190.246 275.094 190.121 276.609 189.121 276.609 c 188.168
 276.609 187.98 275.094 187.98 273.797 c 187.98 272.719 188.105 270.969 
189.121 270.969 c 190.121 270.969 190.246 272.719 190.246 273.797 c h
190.246 273.797 m f
193.027 276.375 m 193.027 276.094 192.809 275.875 192.527 275.875 c 192.246
 275.875 192.027 276.094 192.027 276.375 c 192.027 276.656 192.246 276.875
 192.527 276.875 c 192.809 276.875 193.027 276.656 193.027 276.375 c h
193.027 276.375 m f
197.195 276.75 m 197.195 276.609 l 196.602 276.609 196.383 276.625 196.383
 275.453 c 196.383 275.438 196.383 270.703 196.383 270.703 c 196.258 270.703
 l 194.727 271.438 l 194.773 271.578 l 195.102 271.438 195.18 271.406 195.305
 271.406 c 195.57 271.406 195.617 271.641 195.617 271.953 c 195.617 275.453
 l 195.617 276.625 195.398 276.594 194.805 276.609 c 194.805 276.75 l h
197.195 276.75 m f
202.383 273.797 m 202.383 272.188 201.648 270.734 200.398 270.734 c 199.133
 270.734 198.398 272.188 198.398 273.797 c 198.398 275.422 199.086 276.859
 200.398 276.859 c 201.602 276.859 202.383 275.422 202.383 273.797 c h
201.523 273.797 m 201.523 275.094 201.398 276.609 200.398 276.609 c 199.445
 276.609 199.258 275.094 199.258 273.797 c 199.258 272.719 199.383 270.969
 200.398 270.969 c 201.398 270.969 201.523 272.719 201.523 273.797 c h
201.523 273.797 m f
236.465 273.797 m 236.465 272.188 235.73 270.734 234.48 270.734 c 233.215
 270.734 232.48 272.188 232.48 273.797 c 232.48 275.422 233.168 276.859 
234.48 276.859 c 235.684 276.859 236.465 275.422 236.465 273.797 c h
235.605 273.797 m 235.605 275.094 235.48 276.609 234.48 276.609 c 233.527
 276.609 233.34 275.094 233.34 273.797 c 233.34 272.719 233.465 270.969 
234.48 270.969 c 235.48 270.969 235.605 272.719 235.605 273.797 c h
235.605 273.797 m f
238.391 276.375 m 238.391 276.094 238.172 275.875 237.891 275.875 c 237.609
 275.875 237.391 276.094 237.391 276.375 c 237.391 276.656 237.609 276.875
 237.891 276.875 c 238.172 276.875 238.391 276.656 238.391 276.375 c h
238.391 276.375 m f
243.336 275.594 m 243.18 275.562 l 242.914 276.016 242.695 276.094 242.258
 276.094 c 240.195 276.094 l 241.617 274.797 242.914 273.625 242.914 272.312
 c 242.914 271.391 242.117 270.734 241.242 270.734 c 240.383 270.734 239.695
 271.203 239.43 272.422 c 239.633 272.422 l 239.883 271.922 240.227 271.406
 240.914 271.406 c 241.695 271.406 242.133 272 242.133 272.672 c 242.133
 273.641 241.102 275.062 239.336 276.609 c 239.336 276.75 l 242.867 276.75
 l h
243.336 275.594 m f
247.746 273.797 m 247.746 272.188 247.012 270.734 245.762 270.734 c 244.496
 270.734 243.762 272.188 243.762 273.797 c 243.762 275.422 244.449 276.859
 245.762 276.859 c 246.965 276.859 247.746 275.422 247.746 273.797 c h
246.887 273.797 m 246.887 275.094 246.762 276.609 245.762 276.609 c 244.809
 276.609 244.621 275.094 244.621 273.797 c 244.621 272.719 244.746 270.969
 245.762 270.969 c 246.762 270.969 246.887 272.719 246.887 273.797 c h
246.887 273.797 m f
281.824 273.797 m 281.824 272.188 281.09 270.734 279.84 270.734 c 278.574
 270.734 277.84 272.188 277.84 273.797 c 277.84 275.422 278.527 276.859 
279.84 276.859 c 281.043 276.859 281.824 275.422 281.824 273.797 c h
280.965 273.797 m 280.965 275.094 280.84 276.609 279.84 276.609 c 278.887
 276.609 278.699 275.094 278.699 273.797 c 278.699 272.719 278.824 270.969
 279.84 270.969 c 280.84 270.969 280.965 272.719 280.965 273.797 c h
280.965 273.797 m f
283.75 276.375 m 283.75 276.094 283.531 275.875 283.25 275.875 c 282.969
 275.875 282.75 276.094 282.75 276.375 c 282.75 276.656 282.969 276.875 
283.25 276.875 c 283.531 276.875 283.75 276.656 283.75 276.375 c h
283.75 276.375 m f
288.32 274.812 m 288.32 273.875 287.773 273.469 287.242 273.25 c 287.82
 272.812 288.008 272.406 288.008 271.922 c 288.008 271.406 287.586 270.734
 286.617 270.734 c 285.914 270.734 285.242 271.125 284.945 272.094 c 285.086
 272.125 l 285.273 271.766 285.633 271.312 286.289 271.312 c 286.93 271.312
 287.305 271.75 287.305 272.25 c 287.305 272.953 286.758 273.453 285.945
 273.641 c 285.93 273.828 l 287.32 273.766 287.664 274.672 287.664 275.234
 c 287.664 275.906 287.18 276.516 286.539 276.516 c 285.961 276.516 285.711
 276.016 285.227 276.016 c 285.07 276.016 284.883 276.172 284.883 276.375
 c 284.883 276.75 285.445 276.859 285.852 276.859 c 287.273 276.859 288.32
 276.047 288.32 274.812 c h
288.32 274.812 m f
293.105 273.797 m 293.105 272.188 292.371 270.734 291.121 270.734 c 289.855
 270.734 289.121 272.188 289.121 273.797 c 289.121 275.422 289.809 276.859
 291.121 276.859 c 292.324 276.859 293.105 275.422 293.105 273.797 c h
292.246 273.797 m 292.246 275.094 292.121 276.609 291.121 276.609 c 290.168
 276.609 289.98 275.094 289.98 273.797 c 289.98 272.719 290.105 270.969 
291.121 270.969 c 292.121 270.969 292.246 272.719 292.246 273.797 c h
292.246 273.797 m f
145.746 267.316 m 145.746 265.707 145.012 264.254 143.762 264.254 c 142.496
 264.254 141.762 265.707 141.762 267.316 c 141.762 268.941 142.449 270.379
 143.762 270.379 c 144.965 270.379 145.746 268.941 145.746 267.316 c h
144.887 267.316 m 144.887 268.613 144.762 270.129 143.762 270.129 c 142.809
 270.129 142.621 268.613 142.621 267.316 c 142.621 266.238 142.746 264.488
 143.762 264.488 c 144.762 264.488 144.887 266.238 144.887 267.316 c h
144.887 267.316 m f
145.777 223.754 m 145.621 223.723 l 145.355 224.176 145.137 224.254 144.699
 224.254 c 142.637 224.254 l 144.059 222.957 145.355 221.785 145.355 220.473
 c 145.355 219.551 144.559 218.895 143.684 218.895 c 142.824 218.895 142.137
 219.363 141.871 220.582 c 142.074 220.582 l 142.324 220.082 142.668 219.566
 143.355 219.566 c 144.137 219.566 144.574 220.16 144.574 220.832 c 144.574
 221.801 143.543 223.223 141.777 224.77 c 141.777 224.91 l 145.309 224.91
 l h
145.777 223.754 m f
145.762 178.066 m 145.762 177.457 l 144.887 177.457 l 144.887 173.535 l
 144.449 173.535 l 141.855 177.441 l 141.855 178.066 l 144.152 178.066 l
 144.152 179.551 l 144.887 179.551 l 144.887 178.066 l h
144.152 177.457 m 142.215 177.457 l 144.137 174.473 l 144.152 174.473 l
 h
144.152 177.457 m f
145.699 132.176 m 145.699 131.191 144.996 130.457 144.105 130.457 c 143.652
 130.457 143.277 130.598 142.887 130.91 c 143.277 129.316 144.449 128.316
 145.574 128.301 c 145.574 128.145 l 142.809 128.145 141.934 130.488 141.934
 131.816 c 141.934 133.238 142.762 134.301 143.871 134.301 c 144.887 134.301
 145.699 133.348 145.699 132.176 c h
144.934 132.629 m 144.934 133.457 144.559 134.035 143.965 134.035 c 143.043
 134.035 142.762 132.691 142.762 131.973 c 142.762 131.738 142.793 131.488
 142.84 131.191 c 143.23 130.941 143.543 130.832 143.855 130.832 c 144.762
 130.832 144.934 131.879 144.934 132.629 c h
144.934 132.629 m f
145.48 87.574 m 145.48 86.934 145.199 86.449 144.105 85.637 c 144.793 85.262
 145.324 84.84 145.324 84.184 c 145.324 83.496 144.684 82.902 143.73 82.902
 c 142.887 82.902 142.09 83.449 142.09 84.293 c 142.09 84.949 142.434 85.34
 143.199 85.949 c 142.34 86.605 142.027 86.934 142.027 87.605 c 142.027 
88.355 142.699 89.059 143.746 89.059 c 144.965 89.059 145.48 88.23 145.48
 87.574 c h
144.715 84.168 m 144.715 84.809 144.34 85.152 143.855 85.48 c 143.262 85.059
 142.746 84.59 142.746 84.074 c 142.746 83.59 143.09 83.168 143.699 83.168
 c 144.371 83.168 144.715 83.59 144.715 84.168 c h
144.84 87.824 m 144.84 88.402 144.402 88.793 143.824 88.793 c 143.137 88.793
 142.699 88.246 142.699 87.512 c 142.699 86.84 143.027 86.449 143.434 86.105
 c 144.418 86.855 144.84 87.23 144.84 87.824 c h
144.84 87.824 m f
221.25 284.402 m 221.25 284.262 l 219.531 284.262 l 219.531 284.402 l 219.719
 284.402 220.031 284.48 220.031 284.73 c 220.031 284.949 219.812 285.309
 219.688 285.496 c 217.297 289.012 l 217.125 285.09 l 217.094 284.527 217.406
 284.402 217.891 284.402 c 217.891 284.262 l 215.578 284.262 l 215.578 284.402
 l 216.188 284.402 216.234 284.684 216.312 285.418 c 216.516 290.449 l 216.672
 290.449 l 220.297 285.121 l 220.469 284.902 220.859 284.402 221.25 284.402
 c h
221.25 284.402 m f
224.906 283.871 m 224.469 283.871 l 221.359 292.23 l 221.812 292.23 l h
224.906 283.871 m f
231.406 289.793 m 231.281 289.793 231.234 289.793 231.203 289.793 c 230.891
 289.793 230.797 289.699 230.797 289.293 c 230.797 284.199 l 230.766 284.184
 l 230.344 284.324 230.031 284.418 229.438 284.574 c 229.438 284.715 l 229.516
 284.715 229.562 284.715 229.641 284.715 c 229.969 284.715 230.047 284.809
 230.047 285.168 c 230.047 286.574 l 229.703 286.277 229.469 286.184 229.109
 286.184 c 228.078 286.184 227.234 287.199 227.234 288.465 c 227.234 289.621
 227.906 290.402 228.906 290.402 c 229.406 290.402 229.75 290.215 230.047
 289.793 c 230.047 290.371 l 230.078 290.402 l 231.406 289.934 l h
230.047 289.387 m 230.047 289.449 229.984 289.559 229.891 289.668 c 229.75
 289.84 229.516 289.934 229.25 289.934 c 228.5 289.934 228.016 289.215 228.016
 288.105 c 228.016 287.105 228.453 286.434 229.141 286.434 c 229.625 286.434
 230.047 286.855 230.047 287.324 c h
230.047 289.387 m f
231.582 290.309 m 233.582 290.309 l 233.582 290.168 l 233.113 290.168 232.973
 290.074 232.973 289.715 c 232.973 287.184 l 232.973 287.168 233.035 287.074
 233.098 287.012 c 233.332 286.809 233.707 286.652 234.02 286.652 c 234.426
 286.652 234.613 286.965 234.613 287.59 c 234.613 289.543 l 234.598 290.043
 234.504 290.152 234.004 290.168 c 234.004 290.309 l 236.02 290.309 l 236.02
 290.168 l 235.52 290.168 235.395 290.027 235.363 289.449 c 235.363 287.199
 l 235.645 286.809 235.926 286.652 236.348 286.652 c 236.863 286.652 237.02
 286.887 237.02 287.637 c 237.02 289.527 l 237.004 290.059 236.941 290.121
 236.426 290.168 c 236.426 290.309 l 238.395 290.309 l 238.395 290.168 l
 238.16 290.152 l 237.879 290.105 237.77 289.98 237.77 289.621 c 237.77 
287.777 l 237.77 286.715 237.426 286.184 236.738 286.184 c 236.207 286.184
 235.754 286.418 235.27 286.934 c 235.113 286.418 234.801 286.184 234.316
 286.184 c 233.91 286.184 233.676 286.293 232.926 286.871 c 232.926 286.199
 l 232.863 286.184 l 232.395 286.355 232.082 286.449 231.613 286.59 c 231.613
 286.746 l 231.723 286.715 231.801 286.699 231.895 286.699 c 232.129 286.699
 232.207 286.84 232.207 287.277 c 232.207 289.543 l 232.191 290.043 232.082
 290.168 231.582 290.168 c h
231.582 290.309 m f
241.949 285.539 m 241.949 284.82 241.527 284.508 241.074 284.336 c 241.543
 284.008 241.699 283.695 241.699 283.32 c 241.699 282.914 241.324 282.367
 240.465 282.367 c 239.84 282.367 239.246 282.664 238.98 283.477 c 239.184
 283.523 l 239.34 283.242 239.652 282.898 240.184 282.898 c 240.699 282.898
 240.996 283.211 240.996 283.57 c 240.996 284.086 240.543 284.461 239.855
 284.617 c 239.824 284.82 l 241.027 284.773 241.309 285.461 241.309 285.867
 c 241.309 286.352 240.918 286.805 240.402 286.805 c 239.902 286.805 239.684
 286.414 239.277 286.414 c 239.105 286.414 238.934 286.555 238.934 286.742
 c 238.934 287.039 239.434 287.148 239.809 287.148 c 241.043 287.148 241.949
 286.492 241.949 285.539 c h
241.949 285.539 m f
135.172 187.328 m 134.469 187.328 134 187.641 134 188.312 c 134 188.906
 134.422 189.359 134.984 189.766 c 134 189.453 l 134 189.453 134.234 190.656
 134.25 190.922 c 134.406 190.922 l 134.406 190.594 134.375 190.328 134.734
 190.328 c 134.906 190.328 135.297 190.438 135.516 190.5 c 139.25 191.562
 l 139.594 191.656 139.844 191.812 139.844 192.25 c 140 192.281 l 140 190.312
 l 139.844 190.281 l 139.844 190.625 139.828 190.922 139.578 190.922 c 139.5
 190.922 139.406 190.906 139.234 190.859 c 137.984 190.547 l 138.125 190.375
 138.203 190.109 138.203 189.891 c 138.203 188.812 136.672 187.328 135.172
 187.328 c h
135.266 188.094 m 136.438 188.094 138 189.078 138 189.922 c 138 190.125
 137.922 190.312 137.75 190.484 c 136.953 190.281 134.422 189.734 134.422
 188.578 c 134.422 188.094 135.062 188.094 135.266 188.094 c h
135.266 188.094 m f
132.664 184.453 m 131.711 184.469 l 131.711 184.547 l 131.758 184.578 131.789
 184.625 131.789 184.656 c 131.789 184.703 131.773 184.766 131.742 184.844
 c 131.68 185.016 131.648 185.172 131.648 185.344 c 131.648 185.891 132.008
 186.281 132.508 186.281 c 132.898 186.281 133.18 186.062 133.508 185.469
 c 133.742 185.062 l 133.883 184.828 134.055 184.703 134.273 184.703 c 134.57
 184.703 134.773 184.922 134.773 185.281 c 134.773 185.766 134.508 186 133.789
 186.172 c 133.789 186.281 l 134.883 186.281 l 134.883 186.188 l 134.805
 186.141 134.789 186.109 134.789 186.031 c 134.789 185.953 134.805 185.859
 134.852 185.703 c 134.898 185.516 134.914 185.344 134.914 185.203 c 134.914
 184.656 134.523 184.219 134.023 184.219 c 133.68 184.219 133.445 184.375
 133.195 184.797 c 132.758 185.547 l 132.633 185.75 132.461 185.859 132.273
 185.859 c 131.992 185.859 131.805 185.641 131.805 185.312 c 131.805 184.922
 132.039 184.703 132.664 184.547 c h
132.664 184.453 m f
131.711 180.57 m 131.711 181.508 l 131.82 181.508 l 131.82 181.289 131.883
 181.18 131.992 181.18 c 132.023 181.18 132.07 181.18 132.117 181.211 c 
134.039 181.883 l 132.273 182.68 l 132.18 182.727 132.07 182.758 132.008
 182.758 c 131.883 182.758 131.836 182.648 131.82 182.352 c 131.711 182.352
 l 131.711 183.789 l 131.82 183.789 l 131.836 183.602 131.914 183.492 132.039
 183.43 c 133.758 182.633 l 133.945 182.555 133.945 182.539 134.008 182.508
 c 134.367 182.32 134.617 182.211 134.727 182.211 c 134.836 182.211 135.258
 182.367 135.477 182.477 c 135.648 182.586 135.789 182.727 135.789 182.836
 c 135.789 182.867 135.773 182.93 135.742 183.008 c 135.695 183.133 135.664
 183.258 135.664 183.367 c 135.664 183.539 135.789 183.68 135.961 183.68
 c 136.195 183.68 136.367 183.461 136.367 183.164 c 136.367 182.68 135.992
 182.367 134.977 181.977 c 132.133 180.914 l 131.914 180.82 131.836 180.742
 131.82 180.57 c h
131.711 180.57 m f
132.664 178.215 m 131.711 178.23 l 131.711 178.309 l 131.758 178.34 131.789
 178.387 131.789 178.418 c 131.789 178.465 131.773 178.527 131.742 178.605
 c 131.68 178.777 131.648 178.934 131.648 179.105 c 131.648 179.652 132.008
 180.043 132.508 180.043 c 132.898 180.043 133.18 179.824 133.508 179.23
 c 133.742 178.824 l 133.883 178.59 134.055 178.465 134.273 178.465 c 134.57
 178.465 134.773 178.684 134.773 179.043 c 134.773 179.527 134.508 179.762
 133.789 179.934 c 133.789 180.043 l 134.883 180.043 l 134.883 179.949 l
 134.805 179.902 134.789 179.871 134.789 179.793 c 134.789 179.715 134.805
 179.621 134.852 179.465 c 134.898 179.277 134.914 179.105 134.914 178.965
 c 134.914 178.418 134.523 177.98 134.023 177.98 c 133.68 177.98 133.445
 178.137 133.195 178.559 c 132.758 179.309 l 132.633 179.512 132.461 179.621
 132.273 179.621 c 131.992 179.621 131.805 179.402 131.805 179.074 c 131.805
 178.684 132.039 178.465 132.664 178.309 c h
132.664 178.215 m f
132.031 173.262 m 132.031 173.871 l 138.219 175.918 l 138.219 175.309 l
 h
132.031 173.262 m f
131.984 170.508 m 131.969 170.555 l 132.094 170.93 132.172 171.164 132.297
 171.602 c 132.359 171.852 l 132.5 171.852 l 132.5 171.805 132.5 171.773
 132.5 171.711 c 132.5 171.352 132.578 171.258 132.953 171.258 c 137.609
 171.258 l 137.891 171.258 138.188 170.508 138.188 169.789 c 138.188 168.602
 137.203 167.68 135.922 167.68 c 134.797 167.68 133.969 168.367 133.969 
169.258 c 133.969 169.805 134.281 170.336 134.734 170.508 c h
135.203 170.508 m 134.859 170.508 134.531 170.086 134.531 169.617 c 134.531
 169.367 134.625 169.148 134.797 168.961 c 135.078 168.68 135.688 168.477
 136.328 168.477 c 137.328 168.477 137.891 168.898 137.891 169.633 c 137.891
 170.102 137.703 170.508 137.469 170.508 c h
135.203 170.508 m f
137.5 163.473 m 137.625 163.629 137.672 163.738 137.672 163.879 c 137.672
 164.082 137.547 164.145 137.156 164.145 c 135.406 164.145 l 134.938 164.145
 134.672 164.191 134.469 164.316 c 134.141 164.52 133.969 164.91 133.969
 165.426 c 133.969 166.27 134.406 166.941 134.969 166.941 c 135.172 166.941
 135.359 166.77 135.359 166.551 c 135.359 166.332 135.172 166.145 134.984
 166.145 c 134.953 166.145 134.906 166.16 134.844 166.16 c 134.75 166.191
 134.688 166.191 134.625 166.191 c 134.375 166.191 134.188 165.91 134.188
 165.551 c 134.188 165.113 134.438 164.863 134.922 164.863 c 135.469 164.863
 l 136.016 166.238 136.109 166.395 136.438 166.785 c 136.625 166.988 136.922
 167.113 137.219 167.113 c 137.781 167.113 138.188 166.723 138.188 166.16
 c 138.188 165.77 138 165.41 137.531 164.863 c 138 164.816 138.188 164.645
 138.188 164.285 c 138.188 163.973 138.078 163.785 137.734 163.473 c h
136.984 164.863 m 137.266 164.863 137.359 164.91 137.469 165.098 c 137.594
 165.332 137.656 165.566 137.656 165.754 c 137.656 166.066 137.359 166.316
 136.969 166.316 c 136.938 166.316 l 136.406 166.316 136.062 165.91 135.688
 164.863 c h
136.984 164.863 m f
138.094 163.434 m 138.094 161.277 l 137.953 161.277 l 137.938 161.887 137.812
 162.027 137.281 162.043 c 135.266 162.043 l 134.984 162.043 134.531 161.668
 134.531 161.418 c 134.531 161.371 134.578 161.277 134.672 161.184 c 134.797
 161.043 134.844 160.949 134.844 160.824 c 134.844 160.605 134.688 160.48
 134.438 160.48 c 134.141 160.48 133.969 160.668 133.969 160.965 c 133.969
 161.34 134.172 161.59 134.812 162.043 c 133.984 162.043 l 133.969 162.09
 l 134.172 162.59 134.297 162.918 134.453 163.418 c 134.594 163.418 l 134.562
 163.293 134.562 163.215 134.562 163.105 c 134.562 162.887 134.703 162.793
 135.094 162.793 c 137.344 162.793 l 137.812 162.824 137.859 162.871 137.953
 163.434 c h
138.094 163.434 m f
226.523 299.969 m 225.867 300.406 225.602 300.625 225.258 301.047 c 224.633
 301.828 224.32 302.719 224.32 303.766 c 224.32 304.922 224.648 305.797 
225.43 306.703 c 225.805 307.141 226.039 307.328 226.508 307.625 c 226.602
 307.469 l 225.898 306.906 225.648 306.594 225.398 305.922 c 225.18 305.328
 225.086 304.656 225.086 303.75 c 225.086 302.797 225.195 302.062 225.445
 301.516 c 225.695 300.953 225.961 300.625 226.602 300.109 c h
226.523 299.969 m f
230.852 305.438 m 230.695 305.562 230.586 305.609 230.445 305.609 c 230.242
 305.609 230.18 305.484 230.18 305.094 c 230.18 303.344 l 230.18 302.875
 230.133 302.609 230.008 302.406 c 229.805 302.078 229.414 301.906 228.898
 301.906 c 228.055 301.906 227.383 302.344 227.383 302.906 c 227.383 303.109
 227.555 303.297 227.773 303.297 c 227.992 303.297 228.18 303.109 228.18
 302.922 c 228.18 302.891 228.164 302.844 228.164 302.781 c 228.133 302.688
 228.133 302.625 228.133 302.562 c 228.133 302.312 228.414 302.125 228.773
 302.125 c 229.211 302.125 229.461 302.375 229.461 302.859 c 229.461 303.406
 l 228.086 303.953 227.93 304.047 227.539 304.375 c 227.336 304.562 227.211
 304.859 227.211 305.156 c 227.211 305.719 227.602 306.125 228.164 306.125
 c 228.555 306.125 228.914 305.938 229.461 305.469 c 229.508 305.938 229.68
 306.125 230.039 306.125 c 230.352 306.125 230.539 306.016 230.852 305.672
 c h
229.461 304.922 m 229.461 305.203 229.414 305.297 229.227 305.406 c 228.992
 305.531 228.758 305.594 228.57 305.594 c 228.258 305.594 228.008 305.297
 228.008 304.906 c 228.008 304.875 l 228.008 304.344 228.414 304 229.461
 303.625 c h
229.461 304.922 m f
231.184 307.625 m 231.84 307.172 232.121 306.953 232.449 306.547 c 233.09
 305.766 233.402 304.859 233.402 303.812 c 233.402 302.672 233.059 301.797
 232.277 300.891 c 231.902 300.453 231.668 300.25 231.215 299.969 c 231.105
 300.109 l 231.824 300.672 232.059 300.984 232.309 301.656 c 232.527 302.266
 232.621 302.938 232.621 303.844 c 232.621 304.781 232.512 305.516 232.262
 306.062 c 232.027 306.625 231.746 306.953 231.105 307.469 c h
231.184 307.625 m f
1.13366 w
q 1 0 0 -1 0 0 cm
478.25 -244.637 m 477.344 -244.367 l 476.434 -244.027 l 475.527 -243.617
 l 474.621 -243.141 l 473.715 -242.645 l 472.805 -242.074 l 471.898 -241.465
 l 470.992 -240.828 l 470.086 -240.125 l 469.18 -239.398 l 468.27 -238.629
 l 467.363 -237.836 l 466.457 -236.996 l 465.551 -236.133 l 464.645 -235.25
 l 463.734 -234.344 l 462.828 -233.414 l 461.922 -232.461 l 461.016 -231.484
 l 460.105 -230.512 l 459.199 -229.512 l 457.387 -227.473 l 456.48 -226.43
 l 455.57 -225.406 l 453.758 -223.32 l 452.852 -222.254 l 451.941 -221.211
 l 451.035 -220.172 l 450.129 -219.105 l 449.223 -218.062 l 448.316 -217.016
 l 447.406 -215.973 l 446.5 -214.93 l 445.594 -213.91 l 444.688 -212.867
 l 443.781 -211.848 l 442.871 -210.848 l 441.965 -209.828 l 441.059 -208.832
 l 440.152 -207.855 l 439.242 -206.859 l 438.336 -205.883 l 437.43 -204.93
 l 436.523 -203.953 l 435.617 -203.004 l 434.711 -202.074 l 433.801 -201.121
 l 431.988 -199.262 l 431.078 -198.355 l 430.172 -197.426 l 429.266 -196.516
 l 428.359 -195.609 l 427.453 -194.68 l 426.547 -193.773 l 425.637 -192.867
 l 423.824 -191.008 l 422.914 -190.078 l 422.008 -189.148 l 421.102 -188.195
 l 419.289 -186.242 l 418.383 -185.246 l 417.473 -184.203 l 416.566 -183.16
 l 415.66 -182.094 l 414.754 -180.984 l 413.848 -179.848 l 412.938 -178.672
 l 412.031 -177.445 l 411.125 -176.176 l 410.219 -174.859 l 409.309 -173.477
 l 408.402 -172.047 l 407.496 -170.551 l 406.59 -168.988 l 405.684 -167.332
 l 404.773 -165.609 l 403.867 -163.77 l 402.961 -161.867 l 402.055 -159.848
 l 401.145 -157.695 l 400.238 -155.449 l 399.332 -153.066 l 398.426 -150.527
 l 397.52 -147.852 l 396.609 -145.016 l 395.703 -142.023 l 394.797 -138.824
 l 393.891 -135.426 l 392.984 -131.82 l 392.074 -128.008 l 391.168 -123.926
 l 390.262 -119.598 l 389.355 -114.969 l 388.445 -110.051 l 387.539 -104.809
 l S Q
438.641 202.727 m 432.895 199.828 l 435.504 205.711 l 435.398 202.461 l
 f
[ 2.80264 1.12079] 0 d
q 1 0 0 -1 0 0 cm
478.25 -244.637 m 478.152 -244.609 l 477.914 -244.547 l 477.613 -244.465
 l 477.41 -244.406 l 477.344 -244.391 l 477.262 -244.367 l 476.512 -244.16
 l 476.434 -244.141 l 476.355 -244.117 l 475.605 -243.891 l 475.449 -243.844
 l 474.699 -243.617 l 474.543 -243.57 l 473.789 -243.348 l 473.715 -243.324
 l 473.637 -243.301 l 472.883 -243.074 l 472.727 -243.027 l 471.977 -242.805
 l 471.898 -242.777 l 471.82 -242.754 l 471.07 -242.508 l 470.992 -242.484
 l 470.914 -242.457 l 470.164 -242.215 l 470.086 -242.188 l 470.008 -242.164
 l 469.254 -241.922 l 469.18 -241.895 l 469.098 -241.867 l 468.348 -241.602
 l 468.27 -241.578 l 468.191 -241.551 l 467.441 -241.309 l 467.285 -241.254
 l 466.535 -240.992 l 466.379 -240.938 l 465.629 -240.652 l 465.473 -240.598
 l 464.719 -240.336 l 464.645 -240.309 l 464.562 -240.277 l 463.812 -239.996
 l 463.734 -239.965 l 463.656 -239.938 l 462.906 -239.656 l 462.828 -239.629
 l 462.75 -239.598 l 462 -239.293 l 461.922 -239.266 l 461.844 -239.234 
l 461.094 -238.953 l 461.016 -238.922 l 460.934 -238.895 l 460.184 -238.594
 l 460.105 -238.562 l 460.027 -238.527 l 459.277 -238.211 l 459.121 -238.141
 l 458.371 -237.824 l 458.293 -237.789 l 458.215 -237.758 l 457.465 -237.438
 l 457.387 -237.402 l 457.309 -237.371 l 456.559 -237.055 l 456.48 -237.02
 l 456.398 -236.984 l 455.648 -236.645 l 455.492 -236.574 l 454.742 -236.238
 l 454.664 -236.203 l 454.586 -236.164 l 453.836 -235.809 l 453.758 -235.77
 l 453.68 -235.734 l 452.93 -235.379 l 452.852 -235.34 l 452.773 -235.305
 l 452.02 -234.949 l 450.129 -234.004 l 450.051 -233.961 l 449.301 -233.566
 l 449.223 -233.527 l 449.145 -233.484 l 448.395 -233.07 l 448.238 -232.984
 l 447.484 -232.594 l 447.328 -232.508 l 446.578 -232.074 l 446.5 -232.031
 l 446.422 -231.984 l 445.672 -231.574 l 445.594 -231.531 l 445.516 -231.484
 l 444.766 -231.031 l 444.688 -230.984 l 444.609 -230.941 l 443.855 -230.512
 l 443.781 -230.465 l 443.699 -230.418 l 442.949 -229.945 l 442.871 -229.898
 l 442.793 -229.848 l 442.043 -229.379 l 441.965 -229.332 l 441.887 -229.281
 l 441.137 -228.793 l 440.98 -228.691 l 440.23 -228.203 l 440.152 -228.152
 l 440.07 -228.102 l 439.32 -227.594 l 439.164 -227.484 l 438.414 -226.961
 l 438.336 -226.902 l 438.258 -226.852 l 437.508 -226.324 l 437.352 -226.215
 l 436.602 -225.668 l 436.523 -225.613 l 435.617 -224.934 l 435.535 -224.871
 l 434.785 -224.312 l 434.711 -224.25 l 434.629 -224.191 l 433.879 -223.59
 l 433.801 -223.523 l 433.723 -223.465 l 432.973 -222.863 l 432.895 -222.801
 l 432.816 -222.734 l 432.066 -222.117 l 431.91 -221.984 l 431.156 -221.348
 l 431.078 -221.281 l 431.004 -221.215 l 430.25 -220.555 l 430.172 -220.488
 l 430.094 -220.418 l 429.344 -219.742 l 429.266 -219.672 l 429.188 -219.598
 l 428.438 -218.902 l 428.359 -218.832 l 428.281 -218.758 l 427.531 -218.047
 l 427.453 -217.969 l 427.371 -217.895 l 426.621 -217.16 l 426.547 -217.086
 l 426.465 -217.008 l 425.637 -216.18 l 425.559 -216.098 l 424.809 -215.309
 l 424.652 -215.145 l 424.273 -214.75 l 423.902 -214.355 l 423.824 -214.273
 l 423.742 -214.188 l 423.367 -213.777 l 422.992 -213.363 l 422.914 -213.273
 l 422.836 -213.188 l 422.461 -212.754 l 422.09 -212.324 l 422.008 -212.23
 l 421.93 -212.145 l 421.555 -211.711 l 421.18 -211.281 l 421.102 -211.188
 l 421.023 -211.098 l 420.645 -210.648 l 420.273 -210.195 l 420.195 -210.102
 l 420.117 -210.004 l 419.738 -209.535 l 419.367 -209.066 l 419.289 -208.969
 l 419.211 -208.867 l 418.832 -208.391 l 418.457 -207.91 l 418.383 -207.809
 l 418.301 -207.707 l 417.551 -206.715 l 417.395 -206.504 l 417.02 -205.984
 l 416.645 -205.469 l 416.566 -205.359 l 416.488 -205.254 l 416.109 -204.727
 l 415.738 -204.203 l 415.66 -204.09 l 415.578 -203.98 l 415.203 -203.438
 l 414.828 -202.891 l 414.754 -202.777 l 414.672 -202.656 l 414.297 -202.086
 l 413.922 -201.512 l 413.848 -201.395 l 413.766 -201.273 l 413.016 -200.109
 l 412.938 -199.988 l 412.859 -199.859 l 412.48 -199.254 l 412.109 -198.641
 l 411.953 -198.383 l 411.574 -197.766 l 411.199 -197.145 l 411.125 -197.016
 l 411.047 -196.883 l 410.668 -196.234 l 410.293 -195.586 l 410.219 -195.449
 l 410.137 -195.312 l 409.387 -193.961 l 409.309 -193.816 l 409.23 -193.676
 l 408.48 -192.285 l 408.402 -192.141 l 408.324 -191.988 l 407.574 -190.547
 l 407.496 -190.395 l 407.414 -190.238 l 406.664 -188.738 l 406.59 -188.578
 l 406.508 -188.418 l 405.758 -186.859 l 405.684 -186.699 l 405.602 -186.527
 l 404.852 -184.895 l 404.773 -184.727 l 404.695 -184.551 l 403.945 -182.883
 l 403.867 -182.707 l 403.789 -182.523 l 403.039 -180.758 l 402.961 -180.574
 l 402.883 -180.387 l 402.129 -178.566 l 402.055 -178.375 l 401.973 -178.18
 l 401.223 -176.281 l 401.145 -176.086 l 401.066 -175.879 l 400.316 -173.91
 l 400.238 -173.703 l 399.332 -171.211 l 399.254 -170.988 l 398.504 -168.848
 l 398.426 -168.625 l 398.344 -168.391 l 397.969 -167.266 l 397.594 -166.137
 l 397.52 -165.902 l 397.438 -165.66 l 397.059 -164.496 l 396.688 -163.336
 l 396.609 -163.09 l 396.531 -162.836 l 396.152 -161.605 l 395.781 -160.379
 l 395.703 -160.121 l 395.625 -159.855 l 395.246 -158.578 l 394.871 -157.305
 l 394.797 -157.035 l 394.719 -156.758 l 394.34 -155.414 l 393.965 -154.074
 l 393.891 -153.793 l 393.809 -153.5 l 393.43 -152.094 l 393.059 -150.688
 l 392.984 -150.391 l 392.902 -150.086 l 392.523 -148.613 l 392.152 -147.141
 l 392.074 -146.832 l 391.996 -146.508 l 391.617 -144.961 l 391.246 -143.414
 l 391.168 -143.09 l 391.09 -142.75 l 390.711 -141.117 l 390.34 -139.484
 l 390.262 -139.145 l 390.18 -138.789 l 389.801 -137.082 l 389.43 -135.371
 l 389.355 -135.016 l 389.273 -134.641 l 388.895 -132.84 l 388.523 -131.039
 l 388.445 -130.66 l 388.414 -130.5 l 388.316 -130.012 l 388.172 -129.281
 l 388.02 -128.52 l 387.871 -127.781 l 387.742 -127.113 l 387.566 -126.215
 l 387.539 -126.082 l S Q
429.578 217.148 m 423.82 214.273 l 426.453 220.145 l 426.336 216.898 l f
1 g
479.863 244.602 m 479.863 243.738 479.164 243.039 478.301 243.039 c 477.438
 243.039 476.738 243.738 476.738 244.602 c 476.738 245.465 477.438 246.164
 478.301 246.164 c 479.164 246.164 479.863 245.465 479.863 244.602 c f
0 g
479.863 244.602 m 479.863 243.738 479.164 243.039 478.301 243.039 c 477.438
 243.039 476.738 243.738 476.738 244.602 c 476.738 245.465 477.438 246.164
 478.301 246.164 c 479.164 246.164 479.863 245.465 479.863 244.602 c h
479.863 244.602 m 479.707 244.602 l 479.707 243.824 479.078 243.195 478.301
 243.195 c 477.523 243.195 476.895 243.824 476.895 244.602 c 476.895 245.379
 477.523 246.008 478.301 246.008 c 479.078 246.008 479.707 245.379 479.707
 244.602 c f
1 g
389.062 104.898 m 389.062 104.035 388.363 103.336 387.5 103.336 c 386.637
 103.336 385.938 104.035 385.938 104.898 c 385.938 105.762 386.637 106.461
 387.5 106.461 c 388.363 106.461 389.062 105.762 389.062 104.898 c f
0 g
389.062 104.898 m 389.062 104.035 388.363 103.336 387.5 103.336 c 386.637
 103.336 385.938 104.035 385.938 104.898 c 385.938 105.762 386.637 106.461
 387.5 106.461 c 388.363 106.461 389.062 105.762 389.062 104.898 c h
389.062 104.898 m 388.906 104.898 l 388.906 104.121 388.277 103.492 387.5
 103.492 c 386.723 103.492 386.094 104.121 386.094 104.898 c 386.094 105.676
 386.723 106.305 387.5 106.305 c 388.277 106.305 388.906 105.676 388.906
 104.898 c f
1 g
389.062 126.102 m 389.062 125.238 388.363 124.539 387.5 124.539 c 386.637
 124.539 385.938 125.238 385.938 126.102 c 385.938 126.965 386.637 127.664
 387.5 127.664 c 388.363 127.664 389.062 126.965 389.062 126.102 c f
0 g
389.062 126.102 m 389.062 125.238 388.363 124.539 387.5 124.539 c 386.637
 124.539 385.938 125.238 385.938 126.102 c 385.938 126.965 386.637 127.664
 387.5 127.664 c 388.363 127.664 389.062 126.965 389.062 126.102 c h
389.062 126.102 m 388.906 126.102 l 388.906 125.324 388.277 124.695 387.5
 124.695 c 386.723 124.695 386.094 125.324 386.094 126.102 c 386.094 126.879
 386.723 127.508 387.5 127.508 c 388.277 127.508 388.906 126.879 388.906
 126.102 c f
0.567043 w
[] 0.0 d
q 1 0 0 -1 0 0 cm
342.188 -85.852 158.742 -181.418 re S Q
0.398506 w
q 1 0 0 -1 0 0 cm
342.188 -267.27 m 342.188 -263.02 l S Q
q 1 0 0 -1 0 0 cm
387.543 -267.27 m 387.543 -263.02 l S Q
q 1 0 0 -1 0 0 cm
432.898 -267.27 m 432.898 -263.02 l S Q
q 1 0 0 -1 0 0 cm
478.258 -267.27 m 478.258 -263.02 l S Q
q 1 0 0 -1 0 0 cm
342.188 -267.27 m 342.188 -263.02 l S Q
q 1 0 0 -1 0 0 cm
342.188 -267.27 m 346.438 -267.27 l S Q
q 1 0 0 -1 0 0 cm
342.188 -221.914 m 346.438 -221.914 l S Q
q 1 0 0 -1 0 0 cm
342.188 -176.562 m 346.438 -176.562 l S Q
q 1 0 0 -1 0 0 cm
342.188 -131.207 m 346.438 -131.207 l S Q
q 1 0 0 -1 0 0 cm
342.188 -85.852 m 346.438 -85.852 l S Q
q 1 0 0 -1 0 0 cm
342.188 -267.27 m 346.438 -267.27 l S Q
q 1 0 0 -1 0 0 cm
342.188 -85.852 m 342.188 -90.105 l S Q
q 1 0 0 -1 0 0 cm
387.543 -85.852 m 387.543 -90.105 l S Q
q 1 0 0 -1 0 0 cm
432.898 -85.852 m 432.898 -90.105 l S Q
q 1 0 0 -1 0 0 cm
478.258 -85.852 m 478.258 -90.105 l S Q
q 1 0 0 -1 0 0 cm
342.188 -85.852 m 342.188 -90.105 l S Q
q 1 0 0 -1 0 0 cm
500.93 -267.27 m 496.676 -267.27 l S Q
q 1 0 0 -1 0 0 cm
500.93 -221.914 m 496.676 -221.914 l S Q
q 1 0 0 -1 0 0 cm
500.93 -176.562 m 496.676 -176.562 l S Q
q 1 0 0 -1 0 0 cm
500.93 -131.207 m 496.676 -131.207 l S Q
q 1 0 0 -1 0 0 cm
500.93 -85.852 m 496.676 -85.852 l S Q
q 1 0 0 -1 0 0 cm
500.93 -267.27 m 496.676 -267.27 l S Q
344.141 273.797 m 344.141 272.188 343.406 270.734 342.156 270.734 c 340.891
 270.734 340.156 272.188 340.156 273.797 c 340.156 275.422 340.844 276.859
 342.156 276.859 c 343.359 276.859 344.141 275.422 344.141 273.797 c h
343.281 273.797 m 343.281 275.094 343.156 276.609 342.156 276.609 c 341.203
 276.609 341.016 275.094 341.016 273.797 c 341.016 272.719 341.141 270.969
 342.156 270.969 c 343.156 270.969 343.281 272.719 343.281 273.797 c h
343.281 273.797 m f
383.859 273.797 m 383.859 272.188 383.125 270.734 381.875 270.734 c 380.609
 270.734 379.875 272.188 379.875 273.797 c 379.875 275.422 380.562 276.859
 381.875 276.859 c 383.078 276.859 383.859 275.422 383.859 273.797 c h
383 273.797 m 383 275.094 382.875 276.609 381.875 276.609 c 380.922 276.609
 380.734 275.094 380.734 273.797 c 380.734 272.719 380.859 270.969 381.875
 270.969 c 382.875 270.969 383 272.719 383 273.797 c h
383 273.797 m f
385.785 276.375 m 385.785 276.094 385.566 275.875 385.285 275.875 c 385.004
 275.875 384.785 276.094 384.785 276.375 c 384.785 276.656 385.004 276.875
 385.285 276.875 c 385.566 276.875 385.785 276.656 385.785 276.375 c h
385.785 276.375 m f
389.949 276.75 m 389.949 276.609 l 389.355 276.609 389.137 276.625 389.137
 275.453 c 389.137 275.438 389.137 270.703 389.137 270.703 c 389.012 270.703
 l 387.48 271.438 l 387.527 271.578 l 387.855 271.438 387.934 271.406 388.059
 271.406 c 388.324 271.406 388.371 271.641 388.371 271.953 c 388.371 275.453
 l 388.371 276.625 388.152 276.594 387.559 276.609 c 387.559 276.75 l h
389.949 276.75 m f
395.141 273.797 m 395.141 272.188 394.406 270.734 393.156 270.734 c 391.891
 270.734 391.156 272.188 391.156 273.797 c 391.156 275.422 391.844 276.859
 393.156 276.859 c 394.359 276.859 395.141 275.422 395.141 273.797 c h
394.281 273.797 m 394.281 275.094 394.156 276.609 393.156 276.609 c 392.203
 276.609 392.016 275.094 392.016 273.797 c 392.016 272.719 392.141 270.969
 393.156 270.969 c 394.156 270.969 394.281 272.719 394.281 273.797 c h
394.281 273.797 m f
429.219 273.797 m 429.219 272.188 428.484 270.734 427.234 270.734 c 425.969
 270.734 425.234 272.188 425.234 273.797 c 425.234 275.422 425.922 276.859
 427.234 276.859 c 428.438 276.859 429.219 275.422 429.219 273.797 c h
428.359 273.797 m 428.359 275.094 428.234 276.609 427.234 276.609 c 426.281
 276.609 426.094 275.094 426.094 273.797 c 426.094 272.719 426.219 270.969
 427.234 270.969 c 428.234 270.969 428.359 272.719 428.359 273.797 c h
428.359 273.797 m f
431.145 276.375 m 431.145 276.094 430.926 275.875 430.645 275.875 c 430.363
 275.875 430.145 276.094 430.145 276.375 c 430.145 276.656 430.363 276.875
 430.645 276.875 c 430.926 276.875 431.145 276.656 431.145 276.375 c h
431.145 276.375 m f
436.09 275.594 m 435.934 275.562 l 435.668 276.016 435.449 276.094 435.012
 276.094 c 432.949 276.094 l 434.371 274.797 435.668 273.625 435.668 272.312
 c 435.668 271.391 434.871 270.734 433.996 270.734 c 433.137 270.734 432.449
 271.203 432.184 272.422 c 432.387 272.422 l 432.637 271.922 432.98 271.406
 433.668 271.406 c 434.449 271.406 434.887 272 434.887 272.672 c 434.887
 273.641 433.855 275.062 432.09 276.609 c 432.09 276.75 l 435.621 276.75
 l h
436.09 275.594 m f
440.5 273.797 m 440.5 272.188 439.766 270.734 438.516 270.734 c 437.25 
270.734 436.516 272.188 436.516 273.797 c 436.516 275.422 437.203 276.859
 438.516 276.859 c 439.719 276.859 440.5 275.422 440.5 273.797 c h
439.641 273.797 m 439.641 275.094 439.516 276.609 438.516 276.609 c 437.562
 276.609 437.375 275.094 437.375 273.797 c 437.375 272.719 437.5 270.969
 438.516 270.969 c 439.516 270.969 439.641 272.719 439.641 273.797 c h
439.641 273.797 m f
474.582 273.797 m 474.582 272.188 473.848 270.734 472.598 270.734 c 471.332
 270.734 470.598 272.188 470.598 273.797 c 470.598 275.422 471.285 276.859
 472.598 276.859 c 473.801 276.859 474.582 275.422 474.582 273.797 c h
473.723 273.797 m 473.723 275.094 473.598 276.609 472.598 276.609 c 471.645
 276.609 471.457 275.094 471.457 273.797 c 471.457 272.719 471.582 270.969
 472.598 270.969 c 473.598 270.969 473.723 272.719 473.723 273.797 c h
473.723 273.797 m f
476.504 276.375 m 476.504 276.094 476.285 275.875 476.004 275.875 c 475.723
 275.875 475.504 276.094 475.504 276.375 c 475.504 276.656 475.723 276.875
 476.004 276.875 c 476.285 276.875 476.504 276.656 476.504 276.375 c h
476.504 276.375 m f
481.078 274.812 m 481.078 273.875 480.531 273.469 480 273.25 c 480.578 
272.812 480.766 272.406 480.766 271.922 c 480.766 271.406 480.344 270.734
 479.375 270.734 c 478.672 270.734 478 271.125 477.703 272.094 c 477.844
 272.125 l 478.031 271.766 478.391 271.312 479.047 271.312 c 479.688 271.312
 480.062 271.75 480.062 272.25 c 480.062 272.953 479.516 273.453 478.703
 273.641 c 478.688 273.828 l 480.078 273.766 480.422 274.672 480.422 275.234
 c 480.422 275.906 479.938 276.516 479.297 276.516 c 478.719 276.516 478.469
 276.016 477.984 276.016 c 477.828 276.016 477.641 276.172 477.641 276.375
 c 477.641 276.75 478.203 276.859 478.609 276.859 c 480.031 276.859 481.078
 276.047 481.078 274.812 c h
481.078 274.812 m f
485.859 273.797 m 485.859 272.188 485.125 270.734 483.875 270.734 c 482.609
 270.734 481.875 272.188 481.875 273.797 c 481.875 275.422 482.562 276.859
 483.875 276.859 c 485.078 276.859 485.859 275.422 485.859 273.797 c h
485 273.797 m 485 275.094 484.875 276.609 483.875 276.609 c 482.922 276.609
 482.734 275.094 482.734 273.797 c 482.734 272.719 482.859 270.969 483.875
 270.969 c 484.875 270.969 485 272.719 485 273.797 c h
485 273.797 m f
338.5 267.316 m 338.5 265.707 337.766 264.254 336.516 264.254 c 335.25 
264.254 334.516 265.707 334.516 267.316 c 334.516 268.941 335.203 270.379
 336.516 270.379 c 337.719 270.379 338.5 268.941 338.5 267.316 c h
337.641 267.316 m 337.641 268.613 337.516 270.129 336.516 270.129 c 335.562
 270.129 335.375 268.613 335.375 267.316 c 335.375 266.238 335.5 264.488
 336.516 264.488 c 337.516 264.488 337.641 266.238 337.641 267.316 c h
337.641 267.316 m f
338.531 223.754 m 338.375 223.723 l 338.109 224.176 337.891 224.254 337.453
 224.254 c 335.391 224.254 l 336.812 222.957 338.109 221.785 338.109 220.473
 c 338.109 219.551 337.312 218.895 336.438 218.895 c 335.578 218.895 334.891
 219.363 334.625 220.582 c 334.828 220.582 l 335.078 220.082 335.422 219.566
 336.109 219.566 c 336.891 219.566 337.328 220.16 337.328 220.832 c 337.328
 221.801 336.297 223.223 334.531 224.77 c 334.531 224.91 l 338.062 224.91
 l h
338.531 223.754 m f
338.516 178.066 m 338.516 177.457 l 337.641 177.457 l 337.641 173.535 l
 337.203 173.535 l 334.609 177.441 l 334.609 178.066 l 336.906 178.066 l
 336.906 179.551 l 337.641 179.551 l 337.641 178.066 l h
336.906 177.457 m 334.969 177.457 l 336.891 174.473 l 336.906 174.473 l
 h
336.906 177.457 m f
338.453 132.176 m 338.453 131.191 337.75 130.457 336.859 130.457 c 336.406
 130.457 336.031 130.598 335.641 130.91 c 336.031 129.316 337.203 128.316
 338.328 128.301 c 338.328 128.145 l 335.562 128.145 334.688 130.488 334.688
 131.816 c 334.688 133.238 335.516 134.301 336.625 134.301 c 337.641 134.301
 338.453 133.348 338.453 132.176 c h
337.688 132.629 m 337.688 133.457 337.312 134.035 336.719 134.035 c 335.797
 134.035 335.516 132.691 335.516 131.973 c 335.516 131.738 335.547 131.488
 335.594 131.191 c 335.984 130.941 336.297 130.832 336.609 130.832 c 337.516
 130.832 337.688 131.879 337.688 132.629 c h
337.688 132.629 m f
338.234 87.574 m 338.234 86.934 337.953 86.449 336.859 85.637 c 337.547
 85.262 338.078 84.84 338.078 84.184 c 338.078 83.496 337.438 82.902 336.484
 82.902 c 335.641 82.902 334.844 83.449 334.844 84.293 c 334.844 84.949 
335.188 85.34 335.953 85.949 c 335.094 86.605 334.781 86.934 334.781 87.605
 c 334.781 88.355 335.453 89.059 336.5 89.059 c 337.719 89.059 338.234 88.23
 338.234 87.574 c h
337.469 84.168 m 337.469 84.809 337.094 85.152 336.609 85.48 c 336.016 
85.059 335.5 84.59 335.5 84.074 c 335.5 83.59 335.844 83.168 336.453 83.168
 c 337.125 83.168 337.469 83.59 337.469 84.168 c h
337.594 87.824 m 337.594 88.402 337.156 88.793 336.578 88.793 c 335.891
 88.793 335.453 88.246 335.453 87.512 c 335.453 86.84 335.781 86.449 336.188
 86.105 c 337.172 86.855 337.594 87.23 337.594 87.824 c h
337.594 87.824 m f
414.008 284.402 m 414.008 284.262 l 412.289 284.262 l 412.289 284.402 l
 412.477 284.402 412.789 284.48 412.789 284.73 c 412.789 284.949 412.57 
285.309 412.445 285.496 c 410.055 289.012 l 409.883 285.09 l 409.852 284.527
 410.164 284.402 410.648 284.402 c 410.648 284.262 l 408.336 284.262 l 408.336
 284.402 l 408.945 284.402 408.992 284.684 409.07 285.418 c 409.273 290.449
 l 409.43 290.449 l 413.055 285.121 l 413.227 284.902 413.617 284.402 414.008
 284.402 c h
414.008 284.402 m f
417.664 283.871 m 417.227 283.871 l 414.117 292.23 l 414.57 292.23 l h
417.664 283.871 m f
424.164 289.793 m 424.039 289.793 423.992 289.793 423.961 289.793 c 423.648
 289.793 423.555 289.699 423.555 289.293 c 423.555 284.199 l 423.523 284.184
 l 423.102 284.324 422.789 284.418 422.195 284.574 c 422.195 284.715 l 422.273
 284.715 422.32 284.715 422.398 284.715 c 422.727 284.715 422.805 284.809
 422.805 285.168 c 422.805 286.574 l 422.461 286.277 422.227 286.184 421.867
 286.184 c 420.836 286.184 419.992 287.199 419.992 288.465 c 419.992 289.621
 420.664 290.402 421.664 290.402 c 422.164 290.402 422.508 290.215 422.805
 289.793 c 422.805 290.371 l 422.836 290.402 l 424.164 289.934 l h
422.805 289.387 m 422.805 289.449 422.742 289.559 422.648 289.668 c 422.508
 289.84 422.273 289.934 422.008 289.934 c 421.258 289.934 420.773 289.215
 420.773 288.105 c 420.773 287.105 421.211 286.434 421.898 286.434 c 422.383
 286.434 422.805 286.855 422.805 287.324 c h
422.805 289.387 m f
424.34 290.309 m 426.34 290.309 l 426.34 290.168 l 425.871 290.168 425.73
 290.074 425.73 289.715 c 425.73 287.184 l 425.73 287.168 425.793 287.074
 425.855 287.012 c 426.09 286.809 426.465 286.652 426.777 286.652 c 427.184
 286.652 427.371 286.965 427.371 287.59 c 427.371 289.543 l 427.355 290.043
 427.262 290.152 426.762 290.168 c 426.762 290.309 l 428.777 290.309 l 428.777
 290.168 l 428.277 290.168 428.152 290.027 428.121 289.449 c 428.121 287.199
 l 428.402 286.809 428.684 286.652 429.105 286.652 c 429.621 286.652 429.777
 286.887 429.777 287.637 c 429.777 289.527 l 429.762 290.059 429.699 290.121
 429.184 290.168 c 429.184 290.309 l 431.152 290.309 l 431.152 290.168 l
 430.918 290.152 l 430.637 290.105 430.527 289.98 430.527 289.621 c 430.527
 287.777 l 430.527 286.715 430.184 286.184 429.496 286.184 c 428.965 286.184
 428.512 286.418 428.027 286.934 c 427.871 286.418 427.559 286.184 427.074
 286.184 c 426.668 286.184 426.434 286.293 425.684 286.871 c 425.684 286.199
 l 425.621 286.184 l 425.152 286.355 424.84 286.449 424.371 286.59 c 424.371
 286.746 l 424.48 286.715 424.559 286.699 424.652 286.699 c 424.887 286.699
 424.965 286.84 424.965 287.277 c 424.965 289.543 l 424.949 290.043 424.84
 290.168 424.34 290.168 c h
424.34 290.309 m f
434.703 285.539 m 434.703 284.82 434.281 284.508 433.828 284.336 c 434.297
 284.008 434.453 283.695 434.453 283.32 c 434.453 282.914 434.078 282.367
 433.219 282.367 c 432.594 282.367 432 282.664 431.734 283.477 c 431.938
 283.523 l 432.094 283.242 432.406 282.898 432.938 282.898 c 433.453 282.898
 433.75 283.211 433.75 283.57 c 433.75 284.086 433.297 284.461 432.609 284.617
 c 432.578 284.82 l 433.781 284.773 434.062 285.461 434.062 285.867 c 434.062
 286.352 433.672 286.805 433.156 286.805 c 432.656 286.805 432.438 286.414
 432.031 286.414 c 431.859 286.414 431.688 286.555 431.688 286.742 c 431.688
 287.039 432.188 287.148 432.562 287.148 c 433.797 287.148 434.703 286.492
 434.703 285.539 c h
434.703 285.539 m f
327.926 187.328 m 327.223 187.328 326.754 187.641 326.754 188.312 c 326.754
 188.906 327.176 189.359 327.738 189.766 c 326.754 189.453 l 326.754 189.453
 326.988 190.656 327.004 190.922 c 327.16 190.922 l 327.16 190.594 327.129
 190.328 327.488 190.328 c 327.66 190.328 328.051 190.438 328.27 190.5 c
 332.004 191.562 l 332.348 191.656 332.598 191.812 332.598 192.25 c 332.754
 192.281 l 332.754 190.312 l 332.598 190.281 l 332.598 190.625 332.582 190.922
 332.332 190.922 c 332.254 190.922 332.16 190.906 331.988 190.859 c 330.738
 190.547 l 330.879 190.375 330.957 190.109 330.957 189.891 c 330.957 188.812
 329.426 187.328 327.926 187.328 c h
328.02 188.094 m 329.191 188.094 330.754 189.078 330.754 189.922 c 330.754
 190.125 330.676 190.312 330.504 190.484 c 329.707 190.281 327.176 189.734
 327.176 188.578 c 327.176 188.094 327.816 188.094 328.02 188.094 c h
328.02 188.094 m f
325.422 184.453 m 324.469 184.469 l 324.469 184.547 l 324.516 184.578 324.547
 184.625 324.547 184.656 c 324.547 184.703 324.531 184.766 324.5 184.844
 c 324.438 185.016 324.406 185.172 324.406 185.344 c 324.406 185.891 324.766
 186.281 325.266 186.281 c 325.656 186.281 325.938 186.062 326.266 185.469
 c 326.5 185.062 l 326.641 184.828 326.812 184.703 327.031 184.703 c 327.328
 184.703 327.531 184.922 327.531 185.281 c 327.531 185.766 327.266 186 326.547
 186.172 c 326.547 186.281 l 327.641 186.281 l 327.641 186.188 l 327.562
 186.141 327.547 186.109 327.547 186.031 c 327.547 185.953 327.562 185.859
 327.609 185.703 c 327.656 185.516 327.672 185.344 327.672 185.203 c 327.672
 184.656 327.281 184.219 326.781 184.219 c 326.438 184.219 326.203 184.375
 325.953 184.797 c 325.516 185.547 l 325.391 185.75 325.219 185.859 325.031
 185.859 c 324.75 185.859 324.562 185.641 324.562 185.312 c 324.562 184.922
 324.797 184.703 325.422 184.547 c h
325.422 184.453 m f
324.469 180.57 m 324.469 181.508 l 324.578 181.508 l 324.578 181.289 324.641
 181.18 324.75 181.18 c 324.781 181.18 324.828 181.18 324.875 181.211 c 
326.797 181.883 l 325.031 182.68 l 324.938 182.727 324.828 182.758 324.766
 182.758 c 324.641 182.758 324.594 182.648 324.578 182.352 c 324.469 182.352
 l 324.469 183.789 l 324.578 183.789 l 324.594 183.602 324.672 183.492 324.797
 183.43 c 326.516 182.633 l 326.703 182.555 326.703 182.539 326.766 182.508
 c 327.125 182.32 327.375 182.211 327.484 182.211 c 327.594 182.211 328.016
 182.367 328.234 182.477 c 328.406 182.586 328.547 182.727 328.547 182.836
 c 328.547 182.867 328.531 182.93 328.5 183.008 c 328.453 183.133 328.422
 183.258 328.422 183.367 c 328.422 183.539 328.547 183.68 328.719 183.68
 c 328.953 183.68 329.125 183.461 329.125 183.164 c 329.125 182.68 328.75
 182.367 327.734 181.977 c 324.891 180.914 l 324.672 180.82 324.594 180.742
 324.578 180.57 c h
324.469 180.57 m f
325.422 178.215 m 324.469 178.23 l 324.469 178.309 l 324.516 178.34 324.547
 178.387 324.547 178.418 c 324.547 178.465 324.531 178.527 324.5 178.605
 c 324.438 178.777 324.406 178.934 324.406 179.105 c 324.406 179.652 324.766
 180.043 325.266 180.043 c 325.656 180.043 325.938 179.824 326.266 179.23
 c 326.5 178.824 l 326.641 178.59 326.812 178.465 327.031 178.465 c 327.328
 178.465 327.531 178.684 327.531 179.043 c 327.531 179.527 327.266 179.762
 326.547 179.934 c 326.547 180.043 l 327.641 180.043 l 327.641 179.949 l
 327.562 179.902 327.547 179.871 327.547 179.793 c 327.547 179.715 327.562
 179.621 327.609 179.465 c 327.656 179.277 327.672 179.105 327.672 178.965
 c 327.672 178.418 327.281 177.98 326.781 177.98 c 326.438 177.98 326.203
 178.137 325.953 178.559 c 325.516 179.309 l 325.391 179.512 325.219 179.621
 325.031 179.621 c 324.75 179.621 324.562 179.402 324.562 179.074 c 324.562
 178.684 324.797 178.465 325.422 178.309 c h
325.422 178.215 m f
324.785 173.262 m 324.785 173.871 l 330.973 175.918 l 330.973 175.309 l
 h
324.785 173.262 m f
324.738 170.508 m 324.723 170.555 l 324.848 170.93 324.926 171.164 325.051
 171.602 c 325.113 171.852 l 325.254 171.852 l 325.254 171.805 325.254 171.773
 325.254 171.711 c 325.254 171.352 325.332 171.258 325.707 171.258 c 330.363
 171.258 l 330.645 171.258 330.941 170.508 330.941 169.789 c 330.941 168.602
 329.957 167.68 328.676 167.68 c 327.551 167.68 326.723 168.367 326.723 
169.258 c 326.723 169.805 327.035 170.336 327.488 170.508 c h
327.957 170.508 m 327.613 170.508 327.285 170.086 327.285 169.617 c 327.285
 169.367 327.379 169.148 327.551 168.961 c 327.832 168.68 328.441 168.477
 329.082 168.477 c 330.082 168.477 330.645 168.898 330.645 169.633 c 330.645
 170.102 330.457 170.508 330.223 170.508 c h
327.957 170.508 m f
330.254 163.473 m 330.379 163.629 330.426 163.738 330.426 163.879 c 330.426
 164.082 330.301 164.145 329.91 164.145 c 328.16 164.145 l 327.691 164.145
 327.426 164.191 327.223 164.316 c 326.895 164.52 326.723 164.91 326.723
 165.426 c 326.723 166.27 327.16 166.941 327.723 166.941 c 327.926 166.941
 328.113 166.77 328.113 166.551 c 328.113 166.332 327.926 166.145 327.738
 166.145 c 327.707 166.145 327.66 166.16 327.598 166.16 c 327.504 166.191
 327.441 166.191 327.379 166.191 c 327.129 166.191 326.941 165.91 326.941
 165.551 c 326.941 165.113 327.191 164.863 327.676 164.863 c 328.223 164.863
 l 328.77 166.238 328.863 166.395 329.191 166.785 c 329.379 166.988 329.676
 167.113 329.973 167.113 c 330.535 167.113 330.941 166.723 330.941 166.16
 c 330.941 165.77 330.754 165.41 330.285 164.863 c 330.754 164.816 330.941
 164.645 330.941 164.285 c 330.941 163.973 330.832 163.785 330.488 163.473
 c h
329.738 164.863 m 330.02 164.863 330.113 164.91 330.223 165.098 c 330.348
 165.332 330.41 165.566 330.41 165.754 c 330.41 166.066 330.113 166.316 
329.723 166.316 c 329.691 166.316 l 329.16 166.316 328.816 165.91 328.441
 164.863 c h
329.738 164.863 m f
330.848 163.434 m 330.848 161.277 l 330.707 161.277 l 330.691 161.887 330.566
 162.027 330.035 162.043 c 328.02 162.043 l 327.738 162.043 327.285 161.668
 327.285 161.418 c 327.285 161.371 327.332 161.277 327.426 161.184 c 327.551
 161.043 327.598 160.949 327.598 160.824 c 327.598 160.605 327.441 160.48
 327.191 160.48 c 326.895 160.48 326.723 160.668 326.723 160.965 c 326.723
 161.34 326.926 161.59 327.566 162.043 c 326.738 162.043 l 326.723 162.09
 l 326.926 162.59 327.051 162.918 327.207 163.418 c 327.348 163.418 l 327.316
 163.293 327.316 163.215 327.316 163.105 c 327.316 162.887 327.457 162.793
 327.848 162.793 c 330.098 162.793 l 330.566 162.824 330.613 162.871 330.707
 163.434 c h
330.848 163.434 m f
418.918 299.969 m 418.262 300.406 417.996 300.625 417.652 301.047 c 417.027
 301.828 416.715 302.719 416.715 303.766 c 416.715 304.922 417.043 305.797
 417.824 306.703 c 418.199 307.141 418.434 307.328 418.902 307.625 c 418.996
 307.469 l 418.293 306.906 418.043 306.594 417.793 305.922 c 417.574 305.328
 417.48 304.656 417.48 303.75 c 417.48 302.797 417.59 302.062 417.84 301.516
 c 418.09 300.953 418.355 300.625 418.996 300.109 c h
418.918 299.969 m f
420.652 299.922 m 420.605 299.906 l 420.23 300.031 419.996 300.109 419.559
 300.234 c 419.309 300.297 l 419.309 300.438 l 419.355 300.438 419.387 300.438
 419.449 300.438 c 419.809 300.438 419.902 300.516 419.902 300.891 c 419.902
 305.547 l 419.902 305.828 420.652 306.125 421.371 306.125 c 422.559 306.125
 423.48 305.141 423.48 303.859 c 423.48 302.734 422.793 301.906 421.902 
301.906 c 421.355 301.906 420.824 302.219 420.652 302.672 c h
420.652 303.141 m 420.652 302.797 421.074 302.469 421.543 302.469 c 421.793
 302.469 422.012 302.562 422.199 302.734 c 422.48 303.016 422.684 303.625
 422.684 304.266 c 422.684 305.266 422.262 305.828 421.527 305.828 c 421.059
 305.828 420.652 305.641 420.652 305.406 c h
420.652 303.141 m f
424.062 307.625 m 424.719 307.172 425 306.953 425.328 306.547 c 425.969
 305.766 426.281 304.859 426.281 303.812 c 426.281 302.672 425.938 301.797
 425.156 300.891 c 424.781 300.453 424.547 300.25 424.094 299.969 c 423.984
 300.109 l 424.703 300.672 424.938 300.984 425.188 301.656 c 425.406 302.266
 425.5 302.938 425.5 303.844 c 425.5 304.781 425.391 305.516 425.141 306.062
 c 424.906 306.625 424.625 306.953 423.984 307.469 c h
424.062 307.625 m f
Q Q
showpage
%%Trailer
end
%%EOF
