%!PS-Adobe-3.0 EPSF-3.0
%%Creator: cairo 1.16.0 (https://cairographics.org)
%%CreationDate: Sun Apr 25 08:53:48 2021
%%Pages: 1
%%DocumentData: Clean7Bit
%%LanguageLevel: 2
%%BoundingBox: 149 583 267 676
%%EndComments
%%BeginProlog
50 dict begin
/q { gsave } bind def
/Q { grestore } bind def
/cm { 6 array astore concat } bind def
/w { setlinewidth } bind def
/J { setlinecap } bind def
/j { setlinejoin } bind def
/M { setmiterlimit } bind def
/d { setdash } bind def
/m { moveto } bind def
/l { lineto } bind def
/c { curveto } bind def
/h { closepath } bind def
/re { exch dup neg 3 1 roll 5 3 roll moveto 0 rlineto
      0 exch rlineto 0 rlineto closepath } bind def
/S { stroke } bind def
/f { fill } bind def
/f* { eofill } bind def
/n { newpath } bind def
/W { clip } bind def
/W* { eoclip } bind def
/BT { } bind def
/ET { } bind def
/BDC { mark 3 1 roll /BDC pdfmark } bind def
/EMC { mark /EMC pdfmark } bind def
/cairo_store_point { /cairo_point_y exch def /cairo_point_x exch def } def
/Tj { show currentpoint cairo_store_point } bind def
/TJ {
  {
    dup
    type /stringtype eq
    { show } { -0.001 mul 0 cairo_font_matrix dtransform rmoveto } ifelse
  } forall
  currentpoint cairo_store_point
} bind def
/cairo_selectfont { cairo_font_matrix aload pop pop pop 0 0 6 array astore
    cairo_font exch selectfont cairo_point_x cairo_point_y moveto } bind def
/Tf { pop /cairo_font exch def /cairo_font_matrix where
      { pop cairo_selectfont } if } bind def
/Td { matrix translate cairo_font_matrix matrix concatmatrix dup
      /cairo_font_matrix exch def dup 4 get exch 5 get cairo_store_point
      /cairo_font where { pop cairo_selectfont } if } bind def
/Tm { 2 copy 8 2 roll 6 array astore /cairo_font_matrix exch def
      cairo_store_point /cairo_font where { pop cairo_selectfont } if } bind def
/g { setgray } bind def
/rg { setrgbcolor } bind def
/d1 { setcachedevice } bind def
/cairo_data_source {
  CairoDataIndex CairoData length lt
    { CairoData CairoDataIndex get /CairoDataIndex CairoDataIndex 1 add def }
    { () } ifelse
} def
/cairo_flush_ascii85_file { cairo_ascii85_file status { cairo_ascii85_file flushfile } if } def
/cairo_image { image cairo_flush_ascii85_file } def
/cairo_imagemask { imagemask cairo_flush_ascii85_file } def
%%EndProlog
%%BeginSetup
%%EndSetup
%%Page: 1 1
%%BeginPageSetup
%%PageBoundingBox: 149 583 267 676
%%EndPageSetup
q 149 583 118 93 rectclip
1 0 0 -1 0 794 cm q
0 g
193.203 128.793 m 192.031 125.512 l 190.859 128.793 l 192.031 127.48 l f
0.425176 w
0 J
0 j
[] 0.0 d
10 M q 1 0 0 -1 0 0 cm
192.031 -210.551 m 192.031 -127.48 l S Q
231.266 169.203 m 234.551 168.031 l 231.266 166.855 l 232.578 168.031 l
 f
q 1 0 0 -1 0 0 cm
149.512 -168.031 m 232.578 -168.031 l S Q
240.816 172.352 m 239.457 168.18 l 240.816 163.992 l 240.27 163.992 l 238.91
 168.18 l 240.27 172.352 l h
240.816 172.352 m f
245.676 169.793 m 245.551 169.793 245.504 169.793 245.473 169.793 c 245.16
 169.793 245.066 169.699 245.066 169.293 c 245.066 164.199 l 245.035 164.184
 l 244.613 164.324 244.301 164.418 243.707 164.574 c 243.707 164.715 l 243.785
 164.715 243.832 164.715 243.91 164.715 c 244.238 164.715 244.316 164.809
 244.316 165.168 c 244.316 166.574 l 243.973 166.277 243.738 166.184 243.379
 166.184 c 242.348 166.184 241.504 167.199 241.504 168.465 c 241.504 169.621
 242.176 170.402 243.176 170.402 c 243.676 170.402 244.02 170.215 244.316
 169.793 c 244.316 170.371 l 244.348 170.402 l 245.676 169.934 l h
244.316 169.387 m 244.316 169.449 244.254 169.559 244.16 169.668 c 244.02
 169.84 243.785 169.934 243.52 169.934 c 242.77 169.934 242.285 169.215 
242.285 168.105 c 242.285 167.105 242.723 166.434 243.41 166.434 c 243.895
 166.434 244.316 166.855 244.316 167.324 c h
244.316 169.387 m f
252.32 164.402 m 252.32 164.262 l 250.602 164.262 l 250.602 164.402 l 250.789
 164.402 251.102 164.48 251.102 164.73 c 251.102 164.949 250.883 165.309
 250.758 165.496 c 248.367 169.012 l 248.195 165.09 l 248.164 164.527 248.477
 164.402 248.961 164.402 c 248.961 164.262 l 246.648 164.262 l 246.648 164.402
 l 247.258 164.402 247.305 164.684 247.383 165.418 c 247.586 170.449 l 247.742
 170.449 l 251.367 165.121 l 251.539 164.902 251.93 164.402 252.32 164.402
 c h
252.32 164.402 m f
255.375 163.871 m 254.938 163.871 l 251.828 172.23 l 252.281 172.23 l h
255.375 163.871 m f
260.316 169.793 m 260.191 169.793 260.145 169.793 260.113 169.793 c 259.801
 169.793 259.707 169.699 259.707 169.293 c 259.707 164.199 l 259.676 164.184
 l 259.254 164.324 258.941 164.418 258.348 164.574 c 258.348 164.715 l 258.426
 164.715 258.473 164.715 258.551 164.715 c 258.879 164.715 258.957 164.809
 258.957 165.168 c 258.957 166.574 l 258.613 166.277 258.379 166.184 258.02
 166.184 c 256.988 166.184 256.145 167.199 256.145 168.465 c 256.145 169.621
 256.816 170.402 257.816 170.402 c 258.316 170.402 258.66 170.215 258.957
 169.793 c 258.957 170.371 l 258.988 170.402 l 260.316 169.934 l h
258.957 169.387 m 258.957 169.449 258.895 169.559 258.801 169.668 c 258.66
 169.84 258.426 169.934 258.16 169.934 c 257.41 169.934 256.926 169.215 
256.926 168.105 c 256.926 167.105 257.363 166.434 258.051 166.434 c 258.535
 166.434 258.957 166.855 258.957 167.324 c h
258.957 169.387 m f
262.973 166.293 m 262.301 166.293 l 262.598 165.215 l 262.457 165.215 l
 262.035 165.84 261.535 166.262 260.926 166.402 c 260.879 166.59 l 261.551
 166.59 l 260.816 169.293 l 260.785 169.48 260.676 169.84 260.676 169.98
 c 260.676 170.324 260.926 170.418 261.098 170.418 c 261.488 170.418 261.91
 170.121 262.379 169.371 c 262.254 169.309 l 262.02 169.574 261.738 169.98
 261.52 169.98 c 261.395 169.98 261.363 169.902 261.363 169.84 c 261.363
 169.777 261.379 169.73 261.41 169.59 c 262.223 166.59 l 262.926 166.59 
l h
262.973 166.293 m f
266.234 168.18 m 264.875 163.992 l 264.328 163.992 l 265.688 168.18 l 264.328
 172.352 l 264.875 172.352 l h
266.234 168.18 m f
194.707 118.992 m 194.707 118.539 194.645 118.055 194.238 118.055 c 194.066
 118.055 193.863 118.164 193.863 118.414 c 193.863 118.789 194.363 118.617
 194.363 119.398 c 194.363 120.414 193.598 122.008 192.816 122.008 c 192.441
 122.008 192.27 121.695 192.27 121.273 c 192.27 121.133 192.316 120.82 192.348
 120.664 c 192.941 118.055 l 192.207 118.055 l 191.66 120.602 l 191.441 
121.586 191.02 122.008 190.691 122.008 c 190.441 122.008 190.238 121.758
 190.238 121.289 c 190.238 120.633 190.66 119.383 190.66 118.898 c 190.66
 118.336 190.285 118.055 189.926 118.055 c 189.41 118.055 189.16 118.523
 189.16 118.836 c 189.16 118.914 189.176 119.008 189.223 119.07 c 189.316
 119.07 l 189.316 119.039 189.316 119.023 189.316 119.008 c 189.316 118.836
 189.379 118.461 189.723 118.461 c 189.863 118.461 189.973 118.57 189.973
 118.914 c 189.973 119.227 189.551 120.648 189.551 121.18 c 189.551 121.883
 190.113 122.258 190.566 122.258 c 191.129 122.258 191.66 121.836 191.848
 121.367 c 191.895 121.93 192.238 122.258 192.816 122.258 c 193.91 122.258
 194.707 120.211 194.707 118.992 c h
194.707 118.992 m f
1.41739 w
q 1 0 0 -1 0 0 cm
192.031 -142.52 m 149.512 -134.016 l S Q
q 1 0 0 -1 0 0 cm
192.031 -193.543 m 234.551 -185.035 l S Q
1 g
193.848 142.5 m 193.848 141.48 193.02 140.652 192 140.652 c 190.98 140.652
 190.152 141.48 190.152 142.5 c 190.152 143.52 190.98 144.348 192 144.348
 c 193.02 144.348 193.848 143.52 193.848 142.5 c f
0 g
193.848 142.5 m 193.848 141.48 193.02 140.652 192 140.652 c 190.98 140.652
 190.152 141.48 190.152 142.5 c 190.152 143.52 190.98 144.348 192 144.348
 c 193.02 144.348 193.848 143.52 193.848 142.5 c h
193.848 142.5 m 193.66 142.5 l 193.66 141.582 192.918 140.84 192 140.84
 c 191.082 140.84 190.34 141.582 190.34 142.5 c 190.34 143.418 191.082 144.16
 192 144.16 c 192.918 144.16 193.66 143.418 193.66 142.5 c f
1 g
193.848 193.5 m 193.848 192.48 193.02 191.652 192 191.652 c 190.98 191.652
 190.152 192.48 190.152 193.5 c 190.152 194.52 190.98 195.348 192 195.348
 c 193.02 195.348 193.848 194.52 193.848 193.5 c f
0 g
193.848 193.5 m 193.848 192.48 193.02 191.652 192 191.652 c 190.98 191.652
 190.152 192.48 190.152 193.5 c 190.152 194.52 190.98 195.348 192 195.348
 c 193.02 195.348 193.848 194.52 193.848 193.5 c h
193.848 193.5 m 193.66 193.5 l 193.66 192.582 192.918 191.84 192 191.84
 c 191.082 191.84 190.34 192.582 190.34 193.5 c 190.34 194.418 191.082 195.16
 192 195.16 c 192.918 195.16 193.66 194.418 193.66 193.5 c f
152.684 149.566 m 152.293 150.129 152.012 150.316 151.559 150.316 c 150.824
 150.316 150.324 149.691 150.324 148.77 c 150.324 147.941 150.762 147.379
 151.402 147.379 c 151.699 147.379 151.793 147.457 151.871 147.77 c 151.934
 147.941 l 151.996 148.176 152.137 148.301 152.309 148.301 c 152.512 148.301
 152.684 148.16 152.684 147.973 c 152.684 147.52 152.121 147.145 151.449
 147.145 c 151.059 147.145 150.652 147.316 150.34 147.598 c 149.934 147.941
 149.715 148.488 149.715 149.129 c 149.715 150.16 150.34 150.895 151.23 
150.895 c 151.59 150.895 151.902 150.77 152.184 150.52 c 152.402 150.332
 152.559 150.113 152.793 149.645 c h
152.684 149.566 m f
154.973 147.145 m 153.941 147.145 153.223 147.91 153.223 149.02 c 153.223
 150.098 153.957 150.895 154.957 150.895 c 155.973 150.895 156.738 150.066
 156.738 148.957 c 156.738 147.895 156.004 147.145 154.973 147.145 c h
154.879 147.379 m 155.551 147.379 156.02 148.145 156.02 149.238 c 156.02
 150.145 155.66 150.676 155.066 150.676 c 154.754 150.676 154.457 150.488
 154.285 150.16 c 154.066 149.754 153.941 149.191 153.941 148.629 c 153.941
 147.863 154.301 147.379 154.879 147.379 c h
154.879 147.379 m f
157.074 150.816 m 158.84 150.816 l 158.84 150.691 l 158.434 150.691 158.309
 150.598 158.309 150.285 c 158.309 148.035 l 158.309 148.02 158.371 147.941
 158.418 147.879 c 158.621 147.707 158.965 147.566 159.246 147.566 c 159.59
 147.566 159.777 147.848 159.777 148.395 c 159.777 150.129 l 159.762 150.582
 159.668 150.676 159.23 150.691 c 159.23 150.816 l 161.012 150.816 l 161.012
 150.691 l 160.574 150.691 160.449 150.566 160.434 150.066 c 160.434 148.051
 l 160.684 147.707 160.934 147.566 161.309 147.566 c 161.762 147.566 161.902
 147.785 161.902 148.441 c 161.902 150.129 l 161.887 150.598 161.84 150.645
 161.387 150.691 c 161.387 150.816 l 163.121 150.816 l 163.121 150.691 l
 162.918 150.676 l 162.668 150.645 162.574 150.52 162.574 150.207 c 162.574
 148.566 l 162.574 147.629 162.262 147.145 161.652 147.145 c 161.184 147.145
 160.777 147.363 160.355 147.816 c 160.215 147.363 159.934 147.145 159.512
 147.145 c 159.152 147.145 158.934 147.254 158.277 147.77 c 158.277 147.16
 l 158.215 147.145 l 157.793 147.301 157.527 147.395 157.105 147.504 c 157.105
 147.645 l 157.199 147.613 157.262 147.613 157.355 147.613 c 157.559 147.613
 157.637 147.738 157.637 148.129 c 157.637 150.145 l 157.621 150.582 157.512
 150.691 157.074 150.691 c h
157.074 150.816 m f
163.238 152.551 m 165.16 152.551 l 165.16 152.395 l 164.566 152.395 164.473
 152.316 164.457 151.801 c 164.457 150.551 l 164.738 150.816 164.926 150.895
 165.27 150.895 c 166.207 150.895 166.941 150.004 166.941 148.848 c 166.941
 147.863 166.379 147.145 165.613 147.145 c 165.16 147.145 164.816 147.348
 164.457 147.785 c 164.457 147.16 l 164.41 147.145 l 163.973 147.316 163.707
 147.426 163.27 147.551 c 163.27 147.691 l 163.332 147.676 163.379 147.676
 163.457 147.676 c 163.738 147.676 163.785 147.754 163.785 148.129 c 163.785
 151.863 l 163.785 152.285 163.707 152.363 163.238 152.41 c h
164.457 148.16 m 164.457 147.91 164.91 147.629 165.27 147.629 c 165.863
 147.629 166.254 148.238 166.254 149.16 c 166.254 150.051 165.863 150.645
 165.285 150.645 c 164.91 150.645 164.457 150.348 164.457 150.113 c h
164.457 148.16 m f
167.195 150.816 m 169.102 150.816 l 169.102 150.691 l 168.57 150.676 168.445
 150.566 168.43 150.098 c 168.43 148.301 l 168.43 148.051 168.758 147.66
 168.977 147.66 c 169.023 147.66 169.102 147.691 169.195 147.77 c 169.305
 147.895 169.398 147.926 169.508 147.926 c 169.695 147.926 169.82 147.801
 169.82 147.566 c 169.82 147.316 169.648 147.145 169.383 147.145 c 169.039
 147.145 168.82 147.332 168.43 147.895 c 168.43 147.16 l 168.383 147.145
 l 167.93 147.332 167.648 147.441 167.211 147.582 c 167.211 147.707 l 167.32
 147.691 167.383 147.676 167.477 147.676 c 167.68 147.676 167.758 147.801
 167.758 148.16 c 167.758 150.145 l 167.742 150.566 167.695 150.613 167.195
 150.691 c h
167.195 150.816 m f
173.039 149.504 m 172.664 150.113 172.32 150.348 171.805 150.348 c 171.352
 150.348 171.008 150.113 170.773 149.66 c 170.633 149.363 170.57 149.098
 170.555 148.613 c 173.023 148.613 l 172.945 148.098 172.867 147.863 172.68
 147.598 c 172.43 147.316 172.07 147.145 171.648 147.145 c 171.258 147.145
 170.883 147.301 170.57 147.566 c 170.211 147.895 169.992 148.457 169.992
 149.113 c 169.992 150.207 170.555 150.895 171.477 150.895 c 172.242 150.895
 172.836 150.426 173.164 149.566 c h
170.57 148.348 m 170.664 147.738 170.93 147.441 171.43 147.441 c 171.914
 147.441 172.102 147.66 172.211 148.348 c h
170.57 148.348 m f
175.785 148.316 m 175.754 147.223 l 175.66 147.223 l 175.613 147.285 175.582
 147.316 175.535 147.316 c 175.488 147.316 175.41 147.301 175.316 147.254
 c 175.129 147.191 174.957 147.145 174.754 147.145 c 174.129 147.145 173.676
 147.566 173.676 148.145 c 173.676 148.582 173.926 148.91 174.613 149.285
 c 175.066 149.551 l 175.348 149.707 175.488 149.895 175.488 150.145 c 175.488
 150.504 175.223 150.723 174.816 150.723 c 174.27 150.723 173.988 150.426
 173.816 149.598 c 173.691 149.598 l 173.691 150.848 l 173.785 150.848 l
 173.848 150.77 173.879 150.754 173.973 150.754 c 174.051 150.754 174.16
 150.77 174.332 150.816 c 174.551 150.863 174.754 150.895 174.926 150.895
 c 175.535 150.895 176.035 150.441 176.035 149.879 c 176.035 149.473 175.848
 149.207 175.379 148.926 c 174.52 148.41 l 174.285 148.285 174.176 148.098
 174.176 147.879 c 174.176 147.551 174.41 147.332 174.785 147.332 c 175.238
 147.332 175.473 147.598 175.66 148.316 c h
175.785 148.316 m f
178.906 148.316 m 178.875 147.223 l 178.781 147.223 l 178.734 147.285 178.703
 147.316 178.656 147.316 c 178.609 147.316 178.531 147.301 178.438 147.254
 c 178.25 147.191 178.078 147.145 177.875 147.145 c 177.25 147.145 176.797
 147.566 176.797 148.145 c 176.797 148.582 177.047 148.91 177.734 149.285
 c 178.188 149.551 l 178.469 149.707 178.609 149.895 178.609 150.145 c 178.609
 150.504 178.344 150.723 177.938 150.723 c 177.391 150.723 177.109 150.426
 176.938 149.598 c 176.812 149.598 l 176.812 150.848 l 176.906 150.848 l
 176.969 150.77 177 150.754 177.094 150.754 c 177.172 150.754 177.281 150.77
 177.453 150.816 c 177.672 150.863 177.875 150.895 178.047 150.895 c 178.656
 150.895 179.156 150.441 179.156 149.879 c 179.156 149.473 178.969 149.207
 178.5 148.926 c 177.641 148.41 l 177.406 148.285 177.297 148.098 177.297
 147.879 c 177.297 147.551 177.531 147.332 177.906 147.332 c 178.359 147.332
 178.594 147.598 178.781 148.316 c h
178.906 148.316 m f
179.637 150.816 m 181.527 150.816 l 181.527 150.691 l 180.996 150.66 180.949
 150.582 180.934 150.004 c 180.934 147.176 l 180.902 147.145 l 179.668 147.582
 l 179.668 147.707 l 179.73 147.707 l 179.824 147.691 179.934 147.676 180.012
 147.676 c 180.199 147.676 180.262 147.801 180.262 148.16 c 180.262 150.004
 l 180.246 150.598 180.184 150.676 179.637 150.691 c h
180.527 145.379 m 180.324 145.379 180.137 145.551 180.137 145.785 c 180.137
 146.004 180.309 146.191 180.527 146.191 c 180.777 146.191 180.949 146.004
 180.949 145.785 c 180.949 145.551 180.762 145.379 180.527 145.379 c h
180.527 145.379 m f
183.656 147.145 m 182.625 147.145 181.906 147.91 181.906 149.02 c 181.906
 150.098 182.641 150.895 183.641 150.895 c 184.656 150.895 185.422 150.066
 185.422 148.957 c 185.422 147.895 184.688 147.145 183.656 147.145 c h
183.562 147.379 m 184.234 147.379 184.703 148.145 184.703 149.238 c 184.703
 150.145 184.344 150.676 183.75 150.676 c 183.438 150.676 183.141 150.488
 182.969 150.16 c 182.75 149.754 182.625 149.191 182.625 148.629 c 182.625
 147.863 182.984 147.379 183.562 147.379 c h
183.562 147.379 m f
185.77 150.816 m 187.457 150.816 l 187.457 150.691 l 187.066 150.676 186.941
 150.566 186.941 150.285 c 186.941 148.051 l 187.316 147.691 187.488 147.582
 187.754 147.582 c 188.145 147.582 188.332 147.832 188.332 148.363 c 188.332
 150.035 l 188.316 150.551 188.223 150.676 187.832 150.691 c 187.832 150.816
 l 189.488 150.816 l 189.488 150.691 l 189.098 150.66 189.02 150.566 189.004
 150.176 c 189.004 148.348 l 189.004 147.598 188.66 147.145 188.066 147.145
 c 187.707 147.145 187.457 147.285 186.91 147.801 c 186.91 147.16 l 186.863
 147.145 l 186.441 147.301 186.176 147.395 185.754 147.504 c 185.754 147.645
 l 185.816 147.613 185.879 147.613 185.973 147.613 c 186.191 147.613 186.27
 147.738 186.27 148.129 c 186.27 150.098 l 186.254 150.566 186.176 150.676
 185.77 150.691 c h
185.77 150.816 m f
200.809 199.25 m 200.434 199.859 200.09 200.094 199.574 200.094 c 199.121
 200.094 198.777 199.859 198.543 199.406 c 198.402 199.109 198.34 198.844
 198.324 198.359 c 200.793 198.359 l 200.715 197.844 200.637 197.609 200.449
 197.344 c 200.199 197.062 199.84 196.891 199.418 196.891 c 199.027 196.891
 198.652 197.047 198.34 197.312 c 197.98 197.641 197.762 198.203 197.762
 198.859 c 197.762 199.953 198.324 200.641 199.246 200.641 c 200.012 200.641
 200.605 200.172 200.934 199.312 c h
198.34 198.094 m 198.434 197.484 198.699 197.188 199.199 197.188 c 199.684
 197.188 199.871 197.406 199.98 198.094 c h
198.34 198.094 m f
203.137 200.562 m 204.73 200.562 l 204.73 200.438 l 204.48 200.438 204.324
 200.312 204.074 199.969 c 203.059 198.406 l 203.73 197.453 l 203.871 197.234
 204.105 197.109 204.371 197.094 c 204.371 196.984 l 203.105 196.984 l 203.105
 197.094 l 203.355 197.109 203.434 197.156 203.434 197.266 c 203.434 197.359
 203.34 197.547 203.137 197.797 c 203.09 197.844 202.996 197.984 202.887
 198.141 c 202.824 198.047 l 202.715 197.859 202.637 197.75 202.621 197.719
 c 202.465 197.484 202.418 197.344 202.418 197.266 c 202.418 197.156 202.527
 197.109 202.762 197.094 c 202.762 196.984 l 201.105 196.984 l 201.105 197.094
 l 201.184 197.094 l 201.418 197.094 201.543 197.203 201.793 197.578 c 202.543
 198.719 l 201.637 200.031 l 201.402 200.359 201.309 200.422 201.059 200.438
 c 201.059 200.562 l 202.215 200.562 l 202.215 200.438 l 201.98 200.438 
201.887 200.406 201.887 200.297 c 201.887 200.25 201.934 200.141 202.043
 199.969 c 202.684 199 l 203.402 200.109 l 203.434 200.156 203.449 200.203
 203.449 200.25 c 203.449 200.391 203.402 200.422 203.137 200.438 c h
203.137 200.562 m f
204.926 202.297 m 206.848 202.297 l 206.848 202.141 l 206.254 202.141 206.16
 202.062 206.145 201.547 c 206.145 200.297 l 206.426 200.562 206.613 200.641
 206.957 200.641 c 207.895 200.641 208.629 199.75 208.629 198.594 c 208.629
 197.609 208.066 196.891 207.301 196.891 c 206.848 196.891 206.504 197.094
 206.145 197.531 c 206.145 196.906 l 206.098 196.891 l 205.66 197.062 205.395
 197.172 204.957 197.297 c 204.957 197.438 l 205.02 197.422 205.066 197.422
 205.145 197.422 c 205.426 197.422 205.473 197.5 205.473 197.875 c 205.473
 201.609 l 205.473 202.031 205.395 202.109 204.926 202.156 c h
206.145 197.906 m 206.145 197.656 206.598 197.375 206.957 197.375 c 207.551
 197.375 207.941 197.984 207.941 198.906 c 207.941 199.797 207.551 200.391
 206.973 200.391 c 206.598 200.391 206.145 200.094 206.145 199.859 c h
206.145 197.906 m f
212.355 200.031 m 212.23 200.141 212.137 200.188 212.012 200.188 c 211.824
 200.188 211.777 200.078 211.777 199.719 c 211.777 198.172 l 211.777 197.75
 211.73 197.531 211.605 197.328 c 211.434 197.047 211.09 196.891 210.621
 196.891 c 209.871 196.891 209.293 197.281 209.293 197.797 c 209.293 197.969
 209.434 198.125 209.621 198.125 c 209.824 198.125 209.98 197.969 209.98
 197.797 c 209.98 197.766 209.98 197.719 209.965 197.672 c 209.949 197.594
 209.949 197.531 209.949 197.484 c 209.949 197.266 210.199 197.094 210.527
 197.094 c 210.918 197.094 211.121 197.312 211.121 197.75 c 211.121 198.234
 l 209.902 198.719 209.762 198.797 209.418 199.094 c 209.246 199.25 209.137
 199.531 209.137 199.797 c 209.137 200.297 209.48 200.641 209.965 200.641
 c 210.324 200.641 210.652 200.469 211.137 200.062 c 211.168 200.484 211.324
 200.641 211.652 200.641 c 211.918 200.641 212.09 200.547 212.355 200.25
 c h
211.121 199.578 m 211.121 199.828 211.09 199.906 210.918 200 c 210.715 
200.109 210.512 200.188 210.34 200.188 c 210.059 200.188 209.84 199.906 
209.84 199.562 c 209.84 199.531 l 209.84 199.062 210.199 198.75 211.121 
198.422 c h
211.121 199.578 m f
212.457 200.562 m 214.145 200.562 l 214.145 200.438 l 213.754 200.422 213.629
 200.312 213.629 200.031 c 213.629 197.797 l 214.004 197.438 214.176 197.328
 214.441 197.328 c 214.832 197.328 215.02 197.578 215.02 198.109 c 215.02
 199.781 l 215.004 200.297 214.91 200.422 214.52 200.438 c 214.52 200.562
 l 216.176 200.562 l 216.176 200.438 l 215.785 200.406 215.707 200.312 215.691
 199.922 c 215.691 198.094 l 215.691 197.344 215.348 196.891 214.754 196.891
 c 214.395 196.891 214.145 197.031 213.598 197.547 c 213.598 196.906 l 213.551
 196.891 l 213.129 197.047 212.863 197.141 212.441 197.25 c 212.441 197.391
 l 212.504 197.359 212.566 197.359 212.66 197.359 c 212.879 197.359 212.957
 197.484 212.957 197.875 c 212.957 199.844 l 212.941 200.312 212.863 200.422
 212.457 200.438 c h
212.457 200.562 m f
218.793 198.062 m 218.762 196.969 l 218.668 196.969 l 218.621 197.031 218.59
 197.062 218.543 197.062 c 218.496 197.062 218.418 197.047 218.324 197 c
 218.137 196.938 217.965 196.891 217.762 196.891 c 217.137 196.891 216.684
 197.312 216.684 197.891 c 216.684 198.328 216.934 198.656 217.621 199.031
 c 218.074 199.297 l 218.355 199.453 218.496 199.641 218.496 199.891 c 218.496
 200.25 218.23 200.469 217.824 200.469 c 217.277 200.469 216.996 200.172
 216.824 199.344 c 216.699 199.344 l 216.699 200.594 l 216.793 200.594 l
 216.855 200.516 216.887 200.5 216.98 200.5 c 217.059 200.5 217.168 200.516
 217.34 200.562 c 217.559 200.609 217.762 200.641 217.934 200.641 c 218.543
 200.641 219.043 200.188 219.043 199.625 c 219.043 199.219 218.855 198.953
 218.387 198.672 c 217.527 198.156 l 217.293 198.031 217.184 197.844 217.184
 197.625 c 217.184 197.297 217.418 197.078 217.793 197.078 c 218.246 197.078
 218.48 197.344 218.668 198.062 c h
218.793 198.062 m f
219.523 200.562 m 221.414 200.562 l 221.414 200.438 l 220.883 200.406 220.836
 200.328 220.82 199.75 c 220.82 196.922 l 220.789 196.891 l 219.555 197.328
 l 219.555 197.453 l 219.617 197.453 l 219.711 197.438 219.82 197.422 219.898
 197.422 c 220.086 197.422 220.148 197.547 220.148 197.906 c 220.148 199.75
 l 220.133 200.344 220.07 200.422 219.523 200.438 c h
220.414 195.125 m 220.211 195.125 220.023 195.297 220.023 195.531 c 220.023
 195.75 220.195 195.938 220.414 195.938 c 220.664 195.938 220.836 195.75
 220.836 195.531 c 220.836 195.297 220.648 195.125 220.414 195.125 c h
220.414 195.125 m f
223.543 196.891 m 222.512 196.891 221.793 197.656 221.793 198.766 c 221.793
 199.844 222.527 200.641 223.527 200.641 c 224.543 200.641 225.309 199.812
 225.309 198.703 c 225.309 197.641 224.574 196.891 223.543 196.891 c h
223.449 197.125 m 224.121 197.125 224.59 197.891 224.59 198.984 c 224.59
 199.891 224.23 200.422 223.637 200.422 c 223.324 200.422 223.027 200.234
 222.855 199.906 c 222.637 199.5 222.512 198.938 222.512 198.375 c 222.512
 197.609 222.871 197.125 223.449 197.125 c h
223.449 197.125 m f
225.66 200.562 m 227.348 200.562 l 227.348 200.438 l 226.957 200.422 226.832
 200.312 226.832 200.031 c 226.832 197.797 l 227.207 197.438 227.379 197.328
 227.645 197.328 c 228.035 197.328 228.223 197.578 228.223 198.109 c 228.223
 199.781 l 228.207 200.297 228.113 200.422 227.723 200.438 c 227.723 200.562
 l 229.379 200.562 l 229.379 200.438 l 228.988 200.406 228.91 200.312 228.895
 199.922 c 228.895 198.094 l 228.895 197.344 228.551 196.891 227.957 196.891
 c 227.598 196.891 227.348 197.031 226.801 197.547 c 226.801 196.906 l 226.754
 196.891 l 226.332 197.047 226.066 197.141 225.645 197.25 c 225.645 197.391
 l 225.707 197.359 225.77 197.359 225.863 197.359 c 226.082 197.359 226.16
 197.484 226.16 197.875 c 226.16 199.844 l 226.145 200.312 226.066 200.422
 225.66 200.438 c h
225.66 200.562 m f
Q Q
showpage
%%Trailer
end
%%EOF
