%!PS-Adobe-3.0 EPSF-3.0
%%Creator: cairo 1.17.4 (https://cairographics.org)
%%CreationDate: Thu Feb 24 10:46:53 2022
%%Pages: 1
%%DocumentData: Clean7Bit
%%LanguageLevel: 2
%%BoundingBox: 0 0 266 87
%%EndComments
%%BeginProlog
50 dict begin
/q { gsave } bind def
/Q { grestore } bind def
/cm { 6 array astore concat } bind def
/w { setlinewidth } bind def
/J { setlinecap } bind def
/j { setlinejoin } bind def
/M { setmiterlimit } bind def
/d { setdash } bind def
/m { moveto } bind def
/l { lineto } bind def
/c { curveto } bind def
/h { closepath } bind def
/re { exch dup neg 3 1 roll 5 3 roll moveto 0 rlineto
      0 exch rlineto 0 rlineto closepath } bind def
/S { stroke } bind def
/f { fill } bind def
/f* { eofill } bind def
/n { newpath } bind def
/W { clip } bind def
/W* { eoclip } bind def
/BT { } bind def
/ET { } bind def
/BDC { mark 3 1 roll /BDC pdfmark } bind def
/EMC { mark /EMC pdfmark } bind def
/cairo_store_point { /cairo_point_y exch def /cairo_point_x exch def } def
/Tj { show currentpoint cairo_store_point } bind def
/TJ {
  {
    dup
    type /stringtype eq
    { show } { -0.001 mul 0 cairo_font_matrix dtransform rmoveto } ifelse
  } forall
  currentpoint cairo_store_point
} bind def
/cairo_selectfont { cairo_font_matrix aload pop pop pop 0 0 6 array astore
    cairo_font exch selectfont cairo_point_x cairo_point_y moveto } bind def
/Tf { pop /cairo_font exch def /cairo_font_matrix where
      { pop cairo_selectfont } if } bind def
/Td { matrix translate cairo_font_matrix matrix concatmatrix dup
      /cairo_font_matrix exch def dup 4 get exch 5 get cairo_store_point
      /cairo_font where { pop cairo_selectfont } if } bind def
/Tm { 2 copy 8 2 roll 6 array astore /cairo_font_matrix exch def
      cairo_store_point /cairo_font where { pop cairo_selectfont } if } bind def
/g { setgray } bind def
/rg { setrgbcolor } bind def
/d1 { setcachedevice } bind def
/cairo_data_source {
  CairoDataIndex CairoData length lt
    { CairoData CairoDataIndex get /CairoDataIndex CairoDataIndex 1 add def }
    { () } ifelse
} def
/cairo_flush_ascii85_file { cairo_ascii85_file status { cairo_ascii85_file flushfile } if } def
/cairo_image { image cairo_flush_ascii85_file } def
/cairo_imagemask { imagemask cairo_flush_ascii85_file } def
%%EndProlog
%%BeginSetup
%%EndSetup
%%Page: 1 1
%%BeginPageSetup
%%PageBoundingBox: 0 0 266 87
%%EndPageSetup
q 0 0 266 87 rectclip
1 0 0 -1 0 87 cm q
0 g
11.875 3.684 m 10.562 0 l 9.246 3.684 l 10.562 2.211 l f
63.574 58.008 m 67.254 56.695 l 63.574 55.379 l 65.047 56.695 l f
0.567043 w
0 J
0 j
[] 0.0 d
10 M q 1 0 0 -1 0 0 cm
10.562 -2.211 m 10.562 -56.695 l 65.047 -56.695 l S Q
22.988 14.781 m 23.324 15.742 24.375 16.254 25.34 15.918 c 26.301 15.586
 26.812 14.535 26.477 13.57 c 26.145 12.605 25.09 12.094 24.129 12.43 c 
23.164 12.766 22.652 13.816 22.988 14.781 c f
53.672 40.773 m 52.707 40.445 51.656 40.965 51.332 41.93 c 51.004 42.898
 51.523 43.945 52.488 44.27 c 53.457 44.598 54.504 44.078 54.828 43.113 
c 55.156 42.148 54.637 41.098 53.672 40.773 c f
0.850361 w
q 1 0 0 -1 0 0 cm
25.27 -15.719 m 25.312 -15.844 l 25.891 -17.383 l 26.469 -18.812 l 27.047
 -20.145 l 27.625 -21.383 l 28.203 -22.539 l 28.785 -23.625 l 29.363 -24.641
 l 29.941 -25.598 l 30.52 -26.5 l 31.098 -27.348 l 31.676 -28.152 l 32.254
 -28.914 l 32.832 -29.637 l 33.41 -30.32 l 33.988 -30.973 l 34.57 -31.594
 l 35.145 -32.184 l 35.727 -32.746 l 36.305 -33.285 l 36.883 -33.801 l 37.461
 -34.293 l 38.039 -34.766 l 38.617 -35.215 l 39.195 -35.648 l 39.773 -36.066
 l 40.352 -36.465 l 40.934 -36.852 l 41.512 -37.223 l 42.09 -37.582 l 42.668
 -37.926 l 43.246 -38.258 l 43.824 -38.578 l 44.402 -38.887 l 44.98 -39.188
 l 45.559 -39.477 l 46.137 -39.754 l 46.715 -40.027 l 47.297 -40.289 l 47.875
 -40.543 l 48.453 -40.789 l 49.031 -41.031 l 49.609 -41.262 l 50.188 -41.488
 l 50.766 -41.707 l 51.344 -41.918 l 51.922 -42.125 l 52.5 -42.324 l 51.531
 -42 l S Q
32.758 33.531 m 38.906 35.434 l 35.359 30.066 l 35.996 33.254 l f
41.84 61.996 m 41.84 61.746 l 40.043 61.746 l 40.043 61.996 l 40.262 61.996
 40.543 62.027 40.543 62.23 c 40.543 62.418 40.324 62.762 40.215 62.902 
c 37.949 66.074 l 37.793 62.574 l 37.777 62.074 38.059 61.996 38.559 61.996
 c 38.559 61.746 l 36.184 61.746 l 36.184 61.996 l 36.793 61.996 36.824 
62.23 36.902 62.871 c 37.105 67.621 l 37.324 67.621 l 40.887 62.637 l 41.043
 62.434 41.402 61.996 41.84 61.996 c h
41.84 61.996 m f
4.953 26.797 m 4.953 26.141 4.625 25.656 3.922 25.656 c 3.438 25.656 3.016
 25.922 2.656 26.328 c 2.906 25.641 l 2.906 25.641 1.625 25.844 1.344 25.875
 c 1.344 26.109 l 1.688 26.109 1.922 26.062 1.922 26.344 c 1.922 26.5 1.812
 26.844 1.75 27.016 c 0.719 30.312 l 0.625 30.594 0.484 30.797 0.031 30.797
 c 0 31.031 l 2.016 31.031 l 2.062 30.797 l 1.719 30.797 1.438 30.812 1.438
 30.609 c 1.438 30.547 1.438 30.469 1.484 30.328 c 1.781 29.484 l 1.953 
29.594 2.156 29.656 2.359 29.656 c 3.453 29.656 4.953 28.156 4.953 26.797
 c h
4.109 26.875 m 4.109 27.922 3.141 29.375 2.359 29.375 c 2.188 29.375 2.016
 29.312 1.859 29.203 c 2.203 28.094 2.578 26.125 3.672 26.125 c 4.109 26.125
 4.109 26.703 4.109 26.875 c h
4.109 26.875 m f
36.812 79.504 m 36.234 79.895 35.984 80.098 35.703 80.457 c 35.125 81.16
 34.844 81.957 34.844 82.879 c 34.844 83.91 35.141 84.676 35.844 85.488 
c 36.172 85.879 36.375 86.051 36.797 86.301 c 36.891 86.176 l 36.25 85.676
 36.031 85.395 35.812 84.801 c 35.625 84.27 35.531 83.66 35.531 82.863 c
 35.531 82.02 35.641 81.363 35.859 80.879 c 36.078 80.379 36.312 80.098 
36.891 79.629 c h
36.812 79.504 m f
40.621 84.363 m 40.496 84.473 40.402 84.52 40.277 84.52 c 40.09 84.52 40.043
 84.41 40.043 84.051 c 40.043 82.504 l 40.043 82.082 39.996 81.863 39.871
 81.66 c 39.699 81.379 39.355 81.223 38.887 81.223 c 38.137 81.223 37.559
 81.613 37.559 82.129 c 37.559 82.301 37.699 82.457 37.887 82.457 c 38.09
 82.457 38.246 82.301 38.246 82.129 c 38.246 82.098 38.246 82.051 38.23 
82.004 c 38.215 81.926 38.215 81.863 38.215 81.816 c 38.215 81.598 38.465
 81.426 38.793 81.426 c 39.184 81.426 39.387 81.645 39.387 82.082 c 39.387
 82.566 l 38.168 83.051 38.027 83.129 37.684 83.426 c 37.512 83.582 37.402
 83.863 37.402 84.129 c 37.402 84.629 37.746 84.973 38.23 84.973 c 38.59
 84.973 38.918 84.801 39.402 84.395 c 39.434 84.816 39.59 84.973 39.918 
84.973 c 40.184 84.973 40.355 84.879 40.621 84.582 c h
39.387 83.91 m 39.387 84.16 39.355 84.238 39.184 84.332 c 38.98 84.441 
38.777 84.52 38.605 84.52 c 38.324 84.52 38.105 84.238 38.105 83.895 c 38.105
 83.863 l 38.105 83.395 38.465 83.082 39.387 82.754 c h
39.387 83.91 m f
40.883 86.301 m 41.477 85.91 41.711 85.723 42.008 85.348 c 42.57 84.66 
42.852 83.863 42.852 82.926 c 42.852 81.91 42.555 81.129 41.867 80.316 c
 41.539 79.941 41.32 79.77 40.914 79.504 c 40.82 79.629 l 41.461 80.145 
41.664 80.41 41.898 81.02 c 42.086 81.551 42.164 82.145 42.164 82.957 c 
42.164 83.785 42.07 84.441 41.852 84.926 c 41.633 85.426 41.398 85.723 40.82
 86.176 c h
40.883 86.301 m f
111.086 3.684 m 109.773 0 l 108.457 3.684 l 109.773 2.211 l f
162.785 58.008 m 166.465 56.695 l 162.785 55.379 l 164.258 56.695 l f
0.567043 w
q 1 0 0 -1 0 0 cm
109.773 -2.211 m 109.773 -56.695 l 164.258 -56.695 l S Q
123.945 16.023 m 124.965 16.023 125.793 15.195 125.793 14.176 c 125.793
 13.156 124.965 12.328 123.945 12.328 c 122.926 12.328 122.098 13.156 122.098
 14.176 c 122.098 15.195 122.926 16.023 123.945 16.023 c f
152.293 12.328 m 151.273 12.328 150.445 13.156 150.445 14.176 c 150.445
 15.195 151.273 16.023 152.293 16.023 c 153.312 16.023 154.141 15.195 154.141
 14.176 c 154.141 13.156 153.312 12.328 152.293 12.328 c f
0.850361 w
q 1 0 0 -1 0 0 cm
125.582 -14.176 m 150.66 -14.176 l S Q
137.727 16.34 m 143.789 14.176 l 137.727 12.012 l 140.152 14.176 l f
141.051 61.996 m 141.051 61.746 l 139.254 61.746 l 139.254 61.996 l 139.473
 61.996 139.754 62.027 139.754 62.23 c 139.754 62.418 139.535 62.762 139.426
 62.902 c 137.16 66.074 l 137.004 62.574 l 136.988 62.074 137.27 61.996 
137.77 61.996 c 137.77 61.746 l 135.395 61.746 l 135.395 61.996 l 136.004
 61.996 136.035 62.23 136.113 62.871 c 136.316 67.621 l 136.535 67.621 l
 140.098 62.637 l 140.254 62.434 140.613 61.996 141.051 61.996 c h
141.051 61.996 m f
104.164 26.797 m 104.164 26.141 103.836 25.656 103.133 25.656 c 102.648
 25.656 102.227 25.922 101.867 26.328 c 102.117 25.641 l 102.117 25.641 
100.836 25.844 100.555 25.875 c 100.555 26.109 l 100.898 26.109 101.133 
26.062 101.133 26.344 c 101.133 26.5 101.023 26.844 100.961 27.016 c 99.93
 30.312 l 99.836 30.594 99.695 30.797 99.242 30.797 c 99.211 31.031 l 101.227
 31.031 l 101.273 30.797 l 100.93 30.797 100.648 30.812 100.648 30.609 c
 100.648 30.547 100.648 30.469 100.695 30.328 c 100.992 29.484 l 101.164
 29.594 101.367 29.656 101.57 29.656 c 102.664 29.656 104.164 28.156 104.164
 26.797 c h
103.32 26.875 m 103.32 27.922 102.352 29.375 101.57 29.375 c 101.398 29.375
 101.227 29.312 101.07 29.203 c 101.414 28.094 101.789 26.125 102.883 26.125
 c 103.32 26.125 103.32 26.703 103.32 26.875 c h
103.32 26.875 m f
135.781 79.504 m 135.203 79.895 134.953 80.098 134.672 80.457 c 134.094
 81.16 133.812 81.957 133.812 82.879 c 133.812 83.91 134.109 84.676 134.812
 85.488 c 135.141 85.879 135.344 86.051 135.766 86.301 c 135.859 86.176 
l 135.219 85.676 135 85.395 134.781 84.801 c 134.594 84.27 134.5 83.66 134.5
 82.863 c 134.5 82.02 134.609 81.363 134.828 80.879 c 135.047 80.379 135.281
 80.098 135.859 79.629 c h
135.781 79.504 m f
137.297 79.473 m 137.25 79.457 l 136.938 79.566 136.719 79.629 136.328 
79.738 c 136.109 79.801 l 136.109 79.926 l 136.156 79.926 136.172 79.926
 136.234 79.926 c 136.562 79.926 136.625 79.988 136.625 80.332 c 136.625
 84.457 l 136.625 84.707 137.297 84.973 137.938 84.973 c 139 84.973 139.812
 84.098 139.812 82.957 c 139.812 81.973 139.203 81.223 138.406 81.223 c 
137.922 81.223 137.453 81.504 137.297 81.91 c h
137.297 82.332 m 137.297 82.02 137.672 81.738 138.094 81.738 c 138.312 
81.738 138.516 81.816 138.672 81.957 c 138.938 82.207 139.109 82.754 139.109
 83.332 c 139.109 84.207 138.719 84.723 138.062 84.723 c 137.656 84.723 
137.297 84.551 137.297 84.332 c h
137.297 82.332 m f
140.336 86.301 m 140.93 85.91 141.164 85.723 141.461 85.348 c 142.023 84.66
 142.305 83.863 142.305 82.926 c 142.305 81.91 142.008 81.129 141.32 80.316
 c 140.992 79.941 140.773 79.77 140.367 79.504 c 140.273 79.629 l 140.914
 80.145 141.117 80.41 141.352 81.02 c 141.539 81.551 141.617 82.145 141.617
 82.957 c 141.617 83.785 141.523 84.441 141.305 84.926 c 141.086 85.426 
140.852 85.723 140.273 86.176 c h
140.336 86.301 m f
210.301 3.684 m 208.984 0 l 207.672 3.684 l 208.984 2.211 l f
Q q
261.48 55.055 4.102 3 re W n
q
261 55 5 4 re W n
  q
0 g
262 58.008 m 265.68 56.695 l 262 55.379 l 263.469 56.695 l f
  Q
Q
Q q
0 g
0.567043 w
0 J
0 j
[] 0.0 d
10 M q 1 0 0 -1 0 0 cm
208.984 -2.211 m 208.984 -56.695 l 263.469 -56.695 l S Q
221.312 14.176 m 221.312 15.195 222.141 16.023 223.16 16.023 c 224.18 16.023
 225.004 15.195 225.004 14.176 c 225.004 13.156 224.18 12.328 223.16 12.328
 c 222.141 12.328 221.312 13.156 221.312 14.176 c f
225.004 42.523 m 225.004 41.5 224.18 40.676 223.16 40.676 c 222.141 40.676
 221.312 41.5 221.312 42.523 c 221.312 43.539 222.141 44.367 223.16 44.367
 c 224.18 44.367 225.004 43.539 225.004 42.523 c f
0.850361 w
q 1 0 0 -1 0 0 cm
223.16 -15.809 m 223.16 -40.887 l S Q
220.996 27.957 m 223.16 34.02 l 225.324 27.957 l 223.16 30.379 l f
240.262 61.996 m 240.262 61.746 l 238.465 61.746 l 238.465 61.996 l 238.684
 61.996 238.965 62.027 238.965 62.23 c 238.965 62.418 238.746 62.762 238.637
 62.902 c 236.371 66.074 l 236.215 62.574 l 236.199 62.074 236.48 61.996
 236.98 61.996 c 236.98 61.746 l 234.605 61.746 l 234.605 61.996 l 235.215
 61.996 235.246 62.23 235.324 62.871 c 235.527 67.621 l 235.746 67.621 l
 239.309 62.637 l 239.465 62.434 239.824 61.996 240.262 61.996 c h
240.262 61.996 m f
203.379 26.797 m 203.379 26.141 203.051 25.656 202.348 25.656 c 201.863
 25.656 201.441 25.922 201.082 26.328 c 201.332 25.641 l 201.332 25.641 
200.051 25.844 199.77 25.875 c 199.77 26.109 l 200.113 26.109 200.348 26.062
 200.348 26.344 c 200.348 26.5 200.238 26.844 200.176 27.016 c 199.145 30.312
 l 199.051 30.594 198.91 30.797 198.457 30.797 c 198.426 31.031 l 200.441
 31.031 l 200.488 30.797 l 200.145 30.797 199.863 30.812 199.863 30.609 
c 199.863 30.547 199.863 30.469 199.91 30.328 c 200.207 29.484 l 200.379
 29.594 200.582 29.656 200.785 29.656 c 201.879 29.656 203.379 28.156 203.379
 26.797 c h
202.535 26.875 m 202.535 27.922 201.566 29.375 200.785 29.375 c 200.613
 29.375 200.441 29.312 200.285 29.203 c 200.629 28.094 201.004 26.125 202.098
 26.125 c 202.535 26.125 202.535 26.703 202.535 26.875 c h
202.535 26.875 m f
235.234 79.504 m 234.656 79.895 234.406 80.098 234.125 80.457 c 233.547
 81.16 233.266 81.957 233.266 82.879 c 233.266 83.91 233.562 84.676 234.266
 85.488 c 234.594 85.879 234.797 86.051 235.219 86.301 c 235.312 86.176 
l 234.672 85.676 234.453 85.395 234.234 84.801 c 234.047 84.27 233.953 83.66
 233.953 82.863 c 233.953 82.02 234.062 81.363 234.281 80.879 c 234.5 80.379
 234.734 80.098 235.312 79.629 c h
235.234 79.504 m f
238.703 83.645 m 238.312 84.207 238.031 84.395 237.578 84.395 c 236.844
 84.395 236.344 83.77 236.344 82.848 c 236.344 82.02 236.781 81.457 237.422
 81.457 c 237.719 81.457 237.812 81.535 237.891 81.848 c 237.953 82.02 l
 238.016 82.254 238.156 82.379 238.328 82.379 c 238.531 82.379 238.703 82.238
 238.703 82.051 c 238.703 81.598 238.141 81.223 237.469 81.223 c 237.078
 81.223 236.672 81.395 236.359 81.676 c 235.953 82.02 235.734 82.566 235.734
 83.207 c 235.734 84.238 236.359 84.973 237.25 84.973 c 237.609 84.973 237.922
 84.848 238.203 84.598 c 238.422 84.41 238.578 84.191 238.812 83.723 c h
238.703 83.645 m f
239.309 86.301 m 239.902 85.91 240.137 85.723 240.434 85.348 c 240.996 
84.66 241.277 83.863 241.277 82.926 c 241.277 81.91 240.98 81.129 240.293
 80.316 c 239.965 79.941 239.746 79.77 239.34 79.504 c 239.246 79.629 l 
239.887 80.145 240.09 80.41 240.324 81.02 c 240.512 81.551 240.59 82.145
 240.59 82.957 c 240.59 83.785 240.496 84.441 240.277 84.926 c 240.059 85.426
 239.824 85.723 239.246 86.176 c h
239.309 86.301 m f
Q Q
showpage
%%Trailer
end
%%EOF
