%!PS-Adobe-3.0 EPSF-3.0
%%Creator: cairo 1.17.4 (https://cairographics.org)
%%CreationDate: Thu Feb 24 10:46:54 2022
%%Pages: 1
%%DocumentData: Clean7Bit
%%LanguageLevel: 2
%%BoundingBox: 0 0 339 163
%%EndComments
%%BeginProlog
50 dict begin
/q { gsave } bind def
/Q { grestore } bind def
/cm { 6 array astore concat } bind def
/w { setlinewidth } bind def
/J { setlinecap } bind def
/j { setlinejoin } bind def
/M { setmiterlimit } bind def
/d { setdash } bind def
/m { moveto } bind def
/l { lineto } bind def
/c { curveto } bind def
/h { closepath } bind def
/re { exch dup neg 3 1 roll 5 3 roll moveto 0 rlineto
      0 exch rlineto 0 rlineto closepath } bind def
/S { stroke } bind def
/f { fill } bind def
/f* { eofill } bind def
/n { newpath } bind def
/W { clip } bind def
/W* { eoclip } bind def
/BT { } bind def
/ET { } bind def
/BDC { mark 3 1 roll /BDC pdfmark } bind def
/EMC { mark /EMC pdfmark } bind def
/cairo_store_point { /cairo_point_y exch def /cairo_point_x exch def } def
/Tj { show currentpoint cairo_store_point } bind def
/TJ {
  {
    dup
    type /stringtype eq
    { show } { -0.001 mul 0 cairo_font_matrix dtransform rmoveto } ifelse
  } forall
  currentpoint cairo_store_point
} bind def
/cairo_selectfont { cairo_font_matrix aload pop pop pop 0 0 6 array astore
    cairo_font exch selectfont cairo_point_x cairo_point_y moveto } bind def
/Tf { pop /cairo_font exch def /cairo_font_matrix where
      { pop cairo_selectfont } if } bind def
/Td { matrix translate cairo_font_matrix matrix concatmatrix dup
      /cairo_font_matrix exch def dup 4 get exch 5 get cairo_store_point
      /cairo_font where { pop cairo_selectfont } if } bind def
/Tm { 2 copy 8 2 roll 6 array astore /cairo_font_matrix exch def
      cairo_store_point /cairo_font where { pop cairo_selectfont } if } bind def
/g { setgray } bind def
/rg { setrgbcolor } bind def
/d1 { setcachedevice } bind def
/cairo_data_source {
  CairoDataIndex CairoData length lt
    { CairoData CairoDataIndex get /CairoDataIndex CairoDataIndex 1 add def }
    { () } ifelse
} def
/cairo_flush_ascii85_file { cairo_ascii85_file status { cairo_ascii85_file flushfile } if } def
/cairo_image { image cairo_flush_ascii85_file } def
/cairo_imagemask { imagemask cairo_flush_ascii85_file } def
%%EndProlog
%%BeginSetup
%%EndSetup
%%Page: 1 1
%%BeginPageSetup
%%PageBoundingBox: 0 0 339 163
%%EndPageSetup
q 0 0 339 163 rectclip
1 0 0 -1 0 163 cm q
0 g
1.13366 w
0 J
0 j
[] 0.0 d
10 M q 1 0 0 -1 0 0 cm
29.613 -22.875 m 29.613 -22.875 29.672 -23.02 29.699 -23.094 c 29.727 -23.172
 29.754 -23.238 29.785 -23.316 c 29.844 -23.469 29.895 -23.605 29.953 -23.758
 c 30.012 -23.91 30.066 -24.047 30.125 -24.203 c 30.184 -24.355 30.234 -24.492
 30.293 -24.648 c 30.352 -24.801 30.406 -24.941 30.465 -25.098 c 30.758 
-25.883 31.023 -26.59 31.312 -27.379 c 31.609 -28.188 31.875 -28.918 32.164
 -29.73 c 32.461 -30.57 32.727 -31.32 33.016 -32.16 c 33.312 -33.027 33.574
 -33.809 33.863 -34.68 c 34.16 -35.582 34.426 -36.391 34.711 -37.297 c 35.012
 -38.238 35.277 -39.086 35.562 -40.031 c 35.863 -41.02 36.129 -41.91 36.414
 -42.906 c 36.715 -43.953 36.977 -44.895 37.262 -45.949 c 37.566 -47.066
 37.828 -48.07 38.113 -49.195 c 38.418 -50.402 38.684 -51.484 38.961 -52.699
 c 39.27 -54.023 39.535 -55.215 39.812 -56.543 c 40.125 -58.031 40.391 -59.367
 40.66 -60.863 c 40.98 -62.594 41.246 -64.148 41.512 -65.887 c 41.84 -68.043
 42.113 -69.98 42.363 -72.141 c 42.719 -75.238 42.965 -78.023 43.211 -81.129
 c 43.57 -85.637 43.316 -89.75 44.062 -94.207 c 44.246 -95.305 44.176 -96.5
 44.91 -97.32 c 45.121 -97.551 45.449 -97.641 45.762 -97.656 c 46.062 -97.672
 46.344 -97.555 46.609 -97.414 c 49.961 -95.66 52.254 -92.949 55.109 -90.457
 c 58.129 -87.824 60.672 -85.277 63.609 -82.555 c 66.535 -79.844 69.16 -77.406
 72.105 -74.715 c 75.027 -72.043 77.66 -69.656 80.605 -67.008 c 83.527 -64.383
 86.16 -62.043 89.105 -59.441 c 92.027 -56.863 94.66 -54.559 97.602 -52.004
 c 100.527 -49.465 103.16 -47.195 106.102 -44.676 c 109.027 -42.176 111.66
 -39.938 114.602 -37.457 c 117.523 -34.988 120.16 -32.777 123.098 -30.328
 c 126.023 -27.887 128.656 -25.707 131.598 -23.285 c 134.523 -20.871 137.156
 -18.715 140.098 -16.32 c 143.023 -13.93 148.594 -9.422 148.594 -9.422 c
 S Q
q 1 0 0 -1 0 0 cm
29.613 -22.875 m 29.613 -22.875 29.668 -22.934 29.699 -22.965 c 29.727 
-22.996 29.754 -23.027 29.785 -23.055 c 29.844 -23.117 29.895 -23.176 29.953
 -23.238 c 30.012 -23.301 30.066 -23.355 30.125 -23.418 c 30.184 -23.48 
30.234 -23.535 30.293 -23.598 c 30.352 -23.66 30.406 -23.719 30.465 -23.781
 c 30.758 -24.094 31.02 -24.375 31.312 -24.688 c 31.605 -25 31.871 -25.281
 32.164 -25.598 c 32.457 -25.91 32.719 -26.191 33.016 -26.508 c 33.309 -26.82
 33.57 -27.105 33.863 -27.418 c 34.156 -27.734 34.422 -28.02 34.711 -28.332
 c 35.008 -28.648 35.27 -28.934 35.562 -29.25 c 35.855 -29.562 36.121 -29.848
 36.414 -30.164 c 36.707 -30.48 36.969 -30.762 37.262 -31.078 c 37.555 -31.395
 37.82 -31.68 38.113 -31.992 c 38.406 -32.309 38.668 -32.59 38.961 -32.906
 c 39.258 -33.223 39.52 -33.504 39.812 -33.82 c 40.105 -34.133 40.371 -34.414
 40.66 -34.727 c 40.953 -35.039 41.219 -35.32 41.512 -35.629 c 41.805 -35.941
 42.066 -36.219 42.363 -36.527 c 42.656 -36.836 42.918 -37.113 43.211 -37.422
 c 43.504 -37.727 43.77 -38.004 44.062 -38.309 c 44.355 -38.613 44.617 -38.883
 44.91 -39.184 c 45.203 -39.484 45.469 -39.754 45.762 -40.055 c 46.055 -40.352
 46.309 -40.625 46.609 -40.91 c 49.465 -43.621 51.898 -46.246 55.109 -48.512
 c 57.836 -50.438 60.422 -52.164 63.609 -53.148 c 66.418 -54.016 69.172 
-54.188 72.105 -53.992 c 75.109 -53.797 77.742 -52.926 80.605 -51.992 c 
83.629 -51.008 86.223 -49.766 89.105 -48.418 c 92.094 -47.016 94.699 -45.594
 97.602 -44.02 c 100.566 -42.41 103.188 -40.883 106.102 -39.184 c 109.055
 -37.465 111.68 -35.879 114.602 -34.109 c 117.543 -32.328 120.172 -30.707
 123.098 -28.902 c 126.035 -27.09 128.668 -25.449 131.598 -23.621 c 134.531
 -21.793 137.164 -20.145 140.098 -18.312 c 143.031 -16.477 148.594 -12.984
 148.594 -12.984 c S Q
q 1 0 0 -1 0 0 cm
29.613 -22.875 m 29.613 -22.875 29.727 -22.875 29.785 -22.875 c 29.844 
-22.875 29.895 -22.875 29.953 -22.879 c 30.129 -22.879 30.289 -22.875 30.465
 -22.879 c 30.758 -22.879 31.02 -22.879 31.312 -22.879 c 31.605 -22.879 
31.871 -22.879 32.164 -22.879 c 32.457 -22.875 32.719 -22.879 33.016 -22.875
 c 33.602 -22.875 34.129 -22.871 34.711 -22.867 c 35.008 -22.863 35.27 -22.859
 35.562 -22.855 c 35.855 -22.852 36.121 -22.848 36.414 -22.848 c 36.707 
-22.844 36.969 -22.84 37.262 -22.836 c 37.555 -22.832 37.82 -22.828 38.113
 -22.828 c 38.406 -22.824 38.668 -22.82 38.961 -22.816 c 39.258 -22.812 
39.52 -22.805 39.812 -22.797 c 40.105 -22.789 40.371 -22.785 40.66 -22.777
 c 40.953 -22.77 41.219 -22.766 41.512 -22.758 c 41.805 -22.75 42.07 -22.734
 42.363 -22.727 c 42.656 -22.719 42.918 -22.715 43.211 -22.707 c 43.504 
-22.699 43.77 -22.688 44.062 -22.676 c 44.355 -22.664 44.617 -22.648 44.91
 -22.637 c 45.203 -22.625 45.469 -22.621 45.762 -22.609 c 46.055 -22.598
 46.316 -22.586 46.609 -22.57 c 49.547 -22.414 52.18 -22.281 55.109 -22.062
 c 58.047 -21.844 60.68 -21.602 63.609 -21.297 c 66.547 -20.992 69.18 -20.676
 72.105 -20.297 c 75.043 -19.914 77.68 -19.543 80.605 -19.094 c 83.543 -18.645
 86.176 -18.207 89.105 -17.695 c 92.043 -17.184 94.676 -16.707 97.602 -16.141
 c 100.543 -15.57 103.176 -15.027 106.102 -14.402 c 109.039 -13.777 111.672
 -13.199 114.602 -12.527 c 117.539 -11.855 120.172 -11.23 123.098 -10.516
 c 126.035 -9.797 131.598 -8.371 131.598 -8.371 c S Q
0.567043 w
q 1 0 0 -1 0 0 cm
29.613 -3.035 118.98 -119.055 re S Q
0.398506 w
q 1 0 0 -1 0 0 cm
29.613 -122.09 m 29.613 -117.836 l S Q
q 1 0 0 -1 0 0 cm
63.609 -122.09 m 63.609 -117.836 l S Q
q 1 0 0 -1 0 0 cm
97.602 -122.09 m 97.602 -117.836 l S Q
q 1 0 0 -1 0 0 cm
131.598 -122.09 m 131.598 -117.836 l S Q
q 1 0 0 -1 0 0 cm
29.613 -122.09 m 29.613 -117.836 l S Q
q 1 0 0 -1 0 0 cm
29.613 -122.09 m 33.867 -122.09 l S Q
q 1 0 0 -1 0 0 cm
29.613 -102.246 m 33.867 -102.246 l S Q
q 1 0 0 -1 0 0 cm
29.613 -82.402 m 33.867 -82.402 l S Q
q 1 0 0 -1 0 0 cm
29.613 -62.562 m 33.867 -62.562 l S Q
q 1 0 0 -1 0 0 cm
29.613 -42.719 m 33.867 -42.719 l S Q
q 1 0 0 -1 0 0 cm
29.613 -22.879 m 33.867 -22.879 l S Q
q 1 0 0 -1 0 0 cm
29.613 -3.035 m 33.867 -3.035 l S Q
q 1 0 0 -1 0 0 cm
29.613 -122.09 m 33.867 -122.09 l S Q
q 1 0 0 -1 0 0 cm
29.613 -3.035 m 29.613 -7.285 l S Q
q 1 0 0 -1 0 0 cm
63.609 -3.035 m 63.609 -7.285 l S Q
q 1 0 0 -1 0 0 cm
97.602 -3.035 m 97.602 -7.285 l S Q
q 1 0 0 -1 0 0 cm
131.598 -3.035 m 131.598 -7.285 l S Q
q 1 0 0 -1 0 0 cm
29.613 -3.035 m 29.613 -7.285 l S Q
q 1 0 0 -1 0 0 cm
148.594 -122.09 m 144.344 -122.09 l S Q
q 1 0 0 -1 0 0 cm
148.594 -102.246 m 144.344 -102.246 l S Q
q 1 0 0 -1 0 0 cm
148.594 -82.402 m 144.344 -82.402 l S Q
q 1 0 0 -1 0 0 cm
148.594 -62.562 m 144.344 -62.562 l S Q
q 1 0 0 -1 0 0 cm
148.594 -42.719 m 144.344 -42.719 l S Q
q 1 0 0 -1 0 0 cm
148.594 -22.879 m 144.344 -22.879 l S Q
q 1 0 0 -1 0 0 cm
148.594 -3.035 m 144.344 -3.035 l S Q
q 1 0 0 -1 0 0 cm
148.594 -122.09 m 144.344 -122.09 l S Q
31.57 128.613 m 31.57 127.004 30.836 125.551 29.586 125.551 c 28.32 125.551
 27.586 127.004 27.586 128.613 c 27.586 130.238 28.273 131.676 29.586 131.676
 c 30.789 131.676 31.57 130.238 31.57 128.613 c h
30.711 128.613 m 30.711 129.91 30.586 131.426 29.586 131.426 c 28.633 131.426
 28.445 129.91 28.445 128.613 c 28.445 127.535 28.57 125.785 29.586 125.785
 c 30.586 125.785 30.711 127.535 30.711 128.613 c h
30.711 128.613 m f
61.238 130.41 m 61.082 130.379 l 60.816 130.832 60.598 130.91 60.16 130.91
 c 58.098 130.91 l 59.52 129.613 60.816 128.441 60.816 127.129 c 60.816 
126.207 60.02 125.551 59.145 125.551 c 58.285 125.551 57.598 126.02 57.332
 127.238 c 57.535 127.238 l 57.785 126.738 58.129 126.223 58.816 126.223
 c 59.598 126.223 60.035 126.816 60.035 127.488 c 60.035 128.457 59.004 
129.879 57.238 131.426 c 57.238 131.566 l 60.77 131.566 l h
61.238 130.41 m f
65.648 128.613 m 65.648 127.004 64.914 125.551 63.664 125.551 c 62.398 
125.551 61.664 127.004 61.664 128.613 c 61.664 130.238 62.352 131.676 63.664
 131.676 c 64.867 131.676 65.648 130.238 65.648 128.613 c h
64.789 128.613 m 64.789 129.91 64.664 131.426 63.664 131.426 c 62.711 131.426
 62.523 129.91 62.523 128.613 c 62.523 127.535 62.648 125.785 63.664 125.785
 c 64.664 125.785 64.789 127.535 64.789 128.613 c h
64.789 128.613 m f
70.09 128.613 m 70.09 127.004 69.355 125.551 68.105 125.551 c 66.84 125.551
 66.105 127.004 66.105 128.613 c 66.105 130.238 66.793 131.676 68.105 131.676
 c 69.309 131.676 70.09 130.238 70.09 128.613 c h
69.23 128.613 m 69.23 129.91 69.105 131.426 68.105 131.426 c 67.152 131.426
 66.965 129.91 66.965 128.613 c 66.965 127.535 67.09 125.785 68.105 125.785
 c 69.105 125.785 69.23 127.535 69.23 128.613 c h
69.23 128.613 m f
95.184 130.082 m 95.184 129.473 l 94.309 129.473 l 94.309 125.551 l 93.871
 125.551 l 91.277 129.457 l 91.277 130.082 l 93.574 130.082 l 93.574 131.566
 l 94.309 131.566 l 94.309 130.082 l h
93.574 129.473 m 91.637 129.473 l 93.559 126.488 l 93.574 126.488 l h
93.574 129.473 m f
99.609 128.613 m 99.609 127.004 98.875 125.551 97.625 125.551 c 96.359 
125.551 95.625 127.004 95.625 128.613 c 95.625 130.238 96.312 131.676 97.625
 131.676 c 98.828 131.676 99.609 130.238 99.609 128.613 c h
98.75 128.613 m 98.75 129.91 98.625 131.426 97.625 131.426 c 96.672 131.426
 96.484 129.91 96.484 128.613 c 96.484 127.535 96.609 125.785 97.625 125.785
 c 98.625 125.785 98.75 127.535 98.75 128.613 c h
98.75 128.613 m f
104.047 128.613 m 104.047 127.004 103.312 125.551 102.062 125.551 c 100.797
 125.551 100.062 127.004 100.062 128.613 c 100.062 130.238 100.75 131.676
 102.062 131.676 c 103.266 131.676 104.047 130.238 104.047 128.613 c h
103.188 128.613 m 103.188 129.91 103.062 131.426 102.062 131.426 c 101.109
 131.426 100.922 129.91 100.922 128.613 c 100.922 127.535 101.047 125.785
 102.062 125.785 c 103.062 125.785 103.188 127.535 103.188 128.613 c h
103.188 128.613 m f
129.082 129.551 m 129.082 128.566 128.379 127.832 127.488 127.832 c 127.035
 127.832 126.66 127.973 126.27 128.285 c 126.66 126.691 127.832 125.691 
128.957 125.676 c 128.957 125.52 l 126.191 125.52 125.316 127.863 125.316
 129.191 c 125.316 130.613 126.145 131.676 127.254 131.676 c 128.27 131.676
 129.082 130.723 129.082 129.551 c h
128.316 130.004 m 128.316 130.832 127.941 131.41 127.348 131.41 c 126.426
 131.41 126.145 130.066 126.145 129.348 c 126.145 129.113 126.176 128.863
 126.223 128.566 c 126.613 128.316 126.926 128.207 127.238 128.207 c 128.145
 128.207 128.316 129.254 128.316 130.004 c h
128.316 130.004 m f
133.566 128.613 m 133.566 127.004 132.832 125.551 131.582 125.551 c 130.316
 125.551 129.582 127.004 129.582 128.613 c 129.582 130.238 130.27 131.676
 131.582 131.676 c 132.785 131.676 133.566 130.238 133.566 128.613 c h
132.707 128.613 m 132.707 129.91 132.582 131.426 131.582 131.426 c 130.629
 131.426 130.441 129.91 130.441 128.613 c 130.441 127.535 130.566 125.785
 131.582 125.785 c 132.582 125.785 132.707 127.535 132.707 128.613 c h
132.707 128.613 m f
138.008 128.613 m 138.008 127.004 137.273 125.551 136.023 125.551 c 134.758
 125.551 134.023 127.004 134.023 128.613 c 134.023 130.238 134.711 131.676
 136.023 131.676 c 137.227 131.676 138.008 130.238 138.008 128.613 c h
137.148 128.613 m 137.148 129.91 137.023 131.426 136.023 131.426 c 135.07
 131.426 134.883 129.91 134.883 128.613 c 134.883 127.535 135.008 125.785
 136.023 125.785 c 137.023 125.785 137.148 127.535 137.148 128.613 c h
137.148 128.613 m f
25.93 122.133 m 25.93 120.523 25.195 119.07 23.945 119.07 c 22.68 119.07
 21.945 120.523 21.945 122.133 c 21.945 123.758 22.633 125.195 23.945 125.195
 c 25.148 125.195 25.93 123.758 25.93 122.133 c h
25.07 122.133 m 25.07 123.43 24.945 124.945 23.945 124.945 c 22.992 124.945
 22.805 123.43 22.805 122.133 c 22.805 121.055 22.93 119.305 23.945 119.305
 c 24.945 119.305 25.07 121.055 25.07 122.133 c h
25.07 122.133 m f
19.09 102.332 m 19.09 100.723 18.355 99.27 17.105 99.27 c 15.84 99.27 15.105
 100.723 15.105 102.332 c 15.105 103.957 15.793 105.395 17.105 105.395 c
 18.309 105.395 19.09 103.957 19.09 102.332 c h
18.23 102.332 m 18.23 103.629 18.105 105.145 17.105 105.145 c 16.152 105.145
 15.965 103.629 15.965 102.332 c 15.965 101.254 16.09 99.504 17.105 99.504
 c 18.105 99.504 18.23 101.254 18.23 102.332 c h
18.23 102.332 m f
21.012 104.91 m 21.012 104.629 20.793 104.41 20.512 104.41 c 20.23 104.41
 20.012 104.629 20.012 104.91 c 20.012 105.191 20.23 105.41 20.512 105.41
 c 20.793 105.41 21.012 105.191 21.012 104.91 c h
21.012 104.91 m f
25.961 104.129 m 25.805 104.098 l 25.539 104.551 25.32 104.629 24.883 104.629
 c 22.82 104.629 l 24.242 103.332 25.539 102.16 25.539 100.848 c 25.539 
99.926 24.742 99.27 23.867 99.27 c 23.008 99.27 22.32 99.738 22.055 100.957
 c 22.258 100.957 l 22.508 100.457 22.852 99.941 23.539 99.941 c 24.32 99.941
 24.758 100.535 24.758 101.207 c 24.758 102.176 23.727 103.598 21.961 105.145
 c 21.961 105.285 l 25.492 105.285 l h
25.961 104.129 m f
19.09 82.535 m 19.09 80.926 18.355 79.473 17.105 79.473 c 15.84 79.473 
15.105 80.926 15.105 82.535 c 15.105 84.16 15.793 85.598 17.105 85.598 c
 18.309 85.598 19.09 84.16 19.09 82.535 c h
18.23 82.535 m 18.23 83.832 18.105 85.348 17.105 85.348 c 16.152 85.348
 15.965 83.832 15.965 82.535 c 15.965 81.457 16.09 79.707 17.105 79.707 
c 18.105 79.707 18.23 81.457 18.23 82.535 c h
18.23 82.535 m f
21.012 85.113 m 21.012 84.832 20.793 84.613 20.512 84.613 c 20.23 84.613
 20.012 84.832 20.012 85.113 c 20.012 85.395 20.23 85.613 20.512 85.613 
c 20.793 85.613 21.012 85.395 21.012 85.113 c h
21.012 85.113 m f
25.945 84.004 m 25.945 83.395 l 25.07 83.395 l 25.07 79.473 l 24.633 79.473
 l 22.039 83.379 l 22.039 84.004 l 24.336 84.004 l 24.336 85.488 l 25.07
 85.488 l 25.07 84.004 l h
24.336 83.395 m 22.398 83.395 l 24.32 80.41 l 24.336 80.41 l h
24.336 83.395 m f
19.09 62.613 m 19.09 61.004 18.355 59.551 17.105 59.551 c 15.84 59.551 
15.105 61.004 15.105 62.613 c 15.105 64.238 15.793 65.676 17.105 65.676 
c 18.309 65.676 19.09 64.238 19.09 62.613 c h
18.23 62.613 m 18.23 63.91 18.105 65.426 17.105 65.426 c 16.152 65.426 
15.965 63.91 15.965 62.613 c 15.965 61.535 16.09 59.785 17.105 59.785 c 
18.105 59.785 18.23 61.535 18.23 62.613 c h
18.23 62.613 m f
21.012 65.191 m 21.012 64.91 20.793 64.691 20.512 64.691 c 20.23 64.691
 20.012 64.91 20.012 65.191 c 20.012 65.473 20.23 65.691 20.512 65.691 c
 20.793 65.691 21.012 65.473 21.012 65.191 c h
21.012 65.191 m f
25.883 63.551 m 25.883 62.566 25.18 61.832 24.289 61.832 c 23.836 61.832
 23.461 61.973 23.07 62.285 c 23.461 60.691 24.633 59.691 25.758 59.676 
c 25.758 59.52 l 22.992 59.52 22.117 61.863 22.117 63.191 c 22.117 64.613
 22.945 65.676 24.055 65.676 c 25.07 65.676 25.883 64.723 25.883 63.551 
c h
25.117 64.004 m 25.117 64.832 24.742 65.41 24.148 65.41 c 23.227 65.41 
22.945 64.066 22.945 63.348 c 22.945 63.113 22.977 62.863 23.023 62.566 
c 23.414 62.316 23.727 62.207 24.039 62.207 c 24.945 62.207 25.117 63.254
 25.117 64.004 c h
25.117 64.004 m f
19.09 42.812 m 19.09 41.203 18.355 39.75 17.105 39.75 c 15.84 39.75 15.105
 41.203 15.105 42.812 c 15.105 44.438 15.793 45.875 17.105 45.875 c 18.309
 45.875 19.09 44.438 19.09 42.812 c h
18.23 42.812 m 18.23 44.109 18.105 45.625 17.105 45.625 c 16.152 45.625
 15.965 44.109 15.965 42.812 c 15.965 41.734 16.09 39.984 17.105 39.984 
c 18.105 39.984 18.23 41.734 18.23 42.812 c h
18.23 42.812 m f
21.012 45.391 m 21.012 45.109 20.793 44.891 20.512 44.891 c 20.23 44.891
 20.012 45.109 20.012 45.391 c 20.012 45.672 20.23 45.891 20.512 45.891 
c 20.793 45.891 21.012 45.672 21.012 45.391 c h
21.012 45.391 m f
25.664 44.391 m 25.664 43.75 25.383 43.266 24.289 42.453 c 24.977 42.078
 25.508 41.656 25.508 41 c 25.508 40.312 24.867 39.719 23.914 39.719 c 23.07
 39.719 22.273 40.266 22.273 41.109 c 22.273 41.766 22.617 42.156 23.383
 42.766 c 22.523 43.422 22.211 43.75 22.211 44.422 c 22.211 45.172 22.883
 45.875 23.93 45.875 c 25.148 45.875 25.664 45.047 25.664 44.391 c h
24.898 40.984 m 24.898 41.625 24.523 41.969 24.039 42.297 c 23.445 41.875
 22.93 41.406 22.93 40.891 c 22.93 40.406 23.273 39.984 23.883 39.984 c 
24.555 39.984 24.898 40.406 24.898 40.984 c h
25.023 44.641 m 25.023 45.219 24.586 45.609 24.008 45.609 c 23.32 45.609
 22.883 45.062 22.883 44.328 c 22.883 43.656 23.211 43.266 23.617 42.922
 c 24.602 43.672 25.023 44.047 25.023 44.641 c h
25.023 44.641 m f
18.34 25.965 m 18.34 25.824 l 17.746 25.824 17.527 25.84 17.527 24.668 
c 17.527 24.652 17.527 19.918 17.527 19.918 c 17.402 19.918 l 15.871 20.652
 l 15.918 20.793 l 16.246 20.652 16.324 20.621 16.449 20.621 c 16.715 20.621
 16.762 20.855 16.762 21.168 c 16.762 24.668 l 16.762 25.84 16.543 25.809
 15.949 25.824 c 15.949 25.965 l h
18.34 25.965 m f
21.012 25.59 m 21.012 25.309 20.793 25.09 20.512 25.09 c 20.23 25.09 20.012
 25.309 20.012 25.59 c 20.012 25.871 20.23 26.09 20.512 26.09 c 20.793 26.09
 21.012 25.871 21.012 25.59 c h
21.012 25.59 m f
25.93 23.012 m 25.93 21.402 25.195 19.949 23.945 19.949 c 22.68 19.949 
21.945 21.402 21.945 23.012 c 21.945 24.637 22.633 26.074 23.945 26.074 
c 25.148 26.074 25.93 24.637 25.93 23.012 c h
25.07 23.012 m 25.07 24.309 24.945 25.824 23.945 25.824 c 22.992 25.824
 22.805 24.309 22.805 23.012 c 22.805 21.934 22.93 20.184 23.945 20.184 
c 24.945 20.184 25.07 21.934 25.07 23.012 c h
25.07 23.012 m f
18.34 6.047 m 18.34 5.906 l 17.746 5.906 17.527 5.922 17.527 4.75 c 17.527
 4.734 17.527 0 17.527 0 c 17.402 0 l 15.871 0.734 l 15.918 0.875 l 16.246
 0.734 16.324 0.703 16.449 0.703 c 16.715 0.703 16.762 0.938 16.762 1.25
 c 16.762 4.75 l 16.762 5.922 16.543 5.891 15.949 5.906 c 15.949 6.047 l
 h
18.34 6.047 m f
21.012 5.672 m 21.012 5.391 20.793 5.172 20.512 5.172 c 20.23 5.172 20.012
 5.391 20.012 5.672 c 20.012 5.953 20.23 6.172 20.512 6.172 c 20.793 6.172
 21.012 5.953 21.012 5.672 c h
21.012 5.672 m f
25.961 4.891 m 25.805 4.859 l 25.539 5.312 25.32 5.391 24.883 5.391 c 22.82
 5.391 l 24.242 4.094 25.539 2.922 25.539 1.609 c 25.539 0.688 24.742 0.031
 23.867 0.031 c 23.008 0.031 22.32 0.5 22.055 1.719 c 22.258 1.719 l 22.508
 1.219 22.852 0.703 23.539 0.703 c 24.32 0.703 24.758 1.297 24.758 1.969
 c 24.758 2.938 23.727 4.359 21.961 5.906 c 21.961 6.047 l 25.492 6.047 
l h
25.961 4.891 m f
0.567043 w
q 1 0 0 -1 0 0 cm
29.613 -22.875 m 34.699 -22.875 l 37.75 -22.875 m 42.836 -22.875 l 45.887
 -22.875 m 50.969 -22.875 l 54.02 -22.875 m 59.105 -22.875 l 62.156 -22.875
 m 67.242 -22.875 l 70.289 -22.875 m 75.375 -22.875 l 78.426 -22.875 m 83.512
 -22.875 l 86.562 -22.875 m 91.645 -22.875 l 94.695 -22.875 m 99.781 -22.875
 l 102.832 -22.875 m 107.918 -22.875 l 110.969 -22.875 m 116.051 -22.875
 l 119.102 -22.875 m 124.188 -22.875 l 127.238 -22.875 m 132.324 -22.875
 l 135.375 -22.875 m 140.457 -22.875 l 143.508 -22.875 m 148.594 -22.875
 l S Q
84.578 140.285 m 84.578 139.582 84.266 139.113 83.594 139.113 c 83 139.113
 82.547 139.535 82.141 140.098 c 82.453 139.113 l 82.453 139.113 81.25 139.348
 80.984 139.363 c 80.984 139.52 l 81.312 139.52 81.578 139.488 81.578 139.848
 c 81.578 140.02 81.469 140.41 81.406 140.629 c 80.344 144.363 l 80.25 144.707
 80.094 144.957 79.656 144.957 c 79.625 145.113 l 81.594 145.113 l 81.625
 144.957 l 81.281 144.957 80.984 144.941 80.984 144.691 c 80.984 144.613
 81 144.52 81.047 144.348 c 81.359 143.098 l 81.531 143.238 81.797 143.316
 82.016 143.316 c 83.094 143.316 84.578 141.785 84.578 140.285 c h
83.812 140.379 m 83.812 141.551 82.828 143.113 81.984 143.113 c 81.781 
143.113 81.594 143.035 81.422 142.863 c 81.625 142.066 82.172 139.535 83.328
 139.535 c 83.812 139.535 83.812 140.176 83.812 140.379 c h
83.812 140.379 m f
87.844 137.145 m 87.234 137.145 l 85.188 143.332 l 85.797 143.332 l h
87.844 137.145 m f
89.16 137.098 m 89.113 137.082 l 88.738 137.207 88.504 137.285 88.066 137.41
 c 87.816 137.473 l 87.816 137.613 l 87.863 137.613 87.895 137.613 87.957
 137.613 c 88.316 137.613 88.41 137.691 88.41 138.066 c 88.41 142.723 l 
88.41 143.004 89.16 143.301 89.879 143.301 c 91.066 143.301 91.988 142.316
 91.988 141.035 c 91.988 139.91 91.301 139.082 90.41 139.082 c 89.863 139.082
 89.332 139.395 89.16 139.848 c h
89.16 140.316 m 89.16 139.973 89.582 139.645 90.051 139.645 c 90.301 139.645
 90.52 139.738 90.707 139.91 c 90.988 140.191 91.191 140.801 91.191 141.441
 c 91.191 142.441 90.77 143.004 90.035 143.004 c 89.566 143.004 89.16 142.816
 89.16 142.582 c h
89.16 140.316 m f
96.191 142.613 m 96.035 142.738 95.926 142.785 95.785 142.785 c 95.582 
142.785 95.52 142.66 95.52 142.27 c 95.52 140.52 l 95.52 140.051 95.473 
139.785 95.348 139.582 c 95.145 139.254 94.754 139.082 94.238 139.082 c 
93.395 139.082 92.723 139.52 92.723 140.082 c 92.723 140.285 92.895 140.473
 93.113 140.473 c 93.332 140.473 93.52 140.285 93.52 140.098 c 93.52 140.066
 93.504 140.02 93.504 139.957 c 93.473 139.863 93.473 139.801 93.473 139.738
 c 93.473 139.488 93.754 139.301 94.113 139.301 c 94.551 139.301 94.801 
139.551 94.801 140.035 c 94.801 140.582 l 93.426 141.129 93.27 141.223 92.879
 141.551 c 92.676 141.738 92.551 142.035 92.551 142.332 c 92.551 142.895
 92.941 143.301 93.504 143.301 c 93.895 143.301 94.254 143.113 94.801 142.645
 c 94.848 143.113 95.02 143.301 95.379 143.301 c 95.691 143.301 95.879 143.191
 96.191 142.848 c h
94.801 142.098 m 94.801 142.379 94.754 142.473 94.566 142.582 c 94.332 
142.707 94.098 142.77 93.91 142.77 c 93.598 142.77 93.348 142.473 93.348
 142.082 c 93.348 142.051 l 93.348 141.52 93.754 141.176 94.801 140.801 
c h
94.801 142.098 m f
96.23 143.207 m 98.387 143.207 l 98.387 143.066 l 97.777 143.051 97.637
 142.926 97.621 142.395 c 97.621 140.379 l 97.621 140.098 97.996 139.645
 98.246 139.645 c 98.293 139.645 98.387 139.691 98.48 139.785 c 98.621 139.91
 98.715 139.957 98.84 139.957 c 99.059 139.957 99.184 139.801 99.184 139.551
 c 99.184 139.254 98.996 139.082 98.699 139.082 c 98.324 139.082 98.074 
139.285 97.621 139.926 c 97.621 139.098 l 97.574 139.082 l 97.074 139.285
 96.746 139.41 96.246 139.566 c 96.246 139.707 l 96.371 139.676 96.449 139.676
 96.559 139.676 c 96.777 139.676 96.871 139.816 96.871 140.207 c 96.871 
142.457 l 96.84 142.926 96.793 142.973 96.23 143.066 c h
96.23 143.207 m f
1 g
0.5 62.027 m 0.234 62.027 0 62.246 0 62.527 c 0 62.793 0.234 63.012 0.484
 63.012 c 0.766 63.012 1 62.809 1 62.527 c 1 62.262 0.766 62.027 0.5 62.027
 c h
0.5 62.027 m f
0 g
1.598 59.699 m 1.457 59.699 l 1.457 64.402 l 2.848 64.84 l 2.848 64.668
 l 1.973 64.309 1.77 63.965 1.77 62.574 c 1.77 60.934 l 7.363 65.668 l 7.504
 65.668 l 7.504 60.793 l 5.941 60.309 l 5.941 60.48 l 6.895 60.918 7.176
 61.246 7.176 62.918 c 7.176 64.449 l h
1.598 59.699 m f
64.492 10.414 m 61.164 10.414 l 60.602 11.648 l 60.836 11.648 l 61.148 
11.211 61.367 11.102 61.867 11.102 c 63.633 11.102 l 61.883 15.805 l 62.523
 15.805 l h
64.492 10.414 m f
68.5 15.711 m 68.5 15.492 l 67.891 15.492 67.703 15.492 67.703 14.523 c
 67.703 14.523 67.703 10.336 67.703 10.336 c 67.5 10.336 l 65.953 10.992
 l 66.047 11.211 l 66.406 11.07 66.469 11.055 66.594 11.055 c 66.828 11.055
 66.844 11.242 66.844 11.477 c 66.844 14.523 l 66.844 15.492 66.656 15.477
 66.047 15.492 c 66.047 15.711 l h
68.5 15.711 m f
73.805 13.07 m 73.805 11.633 73.148 10.336 71.898 10.336 c 70.633 10.336
 69.992 11.633 69.992 13.07 c 69.992 14.523 70.617 15.805 71.898 15.805 
c 73.117 15.805 73.805 14.523 73.805 13.07 c h
72.82 13.07 m 72.82 14.18 72.539 15.492 71.883 15.492 c 71.07 15.492 70.977
 14.18 70.977 13.07 c 70.977 12.148 71.023 10.648 71.898 10.648 c 72.773
 10.648 72.82 12.148 72.82 13.07 c h
72.82 13.07 m f
78.867 10.586 m 79.336 10.617 79.398 10.648 79.398 10.836 c 79.398 11.008
 79.227 11.242 78.789 11.648 c 77.367 12.945 l 77.367 11.305 l 77.383 10.711
 77.461 10.633 78.102 10.586 c 78.102 10.43 l 75.836 10.43 l 75.836 10.586
 l 76.461 10.633 76.539 10.727 76.555 11.305 c 76.555 14.758 l 76.555 15.43
 76.461 15.523 75.836 15.555 c 75.836 15.711 l 78.086 15.711 l 78.086 15.555
 l 77.477 15.523 77.383 15.43 77.367 14.836 c 77.367 13.352 l 77.586 13.18
 l 78.43 14.023 l 79.039 14.633 79.461 15.18 79.461 15.383 c 79.461 15.492
 79.352 15.539 79.117 15.555 c 79.086 15.555 78.992 15.555 78.898 15.555
 c 78.898 15.711 l 81.336 15.711 l 81.336 15.555 l 80.914 15.555 80.805 
15.477 80.086 14.695 c 78.227 12.711 l 79.742 11.211 l 80.273 10.695 80.414
 10.633 80.945 10.586 c 80.945 10.43 l 78.867 10.43 l h
78.867 10.586 m f
64.508 61.031 m 64.508 60.406 l 63.648 60.406 l 63.648 56.969 l 63.148 
56.969 l 60.586 60.422 l 60.586 61.031 l 62.836 61.031 l 62.836 62.344 l
 63.648 62.344 l 63.648 61.031 l h
62.883 57.891 m 62.836 57.828 l 62.836 60.406 l 61.086 60.406 l h
62.883 57.891 m f
69.125 59.703 m 69.125 58.266 68.469 56.969 67.219 56.969 c 65.953 56.969
 65.312 58.266 65.312 59.703 c 65.312 61.156 65.938 62.438 67.219 62.438
 c 68.438 62.438 69.125 61.156 69.125 59.703 c h
68.141 59.703 m 68.141 60.812 67.859 62.125 67.203 62.125 c 66.391 62.125
 66.297 60.812 66.297 59.703 c 66.297 58.781 66.344 57.281 67.219 57.281
 c 68.094 57.281 68.141 58.781 68.141 59.703 c h
68.141 59.703 m f
73.805 59.703 m 73.805 58.266 73.148 56.969 71.898 56.969 c 70.633 56.969
 69.992 58.266 69.992 59.703 c 69.992 61.156 70.617 62.438 71.898 62.438
 c 73.117 62.438 73.805 61.156 73.805 59.703 c h
72.82 59.703 m 72.82 60.812 72.539 62.125 71.883 62.125 c 71.07 62.125 
70.977 60.812 70.977 59.703 c 70.977 58.781 71.023 57.281 71.898 57.281 
c 72.773 57.281 72.82 58.781 72.82 59.703 c h
72.82 59.703 m f
78.867 57.219 m 79.336 57.25 79.398 57.281 79.398 57.469 c 79.398 57.641
 79.227 57.875 78.789 58.281 c 77.367 59.578 l 77.367 57.938 l 77.383 57.344
 77.461 57.266 78.102 57.219 c 78.102 57.062 l 75.836 57.062 l 75.836 57.219
 l 76.461 57.266 76.539 57.359 76.555 57.938 c 76.555 61.391 l 76.555 62.062
 76.461 62.156 75.836 62.188 c 75.836 62.344 l 78.086 62.344 l 78.086 62.188
 l 77.477 62.156 77.383 62.062 77.367 61.469 c 77.367 59.984 l 77.586 59.812
 l 78.43 60.656 l 79.039 61.266 79.461 61.812 79.461 62.016 c 79.461 62.125
 79.352 62.172 79.117 62.188 c 79.086 62.188 78.992 62.188 78.898 62.188
 c 78.898 62.344 l 81.336 62.344 l 81.336 62.188 l 80.914 62.188 80.805 
62.109 80.086 61.328 c 78.227 59.344 l 79.742 57.844 l 80.273 57.328 80.414
 57.266 80.945 57.219 c 80.945 57.062 l 78.867 57.062 l h
78.867 57.219 m f
64.273 93.332 m 64.273 92.52 63.789 92.145 63.273 91.957 c 63.805 91.582
 63.977 91.223 63.977 90.801 c 63.977 90.332 63.555 89.707 62.555 89.707
 c 61.852 89.707 61.18 90.051 60.867 90.973 c 61.102 91.035 l 61.289 90.707
 61.633 90.316 62.242 90.316 c 62.836 90.316 63.18 90.66 63.18 91.082 c 
63.18 91.66 62.664 92.098 61.867 92.27 c 61.852 92.52 l 63.211 92.457 63.539
 93.238 63.539 93.707 c 63.539 94.254 63.086 94.785 62.492 94.785 c 61.93
 94.785 61.664 94.332 61.211 94.332 c 61.023 94.332 60.82 94.488 60.82 94.707
 c 60.82 95.051 61.383 95.176 61.82 95.176 c 63.242 95.176 64.273 94.426
 64.273 93.332 c h
64.273 93.332 m f
68.5 95.082 m 68.5 94.863 l 67.891 94.863 67.703 94.863 67.703 93.895 c
 67.703 93.895 67.703 89.707 67.703 89.707 c 67.5 89.707 l 65.953 90.363
 l 66.047 90.582 l 66.406 90.441 66.469 90.426 66.594 90.426 c 66.828 90.426
 66.844 90.613 66.844 90.848 c 66.844 93.895 l 66.844 94.863 66.656 94.848
 66.047 94.863 c 66.047 95.082 l h
68.5 95.082 m f
73.805 92.441 m 73.805 91.004 73.148 89.707 71.898 89.707 c 70.633 89.707
 69.992 91.004 69.992 92.441 c 69.992 93.895 70.617 95.176 71.898 95.176
 c 73.117 95.176 73.805 93.895 73.805 92.441 c h
72.82 92.441 m 72.82 93.551 72.539 94.863 71.883 94.863 c 71.07 94.863 
70.977 93.551 70.977 92.441 c 70.977 91.52 71.023 90.02 71.898 90.02 c 72.773
 90.02 72.82 91.52 72.82 92.441 c h
72.82 92.441 m f
78.867 89.957 m 79.336 89.988 79.398 90.02 79.398 90.207 c 79.398 90.379
 79.227 90.613 78.789 91.02 c 77.367 92.316 l 77.367 90.676 l 77.383 90.082
 77.461 90.004 78.102 89.957 c 78.102 89.801 l 75.836 89.801 l 75.836 89.957
 l 76.461 90.004 76.539 90.098 76.555 90.676 c 76.555 94.129 l 76.555 94.801
 76.461 94.895 75.836 94.926 c 75.836 95.082 l 78.086 95.082 l 78.086 94.926
 l 77.477 94.895 77.383 94.801 77.367 94.207 c 77.367 92.723 l 77.586 92.551
 l 78.43 93.395 l 79.039 94.004 79.461 94.551 79.461 94.754 c 79.461 94.863
 79.352 94.91 79.117 94.926 c 79.086 94.926 78.992 94.926 78.898 94.926 
c 78.898 95.082 l 81.336 95.082 l 81.336 94.926 l 80.914 94.926 80.805 94.848
 80.086 94.066 c 78.227 92.082 l 79.742 90.582 l 80.273 90.066 80.414 90.004
 80.945 89.957 c 80.945 89.801 l 78.867 89.801 l h
78.867 89.957 m f
87.008 154.738 m 86.43 155.129 86.18 155.332 85.898 155.691 c 85.32 156.395
 85.039 157.191 85.039 158.113 c 85.039 159.145 85.336 159.91 86.039 160.723
 c 86.367 161.113 86.57 161.285 86.992 161.535 c 87.086 161.41 l 86.445 
160.91 86.227 160.629 86.008 160.035 c 85.82 159.504 85.727 158.895 85.727
 158.098 c 85.727 157.254 85.836 156.598 86.055 156.113 c 86.273 155.613
 86.508 155.332 87.086 154.863 c h
87.008 154.738 m f
90.82 159.598 m 90.695 159.707 90.602 159.754 90.477 159.754 c 90.289 159.754
 90.242 159.645 90.242 159.285 c 90.242 157.738 l 90.242 157.316 90.195 
157.098 90.07 156.895 c 89.898 156.613 89.555 156.457 89.086 156.457 c 88.336
 156.457 87.758 156.848 87.758 157.363 c 87.758 157.535 87.898 157.691 88.086
 157.691 c 88.289 157.691 88.445 157.535 88.445 157.363 c 88.445 157.332
 88.445 157.285 88.43 157.238 c 88.414 157.16 88.414 157.098 88.414 157.051
 c 88.414 156.832 88.664 156.66 88.992 156.66 c 89.383 156.66 89.586 156.879
 89.586 157.316 c 89.586 157.801 l 88.367 158.285 88.227 158.363 87.883 
158.66 c 87.711 158.816 87.602 159.098 87.602 159.363 c 87.602 159.863 87.945
 160.207 88.43 160.207 c 88.789 160.207 89.117 160.035 89.602 159.629 c 
89.633 160.051 89.789 160.207 90.117 160.207 c 90.383 160.207 90.555 160.113
 90.82 159.816 c h
89.586 159.145 m 89.586 159.395 89.555 159.473 89.383 159.566 c 89.18 159.676
 88.977 159.754 88.805 159.754 c 88.523 159.754 88.305 159.473 88.305 159.129
 c 88.305 159.098 l 88.305 158.629 88.664 158.316 89.586 157.988 c h
89.586 159.145 m f
91.082 161.535 m 91.676 161.145 91.91 160.957 92.207 160.582 c 92.77 159.895
 93.051 159.098 93.051 158.16 c 93.051 157.145 92.754 156.363 92.066 155.551
 c 91.738 155.176 91.52 155.004 91.113 154.738 c 91.02 154.863 l 91.66 155.379
 91.863 155.645 92.098 156.254 c 92.285 156.785 92.363 157.379 92.363 158.191
 c 92.363 159.02 92.27 159.676 92.051 160.16 c 91.832 160.66 91.598 160.957
 91.02 161.41 c h
91.082 161.535 m f
Q q
202.914 0.648 136.086 137 re W n
q
202 0 137 138 re W n
  q
0 g
1.13366 w
0 J
0 j
[] 0.0 d
10 M q 1 0 0 -1 0 0 cm
219.598 -121.395 m 221.016 -111.508 l 222.434 -103.211 l 223.852 -96.105
 l 225.273 -89.949 l 226.691 -84.551 l 228.109 -79.746 l 229.527 -75.457
 l 230.945 -71.566 l 232.363 -68.07 l 233.785 -64.855 l 235.203 -61.957 
l 236.621 -59.258 l 238.039 -56.797 l 239.461 -54.492 l 240.879 -52.391 
l 242.297 -50.445 l 243.715 -48.578 l 245.133 -46.871 l 246.551 -45.281 
l 247.973 -43.812 l 249.391 -42.422 l 250.809 -41.074 l 252.227 -39.844 
l 253.645 -38.691 l 255.062 -37.617 l 256.484 -36.586 l 257.902 -35.594 
l 259.32 -34.68 l 260.738 -33.809 l 262.156 -32.973 l 263.574 -32.18 l 264.996
 -31.426 l 269.25 -29.398 l 270.668 -28.805 l 272.09 -28.207 l 273.508 -27.652
 l 276.344 -26.621 l 277.762 -26.145 l 279.184 -25.668 l 280.602 -25.23 
l 282.02 -24.832 l 283.438 -24.395 l 284.855 -24 l 286.273 -23.641 l 287.695
 -23.285 l 289.113 -22.926 l 293.367 -21.977 l 294.785 -21.695 l 296.207
 -21.379 l 297.625 -21.102 l 299.043 -20.863 l 300.461 -20.586 l 301.879
 -20.348 l 303.301 -20.109 l 304.719 -19.871 l 306.137 -19.672 l 307.555
 -19.434 l 308.973 -19.234 l 310.395 -19.035 l 311.812 -18.84 l 313.23 -18.641
 l 314.648 -18.48 l 316.066 -18.281 l 317.484 -18.125 l 318.906 -17.965 
l 321.742 -17.645 l 323.16 -17.488 l 324.578 -17.328 l 326 -17.211 l 327.418
 -17.051 l 328.836 -16.934 l 330.254 -16.773 l S Q
  Q
Q
0 g
0.567043 w
0 J
0 j
[] 0.0 d
10 M q 1 0 0 -1 0 0 cm
216.824 -2.973 113.492 -119.117 re S Q
0.398506 w
q 1 0 0 -1 0 0 cm
216.824 -122.09 m 216.824 -117.836 l S Q
q 1 0 0 -1 0 0 cm
245.199 -122.09 m 245.199 -117.836 l S Q
q 1 0 0 -1 0 0 cm
273.57 -122.09 m 273.57 -117.836 l S Q
q 1 0 0 -1 0 0 cm
301.945 -122.09 m 301.945 -117.836 l S Q
q 1 0 0 -1 0 0 cm
330.316 -122.09 m 330.316 -117.836 l S Q
q 1 0 0 -1 0 0 cm
216.824 -122.09 m 216.824 -117.836 l S Q
q 1 0 0 -1 0 0 cm
216.824 -122.09 m 221.078 -122.09 l S Q
q 1 0 0 -1 0 0 cm
216.824 -102.234 m 221.078 -102.234 l S Q
q 1 0 0 -1 0 0 cm
216.824 -82.383 m 221.078 -82.383 l S Q
q 1 0 0 -1 0 0 cm
216.824 -62.531 m 221.078 -62.531 l S Q
q 1 0 0 -1 0 0 cm
216.824 -42.676 m 221.078 -42.676 l S Q
q 1 0 0 -1 0 0 cm
216.824 -22.824 m 221.078 -22.824 l S Q
q 1 0 0 -1 0 0 cm
216.824 -2.973 m 221.078 -2.973 l S Q
q 1 0 0 -1 0 0 cm
216.824 -122.09 m 221.078 -122.09 l S Q
q 1 0 0 -1 0 0 cm
216.824 -2.973 m 216.824 -7.223 l S Q
q 1 0 0 -1 0 0 cm
245.199 -2.973 m 245.199 -7.223 l S Q
q 1 0 0 -1 0 0 cm
273.57 -2.973 m 273.57 -7.223 l S Q
q 1 0 0 -1 0 0 cm
301.945 -2.973 m 301.945 -7.223 l S Q
q 1 0 0 -1 0 0 cm
330.316 -2.973 m 330.316 -7.223 l S Q
q 1 0 0 -1 0 0 cm
216.824 -2.973 m 216.824 -7.223 l S Q
q 1 0 0 -1 0 0 cm
330.316 -122.09 m 326.066 -122.09 l S Q
q 1 0 0 -1 0 0 cm
330.316 -102.234 m 326.066 -102.234 l S Q
q 1 0 0 -1 0 0 cm
330.316 -82.383 m 326.066 -82.383 l S Q
q 1 0 0 -1 0 0 cm
330.316 -62.531 m 326.066 -62.531 l S Q
q 1 0 0 -1 0 0 cm
330.316 -42.676 m 326.066 -42.676 l S Q
q 1 0 0 -1 0 0 cm
330.316 -22.824 m 326.066 -22.824 l S Q
q 1 0 0 -1 0 0 cm
330.316 -2.973 m 326.066 -2.973 l S Q
q 1 0 0 -1 0 0 cm
330.316 -122.09 m 326.066 -122.09 l S Q
214.371 130.41 m 214.215 130.379 l 213.949 130.832 213.73 130.91 213.293
 130.91 c 211.23 130.91 l 212.652 129.613 213.949 128.441 213.949 127.129
 c 213.949 126.207 213.152 125.551 212.277 125.551 c 211.418 125.551 210.73
 126.02 210.465 127.238 c 210.668 127.238 l 210.918 126.738 211.262 126.223
 211.949 126.223 c 212.73 126.223 213.168 126.816 213.168 127.488 c 213.168
 128.457 212.137 129.879 210.371 131.426 c 210.371 131.566 l 213.902 131.566
 l h
214.371 130.41 m f
218.781 128.613 m 218.781 127.004 218.047 125.551 216.797 125.551 c 215.531
 125.551 214.797 127.004 214.797 128.613 c 214.797 130.238 215.484 131.676
 216.797 131.676 c 218 131.676 218.781 130.238 218.781 128.613 c h
217.922 128.613 m 217.922 129.91 217.797 131.426 216.797 131.426 c 215.844
 131.426 215.656 129.91 215.656 128.613 c 215.656 127.535 215.781 125.785
 216.797 125.785 c 217.797 125.785 217.922 127.535 217.922 128.613 c h
217.922 128.613 m f
223.223 128.613 m 223.223 127.004 222.488 125.551 221.238 125.551 c 219.973
 125.551 219.238 127.004 219.238 128.613 c 219.238 130.238 219.926 131.676
 221.238 131.676 c 222.441 131.676 223.223 130.238 223.223 128.613 c h
222.363 128.613 m 222.363 129.91 222.238 131.426 221.238 131.426 c 220.285
 131.426 220.098 129.91 220.098 128.613 c 220.098 127.535 220.223 125.785
 221.238 125.785 c 222.238 125.785 222.363 127.535 222.363 128.613 c h
222.363 128.613 m f
242.676 130.082 m 242.676 129.473 l 241.801 129.473 l 241.801 125.551 l
 241.363 125.551 l 238.77 129.457 l 238.77 130.082 l 241.066 130.082 l 241.066
 131.566 l 241.801 131.566 l 241.801 130.082 l h
241.066 129.473 m 239.129 129.473 l 241.051 126.488 l 241.066 126.488 l
 h
241.066 129.473 m f
247.102 128.613 m 247.102 127.004 246.367 125.551 245.117 125.551 c 243.852
 125.551 243.117 127.004 243.117 128.613 c 243.117 130.238 243.805 131.676
 245.117 131.676 c 246.32 131.676 247.102 130.238 247.102 128.613 c h
246.242 128.613 m 246.242 129.91 246.117 131.426 245.117 131.426 c 244.164
 131.426 243.977 129.91 243.977 128.613 c 243.977 127.535 244.102 125.785
 245.117 125.785 c 246.117 125.785 246.242 127.535 246.242 128.613 c h
246.242 128.613 m f
251.539 128.613 m 251.539 127.004 250.805 125.551 249.555 125.551 c 248.289
 125.551 247.555 127.004 247.555 128.613 c 247.555 130.238 248.242 131.676
 249.555 131.676 c 250.758 131.676 251.539 130.238 251.539 128.613 c h
250.68 128.613 m 250.68 129.91 250.555 131.426 249.555 131.426 c 248.602
 131.426 248.414 129.91 248.414 128.613 c 248.414 127.535 248.539 125.785
 249.555 125.785 c 250.555 125.785 250.68 127.535 250.68 128.613 c h
250.68 128.613 m f
271.055 129.551 m 271.055 128.566 270.352 127.832 269.461 127.832 c 269.008
 127.832 268.633 127.973 268.242 128.285 c 268.633 126.691 269.805 125.691
 270.93 125.676 c 270.93 125.52 l 268.164 125.52 267.289 127.863 267.289
 129.191 c 267.289 130.613 268.117 131.676 269.227 131.676 c 270.242 131.676
 271.055 130.723 271.055 129.551 c h
270.289 130.004 m 270.289 130.832 269.914 131.41 269.32 131.41 c 268.398
 131.41 268.117 130.066 268.117 129.348 c 268.117 129.113 268.148 128.863
 268.195 128.566 c 268.586 128.316 268.898 128.207 269.211 128.207 c 270.117
 128.207 270.289 129.254 270.289 130.004 c h
270.289 130.004 m f
275.539 128.613 m 275.539 127.004 274.805 125.551 273.555 125.551 c 272.289
 125.551 271.555 127.004 271.555 128.613 c 271.555 130.238 272.242 131.676
 273.555 131.676 c 274.758 131.676 275.539 130.238 275.539 128.613 c h
274.68 128.613 m 274.68 129.91 274.555 131.426 273.555 131.426 c 272.602
 131.426 272.414 129.91 272.414 128.613 c 272.414 127.535 272.539 125.785
 273.555 125.785 c 274.555 125.785 274.68 127.535 274.68 128.613 c h
274.68 128.613 m f
279.98 128.613 m 279.98 127.004 279.246 125.551 277.996 125.551 c 276.73
 125.551 275.996 127.004 275.996 128.613 c 275.996 130.238 276.684 131.676
 277.996 131.676 c 279.199 131.676 279.98 130.238 279.98 128.613 c h
279.121 128.613 m 279.121 129.91 278.996 131.426 277.996 131.426 c 277.043
 131.426 276.855 129.91 276.855 128.613 c 276.855 127.535 276.98 125.785
 277.996 125.785 c 278.996 125.785 279.121 127.535 279.121 128.613 c h
279.121 128.613 m f
299.152 130.191 m 299.152 129.551 298.871 129.066 297.777 128.254 c 298.465
 127.879 298.996 127.457 298.996 126.801 c 298.996 126.113 298.355 125.52
 297.402 125.52 c 296.559 125.52 295.762 126.066 295.762 126.91 c 295.762
 127.566 296.105 127.957 296.871 128.566 c 296.012 129.223 295.699 129.551
 295.699 130.223 c 295.699 130.973 296.371 131.676 297.418 131.676 c 298.637
 131.676 299.152 130.848 299.152 130.191 c h
298.387 126.785 m 298.387 127.426 298.012 127.77 297.527 128.098 c 296.934
 127.676 296.418 127.207 296.418 126.691 c 296.418 126.207 296.762 125.785
 297.371 125.785 c 298.043 125.785 298.387 126.207 298.387 126.785 c h
298.512 130.441 m 298.512 131.02 298.074 131.41 297.496 131.41 c 296.809
 131.41 296.371 130.863 296.371 130.129 c 296.371 129.457 296.699 129.066
 297.105 128.723 c 298.09 129.473 298.512 129.848 298.512 130.441 c h
298.512 130.441 m f
303.859 128.613 m 303.859 127.004 303.125 125.551 301.875 125.551 c 300.609
 125.551 299.875 127.004 299.875 128.613 c 299.875 130.238 300.562 131.676
 301.875 131.676 c 303.078 131.676 303.859 130.238 303.859 128.613 c h
303 128.613 m 303 129.91 302.875 131.426 301.875 131.426 c 300.922 131.426
 300.734 129.91 300.734 128.613 c 300.734 127.535 300.859 125.785 301.875
 125.785 c 302.875 125.785 303 127.535 303 128.613 c h
303 128.613 m f
308.301 128.613 m 308.301 127.004 307.566 125.551 306.316 125.551 c 305.051
 125.551 304.316 127.004 304.316 128.613 c 304.316 130.238 305.004 131.676
 306.316 131.676 c 307.52 131.676 308.301 130.238 308.301 128.613 c h
307.441 128.613 m 307.441 129.91 307.316 131.426 306.316 131.426 c 305.363
 131.426 305.176 129.91 305.176 128.613 c 305.176 127.535 305.301 125.785
 306.316 125.785 c 307.316 125.785 307.441 127.535 307.441 128.613 c h
307.441 128.613 m f
324.828 131.566 m 324.828 131.426 l 324.234 131.426 324.016 131.441 324.016
 130.27 c 324.016 130.254 324.016 125.52 324.016 125.52 c 323.891 125.52
 l 322.359 126.254 l 322.406 126.395 l 322.734 126.254 322.812 126.223 322.938
 126.223 c 323.203 126.223 323.25 126.457 323.25 126.77 c 323.25 130.27 
l 323.25 131.441 323.031 131.41 322.438 131.426 c 322.438 131.566 l h
324.828 131.566 m f
330.02 128.613 m 330.02 127.004 329.285 125.551 328.035 125.551 c 326.77
 125.551 326.035 127.004 326.035 128.613 c 326.035 130.238 326.723 131.676
 328.035 131.676 c 329.238 131.676 330.02 130.238 330.02 128.613 c h
329.16 128.613 m 329.16 129.91 329.035 131.426 328.035 131.426 c 327.082
 131.426 326.895 129.91 326.895 128.613 c 326.895 127.535 327.02 125.785
 328.035 125.785 c 329.035 125.785 329.16 127.535 329.16 128.613 c h
329.16 128.613 m f
334.461 128.613 m 334.461 127.004 333.727 125.551 332.477 125.551 c 331.211
 125.551 330.477 127.004 330.477 128.613 c 330.477 130.238 331.164 131.676
 332.477 131.676 c 333.68 131.676 334.461 130.238 334.461 128.613 c h
333.602 128.613 m 333.602 129.91 333.477 131.426 332.477 131.426 c 331.523
 131.426 331.336 129.91 331.336 128.613 c 331.336 127.535 331.461 125.785
 332.477 125.785 c 333.477 125.785 333.602 127.535 333.602 128.613 c h
333.602 128.613 m f
338.898 128.613 m 338.898 127.004 338.164 125.551 336.914 125.551 c 335.648
 125.551 334.914 127.004 334.914 128.613 c 334.914 130.238 335.602 131.676
 336.914 131.676 c 338.117 131.676 338.898 130.238 338.898 128.613 c h
338.039 128.613 m 338.039 129.91 337.914 131.426 336.914 131.426 c 335.961
 131.426 335.773 129.91 335.773 128.613 c 335.773 127.535 335.898 125.785
 336.914 125.785 c 337.914 125.785 338.039 127.535 338.039 128.613 c h
338.039 128.613 m f
Q q
0 g
193.926 122.602 5.484 0.453 re f
204.172 123.93 m 204.016 123.898 l 203.75 124.352 203.531 124.43 203.094
 124.43 c 201.031 124.43 l 202.453 123.133 203.75 121.961 203.75 120.648
 c 203.75 119.727 202.953 119.07 202.078 119.07 c 201.219 119.07 200.531
 119.539 200.266 120.758 c 200.469 120.758 l 200.719 120.258 201.062 119.742
 201.75 119.742 c 202.531 119.742 202.969 120.336 202.969 121.008 c 202.969
 121.977 201.938 123.398 200.172 124.945 c 200.172 125.086 l 203.703 125.086
 l h
204.172 123.93 m f
208.52 119.164 m 206.051 119.164 l 204.941 121.711 l 205.082 121.68 205.223
 121.648 205.395 121.648 c 206.348 121.648 207.645 122.148 207.645 123.32
 c 207.645 124.227 206.988 124.805 206.363 124.805 c 205.816 124.805 205.613
 124.305 205.098 124.305 c 204.848 124.305 204.77 124.523 204.77 124.633
 c 204.77 124.945 205.207 125.195 205.832 125.195 c 207.176 125.195 208.238
 124.211 208.238 123.008 c 208.238 121.586 207.113 121.102 205.895 121.07
 c 205.785 121.07 205.66 121.086 205.551 121.102 c 206.113 119.836 l 208.207
 119.82 l h
208.52 119.164 m f
213.02 122.133 m 213.02 120.523 212.285 119.07 211.035 119.07 c 209.77 
119.07 209.035 120.523 209.035 122.133 c 209.035 123.758 209.723 125.195
 211.035 125.195 c 212.238 125.195 213.02 123.758 213.02 122.133 c h
212.16 122.133 m 212.16 123.43 212.035 124.945 211.035 124.945 c 210.082
 124.945 209.895 123.43 209.895 122.133 c 209.895 121.055 210.02 119.305
 211.035 119.305 c 212.035 119.305 212.16 121.055 212.16 122.133 c h
212.16 122.133 m f
193.926 102.801 5.484 0.453 re f
204.172 104.129 m 204.016 104.098 l 203.75 104.551 203.531 104.629 203.094
 104.629 c 201.031 104.629 l 202.453 103.332 203.75 102.16 203.75 100.848
 c 203.75 99.926 202.953 99.27 202.078 99.27 c 201.219 99.27 200.531 99.738
 200.266 100.957 c 200.469 100.957 l 200.719 100.457 201.062 99.941 201.75
 99.941 c 202.531 99.941 202.969 100.535 202.969 101.207 c 202.969 102.176
 201.938 103.598 200.172 105.145 c 200.172 105.285 l 203.703 105.285 l h
204.172 104.129 m f
208.582 102.332 m 208.582 100.723 207.848 99.27 206.598 99.27 c 205.332
 99.27 204.598 100.723 204.598 102.332 c 204.598 103.957 205.285 105.395
 206.598 105.395 c 207.801 105.395 208.582 103.957 208.582 102.332 c h
207.723 102.332 m 207.723 103.629 207.598 105.145 206.598 105.145 c 205.645
 105.145 205.457 103.629 205.457 102.332 c 205.457 101.254 205.582 99.504
 206.598 99.504 c 207.598 99.504 207.723 101.254 207.723 102.332 c h
207.723 102.332 m f
213.02 102.332 m 213.02 100.723 212.285 99.27 211.035 99.27 c 209.77 99.27
 209.035 100.723 209.035 102.332 c 209.035 103.957 209.723 105.395 211.035
 105.395 c 212.238 105.395 213.02 103.957 213.02 102.332 c h
212.16 102.332 m 212.16 103.629 212.035 105.145 211.035 105.145 c 210.082
 105.145 209.895 103.629 209.895 102.332 c 209.895 101.254 210.02 99.504
 211.035 99.504 c 212.035 99.504 212.16 101.254 212.16 102.332 c h
212.16 102.332 m f
193.926 82.883 5.484 0.453 re f
203.391 85.367 m 203.391 85.227 l 202.797 85.227 202.578 85.242 202.578
 84.07 c 202.578 84.055 202.578 79.32 202.578 79.32 c 202.453 79.32 l 200.922
 80.055 l 200.969 80.195 l 201.297 80.055 201.375 80.023 201.5 80.023 c 
201.766 80.023 201.812 80.258 201.812 80.57 c 201.812 84.07 l 201.812 85.242
 201.594 85.211 201 85.227 c 201 85.367 l h
203.391 85.367 m f
208.52 79.445 m 206.051 79.445 l 204.941 81.992 l 205.082 81.961 205.223
 81.93 205.395 81.93 c 206.348 81.93 207.645 82.43 207.645 83.602 c 207.645
 84.508 206.988 85.086 206.363 85.086 c 205.816 85.086 205.613 84.586 205.098
 84.586 c 204.848 84.586 204.77 84.805 204.77 84.914 c 204.77 85.227 205.207
 85.477 205.832 85.477 c 207.176 85.477 208.238 84.492 208.238 83.289 c 
208.238 81.867 207.113 81.383 205.895 81.352 c 205.785 81.352 205.66 81.367
 205.551 81.383 c 206.113 80.117 l 208.207 80.102 l h
208.52 79.445 m f
213.02 82.414 m 213.02 80.805 212.285 79.352 211.035 79.352 c 209.77 79.352
 209.035 80.805 209.035 82.414 c 209.035 84.039 209.723 85.477 211.035 85.477
 c 212.238 85.477 213.02 84.039 213.02 82.414 c h
212.16 82.414 m 212.16 83.711 212.035 85.227 211.035 85.227 c 210.082 85.227
 209.895 83.711 209.895 82.414 c 209.895 81.336 210.02 79.586 211.035 79.586
 c 212.035 79.586 212.16 81.336 212.16 82.414 c h
212.16 82.414 m f
193.926 63.082 5.484 0.453 re f
203.391 65.566 m 203.391 65.426 l 202.797 65.426 202.578 65.441 202.578
 64.27 c 202.578 64.254 202.578 59.52 202.578 59.52 c 202.453 59.52 l 200.922
 60.254 l 200.969 60.395 l 201.297 60.254 201.375 60.223 201.5 60.223 c 
201.766 60.223 201.812 60.457 201.812 60.77 c 201.812 64.27 l 201.812 65.441
 201.594 65.41 201 65.426 c 201 65.566 l h
203.391 65.566 m f
208.582 62.613 m 208.582 61.004 207.848 59.551 206.598 59.551 c 205.332
 59.551 204.598 61.004 204.598 62.613 c 204.598 64.238 205.285 65.676 206.598
 65.676 c 207.801 65.676 208.582 64.238 208.582 62.613 c h
207.723 62.613 m 207.723 63.91 207.598 65.426 206.598 65.426 c 205.645 
65.426 205.457 63.91 205.457 62.613 c 205.457 61.535 205.582 59.785 206.598
 59.785 c 207.598 59.785 207.723 61.535 207.723 62.613 c h
207.723 62.613 m f
213.02 62.613 m 213.02 61.004 212.285 59.551 211.035 59.551 c 209.77 59.551
 209.035 61.004 209.035 62.613 c 209.035 64.238 209.723 65.676 211.035 65.676
 c 212.238 65.676 213.02 64.238 213.02 62.613 c h
212.16 62.613 m 212.16 63.91 212.035 65.426 211.035 65.426 c 210.082 65.426
 209.895 63.91 209.895 62.613 c 209.895 61.535 210.02 59.785 211.035 59.785
 c 212.035 59.785 212.16 61.535 212.16 62.613 c h
212.16 62.613 m f
198.488 43.281 5.484 0.453 re f
208.637 39.844 m 206.168 39.844 l 205.059 42.391 l 205.199 42.359 205.34
 42.328 205.512 42.328 c 206.465 42.328 207.762 42.828 207.762 44 c 207.762
 44.906 207.105 45.484 206.48 45.484 c 205.934 45.484 205.73 44.984 205.215
 44.984 c 204.965 44.984 204.887 45.203 204.887 45.312 c 204.887 45.625 
205.324 45.875 205.949 45.875 c 207.293 45.875 208.355 44.891 208.355 43.688
 c 208.355 42.266 207.23 41.781 206.012 41.75 c 205.902 41.75 205.777 41.766
 205.668 41.781 c 206.23 40.516 l 208.324 40.5 l h
208.637 39.844 m f
213.141 42.812 m 213.141 41.203 212.406 39.75 211.156 39.75 c 209.891 39.75
 209.156 41.203 209.156 42.812 c 209.156 44.438 209.844 45.875 211.156 45.875
 c 212.359 45.875 213.141 44.438 213.141 42.812 c h
212.281 42.812 m 212.281 44.109 212.156 45.625 211.156 45.625 c 210.203
 45.625 210.016 44.109 210.016 42.812 c 210.016 41.734 210.141 39.984 211.156
 39.984 c 212.156 39.984 212.281 41.734 212.281 42.812 c h
212.281 42.812 m f
213.141 22.895 m 213.141 21.285 212.406 19.832 211.156 19.832 c 209.891
 19.832 209.156 21.285 209.156 22.895 c 209.156 24.52 209.844 25.957 211.156
 25.957 c 212.359 25.957 213.141 24.52 213.141 22.895 c h
212.281 22.895 m 212.281 24.191 212.156 25.707 211.156 25.707 c 210.203
 25.707 210.016 24.191 210.016 22.895 c 210.016 21.816 210.141 20.066 211.156
 20.066 c 212.156 20.066 212.281 21.816 212.281 22.895 c h
212.281 22.895 m f
208.637 0.125 m 206.168 0.125 l 205.059 2.672 l 205.199 2.641 205.34 2.609
 205.512 2.609 c 206.465 2.609 207.762 3.109 207.762 4.281 c 207.762 5.188
 207.105 5.766 206.48 5.766 c 205.934 5.766 205.73 5.266 205.215 5.266 c
 204.965 5.266 204.887 5.484 204.887 5.594 c 204.887 5.906 205.324 6.156
 205.949 6.156 c 207.293 6.156 208.355 5.172 208.355 3.969 c 208.355 2.547
 207.23 2.062 206.012 2.031 c 205.902 2.031 205.777 2.047 205.668 2.062 
c 206.23 0.797 l 208.324 0.781 l h
208.637 0.125 m f
213.141 3.094 m 213.141 1.484 212.406 0.031 211.156 0.031 c 209.891 0.031
 209.156 1.484 209.156 3.094 c 209.156 4.719 209.844 6.156 211.156 6.156
 c 212.359 6.156 213.141 4.719 213.141 3.094 c h
212.281 3.094 m 212.281 4.391 212.156 5.906 211.156 5.906 c 210.203 5.906
 210.016 4.391 210.016 3.094 c 210.016 2.016 210.141 0.266 211.156 0.266
 c 212.156 0.266 212.281 2.016 212.281 3.094 c h
212.281 3.094 m f
0.567043 w
0 J
0 j
[] 0.0 d
10 M q 1 0 0 -1 0 0 cm
216.758 -22.848 m 221.609 -22.848 l 224.52 -22.848 m 229.367 -22.848 l 
232.277 -22.848 m 237.129 -22.848 l 240.039 -22.848 m 244.891 -22.848 l 
247.801 -22.848 m 252.648 -22.848 l 255.559 -22.848 m 260.41 -22.848 l 263.32
 -22.848 m 268.168 -22.848 l 271.078 -22.848 m 275.93 -22.848 l 278.84 -22.848
 m 283.688 -22.848 l 286.598 -22.848 m 291.449 -22.848 l 294.359 -22.848
 m 299.207 -22.848 l 302.117 -22.848 m 306.969 -22.848 l 309.879 -22.848
 m 314.73 -22.848 l 317.641 -22.848 m 322.488 -22.848 l 325.398 -22.848 
m 330.25 -22.848 l S Q
271.758 137.184 m 266.742 137.184 l 266.32 138.715 l 266.492 138.715 l 
266.867 137.73 267.336 137.512 268.117 137.512 c 268.117 137.512 268.633
 137.512 268.742 137.512 c 267.445 142.184 l 267.195 143.09 266.883 143.074
 266.523 143.074 c 266.508 143.23 l 268.867 143.23 l 268.898 143.074 l 268.555
 143.074 268.211 143.09 268.211 142.637 c 268.211 142.512 268.242 142.371
 268.289 142.184 c 269.57 137.512 l 270.32 137.512 l 270.758 137.512 271.227
 137.574 271.227 138.199 c 271.227 138.34 271.211 138.496 271.164 138.715
 c 271.336 138.715 l h
271.758 137.184 m f
275.004 137.168 m 274.395 137.168 l 272.348 143.355 l 272.957 143.355 l
 h
275.004 137.168 m f
278.648 137.465 m 279.195 137.496 279.258 137.527 279.258 137.746 c 279.258
 137.934 279.055 138.215 278.555 138.668 c 276.977 140.105 l 276.977 138.277
 l 276.977 137.605 277.07 137.512 277.805 137.465 c 277.805 137.293 l 275.258
 137.293 l 275.258 137.465 l 275.945 137.512 276.039 137.621 276.055 138.277
 c 276.055 142.152 l 276.055 142.918 275.945 143.012 275.258 143.059 c 275.258
 143.23 l 277.773 143.23 l 277.773 143.059 l 277.086 143.012 276.977 142.918
 276.977 142.246 c 276.977 140.574 l 277.211 140.387 l 278.148 141.324 l
 278.852 142.027 279.32 142.637 279.32 142.855 c 279.32 142.996 279.211 
143.043 278.945 143.059 c 278.898 143.059 278.805 143.059 278.695 143.059
 c 278.695 143.23 l 281.43 143.23 l 281.43 143.059 l 280.961 143.059 280.836
 142.965 280.023 142.09 c 277.93 139.855 l 279.633 138.168 l 280.242 137.574
 280.383 137.512 280.992 137.465 c 280.992 137.293 l 278.648 137.293 l h
278.648 137.465 m f
1 g
178.887 62.023 m 178.621 62.023 178.387 62.242 178.387 62.523 c 178.387
 62.789 178.621 63.008 178.871 63.008 c 179.152 63.008 179.387 62.805 179.387
 62.523 c 179.387 62.258 179.152 62.023 178.887 62.023 c h
178.887 62.023 m f
0 g
182.848 82.031 m 182.004 82.031 181.488 82.703 181.488 83.875 c 181.488
 86.141 l 181.629 86.172 l 181.629 85.891 181.66 85.484 182.066 85.484 c
 182.191 85.484 182.332 85.516 182.66 85.609 c 186.488 86.672 l 187.395 
86.922 187.379 87.234 187.379 87.594 c 187.535 87.625 l 187.535 84.859 l
 187.535 83.234 186.504 82.516 185.707 82.516 c 185.16 82.516 184.582 82.859
 184.301 83.641 c 184.176 82.75 183.629 82.031 182.848 82.031 c h
182.738 82.969 m 183.41 82.969 184.176 83.531 184.176 84.469 c 184.176 
84.469 184.176 84.922 184.176 85.125 c 181.77 84.469 l 181.77 84.031 l 181.77
 83.297 182.238 82.969 182.738 82.969 c h
185.645 83.5 m 186.41 83.5 187.238 84.094 187.238 85.312 c 187.238 85.922
 l 184.473 85.219 l 184.473 84.953 184.473 84.672 184.473 84.672 c 184.473
 83.891 185.035 83.5 185.645 83.5 c h
185.645 83.5 m f
181.473 78.574 m 181.473 79.184 l 187.66 81.23 l 187.66 80.621 l h
181.473 78.574 m f
186.129 75.07 m 186.77 75.492 186.973 75.82 186.973 76.32 c 186.973 77.148
 186.254 77.711 185.223 77.711 c 184.301 77.711 183.676 77.227 183.676 76.492
 c 183.676 76.18 183.754 76.055 184.098 75.977 c 184.301 75.914 l 184.551
 75.836 184.707 75.68 184.707 75.492 c 184.707 75.258 184.535 75.07 184.332
 75.07 c 183.832 75.07 183.41 75.695 183.41 76.445 c 183.41 76.883 183.582
 77.336 183.91 77.711 c 184.301 78.164 184.91 78.414 185.629 78.414 c 186.785
 78.414 187.629 77.695 187.629 76.711 c 187.629 76.305 187.488 75.945 187.207
 75.617 c 187.004 75.383 186.738 75.211 186.223 74.945 c h
186.129 75.07 m f
187.535 74.531 m 187.535 72.531 l 187.395 72.531 l 187.395 73 187.301 73.141
 186.941 73.141 c 184.41 73.141 l 184.395 73.141 184.301 73.078 184.238 
73.016 c 184.035 72.781 183.879 72.406 183.879 72.094 c 183.879 71.688 184.191
 71.5 184.816 71.5 c 186.77 71.5 l 187.27 71.516 187.379 71.609 187.395 
72.109 c 187.535 72.109 l 187.535 70.094 l 187.395 70.094 l 187.395 70.594
 187.254 70.719 186.676 70.75 c 184.426 70.75 l 184.035 70.469 183.879 70.188
 183.879 69.766 c 183.879 69.25 184.113 69.094 184.863 69.094 c 186.754 
69.094 l 187.285 69.109 187.348 69.172 187.395 69.688 c 187.535 69.688 l
 187.535 67.719 l 187.395 67.719 l 187.379 67.953 l 187.332 68.234 187.207
 68.344 186.848 68.344 c 185.004 68.344 l 183.941 68.344 183.41 68.688 183.41
 69.375 c 183.41 69.906 183.645 70.359 184.16 70.844 c 183.645 71 183.41
 71.312 183.41 71.797 c 183.41 72.203 183.52 72.438 184.098 73.188 c 183.426
 73.188 l 183.41 73.25 l 183.582 73.719 183.676 74.031 183.816 74.5 c 183.973
 74.5 l 183.941 74.391 183.926 74.312 183.926 74.219 c 183.926 73.984 184.066
 73.906 184.504 73.906 c 186.77 73.906 l 187.27 73.922 187.395 74.031 187.395
 74.531 c h
187.535 74.531 m f
182.766 64.164 m 182.047 64.164 181.734 64.586 181.562 65.039 c 181.234
 64.57 180.922 64.414 180.547 64.414 c 180.141 64.414 179.594 64.789 179.594
 65.648 c 179.594 66.273 179.891 66.867 180.703 67.133 c 180.75 66.93 l 
180.469 66.773 180.125 66.461 180.125 65.93 c 180.125 65.414 180.438 65.117
 180.797 65.117 c 181.312 65.117 181.688 65.57 181.844 66.258 c 182.047 
66.289 l 182 65.086 182.688 64.805 183.094 64.805 c 183.578 64.805 184.031
 65.195 184.031 65.711 c 184.031 66.211 183.641 66.43 183.641 66.836 c 183.641
 67.008 183.781 67.18 183.969 67.18 c 184.266 67.18 184.375 66.68 184.375
 66.305 c 184.375 65.07 183.719 64.164 182.766 64.164 c h
182.766 64.164 m f
187.535 60.73 m 187.535 58.73 l 187.395 58.73 l 187.395 59.199 187.301 
59.34 186.941 59.34 c 184.41 59.34 l 184.395 59.34 184.301 59.277 184.238
 59.215 c 184.035 58.98 183.879 58.605 183.879 58.293 c 183.879 57.887 184.191
 57.699 184.816 57.699 c 186.77 57.699 l 187.27 57.715 187.379 57.809 187.395
 58.309 c 187.535 58.309 l 187.535 56.293 l 187.395 56.293 l 187.395 56.793
 187.254 56.918 186.676 56.949 c 184.426 56.949 l 184.035 56.668 183.879
 56.387 183.879 55.965 c 183.879 55.449 184.113 55.293 184.863 55.293 c 
186.754 55.293 l 187.285 55.309 187.348 55.371 187.395 55.887 c 187.535 
55.887 l 187.535 53.918 l 187.395 53.918 l 187.379 54.152 l 187.332 54.434
 187.207 54.543 186.848 54.543 c 185.004 54.543 l 183.941 54.543 183.41 
54.887 183.41 55.574 c 183.41 56.105 183.645 56.559 184.16 57.043 c 183.645
 57.199 183.41 57.512 183.41 57.996 c 183.41 58.402 183.52 58.637 184.098
 59.387 c 183.426 59.387 l 183.41 59.449 l 183.582 59.918 183.676 60.23 
183.816 60.699 c 183.973 60.699 l 183.941 60.59 183.926 60.512 183.926 60.418
 c 183.926 60.184 184.066 60.105 184.504 60.105 c 186.77 60.105 l 187.27
 60.121 187.395 60.23 187.395 60.73 c h
187.535 60.73 m f
183.41 51.664 m 183.41 52.852 184.27 53.648 185.504 53.648 c 186.723 53.648
 187.629 52.82 187.629 51.695 c 187.629 50.555 186.676 49.695 185.441 49.695
 c 184.254 49.695 183.41 50.523 183.41 51.664 c h
183.66 51.789 m 183.66 51.039 184.52 50.508 185.754 50.508 c 186.77 50.508
 187.379 50.914 187.379 51.586 c 187.379 51.93 187.16 52.258 186.801 52.445
 c 186.332 52.711 185.707 52.852 185.066 52.852 c 184.223 52.852 183.66 
52.43 183.66 51.789 c h
183.66 51.789 m f
187.535 49.285 m 187.535 47.16 l 187.395 47.16 l 187.379 47.738 187.285
 47.832 186.785 47.848 c 181.426 47.848 l 181.41 47.879 l 181.551 48.332
 181.645 48.66 181.801 49.301 c 181.941 49.301 l 181.941 49.254 l 181.941
 49.145 181.926 49.035 181.926 48.973 c 181.926 48.676 182.051 48.598 182.473
 48.598 c 186.754 48.598 l 187.238 48.598 187.363 48.723 187.395 49.285 
c h
187.535 49.285 m f
182.062 41.828 0.438 4.703 re f
184.297 38.277 m 184.109 38.277 l 184.109 38.809 184.109 38.98 183.266 
38.98 c 183.25 38.98 179.594 38.98 179.594 38.98 c 179.594 39.152 l 180.172
 40.496 l 180.359 40.418 l 180.234 40.105 180.219 40.043 180.219 39.949 
c 180.219 39.746 180.391 39.73 180.594 39.73 c 183.266 39.73 l 184.109 39.73
 184.094 39.887 184.109 40.418 c 184.297 40.418 l h
184.297 38.277 m f
270.867 154.809 m 270.211 155.246 269.945 155.465 269.602 155.887 c 268.977
 156.668 268.664 157.559 268.664 158.605 c 268.664 159.762 268.992 160.637
 269.773 161.543 c 270.148 161.98 270.383 162.168 270.852 162.465 c 270.945
 162.309 l 270.242 161.746 269.992 161.434 269.742 160.762 c 269.523 160.168
 269.43 159.496 269.43 158.59 c 269.43 157.637 269.539 156.902 269.789 156.355
 c 270.039 155.793 270.305 155.465 270.945 154.949 c h
270.867 154.809 m f
272.602 154.762 m 272.555 154.746 l 272.18 154.871 271.945 154.949 271.508
 155.074 c 271.258 155.137 l 271.258 155.277 l 271.305 155.277 271.336 155.277
 271.398 155.277 c 271.758 155.277 271.852 155.355 271.852 155.73 c 271.852
 160.387 l 271.852 160.668 272.602 160.965 273.32 160.965 c 274.508 160.965
 275.43 159.98 275.43 158.699 c 275.43 157.574 274.742 156.746 273.852 156.746
 c 273.305 156.746 272.773 157.059 272.602 157.512 c h
272.602 157.98 m 272.602 157.637 273.023 157.309 273.492 157.309 c 273.742
 157.309 273.961 157.402 274.148 157.574 c 274.43 157.855 274.633 158.465
 274.633 159.105 c 274.633 160.105 274.211 160.668 273.477 160.668 c 273.008
 160.668 272.602 160.48 272.602 160.246 c h
272.602 157.98 m f
276.008 162.465 m 276.664 162.012 276.945 161.793 277.273 161.387 c 277.914
 160.605 278.227 159.699 278.227 158.652 c 278.227 157.512 277.883 156.637
 277.102 155.73 c 276.727 155.293 276.492 155.09 276.039 154.809 c 275.93
 154.949 l 276.648 155.512 276.883 155.824 277.133 156.496 c 277.352 157.105
 277.445 157.777 277.445 158.684 c 277.445 159.621 277.336 160.355 277.086
 160.902 c 276.852 161.465 276.57 161.793 275.93 162.309 c h
276.008 162.465 m f
Q Q
showpage
%%Trailer
end
%%EOF
