%!PS-Adobe-3.0 EPSF-3.0
%%Creator: cairo 1.17.4 (https://cairographics.org)
%%CreationDate: Thu Feb 24 10:46:56 2022
%%Pages: 1
%%DocumentData: Clean7Bit
%%LanguageLevel: 2
%%BoundingBox: 0 0 296 119
%%EndComments
%%BeginProlog
50 dict begin
/q { gsave } bind def
/Q { grestore } bind def
/cm { 6 array astore concat } bind def
/w { setlinewidth } bind def
/J { setlinecap } bind def
/j { setlinejoin } bind def
/M { setmiterlimit } bind def
/d { setdash } bind def
/m { moveto } bind def
/l { lineto } bind def
/c { curveto } bind def
/h { closepath } bind def
/re { exch dup neg 3 1 roll 5 3 roll moveto 0 rlineto
      0 exch rlineto 0 rlineto closepath } bind def
/S { stroke } bind def
/f { fill } bind def
/f* { eofill } bind def
/n { newpath } bind def
/W { clip } bind def
/W* { eoclip } bind def
/BT { } bind def
/ET { } bind def
/BDC { mark 3 1 roll /BDC pdfmark } bind def
/EMC { mark /EMC pdfmark } bind def
/cairo_store_point { /cairo_point_y exch def /cairo_point_x exch def } def
/Tj { show currentpoint cairo_store_point } bind def
/TJ {
  {
    dup
    type /stringtype eq
    { show } { -0.001 mul 0 cairo_font_matrix dtransform rmoveto } ifelse
  } forall
  currentpoint cairo_store_point
} bind def
/cairo_selectfont { cairo_font_matrix aload pop pop pop 0 0 6 array astore
    cairo_font exch selectfont cairo_point_x cairo_point_y moveto } bind def
/Tf { pop /cairo_font exch def /cairo_font_matrix where
      { pop cairo_selectfont } if } bind def
/Td { matrix translate cairo_font_matrix matrix concatmatrix dup
      /cairo_font_matrix exch def dup 4 get exch 5 get cairo_store_point
      /cairo_font where { pop cairo_selectfont } if } bind def
/Tm { 2 copy 8 2 roll 6 array astore /cairo_font_matrix exch def
      cairo_store_point /cairo_font where { pop cairo_selectfont } if } bind def
/g { setgray } bind def
/rg { setrgbcolor } bind def
/d1 { setcachedevice } bind def
/cairo_data_source {
  CairoDataIndex CairoData length lt
    { CairoData CairoDataIndex get /CairoDataIndex CairoDataIndex 1 add def }
    { () } ifelse
} def
/cairo_flush_ascii85_file { cairo_ascii85_file status { cairo_ascii85_file flushfile } if } def
/cairo_image { image cairo_flush_ascii85_file } def
/cairo_imagemask { imagemask cairo_flush_ascii85_file } def
%%EndProlog
%%BeginSetup
%%EndSetup
%%Page: 1 1
%%BeginPageSetup
%%PageBoundingBox: 0 0 296 119
%%EndPageSetup
q 0 0 296 119 rectclip
1 0 0 -1 0 119 cm q
0.74902 g
22.961 11.594 m 21.828 11.594 l 21.828 44.984 l 12.5 44.984 l 12.414 45.895
 l 11.734 48.188 l 10.688 51.023 l 9.469 53.859 l 8.164 56.691 l 6.832 59.527
 l 5.527 62.363 l 4.309 65.195 l 3.23 68.031 l 2.324 70.867 l 1.645 73.699
 l 1.191 76.535 l 0.992 79.371 l 1.047 82.207 l 1.387 85.039 l 2.012 87.875
 l 2.918 90.711 l 4.055 93.543 l 4.223 93.883 l 5.246 94.422 l 7 94.594 
l 12.332 95.133 l 21.176 95.5 l 24.746 95.5 l 33.59 95.133 l 38.918 94.594
 l 40.676 94.422 l 41.699 93.883 l 41.867 93.543 l 43 90.711 l 43.91 87.875
 l 44.531 85.039 l 44.871 82.207 l 44.93 79.371 l 44.73 76.535 l 44.277 
73.699 l 43.598 70.867 l 42.691 68.031 l 41.613 65.195 l 40.395 62.363 l
 39.09 59.527 l 37.758 56.691 l 36.453 53.859 l 35.234 51.023 l 34.188 48.188
 l 33.504 45.895 l 33.422 44.984 l 24.094 44.984 l 24.094 11.594 l f
1 g
10.699 37.207 m 9.07 29.055 l 10.742 29.055 l 10.914 29.027 l 11.621 28.914
 l 12.332 28.855 l 13.039 28.773 l 13.75 28.602 l 14.457 28.375 l 15.164
 28.008 l 15.875 27.41 l 16.582 26.477 l 17.293 24.918 l 18 22.336 l 18.707
 18.227 l 19.418 11.848 l 21.883 11.879 l 21.883 45.355 l 12.332 45.355 
l f
0 g
0.567043 w
0 J
0 j
[] 0.0 d
10 M q 1 0 0 -1 0 0 cm
10.699 -37.207 m 9.07 -29.055 l 10.742 -29.055 l 10.914 -29.027 l 11.621
 -28.914 l 12.332 -28.855 l 13.039 -28.773 l 13.75 -28.602 l 14.457 -28.375
 l 15.164 -28.008 l 15.875 -27.41 l 16.582 -26.477 l 17.293 -24.918 l 18
 -22.336 l 18.707 -18.227 l 19.418 -11.848 l 21.883 -11.879 l 21.883 -45.355
 l 12.332 -45.355 l h
10.699 -37.207 m S Q
1 g
35.219 37.207 m 36.852 29.055 l 35.176 29.055 l 35.008 29.027 l 34.297 
28.914 l 33.59 28.855 l 32.883 28.773 l 32.172 28.602 l 31.465 28.375 l 
30.754 28.008 l 30.047 27.41 l 29.34 26.477 l 28.629 24.918 l 27.922 22.336
 l 27.211 18.227 l 26.504 11.848 l 24.039 11.879 l 24.039 45.355 l 33.59
 45.355 l f
0 g
q 1 0 0 -1 0 0 cm
35.219 -37.207 m 36.852 -29.055 l 35.176 -29.055 l 35.008 -29.027 l 34.297
 -28.914 l 33.59 -28.855 l 32.883 -28.773 l 32.172 -28.602 l 31.465 -28.375
 l 30.754 -28.008 l 30.047 -27.41 l 29.34 -26.477 l 28.629 -24.918 l 27.922
 -22.336 l 27.211 -18.227 l 26.504 -11.848 l 24.039 -11.879 l 24.039 -45.355
 l 33.59 -45.355 l h
35.219 -37.207 m S Q
Q q
0 0.078 73.98 118.922 re W n
q
0 0 74 119 re W n
  q
0 g
1.98444 w
0 J
0 j
[] 0.0 d
10 M q 1 0 0 -1 0 0 cm
9.836 -29.055 m 12.477 -44.84 l 12.492 -44.938 12.496 -45.035 12.488 -45.133
 c 12.426 -45.781 l 12.418 -45.855 12.406 -45.93 12.383 -46 c 11.746 -48.152
 l 11.738 -48.176 11.73 -48.199 11.723 -48.223 c 10.695 -50.996 l 10.691
 -51.016 10.684 -51.035 10.676 -51.051 c 9.473 -53.844 l 9.469 -53.855 9.465
 -53.863 9.461 -53.871 c 8.164 -56.688 l 8.164 -56.691 8.164 -56.695 8.16
 -56.695 c 6.832 -59.523 l 6.832 -59.527 6.832 -59.527 6.828 -59.531 c 5.535
 -62.348 l 5.531 -62.359 5.523 -62.367 5.523 -62.375 c 4.316 -65.176 l 4.312
 -65.188 4.305 -65.207 4.301 -65.219 c 3.242 -68.004 l 3.234 -68.023 3.23
 -68.043 3.223 -68.059 c 2.336 -70.824 l 2.328 -70.852 2.32 -70.879 2.312
 -70.906 c 1.656 -73.66 l 1.648 -73.688 1.641 -73.715 1.637 -73.742 c 1.199
 -76.484 l 1.191 -76.52 1.188 -76.555 1.188 -76.586 c 0.996 -79.32 l 0.992
 -79.352 0.992 -79.387 0.992 -79.422 c 1.047 -82.148 l 1.047 -82.188 1.051
 -82.223 1.055 -82.262 c 1.383 -84.984 l 1.387 -85.02 1.395 -85.059 1.398
 -85.094 c 2 -87.824 l 2.008 -87.855 2.02 -87.891 2.027 -87.926 c 2.906 
-90.672 l 2.914 -90.695 2.926 -90.723 2.934 -90.746 c 4.035 -93.5 l 4.047
 -93.527 4.062 -93.559 4.074 -93.586 c 4.062 -93.559 l 4.168 -93.77 4.336
 -93.941 4.547 -94.055 c 5.047 -94.316 l 5.176 -94.387 5.32 -94.43 5.465
 -94.445 c 7 -94.594 l 7 -94.594 7.004 -94.594 7.004 -94.594 c 12.297 -95.125
 l 12.32 -95.129 12.34 -95.133 12.363 -95.133 c 21.148 -95.496 l 21.168 
-95.496 21.184 -95.5 21.199 -95.5 c 24.723 -95.5 l 24.738 -95.5 24.754 -95.496
 24.77 -95.496 c 33.559 -95.133 l 33.578 -95.133 33.602 -95.129 33.625 -95.125
 c 38.918 -94.594 l 38.918 -94.594 38.922 -94.594 38.922 -94.594 c 40.453
 -94.445 l 40.602 -94.43 40.746 -94.387 40.875 -94.316 c 41.375 -94.055 
l 41.586 -93.941 41.754 -93.77 41.859 -93.559 c 41.848 -93.586 l 41.859 
-93.559 41.875 -93.527 41.883 -93.5 c 42.988 -90.746 l 42.996 -90.723 43.004
 -90.695 43.012 -90.672 c 43.891 -87.926 l 43.902 -87.891 43.914 -87.855
 43.918 -87.824 c 44.52 -85.094 l 44.527 -85.059 44.535 -85.02 44.539 -84.984
 c 44.867 -82.262 l 44.871 -82.223 44.875 -82.188 44.875 -82.148 c 44.926
 -79.422 l 44.93 -79.387 44.926 -79.352 44.926 -79.32 c 44.734 -76.586 l
 44.734 -76.555 44.727 -76.52 44.723 -76.484 c 44.285 -73.742 l 44.277 -73.715
 44.273 -73.688 44.266 -73.66 c 43.605 -70.906 l 43.602 -70.879 43.59 -70.852
 43.582 -70.824 c 42.699 -68.059 l 42.695 -68.043 42.688 -68.023 42.68 -68.004
 c 41.621 -65.219 l 41.617 -65.207 41.609 -65.188 41.602 -65.176 c 40.398
 -62.375 l 40.395 -62.367 40.391 -62.359 40.387 -62.348 c 39.09 -59.531 
l 39.09 -59.527 39.09 -59.527 39.086 -59.523 c 37.758 -56.695 l 37.758 -56.695
 37.758 -56.691 37.754 -56.688 c 36.461 -53.871 l 36.457 -53.863 36.453 
-53.855 36.449 -53.844 c 35.246 -51.051 l 35.238 -51.035 35.23 -51.016 35.223
 -50.996 c 34.199 -48.223 l 34.191 -48.199 34.184 -48.176 34.176 -48.152
 c 33.535 -46 l 33.516 -45.93 33.5 -45.855 33.496 -45.781 c 33.434 -45.133
 l 33.426 -45.035 33.43 -44.938 33.445 -44.84 c 36.086 -29.055 l S Q
  Q
Q
1 g
0.850361 w
0 J
0 j
[] 0.0 d
10 M q 1 0 0 -1 0 0 cm
9.836 -29.055 m 12.477 -44.84 l 12.492 -44.938 12.496 -45.035 12.488 -45.133
 c 12.426 -45.781 l 12.418 -45.855 12.406 -45.93 12.383 -46 c 11.746 -48.152
 l 11.738 -48.176 11.73 -48.199 11.723 -48.223 c 10.695 -50.996 l 10.691
 -51.016 10.684 -51.035 10.676 -51.051 c 9.473 -53.844 l 9.469 -53.855 9.465
 -53.863 9.461 -53.871 c 8.164 -56.688 l 8.164 -56.691 8.164 -56.695 8.16
 -56.695 c 6.832 -59.523 l 6.832 -59.527 6.832 -59.527 6.828 -59.531 c 5.535
 -62.348 l 5.531 -62.359 5.523 -62.367 5.523 -62.375 c 4.316 -65.176 l 4.312
 -65.188 4.305 -65.207 4.301 -65.219 c 3.242 -68.004 l 3.234 -68.023 3.23
 -68.043 3.223 -68.059 c 2.336 -70.824 l 2.328 -70.852 2.32 -70.879 2.312
 -70.906 c 1.656 -73.66 l 1.648 -73.688 1.641 -73.715 1.637 -73.742 c 1.199
 -76.484 l 1.191 -76.52 1.188 -76.555 1.188 -76.586 c 0.996 -79.32 l 0.992
 -79.352 0.992 -79.387 0.992 -79.422 c 1.047 -82.148 l 1.047 -82.188 1.051
 -82.223 1.055 -82.262 c 1.383 -84.984 l 1.387 -85.02 1.395 -85.059 1.398
 -85.094 c 2 -87.824 l 2.008 -87.855 2.02 -87.891 2.027 -87.926 c 2.906 
-90.672 l 2.914 -90.695 2.926 -90.723 2.934 -90.746 c 4.035 -93.5 l 4.047
 -93.527 4.062 -93.559 4.074 -93.586 c 4.062 -93.559 l 4.168 -93.77 4.336
 -93.941 4.547 -94.055 c 5.047 -94.316 l 5.176 -94.387 5.32 -94.43 5.465
 -94.445 c 7 -94.594 l 7 -94.594 7.004 -94.594 7.004 -94.594 c 12.297 -95.125
 l 12.32 -95.129 12.34 -95.133 12.363 -95.133 c 21.148 -95.496 l 21.168 
-95.496 21.184 -95.5 21.199 -95.5 c 24.723 -95.5 l 24.738 -95.5 24.754 -95.496
 24.77 -95.496 c 33.559 -95.133 l 33.578 -95.133 33.602 -95.129 33.625 -95.125
 c 38.918 -94.594 l 38.918 -94.594 38.922 -94.594 38.922 -94.594 c 40.453
 -94.445 l 40.602 -94.43 40.746 -94.387 40.875 -94.316 c 41.375 -94.055 
l 41.586 -93.941 41.754 -93.77 41.859 -93.559 c 41.848 -93.586 l 41.859 
-93.559 41.875 -93.527 41.883 -93.5 c 42.988 -90.746 l 42.996 -90.723 43.004
 -90.695 43.012 -90.672 c 43.891 -87.926 l 43.902 -87.891 43.914 -87.855
 43.918 -87.824 c 44.52 -85.094 l 44.527 -85.059 44.535 -85.02 44.539 -84.984
 c 44.867 -82.262 l 44.871 -82.223 44.875 -82.188 44.875 -82.148 c 44.926
 -79.422 l 44.93 -79.387 44.926 -79.352 44.926 -79.32 c 44.734 -76.586 l
 44.734 -76.555 44.727 -76.52 44.723 -76.484 c 44.285 -73.742 l 44.277 -73.715
 44.273 -73.688 44.266 -73.66 c 43.605 -70.906 l 43.602 -70.879 43.59 -70.852
 43.582 -70.824 c 42.699 -68.059 l 42.695 -68.043 42.688 -68.023 42.68 -68.004
 c 41.621 -65.219 l 41.617 -65.207 41.609 -65.188 41.602 -65.176 c 40.398
 -62.375 l 40.395 -62.367 40.391 -62.359 40.387 -62.348 c 39.09 -59.531 
l 39.09 -59.527 39.09 -59.527 39.086 -59.523 c 37.758 -56.695 l 37.758 -56.695
 37.758 -56.691 37.754 -56.688 c 36.461 -53.871 l 36.457 -53.863 36.453 
-53.855 36.449 -53.844 c 35.246 -51.051 l 35.238 -51.035 35.23 -51.016 35.223
 -50.996 c 34.199 -48.223 l 34.191 -48.199 34.184 -48.176 34.176 -48.152
 c 33.535 -46 l 33.516 -45.93 33.5 -45.855 33.496 -45.781 c 33.434 -45.133
 l 33.426 -45.035 33.43 -44.938 33.445 -44.84 c 36.086 -29.055 l S Q
0 g
0.567043 w
q 1 0 0 -1 0 0 cm
8.844 -29.055 m 10.77 -29.055 l S Q
q 1 0 0 -1 0 0 cm
37.078 -29.055 m 35.148 -29.055 l S Q
20.684 110.598 m 20.027 111.035 19.762 111.254 19.418 111.676 c 18.793 
112.457 18.48 113.348 18.48 114.395 c 18.48 115.551 18.809 116.426 19.59
 117.332 c 19.965 117.77 20.199 117.957 20.668 118.254 c 20.762 118.098 
l 20.059 117.535 19.809 117.223 19.559 116.551 c 19.34 115.957 19.246 115.285
 19.246 114.379 c 19.246 113.426 19.355 112.691 19.605 112.145 c 19.855 
111.582 20.121 111.254 20.762 110.738 c h
20.684 110.598 m f
25.012 116.066 m 24.855 116.191 24.746 116.238 24.605 116.238 c 24.402 
116.238 24.34 116.113 24.34 115.723 c 24.34 113.973 l 24.34 113.504 24.293
 113.238 24.168 113.035 c 23.965 112.707 23.574 112.535 23.059 112.535 c
 22.215 112.535 21.543 112.973 21.543 113.535 c 21.543 113.738 21.715 113.926
 21.934 113.926 c 22.152 113.926 22.34 113.738 22.34 113.551 c 22.34 113.52
 22.324 113.473 22.324 113.41 c 22.293 113.316 22.293 113.254 22.293 113.191
 c 22.293 112.941 22.574 112.754 22.934 112.754 c 23.371 112.754 23.621 
113.004 23.621 113.488 c 23.621 114.035 l 22.246 114.582 22.09 114.676 21.699
 115.004 c 21.496 115.191 21.371 115.488 21.371 115.785 c 21.371 116.348
 21.762 116.754 22.324 116.754 c 22.715 116.754 23.074 116.566 23.621 116.098
 c 23.668 116.566 23.84 116.754 24.199 116.754 c 24.512 116.754 24.699 116.645
 25.012 116.301 c h
23.621 115.551 m 23.621 115.832 23.574 115.926 23.387 116.035 c 23.152 
116.16 22.918 116.223 22.73 116.223 c 22.418 116.223 22.168 115.926 22.168
 115.535 c 22.168 115.504 l 22.168 114.973 22.574 114.629 23.621 114.254
 c h
23.621 115.551 m f
25.344 118.254 m 26 117.801 26.281 117.582 26.609 117.176 c 27.25 116.395
 27.562 115.488 27.562 114.441 c 27.562 113.301 27.219 112.426 26.438 111.52
 c 26.062 111.082 25.828 110.879 25.375 110.598 c 25.266 110.738 l 25.984
 111.301 26.219 111.613 26.469 112.285 c 26.688 112.895 26.781 113.566 26.781
 114.473 c 26.781 115.41 26.672 116.145 26.422 116.691 c 26.188 117.254 
25.906 117.582 25.266 118.098 c h
25.344 118.254 m f
Q q
0.74902 g
108.285 3.402 m 108.566 3.402 l 109.418 4.254 l 132.094 4.254 l 132.945
 3.402 l 133.512 3.402 l 133.512 73.699 l 108 73.699 l 108 3.402 l f
0 g
1.41739 w
0 J
0 j
[] 0.0 d
10 M q 1 0 0 -1 0 0 cm
108 0 m 108 -73.699 l 133.512 -73.699 l 133.512 0 l S Q
0.425176 w
q 1 0 0 -1 0 0 cm
108.566 -3.402 m 109.418 -4.254 l 132.094 -4.254 l 132.945 -3.402 l S Q
0.567043 w
q 1 0 0 -1 0 0 cm
147.969 -86.457 m 147.969 -76.82 l 170.078 -76.82 l 170.078 -96.094 l 147.969
 -96.094 l h
147.969 -86.457 m S Q
161.586 85.41 m 161.508 83.395 l 161.32 83.395 l 161.258 83.582 161.117
 83.691 160.945 83.691 c 160.852 83.691 160.727 83.66 160.586 83.613 c 160.148
 83.473 159.695 83.395 159.273 83.395 c 158.539 83.395 157.805 83.676 157.242
 84.16 c 156.617 84.723 156.273 85.551 156.273 86.535 c 156.273 88.363 157.461
 89.582 159.258 89.582 c 160.273 89.582 161.164 89.176 161.695 88.441 c 
161.539 88.285 l 160.883 88.926 160.289 89.191 159.539 89.191 c 158.977 
89.191 158.477 89.004 158.086 88.66 c 157.586 88.223 157.32 87.426 157.32
 86.41 c 157.32 84.801 158.148 83.754 159.445 83.754 c 159.961 83.754 160.43
 83.941 160.789 84.285 c 161.07 84.582 161.211 84.832 161.383 85.41 c h
161.586 85.41 m f
q 1 0 0 -1 0 0 cm
139.465 -25.512 m 139.465 -20.125 l 150.234 -20.125 l 150.234 -30.898 l
 139.465 -30.898 l h
139.465 -25.512 m S Q
141.75 28.512 m 144.297 28.512 l 145.344 28.512 146.281 28.215 146.844 
27.715 c 147.422 27.184 147.75 26.387 147.75 25.512 c 147.75 24.715 147.5
 24.012 146.984 23.512 c 146.375 22.902 145.406 22.574 144.172 22.574 c 
141.75 22.574 l 141.75 22.746 l 142.469 22.809 142.531 22.887 142.547 23.559
 c 142.547 27.527 l 142.531 28.184 142.422 28.293 141.75 28.34 c h
143.453 23.262 m 143.453 22.98 143.547 22.902 143.922 22.902 c 144.703 
22.902 145.281 23.043 145.703 23.355 c 146.406 23.84 146.781 24.605 146.781
 25.574 c 146.781 26.637 146.406 27.387 145.688 27.809 c 145.219 28.074 
144.703 28.184 143.922 28.184 c 143.562 28.184 143.453 28.105 143.453 27.809
 c h
143.453 23.262 m f
0.850361 w
q 1 0 0 -1 0 0 cm
159.023 -76.535 m 159.023 -25.512 l 150.52 -25.512 l S Q
1 g
122.738 23.527 m 122.738 21.57 121.852 19.984 120.754 19.984 c 119.66 19.984
 118.77 21.57 118.77 23.527 c 118.77 25.484 119.66 27.07 120.754 27.07 c
 121.852 27.07 122.738 25.484 122.738 23.527 c f
0 g
0.567043 w
q 1 0 0 -1 0 0 cm
122.738 -23.527 m 122.738 -21.57 121.852 -19.984 120.754 -19.984 c 119.66
 -19.984 118.77 -21.57 118.77 -23.527 c 118.77 -25.484 119.66 -27.07 120.754
 -27.07 c 121.852 -27.07 122.738 -25.484 122.738 -23.527 c h
122.738 -23.527 m S Q
121.746 25.512 m 121.746 24.965 121.305 24.52 120.754 24.52 c 120.207 24.52
 119.762 24.965 119.762 25.512 c 119.762 26.059 120.207 26.504 120.754 26.504
 c 121.305 26.504 121.746 26.059 121.746 25.512 c f
117.914 29.832 m 118.664 29.879 118.758 29.973 118.773 30.645 c 118.773
 34.613 l 118.758 35.285 118.648 35.395 117.914 35.426 c 117.914 35.598 
l 120.898 35.598 l 121.602 35.598 122.242 35.41 122.57 35.098 c 122.898 
34.816 123.07 34.41 123.07 33.988 c 123.07 33.582 122.93 33.223 122.633 
32.973 c 122.367 32.723 122.133 32.613 121.539 32.473 c 122.008 32.363 122.195
 32.27 122.414 32.082 c 122.633 31.879 122.773 31.566 122.773 31.191 c 122.773
 30.176 121.961 29.66 120.414 29.66 c 117.914 29.66 l h
119.68 32.676 m 120.555 32.676 120.961 32.723 121.289 32.863 c 121.805 
33.066 122.039 33.441 122.039 33.988 c 122.039 34.473 121.852 34.832 121.492
 35.035 c 121.211 35.191 120.836 35.27 120.258 35.27 c 119.805 35.27 119.68
 35.191 119.68 34.895 c h
119.68 32.316 m 119.68 30.254 l 119.695 30.066 119.727 30.004 119.883 30.004
 c 120.273 29.988 l 121.273 29.973 121.852 30.426 121.852 31.223 c 121.852
 31.926 121.398 32.301 120.539 32.316 c h
119.68 32.316 m f
111.48 83.395 m 111.293 83.395 l 111.246 83.598 111.152 83.691 110.996 
83.691 c 110.902 83.691 110.762 83.66 110.605 83.598 c 110.277 83.473 109.934
 83.395 109.637 83.395 c 109.262 83.395 108.871 83.551 108.574 83.801 c 
108.262 84.082 108.105 84.457 108.105 84.926 c 108.105 85.645 108.496 86.145
 109.496 86.676 c 110.152 87.02 110.605 87.379 110.84 87.723 c 110.918 87.848
 110.965 88.035 110.965 88.254 c 110.965 88.848 110.512 89.254 109.855 89.254
 c 109.059 89.254 108.496 88.77 108.043 87.676 c 107.84 87.676 l 108.105
 89.566 l 108.309 89.566 l 108.324 89.41 108.418 89.285 108.559 89.285 c
 108.652 89.285 108.809 89.316 108.98 89.379 c 109.324 89.504 109.684 89.582
 110.043 89.582 c 111.074 89.582 111.871 88.879 111.871 87.941 c 111.871
 87.207 111.371 86.629 110.184 85.988 c 109.246 85.473 108.871 85.082 108.871
 84.582 c 108.871 84.098 109.246 83.77 109.809 83.77 c 110.215 83.77 110.59
 83.926 110.902 84.254 c 111.184 84.535 111.309 84.77 111.449 85.301 c 111.668
 85.301 l h
111.48 83.395 m f
0.850361 w
q 1 0 0 -1 0 0 cm
125.008 -92.41 m 147.684 -92.41 l S Q
q 1 0 0 -1 0 0 cm
125.008 -80.504 m 147.684 -80.504 l S Q
q 1 0 0 -1 0 0 cm
125.293 -92.41 m 123.625 -92.336 122.059 -92.496 120.473 -91.984 c 118.746
 -91.426 116.152 -91.012 115.938 -89.293 c 115.676 -87.199 118.348 -85.215
 120.473 -84.758 c 122.078 -84.41 125.008 -84.949 125.008 -86.457 c 125.008
 -87.961 122.078 -88.504 120.473 -88.16 c 118.348 -87.695 115.676 -85.715
 115.938 -83.621 c 116.152 -81.902 118.746 -81.488 120.473 -80.93 c 122.059
 -80.418 123.625 -80.578 125.293 -80.504 c S Q
136.543 110.598 m 135.887 111.035 135.621 111.254 135.277 111.676 c 134.652
 112.457 134.34 113.348 134.34 114.395 c 134.34 115.551 134.668 116.426 
135.449 117.332 c 135.824 117.77 136.059 117.957 136.527 118.254 c 136.621
 118.098 l 135.918 117.535 135.668 117.223 135.418 116.551 c 135.199 115.957
 135.105 115.285 135.105 114.379 c 135.105 113.426 135.215 112.691 135.465
 112.145 c 135.715 111.582 135.98 111.254 136.621 110.738 c h
136.543 110.598 m f
138.277 110.551 m 138.23 110.535 l 137.855 110.66 137.621 110.738 137.184
 110.863 c 136.934 110.926 l 136.934 111.066 l 136.98 111.066 137.012 111.066
 137.074 111.066 c 137.434 111.066 137.527 111.145 137.527 111.52 c 137.527
 116.176 l 137.527 116.457 138.277 116.754 138.996 116.754 c 140.184 116.754
 141.105 115.77 141.105 114.488 c 141.105 113.363 140.418 112.535 139.527
 112.535 c 138.98 112.535 138.449 112.848 138.277 113.301 c h
138.277 113.77 m 138.277 113.426 138.699 113.098 139.168 113.098 c 139.418
 113.098 139.637 113.191 139.824 113.363 c 140.105 113.645 140.309 114.254
 140.309 114.895 c 140.309 115.895 139.887 116.457 139.152 116.457 c 138.684
 116.457 138.277 116.27 138.277 116.035 c h
138.277 113.77 m f
141.684 118.254 m 142.34 117.801 142.621 117.582 142.949 117.176 c 143.59
 116.395 143.902 115.488 143.902 114.441 c 143.902 113.301 143.559 112.426
 142.777 111.52 c 142.402 111.082 142.168 110.879 141.715 110.598 c 141.605
 110.738 l 142.324 111.301 142.559 111.613 142.809 112.285 c 143.027 112.895
 143.121 113.566 143.121 114.473 c 143.121 115.41 143.012 116.145 142.762
 116.691 c 142.527 117.254 142.246 117.582 141.605 118.098 c h
141.684 118.254 m f
Q q
166.98 5.078 128.102 112 re W n
q
166 5 130 113 re W n
  q
0 g
3.40142 w
0 J
0 j
[] 0.0 d
10 M q 1 0 0 -1 0 0 cm
286.582 -68.031 m 222.801 -68.031 l 218.891 -68.031 215.715 -64.859 215.715
 -60.945 c 215.715 -57.031 218.891 -53.859 222.805 -53.859 c 286.582 -53.859
 l S Q
  Q
Q
Q q
190.98 29.078 104.102 64 re W n
q
190 29 106 65 re W n
  q
1 g
1.70071 w
0 J
0 j
[] 0.0 d
10 M q 1 0 0 -1 0 0 cm
286.582 -68.031 m 222.801 -68.031 l 218.891 -68.031 215.715 -64.859 215.715
 -60.945 c 215.715 -57.031 218.891 -53.859 222.805 -53.859 c 286.582 -53.859
 l S Q
0.74902 g
q 1 0 0 -1 0 0 cm
286.582 -68.031 m 222.801 -68.031 l 218.891 -68.031 215.715 -64.859 215.715
 -60.945 c 215.715 -57.031 218.891 -53.859 222.805 -53.859 c 286.582 -53.859
 l S Q
  Q
Q
Q q
285.98 48.078 9.102 26 re W n
q
285 48 11 27 re W n
  q
0 g
0.850361 w
0 J
0 j
[] 0.0 d
10 M q 1 0 0 -1 0 0 cm
287.008 -60.945 m 287.008 -48.613 l 294.66 -48.613 l 294.66 -73.277 l 287.008
 -73.277 l h
287.008 -60.945 m S Q
  Q
Q
Q q
0 g
253.121 110.598 m 252.465 111.035 252.199 111.254 251.855 111.676 c 251.23
 112.457 250.918 113.348 250.918 114.395 c 250.918 115.551 251.246 116.426
 252.027 117.332 c 252.402 117.77 252.637 117.957 253.105 118.254 c 253.199
 118.098 l 252.496 117.535 252.246 117.223 251.996 116.551 c 251.777 115.957
 251.684 115.285 251.684 114.379 c 251.684 113.426 251.793 112.691 252.043
 112.145 c 252.293 111.582 252.559 111.254 253.199 110.738 c h
253.121 110.598 m f
257.043 115.254 m 256.621 115.895 256.293 116.098 255.793 116.098 c 254.965
 116.098 254.402 115.379 254.402 114.348 c 254.402 113.426 254.887 112.801
 255.621 112.801 c 255.934 112.801 256.059 112.879 256.137 113.223 c 256.199
 113.426 l 256.277 113.676 256.434 113.832 256.621 113.832 c 256.855 113.832
 257.043 113.66 257.043 113.457 c 257.043 112.957 256.418 112.535 255.668
 112.535 c 255.23 112.535 254.777 112.707 254.402 113.035 c 253.949 113.426
 253.699 114.035 253.699 114.754 c 253.699 115.91 254.418 116.754 255.402
 116.754 c 255.809 116.754 256.168 116.613 256.496 116.332 c 256.73 116.129
 256.902 115.863 257.168 115.348 c h
257.043 115.254 m f
257.785 118.254 m 258.441 117.801 258.723 117.582 259.051 117.176 c 259.691
 116.395 260.004 115.488 260.004 114.441 c 260.004 113.301 259.66 112.426
 258.879 111.52 c 258.504 111.082 258.27 110.879 257.816 110.598 c 257.707
 110.738 l 258.426 111.301 258.66 111.613 258.91 112.285 c 259.129 112.895
 259.223 113.566 259.223 114.473 c 259.223 115.41 259.113 116.145 258.863
 116.691 c 258.629 117.254 258.348 117.582 257.707 118.098 c h
257.785 118.254 m f
Q Q
showpage
%%Trailer
end
%%EOF
