%!PS-Adobe-3.0 EPSF-3.0
%%Creator: cairo 1.17.4 (https://cairographics.org)
%%CreationDate: Thu Feb 24 10:46:57 2022
%%Pages: 1
%%DocumentData: Clean7Bit
%%LanguageLevel: 2
%%BoundingBox: 0 0 231 160
%%EndComments
%%BeginProlog
50 dict begin
/q { gsave } bind def
/Q { grestore } bind def
/cm { 6 array astore concat } bind def
/w { setlinewidth } bind def
/J { setlinecap } bind def
/j { setlinejoin } bind def
/M { setmiterlimit } bind def
/d { setdash } bind def
/m { moveto } bind def
/l { lineto } bind def
/c { curveto } bind def
/h { closepath } bind def
/re { exch dup neg 3 1 roll 5 3 roll moveto 0 rlineto
      0 exch rlineto 0 rlineto closepath } bind def
/S { stroke } bind def
/f { fill } bind def
/f* { eofill } bind def
/n { newpath } bind def
/W { clip } bind def
/W* { eoclip } bind def
/BT { } bind def
/ET { } bind def
/BDC { mark 3 1 roll /BDC pdfmark } bind def
/EMC { mark /EMC pdfmark } bind def
/cairo_store_point { /cairo_point_y exch def /cairo_point_x exch def } def
/Tj { show currentpoint cairo_store_point } bind def
/TJ {
  {
    dup
    type /stringtype eq
    { show } { -0.001 mul 0 cairo_font_matrix dtransform rmoveto } ifelse
  } forall
  currentpoint cairo_store_point
} bind def
/cairo_selectfont { cairo_font_matrix aload pop pop pop 0 0 6 array astore
    cairo_font exch selectfont cairo_point_x cairo_point_y moveto } bind def
/Tf { pop /cairo_font exch def /cairo_font_matrix where
      { pop cairo_selectfont } if } bind def
/Td { matrix translate cairo_font_matrix matrix concatmatrix dup
      /cairo_font_matrix exch def dup 4 get exch 5 get cairo_store_point
      /cairo_font where { pop cairo_selectfont } if } bind def
/Tm { 2 copy 8 2 roll 6 array astore /cairo_font_matrix exch def
      cairo_store_point /cairo_font where { pop cairo_selectfont } if } bind def
/g { setgray } bind def
/rg { setrgbcolor } bind def
/d1 { setcachedevice } bind def
/cairo_data_source {
  CairoDataIndex CairoData length lt
    { CairoData CairoDataIndex get /CairoDataIndex CairoDataIndex 1 add def }
    { () } ifelse
} def
/cairo_flush_ascii85_file { cairo_ascii85_file status { cairo_ascii85_file flushfile } if } def
/cairo_image { image cairo_flush_ascii85_file } def
/cairo_imagemask { imagemask cairo_flush_ascii85_file } def
%%EndProlog
%%BeginSetup
%%EndSetup
%%Page: 1 1
%%BeginPageSetup
%%PageBoundingBox: 0 0 231 160
%%EndPageSetup
q 0 0 231 160 rectclip
1 0 0 -1 0 160 cm q
0.74902 g
162.535 20.125 m 162.535 46.77 l 165.938 51.023 l 165.938 56.125 l 168.488
 56.125 l 168.488 51.023 l 171.891 46.77 l 171.891 20.125 l 162.535 20.125
 l f
0 g
0.12 w
0 J
0 j
[] 0.0 d
10 M q 1 0 0 -1 0 0 cm
162.535 -20.125 m 162.535 -46.77 l 165.938 -51.023 l 165.938 -56.125 l 
168.488 -56.125 l 168.488 -51.023 l 171.891 -46.77 l 171.891 -20.125 l 162.535
 -20.125 l S Q
0.567043 w
q 1 0 0 -1 0 0 cm
162.254 -45.352 m 162.254 0 l S Q
q 1 0 0 -1 0 0 cm
172.176 -45.352 m 172.176 0 l S Q
q 1 0 0 -1 0 0 cm
165.656 -56.41 m 165.656 -51.023 l S Q
q 1 0 0 -1 0 0 cm
168.773 -56.41 m 168.773 -51.023 l S Q
q 1 0 0 -1 0 0 cm
164.098 -56.41 m 170.332 -56.41 l S Q
q 1 0 0 -1 0 0 cm
165.656 -51.023 m 165.656 -48.188 162.254 -48.188 162.254 -45.352 c S Q
q 1 0 0 -1 0 0 cm
168.773 -51.023 m 168.773 -48.188 172.176 -48.188 172.176 -45.352 c S Q
q 1 0 0 -1 0 0 cm
62.332 -87.871 m 62.332 -119.055 l 62.332 -123.75 66.141 -127.559 70.836
 -127.559 c 75.531 -127.559 79.34 -123.75 79.34 -119.055 c 79.34 -87.871
 l S Q
q 1 0 0 -1 0 0 cm
62.332 -87.871 m 62.332 -83.621 69.703 -83.621 69.703 -79.367 c S Q
q 1 0 0 -1 0 0 cm
79.34 -87.871 m 79.34 -83.621 71.969 -83.621 71.969 -79.367 c S Q
2.8348 w
q 1 0 0 -1 0 0 cm
70.836 -79.367 m 70.836 -60.945 l 70.836 -58.594 72.738 -56.691 75.09 -56.691
 c 109.105 -56.691 l 111.453 -56.691 113.355 -58.594 113.355 -60.945 c 113.355
 -70.863 l S Q
1 g
1.70071 w
q 1 0 0 -1 0 0 cm
70.836 -79.367 m 70.836 -60.945 l 70.836 -58.594 72.738 -56.691 75.09 -56.691
 c 109.105 -56.691 l 111.453 -56.691 113.355 -58.594 113.355 -60.945 c 113.355
 -70.863 l S Q
0 g
0.567043 w
q 1 0 0 -1 0 0 cm
112.223 -70.863 m 112.223 -73.699 108.395 -73.699 108.395 -76.535 c S Q
q 1 0 0 -1 0 0 cm
114.488 -70.863 m 114.488 -73.699 118.316 -73.699 118.316 -76.535 c S Q
10.4885 w
q 1 0 0 -1 0 0 cm
113.355 -76.535 m 113.355 -114.094 l 113.355 -118.789 117.164 -122.598 
121.859 -122.598 c 138.867 -122.598 l 143.562 -122.598 147.371 -118.789 
147.371 -114.094 c 147.371 -14.172 l S Q
1 g
9.35437 w
q 1 0 0 -1 0 0 cm
113.355 -76.535 m 113.355 -114.094 l 113.355 -118.789 117.164 -122.598 
121.859 -122.598 c 138.867 -122.598 l 143.562 -122.598 147.371 -118.789 
147.371 -114.094 c 147.371 -14.172 l S Q
0 g
3.68515 w
q 1 0 0 -1 0 0 cm
130.363 -127.273 m 130.363 -133.227 l S Q
1 g
2.55107 w
q 1 0 0 -1 0 0 cm
130.363 -127.273 m 130.363 -133.227 l S Q
0.74902 g
108.621 76.816 m 108.621 114.094 l 108.621 121.371 114.523 127.273 121.801
 127.273 c 129.09 127.273 l 129.09 132.945 l 131.641 132.945 l 131.641 127.273
 l 138.867 127.273 l 146.148 127.273 152.051 121.371 152.051 114.094 c 152.051
 20.125 l 142.695 20.125 l 142.695 114.094 l 142.695 116.207 140.98 117.918
 138.867 117.918 c 121.859 117.918 l 119.746 117.918 118.031 116.207 118.031
 114.094 c 118.031 76.816 l f
0 g
0.12 w
q 1 0 0 -1 0 0 cm
108.621 -76.816 m 108.621 -114.094 l 108.621 -121.371 114.523 -127.273 
121.801 -127.273 c 129.09 -127.273 l 129.09 -132.945 l 131.641 -132.945 
l 131.641 -127.273 l 138.867 -127.273 l 146.148 -127.273 152.051 -121.371
 152.051 -114.094 c 152.051 -20.125 l 142.695 -20.125 l 142.695 -114.094
 l 142.695 -116.207 140.98 -117.918 138.867 -117.918 c 121.859 -117.918 
l 119.746 -117.918 118.031 -116.207 118.031 -114.094 c 118.031 -76.816 l
 S Q
6.23622 w
q 1 0 0 -1 0 0 cm
130.363 -133.512 m 130.363 -137.48 l 130.363 -147.656 138.613 -155.902 
148.789 -155.902 c 158.965 -155.902 167.215 -147.656 167.215 -137.48 c 167.215
 -56.691 l S Q
1 g
5.10215 w
q 1 0 0 -1 0 0 cm
130.363 -133.512 m 130.363 -137.48 l 130.363 -147.656 138.613 -155.902 
148.789 -155.902 c 158.965 -155.902 167.215 -147.656 167.215 -137.48 c 167.215
 -56.691 l S Q
0 g
0.567043 w
q 1 0 0 -1 0 0 cm
127.246 -133.227 m 133.48 -133.227 l S Q
1 g
q 1 0 0 -1 0 0 cm
69.984 -79.367 m 71.688 -79.367 l S Q
q 1 0 0 -1 0 0 cm
112.504 -70.863 m 114.207 -70.863 l S Q
q 1 0 0 -1 0 0 cm
142.41 -14.172 m 151.766 -14.172 l S Q
0 g
0.425176 w
q 1 0 0 -1 0 0 cm
108.395 -77.953 m 108.395 -77.168 109.031 -76.535 109.812 -76.535 c 116.898
 -76.535 l 117.684 -76.535 118.316 -77.168 118.316 -77.953 c S Q
q 1 0 0 -1 0 0 cm
142.41 -21.258 m 142.41 -20.477 143.047 -19.84 143.828 -19.84 c 150.914
 -19.84 l 151.695 -19.84 152.332 -20.477 152.332 -21.258 c S Q
q 1 0 0 -1 0 0 cm
162.254 -21.258 m 162.254 -20.477 162.887 -19.84 163.672 -19.84 c 170.758
 -19.84 l 171.539 -19.84 172.176 -20.477 172.176 -21.258 c S Q
0.283298 w
q 1 0 0 -1 0 0 cm
123.277 -76.535 m 137.449 -76.535 l S Q
q 1 0 0 -1 0 0 cm
123.277 -19.84 m 137.449 -19.84 l S Q
131.395 22.727 m 130.363 19.84 l 129.332 22.727 l 130.363 21.574 l f
q 1 0 0 -1 0 0 cm
130.363 -76.535 m 130.363 -21.574 l S Q
1 g
121.254 48.211 m 121.254 42.008 l 139.418 42.008 l 139.418 54.418 l 121.254
 54.418 l f
0 g
130.836 51.426 m 127.961 45.238 l 127.789 45.238 l 124.93 51.426 l h
129.742 50.957 m 125.57 50.957 l 127.648 46.473 l h
129.742 50.957 m f
135.758 50.504 m 135.633 50.395 l 135.414 50.691 135.102 51.082 134.93 
51.082 c 134.867 51.082 134.82 51.02 134.82 50.926 c 134.82 50.566 135.555
 48.473 135.555 47.941 c 135.555 47.473 135.227 47.332 135.008 47.332 c 
134.227 47.332 133.305 48.613 132.883 49.316 c 134.023 44.988 l 134.023 
44.988 132.82 45.207 132.57 45.223 c 132.57 45.395 l 132.93 45.395 133.164
 45.426 133.164 45.707 c 133.164 45.879 133.055 46.301 132.992 46.52 c 131.664
 51.426 l 132.336 51.426 l 132.367 51.316 132.492 50.832 132.492 50.832 
c 133.055 48.723 134.258 47.832 134.617 47.832 c 134.742 47.832 134.867 
47.926 134.867 48.098 c 134.867 48.473 134.102 50.66 134.102 51.113 c 134.117
 51.332 134.211 51.535 134.492 51.535 c 134.992 51.535 135.477 50.926 135.758
 50.504 c h
135.758 50.504 m f
59.445 100.242 m 62.332 99.211 l 59.445 98.18 l 60.602 99.211 l f
q 1 0 0 -1 0 0 cm
53.828 -99.211 m 60.602 -99.211 l S Q
25.406 97.766 m 25.406 97.422 l 24.719 97.422 l 24.531 97.422 24.391 97.391
 24.219 97.328 c 24.016 97.266 l 23.781 97.172 23.531 97.125 23.297 97.125
 c 22.469 97.125 21.812 97.766 21.812 98.594 c 21.812 99.156 22.047 99.484
 22.641 99.781 c 22.406 100 l 22.219 100.188 22.109 100.281 22.078 100.312
 c 21.891 100.516 21.844 100.609 21.844 100.766 c 21.844 100.969 21.938 
101.062 22.312 101.234 c 21.672 101.703 21.438 102 21.438 102.328 c 21.438
 102.812 22.125 103.203 22.984 103.203 c 23.656 103.203 24.359 102.969 24.828
 102.594 c 25.172 102.312 25.328 102.031 25.328 101.688 c 25.328 101.141
 24.906 100.766 24.234 100.734 c 23.078 100.672 l 22.594 100.656 22.375 
100.578 22.375 100.438 c 22.375 100.25 22.672 99.938 22.922 99.875 c 23.234
 99.891 23.406 99.906 23.438 99.906 c 23.766 99.906 24.125 99.781 24.391
 99.531 c 24.688 99.281 24.828 98.969 24.828 98.531 c 24.828 98.266 24.781
 98.062 24.656 97.766 c h
22.5 101.266 m 22.812 101.328 23.516 101.391 23.969 101.391 c 24.781 101.391
 25.078 101.5 25.078 101.828 c 25.078 102.344 24.391 102.688 23.375 102.688
 c 22.578 102.688 22.062 102.438 22.062 102.047 c 22.062 101.828 22.141 
101.703 22.5 101.266 c h
22.547 98.219 m 22.547 97.688 22.797 97.375 23.219 97.375 c 23.5 97.375
 23.719 97.531 23.875 97.797 c 24.047 98.109 24.141 98.516 24.141 98.875
 c 24.141 99.375 23.891 99.688 23.469 99.688 c 22.922 99.688 22.547 99.109
 22.547 98.25 c h
22.547 98.219 m f
29.598 100.656 m 29.441 100.781 29.332 100.828 29.191 100.828 c 28.988 
100.828 28.926 100.703 28.926 100.312 c 28.926 98.562 l 28.926 98.094 28.879
 97.828 28.754 97.625 c 28.551 97.297 28.16 97.125 27.645 97.125 c 26.801
 97.125 26.129 97.562 26.129 98.125 c 26.129 98.328 26.301 98.516 26.52 
98.516 c 26.738 98.516 26.926 98.328 26.926 98.141 c 26.926 98.109 26.91
 98.062 26.91 98 c 26.879 97.906 26.879 97.844 26.879 97.781 c 26.879 97.531
 27.16 97.344 27.52 97.344 c 27.957 97.344 28.207 97.594 28.207 98.078 c
 28.207 98.625 l 26.832 99.172 26.676 99.266 26.285 99.594 c 26.082 99.781
 25.957 100.078 25.957 100.375 c 25.957 100.938 26.348 101.344 26.91 101.344
 c 27.301 101.344 27.66 101.156 28.207 100.688 c 28.254 101.156 28.426 101.344
 28.785 101.344 c 29.098 101.344 29.285 101.234 29.598 100.891 c h
28.207 100.141 m 28.207 100.422 28.16 100.516 27.973 100.625 c 27.738 100.75
 27.504 100.812 27.316 100.812 c 27.004 100.812 26.754 100.516 26.754 100.125
 c 26.754 100.094 l 26.754 99.562 27.16 99.219 28.207 98.844 c h
28.207 100.141 m f
32.418 98.438 m 32.387 97.203 l 32.277 97.203 l 32.23 97.281 32.184 97.297
 32.137 97.297 c 32.09 97.297 31.996 97.281 31.902 97.234 c 31.684 97.172
 31.48 97.125 31.262 97.125 c 30.559 97.125 30.043 97.594 30.043 98.234 
c 30.043 98.734 30.34 99.094 31.09 99.531 c 31.621 99.828 l 31.934 100 32.09
 100.219 32.09 100.5 c 32.09 100.891 31.793 101.141 31.34 101.141 c 30.715
 101.141 30.402 100.797 30.199 99.891 c 30.059 99.891 l 30.059 101.281 l
 30.168 101.281 l 30.23 101.203 30.277 101.172 30.387 101.172 c 30.48 101.172
 30.59 101.203 30.793 101.25 c 31.027 101.297 31.262 101.344 31.449 101.344
 c 32.152 101.344 32.715 100.812 32.715 100.188 c 32.715 99.75 32.496 99.453
 31.965 99.125 c 30.996 98.547 l 30.73 98.391 30.605 98.188 30.605 97.938
 c 30.605 97.578 30.887 97.328 31.293 97.328 c 31.809 97.328 32.074 97.625
 32.277 98.438 c h
32.418 98.438 m f
36.723 95.141 m 36.676 95.125 l 36.301 95.25 36.066 95.328 35.629 95.453
 c 35.379 95.516 l 35.379 95.656 l 35.426 95.656 35.457 95.656 35.52 95.656
 c 35.879 95.656 35.973 95.734 35.973 96.109 c 35.973 100.766 l 35.973 101.047
 36.723 101.344 37.441 101.344 c 38.629 101.344 39.551 100.359 39.551 99.078
 c 39.551 97.953 38.863 97.125 37.973 97.125 c 37.426 97.125 36.895 97.438
 36.723 97.891 c h
36.723 98.359 m 36.723 98.016 37.145 97.688 37.613 97.688 c 37.863 97.688
 38.082 97.781 38.27 97.953 c 38.551 98.234 38.754 98.844 38.754 99.484 
c 38.754 100.484 38.332 101.047 37.598 101.047 c 37.129 101.047 36.723 100.859
 36.723 100.625 c h
36.723 98.359 m f
43.965 100.797 m 43.918 100.797 l 43.48 100.781 43.418 100.719 43.402 100.297
 c 43.402 97.219 l 41.996 97.219 l 41.996 97.359 l 42.543 97.391 42.652 
97.484 42.652 97.938 c 42.652 100.047 l 42.652 100.297 42.605 100.422 42.48
 100.516 c 42.246 100.719 41.965 100.812 41.699 100.812 c 41.34 100.812 
41.059 100.516 41.059 100.141 c 41.059 97.219 l 39.746 97.219 l 39.746 97.344
 l 40.168 97.359 40.293 97.484 40.309 97.906 c 40.309 100.172 l 40.309 100.875
 40.73 101.344 41.387 101.344 c 41.715 101.344 42.074 101.203 42.309 100.953
 c 42.699 100.562 l 42.699 101.312 l 42.73 101.328 l 43.184 101.156 43.512
 101.047 43.965 100.922 c h
43.965 100.797 m f
44.297 101.25 m 46.422 101.25 l 46.422 101.109 l 45.844 101.094 45.75 101
 45.734 100.5 c 45.734 95.141 l 45.703 95.125 l 45.25 95.266 44.922 95.359
 44.281 95.516 c 44.281 95.656 l 44.328 95.656 l 44.438 95.656 44.547 95.641
 44.609 95.641 c 44.906 95.641 44.984 95.766 44.984 96.188 c 44.984 100.469
 l 44.984 100.953 44.859 101.078 44.297 101.109 c h
44.297 101.25 m f
48.004 95.141 m 47.957 95.125 l 47.582 95.25 47.348 95.328 46.91 95.453
 c 46.66 95.516 l 46.66 95.656 l 46.707 95.656 46.738 95.656 46.801 95.656
 c 47.16 95.656 47.254 95.734 47.254 96.109 c 47.254 100.766 l 47.254 101.047
 48.004 101.344 48.723 101.344 c 49.91 101.344 50.832 100.359 50.832 99.078
 c 50.832 97.953 50.145 97.125 49.254 97.125 c 48.707 97.125 48.176 97.438
 48.004 97.891 c h
48.004 98.359 m 48.004 98.016 48.426 97.688 48.895 97.688 c 49.145 97.688
 49.363 97.781 49.551 97.953 c 49.832 98.234 50.035 98.844 50.035 99.484
 c 50.035 100.484 49.613 101.047 48.879 101.047 c 48.41 101.047 48.004 100.859
 48.004 100.625 c h
48.004 98.359 m f
69.055 105.312 m 69.055 104.969 l 68.367 104.969 l 68.18 104.969 68.039
 104.938 67.867 104.875 c 67.664 104.812 l 67.43 104.719 67.18 104.672 66.945
 104.672 c 66.117 104.672 65.461 105.312 65.461 106.141 c 65.461 106.703
 65.695 107.031 66.289 107.328 c 66.055 107.547 l 65.867 107.734 65.758 
107.828 65.727 107.859 c 65.539 108.062 65.492 108.156 65.492 108.312 c 
65.492 108.516 65.586 108.609 65.961 108.781 c 65.32 109.25 65.086 109.547
 65.086 109.875 c 65.086 110.359 65.773 110.75 66.633 110.75 c 67.305 110.75
 68.008 110.516 68.477 110.141 c 68.82 109.859 68.977 109.578 68.977 109.234
 c 68.977 108.688 68.555 108.312 67.883 108.281 c 66.727 108.219 l 66.242
 108.203 66.023 108.125 66.023 107.984 c 66.023 107.797 66.32 107.484 66.57
 107.422 c 66.883 107.438 67.055 107.453 67.086 107.453 c 67.414 107.453
 67.773 107.328 68.039 107.078 c 68.336 106.828 68.477 106.516 68.477 106.078
 c 68.477 105.812 68.43 105.609 68.305 105.312 c h
66.148 108.812 m 66.461 108.875 67.164 108.938 67.617 108.938 c 68.43 108.938
 68.727 109.047 68.727 109.375 c 68.727 109.891 68.039 110.234 67.023 110.234
 c 66.227 110.234 65.711 109.984 65.711 109.594 c 65.711 109.375 65.789 
109.25 66.148 108.812 c h
66.195 105.766 m 66.195 105.234 66.445 104.922 66.867 104.922 c 67.148 
104.922 67.367 105.078 67.523 105.344 c 67.695 105.656 67.789 106.062 67.789
 106.422 c 67.789 106.922 67.539 107.234 67.117 107.234 c 66.57 107.234 
66.195 106.656 66.195 105.797 c h
66.195 105.766 m f
73.246 108.203 m 73.09 108.328 72.98 108.375 72.84 108.375 c 72.637 108.375
 72.574 108.25 72.574 107.859 c 72.574 106.109 l 72.574 105.641 72.527 105.375
 72.402 105.172 c 72.199 104.844 71.809 104.672 71.293 104.672 c 70.449 
104.672 69.777 105.109 69.777 105.672 c 69.777 105.875 69.949 106.062 70.168
 106.062 c 70.387 106.062 70.574 105.875 70.574 105.688 c 70.574 105.656
 70.559 105.609 70.559 105.547 c 70.527 105.453 70.527 105.391 70.527 105.328
 c 70.527 105.078 70.809 104.891 71.168 104.891 c 71.605 104.891 71.855 
105.141 71.855 105.625 c 71.855 106.172 l 70.48 106.719 70.324 106.812 69.934
 107.141 c 69.73 107.328 69.605 107.625 69.605 107.922 c 69.605 108.484 
69.996 108.891 70.559 108.891 c 70.949 108.891 71.309 108.703 71.855 108.234
 c 71.902 108.703 72.074 108.891 72.434 108.891 c 72.746 108.891 72.934 
108.781 73.246 108.438 c h
71.855 107.688 m 71.855 107.969 71.809 108.062 71.621 108.172 c 71.387 
108.297 71.152 108.359 70.965 108.359 c 70.652 108.359 70.402 108.062 70.402
 107.672 c 70.402 107.641 l 70.402 107.109 70.809 106.766 71.855 106.391
 c h
71.855 107.688 m f
76.062 105.984 m 76.031 104.75 l 75.922 104.75 l 75.875 104.828 75.828 
104.844 75.781 104.844 c 75.734 104.844 75.641 104.828 75.547 104.781 c 
75.328 104.719 75.125 104.672 74.906 104.672 c 74.203 104.672 73.688 105.141
 73.688 105.781 c 73.688 106.281 73.984 106.641 74.734 107.078 c 75.266 
107.375 l 75.578 107.547 75.734 107.766 75.734 108.047 c 75.734 108.438 
75.438 108.688 74.984 108.688 c 74.359 108.688 74.047 108.344 73.844 107.438
 c 73.703 107.438 l 73.703 108.828 l 73.812 108.828 l 73.875 108.75 73.922
 108.719 74.031 108.719 c 74.125 108.719 74.234 108.75 74.438 108.797 c 
74.672 108.844 74.906 108.891 75.094 108.891 c 75.797 108.891 76.359 108.359
 76.359 107.734 c 76.359 107.297 76.141 107 75.609 106.672 c 74.641 106.094
 l 74.375 105.938 74.25 105.734 74.25 105.484 c 74.25 105.125 74.531 104.875
 74.938 104.875 c 75.453 104.875 75.719 105.172 75.922 105.984 c h
76.062 105.984 m f
170.098 32.984 m 167.215 34.016 l 170.098 35.043 l 168.945 34.016 l f
q 1 0 0 -1 0 0 cm
168.945 -34.016 m 181.387 -34.016 l S Q
150.258 35.82 m 147.371 36.852 l 150.258 37.879 l 149.102 36.852 l f
q 1 0 0 -1 0 0 cm
149.102 -36.852 m 181.387 -36.852 l S Q
184.438 37.473 m 186.922 37.473 l 186.922 37.301 l 186.25 37.254 186.156
 37.145 186.141 36.488 c 186.141 34.645 l 188.859 34.645 l 188.859 36.395
 l 188.844 37.16 188.766 37.254 188.062 37.301 c 188.062 37.473 l 190.562
 37.473 l 190.562 37.301 l 189.891 37.254 189.781 37.145 189.766 36.488 
c 189.766 32.52 l 189.781 31.863 189.875 31.77 190.562 31.707 c 190.562 
31.535 l 188.062 31.535 l 188.062 31.707 l 188.766 31.754 188.844 31.848
 188.859 32.52 c 188.859 34.254 l 186.141 34.254 l 186.141 32.52 l 186.156
 31.863 186.234 31.77 186.922 31.707 c 186.922 31.535 l 184.438 31.535 l
 184.438 31.707 l 185.125 31.754 185.219 31.848 185.219 32.52 c 185.219 
36.395 l 185.219 37.16 185.141 37.254 184.438 37.301 c h
184.438 37.473 m f
194.965 33.988 m 194.965 33.645 l 194.277 33.645 l 194.09 33.645 193.949
 33.613 193.777 33.551 c 193.574 33.488 l 193.34 33.395 193.09 33.348 192.855
 33.348 c 192.027 33.348 191.371 33.988 191.371 34.816 c 191.371 35.379 
191.605 35.707 192.199 36.004 c 191.965 36.223 l 191.777 36.41 191.668 36.504
 191.637 36.535 c 191.449 36.738 191.402 36.832 191.402 36.988 c 191.402
 37.191 191.496 37.285 191.871 37.457 c 191.23 37.926 190.996 38.223 190.996
 38.551 c 190.996 39.035 191.684 39.426 192.543 39.426 c 193.215 39.426 
193.918 39.191 194.387 38.816 c 194.73 38.535 194.887 38.254 194.887 37.91
 c 194.887 37.363 194.465 36.988 193.793 36.957 c 192.637 36.895 l 192.152
 36.879 191.934 36.801 191.934 36.66 c 191.934 36.473 192.23 36.16 192.48
 36.098 c 192.793 36.113 192.965 36.129 192.996 36.129 c 193.324 36.129 
193.684 36.004 193.949 35.754 c 194.246 35.504 194.387 35.191 194.387 34.754
 c 194.387 34.488 194.34 34.285 194.215 33.988 c h
192.059 37.488 m 192.371 37.551 193.074 37.613 193.527 37.613 c 194.34 
37.613 194.637 37.723 194.637 38.051 c 194.637 38.566 193.949 38.91 192.934
 38.91 c 192.137 38.91 191.621 38.66 191.621 38.27 c 191.621 38.051 191.699
 37.926 192.059 37.488 c h
192.105 34.441 m 192.105 33.91 192.355 33.598 192.777 33.598 c 193.059 
33.598 193.277 33.754 193.434 34.02 c 193.605 34.332 193.699 34.738 193.699
 35.098 c 193.699 35.598 193.449 35.91 193.027 35.91 c 192.48 35.91 192.105
 35.332 192.105 34.473 c h
192.105 34.441 m f
q 1 0 0 -1 0 0 cm
110.238 -73.699 m 111.371 -74.832 l 111.797 -75.965 l 111.938 -75.965 l
 111.797 -74.551 l 111.09 -72.852 l S Q
104.234 76.145 m 107.117 75.117 l 104.234 74.086 l 105.387 75.117 l f
q 1 0 0 -1 0 0 cm
53.828 -75.117 m 105.387 -75.117 l S Q
0.016 78.117 m 2.141 78.117 l 2.141 77.977 l 1.562 77.961 1.469 77.867 
1.453 77.367 c 1.453 72.008 l 1.422 71.992 l 0.969 72.133 0.641 72.227 0
 72.383 c 0 72.523 l 0.047 72.523 l 0.156 72.523 0.266 72.508 0.328 72.508
 c 0.625 72.508 0.703 72.633 0.703 73.055 c 0.703 77.336 l 0.703 77.82 0.578
 77.945 0.016 77.977 c h
0.016 78.117 m f
6.004 76.648 m 5.582 77.32 5.191 77.586 4.613 77.586 c 4.113 77.586 3.723
 77.32 3.457 76.82 c 3.301 76.477 3.238 76.195 3.223 75.633 c 5.973 75.633
 l 5.91 75.055 5.816 74.789 5.598 74.508 c 5.332 74.18 4.91 73.992 4.441
 73.992 c 4.004 73.992 3.582 74.148 3.238 74.461 c 2.816 74.82 2.566 75.461
 2.566 76.195 c 2.566 77.43 3.223 78.211 4.254 78.211 c 5.098 78.211 5.77
 77.68 6.145 76.711 c h
3.238 75.352 m 3.332 74.648 3.645 74.32 4.191 74.32 c 4.738 74.32 4.941
 74.57 5.066 75.352 c h
3.238 75.352 m f
10.348 74.086 m 9.098 74.086 l 9.098 74.211 l 9.379 74.242 9.52 74.336 
9.52 74.508 c 9.52 74.586 9.504 74.68 9.473 74.773 c 8.582 77.102 l 7.66
 74.805 l 7.613 74.68 7.582 74.555 7.582 74.461 c 7.582 74.305 7.676 74.242
 7.988 74.211 c 7.988 74.086 l 6.238 74.086 l 6.238 74.211 l 6.582 74.227
 6.645 74.32 7.051 75.242 c 8.129 77.82 l 8.145 77.883 8.176 77.945 8.207
 78.008 c 8.223 78.086 8.254 78.148 8.285 78.195 c 8.301 78.227 8.332 78.242
 8.363 78.242 c 8.41 78.242 8.473 78.133 8.613 77.789 c 9.754 74.914 l 10.02
 74.305 10.082 74.242 10.348 74.211 c h
10.348 74.086 m f
14.043 76.648 m 13.621 77.32 13.23 77.586 12.652 77.586 c 12.152 77.586
 11.762 77.32 11.496 76.82 c 11.34 76.477 11.277 76.195 11.262 75.633 c 
14.012 75.633 l 13.949 75.055 13.855 74.789 13.637 74.508 c 13.371 74.18
 12.949 73.992 12.48 73.992 c 12.043 73.992 11.621 74.148 11.277 74.461 
c 10.855 74.82 10.605 75.461 10.605 76.195 c 10.605 77.43 11.262 78.211 
12.293 78.211 c 13.137 78.211 13.809 77.68 14.184 76.711 c h
11.277 75.352 m 11.371 74.648 11.684 74.32 12.23 74.32 c 12.777 74.32 12.98
 74.57 13.105 75.352 c h
11.277 75.352 m f
14.535 78.117 m 16.66 78.117 l 16.66 77.977 l 16.082 77.961 15.988 77.867
 15.973 77.367 c 15.973 72.008 l 15.941 71.992 l 15.488 72.133 15.16 72.227
 14.52 72.383 c 14.52 72.523 l 14.566 72.523 l 14.676 72.523 14.785 72.508
 14.848 72.508 c 15.145 72.508 15.223 72.633 15.223 73.055 c 15.223 77.336
 l 15.223 77.82 15.098 77.945 14.535 77.977 c h
14.535 78.117 m f
19.289 78.117 m 21.414 78.117 l 21.414 77.977 l 20.82 77.945 20.758 77.852
 20.758 77.195 c 20.758 74.023 l 20.711 73.992 l 19.32 74.492 l 19.32 74.617
 l 19.398 74.617 l 19.508 74.586 19.617 74.586 19.711 74.586 c 19.914 74.586
 20.008 74.727 20.008 75.117 c 20.008 77.195 l 19.977 77.867 19.898 77.961
 19.289 77.977 c h
20.289 71.992 m 20.055 71.992 19.852 72.195 19.852 72.445 c 19.852 72.711
 20.039 72.914 20.289 72.914 c 20.57 72.914 20.758 72.711 20.758 72.445 
c 20.758 72.195 20.555 71.992 20.289 71.992 c h
20.289 71.992 m f
21.824 78.117 m 23.73 78.117 l 23.73 77.977 l 23.277 77.961 23.137 77.836
 23.137 77.523 c 23.137 74.992 l 23.574 74.586 23.762 74.492 24.059 74.492
 c 24.496 74.492 24.715 74.758 24.715 75.352 c 24.715 77.227 l 24.699 77.805
 24.59 77.961 24.152 77.977 c 24.152 78.117 l 26.012 78.117 l 26.012 77.977
 l 25.574 77.945 25.48 77.836 25.465 77.398 c 25.465 75.336 l 25.465 74.492
 25.074 73.992 24.418 73.992 c 23.996 73.992 23.715 74.148 23.105 74.711
 c 23.105 74.008 l 23.043 73.992 l 22.59 74.164 22.277 74.258 21.809 74.398
 c 21.809 74.555 l 21.871 74.523 21.949 74.508 22.059 74.508 c 22.309 74.508
 22.387 74.648 22.387 75.086 c 22.387 77.305 l 22.371 77.836 22.277 77.961
 21.824 77.977 c h
21.824 78.117 m f
30.516 77.602 m 30.391 77.602 30.344 77.602 30.312 77.602 c 30 77.602 29.906
 77.508 29.906 77.102 c 29.906 72.008 l 29.875 71.992 l 29.453 72.133 29.141
 72.227 28.547 72.383 c 28.547 72.523 l 28.625 72.523 28.672 72.523 28.75
 72.523 c 29.078 72.523 29.156 72.617 29.156 72.977 c 29.156 74.383 l 28.812
 74.086 28.578 73.992 28.219 73.992 c 27.188 73.992 26.344 75.008 26.344
 76.273 c 26.344 77.43 27.016 78.211 28.016 78.211 c 28.516 78.211 28.859
 78.023 29.156 77.602 c 29.156 78.18 l 29.188 78.211 l 30.516 77.742 l h
29.156 77.195 m 29.156 77.258 29.094 77.367 29 77.477 c 28.859 77.648 28.625
 77.742 28.359 77.742 c 27.609 77.742 27.125 77.023 27.125 75.914 c 27.125
 74.914 27.562 74.242 28.25 74.242 c 28.734 74.242 29.156 74.664 29.156 
75.133 c h
29.156 77.195 m f
30.688 78.117 m 32.812 78.117 l 32.812 77.977 l 32.219 77.945 32.156 77.852
 32.156 77.195 c 32.156 74.023 l 32.109 73.992 l 30.719 74.492 l 30.719 
74.617 l 30.797 74.617 l 30.906 74.586 31.016 74.586 31.109 74.586 c 31.312
 74.586 31.406 74.727 31.406 75.117 c 31.406 77.195 l 31.375 77.867 31.297
 77.961 30.688 77.977 c h
31.688 71.992 m 31.453 71.992 31.25 72.195 31.25 72.445 c 31.25 72.711 
31.438 72.914 31.688 72.914 c 31.969 72.914 32.156 72.711 32.156 72.445 
c 32.156 72.195 31.953 71.992 31.688 71.992 c h
31.688 71.992 m f
36.629 76.711 m 36.207 77.352 35.879 77.555 35.379 77.555 c 34.551 77.555
 33.988 76.836 33.988 75.805 c 33.988 74.883 34.473 74.258 35.207 74.258
 c 35.52 74.258 35.645 74.336 35.723 74.68 c 35.785 74.883 l 35.863 75.133
 36.02 75.289 36.207 75.289 c 36.441 75.289 36.629 75.117 36.629 74.914 
c 36.629 74.414 36.004 73.992 35.254 73.992 c 34.816 73.992 34.363 74.164
 33.988 74.492 c 33.535 74.883 33.285 75.492 33.285 76.211 c 33.285 77.367
 34.004 78.211 34.988 78.211 c 35.395 78.211 35.754 78.07 36.082 77.789 
c 36.316 77.586 36.488 77.32 36.754 76.805 c h
36.629 76.711 m f
40.996 77.523 m 40.84 77.648 40.73 77.695 40.59 77.695 c 40.387 77.695 
40.324 77.57 40.324 77.18 c 40.324 75.43 l 40.324 74.961 40.277 74.695 40.152
 74.492 c 39.949 74.164 39.559 73.992 39.043 73.992 c 38.199 73.992 37.527
 74.43 37.527 74.992 c 37.527 75.195 37.699 75.383 37.918 75.383 c 38.137
 75.383 38.324 75.195 38.324 75.008 c 38.324 74.977 38.309 74.93 38.309 
74.867 c 38.277 74.773 38.277 74.711 38.277 74.648 c 38.277 74.398 38.559
 74.211 38.918 74.211 c 39.355 74.211 39.605 74.461 39.605 74.945 c 39.605
 75.492 l 38.23 76.039 38.074 76.133 37.684 76.461 c 37.48 76.648 37.355
 76.945 37.355 77.242 c 37.355 77.805 37.746 78.211 38.309 78.211 c 38.699
 78.211 39.059 78.023 39.605 77.555 c 39.652 78.023 39.824 78.211 40.184
 78.211 c 40.496 78.211 40.684 78.102 40.996 77.758 c h
39.605 77.008 m 39.605 77.289 39.559 77.383 39.371 77.492 c 39.137 77.617
 38.902 77.68 38.715 77.68 c 38.402 77.68 38.152 77.383 38.152 76.992 c 
38.152 76.961 l 38.152 76.43 38.559 76.086 39.605 75.711 c h
39.605 77.008 m f
43.27 74.086 m 42.363 74.086 l 42.363 73.039 l 42.363 72.945 42.348 72.93
 42.301 72.93 c 41.785 73.68 41.52 73.977 41.254 74.133 c 41.16 74.195 41.098
 74.258 41.098 74.305 c 41.098 74.336 41.113 74.352 41.145 74.367 c 41.613
 74.367 l 41.613 77.07 l 41.613 77.82 41.879 78.211 42.41 78.211 c 42.848
 78.211 43.191 77.992 43.488 77.523 c 43.379 77.43 l 43.176 77.664 43.035
 77.742 42.832 77.742 c 42.504 77.742 42.363 77.492 42.363 76.93 c 42.363
 74.367 l 43.27 74.367 l h
43.27 74.086 m f
45.758 73.992 m 44.57 73.992 43.773 74.852 43.773 76.086 c 43.773 77.305
 44.602 78.211 45.727 78.211 c 46.867 78.211 47.727 77.258 47.727 76.023
 c 47.727 74.836 46.898 73.992 45.758 73.992 c h
45.633 74.242 m 46.383 74.242 46.914 75.102 46.914 76.336 c 46.914 77.352
 46.508 77.961 45.836 77.961 c 45.492 77.961 45.164 77.742 44.977 77.383
 c 44.711 76.914 44.57 76.289 44.57 75.648 c 44.57 74.805 44.992 74.242 
45.633 74.242 c h
45.633 74.242 m f
47.996 78.117 m 50.152 78.117 l 50.152 77.977 l 49.543 77.961 49.402 77.836
 49.387 77.305 c 49.387 75.289 l 49.387 75.008 49.762 74.555 50.012 74.555
 c 50.059 74.555 50.152 74.602 50.246 74.695 c 50.387 74.82 50.48 74.867
 50.605 74.867 c 50.824 74.867 50.949 74.711 50.949 74.461 c 50.949 74.164
 50.762 73.992 50.465 73.992 c 50.09 73.992 49.84 74.195 49.387 74.836 c
 49.387 74.008 l 49.34 73.992 l 48.84 74.195 48.512 74.32 48.012 74.477 
c 48.012 74.617 l 48.137 74.586 48.215 74.586 48.324 74.586 c 48.543 74.586
 48.637 74.727 48.637 75.117 c 48.637 77.367 l 48.605 77.836 48.559 77.883
 47.996 77.977 c h
47.996 78.117 m f
174.633 24.48 m 171.75 25.508 l 174.633 26.539 l 173.48 25.508 l f
q 1 0 0 -1 0 0 cm
173.48 -25.508 m 181.387 -25.508 l S Q
184.453 27.551 m 186.578 27.551 l 186.578 27.41 l 186 27.395 185.906 27.301
 185.891 26.801 c 185.891 21.441 l 185.859 21.426 l 185.406 21.566 185.078
 21.66 184.438 21.816 c 184.438 21.957 l 184.484 21.957 l 184.594 21.957
 184.703 21.941 184.766 21.941 c 185.062 21.941 185.141 22.066 185.141 22.488
 c 185.141 26.77 l 185.141 27.254 185.016 27.379 184.453 27.41 c h
184.453 27.551 m f
190.441 26.082 m 190.02 26.754 189.629 27.02 189.051 27.02 c 188.551 27.02
 188.16 26.754 187.895 26.254 c 187.738 25.91 187.676 25.629 187.66 25.066
 c 190.41 25.066 l 190.348 24.488 190.254 24.223 190.035 23.941 c 189.77
 23.613 189.348 23.426 188.879 23.426 c 188.441 23.426 188.02 23.582 187.676
 23.895 c 187.254 24.254 187.004 24.895 187.004 25.629 c 187.004 26.863 
187.66 27.645 188.691 27.645 c 189.535 27.645 190.207 27.113 190.582 26.145
 c h
187.676 24.785 m 187.77 24.082 188.082 23.754 188.629 23.754 c 189.176 
23.754 189.379 24.004 189.504 24.785 c h
187.676 24.785 m f
194.789 23.52 m 193.539 23.52 l 193.539 23.645 l 193.82 23.676 193.961 
23.77 193.961 23.941 c 193.961 24.02 193.945 24.113 193.914 24.207 c 193.023
 26.535 l 192.102 24.238 l 192.055 24.113 192.023 23.988 192.023 23.895 
c 192.023 23.738 192.117 23.676 192.43 23.645 c 192.43 23.52 l 190.68 23.52
 l 190.68 23.645 l 191.023 23.66 191.086 23.754 191.492 24.676 c 192.57 
27.254 l 192.586 27.316 192.617 27.379 192.648 27.441 c 192.664 27.52 192.695
 27.582 192.727 27.629 c 192.742 27.66 192.773 27.676 192.805 27.676 c 192.852
 27.676 192.914 27.566 193.055 27.223 c 194.195 24.348 l 194.461 23.738 
194.523 23.676 194.789 23.645 c h
194.789 23.52 m f
198.484 26.082 m 198.062 26.754 197.672 27.02 197.094 27.02 c 196.594 27.02
 196.203 26.754 195.938 26.254 c 195.781 25.91 195.719 25.629 195.703 25.066
 c 198.453 25.066 l 198.391 24.488 198.297 24.223 198.078 23.941 c 197.812
 23.613 197.391 23.426 196.922 23.426 c 196.484 23.426 196.062 23.582 195.719
 23.895 c 195.297 24.254 195.047 24.895 195.047 25.629 c 195.047 26.863 
195.703 27.645 196.734 27.645 c 197.578 27.645 198.25 27.113 198.625 26.145
 c h
195.719 24.785 m 195.812 24.082 196.125 23.754 196.672 23.754 c 197.219
 23.754 197.422 24.004 197.547 24.785 c h
195.719 24.785 m f
198.973 27.551 m 201.098 27.551 l 201.098 27.41 l 200.52 27.395 200.426
 27.301 200.41 26.801 c 200.41 21.441 l 200.379 21.426 l 199.926 21.566 
199.598 21.66 198.957 21.816 c 198.957 21.957 l 199.004 21.957 l 199.113
 21.957 199.223 21.941 199.285 21.941 c 199.582 21.941 199.66 22.066 199.66
 22.488 c 199.66 26.77 l 199.66 27.254 199.535 27.379 198.973 27.41 c h
198.973 27.551 m f
201.449 27.551 m 203.574 27.551 l 203.574 27.41 l 202.98 27.379 202.918
 27.285 202.918 26.629 c 202.918 23.457 l 202.871 23.426 l 201.48 23.926
 l 201.48 24.051 l 201.559 24.051 l 201.668 24.02 201.777 24.02 201.871 
24.02 c 202.074 24.02 202.168 24.16 202.168 24.551 c 202.168 26.629 l 202.137
 27.301 202.059 27.395 201.449 27.41 c h
202.449 21.426 m 202.215 21.426 202.012 21.629 202.012 21.879 c 202.012
 22.145 202.199 22.348 202.449 22.348 c 202.73 22.348 202.918 22.145 202.918
 21.879 c 202.918 21.629 202.715 21.426 202.449 21.426 c h
202.449 21.426 m f
203.984 27.551 m 205.891 27.551 l 205.891 27.41 l 205.438 27.395 205.297
 27.27 205.297 26.957 c 205.297 24.426 l 205.734 24.02 205.922 23.926 206.219
 23.926 c 206.656 23.926 206.875 24.191 206.875 24.785 c 206.875 26.66 l
 206.859 27.238 206.75 27.395 206.312 27.41 c 206.312 27.551 l 208.172 27.551
 l 208.172 27.41 l 207.734 27.379 207.641 27.27 207.625 26.832 c 207.625
 24.77 l 207.625 23.926 207.234 23.426 206.578 23.426 c 206.156 23.426 205.875
 23.582 205.266 24.145 c 205.266 23.441 l 205.203 23.426 l 204.75 23.598
 204.438 23.691 203.969 23.832 c 203.969 23.988 l 204.031 23.957 204.109
 23.941 204.219 23.941 c 204.469 23.941 204.547 24.082 204.547 24.52 c 204.547
 26.738 l 204.531 27.27 204.438 27.395 203.984 27.41 c h
203.984 27.551 m f
212.484 24.066 m 212.484 23.723 l 211.797 23.723 l 211.609 23.723 211.469
 23.691 211.297 23.629 c 211.094 23.566 l 210.859 23.473 210.609 23.426 
210.375 23.426 c 209.547 23.426 208.891 24.066 208.891 24.895 c 208.891 
25.457 209.125 25.785 209.719 26.082 c 209.484 26.301 l 209.297 26.488 209.188
 26.582 209.156 26.613 c 208.969 26.816 208.922 26.91 208.922 27.066 c 208.922
 27.27 209.016 27.363 209.391 27.535 c 208.75 28.004 208.516 28.301 208.516
 28.629 c 208.516 29.113 209.203 29.504 210.062 29.504 c 210.734 29.504 
211.438 29.27 211.906 28.895 c 212.25 28.613 212.406 28.332 212.406 27.988
 c 212.406 27.441 211.984 27.066 211.312 27.035 c 210.156 26.973 l 209.672
 26.957 209.453 26.879 209.453 26.738 c 209.453 26.551 209.75 26.238 210
 26.176 c 210.312 26.191 210.484 26.207 210.516 26.207 c 210.844 26.207 
211.203 26.082 211.469 25.832 c 211.766 25.582 211.906 25.27 211.906 24.832
 c 211.906 24.566 211.859 24.363 211.734 24.066 c h
209.578 27.566 m 209.891 27.629 210.594 27.691 211.047 27.691 c 211.859
 27.691 212.156 27.801 212.156 28.129 c 212.156 28.645 211.469 28.988 210.453
 28.988 c 209.656 28.988 209.141 28.738 209.141 28.348 c 209.141 28.129 
209.219 28.004 209.578 27.566 c h
209.625 24.52 m 209.625 23.988 209.875 23.676 210.297 23.676 c 210.578 
23.676 210.797 23.832 210.953 24.098 c 211.125 24.41 211.219 24.816 211.219
 25.176 c 211.219 25.676 210.969 25.988 210.547 25.988 c 210 25.988 209.625
 25.41 209.625 24.551 c h
209.625 24.52 m f
216.48 21.441 m 216.434 21.426 l 216.059 21.551 215.824 21.629 215.387 
21.754 c 215.137 21.816 l 215.137 21.957 l 215.184 21.957 215.215 21.957
 215.277 21.957 c 215.637 21.957 215.73 22.035 215.73 22.41 c 215.73 27.066
 l 215.73 27.348 216.48 27.645 217.199 27.645 c 218.387 27.645 219.309 26.66
 219.309 25.379 c 219.309 24.254 218.621 23.426 217.73 23.426 c 217.184 
23.426 216.652 23.738 216.48 24.191 c h
216.48 24.66 m 216.48 24.316 216.902 23.988 217.371 23.988 c 217.621 23.988
 217.84 24.082 218.027 24.254 c 218.309 24.535 218.512 25.145 218.512 25.785
 c 218.512 26.785 218.09 27.348 217.355 27.348 c 216.887 27.348 216.48 27.16
 216.48 26.926 c h
216.48 24.66 m f
223.723 27.098 m 223.676 27.098 l 223.238 27.082 223.176 27.02 223.16 26.598
 c 223.16 23.52 l 221.754 23.52 l 221.754 23.66 l 222.301 23.691 222.41 
23.785 222.41 24.238 c 222.41 26.348 l 222.41 26.598 222.363 26.723 222.238
 26.816 c 222.004 27.02 221.723 27.113 221.457 27.113 c 221.098 27.113 220.816
 26.816 220.816 26.441 c 220.816 23.52 l 219.504 23.52 l 219.504 23.645 
l 219.926 23.66 220.051 23.785 220.066 24.207 c 220.066 26.473 l 220.066
 27.176 220.488 27.645 221.145 27.645 c 221.473 27.645 221.832 27.504 222.066
 27.254 c 222.457 26.863 l 222.457 27.613 l 222.488 27.629 l 222.941 27.457
 223.27 27.348 223.723 27.223 c h
223.723 27.098 m f
224.055 27.551 m 226.18 27.551 l 226.18 27.41 l 225.602 27.395 225.508 
27.301 225.492 26.801 c 225.492 21.441 l 225.461 21.426 l 225.008 21.566
 224.68 21.66 224.039 21.816 c 224.039 21.957 l 224.086 21.957 l 224.195
 21.957 224.305 21.941 224.367 21.941 c 224.664 21.941 224.742 22.066 224.742
 22.488 c 224.742 26.77 l 224.742 27.254 224.617 27.379 224.055 27.41 c 
h
224.055 27.551 m f
227.762 21.441 m 227.715 21.426 l 227.34 21.551 227.105 21.629 226.668 
21.754 c 226.418 21.816 l 226.418 21.957 l 226.465 21.957 226.496 21.957
 226.559 21.957 c 226.918 21.957 227.012 22.035 227.012 22.41 c 227.012 
27.066 l 227.012 27.348 227.762 27.645 228.48 27.645 c 229.668 27.645 230.59
 26.66 230.59 25.379 c 230.59 24.254 229.902 23.426 229.012 23.426 c 228.465
 23.426 227.934 23.738 227.762 24.191 c h
227.762 24.66 m 227.762 24.316 228.184 23.988 228.652 23.988 c 228.902 
23.988 229.121 24.082 229.309 24.254 c 229.59 24.535 229.793 25.145 229.793
 25.785 c 229.793 26.785 229.371 27.348 228.637 27.348 c 228.168 27.348 
227.762 27.16 227.762 26.926 c h
227.762 24.66 m f
172.934 106.684 m 170.051 107.715 l 172.934 108.746 l 171.781 107.715 l
 f
q 1 0 0 -1 0 0 cm
171.781 -107.715 m 181.387 -107.715 l S Q
184.547 106.965 m 185.172 106.965 l 185.172 109.777 l 185.156 110.465 185.094
 110.559 184.547 110.574 c 184.547 110.715 l 186.562 110.715 l 186.562 110.574
 l 186.062 110.543 185.938 110.434 185.922 110.012 c 185.922 106.965 l 187.609
 106.965 l 187.609 109.965 l 187.609 110.402 187.469 110.559 187.016 110.574
 c 187.016 110.715 l 188.938 110.715 l 188.938 110.574 l 188.453 110.543
 188.359 110.465 188.359 109.996 c 188.359 104.605 l 188.312 104.59 l 188.234
 104.605 188.156 104.637 188.047 104.684 c 187.875 104.762 187.734 104.809
 187.672 104.809 c 187.625 104.809 187.531 104.793 187.391 104.746 c 187.141
 104.637 186.891 104.59 186.656 104.59 c 186.25 104.59 185.828 104.809 185.578
 105.152 c 185.312 105.543 185.219 105.887 185.188 106.684 c 184.547 106.684
 l h
187.609 106.684 m 185.922 106.684 l 185.922 106.215 l 185.906 105.309 186.109
 104.824 186.516 104.824 c 186.703 104.824 186.812 104.902 186.969 105.152
 c 187.141 105.402 187.266 105.48 187.469 105.48 c 187.547 105.48 187.562
 105.465 187.609 105.418 c h
187.609 106.684 m f
192.965 109.246 m 192.543 109.918 192.152 110.184 191.574 110.184 c 191.074
 110.184 190.684 109.918 190.418 109.418 c 190.262 109.074 190.199 108.793
 190.184 108.23 c 192.934 108.23 l 192.871 107.652 192.777 107.387 192.559
 107.105 c 192.293 106.777 191.871 106.59 191.402 106.59 c 190.965 106.59
 190.543 106.746 190.199 107.059 c 189.777 107.418 189.527 108.059 189.527
 108.793 c 189.527 110.027 190.184 110.809 191.215 110.809 c 192.059 110.809
 192.73 110.277 193.105 109.309 c h
190.199 107.949 m 190.293 107.246 190.605 106.918 191.152 106.918 c 191.699
 106.918 191.902 107.168 192.027 107.949 c h
190.199 107.949 m f
195.648 110.715 m 197.445 110.715 l 197.445 110.574 l 197.164 110.574 196.992
 110.434 196.711 110.043 c 195.555 108.277 l 196.305 107.215 l 196.477 106.965
 196.742 106.824 197.039 106.809 c 197.039 106.684 l 195.617 106.684 l 195.617
 106.809 l 195.883 106.824 195.977 106.887 195.977 107.012 c 195.977 107.121
 195.867 107.309 195.648 107.59 c 195.602 107.652 195.492 107.809 195.367
 107.996 c 195.305 107.887 l 195.164 107.668 195.086 107.559 195.07 107.527
 c 194.898 107.246 194.836 107.105 194.836 107.012 c 194.836 106.871 194.945
 106.824 195.227 106.809 c 195.227 106.684 l 193.367 106.684 l 193.367 106.809
 l 193.445 106.809 l 193.711 106.809 193.852 106.934 194.133 107.355 c 194.977
 108.637 l 193.961 110.121 l 193.68 110.496 193.602 110.559 193.305 110.574
 c 193.305 110.715 l 194.602 110.715 l 194.602 110.574 l 194.336 110.574
 194.242 110.543 194.242 110.418 c 194.242 110.355 194.289 110.246 194.43
 110.059 c 195.133 108.949 l 195.945 110.199 l 195.977 110.262 196.008 110.309
 196.008 110.371 c 196.008 110.527 195.945 110.559 195.648 110.574 c h
195.648 110.715 m f
197.727 110.715 m 199.852 110.715 l 199.852 110.574 l 199.258 110.543 199.195
 110.449 199.195 109.793 c 199.195 106.621 l 199.148 106.59 l 197.758 107.09
 l 197.758 107.215 l 197.836 107.215 l 197.945 107.184 198.055 107.184 198.148
 107.184 c 198.352 107.184 198.445 107.324 198.445 107.715 c 198.445 109.793
 l 198.414 110.465 198.336 110.559 197.727 110.574 c h
198.727 104.59 m 198.492 104.59 198.289 104.793 198.289 105.043 c 198.289
 105.309 198.477 105.512 198.727 105.512 c 199.008 105.512 199.195 105.309
 199.195 105.043 c 199.195 104.793 198.992 104.59 198.727 104.59 c h
198.727 104.59 m f
201.48 104.605 m 201.434 104.59 l 201.059 104.715 200.824 104.793 200.387
 104.918 c 200.137 104.98 l 200.137 105.121 l 200.184 105.121 200.215 105.121
 200.277 105.121 c 200.637 105.121 200.73 105.199 200.73 105.574 c 200.73
 110.23 l 200.73 110.512 201.48 110.809 202.199 110.809 c 203.387 110.809
 204.309 109.824 204.309 108.543 c 204.309 107.418 203.621 106.59 202.73
 106.59 c 202.184 106.59 201.652 106.902 201.48 107.355 c h
201.48 107.824 m 201.48 107.48 201.902 107.152 202.371 107.152 c 202.621
 107.152 202.84 107.246 203.027 107.418 c 203.309 107.699 203.512 108.309
 203.512 108.949 c 203.512 109.949 203.09 110.512 202.355 110.512 c 201.887
 110.512 201.48 110.324 201.48 110.09 c h
201.48 107.824 m f
204.734 110.715 m 206.859 110.715 l 206.859 110.574 l 206.281 110.559 206.188
 110.465 206.172 109.965 c 206.172 104.605 l 206.141 104.59 l 205.688 104.73
 205.359 104.824 204.719 104.98 c 204.719 105.121 l 204.766 105.121 l 204.875
 105.121 204.984 105.105 205.047 105.105 c 205.344 105.105 205.422 105.23
 205.422 105.652 c 205.422 109.934 l 205.422 110.418 205.297 110.543 204.734
 110.574 c h
204.734 110.715 m f
210.723 109.246 m 210.301 109.918 209.91 110.184 209.332 110.184 c 208.832
 110.184 208.441 109.918 208.176 109.418 c 208.02 109.074 207.957 108.793
 207.941 108.23 c 210.691 108.23 l 210.629 107.652 210.535 107.387 210.316
 107.105 c 210.051 106.777 209.629 106.59 209.16 106.59 c 208.723 106.59
 208.301 106.746 207.957 107.059 c 207.535 107.418 207.285 108.059 207.285
 108.793 c 207.285 110.027 207.941 110.809 208.973 110.809 c 209.816 110.809
 210.488 110.277 210.863 109.309 c h
207.957 107.949 m 208.051 107.246 208.363 106.918 208.91 106.918 c 209.457
 106.918 209.66 107.168 209.785 107.949 c h
207.957 107.949 m f
215.59 106.684 m 214.684 106.684 l 214.684 105.637 l 214.684 105.543 214.668
 105.527 214.621 105.527 c 214.105 106.277 213.84 106.574 213.574 106.73
 c 213.48 106.793 213.418 106.855 213.418 106.902 c 213.418 106.934 213.434
 106.949 213.465 106.965 c 213.934 106.965 l 213.934 109.668 l 213.934 110.418
 214.199 110.809 214.73 110.809 c 215.168 110.809 215.512 110.59 215.809
 110.121 c 215.699 110.027 l 215.496 110.262 215.355 110.34 215.152 110.34
 c 214.824 110.34 214.684 110.09 214.684 109.527 c 214.684 106.965 l 215.59
 106.965 l h
215.59 106.684 m f
220.125 110.262 m 220.078 110.262 l 219.641 110.246 219.578 110.184 219.562
 109.762 c 219.562 106.684 l 218.156 106.684 l 218.156 106.824 l 218.703
 106.855 218.812 106.949 218.812 107.402 c 218.812 109.512 l 218.812 109.762
 218.766 109.887 218.641 109.98 c 218.406 110.184 218.125 110.277 217.859
 110.277 c 217.5 110.277 217.219 109.98 217.219 109.605 c 217.219 106.684
 l 215.906 106.684 l 215.906 106.809 l 216.328 106.824 216.453 106.949 216.469
 107.371 c 216.469 109.637 l 216.469 110.34 216.891 110.809 217.547 110.809
 c 217.875 110.809 218.234 110.668 218.469 110.418 c 218.859 110.027 l 218.859
 110.777 l 218.891 110.793 l 219.344 110.621 219.672 110.512 220.125 110.387
 c h
220.125 110.262 m f
221.641 104.605 m 221.594 104.59 l 221.219 104.715 220.984 104.793 220.547
 104.918 c 220.297 104.98 l 220.297 105.121 l 220.344 105.121 220.375 105.121
 220.438 105.121 c 220.797 105.121 220.891 105.199 220.891 105.574 c 220.891
 110.23 l 220.891 110.512 221.641 110.809 222.359 110.809 c 223.547 110.809
 224.469 109.824 224.469 108.543 c 224.469 107.418 223.781 106.59 222.891
 106.59 c 222.344 106.59 221.812 106.902 221.641 107.355 c h
221.641 107.824 m 221.641 107.48 222.062 107.152 222.531 107.152 c 222.781
 107.152 223 107.246 223.188 107.418 c 223.469 107.699 223.672 108.309 223.672
 108.949 c 223.672 109.949 223.25 110.512 222.516 110.512 c 222.047 110.512
 221.641 110.324 221.641 110.09 c h
221.641 107.824 m f
228.363 109.246 m 227.941 109.918 227.551 110.184 226.973 110.184 c 226.473
 110.184 226.082 109.918 225.816 109.418 c 225.66 109.074 225.598 108.793
 225.582 108.23 c 228.332 108.23 l 228.27 107.652 228.176 107.387 227.957
 107.105 c 227.691 106.777 227.27 106.59 226.801 106.59 c 226.363 106.59
 225.941 106.746 225.598 107.059 c 225.176 107.418 224.926 108.059 224.926
 108.793 c 224.926 110.027 225.582 110.809 226.613 110.809 c 227.457 110.809
 228.129 110.277 228.504 109.309 c h
225.598 107.949 m 225.691 107.246 226.004 106.918 226.551 106.918 c 227.098
 106.918 227.301 107.168 227.426 107.949 c h
225.598 107.949 m f
Q Q
showpage
%%Trailer
end
%%EOF
