%!PS-Adobe-3.0 EPSF-3.0
%%Creator: cairo 1.17.4 (https://cairographics.org)
%%CreationDate: Thu Feb 24 10:46:58 2022
%%Pages: 1
%%DocumentData: Clean7Bit
%%LanguageLevel: 2
%%BoundingBox: 0 0 202 199
%%EndComments
%%BeginProlog
50 dict begin
/q { gsave } bind def
/Q { grestore } bind def
/cm { 6 array astore concat } bind def
/w { setlinewidth } bind def
/J { setlinecap } bind def
/j { setlinejoin } bind def
/M { setmiterlimit } bind def
/d { setdash } bind def
/m { moveto } bind def
/l { lineto } bind def
/c { curveto } bind def
/h { closepath } bind def
/re { exch dup neg 3 1 roll 5 3 roll moveto 0 rlineto
      0 exch rlineto 0 rlineto closepath } bind def
/S { stroke } bind def
/f { fill } bind def
/f* { eofill } bind def
/n { newpath } bind def
/W { clip } bind def
/W* { eoclip } bind def
/BT { } bind def
/ET { } bind def
/BDC { mark 3 1 roll /BDC pdfmark } bind def
/EMC { mark /EMC pdfmark } bind def
/cairo_store_point { /cairo_point_y exch def /cairo_point_x exch def } def
/Tj { show currentpoint cairo_store_point } bind def
/TJ {
  {
    dup
    type /stringtype eq
    { show } { -0.001 mul 0 cairo_font_matrix dtransform rmoveto } ifelse
  } forall
  currentpoint cairo_store_point
} bind def
/cairo_selectfont { cairo_font_matrix aload pop pop pop 0 0 6 array astore
    cairo_font exch selectfont cairo_point_x cairo_point_y moveto } bind def
/Tf { pop /cairo_font exch def /cairo_font_matrix where
      { pop cairo_selectfont } if } bind def
/Td { matrix translate cairo_font_matrix matrix concatmatrix dup
      /cairo_font_matrix exch def dup 4 get exch 5 get cairo_store_point
      /cairo_font where { pop cairo_selectfont } if } bind def
/Tm { 2 copy 8 2 roll 6 array astore /cairo_font_matrix exch def
      cairo_store_point /cairo_font where { pop cairo_selectfont } if } bind def
/g { setgray } bind def
/rg { setrgbcolor } bind def
/d1 { setcachedevice } bind def
/cairo_data_source {
  CairoDataIndex CairoData length lt
    { CairoData CairoDataIndex get /CairoDataIndex CairoDataIndex 1 add def }
    { () } ifelse
} def
/cairo_flush_ascii85_file { cairo_ascii85_file status { cairo_ascii85_file flushfile } if } def
/cairo_image { image cairo_flush_ascii85_file } def
/cairo_imagemask { imagemask cairo_flush_ascii85_file } def
%%EndProlog
%%BeginSetup
%%EndSetup
%%Page: 1 1
%%BeginPageSetup
%%PageBoundingBox: 0 0 202 199
%%EndPageSetup
q 0 0 202 199 rectclip
1 0 0 -1 0 199 cm q
0 g
1.13366 w
0 J
0 j
[] 0.0 d
10 M q 1 0 0 -1 0 0 cm
28.539 -32.602 m 198.637 -157.152 l S Q
1 g
59.656 53.742 m 59.656 52.566 58.703 51.613 57.527 51.613 c 56.352 51.613
 55.398 52.566 55.398 53.742 c 55.398 54.918 56.352 55.871 57.527 55.871
 c 58.703 55.871 59.656 54.918 59.656 53.742 c f
0 g
59.656 53.742 m 59.656 52.566 58.703 51.613 57.527 51.613 c 56.352 51.613
 55.398 52.566 55.398 53.742 c 55.398 54.918 56.352 55.871 57.527 55.871
 c 58.703 55.871 59.656 54.918 59.656 53.742 c h
59.656 53.742 m 59.445 53.742 l 59.445 52.684 58.586 51.824 57.527 51.824
 c 56.469 51.824 55.609 52.684 55.609 53.742 c 55.609 54.801 56.469 55.66
 57.527 55.66 c 58.586 55.66 59.445 54.801 59.445 53.742 c f
1 g
68.098 60.094 m 68.098 58.918 67.145 57.965 65.969 57.965 c 64.793 57.965
 63.84 58.918 63.84 60.094 c 63.84 61.27 64.793 62.223 65.969 62.223 c 67.145
 62.223 68.098 61.27 68.098 60.094 c f
0 g
68.098 60.094 m 68.098 58.918 67.145 57.965 65.969 57.965 c 64.793 57.965
 63.84 58.918 63.84 60.094 c 63.84 61.27 64.793 62.223 65.969 62.223 c 67.145
 62.223 68.098 61.27 68.098 60.094 c h
68.098 60.094 m 67.887 60.094 l 67.887 59.035 67.027 58.176 65.969 58.176
 c 64.91 58.176 64.051 59.035 64.051 60.094 c 64.051 61.152 64.91 62.012
 65.969 62.012 c 67.027 62.012 67.887 61.152 67.887 60.094 c f
1 g
75.547 65.543 m 75.547 64.367 74.594 63.414 73.418 63.414 c 72.242 63.414
 71.289 64.367 71.289 65.543 c 71.289 66.719 72.242 67.672 73.418 67.672
 c 74.594 67.672 75.547 66.719 75.547 65.543 c f
0 g
75.547 65.543 m 75.547 64.367 74.594 63.414 73.418 63.414 c 72.242 63.414
 71.289 64.367 71.289 65.543 c 71.289 66.719 72.242 67.672 73.418 67.672
 c 74.594 67.672 75.547 66.719 75.547 65.543 c h
75.547 65.543 m 75.336 65.543 l 75.336 64.484 74.477 63.625 73.418 63.625
 c 72.359 63.625 71.5 64.484 71.5 65.543 c 71.5 66.602 72.359 67.461 73.418
 67.461 c 74.477 67.461 75.336 66.602 75.336 65.543 c f
1 g
84.656 72.172 m 84.656 70.996 83.703 70.043 82.527 70.043 c 81.352 70.043
 80.398 70.996 80.398 72.172 c 80.398 73.348 81.352 74.301 82.527 74.301
 c 83.703 74.301 84.656 73.348 84.656 72.172 c f
0 g
84.656 72.172 m 84.656 70.996 83.703 70.043 82.527 70.043 c 81.352 70.043
 80.398 70.996 80.398 72.172 c 80.398 73.348 81.352 74.301 82.527 74.301
 c 83.703 74.301 84.656 73.348 84.656 72.172 c h
84.656 72.172 m 84.445 72.172 l 84.445 71.113 83.586 70.254 82.527 70.254
 c 81.469 70.254 80.609 71.113 80.609 72.172 c 80.609 73.23 81.469 74.09
 82.527 74.09 c 83.586 74.09 84.445 73.23 84.445 72.172 c f
1 g
100.328 83.562 m 100.328 82.387 99.375 81.434 98.199 81.434 c 97.023 81.434
 96.07 82.387 96.07 83.562 c 96.07 84.738 97.023 85.691 98.199 85.691 c 
99.375 85.691 100.328 84.738 100.328 83.562 c f
0 g
100.328 83.562 m 100.328 82.387 99.375 81.434 98.199 81.434 c 97.023 81.434
 96.07 82.387 96.07 83.562 c 96.07 84.738 97.023 85.691 98.199 85.691 c 
99.375 85.691 100.328 84.738 100.328 83.562 c h
100.328 83.562 m 100.117 83.562 l 100.117 82.504 99.258 81.645 98.199 81.645
 c 97.141 81.645 96.281 82.504 96.281 83.562 c 96.281 84.621 97.141 85.48
 98.199 85.48 c 99.258 85.48 100.117 84.621 100.117 83.562 c f
1 g
110.559 91.102 m 110.559 89.926 109.605 88.973 108.43 88.973 c 107.254 
88.973 106.301 89.926 106.301 91.102 c 106.301 92.277 107.254 93.23 108.43
 93.23 c 109.605 93.23 110.559 92.277 110.559 91.102 c f
0 g
110.559 91.102 m 110.559 89.926 109.605 88.973 108.43 88.973 c 107.254 
88.973 106.301 89.926 106.301 91.102 c 106.301 92.277 107.254 93.23 108.43
 93.23 c 109.605 93.23 110.559 92.277 110.559 91.102 c h
110.559 91.102 m 110.348 91.102 l 110.348 90.043 109.488 89.184 108.43 
89.184 c 107.371 89.184 106.512 90.043 106.512 91.102 c 106.512 92.16 107.371
 93.02 108.43 93.02 c 109.488 93.02 110.348 92.16 110.348 91.102 c f
1 g
127.508 103.523 m 127.508 102.348 126.555 101.395 125.379 101.395 c 124.203
 101.395 123.25 102.348 123.25 103.523 c 123.25 104.699 124.203 105.652 
125.379 105.652 c 126.555 105.652 127.508 104.699 127.508 103.523 c f
0 g
127.508 103.523 m 127.508 102.348 126.555 101.395 125.379 101.395 c 124.203
 101.395 123.25 102.348 123.25 103.523 c 123.25 104.699 124.203 105.652 
125.379 105.652 c 126.555 105.652 127.508 104.699 127.508 103.523 c h
127.508 103.523 m 127.297 103.523 l 127.297 102.465 126.438 101.605 125.379
 101.605 c 124.32 101.605 123.461 102.465 123.461 103.523 c 123.461 104.582
 124.32 105.441 125.379 105.441 c 126.438 105.441 127.297 104.582 127.297
 103.523 c f
1 g
132.766 107.262 m 132.766 106.086 131.812 105.133 130.637 105.133 c 129.461
 105.133 128.508 106.086 128.508 107.262 c 128.508 108.438 129.461 109.391
 130.637 109.391 c 131.812 109.391 132.766 108.438 132.766 107.262 c f
0 g
132.766 107.262 m 132.766 106.086 131.812 105.133 130.637 105.133 c 129.461
 105.133 128.508 106.086 128.508 107.262 c 128.508 108.438 129.461 109.391
 130.637 109.391 c 131.812 109.391 132.766 108.438 132.766 107.262 c h
132.766 107.262 m 132.555 107.262 l 132.555 106.203 131.695 105.344 130.637
 105.344 c 129.578 105.344 128.719 106.203 128.719 107.262 c 128.719 108.32
 129.578 109.18 130.637 109.18 c 131.695 109.18 132.555 108.32 132.555 107.262
 c f
1 g
147.957 118.434 m 147.957 117.258 147.004 116.305 145.828 116.305 c 144.652
 116.305 143.699 117.258 143.699 118.434 c 143.699 119.609 144.652 120.562
 145.828 120.562 c 147.004 120.562 147.957 119.609 147.957 118.434 c f
0 g
147.957 118.434 m 147.957 117.258 147.004 116.305 145.828 116.305 c 144.652
 116.305 143.699 117.258 143.699 118.434 c 143.699 119.609 144.652 120.562
 145.828 120.562 c 147.004 120.562 147.957 119.609 147.957 118.434 c h
147.957 118.434 m 147.746 118.434 l 147.746 117.375 146.887 116.516 145.828
 116.516 c 144.77 116.516 143.91 117.375 143.91 118.434 c 143.91 119.492
 144.77 120.352 145.828 120.352 c 146.887 120.352 147.746 119.492 147.746
 118.434 c f
1 g
161.398 128.352 m 161.398 127.176 160.445 126.223 159.27 126.223 c 158.094
 126.223 157.141 127.176 157.141 128.352 c 157.141 129.527 158.094 130.48
 159.27 130.48 c 160.445 130.48 161.398 129.527 161.398 128.352 c f
0 g
161.398 128.352 m 161.398 127.176 160.445 126.223 159.27 126.223 c 158.094
 126.223 157.141 127.176 157.141 128.352 c 157.141 129.527 158.094 130.48
 159.27 130.48 c 160.445 130.48 161.398 129.527 161.398 128.352 c h
161.398 128.352 m 161.188 128.352 l 161.188 127.293 160.328 126.434 159.27
 126.434 c 158.211 126.434 157.352 127.293 157.352 128.352 c 157.352 129.41
 158.211 130.27 159.27 130.27 c 160.328 130.27 161.188 129.41 161.188 128.352
 c f
1 g
177.277 139.922 m 177.277 138.746 176.324 137.793 175.148 137.793 c 173.973
 137.793 173.02 138.746 173.02 139.922 c 173.02 141.098 173.973 142.051 
175.148 142.051 c 176.324 142.051 177.277 141.098 177.277 139.922 c f
0 g
177.277 139.922 m 177.277 138.746 176.324 137.793 175.148 137.793 c 173.973
 137.793 173.02 138.746 173.02 139.922 c 173.02 141.098 173.973 142.051 
175.148 142.051 c 176.324 142.051 177.277 141.098 177.277 139.922 c h
177.277 139.922 m 177.066 139.922 l 177.066 138.863 176.207 138.004 175.148
 138.004 c 174.09 138.004 173.23 138.863 173.23 139.922 c 173.23 140.98 
174.09 141.84 175.148 141.84 c 176.207 141.84 177.066 140.98 177.066 139.922
 c f
0.567043 w
q 1 0 0 -1 0 0 cm
28.531 -3.07 170.086 -170.086 re S Q
0.398505 w
q 1 0 0 -1 0 0 cm
28.547 -173.145 m 28.547 -168.891 l S Q
q 1 0 0 -1 0 0 cm
56.898 -173.145 m 56.898 -168.891 l S Q
q 1 0 0 -1 0 0 cm
85.25 -173.145 m 85.25 -168.891 l S Q
q 1 0 0 -1 0 0 cm
113.602 -173.145 m 113.602 -168.891 l S Q
q 1 0 0 -1 0 0 cm
141.918 -173.145 m 141.918 -168.891 l S Q
q 1 0 0 -1 0 0 cm
170.27 -173.145 m 170.27 -168.891 l S Q
q 1 0 0 -1 0 0 cm
198.621 -173.145 m 198.621 -168.891 l S Q
q 1 0 0 -1 0 0 cm
28.547 -173.145 m 28.547 -168.891 l S Q
0.398507 w
q 1 0 0 -1 0 0 cm
28.547 -173.145 m 32.797 -173.145 l S Q
0.398504 w
q 1 0 0 -1 0 0 cm
28.559 -116.453 m 32.785 -116.453 l S Q
0.398508 w
q 1 0 0 -1 0 0 cm
28.535 -59.746 m 32.805 -59.746 l S Q
0.398505 w
q 1 0 0 -1 0 0 cm
28.547 -3.055 m 32.789 -3.055 l S Q
0.398507 w
q 1 0 0 -1 0 0 cm
28.547 -173.145 m 32.797 -173.145 l S Q
0.398504 w
q 1 0 0 -1 0 0 cm
28.531 -3.07 m 28.531 -7.309 l S Q
q 1 0 0 -1 0 0 cm
56.902 -3.07 m 56.902 -7.309 l S Q
q 1 0 0 -1 0 0 cm
85.238 -3.07 m 85.238 -7.309 l S Q
q 1 0 0 -1 0 0 cm
113.574 -3.07 m 113.574 -7.309 l S Q
q 1 0 0 -1 0 0 cm
141.91 -3.07 m 141.91 -7.309 l S Q
q 1 0 0 -1 0 0 cm
170.281 -3.07 m 170.281 -7.309 l S Q
q 1 0 0 -1 0 0 cm
198.617 -3.07 m 198.617 -7.309 l S Q
q 1 0 0 -1 0 0 cm
28.531 -3.07 m 28.531 -7.309 l S Q
0.398507 w
q 1 0 0 -1 0 0 cm
198.621 -173.145 m 194.371 -173.145 l S Q
0.398504 w
q 1 0 0 -1 0 0 cm
198.617 -116.453 m 194.355 -116.453 l S Q
0.398508 w
q 1 0 0 -1 0 0 cm
198.641 -59.746 m 194.375 -59.746 l S Q
0.398505 w
q 1 0 0 -1 0 0 cm
198.633 -3.055 m 194.391 -3.055 l S Q
0.398507 w
q 1 0 0 -1 0 0 cm
198.621 -173.145 m 194.371 -173.145 l S Q
30.504 179.668 m 30.504 178.059 29.77 176.605 28.52 176.605 c 27.254 176.605
 26.52 178.059 26.52 179.668 c 26.52 181.293 27.207 182.73 28.52 182.73 
c 29.723 182.73 30.504 181.293 30.504 179.668 c h
29.645 179.668 m 29.645 180.965 29.52 182.48 28.52 182.48 c 27.566 182.48
 27.379 180.965 27.379 179.668 c 27.379 178.59 27.504 176.84 28.52 176.84
 c 29.52 176.84 29.645 178.59 29.645 179.668 c h
29.645 179.668 m f
58.191 182.621 m 58.191 182.48 l 57.598 182.48 57.379 182.496 57.379 181.324
 c 57.379 181.309 57.379 176.574 57.379 176.574 c 57.254 176.574 l 55.723
 177.309 l 55.77 177.449 l 56.098 177.309 56.176 177.277 56.301 177.277 
c 56.566 177.277 56.613 177.512 56.613 177.824 c 56.613 181.324 l 56.613
 182.496 56.395 182.465 55.801 182.48 c 55.801 182.621 l h
58.191 182.621 m f
87.293 181.465 m 87.137 181.434 l 86.871 181.887 86.652 181.965 86.215 
181.965 c 84.152 181.965 l 85.574 180.668 86.871 179.496 86.871 178.184 
c 86.871 177.262 86.074 176.605 85.199 176.605 c 84.34 176.605 83.652 177.074
 83.387 178.293 c 83.59 178.293 l 83.84 177.793 84.184 177.277 84.871 177.277
 c 85.652 177.277 86.09 177.871 86.09 178.543 c 86.09 179.512 85.059 180.934
 83.293 182.48 c 83.293 182.621 l 86.824 182.621 l h
87.293 181.465 m f
115.238 180.684 m 115.238 179.746 114.691 179.34 114.16 179.121 c 114.738
 178.684 114.926 178.277 114.926 177.793 c 114.926 177.277 114.504 176.605
 113.535 176.605 c 112.832 176.605 112.16 176.996 111.863 177.965 c 112.004
 177.996 l 112.191 177.637 112.551 177.184 113.207 177.184 c 113.848 177.184
 114.223 177.621 114.223 178.121 c 114.223 178.824 113.676 179.324 112.863
 179.512 c 112.848 179.699 l 114.238 179.637 114.582 180.543 114.582 181.105
 c 114.582 181.777 114.098 182.387 113.457 182.387 c 112.879 182.387 112.629
 181.887 112.145 181.887 c 111.988 181.887 111.801 182.043 111.801 182.246
 c 111.801 182.621 112.363 182.73 112.77 182.73 c 114.191 182.73 115.238
 181.918 115.238 180.684 c h
115.238 180.684 m f
143.918 181.137 m 143.918 180.527 l 143.043 180.527 l 143.043 176.605 l
 142.605 176.605 l 140.012 180.512 l 140.012 181.137 l 142.309 181.137 l
 142.309 182.621 l 143.043 182.621 l 143.043 181.137 l h
142.309 180.527 m 140.371 180.527 l 142.293 177.543 l 142.309 177.543 l
 h
142.309 180.527 m f
172.281 176.699 m 169.812 176.699 l 168.703 179.246 l 168.844 179.215 168.984
 179.184 169.156 179.184 c 170.109 179.184 171.406 179.684 171.406 180.855
 c 171.406 181.762 170.75 182.34 170.125 182.34 c 169.578 182.34 169.375
 181.84 168.859 181.84 c 168.609 181.84 168.531 182.059 168.531 182.168 
c 168.531 182.48 168.969 182.73 169.594 182.73 c 170.938 182.73 172 181.746
 172 180.543 c 172 179.121 170.875 178.637 169.656 178.605 c 169.547 178.605
 169.422 178.621 169.312 178.637 c 169.875 177.371 l 171.969 177.355 l h
172.281 176.699 m f
200.613 180.605 m 200.613 179.621 199.91 178.887 199.02 178.887 c 198.566
 178.887 198.191 179.027 197.801 179.34 c 198.191 177.746 199.363 176.746
 200.488 176.73 c 200.488 176.574 l 197.723 176.574 196.848 178.918 196.848
 180.246 c 196.848 181.668 197.676 182.73 198.785 182.73 c 199.801 182.73
 200.613 181.777 200.613 180.605 c h
199.848 181.059 m 199.848 181.887 199.473 182.465 198.879 182.465 c 197.957
 182.465 197.676 181.121 197.676 180.402 c 197.676 180.168 197.707 179.918
 197.754 179.621 c 198.145 179.371 198.457 179.262 198.77 179.262 c 199.676
 179.262 199.848 180.309 199.848 181.059 c h
199.848 181.059 m f
17.695 175.105 m 17.539 175.074 l 17.273 175.527 17.055 175.605 16.617 
175.605 c 14.555 175.605 l 15.977 174.309 17.273 173.137 17.273 171.824 
c 17.273 170.902 16.477 170.246 15.602 170.246 c 14.742 170.246 14.055 170.715
 13.789 171.934 c 13.992 171.934 l 14.242 171.434 14.586 170.918 15.273 
170.918 c 16.055 170.918 16.492 171.512 16.492 172.184 c 16.492 173.152 
15.461 174.574 13.695 176.121 c 13.695 176.262 l 17.227 176.262 l h
17.695 175.105 m f
19.945 175.887 m 19.945 175.605 19.727 175.387 19.445 175.387 c 19.164 
175.387 18.945 175.605 18.945 175.887 c 18.945 176.168 19.164 176.387 19.445
 176.387 c 19.727 176.387 19.945 176.168 19.945 175.887 c h
19.945 175.887 m f
24.801 170.34 m 22.332 170.34 l 21.223 172.887 l 21.363 172.855 21.504 
172.824 21.676 172.824 c 22.629 172.824 23.926 173.324 23.926 174.496 c 
23.926 175.402 23.27 175.98 22.645 175.98 c 22.098 175.98 21.895 175.48 
21.379 175.48 c 21.129 175.48 21.051 175.699 21.051 175.809 c 21.051 176.121
 21.488 176.371 22.113 176.371 c 23.457 176.371 24.52 175.387 24.52 174.184
 c 24.52 172.762 23.395 172.277 22.176 172.246 c 22.066 172.246 21.941 172.262
 21.832 172.277 c 22.395 171.012 l 24.488 170.996 l h
24.801 170.34 m f
17.695 118.348 m 17.539 118.316 l 17.273 118.77 17.055 118.848 16.617 118.848
 c 14.555 118.848 l 15.977 117.551 17.273 116.379 17.273 115.066 c 17.273
 114.145 16.477 113.488 15.602 113.488 c 14.742 113.488 14.055 113.957 13.789
 115.176 c 13.992 115.176 l 14.242 114.676 14.586 114.16 15.273 114.16 c
 16.055 114.16 16.492 114.754 16.492 115.426 c 16.492 116.395 15.461 117.816
 13.695 119.363 c 13.695 119.504 l 17.227 119.504 l h
17.695 118.348 m f
19.945 119.129 m 19.945 118.848 19.727 118.629 19.445 118.629 c 19.164 
118.629 18.945 118.848 18.945 119.129 c 18.945 119.41 19.164 119.629 19.445
 119.629 c 19.727 119.629 19.945 119.41 19.945 119.129 c h
19.945 119.129 m f
24.816 117.488 m 24.816 116.504 24.113 115.77 23.223 115.77 c 22.77 115.77
 22.395 115.91 22.004 116.223 c 22.395 114.629 23.566 113.629 24.691 113.613
 c 24.691 113.457 l 21.926 113.457 21.051 115.801 21.051 117.129 c 21.051
 118.551 21.879 119.613 22.988 119.613 c 24.004 119.613 24.816 118.66 24.816
 117.488 c h
24.051 117.941 m 24.051 118.77 23.676 119.348 23.082 119.348 c 22.16 119.348
 21.879 118.004 21.879 117.285 c 21.879 117.051 21.91 116.801 21.957 116.504
 c 22.348 116.254 22.66 116.145 22.973 116.145 c 23.879 116.145 24.051 117.191
 24.051 117.941 c h
24.051 117.941 m f
17.695 61.707 m 17.539 61.676 l 17.273 62.129 17.055 62.207 16.617 62.207
 c 14.555 62.207 l 15.977 60.91 17.273 59.738 17.273 58.426 c 17.273 57.504
 16.477 56.848 15.602 56.848 c 14.742 56.848 14.055 57.316 13.789 58.535
 c 13.992 58.535 l 14.242 58.035 14.586 57.52 15.273 57.52 c 16.055 57.52
 16.492 58.113 16.492 58.785 c 16.492 59.754 15.461 61.176 13.695 62.723
 c 13.695 62.863 l 17.227 62.863 l h
17.695 61.707 m f
19.945 62.488 m 19.945 62.207 19.727 61.988 19.445 61.988 c 19.164 61.988
 18.945 62.207 18.945 62.488 c 18.945 62.77 19.164 62.988 19.445 62.988 
c 19.727 62.988 19.945 62.77 19.945 62.488 c h
19.945 62.488 m f
24.738 56.941 m 21.457 56.941 l 20.91 58.27 l 21.066 58.27 l 21.379 57.785
 21.613 57.613 22.129 57.613 c 24.02 57.613 l 22.223 62.973 l 22.77 62.973
 l h
24.738 56.941 m f
q 1 0 0 -1 0 0 cm
28.547 -173.145 m 31.379 -173.145 l S Q
0.398504 w
q 1 0 0 -1 0 0 cm
28.551 -144.797 m 31.367 -144.797 l S Q
q 1 0 0 -1 0 0 cm
28.559 -116.453 m 31.387 -116.453 l S Q
0.398505 w
q 1 0 0 -1 0 0 cm
28.551 -88.09 m 31.395 -88.09 l S Q
0.398508 w
q 1 0 0 -1 0 0 cm
28.535 -59.746 m 31.391 -59.746 l S Q
q 1 0 0 -1 0 0 cm
28.566 -31.398 m 31.367 -31.398 l S Q
0.398505 w
q 1 0 0 -1 0 0 cm
28.547 -3.055 m 31.398 -3.055 l S Q
0.398507 w
q 1 0 0 -1 0 0 cm
28.547 -173.145 m 31.379 -173.145 l S Q
q 1 0 0 -1 0 0 cm
198.723 -173.145 m 201.555 -173.145 l S Q
0.398504 w
q 1 0 0 -1 0 0 cm
198.691 -144.797 m 201.539 -144.797 l S Q
q 1 0 0 -1 0 0 cm
198.719 -116.453 m 201.547 -116.453 l S Q
0.398505 w
q 1 0 0 -1 0 0 cm
198.723 -88.09 m 201.566 -88.09 l S Q
0.398508 w
q 1 0 0 -1 0 0 cm
198.711 -59.746 m 201.531 -59.746 l S Q
q 1 0 0 -1 0 0 cm
198.703 -31.398 m 201.539 -31.398 l S Q
0.398505 w
q 1 0 0 -1 0 0 cm
198.703 -3.055 m 201.555 -3.055 l S Q
0.398507 w
q 1 0 0 -1 0 0 cm
198.723 -173.145 m 201.555 -173.145 l S Q
18.293 4.828 m 18.168 4.781 l 17.84 5.312 17.746 5.375 17.324 5.375 c 15.168
 5.375 l 16.684 3.797 l 17.48 2.969 17.824 2.281 17.824 1.594 c 17.824 0.688
 17.105 0 16.168 0 c 15.684 0 15.215 0.203 14.887 0.562 c 14.59 0.859 14.465
 1.141 14.309 1.781 c 14.496 1.828 l 14.855 0.953 15.168 0.656 15.793 0.656
 c 16.559 0.656 17.059 1.172 17.059 1.922 c 17.059 2.641 16.652 3.469 15.887
 4.266 c 14.293 5.953 l 14.293 6.062 l 17.793 6.062 l h
18.293 4.828 m f
19.594 5.172 m 19.328 5.172 19.094 5.391 19.094 5.672 c 19.094 5.938 19.328
 6.156 19.578 6.156 c 19.859 6.156 20.094 5.953 20.094 5.672 c 20.094 5.406
 19.859 5.172 19.594 5.172 c h
19.594 5.172 m f
23.34 2.734 m 24.246 2.25 24.543 1.891 24.543 1.266 c 24.543 0.531 23.918
 0 23.012 0 c 22.027 0 21.309 0.594 21.309 1.422 c 21.309 2 21.465 2.266
 22.418 3.078 c 21.434 3.828 21.246 4.094 21.246 4.703 c 21.246 5.594 21.949
 6.188 22.965 6.188 c 24.043 6.188 24.73 5.594 24.73 4.672 c 24.73 3.984
 24.434 3.547 23.34 2.734 c h
23.184 3.656 m 23.84 4.125 24.059 4.453 24.059 4.953 c 24.059 5.531 23.652
 5.938 23.074 5.938 c 22.387 5.938 21.934 5.422 21.934 4.641 c 21.934 4.062
 22.121 3.688 22.652 3.266 c h
23.09 2.578 m 22.293 2.047 21.965 1.641 21.965 1.141 c 21.965 0.625 22.371
 0.25 22.934 0.25 c 23.543 0.25 23.934 0.641 23.934 1.266 c 23.934 1.812
 23.699 2.172 23.09 2.578 c h
23.09 2.578 m f
76.59 198.105 m 76.59 197.949 l 75.496 197.309 74.996 196.043 74.996 193.918
 c 74.996 191.809 75.496 190.574 76.59 189.902 c 76.59 189.746 l 75.043 
190.543 74.137 192.074 74.137 193.918 c 74.137 195.793 75.012 197.246 76.59
 198.105 c h
76.59 198.105 m f
80.23 196.184 m 80.23 196.043 l 79.637 196.043 79.418 196.059 79.418 194.887
 c 79.418 194.871 79.418 190.137 79.418 190.137 c 79.293 190.137 l 77.762
 190.871 l 77.809 191.012 l 78.137 190.871 78.215 190.84 78.34 190.84 c 
78.605 190.84 78.652 191.074 78.652 191.387 c 78.652 194.887 l 78.652 196.059
 78.434 196.027 77.84 196.043 c 77.84 196.184 l h
80.23 196.184 m f
85.094 189.746 m 84.656 189.746 l 81.547 198.105 l 82 198.105 l h
85.094 189.746 m f
92.836 190.277 m 92.836 190.137 l 91.117 190.137 l 91.117 190.277 l 91.305
 190.277 91.617 190.355 91.617 190.605 c 91.617 190.824 91.398 191.184 91.273
 191.371 c 88.883 194.887 l 88.711 190.965 l 88.68 190.402 88.992 190.277
 89.477 190.277 c 89.477 190.137 l 87.164 190.137 l 87.164 190.277 l 87.773
 190.277 87.82 190.559 87.898 191.293 c 88.102 196.324 l 88.258 196.324 
l 91.883 190.996 l 92.055 190.777 92.445 190.277 92.836 190.277 c h
92.836 190.277 m f
91.617 198.461 m 93.164 198.461 l 93.164 198.352 l 92.805 198.352 92.695
 198.273 92.695 197.992 c 92.695 196.023 l 92.695 196.008 92.742 195.945
 92.805 195.898 c 92.977 195.742 93.273 195.617 93.508 195.617 c 93.82 195.617
 93.977 195.867 93.977 196.352 c 93.977 197.867 l 93.961 198.258 93.898 
198.336 93.508 198.352 c 93.508 198.461 l 95.055 198.461 l 95.055 198.352
 l 94.664 198.352 94.57 198.242 94.555 197.805 c 94.555 196.039 l 94.773
 195.742 94.992 195.617 95.32 195.617 c 95.711 195.617 95.836 195.805 95.836
 196.383 c 95.836 197.852 l 95.836 198.273 95.789 198.32 95.383 198.352 
c 95.383 198.461 l 96.914 198.461 l 96.914 198.352 l 96.727 198.336 l 96.508
 198.305 96.43 198.195 96.43 197.93 c 96.43 196.492 l 96.43 195.68 96.148
 195.258 95.617 195.258 c 95.211 195.258 94.867 195.43 94.477 195.836 c 
94.352 195.445 94.117 195.258 93.742 195.258 c 93.43 195.258 93.242 195.352
 92.664 195.789 c 92.664 195.273 l 92.617 195.258 l 92.242 195.383 92.008
 195.461 91.633 195.57 c 91.633 195.68 l 91.727 195.664 91.789 195.664 91.867
 195.664 c 92.039 195.664 92.102 195.773 92.102 196.102 c 92.102 197.867
 l 92.086 198.258 92.008 198.352 91.617 198.352 c h
91.617 198.461 m f
100.102 193.934 m 100.102 192.074 99.227 190.621 97.648 189.746 c 97.648
 189.918 l 98.742 190.559 99.242 191.809 99.242 193.934 c 99.242 196.043
 98.742 197.293 97.648 197.949 c 97.648 198.105 l 99.195 197.324 100.102
 195.793 100.102 193.934 c h
100.102 193.934 m f
106.215 189.746 m 105.777 189.746 l 102.668 198.105 l 103.121 198.105 l
 h
106.215 189.746 m f
109.633 196.184 m 109.633 196.043 l 109.039 196.043 108.82 196.059 108.82
 194.887 c 108.82 194.871 108.82 190.137 108.82 190.137 c 108.695 190.137
 l 107.164 190.871 l 107.211 191.012 l 107.539 190.871 107.617 190.84 107.742
 190.84 c 108.008 190.84 108.055 191.074 108.055 191.387 c 108.055 194.887
 l 108.055 196.059 107.836 196.027 107.242 196.043 c 107.242 196.184 l h
109.633 196.184 m f
114.82 193.23 m 114.82 191.621 114.086 190.168 112.836 190.168 c 111.57
 190.168 110.836 191.621 110.836 193.23 c 110.836 194.855 111.523 196.293
 112.836 196.293 c 114.039 196.293 114.82 194.855 114.82 193.23 c h
113.961 193.23 m 113.961 194.527 113.836 196.043 112.836 196.043 c 111.883
 196.043 111.695 194.527 111.695 193.23 c 111.695 192.152 111.82 190.402
 112.836 190.402 c 113.836 190.402 113.961 192.152 113.961 193.23 c h
113.961 193.23 m f
118.84 191.973 m 118.621 191.941 l 118.387 192.301 118.199 192.363 117.855
 192.363 c 116.199 192.363 l 117.387 191.379 118.449 190.488 118.449 189.52
 c 118.449 188.785 117.746 188.27 116.98 188.27 c 116.215 188.27 115.605
 188.629 115.371 189.645 c 115.621 189.645 l 115.84 189.254 116.121 188.863
 116.699 188.863 c 117.34 188.863 117.699 189.285 117.699 189.785 c 117.699
 190.52 116.809 191.582 115.293 192.77 c 115.293 192.941 l 118.387 192.941
 l h
118.84 191.973 m f
121.406 196.184 m 123.406 196.184 l 123.406 196.043 l 122.938 196.043 122.797
 195.949 122.797 195.59 c 122.797 193.059 l 122.797 193.043 122.859 192.949
 122.922 192.887 c 123.156 192.684 123.531 192.527 123.844 192.527 c 124.25
 192.527 124.438 192.84 124.438 193.465 c 124.438 195.418 l 124.422 195.918
 124.328 196.027 123.828 196.043 c 123.828 196.184 l 125.844 196.184 l 125.844
 196.043 l 125.344 196.043 125.219 195.902 125.188 195.324 c 125.188 193.074
 l 125.469 192.684 125.75 192.527 126.172 192.527 c 126.688 192.527 126.844
 192.762 126.844 193.512 c 126.844 195.402 l 126.828 195.934 126.766 195.996
 126.25 196.043 c 126.25 196.184 l 128.219 196.184 l 128.219 196.043 l 127.984
 196.027 l 127.703 195.98 127.594 195.855 127.594 195.496 c 127.594 193.652
 l 127.594 192.59 127.25 192.059 126.562 192.059 c 126.031 192.059 125.578
 192.293 125.094 192.809 c 124.938 192.293 124.625 192.059 124.141 192.059
 c 123.734 192.059 123.5 192.168 122.75 192.746 c 122.75 192.074 l 122.688
 192.059 l 122.219 192.23 121.906 192.324 121.438 192.465 c 121.438 192.621
 l 121.547 192.59 121.625 192.574 121.719 192.574 c 121.953 192.574 122.031
 192.715 122.031 193.152 c 122.031 195.418 l 122.016 195.918 121.906 196.043
 121.406 196.043 c h
121.406 196.184 m f
130.477 192.059 m 129.289 192.059 128.492 192.918 128.492 194.152 c 128.492
 195.371 129.32 196.277 130.445 196.277 c 131.586 196.277 132.445 195.324
 132.445 194.09 c 132.445 192.902 131.617 192.059 130.477 192.059 c h
130.352 192.309 m 131.102 192.309 131.633 193.168 131.633 194.402 c 131.633
 195.418 131.227 196.027 130.555 196.027 c 130.211 196.027 129.883 195.809
 129.695 195.449 c 129.43 194.98 129.289 194.355 129.289 193.715 c 129.289
 192.871 129.711 192.309 130.352 192.309 c h
130.352 192.309 m f
132.855 196.184 m 134.98 196.184 l 134.98 196.043 l 134.402 196.027 134.309
 195.934 134.293 195.434 c 134.293 190.074 l 134.262 190.059 l 133.809 190.199
 133.48 190.293 132.84 190.449 c 132.84 190.59 l 132.887 190.59 l 132.996
 190.59 133.105 190.574 133.168 190.574 c 133.465 190.574 133.543 190.699
 133.543 191.121 c 133.543 195.402 l 133.543 195.887 133.418 196.012 132.855
 196.043 c h
132.855 196.184 m f
136.887 196.184 m 138.887 196.184 l 138.887 196.043 l 138.418 196.043 138.277
 195.949 138.277 195.59 c 138.277 193.059 l 138.277 193.043 138.34 192.949
 138.402 192.887 c 138.637 192.684 139.012 192.527 139.324 192.527 c 139.73
 192.527 139.918 192.84 139.918 193.465 c 139.918 195.418 l 139.902 195.918
 139.809 196.027 139.309 196.043 c 139.309 196.184 l 141.324 196.184 l 141.324
 196.043 l 140.824 196.043 140.699 195.902 140.668 195.324 c 140.668 193.074
 l 140.949 192.684 141.23 192.527 141.652 192.527 c 142.168 192.527 142.324
 192.762 142.324 193.512 c 142.324 195.402 l 142.309 195.934 142.246 195.996
 141.73 196.043 c 141.73 196.184 l 143.699 196.184 l 143.699 196.043 l 143.465
 196.027 l 143.184 195.98 143.074 195.855 143.074 195.496 c 143.074 193.652
 l 143.074 192.59 142.73 192.059 142.043 192.059 c 141.512 192.059 141.059
 192.293 140.574 192.809 c 140.418 192.293 140.105 192.059 139.621 192.059
 c 139.215 192.059 138.98 192.168 138.23 192.746 c 138.23 192.074 l 138.168
 192.059 l 137.699 192.23 137.387 192.324 136.918 192.465 c 136.918 192.621
 l 137.027 192.59 137.105 192.574 137.199 192.574 c 137.434 192.574 137.512
 192.715 137.512 193.152 c 137.512 195.418 l 137.496 195.918 137.387 196.043
 136.887 196.043 c h
136.887 196.184 m f
144.129 190.707 4.703 0.438 re f
152.773 191.41 m 152.773 190.691 152.352 190.379 151.898 190.207 c 152.367
 189.879 152.523 189.566 152.523 189.191 c 152.523 188.785 152.148 188.238
 151.289 188.238 c 150.664 188.238 150.07 188.535 149.805 189.348 c 150.008
 189.395 l 150.164 189.113 150.477 188.77 151.008 188.77 c 151.523 188.77
 151.82 189.082 151.82 189.441 c 151.82 189.957 151.367 190.332 150.68 190.488
 c 150.648 190.691 l 151.852 190.645 152.133 191.332 152.133 191.738 c 152.133
 192.223 151.742 192.676 151.227 192.676 c 150.727 192.676 150.508 192.285
 150.102 192.285 c 149.93 192.285 149.758 192.426 149.758 192.613 c 149.758
 192.91 150.258 193.02 150.633 193.02 c 151.867 193.02 152.773 192.363 152.773
 191.41 c h
152.773 191.41 m f
8.359 111.418 m 8.203 111.418 l 7.562 112.512 6.297 113.012 4.172 113.012
 c 2.062 113.012 0.828 112.512 0.156 111.418 c 0 111.418 l 0.797 112.965
 2.328 113.871 4.172 113.871 c 6.047 113.871 7.5 112.996 8.359 111.418 c
 h
8.359 111.418 m f
3.516 105.949 m 2.812 105.949 2.344 106.262 2.344 106.934 c 2.344 107.527
 2.766 107.98 3.328 108.387 c 2.344 108.074 l 2.344 108.074 2.578 109.277
 2.594 109.543 c 2.75 109.543 l 2.75 109.215 2.719 108.949 3.078 108.949
 c 3.25 108.949 3.641 109.059 3.859 109.121 c 7.594 110.184 l 7.938 110.277
 8.188 110.434 8.188 110.871 c 8.344 110.902 l 8.344 108.934 l 8.188 108.902
 l 8.188 109.246 8.172 109.543 7.922 109.543 c 7.844 109.543 7.75 109.527
 7.578 109.48 c 6.328 109.168 l 6.469 108.996 6.547 108.73 6.547 108.512
 c 6.547 107.434 5.016 105.949 3.516 105.949 c h
3.609 106.715 m 4.781 106.715 6.344 107.699 6.344 108.543 c 6.344 108.746
 6.266 108.934 6.094 109.105 c 5.297 108.902 2.766 108.355 2.766 107.199
 c 2.766 106.715 3.406 106.715 3.609 106.715 c h
3.609 106.715 m f
7.75 101.809 m 7.719 102.027 l 8.078 102.262 8.141 102.449 8.141 102.793
 c 8.141 104.449 l 7.156 103.262 6.266 102.199 5.297 102.199 c 4.562 102.199
 4.047 102.902 4.047 103.668 c 4.047 104.434 4.406 105.043 5.422 105.277
 c 5.422 105.027 l 5.031 104.809 4.641 104.527 4.641 103.949 c 4.641 103.309
 5.062 102.949 5.562 102.949 c 6.297 102.949 7.359 103.84 8.547 105.355 
c 8.719 105.355 l 8.719 102.262 l h
7.75 101.809 m f
0.531 94.453 m 0.391 94.453 l 0.391 96.172 l 0.531 96.172 l 0.531 95.984
 0.609 95.672 0.859 95.672 c 1.078 95.672 1.438 95.891 1.625 96.016 c 5.141
 98.406 l 1.219 98.578 l 0.656 98.609 0.531 98.297 0.531 97.812 c 0.391 
97.812 l 0.391 100.125 l 0.531 100.125 l 0.531 99.516 0.812 99.469 1.547
 99.391 c 6.578 99.188 l 6.578 99.031 l 1.25 95.406 l 1.031 95.234 0.531
 94.844 0.531 94.453 c h
0.531 94.453 m f
8.719 95.672 m 8.719 94.125 l 8.609 94.125 l 8.609 94.484 8.531 94.594 
8.25 94.594 c 6.281 94.594 l 6.266 94.594 6.203 94.547 6.156 94.484 c 6 
94.312 5.875 94.016 5.875 93.781 c 5.875 93.469 6.125 93.312 6.609 93.312
 c 8.125 93.312 l 8.516 93.328 8.594 93.391 8.609 93.781 c 8.719 93.781 
l 8.719 92.234 l 8.609 92.234 l 8.609 92.625 8.5 92.719 8.062 92.734 c 6.297
 92.734 l 6 92.516 5.875 92.297 5.875 91.969 c 5.875 91.578 6.062 91.453
 6.641 91.453 c 8.109 91.453 l 8.531 91.453 8.578 91.5 8.609 91.906 c 8.719
 91.906 l 8.719 90.375 l 8.609 90.375 l 8.594 90.562 l 8.562 90.781 8.453
 90.859 8.188 90.859 c 6.75 90.859 l 5.938 90.859 5.516 91.141 5.516 91.672
 c 5.516 92.078 5.688 92.422 6.094 92.812 c 5.703 92.938 5.516 93.172 5.516
 93.547 c 5.516 93.859 5.609 94.047 6.047 94.625 c 5.531 94.625 l 5.516 
94.672 l 5.641 95.047 5.719 95.281 5.828 95.656 c 5.938 95.656 l 5.922 95.562
 5.922 95.5 5.922 95.422 c 5.922 95.25 6.031 95.188 6.359 95.188 c 8.125
 95.188 l 8.516 95.203 8.609 95.281 8.609 95.672 c h
8.719 95.672 m f
0 85.996 m 0 86.434 l 8.359 89.543 l 8.359 89.09 l h
0 85.996 m f
6.281 79.332 m 6.281 79.863 5.938 80.051 5.578 80.207 c 3.484 81.066 l 
3.266 79.785 2.516 79.348 1.719 79.348 c 1.156 79.348 0.391 79.801 0.391
 81.332 c 0.391 83.488 l 0.531 83.52 l 0.531 83.223 0.562 82.832 0.969 82.832
 c 1.094 82.832 1.234 82.863 1.562 82.957 c 5.391 84.02 l 6.297 84.27 6.281
 84.598 6.281 84.941 c 6.438 84.973 l 6.438 82.535 l 6.281 82.52 l 6.281
 82.754 6.25 83.191 5.812 83.191 c 5.734 83.191 5.625 83.191 5.516 83.145
 c 3.562 82.629 l 3.562 81.973 l 6.438 80.738 l 6.438 79.363 l h
1.719 80.223 m 2.812 80.223 3.281 81.051 3.281 81.988 c 3.281 82.535 l 
0.641 81.801 l 0.641 81.504 l 0.641 80.629 1.016 80.223 1.719 80.223 c h
1.719 80.223 m f
4.188 76.148 m 2.328 76.148 0.875 77.023 0 78.602 c 0.172 78.602 l 0.812
 77.508 2.062 77.008 4.188 77.008 c 6.297 77.008 7.547 77.508 8.203 78.602
 c 8.359 78.602 l 7.578 77.055 6.047 76.148 4.188 76.148 c h
4.188 76.148 m f
0 69.918 m 0 70.355 l 8.359 73.465 l 8.359 73.012 l h
0 69.918 m f
0.391 61.961 m 0.391 63.898 l 0.531 63.93 l 0.531 63.648 0.594 63.492 0.781
 63.492 c 0.984 63.492 1.359 63.883 1.688 64.367 c 3.062 66.305 l 1.438 
65.852 l 0.781 65.68 0.531 65.352 0.531 64.867 c 0.391 64.836 l 0.391 67.289
 l 0.531 67.32 l 0.531 67.055 0.562 66.633 0.969 66.633 c 1.094 66.633 1.234
 66.664 1.562 66.758 c 5.391 67.82 l 6.297 68.07 6.281 68.367 6.281 68.742
 c 6.438 68.773 l 6.438 66.414 l 6.281 66.383 l 6.281 66.617 6.25 67.039
 5.812 67.039 c 5.734 67.039 5.609 67.008 5.516 66.977 c 3.25 66.352 l 5.312
 65.055 l 5.562 64.914 5.797 64.805 5.938 64.805 c 6.062 64.805 6.281 64.945
 6.281 65.414 c 6.438 65.445 l 6.438 62.914 l 6.281 62.883 l 6.281 63.398
 6.203 63.602 5.438 64.055 c 2.953 65.523 l 1.078 63.039 l 0.656 62.492 
0.531 62.18 0.531 61.977 c h
0.391 61.961 m f
Q Q
showpage
%%Trailer
end
%%EOF
