%!PS-Adobe-3.0 EPSF-3.0
%%Creator: cairo 1.17.4 (https://cairographics.org)
%%CreationDate: Thu Feb 24 10:46:59 2022
%%Pages: 1
%%DocumentData: Clean7Bit
%%LanguageLevel: 2
%%BoundingBox: 0 0 166 141
%%EndComments
%%BeginProlog
50 dict begin
/q { gsave } bind def
/Q { grestore } bind def
/cm { 6 array astore concat } bind def
/w { setlinewidth } bind def
/J { setlinecap } bind def
/j { setlinejoin } bind def
/M { setmiterlimit } bind def
/d { setdash } bind def
/m { moveto } bind def
/l { lineto } bind def
/c { curveto } bind def
/h { closepath } bind def
/re { exch dup neg 3 1 roll 5 3 roll moveto 0 rlineto
      0 exch rlineto 0 rlineto closepath } bind def
/S { stroke } bind def
/f { fill } bind def
/f* { eofill } bind def
/n { newpath } bind def
/W { clip } bind def
/W* { eoclip } bind def
/BT { } bind def
/ET { } bind def
/BDC { mark 3 1 roll /BDC pdfmark } bind def
/EMC { mark /EMC pdfmark } bind def
/cairo_store_point { /cairo_point_y exch def /cairo_point_x exch def } def
/Tj { show currentpoint cairo_store_point } bind def
/TJ {
  {
    dup
    type /stringtype eq
    { show } { -0.001 mul 0 cairo_font_matrix dtransform rmoveto } ifelse
  } forall
  currentpoint cairo_store_point
} bind def
/cairo_selectfont { cairo_font_matrix aload pop pop pop 0 0 6 array astore
    cairo_font exch selectfont cairo_point_x cairo_point_y moveto } bind def
/Tf { pop /cairo_font exch def /cairo_font_matrix where
      { pop cairo_selectfont } if } bind def
/Td { matrix translate cairo_font_matrix matrix concatmatrix dup
      /cairo_font_matrix exch def dup 4 get exch 5 get cairo_store_point
      /cairo_font where { pop cairo_selectfont } if } bind def
/Tm { 2 copy 8 2 roll 6 array astore /cairo_font_matrix exch def
      cairo_store_point /cairo_font where { pop cairo_selectfont } if } bind def
/g { setgray } bind def
/rg { setrgbcolor } bind def
/d1 { setcachedevice } bind def
/cairo_data_source {
  CairoDataIndex CairoData length lt
    { CairoData CairoDataIndex get /CairoDataIndex CairoDataIndex 1 add def }
    { () } ifelse
} def
/cairo_flush_ascii85_file { cairo_ascii85_file status { cairo_ascii85_file flushfile } if } def
/cairo_image { image cairo_flush_ascii85_file } def
/cairo_imagemask { imagemask cairo_flush_ascii85_file } def
%%EndProlog
%%BeginSetup
%%EndSetup
%%Page: 1 1
%%BeginPageSetup
%%PageBoundingBox: 0 0 166 141
%%EndPageSetup
q 0 0 166 141 rectclip
1 0 0 -1 0 141 cm q
0 g
1.13366 w
0 J
0 j
[] 0.0 d
10 M q 1 0 0 -1 0 0 cm
9.18 -0.047 m 9.18 -130.449 l 165.059 -130.449 l S Q
4.953 37.895 m 4.953 37.191 4.641 36.723 3.969 36.723 c 3.375 36.723 2.922
 37.145 2.516 37.707 c 2.828 36.723 l 2.828 36.723 1.625 36.957 1.359 36.973
 c 1.359 37.129 l 1.688 37.129 1.953 37.098 1.953 37.457 c 1.953 37.629 
1.844 38.02 1.781 38.238 c 0.719 41.973 l 0.625 42.316 0.469 42.566 0.031
 42.566 c 0 42.723 l 1.969 42.723 l 2 42.566 l 1.656 42.566 1.359 42.551
 1.359 42.301 c 1.359 42.223 1.375 42.129 1.422 41.957 c 1.734 40.707 l 
1.906 40.848 2.172 40.926 2.391 40.926 c 3.469 40.926 4.953 39.395 4.953
 37.895 c h
4.188 37.988 m 4.188 39.16 3.203 40.723 2.359 40.723 c 2.156 40.723 1.969
 40.645 1.797 40.473 c 2 39.676 2.547 37.145 3.703 37.145 c 4.188 37.145
 4.188 37.785 4.188 37.988 c h
4.188 37.988 m f
111.184 134.602 m 106.168 134.602 l 105.746 136.133 l 105.918 136.133 l
 106.293 135.148 106.762 134.93 107.543 134.93 c 107.543 134.93 108.059 
134.93 108.168 134.93 c 106.871 139.602 l 106.621 140.508 106.309 140.492
 105.949 140.492 c 105.934 140.648 l 108.293 140.648 l 108.324 140.492 l
 107.98 140.492 107.637 140.508 107.637 140.055 c 107.637 139.93 107.668
 139.789 107.715 139.602 c 108.996 134.93 l 109.746 134.93 l 110.184 134.93
 110.652 134.992 110.652 135.617 c 110.652 135.758 110.637 135.914 110.59
 136.133 c 110.762 136.133 l h
111.184 134.602 m f
50.961 108.352 m 50.961 107.176 50.008 106.223 48.832 106.223 c 47.656 
106.223 46.703 107.176 46.703 108.352 c 46.703 109.527 47.656 110.48 48.832
 110.48 c 50.008 110.48 50.961 109.527 50.961 108.352 c f
113.359 51.055 m 113.359 49.879 112.406 48.926 111.23 48.926 c 110.055 
48.926 109.102 49.879 109.102 51.055 c 109.102 52.23 110.055 53.184 111.23
 53.184 c 112.406 53.184 113.359 52.23 113.359 51.055 c f
53.316 111.086 m 52.41 111.086 l 52.41 110.039 l 52.41 109.945 52.395 109.93
 52.348 109.93 c 51.832 110.68 51.566 110.977 51.301 111.133 c 51.207 111.195
 51.145 111.258 51.145 111.305 c 51.145 111.336 51.16 111.352 51.191 111.367
 c 51.66 111.367 l 51.66 114.07 l 51.66 114.82 51.926 115.211 52.457 115.211
 c 52.895 115.211 53.238 114.992 53.535 114.523 c 53.426 114.43 l 53.223
 114.664 53.082 114.742 52.879 114.742 c 52.551 114.742 52.41 114.492 52.41
 113.93 c 52.41 111.367 l 53.316 111.367 l h
53.316 111.086 m f
53.602 117.07 m 55.773 117.07 l 55.773 116.898 l 55.102 116.898 54.992 
116.805 54.977 116.227 c 54.977 114.82 l 55.305 115.117 55.508 115.211 55.883
 115.211 c 56.961 115.211 57.773 114.195 57.773 112.898 c 57.773 111.789
 57.148 110.992 56.273 110.992 c 55.773 110.992 55.383 111.211 54.977 111.695
 c 54.977 111.008 l 54.93 110.992 l 54.445 111.18 54.133 111.289 53.633 
111.445 c 53.633 111.586 l 53.711 111.586 53.773 111.586 53.867 111.586 
c 54.164 111.586 54.227 111.68 54.227 112.102 c 54.227 116.289 l 54.227 
116.773 54.133 116.852 53.602 116.914 c h
54.977 112.117 m 54.977 111.852 55.477 111.523 55.898 111.523 c 56.555 
111.523 56.992 112.211 56.992 113.258 c 56.992 114.242 56.555 114.914 55.914
 114.914 c 55.492 114.914 54.977 114.602 54.977 114.32 c h
54.977 112.117 m f
114.82 56.418 m 114.398 57.059 114.07 57.262 113.57 57.262 c 112.742 57.262
 112.18 56.543 112.18 55.512 c 112.18 54.59 112.664 53.965 113.398 53.965
 c 113.711 53.965 113.836 54.043 113.914 54.387 c 113.977 54.59 l 114.055
 54.84 114.211 54.996 114.398 54.996 c 114.633 54.996 114.82 54.824 114.82
 54.621 c 114.82 54.121 114.195 53.699 113.445 53.699 c 113.008 53.699 112.555
 53.871 112.18 54.199 c 111.727 54.59 111.477 55.199 111.477 55.918 c 111.477
 57.074 112.195 57.918 113.18 57.918 c 113.586 57.918 113.945 57.777 114.273
 57.496 c 114.508 57.293 114.68 57.027 114.945 56.512 c h
114.82 56.418 m f
115.266 59.777 m 117.438 59.777 l 117.438 59.605 l 116.766 59.605 116.656
 59.512 116.641 58.934 c 116.641 57.527 l 116.969 57.824 117.172 57.918 
117.547 57.918 c 118.625 57.918 119.438 56.902 119.438 55.605 c 119.438 
54.496 118.812 53.699 117.938 53.699 c 117.438 53.699 117.047 53.918 116.641
 54.402 c 116.641 53.715 l 116.594 53.699 l 116.109 53.887 115.797 53.996
 115.297 54.152 c 115.297 54.293 l 115.375 54.293 115.438 54.293 115.531
 54.293 c 115.828 54.293 115.891 54.387 115.891 54.809 c 115.891 58.996 
l 115.891 59.48 115.797 59.559 115.266 59.621 c h
116.641 54.824 m 116.641 54.559 117.141 54.23 117.562 54.23 c 118.219 54.23
 118.656 54.918 118.656 55.965 c 118.656 56.949 118.219 57.621 117.578 57.621
 c 117.156 57.621 116.641 57.309 116.641 57.027 c h
116.641 54.824 m f
27.039 66.852 m 27.008 65.617 l 26.898 65.617 l 26.852 65.695 26.805 65.711
 26.758 65.711 c 26.711 65.711 26.617 65.695 26.523 65.648 c 26.305 65.586
 26.102 65.539 25.883 65.539 c 25.18 65.539 24.664 66.008 24.664 66.648 
c 24.664 67.148 24.961 67.508 25.711 67.945 c 26.242 68.242 l 26.555 68.414
 26.711 68.633 26.711 68.914 c 26.711 69.305 26.414 69.555 25.961 69.555
 c 25.336 69.555 25.023 69.211 24.82 68.305 c 24.68 68.305 l 24.68 69.695
 l 24.789 69.695 l 24.852 69.617 24.898 69.586 25.008 69.586 c 25.102 69.586
 25.211 69.617 25.414 69.664 c 25.648 69.711 25.883 69.758 26.07 69.758 
c 26.773 69.758 27.336 69.227 27.336 68.602 c 27.336 68.164 27.117 67.867
 26.586 67.539 c 25.617 66.961 l 25.352 66.805 25.227 66.602 25.227 66.352
 c 25.227 65.992 25.508 65.742 25.914 65.742 c 26.43 65.742 26.695 66.039
 26.898 66.852 c h
27.039 66.852 m f
29.941 65.539 m 28.754 65.539 27.957 66.398 27.957 67.633 c 27.957 68.852
 28.785 69.758 29.91 69.758 c 31.051 69.758 31.91 68.805 31.91 67.57 c 31.91
 66.383 31.082 65.539 29.941 65.539 c h
29.816 65.789 m 30.566 65.789 31.098 66.648 31.098 67.883 c 31.098 68.898
 30.691 69.508 30.02 69.508 c 29.676 69.508 29.348 69.289 29.16 68.93 c 
28.895 68.461 28.754 67.836 28.754 67.195 c 28.754 66.352 29.176 65.789 
29.816 65.789 c h
29.816 65.789 m f
32.32 69.664 m 34.445 69.664 l 34.445 69.523 l 33.867 69.508 33.773 69.414
 33.758 68.914 c 33.758 63.555 l 33.727 63.539 l 33.273 63.68 32.945 63.773
 32.305 63.93 c 32.305 64.07 l 32.352 64.07 l 32.461 64.07 32.57 64.055 
32.633 64.055 c 32.93 64.055 33.008 64.18 33.008 64.602 c 33.008 68.883 
l 33.008 69.367 32.883 69.492 32.32 69.523 c h
32.32 69.664 m f
34.793 69.664 m 36.918 69.664 l 36.918 69.523 l 36.324 69.492 36.262 69.398
 36.262 68.742 c 36.262 65.57 l 36.215 65.539 l 34.824 66.039 l 34.824 66.164
 l 34.902 66.164 l 35.012 66.133 35.121 66.133 35.215 66.133 c 35.418 66.133
 35.512 66.273 35.512 66.664 c 35.512 68.742 l 35.48 69.414 35.402 69.508
 34.793 69.523 c h
35.793 63.539 m 35.559 63.539 35.355 63.742 35.355 63.992 c 35.355 64.258
 35.543 64.461 35.793 64.461 c 36.074 64.461 36.262 64.258 36.262 63.992
 c 36.262 63.742 36.059 63.539 35.793 63.539 c h
35.793 63.539 m f
41.578 69.148 m 41.453 69.148 41.406 69.148 41.375 69.148 c 41.062 69.148
 40.969 69.055 40.969 68.648 c 40.969 63.555 l 40.938 63.539 l 40.516 63.68
 40.203 63.773 39.609 63.93 c 39.609 64.07 l 39.688 64.07 39.734 64.07 39.812
 64.07 c 40.141 64.07 40.219 64.164 40.219 64.523 c 40.219 65.93 l 39.875
 65.633 39.641 65.539 39.281 65.539 c 38.25 65.539 37.406 66.555 37.406 
67.82 c 37.406 68.977 38.078 69.758 39.078 69.758 c 39.578 69.758 39.922
 69.57 40.219 69.148 c 40.219 69.727 l 40.25 69.758 l 41.578 69.289 l h
40.219 68.742 m 40.219 68.805 40.156 68.914 40.062 69.023 c 39.922 69.195
 39.688 69.289 39.422 69.289 c 38.672 69.289 38.188 68.57 38.188 67.461 
c 38.188 66.461 38.625 65.789 39.312 65.789 c 39.797 65.789 40.219 66.211
 40.219 66.68 c h
40.219 68.742 m f
61.27 60.32 m 63.395 60.32 l 63.395 60.18 l 62.816 60.164 62.723 60.07 
62.707 59.57 c 62.707 54.211 l 62.676 54.195 l 62.223 54.336 61.895 54.43
 61.254 54.586 c 61.254 54.727 l 61.301 54.727 l 61.41 54.727 61.52 54.711
 61.582 54.711 c 61.879 54.711 61.957 54.836 61.957 55.258 c 61.957 59.539
 l 61.957 60.023 61.832 60.148 61.27 60.18 c h
61.27 60.32 m f
63.742 60.32 m 65.867 60.32 l 65.867 60.18 l 65.273 60.148 65.211 60.055
 65.211 59.398 c 65.211 56.227 l 65.164 56.195 l 63.773 56.695 l 63.773 
56.82 l 63.852 56.82 l 63.961 56.789 64.07 56.789 64.164 56.789 c 64.367
 56.789 64.461 56.93 64.461 57.32 c 64.461 59.398 l 64.43 60.07 64.352 60.164
 63.742 60.18 c h
64.742 54.195 m 64.508 54.195 64.305 54.398 64.305 54.648 c 64.305 54.914
 64.492 55.117 64.742 55.117 c 65.023 55.117 65.211 54.914 65.211 54.648
 c 65.211 54.398 65.008 54.195 64.742 54.195 c h
64.742 54.195 m f
69.355 56.508 m 68.949 56.273 68.684 56.195 68.324 56.195 c 67.184 56.195
 66.34 57.195 66.34 58.492 c 66.34 59.617 66.934 60.414 67.777 60.414 c 
68.293 60.414 68.777 60.18 69.184 59.742 c 69.184 61.43 l 69.168 61.93 69.012
 62.086 68.387 62.117 c 68.387 62.273 l 70.496 62.273 l 70.496 62.148 l 
70.012 62.039 69.949 61.977 69.934 61.586 c 69.934 56.227 l 69.84 56.227
 l h
69.184 59.18 m 69.184 59.398 69.137 59.508 69.059 59.602 c 68.855 59.758
 68.559 59.867 68.277 59.867 c 68.012 59.867 67.762 59.773 67.59 59.602 
c 67.293 59.336 67.105 58.758 67.105 58.164 c 67.105 57.102 67.59 56.445
 68.34 56.445 c 68.902 56.445 69.184 56.742 69.184 57.336 c h
69.184 59.18 m f
74.859 59.867 m 74.812 59.867 l 74.375 59.852 74.312 59.789 74.297 59.367
 c 74.297 56.289 l 72.891 56.289 l 72.891 56.43 l 73.438 56.461 73.547 56.555
 73.547 57.008 c 73.547 59.117 l 73.547 59.367 73.5 59.492 73.375 59.586
 c 73.141 59.789 72.859 59.883 72.594 59.883 c 72.234 59.883 71.953 59.586
 71.953 59.211 c 71.953 56.289 l 70.641 56.289 l 70.641 56.414 l 71.062 
56.43 71.188 56.555 71.203 56.977 c 71.203 59.242 l 71.203 59.945 71.625
 60.414 72.281 60.414 c 72.609 60.414 72.969 60.273 73.203 60.023 c 73.594
 59.633 l 73.594 60.383 l 73.625 60.398 l 74.078 60.227 74.406 60.117 74.859
 59.992 c h
74.859 59.867 m f
75.145 60.32 m 77.27 60.32 l 77.27 60.18 l 76.676 60.148 76.613 60.055 
76.613 59.398 c 76.613 56.227 l 76.566 56.195 l 75.176 56.695 l 75.176 56.82
 l 75.254 56.82 l 75.363 56.789 75.473 56.789 75.566 56.789 c 75.77 56.789
 75.863 56.93 75.863 57.32 c 75.863 59.398 l 75.832 60.07 75.754 60.164 
75.145 60.18 c h
76.145 54.195 m 75.91 54.195 75.707 54.398 75.707 54.648 c 75.707 54.914
 75.895 55.117 76.145 55.117 c 76.426 55.117 76.613 54.914 76.613 54.648
 c 76.613 54.398 76.41 54.195 76.145 54.195 c h
76.145 54.195 m f
81.93 59.805 m 81.805 59.805 81.758 59.805 81.727 59.805 c 81.414 59.805
 81.32 59.711 81.32 59.305 c 81.32 54.211 l 81.289 54.195 l 80.867 54.336
 80.555 54.43 79.961 54.586 c 79.961 54.727 l 80.039 54.727 80.086 54.727
 80.164 54.727 c 80.492 54.727 80.57 54.82 80.57 55.18 c 80.57 56.586 l 
80.227 56.289 79.992 56.195 79.633 56.195 c 78.602 56.195 77.758 57.211 
77.758 58.477 c 77.758 59.633 78.43 60.414 79.43 60.414 c 79.93 60.414 80.273
 60.227 80.57 59.805 c 80.57 60.383 l 80.602 60.414 l 81.93 59.945 l h
80.57 59.398 m 80.57 59.461 80.508 59.57 80.414 59.68 c 80.273 59.852 80.039
 59.945 79.773 59.945 c 79.023 59.945 78.539 59.227 78.539 58.117 c 78.539
 57.117 78.977 56.445 79.664 56.445 c 80.148 56.445 80.57 56.867 80.57 57.336
 c h
80.57 59.398 m f
106.59 96.859 m 106.59 96.516 l 105.902 96.516 l 105.715 96.516 105.574
 96.484 105.402 96.422 c 105.199 96.359 l 104.965 96.266 104.715 96.219 
104.48 96.219 c 103.652 96.219 102.996 96.859 102.996 97.688 c 102.996 98.25
 103.23 98.578 103.824 98.875 c 103.59 99.094 l 103.402 99.281 103.293 99.375
 103.262 99.406 c 103.074 99.609 103.027 99.703 103.027 99.859 c 103.027
 100.062 103.121 100.156 103.496 100.328 c 102.855 100.797 102.621 101.094
 102.621 101.422 c 102.621 101.906 103.309 102.297 104.168 102.297 c 104.84
 102.297 105.543 102.062 106.012 101.688 c 106.355 101.406 106.512 101.125
 106.512 100.781 c 106.512 100.234 106.09 99.859 105.418 99.828 c 104.262
 99.766 l 103.777 99.75 103.559 99.672 103.559 99.531 c 103.559 99.344 103.855
 99.031 104.105 98.969 c 104.418 98.984 104.59 99 104.621 99 c 104.949 99
 105.309 98.875 105.574 98.625 c 105.871 98.375 106.012 98.062 106.012 97.625
 c 106.012 97.359 105.965 97.156 105.84 96.859 c h
103.684 100.359 m 103.996 100.422 104.699 100.484 105.152 100.484 c 105.965
 100.484 106.262 100.594 106.262 100.922 c 106.262 101.438 105.574 101.781
 104.559 101.781 c 103.762 101.781 103.246 101.531 103.246 101.141 c 103.246
 100.922 103.324 100.797 103.684 100.359 c h
103.73 97.312 m 103.73 96.781 103.98 96.469 104.402 96.469 c 104.684 96.469
 104.902 96.625 105.059 96.891 c 105.23 97.203 105.324 97.609 105.324 97.969
 c 105.324 98.469 105.074 98.781 104.652 98.781 c 104.105 98.781 103.73 
98.203 103.73 97.344 c h
103.73 97.312 m f
110.781 99.75 m 110.625 99.875 110.516 99.922 110.375 99.922 c 110.172 
99.922 110.109 99.797 110.109 99.406 c 110.109 97.656 l 110.109 97.188 110.062
 96.922 109.938 96.719 c 109.734 96.391 109.344 96.219 108.828 96.219 c 
107.984 96.219 107.312 96.656 107.312 97.219 c 107.312 97.422 107.484 97.609
 107.703 97.609 c 107.922 97.609 108.109 97.422 108.109 97.234 c 108.109
 97.203 108.094 97.156 108.094 97.094 c 108.062 97 108.062 96.938 108.062
 96.875 c 108.062 96.625 108.344 96.438 108.703 96.438 c 109.141 96.438 
109.391 96.688 109.391 97.172 c 109.391 97.719 l 108.016 98.266 107.859 
98.359 107.469 98.688 c 107.266 98.875 107.141 99.172 107.141 99.469 c 107.141
 100.031 107.531 100.438 108.094 100.438 c 108.484 100.438 108.844 100.25
 109.391 99.781 c 109.438 100.25 109.609 100.438 109.969 100.438 c 110.281
 100.438 110.469 100.328 110.781 99.984 c h
109.391 99.234 m 109.391 99.516 109.344 99.609 109.156 99.719 c 108.922
 99.844 108.688 99.906 108.5 99.906 c 108.188 99.906 107.938 99.609 107.938
 99.219 c 107.938 99.188 l 107.938 98.656 108.344 98.312 109.391 97.938 
c h
109.391 99.234 m f
113.602 97.531 m 113.57 96.297 l 113.461 96.297 l 113.414 96.375 113.367
 96.391 113.32 96.391 c 113.273 96.391 113.18 96.375 113.086 96.328 c 112.867
 96.266 112.664 96.219 112.445 96.219 c 111.742 96.219 111.227 96.688 111.227
 97.328 c 111.227 97.828 111.523 98.188 112.273 98.625 c 112.805 98.922 
l 113.117 99.094 113.273 99.312 113.273 99.594 c 113.273 99.984 112.977 
100.234 112.523 100.234 c 111.898 100.234 111.586 99.891 111.383 98.984 
c 111.242 98.984 l 111.242 100.375 l 111.352 100.375 l 111.414 100.297 111.461
 100.266 111.57 100.266 c 111.664 100.266 111.773 100.297 111.977 100.344
 c 112.211 100.391 112.445 100.438 112.633 100.438 c 113.336 100.438 113.898
 99.906 113.898 99.281 c 113.898 98.844 113.68 98.547 113.148 98.219 c 112.18
 97.641 l 111.914 97.484 111.789 97.281 111.789 97.031 c 111.789 96.672 
112.07 96.422 112.477 96.422 c 112.992 96.422 113.258 96.719 113.461 97.531
 c h
113.602 97.531 m f
123.137 16.973 m 123.105 15.738 l 122.996 15.738 l 122.949 15.816 122.902
 15.832 122.855 15.832 c 122.809 15.832 122.715 15.816 122.621 15.77 c 122.402
 15.707 122.199 15.66 121.98 15.66 c 121.277 15.66 120.762 16.129 120.762
 16.77 c 120.762 17.27 121.059 17.629 121.809 18.066 c 122.34 18.363 l 122.652
 18.535 122.809 18.754 122.809 19.035 c 122.809 19.426 122.512 19.676 122.059
 19.676 c 121.434 19.676 121.121 19.332 120.918 18.426 c 120.777 18.426 
l 120.777 19.816 l 120.887 19.816 l 120.949 19.738 120.996 19.707 121.105
 19.707 c 121.199 19.707 121.309 19.738 121.512 19.785 c 121.746 19.832 
121.98 19.879 122.168 19.879 c 122.871 19.879 123.434 19.348 123.434 18.723
 c 123.434 18.285 123.215 17.988 122.684 17.66 c 121.715 17.082 l 121.449
 16.926 121.324 16.723 121.324 16.473 c 121.324 16.113 121.605 15.863 122.012
 15.863 c 122.527 15.863 122.793 16.16 122.996 16.973 c h
123.137 16.973 m f
128.086 19.332 m 128.039 19.332 l 127.602 19.316 127.539 19.254 127.523
 18.832 c 127.523 15.754 l 126.117 15.754 l 126.117 15.895 l 126.664 15.926
 126.773 16.02 126.773 16.473 c 126.773 18.582 l 126.773 18.832 126.727 
18.957 126.602 19.051 c 126.367 19.254 126.086 19.348 125.82 19.348 c 125.461
 19.348 125.18 19.051 125.18 18.676 c 125.18 15.754 l 123.867 15.754 l 123.867
 15.879 l 124.289 15.895 124.414 16.02 124.43 16.441 c 124.43 18.707 l 124.43
 19.41 124.852 19.879 125.508 19.879 c 125.836 19.879 126.195 19.738 126.43
 19.488 c 126.82 19.098 l 126.82 19.848 l 126.852 19.863 l 127.305 19.691
 127.633 19.582 128.086 19.457 c h
128.086 19.332 m f
128.273 21.738 m 130.445 21.738 l 130.445 21.566 l 129.773 21.566 129.664
 21.473 129.648 20.895 c 129.648 19.488 l 129.977 19.785 130.18 19.879 130.555
 19.879 c 131.633 19.879 132.445 18.863 132.445 17.566 c 132.445 16.457 
131.82 15.66 130.945 15.66 c 130.445 15.66 130.055 15.879 129.648 16.363
 c 129.648 15.676 l 129.602 15.66 l 129.117 15.848 128.805 15.957 128.305
 16.113 c 128.305 16.254 l 128.383 16.254 128.445 16.254 128.539 16.254 
c 128.836 16.254 128.898 16.348 128.898 16.77 c 128.898 20.957 l 128.898
 21.441 128.805 21.52 128.273 21.582 c h
129.648 16.785 m 129.648 16.52 130.148 16.191 130.57 16.191 c 131.227 16.191
 131.664 16.879 131.664 17.926 c 131.664 18.91 131.227 19.582 130.586 19.582
 c 130.164 19.582 129.648 19.27 129.648 18.988 c h
129.648 16.785 m f
136.324 18.316 m 135.902 18.988 135.512 19.254 134.934 19.254 c 134.434
 19.254 134.043 18.988 133.777 18.488 c 133.621 18.145 133.559 17.863 133.543
 17.301 c 136.293 17.301 l 136.23 16.723 136.137 16.457 135.918 16.176 c
 135.652 15.848 135.23 15.66 134.762 15.66 c 134.324 15.66 133.902 15.816
 133.559 16.129 c 133.137 16.488 132.887 17.129 132.887 17.863 c 132.887
 19.098 133.543 19.879 134.574 19.879 c 135.418 19.879 136.09 19.348 136.465
 18.379 c h
133.559 17.02 m 133.652 16.316 133.965 15.988 134.512 15.988 c 135.059 
15.988 135.262 16.238 135.387 17.02 c h
133.559 17.02 m f
136.676 19.785 m 138.832 19.785 l 138.832 19.645 l 138.223 19.629 138.082
 19.504 138.066 18.973 c 138.066 16.957 l 138.066 16.676 138.441 16.223 
138.691 16.223 c 138.738 16.223 138.832 16.27 138.926 16.363 c 139.066 16.488
 139.16 16.535 139.285 16.535 c 139.504 16.535 139.629 16.379 139.629 16.129
 c 139.629 15.832 139.441 15.66 139.145 15.66 c 138.77 15.66 138.52 15.863
 138.066 16.504 c 138.066 15.676 l 138.02 15.66 l 137.52 15.863 137.191 
15.988 136.691 16.145 c 136.691 16.285 l 136.816 16.254 136.895 16.254 137.004
 16.254 c 137.223 16.254 137.316 16.395 137.316 16.785 c 137.316 19.035 
l 137.285 19.504 137.238 19.551 136.676 19.645 c h
136.676 19.785 m f
143.191 18.379 m 142.77 19.02 142.441 19.223 141.941 19.223 c 141.113 19.223
 140.551 18.504 140.551 17.473 c 140.551 16.551 141.035 15.926 141.77 15.926
 c 142.082 15.926 142.207 16.004 142.285 16.348 c 142.348 16.551 l 142.426
 16.801 142.582 16.957 142.77 16.957 c 143.004 16.957 143.191 16.785 143.191
 16.582 c 143.191 16.082 142.566 15.66 141.816 15.66 c 141.379 15.66 140.926
 15.832 140.551 16.16 c 140.098 16.551 139.848 17.16 139.848 17.879 c 139.848
 19.035 140.566 19.879 141.551 19.879 c 141.957 19.879 142.316 19.738 142.645
 19.457 c 142.879 19.254 143.051 18.988 143.316 18.473 c h
143.191 18.379 m f
143.637 19.785 m 145.793 19.785 l 145.793 19.645 l 145.184 19.629 145.043
 19.504 145.027 18.973 c 145.027 16.957 l 145.027 16.676 145.402 16.223 
145.652 16.223 c 145.699 16.223 145.793 16.27 145.887 16.363 c 146.027 16.488
 146.121 16.535 146.246 16.535 c 146.465 16.535 146.59 16.379 146.59 16.129
 c 146.59 15.832 146.402 15.66 146.105 15.66 c 145.73 15.66 145.48 15.863
 145.027 16.504 c 145.027 15.676 l 144.98 15.66 l 144.48 15.863 144.152 
15.988 143.652 16.145 c 143.652 16.285 l 143.777 16.254 143.855 16.254 143.965
 16.254 c 144.184 16.254 144.277 16.395 144.277 16.785 c 144.277 19.035 
l 144.246 19.504 144.199 19.551 143.637 19.645 c h
143.637 19.785 m f
146.727 19.785 m 148.852 19.785 l 148.852 19.645 l 148.258 19.613 148.195
 19.52 148.195 18.863 c 148.195 15.691 l 148.148 15.66 l 146.758 16.16 l
 146.758 16.285 l 146.836 16.285 l 146.945 16.254 147.055 16.254 147.148
 16.254 c 147.352 16.254 147.445 16.395 147.445 16.785 c 147.445 18.863 
l 147.414 19.535 147.336 19.629 146.727 19.645 c h
147.727 13.66 m 147.492 13.66 147.289 13.863 147.289 14.113 c 147.289 14.379
 147.477 14.582 147.727 14.582 c 148.008 14.582 148.195 14.379 148.195 14.113
 c 148.195 13.863 147.992 13.66 147.727 13.66 c h
147.727 13.66 m f
151.391 15.754 m 150.484 15.754 l 150.484 14.707 l 150.484 14.613 150.469
 14.598 150.422 14.598 c 149.906 15.348 149.641 15.645 149.375 15.801 c 
149.281 15.863 149.219 15.926 149.219 15.973 c 149.219 16.004 149.234 16.02
 149.266 16.035 c 149.734 16.035 l 149.734 18.738 l 149.734 19.488 150 19.879
 150.531 19.879 c 150.969 19.879 151.312 19.66 151.609 19.191 c 151.5 19.098
 l 151.297 19.332 151.156 19.41 150.953 19.41 c 150.625 19.41 150.484 19.16
 150.484 18.598 c 150.484 16.035 l 151.391 16.035 l h
151.391 15.754 m f
151.77 19.785 m 153.895 19.785 l 153.895 19.645 l 153.301 19.613 153.238
 19.52 153.238 18.863 c 153.238 15.691 l 153.191 15.66 l 151.801 16.16 l
 151.801 16.285 l 151.879 16.285 l 151.988 16.254 152.098 16.254 152.191
 16.254 c 152.395 16.254 152.488 16.395 152.488 16.785 c 152.488 18.863 
l 152.457 19.535 152.379 19.629 151.77 19.645 c h
152.77 13.66 m 152.535 13.66 152.332 13.863 152.332 14.113 c 152.332 14.379
 152.52 14.582 152.77 14.582 c 153.051 14.582 153.238 14.379 153.238 14.113
 c 153.238 13.863 153.035 13.66 152.77 13.66 c h
152.77 13.66 m f
157.711 18.379 m 157.289 19.02 156.961 19.223 156.461 19.223 c 155.633 
19.223 155.07 18.504 155.07 17.473 c 155.07 16.551 155.555 15.926 156.289
 15.926 c 156.602 15.926 156.727 16.004 156.805 16.348 c 156.867 16.551 
l 156.945 16.801 157.102 16.957 157.289 16.957 c 157.523 16.957 157.711 
16.785 157.711 16.582 c 157.711 16.082 157.086 15.66 156.336 15.66 c 155.898
 15.66 155.445 15.832 155.07 16.16 c 154.617 16.551 154.367 17.16 154.367
 17.879 c 154.367 19.035 155.086 19.879 156.07 19.879 c 156.477 19.879 156.836
 19.738 157.164 19.457 c 157.398 19.254 157.57 18.988 157.836 18.473 c h
157.711 18.379 m f
162.078 19.191 m 161.922 19.316 161.812 19.363 161.672 19.363 c 161.469
 19.363 161.406 19.238 161.406 18.848 c 161.406 17.098 l 161.406 16.629 
161.359 16.363 161.234 16.16 c 161.031 15.832 160.641 15.66 160.125 15.66
 c 159.281 15.66 158.609 16.098 158.609 16.66 c 158.609 16.863 158.781 17.051
 159 17.051 c 159.219 17.051 159.406 16.863 159.406 16.676 c 159.406 16.645
 159.391 16.598 159.391 16.535 c 159.359 16.441 159.359 16.379 159.359 16.316
 c 159.359 16.066 159.641 15.879 160 15.879 c 160.438 15.879 160.688 16.129
 160.688 16.613 c 160.688 17.16 l 159.312 17.707 159.156 17.801 158.766 
18.129 c 158.562 18.316 158.438 18.613 158.438 18.91 c 158.438 19.473 158.828
 19.879 159.391 19.879 c 159.781 19.879 160.141 19.691 160.688 19.223 c 
160.734 19.691 160.906 19.879 161.266 19.879 c 161.578 19.879 161.766 19.77
 162.078 19.426 c h
160.688 18.676 m 160.688 18.957 160.641 19.051 160.453 19.16 c 160.219 
19.285 159.984 19.348 159.797 19.348 c 159.484 19.348 159.234 19.051 159.234
 18.66 c 159.234 18.629 l 159.234 18.098 159.641 17.754 160.688 17.379 c
 h
160.688 18.676 m f
162.254 19.785 m 164.379 19.785 l 164.379 19.645 l 163.801 19.629 163.707
 19.535 163.691 19.035 c 163.691 13.676 l 163.66 13.66 l 163.207 13.801 
162.879 13.895 162.238 14.051 c 162.238 14.191 l 162.285 14.191 l 162.395
 14.191 162.504 14.176 162.566 14.176 c 162.863 14.176 162.941 14.301 162.941
 14.723 c 162.941 19.004 l 162.941 19.488 162.816 19.613 162.254 19.645 
c h
162.254 19.785 m f
120.215 25.66 m 120.84 25.66 l 120.84 28.473 l 120.824 29.16 120.762 29.254
 120.215 29.27 c 120.215 29.41 l 122.23 29.41 l 122.23 29.27 l 121.73 29.238
 121.605 29.129 121.59 28.707 c 121.59 25.66 l 123.277 25.66 l 123.277 28.66
 l 123.277 29.098 123.137 29.254 122.684 29.27 c 122.684 29.41 l 124.605
 29.41 l 124.605 29.27 l 124.121 29.238 124.027 29.16 124.027 28.691 c 124.027
 23.301 l 123.98 23.285 l 123.902 23.301 123.824 23.332 123.715 23.379 c
 123.543 23.457 123.402 23.504 123.34 23.504 c 123.293 23.504 123.199 23.488
 123.059 23.441 c 122.809 23.332 122.559 23.285 122.324 23.285 c 121.918
 23.285 121.496 23.504 121.246 23.848 c 120.98 24.238 120.887 24.582 120.855
 25.379 c 120.215 25.379 l h
123.277 25.379 m 121.59 25.379 l 121.59 24.91 l 121.574 24.004 121.777 
23.52 122.184 23.52 c 122.371 23.52 122.48 23.598 122.637 23.848 c 122.809
 24.098 122.934 24.176 123.137 24.176 c 123.215 24.176 123.23 24.16 123.277
 24.113 c h
123.277 25.379 m f
129.273 28.957 m 129.227 28.957 l 128.789 28.941 128.727 28.879 128.711
 28.457 c 128.711 25.379 l 127.305 25.379 l 127.305 25.52 l 127.852 25.551
 127.961 25.645 127.961 26.098 c 127.961 28.207 l 127.961 28.457 127.914
 28.582 127.789 28.676 c 127.555 28.879 127.273 28.973 127.008 28.973 c 
126.648 28.973 126.367 28.676 126.367 28.301 c 126.367 25.379 l 125.055 
25.379 l 125.055 25.504 l 125.477 25.52 125.602 25.645 125.617 26.066 c 
125.617 28.332 l 125.617 29.035 126.039 29.504 126.695 29.504 c 127.023 
29.504 127.383 29.363 127.617 29.113 c 128.008 28.723 l 128.008 29.473 l
 128.039 29.488 l 128.492 29.316 128.82 29.207 129.273 29.082 c h
129.273 28.957 m f
129.555 29.41 m 131.68 29.41 l 131.68 29.27 l 131.086 29.238 131.023 29.145
 131.023 28.488 c 131.023 25.316 l 130.977 25.285 l 129.586 25.785 l 129.586
 25.91 l 129.664 25.91 l 129.773 25.879 129.883 25.879 129.977 25.879 c 
130.18 25.879 130.273 26.02 130.273 26.41 c 130.273 28.488 l 130.242 29.16
 130.164 29.254 129.555 29.27 c h
130.555 23.285 m 130.32 23.285 130.117 23.488 130.117 23.738 c 130.117 
24.004 130.305 24.207 130.555 24.207 c 130.836 24.207 131.023 24.004 131.023
 23.738 c 131.023 23.488 130.82 23.285 130.555 23.285 c h
130.555 23.285 m f
136.34 28.895 m 136.215 28.895 136.168 28.895 136.137 28.895 c 135.824 
28.895 135.73 28.801 135.73 28.395 c 135.73 23.301 l 135.699 23.285 l 135.277
 23.426 134.965 23.52 134.371 23.676 c 134.371 23.816 l 134.449 23.816 134.496
 23.816 134.574 23.816 c 134.902 23.816 134.98 23.91 134.98 24.27 c 134.98
 25.676 l 134.637 25.379 134.402 25.285 134.043 25.285 c 133.012 25.285 
132.168 26.301 132.168 27.566 c 132.168 28.723 132.84 29.504 133.84 29.504
 c 134.34 29.504 134.684 29.316 134.98 28.895 c 134.98 29.473 l 135.012 
29.504 l 136.34 29.035 l h
134.98 28.488 m 134.98 28.551 134.918 28.66 134.824 28.77 c 134.684 28.941
 134.449 29.035 134.184 29.035 c 133.434 29.035 132.949 28.316 132.949 27.207
 c 132.949 26.207 133.387 25.535 134.074 25.535 c 134.559 25.535 134.98 
25.957 134.98 26.426 c h
134.98 28.488 m f
1.41739 w
q 1 0 0 -1 0 0 cm
48.848 -108.316 m 55.926 -0.047 l S Q
q 1 0 0 -1 0 0 cm
9.152 -130.438 m 9.152 -130.438 23.441 -124.988 30.418 -121.094 c 37.191
 -117.301 48.84 -108.328 48.84 -108.328 c S Q
q 1 0 0 -1 0 0 cm
48.836 -108.352 m 48.836 -108.352 68.133 -99.082 77.199 -92.477 c 85.273
 -86.559 92.148 -80.438 98.445 -72.637 c 103.848 -65.895 111.203 -51.082
 111.203 -51.082 c S Q
q 1 0 0 -1 0 0 cm
111.199 -51.074 m 111.199 -47.047 l 111.199 -44.359 m 111.199 -40.332 l
 111.199 -37.645 m 111.199 -33.617 l 111.199 -30.934 m 111.199 -26.906 l
 111.199 -24.219 m 111.199 -20.191 l 111.199 -17.504 m 111.199 -13.477 l
 111.199 -10.793 m 111.199 -6.762 l 111.199 -4.078 m 111.199 -0.051 l S Q
q 1 0 0 -1 0 0 cm
111.203 -51.082 m 115.453 -51.082 l 118.289 -51.082 m 122.543 -51.082 l
 125.375 -51.082 m 129.629 -51.082 l 132.465 -51.082 m 136.715 -51.082 l
 139.551 -51.082 m 143.801 -51.082 l 146.637 -51.082 m 150.887 -51.082 l
 153.723 -51.082 m 157.977 -51.082 l 160.809 -51.082 m 165.055 -51.082 l
 S Q
91.352 68.055 m 91.352 67.27 90.715 66.633 89.93 66.633 c 89.145 66.633
 88.508 67.27 88.508 68.055 c 88.508 68.84 89.145 69.477 89.93 69.477 c 
90.715 69.477 91.352 68.84 91.352 68.055 c f
91.352 45.453 m 91.352 44.668 90.715 44.031 89.93 44.031 c 89.145 44.031
 88.508 44.668 88.508 45.453 c 88.508 46.238 89.145 46.875 89.93 46.875 
c 90.715 46.875 91.352 46.238 91.352 45.453 c f
132.453 45.453 m 132.453 44.668 131.816 44.031 131.031 44.031 c 130.246
 44.031 129.609 44.668 129.609 45.453 c 129.609 46.238 130.246 46.875 131.031
 46.875 c 131.816 46.875 132.453 46.238 132.453 45.453 c f
132.453 68.055 m 132.453 67.27 131.816 66.633 131.031 66.633 c 130.246 
66.633 129.609 67.27 129.609 68.055 c 129.609 68.84 130.246 69.477 131.031
 69.477 c 131.816 69.477 132.453 68.84 132.453 68.055 c f
0.425175 w
q 1 0 0 -1 0 0 cm
89.938 -68.082 m 89.938 -45.41 l 131.031 -45.41 l 131.031 -68.082 l S Q
87.875 70.688 m 87.516 70.672 87.438 70.594 87.156 70 c 85.172 65.469 l
 85.016 65.469 l 83.359 69.391 l 82.844 70.547 82.75 70.672 82.375 70.688
 c 82.375 70.844 l 83.953 70.844 l 83.953 70.688 l 83.562 70.688 83.406 
70.594 83.406 70.359 c 83.406 70.266 83.422 70.156 83.469 70.062 c 83.828
 69.125 l 85.922 69.125 l 86.25 69.891 l 86.344 70.109 86.406 70.312 86.406
 70.422 c 86.406 70.625 86.266 70.688 85.844 70.688 c 85.844 70.844 l 87.875
 70.844 l h
83.969 68.797 m 84.891 66.609 l 85.812 68.797 l h
83.969 68.797 m f
82.633 43.043 m 83.305 43.09 83.383 43.168 83.398 43.762 c 83.398 47.293
 l 83.383 47.902 83.273 47.996 82.633 48.012 c 82.633 48.168 l 85.289 48.168
 l 85.898 48.168 86.477 47.996 86.773 47.73 c 87.055 47.48 87.211 47.121
 87.211 46.73 c 87.211 46.387 87.086 46.059 86.82 45.84 c 86.586 45.621 
86.367 45.527 85.852 45.402 c 86.273 45.293 86.43 45.215 86.633 45.043 c
 86.82 44.871 86.945 44.59 86.945 44.246 c 86.945 43.355 86.227 42.887 84.852
 42.887 c 82.633 42.887 l h
84.211 45.574 m 84.977 45.574 85.352 45.621 85.633 45.73 c 86.086 45.918
 86.305 46.246 86.305 46.746 c 86.305 47.168 86.133 47.48 85.82 47.668 c
 85.555 47.809 85.227 47.871 84.711 47.871 c 84.32 47.871 84.211 47.809 
84.211 47.543 c h
84.211 45.262 m 84.211 43.434 l 84.211 43.246 84.242 43.199 84.383 43.199
 c 84.727 43.184 l 85.617 43.168 86.133 43.574 86.133 44.277 c 86.133 44.902
 85.727 45.246 84.961 45.246 c h
84.211 45.262 m f
138.168 44.574 m 138.105 42.777 l 137.934 42.777 l 137.887 42.949 137.762
 43.043 137.59 43.043 c 137.527 43.043 137.402 43.027 137.293 42.98 c 136.902
 42.84 136.496 42.777 136.121 42.777 c 135.465 42.777 134.809 43.027 134.309
 43.465 c 133.762 43.965 133.449 44.699 133.449 45.574 c 133.449 47.199 
134.512 48.277 136.105 48.277 c 136.996 48.277 137.793 47.918 138.277 47.262
 c 138.137 47.121 l 137.543 47.684 137.012 47.934 136.355 47.934 c 135.855
 47.934 135.402 47.777 135.059 47.465 c 134.621 47.074 134.371 46.355 134.371
 45.465 c 134.371 44.027 135.121 43.105 136.277 43.105 c 136.73 43.105 137.137
 43.262 137.465 43.574 c 137.715 43.84 137.84 44.059 137.98 44.574 c h
138.168 44.574 m f
133.117 70.844 m 135.383 70.844 l 136.305 70.844 137.148 70.578 137.633
 70.141 c 138.148 69.672 138.445 68.953 138.445 68.188 c 138.445 67.469 
138.227 66.844 137.773 66.406 c 137.227 65.859 136.367 65.562 135.273 65.562
 c 133.117 65.562 l 133.117 65.719 l 133.742 65.781 133.82 65.844 133.82
 66.438 c 133.82 69.969 l 133.82 70.562 133.711 70.656 133.117 70.688 c 
h
134.633 66.172 m 134.633 65.922 134.711 65.859 135.055 65.859 c 135.742
 65.859 136.258 65.984 136.633 66.266 c 137.258 66.688 137.586 67.375 137.586
 68.234 c 137.586 69.172 137.258 69.844 136.617 70.219 c 136.211 70.453 
135.742 70.547 135.055 70.547 c 134.727 70.547 134.633 70.484 134.633 70.219
 c h
134.633 66.172 m f
Q Q
showpage
%%Trailer
end
%%EOF
