%!PS-Adobe-3.0 EPSF-3.0
%%Creator: cairo 1.17.4 (https://cairographics.org)
%%CreationDate: Thu Feb 24 10:47:00 2022
%%Pages: 1
%%DocumentData: Clean7Bit
%%LanguageLevel: 2
%%BoundingBox: 0 0 228 43
%%EndComments
%%BeginProlog
50 dict begin
/q { gsave } bind def
/Q { grestore } bind def
/cm { 6 array astore concat } bind def
/w { setlinewidth } bind def
/J { setlinecap } bind def
/j { setlinejoin } bind def
/M { setmiterlimit } bind def
/d { setdash } bind def
/m { moveto } bind def
/l { lineto } bind def
/c { curveto } bind def
/h { closepath } bind def
/re { exch dup neg 3 1 roll 5 3 roll moveto 0 rlineto
      0 exch rlineto 0 rlineto closepath } bind def
/S { stroke } bind def
/f { fill } bind def
/f* { eofill } bind def
/n { newpath } bind def
/W { clip } bind def
/W* { eoclip } bind def
/BT { } bind def
/ET { } bind def
/BDC { mark 3 1 roll /BDC pdfmark } bind def
/EMC { mark /EMC pdfmark } bind def
/cairo_store_point { /cairo_point_y exch def /cairo_point_x exch def } def
/Tj { show currentpoint cairo_store_point } bind def
/TJ {
  {
    dup
    type /stringtype eq
    { show } { -0.001 mul 0 cairo_font_matrix dtransform rmoveto } ifelse
  } forall
  currentpoint cairo_store_point
} bind def
/cairo_selectfont { cairo_font_matrix aload pop pop pop 0 0 6 array astore
    cairo_font exch selectfont cairo_point_x cairo_point_y moveto } bind def
/Tf { pop /cairo_font exch def /cairo_font_matrix where
      { pop cairo_selectfont } if } bind def
/Td { matrix translate cairo_font_matrix matrix concatmatrix dup
      /cairo_font_matrix exch def dup 4 get exch 5 get cairo_store_point
      /cairo_font where { pop cairo_selectfont } if } bind def
/Tm { 2 copy 8 2 roll 6 array astore /cairo_font_matrix exch def
      cairo_store_point /cairo_font where { pop cairo_selectfont } if } bind def
/g { setgray } bind def
/rg { setrgbcolor } bind def
/d1 { setcachedevice } bind def
/cairo_data_source {
  CairoDataIndex CairoData length lt
    { CairoData CairoDataIndex get /CairoDataIndex CairoDataIndex 1 add def }
    { () } ifelse
} def
/cairo_flush_ascii85_file { cairo_ascii85_file status { cairo_ascii85_file flushfile } if } def
/cairo_image { image cairo_flush_ascii85_file } def
/cairo_imagemask { imagemask cairo_flush_ascii85_file } def
%%EndProlog
%%BeginSetup
%%EndSetup
%%Page: 1 1
%%BeginPageSetup
%%PageBoundingBox: 0 0 228 43
%%EndPageSetup
q 0 0 228 43 rectclip
1 0 0 -1 0 43 cm q
0.74902 g
57.258 17.574 m 57.258 10.488 l 170.645 10.488 l 170.645 24.664 l 57.258
 24.664 l f
0 g
1.13366 w
0 J
0 j
[] 0.0 d
10 M q 1 0 0 -1 0 0 cm
57.258 -17.574 m 57.258 -10.488 l 170.645 -10.488 l 170.645 -24.664 l 57.258
 -24.664 l h
57.258 -17.574 m S Q
q 1 0 0 -1 0 0 cm
0.566 -17.574 m 0.566 -0.566 l 57.258 -0.566 l 57.258 -34.582 l 0.566 -34.582
 l h
0.566 -17.574 m S Q
Q q
169.918 0.043 57.898 36 re W n
q
169 0 59 37 re W n
  q
0 g
1.13366 w
0 J
0 j
[] 0.0 d
10 M q 1 0 0 -1 0 0 cm
170.645 -17.574 m 170.645 -0.566 l 227.336 -0.566 l 227.336 -34.582 l 170.645
 -34.582 l h
170.645 -17.574 m S Q
  Q
Q
Q q
0 g
14.684 14.531 m 9.668 14.531 l 9.246 16.062 l 9.418 16.062 l 9.793 15.078
 10.262 14.859 11.043 14.859 c 11.043 14.859 11.559 14.859 11.668 14.859
 c 10.371 19.531 l 10.121 20.438 9.809 20.422 9.449 20.422 c 9.434 20.578
 l 11.793 20.578 l 11.824 20.422 l 11.48 20.422 11.137 20.438 11.137 19.984
 c 11.137 19.859 11.168 19.719 11.215 19.531 c 12.496 14.859 l 13.246 14.859
 l 13.684 14.859 14.152 14.922 14.152 15.547 c 14.152 15.688 14.137 15.844
 14.09 16.062 c 14.262 16.062 l h
14.684 14.531 m f
24.621 17.656 m 24.621 17.156 l 18.621 17.156 l 18.621 17.656 l h
24.621 19.469 m 24.621 18.969 l 18.621 18.969 l 18.621 19.469 l h
24.621 19.469 m f
32.082 19.094 m 32.082 18.484 l 31.207 18.484 l 31.207 14.562 l 30.77 14.562
 l 28.176 18.469 l 28.176 19.094 l 30.473 19.094 l 30.473 20.578 l 31.207
 20.578 l 31.207 19.094 l h
30.473 18.484 m 28.535 18.484 l 30.457 15.5 l 30.473 15.5 l h
30.473 18.484 m f
36.508 17.625 m 36.508 16.016 35.773 14.562 34.523 14.562 c 33.258 14.562
 32.523 16.016 32.523 17.625 c 32.523 19.25 33.211 20.688 34.523 20.688 
c 35.727 20.688 36.508 19.25 36.508 17.625 c h
35.648 17.625 m 35.648 18.922 35.523 20.438 34.523 20.438 c 33.57 20.438
 33.383 18.922 33.383 17.625 c 33.383 16.547 33.508 14.797 34.523 14.797
 c 35.523 14.797 35.648 16.547 35.648 17.625 c h
35.648 17.625 m f
40.945 17.625 m 40.945 16.016 40.211 14.562 38.961 14.562 c 37.695 14.562
 36.961 16.016 36.961 17.625 c 36.961 19.25 37.648 20.688 38.961 20.688 
c 40.164 20.688 40.945 19.25 40.945 17.625 c h
40.086 17.625 m 40.086 18.922 39.961 20.438 38.961 20.438 c 38.008 20.438
 37.82 18.922 37.82 17.625 c 37.82 16.547 37.945 14.797 38.961 14.797 c 
39.961 14.797 40.086 16.547 40.086 17.625 c h
40.086 17.625 m f
46.418 14.812 m 46.965 14.844 47.027 14.875 47.027 15.094 c 47.027 15.281
 46.824 15.562 46.324 16.016 c 44.746 17.453 l 44.746 15.625 l 44.746 14.953
 44.84 14.859 45.574 14.812 c 45.574 14.641 l 43.027 14.641 l 43.027 14.812
 l 43.715 14.859 43.809 14.969 43.824 15.625 c 43.824 19.5 l 43.824 20.266
 43.715 20.359 43.027 20.406 c 43.027 20.578 l 45.543 20.578 l 45.543 20.406
 l 44.855 20.359 44.746 20.266 44.746 19.594 c 44.746 17.922 l 44.98 17.734
 l 45.918 18.672 l 46.621 19.375 47.09 19.984 47.09 20.203 c 47.09 20.344
 46.98 20.391 46.715 20.406 c 46.668 20.406 46.574 20.406 46.465 20.406 
c 46.465 20.578 l 49.199 20.578 l 49.199 20.406 l 48.73 20.406 48.605 20.312
 47.793 19.438 c 45.699 17.203 l 47.402 15.516 l 48.012 14.922 48.152 14.859
 48.762 14.812 c 48.762 14.641 l 46.418 14.641 l h
46.418 14.812 m f
184.762 14.531 m 179.746 14.531 l 179.324 16.062 l 179.496 16.062 l 179.871
 15.078 180.34 14.859 181.121 14.859 c 181.121 14.859 181.637 14.859 181.746
 14.859 c 180.449 19.531 l 180.199 20.438 179.887 20.422 179.527 20.422 
c 179.512 20.578 l 181.871 20.578 l 181.902 20.422 l 181.559 20.422 181.215
 20.438 181.215 19.984 c 181.215 19.859 181.246 19.719 181.293 19.531 c 
182.574 14.859 l 183.324 14.859 l 183.762 14.859 184.23 14.922 184.23 15.547
 c 184.23 15.688 184.215 15.844 184.168 16.062 c 184.34 16.062 l h
184.762 14.531 m f
194.699 17.656 m 194.699 17.156 l 188.699 17.156 l 188.699 17.656 l h
194.699 19.469 m 194.699 18.969 l 188.699 18.969 l 188.699 19.469 l h
194.699 19.469 m f
201.801 18.641 m 201.801 17.703 201.254 17.297 200.723 17.078 c 201.301
 16.641 201.488 16.234 201.488 15.75 c 201.488 15.234 201.066 14.562 200.098
 14.562 c 199.395 14.562 198.723 14.953 198.426 15.922 c 198.566 15.953 
l 198.754 15.594 199.113 15.141 199.77 15.141 c 200.41 15.141 200.785 15.578
 200.785 16.078 c 200.785 16.781 200.238 17.281 199.426 17.469 c 199.41 
17.656 l 200.801 17.594 201.145 18.5 201.145 19.062 c 201.145 19.734 200.66
 20.344 200.02 20.344 c 199.441 20.344 199.191 19.844 198.707 19.844 c 198.551
 19.844 198.363 20 198.363 20.203 c 198.363 20.578 198.926 20.688 199.332
 20.688 c 200.754 20.688 201.801 19.875 201.801 18.641 c h
201.801 18.641 m f
206.586 17.625 m 206.586 16.016 205.852 14.562 204.602 14.562 c 203.336
 14.562 202.602 16.016 202.602 17.625 c 202.602 19.25 203.289 20.688 204.602
 20.688 c 205.805 20.688 206.586 19.25 206.586 17.625 c h
205.727 17.625 m 205.727 18.922 205.602 20.438 204.602 20.438 c 203.648
 20.438 203.461 18.922 203.461 17.625 c 203.461 16.547 203.586 14.797 204.602
 14.797 c 205.602 14.797 205.727 16.547 205.727 17.625 c h
205.727 17.625 m f
211.023 17.625 m 211.023 16.016 210.289 14.562 209.039 14.562 c 207.773
 14.562 207.039 16.016 207.039 17.625 c 207.039 19.25 207.727 20.688 209.039
 20.688 c 210.242 20.688 211.023 19.25 211.023 17.625 c h
210.164 17.625 m 210.164 18.922 210.039 20.438 209.039 20.438 c 208.086
 20.438 207.898 18.922 207.898 17.625 c 207.898 16.547 208.023 14.797 209.039
 14.797 c 210.039 14.797 210.164 16.547 210.164 17.625 c h
210.164 17.625 m f
216.496 14.812 m 217.043 14.844 217.105 14.875 217.105 15.094 c 217.105
 15.281 216.902 15.562 216.402 16.016 c 214.824 17.453 l 214.824 15.625 
l 214.824 14.953 214.918 14.859 215.652 14.812 c 215.652 14.641 l 213.105
 14.641 l 213.105 14.812 l 213.793 14.859 213.887 14.969 213.902 15.625 
c 213.902 19.5 l 213.902 20.266 213.793 20.359 213.105 20.406 c 213.105 
20.578 l 215.621 20.578 l 215.621 20.406 l 214.934 20.359 214.824 20.266
 214.824 19.594 c 214.824 17.922 l 215.059 17.734 l 215.996 18.672 l 216.699
 19.375 217.168 19.984 217.168 20.203 c 217.168 20.344 217.059 20.391 216.793
 20.406 c 216.746 20.406 216.652 20.406 216.543 20.406 c 216.543 20.578 
l 219.277 20.578 l 219.277 20.406 l 218.809 20.406 218.684 20.312 217.871
 19.438 c 215.777 17.203 l 217.48 15.516 l 218.09 14.922 218.23 14.859 218.84
 14.812 c 218.84 14.641 l 216.496 14.641 l h
216.496 14.812 m f
115.266 21.258 m 113.949 17.578 l 112.637 21.258 l 113.949 19.785 l f
0.567043 w
0 J
0 j
[] 0.0 d
10 M q 1 0 0 -1 0 0 cm
113.949 -31.75 m 113.949 -19.785 l S Q
99.723 36.742 m 94.707 36.742 l 94.285 38.273 l 94.457 38.273 l 94.832 
37.289 95.301 37.07 96.082 37.07 c 96.082 37.07 96.598 37.07 96.707 37.07
 c 95.41 41.742 l 95.16 42.648 94.848 42.633 94.488 42.633 c 94.473 42.789
 l 96.832 42.789 l 96.863 42.633 l 96.52 42.633 96.176 42.648 96.176 42.195
 c 96.176 42.07 96.207 41.93 96.254 41.742 c 97.535 37.07 l 98.285 37.07
 l 98.723 37.07 99.191 37.133 99.191 37.758 c 99.191 37.898 99.176 38.055
 99.129 38.273 c 99.301 38.273 l h
99.723 36.742 m f
109.66 39.867 m 109.66 39.367 l 103.66 39.367 l 103.66 39.867 l h
109.66 41.68 m 109.66 41.18 l 103.66 41.18 l 103.66 41.68 l h
109.66 41.68 m f
116.762 40.852 m 116.762 39.914 116.215 39.508 115.684 39.289 c 116.262
 38.852 116.449 38.445 116.449 37.961 c 116.449 37.445 116.027 36.773 115.059
 36.773 c 114.355 36.773 113.684 37.164 113.387 38.133 c 113.527 38.164 
l 113.715 37.805 114.074 37.352 114.73 37.352 c 115.371 37.352 115.746 37.789
 115.746 38.289 c 115.746 38.992 115.199 39.492 114.387 39.68 c 114.371 
39.867 l 115.762 39.805 116.105 40.711 116.105 41.273 c 116.105 41.945 115.621
 42.555 114.98 42.555 c 114.402 42.555 114.152 42.055 113.668 42.055 c 113.512
 42.055 113.324 42.211 113.324 42.414 c 113.324 42.789 113.887 42.898 114.293
 42.898 c 115.715 42.898 116.762 42.086 116.762 40.852 c h
116.762 40.852 m f
121.484 36.867 m 119.016 36.867 l 117.906 39.414 l 118.047 39.383 118.188
 39.352 118.359 39.352 c 119.312 39.352 120.609 39.852 120.609 41.023 c 
120.609 41.93 119.953 42.508 119.328 42.508 c 118.781 42.508 118.578 42.008
 118.062 42.008 c 117.812 42.008 117.734 42.227 117.734 42.336 c 117.734
 42.648 118.172 42.898 118.797 42.898 c 120.141 42.898 121.203 41.914 121.203
 40.711 c 121.203 39.289 120.078 38.805 118.859 38.773 c 118.75 38.773 118.625
 38.789 118.516 38.805 c 119.078 37.539 l 121.172 37.523 l h
121.484 36.867 m f
125.984 39.836 m 125.984 38.227 125.25 36.773 124 36.773 c 122.734 36.773
 122 38.227 122 39.836 c 122 41.461 122.688 42.898 124 42.898 c 125.203 
42.898 125.984 41.461 125.984 39.836 c h
125.125 39.836 m 125.125 41.133 125 42.648 124 42.648 c 123.047 42.648 
122.859 41.133 122.859 39.836 c 122.859 38.758 122.984 37.008 124 37.008
 c 125 37.008 125.125 38.758 125.125 39.836 c h
125.125 39.836 m f
131.457 37.023 m 132.004 37.055 132.066 37.086 132.066 37.305 c 132.066
 37.492 131.863 37.773 131.363 38.227 c 129.785 39.664 l 129.785 37.836 
l 129.785 37.164 129.879 37.07 130.613 37.023 c 130.613 36.852 l 128.066
 36.852 l 128.066 37.023 l 128.754 37.07 128.848 37.18 128.863 37.836 c 
128.863 41.711 l 128.863 42.477 128.754 42.57 128.066 42.617 c 128.066 42.789
 l 130.582 42.789 l 130.582 42.617 l 129.895 42.57 129.785 42.477 129.785
 41.805 c 129.785 40.133 l 130.02 39.945 l 130.957 40.883 l 131.66 41.586
 132.129 42.195 132.129 42.414 c 132.129 42.555 132.02 42.602 131.754 42.617
 c 131.707 42.617 131.613 42.617 131.504 42.617 c 131.504 42.789 l 134.238
 42.789 l 134.238 42.617 l 133.77 42.617 133.645 42.523 132.832 41.648 c
 130.738 39.414 l 132.441 37.727 l 133.051 37.133 133.191 37.07 133.801 
37.023 c 133.801 36.852 l 131.457 36.852 l h
131.457 37.023 m f
Q Q
showpage
%%Trailer
end
%%EOF
