<?xml version="1.0" encoding="UTF-8" standalone="no"?>
<svg
   width="227.9pt"
   height="51.3pt"
   viewBox="0 0 227.9 51.3"
   version="1.2"
   id="svg126"
   xmlns:xlink="http://www.w3.org/1999/xlink"
   xmlns="http://www.w3.org/2000/svg"
   xmlns:svg="http://www.w3.org/2000/svg">
  <defs
     id="defs37">
    <g
       id="g32">
      <symbol
         overflow="visible"
         id="glyph0-0">
        <path
           style="stroke:none;"
           d=""
           id="path2" />
      </symbol>
      <symbol
         overflow="visible"
         id="glyph0-1">
        <path
           style="stroke:none;"
           d="M 6.171875 -6.046875 L 1.15625 -6.046875 L 0.734375 -4.515625 L 0.90625 -4.515625 C 1.28125 -5.5 1.75 -5.71875 2.53125 -5.71875 C 2.53125 -5.71875 3.046875 -5.71875 3.15625 -5.71875 L 1.859375 -1.046875 C 1.609375 -0.140625 1.296875 -0.15625 0.9375 -0.15625 L 0.921875 0 L 3.28125 0 L 3.3125 -0.15625 C 2.96875 -0.15625 2.625 -0.140625 2.625 -0.59375 C 2.625 -0.71875 2.65625 -0.859375 2.703125 -1.046875 L 3.984375 -5.71875 L 4.734375 -5.71875 C 5.171875 -5.71875 5.640625 -5.65625 5.640625 -5.03125 C 5.640625 -4.890625 5.625 -4.734375 5.578125 -4.515625 L 5.75 -4.515625 Z M 6.171875 -6.046875 "
           id="path5" />
      </symbol>
      <symbol
         overflow="visible"
         id="glyph0-2">
        <path
           style="stroke:none;"
           d="M 4.25 -1.484375 L 4.25 -2.09375 L 3.375 -2.09375 L 3.375 -6.015625 L 2.9375 -6.015625 L 0.34375 -2.109375 L 0.34375 -1.484375 L 2.640625 -1.484375 L 2.640625 0 L 3.375 0 L 3.375 -1.484375 Z M 2.640625 -2.09375 L 0.703125 -2.09375 L 2.625 -5.078125 L 2.640625 -5.078125 Z M 2.640625 -2.09375 "
           id="path8" />
      </symbol>
      <symbol
         overflow="visible"
         id="glyph0-3">
        <path
           style="stroke:none;"
           d="M 4.234375 -2.953125 C 4.234375 -4.5625 3.5 -6.015625 2.25 -6.015625 C 0.984375 -6.015625 0.25 -4.5625 0.25 -2.953125 C 0.25 -1.328125 0.9375 0.109375 2.25 0.109375 C 3.453125 0.109375 4.234375 -1.328125 4.234375 -2.953125 Z M 3.375 -2.953125 C 3.375 -1.65625 3.25 -0.140625 2.25 -0.140625 C 1.296875 -0.140625 1.109375 -1.65625 1.109375 -2.953125 C 1.109375 -4.03125 1.234375 -5.78125 2.25 -5.78125 C 3.25 -5.78125 3.375 -4.03125 3.375 -2.953125 Z M 3.375 -2.953125 "
           id="path11" />
      </symbol>
      <symbol
         overflow="visible"
         id="glyph0-4">
        <path
           style="stroke:none;"
           d="M 3.890625 -1.9375 C 3.890625 -2.875 3.34375 -3.28125 2.8125 -3.5 C 3.390625 -3.9375 3.578125 -4.34375 3.578125 -4.828125 C 3.578125 -5.34375 3.15625 -6.015625 2.1875 -6.015625 C 1.484375 -6.015625 0.8125 -5.625 0.515625 -4.65625 L 0.65625 -4.625 C 0.84375 -4.984375 1.203125 -5.4375 1.859375 -5.4375 C 2.5 -5.4375 2.875 -5 2.875 -4.5 C 2.875 -3.796875 2.328125 -3.296875 1.515625 -3.109375 L 1.5 -2.921875 C 2.890625 -2.984375 3.234375 -2.078125 3.234375 -1.515625 C 3.234375 -0.84375 2.75 -0.234375 2.109375 -0.234375 C 1.53125 -0.234375 1.28125 -0.734375 0.796875 -0.734375 C 0.640625 -0.734375 0.453125 -0.578125 0.453125 -0.375 C 0.453125 0 1.015625 0.109375 1.421875 0.109375 C 2.84375 0.109375 3.890625 -0.703125 3.890625 -1.9375 Z M 3.890625 -1.9375 "
           id="path14" />
      </symbol>
      <symbol
         overflow="visible"
         id="glyph0-5">
        <path
           style="stroke:none;"
           d="M 4.171875 -5.921875 L 1.703125 -5.921875 L 0.59375 -3.375 C 0.734375 -3.40625 0.875 -3.4375 1.046875 -3.4375 C 2 -3.4375 3.296875 -2.9375 3.296875 -1.765625 C 3.296875 -0.859375 2.640625 -0.28125 2.015625 -0.28125 C 1.46875 -0.28125 1.265625 -0.78125 0.75 -0.78125 C 0.5 -0.78125 0.421875 -0.5625 0.421875 -0.453125 C 0.421875 -0.140625 0.859375 0.109375 1.484375 0.109375 C 2.828125 0.109375 3.890625 -0.875 3.890625 -2.078125 C 3.890625 -3.5 2.765625 -3.984375 1.546875 -4.015625 C 1.4375 -4.015625 1.3125 -4 1.203125 -3.984375 L 1.765625 -5.25 L 3.859375 -5.265625 Z M 4.171875 -5.921875 "
           id="path17" />
      </symbol>
      <symbol
         overflow="visible"
         id="glyph1-0">
        <path
           style="stroke:none;"
           d=""
           id="path20" />
      </symbol>
      <symbol
         overflow="visible"
         id="glyph1-1">
        <path
           style="stroke:none;"
           d="M 6.75 -2.921875 L 6.75 -3.421875 L 0.75 -3.421875 L 0.75 -2.921875 Z M 6.75 -1.109375 L 6.75 -1.609375 L 0.75 -1.609375 L 0.75 -1.109375 Z M 6.75 -1.109375 "
           id="path23" />
      </symbol>
      <symbol
         overflow="visible"
         id="glyph2-0">
        <path
           style="stroke:none;"
           d=""
           id="path26" />
      </symbol>
      <symbol
         overflow="visible"
         id="glyph2-1">
        <path
           style="stroke:none;"
           d="M 3.703125 -5.765625 C 4.25 -5.734375 4.3125 -5.703125 4.3125 -5.484375 C 4.3125 -5.296875 4.109375 -5.015625 3.609375 -4.5625 L 2.03125 -3.125 L 2.03125 -4.953125 C 2.03125 -5.625 2.125 -5.71875 2.859375 -5.765625 L 2.859375 -5.9375 L 0.3125 -5.9375 L 0.3125 -5.765625 C 1 -5.71875 1.09375 -5.609375 1.109375 -4.953125 L 1.109375 -1.078125 C 1.109375 -0.3125 1 -0.21875 0.3125 -0.171875 L 0.3125 0 L 2.828125 0 L 2.828125 -0.171875 C 2.140625 -0.21875 2.03125 -0.3125 2.03125 -0.984375 L 2.03125 -2.65625 L 2.265625 -2.84375 L 3.203125 -1.90625 C 3.90625 -1.203125 4.375 -0.59375 4.375 -0.375 C 4.375 -0.234375 4.265625 -0.1875 4 -0.171875 C 3.953125 -0.171875 3.859375 -0.171875 3.75 -0.171875 L 3.75 0 L 6.484375 0 L 6.484375 -0.171875 C 6.015625 -0.171875 5.890625 -0.265625 5.078125 -1.140625 L 2.984375 -3.375 L 4.6875 -5.0625 C 5.296875 -5.65625 5.4375 -5.71875 6.046875 -5.765625 L 6.046875 -5.9375 L 3.703125 -5.9375 Z M 3.703125 -5.765625 "
           id="path29" />
      </symbol>
    </g>
    <clipPath
       id="clip1">
      <path
         d="M 170 0 L 227.898438 0 L 227.898438 36 L 170 36 Z M 170 0 "
         id="path34" />
    </clipPath>
  </defs>
  <g
     id="surface1">
    <path
       style=" stroke:none;fill-rule:nonzero;fill:rgb(75%,75%,75%);fill-opacity:1;"
       d="M 57.339844 17.53125 L 57.339844 10.445312 L 170.726562 10.445312 L 170.726562 24.621094 L 57.339844 24.621094 "
       id="path39" />
    <path
       style="fill:none;stroke-width:11.3366;stroke-linecap:butt;stroke-linejoin:miter;stroke:rgb(0%,0%,0%);stroke-opacity:1;stroke-miterlimit:10;"
       d="M 573.398438 337.6875 L 573.398438 408.546875 L 1707.265625 408.546875 L 1707.265625 266.789062 L 573.398438 266.789062 Z M 573.398438 337.6875 "
       transform="matrix(0.1,0,0,-0.1,0,51.3)"
       id="path41" />
    <path
       style="fill:none;stroke-width:11.3366;stroke-linecap:butt;stroke-linejoin:miter;stroke:rgb(0%,0%,0%);stroke-opacity:1;stroke-miterlimit:10;"
       d="M 6.484375 337.6875 L 6.484375 507.765625 L 573.398438 507.765625 L 573.398438 167.609375 L 6.484375 167.609375 Z M 6.484375 337.6875 "
       transform="matrix(0.1,0,0,-0.1,0,51.3)"
       id="path43" />
    <g
       clip-path="url(#clip1)"
       clip-rule="nonzero"
       id="g47">
      <path
         style="fill:none;stroke-width:11.3366;stroke-linecap:butt;stroke-linejoin:miter;stroke:rgb(0%,0%,0%);stroke-opacity:1;stroke-miterlimit:10;"
         d="M 1707.265625 337.6875 L 1707.265625 507.765625 L 2274.179688 507.765625 L 2274.179688 167.609375 L 1707.265625 167.609375 Z M 1707.265625 337.6875 "
         transform="matrix(0.1,0,0,-0.1,0,51.3)"
         id="path45" />
    </g>
    <g
       style="fill:rgb(0%,0%,0%);fill-opacity:1;"
       id="g51">
      <use
         xlink:href="#glyph0-1"
         x="8.59414"
         y="20.5328"
         id="use49" />
    </g>
    <g
       style="fill:rgb(0%,0%,0%);fill-opacity:1;"
       id="g55">
      <use
         xlink:href="#glyph1-1"
         x="17.9543"
         y="20.5328"
         id="use53" />
    </g>
    <g
       style="fill:rgb(0%,0%,0%);fill-opacity:1;"
       id="g59">
      <use
         xlink:href="#glyph0-2"
         x="27.91446"
         y="20.5328"
         id="use57" />
    </g>
    <g
       style="fill:rgb(0%,0%,0%);fill-opacity:1;"
       id="g63">
      <use
         xlink:href="#glyph0-3"
         x="32.354303"
         y="20.5328"
         id="use61" />
    </g>
    <g
       style="fill:rgb(0%,0%,0%);fill-opacity:1;"
       id="g67">
      <use
         xlink:href="#glyph0-3"
         x="36.794146"
         y="20.5328"
         id="use65" />
    </g>
    <g
       style="fill:rgb(0%,0%,0%);fill-opacity:1;"
       id="g71">
      <use
         xlink:href="#glyph2-1"
         x="42.79456"
         y="20.5328"
         id="use69" />
    </g>
    <g
       style="fill:rgb(0%,0%,0%);fill-opacity:1;"
       id="g75">
      <use
         xlink:href="#glyph0-1"
         x="178.67256"
         y="20.5328"
         id="use73" />
    </g>
    <g
       style="fill:rgb(0%,0%,0%);fill-opacity:1;"
       id="g79">
      <use
         xlink:href="#glyph1-1"
         x="188.03272"
         y="20.5328"
         id="use77" />
    </g>
    <g
       style="fill:rgb(0%,0%,0%);fill-opacity:1;"
       id="g83">
      <use
         xlink:href="#glyph0-4"
         x="197.99288"
         y="20.5328"
         id="use81" />
    </g>
    <g
       style="fill:rgb(0%,0%,0%);fill-opacity:1;"
       id="g87">
      <use
         xlink:href="#glyph0-3"
         x="202.432723"
         y="20.5328"
         id="use85" />
    </g>
    <g
       style="fill:rgb(0%,0%,0%);fill-opacity:1;"
       id="g91">
      <use
         xlink:href="#glyph0-3"
         x="206.872578"
         y="20.5328"
         id="use89" />
    </g>
    <g
       style="fill:rgb(0%,0%,0%);fill-opacity:1;"
       id="g95">
      <use
         xlink:href="#glyph2-1"
         x="212.87298"
         y="20.5328"
         id="use93" />
    </g>
    <path
       style=" stroke:none;fill-rule:nonzero;fill:rgb(0%,0%,0%);fill-opacity:1;"
       d="M 115.347656 21.214844 L 114.03125 17.535156 L 112.71875 21.214844 L 114.03125 19.742188 "
       id="path97" />
    <path
       style="fill:none;stroke-width:5.67043;stroke-linecap:butt;stroke-linejoin:miter;stroke:rgb(0%,0%,0%);stroke-opacity:1;stroke-miterlimit:10;"
       d="M 1140.3125 195.929688 L 1140.3125 315.578125 "
       transform="matrix(0.1,0,0,-0.1,0,51.3)"
       id="path99" />
    <g
       style="fill:rgb(0%,0%,0%);fill-opacity:1;"
       id="g103">
      <use
         xlink:href="#glyph0-1"
         x="93.6328"
         y="42.74609"
         id="use101" />
    </g>
    <g
       style="fill:rgb(0%,0%,0%);fill-opacity:1;"
       id="g107">
      <use
         xlink:href="#glyph1-1"
         x="102.99335"
         y="42.74609"
         id="use105" />
    </g>
    <g
       style="fill:rgb(0%,0%,0%);fill-opacity:1;"
       id="g111">
      <use
         xlink:href="#glyph0-4"
         x="112.95351"
         y="42.74609"
         id="use109" />
    </g>
    <g
       style="fill:rgb(0%,0%,0%);fill-opacity:1;"
       id="g115">
      <use
         xlink:href="#glyph0-5"
         x="117.393353"
         y="42.74609"
         id="use113" />
    </g>
    <g
       style="fill:rgb(0%,0%,0%);fill-opacity:1;"
       id="g119">
      <use
         xlink:href="#glyph0-3"
         x="121.833196"
         y="42.74609"
         id="use117" />
    </g>
    <g
       style="fill:rgb(0%,0%,0%);fill-opacity:1;"
       id="g123">
      <use
         xlink:href="#glyph2-1"
         x="127.83361"
         y="42.74609"
         id="use121" />
    </g>
  </g>
</svg>
