%!PS-Adobe-3.0 EPSF-3.0
%%Creator: cairo 1.17.4 (https://cairographics.org)
%%CreationDate: Thu Feb 24 10:47:01 2022
%%Pages: 1
%%DocumentData: Clean7Bit
%%LanguageLevel: 2
%%BoundingBox: 0 0 91 47
%%EndComments
%%BeginProlog
50 dict begin
/q { gsave } bind def
/Q { grestore } bind def
/cm { 6 array astore concat } bind def
/w { setlinewidth } bind def
/J { setlinecap } bind def
/j { setlinejoin } bind def
/M { setmiterlimit } bind def
/d { setdash } bind def
/m { moveto } bind def
/l { lineto } bind def
/c { curveto } bind def
/h { closepath } bind def
/re { exch dup neg 3 1 roll 5 3 roll moveto 0 rlineto
      0 exch rlineto 0 rlineto closepath } bind def
/S { stroke } bind def
/f { fill } bind def
/f* { eofill } bind def
/n { newpath } bind def
/W { clip } bind def
/W* { eoclip } bind def
/BT { } bind def
/ET { } bind def
/BDC { mark 3 1 roll /BDC pdfmark } bind def
/EMC { mark /EMC pdfmark } bind def
/cairo_store_point { /cairo_point_y exch def /cairo_point_x exch def } def
/Tj { show currentpoint cairo_store_point } bind def
/TJ {
  {
    dup
    type /stringtype eq
    { show } { -0.001 mul 0 cairo_font_matrix dtransform rmoveto } ifelse
  } forall
  currentpoint cairo_store_point
} bind def
/cairo_selectfont { cairo_font_matrix aload pop pop pop 0 0 6 array astore
    cairo_font exch selectfont cairo_point_x cairo_point_y moveto } bind def
/Tf { pop /cairo_font exch def /cairo_font_matrix where
      { pop cairo_selectfont } if } bind def
/Td { matrix translate cairo_font_matrix matrix concatmatrix dup
      /cairo_font_matrix exch def dup 4 get exch 5 get cairo_store_point
      /cairo_font where { pop cairo_selectfont } if } bind def
/Tm { 2 copy 8 2 roll 6 array astore /cairo_font_matrix exch def
      cairo_store_point /cairo_font where { pop cairo_selectfont } if } bind def
/g { setgray } bind def
/rg { setrgbcolor } bind def
/d1 { setcachedevice } bind def
/cairo_data_source {
  CairoDataIndex CairoData length lt
    { CairoData CairoDataIndex get /CairoDataIndex CairoDataIndex 1 add def }
    { () } ifelse
} def
/cairo_flush_ascii85_file { cairo_ascii85_file status { cairo_ascii85_file flushfile } if } def
/cairo_image { image cairo_flush_ascii85_file } def
/cairo_imagemask { imagemask cairo_flush_ascii85_file } def
%%EndProlog
%%BeginSetup
%%EndSetup
%%Page: 1 1
%%BeginPageSetup
%%PageBoundingBox: 0 0 91 47
%%EndPageSetup
q 0 0 91 47 rectclip
1 0 0 -1 0 47 cm q
Q q
1.977 31.02 73 15.199 re W n
q
1 31 74 16 re W n
  q
0 g
0.850361 w
0 J
0 j
[] 0.0 d
10 M q 1 0 0 -1 0 0 cm
2.836 -38.691 m 2.836 -31.605 l 73.703 -31.605 l 73.703 -45.781 l 2.836
 -45.781 l h
2.836 -38.691 m S Q
  Q
Q
Q q
0 g
78.543 37.094 m 74.07 38.691 l 78.543 40.289 l 76.754 38.691 l f
Q q
75.977 38.02 14.699 2 re W n
q
75 38 16 3 re W n
  q
0 g
0.850361 w
0 J
0 j
[] 0.0 d
10 M q 1 0 0 -1 0 0 cm
76.754 -38.691 m 90.711 -38.691 l S Q
  Q
Q
Q q
0 g
0.850361 w
0 J
0 j
[] 0.0 d
10 M q 1 0 0 -1 0 0 cm
17.008 -7.512 m 17.008 -0.426 l 87.875 -0.426 l 87.875 -14.598 l 17.008
 -14.598 l h
17.008 -7.512 m S Q
12.113 9.109 m 16.586 7.512 l 12.113 5.914 l 13.898 7.512 l f
q 1 0 0 -1 0 0 cm
0 -7.512 m 13.898 -7.512 l S Q
0.74902 g
38.27 31.605 m 17.008 31.605 l 31.184 14.598 l 73.703 14.598 l 59.531 31.605
 l f
0 g
q 1 0 0 -1 0 0 cm
38.27 -31.605 m 17.008 -31.605 l 31.184 -14.598 l 73.703 -14.598 l 59.531
 -31.605 l h
38.27 -31.605 m S Q
Q Q
showpage
%%Trailer
end
%%EOF
