%!PS-Adobe-3.0 EPSF-3.0
%%Creator: cairo 1.17.4 (https://cairographics.org)
%%CreationDate: Thu Feb 24 10:47:33 2022
%%Pages: 1
%%DocumentData: Clean7Bit
%%LanguageLevel: 2
%%BoundingBox: 0 0 153 140
%%EndComments
%%BeginProlog
50 dict begin
/q { gsave } bind def
/Q { grestore } bind def
/cm { 6 array astore concat } bind def
/w { setlinewidth } bind def
/J { setlinecap } bind def
/j { setlinejoin } bind def
/M { setmiterlimit } bind def
/d { setdash } bind def
/m { moveto } bind def
/l { lineto } bind def
/c { curveto } bind def
/h { closepath } bind def
/re { exch dup neg 3 1 roll 5 3 roll moveto 0 rlineto
      0 exch rlineto 0 rlineto closepath } bind def
/S { stroke } bind def
/f { fill } bind def
/f* { eofill } bind def
/n { newpath } bind def
/W { clip } bind def
/W* { eoclip } bind def
/BT { } bind def
/ET { } bind def
/BDC { mark 3 1 roll /BDC pdfmark } bind def
/EMC { mark /EMC pdfmark } bind def
/cairo_store_point { /cairo_point_y exch def /cairo_point_x exch def } def
/Tj { show currentpoint cairo_store_point } bind def
/TJ {
  {
    dup
    type /stringtype eq
    { show } { -0.001 mul 0 cairo_font_matrix dtransform rmoveto } ifelse
  } forall
  currentpoint cairo_store_point
} bind def
/cairo_selectfont { cairo_font_matrix aload pop pop pop 0 0 6 array astore
    cairo_font exch selectfont cairo_point_x cairo_point_y moveto } bind def
/Tf { pop /cairo_font exch def /cairo_font_matrix where
      { pop cairo_selectfont } if } bind def
/Td { matrix translate cairo_font_matrix matrix concatmatrix dup
      /cairo_font_matrix exch def dup 4 get exch 5 get cairo_store_point
      /cairo_font where { pop cairo_selectfont } if } bind def
/Tm { 2 copy 8 2 roll 6 array astore /cairo_font_matrix exch def
      cairo_store_point /cairo_font where { pop cairo_selectfont } if } bind def
/g { setgray } bind def
/rg { setrgbcolor } bind def
/d1 { setcachedevice } bind def
/cairo_data_source {
  CairoDataIndex CairoData length lt
    { CairoData CairoDataIndex get /CairoDataIndex CairoDataIndex 1 add def }
    { () } ifelse
} def
/cairo_flush_ascii85_file { cairo_ascii85_file status { cairo_ascii85_file flushfile } if } def
/cairo_image { image cairo_flush_ascii85_file } def
/cairo_imagemask { imagemask cairo_flush_ascii85_file } def
%%EndProlog
%%BeginSetup
%%EndSetup
%%Page: 1 1
%%BeginPageSetup
%%PageBoundingBox: 0 0 153 140
%%EndPageSetup
q 0 0 153 140 rectclip
1 0 0 -1 0 140 cm q
0 g
1.13366 w
0 J
0 j
[] 0.0 d
10 M q 1 0 0 -1 0 0 cm
31.641 -3.055 m 32.016 -3.996 l 32.395 -4.93 l 32.773 -5.855 l 33.152 -6.773
 l 33.527 -7.684 l 33.906 -8.59 l 34.285 -9.484 l 34.664 -10.371 l 35.039
 -11.254 l 35.418 -12.129 l 35.797 -12.996 l 36.176 -13.859 l 36.555 -14.711
 l 36.93 -15.559 l 37.309 -16.402 l 37.688 -17.234 l 38.066 -18.062 l 38.441
 -18.887 l 38.82 -19.703 l 39.199 -20.512 l 39.578 -21.312 l 39.953 -22.109
 l 40.332 -22.902 l 40.711 -23.688 l 41.09 -24.465 l 41.465 -25.238 l 41.844
 -26.008 l 42.223 -26.77 l 42.977 -28.277 l 43.355 -29.023 l 43.734 -29.766
 l 44.113 -30.5 l 44.488 -31.23 l 44.867 -31.957 l 45.246 -32.676 l 45.625
 -33.391 l 46 -34.102 l 46.379 -34.805 l 46.758 -35.504 l 47.137 -36.199
 l 47.512 -36.891 l 48.27 -38.258 l 48.648 -38.934 l 49.023 -39.605 l 49.781
 -40.934 l 50.16 -41.594 l 50.535 -42.246 l 50.914 -42.895 l 51.293 -43.539
 l 51.672 -44.18 l 52.051 -44.816 l 52.426 -45.449 l 52.805 -46.078 l 53.184
 -46.703 l 53.559 -47.324 l 54.316 -48.551 l 54.695 -49.16 l 55.074 -49.766
 l 55.449 -50.363 l 55.828 -50.961 l 56.207 -51.555 l 56.586 -52.145 l 56.961
 -52.73 l 57.34 -53.312 l 57.719 -53.891 l 58.098 -54.465 l 58.473 -55.035
 l 58.852 -55.605 l 59.23 -56.168 l 59.605 -56.73 l 60.363 -57.84 l 60.742
 -58.391 l 61.117 -58.941 l 61.496 -59.484 l 62.254 -60.562 l 62.633 -61.098
 l 63.008 -61.629 l 63.766 -62.684 l 64.145 -63.207 l 64.52 -63.723 l 65.277
 -64.754 l 65.656 -65.262 l 66.031 -65.77 l 66.789 -66.777 l 67.164 -67.277
 l 67.543 -67.77 l 67.922 -68.266 l 68.68 -69.242 l 69.055 -69.727 l 69.434
 -70.211 l 70.191 -71.164 l 70.566 -71.641 l 70.945 -72.113 l 71.324 -72.582
 l 72.082 -73.512 l 72.457 -73.973 l 73.215 -74.887 l 73.59 -75.344 l 74.348
 -76.242 l 74.727 -76.688 l 75.102 -77.133 l 75.48 -77.578 l 76.238 -78.453
 l 76.613 -78.887 l 77.371 -79.754 l 77.75 -80.18 l 78.125 -80.605 l 78.504
 -81.031 l 78.883 -81.453 l 79.641 -82.289 l 80.016 -82.707 l 80.395 -83.121
 l 80.773 -83.531 l 81.148 -83.938 l 81.527 -84.348 l 82.285 -85.152 l 82.66
 -85.555 l 83.418 -86.352 l 84.176 -87.141 l 84.551 -87.531 l 84.93 -87.922
 l 85.309 -88.309 l 85.684 -88.691 l 86.062 -89.078 l 86.441 -89.461 l 87.574
 -90.594 l 87.953 -90.969 l 88.711 -91.711 l 89.086 -92.082 l 89.465 -92.449
 l 89.844 -92.812 l 90.223 -93.18 l 90.598 -93.539 l 90.977 -93.902 l 91.355
 -94.262 l 91.734 -94.617 l 92.109 -94.973 l 92.488 -95.328 l 92.867 -95.68
 l 93.242 -96.031 l 94.379 -97.074 l 94.758 -97.418 l 95.133 -97.762 l 95.891
 -98.441 l 96.27 -98.777 l 96.645 -99.117 l 97.023 -99.453 l 97.781 -100.117
 l 98.156 -100.449 l 98.914 -101.105 l 99.293 -101.43 l 99.668 -101.758 
l 100.047 -102.082 l 100.805 -102.723 l 101.18 -103.043 l 102.316 -103.992
 l 102.691 -104.305 l 103.449 -104.93 l 104.207 -105.547 l 104.582 -105.855
 l 105.34 -106.465 l 105.715 -106.77 l 106.852 -107.672 l 107.227 -107.969
 l 107.984 -108.562 l 108.363 -108.855 l 108.738 -109.148 l 109.496 -109.734
 l 110.254 -110.312 l 110.629 -110.598 l 111.008 -110.887 l 111.387 -111.172
 l 111.766 -111.453 l 112.141 -111.738 l 112.898 -112.301 l 113.273 -112.578
 l 113.652 -112.855 l 114.031 -113.137 l 114.41 -113.41 l 114.785 -113.684
 l 115.164 -113.961 l 115.543 -114.23 l 115.922 -114.504 l 116.301 -114.773
 l 116.676 -115.043 l 117.434 -115.582 l 117.812 -115.848 l 118.188 -116.113
 l 118.566 -116.375 l S Q
q 1 0 0 -1 0 0 cm
41.465 -3.422 m 41.844 -4.258 l 42.223 -5.082 l 42.602 -5.902 l 42.977 
-6.715 l 43.355 -7.523 l 43.734 -8.328 l 44.113 -9.125 l 44.488 -9.914 l
 44.867 -10.699 l 45.246 -11.48 l 45.625 -12.254 l 46 -13.023 l 46.379 -13.789
 l 46.758 -14.547 l 47.137 -15.297 l 47.512 -16.047 l 47.891 -16.789 l 48.27
 -17.527 l 48.648 -18.258 l 49.023 -18.984 l 49.402 -19.711 l 50.16 -21.141
 l 50.535 -21.848 l 50.914 -22.551 l 51.293 -23.25 l 51.672 -23.945 l 52.051
 -24.637 l 52.426 -25.32 l 52.805 -26 l 53.184 -26.676 l 53.559 -27.348 
l 53.938 -28.016 l 54.316 -28.68 l 54.695 -29.34 l 55.074 -29.996 l 55.449
 -30.645 l 55.828 -31.293 l 56.586 -32.574 l 56.961 -33.207 l 57.34 -33.84
 l 58.098 -35.09 l 58.473 -35.707 l 59.23 -36.934 l 59.605 -37.543 l 60.363
 -38.746 l 60.742 -39.344 l 61.117 -39.938 l 61.496 -40.527 l 61.875 -41.113
 l 62.254 -41.695 l 62.633 -42.273 l 63.008 -42.852 l 63.766 -43.992 l 64.145
 -44.559 l 64.52 -45.121 l 64.898 -45.68 l 65.656 -46.789 l 66.031 -47.34
 l 66.41 -47.883 l 66.789 -48.43 l 67.164 -48.969 l 67.922 -50.039 l 68.301
 -50.57 l 68.68 -51.098 l 69.055 -51.625 l 69.434 -52.148 l 69.812 -52.664
 l 70.191 -53.184 l 70.566 -53.699 l 71.703 -55.223 l 72.082 -55.723 l 72.457
 -56.223 l 72.836 -56.723 l 73.215 -57.215 l 73.59 -57.707 l 73.969 -58.199
 l 74.727 -59.168 l 75.102 -59.648 l 75.48 -60.129 l 75.859 -60.605 l 76.238
 -61.078 l 76.613 -61.551 l 76.992 -62.02 l 77.75 -62.949 l 78.125 -63.41
 l 78.504 -63.871 l 78.883 -64.328 l 79.641 -65.234 l 80.016 -65.688 l 80.773
 -66.578 l 81.148 -67.023 l 81.527 -67.465 l 82.285 -68.34 l 82.66 -68.773
 l 83.039 -69.207 l 83.418 -69.637 l 84.176 -70.488 l 84.551 -70.914 l 85.309
 -71.758 l 85.684 -72.176 l 86.441 -73.004 l 87.199 -73.824 l 87.574 -74.23
 l 88.332 -75.043 l 88.711 -75.445 l 89.086 -75.844 l 89.465 -76.242 l 90.223
 -77.031 l 90.598 -77.426 l 91.355 -78.207 l 91.734 -78.594 l 92.109 -78.977
 l 92.867 -79.742 l 93.242 -80.125 l 93.621 -80.5 l 94 -80.879 l 94.379 
-81.254 l 94.758 -81.625 l 95.133 -81.996 l 95.512 -82.367 l 96.27 -83.102
 l 96.645 -83.465 l 97.402 -84.191 l 97.781 -84.551 l 98.156 -84.91 l 99.293
 -85.977 l 99.668 -86.328 l 100.047 -86.68 l 100.805 -87.375 l 101.18 -87.719
 l 101.559 -88.066 l 101.938 -88.406 l 102.316 -88.75 l 102.691 -89.09 l
 103.07 -89.43 l 103.828 -90.102 l 104.207 -90.434 l 104.582 -90.77 l 104.961
 -91.098 l 105.34 -91.43 l 105.715 -91.758 l 106.094 -92.086 l 106.852 -92.734
 l 107.227 -93.059 l 107.605 -93.383 l 107.984 -93.703 l 108.363 -94.02 
l 108.738 -94.34 l 109.496 -94.973 l 110.254 -95.598 l 110.629 -95.906 l
 111.008 -96.219 l 111.766 -96.836 l 112.141 -97.141 l 112.52 -97.449 l 
112.898 -97.75 l 113.273 -98.055 l 114.031 -98.656 l 114.41 -98.953 l 114.785
 -99.254 l 115.164 -99.551 l 115.543 -99.844 l 115.922 -100.141 l 116.301
 -100.434 l 116.676 -100.723 l 117.055 -101.016 l 117.812 -101.594 l 118.188
 -101.883 l 119.324 -102.738 l 119.699 -103.02 l 120.078 -103.305 l 120.457
 -103.586 l 120.836 -103.863 l 121.211 -104.141 l 121.59 -104.422 l 121.969
 -104.699 l 122.348 -104.973 l 122.723 -105.246 l 123.859 -106.066 l 124.234
 -106.336 l 124.992 -106.875 l 125.367 -107.141 l 125.75 -107.406 l 126.125
 -107.672 l 126.883 -108.203 l 127.258 -108.465 l 127.637 -108.727 l 128.016
 -108.984 l 128.395 -109.246 l 128.77 -109.504 l 129.906 -110.277 l 130.281
 -110.531 l 131.039 -111.039 l 131.418 -111.289 l 131.793 -111.543 l 132.551
 -112.043 l 132.93 -112.289 l 133.305 -112.539 l 134.441 -113.277 l 134.816
 -113.52 l 135.195 -113.766 l 135.953 -114.25 l 136.332 -114.488 l 136.707
 -114.73 l 137.844 -115.445 l 138.219 -115.684 l 138.977 -116.152 l 139.352
 -116.387 l S Q
Q q
35.871 0 117.129 122.617 re W n
q
35 0 118 123 re W n
  q
0 g
1.13366 w
0 J
0 j
[] 0.0 d
10 M q 1 0 0 -1 0 0 cm
52.426 -3.508 m 52.805 -4.246 l 53.184 -4.977 l 53.559 -5.707 l 53.938 
-6.43 l 54.316 -7.148 l 54.695 -7.863 l 55.074 -8.57 l 55.449 -9.277 l 56.207
 -10.676 l 56.586 -11.367 l 56.961 -12.055 l 57.34 -12.738 l 57.719 -13.418
 l 58.098 -14.09 l 58.473 -14.762 l 58.852 -15.43 l 59.23 -16.09 l 59.605
 -16.75 l 60.363 -18.055 l 60.742 -18.703 l 61.117 -19.344 l 61.496 -19.984
 l 62.254 -21.25 l 62.633 -21.879 l 63.008 -22.5 l 63.387 -23.121 l 63.766
 -23.738 l 64.145 -24.352 l 64.52 -24.961 l 64.898 -25.566 l 65.656 -26.77
 l 66.031 -27.363 l 66.41 -27.957 l 66.789 -28.543 l 67.164 -29.129 l 67.922
 -30.293 l 68.301 -30.867 l 68.68 -31.438 l 69.055 -32.008 l 69.434 -32.574
 l 69.812 -33.137 l 70.191 -33.695 l 70.566 -34.254 l 70.945 -34.809 l 71.324
 -35.359 l 71.703 -35.906 l 72.082 -36.449 l 72.457 -36.992 l 72.836 -37.531
 l 73.215 -38.066 l 73.59 -38.598 l 73.969 -39.129 l 74.348 -39.656 l 74.727
 -40.18 l 75.102 -40.703 l 75.48 -41.223 l 76.238 -42.254 l 76.613 -42.762
 l 77.371 -43.777 l 77.75 -44.277 l 78.125 -44.777 l 78.504 -45.277 l 78.883
 -45.773 l 79.641 -46.758 l 80.016 -47.242 l 80.773 -48.211 l 81.148 -48.691
 l 81.906 -49.645 l 82.285 -50.117 l 82.66 -50.59 l 83.039 -51.059 l 83.797
 -51.988 l 84.176 -52.449 l 84.551 -52.906 l 85.309 -53.82 l 85.684 -54.273
 l 86.441 -55.172 l 87.199 -56.062 l 87.574 -56.504 l 87.953 -56.941 l 88.332
 -57.383 l 88.711 -57.816 l 89.086 -58.25 l 90.223 -59.539 l 90.598 -59.965
 l 91.355 -60.809 l 91.734 -61.227 l 92.109 -61.645 l 92.867 -62.473 l 93.242
 -62.887 l 93.621 -63.297 l 94.758 -64.516 l 95.133 -64.918 l 96.27 -66.113
 l 96.645 -66.508 l 97.023 -66.902 l 97.781 -67.684 l 98.156 -68.074 l 98.535
 -68.461 l 99.293 -69.227 l 99.668 -69.609 l 100.426 -70.367 l 100.805 -70.742
 l 101.18 -71.117 l 101.559 -71.492 l 101.938 -71.863 l 102.316 -72.23 l
 102.691 -72.602 l 103.07 -72.969 l 103.449 -73.332 l 103.828 -73.699 l 
104.207 -74.059 l 104.582 -74.422 l 104.961 -74.777 l 105.34 -75.137 l 105.715
 -75.492 l 106.094 -75.848 l 106.852 -76.551 l 107.227 -76.902 l 108.363
 -77.945 l 108.738 -78.289 l 109.117 -78.633 l 110.254 -79.652 l 110.629
 -79.988 l 111.008 -80.328 l 111.387 -80.66 l 111.766 -80.996 l 112.141 
-81.328 l 112.898 -81.984 l 113.273 -82.312 l 113.652 -82.641 l 114.41 -83.289
 l 114.785 -83.613 l 115.922 -84.574 l 116.301 -84.891 l 116.676 -85.207
 l 117.055 -85.523 l 117.812 -86.148 l 118.188 -86.461 l 118.566 -86.77 
l 118.945 -87.082 l 119.324 -87.387 l 119.699 -87.695 l 120.836 -88.609 
l 121.211 -88.91 l 121.969 -89.512 l 122.348 -89.809 l 122.723 -90.109 l
 123.102 -90.402 l 123.859 -90.996 l 124.234 -91.285 l 124.992 -91.871 l
 125.367 -92.16 l 125.75 -92.449 l 126.125 -92.738 l 126.883 -93.309 l 127.258
 -93.594 l 127.637 -93.879 l 128.395 -94.441 l 128.77 -94.723 l 129.906 
-95.555 l 130.281 -95.832 l 130.66 -96.109 l 131.418 -96.656 l 131.793 -96.93
 l 132.93 -97.738 l 133.305 -98.008 l 133.684 -98.273 l 134.062 -98.543 
l 134.441 -98.809 l 134.816 -99.074 l 136.332 -100.121 l 136.707 -100.383
 l 137.844 -101.156 l 138.219 -101.414 l 138.598 -101.668 l 138.977 -101.926
 l 139.352 -102.18 l 139.73 -102.43 l 140.109 -102.684 l 140.488 -102.934
 l 140.863 -103.184 l 141.621 -103.684 l 142 -103.93 l 142.379 -104.18 l
 142.754 -104.426 l 143.133 -104.672 l 143.891 -105.156 l 144.266 -105.402
 l 145.023 -105.887 l S Q
  Q
Q
Q q
47.871 0 105.129 107.617 re W n
q
47 0 106 108 re W n
  q
0 g
1.13366 w
0 J
0 j
[] 0.0 d
10 M q 1 0 0 -1 0 0 cm
64.52 -3.121 m 64.898 -3.777 l 65.277 -4.43 l 65.656 -5.078 l 66.031 -5.723
 l 66.41 -6.367 l 66.789 -7.004 l 67.164 -7.637 l 67.543 -8.27 l 68.301 
-9.52 l 68.68 -10.141 l 69.055 -10.758 l 69.434 -11.371 l 69.812 -11.98 
l 70.191 -12.586 l 70.566 -13.191 l 71.324 -14.387 l 71.703 -14.98 l 72.082
 -15.57 l 72.457 -16.156 l 73.215 -17.32 l 73.59 -17.898 l 73.969 -18.473
 l 74.727 -19.613 l 75.102 -20.18 l 75.48 -20.738 l 75.859 -21.301 l 76.238
 -21.855 l 76.613 -22.41 l 76.992 -22.961 l 77.75 -24.055 l 78.125 -24.594
 l 78.883 -25.672 l 79.641 -26.734 l 80.016 -27.266 l 80.773 -28.312 l 81.148
 -28.832 l 81.527 -29.352 l 81.906 -29.867 l 82.285 -30.379 l 82.66 -30.891
 l 83.039 -31.398 l 83.418 -31.902 l 84.176 -32.902 l 84.551 -33.402 l 84.93
 -33.898 l 85.309 -34.391 l 85.684 -34.879 l 86.441 -35.855 l 87.199 -36.816
 l 87.574 -37.297 l 87.953 -37.773 l 88.711 -38.719 l 89.086 -39.188 l 89.465
 -39.656 l 90.223 -40.586 l 90.598 -41.047 l 91.355 -41.961 l 91.734 -42.414
 l 92.109 -42.867 l 92.867 -43.766 l 93.242 -44.211 l 93.621 -44.656 l 94.379
 -45.539 l 94.758 -45.977 l 95.133 -46.414 l 95.512 -46.848 l 95.891 -47.277
 l 96.27 -47.711 l 96.645 -48.137 l 97.402 -48.988 l 97.781 -49.41 l 98.156
 -49.832 l 98.914 -50.668 l 99.293 -51.082 l 99.668 -51.496 l 100.805 -52.727
 l 101.18 -53.133 l 102.316 -54.34 l 102.691 -54.738 l 103.07 -55.137 l 
103.828 -55.926 l 104.207 -56.316 l 104.582 -56.711 l 105.34 -57.484 l 105.715
 -57.871 l 106.094 -58.258 l 106.473 -58.637 l 106.852 -59.02 l 107.227 
-59.398 l 107.605 -59.777 l 108.363 -60.527 l 108.738 -60.902 l 109.117 
-61.273 l 109.496 -61.641 l 109.875 -62.012 l 110.254 -62.379 l 110.629 
-62.746 l 111.387 -63.473 l 111.766 -63.832 l 112.141 -64.191 l 112.52 -64.551
 l 112.898 -64.906 l 113.273 -65.262 l 113.652 -65.617 l 114.41 -66.32 l
 114.785 -66.668 l 115.922 -67.711 l 116.301 -68.055 l 116.676 -68.398 l
 117.812 -69.418 l 118.188 -69.758 l 118.566 -70.094 l 118.945 -70.426 l
 119.324 -70.762 l 119.699 -71.094 l 120.078 -71.426 l 120.836 -72.082 l
 121.211 -72.41 l 121.59 -72.734 l 121.969 -73.062 l 122.348 -73.387 l 122.723
 -73.707 l 123.859 -74.668 l 124.234 -74.984 l 124.992 -75.617 l 125.367
 -75.93 l 125.75 -76.242 l 126.125 -76.555 l 126.504 -76.863 l 126.883 -77.176
 l 127.258 -77.484 l 127.637 -77.789 l 128.016 -78.098 l 128.395 -78.402
 l 128.77 -78.707 l 129.906 -79.609 l 130.281 -79.91 l 131.418 -80.801 l
 131.793 -81.098 l 132.93 -81.977 l 133.305 -82.266 l 134.441 -83.133 l 
134.816 -83.422 l 135.195 -83.707 l 135.574 -83.988 l 136.332 -84.559 l 
136.707 -84.84 l 137.086 -85.121 l 137.465 -85.398 l 137.844 -85.68 l 138.219
 -85.957 l 138.977 -86.512 l 139.352 -86.785 l 140.488 -87.605 l 140.863
 -87.875 l 142.379 -88.953 l 142.754 -89.219 l 143.512 -89.75 l 143.891 
-90.012 l 144.266 -90.277 l 145.023 -90.801 l S Q
  Q
Q
Q q
61.871 0 91.129 90.617 re W n
q
61 0 92 91 re W n
  q
0 g
1.13366 w
0 J
0 j
[] 0.0 d
10 M q 1 0 0 -1 0 0 cm
78.504 -3.305 m 78.883 -3.887 l 79.641 -5.043 l 80.016 -5.613 l 80.395 
-6.184 l 80.773 -6.75 l 81.148 -7.312 l 81.527 -7.875 l 81.906 -8.434 l 
82.285 -8.988 l 82.66 -9.543 l 83.039 -10.094 l 83.418 -10.637 l 83.797 
-11.184 l 84.176 -11.727 l 84.551 -12.266 l 85.309 -13.336 l 85.684 -13.867
 l 86.441 -14.922 l 86.82 -15.445 l 87.199 -15.965 l 87.574 -16.484 l 88.332
 -17.516 l 88.711 -18.027 l 89.086 -18.535 l 89.465 -19.043 l 89.844 -19.547
 l 90.223 -20.047 l 90.598 -20.547 l 91.355 -21.539 l 91.734 -22.031 l 92.109
 -22.52 l 92.867 -23.496 l 93.242 -23.977 l 94 -24.938 l 94.758 -25.891 
l 95.133 -26.363 l 95.891 -27.301 l 96.27 -27.766 l 96.645 -28.23 l 97.402
 -29.152 l 97.781 -29.609 l 98.156 -30.066 l 98.914 -30.973 l 99.293 -31.422
 l 99.668 -31.871 l 100.047 -32.316 l 100.426 -32.758 l 100.805 -33.203 
l 101.18 -33.641 l 101.938 -34.516 l 102.316 -34.949 l 102.691 -35.383 l
 103.449 -36.242 l 104.207 -37.094 l 104.582 -37.516 l 105.34 -38.359 l 
105.715 -38.777 l 106.094 -39.191 l 106.473 -39.609 l 106.852 -40.02 l 107.227
 -40.43 l 107.984 -41.25 l 108.363 -41.652 l 108.738 -42.059 l 109.496 -42.863
 l 110.254 -43.66 l 110.629 -44.055 l 111.387 -44.844 l 111.766 -45.234 
l 112.141 -45.625 l 112.898 -46.398 l 113.273 -46.785 l 114.031 -47.551 
l 114.41 -47.93 l 114.785 -48.309 l 115.164 -48.688 l 115.922 -49.438 l 
116.301 -49.809 l 116.676 -50.18 l 117.434 -50.922 l 117.812 -51.285 l 118.188
 -51.652 l 119.324 -52.742 l 119.699 -53.102 l 120.078 -53.461 l 120.457
 -53.816 l 120.836 -54.176 l 121.211 -54.527 l 121.59 -54.883 l 122.348 
-55.586 l 122.723 -55.934 l 123.48 -56.629 l 123.859 -56.973 l 124.234 -57.32
 l 124.613 -57.66 l 124.992 -58.004 l 125.367 -58.344 l 125.75 -58.684 l
 126.125 -59.02 l 126.883 -59.691 l 127.258 -60.027 l 128.016 -60.691 l 
128.395 -61.02 l 128.77 -61.352 l 129.148 -61.68 l 129.527 -62.004 l 129.906
 -62.332 l 130.281 -62.652 l 131.039 -63.301 l 131.418 -63.621 l 131.793
 -63.941 l 132.172 -64.258 l 132.551 -64.578 l 132.93 -64.895 l 133.305 
-65.207 l 133.684 -65.523 l 134.441 -66.148 l 134.816 -66.457 l 135.195 
-66.766 l 135.574 -67.078 l 135.953 -67.383 l 136.332 -67.691 l 136.707 
-67.996 l 137.086 -68.301 l 137.465 -68.602 l 137.844 -68.906 l 138.219 
-69.207 l 138.598 -69.508 l 138.977 -69.805 l 139.352 -70.105 l 140.109 
-70.699 l 140.488 -70.992 l 140.863 -71.285 l 141.621 -71.871 l 142 -72.16
 l 142.379 -72.453 l 142.754 -72.742 l 143.133 -73.027 l 143.512 -73.316
 l 143.891 -73.602 l 144.266 -73.887 l 145.023 -74.457 l S Q
  Q
Q
Q q
77.871 0 75.129 73.617 re W n
q
77 0 76 74 re W n
  q
0 g
1.13366 w
0 J
0 j
[] 0.0 d
10 M q 1 0 0 -1 0 0 cm
94 -3.098 m 94.758 -4.129 l 95.133 -4.641 l 95.891 -5.656 l 96.27 -6.16
 l 96.645 -6.664 l 97.402 -7.664 l 97.781 -8.16 l 98.156 -8.652 l 98.535
 -9.145 l 99.293 -10.121 l 99.668 -10.605 l 100.047 -11.09 l 100.805 -12.051
 l 101.18 -12.527 l 102.316 -13.945 l 102.691 -14.414 l 103.828 -15.809 
l 104.207 -16.27 l 104.582 -16.727 l 104.961 -17.184 l 105.34 -17.637 l 
105.715 -18.09 l 106.094 -18.543 l 106.473 -18.992 l 106.852 -19.438 l 107.227
 -19.883 l 107.605 -20.328 l 108.363 -21.211 l 108.738 -21.648 l 109.117
 -22.082 l 109.496 -22.52 l 109.875 -22.953 l 110.254 -23.383 l 110.629 
-23.812 l 111.766 -25.09 l 112.141 -25.512 l 112.52 -25.93 l 112.898 -26.352
 l 113.273 -26.766 l 113.652 -27.184 l 114.031 -27.598 l 114.41 -28.008 
l 114.785 -28.418 l 115.164 -28.828 l 116.301 -30.047 l 116.676 -30.449 
l 117.055 -30.848 l 117.434 -31.25 l 117.812 -31.645 l 118.188 -32.043 l
 118.945 -32.832 l 119.324 -33.223 l 119.699 -33.613 l 120.836 -34.773 l
 121.211 -35.156 l 121.59 -35.543 l 121.969 -35.922 l 122.348 -36.305 l 
123.102 -37.059 l 123.859 -37.809 l 124.234 -38.18 l 124.992 -38.922 l 125.367
 -39.293 l 125.75 -39.656 l 126.125 -40.023 l 126.504 -40.391 l 126.883 
-40.754 l 127.258 -41.113 l 127.637 -41.473 l 128.016 -41.836 l 128.395 
-42.191 l 128.77 -42.547 l 129.527 -43.258 l 129.906 -43.609 l 130.281 -43.961
 l 130.66 -44.312 l 131.418 -45.008 l 131.793 -45.355 l 132.172 -45.703 
l 132.551 -46.047 l 132.93 -46.387 l 133.305 -46.73 l 133.684 -47.07 l 134.062
 -47.406 l 134.441 -47.746 l 134.816 -48.082 l 135.574 -48.754 l 136.332
 -49.418 l 136.707 -49.75 l 137.844 -50.734 l 138.219 -51.062 l 138.977 
-51.711 l 139.352 -52.031 l 139.73 -52.355 l 140.488 -52.996 l 140.863 -53.312
 l 141.242 -53.633 l 141.621 -53.949 l 142 -54.262 l 142.379 -54.578 l 142.754
 -54.891 l 143.512 -55.516 l 143.891 -55.824 l 144.266 -56.133 l 145.023
 -56.75 l S Q
  Q
Q
Q q
94.871 0 58.129 53.617 re W n
q
94 0 59 54 re W n
  q
0 g
1.13366 w
0 J
0 j
[] 0.0 d
10 M q 1 0 0 -1 0 0 cm
111.766 -3.258 m 112.141 -3.715 l 112.52 -4.172 l 112.898 -4.625 l 113.273
 -5.078 l 114.031 -5.977 l 114.41 -6.422 l 114.785 -6.867 l 115.922 -8.191
 l 116.301 -8.629 l 116.676 -9.066 l 117.434 -9.934 l 117.812 -10.363 l 
118.188 -10.793 l 119.324 -12.07 l 119.699 -12.492 l 120.457 -13.336 l 120.836
 -13.754 l 121.211 -14.168 l 121.969 -14.996 l 122.348 -15.406 l 122.723
 -15.816 l 123.102 -16.227 l 123.859 -17.039 l 124.234 -17.441 l 124.613
 -17.848 l 124.992 -18.246 l 125.367 -18.645 l 125.75 -19.043 l 126.125 
-19.441 l 126.883 -20.23 l 127.258 -20.621 l 128.016 -21.402 l 128.395 -21.789
 l 128.77 -22.176 l 129.148 -22.559 l 129.527 -22.945 l 129.906 -23.328 
l 130.281 -23.707 l 131.039 -24.465 l 131.418 -24.84 l 131.793 -25.219 l
 132.172 -25.59 l 132.551 -25.965 l 132.93 -26.336 l 133.305 -26.707 l 134.441
 -27.809 l 134.816 -28.172 l 135.574 -28.898 l 135.953 -29.258 l 136.332
 -29.621 l 136.707 -29.977 l 137.086 -30.336 l 137.844 -31.047 l 138.219
 -31.398 l 138.977 -32.102 l 139.352 -32.453 l 140.488 -33.496 l 140.863
 -33.84 l 141.621 -34.527 l 142 -34.867 l 142.379 -35.211 l 142.754 -35.547
 l 143.133 -35.887 l 143.891 -36.559 l 144.266 -36.895 l 145.023 -37.559
 l S Q
  Q
Q
Q q
114.871 0 38.129 33.617 re W n
q
114 0 39 34 re W n
  q
0 g
1.13366 w
0 J
0 j
[] 0.0 d
10 M q 1 0 0 -1 0 0 cm
131.793 -3.398 m 132.172 -3.801 l 132.551 -4.207 l 132.93 -4.609 l 133.305
 -5.008 l 133.684 -5.41 l 134.062 -5.809 l 134.441 -6.203 l 134.816 -6.598
 l 135.574 -7.387 l 136.332 -8.168 l 136.707 -8.555 l 137.465 -9.328 l 137.844
 -9.711 l 138.219 -10.094 l 138.598 -10.477 l 138.977 -10.855 l 139.352 
-11.234 l 139.73 -11.613 l 140.109 -11.988 l 140.488 -12.367 l 140.863 -12.738
 l 141.242 -13.113 l 142 -13.855 l 142.379 -14.223 l 142.754 -14.59 l 143.133
 -14.957 l 143.512 -15.32 l 143.891 -15.688 l 144.266 -16.051 l 145.023 
-16.77 l S Q
  Q
Q
Q q
0 g
1.13366 w
0 J
0 j
[] 0.0 d
10 M q 1 0 0 -1 0 0 cm
31.641 -24.898 m 32.016 -25.766 l 32.395 -26.629 l 32.773 -27.48 l 33.152
 -28.328 l 33.527 -29.168 l 33.906 -30.004 l 34.285 -30.832 l 34.664 -31.648
 l 35.039 -32.465 l 35.418 -33.27 l 35.797 -34.07 l 36.176 -34.867 l 36.555
 -35.656 l 36.93 -36.438 l 37.309 -37.215 l 37.688 -37.984 l 38.066 -38.75
 l 38.441 -39.508 l 38.82 -40.262 l 39.199 -41.008 l 39.578 -41.75 l 39.953
 -42.484 l 40.332 -43.215 l 40.711 -43.938 l 41.09 -44.656 l 41.465 -45.371
 l 41.844 -46.082 l 42.223 -46.785 l 42.602 -47.484 l 42.977 -48.176 l 43.355
 -48.867 l 43.734 -49.551 l 44.113 -50.227 l 44.488 -50.902 l 44.867 -51.57
 l 45.246 -52.234 l 45.625 -52.895 l 46 -53.551 l 46.379 -54.203 l 46.758
 -54.848 l 47.137 -55.488 l 47.512 -56.125 l 47.891 -56.758 l 48.27 -57.387
 l 48.648 -58.012 l 49.023 -58.629 l 49.402 -59.246 l 50.16 -60.465 l 50.535
 -61.066 l 50.914 -61.668 l 51.672 -62.855 l 52.051 -63.441 l 52.426 -64.023
 l 52.805 -64.605 l 53.184 -65.18 l 53.559 -65.754 l 53.938 -66.324 l 54.695
 -67.449 l 55.074 -68.008 l 55.449 -68.562 l 55.828 -69.113 l 56.207 -69.66
 l 56.586 -70.203 l 56.961 -70.746 l 57.719 -71.816 l 58.098 -72.348 l 58.473
 -72.875 l 58.852 -73.398 l 59.23 -73.918 l 59.605 -74.438 l 59.984 -74.953
 l 60.363 -75.461 l 60.742 -75.973 l 61.117 -76.477 l 61.875 -77.477 l 62.633
 -78.469 l 63.008 -78.957 l 63.387 -79.445 l 64.145 -80.414 l 64.52 -80.891
 l 65.277 -81.844 l 65.656 -82.312 l 66.031 -82.781 l 66.789 -83.711 l 67.164
 -84.172 l 67.543 -84.629 l 68.301 -85.535 l 68.68 -85.984 l 69.055 -86.434
 l 69.434 -86.879 l 70.191 -87.762 l 70.566 -88.199 l 71.324 -89.066 l 72.082
 -89.926 l 72.457 -90.352 l 73.215 -91.195 l 73.59 -91.613 l 73.969 -92.031
 l 74.727 -92.859 l 75.102 -93.27 l 76.238 -94.488 l 76.613 -94.887 l 76.992
 -95.289 l 77.371 -95.684 l 77.75 -96.082 l 78.125 -96.473 l 78.883 -97.254
 l 79.641 -98.027 l 80.016 -98.41 l 80.395 -98.793 l 80.773 -99.172 l 81.148
 -99.551 l 81.906 -100.301 l 82.285 -100.672 l 82.66 -101.039 l 83.039 -101.41
 l 83.418 -101.777 l 84.176 -102.504 l 84.551 -102.863 l 85.309 -103.582
 l 85.684 -103.938 l 86.062 -104.293 l 86.82 -104.996 l 87.199 -105.344 
l 87.574 -105.691 l 87.953 -106.035 l 88.332 -106.383 l 88.711 -106.723 
l 89.086 -107.062 l 89.844 -107.742 l 90.223 -108.078 l 90.598 -108.41 l
 90.977 -108.746 l 91.355 -109.074 l 91.734 -109.406 l 92.109 -109.734 l
 92.488 -110.059 l 92.867 -110.387 l 93.242 -110.711 l 94.379 -111.672 l
 94.758 -111.988 l 95.133 -112.305 l 95.512 -112.621 l 96.27 -113.246 l 
96.645 -113.559 l 97.402 -114.176 l 97.781 -114.48 l 98.156 -114.785 l 98.914
 -115.395 l 99.293 -115.695 l 99.668 -115.996 l 100.047 -116.293 l S Q
q 1 0 0 -1 0 0 cm
31.641 -45.062 m 32.016 -45.863 l 32.395 -46.66 l 32.773 -47.449 l 33.152
 -48.23 l 33.527 -49.008 l 33.906 -49.777 l 34.285 -50.539 l 35.039 -52.047
 l 35.418 -52.793 l 35.797 -53.531 l 36.176 -54.266 l 36.555 -54.992 l 36.93
 -55.715 l 37.309 -56.43 l 37.688 -57.141 l 38.066 -57.848 l 38.441 -58.547
 l 38.82 -59.242 l 39.199 -59.934 l 39.578 -60.617 l 39.953 -61.297 l 40.332
 -61.969 l 40.711 -62.637 l 41.09 -63.301 l 41.465 -63.961 l 42.223 -65.266
 l 42.602 -65.91 l 42.977 -66.551 l 43.734 -67.816 l 44.113 -68.441 l 44.488
 -69.062 l 44.867 -69.684 l 45.246 -70.297 l 45.625 -70.902 l 46 -71.508
 l 46.379 -72.109 l 46.758 -72.707 l 47.137 -73.297 l 47.512 -73.887 l 48.27
 -75.051 l 48.648 -75.625 l 49.023 -76.199 l 49.402 -76.766 l 50.16 -77.891
 l 50.535 -78.449 l 51.293 -79.551 l 51.672 -80.098 l 52.051 -80.637 l 52.426
 -81.176 l 53.184 -82.246 l 53.559 -82.773 l 53.938 -83.297 l 54.695 -84.336
 l 55.074 -84.852 l 55.449 -85.363 l 56.207 -86.379 l 56.586 -86.879 l 56.961
 -87.379 l 57.34 -87.875 l 57.719 -88.367 l 58.098 -88.855 l 58.473 -89.344
 l 58.852 -89.828 l 59.23 -90.309 l 59.605 -90.785 l 59.984 -91.262 l 60.363
 -91.73 l 60.742 -92.203 l 61.117 -92.668 l 61.496 -93.133 l 61.875 -93.594
 l 62.633 -94.508 l 63.008 -94.957 l 63.766 -95.855 l 64.145 -96.301 l 64.52
 -96.742 l 64.898 -97.184 l 65.277 -97.621 l 65.656 -98.055 l 66.031 -98.488
 l 66.41 -98.914 l 66.789 -99.344 l 67.164 -99.77 l 67.543 -100.191 l 68.68
 -101.445 l 69.055 -101.855 l 69.812 -102.676 l 70.191 -103.082 l 70.566
 -103.484 l 70.945 -103.887 l 72.082 -105.082 l 72.457 -105.473 l 73.215
 -106.254 l 73.59 -106.641 l 74.348 -107.406 l 74.727 -107.785 l 75.102 
-108.164 l 75.48 -108.543 l 75.859 -108.918 l 76.238 -109.289 l 76.613 -109.66
 l 77.75 -110.762 l 78.125 -111.125 l 79.262 -112.203 l 79.641 -112.559 
l 80.016 -112.91 l 80.395 -113.266 l 80.773 -113.613 l 81.148 -113.965 l
 81.906 -114.652 l 82.285 -115 l 82.66 -115.34 l 83.418 -116.02 l 83.797
 -116.355 l S Q
q 1 0 0 -1 0 0 cm
31.641 -63.676 m 32.016 -64.414 l 32.395 -65.148 l 32.773 -65.875 l 33.152
 -66.598 l 33.527 -67.312 l 33.906 -68.023 l 34.285 -68.727 l 34.664 -69.426
 l 35.039 -70.121 l 35.418 -70.809 l 36.176 -72.168 l 36.555 -72.84 l 36.93
 -73.504 l 37.688 -74.824 l 38.066 -75.473 l 38.441 -76.121 l 38.82 -76.762
 l 39.578 -78.027 l 39.953 -78.652 l 40.332 -79.277 l 40.711 -79.895 l 41.09
 -80.508 l 41.465 -81.113 l 41.844 -81.719 l 42.223 -82.32 l 42.602 -82.914
 l 42.977 -83.504 l 43.355 -84.09 l 43.734 -84.672 l 44.113 -85.25 l 44.488
 -85.824 l 44.867 -86.395 l 45.246 -86.961 l 45.625 -87.523 l 46 -88.082
 l 46.379 -88.637 l 47.137 -89.73 l 47.512 -90.273 l 47.891 -90.812 l 48.27
 -91.348 l 48.648 -91.879 l 49.023 -92.406 l 49.402 -92.934 l 50.16 -93.973
 l 50.535 -94.484 l 50.914 -94.996 l 51.293 -95.504 l 51.672 -96.008 l 52.051
 -96.508 l 52.426 -97.004 l 52.805 -97.5 l 53.184 -97.988 l 53.559 -98.477
 l 53.938 -98.961 l 54.695 -99.922 l 55.074 -100.395 l 55.449 -100.867 l
 56.207 -101.805 l 56.586 -102.266 l 56.961 -102.727 l 57.719 -103.641 l
 58.098 -104.094 l 58.473 -104.539 l 58.852 -104.988 l 59.23 -105.43 l 59.605
 -105.871 l 59.984 -106.312 l 60.742 -107.18 l 61.117 -107.609 l 61.496 
-108.039 l 61.875 -108.465 l 62.254 -108.887 l 62.633 -109.305 l 63.008 
-109.723 l 63.387 -110.141 l 63.766 -110.555 l 64.145 -110.965 l 64.52 -111.371
 l 64.898 -111.777 l 65.656 -112.582 l 66.031 -112.98 l 66.41 -113.379 l
 66.789 -113.77 l 67.164 -114.164 l 67.543 -114.555 l 68.301 -115.328 l 
68.68 -115.711 l 69.055 -116.09 l S Q
q 1 0 0 -1 0 0 cm
31.641 -80.848 m 32.016 -81.531 l 32.395 -82.211 l 32.773 -82.883 l 33.152
 -83.547 l 33.527 -84.207 l 33.906 -84.863 l 34.285 -85.516 l 34.664 -86.16
 l 35.039 -86.801 l 35.418 -87.434 l 35.797 -88.062 l 36.176 -88.688 l 36.555
 -89.309 l 36.93 -89.922 l 37.309 -90.531 l 37.688 -91.137 l 38.066 -91.738
 l 38.441 -92.336 l 38.82 -92.93 l 39.199 -93.516 l 39.578 -94.098 l 39.953
 -94.676 l 40.332 -95.25 l 40.711 -95.82 l 41.09 -96.387 l 41.465 -96.949
 l 42.223 -98.059 l 42.602 -98.605 l 42.977 -99.152 l 43.355 -99.695 l 44.113
 -100.766 l 44.488 -101.293 l 44.867 -101.82 l 45.246 -102.344 l 45.625 
-102.859 l 46 -103.375 l 46.379 -103.887 l 46.758 -104.395 l 47.137 -104.898
 l 47.512 -105.402 l 47.891 -105.898 l 48.648 -106.883 l 49.023 -107.371
 l 49.402 -107.855 l 49.781 -108.336 l 50.16 -108.812 l 50.535 -109.285 
l 50.914 -109.758 l 51.293 -110.227 l 51.672 -110.691 l 52.051 -111.152 
l 52.426 -111.613 l 53.184 -112.52 l 53.559 -112.973 l 54.316 -113.863 l
 54.695 -114.305 l 55.074 -114.742 l 55.449 -115.18 l 56.207 -116.039 l S Q
q 1 0 0 -1 0 0 cm
31.641 -96.703 m 32.016 -97.332 l 32.395 -97.957 l 32.773 -98.578 l 33.152
 -99.191 l 33.527 -99.805 l 34.285 -101.008 l 34.664 -101.602 l 35.039 -102.191
 l 35.418 -102.777 l 35.797 -103.359 l 36.176 -103.938 l 36.555 -104.508
 l 36.93 -105.078 l 37.309 -105.641 l 37.688 -106.199 l 38.066 -106.754 
l 38.441 -107.305 l 38.82 -107.852 l 39.578 -108.93 l 39.953 -109.465 l 
40.332 -109.996 l 41.09 -111.043 l 41.465 -111.559 l 41.844 -112.074 l 42.223
 -112.586 l 42.602 -113.094 l 42.977 -113.594 l 43.355 -114.094 l 43.734
 -114.59 l 44.113 -115.082 l 44.488 -115.574 l 44.867 -116.059 l S Q
q 1 0 0 -1 0 0 cm
31.641 -111.332 m 32.016 -111.914 l 32.773 -113.062 l 33.152 -113.629 l
 33.527 -114.191 l 33.906 -114.75 l 34.285 -115.305 l 34.664 -115.855 l 
35.039 -116.398 l S Q
0.567043 w
q 1 0 0 -1 0 0 cm
31.652 -3.008 113.375 -113.41 re S Q
0.398506 w
q 1 0 0 -1 0 0 cm
31.652 -116.418 m 31.652 -112.164 l S Q
q 1 0 0 -1 0 0 cm
69.426 -116.418 m 69.426 -112.164 l S Q
q 1 0 0 -1 0 0 cm
107.199 -116.418 m 107.199 -112.164 l S Q
q 1 0 0 -1 0 0 cm
144.973 -116.418 m 144.973 -112.164 l S Q
q 1 0 0 -1 0 0 cm
31.652 -116.418 m 31.652 -112.164 l S Q
q 1 0 0 -1 0 0 cm
31.652 -116.418 m 35.902 -116.418 l S Q
q 1 0 0 -1 0 0 cm
31.652 -59.715 m 35.902 -59.715 l S Q
q 1 0 0 -1 0 0 cm
31.652 -3.008 m 35.902 -3.008 l S Q
q 1 0 0 -1 0 0 cm
31.652 -116.418 m 35.902 -116.418 l S Q
q 1 0 0 -1 0 0 cm
31.652 -3.008 m 31.652 -7.262 l S Q
q 1 0 0 -1 0 0 cm
69.426 -3.008 m 69.426 -7.262 l S Q
q 1 0 0 -1 0 0 cm
107.199 -3.008 m 107.199 -7.262 l S Q
q 1 0 0 -1 0 0 cm
144.973 -3.008 m 144.973 -7.262 l S Q
q 1 0 0 -1 0 0 cm
31.652 -3.008 m 31.652 -7.262 l S Q
q 1 0 0 -1 0 0 cm
145.027 -116.418 m 140.777 -116.418 l S Q
q 1 0 0 -1 0 0 cm
145.027 -59.715 m 140.777 -59.715 l S Q
q 1 0 0 -1 0 0 cm
145.027 -3.008 m 140.777 -3.008 l S Q
q 1 0 0 -1 0 0 cm
145.027 -116.418 m 140.777 -116.418 l S Q
27.965 122.941 m 27.965 121.332 27.23 119.879 25.98 119.879 c 24.715 119.879
 23.98 121.332 23.98 122.941 c 23.98 124.566 24.668 126.004 25.98 126.004
 c 27.184 126.004 27.965 124.566 27.965 122.941 c h
27.105 122.941 m 27.105 124.238 26.98 125.754 25.98 125.754 c 25.027 125.754
 24.84 124.238 24.84 122.941 c 24.84 121.863 24.965 120.113 25.98 120.113
 c 26.98 120.113 27.105 121.863 27.105 122.941 c h
27.105 122.941 m f
29.891 125.52 m 29.891 125.238 29.672 125.02 29.391 125.02 c 29.109 125.02
 28.891 125.238 28.891 125.52 c 28.891 125.801 29.109 126.02 29.391 126.02
 c 29.672 126.02 29.891 125.801 29.891 125.52 c h
29.891 125.52 m f
34.805 122.941 m 34.805 121.332 34.07 119.879 32.82 119.879 c 31.555 119.879
 30.82 121.332 30.82 122.941 c 30.82 124.566 31.508 126.004 32.82 126.004
 c 34.023 126.004 34.805 124.566 34.805 122.941 c h
33.945 122.941 m 33.945 124.238 33.82 125.754 32.82 125.754 c 31.867 125.754
 31.68 124.238 31.68 122.941 c 31.68 121.863 31.805 120.113 32.82 120.113
 c 33.82 120.113 33.945 121.863 33.945 122.941 c h
33.945 122.941 m f
39.277 124.738 m 39.121 124.707 l 38.855 125.16 38.637 125.238 38.199 125.238
 c 36.137 125.238 l 37.559 123.941 38.855 122.77 38.855 121.457 c 38.855
 120.535 38.059 119.879 37.184 119.879 c 36.324 119.879 35.637 120.348 35.371
 121.566 c 35.574 121.566 l 35.824 121.066 36.168 120.551 36.855 120.551
 c 37.637 120.551 38.074 121.145 38.074 121.816 c 38.074 122.785 37.043 
124.207 35.277 125.754 c 35.277 125.895 l 38.809 125.895 l h
39.277 124.738 m f
65.766 122.941 m 65.766 121.332 65.031 119.879 63.781 119.879 c 62.516 
119.879 61.781 121.332 61.781 122.941 c 61.781 124.566 62.469 126.004 63.781
 126.004 c 64.984 126.004 65.766 124.566 65.766 122.941 c h
64.906 122.941 m 64.906 124.238 64.781 125.754 63.781 125.754 c 62.828 
125.754 62.641 124.238 62.641 122.941 c 62.641 121.863 62.766 120.113 63.781
 120.113 c 64.781 120.113 64.906 121.863 64.906 122.941 c h
64.906 122.941 m f
67.688 125.52 m 67.688 125.238 67.469 125.02 67.188 125.02 c 66.906 125.02
 66.688 125.238 66.688 125.52 c 66.688 125.801 66.906 126.02 67.188 126.02
 c 67.469 126.02 67.688 125.801 67.688 125.52 c h
67.688 125.52 m f
72.605 122.941 m 72.605 121.332 71.871 119.879 70.621 119.879 c 69.355 
119.879 68.621 121.332 68.621 122.941 c 68.621 124.566 69.309 126.004 70.621
 126.004 c 71.824 126.004 72.605 124.566 72.605 122.941 c h
71.746 122.941 m 71.746 124.238 71.621 125.754 70.621 125.754 c 69.668 
125.754 69.48 124.238 69.48 122.941 c 69.48 121.863 69.605 120.113 70.621
 120.113 c 71.621 120.113 71.746 121.863 71.746 122.941 c h
71.746 122.941 m f
76.699 123.957 m 76.699 123.02 76.152 122.613 75.621 122.395 c 76.199 121.957
 76.387 121.551 76.387 121.066 c 76.387 120.551 75.965 119.879 74.996 119.879
 c 74.293 119.879 73.621 120.27 73.324 121.238 c 73.465 121.27 l 73.652 
120.91 74.012 120.457 74.668 120.457 c 75.309 120.457 75.684 120.895 75.684
 121.395 c 75.684 122.098 75.137 122.598 74.324 122.785 c 74.309 122.973
 l 75.699 122.91 76.043 123.816 76.043 124.379 c 76.043 125.051 75.559 125.66
 74.918 125.66 c 74.34 125.66 74.09 125.16 73.605 125.16 c 73.449 125.16
 73.262 125.316 73.262 125.52 c 73.262 125.895 73.824 126.004 74.23 126.004
 c 75.652 126.004 76.699 125.191 76.699 123.957 c h
76.699 123.957 m f
103.562 122.941 m 103.562 121.332 102.828 119.879 101.578 119.879 c 100.312
 119.879 99.578 121.332 99.578 122.941 c 99.578 124.566 100.266 126.004 
101.578 126.004 c 102.781 126.004 103.562 124.566 103.562 122.941 c h
102.703 122.941 m 102.703 124.238 102.578 125.754 101.578 125.754 c 100.625
 125.754 100.438 124.238 100.438 122.941 c 100.438 121.863 100.562 120.113
 101.578 120.113 c 102.578 120.113 102.703 121.863 102.703 122.941 c h
102.703 122.941 m f
105.488 125.52 m 105.488 125.238 105.27 125.02 104.988 125.02 c 104.707
 125.02 104.488 125.238 104.488 125.52 c 104.488 125.801 104.707 126.02 
104.988 126.02 c 105.27 126.02 105.488 125.801 105.488 125.52 c h
105.488 125.52 m f
110.402 122.941 m 110.402 121.332 109.668 119.879 108.418 119.879 c 107.152
 119.879 106.418 121.332 106.418 122.941 c 106.418 124.566 107.105 126.004
 108.418 126.004 c 109.621 126.004 110.402 124.566 110.402 122.941 c h
109.543 122.941 m 109.543 124.238 109.418 125.754 108.418 125.754 c 107.465
 125.754 107.277 124.238 107.277 122.941 c 107.277 121.863 107.402 120.113
 108.418 120.113 c 109.418 120.113 109.543 121.863 109.543 122.941 c h
109.543 122.941 m f
114.859 124.41 m 114.859 123.801 l 113.984 123.801 l 113.984 119.879 l 
113.547 119.879 l 110.953 123.785 l 110.953 124.41 l 113.25 124.41 l 113.25
 125.895 l 113.984 125.895 l 113.984 124.41 l h
113.25 123.801 m 111.312 123.801 l 113.234 120.816 l 113.25 120.816 l h
113.25 123.801 m f
141.242 122.941 m 141.242 121.332 140.508 119.879 139.258 119.879 c 137.992
 119.879 137.258 121.332 137.258 122.941 c 137.258 124.566 137.945 126.004
 139.258 126.004 c 140.461 126.004 141.242 124.566 141.242 122.941 c h
140.383 122.941 m 140.383 124.238 140.258 125.754 139.258 125.754 c 138.305
 125.754 138.117 124.238 138.117 122.941 c 138.117 121.863 138.242 120.113
 139.258 120.113 c 140.258 120.113 140.383 121.863 140.383 122.941 c h
140.383 122.941 m f
143.168 125.52 m 143.168 125.238 142.949 125.02 142.668 125.02 c 142.387
 125.02 142.168 125.238 142.168 125.52 c 142.168 125.801 142.387 126.02 
142.668 126.02 c 142.949 126.02 143.168 125.801 143.168 125.52 c h
143.168 125.52 m f
148.082 122.941 m 148.082 121.332 147.348 119.879 146.098 119.879 c 144.832
 119.879 144.098 121.332 144.098 122.941 c 144.098 124.566 144.785 126.004
 146.098 126.004 c 147.301 126.004 148.082 124.566 148.082 122.941 c h
147.223 122.941 m 147.223 124.238 147.098 125.754 146.098 125.754 c 145.145
 125.754 144.957 124.238 144.957 122.941 c 144.957 121.863 145.082 120.113
 146.098 120.113 c 147.098 120.113 147.223 121.863 147.223 122.941 c h
147.223 122.941 m f
152.461 119.973 m 149.992 119.973 l 148.883 122.52 l 149.023 122.488 149.164
 122.457 149.336 122.457 c 150.289 122.457 151.586 122.957 151.586 124.129
 c 151.586 125.035 150.93 125.613 150.305 125.613 c 149.758 125.613 149.555
 125.113 149.039 125.113 c 148.789 125.113 148.711 125.332 148.711 125.441
 c 148.711 125.754 149.148 126.004 149.773 126.004 c 151.117 126.004 152.18
 125.02 152.18 123.816 c 152.18 122.395 151.055 121.91 149.836 121.879 c
 149.727 121.879 149.602 121.895 149.492 121.91 c 150.055 120.645 l 152.148
 120.629 l h
152.461 119.973 m f
18.742 117.477 m 18.742 116.539 18.195 116.133 17.664 115.914 c 18.242 
115.477 18.43 115.07 18.43 114.586 c 18.43 114.07 18.008 113.398 17.039 
113.398 c 16.336 113.398 15.664 113.789 15.367 114.758 c 15.508 114.789 
l 15.695 114.43 16.055 113.977 16.711 113.977 c 17.352 113.977 17.727 114.414
 17.727 114.914 c 17.727 115.617 17.18 116.117 16.367 116.305 c 16.352 116.492
 l 17.742 116.43 18.086 117.336 18.086 117.898 c 18.086 118.57 17.602 119.18
 16.961 119.18 c 16.383 119.18 16.133 118.68 15.648 118.68 c 15.492 118.68
 15.305 118.836 15.305 119.039 c 15.305 119.414 15.867 119.523 16.273 119.523
 c 17.695 119.523 18.742 118.711 18.742 117.477 c h
18.742 117.477 m f
23.523 116.461 m 23.523 114.852 22.789 113.398 21.539 113.398 c 20.273 
113.398 19.539 114.852 19.539 116.461 c 19.539 118.086 20.227 119.523 21.539
 119.523 c 22.742 119.523 23.523 118.086 23.523 116.461 c h
22.664 116.461 m 22.664 117.758 22.539 119.273 21.539 119.273 c 20.586 
119.273 20.398 117.758 20.398 116.461 c 20.398 115.383 20.523 113.633 21.539
 113.633 c 22.539 113.633 22.664 115.383 22.664 116.461 c h
22.664 116.461 m f
27.965 116.461 m 27.965 114.852 27.23 113.398 25.98 113.398 c 24.715 113.398
 23.98 114.852 23.98 116.461 c 23.98 118.086 24.668 119.523 25.98 119.523
 c 27.184 119.523 27.965 118.086 27.965 116.461 c h
27.105 116.461 m 27.105 117.758 26.98 119.273 25.98 119.273 c 25.027 119.273
 24.84 117.758 24.84 116.461 c 24.84 115.383 24.965 113.633 25.98 113.633
 c 26.98 113.633 27.105 115.383 27.105 116.461 c h
27.105 116.461 m f
19.102 61.293 m 19.102 60.684 l 18.227 60.684 l 18.227 56.762 l 17.789 
56.762 l 15.195 60.668 l 15.195 61.293 l 17.492 61.293 l 17.492 62.777 l
 18.227 62.777 l 18.227 61.293 l h
17.492 60.684 m 15.555 60.684 l 17.477 57.699 l 17.492 57.699 l h
17.492 60.684 m f
23.523 59.824 m 23.523 58.215 22.789 56.762 21.539 56.762 c 20.273 56.762
 19.539 58.215 19.539 59.824 c 19.539 61.449 20.227 62.887 21.539 62.887
 c 22.742 62.887 23.523 61.449 23.523 59.824 c h
22.664 59.824 m 22.664 61.121 22.539 62.637 21.539 62.637 c 20.586 62.637
 20.398 61.121 20.398 59.824 c 20.398 58.746 20.523 56.996 21.539 56.996
 c 22.539 56.996 22.664 58.746 22.664 59.824 c h
22.664 59.824 m f
27.965 59.824 m 27.965 58.215 27.23 56.762 25.98 56.762 c 24.715 56.762
 23.98 58.215 23.98 59.824 c 23.98 61.449 24.668 62.887 25.98 62.887 c 27.184
 62.887 27.965 61.449 27.965 59.824 c h
27.105 59.824 m 27.105 61.121 26.98 62.637 25.98 62.637 c 25.027 62.637
 24.84 61.121 24.84 59.824 c 24.84 58.746 24.965 56.996 25.98 56.996 c 26.98
 56.996 27.105 58.746 27.105 59.824 c h
27.105 59.824 m f
19.023 0.094 m 16.555 0.094 l 15.445 2.641 l 15.586 2.609 15.727 2.578 
15.898 2.578 c 16.852 2.578 18.148 3.078 18.148 4.25 c 18.148 5.156 17.492
 5.734 16.867 5.734 c 16.32 5.734 16.117 5.234 15.602 5.234 c 15.352 5.234
 15.273 5.453 15.273 5.562 c 15.273 5.875 15.711 6.125 16.336 6.125 c 17.68
 6.125 18.742 5.141 18.742 3.938 c 18.742 2.516 17.617 2.031 16.398 2 c 
16.289 2 16.164 2.016 16.055 2.031 c 16.617 0.766 l 18.711 0.75 l h
19.023 0.094 m f
23.523 3.062 m 23.523 1.453 22.789 0 21.539 0 c 20.273 0 19.539 1.453 19.539
 3.062 c 19.539 4.688 20.227 6.125 21.539 6.125 c 22.742 6.125 23.523 4.688
 23.523 3.062 c h
22.664 3.062 m 22.664 4.359 22.539 5.875 21.539 5.875 c 20.586 5.875 20.398
 4.359 20.398 3.062 c 20.398 1.984 20.523 0.234 21.539 0.234 c 22.539 0.234
 22.664 1.984 22.664 3.062 c h
22.664 3.062 m f
27.965 3.062 m 27.965 1.453 27.23 0 25.98 0 c 24.715 0 23.98 1.453 23.98
 3.062 c 23.98 4.688 24.668 6.125 25.98 6.125 c 27.184 6.125 27.965 4.688
 27.965 3.062 c h
27.105 3.062 m 27.105 4.359 26.98 5.875 25.98 5.875 c 25.027 5.875 24.84
 4.359 24.84 3.062 c 24.84 1.984 24.965 0.234 25.98 0.234 c 26.98 0.234 
27.105 1.984 27.105 3.062 c h
27.105 3.062 m f
84.395 133.477 m 84.395 133.336 l 82.676 133.336 l 82.676 133.477 l 82.863
 133.477 83.176 133.555 83.176 133.805 c 83.176 134.023 82.957 134.383 82.832
 134.57 c 80.441 138.086 l 80.27 134.164 l 80.238 133.602 80.551 133.477
 81.035 133.477 c 81.035 133.336 l 78.723 133.336 l 78.723 133.477 l 79.332
 133.477 79.379 133.758 79.457 134.492 c 79.66 139.523 l 79.816 139.523 
l 83.441 134.195 l 83.613 133.977 84.004 133.477 84.395 133.477 c h
84.395 133.477 m f
87.562 133.32 m 86.953 133.32 l 84.906 139.508 l 85.516 139.508 l h
87.562 133.32 m f
87.645 139.383 m 89.645 139.383 l 89.645 139.242 l 89.176 139.242 89.035
 139.148 89.035 138.789 c 89.035 136.258 l 89.035 136.242 89.098 136.148
 89.16 136.086 c 89.395 135.883 89.77 135.727 90.082 135.727 c 90.488 135.727
 90.676 136.039 90.676 136.664 c 90.676 138.617 l 90.66 139.117 90.566 139.227
 90.066 139.242 c 90.066 139.383 l 92.082 139.383 l 92.082 139.242 l 91.582
 139.242 91.457 139.102 91.426 138.523 c 91.426 136.273 l 91.707 135.883
 91.988 135.727 92.41 135.727 c 92.926 135.727 93.082 135.961 93.082 136.711
 c 93.082 138.602 l 93.066 139.133 93.004 139.195 92.488 139.242 c 92.488
 139.383 l 94.457 139.383 l 94.457 139.242 l 94.223 139.227 l 93.941 139.18
 93.832 139.055 93.832 138.695 c 93.832 136.852 l 93.832 135.789 93.488 
135.258 92.801 135.258 c 92.27 135.258 91.816 135.492 91.332 136.008 c 91.176
 135.492 90.863 135.258 90.379 135.258 c 89.973 135.258 89.738 135.367 88.988
 135.945 c 88.988 135.273 l 88.926 135.258 l 88.457 135.43 88.145 135.523
 87.676 135.664 c 87.676 135.82 l 87.785 135.789 87.863 135.773 87.957 135.773
 c 88.191 135.773 88.27 135.914 88.27 136.352 c 88.27 138.617 l 88.254 139.117
 88.145 139.242 87.645 139.242 c h
87.645 139.383 m f
98.012 134.613 m 98.012 133.895 97.59 133.582 97.137 133.41 c 97.605 133.082
 97.762 132.77 97.762 132.395 c 97.762 131.988 97.387 131.441 96.527 131.441
 c 95.902 131.441 95.309 131.738 95.043 132.551 c 95.246 132.598 l 95.402
 132.316 95.715 131.973 96.246 131.973 c 96.762 131.973 97.059 132.285 97.059
 132.645 c 97.059 133.16 96.605 133.535 95.918 133.691 c 95.887 133.895 
l 97.09 133.848 97.371 134.535 97.371 134.941 c 97.371 135.426 96.98 135.879
 96.465 135.879 c 95.965 135.879 95.746 135.488 95.34 135.488 c 95.168 135.488
 94.996 135.629 94.996 135.816 c 94.996 136.113 95.496 136.223 95.871 136.223
 c 97.105 136.223 98.012 135.566 98.012 134.613 c h
98.012 134.613 m f
1 g
0.5 59.23 m 0.234 59.23 0 59.449 0 59.73 c 0 59.996 0.234 60.215 0.484 
60.215 c 0.766 60.215 1 60.012 1 59.73 c 1 59.465 0.766 59.23 0.5 59.23 
c h
0.5 59.23 m f
0 g
3.859 61.508 m 3.859 66.523 l 5.391 66.945 l 5.391 66.773 l 4.406 66.398
 4.188 65.93 4.188 65.148 c 4.188 65.148 4.188 64.633 4.188 64.523 c 8.859
 65.82 l 9.766 66.07 9.75 66.383 9.75 66.742 c 9.906 66.758 l 9.906 64.398
 l 9.75 64.367 l 9.75 64.711 9.766 65.055 9.312 65.055 c 9.188 65.055 9.047
 65.023 8.859 64.977 c 4.188 63.695 l 4.188 62.945 l 4.188 62.508 4.25 62.039
 4.875 62.039 c 5.016 62.039 5.172 62.055 5.391 62.102 c 5.391 61.93 l h
3.859 61.508 m f
3.844 58.262 m 3.844 58.871 l 10.031 60.918 l 10.031 60.309 l h
3.844 58.262 m f
4.141 54.617 m 4.172 54.07 4.203 54.008 4.422 54.008 c 4.609 54.008 4.891
 54.211 5.344 54.711 c 6.781 56.289 l 4.953 56.289 l 4.281 56.289 4.188 
56.195 4.141 55.461 c 3.969 55.461 l 3.969 58.008 l 4.141 58.008 l 4.188
 57.32 4.297 57.227 4.953 57.211 c 8.828 57.211 l 9.594 57.211 9.688 57.32
 9.734 58.008 c 9.906 58.008 l 9.906 55.492 l 9.734 55.492 l 9.688 56.18
 9.594 56.289 8.922 56.289 c 7.25 56.289 l 7.062 56.055 l 8 55.117 l 8.703
 54.414 9.312 53.945 9.531 53.945 c 9.672 53.945 9.719 54.055 9.734 54.32
 c 9.734 54.367 9.734 54.461 9.734 54.57 c 9.906 54.57 l 9.906 51.836 l 
9.734 51.836 l 9.734 52.305 9.641 52.43 8.766 53.242 c 6.531 55.336 l 4.844
 53.633 l 4.25 53.023 4.188 52.883 4.141 52.273 c 3.969 52.273 l 3.969 54.617
 l h
4.141 54.617 m f
Q Q
showpage
%%Trailer
end
%%EOF
