<?xml version="1.0" encoding="UTF-8" standalone="no"?>
<svg
   width="159.3pt"
   height="142.3pt"
   viewBox="0 0 159.3 142.3"
   version="1.2"
   id="svg292"
   xmlns:xlink="http://www.w3.org/1999/xlink"
   xmlns="http://www.w3.org/2000/svg"
   xmlns:svg="http://www.w3.org/2000/svg">
  <defs
     id="defs79">
    <g
       id="g59">
      <symbol
         overflow="visible"
         id="glyph0-0">
        <path
           style="stroke:none;"
           d=""
           id="path2" />
      </symbol>
      <symbol
         overflow="visible"
         id="glyph0-1">
        <path
           style="stroke:none;"
           d="M 4.234375 -2.953125 C 4.234375 -4.5625 3.5 -6.015625 2.25 -6.015625 C 0.984375 -6.015625 0.25 -4.5625 0.25 -2.953125 C 0.25 -1.328125 0.9375 0.109375 2.25 0.109375 C 3.453125 0.109375 4.234375 -1.328125 4.234375 -2.953125 Z M 3.375 -2.953125 C 3.375 -1.65625 3.25 -0.140625 2.25 -0.140625 C 1.296875 -0.140625 1.109375 -1.65625 1.109375 -2.953125 C 1.109375 -4.03125 1.234375 -5.78125 2.25 -5.78125 C 3.25 -5.78125 3.375 -4.03125 3.375 -2.953125 Z M 3.375 -2.953125 "
           id="path5" />
      </symbol>
      <symbol
         overflow="visible"
         id="glyph0-2">
        <path
           style="stroke:none;"
           d="M 1.71875 -0.375 C 1.71875 -0.65625 1.5 -0.875 1.21875 -0.875 C 0.9375 -0.875 0.71875 -0.65625 0.71875 -0.375 C 0.71875 -0.09375 0.9375 0.125 1.21875 0.125 C 1.5 0.125 1.71875 -0.09375 1.71875 -0.375 Z M 1.71875 -0.375 "
           id="path8" />
      </symbol>
      <symbol
         overflow="visible"
         id="glyph0-3">
        <path
           style="stroke:none;"
           d="M 4.265625 -1.15625 L 4.109375 -1.1875 C 3.84375 -0.734375 3.625 -0.65625 3.1875 -0.65625 L 1.125 -0.65625 C 2.546875 -1.953125 3.84375 -3.125 3.84375 -4.4375 C 3.84375 -5.359375 3.046875 -6.015625 2.171875 -6.015625 C 1.3125 -6.015625 0.625 -5.546875 0.359375 -4.328125 L 0.5625 -4.328125 C 0.8125 -4.828125 1.15625 -5.34375 1.84375 -5.34375 C 2.625 -5.34375 3.0625 -4.75 3.0625 -4.078125 C 3.0625 -3.109375 2.03125 -1.6875 0.265625 -0.140625 L 0.265625 0 L 3.796875 0 Z M 4.265625 -1.15625 "
           id="path11" />
      </symbol>
      <symbol
         overflow="visible"
         id="glyph0-4">
        <path
           style="stroke:none;"
           d="M 3.890625 -1.9375 C 3.890625 -2.875 3.34375 -3.28125 2.8125 -3.5 C 3.390625 -3.9375 3.578125 -4.34375 3.578125 -4.828125 C 3.578125 -5.34375 3.15625 -6.015625 2.1875 -6.015625 C 1.484375 -6.015625 0.8125 -5.625 0.515625 -4.65625 L 0.65625 -4.625 C 0.84375 -4.984375 1.203125 -5.4375 1.859375 -5.4375 C 2.5 -5.4375 2.875 -5 2.875 -4.5 C 2.875 -3.796875 2.328125 -3.296875 1.515625 -3.109375 L 1.5 -2.921875 C 2.890625 -2.984375 3.234375 -2.078125 3.234375 -1.515625 C 3.234375 -0.84375 2.75 -0.234375 2.109375 -0.234375 C 1.53125 -0.234375 1.28125 -0.734375 0.796875 -0.734375 C 0.640625 -0.734375 0.453125 -0.578125 0.453125 -0.375 C 0.453125 0 1.015625 0.109375 1.421875 0.109375 C 2.84375 0.109375 3.890625 -0.703125 3.890625 -1.9375 Z M 3.890625 -1.9375 "
           id="path14" />
      </symbol>
      <symbol
         overflow="visible"
         id="glyph0-5">
        <path
           style="stroke:none;"
           d="M 4.25 -1.484375 L 4.25 -2.09375 L 3.375 -2.09375 L 3.375 -6.015625 L 2.9375 -6.015625 L 0.34375 -2.109375 L 0.34375 -1.484375 L 2.640625 -1.484375 L 2.640625 0 L 3.375 0 L 3.375 -1.484375 Z M 2.640625 -2.09375 L 0.703125 -2.09375 L 2.625 -5.078125 L 2.640625 -5.078125 Z M 2.640625 -2.09375 "
           id="path17" />
      </symbol>
      <symbol
         overflow="visible"
         id="glyph0-6">
        <path
           style="stroke:none;"
           d="M 4.171875 -5.921875 L 1.703125 -5.921875 L 0.59375 -3.375 C 0.734375 -3.40625 0.875 -3.4375 1.046875 -3.4375 C 2 -3.4375 3.296875 -2.9375 3.296875 -1.765625 C 3.296875 -0.859375 2.640625 -0.28125 2.015625 -0.28125 C 1.46875 -0.28125 1.265625 -0.78125 0.75 -0.78125 C 0.5 -0.78125 0.421875 -0.5625 0.421875 -0.453125 C 0.421875 -0.140625 0.859375 0.109375 1.484375 0.109375 C 2.828125 0.109375 3.890625 -0.875 3.890625 -2.078125 C 3.890625 -3.5 2.765625 -3.984375 1.546875 -4.015625 C 1.4375 -4.015625 1.3125 -4 1.203125 -3.984375 L 1.765625 -5.25 L 3.859375 -5.265625 Z M 4.171875 -5.921875 "
           id="path20" />
      </symbol>
      <symbol
         overflow="visible"
         id="glyph0-7">
        <path
           style="stroke:none;"
           d="M 6.609375 -5.90625 L 6.609375 -6.046875 L 4.890625 -6.046875 L 4.890625 -5.90625 C 5.078125 -5.90625 5.390625 -5.828125 5.390625 -5.578125 C 5.390625 -5.359375 5.171875 -5 5.046875 -4.8125 L 2.65625 -1.296875 L 2.484375 -5.21875 C 2.453125 -5.78125 2.765625 -5.90625 3.25 -5.90625 L 3.25 -6.046875 L 0.9375 -6.046875 L 0.9375 -5.90625 C 1.546875 -5.90625 1.59375 -5.625 1.671875 -4.890625 L 1.875 0.140625 L 2.03125 0.140625 L 5.65625 -5.1875 C 5.828125 -5.40625 6.21875 -5.90625 6.609375 -5.90625 Z M 6.609375 -5.90625 "
           id="path23" />
      </symbol>
      <symbol
         overflow="visible"
         id="glyph1-0">
        <path
           style="stroke:none;"
           d=""
           id="path26" />
      </symbol>
      <symbol
         overflow="visible"
         id="glyph1-1">
        <path
           style="stroke:none;"
           d="M 2.578125 -6.0625 L 1.96875 -6.0625 L -0.078125 0.125 L 0.53125 0.125 Z M 2.578125 -6.0625 "
           id="path29" />
      </symbol>
      <symbol
         overflow="visible"
         id="glyph1-2">
        <path
           style="stroke:none;"
           d="M 0.140625 0 L 2.140625 0 L 2.140625 -0.140625 C 1.671875 -0.140625 1.53125 -0.234375 1.53125 -0.59375 L 1.53125 -3.125 C 1.53125 -3.140625 1.59375 -3.234375 1.65625 -3.296875 C 1.890625 -3.5 2.265625 -3.65625 2.578125 -3.65625 C 2.984375 -3.65625 3.171875 -3.34375 3.171875 -2.71875 L 3.171875 -0.765625 C 3.15625 -0.265625 3.0625 -0.15625 2.5625 -0.140625 L 2.5625 0 L 4.578125 0 L 4.578125 -0.140625 C 4.078125 -0.140625 3.953125 -0.28125 3.921875 -0.859375 L 3.921875 -3.109375 C 4.203125 -3.5 4.484375 -3.65625 4.90625 -3.65625 C 5.421875 -3.65625 5.578125 -3.421875 5.578125 -2.671875 L 5.578125 -0.78125 C 5.5625 -0.25 5.5 -0.1875 4.984375 -0.140625 L 4.984375 0 L 6.953125 0 L 6.953125 -0.140625 L 6.71875 -0.15625 C 6.4375 -0.203125 6.328125 -0.328125 6.328125 -0.6875 L 6.328125 -2.53125 C 6.328125 -3.59375 5.984375 -4.125 5.296875 -4.125 C 4.765625 -4.125 4.3125 -3.890625 3.828125 -3.375 C 3.671875 -3.890625 3.359375 -4.125 2.875 -4.125 C 2.46875 -4.125 2.234375 -4.015625 1.484375 -3.4375 L 1.484375 -4.109375 L 1.421875 -4.125 C 0.953125 -3.953125 0.640625 -3.859375 0.171875 -3.71875 L 0.171875 -3.5625 C 0.28125 -3.59375 0.359375 -3.609375 0.453125 -3.609375 C 0.6875 -3.609375 0.765625 -3.46875 0.765625 -3.03125 L 0.765625 -0.765625 C 0.75 -0.265625 0.640625 -0.140625 0.140625 -0.140625 Z M 0.140625 0 "
           id="path32" />
      </symbol>
      <symbol
         overflow="visible"
         id="glyph1-3">
        <path
           style="stroke:none;"
           d="M 1.125 -0.890625 C 0.859375 -0.890625 0.625 -0.671875 0.625 -0.390625 C 0.625 -0.125 0.859375 0.09375 1.109375 0.09375 C 1.390625 0.09375 1.625 -0.109375 1.625 -0.390625 C 1.625 -0.65625 1.390625 -0.890625 1.125 -0.890625 Z M 1.125 -0.890625 "
           id="path35" />
      </symbol>
      <symbol
         overflow="visible"
         id="glyph2-0">
        <path
           style="stroke:none;"
           d=""
           id="path38" />
      </symbol>
      <symbol
         overflow="visible"
         id="glyph2-1">
        <path
           style="stroke:none;"
           d="M 3.546875 -1.53125 C 3.546875 -2.25 3.125 -2.5625 2.671875 -2.734375 C 3.140625 -3.0625 3.296875 -3.375 3.296875 -3.75 C 3.296875 -4.15625 2.921875 -4.703125 2.0625 -4.703125 C 1.4375 -4.703125 0.84375 -4.40625 0.578125 -3.59375 L 0.78125 -3.546875 C 0.9375 -3.828125 1.25 -4.171875 1.78125 -4.171875 C 2.296875 -4.171875 2.59375 -3.859375 2.59375 -3.5 C 2.59375 -2.984375 2.140625 -2.609375 1.453125 -2.453125 L 1.421875 -2.25 C 2.625 -2.296875 2.90625 -1.609375 2.90625 -1.203125 C 2.90625 -0.71875 2.515625 -0.265625 2 -0.265625 C 1.5 -0.265625 1.28125 -0.65625 0.875 -0.65625 C 0.703125 -0.65625 0.53125 -0.515625 0.53125 -0.328125 C 0.53125 -0.03125 1.03125 0.078125 1.40625 0.078125 C 2.640625 0.078125 3.546875 -0.578125 3.546875 -1.53125 Z M 3.546875 -1.53125 "
           id="path41" />
      </symbol>
      <symbol
         overflow="visible"
         id="glyph3-0">
        <path
           style="stroke:none;"
           d=""
           id="path44" />
      </symbol>
      <symbol
         overflow="visible"
         id="glyph3-1">
        <path
           style="stroke:none;"
           d="M -6.046875 -6.171875 L -6.046875 -1.15625 L -4.515625 -0.734375 L -4.515625 -0.90625 C -5.5 -1.28125 -5.71875 -1.75 -5.71875 -2.53125 C -5.71875 -2.53125 -5.71875 -3.046875 -5.71875 -3.15625 L -1.046875 -1.859375 C -0.140625 -1.609375 -0.15625 -1.296875 -0.15625 -0.9375 L 0 -0.921875 L 0 -3.28125 L -0.15625 -3.3125 C -0.15625 -2.96875 -0.140625 -2.625 -0.59375 -2.625 C -0.71875 -2.625 -0.859375 -2.65625 -1.046875 -2.703125 L -5.71875 -3.984375 L -5.71875 -4.734375 C -5.71875 -5.171875 -5.65625 -5.640625 -5.03125 -5.640625 C -4.890625 -5.640625 -4.734375 -5.625 -4.515625 -5.578125 L -4.515625 -5.75 Z M -6.046875 -6.171875 "
           id="path47" />
      </symbol>
      <symbol
         overflow="visible"
         id="glyph4-0">
        <path
           style="stroke:none;"
           d=""
           id="path50" />
      </symbol>
      <symbol
         overflow="visible"
         id="glyph4-1">
        <path
           style="stroke:none;"
           d="M -6.0625 -2.578125 L -6.0625 -1.96875 L 0.125 0.078125 L 0.125 -0.53125 Z M -6.0625 -2.578125 "
           id="path53" />
      </symbol>
      <symbol
         overflow="visible"
         id="glyph4-2">
        <path
           style="stroke:none;"
           d="M -5.765625 -3.703125 C -5.734375 -4.25 -5.703125 -4.3125 -5.484375 -4.3125 C -5.296875 -4.3125 -5.015625 -4.109375 -4.5625 -3.609375 L -3.125 -2.03125 L -4.953125 -2.03125 C -5.625 -2.03125 -5.71875 -2.125 -5.765625 -2.859375 L -5.9375 -2.859375 L -5.9375 -0.3125 L -5.765625 -0.3125 C -5.71875 -1 -5.609375 -1.09375 -4.953125 -1.109375 L -1.078125 -1.109375 C -0.3125 -1.109375 -0.21875 -1 -0.171875 -0.3125 L 0 -0.3125 L 0 -2.828125 L -0.171875 -2.828125 C -0.21875 -2.140625 -0.3125 -2.03125 -0.984375 -2.03125 L -2.65625 -2.03125 L -2.84375 -2.265625 L -1.90625 -3.203125 C -1.203125 -3.90625 -0.59375 -4.375 -0.375 -4.375 C -0.234375 -4.375 -0.1875 -4.265625 -0.171875 -4 C -0.171875 -3.953125 -0.171875 -3.859375 -0.171875 -3.75 L 0 -3.75 L 0 -6.484375 L -0.171875 -6.484375 C -0.171875 -6.015625 -0.265625 -5.890625 -1.140625 -5.078125 L -3.375 -2.984375 L -5.0625 -4.6875 C -5.65625 -5.296875 -5.71875 -5.4375 -5.765625 -6.046875 L -5.9375 -6.046875 L -5.9375 -3.703125 Z M -5.765625 -3.703125 "
           id="path56" />
      </symbol>
    </g>
    <clipPath
       id="clip1">
      <path
         d="M 38 0 L 159.300781 0 L 159.300781 123 L 38 123 Z M 38 0 "
         id="path61" />
    </clipPath>
    <clipPath
       id="clip2">
      <path
         d="M 50 0 L 159.300781 0 L 159.300781 108 L 50 108 Z M 50 0 "
         id="path64" />
    </clipPath>
    <clipPath
       id="clip3">
      <path
         d="M 64 0 L 159.300781 0 L 159.300781 91 L 64 91 Z M 64 0 "
         id="path67" />
    </clipPath>
    <clipPath
       id="clip4">
      <path
         d="M 80 0 L 159.300781 0 L 159.300781 74 L 80 74 Z M 80 0 "
         id="path70" />
    </clipPath>
    <clipPath
       id="clip5">
      <path
         d="M 97 0 L 159.300781 0 L 159.300781 54 L 97 54 Z M 97 0 "
         id="path73" />
    </clipPath>
    <clipPath
       id="clip6">
      <path
         d="M 117 0 L 159.300781 0 L 159.300781 34 L 117 34 Z M 117 0 "
         id="path76" />
    </clipPath>
  </defs>
  <g
     id="surface1">
    <path
       style="fill:none;stroke-width:11.3366;stroke-linecap:butt;stroke-linejoin:miter;stroke:rgb(0%,0%,0%);stroke-opacity:1;stroke-miterlimit:10;"
       d="M 337.695312 1388.625 L 341.445312 1379.210938 L 345.234375 1369.875 L 349.023438 1360.617188 L 352.8125 1351.4375 L 356.5625 1342.335938 L 360.351562 1333.273438 L 364.140625 1324.328125 L 367.929688 1315.460938 L 371.679688 1306.632812 L 375.46875 1297.882812 L 379.257812 1289.210938 L 383.046875 1280.578125 L 386.835938 1272.0625 L 390.585938 1263.585938 L 394.375 1255.148438 L 398.164062 1246.828125 L 401.953125 1238.546875 L 405.703125 1230.304688 L 409.492188 1222.140625 L 413.28125 1214.054688 L 417.070312 1206.046875 L 420.820312 1198.078125 L 424.609375 1190.148438 L 428.398438 1182.296875 L 432.1875 1174.523438 L 435.9375 1166.789062 L 439.726562 1159.09375 L 443.515625 1151.476562 L 451.054688 1136.398438 L 454.84375 1128.9375 L 458.632812 1121.515625 L 462.421875 1114.171875 L 466.171875 1106.867188 L 469.960938 1099.601562 L 473.75 1092.414062 L 477.539062 1085.265625 L 481.289062 1078.15625 L 485.078125 1071.125 L 488.867188 1064.132812 L 492.65625 1057.179688 L 496.40625 1050.265625 L 503.984375 1036.59375 L 507.773438 1029.835938 L 511.523438 1023.117188 L 519.101562 1009.835938 L 522.890625 1003.234375 L 526.640625 996.710938 L 530.429688 990.226562 L 534.21875 983.78125 L 538.007812 977.375 L 541.796875 971.007812 L 545.546875 964.679688 L 549.335938 958.390625 L 553.125 952.140625 L 556.875 945.929688 L 564.453125 933.664062 L 568.242188 927.570312 L 572.03125 921.515625 L 575.78125 915.539062 L 579.570312 909.5625 L 583.359375 903.625 L 587.148438 897.726562 L 590.898438 891.867188 L 594.6875 886.046875 L 598.476562 880.265625 L 602.265625 874.523438 L 606.015625 868.820312 L 609.804688 863.117188 L 613.59375 857.492188 L 617.34375 851.867188 L 624.921875 840.773438 L 628.710938 835.265625 L 632.460938 829.757812 L 636.25 824.328125 L 643.828125 813.546875 L 647.617188 808.195312 L 651.367188 802.882812 L 658.945312 792.335938 L 662.734375 787.101562 L 666.484375 781.945312 L 674.0625 771.632812 L 677.851562 766.554688 L 681.601562 761.476562 L 689.179688 751.398438 L 692.929688 746.398438 L 696.71875 741.476562 L 700.507812 736.515625 L 708.085938 726.75 L 711.835938 721.90625 L 715.625 717.0625 L 723.203125 707.53125 L 726.953125 702.765625 L 730.742188 698.039062 L 734.53125 693.351562 L 742.109375 684.054688 L 745.859375 679.445312 L 753.4375 670.304688 L 757.1875 665.734375 L 764.765625 656.75 L 768.554688 652.296875 L 772.304688 647.84375 L 776.09375 643.390625 L 783.671875 634.640625 L 787.421875 630.304688 L 795 621.632812 L 798.789062 617.375 L 802.539062 613.117188 L 806.328125 608.859375 L 810.117188 604.640625 L 817.695312 596.28125 L 821.445312 592.101562 L 825.234375 587.960938 L 829.023438 583.859375 L 832.773438 579.796875 L 836.5625 575.695312 L 844.140625 567.648438 L 847.890625 563.625 L 855.46875 555.65625 L 863.046875 547.765625 L 866.796875 543.859375 L 870.585938 539.953125 L 874.375 536.085938 L 878.125 532.257812 L 881.914062 528.390625 L 885.703125 524.5625 L 897.03125 513.234375 L 900.820312 509.484375 L 908.398438 502.0625 L 912.148438 498.351562 L 915.9375 494.679688 L 919.726562 491.046875 L 923.515625 487.375 L 927.265625 483.78125 L 931.054688 480.148438 L 934.84375 476.554688 L 938.632812 473 L 942.382812 469.445312 L 946.171875 465.890625 L 949.960938 462.375 L 953.710938 458.859375 L 965.078125 448.429688 L 968.867188 444.992188 L 972.617188 441.554688 L 980.195312 434.757812 L 983.984375 431.398438 L 987.734375 428 L 991.523438 424.640625 L 999.101562 418 L 1002.851562 414.679688 L 1010.429688 408.117188 L 1014.21875 404.875 L 1017.96875 401.59375 L 1021.757812 398.351562 L 1029.335938 391.945312 L 1033.085938 388.742188 L 1044.453125 379.25 L 1048.203125 376.125 L 1055.78125 369.875 L 1063.359375 363.703125 L 1067.109375 360.617188 L 1074.6875 354.523438 L 1078.4375 351.476562 L 1089.804688 342.453125 L 1093.554688 339.484375 L 1101.132812 333.546875 L 1104.921875 330.617188 L 1108.671875 327.6875 L 1116.25 321.828125 L 1123.828125 316.046875 L 1127.578125 313.195312 L 1131.367188 310.304688 L 1135.15625 307.453125 L 1138.945312 304.640625 L 1142.695312 301.789062 L 1150.273438 296.164062 L 1154.023438 293.390625 L 1157.8125 290.617188 L 1161.601562 287.804688 L 1165.390625 285.070312 L 1169.140625 282.335938 L 1172.929688 279.5625 L 1176.71875 276.867188 L 1180.507812 274.132812 L 1184.296875 271.4375 L 1188.046875 268.742188 L 1195.625 263.351562 L 1199.414062 260.695312 L 1203.164062 258.039062 L 1206.953125 255.421875 "
       transform="matrix(0.1,0,0,-0.1,0,142.3)"
       id="path81" />
    <path
       style="fill:none;stroke-width:11.3366;stroke-linecap:butt;stroke-linejoin:miter;stroke:rgb(0%,0%,0%);stroke-opacity:1;stroke-miterlimit:10;"
       d="M 435.9375 1384.953125 L 439.726562 1376.59375 L 443.515625 1368.351562 L 447.304688 1360.148438 L 451.054688 1352.023438 L 454.84375 1343.9375 L 458.632812 1335.890625 L 462.421875 1327.921875 L 466.171875 1320.03125 L 469.960938 1312.179688 L 473.75 1304.367188 L 477.539062 1296.632812 L 481.289062 1288.9375 L 485.078125 1281.28125 L 488.867188 1273.703125 L 492.65625 1266.203125 L 496.40625 1258.703125 L 500.195312 1251.28125 L 503.984375 1243.898438 L 507.773438 1236.59375 L 511.523438 1229.328125 L 515.3125 1222.0625 L 522.890625 1207.765625 L 526.640625 1200.695312 L 530.429688 1193.664062 L 534.21875 1186.671875 L 538.007812 1179.71875 L 541.796875 1172.804688 L 545.546875 1165.96875 L 549.335938 1159.171875 L 553.125 1152.414062 L 556.875 1145.695312 L 560.664062 1139.015625 L 564.453125 1132.375 L 568.242188 1125.773438 L 572.03125 1119.210938 L 575.78125 1112.726562 L 579.570312 1106.242188 L 587.148438 1093.429688 L 590.898438 1087.101562 L 594.6875 1080.773438 L 602.265625 1068.273438 L 606.015625 1062.101562 L 613.59375 1049.835938 L 617.34375 1043.742188 L 624.921875 1031.710938 L 628.710938 1025.734375 L 632.460938 1019.796875 L 636.25 1013.898438 L 640.039062 1008.039062 L 643.828125 1002.21875 L 647.617188 996.4375 L 651.367188 990.65625 L 658.945312 979.25 L 662.734375 973.585938 L 666.484375 967.960938 L 670.273438 962.375 L 677.851562 951.28125 L 681.601562 945.773438 L 685.390625 940.34375 L 689.179688 934.875 L 692.929688 929.484375 L 700.507812 918.78125 L 704.296875 913.46875 L 708.085938 908.195312 L 711.835938 902.921875 L 715.625 897.6875 L 719.414062 892.53125 L 723.203125 887.335938 L 726.953125 882.179688 L 738.320312 866.945312 L 742.109375 861.945312 L 745.859375 856.945312 L 749.648438 851.945312 L 753.4375 847.023438 L 757.1875 842.101562 L 760.976562 837.179688 L 768.554688 827.492188 L 772.304688 822.6875 L 776.09375 817.882812 L 779.882812 813.117188 L 783.671875 808.390625 L 787.421875 803.664062 L 791.210938 798.976562 L 798.789062 789.679688 L 802.539062 785.070312 L 806.328125 780.460938 L 810.117188 775.890625 L 817.695312 766.828125 L 821.445312 762.296875 L 829.023438 753.390625 L 832.773438 748.9375 L 836.5625 744.523438 L 844.140625 735.773438 L 847.890625 731.4375 L 851.679688 727.101562 L 855.46875 722.804688 L 863.046875 714.289062 L 866.796875 710.03125 L 874.375 701.59375 L 878.125 697.414062 L 885.703125 689.132812 L 893.28125 680.929688 L 897.03125 676.867188 L 904.609375 668.742188 L 908.398438 664.71875 L 912.148438 660.734375 L 915.9375 656.75 L 923.515625 648.859375 L 927.265625 644.914062 L 934.84375 637.101562 L 938.632812 633.234375 L 942.382812 629.40625 L 949.960938 621.75 L 953.710938 617.921875 L 957.5 614.171875 L 961.289062 610.382812 L 965.078125 606.632812 L 968.867188 602.921875 L 972.617188 599.210938 L 976.40625 595.5 L 983.984375 588.15625 L 987.734375 584.523438 L 995.3125 577.257812 L 999.101562 573.664062 L 1002.851562 570.070312 L 1014.21875 559.40625 L 1017.96875 555.890625 L 1021.757812 552.375 L 1029.335938 545.421875 L 1033.085938 541.984375 L 1036.875 538.507812 L 1040.664062 535.109375 L 1044.453125 531.671875 L 1048.203125 528.273438 L 1051.992188 524.875 L 1059.570312 518.15625 L 1063.359375 514.835938 L 1067.109375 511.476562 L 1070.898438 508.195312 L 1074.6875 504.875 L 1078.4375 501.59375 L 1082.226562 498.3125 L 1089.804688 491.828125 L 1093.554688 488.585938 L 1097.34375 485.34375 L 1101.132812 482.140625 L 1104.921875 478.976562 L 1108.671875 475.773438 L 1116.25 469.445312 L 1123.828125 463.195312 L 1127.578125 460.109375 L 1131.367188 456.984375 L 1138.945312 450.8125 L 1142.695312 447.765625 L 1146.484375 444.679688 L 1150.273438 441.671875 L 1154.023438 438.625 L 1161.601562 432.609375 L 1165.390625 429.640625 L 1169.140625 426.632812 L 1172.929688 423.664062 L 1176.71875 420.734375 L 1180.507812 417.765625 L 1184.296875 414.835938 L 1188.046875 411.945312 L 1191.835938 409.015625 L 1199.414062 403.234375 L 1203.164062 400.34375 L 1214.53125 391.789062 L 1218.28125 388.976562 L 1222.070312 386.125 L 1225.859375 383.3125 L 1229.648438 380.539062 L 1233.398438 377.765625 L 1237.1875 374.953125 L 1240.976562 372.179688 L 1244.765625 369.445312 L 1248.515625 366.710938 L 1259.882812 358.507812 L 1263.632812 355.8125 L 1271.210938 350.421875 L 1274.960938 347.765625 L 1278.789062 345.109375 L 1282.539062 342.453125 L 1290.117188 337.140625 L 1293.867188 334.523438 L 1297.65625 331.90625 L 1301.445312 329.328125 L 1305.234375 326.710938 L 1308.984375 324.132812 L 1320.351562 316.398438 L 1324.101562 313.859375 L 1331.679688 308.78125 L 1335.46875 306.28125 L 1339.21875 303.742188 L 1346.796875 298.742188 L 1350.585938 296.28125 L 1354.335938 293.78125 L 1365.703125 286.398438 L 1369.453125 283.976562 L 1373.242188 281.515625 L 1380.820312 276.671875 L 1384.609375 274.289062 L 1388.359375 271.867188 L 1399.726562 264.71875 L 1403.476562 262.335938 L 1411.054688 257.648438 L 1414.804688 255.304688 "
       transform="matrix(0.1,0,0,-0.1,0,142.3)"
       id="path83" />
    <g
       clip-path="url(#clip1)"
       clip-rule="nonzero"
       id="g87">
      <path
         style="fill:none;stroke-width:11.3366;stroke-linecap:butt;stroke-linejoin:miter;stroke:rgb(0%,0%,0%);stroke-opacity:1;stroke-miterlimit:10;"
         d="M 545.546875 1384.09375 L 549.335938 1376.710938 L 553.125 1369.40625 L 556.875 1362.101562 L 560.664062 1354.875 L 564.453125 1347.6875 L 568.242188 1340.539062 L 572.03125 1333.46875 L 575.78125 1326.398438 L 583.359375 1312.414062 L 587.148438 1305.5 L 590.898438 1298.625 L 594.6875 1291.789062 L 598.476562 1284.992188 L 602.265625 1278.273438 L 606.015625 1271.554688 L 609.804688 1264.875 L 613.59375 1258.273438 L 617.34375 1251.671875 L 624.921875 1238.625 L 628.710938 1232.140625 L 632.460938 1225.734375 L 636.25 1219.328125 L 643.828125 1206.671875 L 647.617188 1200.382812 L 651.367188 1194.171875 L 655.15625 1187.960938 L 658.945312 1181.789062 L 662.734375 1175.65625 L 666.484375 1169.5625 L 670.273438 1163.507812 L 677.851562 1151.476562 L 681.601562 1145.539062 L 685.390625 1139.601562 L 689.179688 1133.742188 L 692.929688 1127.882812 L 700.507812 1116.242188 L 704.296875 1110.5 L 708.085938 1104.796875 L 711.835938 1099.09375 L 715.625 1093.429688 L 719.414062 1087.804688 L 723.203125 1082.21875 L 726.953125 1076.632812 L 730.742188 1071.085938 L 734.53125 1065.578125 L 738.320312 1060.109375 L 742.109375 1054.679688 L 745.859375 1049.25 L 749.648438 1043.859375 L 753.4375 1038.507812 L 757.1875 1033.195312 L 760.976562 1027.882812 L 764.765625 1022.609375 L 768.554688 1017.375 L 772.304688 1012.140625 L 776.09375 1006.945312 L 783.671875 996.632812 L 787.421875 991.554688 L 795 981.398438 L 798.789062 976.398438 L 802.539062 971.398438 L 806.328125 966.398438 L 810.117188 961.4375 L 817.695312 951.59375 L 821.445312 946.75 L 829.023438 937.0625 L 832.773438 932.257812 L 840.351562 922.726562 L 844.140625 918 L 847.890625 913.273438 L 851.679688 908.585938 L 859.257812 899.289062 L 863.046875 894.679688 L 866.796875 890.109375 L 874.375 880.96875 L 878.125 876.4375 L 885.703125 867.453125 L 893.28125 858.546875 L 897.03125 854.132812 L 900.820312 849.757812 L 904.609375 845.34375 L 908.398438 841.007812 L 912.148438 836.671875 L 923.515625 823.78125 L 927.265625 819.523438 L 934.84375 811.085938 L 938.632812 806.90625 L 942.382812 802.726562 L 949.960938 794.445312 L 953.710938 790.304688 L 957.5 786.203125 L 968.867188 774.015625 L 972.617188 769.992188 L 983.984375 758.039062 L 987.734375 754.09375 L 991.523438 750.148438 L 999.101562 742.335938 L 1002.851562 738.429688 L 1006.640625 734.5625 L 1014.21875 726.90625 L 1017.96875 723.078125 L 1025.546875 715.5 L 1029.335938 711.75 L 1033.085938 708 L 1036.875 704.25 L 1040.664062 700.539062 L 1044.453125 696.867188 L 1048.203125 693.15625 L 1051.992188 689.484375 L 1055.78125 685.851562 L 1059.570312 682.179688 L 1063.359375 678.585938 L 1067.109375 674.953125 L 1070.898438 671.398438 L 1074.6875 667.804688 L 1078.4375 664.25 L 1082.226562 660.695312 L 1089.804688 653.664062 L 1093.554688 650.148438 L 1104.921875 639.71875 L 1108.671875 636.28125 L 1112.460938 632.84375 L 1123.828125 622.648438 L 1127.578125 619.289062 L 1131.367188 615.890625 L 1135.15625 612.570312 L 1138.945312 609.210938 L 1142.695312 605.890625 L 1150.273438 599.328125 L 1154.023438 596.046875 L 1157.8125 592.765625 L 1165.390625 586.28125 L 1169.140625 583.039062 L 1180.507812 573.429688 L 1184.296875 570.265625 L 1188.046875 567.101562 L 1191.835938 563.9375 L 1199.414062 557.6875 L 1203.164062 554.5625 L 1206.953125 551.476562 L 1210.742188 548.351562 L 1214.53125 545.304688 L 1218.28125 542.21875 L 1229.648438 533.078125 L 1233.398438 530.070312 L 1240.976562 524.054688 L 1244.765625 521.085938 L 1248.515625 518.078125 L 1252.304688 515.148438 L 1259.882812 509.210938 L 1263.632812 506.320312 L 1271.210938 500.460938 L 1274.960938 497.570312 L 1278.789062 494.679688 L 1282.539062 491.789062 L 1290.117188 486.085938 L 1293.867188 483.234375 L 1297.65625 480.382812 L 1305.234375 474.757812 L 1308.984375 471.945312 L 1320.351562 463.625 L 1324.101562 460.851562 L 1327.890625 458.078125 L 1335.46875 452.609375 L 1339.21875 449.875 L 1350.585938 441.789062 L 1354.335938 439.09375 L 1358.125 436.4375 L 1361.914062 433.742188 L 1365.703125 431.085938 L 1369.453125 428.429688 L 1384.609375 417.960938 L 1388.359375 415.34375 L 1399.726562 407.609375 L 1403.476562 405.03125 L 1407.265625 402.492188 L 1411.054688 399.914062 L 1414.804688 397.375 L 1418.59375 394.875 L 1422.382812 392.335938 L 1426.171875 389.835938 L 1429.921875 387.335938 L 1437.5 382.335938 L 1441.289062 379.875 L 1445.078125 377.375 L 1448.828125 374.914062 L 1452.617188 372.453125 L 1460.195312 367.609375 L 1463.945312 365.148438 L 1471.523438 360.304688 "
         transform="matrix(0.1,0,0,-0.1,0,142.3)"
         id="path85" />
    </g>
    <g
       clip-path="url(#clip2)"
       clip-rule="nonzero"
       id="g91">
      <path
         style="fill:none;stroke-width:11.3366;stroke-linecap:butt;stroke-linejoin:miter;stroke:rgb(0%,0%,0%);stroke-opacity:1;stroke-miterlimit:10;"
         d="M 666.484375 1387.960938 L 670.273438 1381.398438 L 674.0625 1374.875 L 677.851562 1368.390625 L 681.601562 1361.945312 L 685.390625 1355.5 L 689.179688 1349.132812 L 692.929688 1342.804688 L 696.71875 1336.476562 L 704.296875 1323.976562 L 708.085938 1317.765625 L 711.835938 1311.59375 L 715.625 1305.460938 L 719.414062 1299.367188 L 723.203125 1293.3125 L 726.953125 1287.257812 L 734.53125 1275.304688 L 738.320312 1269.367188 L 742.109375 1263.46875 L 745.859375 1257.609375 L 753.4375 1245.96875 L 757.1875 1240.1875 L 760.976562 1234.445312 L 768.554688 1223.039062 L 772.304688 1217.375 L 776.09375 1211.789062 L 779.882812 1206.164062 L 783.671875 1200.617188 L 787.421875 1195.070312 L 791.210938 1189.5625 L 798.789062 1178.625 L 802.539062 1173.234375 L 810.117188 1162.453125 L 817.695312 1151.828125 L 821.445312 1146.515625 L 829.023438 1136.046875 L 832.773438 1130.851562 L 836.5625 1125.65625 L 840.351562 1120.5 L 844.140625 1115.382812 L 847.890625 1110.265625 L 851.679688 1105.1875 L 855.46875 1100.148438 L 863.046875 1090.148438 L 866.796875 1085.148438 L 870.585938 1080.1875 L 874.375 1075.265625 L 878.125 1070.382812 L 885.703125 1060.617188 L 893.28125 1051.007812 L 897.03125 1046.203125 L 900.820312 1041.4375 L 908.398438 1031.984375 L 912.148438 1027.296875 L 915.9375 1022.609375 L 923.515625 1013.3125 L 927.265625 1008.703125 L 934.84375 999.5625 L 938.632812 995.03125 L 942.382812 990.5 L 949.960938 981.515625 L 953.710938 977.0625 L 957.5 972.609375 L 965.078125 963.78125 L 968.867188 959.40625 L 972.617188 955.03125 L 976.40625 950.695312 L 980.195312 946.398438 L 983.984375 942.0625 L 987.734375 937.804688 L 995.3125 929.289062 L 999.101562 925.070312 L 1002.851562 920.851562 L 1010.429688 912.492188 L 1014.21875 908.351562 L 1017.96875 904.210938 L 1029.335938 891.90625 L 1033.085938 887.84375 L 1044.453125 875.773438 L 1048.203125 871.789062 L 1051.992188 867.804688 L 1059.570312 859.914062 L 1063.359375 856.007812 L 1067.109375 852.0625 L 1074.6875 844.328125 L 1078.4375 840.460938 L 1082.226562 836.59375 L 1086.015625 832.804688 L 1089.804688 828.976562 L 1093.554688 825.1875 L 1097.34375 821.398438 L 1104.921875 813.898438 L 1108.671875 810.148438 L 1112.460938 806.4375 L 1116.25 802.765625 L 1120.039062 799.054688 L 1123.828125 795.382812 L 1127.578125 791.710938 L 1135.15625 784.445312 L 1138.945312 780.851562 L 1142.695312 777.257812 L 1146.484375 773.664062 L 1150.273438 770.109375 L 1154.023438 766.554688 L 1157.8125 763 L 1165.390625 755.96875 L 1169.140625 752.492188 L 1180.507812 742.0625 L 1184.296875 738.625 L 1188.046875 735.1875 L 1199.414062 724.992188 L 1203.164062 721.59375 L 1206.953125 718.234375 L 1210.742188 714.914062 L 1214.53125 711.554688 L 1218.28125 708.234375 L 1222.070312 704.914062 L 1229.648438 698.351562 L 1233.398438 695.070312 L 1237.1875 691.828125 L 1240.976562 688.546875 L 1244.765625 685.304688 L 1248.515625 682.101562 L 1259.882812 672.492188 L 1263.632812 669.328125 L 1271.210938 663 L 1274.960938 659.875 L 1278.789062 656.75 L 1282.539062 653.625 L 1286.328125 650.539062 L 1290.117188 647.414062 L 1293.867188 644.328125 L 1297.65625 641.28125 L 1301.445312 638.195312 L 1305.234375 635.148438 L 1308.984375 632.101562 L 1320.351562 623.078125 L 1324.101562 620.070312 L 1335.46875 611.164062 L 1339.21875 608.195312 L 1350.585938 599.40625 L 1354.335938 596.515625 L 1365.703125 587.84375 L 1369.453125 584.953125 L 1373.242188 582.101562 L 1377.03125 579.289062 L 1384.609375 573.585938 L 1388.359375 570.773438 L 1392.148438 567.960938 L 1395.9375 565.1875 L 1399.726562 562.375 L 1403.476562 559.601562 L 1411.054688 554.054688 L 1414.804688 551.320312 L 1426.171875 543.117188 L 1429.921875 540.421875 L 1445.078125 529.640625 L 1448.828125 526.984375 L 1456.40625 521.671875 L 1460.195312 519.054688 L 1463.945312 516.398438 L 1471.523438 511.164062 "
         transform="matrix(0.1,0,0,-0.1,0,142.3)"
         id="path89" />
    </g>
    <g
       clip-path="url(#clip3)"
       clip-rule="nonzero"
       id="g95">
      <path
         style="fill:none;stroke-width:11.3366;stroke-linecap:butt;stroke-linejoin:miter;stroke:rgb(0%,0%,0%);stroke-opacity:1;stroke-miterlimit:10;"
         d="M 806.328125 1386.125 L 810.117188 1380.304688 L 817.695312 1368.742188 L 821.445312 1363.039062 L 825.234375 1357.335938 L 829.023438 1351.671875 L 832.773438 1346.046875 L 836.5625 1340.421875 L 840.351562 1334.835938 L 844.140625 1329.289062 L 847.890625 1323.742188 L 851.679688 1318.234375 L 855.46875 1312.804688 L 859.257812 1307.335938 L 863.046875 1301.90625 L 866.796875 1296.515625 L 874.375 1285.8125 L 878.125 1280.5 L 885.703125 1269.953125 L 889.492188 1264.71875 L 893.28125 1259.523438 L 897.03125 1254.328125 L 904.609375 1244.015625 L 908.398438 1238.898438 L 912.148438 1233.820312 L 915.9375 1228.742188 L 919.726562 1223.703125 L 923.515625 1218.703125 L 927.265625 1213.703125 L 934.84375 1203.78125 L 938.632812 1198.859375 L 942.382812 1193.976562 L 949.960938 1184.210938 L 953.710938 1179.40625 L 961.289062 1169.796875 L 968.867188 1160.265625 L 972.617188 1155.539062 L 980.195312 1146.164062 L 983.984375 1141.515625 L 987.734375 1136.867188 L 995.3125 1127.648438 L 999.101562 1123.078125 L 1002.851562 1118.507812 L 1010.429688 1109.445312 L 1014.21875 1104.953125 L 1017.96875 1100.460938 L 1021.757812 1096.007812 L 1025.546875 1091.59375 L 1029.335938 1087.140625 L 1033.085938 1082.765625 L 1040.664062 1074.015625 L 1044.453125 1069.679688 L 1048.203125 1065.34375 L 1055.78125 1056.75 L 1063.359375 1048.234375 L 1067.109375 1044.015625 L 1074.6875 1035.578125 L 1078.4375 1031.398438 L 1082.226562 1027.257812 L 1086.015625 1023.078125 L 1089.804688 1018.976562 L 1093.554688 1014.875 L 1101.132812 1006.671875 L 1104.921875 1002.648438 L 1108.671875 998.585938 L 1116.25 990.539062 L 1123.828125 982.570312 L 1127.578125 978.625 L 1135.15625 970.734375 L 1138.945312 966.828125 L 1142.695312 962.921875 L 1150.273438 955.1875 L 1154.023438 951.320312 L 1161.601562 943.664062 L 1165.390625 939.875 L 1169.140625 936.085938 L 1172.929688 932.296875 L 1180.507812 924.796875 L 1184.296875 921.085938 L 1188.046875 917.375 L 1195.625 909.953125 L 1199.414062 906.320312 L 1203.164062 902.648438 L 1214.53125 891.75 L 1218.28125 888.15625 L 1222.070312 884.5625 L 1225.859375 881.007812 L 1229.648438 877.414062 L 1233.398438 873.898438 L 1237.1875 870.34375 L 1244.765625 863.3125 L 1248.515625 859.835938 L 1256.09375 852.882812 L 1259.882812 849.445312 L 1263.632812 845.96875 L 1267.421875 842.570312 L 1271.210938 839.132812 L 1274.960938 835.734375 L 1278.789062 832.335938 L 1282.539062 828.976562 L 1290.117188 822.257812 L 1293.867188 818.898438 L 1301.445312 812.257812 L 1305.234375 808.976562 L 1308.984375 805.65625 L 1312.773438 802.375 L 1316.5625 799.132812 L 1320.351562 795.851562 L 1324.101562 792.648438 L 1331.679688 786.164062 L 1335.46875 782.960938 L 1339.21875 779.757812 L 1343.007812 776.59375 L 1346.796875 773.390625 L 1350.585938 770.226562 L 1354.335938 767.101562 L 1358.125 763.9375 L 1365.703125 757.6875 L 1369.453125 754.601562 L 1373.242188 751.515625 L 1377.03125 748.390625 L 1380.820312 745.34375 L 1384.609375 742.257812 L 1388.359375 739.210938 L 1392.148438 736.164062 L 1395.9375 733.15625 L 1399.726562 730.109375 L 1403.476562 727.101562 L 1407.265625 724.09375 L 1411.054688 721.125 L 1414.804688 718.117188 L 1422.382812 712.179688 L 1426.171875 709.25 L 1429.921875 706.320312 L 1437.5 700.460938 L 1441.289062 697.570312 L 1445.078125 694.640625 L 1448.828125 691.75 L 1452.617188 688.898438 L 1456.40625 686.007812 L 1460.195312 683.15625 L 1463.945312 680.304688 L 1471.523438 674.601562 "
         transform="matrix(0.1,0,0,-0.1,0,142.3)"
         id="path93" />
    </g>
    <g
       clip-path="url(#clip4)"
       clip-rule="nonzero"
       id="g99">
      <path
         style="fill:none;stroke-width:11.3366;stroke-linecap:butt;stroke-linejoin:miter;stroke:rgb(0%,0%,0%);stroke-opacity:1;stroke-miterlimit:10;"
         d="M 961.289062 1388.195312 L 968.867188 1377.882812 L 972.617188 1372.765625 L 980.195312 1362.609375 L 983.984375 1357.570312 L 987.734375 1352.53125 L 995.3125 1342.53125 L 999.101562 1337.570312 L 1002.851562 1332.648438 L 1006.640625 1327.726562 L 1014.21875 1317.960938 L 1017.96875 1313.117188 L 1021.757812 1308.273438 L 1029.335938 1298.664062 L 1033.085938 1293.898438 L 1044.453125 1279.71875 L 1048.203125 1275.03125 L 1059.570312 1261.085938 L 1063.359375 1256.476562 L 1067.109375 1251.90625 L 1070.898438 1247.335938 L 1074.6875 1242.804688 L 1078.4375 1238.273438 L 1082.226562 1233.742188 L 1086.015625 1229.25 L 1089.804688 1224.796875 L 1093.554688 1220.34375 L 1097.34375 1215.890625 L 1104.921875 1207.0625 L 1108.671875 1202.6875 L 1112.460938 1198.351562 L 1116.25 1193.976562 L 1120.039062 1189.640625 L 1123.828125 1185.34375 L 1127.578125 1181.046875 L 1138.945312 1168.273438 L 1142.695312 1164.054688 L 1146.484375 1159.875 L 1150.273438 1155.65625 L 1154.023438 1151.515625 L 1157.8125 1147.335938 L 1161.601562 1143.195312 L 1165.390625 1139.09375 L 1169.140625 1134.992188 L 1172.929688 1130.890625 L 1184.296875 1118.703125 L 1188.046875 1114.679688 L 1191.835938 1110.695312 L 1195.625 1106.671875 L 1199.414062 1102.726562 L 1203.164062 1098.742188 L 1210.742188 1090.851562 L 1214.53125 1086.945312 L 1218.28125 1083.039062 L 1229.648438 1071.4375 L 1233.398438 1067.609375 L 1237.1875 1063.742188 L 1240.976562 1059.953125 L 1244.765625 1056.125 L 1252.304688 1048.585938 L 1259.882812 1041.085938 L 1263.632812 1037.375 L 1271.210938 1029.953125 L 1274.960938 1026.242188 L 1278.789062 1022.609375 L 1282.539062 1018.9375 L 1286.328125 1015.265625 L 1290.117188 1011.632812 L 1293.867188 1008.039062 L 1297.65625 1004.445312 L 1301.445312 1000.8125 L 1305.234375 997.257812 L 1308.984375 993.703125 L 1316.5625 986.59375 L 1320.351562 983.078125 L 1324.101562 979.5625 L 1327.890625 976.046875 L 1335.46875 969.09375 L 1339.21875 965.617188 L 1343.007812 962.140625 L 1346.796875 958.703125 L 1350.585938 955.304688 L 1354.335938 951.867188 L 1358.125 948.46875 L 1361.914062 945.109375 L 1365.703125 941.710938 L 1369.453125 938.351562 L 1377.03125 931.632812 L 1384.609375 924.992188 L 1388.359375 921.671875 L 1399.726562 911.828125 L 1403.476562 908.546875 L 1411.054688 902.0625 L 1414.804688 898.859375 L 1418.59375 895.617188 L 1426.171875 889.210938 L 1429.921875 886.046875 L 1433.710938 882.84375 L 1437.5 879.679688 L 1441.289062 876.554688 L 1445.078125 873.390625 L 1448.828125 870.265625 L 1456.40625 864.015625 L 1460.195312 860.929688 L 1463.945312 857.84375 L 1471.523438 851.671875 "
         transform="matrix(0.1,0,0,-0.1,0,142.3)"
         id="path97" />
    </g>
    <g
       clip-path="url(#clip5)"
       clip-rule="nonzero"
       id="g103">
      <path
         style="fill:none;stroke-width:11.3366;stroke-linecap:butt;stroke-linejoin:miter;stroke:rgb(0%,0%,0%);stroke-opacity:1;stroke-miterlimit:10;"
         d="M 1138.945312 1386.59375 L 1142.695312 1382.023438 L 1146.484375 1377.453125 L 1150.273438 1372.921875 L 1154.023438 1368.390625 L 1161.601562 1359.40625 L 1165.390625 1354.953125 L 1169.140625 1350.5 L 1180.507812 1337.257812 L 1184.296875 1332.882812 L 1188.046875 1328.507812 L 1195.625 1319.835938 L 1199.414062 1315.539062 L 1203.164062 1311.242188 L 1214.53125 1298.46875 L 1218.28125 1294.25 L 1225.859375 1285.8125 L 1229.648438 1281.632812 L 1233.398438 1277.492188 L 1240.976562 1269.210938 L 1244.765625 1265.109375 L 1248.515625 1261.007812 L 1252.304688 1256.90625 L 1259.882812 1248.78125 L 1263.632812 1244.757812 L 1267.421875 1240.695312 L 1271.210938 1236.710938 L 1274.960938 1232.726562 L 1278.789062 1228.742188 L 1282.539062 1224.757812 L 1290.117188 1216.867188 L 1293.867188 1212.960938 L 1301.445312 1205.148438 L 1305.234375 1201.28125 L 1308.984375 1197.414062 L 1312.773438 1193.585938 L 1316.5625 1189.71875 L 1320.351562 1185.890625 L 1324.101562 1182.101562 L 1331.679688 1174.523438 L 1335.46875 1170.773438 L 1339.21875 1166.984375 L 1343.007812 1163.273438 L 1346.796875 1159.523438 L 1350.585938 1155.8125 L 1354.335938 1152.101562 L 1365.703125 1141.085938 L 1369.453125 1137.453125 L 1377.03125 1130.1875 L 1380.820312 1126.59375 L 1384.609375 1122.960938 L 1388.359375 1119.40625 L 1392.148438 1115.8125 L 1399.726562 1108.703125 L 1403.476562 1105.1875 L 1411.054688 1098.15625 L 1414.804688 1094.640625 L 1426.171875 1084.210938 L 1429.921875 1080.773438 L 1437.5 1073.898438 L 1441.289062 1070.5 L 1445.078125 1067.0625 L 1448.828125 1063.703125 L 1452.617188 1060.304688 L 1460.195312 1053.585938 L 1463.945312 1050.226562 L 1471.523438 1043.585938 "
         transform="matrix(0.1,0,0,-0.1,0,142.3)"
         id="path101" />
    </g>
    <g
       clip-path="url(#clip6)"
       clip-rule="nonzero"
       id="g107">
      <path
         style="fill:none;stroke-width:11.3366;stroke-linecap:butt;stroke-linejoin:miter;stroke:rgb(0%,0%,0%);stroke-opacity:1;stroke-miterlimit:10;"
         d="M 1339.21875 1385.1875 L 1343.007812 1381.164062 L 1346.796875 1377.101562 L 1350.585938 1373.078125 L 1354.335938 1369.09375 L 1358.125 1365.070312 L 1361.914062 1361.085938 L 1365.703125 1357.140625 L 1369.453125 1353.195312 L 1377.03125 1345.304688 L 1384.609375 1337.492188 L 1388.359375 1333.625 L 1395.9375 1325.890625 L 1399.726562 1322.0625 L 1403.476562 1318.234375 L 1407.265625 1314.40625 L 1411.054688 1310.617188 L 1414.804688 1306.828125 L 1418.59375 1303.039062 L 1422.382812 1299.289062 L 1426.171875 1295.5 L 1429.921875 1291.789062 L 1433.710938 1288.039062 L 1441.289062 1280.617188 L 1445.078125 1276.945312 L 1448.828125 1273.273438 L 1452.617188 1269.601562 L 1456.40625 1265.96875 L 1460.195312 1262.296875 L 1463.945312 1258.664062 L 1471.523438 1251.476562 "
         transform="matrix(0.1,0,0,-0.1,0,142.3)"
         id="path105" />
    </g>
    <path
       style="fill:none;stroke-width:11.3366;stroke-linecap:butt;stroke-linejoin:miter;stroke:rgb(0%,0%,0%);stroke-opacity:1;stroke-miterlimit:10;"
       d="M 337.695312 1170.1875 L 341.445312 1161.515625 L 345.234375 1152.882812 L 349.023438 1144.367188 L 352.8125 1135.890625 L 356.5625 1127.492188 L 360.351562 1119.132812 L 364.140625 1110.851562 L 367.929688 1102.6875 L 371.679688 1094.523438 L 375.46875 1086.476562 L 379.257812 1078.46875 L 383.046875 1070.5 L 386.835938 1062.609375 L 390.585938 1054.796875 L 394.375 1047.023438 L 398.164062 1039.328125 L 401.953125 1031.671875 L 405.703125 1024.09375 L 409.492188 1016.554688 L 413.28125 1009.09375 L 417.070312 1001.671875 L 420.820312 994.328125 L 424.609375 987.023438 L 428.398438 979.796875 L 432.1875 972.609375 L 435.9375 965.460938 L 439.726562 958.351562 L 443.515625 951.320312 L 447.304688 944.328125 L 451.054688 937.414062 L 454.84375 930.5 L 458.632812 923.664062 L 462.421875 916.90625 L 466.171875 910.148438 L 469.960938 903.46875 L 473.75 896.828125 L 477.539062 890.226562 L 481.289062 883.664062 L 485.078125 877.140625 L 488.867188 870.695312 L 492.65625 864.289062 L 496.40625 857.921875 L 500.195312 851.59375 L 503.984375 845.304688 L 507.773438 839.054688 L 511.523438 832.882812 L 515.3125 826.710938 L 522.890625 814.523438 L 526.640625 808.507812 L 530.429688 802.492188 L 538.007812 790.617188 L 541.796875 784.757812 L 545.546875 778.9375 L 549.335938 773.117188 L 553.125 767.375 L 556.875 761.632812 L 560.664062 755.929688 L 568.242188 744.679688 L 572.03125 739.09375 L 575.78125 733.546875 L 579.570312 728.039062 L 583.359375 722.570312 L 587.148438 717.140625 L 590.898438 711.710938 L 598.476562 701.007812 L 602.265625 695.695312 L 606.015625 690.421875 L 609.804688 685.1875 L 613.59375 679.992188 L 617.34375 674.796875 L 621.132812 669.640625 L 624.921875 664.5625 L 628.710938 659.445312 L 632.460938 654.40625 L 640.039062 644.40625 L 647.617188 634.484375 L 651.367188 629.601562 L 655.15625 624.71875 L 662.734375 615.03125 L 666.484375 610.265625 L 674.0625 600.734375 L 677.851562 596.046875 L 681.601562 591.359375 L 689.179688 582.0625 L 692.929688 577.453125 L 696.71875 572.882812 L 704.296875 563.820312 L 708.085938 559.328125 L 711.835938 554.835938 L 715.625 550.382812 L 723.203125 541.554688 L 726.953125 537.179688 L 734.53125 528.507812 L 742.109375 519.914062 L 745.859375 515.65625 L 753.4375 507.21875 L 757.1875 503.039062 L 760.976562 498.859375 L 768.554688 490.578125 L 772.304688 486.476562 L 783.671875 474.289062 L 787.421875 470.304688 L 791.210938 466.28125 L 795 462.335938 L 798.789062 458.351562 L 802.539062 454.445312 L 810.117188 446.632812 L 817.695312 438.898438 L 821.445312 435.070312 L 825.234375 431.242188 L 829.023438 427.453125 L 832.773438 423.664062 L 840.351562 416.164062 L 844.140625 412.453125 L 847.890625 408.78125 L 851.679688 405.070312 L 855.46875 401.398438 L 863.046875 394.132812 L 866.796875 390.539062 L 874.375 383.351562 L 878.125 379.796875 L 881.914062 376.242188 L 889.492188 369.210938 L 893.28125 365.734375 L 897.03125 362.257812 L 900.820312 358.820312 L 904.609375 355.34375 L 908.398438 351.945312 L 912.148438 348.546875 L 919.726562 341.75 L 923.515625 338.390625 L 927.265625 335.070312 L 931.054688 331.710938 L 934.84375 328.429688 L 938.632812 325.109375 L 942.382812 321.828125 L 946.171875 318.585938 L 949.960938 315.304688 L 953.710938 312.0625 L 965.078125 302.453125 L 968.867188 299.289062 L 972.617188 296.125 L 976.40625 292.960938 L 983.984375 286.710938 L 987.734375 283.585938 L 995.3125 277.414062 L 999.101562 274.367188 L 1002.851562 271.320312 L 1010.429688 265.226562 L 1014.21875 262.21875 L 1017.96875 259.210938 L 1021.757812 256.242188 "
       transform="matrix(0.1,0,0,-0.1,0,142.3)"
       id="path109" />
    <path
       style="fill:none;stroke-width:11.3366;stroke-linecap:butt;stroke-linejoin:miter;stroke:rgb(0%,0%,0%);stroke-opacity:1;stroke-miterlimit:10;"
       d="M 337.695312 968.546875 L 341.445312 960.539062 L 345.234375 952.570312 L 349.023438 944.679688 L 352.8125 936.867188 L 356.5625 929.09375 L 360.351562 921.398438 L 364.140625 913.78125 L 371.679688 898.703125 L 375.46875 891.242188 L 379.257812 883.859375 L 383.046875 876.515625 L 386.835938 869.25 L 390.585938 862.023438 L 394.375 854.875 L 398.164062 847.765625 L 401.953125 840.695312 L 405.703125 833.703125 L 409.492188 826.75 L 413.28125 819.835938 L 417.070312 813 L 420.820312 806.203125 L 424.609375 799.484375 L 428.398438 792.804688 L 432.1875 786.164062 L 435.9375 779.5625 L 443.515625 766.515625 L 447.304688 760.070312 L 451.054688 753.664062 L 458.632812 741.007812 L 462.421875 734.757812 L 466.171875 728.546875 L 469.960938 722.335938 L 473.75 716.203125 L 477.539062 710.148438 L 481.289062 704.09375 L 485.078125 698.078125 L 488.867188 692.101562 L 492.65625 686.203125 L 496.40625 680.304688 L 503.984375 668.664062 L 507.773438 662.921875 L 511.523438 657.179688 L 515.3125 651.515625 L 522.890625 640.265625 L 526.640625 634.679688 L 534.21875 623.664062 L 538.007812 618.195312 L 541.796875 612.804688 L 545.546875 607.414062 L 553.125 596.710938 L 556.875 591.4375 L 560.664062 586.203125 L 568.242188 575.8125 L 572.03125 570.65625 L 575.78125 565.539062 L 583.359375 555.382812 L 587.148438 550.382812 L 590.898438 545.382812 L 594.6875 540.421875 L 598.476562 535.5 L 602.265625 530.617188 L 606.015625 525.734375 L 609.804688 520.890625 L 613.59375 516.085938 L 617.34375 511.320312 L 621.132812 506.554688 L 624.921875 501.867188 L 628.710938 497.140625 L 632.460938 492.492188 L 636.25 487.84375 L 640.039062 483.234375 L 647.617188 474.09375 L 651.367188 469.601562 L 658.945312 460.617188 L 662.734375 456.164062 L 666.484375 451.75 L 670.273438 447.335938 L 674.0625 442.960938 L 677.851562 438.625 L 681.601562 434.289062 L 685.390625 430.03125 L 689.179688 425.734375 L 692.929688 421.476562 L 696.71875 417.257812 L 708.085938 404.71875 L 711.835938 400.617188 L 719.414062 392.414062 L 723.203125 388.351562 L 726.953125 384.328125 L 730.742188 380.304688 L 742.109375 368.351562 L 745.859375 364.445312 L 753.4375 356.632812 L 757.1875 352.765625 L 764.765625 345.109375 L 768.554688 341.320312 L 772.304688 337.53125 L 776.09375 333.742188 L 779.882812 329.992188 L 783.671875 326.28125 L 787.421875 322.570312 L 798.789062 311.554688 L 802.539062 307.921875 L 813.90625 297.140625 L 817.695312 293.585938 L 821.445312 290.070312 L 825.234375 286.515625 L 829.023438 283.039062 L 832.773438 279.523438 L 840.351562 272.648438 L 844.140625 269.171875 L 847.890625 265.773438 L 855.46875 258.976562 L 859.257812 255.617188 "
       transform="matrix(0.1,0,0,-0.1,0,142.3)"
       id="path111" />
    <path
       style="fill:none;stroke-width:11.3366;stroke-linecap:butt;stroke-linejoin:miter;stroke:rgb(0%,0%,0%);stroke-opacity:1;stroke-miterlimit:10;"
       d="M 337.695312 782.414062 L 341.445312 775.03125 L 345.234375 767.6875 L 349.023438 760.421875 L 352.8125 753.195312 L 356.5625 746.046875 L 360.351562 738.9375 L 364.140625 731.90625 L 367.929688 724.914062 L 371.679688 717.960938 L 375.46875 711.085938 L 383.046875 697.492188 L 386.835938 690.773438 L 390.585938 684.132812 L 398.164062 670.929688 L 401.953125 664.445312 L 405.703125 657.960938 L 409.492188 651.554688 L 417.070312 638.898438 L 420.820312 632.648438 L 424.609375 626.398438 L 428.398438 620.226562 L 432.1875 614.09375 L 435.9375 608.039062 L 439.726562 601.984375 L 443.515625 595.96875 L 447.304688 590.03125 L 451.054688 584.132812 L 454.84375 578.273438 L 458.632812 572.453125 L 462.421875 566.671875 L 466.171875 560.929688 L 469.960938 555.226562 L 473.75 549.5625 L 477.539062 543.9375 L 481.289062 538.351562 L 485.078125 532.804688 L 492.65625 521.867188 L 496.40625 516.4375 L 500.195312 511.046875 L 503.984375 505.695312 L 507.773438 500.382812 L 511.523438 495.109375 L 515.3125 489.835938 L 522.890625 479.445312 L 526.640625 474.328125 L 530.429688 469.210938 L 534.21875 464.132812 L 538.007812 459.09375 L 541.796875 454.09375 L 545.546875 449.132812 L 549.335938 444.171875 L 553.125 439.289062 L 556.875 434.40625 L 560.664062 429.5625 L 568.242188 419.953125 L 572.03125 415.226562 L 575.78125 410.5 L 583.359375 401.125 L 587.148438 396.515625 L 590.898438 391.90625 L 598.476562 382.765625 L 602.265625 378.234375 L 606.015625 373.78125 L 609.804688 369.289062 L 613.59375 364.875 L 617.34375 360.460938 L 621.132812 356.046875 L 628.710938 347.375 L 632.460938 343.078125 L 636.25 338.78125 L 640.039062 334.523438 L 643.828125 330.304688 L 647.617188 326.125 L 651.367188 321.945312 L 655.15625 317.765625 L 658.945312 313.625 L 662.734375 309.523438 L 666.484375 305.460938 L 670.273438 301.398438 L 677.851562 293.351562 L 681.601562 289.367188 L 685.390625 285.382812 L 689.179688 281.476562 L 692.929688 277.53125 L 696.71875 273.625 L 704.296875 265.890625 L 708.085938 262.0625 L 711.835938 258.273438 "
       transform="matrix(0.1,0,0,-0.1,0,142.3)"
       id="path113" />
    <path
       style="fill:none;stroke-width:11.3366;stroke-linecap:butt;stroke-linejoin:miter;stroke:rgb(0%,0%,0%);stroke-opacity:1;stroke-miterlimit:10;"
       d="M 337.695312 610.695312 L 341.445312 603.859375 L 345.234375 597.0625 L 349.023438 590.34375 L 352.8125 583.703125 L 356.5625 577.101562 L 360.351562 570.539062 L 364.140625 564.015625 L 367.929688 557.570312 L 371.679688 551.164062 L 375.46875 544.835938 L 379.257812 538.546875 L 383.046875 532.296875 L 386.835938 526.085938 L 390.585938 519.953125 L 394.375 513.859375 L 398.164062 507.804688 L 401.953125 501.789062 L 405.703125 495.8125 L 409.492188 489.875 L 413.28125 484.015625 L 417.070312 478.195312 L 420.820312 472.414062 L 424.609375 466.671875 L 428.398438 460.96875 L 432.1875 455.304688 L 435.9375 449.679688 L 443.515625 438.585938 L 447.304688 433.117188 L 451.054688 427.648438 L 454.84375 422.21875 L 462.421875 411.515625 L 466.171875 406.242188 L 469.960938 400.96875 L 473.75 395.734375 L 477.539062 390.578125 L 481.289062 385.421875 L 485.078125 380.304688 L 488.867188 375.226562 L 492.65625 370.1875 L 496.40625 365.148438 L 500.195312 360.1875 L 507.773438 350.34375 L 511.523438 345.460938 L 515.3125 340.617188 L 519.101562 335.8125 L 522.890625 331.046875 L 526.640625 326.320312 L 530.429688 321.59375 L 534.21875 316.90625 L 538.007812 312.257812 L 541.796875 307.648438 L 545.546875 303.039062 L 553.125 293.976562 L 556.875 289.445312 L 564.453125 280.539062 L 568.242188 276.125 L 572.03125 271.75 L 575.78125 267.375 L 583.359375 258.78125 "
       transform="matrix(0.1,0,0,-0.1,0,142.3)"
       id="path115" />
    <path
       style="fill:none;stroke-width:11.3366;stroke-linecap:butt;stroke-linejoin:miter;stroke:rgb(0%,0%,0%);stroke-opacity:1;stroke-miterlimit:10;"
       d="M 337.695312 452.140625 L 341.445312 445.851562 L 345.234375 439.601562 L 349.023438 433.390625 L 352.8125 427.257812 L 356.5625 421.125 L 364.140625 409.09375 L 367.929688 403.15625 L 371.679688 397.257812 L 375.46875 391.398438 L 379.257812 385.578125 L 383.046875 379.796875 L 386.835938 374.09375 L 390.585938 368.390625 L 394.375 362.765625 L 398.164062 357.179688 L 401.953125 351.632812 L 405.703125 346.125 L 409.492188 340.65625 L 417.070312 329.875 L 420.820312 324.523438 L 424.609375 319.210938 L 432.1875 308.742188 L 435.9375 303.585938 L 439.726562 298.429688 L 443.515625 293.3125 L 447.304688 288.234375 L 451.054688 283.234375 L 454.84375 278.234375 L 458.632812 273.273438 L 462.421875 268.351562 L 466.171875 263.429688 L 469.960938 258.585938 "
       transform="matrix(0.1,0,0,-0.1,0,142.3)"
       id="path117" />
    <path
       style="fill:none;stroke-width:11.3366;stroke-linecap:butt;stroke-linejoin:miter;stroke:rgb(0%,0%,0%);stroke-opacity:1;stroke-miterlimit:10;"
       d="M 337.695312 305.851562 L 341.445312 300.03125 L 349.023438 288.546875 L 352.8125 282.882812 L 356.5625 277.257812 L 360.351562 271.671875 L 364.140625 266.125 L 367.929688 260.617188 L 371.679688 255.1875 "
       transform="matrix(0.1,0,0,-0.1,0,142.3)"
       id="path119" />
    <path
       style="fill:none;stroke-width:5.67043;stroke-linecap:butt;stroke-linejoin:miter;stroke:rgb(0%,0%,0%);stroke-opacity:1;stroke-miterlimit:10;"
       d="M 337.8125 254.992188 L 1471.5625 254.992188 L 1471.5625 1389.09375 L 337.8125 1389.09375 Z M 337.8125 254.992188 "
       transform="matrix(0.1,0,0,-0.1,0,142.3)"
       id="path121" />
    <path
       style="fill:none;stroke-width:3.98506;stroke-linecap:butt;stroke-linejoin:miter;stroke:rgb(0%,0%,0%);stroke-opacity:1;stroke-miterlimit:10;"
       d="M 337.8125 254.992188 L 337.8125 297.53125 "
       transform="matrix(0.1,0,0,-0.1,0,142.3)"
       id="path123" />
    <path
       style="fill:none;stroke-width:3.98506;stroke-linecap:butt;stroke-linejoin:miter;stroke:rgb(0%,0%,0%);stroke-opacity:1;stroke-miterlimit:10;"
       d="M 715.546875 254.992188 L 715.546875 297.53125 "
       transform="matrix(0.1,0,0,-0.1,0,142.3)"
       id="path125" />
    <path
       style="fill:none;stroke-width:3.98506;stroke-linecap:butt;stroke-linejoin:miter;stroke:rgb(0%,0%,0%);stroke-opacity:1;stroke-miterlimit:10;"
       d="M 1093.28125 254.992188 L 1093.28125 297.53125 "
       transform="matrix(0.1,0,0,-0.1,0,142.3)"
       id="path127" />
    <path
       style="fill:none;stroke-width:3.98506;stroke-linecap:butt;stroke-linejoin:miter;stroke:rgb(0%,0%,0%);stroke-opacity:1;stroke-miterlimit:10;"
       d="M 1471.015625 254.992188 L 1471.015625 297.53125 "
       transform="matrix(0.1,0,0,-0.1,0,142.3)"
       id="path129" />
    <path
       style="fill:none;stroke-width:3.98506;stroke-linecap:butt;stroke-linejoin:miter;stroke:rgb(0%,0%,0%);stroke-opacity:1;stroke-miterlimit:10;"
       d="M 337.8125 254.992188 L 337.8125 297.53125 "
       transform="matrix(0.1,0,0,-0.1,0,142.3)"
       id="path131" />
    <path
       style="fill:none;stroke-width:3.98506;stroke-linecap:butt;stroke-linejoin:miter;stroke:rgb(0%,0%,0%);stroke-opacity:1;stroke-miterlimit:10;"
       d="M 337.8125 254.992188 L 380.3125 254.992188 "
       transform="matrix(0.1,0,0,-0.1,0,142.3)"
       id="path133" />
    <path
       style="fill:none;stroke-width:3.98506;stroke-linecap:butt;stroke-linejoin:miter;stroke:rgb(0%,0%,0%);stroke-opacity:1;stroke-miterlimit:10;"
       d="M 337.8125 822.023438 L 380.3125 822.023438 "
       transform="matrix(0.1,0,0,-0.1,0,142.3)"
       id="path135" />
    <path
       style="fill:none;stroke-width:3.98506;stroke-linecap:butt;stroke-linejoin:miter;stroke:rgb(0%,0%,0%);stroke-opacity:1;stroke-miterlimit:10;"
       d="M 337.8125 1389.09375 L 380.3125 1389.09375 "
       transform="matrix(0.1,0,0,-0.1,0,142.3)"
       id="path137" />
    <path
       style="fill:none;stroke-width:3.98506;stroke-linecap:butt;stroke-linejoin:miter;stroke:rgb(0%,0%,0%);stroke-opacity:1;stroke-miterlimit:10;"
       d="M 337.8125 254.992188 L 380.3125 254.992188 "
       transform="matrix(0.1,0,0,-0.1,0,142.3)"
       id="path139" />
    <path
       style="fill:none;stroke-width:3.98506;stroke-linecap:butt;stroke-linejoin:miter;stroke:rgb(0%,0%,0%);stroke-opacity:1;stroke-miterlimit:10;"
       d="M 337.8125 1389.09375 L 337.8125 1346.554688 "
       transform="matrix(0.1,0,0,-0.1,0,142.3)"
       id="path141" />
    <path
       style="fill:none;stroke-width:3.98506;stroke-linecap:butt;stroke-linejoin:miter;stroke:rgb(0%,0%,0%);stroke-opacity:1;stroke-miterlimit:10;"
       d="M 715.546875 1389.09375 L 715.546875 1346.554688 "
       transform="matrix(0.1,0,0,-0.1,0,142.3)"
       id="path143" />
    <path
       style="fill:none;stroke-width:3.98506;stroke-linecap:butt;stroke-linejoin:miter;stroke:rgb(0%,0%,0%);stroke-opacity:1;stroke-miterlimit:10;"
       d="M 1093.28125 1389.09375 L 1093.28125 1346.554688 "
       transform="matrix(0.1,0,0,-0.1,0,142.3)"
       id="path145" />
    <path
       style="fill:none;stroke-width:3.98506;stroke-linecap:butt;stroke-linejoin:miter;stroke:rgb(0%,0%,0%);stroke-opacity:1;stroke-miterlimit:10;"
       d="M 1471.015625 1389.09375 L 1471.015625 1346.554688 "
       transform="matrix(0.1,0,0,-0.1,0,142.3)"
       id="path147" />
    <path
       style="fill:none;stroke-width:3.98506;stroke-linecap:butt;stroke-linejoin:miter;stroke:rgb(0%,0%,0%);stroke-opacity:1;stroke-miterlimit:10;"
       d="M 337.8125 1389.09375 L 337.8125 1346.554688 "
       transform="matrix(0.1,0,0,-0.1,0,142.3)"
       id="path149" />
    <path
       style="fill:none;stroke-width:3.98506;stroke-linecap:butt;stroke-linejoin:miter;stroke:rgb(0%,0%,0%);stroke-opacity:1;stroke-miterlimit:10;"
       d="M 1471.5625 254.992188 L 1429.0625 254.992188 "
       transform="matrix(0.1,0,0,-0.1,0,142.3)"
       id="path151" />
    <path
       style="fill:none;stroke-width:3.98506;stroke-linecap:butt;stroke-linejoin:miter;stroke:rgb(0%,0%,0%);stroke-opacity:1;stroke-miterlimit:10;"
       d="M 1471.5625 822.023438 L 1429.0625 822.023438 "
       transform="matrix(0.1,0,0,-0.1,0,142.3)"
       id="path153" />
    <path
       style="fill:none;stroke-width:3.98506;stroke-linecap:butt;stroke-linejoin:miter;stroke:rgb(0%,0%,0%);stroke-opacity:1;stroke-miterlimit:10;"
       d="M 1471.5625 1389.09375 L 1429.0625 1389.09375 "
       transform="matrix(0.1,0,0,-0.1,0,142.3)"
       id="path155" />
    <path
       style="fill:none;stroke-width:3.98506;stroke-linecap:butt;stroke-linejoin:miter;stroke:rgb(0%,0%,0%);stroke-opacity:1;stroke-miterlimit:10;"
       d="M 1471.5625 254.992188 L 1429.0625 254.992188 "
       transform="matrix(0.1,0,0,-0.1,0,142.3)"
       id="path157" />
    <g
       style="fill:rgb(0%,0%,0%);fill-opacity:1;"
       id="g161">
      <use
         xlink:href="#glyph0-1"
         x="25.8602"
         y="126.2801"
         id="use159" />
    </g>
    <g
       style="fill:rgb(0%,0%,0%);fill-opacity:1;"
       id="g165">
      <use
         xlink:href="#glyph0-2"
         x="30.300043"
         y="126.2801"
         id="use163" />
    </g>
    <g
       style="fill:rgb(0%,0%,0%);fill-opacity:1;"
       id="g169">
      <use
         xlink:href="#glyph0-1"
         x="32.700043"
         y="126.2801"
         id="use167" />
    </g>
    <g
       style="fill:rgb(0%,0%,0%);fill-opacity:1;"
       id="g173">
      <use
         xlink:href="#glyph0-3"
         x="37.139886"
         y="126.2801"
         id="use171" />
    </g>
    <g
       style="fill:rgb(0%,0%,0%);fill-opacity:1;"
       id="g177">
      <use
         xlink:href="#glyph0-1"
         x="63.659838"
         y="126.2801"
         id="use175" />
    </g>
    <g
       style="fill:rgb(0%,0%,0%);fill-opacity:1;"
       id="g181">
      <use
         xlink:href="#glyph0-2"
         x="68.09968"
         y="126.2801"
         id="use179" />
    </g>
    <g
       style="fill:rgb(0%,0%,0%);fill-opacity:1;"
       id="g185">
      <use
         xlink:href="#glyph0-1"
         x="70.49968"
         y="126.2801"
         id="use183" />
    </g>
    <g
       style="fill:rgb(0%,0%,0%);fill-opacity:1;"
       id="g189">
      <use
         xlink:href="#glyph0-4"
         x="74.939523"
         y="126.2801"
         id="use187" />
    </g>
    <g
       style="fill:rgb(0%,0%,0%);fill-opacity:1;"
       id="g193">
      <use
         xlink:href="#glyph0-1"
         x="101.459475"
         y="126.2801"
         id="use191" />
    </g>
    <g
       style="fill:rgb(0%,0%,0%);fill-opacity:1;"
       id="g197">
      <use
         xlink:href="#glyph0-2"
         x="105.899318"
         y="126.2801"
         id="use195" />
    </g>
    <g
       style="fill:rgb(0%,0%,0%);fill-opacity:1;"
       id="g201">
      <use
         xlink:href="#glyph0-1"
         x="108.299312"
         y="126.2801"
         id="use199" />
    </g>
    <g
       style="fill:rgb(0%,0%,0%);fill-opacity:1;"
       id="g205">
      <use
         xlink:href="#glyph0-5"
         x="112.739155"
         y="126.2801"
         id="use203" />
    </g>
    <g
       style="fill:rgb(0%,0%,0%);fill-opacity:1;"
       id="g209">
      <use
         xlink:href="#glyph0-1"
         x="139.139136"
         y="126.2801"
         id="use207" />
    </g>
    <g
       style="fill:rgb(0%,0%,0%);fill-opacity:1;"
       id="g213">
      <use
         xlink:href="#glyph0-2"
         x="143.578979"
         y="126.2801"
         id="use211" />
    </g>
    <g
       style="fill:rgb(0%,0%,0%);fill-opacity:1;"
       id="g217">
      <use
         xlink:href="#glyph0-1"
         x="145.978973"
         y="126.2801"
         id="use215" />
    </g>
    <g
       style="fill:rgb(0%,0%,0%);fill-opacity:1;"
       id="g221">
      <use
         xlink:href="#glyph0-6"
         x="150.418816"
         y="126.2801"
         id="use219" />
    </g>
    <g
       style="fill:rgb(0%,0%,0%);fill-opacity:1;"
       id="g225">
      <use
         xlink:href="#glyph0-4"
         x="16.98012"
         y="119.80002"
         id="use223" />
    </g>
    <g
       style="fill:rgb(0%,0%,0%);fill-opacity:1;"
       id="g229">
      <use
         xlink:href="#glyph0-1"
         x="21.419964"
         y="119.80002"
         id="use227" />
    </g>
    <g
       style="fill:rgb(0%,0%,0%);fill-opacity:1;"
       id="g233">
      <use
         xlink:href="#glyph0-1"
         x="25.859807"
         y="119.80002"
         id="use231" />
    </g>
    <g
       style="fill:rgb(0%,0%,0%);fill-opacity:1;"
       id="g237">
      <use
         xlink:href="#glyph0-5"
         x="16.98012"
         y="63.16022"
         id="use235" />
    </g>
    <g
       style="fill:rgb(0%,0%,0%);fill-opacity:1;"
       id="g241">
      <use
         xlink:href="#glyph0-1"
         x="21.419964"
         y="63.16022"
         id="use239" />
    </g>
    <g
       style="fill:rgb(0%,0%,0%);fill-opacity:1;"
       id="g245">
      <use
         xlink:href="#glyph0-1"
         x="25.859807"
         y="63.16022"
         id="use243" />
    </g>
    <g
       style="fill:rgb(0%,0%,0%);fill-opacity:1;"
       id="g249">
      <use
         xlink:href="#glyph0-6"
         x="16.98012"
         y="6.40002"
         id="use247" />
    </g>
    <g
       style="fill:rgb(0%,0%,0%);fill-opacity:1;"
       id="g253">
      <use
         xlink:href="#glyph0-1"
         x="21.419964"
         y="6.40002"
         id="use251" />
    </g>
    <g
       style="fill:rgb(0%,0%,0%);fill-opacity:1;"
       id="g257">
      <use
         xlink:href="#glyph0-1"
         x="25.859807"
         y="6.40002"
         id="use255" />
    </g>
    <g
       style="fill:rgb(0%,0%,0%);fill-opacity:1;"
       id="g261">
      <use
         xlink:href="#glyph0-7"
         x="79.91412"
         y="139.76802"
         id="use259" />
    </g>
    <g
       style="fill:rgb(0%,0%,0%);fill-opacity:1;"
       id="g265">
      <use
         xlink:href="#glyph1-1"
         x="87.11412"
         y="139.76802"
         id="use263" />
    </g>
    <g
       style="fill:rgb(0%,0%,0%);fill-opacity:1;"
       id="g269">
      <use
         xlink:href="#glyph1-2"
         x="89.634044"
         y="139.76802"
         id="use267" />
    </g>
    <g
       style="fill:rgb(0%,0%,0%);fill-opacity:1;"
       id="g273">
      <use
         xlink:href="#glyph2-1"
         x="96.59381"
         y="136.52779"
         id="use271" />
    </g>
    <g
       style="fill:rgb(100%,100%,100%);fill-opacity:1;"
       id="g277">
      <use
         xlink:href="#glyph1-3"
         x="1.50508"
         y="60.5039"
         id="use275" />
    </g>
    <g
       style="fill:rgb(0%,0%,0%);fill-opacity:1;"
       id="g281">
      <use
         xlink:href="#glyph3-1"
         x="12.0379"
         y="68.0629"
         id="use279" />
    </g>
    <g
       style="fill:rgb(0%,0%,0%);fill-opacity:1;"
       id="g285">
      <use
         xlink:href="#glyph4-1"
         x="12.0379"
         y="61.22306"
         id="use283" />
    </g>
    <g
       style="fill:rgb(0%,0%,0%);fill-opacity:1;"
       id="g289">
      <use
         xlink:href="#glyph4-2"
         x="12.0379"
         y="58.703136"
         id="use287" />
    </g>
  </g>
</svg>
