<?xml version="1.0" encoding="UTF-8" standalone="no"?>
<svg
   width="357.7pt"
   height="120.1pt"
   viewBox="0 0 357.7 120.1"
   version="1.2"
   id="svg402"
   xmlns:xlink="http://www.w3.org/1999/xlink"
   xmlns="http://www.w3.org/2000/svg"
   xmlns:svg="http://www.w3.org/2000/svg">
  <defs
     id="defs73">
    <g
       id="g68">
      <symbol
         overflow="visible"
         id="glyph0-0">
        <path
           style="stroke:none;"
           d=""
           id="path2" />
      </symbol>
      <symbol
         overflow="visible"
         id="glyph0-1">
        <path
           style="stroke:none;"
           d="M 5.734375 0 L 5.734375 -1.046875 L 5.609375 -1.046875 C 1.515625 -1.046875 0.53125 -1.765625 0.15625 -2.71875 L 0 -2.71875 C 0.328125 -1.78125 0.984375 0 4.890625 0 Z M 5.734375 0 "
           id="path5" />
      </symbol>
      <symbol
         overflow="visible"
         id="glyph0-2">
        <path
           style="stroke:none;"
           d="M 5.65625 1.6875 C 5.3125 0.75 4.671875 -1.046875 0.75 -1.046875 L -0.09375 -1.046875 L -0.09375 0 L 0.03125 0 C 4.140625 0 5.109375 0.71875 5.5 1.6875 Z M 5.65625 1.6875 "
           id="path8" />
      </symbol>
      <symbol
         overflow="visible"
         id="glyph0-3">
        <path
           style="stroke:none;"
           d="M 5.734375 0 L 5.734375 -1.046875 L 4.890625 -1.046875 C 0.984375 -1.046875 0.328125 0.75 0 1.6875 L 0.15625 1.6875 C 0.53125 0.71875 1.515625 0 5.609375 0 Z M 5.734375 0 "
           id="path11" />
      </symbol>
      <symbol
         overflow="visible"
         id="glyph0-4">
        <path
           style="stroke:none;"
           d="M 5.65625 -2.71875 L 5.5 -2.71875 C 5.109375 -1.765625 4.140625 -1.046875 0.03125 -1.046875 L -0.09375 -1.046875 L -0.09375 0 L 0.75 0 C 4.671875 0 5.3125 -1.78125 5.65625 -2.71875 Z M 5.65625 -2.71875 "
           id="path14" />
      </symbol>
      <symbol
         overflow="visible"
         id="glyph1-0">
        <path
           style="stroke:none;"
           d=""
           id="path17" />
      </symbol>
      <symbol
         overflow="visible"
         id="glyph1-1">
        <path
           style="stroke:none;"
           d="M 2.640625 -6.0625 C 1.984375 -5.625 1.71875 -5.40625 1.375 -4.984375 C 0.75 -4.203125 0.4375 -3.3125 0.4375 -2.265625 C 0.4375 -1.109375 0.765625 -0.234375 1.546875 0.671875 C 1.921875 1.109375 2.15625 1.296875 2.625 1.59375 L 2.71875 1.4375 C 2.015625 0.875 1.765625 0.5625 1.515625 -0.109375 C 1.296875 -0.703125 1.203125 -1.375 1.203125 -2.28125 C 1.203125 -3.234375 1.3125 -3.96875 1.5625 -4.515625 C 1.8125 -5.078125 2.078125 -5.40625 2.71875 -5.921875 Z M 2.640625 -6.0625 "
           id="path20" />
      </symbol>
      <symbol
         overflow="visible"
         id="glyph1-2">
        <path
           style="stroke:none;"
           d="M 3.96875 -0.59375 C 3.8125 -0.46875 3.703125 -0.421875 3.5625 -0.421875 C 3.359375 -0.421875 3.296875 -0.546875 3.296875 -0.9375 L 3.296875 -2.6875 C 3.296875 -3.15625 3.25 -3.421875 3.125 -3.625 C 2.921875 -3.953125 2.53125 -4.125 2.015625 -4.125 C 1.171875 -4.125 0.5 -3.6875 0.5 -3.125 C 0.5 -2.921875 0.671875 -2.734375 0.890625 -2.734375 C 1.109375 -2.734375 1.296875 -2.921875 1.296875 -3.109375 C 1.296875 -3.140625 1.28125 -3.1875 1.28125 -3.25 C 1.25 -3.34375 1.25 -3.40625 1.25 -3.46875 C 1.25 -3.71875 1.53125 -3.90625 1.890625 -3.90625 C 2.328125 -3.90625 2.578125 -3.65625 2.578125 -3.171875 L 2.578125 -2.625 C 1.203125 -2.078125 1.046875 -1.984375 0.65625 -1.65625 C 0.453125 -1.46875 0.328125 -1.171875 0.328125 -0.875 C 0.328125 -0.3125 0.71875 0.09375 1.28125 0.09375 C 1.671875 0.09375 2.03125 -0.09375 2.578125 -0.5625 C 2.625 -0.09375 2.796875 0.09375 3.15625 0.09375 C 3.46875 0.09375 3.65625 -0.015625 3.96875 -0.359375 Z M 2.578125 -1.109375 C 2.578125 -0.828125 2.53125 -0.734375 2.34375 -0.625 C 2.109375 -0.5 1.875 -0.4375 1.6875 -0.4375 C 1.375 -0.4375 1.125 -0.734375 1.125 -1.125 L 1.125 -1.15625 C 1.125 -1.6875 1.53125 -2.03125 2.578125 -2.40625 Z M 2.578125 -1.109375 "
           id="path23" />
      </symbol>
      <symbol
         overflow="visible"
         id="glyph1-3">
        <path
           style="stroke:none;"
           d="M 0.34375 1.59375 C 1 1.140625 1.28125 0.921875 1.609375 0.515625 C 2.25 -0.265625 2.5625 -1.171875 2.5625 -2.21875 C 2.5625 -3.359375 2.21875 -4.234375 1.4375 -5.140625 C 1.0625 -5.578125 0.828125 -5.78125 0.375 -6.0625 L 0.265625 -5.921875 C 0.984375 -5.359375 1.21875 -5.046875 1.46875 -4.375 C 1.6875 -3.765625 1.78125 -3.09375 1.78125 -2.1875 C 1.78125 -1.25 1.671875 -0.515625 1.421875 0.03125 C 1.1875 0.59375 0.90625 0.921875 0.265625 1.4375 Z M 0.34375 1.59375 "
           id="path26" />
      </symbol>
      <symbol
         overflow="visible"
         id="glyph1-4">
        <path
           style="stroke:none;"
           d="M 1.375 -6.109375 L 1.328125 -6.125 C 0.953125 -6 0.71875 -5.921875 0.28125 -5.796875 L 0.03125 -5.734375 L 0.03125 -5.59375 C 0.078125 -5.59375 0.109375 -5.59375 0.171875 -5.59375 C 0.53125 -5.59375 0.625 -5.515625 0.625 -5.140625 L 0.625 -0.484375 C 0.625 -0.203125 1.375 0.09375 2.09375 0.09375 C 3.28125 0.09375 4.203125 -0.890625 4.203125 -2.171875 C 4.203125 -3.296875 3.515625 -4.125 2.625 -4.125 C 2.078125 -4.125 1.546875 -3.8125 1.375 -3.359375 Z M 1.375 -2.890625 C 1.375 -3.234375 1.796875 -3.5625 2.265625 -3.5625 C 2.515625 -3.5625 2.734375 -3.46875 2.921875 -3.296875 C 3.203125 -3.015625 3.40625 -2.40625 3.40625 -1.765625 C 3.40625 -0.765625 2.984375 -0.203125 2.25 -0.203125 C 1.78125 -0.203125 1.375 -0.390625 1.375 -0.625 Z M 1.375 -2.890625 "
           id="path29" />
      </symbol>
      <symbol
         overflow="visible"
         id="glyph1-5">
        <path
           style="stroke:none;"
           d="M 3.5625 -1.40625 C 3.140625 -0.765625 2.8125 -0.5625 2.3125 -0.5625 C 1.484375 -0.5625 0.921875 -1.28125 0.921875 -2.3125 C 0.921875 -3.234375 1.40625 -3.859375 2.140625 -3.859375 C 2.453125 -3.859375 2.578125 -3.78125 2.65625 -3.4375 L 2.71875 -3.234375 C 2.796875 -2.984375 2.953125 -2.828125 3.140625 -2.828125 C 3.375 -2.828125 3.5625 -3 3.5625 -3.203125 C 3.5625 -3.703125 2.9375 -4.125 2.1875 -4.125 C 1.75 -4.125 1.296875 -3.953125 0.921875 -3.625 C 0.46875 -3.234375 0.21875 -2.625 0.21875 -1.90625 C 0.21875 -0.75 0.9375 0.09375 1.921875 0.09375 C 2.328125 0.09375 2.6875 -0.046875 3.015625 -0.328125 C 3.25 -0.53125 3.421875 -0.796875 3.6875 -1.3125 Z M 3.5625 -1.40625 "
           id="path32" />
      </symbol>
      <symbol
         overflow="visible"
         id="glyph1-6">
        <path
           style="stroke:none;"
           d="M 4.40625 -0.515625 C 4.28125 -0.515625 4.234375 -0.515625 4.203125 -0.515625 C 3.890625 -0.515625 3.796875 -0.609375 3.796875 -1.015625 L 3.796875 -6.109375 L 3.765625 -6.125 C 3.34375 -5.984375 3.03125 -5.890625 2.4375 -5.734375 L 2.4375 -5.59375 C 2.515625 -5.59375 2.5625 -5.59375 2.640625 -5.59375 C 2.96875 -5.59375 3.046875 -5.5 3.046875 -5.140625 L 3.046875 -3.734375 C 2.703125 -4.03125 2.46875 -4.125 2.109375 -4.125 C 1.078125 -4.125 0.234375 -3.109375 0.234375 -1.84375 C 0.234375 -0.6875 0.90625 0.09375 1.90625 0.09375 C 2.40625 0.09375 2.75 -0.09375 3.046875 -0.515625 L 3.046875 0.0625 L 3.078125 0.09375 L 4.40625 -0.375 Z M 3.046875 -0.921875 C 3.046875 -0.859375 2.984375 -0.75 2.890625 -0.640625 C 2.75 -0.46875 2.515625 -0.375 2.25 -0.375 C 1.5 -0.375 1.015625 -1.09375 1.015625 -2.203125 C 1.015625 -3.203125 1.453125 -3.875 2.140625 -3.875 C 2.625 -3.875 3.046875 -3.453125 3.046875 -2.984375 Z M 3.046875 -0.921875 "
           id="path35" />
      </symbol>
      <symbol
         overflow="visible"
         id="glyph2-0">
        <path
           style="stroke:none;"
           d=""
           id="path38" />
      </symbol>
      <symbol
         overflow="visible"
         id="glyph2-1">
        <path
           style="stroke:none;"
           d="M 4.25 -1.484375 L 4.25 -2.09375 L 3.375 -2.09375 L 3.375 -6.015625 L 2.9375 -6.015625 L 0.34375 -2.109375 L 0.34375 -1.484375 L 2.640625 -1.484375 L 2.640625 0 L 3.375 0 L 3.375 -1.484375 Z M 2.640625 -2.09375 L 0.703125 -2.09375 L 2.625 -5.078125 L 2.640625 -5.078125 Z M 2.640625 -2.09375 "
           id="path41" />
      </symbol>
      <symbol
         overflow="visible"
         id="glyph2-2">
        <path
           style="stroke:none;"
           d="M 6.171875 -6.046875 L 1.15625 -6.046875 L 0.734375 -4.515625 L 0.90625 -4.515625 C 1.28125 -5.5 1.75 -5.71875 2.53125 -5.71875 C 2.53125 -5.71875 3.046875 -5.71875 3.15625 -5.71875 L 1.859375 -1.046875 C 1.609375 -0.140625 1.296875 -0.15625 0.9375 -0.15625 L 0.921875 0 L 3.28125 0 L 3.3125 -0.15625 C 2.96875 -0.15625 2.625 -0.140625 2.625 -0.59375 C 2.625 -0.71875 2.65625 -0.859375 2.703125 -1.046875 L 3.984375 -5.71875 L 4.734375 -5.71875 C 5.171875 -5.71875 5.640625 -5.65625 5.640625 -5.03125 C 5.640625 -4.890625 5.625 -4.734375 5.578125 -4.515625 L 5.75 -4.515625 Z M 6.171875 -6.046875 "
           id="path44" />
      </symbol>
      <symbol
         overflow="visible"
         id="glyph2-3">
        <path
           style="stroke:none;"
           d="M 3.484375 0 L 3.484375 -0.140625 C 2.890625 -0.140625 2.671875 -0.125 2.671875 -1.296875 C 2.671875 -1.3125 2.671875 -6.046875 2.671875 -6.046875 L 2.546875 -6.046875 L 1.015625 -5.3125 L 1.0625 -5.171875 C 1.390625 -5.3125 1.46875 -5.34375 1.59375 -5.34375 C 1.859375 -5.34375 1.90625 -5.109375 1.90625 -4.796875 L 1.90625 -1.296875 C 1.90625 -0.125 1.6875 -0.15625 1.09375 -0.140625 L 1.09375 0 Z M 3.484375 0 "
           id="path47" />
      </symbol>
      <symbol
         overflow="visible"
         id="glyph2-4">
        <path
           style="stroke:none;"
           d="M 3.890625 -1.9375 C 3.890625 -2.875 3.34375 -3.28125 2.8125 -3.5 C 3.390625 -3.9375 3.578125 -4.34375 3.578125 -4.828125 C 3.578125 -5.34375 3.15625 -6.015625 2.1875 -6.015625 C 1.484375 -6.015625 0.8125 -5.625 0.515625 -4.65625 L 0.65625 -4.625 C 0.84375 -4.984375 1.203125 -5.4375 1.859375 -5.4375 C 2.5 -5.4375 2.875 -5 2.875 -4.5 C 2.875 -3.796875 2.328125 -3.296875 1.515625 -3.109375 L 1.5 -2.921875 C 2.890625 -2.984375 3.234375 -2.078125 3.234375 -1.515625 C 3.234375 -0.84375 2.75 -0.234375 2.109375 -0.234375 C 1.53125 -0.234375 1.28125 -0.734375 0.796875 -0.734375 C 0.640625 -0.734375 0.453125 -0.578125 0.453125 -0.375 C 0.453125 0 1.015625 0.109375 1.421875 0.109375 C 2.84375 0.109375 3.890625 -0.703125 3.890625 -1.9375 Z M 3.890625 -1.9375 "
           id="path50" />
      </symbol>
      <symbol
         overflow="visible"
         id="glyph2-5">
        <path
           style="stroke:none;"
           d="M 4.171875 -5.921875 L 1.703125 -5.921875 L 0.59375 -3.375 C 0.734375 -3.40625 0.875 -3.4375 1.046875 -3.4375 C 2 -3.4375 3.296875 -2.9375 3.296875 -1.765625 C 3.296875 -0.859375 2.640625 -0.28125 2.015625 -0.28125 C 1.46875 -0.28125 1.265625 -0.78125 0.75 -0.78125 C 0.5 -0.78125 0.421875 -0.5625 0.421875 -0.453125 C 0.421875 -0.140625 0.859375 0.109375 1.484375 0.109375 C 2.828125 0.109375 3.890625 -0.875 3.890625 -2.078125 C 3.890625 -3.5 2.765625 -3.984375 1.546875 -4.015625 C 1.4375 -4.015625 1.3125 -4 1.203125 -3.984375 L 1.765625 -5.25 L 3.859375 -5.265625 Z M 4.171875 -5.921875 "
           id="path53" />
      </symbol>
      <symbol
         overflow="visible"
         id="glyph2-6">
        <path
           style="stroke:none;"
           d="M 4.265625 -1.15625 L 4.109375 -1.1875 C 3.84375 -0.734375 3.625 -0.65625 3.1875 -0.65625 L 1.125 -0.65625 C 2.546875 -1.953125 3.84375 -3.125 3.84375 -4.4375 C 3.84375 -5.359375 3.046875 -6.015625 2.171875 -6.015625 C 1.3125 -6.015625 0.625 -5.546875 0.359375 -4.328125 L 0.5625 -4.328125 C 0.8125 -4.828125 1.15625 -5.34375 1.84375 -5.34375 C 2.625 -5.34375 3.0625 -4.75 3.0625 -4.078125 C 3.0625 -3.109375 2.03125 -1.6875 0.265625 -0.140625 L 0.265625 0 L 3.796875 0 Z M 4.265625 -1.15625 "
           id="path56" />
      </symbol>
      <symbol
         overflow="visible"
         id="glyph3-0">
        <path
           style="stroke:none;"
           d=""
           id="path59" />
      </symbol>
      <symbol
         overflow="visible"
         id="glyph3-1">
        <path
           style="stroke:none;"
           d="M 3.390625 -0.109375 C 3.015625 -0.171875 2.984375 -0.21875 2.96875 -0.703125 L 2.96875 -2.09375 C 2.96875 -2.828125 2.6875 -3.203125 2.125 -3.203125 C 1.703125 -3.203125 1.421875 -3.03125 1.09375 -2.625 L 1.09375 -4.734375 L 1.0625 -4.765625 C 0.8125 -4.671875 0.640625 -4.625 0.265625 -4.515625 L 0.0625 -4.453125 L 0.0625 -4.34375 C 0.09375 -4.34375 0.109375 -4.34375 0.15625 -4.34375 C 0.453125 -4.34375 0.515625 -4.296875 0.515625 -4 L 0.515625 -0.703125 C 0.5 -0.203125 0.453125 -0.15625 0.0625 -0.109375 L 0.0625 0 L 1.5625 0 L 1.5625 -0.109375 C 1.15625 -0.140625 1.109375 -0.21875 1.09375 -0.703125 L 1.09375 -2.390625 C 1.390625 -2.703125 1.59375 -2.828125 1.875 -2.828125 C 2.21875 -2.828125 2.390625 -2.578125 2.390625 -2.09375 L 2.390625 -0.703125 C 2.375 -0.21875 2.3125 -0.140625 1.921875 -0.109375 L 1.921875 0 L 3.390625 0 Z M 3.390625 -0.109375 "
           id="path62" />
      </symbol>
      <symbol
         overflow="visible"
         id="glyph3-2">
        <path
           style="stroke:none;"
           d="M 2.78125 -1.09375 C 2.4375 -0.59375 2.1875 -0.4375 1.796875 -0.4375 C 1.15625 -0.4375 0.703125 -0.984375 0.703125 -1.796875 C 0.703125 -2.515625 1.09375 -3 1.65625 -3 C 1.90625 -3 2 -2.9375 2.0625 -2.671875 L 2.109375 -2.515625 C 2.171875 -2.3125 2.296875 -2.1875 2.453125 -2.1875 C 2.625 -2.1875 2.78125 -2.328125 2.78125 -2.484375 C 2.78125 -2.875 2.28125 -3.203125 1.703125 -3.203125 C 1.359375 -3.203125 1 -3.0625 0.71875 -2.8125 C 0.375 -2.515625 0.171875 -2.03125 0.171875 -1.484375 C 0.171875 -0.578125 0.71875 0.0625 1.5 0.0625 C 1.8125 0.0625 2.09375 -0.046875 2.34375 -0.265625 C 2.53125 -0.421875 2.65625 -0.609375 2.875 -1.03125 Z M 2.78125 -1.09375 "
           id="path65" />
      </symbol>
    </g>
    <clipPath
       id="clip1">
      <path
         d="M 328 26 L 357.699219 26 L 357.699219 56 L 328 56 Z M 328 26 "
         id="path70" />
    </clipPath>
  </defs>
  <g
     id="surface1">
    <g
       style="fill:rgb(0%,0%,0%);fill-opacity:1;"
       id="g77">
      <use
         xlink:href="#glyph0-1"
         x="0.139844"
         y="93.6359"
         id="use75" />
    </g>
    <path
       style=" stroke:none;fill-rule:nonzero;fill:rgb(0%,0%,0%);fill-opacity:1;"
       d="M 5.769531 92.566406 L 39.847656 92.566406 L 39.847656 93.644531 L 5.769531 93.644531 Z M 5.769531 92.566406 "
       id="path79" />
    <g
       style="fill:rgb(0%,0%,0%);fill-opacity:1;"
       id="g83">
      <use
         xlink:href="#glyph0-2"
         x="39.8602"
         y="93.6359"
         id="use81" />
    </g>
    <g
       style="fill:rgb(0%,0%,0%);fill-opacity:1;"
       id="g87">
      <use
         xlink:href="#glyph0-3"
         x="45.500053"
         y="93.6359"
         id="use85" />
    </g>
    <path
       style=" stroke:none;fill-rule:nonzero;fill:rgb(0%,0%,0%);fill-opacity:1;"
       d="M 51.128906 92.566406 L 85.207031 92.566406 L 85.207031 93.644531 L 51.128906 93.644531 Z M 51.128906 92.566406 "
       id="path89" />
    <g
       style="fill:rgb(0%,0%,0%);fill-opacity:1;"
       id="g93">
      <use
         xlink:href="#glyph0-4"
         x="85.2199"
         y="93.6359"
         id="use91" />
    </g>
    <g
       style="fill:rgb(0%,0%,0%);fill-opacity:1;"
       id="g97">
      <use
         xlink:href="#glyph1-1"
         x="40.5797"
         y="104.316"
         id="use95" />
    </g>
    <g
       style="fill:rgb(0%,0%,0%);fill-opacity:1;"
       id="g101">
      <use
         xlink:href="#glyph1-2"
         x="43.579701"
         y="104.316"
         id="use99" />
    </g>
    <g
       style="fill:rgb(0%,0%,0%);fill-opacity:1;"
       id="g105">
      <use
         xlink:href="#glyph1-3"
         x="47.539857"
         y="104.316"
         id="use103" />
    </g>
    <path
       style="fill:none;stroke-width:8.50361;stroke-linecap:butt;stroke-linejoin:miter;stroke:rgb(0%,0%,0%);stroke-opacity:1;stroke-miterlimit:10;"
       d="M 29.804688 787.328125 L 29.804688 929.085938 L 313.28125 929.085938 L 313.28125 645.609375 L 29.804688 645.609375 Z M 29.804688 787.328125 "
       transform="matrix(0.1,0,0,-0.1,0,120.1)"
       id="path107" />
    <path
       style=" stroke:none;fill-rule:nonzero;fill:rgb(0%,0%,0%);fill-opacity:1;"
       d="M 15.273438 29.015625 L 17.152344 34.28125 L 19.035156 29.015625 L 17.152344 31.121094 "
       id="path109" />
    <path
       style="fill:none;stroke-width:11.3366;stroke-linecap:butt;stroke-linejoin:miter;stroke:rgb(0%,0%,0%);stroke-opacity:1;stroke-miterlimit:10;"
       d="M 171.523438 889.789062 L 171.523438 1070.804688 "
       transform="matrix(0.1,0,0,-0.1,0,120.1)"
       id="path111" />
    <g
       style="fill:rgb(0%,0%,0%);fill-opacity:1;"
       id="g115">
      <use
         xlink:href="#glyph2-1"
         x="20.6328"
         y="23.227"
         id="use113" />
    </g>
    <g
       style="fill:rgb(0%,0%,0%);fill-opacity:1;"
       id="g119">
      <use
         xlink:href="#glyph2-2"
         x="12.59296"
         y="6.4364"
         id="use117" />
    </g>
    <g
       style="fill:rgb(0%,0%,0%);fill-opacity:1;"
       id="g123">
      <use
         xlink:href="#glyph3-1"
         x="17.75273"
         y="8.71648"
         id="use121" />
    </g>
    <path
       style=" stroke:none;fill-rule:nonzero;fill:rgb(0%,0%,0%);fill-opacity:1;"
       d="M 40.234375 43.246094 L 45.5 41.367188 L 40.234375 39.484375 L 42.339844 41.367188 "
       id="path125" />
    <path
       style="fill:none;stroke-width:11.3366;stroke-linecap:butt;stroke-linejoin:miter;stroke:rgb(0%,0%,0%);stroke-opacity:1;stroke-miterlimit:10;"
       d="M 242.382812 787.328125 L 423.398438 787.328125 "
       transform="matrix(0.1,0,0,-0.1,0,120.1)"
       id="path127" />
    <g
       style="fill:rgb(0%,0%,0%);fill-opacity:1;"
       id="g131">
      <use
         xlink:href="#glyph2-3"
         x="36.1328"
         y="50.8469"
         id="use129" />
    </g>
    <path
       style=" stroke:none;fill-rule:nonzero;fill:rgb(0%,0%,0%);fill-opacity:1;"
       d="M 15.273438 64.445312 L 17.152344 69.714844 L 19.035156 64.445312 L 17.152344 66.554688 "
       id="path133" />
    <path
       style="fill:none;stroke-width:11.3366;stroke-linecap:butt;stroke-linejoin:miter;stroke:rgb(0%,0%,0%);stroke-opacity:1;stroke-miterlimit:10;"
       d="M 171.523438 535.453125 L 171.523438 716.46875 "
       transform="matrix(0.1,0,0,-0.1,0,120.1)"
       id="path135" />
    <g
       style="fill:rgb(0%,0%,0%);fill-opacity:1;"
       id="g139">
      <use
         xlink:href="#glyph2-4"
         x="20.6328"
         y="65.7461"
         id="use137" />
    </g>
    <g
       style="fill:rgb(0%,0%,0%);fill-opacity:1;"
       id="g143">
      <use
         xlink:href="#glyph2-2"
         x="12.8328"
         y="80.1367"
         id="use141" />
    </g>
    <g
       style="fill:rgb(0%,0%,0%);fill-opacity:1;"
       id="g147">
      <use
         xlink:href="#glyph3-2"
         x="17.99296"
         y="82.41678"
         id="use145" />
    </g>
    <path
       style="fill:none;stroke-width:8.50361;stroke-linecap:butt;stroke-linejoin:miter;stroke:rgb(0%,0%,0%);stroke-opacity:1;stroke-miterlimit:10;"
       d="M 596.71875 787.328125 L 596.71875 929.085938 L 880.195312 929.085938 L 880.195312 645.609375 L 596.71875 645.609375 Z M 596.71875 787.328125 "
       transform="matrix(0.1,0,0,-0.1,0,120.1)"
       id="path149" />
    <path
       style=" stroke:none;fill-rule:nonzero;fill:rgb(0%,0%,0%);fill-opacity:1;"
       d="M 75.726562 18.285156 L 73.847656 13.019531 L 71.964844 18.285156 L 73.847656 16.179688 "
       id="path151" />
    <path
       style="fill:none;stroke-width:11.3366;stroke-linecap:butt;stroke-linejoin:miter;stroke:rgb(0%,0%,0%);stroke-opacity:1;stroke-miterlimit:10;"
       d="M 738.476562 858.1875 L 738.476562 1039.203125 "
       transform="matrix(0.1,0,0,-0.1,0,120.1)"
       id="path153" />
    <g
       style="fill:rgb(0%,0%,0%);fill-opacity:1;"
       id="g157">
      <use
         xlink:href="#glyph2-5"
         x="77.3262"
         y="23.227"
         id="use155" />
    </g>
    <g
       style="fill:rgb(0%,0%,0%);fill-opacity:1;"
       id="g161">
      <use
         xlink:href="#glyph2-2"
         x="69.28597"
         y="6.4364"
         id="use159" />
    </g>
    <g
       style="fill:rgb(0%,0%,0%);fill-opacity:1;"
       id="g165">
      <use
         xlink:href="#glyph3-1"
         x="74.44613"
         y="8.71648"
         id="use163" />
    </g>
    <path
       style=" stroke:none;fill-rule:nonzero;fill:rgb(0%,0%,0%);fill-opacity:1;"
       d="M 64.328125 43.246094 L 69.59375 41.367188 L 64.328125 39.484375 L 66.433594 41.367188 "
       id="path167" />
    <path
       style="fill:none;stroke-width:11.3366;stroke-linecap:butt;stroke-linejoin:miter;stroke:rgb(0%,0%,0%);stroke-opacity:1;stroke-miterlimit:10;"
       d="M 483.359375 787.328125 L 664.335938 787.328125 "
       transform="matrix(0.1,0,0,-0.1,0,120.1)"
       id="path169" />
    <g
       style="fill:rgb(0%,0%,0%);fill-opacity:1;"
       id="g173">
      <use
         xlink:href="#glyph2-3"
         x="50.3059"
         y="50.8469"
         id="use171" />
    </g>
    <path
       style=" stroke:none;fill-rule:nonzero;fill:rgb(0%,0%,0%);fill-opacity:1;"
       d="M 75.726562 53.71875 L 73.847656 48.453125 L 71.964844 53.71875 L 73.847656 51.613281 "
       id="path175" />
    <path
       style="fill:none;stroke-width:11.3366;stroke-linecap:butt;stroke-linejoin:miter;stroke:rgb(0%,0%,0%);stroke-opacity:1;stroke-miterlimit:10;"
       d="M 738.476562 503.851562 L 738.476562 684.867188 "
       transform="matrix(0.1,0,0,-0.1,0,120.1)"
       id="path177" />
    <g
       style="fill:rgb(0%,0%,0%);fill-opacity:1;"
       id="g181">
      <use
         xlink:href="#glyph2-1"
         x="77.3262"
         y="65.7461"
         id="use179" />
    </g>
    <g
       style="fill:rgb(0%,0%,0%);fill-opacity:1;"
       id="g185">
      <use
         xlink:href="#glyph2-2"
         x="69.5262"
         y="80.1367"
         id="use183" />
    </g>
    <g
       style="fill:rgb(0%,0%,0%);fill-opacity:1;"
       id="g189">
      <use
         xlink:href="#glyph3-2"
         x="74.68597"
         y="82.41678"
         id="use187" />
    </g>
    <g
       style="fill:rgb(0%,0%,0%);fill-opacity:1;"
       id="g193">
      <use
         xlink:href="#glyph1-1"
         x="139.43247"
         y="104.59098"
         id="use191" />
    </g>
    <g
       style="fill:rgb(0%,0%,0%);fill-opacity:1;"
       id="g197">
      <use
         xlink:href="#glyph1-4"
         x="142.432471"
         y="104.59098"
         id="use195" />
    </g>
    <g
       style="fill:rgb(0%,0%,0%);fill-opacity:1;"
       id="g201">
      <use
         xlink:href="#glyph1-3"
         x="146.872314"
         y="104.59098"
         id="use199" />
    </g>
    <path
       style="fill:none;stroke-width:8.50361;stroke-linecap:butt;stroke-linejoin:miter;stroke:rgb(0%,0%,0%);stroke-opacity:1;stroke-miterlimit:10;"
       d="M 1305.390625 787.328125 L 1305.390625 929.085938 L 1588.867188 929.085938 L 1588.867188 645.609375 L 1305.390625 645.609375 Z M 1305.390625 787.328125 "
       transform="matrix(0.1,0,0,-0.1,0,120.1)"
       id="path203" />
    <path
       style=" stroke:none;fill-rule:nonzero;fill:rgb(0%,0%,0%);fill-opacity:1;"
       d="M 146.59375 18.285156 L 144.710938 13.019531 L 142.832031 18.285156 L 144.710938 16.179688 "
       id="path205" />
    <path
       style="fill:none;stroke-width:11.3366;stroke-linecap:butt;stroke-linejoin:miter;stroke:rgb(0%,0%,0%);stroke-opacity:1;stroke-miterlimit:10;"
       d="M 1447.109375 858.1875 L 1447.109375 1039.203125 "
       transform="matrix(0.1,0,0,-0.1,0,120.1)"
       id="path207" />
    <g
       style="fill:rgb(0%,0%,0%);fill-opacity:1;"
       id="g211">
      <use
         xlink:href="#glyph2-3"
         x="148.192"
         y="23.227"
         id="use209" />
    </g>
    <g
       style="fill:rgb(0%,0%,0%);fill-opacity:1;"
       id="g215">
      <use
         xlink:href="#glyph2-2"
         x="140.15216"
         y="6.4364"
         id="use213" />
    </g>
    <g
       style="fill:rgb(0%,0%,0%);fill-opacity:1;"
       id="g219">
      <use
         xlink:href="#glyph3-1"
         x="145.31193"
         y="8.71648"
         id="use217" />
    </g>
    <path
       style=" stroke:none;fill-rule:nonzero;fill:rgb(0%,0%,0%);fill-opacity:1;"
       d="M 146.59375 53.71875 L 144.710938 48.453125 L 142.832031 53.71875 L 144.710938 51.613281 "
       id="path221" />
    <path
       style="fill:none;stroke-width:11.3366;stroke-linecap:butt;stroke-linejoin:miter;stroke:rgb(0%,0%,0%);stroke-opacity:1;stroke-miterlimit:10;"
       d="M 1447.109375 503.851562 L 1447.109375 684.867188 "
       transform="matrix(0.1,0,0,-0.1,0,120.1)"
       id="path223" />
    <g
       style="fill:rgb(0%,0%,0%);fill-opacity:1;"
       id="g227">
      <use
         xlink:href="#glyph2-3"
         x="148.192"
         y="65.7461"
         id="use225" />
    </g>
    <g
       style="fill:rgb(0%,0%,0%);fill-opacity:1;"
       id="g231">
      <use
         xlink:href="#glyph2-2"
         x="140.392"
         y="80.1367"
         id="use229" />
    </g>
    <g
       style="fill:rgb(0%,0%,0%);fill-opacity:1;"
       id="g235">
      <use
         xlink:href="#glyph3-2"
         x="145.55216"
         y="82.41678"
         id="use233" />
    </g>
    <g
       style="fill:rgb(0%,0%,0%);fill-opacity:1;"
       id="g239">
      <use
         xlink:href="#glyph0-1"
         x="198.56466"
         y="93.63518"
         id="use237" />
    </g>
    <path
       style=" stroke:none;fill-rule:nonzero;fill:rgb(0%,0%,0%);fill-opacity:1;"
       d="M 204.191406 92.566406 L 238.269531 92.566406 L 238.269531 93.644531 L 204.191406 93.644531 Z M 204.191406 92.566406 "
       id="path241" />
    <g
       style="fill:rgb(0%,0%,0%);fill-opacity:1;"
       id="g245">
      <use
         xlink:href="#glyph0-2"
         x="238.285"
         y="93.6359"
         id="use243" />
    </g>
    <g
       style="fill:rgb(0%,0%,0%);fill-opacity:1;"
       id="g249">
      <use
         xlink:href="#glyph0-3"
         x="243.924835"
         y="93.6359"
         id="use247" />
    </g>
    <path
       style=" stroke:none;fill-rule:nonzero;fill:rgb(0%,0%,0%);fill-opacity:1;"
       d="M 249.554688 92.566406 L 283.632812 92.566406 L 283.632812 93.644531 L 249.554688 93.644531 Z M 249.554688 92.566406 "
       id="path251" />
    <g
       style="fill:rgb(0%,0%,0%);fill-opacity:1;"
       id="g255">
      <use
         xlink:href="#glyph0-4"
         x="283.645"
         y="93.6359"
         id="use253" />
    </g>
    <g
       style="fill:rgb(0%,0%,0%);fill-opacity:1;"
       id="g259">
      <use
         xlink:href="#glyph1-1"
         x="239.0048"
         y="104.316"
         id="use257" />
    </g>
    <g
       style="fill:rgb(0%,0%,0%);fill-opacity:1;"
       id="g263">
      <use
         xlink:href="#glyph1-5"
         x="242.004789"
         y="104.316"
         id="use261" />
    </g>
    <g
       style="fill:rgb(0%,0%,0%);fill-opacity:1;"
       id="g267">
      <use
         xlink:href="#glyph1-3"
         x="245.964939"
         y="104.316"
         id="use265" />
    </g>
    <path
       style="fill:none;stroke-width:8.50361;stroke-linecap:butt;stroke-linejoin:miter;stroke:rgb(0%,0%,0%);stroke-opacity:1;stroke-miterlimit:10;"
       d="M 2014.0625 787.328125 L 2014.0625 929.085938 L 2297.539062 929.085938 L 2297.539062 645.609375 L 2014.0625 645.609375 Z M 2014.0625 787.328125 "
       transform="matrix(0.1,0,0,-0.1,0,120.1)"
       id="path269" />
    <path
       style=" stroke:none;fill-rule:nonzero;fill:rgb(0%,0%,0%);fill-opacity:1;"
       d="M 213.695312 29.015625 L 215.578125 34.28125 L 217.460938 29.015625 L 215.578125 31.121094 "
       id="path271" />
    <path
       style="fill:none;stroke-width:11.3366;stroke-linecap:butt;stroke-linejoin:miter;stroke:rgb(0%,0%,0%);stroke-opacity:1;stroke-miterlimit:10;"
       d="M 2155.78125 889.789062 L 2155.78125 1070.804688 "
       transform="matrix(0.1,0,0,-0.1,0,120.1)"
       id="path273" />
    <g
       style="fill:rgb(0%,0%,0%);fill-opacity:1;"
       id="g277">
      <use
         xlink:href="#glyph2-4"
         x="219.058"
         y="23.227"
         id="use275" />
    </g>
    <g
       style="fill:rgb(0%,0%,0%);fill-opacity:1;"
       id="g281">
      <use
         xlink:href="#glyph2-2"
         x="211.01816"
         y="6.4364"
         id="use279" />
    </g>
    <g
       style="fill:rgb(0%,0%,0%);fill-opacity:1;"
       id="g285">
      <use
         xlink:href="#glyph3-1"
         x="216.17832"
         y="8.71648"
         id="use283" />
    </g>
    <path
       style=" stroke:none;fill-rule:nonzero;fill:rgb(0%,0%,0%);fill-opacity:1;"
       d="M 238.65625 43.246094 L 243.925781 41.367188 L 238.65625 39.484375 L 240.765625 41.367188 "
       id="path287" />
    <path
       style="fill:none;stroke-width:11.3366;stroke-linecap:butt;stroke-linejoin:miter;stroke:rgb(0%,0%,0%);stroke-opacity:1;stroke-miterlimit:10;"
       d="M 2226.640625 787.328125 L 2407.65625 787.328125 "
       transform="matrix(0.1,0,0,-0.1,0,120.1)"
       id="path289" />
    <g
       style="fill:rgb(0%,0%,0%);fill-opacity:1;"
       id="g293">
      <use
         xlink:href="#glyph2-3"
         x="234.558"
         y="50.8469"
         id="use291" />
    </g>
    <path
       style=" stroke:none;fill-rule:nonzero;fill:rgb(0%,0%,0%);fill-opacity:1;"
       d="M 213.695312 64.445312 L 215.578125 69.714844 L 217.460938 64.445312 L 215.578125 66.554688 "
       id="path295" />
    <path
       style="fill:none;stroke-width:11.3366;stroke-linecap:butt;stroke-linejoin:miter;stroke:rgb(0%,0%,0%);stroke-opacity:1;stroke-miterlimit:10;"
       d="M 2155.78125 535.453125 L 2155.78125 716.46875 "
       transform="matrix(0.1,0,0,-0.1,0,120.1)"
       id="path297" />
    <g
       style="fill:rgb(0%,0%,0%);fill-opacity:1;"
       id="g301">
      <use
         xlink:href="#glyph2-6"
         x="219.058"
         y="65.7461"
         id="use299" />
    </g>
    <g
       style="fill:rgb(0%,0%,0%);fill-opacity:1;"
       id="g305">
      <use
         xlink:href="#glyph2-2"
         x="211.258"
         y="80.1367"
         id="use303" />
    </g>
    <g
       style="fill:rgb(0%,0%,0%);fill-opacity:1;"
       id="g309">
      <use
         xlink:href="#glyph3-2"
         x="216.41816"
         y="82.41678"
         id="use307" />
    </g>
    <path
       style="fill:none;stroke-width:8.50361;stroke-linecap:butt;stroke-linejoin:miter;stroke:rgb(0%,0%,0%);stroke-opacity:1;stroke-miterlimit:10;"
       d="M 2580.976562 787.328125 L 2580.976562 929.085938 L 2864.453125 929.085938 L 2864.453125 645.609375 L 2580.976562 645.609375 Z M 2580.976562 787.328125 "
       transform="matrix(0.1,0,0,-0.1,0,120.1)"
       id="path311" />
    <path
       style=" stroke:none;fill-rule:nonzero;fill:rgb(0%,0%,0%);fill-opacity:1;"
       d="M 274.152344 18.285156 L 272.269531 13.019531 L 270.390625 18.285156 L 272.269531 16.179688 "
       id="path313" />
    <path
       style="fill:none;stroke-width:11.3366;stroke-linecap:butt;stroke-linejoin:miter;stroke:rgb(0%,0%,0%);stroke-opacity:1;stroke-miterlimit:10;"
       d="M 2722.695312 858.1875 L 2722.695312 1039.203125 "
       transform="matrix(0.1,0,0,-0.1,0,120.1)"
       id="path315" />
    <g
       style="fill:rgb(0%,0%,0%);fill-opacity:1;"
       id="g319">
      <use
         xlink:href="#glyph2-1"
         x="275.751"
         y="23.227"
         id="use317" />
    </g>
    <g
       style="fill:rgb(0%,0%,0%);fill-opacity:1;"
       id="g323">
      <use
         xlink:href="#glyph2-2"
         x="267.71116"
         y="6.4364"
         id="use321" />
    </g>
    <g
       style="fill:rgb(0%,0%,0%);fill-opacity:1;"
       id="g327">
      <use
         xlink:href="#glyph3-1"
         x="272.87093"
         y="8.71648"
         id="use325" />
    </g>
    <path
       style=" stroke:none;fill-rule:nonzero;fill:rgb(0%,0%,0%);fill-opacity:1;"
       d="M 262.753906 43.246094 L 268.019531 41.367188 L 262.753906 39.484375 L 264.859375 41.367188 "
       id="path329" />
    <path
       style="fill:none;stroke-width:11.3366;stroke-linecap:butt;stroke-linejoin:miter;stroke:rgb(0%,0%,0%);stroke-opacity:1;stroke-miterlimit:10;"
       d="M 2467.578125 787.328125 L 2648.59375 787.328125 "
       transform="matrix(0.1,0,0,-0.1,0,120.1)"
       id="path331" />
    <g
       style="fill:rgb(0%,0%,0%);fill-opacity:1;"
       id="g335">
      <use
         xlink:href="#glyph2-3"
         x="248.731"
         y="50.8469"
         id="use333" />
    </g>
    <path
       style=" stroke:none;fill-rule:nonzero;fill:rgb(0%,0%,0%);fill-opacity:1;"
       d="M 274.152344 53.71875 L 272.269531 48.453125 L 270.390625 53.71875 L 272.269531 51.613281 "
       id="path337" />
    <path
       style="fill:none;stroke-width:11.3366;stroke-linecap:butt;stroke-linejoin:miter;stroke:rgb(0%,0%,0%);stroke-opacity:1;stroke-miterlimit:10;"
       d="M 2722.695312 503.851562 L 2722.695312 684.867188 "
       transform="matrix(0.1,0,0,-0.1,0,120.1)"
       id="path339" />
    <g
       style="fill:rgb(0%,0%,0%);fill-opacity:1;"
       id="g343">
      <use
         xlink:href="#glyph2-4"
         x="275.751"
         y="65.7461"
         id="use341" />
    </g>
    <g
       style="fill:rgb(0%,0%,0%);fill-opacity:1;"
       id="g347">
      <use
         xlink:href="#glyph2-2"
         x="267.951"
         y="80.1367"
         id="use345" />
    </g>
    <g
       style="fill:rgb(0%,0%,0%);fill-opacity:1;"
       id="g351">
      <use
         xlink:href="#glyph3-2"
         x="273.11116"
         y="82.41678"
         id="use349" />
    </g>
    <g
       style="fill:rgb(0%,0%,0%);fill-opacity:1;"
       id="g355">
      <use
         xlink:href="#glyph1-1"
         x="337.85726"
         y="104.59098"
         id="use353" />
    </g>
    <g
       style="fill:rgb(0%,0%,0%);fill-opacity:1;"
       id="g359">
      <use
         xlink:href="#glyph1-6"
         x="340.857249"
         y="104.59098"
         id="use357" />
    </g>
    <g
       style="fill:rgb(0%,0%,0%);fill-opacity:1;"
       id="g363">
      <use
         xlink:href="#glyph1-3"
         x="345.297104"
         y="104.59098"
         id="use361" />
    </g>
    <g
       clip-path="url(#clip1)"
       clip-rule="nonzero"
       id="g367">
      <path
         style="fill:none;stroke-width:8.50361;stroke-linecap:butt;stroke-linejoin:miter;stroke:rgb(0%,0%,0%);stroke-opacity:1;stroke-miterlimit:10;"
         d="M 3289.648438 787.328125 L 3289.648438 929.085938 L 3573.125 929.085938 L 3573.125 645.609375 L 3289.648438 645.609375 Z M 3289.648438 787.328125 "
         transform="matrix(0.1,0,0,-0.1,0,120.1)"
         id="path365" />
    </g>
    <path
       style=" stroke:none;fill-rule:nonzero;fill:rgb(0%,0%,0%);fill-opacity:1;"
       d="M 345.019531 18.285156 L 343.136719 13.019531 L 341.257812 18.285156 L 343.136719 16.179688 "
       id="path369" />
    <path
       style="fill:none;stroke-width:11.3366;stroke-linecap:butt;stroke-linejoin:miter;stroke:rgb(0%,0%,0%);stroke-opacity:1;stroke-miterlimit:10;"
       d="M 3431.367188 858.1875 L 3431.367188 1039.203125 "
       transform="matrix(0.1,0,0,-0.1,0,120.1)"
       id="path371" />
    <g
       style="fill:rgb(0%,0%,0%);fill-opacity:1;"
       id="g375">
      <use
         xlink:href="#glyph2-3"
         x="346.617"
         y="23.227"
         id="use373" />
    </g>
    <g
       style="fill:rgb(0%,0%,0%);fill-opacity:1;"
       id="g379">
      <use
         xlink:href="#glyph2-2"
         x="338.57716"
         y="6.4364"
         id="use377" />
    </g>
    <g
       style="fill:rgb(0%,0%,0%);fill-opacity:1;"
       id="g383">
      <use
         xlink:href="#glyph3-1"
         x="343.73693"
         y="8.71648"
         id="use381" />
    </g>
    <path
       style=" stroke:none;fill-rule:nonzero;fill:rgb(0%,0%,0%);fill-opacity:1;"
       d="M 345.019531 53.71875 L 343.136719 48.453125 L 341.257812 53.71875 L 343.136719 51.613281 "
       id="path385" />
    <path
       style="fill:none;stroke-width:11.3366;stroke-linecap:butt;stroke-linejoin:miter;stroke:rgb(0%,0%,0%);stroke-opacity:1;stroke-miterlimit:10;"
       d="M 3431.367188 503.851562 L 3431.367188 684.867188 "
       transform="matrix(0.1,0,0,-0.1,0,120.1)"
       id="path387" />
    <g
       style="fill:rgb(0%,0%,0%);fill-opacity:1;"
       id="g391">
      <use
         xlink:href="#glyph2-3"
         x="346.617"
         y="65.7461"
         id="use389" />
    </g>
    <g
       style="fill:rgb(0%,0%,0%);fill-opacity:1;"
       id="g395">
      <use
         xlink:href="#glyph2-2"
         x="338.817"
         y="80.1367"
         id="use393" />
    </g>
    <g
       style="fill:rgb(0%,0%,0%);fill-opacity:1;"
       id="g399">
      <use
         xlink:href="#glyph3-2"
         x="343.97716"
         y="82.41678"
         id="use397" />
    </g>
  </g>
</svg>
