%!PS-Adobe-3.0 EPSF-3.0
%%Creator: cairo 1.17.4 (https://cairographics.org)
%%CreationDate: Thu Feb 24 10:47:37 2022
%%Pages: 1
%%DocumentData: Clean7Bit
%%LanguageLevel: 2
%%BoundingBox: 0 0 256 122
%%EndComments
%%BeginProlog
50 dict begin
/q { gsave } bind def
/Q { grestore } bind def
/cm { 6 array astore concat } bind def
/w { setlinewidth } bind def
/J { setlinecap } bind def
/j { setlinejoin } bind def
/M { setmiterlimit } bind def
/d { setdash } bind def
/m { moveto } bind def
/l { lineto } bind def
/c { curveto } bind def
/h { closepath } bind def
/re { exch dup neg 3 1 roll 5 3 roll moveto 0 rlineto
      0 exch rlineto 0 rlineto closepath } bind def
/S { stroke } bind def
/f { fill } bind def
/f* { eofill } bind def
/n { newpath } bind def
/W { clip } bind def
/W* { eoclip } bind def
/BT { } bind def
/ET { } bind def
/BDC { mark 3 1 roll /BDC pdfmark } bind def
/EMC { mark /EMC pdfmark } bind def
/cairo_store_point { /cairo_point_y exch def /cairo_point_x exch def } def
/Tj { show currentpoint cairo_store_point } bind def
/TJ {
  {
    dup
    type /stringtype eq
    { show } { -0.001 mul 0 cairo_font_matrix dtransform rmoveto } ifelse
  } forall
  currentpoint cairo_store_point
} bind def
/cairo_selectfont { cairo_font_matrix aload pop pop pop 0 0 6 array astore
    cairo_font exch selectfont cairo_point_x cairo_point_y moveto } bind def
/Tf { pop /cairo_font exch def /cairo_font_matrix where
      { pop cairo_selectfont } if } bind def
/Td { matrix translate cairo_font_matrix matrix concatmatrix dup
      /cairo_font_matrix exch def dup 4 get exch 5 get cairo_store_point
      /cairo_font where { pop cairo_selectfont } if } bind def
/Tm { 2 copy 8 2 roll 6 array astore /cairo_font_matrix exch def
      cairo_store_point /cairo_font where { pop cairo_selectfont } if } bind def
/g { setgray } bind def
/rg { setrgbcolor } bind def
/d1 { setcachedevice } bind def
/cairo_data_source {
  CairoDataIndex CairoData length lt
    { CairoData CairoDataIndex get /CairoDataIndex CairoDataIndex 1 add def }
    { () } ifelse
} def
/cairo_flush_ascii85_file { cairo_ascii85_file status { cairo_ascii85_file flushfile } if } def
/cairo_image { image cairo_flush_ascii85_file } def
/cairo_imagemask { imagemask cairo_flush_ascii85_file } def
%%EndProlog
%%BeginSetup
%%EndSetup
%%Page: 1 1
%%BeginPageSetup
%%PageBoundingBox: 0 0 256 122
%%EndPageSetup
q 0 0 256 122 rectclip
1 0 0 -1 0 122 cm q
0.741176 0.831373 0.901961 rg
0.555 65.648 m 0.555 95.406 l 57.27 95.406 l 57.27 35.895 l 0.555 35.895
 l f
0 g
1.13366 w
0 J
0 j
[] 0.0 d
10 M q 1 0 0 -1 0 0 cm
0.566 -18.895 m 0.566 -95.43 l 57.273 -95.43 l 57.273 -18.895 l S Q
0.567042 w
q 1 0 0 -1 0 0 cm
0.578 -35.891 m 0.578 -35.684 l 1.027 -35.684 l 1.27 -35.715 l 1.508 -35.715
 l 2.234 -35.82 l 2.441 -35.855 l 2.926 -35.926 l 3.168 -35.957 l 3.895 
-36.062 l 4.102 -36.062 l 4.344 -36.098 l 5.312 -36.098 l 5.52 -36.062 l
 5.762 -36.062 l 6.488 -35.957 l 6.727 -35.926 l 6.938 -35.891 l 7.176 -35.855
 l 8.145 -35.715 l 8.352 -35.715 l 8.594 -35.684 l 9.562 -35.684 l 9.77 
-35.715 l 10.012 -35.715 l 10.98 -35.855 l 11.188 -35.891 l 11.43 -35.926
 l 11.672 -35.957 l 12.156 -36.027 l 12.395 -36.062 l 12.605 -36.062 l 12.844
 -36.098 l 13.812 -36.098 l 14.02 -36.062 l 14.262 -36.062 l 14.988 -35.957
 l 15.23 -35.926 l 15.438 -35.891 l 16.648 -35.715 l 16.855 -35.715 l 17.098
 -35.684 l 18.062 -35.684 l 18.273 -35.715 l 18.516 -35.715 l 18.754 -35.75
 l 19.48 -35.855 l 19.688 -35.891 l 19.93 -35.926 l 20.172 -35.957 l 20.898
 -36.062 l 21.105 -36.062 l 21.348 -36.098 l 22.316 -36.098 l 22.523 -36.062
 l 22.766 -36.062 l 23.492 -35.957 l 23.73 -35.926 l 23.941 -35.891 l 24.184
 -35.855 l 24.422 -35.82 l 25.148 -35.715 l 25.355 -35.715 l 25.598 -35.684
 l 26.566 -35.684 l 26.773 -35.715 l 27.016 -35.715 l 27.984 -35.855 l 28.191
 -35.891 l 28.434 -35.926 l 28.676 -35.957 l 29.402 -36.062 l 29.609 -36.062
 l 29.852 -36.098 l 30.816 -36.098 l 31.023 -36.062 l 31.266 -36.062 l 31.992
 -35.957 l 32.234 -35.926 l 32.441 -35.891 l 33.652 -35.715 l 33.859 -35.715
 l 34.102 -35.684 l 35.07 -35.684 l 35.277 -35.715 l 35.52 -35.715 l 35.758
 -35.75 l 36.727 -35.891 l 36.934 -35.926 l 37.176 -35.957 l 37.902 -36.062
 l 38.145 -36.062 l 38.352 -36.098 l 39.32 -36.098 l 39.562 -36.062 l 39.77
 -36.062 l 40.496 -35.957 l 40.738 -35.926 l 40.977 -35.891 l 41.188 -35.855
 l 41.426 -35.82 l 42.152 -35.715 l 42.395 -35.715 l 42.602 -35.684 l 43.57
 -35.684 l 43.812 -35.715 l 44.02 -35.715 l 45.23 -35.891 l 45.438 -35.926
 l 45.68 -35.957 l 46.406 -36.062 l 46.645 -36.062 l 46.855 -36.098 l 47.82
 -36.098 l 48.062 -36.062 l 48.27 -36.062 l 48.996 -35.957 l 49.238 -35.926
 l 49.48 -35.891 l 49.688 -35.855 l 50.656 -35.715 l 50.898 -35.715 l 51.105
 -35.684 l 52.074 -35.684 l 52.312 -35.715 l 52.523 -35.715 l 52.762 -35.75
 l 53.73 -35.891 l 53.938 -35.926 l 54.18 -35.957 l 54.906 -36.062 l 55.148
 -36.062 l 55.355 -36.098 l 56.324 -36.098 l 56.566 -36.062 l 56.773 -36.062
 l 57.258 -35.992 l 57.258 -35.891 l S Q
3.96888 w
q 1 0 0 -1 0 0 cm
28.914 -86.922 m 28.914 -13.219 l S Q
1 g
2.83481 w
q 1 0 0 -1 0 0 cm
28.914 -86.922 m 28.914 -13.219 l S Q
0 g
0.567043 w
q 1 0 0 -1 0 0 cm
26.938 -86.914 m 30.91 -86.914 l S Q
1 g
6.242 81.266 m 6.242 84.078 l 26.922 84.078 l 26.922 78.422 l 6.242 78.422
 l f
0 g
0.567041 w
q 1 0 0 -1 0 0 cm
6.242 -81.266 m 6.242 -84.078 l 26.922 -84.078 l 26.922 -78.422 l 6.242
 -78.422 l h
6.242 -81.266 m S Q
1 g
30.902 81.266 m 30.902 84.078 l 51.582 84.078 l 51.582 78.422 l 30.902 
78.422 l f
0 g
q 1 0 0 -1 0 0 cm
30.902 -81.266 m 30.902 -84.078 l 51.582 -84.078 l 51.582 -78.422 l 30.902
 -78.422 l h
30.902 -81.266 m S Q
1 g
6.254 69.895 m 6.254 72.746 l 26.941 72.746 l 26.941 67.074 l 6.254 67.074
 l f
0 g
0.567044 w
q 1 0 0 -1 0 0 cm
6.254 -69.895 m 6.254 -72.746 l 26.941 -72.746 l 26.941 -67.074 l 6.254
 -67.074 l h
6.254 -69.895 m S Q
1 g
30.895 69.895 m 30.895 72.746 l 51.586 72.746 l 51.586 67.074 l 30.895 
67.074 l f
0 g
q 1 0 0 -1 0 0 cm
30.895 -69.895 m 30.895 -72.746 l 51.586 -72.746 l 51.586 -67.074 l 30.895
 -67.074 l h
30.895 -69.895 m S Q
1 g
6.258 58.555 m 6.258 61.414 l 26.953 61.414 l 26.953 55.73 l 6.258 55.73
 l f
0 g
0.567042 w
q 1 0 0 -1 0 0 cm
6.258 -58.555 m 6.258 -61.414 l 26.953 -61.414 l 26.953 -55.73 l 6.258 
-55.73 l h
6.258 -58.555 m S Q
1 g
30.914 58.555 m 30.914 61.414 l 51.609 61.414 l 51.609 55.73 l 30.914 55.73
 l f
0 g
q 1 0 0 -1 0 0 cm
30.914 -58.555 m 30.914 -61.414 l 51.609 -61.414 l 51.609 -55.73 l 30.914
 -55.73 l h
30.914 -58.555 m S Q
1 g
6.238 47.23 m 6.238 50.062 l 26.941 50.062 l 26.941 44.402 l 6.238 44.402
 l f
0 g
0.567041 w
q 1 0 0 -1 0 0 cm
6.238 -47.23 m 6.238 -50.062 l 26.941 -50.062 l 26.941 -44.402 l 6.238 
-44.402 l h
6.238 -47.23 m S Q
1 g
30.91 47.23 m 30.91 50.062 l 51.578 50.062 l 51.578 44.402 l 30.91 44.402
 l f
0 g
q 1 0 0 -1 0 0 cm
30.91 -47.23 m 30.91 -50.062 l 51.578 -50.062 l 51.578 -44.402 l 30.91 
-44.402 l h
30.91 -47.23 m S Q
0.567042 w
q 1 0 0 -1 0 0 cm
17.594 -8.266 m 17.594 -13.199 l 40.258 -13.199 l 40.258 -3.293 l 17.594
 -3.293 l h
17.594 -8.266 m S Q
1.13366 w
1 J
q 1 0 0 -1 0 0 cm
17.02 -6.098 m 17.125 -6.098 l S Q
0 J
q 1 0 0 -1 0 0 cm
17.023 -6.082 m 26.648 -5.559 l 85.613 -5.559 l S Q
1 J
q 1 0 0 -1 0 0 cm
40.812 -7.582 m 40.707 -7.582 l S Q
q 1 0 0 -1 0 0 cm
17 -8.934 m 17.105 -8.934 l S Q
0 J
q 1 0 0 -1 0 0 cm
40.812 -7.582 m 17.02 -8.934 l S Q
1 J
q 1 0 0 -1 0 0 cm
40.816 -10.418 m 40.715 -10.418 l S Q
q 1 0 0 -1 0 0 cm
17.031 -11.754 m 17.102 -11.754 l S Q
0 J
q 1 0 0 -1 0 0 cm
40.816 -10.418 m 17.004 -11.77 l S Q
q 1 0 0 -1 0 0 cm
91.84 -8.965 m 91.84 -35.914 l S Q
1 g
92.684 11.801 m 92.684 7.875 89.523 4.711 85.594 4.711 c 81.703 4.711 78.508
 7.875 78.508 11.801 c 78.508 15.727 81.703 18.891 85.594 18.891 c 89.523
 18.891 92.684 15.727 92.684 11.801 c f
0 g
0.567042 w
q 1 0 0 -1 0 0 cm
92.684 -11.801 m 92.684 -7.875 89.523 -4.711 85.594 -4.711 c 81.703 -4.711
 78.508 -7.875 78.508 -11.801 c 78.508 -15.727 81.703 -18.891 85.594 -18.891
 c 89.523 -18.891 92.684 -15.727 92.684 -11.801 c h
92.684 -11.801 m S Q
86.168 11.773 m 86.168 11.461 85.914 11.207 85.602 11.207 c 85.289 11.207
 85.035 11.461 85.035 11.773 c 85.035 12.086 85.289 12.34 85.602 12.34 c
 85.914 12.34 86.168 12.086 86.168 11.773 c f
q 1 0 0 -1 0 0 cm
85.469 -42.98 m 86.195 -35.895 l 97.531 -35.895 l 98.945 -50.062 l 84.777
 -50.062 l h
85.469 -42.98 m S Q
97.418 22.566 m 96.098 18.895 l 94.781 22.566 l 96.098 21.113 l f
q 1 0 0 -1 0 0 cm
96.102 -21.094 m 96.102 -30.207 l S Q
58.09 0 m 54.438 1.324 l 58.09 2.645 l 56.629 1.324 l f
0.567043 w
q 1 0 0 -1 0 0 cm
56.648 -1.305 m 65.758 -1.305 l S Q
21.086 22.152 m 23.234 18.895 l 19.527 20.035 l 21.469 20.211 l f
1 g
1.13364 w
q 1 0 0 -1 0 0 cm
21.469 -20.211 m 11.898 -27.387 45.906 -27.387 34.57 -18.895 c S Q
0 g
0.567041 w
q 1 0 0 -1 0 0 cm
21.469 -20.211 m 11.898 -27.387 45.906 -27.387 34.57 -18.895 c S Q
21.086 22.152 m 23.234 18.895 l 19.527 20.035 l 21.469 20.211 l f
47.902 114.312 m 47.246 114.75 46.98 114.969 46.637 115.391 c 46.012 116.172
 45.699 117.062 45.699 118.109 c 45.699 119.266 46.027 120.141 46.809 121.047
 c 47.184 121.484 47.418 121.672 47.887 121.969 c 47.98 121.812 l 47.277
 121.25 47.027 120.938 46.777 120.266 c 46.559 119.672 46.465 119 46.465
 118.094 c 46.465 117.141 46.574 116.406 46.824 115.859 c 47.074 115.297
 47.34 114.969 47.98 114.453 c h
47.902 114.312 m f
52.23 119.781 m 52.074 119.906 51.965 119.953 51.824 119.953 c 51.621 119.953
 51.559 119.828 51.559 119.438 c 51.559 117.688 l 51.559 117.219 51.512 
116.953 51.387 116.75 c 51.184 116.422 50.793 116.25 50.277 116.25 c 49.434
 116.25 48.762 116.688 48.762 117.25 c 48.762 117.453 48.934 117.641 49.152
 117.641 c 49.371 117.641 49.559 117.453 49.559 117.266 c 49.559 117.234
 49.543 117.188 49.543 117.125 c 49.512 117.031 49.512 116.969 49.512 116.906
 c 49.512 116.656 49.793 116.469 50.152 116.469 c 50.59 116.469 50.84 116.719
 50.84 117.203 c 50.84 117.75 l 49.465 118.297 49.309 118.391 48.918 118.719
 c 48.715 118.906 48.59 119.203 48.59 119.5 c 48.59 120.062 48.98 120.469
 49.543 120.469 c 49.934 120.469 50.293 120.281 50.84 119.812 c 50.887 120.281
 51.059 120.469 51.418 120.469 c 51.73 120.469 51.918 120.359 52.23 120.016
 c h
50.84 119.266 m 50.84 119.547 50.793 119.641 50.605 119.75 c 50.371 119.875
 50.137 119.938 49.949 119.938 c 49.637 119.938 49.387 119.641 49.387 119.25
 c 49.387 119.219 l 49.387 118.688 49.793 118.344 50.84 117.969 c h
50.84 119.266 m f
52.566 121.969 m 53.223 121.516 53.504 121.297 53.832 120.891 c 54.473 
120.109 54.785 119.203 54.785 118.156 c 54.785 117.016 54.441 116.141 53.66
 115.234 c 53.285 114.797 53.051 114.594 52.598 114.312 c 52.488 114.453
 l 53.207 115.016 53.441 115.328 53.691 116 c 53.91 116.609 54.004 117.281
 54.004 118.188 c 54.004 119.125 53.895 119.859 53.645 120.406 c 53.41 120.969
 53.129 121.297 52.488 121.812 c h
52.566 121.969 m f
1.13366 w
q 1 0 0 -1 0 0 cm
156.469 -51.496 m 156.469 -72.738 l 213.168 -72.738 l 213.168 -30.223 l
 156.469 -30.223 l h
156.469 -51.496 m S Q
168.676 53.504 m 168.191 53.426 168.145 53.363 168.129 52.723 c 168.129
 50.941 l 168.129 50.004 167.77 49.52 167.02 49.52 c 166.504 49.52 166.129
 49.738 165.707 50.27 c 165.707 47.551 l 165.66 47.52 l 165.348 47.629 165.129
 47.691 164.629 47.848 c 164.395 47.91 l 164.395 48.051 l 164.426 48.051
 164.441 48.051 164.504 48.051 c 164.879 48.051 164.957 48.113 164.957 48.504
 c 164.957 52.723 l 164.941 53.379 164.895 53.441 164.379 53.504 c 164.379
 53.645 l 166.316 53.645 l 166.316 53.504 l 165.801 53.473 165.723 53.363
 165.707 52.723 c 165.707 50.566 l 166.082 50.16 166.348 50.004 166.707 
50.004 c 167.16 50.004 167.379 50.332 167.379 50.957 c 167.379 52.723 l 
167.363 53.363 167.285 53.473 166.77 53.504 c 166.77 53.645 l 168.676 53.645
 l h
168.676 53.504 m f
172.398 52.176 m 171.977 52.848 171.586 53.113 171.008 53.113 c 170.508
 53.113 170.117 52.848 169.852 52.348 c 169.695 52.004 169.633 51.723 169.617
 51.16 c 172.367 51.16 l 172.305 50.582 172.211 50.316 171.992 50.035 c 
171.727 49.707 171.305 49.52 170.836 49.52 c 170.398 49.52 169.977 49.676
 169.633 49.988 c 169.211 50.348 168.961 50.988 168.961 51.723 c 168.961
 52.957 169.617 53.738 170.648 53.738 c 171.492 53.738 172.164 53.207 172.539
 52.238 c h
169.633 50.879 m 169.727 50.176 170.039 49.848 170.586 49.848 c 171.133
 49.848 171.336 50.098 171.461 50.879 c h
169.633 50.879 m f
176.672 53.051 m 176.516 53.176 176.406 53.223 176.266 53.223 c 176.062
 53.223 176 53.098 176 52.707 c 176 50.957 l 176 50.488 175.953 50.223 175.828
 50.02 c 175.625 49.691 175.234 49.52 174.719 49.52 c 173.875 49.52 173.203
 49.957 173.203 50.52 c 173.203 50.723 173.375 50.91 173.594 50.91 c 173.812
 50.91 174 50.723 174 50.535 c 174 50.504 173.984 50.457 173.984 50.395 
c 173.953 50.301 173.953 50.238 173.953 50.176 c 173.953 49.926 174.234 
49.738 174.594 49.738 c 175.031 49.738 175.281 49.988 175.281 50.473 c 175.281
 51.02 l 173.906 51.566 173.75 51.66 173.359 51.988 c 173.156 52.176 173.031
 52.473 173.031 52.77 c 173.031 53.332 173.422 53.738 173.984 53.738 c 174.375
 53.738 174.734 53.551 175.281 53.082 c 175.328 53.551 175.5 53.738 175.859
 53.738 c 176.172 53.738 176.359 53.629 176.672 53.285 c h
175.281 52.535 m 175.281 52.816 175.234 52.91 175.047 53.02 c 174.812 53.145
 174.578 53.207 174.391 53.207 c 174.078 53.207 173.828 52.91 173.828 52.52
 c 173.828 52.488 l 173.828 51.957 174.234 51.613 175.281 51.238 c h
175.281 52.535 m f
178.941 49.613 m 178.035 49.613 l 178.035 48.566 l 178.035 48.473 178.02
 48.457 177.973 48.457 c 177.457 49.207 177.191 49.504 176.926 49.66 c 176.832
 49.723 176.77 49.785 176.77 49.832 c 176.77 49.863 176.785 49.879 176.816
 49.895 c 177.285 49.895 l 177.285 52.598 l 177.285 53.348 177.551 53.738
 178.082 53.738 c 178.52 53.738 178.863 53.52 179.16 53.051 c 179.051 52.957
 l 178.848 53.191 178.707 53.27 178.504 53.27 c 178.176 53.27 178.035 53.02
 178.035 52.457 c 178.035 49.895 l 178.941 49.895 l h
178.941 49.613 m f
185.117 52.176 m 184.695 52.848 184.305 53.113 183.727 53.113 c 183.227
 53.113 182.836 52.848 182.57 52.348 c 182.414 52.004 182.352 51.723 182.336
 51.16 c 185.086 51.16 l 185.023 50.582 184.93 50.316 184.711 50.035 c 184.445
 49.707 184.023 49.52 183.555 49.52 c 183.117 49.52 182.695 49.676 182.352
 49.988 c 181.93 50.348 181.68 50.988 181.68 51.723 c 181.68 52.957 182.336
 53.738 183.367 53.738 c 184.211 53.738 184.883 53.207 185.258 52.238 c 
h
182.352 50.879 m 182.445 50.176 182.758 49.848 183.305 49.848 c 183.852
 49.848 184.055 50.098 184.18 50.879 c h
182.352 50.879 m f
185.578 53.645 m 187.484 53.645 l 187.484 53.504 l 187.031 53.488 186.891
 53.363 186.891 53.051 c 186.891 50.52 l 187.328 50.113 187.516 50.02 187.812
 50.02 c 188.25 50.02 188.469 50.285 188.469 50.879 c 188.469 52.754 l 188.453
 53.332 188.344 53.488 187.906 53.504 c 187.906 53.645 l 189.766 53.645 
l 189.766 53.504 l 189.328 53.473 189.234 53.363 189.219 52.926 c 189.219
 50.863 l 189.219 50.02 188.828 49.52 188.172 49.52 c 187.75 49.52 187.469
 49.676 186.859 50.238 c 186.859 49.535 l 186.797 49.52 l 186.344 49.691
 186.031 49.785 185.562 49.926 c 185.562 50.082 l 185.625 50.051 185.703
 50.035 185.812 50.035 c 186.062 50.035 186.141 50.176 186.141 50.613 c 
186.141 52.832 l 186.125 53.363 186.031 53.488 185.578 53.504 c h
185.578 53.645 m f
194.082 50.16 m 194.082 49.816 l 193.395 49.816 l 193.207 49.816 193.066
 49.785 192.895 49.723 c 192.691 49.66 l 192.457 49.566 192.207 49.52 191.973
 49.52 c 191.145 49.52 190.488 50.16 190.488 50.988 c 190.488 51.551 190.723
 51.879 191.316 52.176 c 191.082 52.395 l 190.895 52.582 190.785 52.676 
190.754 52.707 c 190.566 52.91 190.52 53.004 190.52 53.16 c 190.52 53.363
 190.613 53.457 190.988 53.629 c 190.348 54.098 190.113 54.395 190.113 54.723
 c 190.113 55.207 190.801 55.598 191.66 55.598 c 192.332 55.598 193.035 
55.363 193.504 54.988 c 193.848 54.707 194.004 54.426 194.004 54.082 c 194.004
 53.535 193.582 53.16 192.91 53.129 c 191.754 53.066 l 191.27 53.051 191.051
 52.973 191.051 52.832 c 191.051 52.645 191.348 52.332 191.598 52.27 c 191.91
 52.285 192.082 52.301 192.113 52.301 c 192.441 52.301 192.801 52.176 193.066
 51.926 c 193.363 51.676 193.504 51.363 193.504 50.926 c 193.504 50.66 193.457
 50.457 193.332 50.16 c h
191.176 53.66 m 191.488 53.723 192.191 53.785 192.645 53.785 c 193.457 
53.785 193.754 53.895 193.754 54.223 c 193.754 54.738 193.066 55.082 192.051
 55.082 c 191.254 55.082 190.738 54.832 190.738 54.441 c 190.738 54.223 
190.816 54.098 191.176 53.66 c h
191.223 50.613 m 191.223 50.082 191.473 49.77 191.895 49.77 c 192.176 49.77
 192.395 49.926 192.551 50.191 c 192.723 50.504 192.816 50.91 192.816 51.27
 c 192.816 51.77 192.566 52.082 192.145 52.082 c 191.598 52.082 191.223 
51.504 191.223 50.645 c h
191.223 50.613 m f
194.441 53.645 m 196.566 53.645 l 196.566 53.504 l 195.973 53.473 195.91
 53.379 195.91 52.723 c 195.91 49.551 l 195.863 49.52 l 194.473 50.02 l 
194.473 50.145 l 194.551 50.145 l 194.66 50.113 194.77 50.113 194.863 50.113
 c 195.066 50.113 195.16 50.254 195.16 50.645 c 195.16 52.723 l 195.129 
53.395 195.051 53.488 194.441 53.504 c h
195.441 47.52 m 195.207 47.52 195.004 47.723 195.004 47.973 c 195.004 48.238
 195.191 48.441 195.441 48.441 c 195.723 48.441 195.91 48.238 195.91 47.973
 c 195.91 47.723 195.707 47.52 195.441 47.52 c h
195.441 47.52 m f
196.977 53.645 m 198.883 53.645 l 198.883 53.504 l 198.43 53.488 198.289
 53.363 198.289 53.051 c 198.289 50.52 l 198.727 50.113 198.914 50.02 199.211
 50.02 c 199.648 50.02 199.867 50.285 199.867 50.879 c 199.867 52.754 l 
199.852 53.332 199.742 53.488 199.305 53.504 c 199.305 53.645 l 201.164 
53.645 l 201.164 53.504 l 200.727 53.473 200.633 53.363 200.617 52.926 c
 200.617 50.863 l 200.617 50.02 200.227 49.52 199.57 49.52 c 199.148 49.52
 198.867 49.676 198.258 50.238 c 198.258 49.535 l 198.195 49.52 l 197.742
 49.691 197.43 49.785 196.961 49.926 c 196.961 50.082 l 197.023 50.051 197.102
 50.035 197.211 50.035 c 197.461 50.035 197.539 50.176 197.539 50.613 c 
197.539 52.832 l 197.523 53.363 197.43 53.488 196.977 53.504 c h
196.977 53.645 m f
204.918 52.176 m 204.496 52.848 204.105 53.113 203.527 53.113 c 203.027
 53.113 202.637 52.848 202.371 52.348 c 202.215 52.004 202.152 51.723 202.137
 51.16 c 204.887 51.16 l 204.824 50.582 204.73 50.316 204.512 50.035 c 204.246
 49.707 203.824 49.52 203.355 49.52 c 202.918 49.52 202.496 49.676 202.152
 49.988 c 201.73 50.348 201.48 50.988 201.48 51.723 c 201.48 52.957 202.137
 53.738 203.168 53.738 c 204.012 53.738 204.684 53.207 205.059 52.238 c 
h
202.152 50.879 m 202.246 50.176 202.559 49.848 203.105 49.848 c 203.652
 49.848 203.855 50.098 203.98 50.879 c h
202.152 50.879 m f
q 1 0 0 -1 0 0 cm
170.652 -16.062 m 170.652 -30.211 l 198.988 -30.211 l 198.988 -1.875 l 
170.652 -1.875 l h
170.652 -16.062 m S Q
183.523 35.047 m 184.836 38.711 l 186.148 35.047 l 184.836 36.531 l f
0.567045 w
q 1 0 0 -1 0 0 cm
184.844 -21.715 m 184.844 -36.508 l S Q
181.871 18.703 m 181.215 18.703 l 181.074 19.25 l 180.918 18.828 180.637
 18.703 180.34 18.703 c 179.23 18.703 177.793 20.391 177.793 21.734 c 177.793
 22.422 178.121 22.891 178.652 22.891 c 179.418 22.891 180.121 22.031 180.496
 21.406 c 179.762 24.016 l 179.621 24.484 179.34 24.531 178.855 24.531 c
 178.824 24.703 l 180.98 24.703 l 181.012 24.531 l 180.684 24.531 180.309
 24.484 180.434 24.031 c h
180.934 19.531 m 180.934 20.469 179.934 22.375 179.043 22.375 c 178.777
 22.375 178.559 22.156 178.559 21.688 c 178.559 20.594 179.574 18.891 180.402
 18.891 c 180.73 18.891 180.934 19.172 180.934 19.531 c h
180.934 19.531 m f
1.13366 w
q 1 0 0 -1 0 0 cm
213.148 -48.086 m 241.496 -48.086 l S Q
q 1 0 0 -1 0 0 cm
247.758 -51.477 m 247.758 -78.395 l S Q
1 g
248.586 54.309 m 248.586 50.41 245.414 47.238 241.516 47.238 c 237.586 
47.238 234.41 50.41 234.41 54.309 c 234.41 58.242 237.586 61.414 241.516
 61.414 c 245.414 61.414 248.586 58.242 248.586 54.309 c f
0 g
0.567041 w
q 1 0 0 -1 0 0 cm
248.586 -54.309 m 248.586 -50.41 245.414 -47.238 241.516 -47.238 c 237.586
 -47.238 234.41 -50.41 234.41 -54.309 c 234.41 -58.242 237.586 -61.414 241.516
 -61.414 c 245.414 -61.414 248.586 -58.242 248.586 -54.309 c h
248.586 -54.309 m S Q
242.066 54.273 m 242.066 53.961 241.812 53.707 241.5 53.707 c 241.188 53.707
 240.934 53.961 240.934 54.273 c 240.934 54.586 241.188 54.84 241.5 54.84
 c 241.812 54.84 242.066 54.586 242.066 54.273 c f
q 1 0 0 -1 0 0 cm
241.359 -85.52 m 242.078 -78.422 l 253.398 -78.422 l 254.84 -92.586 l 240.672
 -92.586 l h
241.359 -85.52 m S Q
253.324 65.086 m 252.02 61.402 l 250.676 65.086 l 252.02 63.605 l f
0.567043 w
q 1 0 0 -1 0 0 cm
251.98 -63.621 m 251.98 -72.77 l S Q
182.184 114.312 m 181.527 114.75 181.262 114.969 180.918 115.391 c 180.293
 116.172 179.98 117.062 179.98 118.109 c 179.98 119.266 180.309 120.141 
181.09 121.047 c 181.465 121.484 181.699 121.672 182.168 121.969 c 182.262
 121.812 l 181.559 121.25 181.309 120.938 181.059 120.266 c 180.84 119.672
 180.746 119 180.746 118.094 c 180.746 117.141 180.855 116.406 181.105 115.859
 c 181.355 115.297 181.621 114.969 182.262 114.453 c h
182.184 114.312 m f
183.918 114.266 m 183.871 114.25 l 183.496 114.375 183.262 114.453 182.824
 114.578 c 182.574 114.641 l 182.574 114.781 l 182.621 114.781 182.652 114.781
 182.715 114.781 c 183.074 114.781 183.168 114.859 183.168 115.234 c 183.168
 119.891 l 183.168 120.172 183.918 120.469 184.637 120.469 c 185.824 120.469
 186.746 119.484 186.746 118.203 c 186.746 117.078 186.059 116.25 185.168
 116.25 c 184.621 116.25 184.09 116.562 183.918 117.016 c h
183.918 117.484 m 183.918 117.141 184.34 116.812 184.809 116.812 c 185.059
 116.812 185.277 116.906 185.465 117.078 c 185.746 117.359 185.949 117.969
 185.949 118.609 c 185.949 119.609 185.527 120.172 184.793 120.172 c 184.324
 120.172 183.918 119.984 183.918 119.75 c h
183.918 117.484 m f
187.324 121.969 m 187.98 121.516 188.262 121.297 188.59 120.891 c 189.23
 120.109 189.543 119.203 189.543 118.156 c 189.543 117.016 189.199 116.141
 188.418 115.234 c 188.043 114.797 187.809 114.594 187.355 114.312 c 187.246
 114.453 l 187.965 115.016 188.199 115.328 188.449 116 c 188.668 116.609
 188.762 117.281 188.762 118.188 c 188.762 119.125 188.652 119.859 188.402
 120.406 c 188.168 120.969 187.887 121.297 187.246 121.812 c h
187.324 121.969 m f
Q Q
showpage
%%Trailer
end
%%EOF
