%!PS-Adobe-3.0 EPSF-3.0
%%Creator: cairo 1.17.4 (https://cairographics.org)
%%CreationDate: Thu Feb 24 10:47:36 2022
%%Pages: 1
%%DocumentData: Clean7Bit
%%LanguageLevel: 2
%%BoundingBox: 0 0 171 130
%%EndComments
%%BeginProlog
50 dict begin
/q { gsave } bind def
/Q { grestore } bind def
/cm { 6 array astore concat } bind def
/w { setlinewidth } bind def
/J { setlinecap } bind def
/j { setlinejoin } bind def
/M { setmiterlimit } bind def
/d { setdash } bind def
/m { moveto } bind def
/l { lineto } bind def
/c { curveto } bind def
/h { closepath } bind def
/re { exch dup neg 3 1 roll 5 3 roll moveto 0 rlineto
      0 exch rlineto 0 rlineto closepath } bind def
/S { stroke } bind def
/f { fill } bind def
/f* { eofill } bind def
/n { newpath } bind def
/W { clip } bind def
/W* { eoclip } bind def
/BT { } bind def
/ET { } bind def
/BDC { mark 3 1 roll /BDC pdfmark } bind def
/EMC { mark /EMC pdfmark } bind def
/cairo_store_point { /cairo_point_y exch def /cairo_point_x exch def } def
/Tj { show currentpoint cairo_store_point } bind def
/TJ {
  {
    dup
    type /stringtype eq
    { show } { -0.001 mul 0 cairo_font_matrix dtransform rmoveto } ifelse
  } forall
  currentpoint cairo_store_point
} bind def
/cairo_selectfont { cairo_font_matrix aload pop pop pop 0 0 6 array astore
    cairo_font exch selectfont cairo_point_x cairo_point_y moveto } bind def
/Tf { pop /cairo_font exch def /cairo_font_matrix where
      { pop cairo_selectfont } if } bind def
/Td { matrix translate cairo_font_matrix matrix concatmatrix dup
      /cairo_font_matrix exch def dup 4 get exch 5 get cairo_store_point
      /cairo_font where { pop cairo_selectfont } if } bind def
/Tm { 2 copy 8 2 roll 6 array astore /cairo_font_matrix exch def
      cairo_store_point /cairo_font where { pop cairo_selectfont } if } bind def
/g { setgray } bind def
/rg { setrgbcolor } bind def
/d1 { setcachedevice } bind def
/cairo_data_source {
  CairoDataIndex CairoData length lt
    { CairoData CairoDataIndex get /CairoDataIndex CairoDataIndex 1 add def }
    { () } ifelse
} def
/cairo_flush_ascii85_file { cairo_ascii85_file status { cairo_ascii85_file flushfile } if } def
/cairo_image { image cairo_flush_ascii85_file } def
/cairo_imagemask { imagemask cairo_flush_ascii85_file } def
%%EndProlog
%%BeginSetup
%%EndSetup
%%Page: 1 1
%%BeginPageSetup
%%PageBoundingBox: 0 0 171 130
%%EndPageSetup
q 0 0 171 130 rectclip
1 0 0 -1 0 130 cm q
0 g
19.406 121.922 m 18.75 122.359 18.484 122.578 18.141 123 c 17.516 123.781
 17.203 124.672 17.203 125.719 c 17.203 126.875 17.531 127.75 18.312 128.656
 c 18.688 129.094 18.922 129.281 19.391 129.578 c 19.484 129.422 l 18.781
 128.859 18.531 128.547 18.281 127.875 c 18.062 127.281 17.969 126.609 17.969
 125.703 c 17.969 124.75 18.078 124.016 18.328 123.469 c 18.578 122.906 
18.844 122.578 19.484 122.062 c h
19.406 121.922 m f
23.734 127.391 m 23.578 127.516 23.469 127.562 23.328 127.562 c 23.125 
127.562 23.062 127.438 23.062 127.047 c 23.062 125.297 l 23.062 124.828 
23.016 124.562 22.891 124.359 c 22.688 124.031 22.297 123.859 21.781 123.859
 c 20.938 123.859 20.266 124.297 20.266 124.859 c 20.266 125.062 20.438 
125.25 20.656 125.25 c 20.875 125.25 21.062 125.062 21.062 124.875 c 21.062
 124.844 21.047 124.797 21.047 124.734 c 21.016 124.641 21.016 124.578 21.016
 124.516 c 21.016 124.266 21.297 124.078 21.656 124.078 c 22.094 124.078
 22.344 124.328 22.344 124.812 c 22.344 125.359 l 20.969 125.906 20.812 
126 20.422 126.328 c 20.219 126.516 20.094 126.812 20.094 127.109 c 20.094
 127.672 20.484 128.078 21.047 128.078 c 21.438 128.078 21.797 127.891 22.344
 127.422 c 22.391 127.891 22.562 128.078 22.922 128.078 c 23.234 128.078
 23.422 127.969 23.734 127.625 c h
22.344 126.875 m 22.344 127.156 22.297 127.25 22.109 127.359 c 21.875 127.484
 21.641 127.547 21.453 127.547 c 21.141 127.547 20.891 127.25 20.891 126.859
 c 20.891 126.828 l 20.891 126.297 21.297 125.953 22.344 125.578 c h
22.344 126.875 m f
24.07 129.578 m 24.727 129.125 25.008 128.906 25.336 128.5 c 25.977 127.719
 26.289 126.812 26.289 125.766 c 26.289 124.625 25.945 123.75 25.164 122.844
 c 24.789 122.406 24.555 122.203 24.102 121.922 c 23.992 122.062 l 24.711
 122.625 24.945 122.938 25.195 123.609 c 25.414 124.219 25.508 124.891 25.508
 125.797 c 25.508 126.734 25.398 127.469 25.148 128.016 c 24.914 128.578
 24.633 128.906 23.992 129.422 c h
24.07 129.578 m f
0.850361 w
0 J
0 j
[] 0.0 d
10 M q 1 0 0 -1 0 0 cm
0.426 -78.379 m 0.426 -57.117 l 42.945 -57.117 l 42.945 -99.637 l 0.426
 -99.637 l h
0.426 -78.379 m S Q
17.566 79.969 m 17.145 80.609 16.816 80.812 16.316 80.812 c 15.488 80.812
 14.926 80.094 14.926 79.062 c 14.926 78.141 15.41 77.516 16.145 77.516 
c 16.457 77.516 16.582 77.594 16.66 77.938 c 16.723 78.141 l 16.801 78.391
 16.957 78.547 17.145 78.547 c 17.379 78.547 17.566 78.375 17.566 78.172
 c 17.566 77.672 16.941 77.25 16.191 77.25 c 15.754 77.25 15.301 77.422 
14.926 77.75 c 14.473 78.141 14.223 78.75 14.223 79.469 c 14.223 80.625 
14.941 81.469 15.926 81.469 c 16.332 81.469 16.691 81.328 17.02 81.047 c
 17.254 80.844 17.426 80.578 17.691 80.062 c h
17.566 79.969 m f
20.215 77.25 m 19.027 77.25 18.23 78.109 18.23 79.344 c 18.23 80.562 19.059
 81.469 20.184 81.469 c 21.324 81.469 22.184 80.516 22.184 79.281 c 22.184
 78.094 21.355 77.25 20.215 77.25 c h
20.09 77.5 m 20.84 77.5 21.371 78.359 21.371 79.594 c 21.371 80.609 20.965
 81.219 20.293 81.219 c 19.949 81.219 19.621 81 19.434 80.641 c 19.168 80.172
 19.027 79.547 19.027 78.906 c 19.027 78.062 19.449 77.5 20.09 77.5 c h
20.09 77.5 m f
24.656 77.25 m 23.469 77.25 22.672 78.109 22.672 79.344 c 22.672 80.562
 23.5 81.469 24.625 81.469 c 25.766 81.469 26.625 80.516 26.625 79.281 c
 26.625 78.094 25.797 77.25 24.656 77.25 c h
24.531 77.5 m 25.281 77.5 25.812 78.359 25.812 79.594 c 25.812 80.609 25.406
 81.219 24.734 81.219 c 24.391 81.219 24.062 81 23.875 80.641 c 23.609 80.172
 23.469 79.547 23.469 78.906 c 23.469 78.062 23.891 77.5 24.531 77.5 c h
24.531 77.5 m f
27.031 81.375 m 29.156 81.375 l 29.156 81.234 l 28.578 81.219 28.484 81.125
 28.469 80.625 c 28.469 75.266 l 28.438 75.25 l 27.984 75.391 27.656 75.484
 27.016 75.641 c 27.016 75.781 l 27.062 75.781 l 27.172 75.781 27.281 75.766
 27.344 75.766 c 27.641 75.766 27.719 75.891 27.719 76.312 c 27.719 80.594
 l 27.719 81.078 27.594 81.203 27.031 81.234 c h
27.031 81.375 m f
23.566 53.879 m 21.684 48.613 l 19.805 53.879 l 21.684 51.773 l f
1.13366 w
q 1 0 0 -1 0 0 cm
21.684 -65.621 m 21.684 -51.773 l S Q
28.234 61.191 m 27.578 61.191 l 27.438 61.738 l 27.281 61.316 27 61.191
 26.703 61.191 c 25.594 61.191 24.156 62.879 24.156 64.223 c 24.156 64.91
 24.484 65.379 25.016 65.379 c 25.781 65.379 26.484 64.52 26.859 63.895 
c 26.125 66.504 l 25.984 66.973 25.703 67.02 25.219 67.02 c 25.188 67.191
 l 27.344 67.191 l 27.375 67.02 l 27.047 67.02 26.672 66.973 26.797 66.52
 c h
27.297 62.02 m 27.297 62.957 26.297 64.863 25.406 64.863 c 25.141 64.863
 24.922 64.645 24.922 64.176 c 24.922 63.082 25.938 61.379 26.766 61.379
 c 27.094 61.379 27.297 61.66 27.297 62.02 c h
27.297 62.02 m f
0.850361 w
q 1 0 0 -1 0 0 cm
0.426 -35.859 m 0.426 -14.598 l 42.945 -14.598 l 42.945 -57.117 l 0.426
 -57.117 l h
0.426 -35.859 m S Q
16.73 33.746 m 16.73 33.871 l 17.027 33.934 17.121 33.996 17.121 34.152
 c 17.121 34.293 17.074 34.496 16.965 34.746 c 16.168 36.73 l 15.402 34.73
 l 15.262 34.309 15.262 34.309 15.262 34.199 c 15.262 33.996 15.355 33.934
 15.777 33.871 c 15.777 33.746 l 13.949 33.746 l 13.949 33.871 l 14.293 
33.918 14.402 34.012 14.574 34.496 c 14.621 34.621 14.699 34.84 14.746 34.996
 c 13.934 36.777 l 13.043 34.434 l 13.012 34.355 12.996 34.262 12.996 34.168
 c 12.996 33.98 13.09 33.918 13.402 33.871 c 13.402 33.746 l 11.793 33.746
 l 11.793 33.871 l 11.996 33.887 12.074 33.98 12.262 34.434 c 13.48 37.512
 l 13.59 37.793 13.652 37.902 13.715 37.902 c 13.762 37.902 13.824 37.793
 13.934 37.559 c 14.949 35.402 l 15.762 37.512 l 15.887 37.855 15.918 37.902
 15.98 37.902 c 16.043 37.902 16.074 37.824 16.23 37.465 c 17.465 34.355
 l 17.621 33.98 17.652 33.934 17.824 33.871 c 17.824 33.746 l h
16.73 33.746 m f
21.934 37.184 m 21.777 37.309 21.668 37.355 21.527 37.355 c 21.324 37.355
 21.262 37.23 21.262 36.84 c 21.262 35.09 l 21.262 34.621 21.215 34.355 
21.09 34.152 c 20.887 33.824 20.496 33.652 19.98 33.652 c 19.137 33.652 
18.465 34.09 18.465 34.652 c 18.465 34.855 18.637 35.043 18.855 35.043 c
 19.074 35.043 19.262 34.855 19.262 34.668 c 19.262 34.637 19.246 34.59 
19.246 34.527 c 19.215 34.434 19.215 34.371 19.215 34.309 c 19.215 34.059
 19.496 33.871 19.855 33.871 c 20.293 33.871 20.543 34.121 20.543 34.605
 c 20.543 35.152 l 19.168 35.699 19.012 35.793 18.621 36.121 c 18.418 36.309
 18.293 36.605 18.293 36.902 c 18.293 37.465 18.684 37.871 19.246 37.871
 c 19.637 37.871 19.996 37.684 20.543 37.215 c 20.59 37.684 20.762 37.871
 21.121 37.871 c 21.434 37.871 21.621 37.762 21.934 37.418 c h
20.543 36.668 m 20.543 36.949 20.496 37.043 20.309 37.152 c 20.074 37.277
 19.84 37.34 19.652 37.34 c 19.34 37.34 19.09 37.043 19.09 36.652 c 19.09
 36.621 l 19.09 36.09 19.496 35.746 20.543 35.371 c h
20.543 36.668 m f
21.973 37.777 m 24.129 37.777 l 24.129 37.637 l 23.52 37.621 23.379 37.496
 23.363 36.965 c 23.363 34.949 l 23.363 34.668 23.738 34.215 23.988 34.215
 c 24.035 34.215 24.129 34.262 24.223 34.355 c 24.363 34.48 24.457 34.527
 24.582 34.527 c 24.801 34.527 24.926 34.371 24.926 34.121 c 24.926 33.824
 24.738 33.652 24.441 33.652 c 24.066 33.652 23.816 33.855 23.363 34.496
 c 23.363 33.668 l 23.316 33.652 l 22.816 33.855 22.488 33.98 21.988 34.137
 c 21.988 34.277 l 22.113 34.246 22.191 34.246 22.301 34.246 c 22.52 34.246
 22.613 34.387 22.613 34.777 c 22.613 37.027 l 22.582 37.496 22.535 37.543
 21.973 37.637 c h
21.973 37.777 m f
25.066 37.777 m 27.066 37.777 l 27.066 37.637 l 26.598 37.637 26.457 37.543
 26.457 37.184 c 26.457 34.652 l 26.457 34.637 26.52 34.543 26.582 34.48
 c 26.816 34.277 27.191 34.121 27.504 34.121 c 27.91 34.121 28.098 34.434
 28.098 35.059 c 28.098 37.012 l 28.082 37.512 27.988 37.621 27.488 37.637
 c 27.488 37.777 l 29.504 37.777 l 29.504 37.637 l 29.004 37.637 28.879 
37.496 28.848 36.918 c 28.848 34.668 l 29.129 34.277 29.41 34.121 29.832
 34.121 c 30.348 34.121 30.504 34.355 30.504 35.105 c 30.504 36.996 l 30.488
 37.527 30.426 37.59 29.91 37.637 c 29.91 37.777 l 31.879 37.777 l 31.879
 37.637 l 31.645 37.621 l 31.363 37.574 31.254 37.449 31.254 37.09 c 31.254
 35.246 l 31.254 34.184 30.91 33.652 30.223 33.652 c 29.691 33.652 29.238
 33.887 28.754 34.402 c 28.598 33.887 28.285 33.652 27.801 33.652 c 27.395
 33.652 27.16 33.762 26.41 34.34 c 26.41 33.668 l 26.348 33.652 l 25.879
 33.824 25.566 33.918 25.098 34.059 c 25.098 34.215 l 25.207 34.184 25.285
 34.168 25.379 34.168 c 25.613 34.168 25.691 34.309 25.691 34.746 c 25.691
 37.012 l 25.676 37.512 25.566 37.637 25.066 37.637 c h
25.066 37.777 m f
132.43 121.922 m 131.773 122.359 131.508 122.578 131.164 123 c 130.539 
123.781 130.227 124.672 130.227 125.719 c 130.227 126.875 130.555 127.75
 131.336 128.656 c 131.711 129.094 131.945 129.281 132.414 129.578 c 132.508
 129.422 l 131.805 128.859 131.555 128.547 131.305 127.875 c 131.086 127.281
 130.992 126.609 130.992 125.703 c 130.992 124.75 131.102 124.016 131.352
 123.469 c 131.602 122.906 131.867 122.578 132.508 122.062 c h
132.43 121.922 m f
134.164 121.875 m 134.117 121.859 l 133.742 121.984 133.508 122.062 133.07
 122.188 c 132.82 122.25 l 132.82 122.391 l 132.867 122.391 132.898 122.391
 132.961 122.391 c 133.32 122.391 133.414 122.469 133.414 122.844 c 133.414
 127.5 l 133.414 127.781 134.164 128.078 134.883 128.078 c 136.07 128.078
 136.992 127.094 136.992 125.812 c 136.992 124.688 136.305 123.859 135.414
 123.859 c 134.867 123.859 134.336 124.172 134.164 124.625 c h
134.164 125.094 m 134.164 124.75 134.586 124.422 135.055 124.422 c 135.305
 124.422 135.523 124.516 135.711 124.688 c 135.992 124.969 136.195 125.578
 136.195 126.219 c 136.195 127.219 135.773 127.781 135.039 127.781 c 134.57
 127.781 134.164 127.594 134.164 127.359 c h
134.164 125.094 m f
137.574 129.578 m 138.23 129.125 138.512 128.906 138.84 128.5 c 139.48 
127.719 139.793 126.812 139.793 125.766 c 139.793 124.625 139.449 123.75
 138.668 122.844 c 138.293 122.406 138.059 122.203 137.605 121.922 c 137.496
 122.062 l 138.215 122.625 138.449 122.938 138.699 123.609 c 138.918 124.219
 139.012 124.891 139.012 125.797 c 139.012 126.734 138.902 127.469 138.652
 128.016 c 138.418 128.578 138.137 128.906 137.496 129.422 c h
137.574 129.578 m f
q 1 0 0 -1 0 0 cm
113.812 -92.551 m 113.812 -71.289 l 156.332 -71.289 l 156.332 -113.809 
l 113.812 -113.809 l h
113.812 -92.551 m S Q
130.953 94.145 m 130.531 94.785 130.203 94.988 129.703 94.988 c 128.875
 94.988 128.312 94.27 128.312 93.238 c 128.312 92.316 128.797 91.691 129.531
 91.691 c 129.844 91.691 129.969 91.77 130.047 92.113 c 130.109 92.316 l
 130.188 92.566 130.344 92.723 130.531 92.723 c 130.766 92.723 130.953 92.551
 130.953 92.348 c 130.953 91.848 130.328 91.426 129.578 91.426 c 129.141
 91.426 128.688 91.598 128.312 91.926 c 127.859 92.316 127.609 92.926 127.609
 93.645 c 127.609 94.801 128.328 95.645 129.312 95.645 c 129.719 95.645 
130.078 95.504 130.406 95.223 c 130.641 95.02 130.812 94.754 131.078 94.238
 c h
130.953 94.145 m f
133.602 91.426 m 132.414 91.426 131.617 92.285 131.617 93.52 c 131.617 
94.738 132.445 95.645 133.57 95.645 c 134.711 95.645 135.57 94.691 135.57
 93.457 c 135.57 92.27 134.742 91.426 133.602 91.426 c h
133.477 91.676 m 134.227 91.676 134.758 92.535 134.758 93.77 c 134.758 
94.785 134.352 95.395 133.68 95.395 c 133.336 95.395 133.008 95.176 132.82
 94.816 c 132.555 94.348 132.414 93.723 132.414 93.082 c 132.414 92.238 
132.836 91.676 133.477 91.676 c h
133.477 91.676 m f
138.039 91.426 m 136.852 91.426 136.055 92.285 136.055 93.52 c 136.055 
94.738 136.883 95.645 138.008 95.645 c 139.148 95.645 140.008 94.691 140.008
 93.457 c 140.008 92.27 139.18 91.426 138.039 91.426 c h
137.914 91.676 m 138.664 91.676 139.195 92.535 139.195 93.77 c 139.195 
94.785 138.789 95.395 138.117 95.395 c 137.773 95.395 137.445 95.176 137.258
 94.816 c 136.992 94.348 136.852 93.723 136.852 93.082 c 136.852 92.238 
137.273 91.676 137.914 91.676 c h
137.914 91.676 m f
140.418 95.551 m 142.543 95.551 l 142.543 95.41 l 141.965 95.395 141.871
 95.301 141.855 94.801 c 141.855 89.441 l 141.824 89.426 l 141.371 89.566
 141.043 89.66 140.402 89.816 c 140.402 89.957 l 140.449 89.957 l 140.559
 89.957 140.668 89.941 140.73 89.941 c 141.027 89.941 141.105 90.066 141.105
 90.488 c 141.105 94.77 l 141.105 95.254 140.98 95.379 140.418 95.41 c h
140.418 95.551 m f
136.953 68.051 m 135.07 62.785 l 133.191 68.051 l 135.07 65.945 l f
1.13366 w
q 1 0 0 -1 0 0 cm
135.07 -79.793 m 135.07 -65.945 l S Q
141.621 75.363 m 140.965 75.363 l 140.824 75.91 l 140.668 75.488 140.387
 75.363 140.09 75.363 c 138.98 75.363 137.543 77.051 137.543 78.395 c 137.543
 79.082 137.871 79.551 138.402 79.551 c 139.168 79.551 139.871 78.691 140.246
 78.066 c 139.512 80.676 l 139.371 81.145 139.09 81.191 138.605 81.191 c
 138.574 81.363 l 140.73 81.363 l 140.762 81.191 l 140.434 81.191 140.059
 81.145 140.184 80.691 c h
140.684 76.191 m 140.684 77.129 139.684 79.035 138.793 79.035 c 138.527
 79.035 138.309 78.816 138.309 78.348 c 138.309 77.254 139.324 75.551 140.152
 75.551 c 140.48 75.551 140.684 75.832 140.684 76.191 c h
140.684 76.191 m f
Q q
98.945 42.023 71.898 30 re W n
q
98 42 73 31 re W n
  q
0 g
0.850361 w
0 J
0 j
[] 0.0 d
10 M q 1 0 0 -1 0 0 cm
99.637 -57.117 m 99.637 -42.945 l 170.504 -42.945 l 170.504 -71.289 l 99.637
 -71.289 l h
99.637 -57.117 m S Q
  Q
Q
0 g
127.957 59.602 m 127.832 59.602 127.785 59.602 127.754 59.602 c 127.441
 59.602 127.348 59.508 127.348 59.102 c 127.348 54.008 l 127.316 53.992 
l 126.895 54.133 126.582 54.227 125.988 54.383 c 125.988 54.523 l 126.066
 54.523 126.113 54.523 126.191 54.523 c 126.52 54.523 126.598 54.617 126.598
 54.977 c 126.598 56.383 l 126.254 56.086 126.02 55.992 125.66 55.992 c 
124.629 55.992 123.785 57.008 123.785 58.273 c 123.785 59.43 124.457 60.211
 125.457 60.211 c 125.957 60.211 126.301 60.023 126.598 59.602 c 126.598
 60.18 l 126.629 60.211 l 127.957 59.742 l h
126.598 59.195 m 126.598 59.258 126.535 59.367 126.441 59.477 c 126.301
 59.648 126.066 59.742 125.801 59.742 c 125.051 59.742 124.566 59.023 124.566
 57.914 c 124.566 56.914 125.004 56.242 125.691 56.242 c 126.176 56.242 
126.598 56.664 126.598 57.133 c h
126.598 59.195 m f
131.645 58.648 m 131.223 59.32 130.832 59.586 130.254 59.586 c 129.754 
59.586 129.363 59.32 129.098 58.82 c 128.941 58.477 128.879 58.195 128.863
 57.633 c 131.613 57.633 l 131.551 57.055 131.457 56.789 131.238 56.508 
c 130.973 56.18 130.551 55.992 130.082 55.992 c 129.645 55.992 129.223 56.148
 128.879 56.461 c 128.457 56.82 128.207 57.461 128.207 58.195 c 128.207 
59.43 128.863 60.211 129.895 60.211 c 130.738 60.211 131.41 59.68 131.785
 58.711 c h
128.879 57.352 m 128.973 56.648 129.285 56.32 129.832 56.32 c 130.379 56.32
 130.582 56.57 130.707 57.352 c h
128.879 57.352 m f
135.992 56.086 m 134.742 56.086 l 134.742 56.211 l 135.023 56.242 135.164
 56.336 135.164 56.508 c 135.164 56.586 135.148 56.68 135.117 56.773 c 134.227
 59.102 l 133.305 56.805 l 133.258 56.68 133.227 56.555 133.227 56.461 c
 133.227 56.305 133.32 56.242 133.633 56.211 c 133.633 56.086 l 131.883 
56.086 l 131.883 56.211 l 132.227 56.227 132.289 56.32 132.695 57.242 c 
133.773 59.82 l 133.789 59.883 133.82 59.945 133.852 60.008 c 133.867 60.086
 133.898 60.148 133.93 60.195 c 133.945 60.227 133.977 60.242 134.008 60.242
 c 134.055 60.242 134.117 60.133 134.258 59.789 c 135.398 56.914 l 135.664
 56.305 135.727 56.242 135.992 56.211 c h
135.992 56.086 m f
136.289 60.117 m 138.414 60.117 l 138.414 59.977 l 137.82 59.945 137.758
 59.852 137.758 59.195 c 137.758 56.023 l 137.711 55.992 l 136.32 56.492
 l 136.32 56.617 l 136.398 56.617 l 136.508 56.586 136.617 56.586 136.711
 56.586 c 136.914 56.586 137.008 56.727 137.008 57.117 c 137.008 59.195 
l 136.977 59.867 136.898 59.961 136.289 59.977 c h
137.289 53.992 m 137.055 53.992 136.852 54.195 136.852 54.445 c 136.852
 54.711 137.039 54.914 137.289 54.914 c 137.57 54.914 137.758 54.711 137.758
 54.445 c 137.758 54.195 137.555 53.992 137.289 53.992 c h
137.289 53.992 m f
142.23 58.711 m 141.809 59.352 141.48 59.555 140.98 59.555 c 140.152 59.555
 139.59 58.836 139.59 57.805 c 139.59 56.883 140.074 56.258 140.809 56.258
 c 141.121 56.258 141.246 56.336 141.324 56.68 c 141.387 56.883 l 141.465
 57.133 141.621 57.289 141.809 57.289 c 142.043 57.289 142.23 57.117 142.23
 56.914 c 142.23 56.414 141.605 55.992 140.855 55.992 c 140.418 55.992 139.965
 56.164 139.59 56.492 c 139.137 56.883 138.887 57.492 138.887 58.211 c 138.887
 59.367 139.605 60.211 140.59 60.211 c 140.996 60.211 141.355 60.07 141.684
 59.789 c 141.918 59.586 142.09 59.32 142.355 58.805 c h
142.23 58.711 m f
146.285 58.648 m 145.863 59.32 145.473 59.586 144.895 59.586 c 144.395 
59.586 144.004 59.32 143.738 58.82 c 143.582 58.477 143.52 58.195 143.504
 57.633 c 146.254 57.633 l 146.191 57.055 146.098 56.789 145.879 56.508 
c 145.613 56.18 145.191 55.992 144.723 55.992 c 144.285 55.992 143.863 56.148
 143.52 56.461 c 143.098 56.82 142.848 57.461 142.848 58.195 c 142.848 59.43
 143.504 60.211 144.535 60.211 c 145.379 60.211 146.051 59.68 146.426 58.711
 c h
143.52 57.352 m 143.613 56.648 143.926 56.32 144.473 56.32 c 145.02 56.32
 145.223 56.57 145.348 57.352 c h
143.52 57.352 m f
Q q
0 g
136.953 39.707 m 135.07 34.441 l 133.191 39.707 l 135.07 37.602 l f
1.13366 w
0 J
0 j
[] 0.0 d
10 M q 1 0 0 -1 0 0 cm
135.07 -51.449 m 135.07 -37.602 l S Q
141.621 45.598 m 140.965 45.598 l 140.824 46.145 l 140.668 45.723 140.387
 45.598 140.09 45.598 c 138.98 45.598 137.543 47.285 137.543 48.629 c 137.543
 49.316 137.871 49.785 138.402 49.785 c 139.168 49.785 139.871 48.926 140.246
 48.301 c 139.512 50.91 l 139.371 51.379 139.09 51.426 138.605 51.426 c 
138.574 51.598 l 140.73 51.598 l 140.762 51.426 l 140.434 51.426 140.059
 51.379 140.184 50.926 c h
140.684 46.426 m 140.684 47.363 139.684 49.27 138.793 49.27 c 138.527 49.27
 138.309 49.051 138.309 48.582 c 138.309 47.488 139.324 45.785 140.152 45.785
 c 140.48 45.785 140.684 46.066 140.684 46.426 c h
140.684 46.426 m f
0.850361 w
q 1 0 0 -1 0 0 cm
113.812 -21.684 m 113.812 -0.426 l 156.332 -0.426 l 156.332 -42.945 l 113.812
 -42.945 l h
113.812 -21.684 m S Q
130.117 19.574 m 130.117 19.699 l 130.414 19.762 130.508 19.824 130.508
 19.98 c 130.508 20.121 130.461 20.324 130.352 20.574 c 129.555 22.559 l
 128.789 20.559 l 128.648 20.137 128.648 20.137 128.648 20.027 c 128.648
 19.824 128.742 19.762 129.164 19.699 c 129.164 19.574 l 127.336 19.574 
l 127.336 19.699 l 127.68 19.746 127.789 19.84 127.961 20.324 c 128.008 
20.449 128.086 20.668 128.133 20.824 c 127.32 22.605 l 126.43 20.262 l 126.398
 20.184 126.383 20.09 126.383 19.996 c 126.383 19.809 126.477 19.746 126.789
 19.699 c 126.789 19.574 l 125.18 19.574 l 125.18 19.699 l 125.383 19.715
 125.461 19.809 125.648 20.262 c 126.867 23.34 l 126.977 23.621 127.039 
23.73 127.102 23.73 c 127.148 23.73 127.211 23.621 127.32 23.387 c 128.336
 21.23 l 129.148 23.34 l 129.273 23.684 129.305 23.73 129.367 23.73 c 129.43
 23.73 129.461 23.652 129.617 23.293 c 130.852 20.184 l 131.008 19.809 131.039
 19.762 131.211 19.699 c 131.211 19.574 l h
130.117 19.574 m f
135.32 23.012 m 135.164 23.137 135.055 23.184 134.914 23.184 c 134.711 
23.184 134.648 23.059 134.648 22.668 c 134.648 20.918 l 134.648 20.449 134.602
 20.184 134.477 19.98 c 134.273 19.652 133.883 19.48 133.367 19.48 c 132.523
 19.48 131.852 19.918 131.852 20.48 c 131.852 20.684 132.023 20.871 132.242
 20.871 c 132.461 20.871 132.648 20.684 132.648 20.496 c 132.648 20.465 
132.633 20.418 132.633 20.355 c 132.602 20.262 132.602 20.199 132.602 20.137
 c 132.602 19.887 132.883 19.699 133.242 19.699 c 133.68 19.699 133.93 19.949
 133.93 20.434 c 133.93 20.98 l 132.555 21.527 132.398 21.621 132.008 21.949
 c 131.805 22.137 131.68 22.434 131.68 22.73 c 131.68 23.293 132.07 23.699
 132.633 23.699 c 133.023 23.699 133.383 23.512 133.93 23.043 c 133.977 
23.512 134.148 23.699 134.508 23.699 c 134.82 23.699 135.008 23.59 135.32
 23.246 c h
133.93 22.496 m 133.93 22.777 133.883 22.871 133.695 22.98 c 133.461 23.105
 133.227 23.168 133.039 23.168 c 132.727 23.168 132.477 22.871 132.477 22.48
 c 132.477 22.449 l 132.477 21.918 132.883 21.574 133.93 21.199 c h
133.93 22.496 m f
135.359 23.605 m 137.516 23.605 l 137.516 23.465 l 136.906 23.449 136.766
 23.324 136.75 22.793 c 136.75 20.777 l 136.75 20.496 137.125 20.043 137.375
 20.043 c 137.422 20.043 137.516 20.09 137.609 20.184 c 137.75 20.309 137.844
 20.355 137.969 20.355 c 138.188 20.355 138.312 20.199 138.312 19.949 c 
138.312 19.652 138.125 19.48 137.828 19.48 c 137.453 19.48 137.203 19.684
 136.75 20.324 c 136.75 19.496 l 136.703 19.48 l 136.203 19.684 135.875 
19.809 135.375 19.965 c 135.375 20.105 l 135.5 20.074 135.578 20.074 135.688
 20.074 c 135.906 20.074 136 20.215 136 20.605 c 136 22.855 l 135.969 23.324
 135.922 23.371 135.359 23.465 c h
135.359 23.605 m f
138.453 23.605 m 140.453 23.605 l 140.453 23.465 l 139.984 23.465 139.844
 23.371 139.844 23.012 c 139.844 20.48 l 139.844 20.465 139.906 20.371 139.969
 20.309 c 140.203 20.105 140.578 19.949 140.891 19.949 c 141.297 19.949 
141.484 20.262 141.484 20.887 c 141.484 22.84 l 141.469 23.34 141.375 23.449
 140.875 23.465 c 140.875 23.605 l 142.891 23.605 l 142.891 23.465 l 142.391
 23.465 142.266 23.324 142.234 22.746 c 142.234 20.496 l 142.516 20.105 
142.797 19.949 143.219 19.949 c 143.734 19.949 143.891 20.184 143.891 20.934
 c 143.891 22.824 l 143.875 23.355 143.812 23.418 143.297 23.465 c 143.297
 23.605 l 145.266 23.605 l 145.266 23.465 l 145.031 23.449 l 144.75 23.402
 144.641 23.277 144.641 22.918 c 144.641 21.074 l 144.641 20.012 144.297
 19.48 143.609 19.48 c 143.078 19.48 142.625 19.715 142.141 20.23 c 141.984
 19.715 141.672 19.48 141.188 19.48 c 140.781 19.48 140.547 19.59 139.797
 20.168 c 139.797 19.496 l 139.734 19.48 l 139.266 19.652 138.953 19.746
 138.484 19.887 c 138.484 20.043 l 138.594 20.012 138.672 19.996 138.766
 19.996 c 139 19.996 139.078 20.137 139.078 20.574 c 139.078 22.84 l 139.062
 23.34 138.953 23.465 138.453 23.465 c h
138.453 23.605 m f
Q Q
showpage
%%Trailer
end
%%EOF
