%!PS-Adobe-3.0 EPSF-3.0
%%Creator: cairo 1.17.4 (https://cairographics.org)
%%CreationDate: Thu Feb 24 10:47:38 2022
%%Pages: 1
%%DocumentData: Clean7Bit
%%LanguageLevel: 2
%%BoundingBox: 0 0 358 106
%%EndComments
%%BeginProlog
50 dict begin
/q { gsave } bind def
/Q { grestore } bind def
/cm { 6 array astore concat } bind def
/w { setlinewidth } bind def
/J { setlinecap } bind def
/j { setlinejoin } bind def
/M { setmiterlimit } bind def
/d { setdash } bind def
/m { moveto } bind def
/l { lineto } bind def
/c { curveto } bind def
/h { closepath } bind def
/re { exch dup neg 3 1 roll 5 3 roll moveto 0 rlineto
      0 exch rlineto 0 rlineto closepath } bind def
/S { stroke } bind def
/f { fill } bind def
/f* { eofill } bind def
/n { newpath } bind def
/W { clip } bind def
/W* { eoclip } bind def
/BT { } bind def
/ET { } bind def
/BDC { mark 3 1 roll /BDC pdfmark } bind def
/EMC { mark /EMC pdfmark } bind def
/cairo_store_point { /cairo_point_y exch def /cairo_point_x exch def } def
/Tj { show currentpoint cairo_store_point } bind def
/TJ {
  {
    dup
    type /stringtype eq
    { show } { -0.001 mul 0 cairo_font_matrix dtransform rmoveto } ifelse
  } forall
  currentpoint cairo_store_point
} bind def
/cairo_selectfont { cairo_font_matrix aload pop pop pop 0 0 6 array astore
    cairo_font exch selectfont cairo_point_x cairo_point_y moveto } bind def
/Tf { pop /cairo_font exch def /cairo_font_matrix where
      { pop cairo_selectfont } if } bind def
/Td { matrix translate cairo_font_matrix matrix concatmatrix dup
      /cairo_font_matrix exch def dup 4 get exch 5 get cairo_store_point
      /cairo_font where { pop cairo_selectfont } if } bind def
/Tm { 2 copy 8 2 roll 6 array astore /cairo_font_matrix exch def
      cairo_store_point /cairo_font where { pop cairo_selectfont } if } bind def
/g { setgray } bind def
/rg { setrgbcolor } bind def
/d1 { setcachedevice } bind def
/cairo_data_source {
  CairoDataIndex CairoData length lt
    { CairoData CairoDataIndex get /CairoDataIndex CairoDataIndex 1 add def }
    { () } ifelse
} def
/cairo_flush_ascii85_file { cairo_ascii85_file status { cairo_ascii85_file flushfile } if } def
/cairo_image { image cairo_flush_ascii85_file } def
/cairo_imagemask { imagemask cairo_flush_ascii85_file } def
%%EndProlog
%%BeginSetup
%%EndSetup
%%Page: 1 1
%%BeginPageSetup
%%PageBoundingBox: 0 0 358 106
%%EndPageSetup
q 0 0 358 106 rectclip
1 0 0 -1 0 106 cm q
0 g
5.734 93.246 m 5.734 92.199 l 5.609 92.199 l 1.516 92.199 0.531 91.48 0.156
 90.527 c 0 90.527 l 0.328 91.465 0.984 93.246 4.891 93.246 c h
5.734 93.246 m f
5.629 92.176 27 1.078 re f
38.297 94.934 m 37.953 93.996 37.312 92.199 33.391 92.199 c 32.547 92.199
 l 32.547 93.246 l 32.672 93.246 l 36.781 93.246 37.75 93.965 38.141 94.934
 c h
38.297 94.934 m f
44.016 93.246 m 44.016 92.199 l 43.172 92.199 l 39.266 92.199 38.609 93.996
 38.281 94.934 c 38.438 94.934 l 38.812 93.965 39.797 93.246 43.891 93.246
 c h
44.016 93.246 m f
43.906 92.176 27 1.078 re f
76.578 90.527 m 76.422 90.527 l 76.031 91.48 75.062 92.199 70.953 92.199
 c 70.828 92.199 l 70.828 93.246 l 71.672 93.246 l 75.594 93.246 76.234 
91.465 76.578 90.527 c h
76.578 90.527 m f
36 97.863 m 35.344 98.301 35.078 98.52 34.734 98.941 c 34.109 99.723 33.797
 100.613 33.797 101.66 c 33.797 102.816 34.125 103.691 34.906 104.598 c 
35.281 105.035 35.516 105.223 35.984 105.52 c 36.078 105.363 l 35.375 104.801
 35.125 104.488 34.875 103.816 c 34.656 103.223 34.562 102.551 34.562 101.645
 c 34.562 100.691 34.672 99.957 34.922 99.41 c 35.172 98.848 35.438 98.52
 36.078 98.004 c h
36 97.863 m f
40.328 103.332 m 40.172 103.457 40.062 103.504 39.922 103.504 c 39.719 
103.504 39.656 103.379 39.656 102.988 c 39.656 101.238 l 39.656 100.77 39.609
 100.504 39.484 100.301 c 39.281 99.973 38.891 99.801 38.375 99.801 c 37.531
 99.801 36.859 100.238 36.859 100.801 c 36.859 101.004 37.031 101.191 37.25
 101.191 c 37.469 101.191 37.656 101.004 37.656 100.816 c 37.656 100.785
 37.641 100.738 37.641 100.676 c 37.609 100.582 37.609 100.52 37.609 100.457
 c 37.609 100.207 37.891 100.02 38.25 100.02 c 38.688 100.02 38.938 100.27
 38.938 100.754 c 38.938 101.301 l 37.562 101.848 37.406 101.941 37.016 
102.27 c 36.812 102.457 36.688 102.754 36.688 103.051 c 36.688 103.613 37.078
 104.02 37.641 104.02 c 38.031 104.02 38.391 103.832 38.938 103.363 c 38.984
 103.832 39.156 104.02 39.516 104.02 c 39.828 104.02 40.016 103.91 40.328
 103.566 c h
38.938 102.816 m 38.938 103.098 38.891 103.191 38.703 103.301 c 38.469 
103.426 38.234 103.488 38.047 103.488 c 37.734 103.488 37.484 103.191 37.484
 102.801 c 37.484 102.77 l 37.484 102.238 37.891 101.895 38.938 101.52 c
 h
38.938 102.816 m f
40.664 105.52 m 41.32 105.066 41.602 104.848 41.93 104.441 c 42.57 103.66
 42.883 102.754 42.883 101.707 c 42.883 100.566 42.539 99.691 41.758 98.785
 c 41.383 98.348 41.148 98.145 40.695 97.863 c 40.586 98.004 l 41.305 98.566
 41.539 98.879 41.789 99.551 c 42.008 100.16 42.102 100.832 42.102 101.738
 c 42.102 102.676 41.992 103.41 41.742 103.957 c 41.508 104.52 41.227 104.848
 40.586 105.363 c h
40.664 105.52 m f
0.850361 w
0 J
0 j
[] 0.0 d
10 M q 1 0 0 -1 0 0 cm
2.848 -40.977 m 2.848 -26.801 l 31.195 -26.801 l 31.195 -55.148 l 2.848
 -55.148 l h
2.848 -40.977 m S Q
18.902 17.895 m 17.02 12.629 l 15.141 17.895 l 17.02 15.789 l f
1.13366 w
q 1 0 0 -1 0 0 cm
17.02 -33.891 m 17.02 -15.789 l S Q
24.391 20.898 m 24.391 19.961 23.844 19.555 23.312 19.336 c 23.891 18.898
 24.078 18.492 24.078 18.008 c 24.078 17.492 23.656 16.82 22.688 16.82 c
 21.984 16.82 21.312 17.211 21.016 18.18 c 21.156 18.211 l 21.344 17.852
 21.703 17.398 22.359 17.398 c 23 17.398 23.375 17.836 23.375 18.336 c 23.375
 19.039 22.828 19.539 22.016 19.727 c 22 19.914 l 23.391 19.852 23.734 20.758
 23.734 21.32 c 23.734 21.992 23.25 22.602 22.609 22.602 c 22.031 22.602
 21.781 22.102 21.297 22.102 c 21.141 22.102 20.953 22.258 20.953 22.461
 c 20.953 22.836 21.516 22.945 21.922 22.945 c 23.344 22.945 24.391 22.133
 24.391 20.898 c h
24.391 20.898 m f
18.633 0 m 13.617 0 l 13.195 1.531 l 13.367 1.531 l 13.742 0.547 14.211
 0.328 14.992 0.328 c 14.992 0.328 15.508 0.328 15.617 0.328 c 14.32 5 l
 14.07 5.906 13.758 5.891 13.398 5.891 c 13.383 6.047 l 15.742 6.047 l 15.773
 5.891 l 15.43 5.891 15.086 5.906 15.086 5.453 c 15.086 5.328 15.117 5.188
 15.164 5 c 16.445 0.328 l 17.195 0.328 l 17.633 0.328 18.102 0.391 18.102
 1.016 c 18.102 1.156 18.086 1.312 18.039 1.531 c 18.211 1.531 l h
18.633 0 m f
21.012 8.219 m 20.637 8.156 20.605 8.109 20.59 7.625 c 20.59 6.234 l 20.59
 5.5 20.309 5.125 19.746 5.125 c 19.324 5.125 19.043 5.297 18.715 5.703 
c 18.715 3.594 l 18.684 3.562 l 18.434 3.656 18.262 3.703 17.887 3.812 c
 17.684 3.875 l 17.684 3.984 l 17.715 3.984 17.73 3.984 17.777 3.984 c 18.074
 3.984 18.137 4.031 18.137 4.328 c 18.137 7.625 l 18.121 8.125 18.074 8.172
 17.684 8.219 c 17.684 8.328 l 19.184 8.328 l 19.184 8.219 l 18.777 8.188
 18.73 8.109 18.715 7.625 c 18.715 5.938 l 19.012 5.625 19.215 5.5 19.496
 5.5 c 19.84 5.5 20.012 5.75 20.012 6.234 c 20.012 7.625 l 19.996 8.109 
19.934 8.188 19.543 8.219 c 19.543 8.328 l 21.012 8.328 l h
21.012 8.219 m f
18.902 53.328 m 17.02 48.062 l 15.141 53.328 l 17.02 51.223 l f
q 1 0 0 -1 0 0 cm
17.02 -69.324 m 17.02 -51.223 l S Q
24.391 63.418 m 24.391 62.48 23.844 62.074 23.312 61.855 c 23.891 61.418
 24.078 61.012 24.078 60.527 c 24.078 60.012 23.656 59.34 22.688 59.34 c
 21.984 59.34 21.312 59.73 21.016 60.699 c 21.156 60.73 l 21.344 60.371 
21.703 59.918 22.359 59.918 c 23 59.918 23.375 60.355 23.375 60.855 c 23.375
 61.559 22.828 62.059 22.016 62.246 c 22 62.434 l 23.391 62.371 23.734 63.277
 23.734 63.84 c 23.734 64.512 23.25 65.121 22.609 65.121 c 22.031 65.121
 21.781 64.621 21.297 64.621 c 21.141 64.621 20.953 64.777 20.953 64.98 
c 20.953 65.355 21.516 65.465 21.922 65.465 c 23.344 65.465 24.391 64.652
 24.391 63.418 c h
24.391 63.418 m f
18.871 73.699 m 13.855 73.699 l 13.434 75.23 l 13.605 75.23 l 13.98 74.246
 14.449 74.027 15.23 74.027 c 15.23 74.027 15.746 74.027 15.855 74.027 c
 14.559 78.699 l 14.309 79.605 13.996 79.59 13.637 79.59 c 13.621 79.746
 l 15.98 79.746 l 16.012 79.59 l 15.668 79.59 15.324 79.605 15.324 79.152
 c 15.324 79.027 15.355 78.887 15.402 78.699 c 16.684 74.027 l 17.434 74.027
 l 17.871 74.027 18.34 74.09 18.34 74.715 c 18.34 74.855 18.324 75.012 18.277
 75.23 c 18.449 75.23 l h
18.871 73.699 m f
20.641 80.934 m 20.297 81.434 20.047 81.59 19.656 81.59 c 19.016 81.59 
18.562 81.043 18.562 80.23 c 18.562 79.512 18.953 79.027 19.516 79.027 c
 19.766 79.027 19.859 79.09 19.922 79.355 c 19.969 79.512 l 20.031 79.715
 20.156 79.84 20.312 79.84 c 20.484 79.84 20.641 79.699 20.641 79.543 c 
20.641 79.152 20.141 78.824 19.562 78.824 c 19.219 78.824 18.859 78.965 
18.578 79.215 c 18.234 79.512 18.031 79.996 18.031 80.543 c 18.031 81.449
 18.578 82.09 19.359 82.09 c 19.672 82.09 19.953 81.98 20.203 81.762 c 20.391
 81.605 20.516 81.418 20.734 80.996 c h
20.641 80.934 m f
0.850361 w
q 1 0 0 -1 0 0 cm
45.367 -40.977 m 45.367 -26.801 l 73.715 -26.801 l 73.715 -55.148 l 45.367
 -55.148 l h
45.367 -40.977 m S Q
57.66 28.625 m 59.539 33.891 l 61.422 28.625 l 59.539 30.73 l f
1.13366 w
q 1 0 0 -1 0 0 cm
59.539 -30.73 m 59.539 -12.629 l S Q
67.27 21.352 m 67.27 20.742 l 66.395 20.742 l 66.395 16.82 l 65.957 16.82
 l 63.363 20.727 l 63.363 21.352 l 65.66 21.352 l 65.66 22.836 l 66.395 
22.836 l 66.395 21.352 l h
65.66 20.742 m 63.723 20.742 l 65.645 17.758 l 65.66 17.758 l h
65.66 20.742 m f
61.152 0 m 56.137 0 l 55.715 1.531 l 55.887 1.531 l 56.262 0.547 56.73 
0.328 57.512 0.328 c 57.512 0.328 58.027 0.328 58.137 0.328 c 56.84 5 l 
56.59 5.906 56.277 5.891 55.918 5.891 c 55.902 6.047 l 58.262 6.047 l 58.293
 5.891 l 57.949 5.891 57.605 5.906 57.605 5.453 c 57.605 5.328 57.637 5.188
 57.684 5 c 58.965 0.328 l 59.715 0.328 l 60.152 0.328 60.621 0.391 60.621
 1.016 c 60.621 1.156 60.605 1.312 60.559 1.531 c 60.73 1.531 l h
61.152 0 m f
63.531 8.219 m 63.156 8.156 63.125 8.109 63.109 7.625 c 63.109 6.234 l 
63.109 5.5 62.828 5.125 62.266 5.125 c 61.844 5.125 61.562 5.297 61.234 
5.703 c 61.234 3.594 l 61.203 3.562 l 60.953 3.656 60.781 3.703 60.406 3.812
 c 60.203 3.875 l 60.203 3.984 l 60.234 3.984 60.25 3.984 60.297 3.984 c
 60.594 3.984 60.656 4.031 60.656 4.328 c 60.656 7.625 l 60.641 8.125 60.594
 8.172 60.203 8.219 c 60.203 8.328 l 61.703 8.328 l 61.703 8.219 l 61.297
 8.188 61.25 8.109 61.234 7.625 c 61.234 5.938 l 61.531 5.625 61.734 5.5
 62.016 5.5 c 62.359 5.5 62.531 5.75 62.531 6.234 c 62.531 7.625 l 62.516
 8.109 62.453 8.188 62.062 8.219 c 62.062 8.328 l 63.531 8.328 l h
63.531 8.219 m f
82.621 42.855 m 87.887 40.977 l 82.621 39.094 l 84.727 40.977 l f
q 1 0 0 -1 0 0 cm
66.625 -40.977 m 84.727 -40.977 l S Q
82.004 50.457 m 82.004 50.316 l 81.41 50.316 81.191 50.332 81.191 49.16
 c 81.191 49.145 81.191 44.41 81.191 44.41 c 81.066 44.41 l 79.535 45.145
 l 79.582 45.285 l 79.91 45.145 79.988 45.113 80.113 45.113 c 80.379 45.113
 80.426 45.348 80.426 45.66 c 80.426 49.16 l 80.426 50.332 80.207 50.301
 79.613 50.316 c 79.613 50.457 l h
82.004 50.457 m f
57.66 64.055 m 59.539 69.324 l 61.422 64.055 l 59.539 66.164 l f
q 1 0 0 -1 0 0 cm
59.539 -66.164 m 59.539 -48.062 l S Q
66.91 63.418 m 66.91 62.48 66.363 62.074 65.832 61.855 c 66.41 61.418 66.598
 61.012 66.598 60.527 c 66.598 60.012 66.176 59.34 65.207 59.34 c 64.504
 59.34 63.832 59.73 63.535 60.699 c 63.676 60.73 l 63.863 60.371 64.223 
59.918 64.879 59.918 c 65.52 59.918 65.895 60.355 65.895 60.855 c 65.895
 61.559 65.348 62.059 64.535 62.246 c 64.52 62.434 l 65.91 62.371 66.254
 63.277 66.254 63.84 c 66.254 64.512 65.77 65.121 65.129 65.121 c 64.551
 65.121 64.301 64.621 63.816 64.621 c 63.66 64.621 63.473 64.777 63.473 
64.98 c 63.473 65.355 64.035 65.465 64.441 65.465 c 65.863 65.465 66.91 
64.652 66.91 63.418 c h
66.91 63.418 m f
61.391 73.699 m 56.375 73.699 l 55.953 75.23 l 56.125 75.23 l 56.5 74.246
 56.969 74.027 57.75 74.027 c 57.75 74.027 58.266 74.027 58.375 74.027 c
 57.078 78.699 l 56.828 79.605 56.516 79.59 56.156 79.59 c 56.141 79.746
 l 58.5 79.746 l 58.531 79.59 l 58.188 79.59 57.844 79.605 57.844 79.152
 c 57.844 79.027 57.875 78.887 57.922 78.699 c 59.203 74.027 l 59.953 74.027
 l 60.391 74.027 60.859 74.09 60.859 74.715 c 60.859 74.855 60.844 75.012
 60.797 75.23 c 60.969 75.23 l h
61.391 73.699 m f
63.16 80.934 m 62.816 81.434 62.566 81.59 62.176 81.59 c 61.535 81.59 61.082
 81.043 61.082 80.23 c 61.082 79.512 61.473 79.027 62.035 79.027 c 62.285
 79.027 62.379 79.09 62.441 79.355 c 62.488 79.512 l 62.551 79.715 62.676
 79.84 62.832 79.84 c 63.004 79.84 63.16 79.699 63.16 79.543 c 63.16 79.152
 62.66 78.824 62.082 78.824 c 61.738 78.824 61.379 78.965 61.098 79.215 
c 60.754 79.512 60.551 79.996 60.551 80.543 c 60.551 81.449 61.098 82.09
 61.879 82.09 c 62.191 82.09 62.473 81.98 62.723 81.762 c 62.91 81.605 63.035
 81.418 63.254 80.996 c h
63.16 80.934 m f
134.855 98.141 m 134.199 98.578 133.934 98.797 133.59 99.219 c 132.965 
100 132.652 100.891 132.652 101.938 c 132.652 103.094 132.98 103.969 133.762
 104.875 c 134.137 105.312 134.371 105.5 134.84 105.797 c 134.934 105.641
 l 134.23 105.078 133.98 104.766 133.73 104.094 c 133.512 103.5 133.418 
102.828 133.418 101.922 c 133.418 100.969 133.527 100.234 133.777 99.688
 c 134.027 99.125 134.293 98.797 134.934 98.281 c h
134.855 98.141 m f
136.59 98.094 m 136.543 98.078 l 136.168 98.203 135.934 98.281 135.496 
98.406 c 135.246 98.469 l 135.246 98.609 l 135.293 98.609 135.324 98.609
 135.387 98.609 c 135.746 98.609 135.84 98.688 135.84 99.062 c 135.84 103.719
 l 135.84 104 136.59 104.297 137.309 104.297 c 138.496 104.297 139.418 103.312
 139.418 102.031 c 139.418 100.906 138.73 100.078 137.84 100.078 c 137.293
 100.078 136.762 100.391 136.59 100.844 c h
136.59 101.312 m 136.59 100.969 137.012 100.641 137.48 100.641 c 137.73
 100.641 137.949 100.734 138.137 100.906 c 138.418 101.188 138.621 101.797
 138.621 102.438 c 138.621 103.438 138.199 104 137.465 104 c 136.996 104
 136.59 103.812 136.59 103.578 c h
136.59 101.312 m f
139.996 105.797 m 140.652 105.344 140.934 105.125 141.262 104.719 c 141.902
 103.938 142.215 103.031 142.215 101.984 c 142.215 100.844 141.871 99.969
 141.09 99.062 c 140.715 98.625 140.48 98.422 140.027 98.141 c 139.918 98.281
 l 140.637 98.844 140.871 99.156 141.121 99.828 c 141.34 100.438 141.434
 101.109 141.434 102.016 c 141.434 102.953 141.324 103.688 141.074 104.234
 c 140.84 104.797 140.559 105.125 139.918 105.641 c h
139.996 105.797 m f
0.850361 w
q 1 0 0 -1 0 0 cm
123.32 -40.977 m 123.32 -26.801 l 151.668 -26.801 l 151.668 -55.148 l 123.32
 -55.148 l h
123.32 -40.977 m S Q
135.613 28.625 m 137.492 33.891 l 139.375 28.625 l 137.492 30.73 l f
1.13366 w
q 1 0 0 -1 0 0 cm
137.492 -30.73 m 137.492 -12.629 l S Q
144.457 22.836 m 144.457 22.695 l 143.863 22.695 143.645 22.711 143.645
 21.539 c 143.645 21.523 143.645 16.789 143.645 16.789 c 143.52 16.789 l
 141.988 17.523 l 142.035 17.664 l 142.363 17.523 142.441 17.492 142.566
 17.492 c 142.832 17.492 142.879 17.727 142.879 18.039 c 142.879 21.539 
l 142.879 22.711 142.66 22.68 142.066 22.695 c 142.066 22.836 l h
144.457 22.836 m f
139.105 0 m 134.09 0 l 133.668 1.531 l 133.84 1.531 l 134.215 0.547 134.684
 0.328 135.465 0.328 c 135.465 0.328 135.98 0.328 136.09 0.328 c 134.793
 5 l 134.543 5.906 134.23 5.891 133.871 5.891 c 133.855 6.047 l 136.215 
6.047 l 136.246 5.891 l 135.902 5.891 135.559 5.906 135.559 5.453 c 135.559
 5.328 135.59 5.188 135.637 5 c 136.918 0.328 l 137.668 0.328 l 138.105 
0.328 138.574 0.391 138.574 1.016 c 138.574 1.156 138.559 1.312 138.512 
1.531 c 138.684 1.531 l h
139.105 0 m f
141.484 8.219 m 141.109 8.156 141.078 8.109 141.062 7.625 c 141.062 6.234
 l 141.062 5.5 140.781 5.125 140.219 5.125 c 139.797 5.125 139.516 5.297
 139.188 5.703 c 139.188 3.594 l 139.156 3.562 l 138.906 3.656 138.734 3.703
 138.359 3.812 c 138.156 3.875 l 138.156 3.984 l 138.188 3.984 138.203 3.984
 138.25 3.984 c 138.547 3.984 138.609 4.031 138.609 4.328 c 138.609 7.625
 l 138.594 8.125 138.547 8.172 138.156 8.219 c 138.156 8.328 l 139.656 8.328
 l 139.656 8.219 l 139.25 8.188 139.203 8.109 139.188 7.625 c 139.188 5.938
 l 139.484 5.625 139.688 5.5 139.969 5.5 c 140.312 5.5 140.484 5.75 140.484
 6.234 c 140.484 7.625 l 140.469 8.109 140.406 8.188 140.016 8.219 c 140.016
 8.328 l 141.484 8.328 l h
141.484 8.219 m f
160.57 42.855 m 165.84 40.977 l 160.57 39.094 l 162.68 40.977 l f
q 1 0 0 -1 0 0 cm
144.578 -40.977 m 162.68 -40.977 l S Q
159.957 50.457 m 159.957 50.316 l 159.363 50.316 159.145 50.332 159.145
 49.16 c 159.145 49.145 159.145 44.41 159.145 44.41 c 159.02 44.41 l 157.488
 45.145 l 157.535 45.285 l 157.863 45.145 157.941 45.113 158.066 45.113 
c 158.332 45.113 158.379 45.348 158.379 45.66 c 158.379 49.16 l 158.379 
50.332 158.16 50.301 157.566 50.316 c 157.566 50.457 l h
159.957 50.457 m f
204.164 93.246 m 204.164 92.199 l 204.039 92.199 l 199.945 92.199 198.961
 91.48 198.586 90.527 c 198.43 90.527 l 198.758 91.465 199.414 93.246 203.32
 93.246 c h
204.164 93.246 m f
204.059 92.176 34.078 1.078 re f
243.809 94.934 m 243.465 93.996 242.824 92.199 238.902 92.199 c 238.059
 92.199 l 238.059 93.246 l 238.184 93.246 l 242.293 93.246 243.262 93.965
 243.652 94.934 c h
243.809 94.934 m f
249.527 93.246 m 249.527 92.199 l 248.684 92.199 l 244.777 92.199 244.121
 93.996 243.793 94.934 c 243.949 94.934 l 244.324 93.965 245.309 93.246 
249.402 93.246 c h
249.527 93.246 m f
249.422 92.176 34.078 1.078 re f
289.168 90.527 m 289.012 90.527 l 288.621 91.48 287.652 92.199 283.543 
92.199 c 283.418 92.199 l 283.418 93.246 l 284.262 93.246 l 288.184 93.246
 288.824 91.465 289.168 90.527 c h
289.168 90.527 m f
241.512 97.863 m 240.855 98.301 240.59 98.52 240.246 98.941 c 239.621 99.723
 239.309 100.613 239.309 101.66 c 239.309 102.816 239.637 103.691 240.418
 104.598 c 240.793 105.035 241.027 105.223 241.496 105.52 c 241.59 105.363
 l 240.887 104.801 240.637 104.488 240.387 103.816 c 240.168 103.223 240.074
 102.551 240.074 101.645 c 240.074 100.691 240.184 99.957 240.434 99.41 
c 240.684 98.848 240.949 98.52 241.59 98.004 c h
241.512 97.863 m f
245.434 102.52 m 245.012 103.16 244.684 103.363 244.184 103.363 c 243.355
 103.363 242.793 102.645 242.793 101.613 c 242.793 100.691 243.277 100.066
 244.012 100.066 c 244.324 100.066 244.449 100.145 244.527 100.488 c 244.59
 100.691 l 244.668 100.941 244.824 101.098 245.012 101.098 c 245.246 101.098
 245.434 100.926 245.434 100.723 c 245.434 100.223 244.809 99.801 244.059
 99.801 c 243.621 99.801 243.168 99.973 242.793 100.301 c 242.34 100.691
 242.09 101.301 242.09 102.02 c 242.09 103.176 242.809 104.02 243.793 104.02
 c 244.199 104.02 244.559 103.879 244.887 103.598 c 245.121 103.395 245.293
 103.129 245.559 102.613 c h
245.434 102.52 m f
246.176 105.52 m 246.832 105.066 247.113 104.848 247.441 104.441 c 248.082
 103.66 248.395 102.754 248.395 101.707 c 248.395 100.566 248.051 99.691
 247.27 98.785 c 246.895 98.348 246.66 98.145 246.207 97.863 c 246.098 98.004
 l 246.816 98.566 247.051 98.879 247.301 99.551 c 247.52 100.16 247.613 
100.832 247.613 101.738 c 247.613 102.676 247.504 103.41 247.254 103.957
 c 247.02 104.52 246.738 104.848 246.098 105.363 c h
246.176 105.52 m f
0.850361 w
q 1 0 0 -1 0 0 cm
201.273 -40.977 m 201.273 -26.801 l 229.621 -26.801 l 229.621 -55.148 l
 201.273 -55.148 l h
201.273 -40.977 m S Q
213.562 28.625 m 215.445 33.891 l 217.328 28.625 l 215.445 30.73 l f
1.13366 w
q 1 0 0 -1 0 0 cm
215.445 -30.73 m 215.445 -12.629 l S Q
222.41 22.836 m 222.41 22.695 l 221.816 22.695 221.598 22.711 221.598 21.539
 c 221.598 21.523 221.598 16.789 221.598 16.789 c 221.473 16.789 l 219.941
 17.523 l 219.988 17.664 l 220.316 17.523 220.395 17.492 220.52 17.492 c
 220.785 17.492 220.832 17.727 220.832 18.039 c 220.832 21.539 l 220.832
 22.711 220.613 22.68 220.02 22.695 c 220.02 22.836 l h
222.41 22.836 m f
217.059 0 m 212.043 0 l 211.621 1.531 l 211.793 1.531 l 212.168 0.547 212.637
 0.328 213.418 0.328 c 213.418 0.328 213.934 0.328 214.043 0.328 c 212.746
 5 l 212.496 5.906 212.184 5.891 211.824 5.891 c 211.809 6.047 l 214.168
 6.047 l 214.199 5.891 l 213.855 5.891 213.512 5.906 213.512 5.453 c 213.512
 5.328 213.543 5.188 213.59 5 c 214.871 0.328 l 215.621 0.328 l 216.059 
0.328 216.527 0.391 216.527 1.016 c 216.527 1.156 216.512 1.312 216.465 
1.531 c 216.637 1.531 l h
217.059 0 m f
219.438 8.219 m 219.062 8.156 219.031 8.109 219.016 7.625 c 219.016 6.234
 l 219.016 5.5 218.734 5.125 218.172 5.125 c 217.75 5.125 217.469 5.297 
217.141 5.703 c 217.141 3.594 l 217.109 3.562 l 216.859 3.656 216.688 3.703
 216.312 3.812 c 216.109 3.875 l 216.109 3.984 l 216.141 3.984 216.156 3.984
 216.203 3.984 c 216.5 3.984 216.562 4.031 216.562 4.328 c 216.562 7.625
 l 216.547 8.125 216.5 8.172 216.109 8.219 c 216.109 8.328 l 217.609 8.328
 l 217.609 8.219 l 217.203 8.188 217.156 8.109 217.141 7.625 c 217.141 5.938
 l 217.438 5.625 217.641 5.5 217.922 5.5 c 218.266 5.5 218.438 5.75 218.438
 6.234 c 218.438 7.625 l 218.422 8.109 218.359 8.188 217.969 8.219 c 217.969
 8.328 l 219.438 8.328 l h
219.438 8.219 m f
238.523 42.855 m 243.793 40.977 l 238.523 39.094 l 240.633 40.977 l f
q 1 0 0 -1 0 0 cm
222.531 -40.977 m 240.633 -40.977 l S Q
237.91 50.457 m 237.91 50.316 l 237.316 50.316 237.098 50.332 237.098 49.16
 c 237.098 49.145 237.098 44.41 237.098 44.41 c 236.973 44.41 l 235.441 
45.145 l 235.488 45.285 l 235.816 45.145 235.895 45.113 236.02 45.113 c 
236.285 45.113 236.332 45.348 236.332 45.66 c 236.332 49.16 l 236.332 50.332
 236.113 50.301 235.52 50.316 c 235.52 50.457 l h
237.91 50.457 m f
0.850361 w
q 1 0 0 -1 0 0 cm
257.965 -40.977 m 257.965 -26.801 l 286.312 -26.801 l 286.312 -55.148 l
 257.965 -55.148 l h
257.965 -40.977 m S Q
274.02 17.895 m 272.137 12.629 l 270.258 17.895 l 272.137 15.789 l f
1.13366 w
q 1 0 0 -1 0 0 cm
272.137 -33.891 m 272.137 -15.789 l S Q
279.867 21.352 m 279.867 20.742 l 278.992 20.742 l 278.992 16.82 l 278.555
 16.82 l 275.961 20.727 l 275.961 21.352 l 278.258 21.352 l 278.258 22.836
 l 278.992 22.836 l 278.992 21.352 l h
278.258 20.742 m 276.32 20.742 l 278.242 17.758 l 278.258 17.758 l h
278.258 20.742 m f
273.75 0 m 268.734 0 l 268.312 1.531 l 268.484 1.531 l 268.859 0.547 269.328
 0.328 270.109 0.328 c 270.109 0.328 270.625 0.328 270.734 0.328 c 269.438
 5 l 269.188 5.906 268.875 5.891 268.516 5.891 c 268.5 6.047 l 270.859 6.047
 l 270.891 5.891 l 270.547 5.891 270.203 5.906 270.203 5.453 c 270.203 5.328
 270.234 5.188 270.281 5 c 271.562 0.328 l 272.312 0.328 l 272.75 0.328 
273.219 0.391 273.219 1.016 c 273.219 1.156 273.203 1.312 273.156 1.531 
c 273.328 1.531 l h
273.75 0 m f
276.129 8.219 m 275.754 8.156 275.723 8.109 275.707 7.625 c 275.707 6.234
 l 275.707 5.5 275.426 5.125 274.863 5.125 c 274.441 5.125 274.16 5.297 
273.832 5.703 c 273.832 3.594 l 273.801 3.562 l 273.551 3.656 273.379 3.703
 273.004 3.812 c 272.801 3.875 l 272.801 3.984 l 272.832 3.984 272.848 3.984
 272.895 3.984 c 273.191 3.984 273.254 4.031 273.254 4.328 c 273.254 7.625
 l 273.238 8.125 273.191 8.172 272.801 8.219 c 272.801 8.328 l 274.301 8.328
 l 274.301 8.219 l 273.895 8.188 273.848 8.109 273.832 7.625 c 273.832 5.938
 l 274.129 5.625 274.332 5.5 274.613 5.5 c 274.957 5.5 275.129 5.75 275.129
 6.234 c 275.129 7.625 l 275.113 8.109 275.051 8.188 274.66 8.219 c 274.66
 8.328 l 276.129 8.328 l h
276.129 8.219 m f
262.621 42.855 m 267.887 40.977 l 262.621 39.094 l 264.727 40.977 l f
q 1 0 0 -1 0 0 cm
246.625 -40.977 m 264.727 -40.977 l S Q
252.082 50.457 m 252.082 50.316 l 251.488 50.316 251.27 50.332 251.27 49.16
 c 251.27 49.145 251.27 44.41 251.27 44.41 c 251.145 44.41 l 249.613 45.145
 l 249.66 45.285 l 249.988 45.145 250.066 45.113 250.191 45.113 c 250.457
 45.113 250.504 45.348 250.504 45.66 c 250.504 49.16 l 250.504 50.332 250.285
 50.301 249.691 50.316 c 249.691 50.457 l h
252.082 50.457 m f
274.02 53.328 m 272.137 48.062 l 270.258 53.328 l 272.137 51.223 l f
q 1 0 0 -1 0 0 cm
272.137 -69.324 m 272.137 -51.223 l S Q
279.508 63.418 m 279.508 62.48 278.961 62.074 278.43 61.855 c 279.008 61.418
 279.195 61.012 279.195 60.527 c 279.195 60.012 278.773 59.34 277.805 59.34
 c 277.102 59.34 276.43 59.73 276.133 60.699 c 276.273 60.73 l 276.461 60.371
 276.82 59.918 277.477 59.918 c 278.117 59.918 278.492 60.355 278.492 60.855
 c 278.492 61.559 277.945 62.059 277.133 62.246 c 277.117 62.434 l 278.508
 62.371 278.852 63.277 278.852 63.84 c 278.852 64.512 278.367 65.121 277.727
 65.121 c 277.148 65.121 276.898 64.621 276.414 64.621 c 276.258 64.621 
276.07 64.777 276.07 64.98 c 276.07 65.355 276.633 65.465 277.039 65.465
 c 278.461 65.465 279.508 64.652 279.508 63.418 c h
279.508 63.418 m f
273.988 73.699 m 268.973 73.699 l 268.551 75.23 l 268.723 75.23 l 269.098
 74.246 269.566 74.027 270.348 74.027 c 270.348 74.027 270.863 74.027 270.973
 74.027 c 269.676 78.699 l 269.426 79.605 269.113 79.59 268.754 79.59 c 
268.738 79.746 l 271.098 79.746 l 271.129 79.59 l 270.785 79.59 270.441 
79.605 270.441 79.152 c 270.441 79.027 270.473 78.887 270.52 78.699 c 271.801
 74.027 l 272.551 74.027 l 272.988 74.027 273.457 74.09 273.457 74.715 c
 273.457 74.855 273.441 75.012 273.395 75.23 c 273.566 75.23 l h
273.988 73.699 m f
275.758 80.934 m 275.414 81.434 275.164 81.59 274.773 81.59 c 274.133 81.59
 273.68 81.043 273.68 80.23 c 273.68 79.512 274.07 79.027 274.633 79.027
 c 274.883 79.027 274.977 79.09 275.039 79.355 c 275.086 79.512 l 275.148
 79.715 275.273 79.84 275.43 79.84 c 275.602 79.84 275.758 79.699 275.758
 79.543 c 275.758 79.152 275.258 78.824 274.68 78.824 c 274.336 78.824 273.977
 78.965 273.695 79.215 c 273.352 79.512 273.148 79.996 273.148 80.543 c 
273.148 81.449 273.695 82.09 274.477 82.09 c 274.789 82.09 275.07 81.98 
275.32 81.762 c 275.508 81.605 275.633 81.418 275.852 80.996 c h
275.758 80.934 m f
340.363 98.141 m 339.707 98.578 339.441 98.797 339.098 99.219 c 338.473
 100 338.16 100.891 338.16 101.938 c 338.16 103.094 338.488 103.969 339.27
 104.875 c 339.645 105.312 339.879 105.5 340.348 105.797 c 340.441 105.641
 l 339.738 105.078 339.488 104.766 339.238 104.094 c 339.02 103.5 338.926
 102.828 338.926 101.922 c 338.926 100.969 339.035 100.234 339.285 99.688
 c 339.535 99.125 339.801 98.797 340.441 98.281 c h
340.363 98.141 m f
345.129 103.688 m 345.004 103.688 344.957 103.688 344.926 103.688 c 344.613
 103.688 344.52 103.594 344.52 103.188 c 344.52 98.094 l 344.488 98.078 
l 344.066 98.219 343.754 98.312 343.16 98.469 c 343.16 98.609 l 343.238 
98.609 343.285 98.609 343.363 98.609 c 343.691 98.609 343.77 98.703 343.77
 99.062 c 343.77 100.469 l 343.426 100.172 343.191 100.078 342.832 100.078
 c 341.801 100.078 340.957 101.094 340.957 102.359 c 340.957 103.516 341.629
 104.297 342.629 104.297 c 343.129 104.297 343.473 104.109 343.77 103.688
 c 343.77 104.266 l 343.801 104.297 l 345.129 103.828 l h
343.77 103.281 m 343.77 103.344 343.707 103.453 343.613 103.562 c 343.473
 103.734 343.238 103.828 342.973 103.828 c 342.223 103.828 341.738 103.109
 341.738 102 c 341.738 101 342.176 100.328 342.863 100.328 c 343.348 100.328
 343.77 100.75 343.77 101.219 c h
343.77 103.281 m f
345.508 105.797 m 346.164 105.344 346.445 105.125 346.773 104.719 c 347.414
 103.938 347.727 103.031 347.727 101.984 c 347.727 100.844 347.383 99.969
 346.602 99.062 c 346.227 98.625 345.992 98.422 345.539 98.141 c 345.43 
98.281 l 346.148 98.844 346.383 99.156 346.633 99.828 c 346.852 100.438 
346.945 101.109 346.945 102.016 c 346.945 102.953 346.836 103.688 346.586
 104.234 c 346.352 104.797 346.07 105.125 345.43 105.641 c h
345.508 105.797 m f
Q q
327.867 25.609 29.699 30 re W n
q
327 25 31 31 re W n
  q
0 g
0.850361 w
0 J
0 j
[] 0.0 d
10 M q 1 0 0 -1 0 0 cm
328.832 -40.977 m 328.832 -26.801 l 357.18 -26.801 l 357.18 -55.148 l 328.832
 -55.148 l h
328.832 -40.977 m S Q
  Q
Q
Q q
0 g
344.887 17.895 m 343.004 12.629 l 341.125 17.895 l 343.004 15.789 l f
1.13366 w
0 J
0 j
[] 0.0 d
10 M q 1 0 0 -1 0 0 cm
343.004 -33.891 m 343.004 -15.789 l S Q
350.375 20.898 m 350.375 19.961 349.828 19.555 349.297 19.336 c 349.875
 18.898 350.062 18.492 350.062 18.008 c 350.062 17.492 349.641 16.82 348.672
 16.82 c 347.969 16.82 347.297 17.211 347 18.18 c 347.141 18.211 l 347.328
 17.852 347.688 17.398 348.344 17.398 c 348.984 17.398 349.359 17.836 349.359
 18.336 c 349.359 19.039 348.812 19.539 348 19.727 c 347.984 19.914 l 349.375
 19.852 349.719 20.758 349.719 21.32 c 349.719 21.992 349.234 22.602 348.594
 22.602 c 348.016 22.602 347.766 22.102 347.281 22.102 c 347.125 22.102 
346.938 22.258 346.938 22.461 c 346.938 22.836 347.5 22.945 347.906 22.945
 c 349.328 22.945 350.375 22.133 350.375 20.898 c h
350.375 20.898 m f
344.617 0 m 339.602 0 l 339.18 1.531 l 339.352 1.531 l 339.727 0.547 340.195
 0.328 340.977 0.328 c 340.977 0.328 341.492 0.328 341.602 0.328 c 340.305
 5 l 340.055 5.906 339.742 5.891 339.383 5.891 c 339.367 6.047 l 341.727
 6.047 l 341.758 5.891 l 341.414 5.891 341.07 5.906 341.07 5.453 c 341.07
 5.328 341.102 5.188 341.148 5 c 342.43 0.328 l 343.18 0.328 l 343.617 0.328
 344.086 0.391 344.086 1.016 c 344.086 1.156 344.07 1.312 344.023 1.531 
c 344.195 1.531 l h
344.617 0 m f
346.996 8.219 m 346.621 8.156 346.59 8.109 346.574 7.625 c 346.574 6.234
 l 346.574 5.5 346.293 5.125 345.73 5.125 c 345.309 5.125 345.027 5.297 
344.699 5.703 c 344.699 3.594 l 344.668 3.562 l 344.418 3.656 344.246 3.703
 343.871 3.812 c 343.668 3.875 l 343.668 3.984 l 343.699 3.984 343.715 3.984
 343.762 3.984 c 344.059 3.984 344.121 4.031 344.121 4.328 c 344.121 7.625
 l 344.105 8.125 344.059 8.172 343.668 8.219 c 343.668 8.328 l 345.168 8.328
 l 345.168 8.219 l 344.762 8.188 344.715 8.109 344.699 7.625 c 344.699 5.938
 l 344.996 5.625 345.199 5.5 345.48 5.5 c 345.824 5.5 345.996 5.75 345.996
 6.234 c 345.996 7.625 l 345.98 8.109 345.918 8.188 345.527 8.219 c 345.527
 8.328 l 346.996 8.328 l h
346.996 8.219 m f
344.887 53.328 m 343.004 48.062 l 341.125 53.328 l 343.004 51.223 l f
q 1 0 0 -1 0 0 cm
343.004 -69.324 m 343.004 -51.223 l S Q
350.375 63.418 m 350.375 62.48 349.828 62.074 349.297 61.855 c 349.875 
61.418 350.062 61.012 350.062 60.527 c 350.062 60.012 349.641 59.34 348.672
 59.34 c 347.969 59.34 347.297 59.73 347 60.699 c 347.141 60.73 l 347.328
 60.371 347.688 59.918 348.344 59.918 c 348.984 59.918 349.359 60.355 349.359
 60.855 c 349.359 61.559 348.812 62.059 348 62.246 c 347.984 62.434 l 349.375
 62.371 349.719 63.277 349.719 63.84 c 349.719 64.512 349.234 65.121 348.594
 65.121 c 348.016 65.121 347.766 64.621 347.281 64.621 c 347.125 64.621 
346.938 64.777 346.938 64.98 c 346.938 65.355 347.5 65.465 347.906 65.465
 c 349.328 65.465 350.375 64.652 350.375 63.418 c h
350.375 63.418 m f
344.855 73.699 m 339.84 73.699 l 339.418 75.23 l 339.59 75.23 l 339.965
 74.246 340.434 74.027 341.215 74.027 c 341.215 74.027 341.73 74.027 341.84
 74.027 c 340.543 78.699 l 340.293 79.605 339.98 79.59 339.621 79.59 c 339.605
 79.746 l 341.965 79.746 l 341.996 79.59 l 341.652 79.59 341.309 79.605 
341.309 79.152 c 341.309 79.027 341.34 78.887 341.387 78.699 c 342.668 74.027
 l 343.418 74.027 l 343.855 74.027 344.324 74.09 344.324 74.715 c 344.324
 74.855 344.309 75.012 344.262 75.23 c 344.434 75.23 l h
344.855 73.699 m f
346.625 80.934 m 346.281 81.434 346.031 81.59 345.641 81.59 c 345 81.59
 344.547 81.043 344.547 80.23 c 344.547 79.512 344.938 79.027 345.5 79.027
 c 345.75 79.027 345.844 79.09 345.906 79.355 c 345.953 79.512 l 346.016
 79.715 346.141 79.84 346.297 79.84 c 346.469 79.84 346.625 79.699 346.625
 79.543 c 346.625 79.152 346.125 78.824 345.547 78.824 c 345.203 78.824 
344.844 78.965 344.562 79.215 c 344.219 79.512 344.016 79.996 344.016 80.543
 c 344.016 81.449 344.562 82.09 345.344 82.09 c 345.656 82.09 345.938 81.98
 346.188 81.762 c 346.375 81.605 346.5 81.418 346.719 80.996 c h
346.625 80.934 m f
Q Q
showpage
%%Trailer
end
%%EOF
