%!PS-Adobe-3.0 EPSF-3.0
%%Creator: cairo 1.17.4 (https://cairographics.org)
%%CreationDate: Thu Feb 24 10:47:41 2022
%%Pages: 1
%%DocumentData: Clean7Bit
%%LanguageLevel: 2
%%BoundingBox: 0 0 134 122
%%EndComments
%%BeginProlog
50 dict begin
/q { gsave } bind def
/Q { grestore } bind def
/cm { 6 array astore concat } bind def
/w { setlinewidth } bind def
/J { setlinecap } bind def
/j { setlinejoin } bind def
/M { setmiterlimit } bind def
/d { setdash } bind def
/m { moveto } bind def
/l { lineto } bind def
/c { curveto } bind def
/h { closepath } bind def
/re { exch dup neg 3 1 roll 5 3 roll moveto 0 rlineto
      0 exch rlineto 0 rlineto closepath } bind def
/S { stroke } bind def
/f { fill } bind def
/f* { eofill } bind def
/n { newpath } bind def
/W { clip } bind def
/W* { eoclip } bind def
/BT { } bind def
/ET { } bind def
/BDC { mark 3 1 roll /BDC pdfmark } bind def
/EMC { mark /EMC pdfmark } bind def
/cairo_store_point { /cairo_point_y exch def /cairo_point_x exch def } def
/Tj { show currentpoint cairo_store_point } bind def
/TJ {
  {
    dup
    type /stringtype eq
    { show } { -0.001 mul 0 cairo_font_matrix dtransform rmoveto } ifelse
  } forall
  currentpoint cairo_store_point
} bind def
/cairo_selectfont { cairo_font_matrix aload pop pop pop 0 0 6 array astore
    cairo_font exch selectfont cairo_point_x cairo_point_y moveto } bind def
/Tf { pop /cairo_font exch def /cairo_font_matrix where
      { pop cairo_selectfont } if } bind def
/Td { matrix translate cairo_font_matrix matrix concatmatrix dup
      /cairo_font_matrix exch def dup 4 get exch 5 get cairo_store_point
      /cairo_font where { pop cairo_selectfont } if } bind def
/Tm { 2 copy 8 2 roll 6 array astore /cairo_font_matrix exch def
      cairo_store_point /cairo_font where { pop cairo_selectfont } if } bind def
/g { setgray } bind def
/rg { setrgbcolor } bind def
/d1 { setcachedevice } bind def
/cairo_data_source {
  CairoDataIndex CairoData length lt
    { CairoData CairoDataIndex get /CairoDataIndex CairoDataIndex 1 add def }
    { () } ifelse
} def
/cairo_flush_ascii85_file { cairo_ascii85_file status { cairo_ascii85_file flushfile } if } def
/cairo_image { image cairo_flush_ascii85_file } def
/cairo_imagemask { imagemask cairo_flush_ascii85_file } def
%%EndProlog
%%BeginSetup
%%EndSetup
%%Page: 1 1
%%BeginPageSetup
%%PageBoundingBox: 0 0 134 122
%%EndPageSetup
q 0 0 134 122 rectclip
1 0 0 -1 0 122 cm q
Q q
0.223 55 m 72 55 l 72 60.953 l 0.223 60.953 l h
0.223 60.953 m 72 60.953 l 72 121.68 l 0.223 121.68 l h
0.223 60.953 m W n
q
0 55 72 67 re W n
  q
0 g
0.510385 w
2 J
0 j
[] 0.0 d
10 M q 1 0 0 -1 0 0 cm
64.676 -190.031 m -62.453 -62.902 l S Q
  Q
Q
Q q
0.223 53 m 74.773 53 l 74.773 60.953 l 0.223 60.953 l h
0.223 60.953 m 74.773 60.953 l 74.773 121.68 l 0.223 121.68 l h
0.223 60.953 m W n
q
0 53 75 69 re W n
  q
0 g
0.510386 w
2 J
0 j
[] 0.0 d
10 M q 1 0 0 -1 0 0 cm
67.051 -187.621 m -60.066 -60.504 l S Q
  Q
Q
Q q
0.223 50.691 m 76.773 50.691 l 76.773 60.953 l 0.223 60.953 l h
0.223 60.953 m 76.773 60.953 l 76.773 121.68 l 0.223 121.68 l h
0.223 60.953 m W n
q
0 50 77 72 re W n
  q
0 g
0.510385 w
2 J
0 j
[] 0.0 d
10 M q 1 0 0 -1 0 0 cm
69.477 -185.23 m -57.66 -58.094 l S Q
  Q
Q
Q q
0.223 48 m 79.773 48 l 79.773 60.953 l 0.223 60.953 l h
0.223 60.953 m 79.773 60.953 l 79.773 121.68 l 0.223 121.68 l h
0.223 60.953 m W n
q
0 48 80 74 re W n
  q
0 g
0.510385 w
2 J
0 j
[] 0.0 d
10 M q 1 0 0 -1 0 0 cm
71.883 -182.816 m -55.273 -55.695 l S Q
  Q
Q
Q q
0.223 46 m 81.773 46 l 81.773 60.953 l 0.223 60.953 l h
0.223 60.953 m 81.773 60.953 l 81.773 121.68 l 0.223 121.68 l h
0.223 60.953 m W n
q
0 46 82 76 re W n
  q
0 g
0.510386 w
2 J
0 j
[] 0.0 d
10 M q 1 0 0 -1 0 0 cm
74.258 -180.441 m -52.848 -53.301 l S Q
  Q
Q
Q q
0.223 43 m 84 43 l 84 60.953 l 0.223 60.953 l h
0.223 60.953 m 84 60.953 l 84 121.68 l 0.223 121.68 l h
0.223 60.953 m W n
q
0 43 84 79 re W n
  q
0 g
0.510386 w
2 J
0 j
[] 0.0 d
10 M q 1 0 0 -1 0 0 cm
76.668 -178.031 m -50.461 -50.902 l S Q
  Q
Q
Q q
0.223 41 m 86.773 41 l 86.773 60.953 l 0.223 60.953 l h
0.223 60.953 m 86.773 60.953 l 86.773 121.68 l 0.223 121.68 l h
0.223 60.953 m W n
q
0 41 87 81 re W n
  q
0 g
0.510387 w
2 J
0 j
[] 0.0 d
10 M q 1 0 0 -1 0 0 cm
79.094 -175.637 m -48.055 -48.492 l S Q
  Q
Q
Q q
0.223 38.691 m 88.773 38.691 l 88.773 60.953 l 0.223 60.953 l h
0.223 60.953 m 88.773 60.953 l 88.773 121.68 l 0.223 121.68 l h
0.223 60.953 m W n
q
0 38 89 84 re W n
  q
0 g
0.510387 w
2 J
0 j
[] 0.0 d
10 M q 1 0 0 -1 0 0 cm
81.469 -173.227 m -45.664 -46.094 l S Q
  Q
Q
Q q
0.223 36 m 91.773 36 l 91.773 60.953 l 0.223 60.953 l h
0.223 60.953 m 91.773 60.953 l 91.773 121.68 l 0.223 121.68 l h
0.223 60.953 m W n
q
0 36 92 86 re W n
  q
0 g
0.510386 w
2 J
0 j
[] 0.0 d
10 M q 1 0 0 -1 0 0 cm
83.879 -170.816 m -43.273 -43.699 l S Q
  Q
Q
Q q
0.223 34 m 93.773 34 l 93.773 60.953 l 0.223 60.953 l h
0.223 60.953 m 93.773 60.953 l 93.773 121.68 l 0.223 121.68 l h
0.223 60.953 m W n
q
0 34 94 88 re W n
  q
0 g
0.510386 w
2 J
0 j
[] 0.0 d
10 M q 1 0 0 -1 0 0 cm
86.254 -168.441 m -40.848 -41.305 l S Q
  Q
Q
Q q
0.223 31 m 96 31 l 96 60.953 l 0.223 60.953 l h
0.223 60.953 m 96 60.953 l 96 121.68 l 0.223 121.68 l h
0.223 60.953 m W n
q
0 31 96 91 re W n
  q
0 g
0.510386 w
2 J
0 j
[] 0.0 d
10 M q 1 0 0 -1 0 0 cm
88.68 -166.012 m -38.445 -38.891 l S Q
  Q
Q
Q q
0.223 29 m 98.773 29 l 98.773 60.953 l 0.223 60.953 l h
0.223 60.953 m 98.773 60.953 l 98.773 121.68 l 0.223 121.68 l h
0.223 60.953 m W n
q
0 29 99 93 re W n
  q
0 g
0.510385 w
2 J
0 j
[] 0.0 d
10 M q 1 0 0 -1 0 0 cm
91.09 -163.637 m -36.055 -36.496 l S Q
  Q
Q
Q q
0.223 26.691 m 100.773 26.691 l 100.773 60.953 l 0.223 60.953 l h
0.223 60.953 m 100.773 60.953 l 100.773 121.68 l 0.223 121.68 l h
0.223 60.953 m W n
q
0 26 101 96 re W n
  q
0 g
0.510384 w
2 J
0 j
[] 0.0 d
10 M q 1 0 0 -1 0 0 cm
93.465 -161.223 m -33.664 -34.098 l S Q
  Q
Q
Q q
0.223 24 m 103.773 24 l 103.773 60.953 l 0.223 60.953 l h
0.223 60.953 m 103.773 60.953 l 103.773 121.68 l 0.223 121.68 l h
0.223 60.953 m W n
q
0 24 104 98 re W n
  q
0 g
0.510386 w
2 J
0 j
[] 0.0 d
10 M q 1 0 0 -1 0 0 cm
95.875 -158.848 m -31.27 -31.703 l S Q
  Q
Q
Q q
0.223 22 m 105.773 22 l 105.773 60.953 l 0.223 60.953 l h
0.223 60.953 m 105.773 60.953 l 105.773 121.68 l 0.223 121.68 l h
0.223 60.953 m W n
q
0 22 106 100 re W n
  q
0 g
0.510386 w
2 J
0 j
[] 0.0 d
10 M q 1 0 0 -1 0 0 cm
98.266 -156.422 m -28.867 -29.289 l S Q
  Q
Q
Q q
0.223 19 m 108 19 l 108 60.953 l 0.223 60.953 l h
0.223 60.953 m 108 60.953 l 108 121.68 l 0.223 121.68 l h
0.223 60.953 m W n
q
0 19 108 103 re W n
  q
0 g
0.510388 w
2 J
0 j
[] 0.0 d
10 M q 1 0 0 -1 0 0 cm
100.676 -154.043 m -26.473 -26.895 l S Q
  Q
Q
Q q
0.223 17 m 110.773 17 l 110.773 60.953 l 0.223 60.953 l h
0.223 60.953 m 110.773 60.953 l 110.773 121.68 l 0.223 121.68 l h
0.223 60.953 m W n
q
0 17 111 105 re W n
  q
0 g
0.510386 w
2 J
0 j
[] 0.0 d
10 M q 1 0 0 -1 0 0 cm
103.086 -151.633 m -24.047 -24.496 l S Q
  Q
Q
Q q
0.223 14.691 m 112.773 14.691 l 112.773 60.953 l 0.223 60.953 l h
0.223 60.953 m 112.773 60.953 l 112.773 121.68 l 0.223 121.68 l h
0.223 60.953 m W n
q
0 14 113 108 re W n
  q
0 g
0.510384 w
2 J
0 j
[] 0.0 d
10 M q 1 0 0 -1 0 0 cm
105.465 -149.219 m -21.656 -22.102 l S Q
  Q
Q
Q q
0.223 12 m 115.773 12 l 115.773 60.953 l 0.223 60.953 l h
0.223 60.953 m 115.773 60.953 l 115.773 121.68 l 0.223 121.68 l h
0.223 60.953 m W n
q
0 12 116 110 re W n
  q
0 g
0.510385 w
2 J
0 j
[] 0.0 d
10 M q 1 0 0 -1 0 0 cm
107.875 -146.844 m -19.266 -19.707 l S Q
  Q
Q
Q q
0.223 10 m 117.773 10 l 117.773 60.953 l 0.223 60.953 l h
0.223 60.953 m 117.773 60.953 l 117.773 121.68 l 0.223 121.68 l h
0.223 60.953 m W n
q
0 10 118 112 re W n
  q
0 g
0.510388 w
2 J
0 j
[] 0.0 d
10 M q 1 0 0 -1 0 0 cm
110.266 -144.418 m -16.855 -17.293 l S Q
  Q
Q
Q q
0.223 7 m 120 7 l 120 60.953 l 0.223 60.953 l h
0.223 60.953 m 120 60.953 l 120 121.68 l 0.223 121.68 l h
0.223 60.953 m W n
q
0 7 120 115 re W n
  q
0 g
0.510385 w
2 J
0 j
[] 0.0 d
10 M q 1 0 0 -1 0 0 cm
112.676 -142.039 m -14.465 -14.898 l S Q
  Q
Q
Q q
0.223 5 m 122.773 5 l 122.773 60.953 l 0.223 60.953 l h
0.223 60.953 m 122.773 60.953 l 122.773 121.68 l 0.223 121.68 l h
0.223 60.953 m W n
q
0 5 123 117 re W n
  q
0 g
0.510385 w
2 J
0 j
[] 0.0 d
10 M q 1 0 0 -1 0 0 cm
115.055 -139.629 m -12.07 -12.5 l S Q
  Q
Q
Q q
0.223 2.691 m 124.773 2.691 l 124.773 60.953 l 0.223 60.953 l h
0.223 60.953 m 124.773 60.953 l 124.773 121.68 l 0.223 121.68 l h
0.223 60.953 m W n
q
0 2 125 120 re W n
  q
0 g
0.510386 w
2 J
0 j
[] 0.0 d
10 M q 1 0 0 -1 0 0 cm
117.465 -137.25 m -9.68 -10.105 l S Q
  Q
Q
Q q
0.223 0.211 m 127.773 0.211 l 127.773 60.953 l 0.223 60.953 l h
0.223 60.953 m 127.773 60.953 l 127.773 121.68 l 0.223 121.68 l h
0.223 60.953 m W n
q
0 0 128 122 re W n
  q
0 g
0.510388 w
2 J
0 j
[] 0.0 d
10 M q 1 0 0 -1 0 0 cm
119.895 -134.824 m -7.273 -7.691 l S Q
  Q
Q
Q q
0.223 0.211 m 129.773 0.211 l 129.773 60.953 l 0.223 60.953 l h
0.223 60.953 m 129.773 60.953 l 129.773 121.68 l 0.223 121.68 l h
0.223 60.953 m W n
q
0 0 130 122 re W n
  q
0 g
0.510388 w
2 J
0 j
[] 0.0 d
10 M q 1 0 0 -1 0 0 cm
122.27 -132.445 m -4.844 -5.297 l S Q
  Q
Q
Q q
0.223 0.211 m 132 0.211 l 132 60.953 l 0.223 60.953 l h
0.223 60.953 m 132 60.953 l 132 121.68 l 0.223 121.68 l h
0.223 60.953 m W n
q
0 0 132 122 re W n
  q
0 g
0.510384 w
2 J
0 j
[] 0.0 d
10 M q 1 0 0 -1 0 0 cm
124.684 -130.035 m -2.449 -2.898 l S Q
  Q
Q
Q q
0.223 0.211 m 133.023 0.211 l 133.023 60.953 l 0.223 60.953 l h
0.223 60.953 m 133.023 60.953 l 133.023 121.68 l 0.223 121.68 l h
0.223 60.953 m W n
q
0 0 134 122 re W n
  q
0 g
0.510384 w
2 J
0 j
[] 0.0 d
10 M q 1 0 0 -1 0 0 cm
127.059 -127.621 m -0.059 -0.504 l S Q
0.510385 w
q 1 0 0 -1 0 0 cm
129.488 -125.227 m 2.352 1.91 l S Q
0.510388 w
q 1 0 0 -1 0 0 cm
131.863 -122.816 m 4.746 4.305 l S Q
0.510387 w
q 1 0 0 -1 0 0 cm
134.277 -120.438 m 7.141 6.699 l S Q
  Q
Q
Q q
2 0.211 m 133.023 0.211 l 133.023 60.953 l 2 60.953 l h
2 60.953 m 133.023 60.953 l 133.023 121.68 l 2 121.68 l h
2 60.953 m W n
q
2 0 132 122 re W n
  q
0 g
0.510386 w
2 J
0 j
[] 0.0 d
10 M q 1 0 0 -1 0 0 cm
136.656 -118.027 m 9.531 9.098 l S Q
  Q
Q
Q q
4 0.211 m 133.023 0.211 l 133.023 60.953 l 4 60.953 l h
4 60.953 m 133.023 60.953 l 133.023 121.68 l 4 121.68 l h
4 60.953 m W n
q
4 0 130 122 re W n
  q
0 g
0.510386 w
2 J
0 j
[] 0.0 d
10 M q 1 0 0 -1 0 0 cm
139.086 -115.633 m 11.941 11.508 l S Q
  Q
Q
Q q
7 0.211 m 133.023 0.211 l 133.023 60.953 l 7 60.953 l h
7 60.953 m 133.023 60.953 l 133.023 120.691 l 7 120.691 l h
7 60.953 m W n
q
7 0 127 121 re W n
  q
0 g
0.510385 w
2 J
0 j
[] 0.0 d
10 M q 1 0 0 -1 0 0 cm
141.461 -113.223 m 14.336 13.906 l S Q
  Q
Q
Q q
9 0.211 m 133.023 0.211 l 133.023 60.953 l 9 60.953 l h
9 60.953 m 133.023 60.953 l 133.023 118.691 l 9 118.691 l h
9 60.953 m W n
q
9 0 125 119 re W n
  q
0 g
0.510387 w
2 J
0 j
[] 0.0 d
10 M q 1 0 0 -1 0 0 cm
143.875 -110.844 m 16.73 16.301 l S Q
  Q
Q
Q q
11.773 0.211 m 133.023 0.211 l 133.023 60.953 l 11.773 60.953 l h
11.773 60.953 m 133.023 60.953 l 133.023 115.691 l 11.773 115.691 l h
11.773 60.953 m W n
q
11 0 123 116 re W n
  q
0 g
0.510385 w
2 J
0 j
[] 0.0 d
10 M q 1 0 0 -1 0 0 cm
146.254 -108.43 m 19.125 18.699 l S Q
  Q
Q
Q q
14 0.211 m 133.023 0.211 l 133.023 60.953 l 14 60.953 l h
14 60.953 m 133.023 60.953 l 133.023 113.691 l 14 113.691 l h
14 60.953 m W n
q
14 0 120 114 re W n
  q
0 g
0.510388 w
2 J
0 j
[] 0.0 d
10 M q 1 0 0 -1 0 0 cm
148.684 -106.039 m 21.535 21.109 l S Q
  Q
Q
Q q
16 0.211 m 133.023 0.211 l 133.023 60.953 l 16 60.953 l h
16 60.953 m 133.023 60.953 l 133.023 111 l 16 111 l h
16 60.953 m W n
q
16 0 118 111 re W n
  q
0 g
0.510386 w
2 J
0 j
[] 0.0 d
10 M q 1 0 0 -1 0 0 cm
151.062 -103.625 m 23.93 23.504 l S Q
  Q
Q
Q q
19 0.211 m 133.023 0.211 l 133.023 60.953 l 19 60.953 l h
19 60.953 m 133.023 60.953 l 133.023 108.691 l 19 108.691 l h
19 60.953 m W n
q
19 0 115 109 re W n
  q
0 g
0.510387 w
2 J
0 j
[] 0.0 d
10 M q 1 0 0 -1 0 0 cm
153.477 -101.246 m 26.324 25.902 l S Q
  Q
Q
Q q
21 0.211 m 133.023 0.211 l 133.023 60.953 l 21 60.953 l h
21 60.953 m 133.023 60.953 l 133.023 106.691 l 21 106.691 l h
21 60.953 m W n
q
21 0 113 107 re W n
  q
0 g
0.510385 w
2 J
0 j
[] 0.0 d
10 M q 1 0 0 -1 0 0 cm
155.855 -98.836 m 28.723 28.297 l S Q
  Q
Q
Q q
23.773 0.211 m 133.023 0.211 l 133.023 60.953 l 23.773 60.953 l h
23.773 60.953 m 133.023 60.953 l 133.023 103.691 l 23.773 103.691 l h
23.773 60.953 m W n
q
23 0 111 104 re W n
  q
0 g
0.510387 w
2 J
0 j
[] 0.0 d
10 M q 1 0 0 -1 0 0 cm
158.285 -96.441 m 31.133 30.711 l S Q
  Q
Q
Q q
26 0.211 m 133.023 0.211 l 133.023 60.953 l 26 60.953 l h
26 60.953 m 133.023 60.953 l 133.023 101.691 l 26 101.691 l h
26 60.953 m W n
q
26 0 108 102 re W n
  q
0 g
0.510388 w
2 J
0 j
[] 0.0 d
10 M q 1 0 0 -1 0 0 cm
160.664 -94.027 m 33.527 33.105 l S Q
  Q
Q
Q q
28 0.211 m 133.023 0.211 l 133.023 60.953 l 28 60.953 l h
28 60.953 m 133.023 60.953 l 133.023 99 l 28 99 l h
28 60.953 m W n
q
28 0 106 99 re W n
  q
0 g
0.510385 w
2 J
0 j
[] 0.0 d
10 M q 1 0 0 -1 0 0 cm
163.078 -91.617 m 35.926 35.504 l S Q
  Q
Q
Q q
31 0.211 m 133.023 0.211 l 133.023 60.953 l 31 60.953 l h
31 60.953 m 133.023 60.953 l 133.023 96.691 l 31 96.691 l h
31 60.953 m W n
q
31 0 103 97 re W n
  q
0 g
0.510385 w
2 J
0 j
[] 0.0 d
10 M q 1 0 0 -1 0 0 cm
165.457 -89.238 m 38.32 37.898 l S Q
  Q
Q
Q q
33 0.211 m 133.023 0.211 l 133.023 60.953 l 33 60.953 l h
33 60.953 m 133.023 60.953 l 133.023 94.691 l 33 94.691 l h
33 60.953 m W n
q
33 0 101 95 re W n
  q
0 g
0.510385 w
2 J
0 j
[] 0.0 d
10 M q 1 0 0 -1 0 0 cm
167.871 -86.824 m 40.715 40.293 l S Q
  Q
Q
Q q
35.773 0.211 m 133.023 0.211 l 133.023 60.953 l 35.773 60.953 l h
35.773 60.953 m 133.023 60.953 l 133.023 91.691 l 35.773 91.691 l h
35.773 60.953 m W n
q
35 0 99 92 re W n
  q
0 g
0.510386 w
2 J
0 j
[] 0.0 d
10 M q 1 0 0 -1 0 0 cm
170.266 -84.43 m 43.129 42.707 l S Q
  Q
Q
Q q
38 0.211 m 133.023 0.211 l 133.023 60.953 l 38 60.953 l h
38 60.953 m 133.023 60.953 l 133.023 89.691 l 38 89.691 l h
38 60.953 m W n
q
38 0 96 90 re W n
  q
0 g
0.510386 w
2 J
0 j
[] 0.0 d
10 M q 1 0 0 -1 0 0 cm
172.68 -82.02 m 45.523 45.102 l S Q
  Q
Q
Q q
40 0.211 m 133.023 0.211 l 133.023 60.953 l 40 60.953 l h
40 60.953 m 133.023 60.953 l 133.023 87 l 40 87 l h
40 60.953 m W n
q
40 0 94 87 re W n
  q
0 g
0.510386 w
2 J
0 j
[] 0.0 d
10 M q 1 0 0 -1 0 0 cm
175.062 -79.641 m 47.922 47.5 l S Q
  Q
Q
Q q
43 0.211 m 133.023 0.211 l 133.023 60.953 l 43 60.953 l h
43 60.953 m 133.023 60.953 l 133.023 84.691 l 43 84.691 l h
43 60.953 m W n
q
43 0 91 85 re W n
  q
0 g
0.510385 w
2 J
0 j
[] 0.0 d
10 M q 1 0 0 -1 0 0 cm
177.477 -77.227 m 50.32 49.895 l S Q
  Q
Q
Q q
45 0.211 m 133.023 0.211 l 133.023 60.953 l 45 60.953 l h
45 60.953 m 133.023 60.953 l 133.023 82.691 l 45 82.691 l h
45 60.953 m W n
q
45 0 89 83 re W n
  q
0 g
0.510386 w
2 J
0 j
[] 0.0 d
10 M q 1 0 0 -1 0 0 cm
179.871 -74.832 m 52.73 52.309 l S Q
  Q
Q
Q q
47.773 0.211 m 133.023 0.211 l 133.023 60.953 l 47.773 60.953 l h
47.773 60.953 m 133.023 60.953 l 133.023 79.691 l 47.773 79.691 l h
47.773 60.953 m W n
q
47 0 87 80 re W n
  q
0 g
0.510385 w
2 J
0 j
[] 0.0 d
10 M q 1 0 0 -1 0 0 cm
182.285 -72.418 m 55.129 54.703 l S Q
  Q
Q
Q q
50 0.211 m 133.023 0.211 l 133.023 60.953 l 50 60.953 l h
50 60.953 m 133.023 60.953 l 133.023 77.691 l 50 77.691 l h
50 60.953 m W n
q
50 0 84 78 re W n
  q
0 g
0.510387 w
2 J
0 j
[] 0.0 d
10 M q 1 0 0 -1 0 0 cm
184.668 -70.043 m 57.527 57.102 l S Q
  Q
Q
Q q
52 0.211 m 133.023 0.211 l 133.023 60.953 l 52 60.953 l h
52 60.953 m 133.023 60.953 l 133.023 75 l 52 75 l h
52 60.953 m W n
q
52 0 82 75 re W n
  q
0 g
0.510386 w
2 J
0 j
[] 0.0 d
10 M q 1 0 0 -1 0 0 cm
187.082 -67.629 m 59.922 59.496 l S Q
  Q
Q
Q q
55 0.211 m 133.023 0.211 l 133.023 60.953 l 55 60.953 l h
55 60.953 m 133.023 60.953 l 133.023 72.691 l 55 72.691 l h
55 60.953 m W n
q
55 0 79 73 re W n
  q
0 g
0.510386 w
2 J
0 j
[] 0.0 d
10 M q 1 0 0 -1 0 0 cm
189.48 -65.234 m 62.336 61.91 l S Q
  Q
Q
Q q
57 0.211 m 133.023 0.211 l 133.023 60.953 l 57 60.953 l h
57 60.953 m 133.023 60.953 l 133.023 70.691 l 57 70.691 l h
57 60.953 m W n
q
57 0 77 71 re W n
  q
0 g
0.510388 w
2 J
0 j
[] 0.0 d
10 M q 1 0 0 -1 0 0 cm
191.859 -62.82 m 64.734 64.305 l S Q
  Q
Q
Q q
59.773 0.211 m 133.023 0.211 l 133.023 60.953 l 59.773 60.953 l h
59.773 60.953 m 133.023 60.953 l 133.023 67.691 l 59.773 67.691 l h
59.773 60.953 m W n
q
59 0 75 68 re W n
  q
0 g
0.510386 w
2 J
0 j
[] 0.0 d
10 M q 1 0 0 -1 0 0 cm
194.277 -60.441 m 67.133 66.699 l S Q
  Q
Q
Q q
0 g
0.425177 w
0 J
0 j
[] 0.0 d
10 M q 1 0 0 -1 0 0 cm
0.211 -60.934 m 0.211 -121.66 l 133.043 -121.66 l 133.043 -0.211 l 0.211
 -0.211 l h
0.211 -60.934 m S Q
1 g
8.312 60.938 m 8.312 113.613 l 124.961 113.613 l 124.961 8.297 l 8.312 
8.297 l f
0 g
0.425176 w
q 1 0 0 -1 0 0 cm
8.312 -60.938 m 8.312 -113.613 l 124.961 -113.613 l 124.961 -8.297 l 8.312
 -8.297 l h
8.312 -60.938 m S Q
0.741176 0.831373 0.901961 rg
14.176 83.344 m 14.176 112.797 l 82.227 112.797 l 82.227 53.855 l 14.176
 53.855 l f
0 g
1.70071 w
q 1 0 0 -1 0 0 cm
14.176 -45.363 m 14.176 -112.82 l 82.223 -112.82 l 82.223 -45.363 l S Q
0.567044 w
q 1 0 0 -1 0 0 cm
14.199 -53.848 m 14.199 -53.641 l 14.648 -53.641 l 14.891 -53.676 l 15.133
 -53.676 l 15.375 -53.711 l 15.613 -53.746 l 15.855 -53.781 l 16.062 -53.816
 l 16.305 -53.848 l 16.789 -53.918 l 17.027 -53.953 l 17.512 -54.023 l 17.719
 -54.055 l 19.133 -54.055 l 19.375 -54.023 l 19.617 -53.988 l 19.855 -53.953
 l 20.582 -53.848 l 20.789 -53.816 l 21.031 -53.781 l 21.27 -53.746 l 21.754
 -53.676 l 21.996 -53.676 l 22.203 -53.641 l 23.168 -53.641 l 23.41 -53.676
 l 23.652 -53.676 l 23.859 -53.711 l 24.098 -53.746 l 24.582 -53.816 l 24.824
 -53.848 l 25.309 -53.918 l 25.516 -53.953 l 25.754 -53.988 l 25.996 -54.023
 l 26.238 -54.055 l 27.652 -54.055 l 27.895 -54.023 l 28.137 -53.988 l 28.375
 -53.953 l 28.582 -53.918 l 29.066 -53.848 l 29.309 -53.816 l 29.551 -53.781
 l 29.789 -53.746 l 29.996 -53.711 l 30.238 -53.676 l 30.48 -53.676 l 30.723
 -53.641 l 31.652 -53.641 l 31.895 -53.676 l 32.137 -53.676 l 32.379 -53.711
 l 32.617 -53.746 l 33.102 -53.816 l 33.309 -53.848 l 33.793 -53.918 l 34.031
 -53.953 l 34.516 -54.023 l 34.723 -54.055 l 36.172 -54.055 l 36.379 -54.023
 l 36.621 -53.988 l 36.859 -53.953 l 37.586 -53.848 l 37.793 -53.816 l 38.277
 -53.746 l 38.516 -53.711 l 38.758 -53.676 l 39 -53.676 l 39.242 -53.641
 l 40.172 -53.641 l 40.414 -53.676 l 40.656 -53.676 l 40.898 -53.711 l 41.105
 -53.746 l 41.344 -53.781 l 41.586 -53.816 l 41.828 -53.848 l 42.312 -53.918
 l 42.52 -53.953 l 42.758 -53.988 l 43 -54.023 l 43.242 -54.055 l 44.656
 -54.055 l 44.898 -54.023 l 45.141 -53.988 l 45.379 -53.953 l 45.586 -53.918
 l 46.07 -53.848 l 46.312 -53.816 l 46.555 -53.781 l 46.793 -53.746 l 47.035
 -53.711 l 47.242 -53.676 l 47.484 -53.676 l 47.727 -53.641 l 48.691 -53.641
 l 48.898 -53.676 l 49.141 -53.676 l 49.383 -53.711 l 49.621 -53.746 l 50.105
 -53.816 l 50.312 -53.848 l 51.039 -53.953 l 51.277 -53.988 l 51.52 -54.023
 l 51.762 -54.055 l 53.176 -54.055 l 53.383 -54.023 l 53.867 -53.953 l 54.105
 -53.918 l 54.59 -53.848 l 54.832 -53.816 l 55.039 -53.781 l 55.281 -53.746
 l 55.52 -53.711 l 55.762 -53.676 l 56.004 -53.676 l 56.246 -53.641 l 57.176
 -53.641 l 57.418 -53.676 l 57.66 -53.676 l 57.902 -53.711 l 58.109 -53.746
 l 58.348 -53.781 l 58.59 -53.816 l 58.832 -53.848 l 59.316 -53.918 l 59.555
 -53.953 l 59.762 -53.988 l 60.004 -54.023 l 60.246 -54.055 l 61.66 -54.055
 l 61.902 -54.023 l 62.145 -53.988 l 62.383 -53.953 l 62.625 -53.918 l 62.832
 -53.883 l 63.074 -53.848 l 63.316 -53.816 l 63.801 -53.746 l 64.039 -53.711
 l 64.281 -53.676 l 64.488 -53.676 l 64.73 -53.641 l 65.695 -53.641 l 65.902
 -53.676 l 66.145 -53.676 l 66.629 -53.746 l 66.867 -53.781 l 67.109 -53.816
 l 67.352 -53.848 l 67.559 -53.883 l 68.043 -53.953 l 68.281 -53.988 l 68.523
 -54.023 l 68.766 -54.055 l 70.18 -54.055 l 70.422 -54.023 l 70.629 -53.988
 l 70.871 -53.953 l 71.109 -53.918 l 71.594 -53.848 l 71.836 -53.816 l 72.078
 -53.781 l 72.285 -53.746 l 72.523 -53.711 l 72.766 -53.676 l 73.008 -53.676
 l 73.25 -53.641 l 74.18 -53.641 l 74.422 -53.676 l 74.664 -53.676 l 74.906
 -53.711 l 75.145 -53.746 l 75.352 -53.781 l 75.594 -53.816 l 75.836 -53.848
 l 76.32 -53.918 l 76.559 -53.953 l 76.766 -53.988 l 77.008 -54.023 l 77.25
 -54.055 l 78.664 -54.055 l 78.906 -54.023 l 79.391 -53.953 l 79.629 -53.918
 l 79.871 -53.883 l 80.078 -53.848 l 80.32 -53.816 l 80.805 -53.746 l 81.043
 -53.711 l 81.285 -53.676 l 81.492 -53.676 l 81.734 -53.641 l 82.219 -53.641
 l 82.219 -53.848 l S Q
26.359 106.211 m 26.359 106.336 l 26.656 106.398 26.75 106.461 26.75 106.617
 c 26.75 106.758 26.703 106.961 26.594 107.211 c 25.797 109.195 l 25.031
 107.195 l 24.891 106.773 24.891 106.773 24.891 106.664 c 24.891 106.461
 24.984 106.398 25.406 106.336 c 25.406 106.211 l 23.578 106.211 l 23.578
 106.336 l 23.922 106.383 24.031 106.477 24.203 106.961 c 24.25 107.086 
24.328 107.305 24.375 107.461 c 23.562 109.242 l 22.672 106.898 l 22.641
 106.82 22.625 106.727 22.625 106.633 c 22.625 106.445 22.719 106.383 23.031
 106.336 c 23.031 106.211 l 21.422 106.211 l 21.422 106.336 l 21.625 106.352
 21.703 106.445 21.891 106.898 c 23.109 109.977 l 23.219 110.258 23.281 
110.367 23.344 110.367 c 23.391 110.367 23.453 110.258 23.562 110.023 c 
24.578 107.867 l 25.391 109.977 l 25.516 110.32 25.547 110.367 25.609 110.367
 c 25.672 110.367 25.703 110.289 25.859 109.93 c 27.094 106.82 l 27.25 106.445
 27.281 106.398 27.453 106.336 c 27.453 106.211 l h
26.359 106.211 m f
31.562 109.648 m 31.406 109.773 31.297 109.82 31.156 109.82 c 30.953 109.82
 30.891 109.695 30.891 109.305 c 30.891 107.555 l 30.891 107.086 30.844 
106.82 30.719 106.617 c 30.516 106.289 30.125 106.117 29.609 106.117 c 28.766
 106.117 28.094 106.555 28.094 107.117 c 28.094 107.32 28.266 107.508 28.484
 107.508 c 28.703 107.508 28.891 107.32 28.891 107.133 c 28.891 107.102 
28.875 107.055 28.875 106.992 c 28.844 106.898 28.844 106.836 28.844 106.773
 c 28.844 106.523 29.125 106.336 29.484 106.336 c 29.922 106.336 30.172 
106.586 30.172 107.07 c 30.172 107.617 l 28.797 108.164 28.641 108.258 28.25
 108.586 c 28.047 108.773 27.922 109.07 27.922 109.367 c 27.922 109.93 28.312
 110.336 28.875 110.336 c 29.266 110.336 29.625 110.148 30.172 109.68 c 
30.219 110.148 30.391 110.336 30.75 110.336 c 31.062 110.336 31.25 110.227
 31.562 109.883 c h
30.172 109.133 m 30.172 109.414 30.125 109.508 29.938 109.617 c 29.703 
109.742 29.469 109.805 29.281 109.805 c 28.969 109.805 28.719 109.508 28.719
 109.117 c 28.719 109.086 l 28.719 108.555 29.125 108.211 30.172 107.836
 c h
30.172 109.133 m f
33.836 106.211 m 32.93 106.211 l 32.93 105.164 l 32.93 105.07 32.914 105.055
 32.867 105.055 c 32.352 105.805 32.086 106.102 31.82 106.258 c 31.727 106.32
 31.664 106.383 31.664 106.43 c 31.664 106.461 31.68 106.477 31.711 106.492
 c 32.18 106.492 l 32.18 109.195 l 32.18 109.945 32.445 110.336 32.977 110.336
 c 33.414 110.336 33.758 110.117 34.055 109.648 c 33.945 109.555 l 33.742
 109.789 33.602 109.867 33.398 109.867 c 33.07 109.867 32.93 109.617 32.93
 109.055 c 32.93 106.492 l 33.836 106.492 l h
33.836 106.211 m f
37.73 108.773 m 37.309 109.445 36.918 109.711 36.34 109.711 c 35.84 109.711
 35.449 109.445 35.184 108.945 c 35.027 108.602 34.965 108.32 34.949 107.758
 c 37.699 107.758 l 37.637 107.18 37.543 106.914 37.324 106.633 c 37.059
 106.305 36.637 106.117 36.168 106.117 c 35.73 106.117 35.309 106.273 34.965
 106.586 c 34.543 106.945 34.293 107.586 34.293 108.32 c 34.293 109.555 
34.949 110.336 35.98 110.336 c 36.824 110.336 37.496 109.805 37.871 108.836
 c h
34.965 107.477 m 35.059 106.773 35.371 106.445 35.918 106.445 c 36.465 
106.445 36.668 106.695 36.793 107.477 c h
34.965 107.477 m f
38.082 110.242 m 40.238 110.242 l 40.238 110.102 l 39.629 110.086 39.488
 109.961 39.473 109.43 c 39.473 107.414 l 39.473 107.133 39.848 106.68 40.098
 106.68 c 40.145 106.68 40.238 106.727 40.332 106.82 c 40.473 106.945 40.566
 106.992 40.691 106.992 c 40.91 106.992 41.035 106.836 41.035 106.586 c 
41.035 106.289 40.848 106.117 40.551 106.117 c 40.176 106.117 39.926 106.32
 39.473 106.961 c 39.473 106.133 l 39.426 106.117 l 38.926 106.32 38.598
 106.445 38.098 106.602 c 38.098 106.742 l 38.223 106.711 38.301 106.711
 38.41 106.711 c 38.629 106.711 38.723 106.852 38.723 107.242 c 38.723 109.492
 l 38.691 109.961 38.645 110.008 38.082 110.102 c h
38.082 110.242 m f
1 g
45.367 41.109 m 45.367 45.363 l 51.039 45.363 l 51.039 36.852 l 45.367 
36.852 l f
0 g
3.96889 w
q 1 0 0 -1 0 0 cm
48.191 -104.871 m 48.191 -31.18 l S Q
1 g
2.83481 w
q 1 0 0 -1 0 0 cm
48.191 -104.871 m 48.191 -31.18 l S Q
0 g
0.567043 w
q 1 0 0 -1 0 0 cm
46.195 -104.891 m 50.195 -104.891 l S Q
1 g
25.52 99.223 m 25.52 102.062 l 46.227 102.062 l 46.227 96.379 l 25.52 96.379
 l f
0 g
q 1 0 0 -1 0 0 cm
25.52 -99.223 m 25.52 -102.062 l 46.227 -102.062 l 46.227 -96.379 l 25.52
 -96.379 l h
25.52 -99.223 m S Q
1 g
50.199 99.223 m 50.199 102.062 l 70.875 102.062 l 70.875 96.379 l 50.199
 96.379 l f
0 g
q 1 0 0 -1 0 0 cm
50.199 -99.223 m 50.199 -102.062 l 70.875 -102.062 l 70.875 -96.379 l 50.199
 -96.379 l h
50.199 -99.223 m S Q
1 g
25.527 87.883 m 25.527 90.695 l 46.211 90.695 l 46.211 85.035 l 25.527 
85.035 l f
0 g
q 1 0 0 -1 0 0 cm
25.527 -87.883 m 25.527 -90.695 l 46.211 -90.695 l 46.211 -85.035 l 25.527
 -85.035 l h
25.527 -87.883 m S Q
1 g
50.191 87.883 m 50.191 90.695 l 70.871 90.695 l 70.871 85.035 l 50.191 
85.035 l f
0 g
q 1 0 0 -1 0 0 cm
50.191 -87.883 m 50.191 -90.695 l 70.871 -90.695 l 70.871 -85.035 l 50.191
 -85.035 l h
50.191 -87.883 m S Q
1 g
25.516 76.527 m 25.516 79.379 l 46.203 79.379 l 46.203 73.707 l 25.516 
73.707 l f
0 g
0.567041 w
q 1 0 0 -1 0 0 cm
25.516 -76.527 m 25.516 -79.379 l 46.203 -79.379 l 46.203 -73.707 l 25.516
 -73.707 l h
25.516 -76.527 m S Q
1 g
50.191 76.527 m 50.191 79.379 l 70.879 79.379 l 70.879 73.707 l 50.191 
73.707 l f
0 g
q 1 0 0 -1 0 0 cm
50.191 -76.527 m 50.191 -79.379 l 70.879 -79.379 l 70.879 -73.707 l 50.191
 -73.707 l h
50.191 -76.527 m S Q
1 g
25.508 65.188 m 25.508 68.043 l 46.203 68.043 l 46.203 62.363 l 25.508 
62.363 l f
0 g
0.567043 w
q 1 0 0 -1 0 0 cm
25.508 -65.188 m 25.508 -68.043 l 46.203 -68.043 l 46.203 -62.363 l 25.508
 -62.363 l h
25.508 -65.188 m S Q
1 g
50.199 65.188 m 50.199 68.043 l 70.859 68.043 l 70.859 62.363 l 50.199 
62.363 l f
0 g
q 1 0 0 -1 0 0 cm
50.199 -65.188 m 50.199 -68.043 l 70.859 -68.043 l 70.859 -62.363 l 50.199
 -62.363 l h
50.199 -65.188 m S Q
q 1 0 0 -1 0 0 cm
36.875 -26.215 m 36.875 -31.176 l 59.527 -31.176 l 59.527 -21.254 l 36.875
 -21.254 l h
36.875 -26.215 m S Q
1.13366 w
1 J
q 1 0 0 -1 0 0 cm
36.301 -24.059 m 36.406 -24.059 l S Q
0 J
q 1 0 0 -1 0 0 cm
36.297 -24.055 m 45.938 -23.535 l 104.887 -23.535 l S Q
1 J
q 1 0 0 -1 0 0 cm
60.102 -25.539 m 59.996 -25.539 l S Q
q 1 0 0 -1 0 0 cm
36.285 -26.895 m 36.391 -26.895 l S Q
0 J
q 1 0 0 -1 0 0 cm
60.102 -25.539 m 36.285 -26.895 l S Q
1 J
q 1 0 0 -1 0 0 cm
60.105 -28.379 m 60.004 -28.379 l S Q
q 1 0 0 -1 0 0 cm
36.305 -29.73 m 36.406 -29.73 l S Q
0 J
q 1 0 0 -1 0 0 cm
60.105 -28.379 m 36.305 -29.727 l S Q
q 1 0 0 -1 0 0 cm
111.145 -26.926 m 111.145 -53.852 l S Q
1 g
111.973 29.746 m 111.973 25.863 108.816 22.672 104.895 22.672 c 100.977
 22.672 97.82 25.863 97.82 29.746 c 97.82 33.664 100.977 36.855 104.895 
36.855 c 108.816 36.855 111.973 33.664 111.973 29.746 c f
0 g
0.567043 w
q 1 0 0 -1 0 0 cm
111.973 -29.746 m 111.973 -25.863 108.816 -22.672 104.895 -22.672 c 100.977
 -22.672 97.82 -25.863 97.82 -29.746 c 97.82 -33.664 100.977 -36.855 104.895
 -36.855 c 108.816 -36.855 111.973 -33.664 111.973 -29.746 c h
111.973 -29.746 m S Q
105.492 29.742 m 105.492 29.43 105.238 29.176 104.926 29.176 c 104.613 
29.176 104.359 29.43 104.359 29.742 c 104.359 30.055 104.613 30.309 104.926
 30.309 c 105.238 30.309 105.492 30.055 105.492 29.742 c f
q 1 0 0 -1 0 0 cm
104.746 -60.926 m 105.473 -53.855 l 116.82 -53.855 l 118.234 -68.031 l 
104.059 -68.031 l h
104.746 -60.926 m S Q
114.035 62.062 m 113.91 61.969 l 113.723 62.203 113.395 62.641 113.207 
62.641 c 113.129 62.641 113.082 62.594 113.082 62.484 c 113.082 62.391 113.16
 62.172 113.207 62 c 113.207 62 113.738 60.047 113.738 60 c 113.801 59.812
 113.832 59.625 113.832 59.5 c 113.832 59.047 113.551 58.891 113.332 58.891
 c 112.598 58.891 111.77 59.859 111.191 60.891 c 111.191 60.891 111.52 59.844
 111.52 59.484 c 111.52 59.25 111.426 58.891 111.004 58.891 c 110.176 58.891
 109.145 60.484 108.926 60.891 c 109.457 58.891 l 109.457 58.891 108.238
 59.125 107.973 59.141 c 107.973 59.297 l 108.301 59.297 108.566 59.266 
108.566 59.625 c 108.566 59.797 108.488 60.078 108.41 60.359 c 108.41 60.359
 107.691 62.75 107.645 62.984 c 108.332 62.984 l 108.488 62.391 l 109.004
 60.453 110.254 59.391 110.598 59.391 c 110.738 59.391 110.832 59.438 110.832
 59.641 c 110.832 59.781 110.723 60.188 110.66 60.453 c 110.66 60.453 110.035
 62.672 109.957 62.984 c 110.629 62.984 l 110.785 62.391 l 111.332 60.375
 112.551 59.391 112.91 59.391 c 113.035 59.391 113.129 59.484 113.129 59.625
 c 113.129 59.719 113.035 60.125 112.941 60.453 c 112.582 61.797 l 112.488
 62.125 112.41 62.531 112.41 62.672 c 112.41 62.906 112.535 63.094 112.738
 63.094 c 113.191 63.094 113.676 62.578 114.035 62.062 c h
114.035 62.062 m f
0.567044 w
q 1 0 0 -1 0 0 cm
119.059 -70.855 m 113.379 -68.035 l 124.734 -68.035 l 124.734 -73.711 l
 h
119.059 -70.855 m S Q
Q Q
showpage
%%Trailer
end
%%EOF
