%!PS-Adobe-3.0 EPSF-3.0
%%Creator: cairo 1.17.4 (https://cairographics.org)
%%CreationDate: Thu Feb 24 10:47:43 2022
%%Pages: 1
%%DocumentData: Clean7Bit
%%LanguageLevel: 2
%%BoundingBox: 0 0 296 150
%%EndComments
%%BeginProlog
50 dict begin
/q { gsave } bind def
/Q { grestore } bind def
/cm { 6 array astore concat } bind def
/w { setlinewidth } bind def
/J { setlinecap } bind def
/j { setlinejoin } bind def
/M { setmiterlimit } bind def
/d { setdash } bind def
/m { moveto } bind def
/l { lineto } bind def
/c { curveto } bind def
/h { closepath } bind def
/re { exch dup neg 3 1 roll 5 3 roll moveto 0 rlineto
      0 exch rlineto 0 rlineto closepath } bind def
/S { stroke } bind def
/f { fill } bind def
/f* { eofill } bind def
/n { newpath } bind def
/W { clip } bind def
/W* { eoclip } bind def
/BT { } bind def
/ET { } bind def
/BDC { mark 3 1 roll /BDC pdfmark } bind def
/EMC { mark /EMC pdfmark } bind def
/cairo_store_point { /cairo_point_y exch def /cairo_point_x exch def } def
/Tj { show currentpoint cairo_store_point } bind def
/TJ {
  {
    dup
    type /stringtype eq
    { show } { -0.001 mul 0 cairo_font_matrix dtransform rmoveto } ifelse
  } forall
  currentpoint cairo_store_point
} bind def
/cairo_selectfont { cairo_font_matrix aload pop pop pop 0 0 6 array astore
    cairo_font exch selectfont cairo_point_x cairo_point_y moveto } bind def
/Tf { pop /cairo_font exch def /cairo_font_matrix where
      { pop cairo_selectfont } if } bind def
/Td { matrix translate cairo_font_matrix matrix concatmatrix dup
      /cairo_font_matrix exch def dup 4 get exch 5 get cairo_store_point
      /cairo_font where { pop cairo_selectfont } if } bind def
/Tm { 2 copy 8 2 roll 6 array astore /cairo_font_matrix exch def
      cairo_store_point /cairo_font where { pop cairo_selectfont } if } bind def
/g { setgray } bind def
/rg { setrgbcolor } bind def
/d1 { setcachedevice } bind def
/cairo_data_source {
  CairoDataIndex CairoData length lt
    { CairoData CairoDataIndex get /CairoDataIndex CairoDataIndex 1 add def }
    { () } ifelse
} def
/cairo_flush_ascii85_file { cairo_ascii85_file status { cairo_ascii85_file flushfile } if } def
/cairo_image { image cairo_flush_ascii85_file } def
/cairo_imagemask { imagemask cairo_flush_ascii85_file } def
%%EndProlog
%%BeginSetup
%%EndSetup
%%Page: 1 1
%%BeginPageSetup
%%PageBoundingBox: 0 0 296 150
%%EndPageSetup
q 0 0 296 150 rectclip
1 0 0 -1 0 150 cm q
0 g
0.567043 w
0 J
0 j
[] 0.0 d
10 M q 1 0 0 -1 0 0 cm
11.855 -56.758 m 11.855 -0.348 l 124.887 -0.348 l 124.887 -113.203 l 11.855
 -113.203 l h
11.855 -56.758 m S Q
0.283298 w
q 1 0 0 -1 0 0 cm
11.781 -0.055 m 12.16 -0.98 l 13.297 -3.77 l 13.676 -4.664 l 14.055 -5.594
 l 14.812 -7.383 l 15.188 -8.246 l 15.566 -9.141 l 16.324 -10.859 l 16.703
 -11.723 l 17.082 -12.547 l 17.461 -13.406 l 17.84 -14.234 l 18.219 -15.059
 l 18.598 -15.887 l 18.977 -16.711 l 19.734 -18.297 l 20.113 -19.121 l 20.488
 -19.914 l 20.836 -20.672 l 21.211 -21.461 l 21.59 -22.254 l 22.727 -24.527
 l 23.105 -25.281 l 23.484 -26.008 l 23.863 -26.762 l 24.242 -27.484 l 24.621
 -28.242 l 25.379 -29.688 l 25.758 -30.379 l 26.137 -31.102 l 26.512 -31.789
 l 26.891 -32.512 l 27.648 -33.887 l 28.027 -34.578 l 28.406 -35.266 l 28.785
 -35.918 l 29.164 -36.605 l 29.543 -37.262 l 29.922 -37.914 l 30.301 -38.605
 l 30.68 -39.258 l 31.059 -39.879 l 31.438 -40.531 l 31.812 -41.184 l 32.191
 -41.805 l 32.57 -42.457 l 33.328 -43.699 l 33.707 -44.316 l 34.465 -45.559
 l 34.844 -46.141 l 35.223 -46.762 l 35.602 -47.348 l 35.98 -47.965 l 36.738
 -49.137 l 37.113 -49.723 l 37.492 -50.309 l 37.871 -50.891 l 38.25 -51.477
 l 38.629 -52.027 l 39.008 -52.613 l 39.766 -53.715 l 40.109 -54.301 l 41.246
 -55.953 l 41.625 -56.469 l 42.383 -57.57 l 42.762 -58.086 l 43.137 -58.637
 l 43.895 -59.668 l 44.273 -60.219 l 44.652 -60.734 l 45.031 -61.254 l 45.41
 -61.734 l 46.547 -63.281 l 46.926 -63.766 l 47.305 -64.281 l 47.684 -64.762
 l 48.062 -65.246 l 48.438 -65.762 l 48.816 -66.242 l 49.195 -66.727 l 49.953
 -67.688 l 50.332 -68.172 l 50.711 -68.652 l 51.09 -69.102 l 51.469 -69.582
 l 51.848 -70.031 l 52.227 -70.512 l 52.605 -70.957 l 52.984 -71.441 l 53.363
 -71.887 l 53.738 -72.336 l 54.117 -72.785 l 54.496 -73.23 l 54.875 -73.68
 l 55.254 -74.125 l 55.633 -74.574 l 56.012 -75.02 l 56.391 -75.434 l 56.77
 -75.883 l 57.148 -76.328 l 57.527 -76.742 l 57.906 -77.188 l 58.664 -78.016
 l 59.008 -78.461 l 59.766 -79.289 l 60.141 -79.703 l 60.52 -80.113 l 61.656
 -81.355 l 62.035 -81.734 l 62.414 -82.145 l 62.793 -82.559 l 63.172 -82.938
 l 63.551 -83.352 l 63.93 -83.73 l 64.309 -84.141 l 64.688 -84.52 l 65.062
 -84.934 l 67.715 -87.586 l 68.094 -87.961 l 68.852 -88.719 l 69.23 -89.062
 l 69.988 -89.82 l 70.363 -90.164 l 70.742 -90.543 l 71.121 -90.887 l 71.5
 -91.266 l 71.879 -91.609 l 72.258 -91.957 l 72.637 -92.336 l 75.289 -94.742
 l 75.664 -95.086 l 76.043 -95.434 l 77.18 -96.465 l 77.559 -96.773 l 78.316
 -97.461 l 78.66 -97.773 l 79.039 -98.117 l 79.418 -98.426 l 79.797 -98.77
 l 80.176 -99.082 l 80.555 -99.391 l 80.934 -99.734 l 81.312 -100.043 l 
81.691 -100.355 l 82.066 -100.664 l 82.445 -100.973 l 82.824 -101.316 l 
83.203 -101.629 l 83.961 -102.246 l 84.34 -102.559 l 84.719 -102.867 l 85.098
 -103.141 l 85.477 -103.453 l 86.234 -104.07 l 86.613 -104.383 l 86.988 
-104.656 l 87.367 -104.965 l 87.746 -105.277 l 88.125 -105.551 l 88.504 
-105.859 l 88.883 -106.137 l 89.262 -106.445 l 89.641 -106.723 l 90.02 -107.031
 l 90.398 -107.309 l 90.777 -107.582 l 91.156 -107.891 l 91.535 -108.168
 l 91.914 -108.441 l 92.289 -108.754 l 92.668 -109.027 l 93.047 -109.305
 l 93.426 -109.578 l 93.805 -109.855 l 94.184 -110.129 l 94.562 -110.406
 l 94.941 -110.68 l 95.32 -110.957 l 95.699 -111.23 l 96.078 -111.508 l 
96.457 -111.781 l 96.836 -112.059 l 97.215 -112.297 l 97.559 -112.574 l 
97.938 -112.848 l 98.316 -113.125 l 98.691 -113.363 l S Q
q 1 0 0 -1 0 0 cm
21.59 -0.43 m 22.348 -2.078 l 22.727 -2.906 l 23.105 -3.73 l 23.863 -5.316
 l 24.242 -6.141 l 24.621 -6.934 l 25 -7.691 l 25.375 -8.48 l 25.754 -9.273
 l 26.512 -10.789 l 26.891 -11.543 l 27.648 -13.059 l 28.027 -13.781 l 28.406
 -14.539 l 29.922 -17.43 l 30.297 -18.152 l 30.676 -18.84 l 31.055 -19.562
 l 31.434 -20.254 l 32.57 -22.316 l 32.949 -23.008 l 33.328 -23.695 l 33.707
 -24.348 l 34.086 -25.035 l 34.465 -25.691 l 34.844 -26.344 l 35.219 -27
 l 35.977 -28.305 l 36.355 -28.926 l 36.734 -29.578 l 37.113 -30.199 l 37.492
 -30.852 l 37.836 -31.473 l 38.215 -32.094 l 38.594 -32.711 l 38.973 -33.332
 l 39.352 -33.949 l 39.73 -34.535 l 40.109 -35.156 l 40.488 -35.742 l 40.863
 -36.359 l 42 -38.117 l 42.379 -38.699 l 43.137 -39.871 l 43.516 -40.422
 l 43.895 -41.008 l 44.652 -42.109 l 45.031 -42.691 l 45.41 -43.242 l 45.785
 -43.793 l 46.922 -45.445 l 47.301 -45.965 l 47.68 -46.512 l 48.059 -47.031
 l 48.438 -47.582 l 49.195 -48.613 l 49.574 -49.164 l 49.953 -49.68 l 50.328
 -50.195 l 50.707 -50.711 l 51.086 -51.23 l 51.465 -51.711 l 52.223 -52.742
 l 52.602 -53.227 l 52.98 -53.742 l 53.359 -54.223 l 53.738 -54.707 l 54.117
 -55.188 l 54.496 -55.703 l 54.875 -56.184 l 55.25 -56.668 l 55.629 -57.148
 l 56.008 -57.598 l 56.766 -58.559 l 57.145 -59.008 l 57.488 -59.488 l 57.867
 -59.973 l 58.246 -60.418 l 58.625 -60.867 l 59.004 -61.348 l 59.383 -61.797
 l 59.762 -62.242 l 60.141 -62.691 l 60.52 -63.137 l 60.895 -63.586 l 61.273
 -64.031 l 61.652 -64.48 l 62.031 -64.895 l 62.41 -65.34 l 62.789 -65.789
 l 63.168 -66.199 l 63.547 -66.648 l 63.926 -67.062 l 64.305 -67.508 l 65.062
 -68.336 l 65.441 -68.746 l 65.816 -69.16 l 66.195 -69.609 l 66.574 -70.02
 l 66.953 -70.434 l 67.332 -70.812 l 68.09 -71.641 l 68.469 -72.051 l 68.848
 -72.465 l 69.227 -72.844 l 69.605 -73.258 l 69.984 -73.637 l 70.363 -74.047
 l 70.738 -74.426 l 71.117 -74.805 l 71.496 -75.219 l 73.391 -77.113 l 73.77
 -77.488 l 74.906 -78.625 l 75.281 -79.004 l 75.66 -79.383 l 76.039 -79.727
 l 76.797 -80.484 l 77.176 -80.828 l 77.52 -81.207 l 77.898 -81.551 l 78.277
 -81.93 l 79.035 -82.617 l 79.414 -82.996 l 80.172 -83.684 l 80.551 -84.031
 l 80.93 -84.375 l 81.305 -84.719 l 83.578 -86.781 l 83.957 -87.094 l 84.715
 -87.781 l 85.094 -88.09 l 85.473 -88.434 l 85.848 -88.777 l 86.227 -89.09
 l 86.605 -89.398 l 86.984 -89.742 l 87.363 -90.051 l 87.742 -90.398 l 88.879
 -91.324 l 89.258 -91.672 l 90.395 -92.598 l 90.77 -92.91 l 91.527 -93.527
 l 91.906 -93.84 l 92.664 -94.457 l 93.043 -94.77 l 93.422 -95.043 l 93.801
 -95.352 l 94.18 -95.664 l 94.559 -95.973 l 94.938 -96.246 l 95.316 -96.559
 l 95.691 -96.832 l 96.07 -97.145 l 96.449 -97.453 l 96.828 -97.727 l 97.172
 -98.004 l 97.551 -98.312 l 97.93 -98.59 l 98.309 -98.898 l 98.688 -99.172
 l 99.066 -99.449 l 99.445 -99.758 l 99.824 -100.035 l 100.203 -100.309 
l 100.582 -100.586 l 100.961 -100.859 l 101.336 -101.137 l 101.715 -101.41
 l 102.094 -101.688 l 102.473 -101.961 l 102.852 -102.238 l 103.23 -102.512
 l 103.609 -102.789 l 103.988 -103.062 l 104.367 -103.34 l 105.125 -103.887
 l 105.504 -104.129 l 105.883 -104.406 l 106.258 -104.68 l 106.637 -104.957
 l 107.016 -105.195 l 107.395 -105.473 l 107.773 -105.711 l 108.152 -105.988
 l 108.531 -106.262 l 108.91 -106.504 l 109.289 -106.781 l 109.668 -107.02
 l 110.047 -107.297 l 110.426 -107.535 l 110.801 -107.777 l 111.18 -108.055
 l 111.559 -108.293 l 111.938 -108.535 l 112.316 -108.809 l 113.074 -109.293
 l 113.453 -109.531 l 113.832 -109.773 l 114.211 -110.051 l 114.59 -110.289
 l 115.348 -110.773 l 115.723 -111.012 l 116.48 -111.496 l 116.824 -111.734
 l 117.582 -112.219 l 117.961 -112.457 l 118.34 -112.699 l 118.719 -112.906
 l 119.098 -113.148 l 119.477 -113.387 l S Q
q 1 0 0 -1 0 0 cm
32.562 -0.508 m 32.941 -1.23 l 33.32 -1.988 l 34.836 -4.879 l 35.215 -5.57
 l 35.594 -6.293 l 36.73 -8.355 l 37.105 -9.043 l 37.484 -9.734 l 38.242
 -11.109 l 38.621 -11.766 l 39 -12.418 l 39.379 -13.105 l 39.758 -13.762
 l 40.516 -15.066 l 40.895 -15.688 l 41.273 -16.34 l 41.648 -16.996 l 42.027
 -17.613 l 42.375 -18.234 l 42.75 -18.887 l 43.508 -20.129 l 43.887 -20.746
 l 44.266 -21.367 l 44.645 -21.953 l 45.023 -22.57 l 45.402 -23.156 l 45.781
 -23.777 l 46.16 -24.359 l 46.918 -25.531 l 47.293 -26.117 l 47.672 -26.699
 l 48.809 -28.457 l 49.188 -29.008 l 49.566 -29.594 l 51.082 -31.797 l 51.461
 -32.344 l 51.84 -32.895 l 52.215 -33.445 l 52.973 -34.547 l 53.352 -35.066
 l 53.73 -35.617 l 54.488 -36.648 l 54.867 -37.199 l 56.383 -39.262 l 56.758
 -39.781 l 57.137 -40.262 l 57.895 -41.293 l 58.273 -41.777 l 58.652 -42.293
 l 59.031 -42.773 l 59.41 -43.258 l 59.789 -43.773 l 60.547 -44.734 l 60.926
 -45.219 l 61.305 -45.699 l 61.68 -46.18 l 62.059 -46.664 l 62.402 -47.109
 l 62.781 -47.594 l 63.16 -48.074 l 63.539 -48.523 l 63.918 -49.004 l 64.297
 -49.449 l 64.676 -49.898 l 65.055 -50.379 l 65.434 -50.828 l 65.812 -51.273
 l 66.57 -52.172 l 66.945 -52.617 l 67.324 -53.066 l 67.703 -53.512 l 68.082
 -53.961 l 68.461 -54.371 l 69.219 -55.27 l 69.598 -55.68 l 69.977 -56.129
 l 70.355 -56.543 l 70.734 -56.953 l 71.113 -57.402 l 71.492 -57.816 l 71.867
 -58.227 l 72.625 -59.055 l 73.004 -59.465 l 74.141 -60.707 l 74.52 -61.117
 l 74.898 -61.531 l 75.277 -61.91 l 75.656 -62.324 l 76.035 -62.703 l 76.41
 -63.113 l 76.789 -63.527 l 77.547 -64.285 l 77.926 -64.699 l 78.684 -65.457
 l 79.062 -65.832 l 79.441 -66.211 l 79.82 -66.625 l 80.957 -67.762 l 81.332
 -68.105 l 82.09 -68.863 l 82.434 -69.242 l 82.812 -69.621 l 83.191 -69.965
 l 83.57 -70.344 l 83.949 -70.688 l 84.328 -71.066 l 84.707 -71.41 l 85.086
 -71.789 l 85.465 -72.133 l 85.844 -72.512 l 86.602 -73.199 l 86.977 -73.543
 l 87.355 -73.887 l 87.734 -74.266 l 88.871 -75.297 l 89.25 -75.645 l 90.008
 -76.332 l 90.387 -76.641 l 91.145 -77.328 l 91.52 -77.672 l 91.898 -77.984
 l 92.656 -78.672 l 93.035 -78.98 l 93.414 -79.324 l 93.793 -79.637 l 94.172
 -79.98 l 94.93 -80.598 l 95.309 -80.941 l 95.688 -81.254 l 96.066 -81.562
 l 96.441 -81.906 l 96.82 -82.215 l 97.199 -82.527 l 97.957 -83.145 l 98.336
 -83.457 l 99.094 -84.074 l 99.473 -84.387 l 100.609 -85.312 l 100.984 -85.625
 l 101.363 -85.898 l 101.742 -86.211 l 102.121 -86.52 l 102.465 -86.828 
l 102.844 -87.105 l 103.223 -87.414 l 103.602 -87.688 l 103.98 -88 l 104.359
 -88.273 l 104.738 -88.582 l 105.117 -88.859 l 105.496 -89.168 l 105.875
 -89.445 l 106.254 -89.754 l 106.629 -90.031 l 107.008 -90.305 l 107.387
 -90.582 l 107.766 -90.891 l 108.145 -91.164 l 108.523 -91.441 l 108.902
 -91.715 l 109.281 -91.992 l 109.66 -92.266 l 110.039 -92.543 l 110.418 
-92.816 l 110.797 -93.094 l 111.176 -93.367 l 111.551 -93.645 l 111.93 -93.918
 l 112.309 -94.195 l 112.688 -94.469 l 113.066 -94.746 l 113.445 -95.02 
l 113.824 -95.262 l 114.203 -95.535 l 114.582 -95.812 l 114.961 -96.086 
l 115.34 -96.328 l 115.719 -96.602 l 116.094 -96.879 l 116.473 -97.121 l
 116.852 -97.395 l 117.23 -97.637 l 117.609 -97.91 l 117.988 -98.152 l 118.367
 -98.426 l 119.125 -98.91 l 119.504 -99.184 l 119.883 -99.426 l 120.262 
-99.699 l 120.641 -99.941 l 121.016 -100.184 l 121.395 -100.422 l 121.773
 -100.699 l 122.152 -100.941 l 122.496 -101.18 l 123.254 -101.664 l 123.633
 -101.902 l 124.012 -102.145 l 124.391 -102.418 l 125.148 -102.902 l S Q
q 1 0 0 -1 0 0 cm
44.66 -0.117 m 45.039 -0.773 l 45.797 -2.078 l 46.176 -2.734 l 46.555 -3.355
 l 46.934 -4.008 l 47.312 -4.629 l 47.691 -5.281 l 48.07 -5.902 l 48.449
 -6.52 l 48.828 -7.141 l 49.207 -7.758 l 49.582 -8.379 l 49.961 -8.965 l
 50.34 -9.582 l 50.719 -10.203 l 51.477 -11.375 l 51.855 -11.992 l 52.992
 -13.75 l 53.371 -14.332 l 53.75 -14.883 l 54.508 -16.055 l 54.852 -16.605
 l 55.23 -17.191 l 55.605 -17.742 l 58.637 -22.148 l 59.016 -22.664 l 59.395
 -23.215 l 60.152 -24.246 l 60.531 -24.797 l 60.906 -25.312 l 61.285 -25.828
 l 61.664 -26.348 l 62.801 -27.895 l 63.18 -28.375 l 63.559 -28.895 l 63.938
 -29.41 l 64.316 -29.891 l 64.695 -30.406 l 65.074 -30.891 l 65.453 -31.371
 l 65.828 -31.887 l 66.207 -32.371 l 66.965 -33.332 l 67.344 -33.816 l 68.102
 -34.777 l 68.48 -35.262 l 68.859 -35.707 l 69.238 -36.191 l 69.617 -36.637
 l 69.996 -37.121 l 70.375 -37.566 l 70.754 -38.051 l 71.129 -38.496 l 71.508
 -38.945 l 71.887 -39.426 l 72.266 -39.875 l 72.645 -40.32 l 73.023 -40.77
 l 73.402 -41.215 l 73.781 -41.664 l 74.125 -42.109 l 74.504 -42.523 l 74.883
 -42.973 l 75.262 -43.418 l 75.641 -43.832 l 76.02 -44.277 l 76.398 -44.691
 l 76.777 -45.141 l 77.152 -45.551 l 77.531 -46 l 77.91 -46.414 l 78.289
 -46.824 l 79.426 -48.066 l 79.805 -48.477 l 80.941 -49.719 l 81.32 -50.129
 l 81.699 -50.543 l 82.078 -50.922 l 82.453 -51.336 l 82.832 -51.75 l 83.211
 -52.125 l 83.59 -52.539 l 83.969 -52.918 l 84.348 -53.332 l 85.484 -54.469
 l 85.863 -54.879 l 87.379 -56.395 l 87.754 -56.773 l 88.891 -57.91 l 89.27
 -58.254 l 90.406 -59.391 l 90.785 -59.734 l 91.164 -60.113 l 91.543 -60.457
 l 91.922 -60.836 l 92.301 -61.18 l 92.676 -61.559 l 93.055 -61.902 l 93.402
 -62.246 l 93.777 -62.625 l 95.293 -64 l 95.672 -64.348 l 98.324 -66.754
 l 98.699 -67.098 l 99.078 -67.41 l 99.836 -68.098 l 100.215 -68.406 l 100.594
 -68.75 l 100.973 -69.098 l 101.352 -69.406 l 101.73 -69.75 l 102.109 -70.059
 l 102.488 -70.371 l 102.867 -70.715 l 103.625 -71.332 l 104 -71.676 l 104.379
 -71.988 l 105.137 -72.605 l 105.516 -72.918 l 106.273 -73.535 l 106.652
 -73.848 l 107.789 -74.773 l 108.168 -75.086 l 108.926 -75.703 l 109.301
 -76.016 l 109.68 -76.289 l 110.059 -76.598 l 110.438 -76.91 l 110.816 -77.219
 l 111.195 -77.496 l 111.574 -77.805 l 111.953 -78.078 l 112.332 -78.391
 l 112.676 -78.664 l 113.055 -78.973 l 113.434 -79.25 l 113.812 -79.559 
l 114.191 -79.836 l 114.57 -80.145 l 114.949 -80.422 l 115.324 -80.695 l
 115.703 -80.973 l 116.082 -81.281 l 116.461 -81.555 l 116.84 -81.832 l 
117.219 -82.105 l 117.598 -82.383 l 117.977 -82.691 l 118.355 -82.969 l 
118.734 -83.242 l 119.113 -83.52 l 119.492 -83.793 l 119.871 -84.07 l 120.25
 -84.344 l 120.625 -84.586 l 121.004 -84.859 l 121.383 -85.137 l 121.762
 -85.41 l 122.141 -85.688 l 122.52 -85.961 l 122.898 -86.203 l 123.277 -86.477
 l 123.656 -86.754 l 124.035 -86.996 l 124.414 -87.27 l 124.793 -87.547 
l 125.172 -87.785 l S Q
q 1 0 0 -1 0 0 cm
58.629 -0.312 m 59.004 -0.898 l 59.383 -1.484 l 59.762 -2.035 l 60.141 
-2.621 l 60.52 -3.203 l 61.277 -4.305 l 61.656 -4.891 l 63.551 -7.645 l 
63.926 -8.195 l 64.305 -8.746 l 64.684 -9.262 l 65.062 -9.812 l 65.441 -10.328
 l 65.82 -10.879 l 66.199 -11.398 l 66.578 -11.914 l 66.957 -12.465 l 68.473
 -14.527 l 68.852 -15.047 l 69.227 -15.527 l 69.984 -16.559 l 70.363 -17.043
 l 70.742 -17.559 l 71.121 -18.039 l 71.5 -18.555 l 71.879 -19.039 l 72.637
 -20 l 73.016 -20.516 l 73.395 -21 l 73.773 -21.48 l 74.117 -21.93 l 74.496
 -22.41 l 74.871 -22.891 l 75.25 -23.375 l 75.629 -23.855 l 76.008 -24.305
 l 76.387 -24.785 l 76.766 -25.234 l 77.145 -25.715 l 77.523 -26.164 l 77.902
 -26.609 l 78.281 -27.059 l 78.66 -27.539 l 79.039 -27.988 l 79.418 -28.434
 l 79.793 -28.883 l 80.172 -29.328 l 80.551 -29.777 l 80.93 -30.223 l 81.309
 -30.637 l 81.688 -31.086 l 82.066 -31.531 l 82.445 -31.945 l 82.824 -32.391
 l 83.203 -32.805 l 83.582 -33.254 l 83.961 -33.664 l 84.34 -34.113 l 84.715
 -34.527 l 85.094 -34.938 l 85.473 -35.352 l 85.852 -35.801 l 86.23 -36.211
 l 87.367 -37.453 l 87.746 -37.863 l 88.125 -38.242 l 88.883 -39.07 l 89.262
 -39.48 l 89.637 -39.859 l 90.016 -40.273 l 90.395 -40.652 l 90.773 -41.066
 l 91.152 -41.445 l 91.531 -41.855 l 92.289 -42.613 l 92.668 -43.027 l 93.047
 -43.406 l 93.391 -43.785 l 94.148 -44.543 l 94.527 -44.953 l 94.906 -45.332
 l 95.285 -45.676 l 95.66 -46.055 l 97.176 -47.57 l 97.555 -47.914 l 98.312
 -48.672 l 98.691 -49.016 l 99.07 -49.395 l 99.449 -49.738 l 99.828 -50.117
 l 100.207 -50.461 l 100.582 -50.84 l 101.34 -51.527 l 101.719 -51.875 l
 102.098 -52.25 l 102.477 -52.598 l 105.129 -55.004 l 105.504 -55.348 l 
105.883 -55.695 l 106.262 -56.039 l 106.641 -56.348 l 107.777 -57.379 l 
108.156 -57.691 l 108.535 -58.035 l 108.914 -58.344 l 109.293 -58.688 l 
109.672 -58.996 l 110.051 -59.344 l 110.426 -59.652 l 110.805 -59.996 l 
111.184 -60.305 l 111.562 -60.617 l 111.941 -60.961 l 112.699 -61.578 l 
113.043 -61.891 l 113.422 -62.199 l 113.801 -62.543 l 114.18 -62.852 l 114.559
 -63.164 l 115.695 -64.09 l 116.07 -64.402 l 116.449 -64.711 l 116.828 -64.988
 l 117.965 -65.914 l 118.344 -66.227 l 118.723 -66.5 l 119.102 -66.812 l
 119.48 -67.121 l 119.859 -67.395 l 120.238 -67.707 l 120.617 -68.016 l 
120.992 -68.289 l 121.371 -68.602 l 121.75 -68.875 l 122.129 -69.188 l 122.508
 -69.461 l 122.887 -69.738 l 123.266 -70.047 l 123.645 -70.32 l 124.023 
-70.598 l 124.402 -70.906 l 124.781 -71.184 l 125.16 -71.457 l S Q
q 1 0 0 -1 0 0 cm
74.141 -0.102 m 74.898 -1.133 l 75.277 -1.652 l 75.656 -2.168 l 76.035 
-2.648 l 76.414 -3.164 l 76.789 -3.68 l 77.168 -4.164 l 77.547 -4.68 l 77.926
 -5.16 l 78.305 -5.645 l 78.684 -6.16 l 79.062 -6.641 l 79.441 -7.125 l 
80.199 -8.086 l 80.578 -8.57 l 80.922 -9.051 l 81.301 -9.531 l 81.68 -10.016
 l 82.059 -10.461 l 82.438 -10.945 l 82.812 -11.426 l 83.191 -11.875 l 83.57
 -12.355 l 83.949 -12.805 l 84.328 -13.285 l 84.707 -13.73 l 85.465 -14.629
 l 85.844 -15.109 l 86.223 -15.555 l 86.98 -16.453 l 87.359 -16.898 l 87.738
 -17.348 l 88.113 -17.758 l 88.492 -18.207 l 88.871 -18.652 l 89.25 -19.102
 l 89.629 -19.516 l 90.008 -19.961 l 90.387 -20.375 l 90.766 -20.824 l 91.145
 -21.234 l 91.523 -21.684 l 91.902 -22.098 l 92.281 -22.508 l 92.66 -22.922
 l 93.035 -23.371 l 93.414 -23.781 l 94.551 -25.023 l 94.93 -25.434 l 95.309
 -25.848 l 95.688 -26.227 l 96.445 -27.055 l 96.824 -27.465 l 97.203 -27.844
 l 97.582 -28.258 l 97.961 -28.637 l 98.336 -29.051 l 98.715 -29.43 l 99.094
 -29.84 l 99.473 -30.219 l 99.816 -30.633 l 101.332 -32.148 l 101.711 -32.559
 l 103.605 -34.453 l 103.984 -34.797 l 104.359 -35.176 l 105.496 -36.312
 l 105.875 -36.656 l 106.254 -37.035 l 106.633 -37.379 l 107.391 -38.137
 l 108.148 -38.824 l 108.527 -39.203 l 108.906 -39.547 l 109.285 -39.926
 l 109.66 -40.27 l 110.797 -41.301 l 111.176 -41.68 l 111.555 -42.027 l 
113.828 -44.09 l 114.207 -44.402 l 114.586 -44.746 l 114.961 -45.09 l 115.34
 -45.434 l 115.719 -45.742 l 116.477 -46.43 l 116.855 -46.742 l 117.234 
-47.086 l 117.613 -47.395 l 117.992 -47.738 l 118.371 -48.051 l 118.75 -48.395
 l 119.094 -48.703 l 119.473 -49.047 l 119.852 -49.355 l 120.23 -49.668 
l 120.609 -50.012 l 120.984 -50.32 l 121.363 -50.629 l 121.742 -50.941 l
 122.121 -51.285 l 122.879 -51.902 l 123.258 -52.215 l 124.016 -52.832 l
 124.395 -53.145 l 125.152 -53.762 l S Q
q 1 0 0 -1 0 0 cm
91.887 -0.266 m 92.266 -0.711 l 92.645 -1.195 l 93.023 -1.641 l 93.402 
-2.09 l 93.781 -2.535 l 94.16 -2.984 l 94.539 -3.43 l 94.914 -3.879 l 95.293
 -4.328 l 95.672 -4.773 l 96.051 -5.188 l 96.43 -5.633 l 96.809 -6.082 l
 97.188 -6.496 l 97.566 -6.941 l 97.945 -7.355 l 98.324 -7.801 l 98.703 
-8.215 l 99.082 -8.664 l 99.461 -9.074 l 99.836 -9.488 l 100.215 -9.938 
l 100.594 -10.352 l 100.973 -10.762 l 101.73 -11.59 l 102.109 -12 l 103.246
 -13.242 l 103.625 -13.652 l 104.004 -14.031 l 104.383 -14.445 l 104.758
 -14.859 l 105.137 -15.238 l 105.516 -15.648 l 105.895 -16.062 l 106.273
 -16.441 l 106.617 -16.855 l 107.375 -17.613 l 107.754 -18.023 l 108.512
 -18.781 l 108.891 -19.195 l 110.406 -20.711 l 110.781 -21.09 l 111.16 -21.469
 l 111.539 -21.844 l 112.676 -22.98 l 113.055 -23.324 l 114.191 -24.461 
l 114.57 -24.805 l 114.949 -25.184 l 115.328 -25.527 l 115.703 -25.906 l
 116.082 -26.25 l 116.461 -26.629 l 116.84 -26.973 l 117.219 -27.352 l 117.598
 -27.695 l 117.977 -28.043 l 118.355 -28.418 l 118.734 -28.766 l 120.25 
-30.141 l 120.625 -30.52 l 121.762 -31.551 l 122.141 -31.863 l 124.035 -33.582
 l 124.414 -33.891 l 124.793 -34.238 l 125.172 -34.582 l S Q
q 1 0 0 -1 0 0 cm
111.934 -0.395 m 112.691 -1.223 l 113.07 -1.602 l 113.449 -2.012 l 113.828
 -2.391 l 114.586 -3.219 l 115.344 -3.977 l 115.719 -4.387 l 116.098 -4.766
 l 116.477 -5.18 l 117.992 -6.695 l 118.371 -7.105 l 120.266 -9 l 120.641
 -9.379 l 121.02 -9.723 l 122.156 -10.859 l 122.5 -11.238 l 122.879 -11.582
 l 123.258 -11.961 l 123.637 -12.305 l 124.395 -13.062 l 124.773 -13.406
 l 125.152 -13.785 l S Q
q 1 0 0 -1 0 0 cm
11.797 -21.895 m 12.172 -22.754 l 12.551 -23.609 l 12.926 -24.465 l 13.305
 -25.324 l 13.68 -26.18 l 14.059 -27.004 l 14.434 -27.828 l 14.812 -28.648
 l 15.191 -29.473 l 15.566 -30.262 l 15.945 -31.082 l 16.32 -31.871 l 16.699
 -32.66 l 17.074 -33.449 l 17.453 -34.203 l 17.828 -34.992 l 18.207 -35.746
 l 18.582 -36.5 l 19.34 -38.008 l 19.715 -38.73 l 20.094 -39.484 l 20.469
 -40.203 l 20.848 -40.926 l 21.223 -41.645 l 21.602 -42.363 l 21.977 -43.082
 l 22.355 -43.77 l 22.734 -44.488 l 23.109 -45.176 l 23.488 -45.859 l 23.863
 -46.547 l 24.242 -47.234 l 24.617 -47.883 l 24.996 -48.57 l 25.371 -49.223
 l 25.75 -49.906 l 26.125 -50.559 l 26.539 -51.211 l 26.883 -51.859 l 27.293
 -52.477 l 27.668 -53.129 l 28.047 -53.746 l 28.426 -54.398 l 28.801 -55.016
 l 29.18 -55.633 l 29.555 -56.25 l 29.934 -56.867 l 30.309 -57.449 l 30.688
 -58.066 l 31.062 -58.648 l 31.441 -59.266 l 31.82 -59.852 l 32.195 -60.434
 l 32.574 -61.016 l 32.949 -61.598 l 33.328 -62.18 l 33.703 -62.766 l 34.082
 -63.312 l 34.457 -63.895 l 34.836 -64.445 l 35.211 -64.992 l 35.59 -65.574
 l 35.969 -66.125 l 36.344 -66.672 l 36.723 -67.188 l 37.098 -67.734 l 37.477
 -68.285 l 37.852 -68.797 l 38.23 -69.348 l 38.605 -69.863 l 38.984 -70.41
 l 39.363 -70.926 l 39.738 -71.438 l 40.117 -71.953 l 40.492 -72.469 l 40.871
 -72.98 l 41.246 -73.461 l 41.625 -73.977 l 42 -74.492 l 42.379 -74.969 
l 42.754 -75.449 l 43.168 -75.965 l 43.543 -76.445 l 43.922 -76.926 l 44.297
 -77.406 l 44.676 -77.883 l 45.055 -78.363 l 45.43 -78.844 l 45.809 -79.324
 l 46.184 -79.77 l 46.562 -80.25 l 46.938 -80.695 l 47.316 -81.176 l 47.691
 -81.621 l 48.07 -82.066 l 48.449 -82.547 l 48.824 -82.992 l 49.203 -83.438
 l 49.578 -83.883 l 49.957 -84.332 l 50.332 -84.742 l 50.711 -85.188 l 51.086
 -85.633 l 51.465 -86.078 l 51.84 -86.492 l 52.219 -86.938 l 52.598 -87.348
 l 52.973 -87.758 l 53.352 -88.203 l 53.727 -88.617 l 54.105 -89.027 l 54.48
 -89.438 l 54.859 -89.852 l 55.234 -90.262 l 55.613 -90.672 l 55.992 -91.086
 l 56.367 -91.496 l 56.746 -91.875 l 57.121 -92.285 l 57.5 -92.695 l 57.875
 -93.074 l 58.254 -93.484 l 58.629 -93.863 l 59.008 -94.238 l 59.383 -94.652
 l 59.797 -95.027 l 60.172 -95.406 l 60.551 -95.781 l 60.926 -96.16 l 61.305
 -96.535 l 62.438 -97.668 l 62.812 -98.047 l 63.191 -98.422 l 63.566 -98.766
 l 63.945 -99.141 l 64.32 -99.484 l 64.699 -99.863 l 65.078 -100.203 l 65.453
 -100.582 l 65.832 -100.926 l 66.207 -101.301 l 66.586 -101.645 l 66.961
 -101.988 l 67.34 -102.332 l 67.715 -102.672 l 68.094 -103.051 l 68.469 
-103.395 l 68.848 -103.738 l 69.227 -104.047 l 69.602 -104.387 l 69.98 -104.73
 l 70.355 -105.074 l 70.734 -105.418 l 71.109 -105.727 l 71.488 -106.066
 l 71.863 -106.41 l 72.242 -106.719 l 72.621 -107.062 l 72.996 -107.371 
l 73.375 -107.715 l 73.75 -108.023 l 74.129 -108.363 l 74.504 -108.672 l
 74.883 -108.98 l 75.258 -109.289 l 75.637 -109.633 l 76.047 -109.941 l 
76.426 -110.25 l 76.801 -110.559 l 77.18 -110.867 l 77.555 -111.176 l 78.312
 -111.793 l 78.688 -112.102 l 79.066 -112.375 l 79.441 -112.684 l 79.82 
-112.992 l 80.195 -113.301 l S Q
q 1 0 0 -1 0 0 cm
11.77 -42.059 m 12.145 -42.844 l 12.555 -43.664 l 12.93 -44.449 l 13.309
 -45.234 l 13.684 -45.988 l 14.059 -46.773 l 14.434 -47.523 l 14.809 -48.277
 l 15.188 -49.027 l 15.562 -49.777 l 15.938 -50.531 l 16.312 -51.246 l 16.688
 -52 l 17.066 -52.715 l 17.816 -54.152 l 18.191 -54.836 l 18.602 -55.551
 l 18.977 -56.234 l 19.355 -56.918 l 20.48 -58.969 l 20.855 -59.617 l 21.234
 -60.301 l 21.984 -61.598 l 22.359 -62.25 l 22.734 -62.898 l 23.113 -63.547
 l 23.488 -64.195 l 23.863 -64.809 l 24.238 -65.426 l 24.648 -66.074 l 25.023
 -66.688 l 25.402 -67.305 l 25.777 -67.887 l 26.527 -69.113 l 26.902 -69.695
 l 27.281 -70.277 l 27.656 -70.891 l 28.406 -72.055 l 28.781 -72.633 l 29.16
 -73.18 l 29.535 -73.762 l 29.91 -74.309 l 30.285 -74.887 l 30.695 -75.434
 l 31.07 -75.98 l 31.449 -76.527 l 32.949 -78.715 l 33.328 -79.227 l 33.703
 -79.773 l 34.453 -80.797 l 34.828 -81.344 l 35.207 -81.859 l 35.957 -82.883
 l 36.367 -83.359 l 36.742 -83.875 l 37.117 -84.387 l 37.496 -84.863 l 37.871
 -85.375 l 38.246 -85.855 l 38.621 -86.332 l 38.996 -86.812 l 39.375 -87.289
 l 39.75 -87.77 l 40.5 -88.723 l 40.875 -89.203 l 41.254 -89.648 l 42.004
 -90.602 l 42.414 -91.047 l 42.789 -91.492 l 43.164 -91.969 l 43.543 -92.414
 l 43.918 -92.859 l 44.293 -93.301 l 45.043 -94.191 l 45.422 -94.602 l 45.797
 -95.043 l 46.172 -95.488 l 46.547 -95.898 l 46.922 -96.344 l 47.301 -96.754
 l 47.676 -97.195 l 48.051 -97.605 l 48.461 -98.016 l 49.211 -98.836 l 49.59
 -99.246 l 51.09 -100.887 l 51.469 -101.297 l 51.844 -101.672 l 52.219 -102.082
 l 52.594 -102.457 l 52.969 -102.867 l 53.348 -103.242 l 53.723 -103.621
 l 54.098 -104.027 l 54.508 -104.406 l 55.258 -105.156 l 55.637 -105.531
 l 56.012 -105.906 l 56.387 -106.285 l 57.137 -107.035 l 57.516 -107.379
 l 58.266 -108.129 l 58.641 -108.469 l 59.016 -108.848 l 59.395 -109.188
 l 59.77 -109.562 l 60.145 -109.906 l 60.555 -110.246 l 60.93 -110.621 l
 61.305 -110.965 l 61.68 -111.305 l 62.059 -111.648 l 62.434 -111.988 l 
62.809 -112.332 l 63.184 -112.672 l 63.559 -113.016 l 63.938 -113.355 l S Q
q 1 0 0 -1 0 0 cm
11.789 -60.672 m 12.16 -61.422 l 12.535 -62.137 l 12.91 -62.887 l 14.035
 -65.031 l 14.41 -65.711 l 14.816 -66.426 l 15.191 -67.109 l 15.566 -67.824
 l 15.941 -68.504 l 16.316 -69.152 l 17.066 -70.512 l 17.438 -71.16 l 17.812
 -71.805 l 18.188 -72.488 l 18.598 -73.133 l 18.973 -73.746 l 19.348 -74.395
 l 19.719 -75.043 l 20.094 -75.652 l 21.969 -78.719 l 22.375 -79.332 l 23.125
 -80.488 l 23.5 -81.102 l 24.25 -82.258 l 24.625 -82.84 l 25 -83.383 l 25.371
 -83.961 l 25.746 -84.508 l 26.156 -85.086 l 26.531 -85.629 l 26.906 -86.176
 l 27.281 -86.719 l 27.652 -87.266 l 28.027 -87.809 l 28.402 -88.355 l 28.777
 -88.863 l 29.152 -89.41 l 29.527 -89.922 l 29.934 -90.465 l 30.684 -91.488
 l 31.059 -91.996 l 31.809 -93.02 l 32.184 -93.496 l 32.559 -94.008 l 32.93
 -94.484 l 33.305 -94.992 l 33.715 -95.469 l 34.09 -95.945 l 34.465 -96.457
 l 34.84 -96.934 l 35.211 -97.41 l 35.586 -97.855 l 36.336 -98.809 l 36.711
 -99.25 l 37.086 -99.727 l 37.492 -100.168 l 37.867 -100.645 l 38.242 -101.09
 l 38.992 -101.973 l 39.367 -102.418 l 40.492 -103.742 l 40.863 -104.188
 l 41.273 -104.594 l 41.648 -105.039 l 42.023 -105.445 l 42.398 -105.891
 l 42.773 -106.297 l 43.145 -106.742 l 43.52 -107.148 l 43.895 -107.559 
l 44.27 -107.965 l 44.645 -108.375 l 45.055 -108.781 l 45.426 -109.191 l
 45.801 -109.566 l 46.176 -109.977 l 46.551 -110.383 l 46.926 -110.758 l
 47.301 -111.168 l 47.676 -111.543 l 48.051 -111.949 l 48.422 -112.324 l
 48.832 -112.699 l 49.207 -113.105 l S Q
q 1 0 0 -1 0 0 cm
11.77 -77.852 m 12.141 -78.531 l 12.551 -79.211 l 12.922 -79.891 l 13.297
 -80.535 l 13.668 -81.215 l 14.418 -82.504 l 14.789 -83.148 l 15.164 -83.793
 l 15.57 -84.438 l 15.945 -85.047 l 16.316 -85.695 l 16.691 -86.305 l 17.062
 -86.914 l 17.438 -87.527 l 17.809 -88.137 l 18.219 -88.75 l 18.59 -89.324
 l 18.965 -89.938 l 19.336 -90.512 l 20.086 -91.668 l 20.457 -92.246 l 20.832
 -92.82 l 21.238 -93.398 l 21.613 -93.941 l 21.984 -94.52 l 22.359 -95.062
 l 22.73 -95.605 l 23.48 -96.691 l 23.887 -97.234 l 24.258 -97.777 l 24.633
 -98.285 l 25.008 -98.828 l 25.379 -99.34 l 25.754 -99.848 l 26.125 -100.391
 l 26.535 -100.898 l 26.906 -101.41 l 27.281 -101.918 l 27.652 -102.395 
l 28.027 -102.902 l 28.402 -103.379 l 28.773 -103.887 l 29.148 -104.363 
l 29.555 -104.871 l 29.93 -105.348 l 30.301 -105.82 l 30.676 -106.297 l 
31.047 -106.773 l 31.422 -107.215 l 31.797 -107.688 l 32.203 -108.164 l 
32.574 -108.605 l 32.949 -109.082 l 33.324 -109.523 l 33.695 -109.965 l 
34.07 -110.402 l 34.441 -110.879 l 34.816 -111.32 l 35.223 -111.727 l 35.598
 -112.168 l 35.969 -112.609 l 36.344 -113.051 l S Q
q 1 0 0 -1 0 0 cm
11.781 -93.695 m 12.152 -94.34 l 12.527 -94.949 l 12.934 -95.559 l 13.305
 -96.199 l 13.676 -96.809 l 14.051 -97.387 l 14.793 -98.605 l 15.199 -99.18
 l 15.574 -99.789 l 16.316 -100.938 l 16.688 -101.516 l 17.062 -102.055 
l 17.469 -102.633 l 17.84 -103.207 l 18.211 -103.75 l 18.586 -104.289 l 
19.328 -105.375 l 19.734 -105.914 l 20.109 -106.457 l 20.48 -106.996 l 20.852
 -107.504 l 21.223 -108.047 l 21.598 -108.555 l 22.004 -109.062 l 22.746
 -110.078 l 23.121 -110.586 l 23.863 -111.602 l 24.27 -112.074 l 24.645 
-112.582 l 25.016 -113.055 l S Q
q 1 0 0 -1 0 0 cm
11.793 -108.332 m 13.648 -111.203 l 14.055 -111.742 l 14.426 -112.316 l
 14.797 -112.855 l 15.168 -113.398 l S Q
25.188 80.527 m 25.188 79.352 24.234 78.398 23.059 78.398 c 21.883 78.398
 20.93 79.352 20.93 80.527 c 20.93 81.703 21.883 82.656 23.059 82.656 c 
24.234 82.656 25.188 81.703 25.188 80.527 c f
70.59 35.227 m 70.59 34.051 69.637 33.098 68.461 33.098 c 67.285 33.098
 66.332 34.051 66.332 35.227 c 66.332 36.402 67.285 37.355 68.461 37.355
 c 69.637 37.355 70.59 36.402 70.59 35.227 c f
36.59 96.426 m 36.59 95.25 35.637 94.297 34.461 94.297 c 33.285 94.297 
32.332 95.25 32.332 96.426 c 32.332 97.602 33.285 98.555 34.461 98.555 c
 35.637 98.555 36.59 97.602 36.59 96.426 c f
89.488 56.426 m 89.488 55.25 88.535 54.297 87.359 54.297 c 86.184 54.297
 85.23 55.25 85.23 56.426 c 85.23 57.602 86.184 58.555 87.359 58.555 c 88.535
 58.555 89.488 57.602 89.488 56.426 c f
1.13366 w
q 1 0 0 -1 0 0 cm
23.098 -80.496 m 23.098 -80.496 37.223 -62.367 45.809 -53.922 c 53.062 
-46.84 68.488 -35.246 68.488 -35.246 c S Q
44.227 59.777 m 48.082 51.66 l 39.965 55.512 l 44.5 55.238 l f
q 1 0 0 -1 0 0 cm
34.461 -96.449 m 34.461 -96.449 28.363 -104.637 30.66 -107.785 c 32.816
 -110.801 38.434 -109.293 41.992 -107.785 c 72.441 -95.184 112.305 -71.52
 110.078 -39.738 c 109.633 -33.504 101.344 -28.504 94.941 -28.402 c 90.281
 -28.332 83.227 -31.895 83.605 -36.348 c 83.879 -39.738 91.719 -37.648 93.055
 -40.902 c 95.145 -46.004 87.336 -56.414 87.336 -56.414 c S Q
84.281 88.039 m 89.234 80.574 l 80.684 83.188 l 85.195 83.594 l f
32.906 83.336 m 32.5 83.305 32.422 83.227 32.109 82.555 c 29.875 77.461
 l 29.688 77.461 l 27.828 81.867 l 27.25 83.18 27.141 83.32 26.719 83.336
 c 26.719 83.508 l 28.484 83.508 l 28.484 83.336 l 28.062 83.336 27.875 
83.227 27.875 82.977 c 27.875 82.867 27.906 82.742 27.953 82.617 c 28.359
 81.57 l 30.719 81.57 l 31.078 82.43 l 31.188 82.68 31.25 82.914 31.25 83.039
 c 31.25 83.258 31.094 83.336 30.625 83.336 c 30.625 83.508 l 32.906 83.508
 l h
28.516 81.195 m 29.547 78.742 l 30.594 81.195 l h
28.516 81.195 m f
72.121 32.484 m 72.871 32.531 72.965 32.625 72.98 33.297 c 72.98 37.266
 l 72.965 37.938 72.855 38.047 72.121 38.078 c 72.121 38.25 l 75.105 38.25
 l 75.809 38.25 76.449 38.062 76.777 37.75 c 77.105 37.469 77.277 37.062
 77.277 36.641 c 77.277 36.234 77.137 35.875 76.84 35.625 c 76.574 35.375
 76.34 35.266 75.746 35.125 c 76.215 35.016 76.402 34.922 76.621 34.734 
c 76.84 34.531 76.98 34.219 76.98 33.844 c 76.98 32.828 76.168 32.312 74.621
 32.312 c 72.121 32.312 l h
73.887 35.328 m 74.762 35.328 75.168 35.375 75.496 35.516 c 76.012 35.719
 76.246 36.094 76.246 36.641 c 76.246 37.125 76.059 37.484 75.699 37.688
 c 75.418 37.844 75.043 37.922 74.465 37.922 c 74.012 37.922 73.887 37.844
 73.887 37.547 c h
73.887 34.969 m 73.887 32.906 l 73.902 32.719 73.934 32.656 74.09 32.656
 c 74.48 32.641 l 75.48 32.625 76.059 33.078 76.059 33.875 c 76.059 34.578
 75.605 34.953 74.746 34.969 c h
73.887 34.969 m f
43.504 95.398 m 43.426 93.383 l 43.238 93.383 l 43.176 93.57 43.035 93.68
 42.863 93.68 c 42.77 93.68 42.645 93.648 42.504 93.602 c 42.066 93.461 
41.613 93.383 41.191 93.383 c 40.457 93.383 39.723 93.664 39.16 94.148 c
 38.535 94.711 38.191 95.539 38.191 96.523 c 38.191 98.352 39.379 99.57 
41.176 99.57 c 42.191 99.57 43.082 99.164 43.613 98.43 c 43.457 98.273 l
 42.801 98.914 42.207 99.18 41.457 99.18 c 40.895 99.18 40.395 98.992 40.004
 98.648 c 39.504 98.211 39.238 97.414 39.238 96.398 c 39.238 94.789 40.066
 93.742 41.363 93.742 c 41.879 93.742 42.348 93.93 42.707 94.273 c 42.988
 94.57 43.129 94.82 43.301 95.398 c h
43.504 95.398 m f
90.965 59.402 m 93.512 59.402 l 94.559 59.402 95.496 59.105 96.059 58.605
 c 96.637 58.074 96.965 57.277 96.965 56.402 c 96.965 55.605 96.715 54.902
 96.199 54.402 c 95.59 53.793 94.621 53.465 93.387 53.465 c 90.965 53.465
 l 90.965 53.637 l 91.684 53.699 91.746 53.777 91.762 54.449 c 91.762 58.418
 l 91.746 59.074 91.637 59.184 90.965 59.23 c h
92.668 54.152 m 92.668 53.871 92.762 53.793 93.137 53.793 c 93.918 53.793
 94.496 53.934 94.918 54.246 c 95.621 54.73 95.996 55.496 95.996 56.465 
c 95.996 57.527 95.621 58.277 94.902 58.699 c 94.434 58.965 93.918 59.074
 93.137 59.074 c 92.777 59.074 92.668 58.996 92.668 58.699 c h
92.668 54.152 m f
67.863 125.766 m 67.863 125.688 l 66.629 125.344 65.285 124.297 65.051 
123.766 c 64.816 123.766 l 65.16 124.656 65.957 125.234 66.363 125.5 c 59.504
 125.5 l 59.504 125.953 l 66.363 125.953 l 65.957 126.219 65.16 126.797 
64.816 127.672 c 65.051 127.672 l 65.285 127.156 66.629 126.094 67.863 125.766
 c h
67.863 125.766 m f
77.496 122.078 m 77.496 121.938 l 75.777 121.938 l 75.777 122.078 l 75.965
 122.078 76.277 122.156 76.277 122.406 c 76.277 122.625 76.059 122.984 75.934
 123.172 c 73.543 126.688 l 73.371 122.766 l 73.34 122.203 73.652 122.078
 74.137 122.078 c 74.137 121.938 l 71.824 121.938 l 71.824 122.078 l 72.434
 122.078 72.48 122.359 72.559 123.094 c 72.762 128.125 l 72.918 128.125 
l 76.543 122.797 l 76.715 122.578 77.105 122.078 77.496 122.078 c h
77.496 122.078 m f
2 63.918 m 1.922 63.918 l 1.578 65.152 0.531 66.496 0 66.73 c 0 66.965 
l 0.891 66.621 1.469 65.824 1.734 65.418 c 1.734 72.277 l 2.188 72.277 l
 2.188 65.418 l 2.453 65.824 3.031 66.621 3.906 66.965 c 3.906 66.73 l 3.391
 66.496 2.328 65.152 2 63.918 c h
2 63.918 m f
5.609 53.711 m 0.594 53.711 l 0.172 55.242 l 0.344 55.242 l 0.719 54.258
 1.188 54.039 1.969 54.039 c 1.969 54.039 2.484 54.039 2.594 54.039 c 1.297
 58.711 l 1.047 59.617 0.734 59.602 0.375 59.602 c 0.359 59.758 l 2.719 
59.758 l 2.75 59.602 l 2.406 59.602 2.062 59.617 2.062 59.164 c 2.062 59.039
 2.094 58.898 2.141 58.711 c 3.422 54.039 l 4.172 54.039 l 4.609 54.039 
5.078 54.102 5.078 54.727 c 5.078 54.867 5.062 55.023 5.016 55.242 c 5.188
 55.242 l h
5.609 53.711 m f
66.199 141.84 m 65.543 142.277 65.277 142.496 64.934 142.918 c 64.309 143.699
 63.996 144.59 63.996 145.637 c 63.996 146.793 64.324 147.668 65.105 148.574
 c 65.48 149.012 65.715 149.199 66.184 149.496 c 66.277 149.34 l 65.574 
148.777 65.324 148.465 65.074 147.793 c 64.855 147.199 64.762 146.527 64.762
 145.621 c 64.762 144.668 64.871 143.934 65.121 143.387 c 65.371 142.824
 65.637 142.496 66.277 141.98 c h
66.199 141.84 m f
70.527 147.309 m 70.371 147.434 70.262 147.48 70.121 147.48 c 69.918 147.48
 69.855 147.355 69.855 146.965 c 69.855 145.215 l 69.855 144.746 69.809 
144.48 69.684 144.277 c 69.48 143.949 69.09 143.777 68.574 143.777 c 67.73
 143.777 67.059 144.215 67.059 144.777 c 67.059 144.98 67.23 145.168 67.449
 145.168 c 67.668 145.168 67.855 144.98 67.855 144.793 c 67.855 144.762 
67.84 144.715 67.84 144.652 c 67.809 144.559 67.809 144.496 67.809 144.434
 c 67.809 144.184 68.09 143.996 68.449 143.996 c 68.887 143.996 69.137 144.246
 69.137 144.73 c 69.137 145.277 l 67.762 145.824 67.605 145.918 67.215 146.246
 c 67.012 146.434 66.887 146.73 66.887 147.027 c 66.887 147.59 67.277 147.996
 67.84 147.996 c 68.23 147.996 68.59 147.809 69.137 147.34 c 69.184 147.809
 69.355 147.996 69.715 147.996 c 70.027 147.996 70.215 147.887 70.527 147.543
 c h
69.137 146.793 m 69.137 147.074 69.09 147.168 68.902 147.277 c 68.668 147.402
 68.434 147.465 68.246 147.465 c 67.934 147.465 67.684 147.168 67.684 146.777
 c 67.684 146.746 l 67.684 146.215 68.09 145.871 69.137 145.496 c h
69.137 146.793 m f
70.863 149.496 m 71.52 149.043 71.801 148.824 72.129 148.418 c 72.77 147.637
 73.082 146.73 73.082 145.684 c 73.082 144.543 72.738 143.668 71.957 142.762
 c 71.582 142.324 71.348 142.121 70.895 141.84 c 70.785 141.98 l 71.504 
142.543 71.738 142.855 71.988 143.527 c 72.207 144.137 72.301 144.809 72.301
 145.715 c 72.301 146.652 72.191 147.387 71.941 147.934 c 71.707 148.496
 71.426 148.824 70.785 149.34 c h
70.863 149.496 m f
0.567043 w
q 1 0 0 -1 0 0 cm
181.918 -56.758 m 181.918 -0.348 l 294.949 -0.348 l 294.949 -113.203 l 
181.918 -113.203 l h
181.918 -56.758 m S Q
0.283298 w
q 1 0 0 -1 0 0 cm
181.852 -0.055 m 182.23 -0.98 l 183.367 -3.77 l 183.746 -4.664 l 184.125
 -5.594 l 184.883 -7.383 l 185.262 -8.246 l 185.641 -9.141 l 186.02 -10 
l 186.395 -10.859 l 186.773 -11.723 l 187.152 -12.547 l 187.531 -13.406 
l 187.91 -14.234 l 188.289 -15.059 l 188.668 -15.887 l 189.047 -16.711 l
 189.805 -18.297 l 190.184 -19.121 l 190.562 -19.914 l 190.941 -20.672 l
 191.32 -21.461 l 191.695 -22.254 l 192.832 -24.527 l 193.211 -25.281 l 
193.59 -26.008 l 193.969 -26.762 l 194.348 -27.484 l 194.727 -28.242 l 195.07
 -28.965 l 195.449 -29.688 l 195.828 -30.379 l 196.207 -31.102 l 196.586
 -31.789 l 196.965 -32.512 l 197.344 -33.199 l 197.719 -33.887 l 198.098
 -34.578 l 198.477 -35.266 l 198.855 -35.918 l 199.234 -36.605 l 199.613
 -37.262 l 199.992 -37.914 l 200.371 -38.605 l 200.75 -39.258 l 201.129 
-39.879 l 201.887 -41.184 l 202.266 -41.805 l 202.645 -42.457 l 203.02 -43.078
 l 203.398 -43.699 l 203.777 -44.316 l 204.535 -45.559 l 204.914 -46.141
 l 205.293 -46.762 l 205.672 -47.348 l 206.051 -47.965 l 207.566 -50.309
 l 207.945 -50.891 l 208.32 -51.477 l 208.699 -52.027 l 209.078 -52.613 
l 209.836 -53.715 l 210.215 -54.301 l 211.352 -55.953 l 211.73 -56.469 l
 212.488 -57.57 l 212.867 -58.086 l 213.246 -58.637 l 213.621 -59.152 l 
214 -59.668 l 214.344 -60.219 l 214.723 -60.734 l 215.102 -61.254 l 215.48
 -61.734 l 216.617 -63.281 l 216.996 -63.766 l 217.375 -64.281 l 217.754
 -64.762 l 218.133 -65.246 l 218.512 -65.762 l 218.891 -66.242 l 219.27 
-66.727 l 219.645 -67.207 l 220.023 -67.688 l 220.402 -68.172 l 220.781 
-68.652 l 221.16 -69.102 l 221.539 -69.582 l 221.918 -70.031 l 222.297 -70.512
 l 222.676 -70.957 l 223.055 -71.441 l 223.434 -71.887 l 224.191 -72.785
 l 224.57 -73.23 l 224.945 -73.68 l 225.324 -74.125 l 225.703 -74.574 l 
226.082 -75.02 l 226.461 -75.434 l 226.84 -75.883 l 227.219 -76.328 l 227.598
 -76.742 l 227.977 -77.188 l 228.734 -78.016 l 229.113 -78.461 l 229.871
 -79.289 l 230.246 -79.703 l 230.625 -80.113 l 231.762 -81.355 l 232.141
 -81.734 l 232.52 -82.145 l 232.898 -82.559 l 233.277 -82.938 l 233.621 
-83.352 l 234 -83.73 l 234.379 -84.141 l 234.758 -84.52 l 235.137 -84.934
 l 236.273 -86.07 l 236.648 -86.449 l 237.785 -87.586 l 238.164 -87.961 
l 238.922 -88.719 l 239.301 -89.062 l 240.059 -89.82 l 240.438 -90.164 l
 240.816 -90.543 l 241.195 -90.887 l 241.57 -91.266 l 241.949 -91.609 l 
242.328 -91.957 l 242.707 -92.336 l 245.738 -95.086 l 246.117 -95.434 l 
246.496 -95.777 l 246.871 -96.121 l 247.25 -96.465 l 247.629 -96.773 l 248.387
 -97.461 l 248.766 -97.773 l 249.145 -98.117 l 249.523 -98.426 l 249.902
 -98.77 l 250.281 -99.082 l 250.66 -99.391 l 251.039 -99.734 l 251.418 -100.043
 l 251.797 -100.355 l 252.172 -100.664 l 252.551 -100.973 l 252.898 -101.316
 l 253.273 -101.629 l 254.031 -102.246 l 254.41 -102.559 l 254.789 -102.867
 l 255.168 -103.141 l 255.547 -103.453 l 256.305 -104.07 l 256.684 -104.383
 l 257.062 -104.656 l 257.441 -104.965 l 257.82 -105.277 l 258.199 -105.551
 l 258.574 -105.859 l 258.953 -106.137 l 259.332 -106.445 l 259.711 -106.723
 l 260.09 -107.031 l 260.469 -107.309 l 260.848 -107.582 l 261.227 -107.891
 l 261.605 -108.168 l 261.984 -108.441 l 262.363 -108.754 l 262.742 -109.027
 l 263.121 -109.305 l 263.496 -109.578 l 263.875 -109.855 l 264.254 -110.129
 l 264.633 -110.406 l 265.012 -110.68 l 265.391 -110.957 l 265.77 -111.23
 l 266.148 -111.508 l 266.527 -111.781 l 266.906 -112.059 l 267.285 -112.297
 l 267.664 -112.574 l 268.043 -112.848 l 268.422 -113.125 l 268.797 -113.363
 l S Q
q 1 0 0 -1 0 0 cm
191.684 -0.43 m 192.441 -2.078 l 192.82 -2.906 l 193.199 -3.73 l 193.957
 -5.316 l 194.336 -6.141 l 194.715 -6.934 l 195.094 -7.691 l 195.473 -8.48
 l 195.852 -9.273 l 196.227 -10.031 l 196.605 -10.789 l 196.984 -11.543 
l 197.742 -13.059 l 198.121 -13.781 l 198.5 -14.539 l 198.844 -15.262 l 
200.359 -18.152 l 200.738 -18.84 l 201.117 -19.562 l 201.496 -20.254 l 201.871
 -20.941 l 202.629 -22.316 l 203.008 -23.008 l 203.387 -23.695 l 203.766
 -24.348 l 204.145 -25.035 l 204.523 -25.691 l 204.902 -26.344 l 205.281
 -27 l 206.039 -28.305 l 206.418 -28.926 l 206.793 -29.578 l 207.172 -30.199
 l 207.551 -30.852 l 208.309 -32.094 l 208.688 -32.711 l 209.066 -33.332
 l 209.445 -33.949 l 209.824 -34.535 l 210.203 -35.156 l 210.582 -35.742
 l 210.961 -36.359 l 211.34 -36.945 l 211.715 -37.531 l 212.094 -38.117 
l 212.473 -38.699 l 213.23 -39.871 l 213.609 -40.422 l 213.988 -41.008 l
 214.746 -42.109 l 215.125 -42.691 l 215.883 -43.793 l 216.258 -44.344 l
 217.016 -45.445 l 217.395 -45.965 l 217.773 -46.512 l 218.152 -47.031 l
 218.496 -47.582 l 219.254 -48.613 l 219.633 -49.164 l 220.77 -50.711 l 
221.148 -51.23 l 221.527 -51.711 l 221.902 -52.227 l 222.281 -52.742 l 222.66
 -53.227 l 223.039 -53.742 l 223.418 -54.223 l 223.797 -54.707 l 224.176
 -55.188 l 224.555 -55.703 l 224.934 -56.184 l 225.312 -56.668 l 225.691
 -57.148 l 226.07 -57.598 l 226.449 -58.078 l 226.824 -58.559 l 227.203 
-59.008 l 227.582 -59.488 l 227.961 -59.973 l 228.34 -60.418 l 228.719 -60.867
 l 229.098 -61.348 l 229.477 -61.797 l 229.855 -62.242 l 230.234 -62.691
 l 230.613 -63.137 l 230.992 -63.586 l 231.371 -64.031 l 231.746 -64.48 
l 232.125 -64.895 l 232.504 -65.34 l 232.883 -65.789 l 233.262 -66.199 l
 233.641 -66.648 l 234.02 -67.062 l 234.398 -67.508 l 235.156 -68.336 l 
235.535 -68.746 l 235.914 -69.16 l 236.293 -69.609 l 236.668 -70.02 l 237.047
 -70.434 l 237.426 -70.812 l 237.805 -71.227 l 238.148 -71.641 l 238.527
 -72.051 l 238.906 -72.465 l 239.285 -72.844 l 239.664 -73.258 l 240.043
 -73.637 l 240.422 -74.047 l 241.18 -74.805 l 241.559 -75.219 l 241.938 
-75.598 l 242.312 -75.977 l 243.449 -77.113 l 243.828 -77.488 l 245.723 
-79.383 l 246.102 -79.727 l 246.48 -80.105 l 246.855 -80.484 l 247.234 -80.828
 l 247.613 -81.207 l 247.992 -81.551 l 248.371 -81.93 l 249.129 -82.617 
l 249.508 -82.996 l 250.266 -83.684 l 250.645 -84.031 l 251.402 -84.719 
l 251.777 -85.062 l 253.672 -86.781 l 254.051 -87.094 l 254.809 -87.781 
l 255.188 -88.09 l 255.945 -88.777 l 256.324 -89.09 l 256.699 -89.398 l 
257.078 -89.742 l 257.457 -90.051 l 257.836 -90.398 l 258.18 -90.707 l 258.938
 -91.324 l 259.316 -91.672 l 260.453 -92.598 l 260.832 -92.91 l 261.59 -93.527
 l 261.969 -93.84 l 262.344 -94.148 l 262.723 -94.457 l 263.102 -94.77 l
 263.48 -95.043 l 263.859 -95.352 l 264.238 -95.664 l 264.617 -95.973 l 
264.996 -96.246 l 265.375 -96.559 l 265.754 -96.832 l 266.133 -97.145 l 
266.512 -97.453 l 266.891 -97.727 l 267.266 -98.004 l 267.645 -98.312 l 
268.023 -98.59 l 268.402 -98.898 l 268.781 -99.172 l 269.16 -99.449 l 269.539
 -99.758 l 269.918 -100.035 l 270.297 -100.309 l 270.676 -100.586 l 271.055
 -100.859 l 271.434 -101.137 l 271.809 -101.41 l 272.188 -101.688 l 272.566
 -101.961 l 272.945 -102.238 l 273.324 -102.512 l 273.703 -102.789 l 274.082
 -103.062 l 274.461 -103.34 l 275.219 -103.887 l 275.598 -104.129 l 275.977
 -104.406 l 276.355 -104.68 l 276.73 -104.957 l 277.109 -105.195 l 277.488
 -105.473 l 277.832 -105.711 l 278.211 -105.988 l 278.59 -106.262 l 278.969
 -106.504 l 279.348 -106.781 l 279.727 -107.02 l 280.105 -107.297 l 280.484
 -107.535 l 280.863 -107.777 l 281.242 -108.055 l 281.621 -108.293 l 282
 -108.535 l 282.375 -108.809 l 283.133 -109.293 l 283.512 -109.531 l 283.891
 -109.773 l 284.27 -110.051 l 284.648 -110.289 l 285.406 -110.773 l 285.785
 -111.012 l 286.543 -111.496 l 286.922 -111.734 l 287.297 -111.977 l 287.676
 -112.219 l 288.055 -112.457 l 288.434 -112.699 l 288.812 -112.906 l 289.191
 -113.148 l 289.57 -113.387 l S Q
q 1 0 0 -1 0 0 cm
202.656 -0.508 m 203.035 -1.23 l 203.414 -1.988 l 204.172 -3.434 l 204.547
 -4.156 l 204.895 -4.879 l 205.273 -5.57 l 205.648 -6.293 l 207.164 -9.043
 l 207.543 -9.734 l 208.301 -11.109 l 208.68 -11.766 l 209.059 -12.418 l
 209.438 -13.105 l 209.816 -13.762 l 210.191 -14.414 l 210.57 -15.066 l 
210.949 -15.688 l 211.328 -16.34 l 211.707 -16.996 l 212.086 -17.613 l 212.465
 -18.234 l 212.844 -18.887 l 213.602 -20.129 l 213.98 -20.746 l 214.359 
-21.367 l 214.738 -21.953 l 215.113 -22.57 l 215.492 -23.156 l 215.871 -23.777
 l 216.25 -24.359 l 217.387 -26.117 l 217.766 -26.699 l 218.902 -28.457 
l 219.281 -29.008 l 219.656 -29.594 l 221.172 -31.797 l 221.551 -32.344 
l 223.066 -34.547 l 223.445 -35.066 l 223.824 -35.617 l 224.203 -36.133 
l 224.578 -36.648 l 224.926 -37.199 l 225.301 -37.715 l 226.438 -39.262 
l 226.816 -39.781 l 227.195 -40.262 l 227.953 -41.293 l 228.332 -41.777 
l 228.711 -42.293 l 229.09 -42.773 l 229.469 -43.258 l 229.848 -43.773 l
 230.223 -44.254 l 230.602 -44.734 l 230.98 -45.219 l 231.738 -46.18 l 232.117
 -46.664 l 232.496 -47.109 l 232.875 -47.594 l 233.254 -48.074 l 233.633
 -48.523 l 234.012 -49.004 l 234.391 -49.449 l 234.766 -49.898 l 235.145
 -50.379 l 235.523 -50.828 l 235.902 -51.273 l 236.66 -52.172 l 237.039 
-52.617 l 237.418 -53.066 l 237.797 -53.512 l 238.176 -53.961 l 238.555 
-54.371 l 239.312 -55.27 l 239.688 -55.68 l 240.066 -56.129 l 240.445 -56.543
 l 240.824 -56.953 l 241.203 -57.402 l 241.582 -57.816 l 241.961 -58.227
 l 242.719 -59.055 l 243.098 -59.465 l 243.855 -60.293 l 244.23 -60.707 
l 244.609 -61.117 l 244.953 -61.531 l 245.332 -61.91 l 245.711 -62.324 l
 246.09 -62.703 l 246.469 -63.113 l 246.848 -63.527 l 247.605 -64.285 l 
247.984 -64.699 l 248.742 -65.457 l 249.121 -65.832 l 249.5 -66.211 l 249.875
 -66.625 l 251.012 -67.762 l 251.391 -68.105 l 252.906 -69.621 l 253.285
 -69.965 l 253.664 -70.344 l 254.043 -70.688 l 254.418 -71.066 l 254.797
 -71.41 l 255.176 -71.789 l 255.555 -72.133 l 255.934 -72.512 l 257.449 
-73.887 l 257.828 -74.266 l 258.965 -75.297 l 259.34 -75.645 l 260.098 -76.332
 l 260.477 -76.641 l 261.613 -77.672 l 261.992 -77.984 l 262.75 -78.672 
l 263.129 -78.98 l 263.508 -79.324 l 263.883 -79.637 l 264.262 -79.98 l 
264.641 -80.289 l 264.984 -80.598 l 265.363 -80.941 l 265.742 -81.254 l 
266.121 -81.562 l 266.5 -81.906 l 266.879 -82.215 l 267.258 -82.527 l 268.016
 -83.145 l 268.395 -83.457 l 269.152 -84.074 l 269.527 -84.387 l 270.664
 -85.312 l 271.043 -85.625 l 271.422 -85.898 l 271.801 -86.211 l 272.559
 -86.828 l 272.938 -87.105 l 273.316 -87.414 l 273.695 -87.688 l 274.074
 -88 l 274.449 -88.273 l 274.828 -88.582 l 275.207 -88.859 l 275.586 -89.168
 l 275.965 -89.445 l 276.344 -89.754 l 276.723 -90.031 l 277.102 -90.305
 l 277.48 -90.582 l 277.859 -90.891 l 278.238 -91.164 l 278.617 -91.441 
l 278.992 -91.715 l 279.371 -91.992 l 279.75 -92.266 l 280.129 -92.543 l
 280.508 -92.816 l 280.887 -93.094 l 281.266 -93.367 l 281.645 -93.645 l
 282.023 -93.918 l 282.402 -94.195 l 282.781 -94.469 l 283.16 -94.746 l 
283.539 -95.02 l 283.914 -95.262 l 284.293 -95.535 l 284.672 -95.812 l 285.016
 -96.086 l 285.395 -96.328 l 285.773 -96.602 l 286.152 -96.879 l 286.531
 -97.121 l 286.91 -97.395 l 287.289 -97.637 l 287.668 -97.91 l 288.047 -98.152
 l 288.426 -98.426 l 289.184 -98.91 l 289.559 -99.184 l 289.938 -99.426 
l 290.316 -99.699 l 291.074 -100.184 l 291.453 -100.422 l 291.832 -100.699
 l 292.211 -100.941 l 292.59 -101.18 l 293.348 -101.664 l 293.727 -101.902
 l 294.102 -102.145 l 294.48 -102.418 l 295.238 -102.902 l S Q
q 1 0 0 -1 0 0 cm
214.73 -0.117 m 215.109 -0.773 l 215.867 -2.078 l 216.246 -2.734 l 216.625
 -3.355 l 217.004 -4.008 l 217.383 -4.629 l 217.762 -5.281 l 218.137 -5.902
 l 218.516 -6.52 l 218.895 -7.141 l 219.273 -7.758 l 219.652 -8.379 l 220.031
 -8.965 l 220.41 -9.582 l 220.789 -10.203 l 221.547 -11.375 l 221.926 -11.992
 l 223.062 -13.75 l 223.438 -14.332 l 223.816 -14.883 l 224.574 -16.055 
l 224.953 -16.605 l 225.332 -17.191 l 227.984 -21.047 l 228.359 -21.598 
l 228.738 -22.148 l 229.117 -22.664 l 229.496 -23.215 l 229.875 -23.73 l
 230.219 -24.246 l 230.598 -24.797 l 231.355 -25.828 l 231.734 -26.348 l
 232.871 -27.895 l 233.25 -28.375 l 233.629 -28.895 l 234.008 -29.41 l 234.387
 -29.891 l 234.762 -30.406 l 235.141 -30.891 l 235.52 -31.371 l 235.898 
-31.887 l 236.277 -32.371 l 237.035 -33.332 l 237.414 -33.816 l 238.172 
-34.777 l 238.551 -35.262 l 238.93 -35.707 l 239.309 -36.191 l 239.684 -36.637
 l 240.062 -37.121 l 240.441 -37.566 l 240.82 -38.051 l 241.199 -38.496 
l 241.578 -38.945 l 241.957 -39.426 l 242.336 -39.875 l 242.715 -40.32 l
 243.094 -40.77 l 243.473 -41.215 l 243.852 -41.664 l 244.23 -42.109 l 244.609
 -42.523 l 244.984 -42.973 l 245.363 -43.418 l 245.742 -43.832 l 246.121
 -44.277 l 246.5 -44.691 l 246.879 -45.141 l 247.258 -45.551 l 247.637 -46
 l 248.016 -46.414 l 248.395 -46.824 l 249.152 -47.652 l 249.496 -48.066
 l 249.875 -48.477 l 250.633 -49.305 l 251.008 -49.719 l 251.387 -50.129
 l 251.766 -50.543 l 252.145 -50.922 l 252.902 -51.75 l 253.281 -52.125 
l 253.66 -52.539 l 254.039 -52.918 l 254.418 -53.332 l 255.555 -54.469 l
 255.934 -54.879 l 256.309 -55.258 l 258.961 -57.91 l 259.34 -58.254 l 260.477
 -59.391 l 260.855 -59.734 l 261.23 -60.113 l 261.609 -60.457 l 261.988 
-60.836 l 262.367 -61.18 l 262.746 -61.559 l 263.504 -62.246 l 263.883 -62.625
 l 265.398 -64 l 265.777 -64.348 l 266.156 -64.691 l 266.531 -65.035 l 268.426
 -66.754 l 268.77 -67.098 l 269.148 -67.41 l 269.906 -68.098 l 270.285 -68.406
 l 270.664 -68.75 l 271.043 -69.098 l 271.422 -69.406 l 271.801 -69.75 l
 272.18 -70.059 l 272.555 -70.371 l 272.934 -70.715 l 273.691 -71.332 l 
274.07 -71.676 l 274.449 -71.988 l 275.207 -72.605 l 275.586 -72.918 l 276.344
 -73.535 l 276.723 -73.848 l 277.48 -74.465 l 277.855 -74.773 l 278.234 
-75.086 l 278.992 -75.703 l 279.371 -76.016 l 279.75 -76.289 l 280.129 -76.598
 l 280.508 -76.91 l 280.887 -77.219 l 281.266 -77.496 l 281.645 -77.805 
l 282.023 -78.078 l 282.402 -78.391 l 282.781 -78.664 l 283.156 -78.973 
l 283.535 -79.25 l 283.914 -79.559 l 284.293 -79.836 l 284.672 -80.145 l
 285.051 -80.422 l 285.43 -80.695 l 285.809 -80.973 l 286.188 -81.281 l 
286.566 -81.555 l 286.945 -81.832 l 287.324 -82.105 l 287.703 -82.383 l 
288.047 -82.691 l 288.426 -82.969 l 288.805 -83.242 l 289.18 -83.52 l 289.559
 -83.793 l 289.938 -84.07 l 290.316 -84.344 l 290.695 -84.586 l 291.074 
-84.859 l 291.453 -85.137 l 291.832 -85.41 l 292.211 -85.688 l 292.59 -85.961
 l 292.969 -86.203 l 293.348 -86.477 l 293.727 -86.754 l 294.102 -86.996
 l 294.48 -87.27 l 294.859 -87.547 l 295.238 -87.785 l S Q
q 1 0 0 -1 0 0 cm
228.727 -0.312 m 229.105 -0.898 l 229.48 -1.484 l 229.859 -2.035 l 230.238
 -2.621 l 230.617 -3.203 l 231.375 -4.305 l 231.754 -4.891 l 233.27 -7.094
 l 233.613 -7.645 l 234.371 -8.746 l 234.75 -9.262 l 235.125 -9.812 l 235.504
 -10.328 l 235.883 -10.879 l 236.262 -11.398 l 236.641 -11.914 l 237.02 
-12.465 l 238.535 -14.527 l 238.914 -15.047 l 239.293 -15.527 l 239.672 
-16.043 l 240.047 -16.559 l 240.426 -17.043 l 240.805 -17.559 l 241.184 
-18.039 l 241.562 -18.555 l 241.941 -19.039 l 242.699 -20 l 243.078 -20.516
 l 243.457 -21 l 243.836 -21.48 l 244.215 -21.93 l 244.594 -22.41 l 244.969
 -22.891 l 245.348 -23.375 l 245.727 -23.855 l 246.105 -24.305 l 246.484
 -24.785 l 246.863 -25.234 l 247.242 -25.715 l 247.621 -26.164 l 248 -26.609
 l 248.379 -27.059 l 248.758 -27.539 l 249.137 -27.988 l 249.516 -28.434
 l 249.891 -28.883 l 250.27 -29.328 l 250.648 -29.777 l 251.027 -30.223 
l 251.406 -30.637 l 251.785 -31.086 l 252.164 -31.531 l 252.543 -31.945 
l 252.922 -32.391 l 253.266 -32.805 l 253.645 -33.254 l 254.023 -33.664 
l 254.402 -34.113 l 254.781 -34.527 l 255.16 -34.938 l 255.539 -35.352 l
 255.914 -35.801 l 256.293 -36.211 l 257.43 -37.453 l 257.809 -37.863 l 
258.188 -38.242 l 258.945 -39.07 l 259.324 -39.48 l 259.703 -39.859 l 260.082
 -40.273 l 260.461 -40.652 l 260.836 -41.066 l 261.215 -41.445 l 261.594
 -41.855 l 262.352 -42.613 l 262.73 -43.027 l 264.246 -44.543 l 264.625 
-44.953 l 265.004 -45.332 l 265.383 -45.676 l 265.758 -46.055 l 267.273 
-47.57 l 267.652 -47.914 l 268.41 -48.672 l 268.789 -49.016 l 269.168 -49.395
 l 269.547 -49.738 l 269.926 -50.117 l 270.305 -50.461 l 270.68 -50.84 l
 271.438 -51.527 l 271.816 -51.875 l 272.195 -52.25 l 272.539 -52.598 l 
275.57 -55.348 l 275.949 -55.695 l 276.324 -56.039 l 276.703 -56.348 l 277.84
 -57.379 l 278.219 -57.691 l 278.598 -58.035 l 278.977 -58.344 l 279.355
 -58.688 l 279.734 -58.996 l 280.113 -59.344 l 280.492 -59.652 l 280.871
 -59.996 l 281.246 -60.305 l 281.625 -60.617 l 282.004 -60.961 l 282.762
 -61.578 l 283.141 -61.891 l 283.52 -62.199 l 283.898 -62.543 l 284.277 
-62.852 l 284.656 -63.164 l 285.793 -64.09 l 286.168 -64.402 l 286.547 -64.711
 l 286.926 -64.988 l 288.062 -65.914 l 288.441 -66.227 l 288.82 -66.5 l 
289.199 -66.812 l 289.578 -67.121 l 289.957 -67.395 l 290.336 -67.707 l 
290.715 -68.016 l 291.094 -68.289 l 291.469 -68.602 l 291.848 -68.875 l 
292.191 -69.188 l 292.57 -69.461 l 292.949 -69.738 l 293.328 -70.047 l 293.707
 -70.32 l 294.086 -70.598 l 294.465 -70.906 l 294.844 -71.184 l 295.223 
-71.457 l S Q
q 1 0 0 -1 0 0 cm
244.211 -0.102 m 244.969 -1.133 l 245.348 -1.652 l 245.727 -2.168 l 246.102
 -2.648 l 246.859 -3.68 l 247.238 -4.164 l 247.617 -4.68 l 247.996 -5.16
 l 248.375 -5.645 l 248.754 -6.16 l 249.133 -6.641 l 249.512 -7.125 l 250.27
 -8.086 l 250.648 -8.57 l 251.023 -9.051 l 251.402 -9.531 l 251.781 -10.016
 l 252.16 -10.461 l 252.539 -10.945 l 252.918 -11.426 l 253.297 -11.875 
l 253.676 -12.355 l 254.055 -12.805 l 254.434 -13.285 l 254.812 -13.73 l
 255.57 -14.629 l 255.914 -15.109 l 256.293 -15.555 l 256.672 -16.004 l 
257.047 -16.453 l 257.426 -16.898 l 257.805 -17.348 l 258.184 -17.758 l 
258.562 -18.207 l 258.941 -18.652 l 259.32 -19.102 l 259.699 -19.516 l 260.078
 -19.961 l 260.457 -20.375 l 260.836 -20.824 l 261.215 -21.234 l 261.594
 -21.684 l 261.973 -22.098 l 262.348 -22.508 l 262.727 -22.922 l 263.105
 -23.371 l 263.484 -23.781 l 264.621 -25.023 l 265 -25.434 l 265.379 -25.848
 l 265.758 -26.227 l 266.516 -27.055 l 266.895 -27.465 l 267.273 -27.844
 l 267.648 -28.258 l 268.027 -28.637 l 268.406 -29.051 l 268.785 -29.43 
l 269.164 -29.84 l 269.543 -30.219 l 269.922 -30.633 l 271.438 -32.148 l
 271.816 -32.559 l 272.574 -33.316 l 272.949 -33.695 l 273.707 -34.453 l
 274.086 -34.797 l 274.844 -35.555 l 275.188 -35.934 l 275.566 -36.312 l
 275.945 -36.656 l 276.324 -37.035 l 276.703 -37.379 l 277.461 -38.137 l
 278.219 -38.824 l 278.598 -39.203 l 278.973 -39.547 l 279.352 -39.926 l
 280.867 -41.301 l 281.246 -41.68 l 281.625 -42.027 l 283.898 -44.09 l 284.273
 -44.402 l 285.41 -45.434 l 285.789 -45.742 l 286.547 -46.43 l 286.926 -46.742
 l 287.305 -47.086 l 287.684 -47.395 l 288.062 -47.738 l 288.441 -48.051
 l 288.82 -48.395 l 289.195 -48.703 l 289.574 -49.047 l 289.953 -49.355 
l 290.332 -49.668 l 290.711 -50.012 l 291.469 -50.629 l 291.848 -50.941 
l 292.227 -51.285 l 292.984 -51.902 l 293.363 -52.215 l 293.742 -52.523 
l 294.086 -52.832 l 294.465 -53.145 l 295.223 -53.762 l S Q
q 1 0 0 -1 0 0 cm
261.984 -0.266 m 262.363 -0.711 l 262.742 -1.195 l 263.121 -1.641 l 263.5
 -2.09 l 263.879 -2.535 l 264.258 -2.984 l 264.637 -3.43 l 265.016 -3.879
 l 265.359 -4.328 l 265.738 -4.773 l 266.117 -5.188 l 266.496 -5.633 l 266.875
 -6.082 l 267.254 -6.496 l 267.633 -6.941 l 268.008 -7.355 l 268.387 -7.801
 l 268.766 -8.215 l 269.145 -8.664 l 269.523 -9.074 l 269.902 -9.488 l 270.281
 -9.938 l 270.66 -10.352 l 271.039 -10.762 l 271.797 -11.59 l 272.176 -12
 l 272.555 -12.414 l 272.93 -12.828 l 273.309 -13.242 l 273.688 -13.652 
l 274.066 -14.031 l 274.824 -14.859 l 275.203 -15.238 l 275.582 -15.648 
l 275.961 -16.062 l 276.34 -16.441 l 276.719 -16.855 l 277.477 -17.613 l
 277.852 -18.023 l 278.609 -18.781 l 278.988 -19.195 l 281.262 -21.469 l
 281.641 -21.844 l 282.398 -22.602 l 282.773 -22.98 l 283.152 -23.324 l 
285.012 -25.184 l 285.391 -25.527 l 285.77 -25.906 l 286.148 -26.25 l 286.527
 -26.629 l 286.906 -26.973 l 287.285 -27.352 l 287.664 -27.695 l 288.043
 -28.043 l 288.422 -28.418 l 288.797 -28.766 l 290.312 -30.141 l 290.691
 -30.52 l 291.828 -31.551 l 292.207 -31.863 l 293.344 -32.895 l 293.719 
-33.238 l 294.098 -33.582 l 294.477 -33.891 l 294.855 -34.238 l 295.234 
-34.582 l S Q
q 1 0 0 -1 0 0 cm
282.031 -0.395 m 282.41 -0.809 l 282.785 -1.223 l 283.133 -1.602 l 283.512
 -2.012 l 283.887 -2.391 l 284.645 -3.219 l 285.402 -3.977 l 285.781 -4.387
 l 286.16 -4.766 l 286.539 -5.18 l 288.055 -6.695 l 288.43 -7.105 l 290.703
 -9.379 l 291.082 -9.723 l 292.598 -11.238 l 292.977 -11.582 l 293.352 -11.961
 l 293.73 -12.305 l 294.488 -13.062 l 294.867 -13.406 l 295.246 -13.785 
l S Q
q 1 0 0 -1 0 0 cm
181.855 -21.895 m 182.234 -22.754 l 182.609 -23.609 l 182.988 -24.465 l
 183.363 -25.324 l 183.742 -26.18 l 184.117 -27.004 l 184.496 -27.828 l 
184.871 -28.648 l 185.25 -29.473 l 185.629 -30.262 l 186.004 -31.082 l 186.383
 -31.871 l 186.758 -32.66 l 187.137 -33.449 l 187.512 -34.203 l 187.926 
-34.992 l 188.266 -35.746 l 188.68 -36.5 l 189.055 -37.254 l 189.434 -38.008
 l 189.809 -38.73 l 190.188 -39.484 l 190.566 -40.203 l 190.941 -40.926 
l 191.32 -41.645 l 191.695 -42.363 l 192.074 -43.082 l 192.449 -43.77 l 
192.828 -44.488 l 193.203 -45.176 l 193.582 -45.859 l 193.957 -46.547 l 
194.336 -47.234 l 194.715 -47.883 l 195.09 -48.57 l 195.469 -49.223 l 195.844
 -49.906 l 196.223 -50.559 l 196.598 -51.211 l 196.977 -51.859 l 197.352
 -52.477 l 197.73 -53.129 l 198.109 -53.746 l 198.484 -54.398 l 198.863 
-55.016 l 199.238 -55.633 l 199.617 -56.25 l 199.992 -56.867 l 200.371 -57.449
 l 200.746 -58.066 l 201.125 -58.648 l 201.5 -59.266 l 201.879 -59.852 l
 202.258 -60.434 l 202.633 -61.016 l 203.012 -61.598 l 203.387 -62.18 l 
203.766 -62.766 l 204.141 -63.312 l 204.555 -63.895 l 204.93 -64.445 l 205.309
 -64.992 l 205.684 -65.574 l 206.062 -66.125 l 206.438 -66.672 l 206.816
 -67.188 l 207.195 -67.734 l 207.57 -68.285 l 207.949 -68.797 l 208.324 
-69.348 l 208.703 -69.863 l 209.078 -70.41 l 209.457 -70.926 l 209.832 -71.438
 l 210.211 -71.953 l 210.586 -72.469 l 210.965 -72.98 l 211.344 -73.461 
l 211.719 -73.977 l 212.098 -74.492 l 212.473 -74.969 l 212.852 -75.449 
l 213.227 -75.965 l 213.605 -76.445 l 213.98 -76.926 l 214.359 -77.406 l
 214.738 -77.883 l 215.113 -78.363 l 215.492 -78.844 l 215.867 -79.324 l
 216.246 -79.77 l 216.621 -80.25 l 217 -80.695 l 217.375 -81.176 l 217.754
 -81.621 l 218.129 -82.066 l 218.508 -82.547 l 218.887 -82.992 l 219.262
 -83.438 l 219.641 -83.883 l 220.016 -84.332 l 220.395 -84.742 l 220.77 
-85.188 l 221.184 -85.633 l 221.559 -86.078 l 221.938 -86.492 l 222.312 
-86.938 l 222.691 -87.348 l 223.066 -87.758 l 223.445 -88.203 l 223.824 
-88.617 l 224.199 -89.027 l 224.578 -89.438 l 224.953 -89.852 l 225.332 
-90.262 l 225.707 -90.672 l 226.086 -91.086 l 226.461 -91.496 l 226.84 -91.875
 l 227.215 -92.285 l 227.594 -92.695 l 227.973 -93.074 l 228.348 -93.484
 l 229.102 -94.238 l 229.48 -94.652 l 230.988 -96.16 l 231.367 -96.535 l
 231.742 -96.914 l 232.121 -97.289 l 232.496 -97.668 l 233.25 -98.422 l 
233.629 -98.766 l 234.004 -99.141 l 234.383 -99.484 l 234.758 -99.863 l 
235.137 -100.203 l 235.516 -100.582 l 235.891 -100.926 l 236.27 -101.301
 l 236.645 -101.645 l 237.023 -101.988 l 237.434 -102.332 l 237.812 -102.672
 l 238.188 -103.051 l 238.566 -103.395 l 238.941 -103.738 l 239.32 -104.047
 l 239.695 -104.387 l 240.453 -105.074 l 240.828 -105.418 l 241.207 -105.727
 l 241.582 -106.066 l 241.961 -106.41 l 242.336 -106.719 l 242.715 -107.062
 l 243.09 -107.371 l 243.469 -107.715 l 243.844 -108.023 l 244.223 -108.363
 l 244.602 -108.672 l 244.977 -108.98 l 245.355 -109.289 l 245.73 -109.633
 l 246.109 -109.941 l 246.484 -110.25 l 246.863 -110.559 l 247.238 -110.867
 l 247.996 -111.484 l 248.371 -111.793 l 248.75 -112.102 l 249.125 -112.375
 l 249.504 -112.684 l 249.879 -112.992 l 250.258 -113.301 l S Q
q 1 0 0 -1 0 0 cm
181.867 -42.059 m 182.242 -42.844 l 182.617 -43.664 l 183.367 -45.234 l
 183.746 -45.988 l 184.121 -46.773 l 184.496 -47.523 l 184.871 -48.277 l
 185.25 -49.027 l 185.656 -49.777 l 186.035 -50.531 l 186.41 -51.246 l 186.785
 -52 l 187.16 -52.715 l 187.535 -53.434 l 187.914 -54.152 l 188.289 -54.836
 l 188.664 -55.551 l 189.414 -56.918 l 189.793 -57.602 l 190.543 -58.969
 l 190.918 -59.617 l 191.293 -60.301 l 191.703 -60.949 l 192.082 -61.598
 l 192.457 -62.25 l 193.582 -64.195 l 193.961 -64.809 l 194.336 -65.426 
l 194.711 -66.074 l 195.086 -66.688 l 195.461 -67.305 l 195.84 -67.887 l
 196.59 -69.113 l 197.34 -70.277 l 197.75 -70.891 l 198.129 -71.473 l 198.504
 -72.055 l 198.879 -72.633 l 199.254 -73.18 l 199.629 -73.762 l 200.008 
-74.309 l 200.383 -74.887 l 201.508 -76.527 l 201.887 -77.074 l 203.012 
-78.715 l 203.387 -79.227 l 203.797 -79.773 l 204.176 -80.285 l 204.551 
-80.797 l 204.926 -81.344 l 205.301 -81.859 l 205.676 -82.371 l 206.055 
-82.883 l 206.43 -83.359 l 206.805 -83.875 l 207.18 -84.387 l 207.555 -84.863
 l 207.934 -85.375 l 208.309 -85.855 l 208.684 -86.332 l 209.059 -86.812
 l 209.469 -87.289 l 209.844 -87.77 l 210.223 -88.246 l 210.598 -88.723 
l 210.973 -89.203 l 211.348 -89.648 l 211.723 -90.125 l 212.102 -90.602 
l 212.852 -91.492 l 213.227 -91.969 l 213.602 -92.414 l 213.98 -92.859 l
 214.355 -93.301 l 215.105 -94.191 l 215.516 -94.602 l 215.891 -95.043 l
 216.27 -95.488 l 216.645 -95.898 l 217.02 -96.344 l 217.395 -96.754 l 217.77
 -97.195 l 218.148 -97.605 l 219.648 -99.246 l 220.027 -99.656 l 221.152
 -100.887 l 221.938 -101.672 l 222.316 -102.082 l 222.691 -102.457 l 223.066
 -102.867 l 223.441 -103.242 l 223.816 -103.621 l 224.195 -104.027 l 224.57
 -104.406 l 225.695 -105.531 l 226.074 -105.906 l 226.449 -106.285 l 227.199
 -107.035 l 227.609 -107.379 l 227.984 -107.754 l 228.363 -108.129 l 228.738
 -108.469 l 229.113 -108.848 l 229.488 -109.188 l 229.863 -109.562 l 230.242
 -109.906 l 230.617 -110.246 l 230.992 -110.621 l 231.367 -110.965 l 231.742
 -111.305 l 232.121 -111.648 l 232.496 -111.988 l 232.871 -112.332 l 233.246
 -112.672 l 233.656 -113.016 l 234.031 -113.355 l S Q
q 1 0 0 -1 0 0 cm
181.859 -60.672 m 182.234 -61.422 l 182.609 -62.137 l 182.984 -62.887 l
 183.359 -63.602 l 183.73 -64.316 l 184.141 -65.031 l 184.516 -65.711 l 
184.891 -66.426 l 185.266 -67.109 l 185.641 -67.824 l 186.012 -68.504 l 
186.387 -69.152 l 187.137 -70.512 l 187.512 -71.16 l 187.922 -71.805 l 188.293
 -72.488 l 188.668 -73.133 l 189.043 -73.746 l 189.793 -75.043 l 190.168
 -75.652 l 191.293 -77.492 l 191.699 -78.105 l 192.449 -79.332 l 193.199
 -80.488 l 193.574 -81.102 l 193.945 -81.68 l 194.32 -82.258 l 194.695 -82.84
 l 195.07 -83.383 l 195.48 -83.961 l 195.855 -84.508 l 196.227 -85.086 l
 196.602 -85.629 l 196.977 -86.176 l 197.352 -86.719 l 197.727 -87.266 l
 198.102 -87.809 l 198.477 -88.355 l 198.852 -88.863 l 199.258 -89.41 l 
199.633 -89.922 l 200.008 -90.465 l 200.758 -91.488 l 201.133 -91.996 l 
201.504 -92.508 l 201.879 -93.02 l 202.254 -93.496 l 202.629 -94.008 l 203.039
 -94.484 l 203.414 -94.992 l 203.785 -95.469 l 204.16 -95.945 l 204.535 
-96.457 l 205.285 -97.41 l 205.66 -97.855 l 206.41 -98.809 l 206.816 -99.25
 l 207.191 -99.727 l 207.566 -100.168 l 207.941 -100.645 l 208.316 -101.09
 l 208.691 -101.531 l 209.062 -101.973 l 209.438 -102.418 l 210.188 -103.301
 l 210.598 -103.742 l 210.973 -104.188 l 211.344 -104.594 l 211.719 -105.039
 l 212.094 -105.445 l 212.469 -105.891 l 212.844 -106.297 l 213.219 -106.742
 l 213.594 -107.148 l 213.969 -107.559 l 214.375 -107.965 l 214.75 -108.375
 l 215.125 -108.781 l 215.5 -109.191 l 215.875 -109.566 l 216.25 -109.977
 l 216.625 -110.383 l 216.996 -110.758 l 217.371 -111.168 l 217.746 -111.543
 l 218.156 -111.949 l 218.906 -112.699 l 219.277 -113.105 l S Q
q 1 0 0 -1 0 0 cm
181.855 -77.852 m 182.605 -79.211 l 182.977 -79.891 l 183.352 -80.535 l
 183.758 -81.215 l 184.133 -81.859 l 184.504 -82.504 l 184.879 -83.148 l
 185.25 -83.793 l 185.625 -84.438 l 186 -85.047 l 186.406 -85.695 l 186.777
 -86.305 l 187.152 -86.914 l 187.527 -87.527 l 187.898 -88.137 l 188.273
 -88.75 l 188.645 -89.324 l 189.02 -89.938 l 189.426 -90.512 l 189.801 -91.09
 l 190.172 -91.668 l 190.547 -92.246 l 190.922 -92.82 l 191.293 -93.398 
l 191.668 -93.941 l 192.074 -94.52 l 192.449 -95.062 l 192.82 -95.605 l 
193.195 -96.148 l 193.566 -96.691 l 194.316 -97.777 l 194.688 -98.285 l 
195.094 -98.828 l 195.469 -99.34 l 195.844 -99.848 l 196.215 -100.391 l 
196.59 -100.898 l 196.961 -101.41 l 197.336 -101.918 l 197.742 -102.395 
l 198.117 -102.902 l 198.488 -103.379 l 198.863 -103.887 l 199.234 -104.363
 l 199.609 -104.871 l 199.984 -105.348 l 200.391 -105.82 l 200.766 -106.297
 l 201.137 -106.773 l 201.512 -107.215 l 201.883 -107.688 l 202.258 -108.164
 l 202.629 -108.605 l 203.004 -109.082 l 203.41 -109.523 l 203.785 -109.965
 l 204.156 -110.402 l 204.531 -110.879 l 204.906 -111.32 l 205.277 -111.727
 l 205.652 -112.168 l 206.059 -112.609 l 206.434 -113.051 l S Q
q 1 0 0 -1 0 0 cm
181.855 -93.695 m 182.23 -94.34 l 182.637 -94.949 l 183.008 -95.559 l 183.379
 -96.199 l 183.754 -96.809 l 184.125 -97.387 l 184.496 -97.996 l 184.902
 -98.605 l 185.277 -99.18 l 185.648 -99.789 l 186.391 -100.938 l 186.766
 -101.516 l 187.172 -102.055 l 187.543 -102.633 l 187.914 -103.207 l 188.289
 -103.75 l 188.66 -104.289 l 189.031 -104.832 l 189.438 -105.375 l 189.812
 -105.914 l 190.184 -106.457 l 190.555 -106.996 l 190.93 -107.504 l 191.301
 -108.047 l 191.707 -108.555 l 192.449 -109.57 l 192.824 -110.078 l 193.566
 -111.094 l 193.941 -111.602 l 194.348 -112.074 l 194.719 -112.582 l 195.09
 -113.055 l S Q
q 1 0 0 -1 0 0 cm
181.855 -108.332 m 182.598 -109.48 l 183.004 -110.055 l 183.746 -111.203
 l 184.117 -111.742 l 184.488 -112.316 l 184.895 -112.855 l 185.266 -113.398
 l S Q
195.289 80.527 m 195.289 79.352 194.336 78.398 193.16 78.398 c 191.984 
78.398 191.031 79.352 191.031 80.527 c 191.031 81.703 191.984 82.656 193.16
 82.656 c 194.336 82.656 195.289 81.703 195.289 80.527 c f
240.688 35.227 m 240.688 34.051 239.734 33.098 238.559 33.098 c 237.383
 33.098 236.43 34.051 236.43 35.227 c 236.43 36.402 237.383 37.355 238.559
 37.355 c 239.734 37.355 240.688 36.402 240.688 35.227 c f
206.688 96.426 m 206.688 95.25 205.734 94.297 204.559 94.297 c 203.383 
94.297 202.43 95.25 202.43 96.426 c 202.43 97.602 203.383 98.555 204.559
 98.555 c 205.734 98.555 206.688 97.602 206.688 96.426 c f
259.59 56.426 m 259.59 55.25 258.637 54.297 257.461 54.297 c 256.285 54.297
 255.332 55.25 255.332 56.426 c 255.332 57.602 256.285 58.555 257.461 58.555
 c 258.637 58.555 259.59 57.602 259.59 56.426 c f
1.13366 w
q 1 0 0 -1 0 0 cm
193.195 -80.496 m 193.195 -80.496 207.289 -62.367 215.91 -53.922 c 223.125
 -46.84 238.551 -35.246 238.551 -35.246 c S Q
214.301 59.777 m 218.156 51.66 l 210.039 55.512 l 214.574 55.238 l f
q 1 0 0 -1 0 0 cm
204.531 -96.449 m 204.531 -96.449 198.434 -104.637 200.727 -107.785 c 202.887
 -110.801 208.504 -109.293 212.098 -107.785 c 242.543 -95.184 282.375 -71.52
 280.148 -39.738 c 279.703 -33.504 271.414 -28.504 265.043 -28.402 c 260.352
 -28.332 253.297 -31.895 253.676 -36.348 c 253.949 -39.738 261.789 -37.648
 263.125 -40.902 c 265.215 -46.004 257.406 -56.414 257.406 -56.414 c S Q
258.602 77.332 m 253.68 84.832 l 262.234 82.152 l 257.719 81.777 l f
202.988 83.336 m 202.582 83.305 202.504 83.227 202.191 82.555 c 199.957
 77.461 l 199.77 77.461 l 197.91 81.867 l 197.332 83.18 197.223 83.32 196.801
 83.336 c 196.801 83.508 l 198.566 83.508 l 198.566 83.336 l 198.145 83.336
 197.957 83.227 197.957 82.977 c 197.957 82.867 197.988 82.742 198.035 82.617
 c 198.441 81.57 l 200.801 81.57 l 201.16 82.43 l 201.27 82.68 201.332 82.914
 201.332 83.039 c 201.332 83.258 201.176 83.336 200.707 83.336 c 200.707
 83.508 l 202.988 83.508 l h
198.598 81.195 m 199.629 78.742 l 200.676 81.195 l h
198.598 81.195 m f
242.203 32.484 m 242.953 32.531 243.047 32.625 243.062 33.297 c 243.062
 37.266 l 243.047 37.938 242.938 38.047 242.203 38.078 c 242.203 38.25 l
 245.188 38.25 l 245.891 38.25 246.531 38.062 246.859 37.75 c 247.188 37.469
 247.359 37.062 247.359 36.641 c 247.359 36.234 247.219 35.875 246.922 35.625
 c 246.656 35.375 246.422 35.266 245.828 35.125 c 246.297 35.016 246.484
 34.922 246.703 34.734 c 246.922 34.531 247.062 34.219 247.062 33.844 c 
247.062 32.828 246.25 32.312 244.703 32.312 c 242.203 32.312 l h
243.969 35.328 m 244.844 35.328 245.25 35.375 245.578 35.516 c 246.094 
35.719 246.328 36.094 246.328 36.641 c 246.328 37.125 246.141 37.484 245.781
 37.688 c 245.5 37.844 245.125 37.922 244.547 37.922 c 244.094 37.922 243.969
 37.844 243.969 37.547 c h
243.969 34.969 m 243.969 32.906 l 243.984 32.719 244.016 32.656 244.172
 32.656 c 244.562 32.641 l 245.562 32.625 246.141 33.078 246.141 33.875 
c 246.141 34.578 245.688 34.953 244.828 34.969 c h
243.969 34.969 m f
213.582 95.398 m 213.504 93.383 l 213.316 93.383 l 213.254 93.57 213.113
 93.68 212.941 93.68 c 212.848 93.68 212.723 93.648 212.582 93.602 c 212.145
 93.461 211.691 93.383 211.27 93.383 c 210.535 93.383 209.801 93.664 209.238
 94.148 c 208.613 94.711 208.27 95.539 208.27 96.523 c 208.27 98.352 209.457
 99.57 211.254 99.57 c 212.27 99.57 213.16 99.164 213.691 98.43 c 213.535
 98.273 l 212.879 98.914 212.285 99.18 211.535 99.18 c 210.973 99.18 210.473
 98.992 210.082 98.648 c 209.582 98.211 209.316 97.414 209.316 96.398 c 
209.316 94.789 210.145 93.742 211.441 93.742 c 211.957 93.742 212.426 93.93
 212.785 94.273 c 213.066 94.57 213.207 94.82 213.379 95.398 c h
213.582 95.398 m f
261.043 59.402 m 263.59 59.402 l 264.637 59.402 265.574 59.105 266.137 
58.605 c 266.715 58.074 267.043 57.277 267.043 56.402 c 267.043 55.605 266.793
 54.902 266.277 54.402 c 265.668 53.793 264.699 53.465 263.465 53.465 c 
261.043 53.465 l 261.043 53.637 l 261.762 53.699 261.824 53.777 261.84 54.449
 c 261.84 58.418 l 261.824 59.074 261.715 59.184 261.043 59.23 c h
262.746 54.152 m 262.746 53.871 262.84 53.793 263.215 53.793 c 263.996 
53.793 264.574 53.934 264.996 54.246 c 265.699 54.73 266.074 55.496 266.074
 56.465 c 266.074 57.527 265.699 58.277 264.98 58.699 c 264.512 58.965 263.996
 59.074 263.215 59.074 c 262.855 59.074 262.746 58.996 262.746 58.699 c 
h
262.746 54.152 m f
237.945 125.766 m 237.945 125.688 l 236.711 125.344 235.367 124.297 235.133
 123.766 c 234.898 123.766 l 235.242 124.656 236.039 125.234 236.445 125.5
 c 229.586 125.5 l 229.586 125.953 l 236.445 125.953 l 236.039 126.219 235.242
 126.797 234.898 127.672 c 235.133 127.672 l 235.367 127.156 236.711 126.094
 237.945 125.766 c h
237.945 125.766 m f
247.574 122.078 m 247.574 121.938 l 245.855 121.938 l 245.855 122.078 l
 246.043 122.078 246.355 122.156 246.355 122.406 c 246.355 122.625 246.137
 122.984 246.012 123.172 c 243.621 126.688 l 243.449 122.766 l 243.418 122.203
 243.73 122.078 244.215 122.078 c 244.215 121.938 l 241.902 121.938 l 241.902
 122.078 l 242.512 122.078 242.559 122.359 242.637 123.094 c 242.84 128.125
 l 242.996 128.125 l 246.621 122.797 l 246.793 122.578 247.184 122.078 247.574
 122.078 c h
247.574 122.078 m f
172.082 63.918 m 172.004 63.918 l 171.66 65.152 170.613 66.496 170.082 
66.73 c 170.082 66.965 l 170.973 66.621 171.551 65.824 171.816 65.418 c 
171.816 72.277 l 172.27 72.277 l 172.27 65.418 l 172.535 65.824 173.113 
66.621 173.988 66.965 c 173.988 66.73 l 173.473 66.496 172.41 65.152 172.082
 63.918 c h
172.082 63.918 m f
175.691 53.711 m 170.676 53.711 l 170.254 55.242 l 170.426 55.242 l 170.801
 54.258 171.27 54.039 172.051 54.039 c 172.051 54.039 172.566 54.039 172.676
 54.039 c 171.379 58.711 l 171.129 59.617 170.816 59.602 170.457 59.602 
c 170.441 59.758 l 172.801 59.758 l 172.832 59.602 l 172.488 59.602 172.145
 59.617 172.145 59.164 c 172.145 59.039 172.176 58.898 172.223 58.711 c 
173.504 54.039 l 174.254 54.039 l 174.691 54.039 175.16 54.102 175.16 54.727
 c 175.16 54.867 175.145 55.023 175.098 55.242 c 175.27 55.242 l h
175.691 53.711 m f
q 1 0 0 -1 0 0 cm
193.18 -80.508 m 193.18 -80.508 193.652 -81.289 193.926 -81.664 c 194.195
 -82.07 194.469 -82.445 194.738 -82.816 c 195.012 -83.223 195.215 -83.562
 195.484 -83.969 c 195.723 -84.344 195.961 -84.715 196.234 -85.09 c 196.504
 -85.465 196.707 -85.801 196.98 -86.176 c 197.25 -86.582 197.488 -86.922
 197.727 -87.297 c 197.996 -87.633 198.234 -87.973 198.473 -88.348 c 198.742
 -88.719 198.98 -89.059 199.219 -89.398 c 199.488 -89.773 199.727 -90.109
 199.965 -90.449 c 200.234 -90.824 200.473 -91.129 200.746 -91.504 c 201.016
 -91.84 201.254 -92.148 201.523 -92.52 c 201.797 -92.859 202.035 -93.164
 202.273 -93.504 c 202.543 -93.844 202.781 -94.148 203.051 -94.488 c 203.289
 -94.828 203.527 -95.133 203.797 -95.473 c 204.035 -95.812 204.543 -96.457
 204.543 -96.457 c S Q
205.059 92.457 m 197.738 87.273 l 200.113 95.914 l 200.652 91.41 l f
q 1 0 0 -1 0 0 cm
238.57 -35.262 m 238.57 -35.262 239.801 -36.801 240.453 -37.586 c 241.102
 -38.375 241.648 -39.094 242.297 -39.879 c 242.949 -40.664 243.531 -41.348
 244.215 -42.102 c 244.863 -42.855 245.445 -43.539 246.094 -44.289 c 246.746
 -45.043 247.359 -45.691 248.012 -46.41 c 248.66 -47.129 249.207 -47.781
 249.859 -48.496 c 250.508 -49.215 251.09 -49.832 251.773 -50.551 c 252.422
 -51.234 253.004 -51.852 253.656 -52.535 c 254.305 -53.219 254.922 -53.832
 255.57 -54.484 c 256.219 -55.168 257.418 -56.398 257.418 -56.398 c S Q
242.027 44.184 m 249.852 48.488 l 246.535 40.184 l 246.504 44.695 l f
235.918 141.844 m 235.262 142.281 234.996 142.5 234.652 142.922 c 234.027
 143.703 233.715 144.594 233.715 145.641 c 233.715 146.797 234.043 147.672
 234.824 148.578 c 235.199 149.016 235.434 149.203 235.902 149.5 c 235.996
 149.344 l 235.293 148.781 235.043 148.469 234.793 147.797 c 234.574 147.203
 234.48 146.531 234.48 145.625 c 234.48 144.672 234.59 143.938 234.84 143.391
 c 235.09 142.828 235.355 142.5 235.996 141.984 c h
235.918 141.844 m f
237.652 141.797 m 237.605 141.781 l 237.23 141.906 236.996 141.984 236.559
 142.109 c 236.309 142.172 l 236.309 142.312 l 236.355 142.312 236.387 142.312
 236.449 142.312 c 236.809 142.312 236.902 142.391 236.902 142.766 c 236.902
 147.422 l 236.902 147.703 237.652 148 238.371 148 c 239.559 148 240.48 
147.016 240.48 145.734 c 240.48 144.609 239.793 143.781 238.902 143.781 
c 238.355 143.781 237.824 144.094 237.652 144.547 c h
237.652 145.016 m 237.652 144.672 238.074 144.344 238.543 144.344 c 238.793
 144.344 239.012 144.438 239.199 144.609 c 239.48 144.891 239.684 145.5 
239.684 146.141 c 239.684 147.141 239.262 147.703 238.527 147.703 c 238.059
 147.703 237.652 147.516 237.652 147.281 c h
237.652 145.016 m f
241.062 149.5 m 241.719 149.047 242 148.828 242.328 148.422 c 242.969 147.641
 243.281 146.734 243.281 145.688 c 243.281 144.547 242.938 143.672 242.156
 142.766 c 241.781 142.328 241.547 142.125 241.094 141.844 c 240.984 141.984
 l 241.703 142.547 241.938 142.859 242.188 143.531 c 242.406 144.141 242.5
 144.812 242.5 145.719 c 242.5 146.656 242.391 147.391 242.141 147.938 c
 241.906 148.5 241.625 148.828 240.984 149.344 c h
241.062 149.5 m f
Q Q
showpage
%%Trailer
end
%%EOF
