%!PS-Adobe-3.0 EPSF-3.0
%%Creator: cairo 1.17.4 (https://cairographics.org)
%%CreationDate: Thu Feb 24 10:47:44 2022
%%Pages: 1
%%DocumentData: Clean7Bit
%%LanguageLevel: 2
%%BoundingBox: 0 0 228 127
%%EndComments
%%BeginProlog
50 dict begin
/q { gsave } bind def
/Q { grestore } bind def
/cm { 6 array astore concat } bind def
/w { setlinewidth } bind def
/J { setlinecap } bind def
/j { setlinejoin } bind def
/M { setmiterlimit } bind def
/d { setdash } bind def
/m { moveto } bind def
/l { lineto } bind def
/c { curveto } bind def
/h { closepath } bind def
/re { exch dup neg 3 1 roll 5 3 roll moveto 0 rlineto
      0 exch rlineto 0 rlineto closepath } bind def
/S { stroke } bind def
/f { fill } bind def
/f* { eofill } bind def
/n { newpath } bind def
/W { clip } bind def
/W* { eoclip } bind def
/BT { } bind def
/ET { } bind def
/BDC { mark 3 1 roll /BDC pdfmark } bind def
/EMC { mark /EMC pdfmark } bind def
/cairo_store_point { /cairo_point_y exch def /cairo_point_x exch def } def
/Tj { show currentpoint cairo_store_point } bind def
/TJ {
  {
    dup
    type /stringtype eq
    { show } { -0.001 mul 0 cairo_font_matrix dtransform rmoveto } ifelse
  } forall
  currentpoint cairo_store_point
} bind def
/cairo_selectfont { cairo_font_matrix aload pop pop pop 0 0 6 array astore
    cairo_font exch selectfont cairo_point_x cairo_point_y moveto } bind def
/Tf { pop /cairo_font exch def /cairo_font_matrix where
      { pop cairo_selectfont } if } bind def
/Td { matrix translate cairo_font_matrix matrix concatmatrix dup
      /cairo_font_matrix exch def dup 4 get exch 5 get cairo_store_point
      /cairo_font where { pop cairo_selectfont } if } bind def
/Tm { 2 copy 8 2 roll 6 array astore /cairo_font_matrix exch def
      cairo_store_point /cairo_font where { pop cairo_selectfont } if } bind def
/g { setgray } bind def
/rg { setrgbcolor } bind def
/d1 { setcachedevice } bind def
/cairo_data_source {
  CairoDataIndex CairoData length lt
    { CairoData CairoDataIndex get /CairoDataIndex CairoDataIndex 1 add def }
    { () } ifelse
} def
/cairo_flush_ascii85_file { cairo_ascii85_file status { cairo_ascii85_file flushfile } if } def
/cairo_image { image cairo_flush_ascii85_file } def
/cairo_imagemask { imagemask cairo_flush_ascii85_file } def
%%EndProlog
%%BeginSetup
%%EndSetup
%%Page: 1 1
%%BeginPageSetup
%%PageBoundingBox: 0 0 228 127
%%EndPageSetup
q 0 0 228 127 rectclip
1 0 0 -1 0 127 cm q
Q q
0 0 85.906 126.699 re W n
q
0 0 86 127 re W n
  q
0 g
0.567043 w
0 J
0 j
[] 0.0 d
10 M q 1 0 0 -1 0 0 cm
0.285 -63.344 m 0.285 -60.758 l 0.285 -57.711 m 0.285 -52.637 l 0.285 -49.59
 m 0.285 -44.512 l 0.285 -41.469 m 0.285 -36.391 l 0.285 -33.344 m 0.285
 -28.27 l 0.285 -25.223 m 0.285 -20.145 l 0.285 -17.102 m 0.285 -12.023 
l 0.285 -8.977 m 0.285 -3.902 l 0.285 -0.855 m 0.285 -0.273 l 4.777 -0.273
 l 7.824 -0.273 m 12.898 -0.273 l 15.945 -0.273 m 21.023 -0.273 l 24.066
 -0.273 m 29.145 -0.273 l 32.191 -0.273 m 37.266 -0.273 l 40.312 -0.273 
m 45.391 -0.273 l 48.434 -0.273 m 53.512 -0.273 l 56.559 -0.273 m 61.633
 -0.273 l 64.68 -0.273 m 69.758 -0.273 l 72.801 -0.273 m 77.879 -0.273 l
 80.926 -0.273 m 85.324 -0.273 l 85.324 -0.953 l 85.324 -3.996 m 85.324 
-9.074 l 85.324 -12.121 m 85.324 -17.195 l 85.324 -20.242 m 85.324 -25.32
 l 85.324 -28.367 m 85.324 -33.441 l 85.324 -36.488 m 85.324 -41.562 l 85.324
 -44.609 m 85.324 -49.688 l 85.324 -52.734 m 85.324 -57.809 l 85.324 -60.855
 m 85.324 -65.93 l 85.324 -68.977 m 85.324 -74.055 l 85.324 -77.098 m 85.324
 -82.176 l 85.324 -85.223 m 85.324 -90.297 l 85.324 -93.344 m 85.324 -98.422
 l 85.324 -101.465 m 85.324 -106.543 l 85.324 -109.59 m 85.324 -114.664 
l 85.324 -117.711 m 85.324 -122.789 l 85.324 -125.832 m 85.324 -126.414 
l 80.828 -126.414 l 77.781 -126.414 m 72.703 -126.414 l 69.66 -126.414 m
 64.582 -126.414 l 61.535 -126.414 m 56.461 -126.414 l 53.414 -126.414 m
 48.336 -126.414 l 45.293 -126.414 m 40.215 -126.414 l 37.168 -126.414 m
 32.094 -126.414 l 29.047 -126.414 m 23.973 -126.414 l 20.926 -126.414 m
 15.848 -126.414 l 12.801 -126.414 m 7.727 -126.414 l 4.68 -126.414 m 0.285
 -126.414 l 0.285 -125.734 l 0.285 -122.688 m 0.285 -117.613 l 0.285 -114.566
 m 0.285 -109.488 l 0.285 -106.441 m 0.285 -101.367 l 0.285 -98.32 m 0.285
 -93.246 l 0.285 -90.199 m 0.285 -85.121 l 0.285 -82.078 m 0.285 -77 l 0.285
 -73.953 m 0.285 -68.879 l 0.285 -65.832 m 0.285 -63.344 l S Q
  Q
Q
0 g
0.850361 w
0 J
0 j
[] 0.0 d
10 M q 1 0 0 -1 0 0 cm
3.121 -98.777 m 3.121 -73.973 l 82.492 -73.973 l 82.492 -123.582 l 3.121
 -123.582 l h
3.121 -98.777 m S Q
44.418 88.531 m 39.402 88.531 l 38.98 90.062 l 39.152 90.062 l 39.527 89.078
 39.996 88.859 40.777 88.859 c 40.777 88.859 41.293 88.859 41.402 88.859
 c 40.105 93.531 l 39.855 94.438 39.543 94.422 39.184 94.422 c 39.168 94.578
 l 41.527 94.578 l 41.559 94.422 l 41.215 94.422 40.871 94.438 40.871 93.984
 c 40.871 93.859 40.902 93.719 40.949 93.531 c 42.23 88.859 l 42.98 88.859
 l 43.418 88.859 43.887 88.922 43.887 89.547 c 43.887 89.688 43.871 89.844
 43.824 90.062 c 43.996 90.062 l h
44.418 88.531 m f
44.465 91.988 m 44.434 91.973 l 44.152 92.082 43.965 92.145 43.621 92.223
 c 43.418 92.285 l 43.418 92.395 l 43.465 92.395 43.48 92.395 43.543 92.395
 c 43.824 92.395 43.887 92.457 43.887 92.738 c 43.887 96.363 l 43.887 96.582
 44.465 96.801 45.027 96.801 c 45.949 96.801 46.668 96.035 46.668 95.051
 c 46.668 94.176 46.137 93.535 45.434 93.535 c 45.012 93.535 44.605 93.77
 44.465 94.129 c h
44.465 94.488 m 44.465 94.223 44.793 93.973 45.152 93.973 c 45.355 93.973
 45.527 94.035 45.668 94.176 c 45.902 94.395 46.043 94.863 46.043 95.363
 c 46.043 96.145 45.715 96.582 45.137 96.582 c 44.777 96.582 44.465 96.426
 44.465 96.254 c h
44.465 94.488 m f
23.18 106.066 m 22.758 106.738 22.367 107.004 21.789 107.004 c 21.289 107.004
 20.898 106.738 20.633 106.238 c 20.477 105.895 20.414 105.613 20.398 105.051
 c 23.148 105.051 l 23.086 104.473 22.992 104.207 22.773 103.926 c 22.508
 103.598 22.086 103.41 21.617 103.41 c 21.18 103.41 20.758 103.566 20.414
 103.879 c 19.992 104.238 19.742 104.879 19.742 105.613 c 19.742 106.848
 20.398 107.629 21.43 107.629 c 22.273 107.629 22.945 107.098 23.32 106.129
 c h
20.414 104.77 m 20.508 104.066 20.82 103.738 21.367 103.738 c 21.914 103.738
 22.117 103.988 22.242 104.77 c h
20.414 104.77 m f
25.863 107.535 m 27.66 107.535 l 27.66 107.395 l 27.379 107.395 27.207 
107.254 26.926 106.863 c 25.77 105.098 l 26.52 104.035 l 26.691 103.785 
26.957 103.645 27.254 103.629 c 27.254 103.504 l 25.832 103.504 l 25.832
 103.629 l 26.098 103.645 26.191 103.707 26.191 103.832 c 26.191 103.941
 26.082 104.129 25.863 104.41 c 25.816 104.473 25.707 104.629 25.582 104.816
 c 25.52 104.707 l 25.379 104.488 25.301 104.379 25.285 104.348 c 25.113
 104.066 25.051 103.926 25.051 103.832 c 25.051 103.691 25.16 103.645 25.441
 103.629 c 25.441 103.504 l 23.582 103.504 l 23.582 103.629 l 23.66 103.629
 l 23.926 103.629 24.066 103.754 24.348 104.176 c 25.191 105.457 l 24.176
 106.941 l 23.895 107.316 23.816 107.379 23.52 107.395 c 23.52 107.535 l
 24.816 107.535 l 24.816 107.395 l 24.551 107.395 24.457 107.363 24.457 
107.238 c 24.457 107.176 24.504 107.066 24.645 106.879 c 25.348 105.77 l
 26.16 107.02 l 26.191 107.082 26.223 107.129 26.223 107.191 c 26.223 107.348
 26.16 107.379 25.863 107.395 c h
25.863 107.535 m f
27.852 109.488 m 30.023 109.488 l 30.023 109.316 l 29.352 109.316 29.242
 109.223 29.227 108.645 c 29.227 107.238 l 29.555 107.535 29.758 107.629
 30.133 107.629 c 31.211 107.629 32.023 106.613 32.023 105.316 c 32.023 
104.207 31.398 103.41 30.523 103.41 c 30.023 103.41 29.633 103.629 29.227
 104.113 c 29.227 103.426 l 29.18 103.41 l 28.695 103.598 28.383 103.707
 27.883 103.863 c 27.883 104.004 l 27.961 104.004 28.023 104.004 28.117 
104.004 c 28.414 104.004 28.477 104.098 28.477 104.52 c 28.477 108.707 l
 28.477 109.191 28.383 109.27 27.852 109.332 c h
29.227 104.535 m 29.227 104.27 29.727 103.941 30.148 103.941 c 30.805 103.941
 31.242 104.629 31.242 105.676 c 31.242 106.66 30.805 107.332 30.164 107.332
 c 29.742 107.332 29.227 107.02 29.227 106.738 c h
29.227 104.535 m f
35.898 106.066 m 35.477 106.738 35.086 107.004 34.508 107.004 c 34.008 
107.004 33.617 106.738 33.352 106.238 c 33.195 105.895 33.133 105.613 33.117
 105.051 c 35.867 105.051 l 35.805 104.473 35.711 104.207 35.492 103.926
 c 35.227 103.598 34.805 103.41 34.336 103.41 c 33.898 103.41 33.477 103.566
 33.133 103.879 c 32.711 104.238 32.461 104.879 32.461 105.613 c 32.461 
106.848 33.117 107.629 34.148 107.629 c 34.992 107.629 35.664 107.098 36.039
 106.129 c h
33.133 104.77 m 33.227 104.066 33.539 103.738 34.086 103.738 c 34.633 103.738
 34.836 103.988 34.961 104.77 c h
33.133 104.77 m f
36.25 107.535 m 38.406 107.535 l 38.406 107.395 l 37.797 107.379 37.656
 107.254 37.641 106.723 c 37.641 104.707 l 37.641 104.426 38.016 103.973
 38.266 103.973 c 38.312 103.973 38.406 104.02 38.5 104.113 c 38.641 104.238
 38.734 104.285 38.859 104.285 c 39.078 104.285 39.203 104.129 39.203 103.879
 c 39.203 103.582 39.016 103.41 38.719 103.41 c 38.344 103.41 38.094 103.613
 37.641 104.254 c 37.641 103.426 l 37.594 103.41 l 37.094 103.613 36.766
 103.738 36.266 103.895 c 36.266 104.035 l 36.391 104.004 36.469 104.004
 36.578 104.004 c 36.797 104.004 36.891 104.145 36.891 104.535 c 36.891 
106.785 l 36.859 107.254 36.812 107.301 36.25 107.395 c h
36.25 107.535 m f
39.344 107.535 m 41.469 107.535 l 41.469 107.395 l 40.875 107.363 40.812
 107.27 40.812 106.613 c 40.812 103.441 l 40.766 103.41 l 39.375 103.91 
l 39.375 104.035 l 39.453 104.035 l 39.562 104.004 39.672 104.004 39.766
 104.004 c 39.969 104.004 40.062 104.145 40.062 104.535 c 40.062 106.613
 l 40.031 107.285 39.953 107.379 39.344 107.395 c h
40.344 101.41 m 40.109 101.41 39.906 101.613 39.906 101.863 c 39.906 102.129
 40.094 102.332 40.344 102.332 c 40.625 102.332 40.812 102.129 40.812 101.863
 c 40.812 101.613 40.609 101.41 40.344 101.41 c h
40.344 101.41 m f
41.863 107.535 m 43.863 107.535 l 43.863 107.395 l 43.395 107.395 43.254
 107.301 43.254 106.941 c 43.254 104.41 l 43.254 104.395 43.316 104.301 
43.379 104.238 c 43.613 104.035 43.988 103.879 44.301 103.879 c 44.707 103.879
 44.895 104.191 44.895 104.816 c 44.895 106.77 l 44.879 107.27 44.785 107.379
 44.285 107.395 c 44.285 107.535 l 46.301 107.535 l 46.301 107.395 l 45.801
 107.395 45.676 107.254 45.645 106.676 c 45.645 104.426 l 45.926 104.035
 46.207 103.879 46.629 103.879 c 47.145 103.879 47.301 104.113 47.301 104.863
 c 47.301 106.754 l 47.285 107.285 47.223 107.348 46.707 107.395 c 46.707
 107.535 l 48.676 107.535 l 48.676 107.395 l 48.441 107.379 l 48.16 107.332
 48.051 107.207 48.051 106.848 c 48.051 105.004 l 48.051 103.941 47.707 
103.41 47.02 103.41 c 46.488 103.41 46.035 103.645 45.551 104.16 c 45.395
 103.645 45.082 103.41 44.598 103.41 c 44.191 103.41 43.957 103.52 43.207
 104.098 c 43.207 103.426 l 43.145 103.41 l 42.676 103.582 42.363 103.676
 41.895 103.816 c 41.895 103.973 l 42.004 103.941 42.082 103.926 42.176 
103.926 c 42.41 103.926 42.488 104.066 42.488 104.504 c 42.488 106.77 l 
42.473 107.27 42.363 107.395 41.863 107.395 c h
41.863 107.535 m f
52.34 106.066 m 51.918 106.738 51.527 107.004 50.949 107.004 c 50.449 107.004
 50.059 106.738 49.793 106.238 c 49.637 105.895 49.574 105.613 49.559 105.051
 c 52.309 105.051 l 52.246 104.473 52.152 104.207 51.934 103.926 c 51.668
 103.598 51.246 103.41 50.777 103.41 c 50.34 103.41 49.918 103.566 49.574
 103.879 c 49.152 104.238 48.902 104.879 48.902 105.613 c 48.902 106.848
 49.559 107.629 50.59 107.629 c 51.434 107.629 52.105 107.098 52.48 106.129
 c h
49.574 104.77 m 49.668 104.066 49.98 103.738 50.527 103.738 c 51.074 103.738
 51.277 103.988 51.402 104.77 c h
49.574 104.77 m f
52.801 107.535 m 54.707 107.535 l 54.707 107.395 l 54.254 107.379 54.113
 107.254 54.113 106.941 c 54.113 104.41 l 54.551 104.004 54.738 103.91 55.035
 103.91 c 55.473 103.91 55.691 104.176 55.691 104.77 c 55.691 106.645 l 
55.676 107.223 55.566 107.379 55.129 107.395 c 55.129 107.535 l 56.988 107.535
 l 56.988 107.395 l 56.551 107.363 56.457 107.254 56.441 106.816 c 56.441
 104.754 l 56.441 103.91 56.051 103.41 55.395 103.41 c 54.973 103.41 54.691
 103.566 54.082 104.129 c 54.082 103.426 l 54.02 103.41 l 53.566 103.582
 53.254 103.676 52.785 103.816 c 52.785 103.973 l 52.848 103.941 52.926 
103.926 53.035 103.926 c 53.285 103.926 53.363 104.066 53.363 104.504 c 
53.363 106.723 l 53.348 107.254 53.254 107.379 52.801 107.395 c h
52.801 107.535 m f
59.363 103.504 m 58.457 103.504 l 58.457 102.457 l 58.457 102.363 58.441
 102.348 58.395 102.348 c 57.879 103.098 57.613 103.395 57.348 103.551 c
 57.254 103.613 57.191 103.676 57.191 103.723 c 57.191 103.754 57.207 103.77
 57.238 103.785 c 57.707 103.785 l 57.707 106.488 l 57.707 107.238 57.973
 107.629 58.504 107.629 c 58.941 107.629 59.285 107.41 59.582 106.941 c 
59.473 106.848 l 59.27 107.082 59.129 107.16 58.926 107.16 c 58.598 107.16
 58.457 106.91 58.457 106.348 c 58.457 103.785 l 59.363 103.785 l h
59.363 103.504 m f
63.574 106.941 m 63.418 107.066 63.309 107.113 63.168 107.113 c 62.965 
107.113 62.902 106.988 62.902 106.598 c 62.902 104.848 l 62.902 104.379 
62.855 104.113 62.73 103.91 c 62.527 103.582 62.137 103.41 61.621 103.41
 c 60.777 103.41 60.105 103.848 60.105 104.41 c 60.105 104.613 60.277 104.801
 60.496 104.801 c 60.715 104.801 60.902 104.613 60.902 104.426 c 60.902 
104.395 60.887 104.348 60.887 104.285 c 60.855 104.191 60.855 104.129 60.855
 104.066 c 60.855 103.816 61.137 103.629 61.496 103.629 c 61.934 103.629
 62.184 103.879 62.184 104.363 c 62.184 104.91 l 60.809 105.457 60.652 105.551
 60.262 105.879 c 60.059 106.066 59.934 106.363 59.934 106.66 c 59.934 107.223
 60.324 107.629 60.887 107.629 c 61.277 107.629 61.637 107.441 62.184 106.973
 c 62.23 107.441 62.402 107.629 62.762 107.629 c 63.074 107.629 63.262 107.52
 63.574 107.176 c h
62.184 106.426 m 62.184 106.707 62.137 106.801 61.949 106.91 c 61.715 107.035
 61.48 107.098 61.293 107.098 c 60.98 107.098 60.73 106.801 60.73 106.41
 c 60.73 106.379 l 60.73 105.848 61.137 105.504 62.184 105.129 c h
62.184 106.426 m f
63.75 107.535 m 65.875 107.535 l 65.875 107.395 l 65.297 107.379 65.203
 107.285 65.188 106.785 c 65.188 101.426 l 65.156 101.41 l 64.703 101.551
 64.375 101.645 63.734 101.801 c 63.734 101.941 l 63.781 101.941 l 63.891
 101.941 64 101.926 64.062 101.926 c 64.359 101.926 64.438 102.051 64.438
 102.473 c 64.438 106.754 l 64.438 107.238 64.312 107.363 63.75 107.395 
c h
63.75 107.535 m f
33.152 115.645 m 33.121 114.41 l 33.012 114.41 l 32.965 114.488 32.918 
114.504 32.871 114.504 c 32.824 114.504 32.73 114.488 32.637 114.441 c 32.418
 114.379 32.215 114.332 31.996 114.332 c 31.293 114.332 30.777 114.801 30.777
 115.441 c 30.777 115.941 31.074 116.301 31.824 116.738 c 32.355 117.035
 l 32.668 117.207 32.824 117.426 32.824 117.707 c 32.824 118.098 32.527 
118.348 32.074 118.348 c 31.449 118.348 31.137 118.004 30.934 117.098 c 
30.793 117.098 l 30.793 118.488 l 30.902 118.488 l 30.965 118.41 31.012 
118.379 31.121 118.379 c 31.215 118.379 31.324 118.41 31.527 118.457 c 31.762
 118.504 31.996 118.551 32.184 118.551 c 32.887 118.551 33.449 118.02 33.449
 117.395 c 33.449 116.957 33.23 116.66 32.699 116.332 c 31.73 115.754 l 
31.465 115.598 31.34 115.395 31.34 115.145 c 31.34 114.785 31.621 114.535
 32.027 114.535 c 32.543 114.535 32.809 114.832 33.012 115.645 c h
33.152 115.645 m f
38.07 114.426 m 36.852 114.426 l 36.852 114.551 l 37.148 114.551 37.289
 114.629 37.289 114.785 c 37.289 114.816 37.273 114.863 37.242 114.926 c
 36.383 117.41 l 35.352 115.145 l 35.289 115.02 35.258 114.895 35.258 114.801
 c 35.258 114.629 35.398 114.566 35.773 114.551 c 35.773 114.426 l 33.93
 114.426 l 33.93 114.551 l 34.164 114.582 34.32 114.676 34.383 114.832 c
 35.414 117.035 l 35.523 117.285 35.523 117.285 35.57 117.379 c 35.82 117.832
 35.961 118.16 35.961 118.301 c 35.961 118.441 35.758 118.988 35.602 119.27
 c 35.477 119.488 35.289 119.66 35.164 119.66 c 35.102 119.66 35.023 119.645
 34.93 119.598 c 34.758 119.535 34.602 119.504 34.461 119.504 c 34.242 119.504
 34.07 119.66 34.07 119.895 c 34.07 120.191 34.352 120.41 34.742 120.41 
c 35.352 120.41 35.758 119.926 36.258 118.613 c 37.633 114.957 l 37.758 
114.676 37.852 114.582 38.07 114.551 c h
38.07 114.426 m f
41.07 115.645 m 41.039 114.41 l 40.93 114.41 l 40.883 114.488 40.836 114.504
 40.789 114.504 c 40.742 114.504 40.648 114.488 40.555 114.441 c 40.336 
114.379 40.133 114.332 39.914 114.332 c 39.211 114.332 38.695 114.801 38.695
 115.441 c 38.695 115.941 38.992 116.301 39.742 116.738 c 40.273 117.035
 l 40.586 117.207 40.742 117.426 40.742 117.707 c 40.742 118.098 40.445 
118.348 39.992 118.348 c 39.367 118.348 39.055 118.004 38.852 117.098 c 
38.711 117.098 l 38.711 118.488 l 38.82 118.488 l 38.883 118.41 38.93 118.379
 39.039 118.379 c 39.133 118.379 39.242 118.41 39.445 118.457 c 39.68 118.504
 39.914 118.551 40.102 118.551 c 40.805 118.551 41.367 118.02 41.367 117.395
 c 41.367 116.957 41.148 116.66 40.617 116.332 c 39.648 115.754 l 39.383
 115.598 39.258 115.395 39.258 115.145 c 39.258 114.785 39.539 114.535 39.945
 114.535 c 40.461 114.535 40.727 114.832 40.93 115.645 c h
41.07 115.645 m f
44.004 114.426 m 43.098 114.426 l 43.098 113.379 l 43.098 113.285 43.082
 113.27 43.035 113.27 c 42.52 114.02 42.254 114.316 41.988 114.473 c 41.895
 114.535 41.832 114.598 41.832 114.645 c 41.832 114.676 41.848 114.691 41.879
 114.707 c 42.348 114.707 l 42.348 117.41 l 42.348 118.16 42.613 118.551
 43.145 118.551 c 43.582 118.551 43.926 118.332 44.223 117.863 c 44.113 
117.77 l 43.91 118.004 43.77 118.082 43.566 118.082 c 43.238 118.082 43.098
 117.832 43.098 117.27 c 43.098 114.707 l 44.004 114.707 l h
44.004 114.426 m f
47.898 116.988 m 47.477 117.66 47.086 117.926 46.508 117.926 c 46.008 117.926
 45.617 117.66 45.352 117.16 c 45.195 116.816 45.133 116.535 45.117 115.973
 c 47.867 115.973 l 47.805 115.395 47.711 115.129 47.492 114.848 c 47.227
 114.52 46.805 114.332 46.336 114.332 c 45.898 114.332 45.477 114.488 45.133
 114.801 c 44.711 115.16 44.461 115.801 44.461 116.535 c 44.461 117.77 45.117
 118.551 46.148 118.551 c 46.992 118.551 47.664 118.02 48.039 117.051 c 
h
45.133 115.691 m 45.227 114.988 45.539 114.66 46.086 114.66 c 46.633 114.66
 46.836 114.91 46.961 115.691 c h
45.133 115.691 m f
48.344 118.457 m 50.344 118.457 l 50.344 118.316 l 49.875 118.316 49.734
 118.223 49.734 117.863 c 49.734 115.332 l 49.734 115.316 49.797 115.223
 49.859 115.16 c 50.094 114.957 50.469 114.801 50.781 114.801 c 51.188 114.801
 51.375 115.113 51.375 115.738 c 51.375 117.691 l 51.359 118.191 51.266 
118.301 50.766 118.316 c 50.766 118.457 l 52.781 118.457 l 52.781 118.316
 l 52.281 118.316 52.156 118.176 52.125 117.598 c 52.125 115.348 l 52.406
 114.957 52.688 114.801 53.109 114.801 c 53.625 114.801 53.781 115.035 53.781
 115.785 c 53.781 117.676 l 53.766 118.207 53.703 118.27 53.188 118.316 
c 53.188 118.457 l 55.156 118.457 l 55.156 118.316 l 54.922 118.301 l 54.641
 118.254 54.531 118.129 54.531 117.77 c 54.531 115.926 l 54.531 114.863 
54.188 114.332 53.5 114.332 c 52.969 114.332 52.516 114.566 52.031 115.082
 c 51.875 114.566 51.562 114.332 51.078 114.332 c 50.672 114.332 50.438 
114.441 49.688 115.02 c 49.688 114.348 l 49.625 114.332 l 49.156 114.504
 48.844 114.598 48.375 114.738 c 48.375 114.895 l 48.484 114.863 48.562 
114.848 48.656 114.848 c 48.891 114.848 48.969 114.988 48.969 115.426 c 
48.969 117.691 l 48.953 118.191 48.844 118.316 48.344 118.316 c h
48.344 118.457 m f
q 1 0 0 -1 0 0 cm
28.633 -52.715 m 28.633 -38.539 l 56.98 -38.539 l 56.98 -66.887 l 28.633
 -66.887 l h
28.633 -52.715 m S Q
42.137 48.469 m 37.121 48.469 l 36.699 50 l 36.871 50 l 37.246 49.016 37.715
 48.797 38.496 48.797 c 38.496 48.797 39.012 48.797 39.121 48.797 c 37.824
 53.469 l 37.574 54.375 37.262 54.359 36.902 54.359 c 36.887 54.516 l 39.246
 54.516 l 39.277 54.359 l 38.934 54.359 38.59 54.375 38.59 53.922 c 38.59
 53.797 38.621 53.656 38.668 53.469 c 39.949 48.797 l 40.699 48.797 l 41.137
 48.797 41.605 48.859 41.605 49.484 c 41.605 49.625 41.59 49.781 41.543 
50 c 41.715 50 l h
42.137 48.469 m f
41.156 56.793 m 42.828 56.793 l 42.828 56.684 l 42.359 56.668 42.25 56.574
 42.234 56.168 c 42.234 54.605 l 42.234 54.371 42.531 54.027 42.734 54.027
 c 42.766 54.027 42.828 54.059 42.906 54.137 c 43.016 54.23 43.094 54.277
 43.188 54.277 c 43.359 54.277 43.453 54.152 43.453 53.949 c 43.453 53.73
 43.312 53.59 43.078 53.59 c 42.781 53.59 42.594 53.746 42.234 54.246 c 
42.234 53.605 l 42.203 53.59 l 41.812 53.746 41.562 53.84 41.172 53.965 
c 41.172 54.074 l 41.266 54.059 41.328 54.043 41.422 54.043 c 41.594 54.043
 41.656 54.152 41.656 54.465 c 41.656 56.215 l 41.641 56.574 41.594 56.605
 41.156 56.684 c h
41.156 56.793 m f
46.25 55.652 m 45.922 56.184 45.609 56.387 45.172 56.387 c 44.766 56.387
 44.469 56.184 44.266 55.777 c 44.141 55.512 44.094 55.293 44.078 54.855
 c 46.234 54.855 l 46.172 54.402 46.109 54.215 45.922 53.98 c 45.719 53.73
 45.406 53.59 45.031 53.59 c 44.688 53.59 44.359 53.715 44.094 53.949 c 
43.766 54.23 43.578 54.73 43.578 55.309 c 43.578 56.262 44.078 56.855 44.891
 56.855 c 45.547 56.855 46.062 56.449 46.359 55.699 c h
44.094 54.637 m 44.172 54.09 44.406 53.84 44.828 53.84 c 45.266 53.84 45.422
 54.027 45.516 54.637 c h
44.094 54.637 m f
48.711 54.605 m 48.695 53.652 l 48.617 53.652 l 48.586 53.699 48.539 53.73
 48.508 53.73 c 48.461 53.73 48.398 53.715 48.32 53.684 c 48.148 53.621 
47.992 53.59 47.82 53.59 c 47.273 53.59 46.883 53.949 46.883 54.449 c 46.883
 54.84 47.102 55.121 47.695 55.449 c 48.102 55.684 l 48.336 55.824 48.461
 55.996 48.461 56.215 c 48.461 56.512 48.242 56.715 47.883 56.715 c 47.398
 56.715 47.164 56.449 46.992 55.73 c 46.883 55.73 l 46.883 56.824 l 46.977
 56.824 l 47.023 56.746 47.055 56.73 47.133 56.73 c 47.211 56.73 47.305 
56.746 47.461 56.793 c 47.648 56.84 47.82 56.855 47.961 56.855 c 48.508 
56.855 48.945 56.465 48.945 55.965 c 48.945 55.621 48.789 55.387 48.367 
55.137 c 47.617 54.699 l 47.414 54.574 47.305 54.402 47.305 54.215 c 47.305
 53.934 47.523 53.746 47.852 53.746 c 48.242 53.746 48.461 53.98 48.617 
54.605 c h
48.711 54.605 m f
q 1 0 0 -1 0 0 cm
14.461 -20.824 m 14.461 -3.105 l 71.152 -3.105 l 71.152 -38.539 l 14.461
 -38.539 l h
14.461 -20.824 m S Q
42.137 11.617 m 37.121 11.617 l 36.699 13.148 l 36.871 13.148 l 37.246 
12.164 37.715 11.945 38.496 11.945 c 38.496 11.945 39.012 11.945 39.121 
11.945 c 37.824 16.617 l 37.574 17.523 37.262 17.508 36.902 17.508 c 36.887
 17.664 l 39.246 17.664 l 39.277 17.508 l 38.934 17.508 38.59 17.523 38.59
 17.07 c 38.59 16.945 38.621 16.805 38.668 16.617 c 39.949 11.945 l 40.699
 11.945 l 41.137 11.945 41.605 12.008 41.605 12.633 c 41.605 12.773 41.59
 12.93 41.543 13.148 c 41.715 13.148 l h
42.137 11.617 m f
41.156 19.941 m 42.828 19.941 l 42.828 19.832 l 42.359 19.816 42.25 19.723
 42.234 19.316 c 42.234 17.754 l 42.234 17.52 42.531 17.176 42.734 17.176
 c 42.766 17.176 42.828 17.207 42.906 17.285 c 43.016 17.379 43.094 17.426
 43.188 17.426 c 43.359 17.426 43.453 17.301 43.453 17.098 c 43.453 16.879
 43.312 16.738 43.078 16.738 c 42.781 16.738 42.594 16.895 42.234 17.395
 c 42.234 16.754 l 42.203 16.738 l 41.812 16.895 41.562 16.988 41.172 17.113
 c 41.172 17.223 l 41.266 17.207 41.328 17.191 41.422 17.191 c 41.594 17.191
 41.656 17.301 41.656 17.613 c 41.656 19.363 l 41.641 19.723 41.594 19.754
 41.156 19.832 c h
41.156 19.941 m f
46.25 18.801 m 45.922 19.332 45.609 19.535 45.172 19.535 c 44.766 19.535
 44.469 19.332 44.266 18.926 c 44.141 18.66 44.094 18.441 44.078 18.004 
c 46.234 18.004 l 46.172 17.551 46.109 17.363 45.922 17.129 c 45.719 16.879
 45.406 16.738 45.031 16.738 c 44.688 16.738 44.359 16.863 44.094 17.098
 c 43.766 17.379 43.578 17.879 43.578 18.457 c 43.578 19.41 44.078 20.004
 44.891 20.004 c 45.547 20.004 46.062 19.598 46.359 18.848 c h
44.094 17.785 m 44.172 17.238 44.406 16.988 44.828 16.988 c 45.266 16.988
 45.422 17.176 45.516 17.785 c h
44.094 17.785 m f
48.711 17.754 m 48.695 16.801 l 48.617 16.801 l 48.586 16.848 48.539 16.879
 48.508 16.879 c 48.461 16.879 48.398 16.863 48.32 16.832 c 48.148 16.77
 47.992 16.738 47.82 16.738 c 47.273 16.738 46.883 17.098 46.883 17.598 
c 46.883 17.988 47.102 18.27 47.695 18.598 c 48.102 18.832 l 48.336 18.973
 48.461 19.145 48.461 19.363 c 48.461 19.66 48.242 19.863 47.883 19.863 
c 47.398 19.863 47.164 19.598 46.992 18.879 c 46.883 18.879 l 46.883 19.973
 l 46.977 19.973 l 47.023 19.895 47.055 19.879 47.133 19.879 c 47.211 19.879
 47.305 19.895 47.461 19.941 c 47.648 19.988 47.82 20.004 47.961 20.004 
c 48.508 20.004 48.945 19.613 48.945 19.113 c 48.945 18.77 48.789 18.535
 48.367 18.285 c 47.617 17.848 l 47.414 17.723 47.305 17.551 47.305 17.363
 c 47.305 17.082 47.523 16.895 47.852 16.895 c 48.242 16.895 48.461 17.129
 48.617 17.754 c h
48.711 17.754 m f
40.926 40.359 m 42.805 45.629 l 44.688 40.359 l 42.805 42.469 l f
1.13366 w
q 1 0 0 -1 0 0 cm
42.805 -25.785 m 42.805 -42.469 l S Q
48.914 33.297 m 48.695 33.578 48.398 33.719 48.102 33.719 c 47.477 33.719
 46.852 33.109 46.852 32.031 c 46.852 31.062 47.305 30.469 47.977 30.469
 c 48.414 30.469 48.773 30.844 48.914 31.234 c h
47.602 29.609 m 48.914 29.609 l 48.914 30.531 l 48.602 30.297 48.367 30.203
 48.07 30.203 c 46.961 30.203 46.039 31.094 46.039 32.359 c 46.039 33.469
 46.758 34.203 47.758 34.203 c 48.211 34.203 48.602 34.016 48.914 33.609
 c 48.914 34.203 l 50.305 33.797 l 50.305 33.531 l 50.195 33.578 50.102 
33.609 50.023 33.594 c 49.727 33.594 49.648 33.281 49.648 32.594 c 49.648
 29.609 l 50.695 29.609 l 50.695 29.125 l 49.648 29.125 l 49.648 27.656 
l 48.211 28.203 l 48.273 28.359 l 48.398 28.312 48.461 28.297 48.523 28.297
 c 48.805 28.297 48.914 28.484 48.914 28.875 c 48.914 29.125 l 47.602 29.125
 l h
47.602 29.609 m f
55.328 30 m 54.672 30 l 54.531 30.547 l 54.375 30.125 54.094 30 53.797 
30 c 52.688 30 51.25 31.688 51.25 33.031 c 51.25 33.719 51.578 34.188 52.109
 34.188 c 52.875 34.188 53.578 33.328 53.953 32.703 c 53.219 35.312 l 53.078
 35.781 52.797 35.828 52.312 35.828 c 52.281 36 l 54.438 36 l 54.469 35.828
 l 54.141 35.828 53.766 35.781 53.891 35.328 c h
54.391 30.828 m 54.391 31.766 53.391 33.672 52.5 33.672 c 52.234 33.672
 52.016 33.453 52.016 32.984 c 52.016 31.891 53.031 30.188 53.859 30.188
 c 54.188 30.188 54.391 30.469 54.391 30.828 c h
54.391 30.828 m f
58.086 27.25 m 58.086 27.031 57.852 26.875 57.633 26.875 c 57.477 26.875
 57.336 26.953 57.273 27.172 c 56.336 30.359 l 56.539 30.438 l 58.039 27.422
 l 58.055 27.359 58.086 27.312 58.086 27.25 c h
58.086 27.25 m f
Q q
140.906 0 86.398 126.699 re W n
q
140 0 88 127 re W n
  q
0 g
0.567043 w
0 J
0 j
[] 0.0 d
10 M q 1 0 0 -1 0 0 cm
142.02 -63.344 m 142.02 -60.758 l 142.02 -57.711 m 142.02 -52.637 l 142.02
 -49.59 m 142.02 -44.512 l 142.02 -41.469 m 142.02 -36.391 l 142.02 -33.344
 m 142.02 -28.27 l 142.02 -25.223 m 142.02 -20.145 l 142.02 -17.102 m 142.02
 -12.023 l 142.02 -8.977 m 142.02 -3.902 l 142.02 -0.855 m 142.02 -0.273
 l 146.512 -0.273 l 149.559 -0.273 m 154.633 -0.273 l 157.68 -0.273 m 162.758
 -0.273 l 165.801 -0.273 m 170.879 -0.273 l 173.926 -0.273 m 179 -0.273 
l 182.047 -0.273 m 187.125 -0.273 l 190.172 -0.273 m 195.246 -0.273 l 198.293
 -0.273 m 203.367 -0.273 l 206.414 -0.273 m 211.492 -0.273 l 214.539 -0.273
 m 219.613 -0.273 l 222.66 -0.273 m 227.055 -0.273 l 227.055 -0.953 l 227.055
 -4 m 227.055 -9.074 l 227.055 -12.121 m 227.055 -17.195 l 227.055 -20.242
 m 227.055 -25.32 l 227.055 -28.367 m 227.055 -33.441 l 227.055 -36.488 
m 227.055 -41.566 l 227.055 -44.609 m 227.055 -49.688 l 227.055 -52.734 
m 227.055 -57.809 l 227.055 -60.855 m 227.055 -65.93 l 227.055 -68.977 m
 227.055 -74.055 l 227.055 -77.102 m 227.055 -82.176 l 227.055 -85.223 m
 227.055 -90.297 l 227.055 -93.344 m 227.055 -98.422 l 227.055 -101.469 
m 227.055 -106.543 l 227.055 -109.59 m 227.055 -114.664 l 227.055 -117.711
 m 227.055 -122.789 l 227.055 -125.836 m 227.055 -126.414 l 222.562 -126.414
 l 219.516 -126.414 m 214.438 -126.414 l 211.395 -126.414 m 206.316 -126.414
 l 203.27 -126.414 m 198.195 -126.414 l 195.148 -126.414 m 190.07 -126.414
 l 187.027 -126.414 m 181.949 -126.414 l 178.902 -126.414 m 173.828 -126.414
 l 170.781 -126.414 m 165.703 -126.414 l 162.66 -126.414 m 157.582 -126.414
 l 154.535 -126.414 m 149.461 -126.414 l 146.414 -126.414 m 142.02 -126.414
 l 142.02 -125.734 l 142.02 -122.688 m 142.02 -117.609 l 142.02 -114.566
 m 142.02 -109.488 l 142.02 -106.441 m 142.02 -101.367 l 142.02 -98.32 m
 142.02 -93.242 l 142.02 -90.199 m 142.02 -85.121 l 142.02 -82.074 m 142.02
 -77 l 142.02 -73.953 m 142.02 -68.875 l 142.02 -65.832 m 142.02 -63.344
 l S Q
  Q
Q
0 g
0.850361 w
0 J
0 j
[] 0.0 d
10 M q 1 0 0 -1 0 0 cm
144.852 -98.777 m 144.852 -73.973 l 224.223 -73.973 l 224.223 -123.582 
l 144.852 -123.582 l h
144.852 -98.777 m S Q
186.148 88.531 m 181.133 88.531 l 180.711 90.062 l 180.883 90.062 l 181.258
 89.078 181.727 88.859 182.508 88.859 c 182.508 88.859 183.023 88.859 183.133
 88.859 c 181.836 93.531 l 181.586 94.438 181.273 94.422 180.914 94.422 
c 180.898 94.578 l 183.258 94.578 l 183.289 94.422 l 182.945 94.422 182.602
 94.438 182.602 93.984 c 182.602 93.859 182.633 93.719 182.68 93.531 c 183.961
 88.859 l 184.711 88.859 l 185.148 88.859 185.617 88.922 185.617 89.547 
c 185.617 89.688 185.602 89.844 185.555 90.062 c 185.727 90.062 l h
186.148 88.531 m f
186.199 91.988 m 186.168 91.973 l 185.887 92.082 185.699 92.145 185.355
 92.223 c 185.152 92.285 l 185.152 92.395 l 185.199 92.395 185.215 92.395
 185.277 92.395 c 185.559 92.395 185.621 92.457 185.621 92.738 c 185.621
 96.363 l 185.621 96.582 186.199 96.801 186.762 96.801 c 187.684 96.801 
188.402 96.035 188.402 95.051 c 188.402 94.176 187.871 93.535 187.168 93.535
 c 186.746 93.535 186.34 93.77 186.199 94.129 c h
186.199 94.488 m 186.199 94.223 186.527 93.973 186.887 93.973 c 187.09 
93.973 187.262 94.035 187.402 94.176 c 187.637 94.395 187.777 94.863 187.777
 95.363 c 187.777 96.145 187.449 96.582 186.871 96.582 c 186.512 96.582 
186.199 96.426 186.199 96.254 c h
186.199 94.488 m f
164.914 106.066 m 164.492 106.738 164.102 107.004 163.523 107.004 c 163.023
 107.004 162.633 106.738 162.367 106.238 c 162.211 105.895 162.148 105.613
 162.133 105.051 c 164.883 105.051 l 164.82 104.473 164.727 104.207 164.508
 103.926 c 164.242 103.598 163.82 103.41 163.352 103.41 c 162.914 103.41
 162.492 103.566 162.148 103.879 c 161.727 104.238 161.477 104.879 161.477
 105.613 c 161.477 106.848 162.133 107.629 163.164 107.629 c 164.008 107.629
 164.68 107.098 165.055 106.129 c h
162.148 104.77 m 162.242 104.066 162.555 103.738 163.102 103.738 c 163.648
 103.738 163.852 103.988 163.977 104.77 c h
162.148 104.77 m f
167.598 107.535 m 169.395 107.535 l 169.395 107.395 l 169.113 107.395 168.941
 107.254 168.66 106.863 c 167.504 105.098 l 168.254 104.035 l 168.426 103.785
 168.691 103.645 168.988 103.629 c 168.988 103.504 l 167.566 103.504 l 167.566
 103.629 l 167.832 103.645 167.926 103.707 167.926 103.832 c 167.926 103.941
 167.816 104.129 167.598 104.41 c 167.551 104.473 167.441 104.629 167.316
 104.816 c 167.254 104.707 l 167.113 104.488 167.035 104.379 167.02 104.348
 c 166.848 104.066 166.785 103.926 166.785 103.832 c 166.785 103.691 166.895
 103.645 167.176 103.629 c 167.176 103.504 l 165.316 103.504 l 165.316 103.629
 l 165.395 103.629 l 165.66 103.629 165.801 103.754 166.082 104.176 c 166.926
 105.457 l 165.91 106.941 l 165.629 107.316 165.551 107.379 165.254 107.395
 c 165.254 107.535 l 166.551 107.535 l 166.551 107.395 l 166.285 107.395
 166.191 107.363 166.191 107.238 c 166.191 107.176 166.238 107.066 166.379
 106.879 c 167.082 105.77 l 167.895 107.02 l 167.926 107.082 167.957 107.129
 167.957 107.191 c 167.957 107.348 167.895 107.379 167.598 107.395 c h
167.598 107.535 m f
169.582 109.488 m 171.754 109.488 l 171.754 109.316 l 171.082 109.316 170.973
 109.223 170.957 108.645 c 170.957 107.238 l 171.285 107.535 171.488 107.629
 171.863 107.629 c 172.941 107.629 173.754 106.613 173.754 105.316 c 173.754
 104.207 173.129 103.41 172.254 103.41 c 171.754 103.41 171.363 103.629 
170.957 104.113 c 170.957 103.426 l 170.91 103.41 l 170.426 103.598 170.113
 103.707 169.613 103.863 c 169.613 104.004 l 169.691 104.004 169.754 104.004
 169.848 104.004 c 170.145 104.004 170.207 104.098 170.207 104.52 c 170.207
 108.707 l 170.207 109.191 170.113 109.27 169.582 109.332 c h
170.957 104.535 m 170.957 104.27 171.457 103.941 171.879 103.941 c 172.535
 103.941 172.973 104.629 172.973 105.676 c 172.973 106.66 172.535 107.332
 171.895 107.332 c 171.473 107.332 170.957 107.02 170.957 106.738 c h
170.957 104.535 m f
177.633 106.066 m 177.211 106.738 176.82 107.004 176.242 107.004 c 175.742
 107.004 175.352 106.738 175.086 106.238 c 174.93 105.895 174.867 105.613
 174.852 105.051 c 177.602 105.051 l 177.539 104.473 177.445 104.207 177.227
 103.926 c 176.961 103.598 176.539 103.41 176.07 103.41 c 175.633 103.41
 175.211 103.566 174.867 103.879 c 174.445 104.238 174.195 104.879 174.195
 105.613 c 174.195 106.848 174.852 107.629 175.883 107.629 c 176.727 107.629
 177.398 107.098 177.773 106.129 c h
174.867 104.77 m 174.961 104.066 175.273 103.738 175.82 103.738 c 176.367
 103.738 176.57 103.988 176.695 104.77 c h
174.867 104.77 m f
177.984 107.535 m 180.141 107.535 l 180.141 107.395 l 179.531 107.379 179.391
 107.254 179.375 106.723 c 179.375 104.707 l 179.375 104.426 179.75 103.973
 180 103.973 c 180.047 103.973 180.141 104.02 180.234 104.113 c 180.375 
104.238 180.469 104.285 180.594 104.285 c 180.812 104.285 180.938 104.129
 180.938 103.879 c 180.938 103.582 180.75 103.41 180.453 103.41 c 180.078
 103.41 179.828 103.613 179.375 104.254 c 179.375 103.426 l 179.328 103.41
 l 178.828 103.613 178.5 103.738 178 103.895 c 178 104.035 l 178.125 104.004
 178.203 104.004 178.312 104.004 c 178.531 104.004 178.625 104.145 178.625
 104.535 c 178.625 106.785 l 178.594 107.254 178.547 107.301 177.984 107.395
 c h
177.984 107.535 m f
181.078 107.535 m 183.203 107.535 l 183.203 107.395 l 182.609 107.363 182.547
 107.27 182.547 106.613 c 182.547 103.441 l 182.5 103.41 l 181.109 103.91
 l 181.109 104.035 l 181.188 104.035 l 181.297 104.004 181.406 104.004 181.5
 104.004 c 181.703 104.004 181.797 104.145 181.797 104.535 c 181.797 106.613
 l 181.766 107.285 181.688 107.379 181.078 107.395 c h
182.078 101.41 m 181.844 101.41 181.641 101.613 181.641 101.863 c 181.641
 102.129 181.828 102.332 182.078 102.332 c 182.359 102.332 182.547 102.129
 182.547 101.863 c 182.547 101.613 182.344 101.41 182.078 101.41 c h
182.078 101.41 m f
183.598 107.535 m 185.598 107.535 l 185.598 107.395 l 185.129 107.395 184.988
 107.301 184.988 106.941 c 184.988 104.41 l 184.988 104.395 185.051 104.301
 185.113 104.238 c 185.348 104.035 185.723 103.879 186.035 103.879 c 186.441
 103.879 186.629 104.191 186.629 104.816 c 186.629 106.77 l 186.613 107.27
 186.52 107.379 186.02 107.395 c 186.02 107.535 l 188.035 107.535 l 188.035
 107.395 l 187.535 107.395 187.41 107.254 187.379 106.676 c 187.379 104.426
 l 187.66 104.035 187.941 103.879 188.363 103.879 c 188.879 103.879 189.035
 104.113 189.035 104.863 c 189.035 106.754 l 189.02 107.285 188.957 107.348
 188.441 107.395 c 188.441 107.535 l 190.41 107.535 l 190.41 107.395 l 190.176
 107.379 l 189.895 107.332 189.785 107.207 189.785 106.848 c 189.785 105.004
 l 189.785 103.941 189.441 103.41 188.754 103.41 c 188.223 103.41 187.77
 103.645 187.285 104.16 c 187.129 103.645 186.816 103.41 186.332 103.41 
c 185.926 103.41 185.691 103.52 184.941 104.098 c 184.941 103.426 l 184.879
 103.41 l 184.41 103.582 184.098 103.676 183.629 103.816 c 183.629 103.973
 l 183.738 103.941 183.816 103.926 183.91 103.926 c 184.145 103.926 184.223
 104.066 184.223 104.504 c 184.223 106.77 l 184.207 107.27 184.098 107.395
 183.598 107.395 c h
183.598 107.535 m f
194.074 106.066 m 193.652 106.738 193.262 107.004 192.684 107.004 c 192.184
 107.004 191.793 106.738 191.527 106.238 c 191.371 105.895 191.309 105.613
 191.293 105.051 c 194.043 105.051 l 193.98 104.473 193.887 104.207 193.668
 103.926 c 193.402 103.598 192.98 103.41 192.512 103.41 c 192.074 103.41
 191.652 103.566 191.309 103.879 c 190.887 104.238 190.637 104.879 190.637
 105.613 c 190.637 106.848 191.293 107.629 192.324 107.629 c 193.168 107.629
 193.84 107.098 194.215 106.129 c h
191.309 104.77 m 191.402 104.066 191.715 103.738 192.262 103.738 c 192.809
 103.738 193.012 103.988 193.137 104.77 c h
191.309 104.77 m f
194.531 107.535 m 196.438 107.535 l 196.438 107.395 l 195.984 107.379 195.844
 107.254 195.844 106.941 c 195.844 104.41 l 196.281 104.004 196.469 103.91
 196.766 103.91 c 197.203 103.91 197.422 104.176 197.422 104.77 c 197.422
 106.645 l 197.406 107.223 197.297 107.379 196.859 107.395 c 196.859 107.535
 l 198.719 107.535 l 198.719 107.395 l 198.281 107.363 198.188 107.254 198.172
 106.816 c 198.172 104.754 l 198.172 103.91 197.781 103.41 197.125 103.41
 c 196.703 103.41 196.422 103.566 195.812 104.129 c 195.812 103.426 l 195.75
 103.41 l 195.297 103.582 194.984 103.676 194.516 103.816 c 194.516 103.973
 l 194.578 103.941 194.656 103.926 194.766 103.926 c 195.016 103.926 195.094
 104.066 195.094 104.504 c 195.094 106.723 l 195.078 107.254 194.984 107.379
 194.531 107.395 c h
194.531 107.535 m f
201.098 103.504 m 200.191 103.504 l 200.191 102.457 l 200.191 102.363 200.176
 102.348 200.129 102.348 c 199.613 103.098 199.348 103.395 199.082 103.551
 c 198.988 103.613 198.926 103.676 198.926 103.723 c 198.926 103.754 198.941
 103.77 198.973 103.785 c 199.441 103.785 l 199.441 106.488 l 199.441 107.238
 199.707 107.629 200.238 107.629 c 200.676 107.629 201.02 107.41 201.316
 106.941 c 201.207 106.848 l 201.004 107.082 200.863 107.16 200.66 107.16
 c 200.332 107.16 200.191 106.91 200.191 106.348 c 200.191 103.785 l 201.098
 103.785 l h
201.098 103.504 m f
205.305 106.941 m 205.148 107.066 205.039 107.113 204.898 107.113 c 204.695
 107.113 204.633 106.988 204.633 106.598 c 204.633 104.848 l 204.633 104.379
 204.586 104.113 204.461 103.91 c 204.258 103.582 203.867 103.41 203.352
 103.41 c 202.508 103.41 201.836 103.848 201.836 104.41 c 201.836 104.613
 202.008 104.801 202.227 104.801 c 202.445 104.801 202.633 104.613 202.633
 104.426 c 202.633 104.395 202.617 104.348 202.617 104.285 c 202.586 104.191
 202.586 104.129 202.586 104.066 c 202.586 103.816 202.867 103.629 203.227
 103.629 c 203.664 103.629 203.914 103.879 203.914 104.363 c 203.914 104.91
 l 202.539 105.457 202.383 105.551 201.992 105.879 c 201.789 106.066 201.664
 106.363 201.664 106.66 c 201.664 107.223 202.055 107.629 202.617 107.629
 c 203.008 107.629 203.367 107.441 203.914 106.973 c 203.961 107.441 204.133
 107.629 204.492 107.629 c 204.805 107.629 204.992 107.52 205.305 107.176
 c h
203.914 106.426 m 203.914 106.707 203.867 106.801 203.68 106.91 c 203.445
 107.035 203.211 107.098 203.023 107.098 c 202.711 107.098 202.461 106.801
 202.461 106.41 c 202.461 106.379 l 202.461 105.848 202.867 105.504 203.914
 105.129 c h
203.914 106.426 m f
205.484 107.535 m 207.609 107.535 l 207.609 107.395 l 207.031 107.379 206.938
 107.285 206.922 106.785 c 206.922 101.426 l 206.891 101.41 l 206.438 101.551
 206.109 101.645 205.469 101.801 c 205.469 101.941 l 205.516 101.941 l 205.625
 101.941 205.734 101.926 205.797 101.926 c 206.094 101.926 206.172 102.051
 206.172 102.473 c 206.172 106.754 l 206.172 107.238 206.047 107.363 205.484
 107.395 c h
205.484 107.535 m f
174.887 115.645 m 174.855 114.41 l 174.746 114.41 l 174.699 114.488 174.652
 114.504 174.605 114.504 c 174.559 114.504 174.465 114.488 174.371 114.441
 c 174.152 114.379 173.949 114.332 173.73 114.332 c 173.027 114.332 172.512
 114.801 172.512 115.441 c 172.512 115.941 172.809 116.301 173.559 116.738
 c 174.09 117.035 l 174.402 117.207 174.559 117.426 174.559 117.707 c 174.559
 118.098 174.262 118.348 173.809 118.348 c 173.184 118.348 172.871 118.004
 172.668 117.098 c 172.527 117.098 l 172.527 118.488 l 172.637 118.488 l
 172.699 118.41 172.746 118.379 172.855 118.379 c 172.949 118.379 173.059
 118.41 173.262 118.457 c 173.496 118.504 173.73 118.551 173.918 118.551
 c 174.621 118.551 175.184 118.02 175.184 117.395 c 175.184 116.957 174.965
 116.66 174.434 116.332 c 173.465 115.754 l 173.199 115.598 173.074 115.395
 173.074 115.145 c 173.074 114.785 173.355 114.535 173.762 114.535 c 174.277
 114.535 174.543 114.832 174.746 115.645 c h
174.887 115.645 m f
179.801 114.426 m 178.582 114.426 l 178.582 114.551 l 178.879 114.551 179.02
 114.629 179.02 114.785 c 179.02 114.816 179.004 114.863 178.973 114.926
 c 178.113 117.41 l 177.082 115.145 l 177.02 115.02 176.988 114.895 176.988
 114.801 c 176.988 114.629 177.129 114.566 177.504 114.551 c 177.504 114.426
 l 175.66 114.426 l 175.66 114.551 l 175.895 114.582 176.051 114.676 176.113
 114.832 c 177.145 117.035 l 177.254 117.285 177.254 117.285 177.301 117.379
 c 177.551 117.832 177.691 118.16 177.691 118.301 c 177.691 118.441 177.488
 118.988 177.332 119.27 c 177.207 119.488 177.02 119.66 176.895 119.66 c
 176.832 119.66 176.754 119.645 176.66 119.598 c 176.488 119.535 176.332
 119.504 176.191 119.504 c 175.973 119.504 175.801 119.66 175.801 119.895
 c 175.801 120.191 176.082 120.41 176.473 120.41 c 177.082 120.41 177.488
 119.926 177.988 118.613 c 179.363 114.957 l 179.488 114.676 179.582 114.582
 179.801 114.551 c h
179.801 114.426 m f
182.805 115.645 m 182.773 114.41 l 182.664 114.41 l 182.617 114.488 182.57
 114.504 182.523 114.504 c 182.477 114.504 182.383 114.488 182.289 114.441
 c 182.07 114.379 181.867 114.332 181.648 114.332 c 180.945 114.332 180.43
 114.801 180.43 115.441 c 180.43 115.941 180.727 116.301 181.477 116.738
 c 182.008 117.035 l 182.32 117.207 182.477 117.426 182.477 117.707 c 182.477
 118.098 182.18 118.348 181.727 118.348 c 181.102 118.348 180.789 118.004
 180.586 117.098 c 180.445 117.098 l 180.445 118.488 l 180.555 118.488 l
 180.617 118.41 180.664 118.379 180.773 118.379 c 180.867 118.379 180.977
 118.41 181.18 118.457 c 181.414 118.504 181.648 118.551 181.836 118.551
 c 182.539 118.551 183.102 118.02 183.102 117.395 c 183.102 116.957 182.883
 116.66 182.352 116.332 c 181.383 115.754 l 181.117 115.598 180.992 115.395
 180.992 115.145 c 180.992 114.785 181.273 114.535 181.68 114.535 c 182.195
 114.535 182.461 114.832 182.664 115.645 c h
182.805 115.645 m f
185.738 114.426 m 184.832 114.426 l 184.832 113.379 l 184.832 113.285 184.816
 113.27 184.77 113.27 c 184.254 114.02 183.988 114.316 183.723 114.473 c
 183.629 114.535 183.566 114.598 183.566 114.645 c 183.566 114.676 183.582
 114.691 183.613 114.707 c 184.082 114.707 l 184.082 117.41 l 184.082 118.16
 184.348 118.551 184.879 118.551 c 185.316 118.551 185.66 118.332 185.957
 117.863 c 185.848 117.77 l 185.645 118.004 185.504 118.082 185.301 118.082
 c 184.973 118.082 184.832 117.832 184.832 117.27 c 184.832 114.707 l 185.738
 114.707 l h
185.738 114.426 m f
189.633 116.988 m 189.211 117.66 188.82 117.926 188.242 117.926 c 187.742
 117.926 187.352 117.66 187.086 117.16 c 186.93 116.816 186.867 116.535 
186.852 115.973 c 189.602 115.973 l 189.539 115.395 189.445 115.129 189.227
 114.848 c 188.961 114.52 188.539 114.332 188.07 114.332 c 187.633 114.332
 187.211 114.488 186.867 114.801 c 186.445 115.16 186.195 115.801 186.195
 116.535 c 186.195 117.77 186.852 118.551 187.883 118.551 c 188.727 118.551
 189.398 118.02 189.773 117.051 c h
186.867 115.691 m 186.961 114.988 187.273 114.66 187.82 114.66 c 188.367
 114.66 188.57 114.91 188.695 115.691 c h
186.867 115.691 m f
190.078 118.457 m 192.078 118.457 l 192.078 118.316 l 191.609 118.316 191.469
 118.223 191.469 117.863 c 191.469 115.332 l 191.469 115.316 191.531 115.223
 191.594 115.16 c 191.828 114.957 192.203 114.801 192.516 114.801 c 192.922
 114.801 193.109 115.113 193.109 115.738 c 193.109 117.691 l 193.094 118.191
 193 118.301 192.5 118.316 c 192.5 118.457 l 194.516 118.457 l 194.516 118.316
 l 194.016 118.316 193.891 118.176 193.859 117.598 c 193.859 115.348 l 194.141
 114.957 194.422 114.801 194.844 114.801 c 195.359 114.801 195.516 115.035
 195.516 115.785 c 195.516 117.676 l 195.5 118.207 195.438 118.27 194.922
 118.316 c 194.922 118.457 l 196.891 118.457 l 196.891 118.316 l 196.656
 118.301 l 196.375 118.254 196.266 118.129 196.266 117.77 c 196.266 115.926
 l 196.266 114.863 195.922 114.332 195.234 114.332 c 194.703 114.332 194.25
 114.566 193.766 115.082 c 193.609 114.566 193.297 114.332 192.812 114.332
 c 192.406 114.332 192.172 114.441 191.422 115.02 c 191.422 114.348 l 191.359
 114.332 l 190.891 114.504 190.578 114.598 190.109 114.738 c 190.109 114.895
 l 190.219 114.863 190.297 114.848 190.391 114.848 c 190.625 114.848 190.703
 114.988 190.703 115.426 c 190.703 117.691 l 190.688 118.191 190.578 118.316
 190.078 118.316 c h
190.078 118.457 m f
q 1 0 0 -1 0 0 cm
170.367 -59.801 m 170.367 -45.629 l 198.711 -45.629 l 198.711 -73.973 l
 170.367 -73.973 l h
170.367 -59.801 m S Q
186.148 55.555 m 181.133 55.555 l 180.711 57.086 l 180.883 57.086 l 181.258
 56.102 181.727 55.883 182.508 55.883 c 182.508 55.883 183.023 55.883 183.133
 55.883 c 181.836 60.555 l 181.586 61.461 181.273 61.445 180.914 61.445 
c 180.898 61.602 l 183.258 61.602 l 183.289 61.445 l 182.945 61.445 182.602
 61.461 182.602 61.008 c 182.602 60.883 182.633 60.742 182.68 60.555 c 183.961
 55.883 l 184.711 55.883 l 185.148 55.883 185.617 55.945 185.617 56.57 c
 185.617 56.711 185.602 56.867 185.555 57.086 c 185.727 57.086 l h
186.148 55.555 m f
186.199 59.129 m 186.168 59.113 l 185.887 59.223 185.699 59.285 185.355
 59.363 c 185.152 59.426 l 185.152 59.535 l 185.199 59.535 185.215 59.535
 185.277 59.535 c 185.559 59.535 185.621 59.598 185.621 59.879 c 185.621
 63.504 l 185.621 63.723 186.199 63.941 186.762 63.941 c 187.684 63.941 
188.402 63.176 188.402 62.191 c 188.402 61.316 187.871 60.676 187.168 60.676
 c 186.746 60.676 186.34 60.91 186.199 61.27 c h
186.199 61.629 m 186.199 61.363 186.527 61.113 186.887 61.113 c 187.09 
61.113 187.262 61.176 187.402 61.316 c 187.637 61.535 187.777 62.004 187.777
 62.504 c 187.777 63.285 187.449 63.723 186.871 63.723 c 186.512 63.723 
186.199 63.566 186.199 63.395 c h
186.199 61.629 m f
182.656 81.465 m 184.539 86.73 l 186.418 81.465 l 184.539 83.57 l f
1.13366 w
q 1 0 0 -1 0 0 cm
184.539 -66.887 m 184.539 -83.57 l S Q
191.113 82.543 m 190.895 82.824 190.598 82.965 190.301 82.965 c 189.676
 82.965 189.051 82.355 189.051 81.277 c 189.051 80.309 189.504 79.715 190.176
 79.715 c 190.613 79.715 190.973 80.09 191.113 80.48 c h
189.801 78.855 m 191.113 78.855 l 191.113 79.777 l 190.801 79.543 190.566
 79.449 190.27 79.449 c 189.16 79.449 188.238 80.34 188.238 81.605 c 188.238
 82.715 188.957 83.449 189.957 83.449 c 190.41 83.449 190.801 83.262 191.113
 82.855 c 191.113 83.449 l 192.504 83.043 l 192.504 82.777 l 192.395 82.824
 192.301 82.855 192.223 82.84 c 191.926 82.84 191.848 82.527 191.848 81.84
 c 191.848 78.855 l 192.895 78.855 l 192.895 78.371 l 191.848 78.371 l 191.848
 76.902 l 190.41 77.449 l 190.473 77.605 l 190.598 77.559 190.66 77.543 
190.723 77.543 c 191.004 77.543 191.113 77.73 191.113 78.121 c 191.113 78.371
 l 189.801 78.371 l h
189.801 78.855 m f
197.531 79.246 m 196.875 79.246 l 196.734 79.793 l 196.578 79.371 196.297
 79.246 196 79.246 c 194.891 79.246 193.453 80.934 193.453 82.277 c 193.453
 82.965 193.781 83.434 194.312 83.434 c 195.078 83.434 195.781 82.574 196.156
 81.949 c 195.422 84.559 l 195.281 85.027 195 85.074 194.516 85.074 c 194.484
 85.246 l 196.641 85.246 l 196.672 85.074 l 196.344 85.074 195.969 85.027
 196.094 84.574 c h
196.594 80.074 m 196.594 81.012 195.594 82.918 194.703 82.918 c 194.438
 82.918 194.219 82.699 194.219 82.23 c 194.219 81.137 195.234 79.434 196.062
 79.434 c 196.391 79.434 196.594 79.715 196.594 80.074 c h
196.594 80.074 m f
0.850361 w
q 1 0 0 -1 0 0 cm
156.191 -20.824 m 156.191 -3.105 l 212.883 -3.105 l 212.883 -38.539 l 156.191
 -38.539 l h
156.191 -20.824 m S Q
183.867 16.434 m 178.852 16.434 l 178.43 17.965 l 178.602 17.965 l 178.977
 16.98 179.445 16.762 180.227 16.762 c 180.227 16.762 180.742 16.762 180.852
 16.762 c 179.555 21.434 l 179.305 22.34 178.992 22.324 178.633 22.324 c
 178.617 22.48 l 180.977 22.48 l 181.008 22.324 l 180.664 22.324 180.32 
22.34 180.32 21.887 c 180.32 21.762 180.352 21.621 180.398 21.434 c 181.68
 16.762 l 182.43 16.762 l 182.867 16.762 183.336 16.824 183.336 17.449 c
 183.336 17.59 183.32 17.746 183.273 17.965 c 183.445 17.965 l h
183.867 16.434 m f
182.887 24.762 m 184.559 24.762 l 184.559 24.652 l 184.09 24.637 183.98
 24.543 183.965 24.137 c 183.965 22.574 l 183.965 22.34 184.262 21.996 184.465
 21.996 c 184.496 21.996 184.559 22.027 184.637 22.105 c 184.746 22.199 
184.824 22.246 184.918 22.246 c 185.09 22.246 185.184 22.121 185.184 21.918
 c 185.184 21.699 185.043 21.559 184.809 21.559 c 184.512 21.559 184.324
 21.715 183.965 22.215 c 183.965 21.574 l 183.934 21.559 l 183.543 21.715
 183.293 21.809 182.902 21.934 c 182.902 22.043 l 182.996 22.027 183.059
 22.012 183.152 22.012 c 183.324 22.012 183.387 22.121 183.387 22.434 c 
183.387 24.184 l 183.371 24.543 183.324 24.574 182.887 24.652 c h
182.887 24.762 m f
187.98 23.621 m 187.652 24.152 187.34 24.355 186.902 24.355 c 186.496 24.355
 186.199 24.152 185.996 23.746 c 185.871 23.48 185.824 23.262 185.809 22.824
 c 187.965 22.824 l 187.902 22.371 187.84 22.184 187.652 21.949 c 187.449
 21.699 187.137 21.559 186.762 21.559 c 186.418 21.559 186.09 21.684 185.824
 21.918 c 185.496 22.199 185.309 22.699 185.309 23.277 c 185.309 24.23 185.809
 24.824 186.621 24.824 c 187.277 24.824 187.793 24.418 188.09 23.668 c h
185.824 22.605 m 185.902 22.059 186.137 21.809 186.559 21.809 c 186.996
 21.809 187.152 21.996 187.246 22.605 c h
185.824 22.605 m f
190.445 22.574 m 190.43 21.621 l 190.352 21.621 l 190.32 21.668 190.273
 21.699 190.242 21.699 c 190.195 21.699 190.133 21.684 190.055 21.652 c 
189.883 21.59 189.727 21.559 189.555 21.559 c 189.008 21.559 188.617 21.918
 188.617 22.418 c 188.617 22.809 188.836 23.09 189.43 23.418 c 189.836 23.652
 l 190.07 23.793 190.195 23.965 190.195 24.184 c 190.195 24.48 189.977 24.684
 189.617 24.684 c 189.133 24.684 188.898 24.418 188.727 23.699 c 188.617
 23.699 l 188.617 24.793 l 188.711 24.793 l 188.758 24.715 188.789 24.699
 188.867 24.699 c 188.945 24.699 189.039 24.715 189.195 24.762 c 189.383
 24.809 189.555 24.824 189.695 24.824 c 190.242 24.824 190.68 24.434 190.68
 23.934 c 190.68 23.59 190.523 23.355 190.102 23.105 c 189.352 22.668 l 
189.148 22.543 189.039 22.371 189.039 22.184 c 189.039 21.902 189.258 21.715
 189.586 21.715 c 189.977 21.715 190.195 21.949 190.352 22.574 c h
190.445 22.574 m f
Q Q
showpage
%%Trailer
end
%%EOF
