%!PS-Adobe-3.0 EPSF-3.0
%%Creator: cairo 1.17.4 (https://cairographics.org)
%%CreationDate: Thu Feb 24 10:47:47 2022
%%Pages: 1
%%DocumentData: Clean7Bit
%%LanguageLevel: 2
%%BoundingBox: 0 0 146 142
%%EndComments
%%BeginProlog
50 dict begin
/q { gsave } bind def
/Q { grestore } bind def
/cm { 6 array astore concat } bind def
/w { setlinewidth } bind def
/J { setlinecap } bind def
/j { setlinejoin } bind def
/M { setmiterlimit } bind def
/d { setdash } bind def
/m { moveto } bind def
/l { lineto } bind def
/c { curveto } bind def
/h { closepath } bind def
/re { exch dup neg 3 1 roll 5 3 roll moveto 0 rlineto
      0 exch rlineto 0 rlineto closepath } bind def
/S { stroke } bind def
/f { fill } bind def
/f* { eofill } bind def
/n { newpath } bind def
/W { clip } bind def
/W* { eoclip } bind def
/BT { } bind def
/ET { } bind def
/BDC { mark 3 1 roll /BDC pdfmark } bind def
/EMC { mark /EMC pdfmark } bind def
/cairo_store_point { /cairo_point_y exch def /cairo_point_x exch def } def
/Tj { show currentpoint cairo_store_point } bind def
/TJ {
  {
    dup
    type /stringtype eq
    { show } { -0.001 mul 0 cairo_font_matrix dtransform rmoveto } ifelse
  } forall
  currentpoint cairo_store_point
} bind def
/cairo_selectfont { cairo_font_matrix aload pop pop pop 0 0 6 array astore
    cairo_font exch selectfont cairo_point_x cairo_point_y moveto } bind def
/Tf { pop /cairo_font exch def /cairo_font_matrix where
      { pop cairo_selectfont } if } bind def
/Td { matrix translate cairo_font_matrix matrix concatmatrix dup
      /cairo_font_matrix exch def dup 4 get exch 5 get cairo_store_point
      /cairo_font where { pop cairo_selectfont } if } bind def
/Tm { 2 copy 8 2 roll 6 array astore /cairo_font_matrix exch def
      cairo_store_point /cairo_font where { pop cairo_selectfont } if } bind def
/g { setgray } bind def
/rg { setrgbcolor } bind def
/d1 { setcachedevice } bind def
/cairo_data_source {
  CairoDataIndex CairoData length lt
    { CairoData CairoDataIndex get /CairoDataIndex CairoDataIndex 1 add def }
    { () } ifelse
} def
/cairo_flush_ascii85_file { cairo_ascii85_file status { cairo_ascii85_file flushfile } if } def
/cairo_image { image cairo_flush_ascii85_file } def
/cairo_imagemask { imagemask cairo_flush_ascii85_file } def
%%EndProlog
%%BeginSetup
%%EndSetup
%%Page: 1 1
%%BeginPageSetup
%%PageBoundingBox: 0 0 146 142
%%EndPageSetup
q 0 0 146 142 rectclip
1 0 0 -1 0 142 cm q
0 g
1.13366 w
0 J
0 j
[] 0.0 d
10 M q 1 0 0 -1 0 0 cm
41.008 -15.402 m 43.934 -19.625 l 46.887 -23.848 l 49.867 -28.043 l 52.883
 -32.211 l 55.926 -36.352 l 59.004 -40.488 l 62.109 -44.598 l 65.25 -48.68
 l 68.422 -52.734 l 71.625 -56.785 l 74.859 -60.812 l 78.129 -64.809 l 81.434
 -68.805 l 84.77 -72.773 l 88.141 -76.715 l 91.551 -80.625 l 94.992 -84.539
 l 98.465 -88.422 l 101.977 -92.305 l 105.523 -96.133 l S Q
q 1 0 0 -1 0 0 cm
59.93 -15.402 m 62.945 -19.625 l 65.992 -23.848 l 69.07 -28.043 l 72.18
 -32.211 l 75.32 -36.352 l 78.496 -40.488 l 81.699 -44.598 l 84.938 -48.68
 l 88.203 -52.734 l 91.512 -56.785 l 94.848 -60.812 l 98.215 -64.809 l 101.625
 -68.805 l 105.059 -72.773 l 108.535 -76.715 l 112.043 -80.625 l 115.586
 -84.539 l 119.172 -88.422 l 122.789 -92.305 l 126.438 -96.133 l S Q
41.008 17.531 m 42.184 17.531 43.137 16.578 43.137 15.402 c 43.137 14.227
 42.184 13.273 41.008 13.273 c 39.832 13.273 38.879 14.227 38.879 15.402
 c 38.879 16.578 39.832 17.531 41.008 17.531 c f
59.93 13.273 m 58.754 13.273 57.801 14.227 57.801 15.402 c 57.801 16.578
 58.754 17.531 59.93 17.531 c 61.105 17.531 62.059 16.578 62.059 15.402 
c 62.059 14.227 61.105 13.273 59.93 13.273 c f
q 1 0 0 -1 0 0 cm
42.855 -15.402 m 58.082 -15.402 l S Q
105.523 98.266 m 106.699 98.266 107.652 97.309 107.652 96.133 c 107.652
 94.957 106.699 94.004 105.523 94.004 c 104.348 94.004 103.395 94.957 103.395
 96.133 c 103.395 97.309 104.348 98.266 105.523 98.266 c f
126.438 94.004 m 125.262 94.004 124.309 94.957 124.309 96.133 c 124.309
 97.309 125.262 98.266 126.438 98.266 c 127.613 98.266 128.566 97.309 128.566
 96.133 c 128.566 94.957 127.613 94.004 126.438 94.004 c f
q 1 0 0 -1 0 0 cm
107.371 -96.133 m 124.59 -96.133 l S Q
45.742 17.852 m 52.598 15.402 l 45.742 12.953 l 48.484 15.402 l f
88.59 57.098 m 94.848 60.812 l 92.359 53.973 l 92.223 57.648 l f
120.703 93.688 m 113.848 96.133 l 120.703 98.582 l 117.961 96.133 l f
74.59 56.594 m 68.422 52.734 l 70.75 59.629 l 70.969 55.961 l f
0.567043 w
q 1 0 0 -1 0 0 cm
30.113 -2.969 113.383 -113.387 re S Q
0.398506 w
q 1 0 0 -1 0 0 cm
30.113 -116.355 m 30.113 -112.102 l S Q
q 1 0 0 -1 0 0 cm
86.805 -116.355 m 86.805 -112.102 l S Q
q 1 0 0 -1 0 0 cm
143.496 -116.355 m 143.496 -112.102 l S Q
q 1 0 0 -1 0 0 cm
30.113 -116.355 m 30.113 -112.102 l S Q
q 1 0 0 -1 0 0 cm
30.113 -116.355 m 34.363 -116.355 l S Q
q 1 0 0 -1 0 0 cm
30.113 -88.008 m 34.363 -88.008 l S Q
q 1 0 0 -1 0 0 cm
30.113 -59.66 m 34.363 -59.66 l S Q
q 1 0 0 -1 0 0 cm
30.113 -31.309 m 34.363 -31.309 l S Q
q 1 0 0 -1 0 0 cm
30.113 -2.961 m 34.363 -2.961 l S Q
q 1 0 0 -1 0 0 cm
30.113 -116.355 m 34.363 -116.355 l S Q
q 1 0 0 -1 0 0 cm
30.113 -2.969 m 30.113 -7.223 l S Q
q 1 0 0 -1 0 0 cm
86.805 -2.969 m 86.805 -7.223 l S Q
q 1 0 0 -1 0 0 cm
143.496 -2.969 m 143.496 -7.223 l S Q
q 1 0 0 -1 0 0 cm
30.113 -2.969 m 30.113 -7.223 l S Q
q 1 0 0 -1 0 0 cm
143.496 -116.355 m 139.246 -116.355 l S Q
q 1 0 0 -1 0 0 cm
143.496 -88.008 m 139.246 -88.008 l S Q
q 1 0 0 -1 0 0 cm
143.496 -59.66 m 139.246 -59.66 l S Q
q 1 0 0 -1 0 0 cm
143.496 -31.309 m 139.246 -31.309 l S Q
q 1 0 0 -1 0 0 cm
143.496 -2.961 m 139.246 -2.961 l S Q
q 1 0 0 -1 0 0 cm
143.496 -116.355 m 139.246 -116.355 l S Q
32.066 122.883 m 32.066 121.273 31.332 119.82 30.082 119.82 c 28.816 119.82
 28.082 121.273 28.082 122.883 c 28.082 124.508 28.77 125.945 30.082 125.945
 c 31.285 125.945 32.066 124.508 32.066 122.883 c h
31.207 122.883 m 31.207 124.18 31.082 125.695 30.082 125.695 c 29.129 125.695
 28.941 124.18 28.941 122.883 c 28.941 121.805 29.066 120.055 30.082 120.055
 c 31.082 120.055 31.207 121.805 31.207 122.883 c h
31.207 122.883 m f
88.074 125.836 m 88.074 125.695 l 87.48 125.695 87.262 125.711 87.262 124.539
 c 87.262 124.523 87.262 119.789 87.262 119.789 c 87.137 119.789 l 85.605
 120.523 l 85.652 120.664 l 85.98 120.523 86.059 120.492 86.184 120.492 
c 86.449 120.492 86.496 120.727 86.496 121.039 c 86.496 124.539 l 86.496
 125.711 86.277 125.68 85.684 125.695 c 85.684 125.836 l h
88.074 125.836 m f
145.496 124.68 m 145.34 124.648 l 145.074 125.102 144.855 125.18 144.418
 125.18 c 142.355 125.18 l 143.777 123.883 145.074 122.711 145.074 121.398
 c 145.074 120.477 144.277 119.82 143.402 119.82 c 142.543 119.82 141.855
 120.289 141.59 121.508 c 141.793 121.508 l 142.043 121.008 142.387 120.492
 143.074 120.492 c 143.855 120.492 144.293 121.086 144.293 121.758 c 144.293
 122.727 143.262 124.148 141.496 125.695 c 141.496 125.836 l 145.027 125.836
 l h
145.496 124.68 m f
19.258 118.199 m 19.102 118.168 l 18.836 118.621 18.617 118.699 18.18 118.699
 c 16.117 118.699 l 17.539 117.402 18.836 116.23 18.836 114.918 c 18.836
 113.996 18.039 113.34 17.164 113.34 c 16.305 113.34 15.617 113.809 15.352
 115.027 c 15.555 115.027 l 15.805 114.527 16.148 114.012 16.836 114.012
 c 17.617 114.012 18.055 114.605 18.055 115.277 c 18.055 116.246 17.023 
117.668 15.258 119.215 c 15.258 119.355 l 18.789 119.355 l h
19.258 118.199 m f
21.512 118.98 m 21.512 118.699 21.293 118.48 21.012 118.48 c 20.73 118.48
 20.512 118.699 20.512 118.98 c 20.512 119.262 20.73 119.48 21.012 119.48
 c 21.293 119.48 21.512 119.262 21.512 118.98 c h
21.512 118.98 m f
25.676 119.355 m 25.676 119.215 l 25.082 119.215 24.863 119.23 24.863 118.059
 c 24.863 118.043 24.863 113.309 24.863 113.309 c 24.738 113.309 l 23.207
 114.043 l 23.254 114.184 l 23.582 114.043 23.66 114.012 23.785 114.012 
c 24.051 114.012 24.098 114.246 24.098 114.559 c 24.098 118.059 l 24.098
 119.23 23.879 119.199 23.285 119.215 c 23.285 119.355 l h
25.676 119.355 m f
19.258 89.879 m 19.102 89.848 l 18.836 90.301 18.617 90.379 18.18 90.379
 c 16.117 90.379 l 17.539 89.082 18.836 87.91 18.836 86.598 c 18.836 85.676
 18.039 85.02 17.164 85.02 c 16.305 85.02 15.617 85.488 15.352 86.707 c 
15.555 86.707 l 15.805 86.207 16.148 85.691 16.836 85.691 c 17.617 85.691
 18.055 86.285 18.055 86.957 c 18.055 87.926 17.023 89.348 15.258 90.895
 c 15.258 91.035 l 18.789 91.035 l h
19.258 89.879 m f
21.512 90.66 m 21.512 90.379 21.293 90.16 21.012 90.16 c 20.73 90.16 20.512
 90.379 20.512 90.66 c 20.512 90.941 20.73 91.16 21.012 91.16 c 21.293 91.16
 21.512 90.941 21.512 90.66 c h
21.512 90.66 m f
26.457 89.879 m 26.301 89.848 l 26.035 90.301 25.816 90.379 25.379 90.379
 c 23.316 90.379 l 24.738 89.082 26.035 87.91 26.035 86.598 c 26.035 85.676
 25.238 85.02 24.363 85.02 c 23.504 85.02 22.816 85.488 22.551 86.707 c 
22.754 86.707 l 23.004 86.207 23.348 85.691 24.035 85.691 c 24.816 85.691
 25.254 86.285 25.254 86.957 c 25.254 87.926 24.223 89.348 22.457 90.895
 c 22.457 91.035 l 25.988 91.035 l h
26.457 89.879 m f
19.258 61.562 m 19.102 61.531 l 18.836 61.984 18.617 62.062 18.18 62.062
 c 16.117 62.062 l 17.539 60.766 18.836 59.594 18.836 58.281 c 18.836 57.359
 18.039 56.703 17.164 56.703 c 16.305 56.703 15.617 57.172 15.352 58.391
 c 15.555 58.391 l 15.805 57.891 16.148 57.375 16.836 57.375 c 17.617 57.375
 18.055 57.969 18.055 58.641 c 18.055 59.609 17.023 61.031 15.258 62.578
 c 15.258 62.719 l 18.789 62.719 l h
19.258 61.562 m f
21.512 62.344 m 21.512 62.062 21.293 61.844 21.012 61.844 c 20.73 61.844
 20.512 62.062 20.512 62.344 c 20.512 62.625 20.73 62.844 21.012 62.844 
c 21.293 62.844 21.512 62.625 21.512 62.344 c h
21.512 62.344 m f
26.082 60.781 m 26.082 59.844 25.535 59.438 25.004 59.219 c 25.582 58.781
 25.77 58.375 25.77 57.891 c 25.77 57.375 25.348 56.703 24.379 56.703 c 
23.676 56.703 23.004 57.094 22.707 58.062 c 22.848 58.094 l 23.035 57.734
 23.395 57.281 24.051 57.281 c 24.691 57.281 25.066 57.719 25.066 58.219
 c 25.066 58.922 24.52 59.422 23.707 59.609 c 23.691 59.797 l 25.082 59.734
 25.426 60.641 25.426 61.203 c 25.426 61.875 24.941 62.484 24.301 62.484
 c 23.723 62.484 23.473 61.984 22.988 61.984 c 22.832 61.984 22.645 62.141
 22.645 62.344 c 22.645 62.719 23.207 62.828 23.613 62.828 c 25.035 62.828
 26.082 62.016 26.082 60.781 c h
26.082 60.781 m f
19.258 33.121 m 19.102 33.09 l 18.836 33.543 18.617 33.621 18.18 33.621
 c 16.117 33.621 l 17.539 32.324 18.836 31.152 18.836 29.84 c 18.836 28.918
 18.039 28.262 17.164 28.262 c 16.305 28.262 15.617 28.73 15.352 29.949 
c 15.555 29.949 l 15.805 29.449 16.148 28.934 16.836 28.934 c 17.617 28.934
 18.055 29.527 18.055 30.199 c 18.055 31.168 17.023 32.59 15.258 34.137 
c 15.258 34.277 l 18.789 34.277 l h
19.258 33.121 m f
21.512 33.902 m 21.512 33.621 21.293 33.402 21.012 33.402 c 20.73 33.402
 20.512 33.621 20.512 33.902 c 20.512 34.184 20.73 34.402 21.012 34.402 
c 21.293 34.402 21.512 34.184 21.512 33.902 c h
21.512 33.902 m f
26.441 32.793 m 26.441 32.184 l 25.566 32.184 l 25.566 28.262 l 25.129 
28.262 l 22.535 32.168 l 22.535 32.793 l 24.832 32.793 l 24.832 34.277 l
 25.566 34.277 l 25.566 32.793 l h
24.832 32.184 m 22.895 32.184 l 24.816 29.199 l 24.832 29.199 l h
24.832 32.184 m f
72.293 133.414 m 72.293 133.273 l 70.574 133.273 l 70.574 133.414 l 70.762
 133.414 71.074 133.492 71.074 133.742 c 71.074 133.961 70.855 134.32 70.73
 134.508 c 68.34 138.023 l 68.168 134.102 l 68.137 133.539 68.449 133.414
 68.934 133.414 c 68.934 133.273 l 66.621 133.273 l 66.621 133.414 l 67.23
 133.414 67.277 133.695 67.355 134.43 c 67.559 139.461 l 67.715 139.461 
l 71.34 134.133 l 71.512 133.914 71.902 133.414 72.293 133.414 c h
72.293 133.414 m f
75.949 132.883 m 75.512 132.883 l 72.402 141.242 l 72.855 141.242 l h
75.949 132.883 m f
79.367 139.32 m 79.367 139.18 l 78.773 139.18 78.555 139.195 78.555 138.023
 c 78.555 138.008 78.555 133.273 78.555 133.273 c 78.43 133.273 l 76.898
 134.008 l 76.945 134.148 l 77.273 134.008 77.352 133.977 77.477 133.977
 c 77.742 133.977 77.789 134.211 77.789 134.523 c 77.789 138.023 l 77.789
 139.195 77.57 139.164 76.977 139.18 c 76.977 139.32 l h
79.367 139.32 m f
84.559 136.367 m 84.559 134.758 83.824 133.305 82.574 133.305 c 81.309 
133.305 80.574 134.758 80.574 136.367 c 80.574 137.992 81.262 139.43 82.574
 139.43 c 83.777 139.43 84.559 137.992 84.559 136.367 c h
83.699 136.367 m 83.699 137.664 83.574 139.18 82.574 139.18 c 81.621 139.18
 81.434 137.664 81.434 136.367 c 81.434 135.289 81.559 133.539 82.574 133.539
 c 83.574 133.539 83.699 135.289 83.699 136.367 c h
83.699 136.367 m f
85.188 133.844 4.703 0.438 re f
94.035 134.938 m 94.035 134.391 l 93.301 134.391 l 93.301 131.375 l 92.848
 131.375 l 90.613 134.406 l 90.613 134.938 l 92.582 134.938 l 92.582 136.078
 l 93.301 136.078 l 93.301 134.938 l h
92.629 132.188 m 92.582 132.141 l 92.582 134.391 l 91.051 134.391 l h
92.629 132.188 m f
96.664 139.32 m 98.664 139.32 l 98.664 139.18 l 98.195 139.18 98.055 139.086
 98.055 138.727 c 98.055 136.195 l 98.055 136.18 98.117 136.086 98.18 136.023
 c 98.414 135.82 98.789 135.664 99.102 135.664 c 99.508 135.664 99.695 135.977
 99.695 136.602 c 99.695 138.555 l 99.68 139.055 99.586 139.164 99.086 139.18
 c 99.086 139.32 l 101.102 139.32 l 101.102 139.18 l 100.602 139.18 100.477
 139.039 100.445 138.461 c 100.445 136.211 l 100.727 135.82 101.008 135.664
 101.43 135.664 c 101.945 135.664 102.102 135.898 102.102 136.648 c 102.102
 138.539 l 102.086 139.07 102.023 139.133 101.508 139.18 c 101.508 139.32
 l 103.477 139.32 l 103.477 139.18 l 103.242 139.164 l 102.961 139.117 102.852
 138.992 102.852 138.633 c 102.852 136.789 l 102.852 135.727 102.508 135.195
 101.82 135.195 c 101.289 135.195 100.836 135.43 100.352 135.945 c 100.195
 135.43 99.883 135.195 99.398 135.195 c 98.992 135.195 98.758 135.305 98.008
 135.883 c 98.008 135.211 l 97.945 135.195 l 97.477 135.367 97.164 135.461
 96.695 135.602 c 96.695 135.758 l 96.805 135.727 96.883 135.711 96.977 
135.711 c 97.211 135.711 97.289 135.852 97.289 136.289 c 97.289 138.555 
l 97.273 139.055 97.164 139.18 96.664 139.18 c h
96.664 139.32 m f
107.031 134.547 m 107.031 133.828 106.609 133.516 106.156 133.344 c 106.625
 133.016 106.781 132.703 106.781 132.328 c 106.781 131.922 106.406 131.375
 105.547 131.375 c 104.922 131.375 104.328 131.672 104.062 132.484 c 104.266
 132.531 l 104.422 132.25 104.734 131.906 105.266 131.906 c 105.781 131.906
 106.078 132.219 106.078 132.578 c 106.078 133.094 105.625 133.469 104.938
 133.625 c 104.906 133.828 l 106.109 133.781 106.391 134.469 106.391 134.875
 c 106.391 135.359 106 135.812 105.484 135.812 c 104.984 135.812 104.766
 135.422 104.359 135.422 c 104.188 135.422 104.016 135.562 104.016 135.75
 c 104.016 136.047 104.516 136.156 104.891 136.156 c 106.125 136.156 107.031
 135.5 107.031 134.547 c h
107.031 134.547 m f
5.078 71.195 m 4.375 71.195 3.906 71.508 3.906 72.18 c 3.906 72.773 4.328
 73.227 4.891 73.633 c 3.906 73.32 l 3.906 73.32 4.141 74.523 4.156 74.789
 c 4.312 74.789 l 4.312 74.461 4.281 74.195 4.641 74.195 c 4.812 74.195 
5.203 74.305 5.422 74.367 c 9.156 75.43 l 9.5 75.523 9.75 75.68 9.75 76.117
 c 9.906 76.148 l 9.906 74.18 l 9.75 74.148 l 9.75 74.492 9.734 74.789 9.484
 74.789 c 9.406 74.789 9.312 74.773 9.141 74.727 c 7.891 74.414 l 8.031 
74.242 8.109 73.977 8.109 73.758 c 8.109 72.68 6.578 71.195 5.078 71.195
 c h
5.172 71.961 m 6.344 71.961 7.906 72.945 7.906 73.789 c 7.906 73.992 7.828
 74.18 7.656 74.352 c 6.859 74.148 4.328 73.602 4.328 72.445 c 4.328 71.961
 4.969 71.961 5.172 71.961 c h
5.172 71.961 m f
1.562 66.602 m 1.562 67.039 l 9.922 70.148 l 9.922 69.695 l h
1.562 66.602 m f
8 63.184 m 7.859 63.184 l 7.859 63.777 7.875 63.996 6.703 63.996 c 6.688
 63.996 1.953 63.996 1.953 63.996 c 1.953 64.121 l 2.688 65.652 l 2.828 
65.605 l 2.688 65.277 2.656 65.199 2.656 65.074 c 2.656 64.809 2.891 64.762
 3.203 64.762 c 6.703 64.762 l 7.875 64.762 7.844 64.98 7.859 65.574 c 8
 65.574 l h
8 63.184 m f
5.047 57.992 m 3.438 57.992 1.984 58.727 1.984 59.977 c 1.984 61.242 3.438
 61.977 5.047 61.977 c 6.672 61.977 8.109 61.289 8.109 59.977 c 8.109 58.773
 6.672 57.992 5.047 57.992 c h
5.047 58.852 m 6.344 58.852 7.859 58.977 7.859 59.977 c 7.859 60.93 6.344
 61.117 5.047 61.117 c 3.969 61.117 2.219 60.992 2.219 59.977 c 2.219 58.977
 3.969 58.852 5.047 58.852 c h
5.047 58.852 m f
0 54.086 m 0 56.305 l 2.062 57.289 l 2.016 57.102 2 56.977 2 56.836 c 2
 56.055 2.375 54.961 3.234 54.961 c 3.906 54.961 4.344 55.492 4.344 56.008
 c 4.344 56.492 3.953 56.648 3.953 57.086 c 3.953 57.336 4.156 57.414 4.25
 57.414 c 4.516 57.414 4.719 57.023 4.719 56.461 c 4.719 55.273 3.938 54.367
 3.016 54.367 c 1.891 54.367 1.484 55.336 1.469 56.414 c 1.469 56.477 1.484
 56.555 1.484 56.617 c 0.609 56.195 l 0.625 54.43 l h
0 54.086 m f
2.234 51.527 m 2.312 50.855 2.391 50.777 3.047 50.777 c 6.922 50.777 l 
7.688 50.777 7.766 50.84 7.828 51.527 c 8 51.527 l 8 49.012 l 7.828 49.012
 l 7.812 49.715 7.688 49.84 7.016 49.855 c 5.391 49.855 l 5.406 49.621 5.422
 49.465 5.422 49.23 c 5.422 48.527 5.328 48.059 5.109 47.668 c 4.828 47.137
 4.281 46.809 3.688 46.809 c 3.312 46.809 2.969 46.934 2.703 47.168 c 2.312
 47.527 2.062 48.309 2.062 49.152 c 2.062 51.527 l h
2.703 49.855 m 2.453 49.855 2.391 49.793 2.391 49.559 c 2.391 48.34 2.812
 47.777 3.734 47.777 c 4.609 47.777 5.062 48.309 5.062 49.34 c 5.062 49.527
 5.047 49.652 5.031 49.855 c h
2.703 49.855 m f
7.406 42.777 m 7.531 42.934 7.578 43.043 7.578 43.184 c 7.578 43.387 7.453
 43.449 7.062 43.449 c 5.312 43.449 l 4.844 43.449 4.578 43.496 4.375 43.621
 c 4.047 43.824 3.875 44.215 3.875 44.73 c 3.875 45.574 4.312 46.246 4.875
 46.246 c 5.078 46.246 5.266 46.074 5.266 45.855 c 5.266 45.637 5.078 45.449
 4.891 45.449 c 4.859 45.449 4.812 45.465 4.75 45.465 c 4.656 45.496 4.594
 45.496 4.531 45.496 c 4.281 45.496 4.094 45.215 4.094 44.855 c 4.094 44.418
 4.344 44.168 4.828 44.168 c 5.375 44.168 l 5.922 45.543 6.016 45.699 6.344
 46.09 c 6.531 46.293 6.828 46.418 7.125 46.418 c 7.688 46.418 8.094 46.027
 8.094 45.465 c 8.094 45.074 7.906 44.715 7.438 44.168 c 7.906 44.121 8.094
 43.949 8.094 43.59 c 8.094 43.277 7.984 43.09 7.641 42.777 c h
6.891 44.168 m 7.172 44.168 7.266 44.215 7.375 44.402 c 7.5 44.637 7.562
 44.871 7.562 45.059 c 7.562 45.371 7.266 45.621 6.875 45.621 c 6.844 45.621
 l 6.312 45.621 5.969 45.215 5.594 44.168 c h
6.891 44.168 m f
19.258 4.859 m 19.102 4.828 l 18.836 5.281 18.617 5.359 18.18 5.359 c 16.117
 5.359 l 17.539 4.062 18.836 2.891 18.836 1.578 c 18.836 0.656 18.039 0 
17.164 0 c 16.305 0 15.617 0.469 15.352 1.688 c 15.555 1.688 l 15.805 1.188
 16.148 0.672 16.836 0.672 c 17.617 0.672 18.055 1.266 18.055 1.938 c 18.055
 2.906 17.023 4.328 15.258 5.875 c 15.258 6.016 l 18.789 6.016 l h
19.258 4.859 m f
21.512 5.641 m 21.512 5.359 21.293 5.141 21.012 5.141 c 20.73 5.141 20.512
 5.359 20.512 5.641 c 20.512 5.922 20.73 6.141 21.012 6.141 c 21.293 6.141
 21.512 5.922 21.512 5.641 c h
21.512 5.641 m f
26.363 0.094 m 23.895 0.094 l 22.785 2.641 l 22.926 2.609 23.066 2.578 
23.238 2.578 c 24.191 2.578 25.488 3.078 25.488 4.25 c 25.488 5.156 24.832
 5.734 24.207 5.734 c 23.66 5.734 23.457 5.234 22.941 5.234 c 22.691 5.234
 22.613 5.453 22.613 5.562 c 22.613 5.875 23.051 6.125 23.676 6.125 c 25.02
 6.125 26.082 5.141 26.082 3.938 c 26.082 2.516 24.957 2.031 23.738 2 c 
23.629 2 23.504 2.016 23.395 2.031 c 23.957 0.766 l 26.051 0.75 l h
26.363 0.094 m f
37.875 12.129 m 37.516 12.113 37.438 12.035 37.156 11.441 c 35.172 6.91
 l 35.016 6.91 l 33.359 10.832 l 32.844 11.988 32.75 12.113 32.375 12.129
 c 32.375 12.285 l 33.953 12.285 l 33.953 12.129 l 33.562 12.129 33.406 
12.035 33.406 11.801 c 33.406 11.707 33.422 11.598 33.469 11.504 c 33.828
 10.566 l 35.922 10.566 l 36.25 11.332 l 36.344 11.551 36.406 11.754 36.406
 11.863 c 36.406 12.066 36.266 12.129 35.844 12.129 c 35.844 12.285 l 37.875
 12.285 l h
33.969 10.238 m 34.891 8.051 l 35.812 10.238 l h
33.969 10.238 m f
63.07 7.16 m 63.742 7.207 63.82 7.285 63.836 7.879 c 63.836 11.41 l 63.82
 12.02 63.711 12.113 63.07 12.129 c 63.07 12.285 l 65.727 12.285 l 66.336
 12.285 66.914 12.113 67.211 11.848 c 67.492 11.598 67.648 11.238 67.648
 10.848 c 67.648 10.504 67.523 10.176 67.258 9.957 c 67.023 9.738 66.805
 9.645 66.289 9.52 c 66.711 9.41 66.867 9.332 67.07 9.16 c 67.258 8.988 
67.383 8.707 67.383 8.363 c 67.383 7.473 66.664 7.004 65.289 7.004 c 63.07
 7.004 l h
64.648 9.691 m 65.414 9.691 65.789 9.738 66.07 9.848 c 66.523 10.035 66.742
 10.363 66.742 10.863 c 66.742 11.285 66.57 11.598 66.258 11.785 c 65.992
 11.926 65.664 11.988 65.148 11.988 c 64.758 11.988 64.648 11.926 64.648
 11.66 c h
64.648 9.379 m 64.648 7.551 l 64.648 7.363 64.68 7.316 64.82 7.316 c 65.164
 7.301 l 66.055 7.285 66.57 7.691 66.57 8.395 c 66.57 9.02 66.164 9.363 
65.398 9.363 c h
64.648 9.379 m f
96.887 104.414 m 99.152 104.414 l 100.074 104.414 100.918 104.148 101.402
 103.711 c 101.918 103.242 102.215 102.523 102.215 101.758 c 102.215 101.039
 101.996 100.414 101.543 99.977 c 100.996 99.43 100.137 99.133 99.043 99.133
 c 96.887 99.133 l 96.887 99.289 l 97.512 99.352 97.59 99.414 97.59 100.008
 c 97.59 103.539 l 97.59 104.133 97.48 104.227 96.887 104.258 c h
98.402 99.742 m 98.402 99.492 98.48 99.43 98.824 99.43 c 99.512 99.43 100.027
 99.555 100.402 99.836 c 101.027 100.258 101.355 100.945 101.355 101.805
 c 101.355 102.742 101.027 103.414 100.387 103.789 c 99.98 104.023 99.512
 104.117 98.824 104.117 c 98.496 104.117 98.402 104.055 98.402 103.789 c
 h
98.402 99.742 m f
134.375 100.941 m 134.312 99.145 l 134.141 99.145 l 134.094 99.316 133.969
 99.41 133.797 99.41 c 133.734 99.41 133.609 99.395 133.5 99.348 c 133.109
 99.207 132.703 99.145 132.328 99.145 c 131.672 99.145 131.016 99.395 130.516
 99.832 c 129.969 100.332 129.656 101.066 129.656 101.941 c 129.656 103.566
 130.719 104.645 132.312 104.645 c 133.203 104.645 134 104.285 134.484 103.629
 c 134.344 103.488 l 133.75 104.051 133.219 104.301 132.562 104.301 c 132.062
 104.301 131.609 104.145 131.266 103.832 c 130.828 103.441 130.578 102.723
 130.578 101.832 c 130.578 100.395 131.328 99.473 132.484 99.473 c 132.938
 99.473 133.344 99.629 133.672 99.941 c 133.922 100.207 134.047 100.426 
134.188 100.941 c h
134.375 100.941 m f
Q Q
showpage
%%Trailer
end
%%EOF
