%!PS-Adobe-3.0 EPSF-3.0
%%Creator: cairo 1.17.4 (https://cairographics.org)
%%CreationDate: Thu Feb 24 10:48:39 2022
%%Pages: 1
%%DocumentData: Clean7Bit
%%LanguageLevel: 2
%%BoundingBox: 0 0 361 130
%%EndComments
%%BeginProlog
50 dict begin
/q { gsave } bind def
/Q { grestore } bind def
/cm { 6 array astore concat } bind def
/w { setlinewidth } bind def
/J { setlinecap } bind def
/j { setlinejoin } bind def
/M { setmiterlimit } bind def
/d { setdash } bind def
/m { moveto } bind def
/l { lineto } bind def
/c { curveto } bind def
/h { closepath } bind def
/re { exch dup neg 3 1 roll 5 3 roll moveto 0 rlineto
      0 exch rlineto 0 rlineto closepath } bind def
/S { stroke } bind def
/f { fill } bind def
/f* { eofill } bind def
/n { newpath } bind def
/W { clip } bind def
/W* { eoclip } bind def
/BT { } bind def
/ET { } bind def
/BDC { mark 3 1 roll /BDC pdfmark } bind def
/EMC { mark /EMC pdfmark } bind def
/cairo_store_point { /cairo_point_y exch def /cairo_point_x exch def } def
/Tj { show currentpoint cairo_store_point } bind def
/TJ {
  {
    dup
    type /stringtype eq
    { show } { -0.001 mul 0 cairo_font_matrix dtransform rmoveto } ifelse
  } forall
  currentpoint cairo_store_point
} bind def
/cairo_selectfont { cairo_font_matrix aload pop pop pop 0 0 6 array astore
    cairo_font exch selectfont cairo_point_x cairo_point_y moveto } bind def
/Tf { pop /cairo_font exch def /cairo_font_matrix where
      { pop cairo_selectfont } if } bind def
/Td { matrix translate cairo_font_matrix matrix concatmatrix dup
      /cairo_font_matrix exch def dup 4 get exch 5 get cairo_store_point
      /cairo_font where { pop cairo_selectfont } if } bind def
/Tm { 2 copy 8 2 roll 6 array astore /cairo_font_matrix exch def
      cairo_store_point /cairo_font where { pop cairo_selectfont } if } bind def
/g { setgray } bind def
/rg { setrgbcolor } bind def
/d1 { setcachedevice } bind def
/cairo_data_source {
  CairoDataIndex CairoData length lt
    { CairoData CairoDataIndex get /CairoDataIndex CairoDataIndex 1 add def }
    { () } ifelse
} def
/cairo_flush_ascii85_file { cairo_ascii85_file status { cairo_ascii85_file flushfile } if } def
/cairo_image { image cairo_flush_ascii85_file } def
/cairo_imagemask { imagemask cairo_flush_ascii85_file } def
%%EndProlog
%%BeginSetup
%%EndSetup
%%Page: 1 1
%%BeginPageSetup
%%PageBoundingBox: 0 0 361 130
%%EndPageSetup
q 0 0 361 130 rectclip
1 0 0 -1 0 130 cm q
0 g
1.13366 w
0 J
0 j
[] 0.0 d
10 M q 1 0 0 -1 0 0 cm
20.117 -89.004 m 20.949 -88.238 l 21.816 -87.441 l 22.648 -86.68 l 23.516
 -85.918 l 24.348 -85.188 l 25.215 -84.426 l 26.047 -83.695 l 26.914 -82.934
 l 27.781 -82.207 l 28.613 -81.477 l 29.48 -80.75 l 30.312 -80.023 l 31.18
 -79.293 l 32.012 -78.566 l 32.879 -77.836 l 33.711 -77.109 l 34.578 -76.383
 l 35.41 -75.688 l 36.277 -74.961 l 37.109 -74.23 l 37.977 -73.539 l 38.809
 -72.809 l 39.676 -72.117 l 40.508 -71.387 l 41.375 -70.695 l 42.207 -69.965
 l 43.07 -69.273 l 43.938 -68.543 l 44.77 -67.852 l 45.637 -67.156 l 46.469
 -66.465 l 47.336 -65.734 l 48.168 -65.043 l 49.035 -64.348 l 49.867 -63.656
 l 50.734 -62.93 l 51.566 -62.234 l 52.434 -61.539 l 53.266 -60.848 l 54.133
 -60.152 l 54.965 -59.461 l 55.832 -58.766 l 56.664 -58.074 l 57.531 -57.379
 l 58.363 -56.688 l 59.23 -55.992 l 60.098 -55.301 l 60.93 -54.605 l 61.797
 -53.914 l 62.629 -53.219 l 63.496 -52.559 l 64.328 -51.867 l 65.195 -51.172
 l 66.027 -50.48 l 66.895 -49.785 l 67.727 -49.094 l 68.59 -48.434 l 69.426
 -47.742 l 70.289 -47.047 l 71.121 -46.391 l 71.988 -45.695 l 72.82 -45 
l 73.688 -44.344 l 74.52 -43.648 l 75.387 -42.957 l 76.254 -42.297 l 77.086
 -41.605 l 77.953 -40.945 l 78.785 -40.25 l 79.652 -39.559 l 80.484 -38.898
 l 81.352 -38.207 l 82.184 -37.547 l 83.051 -36.855 l 83.883 -36.195 l 84.75
 -35.5 l 85.582 -34.844 l 86.449 -34.148 l 87.281 -33.492 l 88.148 -32.832
 l 88.98 -32.137 l 89.848 -31.48 l 90.68 -30.785 l 91.547 -30.125 l 92.379
 -29.434 l 93.246 -28.773 l 94.109 -28.117 l 94.945 -27.422 l 95.809 -26.762
 l 96.641 -26.105 l 97.508 -25.41 l 98.34 -24.754 l 99.207 -24.094 l 100.039
 -23.434 l 100.906 -22.742 l 101.738 -22.082 l 102.605 -21.426 l 103.438
 -20.766 l 104.305 -20.07 l 105.137 -19.414 l S Q
0.567042 w
q 1 0 0 -1 0 0 cm
20.086 -89.035 m 23.16 -85.961 l 25.207 -83.914 m 28.281 -80.84 l 30.332
 -78.789 m 33.406 -75.715 l 35.453 -73.668 m 38.527 -70.594 l 40.578 -68.543
 m 43.652 -65.469 l 45.699 -63.422 m 48.773 -60.348 l 50.824 -58.297 m 53.898
 -55.223 l 55.945 -53.176 m 59.02 -50.102 l 61.07 -48.051 m 64.141 -44.98
 l 66.191 -42.93 m 69.266 -39.855 l 71.316 -37.805 m 74.387 -34.734 l 76.438
 -32.684 m 79.512 -29.609 l 81.559 -27.562 m 84.633 -24.488 l 86.684 -22.438
 m 89.758 -19.363 l 91.805 -17.316 m 94.879 -14.242 l 96.93 -12.191 m 100.004
 -9.117 l 102.051 -7.07 m 105.125 -3.996 l S Q
q 1 0 0 -1 0 0 cm
20.086 -46.516 m 20.086 -3.992 l 105.129 -3.992 l 105.129 -89.035 l 20.086
 -89.035 l h
20.086 -46.516 m S Q
22.059 95.91 m 22.059 94.301 21.324 92.848 20.074 92.848 c 18.809 92.848
 18.074 94.301 18.074 95.91 c 18.074 97.535 18.762 98.973 20.074 98.973 
c 21.277 98.973 22.059 97.535 22.059 95.91 c h
21.199 95.91 m 21.199 97.207 21.074 98.723 20.074 98.723 c 19.121 98.723
 18.934 97.207 18.934 95.91 c 18.934 94.832 19.059 93.082 20.074 93.082 
c 21.074 93.082 21.199 94.832 21.199 95.91 c h
21.199 95.91 m f
0.567043 w
q 1 0 0 -1 0 0 cm
62.637 -89.016 m 62.637 -85.625 l S Q
0.567042 w
q 1 0 0 -1 0 0 cm
62.605 -7.398 m 62.605 -3.992 l S Q
99.148 100.785 m 99.148 100.645 l 98.555 100.645 98.336 100.66 98.336 99.488
 c 98.336 99.473 98.336 94.738 98.336 94.738 c 98.211 94.738 l 96.68 95.473
 l 96.727 95.613 l 97.055 95.473 97.133 95.441 97.258 95.441 c 97.523 95.441
 97.57 95.676 97.57 95.988 c 97.57 99.488 l 97.57 100.66 97.352 100.629 
96.758 100.645 c 96.758 100.785 l h
99.148 100.785 m f
104.34 97.832 m 104.34 96.223 103.605 94.77 102.355 94.77 c 101.09 94.77
 100.355 96.223 100.355 97.832 c 100.355 99.457 101.043 100.895 102.355 
100.895 c 103.559 100.895 104.34 99.457 104.34 97.832 c h
103.48 97.832 m 103.48 99.129 103.355 100.645 102.355 100.645 c 101.402
 100.645 101.215 99.129 101.215 97.832 c 101.215 96.754 101.34 95.004 102.355
 95.004 c 103.355 95.004 103.48 96.754 103.48 97.832 c h
103.48 97.832 m f
104.965 95.309 4.703 0.438 re f
113.812 96.402 m 113.812 95.855 l 113.078 95.855 l 113.078 92.84 l 112.625
 92.84 l 110.391 95.871 l 110.391 96.402 l 112.359 96.402 l 112.359 97.543
 l 113.078 97.543 l 113.078 96.402 l h
112.406 93.652 m 112.359 93.605 l 112.359 95.855 l 110.828 95.855 l h
112.406 93.652 m f
17.859 89.07 m 17.859 87.461 17.125 86.008 15.875 86.008 c 14.609 86.008
 13.875 87.461 13.875 89.07 c 13.875 90.695 14.562 92.133 15.875 92.133 
c 17.078 92.133 17.859 90.695 17.859 89.07 c h
17 89.07 m 17 90.367 16.875 91.883 15.875 91.883 c 14.922 91.883 14.734
 90.367 14.734 89.07 c 14.734 87.992 14.859 86.242 15.875 86.242 c 16.875
 86.242 17 87.992 17 89.07 c h
17 89.07 m f
0.567043 w
q 1 0 0 -1 0 0 cm
20.113 -46.504 m 23.492 -46.504 l S Q
q 1 0 0 -1 0 0 cm
101.754 -46.504 m 105.137 -46.504 l S Q
2.469 7.945 m 2.469 7.805 l 1.875 7.805 1.656 7.82 1.656 6.648 c 1.656 
6.633 1.656 1.898 1.656 1.898 c 1.531 1.898 l 0 2.633 l 0.047 2.773 l 0.375
 2.633 0.453 2.602 0.578 2.602 c 0.844 2.602 0.891 2.836 0.891 3.148 c 0.891
 6.648 l 0.891 7.82 0.672 7.789 0.078 7.805 c 0.078 7.945 l h
2.469 7.945 m f
7.66 4.992 m 7.66 3.383 6.926 1.93 5.676 1.93 c 4.41 1.93 3.676 3.383 3.676
 4.992 c 3.676 6.617 4.363 8.055 5.676 8.055 c 6.879 8.055 7.66 6.617 7.66
 4.992 c h
6.801 4.992 m 6.801 6.289 6.676 7.805 5.676 7.805 c 4.723 7.805 4.535 6.289
 4.535 4.992 c 4.535 3.914 4.66 2.164 5.676 2.164 c 6.676 2.164 6.801 3.914
 6.801 4.992 c h
6.801 4.992 m f
8.285 2.469 4.703 0.438 re f
17.133 3.562 m 17.133 3.016 l 16.398 3.016 l 16.398 0 l 15.945 0 l 13.711
 3.031 l 13.711 3.562 l 15.68 3.562 l 15.68 4.703 l 16.398 4.703 l 16.398
 3.562 l h
15.727 0.812 m 15.68 0.766 l 15.68 3.016 l 14.148 3.016 l h
15.727 0.812 m f
41.164 111.02 m 41.039 110.926 l 40.852 111.16 40.523 111.598 40.336 111.598
 c 40.258 111.598 40.211 111.551 40.211 111.441 c 40.211 111.348 40.289 
111.129 40.336 110.957 c 40.336 110.957 40.867 109.004 40.867 108.957 c 
40.93 108.77 40.961 108.582 40.961 108.457 c 40.961 108.004 40.68 107.848
 40.461 107.848 c 39.727 107.848 38.898 108.816 38.32 109.848 c 38.32 109.848
 38.648 108.801 38.648 108.441 c 38.648 108.207 38.555 107.848 38.133 107.848
 c 37.305 107.848 36.273 109.441 36.055 109.848 c 36.586 107.848 l 36.586
 107.848 35.367 108.082 35.102 108.098 c 35.102 108.254 l 35.43 108.254 
35.695 108.223 35.695 108.582 c 35.695 108.754 35.617 109.035 35.539 109.316
 c 35.539 109.316 34.82 111.707 34.773 111.941 c 35.461 111.941 l 35.617
 111.348 l 36.133 109.41 37.383 108.348 37.727 108.348 c 37.867 108.348 
37.961 108.395 37.961 108.598 c 37.961 108.738 37.852 109.145 37.789 109.41
 c 37.789 109.41 37.164 111.629 37.086 111.941 c 37.758 111.941 l 37.914
 111.348 l 38.461 109.332 39.68 108.348 40.039 108.348 c 40.164 108.348 
40.258 108.441 40.258 108.582 c 40.258 108.676 40.164 109.082 40.07 109.41
 c 39.711 110.754 l 39.617 111.082 39.539 111.488 39.539 111.629 c 39.539
 111.863 39.664 112.051 39.867 112.051 c 40.32 112.051 40.805 111.535 41.164
 111.02 c h
41.164 111.02 m f
45.676 107.734 m 45.457 107.703 l 45.223 108.062 45.035 108.125 44.691 
108.125 c 43.035 108.125 l 44.223 107.141 45.285 106.25 45.285 105.281 c
 45.285 104.547 44.582 104.031 43.816 104.031 c 43.051 104.031 42.441 104.391
 42.207 105.406 c 42.457 105.406 l 42.676 105.016 42.957 104.625 43.535 
104.625 c 44.176 104.625 44.535 105.047 44.535 105.547 c 44.535 106.281 
43.645 107.344 42.129 108.531 c 42.129 108.703 l 45.223 108.703 l h
45.676 107.734 m f
41.988 110.578 m 42.566 110.609 42.645 110.688 42.645 111.203 c 42.645 
114.297 l 42.645 114.828 42.551 114.906 41.988 114.938 c 41.988 115.062 
l 44.316 115.062 l 44.848 115.062 45.348 114.922 45.613 114.672 c 45.863
 114.453 45.988 114.141 45.988 113.812 c 45.988 113.5 45.879 113.219 45.66
 113.016 c 45.441 112.828 45.254 112.75 44.801 112.641 c 45.16 112.547 45.316
 112.484 45.473 112.328 c 45.66 112.172 45.754 111.922 45.754 111.641 c 
45.754 110.859 45.129 110.453 43.926 110.453 c 41.988 110.453 l h
43.363 112.797 m 44.035 112.797 44.363 112.828 44.613 112.938 c 45.004 
113.094 45.191 113.391 45.191 113.812 c 45.191 114.188 45.051 114.469 44.77
 114.625 c 44.551 114.75 44.254 114.797 43.801 114.797 c 43.457 114.797 
43.363 114.734 43.363 114.516 c h
43.363 112.516 m 43.363 110.922 l 43.363 110.766 43.395 110.719 43.52 110.719
 c 43.816 110.703 l 44.598 110.688 45.051 111.047 45.051 111.656 c 45.051
 112.219 44.691 112.5 44.02 112.516 c h
43.363 112.516 m f
50.93 105.504 m 50.492 105.504 l 47.383 113.863 l 47.836 113.863 l h
50.93 105.504 m f
51.605 111.941 m 53.605 111.941 l 53.605 111.801 l 53.137 111.801 52.996
 111.707 52.996 111.348 c 52.996 108.816 l 52.996 108.801 53.059 108.707
 53.121 108.645 c 53.355 108.441 53.73 108.285 54.043 108.285 c 54.449 108.285
 54.637 108.598 54.637 109.223 c 54.637 111.176 l 54.621 111.676 54.527 
111.785 54.027 111.801 c 54.027 111.941 l 56.043 111.941 l 56.043 111.801
 l 55.543 111.801 55.418 111.66 55.387 111.082 c 55.387 108.832 l 55.668
 108.441 55.949 108.285 56.371 108.285 c 56.887 108.285 57.043 108.52 57.043
 109.27 c 57.043 111.16 l 57.027 111.691 56.965 111.754 56.449 111.801 c
 56.449 111.941 l 58.418 111.941 l 58.418 111.801 l 58.184 111.785 l 57.902
 111.738 57.793 111.613 57.793 111.254 c 57.793 109.41 l 57.793 108.348 
57.449 107.816 56.762 107.816 c 56.23 107.816 55.777 108.051 55.293 108.566
 c 55.137 108.051 54.824 107.816 54.34 107.816 c 53.934 107.816 53.699 107.926
 52.949 108.504 c 52.949 107.832 l 52.887 107.816 l 52.418 107.988 52.105
 108.082 51.637 108.223 c 51.637 108.379 l 51.746 108.348 51.824 108.332
 51.918 108.332 c 52.152 108.332 52.23 108.473 52.23 108.91 c 52.23 111.176
 l 52.215 111.676 52.105 111.801 51.605 111.801 c h
51.605 111.941 m f
60.672 107.816 m 59.484 107.816 58.688 108.676 58.688 109.91 c 58.688 111.129
 59.516 112.035 60.641 112.035 c 61.781 112.035 62.641 111.082 62.641 109.848
 c 62.641 108.66 61.812 107.816 60.672 107.816 c h
60.547 108.066 m 61.297 108.066 61.828 108.926 61.828 110.16 c 61.828 111.176
 61.422 111.785 60.75 111.785 c 60.406 111.785 60.078 111.566 59.891 111.207
 c 59.625 110.738 59.484 110.113 59.484 109.473 c 59.484 108.629 59.906 
108.066 60.547 108.066 c h
60.547 108.066 m f
63.051 111.941 m 65.176 111.941 l 65.176 111.801 l 64.598 111.785 64.504
 111.691 64.488 111.191 c 64.488 105.832 l 64.457 105.816 l 64.004 105.957
 63.676 106.051 63.035 106.207 c 63.035 106.348 l 63.082 106.348 l 63.191
 106.348 63.301 106.332 63.363 106.332 c 63.66 106.332 63.738 106.457 63.738
 106.879 c 63.738 111.16 l 63.738 111.645 63.613 111.77 63.051 111.801 c
 h
63.051 111.941 m f
69.195 107.734 m 68.977 107.703 l 68.742 108.062 68.555 108.125 68.211 
108.125 c 66.555 108.125 l 67.742 107.141 68.805 106.25 68.805 105.281 c
 68.805 104.547 68.102 104.031 67.336 104.031 c 66.57 104.031 65.961 104.391
 65.727 105.406 c 65.977 105.406 l 66.195 105.016 66.477 104.625 67.055 
104.625 c 67.695 104.625 68.055 105.047 68.055 105.547 c 68.055 106.281 
67.164 107.344 65.648 108.531 c 65.648 108.703 l 68.742 108.703 l h
69.195 107.734 m f
71.566 111.941 m 73.66 111.941 l 73.66 111.801 l 73.488 111.801 l 73.113
 111.77 73.004 111.676 72.988 111.348 c 72.988 109.691 l 74.254 111.363 
l 74.285 111.41 74.316 111.457 74.332 111.488 c 74.41 111.566 74.441 111.629
 74.441 111.676 c 74.441 111.754 74.363 111.801 74.254 111.801 c 74.082 
111.801 l 74.082 111.941 l 76.035 111.941 l 76.035 111.801 l 75.645 111.785
 75.363 111.613 74.988 111.145 c 73.613 109.41 l 73.879 109.176 l 74.988
 108.16 75.238 108.02 75.816 108.035 c 75.816 107.91 l 73.973 107.91 l 73.973
 108.035 l 74.332 108.035 74.426 108.082 74.426 108.191 c 74.426 108.27 
74.348 108.395 74.223 108.504 c 72.988 109.598 l 72.988 105.832 l 72.957
 105.816 l 72.613 105.926 72.348 106.004 71.832 106.145 c 71.566 106.207
 l 71.566 106.348 l 71.676 106.348 71.77 106.332 71.848 106.332 c 72.16 
106.332 72.238 106.457 72.238 106.879 c 72.238 111.207 l 72.223 111.676 
72.207 111.707 71.566 111.801 c h
71.566 111.941 m f
80.164 108.457 m 80.164 108.113 l 79.477 108.113 l 79.289 108.113 79.148
 108.082 78.977 108.02 c 78.773 107.957 l 78.539 107.863 78.289 107.816 
78.055 107.816 c 77.227 107.816 76.57 108.457 76.57 109.285 c 76.57 109.848
 76.805 110.176 77.398 110.473 c 77.164 110.691 l 76.977 110.879 76.867 
110.973 76.836 111.004 c 76.648 111.207 76.602 111.301 76.602 111.457 c 
76.602 111.66 76.695 111.754 77.07 111.926 c 76.43 112.395 76.195 112.691
 76.195 113.02 c 76.195 113.504 76.883 113.895 77.742 113.895 c 78.414 113.895
 79.117 113.66 79.586 113.285 c 79.93 113.004 80.086 112.723 80.086 112.379
 c 80.086 111.832 79.664 111.457 78.992 111.426 c 77.836 111.363 l 77.352
 111.348 77.133 111.27 77.133 111.129 c 77.133 110.941 77.43 110.629 77.68
 110.566 c 77.992 110.582 78.164 110.598 78.195 110.598 c 78.523 110.598
 78.883 110.473 79.148 110.223 c 79.445 109.973 79.586 109.66 79.586 109.223
 c 79.586 108.957 79.539 108.754 79.414 108.457 c h
77.258 111.957 m 77.57 112.02 78.273 112.082 78.727 112.082 c 79.539 112.082
 79.836 112.191 79.836 112.52 c 79.836 113.035 79.148 113.379 78.133 113.379
 c 77.336 113.379 76.82 113.129 76.82 112.738 c 76.82 112.52 76.898 112.395
 77.258 111.957 c h
77.305 108.91 m 77.305 108.379 77.555 108.066 77.977 108.066 c 78.258 108.066
 78.477 108.223 78.633 108.488 c 78.805 108.801 78.898 109.207 78.898 109.566
 c 78.898 110.066 78.648 110.379 78.227 110.379 c 77.68 110.379 77.305 109.801
 77.305 108.941 c h
77.305 108.91 m f
80.805 106.469 4.703 0.438 re f
89.715 107.734 m 89.496 107.703 l 89.262 108.062 89.074 108.125 88.73 108.125
 c 87.074 108.125 l 88.262 107.141 89.324 106.25 89.324 105.281 c 89.324
 104.547 88.621 104.031 87.855 104.031 c 87.09 104.031 86.48 104.391 86.246
 105.406 c 86.496 105.406 l 86.715 105.016 86.996 104.625 87.574 104.625
 c 88.215 104.625 88.574 105.047 88.574 105.547 c 88.574 106.281 87.684 
107.344 86.168 108.531 c 86.168 108.703 l 89.262 108.703 l h
89.715 107.734 m f
5.043 51.539 m 4.949 51.664 l 5.371 51.977 5.574 52.195 5.574 52.336 c 
5.574 52.414 5.496 52.445 5.371 52.445 c 5.277 52.445 5.137 52.43 4.98 52.383
 c 1.84 51.57 l 1.934 52.195 l 2.402 52.32 l 2.074 52.398 1.84 52.711 1.84
 53.055 c 1.84 54.211 3.59 55.617 4.98 55.617 c 5.371 55.617 6.043 55.477
 6.043 54.758 c 6.043 54.117 5.465 53.398 4.668 52.945 c 4.98 53.086 5.465
 53.164 5.605 53.164 c 5.809 53.164 6.043 53.055 6.043 52.773 c 6.043 52.398
 5.715 51.977 5.043 51.539 c h
2.684 52.477 m 3.48 52.477 5.543 53.305 5.543 54.336 c 5.543 54.555 5.418
 54.883 4.887 54.883 c 4.043 54.883 2.027 54.008 2.027 53.023 c 2.027 52.789
 2.168 52.477 2.684 52.477 c h
2.684 52.477 m f
7.297 45.258 m 7.141 45.414 l 7.375 45.602 7.703 45.867 7.703 46.023 c 
7.703 46.055 7.688 46.07 7.641 46.07 c 7.562 46.07 7.391 46.008 7.25 45.977
 c 7.25 45.977 5.688 45.523 5.641 45.523 c 5.484 45.461 5.328 45.43 5.219
 45.43 c 4.812 45.43 4.688 45.711 4.688 45.914 c 4.688 46.477 5.297 47.102
 6.031 47.586 c 5.75 47.508 5.391 47.414 5.219 47.414 c 5 47.414 4.688 47.508
 4.688 47.898 c 4.688 48.492 5.562 49.211 6.062 49.539 c 4.672 49.148 l 
4.672 49.148 4.875 50.273 4.891 50.523 c 5.109 50.523 l 5.109 50.227 5.062
 50.023 5.312 50.023 c 5.469 50.023 5.688 50.086 5.906 50.164 c 5.906 50.164
 7.844 50.758 8.094 50.82 c 8.094 50.148 l 7.578 50.008 l 6.031 49.57 5.188
 48.539 5.188 48.242 c 5.188 48.148 5.203 48.086 5.328 48.086 c 5.453 48.086
 5.781 48.164 5.984 48.242 c 5.984 48.242 7.781 48.758 8.094 48.852 c 8.094
 48.18 l 7.578 48.039 l 5.969 47.586 5.188 46.555 5.188 46.273 c 5.188 46.18
 5.234 46.133 5.312 46.133 c 5.406 46.133 5.719 46.211 5.984 46.289 c 7.062
 46.602 l 7.344 46.68 7.672 46.742 7.781 46.742 c 8 46.742 8.172 46.617 
8.172 46.414 c 8.172 46.008 7.75 45.586 7.297 45.258 c h
7.297 45.258 m f
9.234 43.973 m 9.188 43.77 9.141 43.676 9.031 43.488 c 8.812 43.16 8.5 
42.926 7.953 42.926 c 7.422 42.926 7.188 43.176 7.188 43.504 c 7.188 43.801
 7.375 43.988 7.656 43.988 c 7.922 43.988 8.094 43.801 8.094 43.551 c 8.094
 43.473 8.078 43.395 8.031 43.316 c 8.016 43.285 8.016 43.285 8.016 43.27
 c 8.016 43.238 8.078 43.223 8.156 43.223 c 8.234 43.223 8.734 43.223 9.016
 43.973 c h
9.234 43.973 m f
3.609 42.18 m 3.641 41.602 3.719 41.523 4.234 41.523 c 7.328 41.523 l 7.859
 41.523 7.938 41.617 7.969 42.18 c 8.094 42.18 l 8.094 39.852 l 8.094 39.32
 7.953 38.82 7.703 38.555 c 7.484 38.305 7.172 38.18 6.844 38.18 c 6.531
 38.18 6.25 38.289 6.047 38.508 c 5.859 38.727 5.781 38.914 5.672 39.367
 c 5.578 39.008 5.516 38.852 5.359 38.695 c 5.203 38.508 4.953 38.414 4.672
 38.414 c 3.891 38.414 3.484 39.039 3.484 40.242 c 3.484 42.18 l h
5.828 40.805 m 5.828 40.133 5.859 39.805 5.969 39.555 c 6.125 39.164 6.422
 38.977 6.844 38.977 c 7.219 38.977 7.5 39.117 7.656 39.398 c 7.781 39.617
 7.828 39.914 7.828 40.367 c 7.828 40.711 7.766 40.805 7.547 40.805 c h
5.547 40.805 m 3.953 40.805 l 3.797 40.805 3.75 40.773 3.75 40.648 c 3.734
 40.352 l 3.719 39.57 4.078 39.117 4.688 39.117 c 5.25 39.117 5.531 39.477
 5.547 40.148 c h
5.547 40.805 m f
60.344 121.602 m 59.688 122.039 59.422 122.258 59.078 122.68 c 58.453 123.461
 58.141 124.352 58.141 125.398 c 58.141 126.555 58.469 127.43 59.25 128.336
 c 59.625 128.773 59.859 128.961 60.328 129.258 c 60.422 129.102 l 59.719
 128.539 59.469 128.227 59.219 127.555 c 59 126.961 58.906 126.289 58.906
 125.383 c 58.906 124.43 59.016 123.695 59.266 123.148 c 59.516 122.586 
59.781 122.258 60.422 121.742 c h
60.344 121.602 m f
64.672 127.07 m 64.516 127.195 64.406 127.242 64.266 127.242 c 64.062 127.242
 64 127.117 64 126.727 c 64 124.977 l 64 124.508 63.953 124.242 63.828 124.039
 c 63.625 123.711 63.234 123.539 62.719 123.539 c 61.875 123.539 61.203 
123.977 61.203 124.539 c 61.203 124.742 61.375 124.93 61.594 124.93 c 61.812
 124.93 62 124.742 62 124.555 c 62 124.523 61.984 124.477 61.984 124.414
 c 61.953 124.32 61.953 124.258 61.953 124.195 c 61.953 123.945 62.234 123.758
 62.594 123.758 c 63.031 123.758 63.281 124.008 63.281 124.492 c 63.281 
125.039 l 61.906 125.586 61.75 125.68 61.359 126.008 c 61.156 126.195 61.031
 126.492 61.031 126.789 c 61.031 127.352 61.422 127.758 61.984 127.758 c
 62.375 127.758 62.734 127.57 63.281 127.102 c 63.328 127.57 63.5 127.758
 63.859 127.758 c 64.172 127.758 64.359 127.648 64.672 127.305 c h
63.281 126.555 m 63.281 126.836 63.234 126.93 63.047 127.039 c 62.812 127.164
 62.578 127.227 62.391 127.227 c 62.078 127.227 61.828 126.93 61.828 126.539
 c 61.828 126.508 l 61.828 125.977 62.234 125.633 63.281 125.258 c h
63.281 126.555 m f
65.008 129.258 m 65.664 128.805 65.945 128.586 66.273 128.18 c 66.914 127.398
 67.227 126.492 67.227 125.445 c 67.227 124.305 66.883 123.43 66.102 122.523
 c 65.727 122.086 65.492 121.883 65.039 121.602 c 64.93 121.742 l 65.648
 122.305 65.883 122.617 66.133 123.289 c 66.352 123.898 66.445 124.57 66.445
 125.477 c 66.445 126.414 66.336 127.148 66.086 127.695 c 65.852 128.258
 65.57 128.586 64.93 129.102 c h
65.008 129.258 m f
1.13366 w
q 1 0 0 -1 0 0 cm
147.668 -89.004 m 148.395 -88.59 l 149.086 -88.176 l 149.812 -87.758 l 
150.504 -87.344 l 151.199 -86.961 l 151.926 -86.582 l 152.617 -86.168 l 
153.344 -85.785 l 154.035 -85.371 l 154.762 -84.992 l 155.453 -84.574 l 
156.18 -84.195 l 156.871 -83.781 l 157.598 -83.398 l 158.289 -82.984 l 159.016
 -82.602 l 159.711 -82.188 l 160.438 -81.773 l 161.129 -81.359 l 161.855
 -80.977 l 162.547 -80.562 l 163.273 -80.148 l 163.965 -79.73 l 164.691 
-79.316 l 165.383 -78.902 l 166.109 -78.453 l 166.801 -78.035 l 167.527 
-77.621 l 168.219 -77.207 l 168.949 -76.758 l 169.641 -76.34 l 170.332 -75.926
 l 171.059 -75.477 l 171.75 -75.059 l 172.477 -74.609 l 173.168 -74.195 
l 173.895 -73.746 l 174.586 -73.297 l 175.312 -72.848 l 176.004 -72.43 l
 176.73 -71.98 l 177.426 -71.531 l 178.152 -71.082 l 178.844 -70.633 l 179.57
 -70.184 l 180.262 -69.699 l 180.988 -69.246 l 181.68 -68.797 l 182.406 
-68.348 l 183.098 -67.863 l 183.824 -67.414 l 184.516 -66.965 l 185.242 
-66.48 l 185.938 -66.031 l 186.664 -65.547 l 187.355 -65.098 l 188.082 -64.613
 l 188.773 -64.125 l 189.465 -63.641 l 190.191 -63.156 l 190.883 -62.707
 l 191.609 -62.223 l 192.301 -61.738 l 193.027 -61.254 l 193.723 -60.77 
l 194.449 -60.25 l 195.141 -59.766 l 195.867 -59.281 l 196.559 -58.797 l
 197.285 -58.312 l 197.977 -57.797 l 198.703 -57.312 l 199.395 -56.793 l
 200.121 -56.309 l 200.812 -55.789 l 201.539 -55.27 l 202.23 -54.785 l 202.957
 -54.266 l 203.652 -53.746 l 204.379 -53.227 l 205.07 -52.742 l 205.797 
-52.223 l 206.488 -51.707 l 207.215 -51.188 l 208.598 -50.148 l 209.324 
-49.629 l 210.016 -49.074 l 210.742 -48.559 l 211.438 -48.039 l 212.164 
-47.484 l 212.855 -46.965 l 213.582 -46.445 l 214.273 -45.895 l 215 -45.375
 l 215.691 -44.82 l 216.418 -44.266 l 217.109 -43.746 l 217.836 -43.195 
l 218.527 -42.641 l 219.254 -42.086 l 219.949 -41.531 l 220.676 -40.98 l
 221.367 -40.426 l 222.094 -39.871 l 222.785 -39.32 l 223.512 -38.766 l 
224.203 -38.211 l 224.93 -37.656 l 225.621 -37.105 l 226.348 -36.516 l 227.039
 -35.961 l 227.766 -35.375 l 228.461 -34.82 l 229.152 -34.234 l 229.879 
-33.68 l 230.57 -33.09 l 231.297 -32.539 l 231.988 -31.949 l 232.715 -31.359
 l S Q
0.567042 w
q 1 0 0 -1 0 0 cm
147.648 -89.035 m 150.723 -85.961 l 152.77 -83.914 m 155.844 -80.84 l 157.895
 -78.789 m 160.969 -75.715 l 163.016 -73.668 m 166.09 -70.594 l 168.141 
-68.543 m 171.215 -65.469 l 173.262 -63.422 m 176.336 -60.348 l 178.387 
-58.297 m 181.461 -55.223 l 183.508 -53.176 m 186.582 -50.102 l 188.633 
-48.051 m 191.703 -44.98 l 193.754 -42.93 m 196.828 -39.855 l 198.879 -37.809
 m 201.949 -34.734 l 204 -32.684 m 207.074 -29.609 l 209.121 -27.562 m 212.195
 -24.488 l 214.246 -22.438 m 217.32 -19.363 l 219.367 -17.316 m 222.441 
-14.242 l 224.492 -12.191 m 227.566 -9.117 l 229.613 -7.07 m 232.688 -3.996
 l S Q
220.422 18.195 m 220.422 17.176 219.594 16.348 218.574 16.348 c 217.555
 16.348 216.727 17.176 216.727 18.195 c 216.727 19.215 217.555 20.043 218.574
 20.043 c 219.594 20.043 220.422 19.215 220.422 18.195 c f
q 1 0 0 -1 0 0 cm
147.648 -3.992 85.043 -85.043 re S Q
0.398507 w
q 1 0 0 -1 0 0 cm
147.664 -89.027 m 147.664 -84.777 l S Q
q 1 0 0 -1 0 0 cm
183.102 -89.027 m 183.102 -84.777 l S Q
q 1 0 0 -1 0 0 cm
218.539 -89.027 m 218.539 -84.777 l S Q
q 1 0 0 -1 0 0 cm
147.664 -89.027 m 147.664 -84.777 l S Q
0.398505 w
q 1 0 0 -1 0 0 cm
147.652 -89.031 m 151.902 -89.031 l S Q
q 1 0 0 -1 0 0 cm
147.648 -53.594 m 151.922 -53.594 l S Q
0.398504 w
q 1 0 0 -1 0 0 cm
147.676 -18.156 m 151.906 -18.156 l S Q
0.398505 w
q 1 0 0 -1 0 0 cm
147.652 -89.031 m 151.902 -89.031 l S Q
q 1 0 0 -1 0 0 cm
147.648 -3.992 m 147.648 -8.234 l S Q
q 1 0 0 -1 0 0 cm
183.078 -3.992 m 183.078 -8.234 l S Q
q 1 0 0 -1 0 0 cm
218.539 -3.992 m 218.539 -8.234 l S Q
q 1 0 0 -1 0 0 cm
147.648 -3.992 m 147.648 -8.234 l S Q
q 1 0 0 -1 0 0 cm
232.688 -89.031 m 228.441 -89.031 l S Q
q 1 0 0 -1 0 0 cm
232.707 -53.594 m 228.465 -53.594 l S Q
0.398504 w
q 1 0 0 -1 0 0 cm
232.711 -18.156 m 228.445 -18.156 l S Q
0.398505 w
q 1 0 0 -1 0 0 cm
232.688 -89.031 m 228.441 -89.031 l S Q
149.617 95.43 m 149.617 93.82 148.883 92.367 147.633 92.367 c 146.367 92.367
 145.633 93.82 145.633 95.43 c 145.633 97.055 146.32 98.492 147.633 98.492
 c 148.836 98.492 149.617 97.055 149.617 95.43 c h
148.758 95.43 m 148.758 96.727 148.633 98.242 147.633 98.242 c 146.68 98.242
 146.492 96.727 146.492 95.43 c 146.492 94.352 146.617 92.602 147.633 92.602
 c 148.633 92.602 148.758 94.352 148.758 95.43 c h
148.758 95.43 m f
181.66 95.43 m 181.66 93.82 180.926 92.367 179.676 92.367 c 178.41 92.367
 177.676 93.82 177.676 95.43 c 177.676 97.055 178.363 98.492 179.676 98.492
 c 180.879 98.492 181.66 97.055 181.66 95.43 c h
180.801 95.43 m 180.801 96.727 180.676 98.242 179.676 98.242 c 178.723 
98.242 178.535 96.727 178.535 95.43 c 178.535 94.352 178.66 92.602 179.676
 92.602 c 180.676 92.602 180.801 94.352 180.801 95.43 c h
180.801 95.43 m f
183.582 98.008 m 183.582 97.727 183.363 97.508 183.082 97.508 c 182.801
 97.508 182.582 97.727 182.582 98.008 c 182.582 98.289 182.801 98.508 183.082
 98.508 c 183.363 98.508 183.582 98.289 183.582 98.008 c h
183.582 98.008 m f
188.434 92.461 m 185.965 92.461 l 184.855 95.008 l 184.996 94.977 185.137
 94.945 185.309 94.945 c 186.262 94.945 187.559 95.445 187.559 96.617 c 
187.559 97.523 186.902 98.102 186.277 98.102 c 185.73 98.102 185.527 97.602
 185.012 97.602 c 184.762 97.602 184.684 97.82 184.684 97.93 c 184.684 98.242
 185.121 98.492 185.746 98.492 c 187.09 98.492 188.152 97.508 188.152 96.305
 c 188.152 94.883 187.027 94.398 185.809 94.367 c 185.699 94.367 185.574
 94.383 185.465 94.398 c 186.027 93.133 l 188.121 93.117 l h
188.434 92.461 m f
216.309 98.383 m 216.309 98.242 l 215.715 98.242 215.496 98.258 215.496
 97.086 c 215.496 97.07 215.496 92.336 215.496 92.336 c 215.371 92.336 l
 213.84 93.07 l 213.887 93.211 l 214.215 93.07 214.293 93.039 214.418 93.039
 c 214.684 93.039 214.73 93.273 214.73 93.586 c 214.73 97.086 l 214.73 98.258
 214.512 98.227 213.918 98.242 c 213.918 98.383 l h
216.309 98.383 m f
218.98 98.008 m 218.98 97.727 218.762 97.508 218.48 97.508 c 218.199 97.508
 217.98 97.727 217.98 98.008 c 217.98 98.289 218.199 98.508 218.48 98.508
 c 218.762 98.508 218.98 98.289 218.98 98.008 c h
218.98 98.008 m f
223.898 95.43 m 223.898 93.82 223.164 92.367 221.914 92.367 c 220.648 92.367
 219.914 93.82 219.914 95.43 c 219.914 97.055 220.602 98.492 221.914 98.492
 c 223.117 98.492 223.898 97.055 223.898 95.43 c h
223.039 95.43 m 223.039 96.727 222.914 98.242 221.914 98.242 c 220.961 
98.242 220.773 96.727 220.773 95.43 c 220.773 94.352 220.898 92.602 221.914
 92.602 c 222.914 92.602 223.039 94.352 223.039 95.43 c h
223.039 95.43 m f
143.98 89.07 m 143.98 87.461 143.246 86.008 141.996 86.008 c 140.73 86.008
 139.996 87.461 139.996 89.07 c 139.996 90.695 140.684 92.133 141.996 92.133
 c 143.199 92.133 143.98 90.695 143.98 89.07 c h
143.121 89.07 m 143.121 90.367 142.996 91.883 141.996 91.883 c 141.043 
91.883 140.855 90.367 140.855 89.07 c 140.855 87.992 140.98 86.242 141.996
 86.242 c 142.996 86.242 143.121 87.992 143.121 89.07 c h
143.121 89.07 m f
137.137 53.672 m 137.137 52.062 136.402 50.609 135.152 50.609 c 133.887
 50.609 133.152 52.062 133.152 53.672 c 133.152 55.297 133.84 56.734 135.152
 56.734 c 136.355 56.734 137.137 55.297 137.137 53.672 c h
136.277 53.672 m 136.277 54.969 136.152 56.484 135.152 56.484 c 134.199
 56.484 134.012 54.969 134.012 53.672 c 134.012 52.594 134.137 50.844 135.152
 50.844 c 136.152 50.844 136.277 52.594 136.277 53.672 c h
136.277 53.672 m f
139.062 56.25 m 139.062 55.969 138.844 55.75 138.562 55.75 c 138.281 55.75
 138.062 55.969 138.062 56.25 c 138.062 56.531 138.281 56.75 138.562 56.75
 c 138.844 56.75 139.062 56.531 139.062 56.25 c h
139.062 56.25 m f
143.914 50.703 m 141.445 50.703 l 140.336 53.25 l 140.477 53.219 140.617
 53.188 140.789 53.188 c 141.742 53.188 143.039 53.688 143.039 54.859 c 
143.039 55.766 142.383 56.344 141.758 56.344 c 141.211 56.344 141.008 55.844
 140.492 55.844 c 140.242 55.844 140.164 56.062 140.164 56.172 c 140.164
 56.484 140.602 56.734 141.227 56.734 c 142.57 56.734 143.633 55.75 143.633
 54.547 c 143.633 53.125 142.508 52.641 141.289 52.609 c 141.18 52.609 141.055
 52.625 140.945 52.641 c 141.508 51.375 l 143.602 51.359 l h
143.914 50.703 m f
136.387 21.105 m 136.387 20.965 l 135.793 20.965 135.574 20.98 135.574 
19.809 c 135.574 19.793 135.574 15.059 135.574 15.059 c 135.449 15.059 l
 133.918 15.793 l 133.965 15.934 l 134.293 15.793 134.371 15.762 134.496
 15.762 c 134.762 15.762 134.809 15.996 134.809 16.309 c 134.809 19.809 
l 134.809 20.98 134.59 20.949 133.996 20.965 c 133.996 21.105 l h
136.387 21.105 m f
139.062 20.73 m 139.062 20.449 138.844 20.23 138.562 20.23 c 138.281 20.23
 138.062 20.449 138.062 20.73 c 138.062 21.012 138.281 21.23 138.562 21.23
 c 138.844 21.23 139.062 21.012 139.062 20.73 c h
139.062 20.73 m f
143.977 18.152 m 143.977 16.543 143.242 15.09 141.992 15.09 c 140.727 15.09
 139.992 16.543 139.992 18.152 c 139.992 19.777 140.68 21.215 141.992 21.215
 c 143.195 21.215 143.977 19.777 143.977 18.152 c h
143.117 18.152 m 143.117 19.449 142.992 20.965 141.992 20.965 c 141.039
 20.965 140.852 19.449 140.852 18.152 c 140.852 17.074 140.977 15.324 141.992
 15.324 c 142.992 15.324 143.117 17.074 143.117 18.152 c h
143.117 18.152 m f
168.723 111.023 m 168.598 110.93 l 168.41 111.164 168.082 111.602 167.895
 111.602 c 167.816 111.602 167.77 111.555 167.77 111.445 c 167.77 111.352
 167.848 111.133 167.895 110.961 c 167.895 110.961 168.426 109.008 168.426
 108.961 c 168.488 108.773 168.52 108.586 168.52 108.461 c 168.52 108.008
 168.238 107.852 168.02 107.852 c 167.285 107.852 166.457 108.82 165.879
 109.852 c 165.879 109.852 166.207 108.805 166.207 108.445 c 166.207 108.211
 166.113 107.852 165.691 107.852 c 164.863 107.852 163.832 109.445 163.613
 109.852 c 164.145 107.852 l 164.145 107.852 162.926 108.086 162.66 108.102
 c 162.66 108.258 l 162.988 108.258 163.254 108.227 163.254 108.586 c 163.254
 108.758 163.176 109.039 163.098 109.32 c 163.098 109.32 162.379 111.711
 162.332 111.945 c 163.02 111.945 l 163.176 111.352 l 163.691 109.414 164.941
 108.352 165.285 108.352 c 165.426 108.352 165.52 108.398 165.52 108.602
 c 165.52 108.742 165.41 109.148 165.348 109.414 c 165.348 109.414 164.723
 111.633 164.645 111.945 c 165.316 111.945 l 165.473 111.352 l 166.02 109.336
 167.238 108.352 167.598 108.352 c 167.723 108.352 167.816 108.445 167.816
 108.586 c 167.816 108.68 167.723 109.086 167.629 109.414 c 167.27 110.758
 l 167.176 111.086 167.098 111.492 167.098 111.633 c 167.098 111.867 167.223
 112.055 167.426 112.055 c 167.879 112.055 168.363 111.539 168.723 111.023
 c h
168.723 111.023 m f
173.238 107.734 m 173.02 107.703 l 172.785 108.062 172.598 108.125 172.254
 108.125 c 170.598 108.125 l 171.785 107.141 172.848 106.25 172.848 105.281
 c 172.848 104.547 172.145 104.031 171.379 104.031 c 170.613 104.031 170.004
 104.391 169.77 105.406 c 170.02 105.406 l 170.238 105.016 170.52 104.625
 171.098 104.625 c 171.738 104.625 172.098 105.047 172.098 105.547 c 172.098
 106.281 171.207 107.344 169.691 108.531 c 169.691 108.703 l 172.785 108.703
 l h
173.238 107.734 m f
169.551 110.578 m 170.129 110.609 170.207 110.688 170.207 111.203 c 170.207
 114.297 l 170.207 114.828 170.113 114.906 169.551 114.938 c 169.551 115.062
 l 171.879 115.062 l 172.41 115.062 172.91 114.922 173.176 114.672 c 173.426
 114.453 173.551 114.141 173.551 113.812 c 173.551 113.5 173.441 113.219
 173.223 113.016 c 173.004 112.828 172.816 112.75 172.363 112.641 c 172.723
 112.547 172.879 112.484 173.035 112.328 c 173.223 112.172 173.316 111.922
 173.316 111.641 c 173.316 110.859 172.691 110.453 171.488 110.453 c 169.551
 110.453 l h
170.926 112.797 m 171.598 112.797 171.926 112.828 172.176 112.938 c 172.566
 113.094 172.754 113.391 172.754 113.812 c 172.754 114.188 172.613 114.469
 172.332 114.625 c 172.113 114.75 171.816 114.797 171.363 114.797 c 171.02
 114.797 170.926 114.734 170.926 114.516 c h
170.926 112.516 m 170.926 110.922 l 170.926 110.766 170.957 110.719 171.082
 110.719 c 171.379 110.703 l 172.16 110.688 172.613 111.047 172.613 111.656
 c 172.613 112.219 172.254 112.5 171.582 112.516 c h
170.926 112.516 m f
178.492 105.508 m 178.055 105.508 l 174.945 113.867 l 175.398 113.867 l
 h
178.492 105.508 m f
179.164 111.945 m 181.164 111.945 l 181.164 111.805 l 180.695 111.805 180.555
 111.711 180.555 111.352 c 180.555 108.82 l 180.555 108.805 180.617 108.711
 180.68 108.648 c 180.914 108.445 181.289 108.289 181.602 108.289 c 182.008
 108.289 182.195 108.602 182.195 109.227 c 182.195 111.18 l 182.18 111.68
 182.086 111.789 181.586 111.805 c 181.586 111.945 l 183.602 111.945 l 183.602
 111.805 l 183.102 111.805 182.977 111.664 182.945 111.086 c 182.945 108.836
 l 183.227 108.445 183.508 108.289 183.93 108.289 c 184.445 108.289 184.602
 108.523 184.602 109.273 c 184.602 111.164 l 184.586 111.695 184.523 111.758
 184.008 111.805 c 184.008 111.945 l 185.977 111.945 l 185.977 111.805 l
 185.742 111.789 l 185.461 111.742 185.352 111.617 185.352 111.258 c 185.352
 109.414 l 185.352 108.352 185.008 107.82 184.32 107.82 c 183.789 107.82
 183.336 108.055 182.852 108.57 c 182.695 108.055 182.383 107.82 181.898
 107.82 c 181.492 107.82 181.258 107.93 180.508 108.508 c 180.508 107.836
 l 180.445 107.82 l 179.977 107.992 179.664 108.086 179.195 108.227 c 179.195
 108.383 l 179.305 108.352 179.383 108.336 179.477 108.336 c 179.711 108.336
 179.789 108.477 179.789 108.914 c 179.789 111.18 l 179.773 111.68 179.664
 111.805 179.164 111.805 c h
179.164 111.945 m f
188.234 107.82 m 187.047 107.82 186.25 108.68 186.25 109.914 c 186.25 111.133
 187.078 112.039 188.203 112.039 c 189.344 112.039 190.203 111.086 190.203
 109.852 c 190.203 108.664 189.375 107.82 188.234 107.82 c h
188.109 108.07 m 188.859 108.07 189.391 108.93 189.391 110.164 c 189.391
 111.18 188.984 111.789 188.312 111.789 c 187.969 111.789 187.641 111.57
 187.453 111.211 c 187.188 110.742 187.047 110.117 187.047 109.477 c 187.047
 108.633 187.469 108.07 188.109 108.07 c h
188.109 108.07 m f
190.613 111.945 m 192.738 111.945 l 192.738 111.805 l 192.16 111.789 192.066
 111.695 192.051 111.195 c 192.051 105.836 l 192.02 105.82 l 191.566 105.961
 191.238 106.055 190.598 106.211 c 190.598 106.352 l 190.645 106.352 l 190.754
 106.352 190.863 106.336 190.926 106.336 c 191.223 106.336 191.301 106.461
 191.301 106.883 c 191.301 111.164 l 191.301 111.648 191.176 111.773 190.613
 111.805 c h
190.613 111.945 m f
196.758 107.734 m 196.539 107.703 l 196.305 108.062 196.117 108.125 195.773
 108.125 c 194.117 108.125 l 195.305 107.141 196.367 106.25 196.367 105.281
 c 196.367 104.547 195.664 104.031 194.898 104.031 c 194.133 104.031 193.523
 104.391 193.289 105.406 c 193.539 105.406 l 193.758 105.016 194.039 104.625
 194.617 104.625 c 195.258 104.625 195.617 105.047 195.617 105.547 c 195.617
 106.281 194.727 107.344 193.211 108.531 c 193.211 108.703 l 196.305 108.703
 l h
196.758 107.734 m f
199.125 111.945 m 201.219 111.945 l 201.219 111.805 l 201.047 111.805 l
 200.672 111.773 200.562 111.68 200.547 111.352 c 200.547 109.695 l 201.812
 111.367 l 201.844 111.414 201.875 111.461 201.891 111.492 c 201.969 111.57
 202 111.633 202 111.68 c 202 111.758 201.922 111.805 201.812 111.805 c 
201.641 111.805 l 201.641 111.945 l 203.594 111.945 l 203.594 111.805 l 
203.203 111.789 202.922 111.617 202.547 111.148 c 201.172 109.414 l 201.438
 109.18 l 202.547 108.164 202.797 108.023 203.375 108.039 c 203.375 107.914
 l 201.531 107.914 l 201.531 108.039 l 201.891 108.039 201.984 108.086 201.984
 108.195 c 201.984 108.273 201.906 108.398 201.781 108.508 c 200.547 109.602
 l 200.547 105.836 l 200.516 105.82 l 200.172 105.93 199.906 106.008 199.391
 106.148 c 199.125 106.211 l 199.125 106.352 l 199.234 106.352 199.328 106.336
 199.406 106.336 c 199.719 106.336 199.797 106.461 199.797 106.883 c 199.797
 111.211 l 199.781 111.68 199.766 111.711 199.125 111.805 c h
199.125 111.945 m f
207.723 108.461 m 207.723 108.117 l 207.035 108.117 l 206.848 108.117 206.707
 108.086 206.535 108.023 c 206.332 107.961 l 206.098 107.867 205.848 107.82
 205.613 107.82 c 204.785 107.82 204.129 108.461 204.129 109.289 c 204.129
 109.852 204.363 110.18 204.957 110.477 c 204.723 110.695 l 204.535 110.883
 204.426 110.977 204.395 111.008 c 204.207 111.211 204.16 111.305 204.16
 111.461 c 204.16 111.664 204.254 111.758 204.629 111.93 c 203.988 112.398
 203.754 112.695 203.754 113.023 c 203.754 113.508 204.441 113.898 205.301
 113.898 c 205.973 113.898 206.676 113.664 207.145 113.289 c 207.488 113.008
 207.645 112.727 207.645 112.383 c 207.645 111.836 207.223 111.461 206.551
 111.43 c 205.395 111.367 l 204.91 111.352 204.691 111.273 204.691 111.133
 c 204.691 110.945 204.988 110.633 205.238 110.57 c 205.551 110.586 205.723
 110.602 205.754 110.602 c 206.082 110.602 206.441 110.477 206.707 110.227
 c 207.004 109.977 207.145 109.664 207.145 109.227 c 207.145 108.961 207.098
 108.758 206.973 108.461 c h
204.816 111.961 m 205.129 112.023 205.832 112.086 206.285 112.086 c 207.098
 112.086 207.395 112.195 207.395 112.523 c 207.395 113.039 206.707 113.383
 205.691 113.383 c 204.895 113.383 204.379 113.133 204.379 112.742 c 204.379
 112.523 204.457 112.398 204.816 111.961 c h
204.863 108.914 m 204.863 108.383 205.113 108.07 205.535 108.07 c 205.816
 108.07 206.035 108.227 206.191 108.492 c 206.363 108.805 206.457 109.211
 206.457 109.57 c 206.457 110.07 206.207 110.383 205.785 110.383 c 205.238
 110.383 204.863 109.805 204.863 108.945 c h
204.863 108.914 m f
208.367 106.469 4.703 0.438 re f
217.277 107.734 m 217.059 107.703 l 216.824 108.062 216.637 108.125 216.293
 108.125 c 214.637 108.125 l 215.824 107.141 216.887 106.25 216.887 105.281
 c 216.887 104.547 216.184 104.031 215.418 104.031 c 214.652 104.031 214.043
 104.391 213.809 105.406 c 214.059 105.406 l 214.277 105.016 214.559 104.625
 215.137 104.625 c 215.777 104.625 216.137 105.047 216.137 105.547 c 216.137
 106.281 215.246 107.344 213.73 108.531 c 213.73 108.703 l 216.824 108.703
 l h
217.277 107.734 m f
124.664 51.539 m 124.57 51.664 l 124.992 51.977 125.195 52.195 125.195 
52.336 c 125.195 52.414 125.117 52.445 124.992 52.445 c 124.898 52.445 124.758
 52.43 124.602 52.383 c 121.461 51.57 l 121.555 52.195 l 122.023 52.32 l
 121.695 52.398 121.461 52.711 121.461 53.055 c 121.461 54.211 123.211 55.617
 124.602 55.617 c 124.992 55.617 125.664 55.477 125.664 54.758 c 125.664
 54.117 125.086 53.398 124.289 52.945 c 124.602 53.086 125.086 53.164 125.227
 53.164 c 125.43 53.164 125.664 53.055 125.664 52.773 c 125.664 52.398 125.336
 51.977 124.664 51.539 c h
122.305 52.477 m 123.102 52.477 125.164 53.305 125.164 54.336 c 125.164
 54.555 125.039 54.883 124.508 54.883 c 123.664 54.883 121.648 54.008 121.648
 53.023 c 121.648 52.789 121.789 52.477 122.305 52.477 c h
122.305 52.477 m f
126.918 45.258 m 126.762 45.414 l 126.996 45.602 127.324 45.867 127.324
 46.023 c 127.324 46.055 127.309 46.07 127.262 46.07 c 127.184 46.07 127.012
 46.008 126.871 45.977 c 126.871 45.977 125.309 45.523 125.262 45.523 c 
125.105 45.461 124.949 45.43 124.84 45.43 c 124.434 45.43 124.309 45.711
 124.309 45.914 c 124.309 46.477 124.918 47.102 125.652 47.586 c 125.371
 47.508 125.012 47.414 124.84 47.414 c 124.621 47.414 124.309 47.508 124.309
 47.898 c 124.309 48.492 125.184 49.211 125.684 49.539 c 124.293 49.148 
l 124.293 49.148 124.496 50.273 124.512 50.523 c 124.73 50.523 l 124.73 
50.227 124.684 50.023 124.934 50.023 c 125.09 50.023 125.309 50.086 125.527
 50.164 c 125.527 50.164 127.465 50.758 127.715 50.82 c 127.715 50.148 l
 127.199 50.008 l 125.652 49.57 124.809 48.539 124.809 48.242 c 124.809 
48.148 124.824 48.086 124.949 48.086 c 125.074 48.086 125.402 48.164 125.605
 48.242 c 125.605 48.242 127.402 48.758 127.715 48.852 c 127.715 48.18 l
 127.199 48.039 l 125.59 47.586 124.809 46.555 124.809 46.273 c 124.809 
46.18 124.855 46.133 124.934 46.133 c 125.027 46.133 125.34 46.211 125.605
 46.289 c 126.684 46.602 l 126.965 46.68 127.293 46.742 127.402 46.742 c
 127.621 46.742 127.793 46.617 127.793 46.414 c 127.793 46.008 127.371 45.586
 126.918 45.258 c h
126.918 45.258 m f
128.855 43.973 m 128.809 43.77 128.762 43.676 128.652 43.488 c 128.434 
43.16 128.121 42.926 127.574 42.926 c 127.043 42.926 126.809 43.176 126.809
 43.504 c 126.809 43.801 126.996 43.988 127.277 43.988 c 127.543 43.988 
127.715 43.801 127.715 43.551 c 127.715 43.473 127.699 43.395 127.652 43.316
 c 127.637 43.285 127.637 43.285 127.637 43.27 c 127.637 43.238 127.699 
43.223 127.777 43.223 c 127.855 43.223 128.355 43.223 128.637 43.973 c h
128.855 43.973 m f
123.23 42.18 m 123.262 41.602 123.34 41.523 123.855 41.523 c 126.949 41.523
 l 127.48 41.523 127.559 41.617 127.59 42.18 c 127.715 42.18 l 127.715 39.852
 l 127.715 39.32 127.574 38.82 127.324 38.555 c 127.105 38.305 126.793 38.18
 126.465 38.18 c 126.152 38.18 125.871 38.289 125.668 38.508 c 125.48 38.727
 125.402 38.914 125.293 39.367 c 125.199 39.008 125.137 38.852 124.98 38.695
 c 124.824 38.508 124.574 38.414 124.293 38.414 c 123.512 38.414 123.105
 39.039 123.105 40.242 c 123.105 42.18 l h
125.449 40.805 m 125.449 40.133 125.48 39.805 125.59 39.555 c 125.746 39.164
 126.043 38.977 126.465 38.977 c 126.84 38.977 127.121 39.117 127.277 39.398
 c 127.402 39.617 127.449 39.914 127.449 40.367 c 127.449 40.711 127.387
 40.805 127.168 40.805 c h
125.168 40.805 m 123.574 40.805 l 123.418 40.805 123.371 40.773 123.371
 40.648 c 123.355 40.352 l 123.34 39.57 123.699 39.117 124.309 39.117 c 
124.871 39.117 125.152 39.477 125.168 40.148 c h
125.168 40.805 m f
187.543 121.602 m 186.887 122.039 186.621 122.258 186.277 122.68 c 185.652
 123.461 185.34 124.352 185.34 125.398 c 185.34 126.555 185.668 127.43 186.449
 128.336 c 186.824 128.773 187.059 128.961 187.527 129.258 c 187.621 129.102
 l 186.918 128.539 186.668 128.227 186.418 127.555 c 186.199 126.961 186.105
 126.289 186.105 125.383 c 186.105 124.43 186.215 123.695 186.465 123.148
 c 186.715 122.586 186.98 122.258 187.621 121.742 c h
187.543 121.602 m f
189.277 121.555 m 189.23 121.539 l 188.855 121.664 188.621 121.742 188.184
 121.867 c 187.934 121.93 l 187.934 122.07 l 187.98 122.07 188.012 122.07
 188.074 122.07 c 188.434 122.07 188.527 122.148 188.527 122.523 c 188.527
 127.18 l 188.527 127.461 189.277 127.758 189.996 127.758 c 191.184 127.758
 192.105 126.773 192.105 125.492 c 192.105 124.367 191.418 123.539 190.527
 123.539 c 189.98 123.539 189.449 123.852 189.277 124.305 c h
189.277 124.773 m 189.277 124.43 189.699 124.102 190.168 124.102 c 190.418
 124.102 190.637 124.195 190.824 124.367 c 191.105 124.648 191.309 125.258
 191.309 125.898 c 191.309 126.898 190.887 127.461 190.152 127.461 c 189.684
 127.461 189.277 127.273 189.277 127.039 c h
189.277 124.773 m f
192.688 129.258 m 193.344 128.805 193.625 128.586 193.953 128.18 c 194.594
 127.398 194.906 126.492 194.906 125.445 c 194.906 124.305 194.562 123.43
 193.781 122.523 c 193.406 122.086 193.172 121.883 192.719 121.602 c 192.609
 121.742 l 193.328 122.305 193.562 122.617 193.812 123.289 c 194.031 123.898
 194.125 124.57 194.125 125.477 c 194.125 126.414 194.016 127.148 193.766
 127.695 c 193.531 128.258 193.25 128.586 192.609 129.102 c h
192.688 129.258 m f
1.13366 w
q 1 0 0 -1 0 0 cm
275.23 -18.156 m 275.926 -24.922 l 276.652 -27 l 277.348 -28.355 l 278.074
 -29.395 l 278.77 -30.191 l 279.461 -30.887 l 280.191 -31.441 l 280.883 
-31.926 l 281.613 -32.344 l 282.305 -32.723 l 283.035 -33.035 l 283.727 
-33.312 l 284.422 -33.59 l 285.148 -33.832 l 285.844 -34.043 l 286.57 -34.215
 l 287.266 -34.387 l 287.992 -34.527 l 288.688 -34.699 l 289.414 -34.805
 l 290.109 -34.91 l 290.801 -35.012 l 291.531 -35.117 l 292.223 -35.188 
l 292.953 -35.254 l 293.645 -35.359 l 294.375 -35.395 l 295.066 -35.465 
l 295.762 -35.5 l 296.488 -35.531 l 297.184 -35.566 l 297.91 -35.602 l 298.605
 -35.602 l 299.332 -35.637 l 300.027 -35.672 l 303.566 -35.672 l 304.293
 -35.637 l 304.988 -35.637 l 305.68 -35.602 l 306.41 -35.602 l 307.102 -35.566
 l 307.832 -35.566 l 308.523 -35.531 l 309.254 -35.5 l 309.945 -35.465 l
 310.676 -35.43 l 311.367 -35.395 l 312.062 -35.359 l 312.789 -35.324 l 
313.484 -35.254 l 314.211 -35.223 l 314.906 -35.188 l 315.633 -35.117 l 
316.328 -35.082 l 317.02 -35.012 l 317.75 -34.977 l 318.441 -34.91 l 319.172
 -34.875 l 319.863 -34.805 l 320.594 -34.734 l 321.285 -34.664 l 321.98 
-34.598 l 322.707 -34.527 l 323.402 -34.492 l 324.129 -34.422 l 324.824 
-34.355 l 325.551 -34.25 l 326.246 -34.18 l 326.938 -34.109 l 327.668 -34.043
 l 328.363 -33.973 l 329.09 -33.902 l 329.785 -33.801 l 330.512 -33.73 l
 331.207 -33.66 l 331.934 -33.555 l 332.629 -33.488 l 333.32 -33.418 l 334.051
 -33.312 l 334.742 -33.211 l 335.473 -33.141 l 336.164 -33.035 l 336.895
 -32.965 l 337.586 -32.863 l 338.281 -32.793 l 339.008 -32.688 l 339.703
 -32.586 l 340.43 -32.48 l 341.125 -32.41 l 341.852 -32.309 l 342.547 -32.203
 l 343.238 -32.098 l 343.969 -31.996 l 344.66 -31.891 l 345.391 -31.789 
l 346.082 -31.684 l 346.812 -31.578 l 347.504 -31.477 l 348.234 -31.371 
l 348.926 -31.266 l 349.621 -31.164 l 350.348 -31.059 l 351.043 -30.957 
l 351.77 -30.852 l 352.465 -30.746 l 353.191 -30.609 l 354.582 -30.398 l
 355.309 -30.297 l 356.004 -30.156 l 356.73 -30.055 l 357.426 -29.949 l 
358.152 -29.812 l 358.848 -29.707 l 359.539 -29.602 l 360.27 -29.465 l S Q
0.567042 w
q 1 0 0 -1 0 0 cm
275.211 -3.992 85.043 -85.043 re S Q
0.398507 w
q 1 0 0 -1 0 0 cm
275.227 -89.027 m 275.227 -84.777 l S Q
q 1 0 0 -1 0 0 cm
310.664 -89.027 m 310.664 -84.777 l S Q
q 1 0 0 -1 0 0 cm
346.102 -89.027 m 346.102 -84.777 l S Q
q 1 0 0 -1 0 0 cm
275.227 -89.027 m 275.227 -84.777 l S Q
0.398505 w
q 1 0 0 -1 0 0 cm
275.219 -89.031 m 279.469 -89.031 l S Q
q 1 0 0 -1 0 0 cm
275.234 -53.594 m 279.473 -53.594 l S Q
0.398504 w
q 1 0 0 -1 0 0 cm
275.23 -18.156 m 279.461 -18.156 l S Q
0.398505 w
q 1 0 0 -1 0 0 cm
275.219 -89.031 m 279.469 -89.031 l S Q
q 1 0 0 -1 0 0 cm
275.211 -3.992 m 275.211 -8.234 l S Q
q 1 0 0 -1 0 0 cm
310.641 -3.992 m 310.641 -8.234 l S Q
q 1 0 0 -1 0 0 cm
346.066 -3.992 m 346.066 -8.234 l S Q
q 1 0 0 -1 0 0 cm
275.211 -3.992 m 275.211 -8.234 l S Q
q 1 0 0 -1 0 0 cm
360.254 -89.031 m 356.008 -89.031 l S Q
q 1 0 0 -1 0 0 cm
360.254 -53.594 m 356.016 -53.594 l S Q
0.398504 w
q 1 0 0 -1 0 0 cm
360.27 -18.156 m 356.004 -18.156 l S Q
0.398505 w
q 1 0 0 -1 0 0 cm
360.254 -89.031 m 356.008 -89.031 l S Q
277.18 95.43 m 277.18 93.82 276.445 92.367 275.195 92.367 c 273.93 92.367
 273.195 93.82 273.195 95.43 c 273.195 97.055 273.883 98.492 275.195 98.492
 c 276.398 98.492 277.18 97.055 277.18 95.43 c h
276.32 95.43 m 276.32 96.727 276.195 98.242 275.195 98.242 c 274.242 98.242
 274.055 96.727 274.055 95.43 c 274.055 94.352 274.18 92.602 275.195 92.602
 c 276.195 92.602 276.32 94.352 276.32 95.43 c h
276.32 95.43 m f
309.219 95.43 m 309.219 93.82 308.484 92.367 307.234 92.367 c 305.969 92.367
 305.234 93.82 305.234 95.43 c 305.234 97.055 305.922 98.492 307.234 98.492
 c 308.438 98.492 309.219 97.055 309.219 95.43 c h
308.359 95.43 m 308.359 96.727 308.234 98.242 307.234 98.242 c 306.281 
98.242 306.094 96.727 306.094 95.43 c 306.094 94.352 306.219 92.602 307.234
 92.602 c 308.234 92.602 308.359 94.352 308.359 95.43 c h
308.359 95.43 m f
311.141 98.008 m 311.141 97.727 310.922 97.508 310.641 97.508 c 310.359
 97.508 310.141 97.727 310.141 98.008 c 310.141 98.289 310.359 98.508 310.641
 98.508 c 310.922 98.508 311.141 98.289 311.141 98.008 c h
311.141 98.008 m f
315.996 92.461 m 313.527 92.461 l 312.418 95.008 l 312.559 94.977 312.699
 94.945 312.871 94.945 c 313.824 94.945 315.121 95.445 315.121 96.617 c 
315.121 97.523 314.465 98.102 313.84 98.102 c 313.293 98.102 313.09 97.602
 312.574 97.602 c 312.324 97.602 312.246 97.82 312.246 97.93 c 312.246 98.242
 312.684 98.492 313.309 98.492 c 314.652 98.492 315.715 97.508 315.715 96.305
 c 315.715 94.883 314.59 94.398 313.371 94.367 c 313.262 94.367 313.137 
94.383 313.027 94.398 c 313.59 93.133 l 315.684 93.117 l h
315.996 92.461 m f
343.867 98.383 m 343.867 98.242 l 343.273 98.242 343.055 98.258 343.055
 97.086 c 343.055 97.07 343.055 92.336 343.055 92.336 c 342.93 92.336 l 
341.398 93.07 l 341.445 93.211 l 341.773 93.07 341.852 93.039 341.977 93.039
 c 342.242 93.039 342.289 93.273 342.289 93.586 c 342.289 97.086 l 342.289
 98.258 342.07 98.227 341.477 98.242 c 341.477 98.383 l h
343.867 98.383 m f
346.543 98.008 m 346.543 97.727 346.324 97.508 346.043 97.508 c 345.762
 97.508 345.543 97.727 345.543 98.008 c 345.543 98.289 345.762 98.508 346.043
 98.508 c 346.324 98.508 346.543 98.289 346.543 98.008 c h
346.543 98.008 m f
351.457 95.43 m 351.457 93.82 350.723 92.367 349.473 92.367 c 348.207 92.367
 347.473 93.82 347.473 95.43 c 347.473 97.055 348.16 98.492 349.473 98.492
 c 350.676 98.492 351.457 97.055 351.457 95.43 c h
350.598 95.43 m 350.598 96.727 350.473 98.242 349.473 98.242 c 348.52 98.242
 348.332 96.727 348.332 95.43 c 348.332 94.352 348.457 92.602 349.473 92.602
 c 350.473 92.602 350.598 94.352 350.598 95.43 c h
350.598 95.43 m f
271.539 89.07 m 271.539 87.461 270.805 86.008 269.555 86.008 c 268.289 
86.008 267.555 87.461 267.555 89.07 c 267.555 90.695 268.242 92.133 269.555
 92.133 c 270.758 92.133 271.539 90.695 271.539 89.07 c h
270.68 89.07 m 270.68 90.367 270.555 91.883 269.555 91.883 c 268.602 91.883
 268.414 90.367 268.414 89.07 c 268.414 87.992 268.539 86.242 269.555 86.242
 c 270.555 86.242 270.68 87.992 270.68 89.07 c h
270.68 89.07 m f
264.699 53.672 m 264.699 52.062 263.965 50.609 262.715 50.609 c 261.449
 50.609 260.715 52.062 260.715 53.672 c 260.715 55.297 261.402 56.734 262.715
 56.734 c 263.918 56.734 264.699 55.297 264.699 53.672 c h
263.84 53.672 m 263.84 54.969 263.715 56.484 262.715 56.484 c 261.762 56.484
 261.574 54.969 261.574 53.672 c 261.574 52.594 261.699 50.844 262.715 50.844
 c 263.715 50.844 263.84 52.594 263.84 53.672 c h
263.84 53.672 m f
266.621 56.25 m 266.621 55.969 266.402 55.75 266.121 55.75 c 265.84 55.75
 265.621 55.969 265.621 56.25 c 265.621 56.531 265.84 56.75 266.121 56.75
 c 266.402 56.75 266.621 56.531 266.621 56.25 c h
266.621 56.25 m f
271.477 50.703 m 269.008 50.703 l 267.898 53.25 l 268.039 53.219 268.18
 53.188 268.352 53.188 c 269.305 53.188 270.602 53.688 270.602 54.859 c 
270.602 55.766 269.945 56.344 269.32 56.344 c 268.773 56.344 268.57 55.844
 268.055 55.844 c 267.805 55.844 267.727 56.062 267.727 56.172 c 267.727
 56.484 268.164 56.734 268.789 56.734 c 270.133 56.734 271.195 55.75 271.195
 54.547 c 271.195 53.125 270.07 52.641 268.852 52.609 c 268.742 52.609 268.617
 52.625 268.508 52.641 c 269.07 51.375 l 271.164 51.359 l h
271.477 50.703 m f
263.949 21.105 m 263.949 20.965 l 263.355 20.965 263.137 20.98 263.137 
19.809 c 263.137 19.793 263.137 15.059 263.137 15.059 c 263.012 15.059 l
 261.48 15.793 l 261.527 15.934 l 261.855 15.793 261.934 15.762 262.059 
15.762 c 262.324 15.762 262.371 15.996 262.371 16.309 c 262.371 19.809 l
 262.371 20.98 262.152 20.949 261.559 20.965 c 261.559 21.105 l h
263.949 21.105 m f
266.621 20.73 m 266.621 20.449 266.402 20.23 266.121 20.23 c 265.84 20.23
 265.621 20.449 265.621 20.73 c 265.621 21.012 265.84 21.23 266.121 21.23
 c 266.402 21.23 266.621 21.012 266.621 20.73 c h
266.621 20.73 m f
271.539 18.152 m 271.539 16.543 270.805 15.09 269.555 15.09 c 268.289 15.09
 267.555 16.543 267.555 18.152 c 267.555 19.777 268.242 21.215 269.555 21.215
 c 270.758 21.215 271.539 19.777 271.539 18.152 c h
270.68 18.152 m 270.68 19.449 270.555 20.965 269.555 20.965 c 268.602 20.965
 268.414 19.449 268.414 18.152 c 268.414 17.074 268.539 15.324 269.555 15.324
 c 270.555 15.324 270.68 17.074 270.68 18.152 c h
270.68 18.152 m f
298.562 111.023 m 298.438 110.93 l 298.25 111.164 297.922 111.602 297.734
 111.602 c 297.656 111.602 297.609 111.555 297.609 111.445 c 297.609 111.352
 297.688 111.133 297.734 110.961 c 297.734 110.961 298.266 109.008 298.266
 108.961 c 298.328 108.773 298.359 108.586 298.359 108.461 c 298.359 108.008
 298.078 107.852 297.859 107.852 c 297.125 107.852 296.297 108.82 295.719
 109.852 c 295.719 109.852 296.047 108.805 296.047 108.445 c 296.047 108.211
 295.953 107.852 295.531 107.852 c 294.703 107.852 293.672 109.445 293.453
 109.852 c 293.984 107.852 l 293.984 107.852 292.766 108.086 292.5 108.102
 c 292.5 108.258 l 292.828 108.258 293.094 108.227 293.094 108.586 c 293.094
 108.758 293.016 109.039 292.938 109.32 c 292.938 109.32 292.219 111.711
 292.172 111.945 c 292.859 111.945 l 293.016 111.352 l 293.531 109.414 294.781
 108.352 295.125 108.352 c 295.266 108.352 295.359 108.398 295.359 108.602
 c 295.359 108.742 295.25 109.148 295.188 109.414 c 295.188 109.414 294.562
 111.633 294.484 111.945 c 295.156 111.945 l 295.312 111.352 l 295.859 109.336
 297.078 108.352 297.438 108.352 c 297.562 108.352 297.656 108.445 297.656
 108.586 c 297.656 108.68 297.562 109.086 297.469 109.414 c 297.109 110.758
 l 297.016 111.086 296.938 111.492 296.938 111.633 c 296.938 111.867 297.062
 112.055 297.266 112.055 c 297.719 112.055 298.203 111.539 298.562 111.023
 c h
298.562 111.023 m f
299.391 109.738 m 299.969 109.77 300.047 109.848 300.047 110.363 c 300.047
 113.457 l 300.047 113.988 299.953 114.066 299.391 114.098 c 299.391 114.223
 l 301.719 114.223 l 302.25 114.223 302.75 114.082 303.016 113.832 c 303.266
 113.613 303.391 113.301 303.391 112.973 c 303.391 112.66 303.281 112.379
 303.062 112.176 c 302.844 111.988 302.656 111.91 302.203 111.801 c 302.562
 111.707 302.719 111.645 302.875 111.488 c 303.062 111.332 303.156 111.082
 303.156 110.801 c 303.156 110.02 302.531 109.613 301.328 109.613 c 299.391
 109.613 l h
300.766 111.957 m 301.438 111.957 301.766 111.988 302.016 112.098 c 302.406
 112.254 302.594 112.551 302.594 112.973 c 302.594 113.348 302.453 113.629
 302.172 113.785 c 301.953 113.91 301.656 113.957 301.203 113.957 c 300.859
 113.957 300.766 113.895 300.766 113.676 c h
300.766 111.676 m 300.766 110.082 l 300.766 109.926 300.797 109.879 300.922
 109.879 c 301.219 109.863 l 302 109.848 302.453 110.207 302.453 110.816
 c 302.453 111.379 302.094 111.66 301.422 111.676 c h
300.766 111.676 m f
308.332 105.508 m 307.895 105.508 l 304.785 113.867 l 305.238 113.867 l
 h
308.332 105.508 m f
309.004 111.945 m 311.004 111.945 l 311.004 111.805 l 310.535 111.805 310.395
 111.711 310.395 111.352 c 310.395 108.82 l 310.395 108.805 310.457 108.711
 310.52 108.648 c 310.754 108.445 311.129 108.289 311.441 108.289 c 311.848
 108.289 312.035 108.602 312.035 109.227 c 312.035 111.18 l 312.02 111.68
 311.926 111.789 311.426 111.805 c 311.426 111.945 l 313.441 111.945 l 313.441
 111.805 l 312.941 111.805 312.816 111.664 312.785 111.086 c 312.785 108.836
 l 313.066 108.445 313.348 108.289 313.77 108.289 c 314.285 108.289 314.441
 108.523 314.441 109.273 c 314.441 111.164 l 314.426 111.695 314.363 111.758
 313.848 111.805 c 313.848 111.945 l 315.816 111.945 l 315.816 111.805 l
 315.582 111.789 l 315.301 111.742 315.191 111.617 315.191 111.258 c 315.191
 109.414 l 315.191 108.352 314.848 107.82 314.16 107.82 c 313.629 107.82
 313.176 108.055 312.691 108.57 c 312.535 108.055 312.223 107.82 311.738
 107.82 c 311.332 107.82 311.098 107.93 310.348 108.508 c 310.348 107.836
 l 310.285 107.82 l 309.816 107.992 309.504 108.086 309.035 108.227 c 309.035
 108.383 l 309.145 108.352 309.223 108.336 309.316 108.336 c 309.551 108.336
 309.629 108.477 309.629 108.914 c 309.629 111.18 l 309.613 111.68 309.504
 111.805 309.004 111.805 c h
309.004 111.945 m f
318.074 107.82 m 316.887 107.82 316.09 108.68 316.09 109.914 c 316.09 111.133
 316.918 112.039 318.043 112.039 c 319.184 112.039 320.043 111.086 320.043
 109.852 c 320.043 108.664 319.215 107.82 318.074 107.82 c h
317.949 108.07 m 318.699 108.07 319.23 108.93 319.23 110.164 c 319.23 111.18
 318.824 111.789 318.152 111.789 c 317.809 111.789 317.48 111.57 317.293
 111.211 c 317.027 110.742 316.887 110.117 316.887 109.477 c 316.887 108.633
 317.309 108.07 317.949 108.07 c h
317.949 108.07 m f
320.453 111.945 m 322.578 111.945 l 322.578 111.805 l 322 111.789 321.906
 111.695 321.891 111.195 c 321.891 105.836 l 321.859 105.82 l 321.406 105.961
 321.078 106.055 320.438 106.211 c 320.438 106.352 l 320.484 106.352 l 320.594
 106.352 320.703 106.336 320.766 106.336 c 321.062 106.336 321.141 106.461
 321.141 106.883 c 321.141 111.164 l 321.141 111.648 321.016 111.773 320.453
 111.805 c h
320.453 111.945 m f
324.406 111.945 m 326.5 111.945 l 326.5 111.805 l 326.328 111.805 l 325.953
 111.773 325.844 111.68 325.828 111.352 c 325.828 109.695 l 327.094 111.367
 l 327.125 111.414 327.156 111.461 327.172 111.492 c 327.25 111.57 327.281
 111.633 327.281 111.68 c 327.281 111.758 327.203 111.805 327.094 111.805
 c 326.922 111.805 l 326.922 111.945 l 328.875 111.945 l 328.875 111.805
 l 328.484 111.789 328.203 111.617 327.828 111.148 c 326.453 109.414 l 326.719
 109.18 l 327.828 108.164 328.078 108.023 328.656 108.039 c 328.656 107.914
 l 326.812 107.914 l 326.812 108.039 l 327.172 108.039 327.266 108.086 327.266
 108.195 c 327.266 108.273 327.188 108.398 327.062 108.508 c 325.828 109.602
 l 325.828 105.836 l 325.797 105.82 l 325.453 105.93 325.188 106.008 324.672
 106.148 c 324.406 106.211 l 324.406 106.352 l 324.516 106.352 324.609 106.336
 324.688 106.336 c 325 106.336 325.078 106.461 325.078 106.883 c 325.078
 111.211 l 325.062 111.68 325.047 111.711 324.406 111.805 c h
324.406 111.945 m f
333.004 108.461 m 333.004 108.117 l 332.316 108.117 l 332.129 108.117 331.988
 108.086 331.816 108.023 c 331.613 107.961 l 331.379 107.867 331.129 107.82
 330.895 107.82 c 330.066 107.82 329.41 108.461 329.41 109.289 c 329.41 
109.852 329.645 110.18 330.238 110.477 c 330.004 110.695 l 329.816 110.883
 329.707 110.977 329.676 111.008 c 329.488 111.211 329.441 111.305 329.441
 111.461 c 329.441 111.664 329.535 111.758 329.91 111.93 c 329.27 112.398
 329.035 112.695 329.035 113.023 c 329.035 113.508 329.723 113.898 330.582
 113.898 c 331.254 113.898 331.957 113.664 332.426 113.289 c 332.77 113.008
 332.926 112.727 332.926 112.383 c 332.926 111.836 332.504 111.461 331.832
 111.43 c 330.676 111.367 l 330.191 111.352 329.973 111.273 329.973 111.133
 c 329.973 110.945 330.27 110.633 330.52 110.57 c 330.832 110.586 331.004
 110.602 331.035 110.602 c 331.363 110.602 331.723 110.477 331.988 110.227
 c 332.285 109.977 332.426 109.664 332.426 109.227 c 332.426 108.961 332.379
 108.758 332.254 108.461 c h
330.098 111.961 m 330.41 112.023 331.113 112.086 331.566 112.086 c 332.379
 112.086 332.676 112.195 332.676 112.523 c 332.676 113.039 331.988 113.383
 330.973 113.383 c 330.176 113.383 329.66 113.133 329.66 112.742 c 329.66
 112.523 329.738 112.398 330.098 111.961 c h
330.145 108.914 m 330.145 108.383 330.395 108.07 330.816 108.07 c 331.098
 108.07 331.316 108.227 331.473 108.492 c 331.645 108.805 331.738 109.211
 331.738 109.57 c 331.738 110.07 331.488 110.383 331.066 110.383 c 330.52
 110.383 330.145 109.805 330.145 108.945 c h
330.145 108.914 m f
333.645 106.469 4.703 0.438 re f
341.898 108.703 m 341.898 108.516 l 341.367 108.516 341.195 108.516 341.195
 107.672 c 341.195 107.656 341.195 104 341.195 104 c 341.023 104 l 339.68
 104.578 l 339.758 104.766 l 340.07 104.641 340.133 104.625 340.227 104.625
 c 340.43 104.625 340.445 104.797 340.445 105 c 340.445 107.672 l 340.445
 108.516 340.289 108.5 339.758 108.516 c 339.758 108.703 l h
341.898 108.703 m f
249.379 47.504 m 249.145 47.504 249.02 47.691 249.02 47.863 c 249.02 47.973
 249.066 48.082 249.176 48.16 c 249.348 48.254 249.52 48.207 249.816 48.285
 c 250.551 48.457 251.332 49.035 252.645 50.035 c 252.41 50.02 251.645 49.926
 250.879 49.926 c 249.957 49.926 249.02 50.066 249.02 50.707 c 249.02 51.348
 249.613 51.551 249.895 51.551 c 249.988 51.551 250.082 51.52 250.129 51.488
 c 250.129 51.41 l 249.973 51.363 249.582 51.223 249.582 50.91 c 249.582
 50.582 250.348 50.363 251.129 50.363 c 252.254 50.379 252.707 50.426 253.066
 50.457 c 253.426 50.723 254.098 51.285 254.66 51.285 c 254.895 51.285 255.035
 51.191 255.035 50.973 c 255.035 50.285 253.582 50.129 253.066 50.098 c 
252.691 49.738 250.941 48.16 249.941 47.645 c 249.707 47.52 249.551 47.504
 249.379 47.504 c h
249.379 47.504 m f
255.273 41.879 m 254.836 41.879 l 254.836 44.207 l 252.945 44.207 l 252.945
 41.879 l 252.508 41.879 l 252.508 44.207 l 250.18 44.207 l 250.18 44.629
 l 252.508 44.629 l 252.508 46.957 l 252.945 46.957 l 252.945 44.629 l 254.836
 44.629 l 254.836 46.957 l 255.273 46.957 l h
255.273 41.879 m f
315.465 121.602 m 314.809 122.039 314.543 122.258 314.199 122.68 c 313.574
 123.461 313.262 124.352 313.262 125.398 c 313.262 126.555 313.59 127.43
 314.371 128.336 c 314.746 128.773 314.98 128.961 315.449 129.258 c 315.543
 129.102 l 314.84 128.539 314.59 128.227 314.34 127.555 c 314.121 126.961
 314.027 126.289 314.027 125.383 c 314.027 124.43 314.137 123.695 314.387
 123.148 c 314.637 122.586 314.902 122.258 315.543 121.742 c h
315.465 121.602 m f
319.387 126.258 m 318.965 126.898 318.637 127.102 318.137 127.102 c 317.309
 127.102 316.746 126.383 316.746 125.352 c 316.746 124.43 317.23 123.805
 317.965 123.805 c 318.277 123.805 318.402 123.883 318.48 124.227 c 318.543
 124.43 l 318.621 124.68 318.777 124.836 318.965 124.836 c 319.199 124.836
 319.387 124.664 319.387 124.461 c 319.387 123.961 318.762 123.539 318.012
 123.539 c 317.574 123.539 317.121 123.711 316.746 124.039 c 316.293 124.43
 316.043 125.039 316.043 125.758 c 316.043 126.914 316.762 127.758 317.746
 127.758 c 318.152 127.758 318.512 127.617 318.84 127.336 c 319.074 127.133
 319.246 126.867 319.512 126.352 c h
319.387 126.258 m f
320.129 129.258 m 320.785 128.805 321.066 128.586 321.395 128.18 c 322.035
 127.398 322.348 126.492 322.348 125.445 c 322.348 124.305 322.004 123.43
 321.223 122.523 c 320.848 122.086 320.613 121.883 320.16 121.602 c 320.051
 121.742 l 320.77 122.305 321.004 122.617 321.254 123.289 c 321.473 123.898
 321.566 124.57 321.566 125.477 c 321.566 126.414 321.457 127.148 321.207
 127.695 c 320.973 128.258 320.691 128.586 320.051 129.102 c h
320.129 129.258 m f
Q Q
showpage
%%Trailer
end
%%EOF
