%!PS-Adobe-3.0 EPSF-3.0
%%Creator: cairo 1.17.4 (https://cairographics.org)
%%CreationDate: Thu Feb 24 10:48:42 2022
%%Pages: 1
%%DocumentData: Clean7Bit
%%LanguageLevel: 2
%%BoundingBox: 0 0 169 165
%%EndComments
%%BeginProlog
50 dict begin
/q { gsave } bind def
/Q { grestore } bind def
/cm { 6 array astore concat } bind def
/w { setlinewidth } bind def
/J { setlinecap } bind def
/j { setlinejoin } bind def
/M { setmiterlimit } bind def
/d { setdash } bind def
/m { moveto } bind def
/l { lineto } bind def
/c { curveto } bind def
/h { closepath } bind def
/re { exch dup neg 3 1 roll 5 3 roll moveto 0 rlineto
      0 exch rlineto 0 rlineto closepath } bind def
/S { stroke } bind def
/f { fill } bind def
/f* { eofill } bind def
/n { newpath } bind def
/W { clip } bind def
/W* { eoclip } bind def
/BT { } bind def
/ET { } bind def
/BDC { mark 3 1 roll /BDC pdfmark } bind def
/EMC { mark /EMC pdfmark } bind def
/cairo_store_point { /cairo_point_y exch def /cairo_point_x exch def } def
/Tj { show currentpoint cairo_store_point } bind def
/TJ {
  {
    dup
    type /stringtype eq
    { show } { -0.001 mul 0 cairo_font_matrix dtransform rmoveto } ifelse
  } forall
  currentpoint cairo_store_point
} bind def
/cairo_selectfont { cairo_font_matrix aload pop pop pop 0 0 6 array astore
    cairo_font exch selectfont cairo_point_x cairo_point_y moveto } bind def
/Tf { pop /cairo_font exch def /cairo_font_matrix where
      { pop cairo_selectfont } if } bind def
/Td { matrix translate cairo_font_matrix matrix concatmatrix dup
      /cairo_font_matrix exch def dup 4 get exch 5 get cairo_store_point
      /cairo_font where { pop cairo_selectfont } if } bind def
/Tm { 2 copy 8 2 roll 6 array astore /cairo_font_matrix exch def
      cairo_store_point /cairo_font where { pop cairo_selectfont } if } bind def
/g { setgray } bind def
/rg { setrgbcolor } bind def
/d1 { setcachedevice } bind def
/cairo_data_source {
  CairoDataIndex CairoData length lt
    { CairoData CairoDataIndex get /CairoDataIndex CairoDataIndex 1 add def }
    { () } ifelse
} def
/cairo_flush_ascii85_file { cairo_ascii85_file status { cairo_ascii85_file flushfile } if } def
/cairo_image { image cairo_flush_ascii85_file } def
/cairo_imagemask { imagemask cairo_flush_ascii85_file } def
%%EndProlog
%%BeginSetup
%%EndSetup
%%Page: 1 1
%%BeginPageSetup
%%PageBoundingBox: 0 0 169 165
%%EndPageSetup
q 0 0 169 165 rectclip
1 0 0 -1 0 165 cm q
0 g
1.13366 w
0 J
0 j
[] 0.0 d
10 M q 1 0 0 -1 0 0 cm
22.918 -139.117 m 22.918 -139.117 60.062 -139.398 79.605 -138.598 c 84.531
 -138.391 88.945 -138.148 93.805 -137.523 c 98.734 -136.898 103.211 -136.375
 107.965 -134.883 c 113.07 -133.32 117.789 -131.691 122.125 -128.602 c 127.926
 -124.504 132.398 -119.543 136.328 -113.605 c 143.09 -103.363 146.773 -92.605
 150.488 -80.836 c 157.777 -57.789 164.652 -12.141 164.652 -12.141 c S Q
0.567042 w
q 1 0 0 -1 0 0 cm
22.938 -3.062 141.719 -136.047 re S Q
0.398506 w
q 1 0 0 -1 0 0 cm
22.926 -139.125 m 22.926 -134.879 l S Q
q 1 0 0 -1 0 0 cm
51.281 -139.125 m 51.281 -134.879 l S Q
q 1 0 0 -1 0 0 cm
79.633 -139.125 m 79.633 -134.879 l S Q
q 1 0 0 -1 0 0 cm
107.961 -139.125 m 107.961 -134.879 l S Q
q 1 0 0 -1 0 0 cm
136.316 -139.125 m 136.316 -134.879 l S Q
q 1 0 0 -1 0 0 cm
164.668 -139.125 m 164.668 -134.879 l S Q
q 1 0 0 -1 0 0 cm
22.926 -139.125 m 22.926 -134.879 l S Q
q 1 0 0 -1 0 0 cm
22.953 -139.117 m 27.191 -139.117 l S Q
0.398507 w
q 1 0 0 -1 0 0 cm
22.934 -116.445 m 27.188 -116.445 l S Q
0.398506 w
q 1 0 0 -1 0 0 cm
22.949 -93.773 m 27.191 -93.773 l S Q
0.398505 w
q 1 0 0 -1 0 0 cm
22.93 -71.098 m 27.184 -71.098 l S Q
0.398504 w
q 1 0 0 -1 0 0 cm
22.91 -48.426 m 27.188 -48.426 l S Q
0.398506 w
q 1 0 0 -1 0 0 cm
22.945 -25.734 m 27.207 -25.734 l S Q
0.398507 w
q 1 0 0 -1 0 0 cm
22.938 -3.062 m 27.184 -3.062 l S Q
0.398506 w
q 1 0 0 -1 0 0 cm
22.953 -139.117 m 27.191 -139.117 l S Q
0.398507 w
q 1 0 0 -1 0 0 cm
22.938 -3.062 m 22.938 -7.305 l S Q
q 1 0 0 -1 0 0 cm
51.273 -3.062 m 51.273 -7.305 l S Q
q 1 0 0 -1 0 0 cm
79.609 -3.062 m 79.609 -7.305 l S Q
q 1 0 0 -1 0 0 cm
107.98 -3.062 m 107.98 -7.305 l S Q
q 1 0 0 -1 0 0 cm
136.32 -3.062 m 136.32 -7.305 l S Q
q 1 0 0 -1 0 0 cm
164.656 -3.062 m 164.656 -7.305 l S Q
q 1 0 0 -1 0 0 cm
22.938 -3.062 m 22.938 -7.305 l S Q
0.398506 w
q 1 0 0 -1 0 0 cm
164.656 -139.117 m 160.418 -139.117 l S Q
0.398507 w
q 1 0 0 -1 0 0 cm
164.676 -116.445 m 160.418 -116.445 l S Q
0.398506 w
q 1 0 0 -1 0 0 cm
164.648 -93.773 m 160.41 -93.773 l S Q
0.398505 w
q 1 0 0 -1 0 0 cm
164.66 -71.098 m 160.395 -71.098 l S Q
0.398504 w
q 1 0 0 -1 0 0 cm
164.664 -48.426 m 160.422 -48.426 l S Q
0.398506 w
q 1 0 0 -1 0 0 cm
164.684 -25.734 m 160.426 -25.734 l S Q
0.398507 w
q 1 0 0 -1 0 0 cm
164.656 -3.062 m 160.41 -3.062 l S Q
0.398506 w
q 1 0 0 -1 0 0 cm
164.656 -139.117 m 160.418 -139.117 l S Q
24.887 145.652 m 24.887 144.043 24.152 142.59 22.902 142.59 c 21.637 142.59
 20.902 144.043 20.902 145.652 c 20.902 147.277 21.59 148.715 22.902 148.715
 c 24.105 148.715 24.887 147.277 24.887 145.652 c h
24.027 145.652 m 24.027 146.949 23.902 148.465 22.902 148.465 c 21.949 
148.465 21.762 146.949 21.762 145.652 c 21.762 144.574 21.887 142.824 22.902
 142.824 c 23.902 142.824 24.027 144.574 24.027 145.652 c h
24.027 145.652 m f
53.359 147.449 m 53.203 147.418 l 52.938 147.871 52.719 147.949 52.281 
147.949 c 50.219 147.949 l 51.641 146.652 52.938 145.48 52.938 144.168 c
 52.938 143.246 52.141 142.59 51.266 142.59 c 50.406 142.59 49.719 143.059
 49.453 144.277 c 49.656 144.277 l 49.906 143.777 50.25 143.262 50.938 143.262
 c 51.719 143.262 52.156 143.855 52.156 144.527 c 52.156 145.496 51.125 
146.918 49.359 148.465 c 49.359 148.605 l 52.891 148.605 l h
53.359 147.449 m f
81.66 147.121 m 81.66 146.512 l 80.785 146.512 l 80.785 142.59 l 80.348
 142.59 l 77.754 146.496 l 77.754 147.121 l 80.051 147.121 l 80.051 148.605
 l 80.785 148.605 l 80.785 147.121 l h
80.051 146.512 m 78.113 146.512 l 80.035 143.527 l 80.051 143.527 l h
80.051 146.512 m f
109.918 146.59 m 109.918 145.605 109.215 144.871 108.324 144.871 c 107.871
 144.871 107.496 145.012 107.105 145.324 c 107.496 143.73 108.668 142.73
 109.793 142.715 c 109.793 142.559 l 107.027 142.559 106.152 144.902 106.152
 146.23 c 106.152 147.652 106.98 148.715 108.09 148.715 c 109.105 148.715
 109.918 147.762 109.918 146.59 c h
109.152 147.043 m 109.152 147.871 108.777 148.449 108.184 148.449 c 107.262
 148.449 106.98 147.105 106.98 146.387 c 106.98 146.152 107.012 145.902 
107.059 145.605 c 107.449 145.355 107.762 145.246 108.074 145.246 c 108.98
 145.246 109.152 146.293 109.152 147.043 c h
109.152 147.043 m f
138.02 147.23 m 138.02 146.59 137.738 146.105 136.645 145.293 c 137.332
 144.918 137.863 144.496 137.863 143.84 c 137.863 143.152 137.223 142.559
 136.27 142.559 c 135.426 142.559 134.629 143.105 134.629 143.949 c 134.629
 144.605 134.973 144.996 135.738 145.605 c 134.879 146.262 134.566 146.59
 134.566 147.262 c 134.566 148.012 135.238 148.715 136.285 148.715 c 137.504
 148.715 138.02 147.887 138.02 147.23 c h
137.254 143.824 m 137.254 144.465 136.879 144.809 136.395 145.137 c 135.801
 144.715 135.285 144.246 135.285 143.73 c 135.285 143.246 135.629 142.824
 136.238 142.824 c 136.91 142.824 137.254 143.246 137.254 143.824 c h
137.379 147.48 m 137.379 148.059 136.941 148.449 136.363 148.449 c 135.676
 148.449 135.238 147.902 135.238 147.168 c 135.238 146.496 135.566 146.105
 135.973 145.762 c 136.957 146.512 137.379 146.887 137.379 147.48 c h
137.379 147.48 m f
163.695 148.605 m 163.695 148.465 l 163.102 148.465 162.883 148.48 162.883
 147.309 c 162.883 147.293 162.883 142.559 162.883 142.559 c 162.758 142.559
 l 161.227 143.293 l 161.273 143.434 l 161.602 143.293 161.68 143.262 161.805
 143.262 c 162.07 143.262 162.117 143.496 162.117 143.809 c 162.117 147.309
 l 162.117 148.48 161.898 148.449 161.305 148.465 c 161.305 148.605 l h
163.695 148.605 m f
168.887 145.652 m 168.887 144.043 168.152 142.59 166.902 142.59 c 165.637
 142.59 164.902 144.043 164.902 145.652 c 164.902 147.277 165.59 148.715
 166.902 148.715 c 168.105 148.715 168.887 147.277 168.887 145.652 c h
168.027 145.652 m 168.027 146.949 167.902 148.465 166.902 148.465 c 165.949
 148.465 165.762 146.949 165.762 145.652 c 165.762 144.574 165.887 142.824
 166.902 142.824 c 167.902 142.824 168.027 144.574 168.027 145.652 c h
168.027 145.652 m f
19.246 139.176 m 19.246 137.566 18.512 136.113 17.262 136.113 c 15.996 
136.113 15.262 137.566 15.262 139.176 c 15.262 140.801 15.949 142.238 17.262
 142.238 c 18.465 142.238 19.246 140.801 19.246 139.176 c h
18.387 139.176 m 18.387 140.473 18.262 141.988 17.262 141.988 c 16.309 
141.988 16.121 140.473 16.121 139.176 c 16.121 138.098 16.246 136.348 17.262
 136.348 c 18.262 136.348 18.387 138.098 18.387 139.176 c h
18.387 139.176 m f
18.496 119.445 m 18.496 119.305 l 17.902 119.305 17.684 119.32 17.684 118.148
 c 17.684 118.133 17.684 113.398 17.684 113.398 c 17.559 113.398 l 16.027
 114.133 l 16.074 114.273 l 16.402 114.133 16.48 114.102 16.605 114.102 
c 16.871 114.102 16.918 114.336 16.918 114.648 c 16.918 118.148 l 16.918
 119.32 16.699 119.289 16.105 119.305 c 16.105 119.445 l h
18.496 119.445 m f
19.277 95.609 m 19.121 95.578 l 18.855 96.031 18.637 96.109 18.199 96.109
 c 16.137 96.109 l 17.559 94.812 18.855 93.641 18.855 92.328 c 18.855 91.406
 18.059 90.75 17.184 90.75 c 16.324 90.75 15.637 91.219 15.371 92.438 c 
15.574 92.438 l 15.824 91.938 16.168 91.422 16.855 91.422 c 17.637 91.422
 18.074 92.016 18.074 92.688 c 18.074 93.656 17.043 95.078 15.277 96.625
 c 15.277 96.766 l 18.809 96.766 l h
19.277 95.609 m f
18.902 72.148 m 18.902 71.211 18.355 70.805 17.824 70.586 c 18.402 70.148
 18.59 69.742 18.59 69.258 c 18.59 68.742 18.168 68.07 17.199 68.07 c 16.496
 68.07 15.824 68.461 15.527 69.43 c 15.668 69.461 l 15.855 69.102 16.215
 68.648 16.871 68.648 c 17.512 68.648 17.887 69.086 17.887 69.586 c 17.887
 70.289 17.34 70.789 16.527 70.977 c 16.512 71.164 l 17.902 71.102 18.246
 72.008 18.246 72.57 c 18.246 73.242 17.762 73.852 17.121 73.852 c 16.543
 73.852 16.293 73.352 15.809 73.352 c 15.652 73.352 15.465 73.508 15.465
 73.711 c 15.465 74.086 16.027 74.195 16.434 74.195 c 17.855 74.195 18.902
 73.383 18.902 72.148 c h
18.902 72.148 m f
19.262 49.922 m 19.262 49.312 l 18.387 49.312 l 18.387 45.391 l 17.949 
45.391 l 15.355 49.297 l 15.355 49.922 l 17.652 49.922 l 17.652 51.406 l
 18.387 51.406 l 18.387 49.922 l h
17.652 49.312 m 15.715 49.312 l 17.637 46.328 l 17.652 46.328 l h
17.652 49.312 m f
19.184 22.805 m 16.715 22.805 l 15.605 25.352 l 15.746 25.32 15.887 25.289
 16.059 25.289 c 17.012 25.289 18.309 25.789 18.309 26.961 c 18.309 27.867
 17.652 28.445 17.027 28.445 c 16.48 28.445 16.277 27.945 15.762 27.945 
c 15.512 27.945 15.434 28.164 15.434 28.273 c 15.434 28.586 15.871 28.836
 16.496 28.836 c 17.84 28.836 18.902 27.852 18.902 26.648 c 18.902 25.227
 17.777 24.742 16.559 24.711 c 16.449 24.711 16.324 24.727 16.215 24.742
 c 16.777 23.477 l 18.871 23.461 l h
19.184 22.805 m f
19.199 4.031 m 19.199 3.047 18.496 2.312 17.605 2.312 c 17.152 2.312 16.777
 2.453 16.387 2.766 c 16.777 1.172 17.949 0.172 19.074 0.156 c 19.074 0 
l 16.309 0 15.434 2.344 15.434 3.672 c 15.434 5.094 16.262 6.156 17.371 
6.156 c 18.387 6.156 19.199 5.203 19.199 4.031 c h
18.434 4.484 m 18.434 5.312 18.059 5.891 17.465 5.891 c 16.543 5.891 16.262
 4.547 16.262 3.828 c 16.262 3.594 16.293 3.344 16.34 3.047 c 16.73 2.797
 17.043 2.688 17.355 2.688 c 18.262 2.688 18.434 3.734 18.434 4.484 c h
18.434 4.484 m f
1 g
71.031 138.898 m 71.031 137.723 70.078 136.77 68.902 136.77 c 67.727 136.77
 66.773 137.723 66.773 138.898 c 66.773 140.074 67.727 141.027 68.902 141.027
 c 70.078 141.027 71.031 140.074 71.031 138.898 c f
0 g
71.031 138.898 m 71.031 137.723 70.078 136.77 68.902 136.77 c 67.727 136.77
 66.773 137.723 66.773 138.898 c 66.773 140.074 67.727 141.027 68.902 141.027
 c 70.078 141.027 71.031 140.074 71.031 138.898 c h
71.031 138.898 m 70.82 138.898 l 70.82 137.84 69.961 136.98 68.902 136.98
 c 67.844 136.98 66.984 137.84 66.984 138.898 c 66.984 139.957 67.844 140.816
 68.902 140.816 c 69.961 140.816 70.82 139.957 70.82 138.898 c f
1 g
81.031 138.598 m 81.031 137.422 80.078 136.469 78.902 136.469 c 77.727 
136.469 76.773 137.422 76.773 138.598 c 76.773 139.773 77.727 140.727 78.902
 140.727 c 80.078 140.727 81.031 139.773 81.031 138.598 c f
0 g
81.031 138.598 m 81.031 137.422 80.078 136.469 78.902 136.469 c 77.727 
136.469 76.773 137.422 76.773 138.598 c 76.773 139.773 77.727 140.727 78.902
 140.727 c 80.078 140.727 81.031 139.773 81.031 138.598 c h
81.031 138.598 m 80.82 138.598 l 80.82 137.539 79.961 136.68 78.902 136.68
 c 77.844 136.68 76.984 137.539 76.984 138.598 c 76.984 139.656 77.844 140.516
 78.902 140.516 c 79.961 140.516 80.82 139.656 80.82 138.598 c f
1 g
96.531 137.496 m 96.531 136.32 95.578 135.367 94.402 135.367 c 93.227 135.367
 92.273 136.32 92.273 137.496 c 92.273 138.672 93.227 139.625 94.402 139.625
 c 95.578 139.625 96.531 138.672 96.531 137.496 c f
0 g
96.531 137.496 m 96.531 136.32 95.578 135.367 94.402 135.367 c 93.227 135.367
 92.273 136.32 92.273 137.496 c 92.273 138.672 93.227 139.625 94.402 139.625
 c 95.578 139.625 96.531 138.672 96.531 137.496 c h
96.531 137.496 m 96.32 137.496 l 96.32 136.438 95.461 135.578 94.402 135.578
 c 93.344 135.578 92.484 136.438 92.484 137.496 c 92.484 138.555 93.344 
139.414 94.402 139.414 c 95.461 139.414 96.32 138.555 96.32 137.496 c f
1 g
101.031 136.695 m 101.031 135.52 100.078 134.566 98.902 134.566 c 97.727
 134.566 96.773 135.52 96.773 136.695 c 96.773 137.871 97.727 138.824 98.902
 138.824 c 100.078 138.824 101.031 137.871 101.031 136.695 c f
0 g
101.031 136.695 m 101.031 135.52 100.078 134.566 98.902 134.566 c 97.727
 134.566 96.773 135.52 96.773 136.695 c 96.773 137.871 97.727 138.824 98.902
 138.824 c 100.078 138.824 101.031 137.871 101.031 136.695 c h
101.031 136.695 m 100.82 136.695 l 100.82 135.637 99.961 134.777 98.902
 134.777 c 97.844 134.777 96.984 135.637 96.984 136.695 c 96.984 137.754
 97.844 138.613 98.902 138.613 c 99.961 138.613 100.82 137.754 100.82 136.695
 c f
1 g
110.43 134.598 m 110.43 133.422 109.477 132.469 108.301 132.469 c 107.125
 132.469 106.172 133.422 106.172 134.598 c 106.172 135.773 107.125 136.727
 108.301 136.727 c 109.477 136.727 110.43 135.773 110.43 134.598 c f
0 g
110.43 134.598 m 110.43 133.422 109.477 132.469 108.301 132.469 c 107.125
 132.469 106.172 133.422 106.172 134.598 c 106.172 135.773 107.125 136.727
 108.301 136.727 c 109.477 136.727 110.43 135.773 110.43 134.598 c h
110.43 134.598 m 110.219 134.598 l 110.219 133.539 109.359 132.68 108.301
 132.68 c 107.242 132.68 106.383 133.539 106.383 134.598 c 106.383 135.656
 107.242 136.516 108.301 136.516 c 109.359 136.516 110.219 135.656 110.219
 134.598 c f
1 g
113.93 133.898 m 113.93 132.723 112.977 131.77 111.801 131.77 c 110.625
 131.77 109.672 132.723 109.672 133.898 c 109.672 135.074 110.625 136.027
 111.801 136.027 c 112.977 136.027 113.93 135.074 113.93 133.898 c f
0 g
113.93 133.898 m 113.93 132.723 112.977 131.77 111.801 131.77 c 110.625
 131.77 109.672 132.723 109.672 133.898 c 109.672 135.074 110.625 136.027
 111.801 136.027 c 112.977 136.027 113.93 135.074 113.93 133.898 c h
113.93 133.898 m 113.719 133.898 l 113.719 132.84 112.859 131.98 111.801
 131.98 c 110.742 131.98 109.883 132.84 109.883 133.898 c 109.883 134.957
 110.742 135.816 111.801 135.816 c 112.859 135.816 113.719 134.957 113.719
 133.898 c f
1 g
116.633 132.898 m 116.633 131.723 115.68 130.77 114.504 130.77 c 113.328
 130.77 112.375 131.723 112.375 132.898 c 112.375 134.074 113.328 135.027
 114.504 135.027 c 115.68 135.027 116.633 134.074 116.633 132.898 c f
0 g
116.633 132.898 m 116.633 131.723 115.68 130.77 114.504 130.77 c 113.328
 130.77 112.375 131.723 112.375 132.898 c 112.375 134.074 113.328 135.027
 114.504 135.027 c 115.68 135.027 116.633 134.074 116.633 132.898 c h
116.633 132.898 m 116.422 132.898 l 116.422 131.84 115.562 130.98 114.504
 130.98 c 113.445 130.98 112.586 131.84 112.586 132.898 c 112.586 133.957
 113.445 134.816 114.504 134.816 c 115.562 134.816 116.422 133.957 116.422
 132.898 c f
1 g
126.43 127.496 m 126.43 126.32 125.477 125.367 124.301 125.367 c 123.125
 125.367 122.172 126.32 122.172 127.496 c 122.172 128.672 123.125 129.625
 124.301 129.625 c 125.477 129.625 126.43 128.672 126.43 127.496 c f
0 g
126.43 127.496 m 126.43 126.32 125.477 125.367 124.301 125.367 c 123.125
 125.367 122.172 126.32 122.172 127.496 c 122.172 128.672 123.125 129.625
 124.301 129.625 c 125.477 129.625 126.43 128.672 126.43 127.496 c h
126.43 127.496 m 126.219 127.496 l 126.219 126.438 125.359 125.578 124.301
 125.578 c 123.242 125.578 122.383 126.438 122.383 127.496 c 122.383 128.555
 123.242 129.414 124.301 129.414 c 125.359 129.414 126.219 128.555 126.219
 127.496 c f
1 g
140.73 108.898 m 140.73 107.723 139.777 106.77 138.602 106.77 c 137.426
 106.77 136.473 107.723 136.473 108.898 c 136.473 110.074 137.426 111.027
 138.602 111.027 c 139.777 111.027 140.73 110.074 140.73 108.898 c f
0 g
140.73 108.898 m 140.73 107.723 139.777 106.77 138.602 106.77 c 137.426
 106.77 136.473 107.723 136.473 108.898 c 136.473 110.074 137.426 111.027
 138.602 111.027 c 139.777 111.027 140.73 110.074 140.73 108.898 c h
140.73 108.898 m 140.52 108.898 l 140.52 107.84 139.66 106.98 138.602 106.98
 c 137.543 106.98 136.684 107.84 136.684 108.898 c 136.684 109.957 137.543
 110.816 138.602 110.816 c 139.66 110.816 140.52 109.957 140.52 108.898 
c f
1 g
151.93 84.098 m 151.93 82.922 150.977 81.969 149.801 81.969 c 148.625 81.969
 147.672 82.922 147.672 84.098 c 147.672 85.273 148.625 86.227 149.801 86.227
 c 150.977 86.227 151.93 85.273 151.93 84.098 c f
0 g
151.93 84.098 m 151.93 82.922 150.977 81.969 149.801 81.969 c 148.625 81.969
 147.672 82.922 147.672 84.098 c 147.672 85.273 148.625 86.227 149.801 86.227
 c 150.977 86.227 151.93 85.273 151.93 84.098 c h
151.93 84.098 m 151.719 84.098 l 151.719 83.039 150.859 82.18 149.801 82.18
 c 148.742 82.18 147.883 83.039 147.883 84.098 c 147.883 85.156 148.742 
86.016 149.801 86.016 c 150.859 86.016 151.719 85.156 151.719 84.098 c f
1 g
166.23 17.797 m 166.23 16.621 165.277 15.668 164.102 15.668 c 162.926 15.668
 161.973 16.621 161.973 17.797 c 161.973 18.973 162.926 19.926 164.102 19.926
 c 165.277 19.926 166.23 18.973 166.23 17.797 c f
0 g
166.23 17.797 m 166.23 16.621 165.277 15.668 164.102 15.668 c 162.926 15.668
 161.973 16.621 161.973 17.797 c 161.973 18.973 162.926 19.926 164.102 19.926
 c 165.277 19.926 166.23 18.973 166.23 17.797 c h
166.23 17.797 m 166.02 17.797 l 166.02 16.738 165.16 15.879 164.102 15.879
 c 163.043 15.879 162.184 16.738 162.184 17.797 c 162.184 18.855 163.043
 19.715 164.102 19.715 c 165.16 19.715 166.02 18.855 166.02 17.797 c f
71.137 161.125 m 71.012 161.031 l 70.824 161.266 70.496 161.703 70.309 
161.703 c 70.23 161.703 70.184 161.656 70.184 161.547 c 70.184 161.453 70.262
 161.234 70.309 161.062 c 70.309 161.062 70.84 159.109 70.84 159.062 c 70.902
 158.875 70.934 158.688 70.934 158.562 c 70.934 158.109 70.652 157.953 70.434
 157.953 c 69.699 157.953 68.871 158.922 68.293 159.953 c 68.293 159.953
 68.621 158.906 68.621 158.547 c 68.621 158.312 68.527 157.953 68.105 157.953
 c 67.277 157.953 66.246 159.547 66.027 159.953 c 66.559 157.953 l 66.559
 157.953 65.34 158.188 65.074 158.203 c 65.074 158.359 l 65.402 158.359 
65.668 158.328 65.668 158.688 c 65.668 158.859 65.59 159.141 65.512 159.422
 c 65.512 159.422 64.793 161.812 64.746 162.047 c 65.434 162.047 l 65.59
 161.453 l 66.105 159.516 67.355 158.453 67.699 158.453 c 67.84 158.453 
67.934 158.5 67.934 158.703 c 67.934 158.844 67.824 159.25 67.762 159.516
 c 67.762 159.516 67.137 161.734 67.059 162.047 c 67.73 162.047 l 67.887
 161.453 l 68.434 159.438 69.652 158.453 70.012 158.453 c 70.137 158.453
 70.23 158.547 70.23 158.688 c 70.23 158.781 70.137 159.188 70.043 159.516
 c 69.684 160.859 l 69.59 161.188 69.512 161.594 69.512 161.734 c 69.512
 161.969 69.637 162.156 69.84 162.156 c 70.293 162.156 70.777 161.641 71.137
 161.125 c h
71.137 161.125 m f
71.965 164.328 m 73.902 164.328 l 73.902 164.203 l 73.387 164.156 73.309
 164.062 73.293 163.562 c 73.293 162.141 l 75.402 162.141 l 75.402 163.484
 l 75.402 164.078 75.34 164.156 74.793 164.203 c 74.793 164.328 l 76.73 
164.328 l 76.73 164.203 l 76.215 164.156 76.121 164.062 76.121 163.562 c
 76.121 160.469 l 76.121 159.969 76.199 159.891 76.73 159.844 c 76.73 159.719
 l 74.793 159.719 l 74.793 159.844 l 75.324 159.891 75.402 159.953 75.402
 160.469 c 75.402 161.828 l 73.293 161.828 l 73.293 160.469 l 73.309 159.969
 73.371 159.891 73.902 159.844 c 73.902 159.719 l 71.965 159.719 l 71.965
 159.844 l 72.512 159.891 72.574 159.953 72.59 160.469 c 72.59 163.484 l
 72.574 164.078 72.512 164.156 71.965 164.203 c h
71.965 164.328 m f
81.207 161.188 m 81.145 159.625 l 80.988 159.625 l 80.941 159.766 80.832
 159.844 80.691 159.844 c 80.629 159.844 80.535 159.828 80.426 159.797 c
 80.082 159.672 79.738 159.625 79.41 159.625 c 78.832 159.625 78.254 159.828
 77.832 160.219 c 77.332 160.656 77.066 161.297 77.066 162.062 c 77.066 
163.484 78.004 164.422 79.395 164.422 c 80.176 164.422 80.879 164.109 81.285
 163.547 c 81.16 163.422 l 80.66 163.906 80.191 164.125 79.613 164.125 c
 79.176 164.125 78.785 163.984 78.488 163.719 c 78.098 163.375 77.879 162.75
 77.879 161.969 c 77.879 160.703 78.535 159.891 79.535 159.891 c 79.941 
159.891 80.301 160.047 80.582 160.312 c 80.801 160.531 80.91 160.734 81.035
 161.188 c h
81.207 161.188 m f
81.699 164.328 m 83.355 164.328 l 83.355 164.219 l 82.918 164.203 82.84
 164.141 82.824 163.75 c 82.824 159.578 l 82.793 159.562 l 82.449 159.688
 82.184 159.75 81.684 159.875 c 81.684 159.984 l 81.73 159.984 l 81.809 
159.984 81.887 159.969 81.949 159.969 c 82.168 159.969 82.246 160.062 82.246
 160.391 c 82.246 163.719 l 82.23 164.094 82.137 164.203 81.699 164.219 
c h
81.699 164.328 m f
87.863 155.609 m 87.426 155.609 l 84.316 163.969 l 84.77 163.969 l h
87.863 155.609 m f
88.539 162.047 m 90.539 162.047 l 90.539 161.906 l 90.07 161.906 89.93 
161.812 89.93 161.453 c 89.93 158.922 l 89.93 158.906 89.992 158.812 90.055
 158.75 c 90.289 158.547 90.664 158.391 90.977 158.391 c 91.383 158.391 
91.57 158.703 91.57 159.328 c 91.57 161.281 l 91.555 161.781 91.461 161.891
 90.961 161.906 c 90.961 162.047 l 92.977 162.047 l 92.977 161.906 l 92.477
 161.906 92.352 161.766 92.32 161.188 c 92.32 158.938 l 92.602 158.547 92.883
 158.391 93.305 158.391 c 93.82 158.391 93.977 158.625 93.977 159.375 c 
93.977 161.266 l 93.961 161.797 93.898 161.859 93.383 161.906 c 93.383 162.047
 l 95.352 162.047 l 95.352 161.906 l 95.117 161.891 l 94.836 161.844 94.727
 161.719 94.727 161.359 c 94.727 159.516 l 94.727 158.453 94.383 157.922
 93.695 157.922 c 93.164 157.922 92.711 158.156 92.227 158.672 c 92.07 158.156
 91.758 157.922 91.273 157.922 c 90.867 157.922 90.633 158.031 89.883 158.609
 c 89.883 157.938 l 89.82 157.922 l 89.352 158.094 89.039 158.188 88.57 
158.328 c 88.57 158.484 l 88.68 158.453 88.758 158.438 88.852 158.438 c 
89.086 158.438 89.164 158.578 89.164 159.016 c 89.164 161.281 l 89.148 161.781
 89.039 161.906 88.539 161.906 c h
88.539 162.047 m f
97.609 157.922 m 96.422 157.922 95.625 158.781 95.625 160.016 c 95.625 
161.234 96.453 162.141 97.578 162.141 c 98.719 162.141 99.578 161.188 99.578
 159.953 c 99.578 158.766 98.75 157.922 97.609 157.922 c h
97.484 158.172 m 98.234 158.172 98.766 159.031 98.766 160.266 c 98.766 
161.281 98.359 161.891 97.688 161.891 c 97.344 161.891 97.016 161.672 96.828
 161.312 c 96.562 160.844 96.422 160.219 96.422 159.578 c 96.422 158.734
 96.844 158.172 97.484 158.172 c h
97.484 158.172 m f
99.984 162.047 m 102.109 162.047 l 102.109 161.906 l 101.531 161.891 101.438
 161.797 101.422 161.297 c 101.422 155.938 l 101.391 155.922 l 100.938 156.062
 100.609 156.156 99.969 156.312 c 99.969 156.453 l 100.016 156.453 l 100.125
 156.453 100.234 156.438 100.297 156.438 c 100.594 156.438 100.672 156.562
 100.672 156.984 c 100.672 161.266 l 100.672 161.75 100.547 161.875 99.984
 161.906 c h
99.984 162.047 m f
103.941 162.047 m 106.035 162.047 l 106.035 161.906 l 105.863 161.906 l
 105.488 161.875 105.379 161.781 105.363 161.453 c 105.363 159.797 l 106.629
 161.469 l 106.66 161.516 106.691 161.562 106.707 161.594 c 106.785 161.672
 106.816 161.734 106.816 161.781 c 106.816 161.859 106.738 161.906 106.629
 161.906 c 106.457 161.906 l 106.457 162.047 l 108.41 162.047 l 108.41 161.906
 l 108.02 161.891 107.738 161.719 107.363 161.25 c 105.988 159.516 l 106.254
 159.281 l 107.363 158.266 107.613 158.125 108.191 158.141 c 108.191 158.016
 l 106.348 158.016 l 106.348 158.141 l 106.707 158.141 106.801 158.188 106.801
 158.297 c 106.801 158.375 106.723 158.5 106.598 158.609 c 105.363 159.703
 l 105.363 155.938 l 105.332 155.922 l 104.988 156.031 104.723 156.109 104.207
 156.25 c 103.941 156.312 l 103.941 156.453 l 104.051 156.453 104.145 156.438
 104.223 156.438 c 104.535 156.438 104.613 156.562 104.613 156.984 c 104.613
 161.312 l 104.598 161.781 104.582 161.812 103.941 161.906 c h
103.941 162.047 m f
112.535 158.562 m 112.535 158.219 l 111.848 158.219 l 111.66 158.219 111.52
 158.188 111.348 158.125 c 111.145 158.062 l 110.91 157.969 110.66 157.922
 110.426 157.922 c 109.598 157.922 108.941 158.562 108.941 159.391 c 108.941
 159.953 109.176 160.281 109.77 160.578 c 109.535 160.797 l 109.348 160.984
 109.238 161.078 109.207 161.109 c 109.02 161.312 108.973 161.406 108.973
 161.562 c 108.973 161.766 109.066 161.859 109.441 162.031 c 108.801 162.5
 108.566 162.797 108.566 163.125 c 108.566 163.609 109.254 164 110.113 164
 c 110.785 164 111.488 163.766 111.957 163.391 c 112.301 163.109 112.457
 162.828 112.457 162.484 c 112.457 161.938 112.035 161.562 111.363 161.531
 c 110.207 161.469 l 109.723 161.453 109.504 161.375 109.504 161.234 c 109.504
 161.047 109.801 160.734 110.051 160.672 c 110.363 160.688 110.535 160.703
 110.566 160.703 c 110.895 160.703 111.254 160.578 111.52 160.328 c 111.816
 160.078 111.957 159.766 111.957 159.328 c 111.957 159.062 111.91 158.859
 111.785 158.562 c h
109.629 162.062 m 109.941 162.125 110.645 162.188 111.098 162.188 c 111.91
 162.188 112.207 162.297 112.207 162.625 c 112.207 163.141 111.52 163.484
 110.504 163.484 c 109.707 163.484 109.191 163.234 109.191 162.844 c 109.191
 162.625 109.27 162.5 109.629 162.062 c h
109.676 159.016 m 109.676 158.484 109.926 158.172 110.348 158.172 c 110.629
 158.172 110.848 158.328 111.004 158.594 c 111.176 158.906 111.27 159.312
 111.27 159.672 c 111.27 160.172 111.02 160.484 110.598 160.484 c 110.051
 160.484 109.676 159.906 109.676 159.047 c h
109.676 159.016 m f
113.18 156.57 4.703 0.438 re f
121.434 158.805 m 121.434 158.617 l 120.902 158.617 120.73 158.617 120.73
 157.773 c 120.73 157.758 120.73 154.102 120.73 154.102 c 120.559 154.102
 l 119.215 154.68 l 119.293 154.867 l 119.605 154.742 119.668 154.727 119.762
 154.727 c 119.965 154.727 119.98 154.898 119.98 155.102 c 119.98 157.773
 l 119.98 158.617 119.824 158.602 119.293 158.617 c 119.293 158.805 l h
121.434 158.805 m f
4.992 88.465 m 4.289 88.465 3.82 88.777 3.82 89.449 c 3.82 90.043 4.242
 90.496 4.805 90.902 c 3.82 90.59 l 3.82 90.59 4.055 91.793 4.07 92.059 
c 4.227 92.059 l 4.227 91.73 4.195 91.465 4.555 91.465 c 4.727 91.465 5.117
 91.574 5.336 91.637 c 9.07 92.699 l 9.414 92.793 9.664 92.949 9.664 93.387
 c 9.82 93.418 l 9.82 91.449 l 9.664 91.418 l 9.664 91.762 9.648 92.059 
9.398 92.059 c 9.32 92.059 9.227 92.043 9.055 91.996 c 7.805 91.684 l 7.945
 91.512 8.023 91.246 8.023 91.027 c 8.023 89.949 6.492 88.465 4.992 88.465
 c h
5.086 89.23 m 6.258 89.23 7.82 90.215 7.82 91.059 c 7.82 91.262 7.742 91.449
 7.57 91.621 c 6.773 91.418 4.242 90.871 4.242 89.715 c 4.242 89.23 4.883
 89.23 5.086 89.23 c h
5.086 89.23 m f
10.191 88.012 m 10.191 86.074 l 10.066 86.074 l 10.02 86.59 9.926 86.668
 9.426 86.684 c 8.004 86.684 l 8.004 84.574 l 9.348 84.574 l 9.941 84.574
 10.02 84.637 10.066 85.184 c 10.191 85.184 l 10.191 83.246 l 10.066 83.246
 l 10.02 83.762 9.926 83.855 9.426 83.855 c 6.332 83.855 l 5.832 83.855 
5.754 83.777 5.707 83.246 c 5.582 83.246 l 5.582 85.184 l 5.707 85.184 l
 5.754 84.652 5.816 84.574 6.332 84.574 c 7.691 84.574 l 7.691 86.684 l 
6.332 86.684 l 5.832 86.668 5.754 86.605 5.707 86.074 c 5.582 86.074 l 5.582
 88.012 l 5.707 88.012 l 5.754 87.465 5.816 87.402 6.332 87.387 c 9.348 
87.387 l 9.941 87.402 10.02 87.465 10.066 88.012 c h
10.191 88.012 m f
7.051 78.77 m 5.488 78.832 l 5.488 78.988 l 5.629 79.035 5.707 79.145 5.707
 79.285 c 5.707 79.348 5.691 79.441 5.66 79.551 c 5.535 79.895 5.488 80.238
 5.488 80.566 c 5.488 81.145 5.691 81.723 6.082 82.145 c 6.52 82.645 7.16
 82.91 7.926 82.91 c 9.348 82.91 10.285 81.973 10.285 80.582 c 10.285 79.801
 9.973 79.098 9.41 78.691 c 9.285 78.816 l 9.77 79.316 9.988 79.785 9.988
 80.363 c 9.988 80.801 9.848 81.191 9.582 81.488 c 9.238 81.879 8.613 82.098
 7.832 82.098 c 6.566 82.098 5.754 81.441 5.754 80.441 c 5.754 80.035 5.91
 79.676 6.176 79.395 c 6.395 79.176 6.598 79.066 7.051 78.941 c h
7.051 78.77 m f
10.191 78.277 m 10.191 76.621 l 10.082 76.621 l 10.066 77.059 10.004 77.137
 9.613 77.152 c 5.441 77.152 l 5.426 77.184 l 5.551 77.527 5.613 77.793 
5.738 78.293 c 5.848 78.293 l 5.848 78.246 l 5.848 78.168 5.832 78.09 5.832
 78.027 c 5.832 77.809 5.926 77.73 6.254 77.73 c 9.582 77.73 l 9.957 77.746
 10.066 77.84 10.082 78.277 c h
10.191 78.277 m f
1.477 72.23 m 1.477 72.668 l 9.836 75.777 l 9.836 75.324 l h
1.477 72.23 m f
7.914 68.812 m 7.773 68.812 l 7.773 69.406 7.789 69.625 6.617 69.625 c 
6.602 69.625 1.867 69.625 1.867 69.625 c 1.867 69.75 l 2.602 71.281 l 2.742
 71.234 l 2.602 70.906 2.57 70.828 2.57 70.703 c 2.57 70.438 2.805 70.391
 3.117 70.391 c 6.617 70.391 l 7.789 70.391 7.758 70.609 7.773 71.203 c 
7.914 71.203 l h
7.914 68.812 m f
4.961 63.621 m 3.352 63.621 1.898 64.355 1.898 65.605 c 1.898 66.871 3.352
 67.605 4.961 67.605 c 6.586 67.605 8.023 66.918 8.023 65.605 c 8.023 64.402
 6.586 63.621 4.961 63.621 c h
4.961 64.48 m 6.258 64.48 7.773 64.605 7.773 65.605 c 7.773 66.559 6.258
 66.746 4.961 66.746 c 3.883 66.746 2.133 66.621 2.133 65.605 c 2.133 64.605
 3.883 64.48 4.961 64.48 c h
4.961 64.48 m f
3.703 59.605 m 3.672 59.824 l 4.031 60.059 4.094 60.246 4.094 60.59 c 4.094
 62.246 l 3.109 61.059 2.219 59.996 1.25 59.996 c 0.516 59.996 0 60.699 
0 61.465 c 0 62.23 0.359 62.84 1.375 63.074 c 1.375 62.824 l 0.984 62.605
 0.594 62.324 0.594 61.746 c 0.594 61.105 1.016 60.746 1.516 60.746 c 2.25
 60.746 3.312 61.637 4.5 63.152 c 4.672 63.152 l 4.672 60.059 l h
3.703 59.605 m f
2.148 57.035 m 2.227 56.363 2.305 56.285 2.961 56.285 c 6.836 56.285 l 
7.602 56.285 7.68 56.348 7.742 57.035 c 7.914 57.035 l 7.914 54.52 l 7.742
 54.52 l 7.727 55.223 7.602 55.348 6.93 55.363 c 5.305 55.363 l 5.32 55.129
 5.336 54.973 5.336 54.738 c 5.336 54.035 5.242 53.566 5.023 53.176 c 4.742
 52.645 4.195 52.316 3.602 52.316 c 3.227 52.316 2.883 52.441 2.617 52.676
 c 2.227 53.035 1.977 53.816 1.977 54.66 c 1.977 57.035 l h
2.617 55.363 m 2.367 55.363 2.305 55.301 2.305 55.066 c 2.305 53.848 2.727
 53.285 3.648 53.285 c 4.523 53.285 4.977 53.816 4.977 54.848 c 4.977 55.035
 4.961 55.16 4.945 55.363 c h
2.617 55.363 m f
7.32 48.289 m 7.445 48.445 7.492 48.555 7.492 48.695 c 7.492 48.898 7.367
 48.961 6.977 48.961 c 5.227 48.961 l 4.758 48.961 4.492 49.008 4.289 49.133
 c 3.961 49.336 3.789 49.727 3.789 50.242 c 3.789 51.086 4.227 51.758 4.789
 51.758 c 4.992 51.758 5.18 51.586 5.18 51.367 c 5.18 51.148 4.992 50.961
 4.805 50.961 c 4.773 50.961 4.727 50.977 4.664 50.977 c 4.57 51.008 4.508
 51.008 4.445 51.008 c 4.195 51.008 4.008 50.727 4.008 50.367 c 4.008 49.93
 4.258 49.68 4.742 49.68 c 5.289 49.68 l 5.836 51.055 5.93 51.211 6.258 
51.602 c 6.445 51.805 6.742 51.93 7.039 51.93 c 7.602 51.93 8.008 51.539
 8.008 50.977 c 8.008 50.586 7.82 50.227 7.352 49.68 c 7.82 49.633 8.008
 49.461 8.008 49.102 c 8.008 48.789 7.898 48.602 7.555 48.289 c h
6.805 49.68 m 7.086 49.68 7.18 49.727 7.289 49.914 c 7.414 50.148 7.477
 50.383 7.477 50.57 c 7.477 50.883 7.18 51.133 6.789 51.133 c 6.758 51.133
 l 6.227 51.133 5.883 50.727 5.508 49.68 c h
6.805 49.68 m f
Q Q
showpage
%%Trailer
end
%%EOF
