<?xml version="1.0" encoding="UTF-8" standalone="no"?>
<svg
   width="169pt"
   height="165pt"
   viewBox="0 0 169 165"
   version="1.2"
   id="svg183"
   xmlns="http://www.w3.org/2000/svg"
   xmlns:svg="http://www.w3.org/2000/svg">
  <defs
     id="defs187" />
  <g
     id="surface1">
    <path
       style="fill:none;stroke-width:11.3366;stroke-linecap:butt;stroke-linejoin:miter;stroke:rgb(0%,0%,0%);stroke-opacity:1;stroke-miterlimit:10;"
       d="M 229.179688 258.828125 C 229.179688 258.828125 600.625 256.015625 796.054688 264.023438 C 845.3125 266.09375 889.453125 268.515625 938.046875 274.765625 C 987.34375 281.015625 1032.109375 286.25 1079.648438 301.171875 C 1130.703125 316.796875 1177.890625 333.085938 1221.25 363.984375 C 1279.257812 404.960938 1323.984375 454.570312 1363.28125 513.945312 C 1430.898438 616.367188 1467.734375 723.945312 1504.882812 841.640625 C 1577.773438 1072.109375 1646.523438 1528.59375 1646.523438 1528.59375 "
       transform="matrix(0.1,0,0,-0.1,0,165)"
       id="path2" />
    <path
       style="fill:none;stroke-width:5.67042;stroke-linecap:butt;stroke-linejoin:miter;stroke:rgb(0%,0%,0%);stroke-opacity:1;stroke-miterlimit:10;"
       d="M 229.375 258.90625 L 1646.5625 258.90625 L 1646.5625 1619.375 L 229.375 1619.375 Z M 229.375 258.90625 "
       transform="matrix(0.1,0,0,-0.1,0,165)"
       id="path4" />
    <path
       style="fill:none;stroke-width:3.98506;stroke-linecap:butt;stroke-linejoin:miter;stroke:rgb(0%,0%,0%);stroke-opacity:1;stroke-miterlimit:10;"
       d="M 229.257812 258.75 L 229.257812 301.210938 "
       transform="matrix(0.1,0,0,-0.1,0,165)"
       id="path6" />
    <path
       style="fill:none;stroke-width:3.98506;stroke-linecap:butt;stroke-linejoin:miter;stroke:rgb(0%,0%,0%);stroke-opacity:1;stroke-miterlimit:10;"
       d="M 512.8125 258.75 L 512.8125 301.210938 "
       transform="matrix(0.1,0,0,-0.1,0,165)"
       id="path8" />
    <path
       style="fill:none;stroke-width:3.98506;stroke-linecap:butt;stroke-linejoin:miter;stroke:rgb(0%,0%,0%);stroke-opacity:1;stroke-miterlimit:10;"
       d="M 796.328125 258.75 L 796.328125 301.210938 "
       transform="matrix(0.1,0,0,-0.1,0,165)"
       id="path10" />
    <path
       style="fill:none;stroke-width:3.98506;stroke-linecap:butt;stroke-linejoin:miter;stroke:rgb(0%,0%,0%);stroke-opacity:1;stroke-miterlimit:10;"
       d="M 1079.609375 258.75 L 1079.609375 301.210938 "
       transform="matrix(0.1,0,0,-0.1,0,165)"
       id="path12" />
    <path
       style="fill:none;stroke-width:3.98506;stroke-linecap:butt;stroke-linejoin:miter;stroke:rgb(0%,0%,0%);stroke-opacity:1;stroke-miterlimit:10;"
       d="M 1363.164062 258.75 L 1363.164062 301.210938 "
       transform="matrix(0.1,0,0,-0.1,0,165)"
       id="path14" />
    <path
       style="fill:none;stroke-width:3.98506;stroke-linecap:butt;stroke-linejoin:miter;stroke:rgb(0%,0%,0%);stroke-opacity:1;stroke-miterlimit:10;"
       d="M 1646.679688 258.75 L 1646.679688 301.210938 "
       transform="matrix(0.1,0,0,-0.1,0,165)"
       id="path16" />
    <path
       style="fill:none;stroke-width:3.98506;stroke-linecap:butt;stroke-linejoin:miter;stroke:rgb(0%,0%,0%);stroke-opacity:1;stroke-miterlimit:10;"
       d="M 229.257812 258.75 L 229.257812 301.210938 "
       transform="matrix(0.1,0,0,-0.1,0,165)"
       id="path18" />
    <path
       style="fill:none;stroke-width:3.98506;stroke-linecap:butt;stroke-linejoin:miter;stroke:rgb(0%,0%,0%);stroke-opacity:1;stroke-miterlimit:10;"
       d="M 229.53125 258.828125 L 271.914062 258.828125 "
       transform="matrix(0.1,0,0,-0.1,0,165)"
       id="path20" />
    <path
       style="fill:none;stroke-width:3.98507;stroke-linecap:butt;stroke-linejoin:miter;stroke:rgb(0%,0%,0%);stroke-opacity:1;stroke-miterlimit:10;"
       d="M 229.335938 485.546875 L 271.875 485.546875 "
       transform="matrix(0.1,0,0,-0.1,0,165)"
       id="path22" />
    <path
       style="fill:none;stroke-width:3.98506;stroke-linecap:butt;stroke-linejoin:miter;stroke:rgb(0%,0%,0%);stroke-opacity:1;stroke-miterlimit:10;"
       d="M 229.492188 712.265625 L 271.914062 712.265625 "
       transform="matrix(0.1,0,0,-0.1,0,165)"
       id="path24" />
    <path
       style="fill:none;stroke-width:3.98505;stroke-linecap:butt;stroke-linejoin:miter;stroke:rgb(0%,0%,0%);stroke-opacity:1;stroke-miterlimit:10;"
       d="M 229.296875 939.023438 L 271.835938 939.023438 "
       transform="matrix(0.1,0,0,-0.1,0,165)"
       id="path26" />
    <path
       style="fill:none;stroke-width:3.98504;stroke-linecap:butt;stroke-linejoin:miter;stroke:rgb(0%,0%,0%);stroke-opacity:1;stroke-miterlimit:10;"
       d="M 229.101562 1165.742188 L 271.875 1165.742188 "
       transform="matrix(0.1,0,0,-0.1,0,165)"
       id="path28" />
    <path
       style="fill:none;stroke-width:3.98506;stroke-linecap:butt;stroke-linejoin:miter;stroke:rgb(0%,0%,0%);stroke-opacity:1;stroke-miterlimit:10;"
       d="M 229.453125 1392.65625 L 272.070312 1392.65625 "
       transform="matrix(0.1,0,0,-0.1,0,165)"
       id="path30" />
    <path
       style="fill:none;stroke-width:3.98507;stroke-linecap:butt;stroke-linejoin:miter;stroke:rgb(0%,0%,0%);stroke-opacity:1;stroke-miterlimit:10;"
       d="M 229.375 1619.375 L 271.835938 1619.375 "
       transform="matrix(0.1,0,0,-0.1,0,165)"
       id="path32" />
    <path
       style="fill:none;stroke-width:3.98506;stroke-linecap:butt;stroke-linejoin:miter;stroke:rgb(0%,0%,0%);stroke-opacity:1;stroke-miterlimit:10;"
       d="M 229.53125 258.828125 L 271.914062 258.828125 "
       transform="matrix(0.1,0,0,-0.1,0,165)"
       id="path34" />
    <path
       style="fill:none;stroke-width:3.98507;stroke-linecap:butt;stroke-linejoin:miter;stroke:rgb(0%,0%,0%);stroke-opacity:1;stroke-miterlimit:10;"
       d="M 229.375 1619.375 L 229.375 1576.953125 "
       transform="matrix(0.1,0,0,-0.1,0,165)"
       id="path36" />
    <path
       style="fill:none;stroke-width:3.98507;stroke-linecap:butt;stroke-linejoin:miter;stroke:rgb(0%,0%,0%);stroke-opacity:1;stroke-miterlimit:10;"
       d="M 512.734375 1619.375 L 512.734375 1576.953125 "
       transform="matrix(0.1,0,0,-0.1,0,165)"
       id="path38" />
    <path
       style="fill:none;stroke-width:3.98507;stroke-linecap:butt;stroke-linejoin:miter;stroke:rgb(0%,0%,0%);stroke-opacity:1;stroke-miterlimit:10;"
       d="M 796.09375 1619.375 L 796.09375 1576.953125 "
       transform="matrix(0.1,0,0,-0.1,0,165)"
       id="path40" />
    <path
       style="fill:none;stroke-width:3.98507;stroke-linecap:butt;stroke-linejoin:miter;stroke:rgb(0%,0%,0%);stroke-opacity:1;stroke-miterlimit:10;"
       d="M 1079.804688 1619.375 L 1079.804688 1576.953125 "
       transform="matrix(0.1,0,0,-0.1,0,165)"
       id="path42" />
    <path
       style="fill:none;stroke-width:3.98507;stroke-linecap:butt;stroke-linejoin:miter;stroke:rgb(0%,0%,0%);stroke-opacity:1;stroke-miterlimit:10;"
       d="M 1363.203125 1619.375 L 1363.203125 1576.953125 "
       transform="matrix(0.1,0,0,-0.1,0,165)"
       id="path44" />
    <path
       style="fill:none;stroke-width:3.98507;stroke-linecap:butt;stroke-linejoin:miter;stroke:rgb(0%,0%,0%);stroke-opacity:1;stroke-miterlimit:10;"
       d="M 1646.5625 1619.375 L 1646.5625 1576.953125 "
       transform="matrix(0.1,0,0,-0.1,0,165)"
       id="path46" />
    <path
       style="fill:none;stroke-width:3.98507;stroke-linecap:butt;stroke-linejoin:miter;stroke:rgb(0%,0%,0%);stroke-opacity:1;stroke-miterlimit:10;"
       d="M 229.375 1619.375 L 229.375 1576.953125 "
       transform="matrix(0.1,0,0,-0.1,0,165)"
       id="path48" />
    <path
       style="fill:none;stroke-width:3.98506;stroke-linecap:butt;stroke-linejoin:miter;stroke:rgb(0%,0%,0%);stroke-opacity:1;stroke-miterlimit:10;"
       d="M 1646.5625 258.828125 L 1604.179688 258.828125 "
       transform="matrix(0.1,0,0,-0.1,0,165)"
       id="path50" />
    <path
       style="fill:none;stroke-width:3.98507;stroke-linecap:butt;stroke-linejoin:miter;stroke:rgb(0%,0%,0%);stroke-opacity:1;stroke-miterlimit:10;"
       d="M 1646.757812 485.546875 L 1604.179688 485.546875 "
       transform="matrix(0.1,0,0,-0.1,0,165)"
       id="path52" />
    <path
       style="fill:none;stroke-width:3.98506;stroke-linecap:butt;stroke-linejoin:miter;stroke:rgb(0%,0%,0%);stroke-opacity:1;stroke-miterlimit:10;"
       d="M 1646.484375 712.265625 L 1604.101562 712.265625 "
       transform="matrix(0.1,0,0,-0.1,0,165)"
       id="path54" />
    <path
       style="fill:none;stroke-width:3.98505;stroke-linecap:butt;stroke-linejoin:miter;stroke:rgb(0%,0%,0%);stroke-opacity:1;stroke-miterlimit:10;"
       d="M 1646.601562 939.023438 L 1603.945312 939.023438 "
       transform="matrix(0.1,0,0,-0.1,0,165)"
       id="path56" />
    <path
       style="fill:none;stroke-width:3.98504;stroke-linecap:butt;stroke-linejoin:miter;stroke:rgb(0%,0%,0%);stroke-opacity:1;stroke-miterlimit:10;"
       d="M 1646.640625 1165.742188 L 1604.21875 1165.742188 "
       transform="matrix(0.1,0,0,-0.1,0,165)"
       id="path58" />
    <path
       style="fill:none;stroke-width:3.98506;stroke-linecap:butt;stroke-linejoin:miter;stroke:rgb(0%,0%,0%);stroke-opacity:1;stroke-miterlimit:10;"
       d="M 1646.835938 1392.65625 L 1604.257812 1392.65625 "
       transform="matrix(0.1,0,0,-0.1,0,165)"
       id="path60" />
    <path
       style="fill:none;stroke-width:3.98507;stroke-linecap:butt;stroke-linejoin:miter;stroke:rgb(0%,0%,0%);stroke-opacity:1;stroke-miterlimit:10;"
       d="M 1646.5625 1619.375 L 1604.101562 1619.375 "
       transform="matrix(0.1,0,0,-0.1,0,165)"
       id="path62" />
    <path
       style="fill:none;stroke-width:3.98506;stroke-linecap:butt;stroke-linejoin:miter;stroke:rgb(0%,0%,0%);stroke-opacity:1;stroke-miterlimit:10;"
       d="M 1646.5625 258.828125 L 1604.179688 258.828125 "
       transform="matrix(0.1,0,0,-0.1,0,165)"
       id="path64" />
    <path
       style=" stroke:none;fill-rule:nonzero;fill:rgb(0%,0%,0%);fill-opacity:1;"
       d="M 24.886719 145.652344 C 24.886719 144.042969 24.152344 142.589844 22.902344 142.589844 C 21.636719 142.589844 20.902344 144.042969 20.902344 145.652344 C 20.902344 147.277344 21.589844 148.714844 22.902344 148.714844 C 24.105469 148.714844 24.886719 147.277344 24.886719 145.652344 Z M 24.027344 145.652344 C 24.027344 146.949219 23.902344 148.464844 22.902344 148.464844 C 21.949219 148.464844 21.761719 146.949219 21.761719 145.652344 C 21.761719 144.574219 21.886719 142.824219 22.902344 142.824219 C 23.902344 142.824219 24.027344 144.574219 24.027344 145.652344 Z M 24.027344 145.652344 "
       id="path66" />
    <path
       style=" stroke:none;fill-rule:nonzero;fill:rgb(0%,0%,0%);fill-opacity:1;"
       d="M 53.359375 147.449219 L 53.203125 147.417969 C 52.9375 147.871094 52.71875 147.949219 52.28125 147.949219 L 50.21875 147.949219 C 51.640625 146.652344 52.9375 145.480469 52.9375 144.167969 C 52.9375 143.246094 52.140625 142.589844 51.265625 142.589844 C 50.40625 142.589844 49.71875 143.058594 49.453125 144.277344 L 49.65625 144.277344 C 49.90625 143.777344 50.25 143.261719 50.9375 143.261719 C 51.71875 143.261719 52.15625 143.855469 52.15625 144.527344 C 52.15625 145.496094 51.125 146.917969 49.359375 148.464844 L 49.359375 148.605469 L 52.890625 148.605469 Z M 53.359375 147.449219 "
       id="path68" />
    <path
       style=" stroke:none;fill-rule:nonzero;fill:rgb(0%,0%,0%);fill-opacity:1;"
       d="M 81.660156 147.121094 L 81.660156 146.511719 L 80.785156 146.511719 L 80.785156 142.589844 L 80.347656 142.589844 L 77.753906 146.496094 L 77.753906 147.121094 L 80.050781 147.121094 L 80.050781 148.605469 L 80.785156 148.605469 L 80.785156 147.121094 Z M 80.050781 146.511719 L 78.113281 146.511719 L 80.035156 143.527344 L 80.050781 143.527344 Z M 80.050781 146.511719 "
       id="path70" />
    <path
       style=" stroke:none;fill-rule:nonzero;fill:rgb(0%,0%,0%);fill-opacity:1;"
       d="M 109.917969 146.589844 C 109.917969 145.605469 109.214844 144.871094 108.324219 144.871094 C 107.871094 144.871094 107.496094 145.011719 107.105469 145.324219 C 107.496094 143.730469 108.667969 142.730469 109.792969 142.714844 L 109.792969 142.558594 C 107.027344 142.558594 106.152344 144.902344 106.152344 146.230469 C 106.152344 147.652344 106.980469 148.714844 108.089844 148.714844 C 109.105469 148.714844 109.917969 147.761719 109.917969 146.589844 Z M 109.152344 147.042969 C 109.152344 147.871094 108.777344 148.449219 108.183594 148.449219 C 107.261719 148.449219 106.980469 147.105469 106.980469 146.386719 C 106.980469 146.152344 107.011719 145.902344 107.058594 145.605469 C 107.449219 145.355469 107.761719 145.246094 108.074219 145.246094 C 108.980469 145.246094 109.152344 146.292969 109.152344 147.042969 Z M 109.152344 147.042969 "
       id="path72" />
    <path
       style=" stroke:none;fill-rule:nonzero;fill:rgb(0%,0%,0%);fill-opacity:1;"
       d="M 138.019531 147.230469 C 138.019531 146.589844 137.738281 146.105469 136.644531 145.292969 C 137.332031 144.917969 137.863281 144.496094 137.863281 143.839844 C 137.863281 143.152344 137.222656 142.558594 136.269531 142.558594 C 135.425781 142.558594 134.628906 143.105469 134.628906 143.949219 C 134.628906 144.605469 134.972656 144.996094 135.738281 145.605469 C 134.878906 146.261719 134.566406 146.589844 134.566406 147.261719 C 134.566406 148.011719 135.238281 148.714844 136.285156 148.714844 C 137.503906 148.714844 138.019531 147.886719 138.019531 147.230469 Z M 137.253906 143.824219 C 137.253906 144.464844 136.878906 144.808594 136.394531 145.136719 C 135.800781 144.714844 135.285156 144.246094 135.285156 143.730469 C 135.285156 143.246094 135.628906 142.824219 136.238281 142.824219 C 136.910156 142.824219 137.253906 143.246094 137.253906 143.824219 Z M 137.378906 147.480469 C 137.378906 148.058594 136.941406 148.449219 136.363281 148.449219 C 135.675781 148.449219 135.238281 147.902344 135.238281 147.167969 C 135.238281 146.496094 135.566406 146.105469 135.972656 145.761719 C 136.957031 146.511719 137.378906 146.886719 137.378906 147.480469 Z M 137.378906 147.480469 "
       id="path74" />
    <path
       style=" stroke:none;fill-rule:nonzero;fill:rgb(0%,0%,0%);fill-opacity:1;"
       d="M 163.695312 148.605469 L 163.695312 148.464844 C 163.101562 148.464844 162.882812 148.480469 162.882812 147.308594 C 162.882812 147.292969 162.882812 142.558594 162.882812 142.558594 L 162.757812 142.558594 L 161.226562 143.292969 L 161.273438 143.433594 C 161.601562 143.292969 161.679688 143.261719 161.804688 143.261719 C 162.070312 143.261719 162.117188 143.496094 162.117188 143.808594 L 162.117188 147.308594 C 162.117188 148.480469 161.898438 148.449219 161.304688 148.464844 L 161.304688 148.605469 Z M 163.695312 148.605469 "
       id="path76" />
    <path
       style=" stroke:none;fill-rule:nonzero;fill:rgb(0%,0%,0%);fill-opacity:1;"
       d="M 168.886719 145.652344 C 168.886719 144.042969 168.152344 142.589844 166.902344 142.589844 C 165.636719 142.589844 164.902344 144.042969 164.902344 145.652344 C 164.902344 147.277344 165.589844 148.714844 166.902344 148.714844 C 168.105469 148.714844 168.886719 147.277344 168.886719 145.652344 Z M 168.027344 145.652344 C 168.027344 146.949219 167.902344 148.464844 166.902344 148.464844 C 165.949219 148.464844 165.761719 146.949219 165.761719 145.652344 C 165.761719 144.574219 165.886719 142.824219 166.902344 142.824219 C 167.902344 142.824219 168.027344 144.574219 168.027344 145.652344 Z M 168.027344 145.652344 "
       id="path78" />
    <path
       style=" stroke:none;fill-rule:nonzero;fill:rgb(0%,0%,0%);fill-opacity:1;"
       d="M 19.246094 139.175781 C 19.246094 137.566406 18.511719 136.113281 17.261719 136.113281 C 15.996094 136.113281 15.261719 137.566406 15.261719 139.175781 C 15.261719 140.800781 15.949219 142.238281 17.261719 142.238281 C 18.464844 142.238281 19.246094 140.800781 19.246094 139.175781 Z M 18.386719 139.175781 C 18.386719 140.472656 18.261719 141.988281 17.261719 141.988281 C 16.308594 141.988281 16.121094 140.472656 16.121094 139.175781 C 16.121094 138.097656 16.246094 136.347656 17.261719 136.347656 C 18.261719 136.347656 18.386719 138.097656 18.386719 139.175781 Z M 18.386719 139.175781 "
       id="path80" />
    <path
       style=" stroke:none;fill-rule:nonzero;fill:rgb(0%,0%,0%);fill-opacity:1;"
       d="M 18.496094 119.445312 L 18.496094 119.304688 C 17.902344 119.304688 17.683594 119.320312 17.683594 118.148438 C 17.683594 118.132812 17.683594 113.398438 17.683594 113.398438 L 17.558594 113.398438 L 16.027344 114.132812 L 16.074219 114.273438 C 16.402344 114.132812 16.480469 114.101562 16.605469 114.101562 C 16.871094 114.101562 16.917969 114.335938 16.917969 114.648438 L 16.917969 118.148438 C 16.917969 119.320312 16.699219 119.289062 16.105469 119.304688 L 16.105469 119.445312 Z M 18.496094 119.445312 "
       id="path82" />
    <path
       style=" stroke:none;fill-rule:nonzero;fill:rgb(0%,0%,0%);fill-opacity:1;"
       d="M 19.277344 95.609375 L 19.121094 95.578125 C 18.855469 96.03125 18.636719 96.109375 18.199219 96.109375 L 16.136719 96.109375 C 17.558594 94.8125 18.855469 93.640625 18.855469 92.328125 C 18.855469 91.40625 18.058594 90.75 17.183594 90.75 C 16.324219 90.75 15.636719 91.21875 15.371094 92.4375 L 15.574219 92.4375 C 15.824219 91.9375 16.167969 91.421875 16.855469 91.421875 C 17.636719 91.421875 18.074219 92.015625 18.074219 92.6875 C 18.074219 93.65625 17.042969 95.078125 15.277344 96.625 L 15.277344 96.765625 L 18.808594 96.765625 Z M 19.277344 95.609375 "
       id="path84" />
    <path
       style=" stroke:none;fill-rule:nonzero;fill:rgb(0%,0%,0%);fill-opacity:1;"
       d="M 18.902344 72.148438 C 18.902344 71.210938 18.355469 70.804688 17.824219 70.585938 C 18.402344 70.148438 18.589844 69.742188 18.589844 69.257812 C 18.589844 68.742188 18.167969 68.070312 17.199219 68.070312 C 16.496094 68.070312 15.824219 68.460938 15.527344 69.429688 L 15.667969 69.460938 C 15.855469 69.101562 16.214844 68.648438 16.871094 68.648438 C 17.511719 68.648438 17.886719 69.085938 17.886719 69.585938 C 17.886719 70.289062 17.339844 70.789062 16.527344 70.976562 L 16.511719 71.164062 C 17.902344 71.101562 18.246094 72.007812 18.246094 72.570312 C 18.246094 73.242188 17.761719 73.851562 17.121094 73.851562 C 16.542969 73.851562 16.292969 73.351562 15.808594 73.351562 C 15.652344 73.351562 15.464844 73.507812 15.464844 73.710938 C 15.464844 74.085938 16.027344 74.195312 16.433594 74.195312 C 17.855469 74.195312 18.902344 73.382812 18.902344 72.148438 Z M 18.902344 72.148438 "
       id="path86" />
    <path
       style=" stroke:none;fill-rule:nonzero;fill:rgb(0%,0%,0%);fill-opacity:1;"
       d="M 19.261719 49.921875 L 19.261719 49.3125 L 18.386719 49.3125 L 18.386719 45.390625 L 17.949219 45.390625 L 15.355469 49.296875 L 15.355469 49.921875 L 17.652344 49.921875 L 17.652344 51.40625 L 18.386719 51.40625 L 18.386719 49.921875 Z M 17.652344 49.3125 L 15.714844 49.3125 L 17.636719 46.328125 L 17.652344 46.328125 Z M 17.652344 49.3125 "
       id="path88" />
    <path
       style=" stroke:none;fill-rule:nonzero;fill:rgb(0%,0%,0%);fill-opacity:1;"
       d="M 19.183594 22.804688 L 16.714844 22.804688 L 15.605469 25.351562 C 15.746094 25.320312 15.886719 25.289062 16.058594 25.289062 C 17.011719 25.289062 18.308594 25.789062 18.308594 26.960938 C 18.308594 27.867188 17.652344 28.445312 17.027344 28.445312 C 16.480469 28.445312 16.277344 27.945312 15.761719 27.945312 C 15.511719 27.945312 15.433594 28.164062 15.433594 28.273438 C 15.433594 28.585938 15.871094 28.835938 16.496094 28.835938 C 17.839844 28.835938 18.902344 27.851562 18.902344 26.648438 C 18.902344 25.226562 17.777344 24.742188 16.558594 24.710938 C 16.449219 24.710938 16.324219 24.726562 16.214844 24.742188 L 16.777344 23.476562 L 18.871094 23.460938 Z M 19.183594 22.804688 "
       id="path90" />
    <path
       style=" stroke:none;fill-rule:nonzero;fill:rgb(0%,0%,0%);fill-opacity:1;"
       d="M 19.199219 4.03125 C 19.199219 3.046875 18.496094 2.3125 17.605469 2.3125 C 17.152344 2.3125 16.777344 2.453125 16.386719 2.765625 C 16.777344 1.171875 17.949219 0.171875 19.074219 0.15625 L 19.074219 0 C 16.308594 0 15.433594 2.34375 15.433594 3.671875 C 15.433594 5.09375 16.261719 6.15625 17.371094 6.15625 C 18.386719 6.15625 19.199219 5.203125 19.199219 4.03125 Z M 18.433594 4.484375 C 18.433594 5.3125 18.058594 5.890625 17.464844 5.890625 C 16.542969 5.890625 16.261719 4.546875 16.261719 3.828125 C 16.261719 3.59375 16.292969 3.34375 16.339844 3.046875 C 16.730469 2.796875 17.042969 2.6875 17.355469 2.6875 C 18.261719 2.6875 18.433594 3.734375 18.433594 4.484375 Z M 18.433594 4.484375 "
       id="path92" />
    <path
       style=" stroke:none;fill-rule:nonzero;fill:rgb(100%,100%,100%);fill-opacity:1;"
       d="M 71.03125 138.898438 C 71.03125 137.722656 70.078125 136.769531 68.902344 136.769531 C 67.726562 136.769531 66.773438 137.722656 66.773438 138.898438 C 66.773438 140.074219 67.726562 141.027344 68.902344 141.027344 C 70.078125 141.027344 71.03125 140.074219 71.03125 138.898438 "
       id="path94" />
    <path
       style=" stroke:none;fill-rule:nonzero;fill:rgb(0%,0%,0%);fill-opacity:1;"
       d="M 71.03125 138.898438 C 71.03125 137.722656 70.078125 136.769531 68.902344 136.769531 C 67.726562 136.769531 66.773438 137.722656 66.773438 138.898438 C 66.773438 140.074219 67.726562 141.027344 68.902344 141.027344 C 70.078125 141.027344 71.03125 140.074219 71.03125 138.898438 Z M 71.03125 138.898438 L 70.820312 138.898438 C 70.820312 137.839844 69.960938 136.980469 68.902344 136.980469 C 67.84375 136.980469 66.984375 137.839844 66.984375 138.898438 C 66.984375 139.957031 67.84375 140.816406 68.902344 140.816406 C 69.960938 140.816406 70.820312 139.957031 70.820312 138.898438 "
       id="path96" />
    <path
       style=" stroke:none;fill-rule:nonzero;fill:rgb(100%,100%,100%);fill-opacity:1;"
       d="M 81.03125 138.597656 C 81.03125 137.421875 80.078125 136.46875 78.902344 136.46875 C 77.726562 136.46875 76.773438 137.421875 76.773438 138.597656 C 76.773438 139.773438 77.726562 140.726562 78.902344 140.726562 C 80.078125 140.726562 81.03125 139.773438 81.03125 138.597656 "
       id="path98" />
    <path
       style=" stroke:none;fill-rule:nonzero;fill:rgb(0%,0%,0%);fill-opacity:1;"
       d="M 81.03125 138.597656 C 81.03125 137.421875 80.078125 136.46875 78.902344 136.46875 C 77.726562 136.46875 76.773438 137.421875 76.773438 138.597656 C 76.773438 139.773438 77.726562 140.726562 78.902344 140.726562 C 80.078125 140.726562 81.03125 139.773438 81.03125 138.597656 Z M 81.03125 138.597656 L 80.820312 138.597656 C 80.820312 137.539062 79.960938 136.679688 78.902344 136.679688 C 77.84375 136.679688 76.984375 137.539062 76.984375 138.597656 C 76.984375 139.65625 77.84375 140.515625 78.902344 140.515625 C 79.960938 140.515625 80.820312 139.65625 80.820312 138.597656 "
       id="path100" />
    <path
       style=" stroke:none;fill-rule:nonzero;fill:rgb(100%,100%,100%);fill-opacity:1;"
       d="M 96.53125 137.496094 C 96.53125 136.320312 95.578125 135.367188 94.402344 135.367188 C 93.226562 135.367188 92.273438 136.320312 92.273438 137.496094 C 92.273438 138.671875 93.226562 139.625 94.402344 139.625 C 95.578125 139.625 96.53125 138.671875 96.53125 137.496094 "
       id="path102" />
    <path
       style=" stroke:none;fill-rule:nonzero;fill:rgb(0%,0%,0%);fill-opacity:1;"
       d="M 96.53125 137.496094 C 96.53125 136.320312 95.578125 135.367188 94.402344 135.367188 C 93.226562 135.367188 92.273438 136.320312 92.273438 137.496094 C 92.273438 138.671875 93.226562 139.625 94.402344 139.625 C 95.578125 139.625 96.53125 138.671875 96.53125 137.496094 Z M 96.53125 137.496094 L 96.320312 137.496094 C 96.320312 136.4375 95.460938 135.578125 94.402344 135.578125 C 93.34375 135.578125 92.484375 136.4375 92.484375 137.496094 C 92.484375 138.554688 93.34375 139.414062 94.402344 139.414062 C 95.460938 139.414062 96.320312 138.554688 96.320312 137.496094 "
       id="path104" />
    <path
       style=" stroke:none;fill-rule:nonzero;fill:rgb(100%,100%,100%);fill-opacity:1;"
       d="M 101.03125 136.695312 C 101.03125 135.519531 100.078125 134.566406 98.902344 134.566406 C 97.726562 134.566406 96.773438 135.519531 96.773438 136.695312 C 96.773438 137.871094 97.726562 138.824219 98.902344 138.824219 C 100.078125 138.824219 101.03125 137.871094 101.03125 136.695312 "
       id="path106" />
    <path
       style=" stroke:none;fill-rule:nonzero;fill:rgb(0%,0%,0%);fill-opacity:1;"
       d="M 101.03125 136.695312 C 101.03125 135.519531 100.078125 134.566406 98.902344 134.566406 C 97.726562 134.566406 96.773438 135.519531 96.773438 136.695312 C 96.773438 137.871094 97.726562 138.824219 98.902344 138.824219 C 100.078125 138.824219 101.03125 137.871094 101.03125 136.695312 Z M 101.03125 136.695312 L 100.820312 136.695312 C 100.820312 135.636719 99.960938 134.777344 98.902344 134.777344 C 97.84375 134.777344 96.984375 135.636719 96.984375 136.695312 C 96.984375 137.753906 97.84375 138.613281 98.902344 138.613281 C 99.960938 138.613281 100.820312 137.753906 100.820312 136.695312 "
       id="path108" />
    <path
       style=" stroke:none;fill-rule:nonzero;fill:rgb(100%,100%,100%);fill-opacity:1;"
       d="M 110.429688 134.597656 C 110.429688 133.421875 109.476562 132.46875 108.300781 132.46875 C 107.125 132.46875 106.171875 133.421875 106.171875 134.597656 C 106.171875 135.773438 107.125 136.726562 108.300781 136.726562 C 109.476562 136.726562 110.429688 135.773438 110.429688 134.597656 "
       id="path110" />
    <path
       style=" stroke:none;fill-rule:nonzero;fill:rgb(0%,0%,0%);fill-opacity:1;"
       d="M 110.429688 134.597656 C 110.429688 133.421875 109.476562 132.46875 108.300781 132.46875 C 107.125 132.46875 106.171875 133.421875 106.171875 134.597656 C 106.171875 135.773438 107.125 136.726562 108.300781 136.726562 C 109.476562 136.726562 110.429688 135.773438 110.429688 134.597656 Z M 110.429688 134.597656 L 110.21875 134.597656 C 110.21875 133.539062 109.359375 132.679688 108.300781 132.679688 C 107.242188 132.679688 106.382812 133.539062 106.382812 134.597656 C 106.382812 135.65625 107.242188 136.515625 108.300781 136.515625 C 109.359375 136.515625 110.21875 135.65625 110.21875 134.597656 "
       id="path112" />
    <path
       style=" stroke:none;fill-rule:nonzero;fill:rgb(100%,100%,100%);fill-opacity:1;"
       d="M 113.929688 133.898438 C 113.929688 132.722656 112.976562 131.769531 111.800781 131.769531 C 110.625 131.769531 109.671875 132.722656 109.671875 133.898438 C 109.671875 135.074219 110.625 136.027344 111.800781 136.027344 C 112.976562 136.027344 113.929688 135.074219 113.929688 133.898438 "
       id="path114" />
    <path
       style=" stroke:none;fill-rule:nonzero;fill:rgb(0%,0%,0%);fill-opacity:1;"
       d="M 113.929688 133.898438 C 113.929688 132.722656 112.976562 131.769531 111.800781 131.769531 C 110.625 131.769531 109.671875 132.722656 109.671875 133.898438 C 109.671875 135.074219 110.625 136.027344 111.800781 136.027344 C 112.976562 136.027344 113.929688 135.074219 113.929688 133.898438 Z M 113.929688 133.898438 L 113.71875 133.898438 C 113.71875 132.839844 112.859375 131.980469 111.800781 131.980469 C 110.742188 131.980469 109.882812 132.839844 109.882812 133.898438 C 109.882812 134.957031 110.742188 135.816406 111.800781 135.816406 C 112.859375 135.816406 113.71875 134.957031 113.71875 133.898438 "
       id="path116" />
    <path
       style=" stroke:none;fill-rule:nonzero;fill:rgb(100%,100%,100%);fill-opacity:1;"
       d="M 116.632812 132.898438 C 116.632812 131.722656 115.679688 130.769531 114.503906 130.769531 C 113.328125 130.769531 112.375 131.722656 112.375 132.898438 C 112.375 134.074219 113.328125 135.027344 114.503906 135.027344 C 115.679688 135.027344 116.632812 134.074219 116.632812 132.898438 "
       id="path118" />
    <path
       style=" stroke:none;fill-rule:nonzero;fill:rgb(0%,0%,0%);fill-opacity:1;"
       d="M 116.632812 132.898438 C 116.632812 131.722656 115.679688 130.769531 114.503906 130.769531 C 113.328125 130.769531 112.375 131.722656 112.375 132.898438 C 112.375 134.074219 113.328125 135.027344 114.503906 135.027344 C 115.679688 135.027344 116.632812 134.074219 116.632812 132.898438 Z M 116.632812 132.898438 L 116.421875 132.898438 C 116.421875 131.839844 115.5625 130.980469 114.503906 130.980469 C 113.445312 130.980469 112.585938 131.839844 112.585938 132.898438 C 112.585938 133.957031 113.445312 134.816406 114.503906 134.816406 C 115.5625 134.816406 116.421875 133.957031 116.421875 132.898438 "
       id="path120" />
    <path
       style=" stroke:none;fill-rule:nonzero;fill:rgb(100%,100%,100%);fill-opacity:1;"
       d="M 126.429688 127.496094 C 126.429688 126.320312 125.476562 125.367188 124.300781 125.367188 C 123.125 125.367188 122.171875 126.320312 122.171875 127.496094 C 122.171875 128.671875 123.125 129.625 124.300781 129.625 C 125.476562 129.625 126.429688 128.671875 126.429688 127.496094 "
       id="path122" />
    <path
       style=" stroke:none;fill-rule:nonzero;fill:rgb(0%,0%,0%);fill-opacity:1;"
       d="M 126.429688 127.496094 C 126.429688 126.320312 125.476562 125.367188 124.300781 125.367188 C 123.125 125.367188 122.171875 126.320312 122.171875 127.496094 C 122.171875 128.671875 123.125 129.625 124.300781 129.625 C 125.476562 129.625 126.429688 128.671875 126.429688 127.496094 Z M 126.429688 127.496094 L 126.21875 127.496094 C 126.21875 126.4375 125.359375 125.578125 124.300781 125.578125 C 123.242188 125.578125 122.382812 126.4375 122.382812 127.496094 C 122.382812 128.554688 123.242188 129.414062 124.300781 129.414062 C 125.359375 129.414062 126.21875 128.554688 126.21875 127.496094 "
       id="path124" />
    <path
       style=" stroke:none;fill-rule:nonzero;fill:rgb(100%,100%,100%);fill-opacity:1;"
       d="M 140.730469 108.898438 C 140.730469 107.722656 139.777344 106.769531 138.601562 106.769531 C 137.425781 106.769531 136.472656 107.722656 136.472656 108.898438 C 136.472656 110.074219 137.425781 111.027344 138.601562 111.027344 C 139.777344 111.027344 140.730469 110.074219 140.730469 108.898438 "
       id="path126" />
    <path
       style=" stroke:none;fill-rule:nonzero;fill:rgb(0%,0%,0%);fill-opacity:1;"
       d="M 140.730469 108.898438 C 140.730469 107.722656 139.777344 106.769531 138.601562 106.769531 C 137.425781 106.769531 136.472656 107.722656 136.472656 108.898438 C 136.472656 110.074219 137.425781 111.027344 138.601562 111.027344 C 139.777344 111.027344 140.730469 110.074219 140.730469 108.898438 Z M 140.730469 108.898438 L 140.519531 108.898438 C 140.519531 107.839844 139.660156 106.980469 138.601562 106.980469 C 137.542969 106.980469 136.683594 107.839844 136.683594 108.898438 C 136.683594 109.957031 137.542969 110.816406 138.601562 110.816406 C 139.660156 110.816406 140.519531 109.957031 140.519531 108.898438 "
       id="path128" />
    <path
       style=" stroke:none;fill-rule:nonzero;fill:rgb(100%,100%,100%);fill-opacity:1;"
       d="M 151.929688 84.097656 C 151.929688 82.921875 150.976562 81.96875 149.800781 81.96875 C 148.625 81.96875 147.671875 82.921875 147.671875 84.097656 C 147.671875 85.273438 148.625 86.226562 149.800781 86.226562 C 150.976562 86.226562 151.929688 85.273438 151.929688 84.097656 "
       id="path130" />
    <path
       style=" stroke:none;fill-rule:nonzero;fill:rgb(0%,0%,0%);fill-opacity:1;"
       d="M 151.929688 84.097656 C 151.929688 82.921875 150.976562 81.96875 149.800781 81.96875 C 148.625 81.96875 147.671875 82.921875 147.671875 84.097656 C 147.671875 85.273438 148.625 86.226562 149.800781 86.226562 C 150.976562 86.226562 151.929688 85.273438 151.929688 84.097656 Z M 151.929688 84.097656 L 151.71875 84.097656 C 151.71875 83.039062 150.859375 82.179688 149.800781 82.179688 C 148.742188 82.179688 147.882812 83.039062 147.882812 84.097656 C 147.882812 85.15625 148.742188 86.015625 149.800781 86.015625 C 150.859375 86.015625 151.71875 85.15625 151.71875 84.097656 "
       id="path132" />
    <path
       style=" stroke:none;fill-rule:nonzero;fill:rgb(100%,100%,100%);fill-opacity:1;"
       d="M 166.230469 17.796875 C 166.230469 16.621094 165.277344 15.667969 164.101562 15.667969 C 162.925781 15.667969 161.972656 16.621094 161.972656 17.796875 C 161.972656 18.972656 162.925781 19.925781 164.101562 19.925781 C 165.277344 19.925781 166.230469 18.972656 166.230469 17.796875 "
       id="path134" />
    <path
       style=" stroke:none;fill-rule:nonzero;fill:rgb(0%,0%,0%);fill-opacity:1;"
       d="M 166.230469 17.796875 C 166.230469 16.621094 165.277344 15.667969 164.101562 15.667969 C 162.925781 15.667969 161.972656 16.621094 161.972656 17.796875 C 161.972656 18.972656 162.925781 19.925781 164.101562 19.925781 C 165.277344 19.925781 166.230469 18.972656 166.230469 17.796875 Z M 166.230469 17.796875 L 166.019531 17.796875 C 166.019531 16.738281 165.160156 15.878906 164.101562 15.878906 C 163.042969 15.878906 162.183594 16.738281 162.183594 17.796875 C 162.183594 18.855469 163.042969 19.714844 164.101562 19.714844 C 165.160156 19.714844 166.019531 18.855469 166.019531 17.796875 "
       id="path136" />
    <path
       style=" stroke:none;fill-rule:nonzero;fill:rgb(0%,0%,0%);fill-opacity:1;"
       d="M 71.136719 161.125 L 71.011719 161.03125 C 70.824219 161.265625 70.496094 161.703125 70.308594 161.703125 C 70.230469 161.703125 70.183594 161.65625 70.183594 161.546875 C 70.183594 161.453125 70.261719 161.234375 70.308594 161.0625 C 70.308594 161.0625 70.839844 159.109375 70.839844 159.0625 C 70.902344 158.875 70.933594 158.6875 70.933594 158.5625 C 70.933594 158.109375 70.652344 157.953125 70.433594 157.953125 C 69.699219 157.953125 68.871094 158.921875 68.292969 159.953125 C 68.292969 159.953125 68.621094 158.90625 68.621094 158.546875 C 68.621094 158.3125 68.527344 157.953125 68.105469 157.953125 C 67.277344 157.953125 66.246094 159.546875 66.027344 159.953125 L 66.558594 157.953125 C 66.558594 157.953125 65.339844 158.1875 65.074219 158.203125 L 65.074219 158.359375 C 65.402344 158.359375 65.667969 158.328125 65.667969 158.6875 C 65.667969 158.859375 65.589844 159.140625 65.511719 159.421875 C 65.511719 159.421875 64.792969 161.8125 64.746094 162.046875 L 65.433594 162.046875 L 65.589844 161.453125 C 66.105469 159.515625 67.355469 158.453125 67.699219 158.453125 C 67.839844 158.453125 67.933594 158.5 67.933594 158.703125 C 67.933594 158.84375 67.824219 159.25 67.761719 159.515625 C 67.761719 159.515625 67.136719 161.734375 67.058594 162.046875 L 67.730469 162.046875 L 67.886719 161.453125 C 68.433594 159.4375 69.652344 158.453125 70.011719 158.453125 C 70.136719 158.453125 70.230469 158.546875 70.230469 158.6875 C 70.230469 158.78125 70.136719 159.1875 70.042969 159.515625 L 69.683594 160.859375 C 69.589844 161.1875 69.511719 161.59375 69.511719 161.734375 C 69.511719 161.96875 69.636719 162.15625 69.839844 162.15625 C 70.292969 162.15625 70.777344 161.640625 71.136719 161.125 Z M 71.136719 161.125 "
       id="path138" />
    <path
       style=" stroke:none;fill-rule:nonzero;fill:rgb(0%,0%,0%);fill-opacity:1;"
       d="M 71.964844 164.328125 L 73.902344 164.328125 L 73.902344 164.203125 C 73.386719 164.15625 73.308594 164.0625 73.292969 163.5625 L 73.292969 162.140625 L 75.402344 162.140625 L 75.402344 163.484375 C 75.402344 164.078125 75.339844 164.15625 74.792969 164.203125 L 74.792969 164.328125 L 76.730469 164.328125 L 76.730469 164.203125 C 76.214844 164.15625 76.121094 164.0625 76.121094 163.5625 L 76.121094 160.46875 C 76.121094 159.96875 76.199219 159.890625 76.730469 159.84375 L 76.730469 159.71875 L 74.792969 159.71875 L 74.792969 159.84375 C 75.324219 159.890625 75.402344 159.953125 75.402344 160.46875 L 75.402344 161.828125 L 73.292969 161.828125 L 73.292969 160.46875 C 73.308594 159.96875 73.371094 159.890625 73.902344 159.84375 L 73.902344 159.71875 L 71.964844 159.71875 L 71.964844 159.84375 C 72.511719 159.890625 72.574219 159.953125 72.589844 160.46875 L 72.589844 163.484375 C 72.574219 164.078125 72.511719 164.15625 71.964844 164.203125 Z M 71.964844 164.328125 "
       id="path140" />
    <path
       style=" stroke:none;fill-rule:nonzero;fill:rgb(0%,0%,0%);fill-opacity:1;"
       d="M 81.207031 161.1875 L 81.144531 159.625 L 80.988281 159.625 C 80.941406 159.765625 80.832031 159.84375 80.691406 159.84375 C 80.628906 159.84375 80.535156 159.828125 80.425781 159.796875 C 80.082031 159.671875 79.738281 159.625 79.410156 159.625 C 78.832031 159.625 78.253906 159.828125 77.832031 160.21875 C 77.332031 160.65625 77.066406 161.296875 77.066406 162.0625 C 77.066406 163.484375 78.003906 164.421875 79.394531 164.421875 C 80.175781 164.421875 80.878906 164.109375 81.285156 163.546875 L 81.160156 163.421875 C 80.660156 163.90625 80.191406 164.125 79.613281 164.125 C 79.175781 164.125 78.785156 163.984375 78.488281 163.71875 C 78.097656 163.375 77.878906 162.75 77.878906 161.96875 C 77.878906 160.703125 78.535156 159.890625 79.535156 159.890625 C 79.941406 159.890625 80.300781 160.046875 80.582031 160.3125 C 80.800781 160.53125 80.910156 160.734375 81.035156 161.1875 Z M 81.207031 161.1875 "
       id="path142" />
    <path
       style=" stroke:none;fill-rule:nonzero;fill:rgb(0%,0%,0%);fill-opacity:1;"
       d="M 81.699219 164.328125 L 83.355469 164.328125 L 83.355469 164.21875 C 82.917969 164.203125 82.839844 164.140625 82.824219 163.75 L 82.824219 159.578125 L 82.792969 159.5625 C 82.449219 159.6875 82.183594 159.75 81.683594 159.875 L 81.683594 159.984375 L 81.730469 159.984375 C 81.808594 159.984375 81.886719 159.96875 81.949219 159.96875 C 82.167969 159.96875 82.246094 160.0625 82.246094 160.390625 L 82.246094 163.71875 C 82.230469 164.09375 82.136719 164.203125 81.699219 164.21875 Z M 81.699219 164.328125 "
       id="path144" />
    <path
       style=" stroke:none;fill-rule:nonzero;fill:rgb(0%,0%,0%);fill-opacity:1;"
       d="M 87.863281 155.609375 L 87.425781 155.609375 L 84.316406 163.96875 L 84.769531 163.96875 Z M 87.863281 155.609375 "
       id="path146" />
    <path
       style=" stroke:none;fill-rule:nonzero;fill:rgb(0%,0%,0%);fill-opacity:1;"
       d="M 88.539062 162.046875 L 90.539062 162.046875 L 90.539062 161.90625 C 90.070312 161.90625 89.929688 161.8125 89.929688 161.453125 L 89.929688 158.921875 C 89.929688 158.90625 89.992188 158.8125 90.054688 158.75 C 90.289062 158.546875 90.664062 158.390625 90.976562 158.390625 C 91.382812 158.390625 91.570312 158.703125 91.570312 159.328125 L 91.570312 161.28125 C 91.554688 161.78125 91.460938 161.890625 90.960938 161.90625 L 90.960938 162.046875 L 92.976562 162.046875 L 92.976562 161.90625 C 92.476562 161.90625 92.351562 161.765625 92.320312 161.1875 L 92.320312 158.9375 C 92.601562 158.546875 92.882812 158.390625 93.304688 158.390625 C 93.820312 158.390625 93.976562 158.625 93.976562 159.375 L 93.976562 161.265625 C 93.960938 161.796875 93.898438 161.859375 93.382812 161.90625 L 93.382812 162.046875 L 95.351562 162.046875 L 95.351562 161.90625 L 95.117188 161.890625 C 94.835938 161.84375 94.726562 161.71875 94.726562 161.359375 L 94.726562 159.515625 C 94.726562 158.453125 94.382812 157.921875 93.695312 157.921875 C 93.164062 157.921875 92.710938 158.15625 92.226562 158.671875 C 92.070312 158.15625 91.757812 157.921875 91.273438 157.921875 C 90.867188 157.921875 90.632812 158.03125 89.882812 158.609375 L 89.882812 157.9375 L 89.820312 157.921875 C 89.351562 158.09375 89.039062 158.1875 88.570312 158.328125 L 88.570312 158.484375 C 88.679688 158.453125 88.757812 158.4375 88.851562 158.4375 C 89.085938 158.4375 89.164062 158.578125 89.164062 159.015625 L 89.164062 161.28125 C 89.148438 161.78125 89.039062 161.90625 88.539062 161.90625 Z M 88.539062 162.046875 "
       id="path148" />
    <path
       style=" stroke:none;fill-rule:nonzero;fill:rgb(0%,0%,0%);fill-opacity:1;"
       d="M 97.609375 157.921875 C 96.421875 157.921875 95.625 158.78125 95.625 160.015625 C 95.625 161.234375 96.453125 162.140625 97.578125 162.140625 C 98.71875 162.140625 99.578125 161.1875 99.578125 159.953125 C 99.578125 158.765625 98.75 157.921875 97.609375 157.921875 Z M 97.484375 158.171875 C 98.234375 158.171875 98.765625 159.03125 98.765625 160.265625 C 98.765625 161.28125 98.359375 161.890625 97.6875 161.890625 C 97.34375 161.890625 97.015625 161.671875 96.828125 161.3125 C 96.5625 160.84375 96.421875 160.21875 96.421875 159.578125 C 96.421875 158.734375 96.84375 158.171875 97.484375 158.171875 Z M 97.484375 158.171875 "
       id="path150" />
    <path
       style=" stroke:none;fill-rule:nonzero;fill:rgb(0%,0%,0%);fill-opacity:1;"
       d="M 99.984375 162.046875 L 102.109375 162.046875 L 102.109375 161.90625 C 101.53125 161.890625 101.4375 161.796875 101.421875 161.296875 L 101.421875 155.9375 L 101.390625 155.921875 C 100.9375 156.0625 100.609375 156.15625 99.96875 156.3125 L 99.96875 156.453125 L 100.015625 156.453125 C 100.125 156.453125 100.234375 156.4375 100.296875 156.4375 C 100.59375 156.4375 100.671875 156.5625 100.671875 156.984375 L 100.671875 161.265625 C 100.671875 161.75 100.546875 161.875 99.984375 161.90625 Z M 99.984375 162.046875 "
       id="path152" />
    <path
       style=" stroke:none;fill-rule:nonzero;fill:rgb(0%,0%,0%);fill-opacity:1;"
       d="M 103.941406 162.046875 L 106.035156 162.046875 L 106.035156 161.90625 L 105.863281 161.90625 C 105.488281 161.875 105.378906 161.78125 105.363281 161.453125 L 105.363281 159.796875 L 106.628906 161.46875 C 106.660156 161.515625 106.691406 161.5625 106.707031 161.59375 C 106.785156 161.671875 106.816406 161.734375 106.816406 161.78125 C 106.816406 161.859375 106.738281 161.90625 106.628906 161.90625 L 106.457031 161.90625 L 106.457031 162.046875 L 108.410156 162.046875 L 108.410156 161.90625 C 108.019531 161.890625 107.738281 161.71875 107.363281 161.25 L 105.988281 159.515625 L 106.253906 159.28125 C 107.363281 158.265625 107.613281 158.125 108.191406 158.140625 L 108.191406 158.015625 L 106.347656 158.015625 L 106.347656 158.140625 C 106.707031 158.140625 106.800781 158.1875 106.800781 158.296875 C 106.800781 158.375 106.722656 158.5 106.597656 158.609375 L 105.363281 159.703125 L 105.363281 155.9375 L 105.332031 155.921875 C 104.988281 156.03125 104.722656 156.109375 104.207031 156.25 L 103.941406 156.3125 L 103.941406 156.453125 C 104.050781 156.453125 104.144531 156.4375 104.222656 156.4375 C 104.535156 156.4375 104.613281 156.5625 104.613281 156.984375 L 104.613281 161.3125 C 104.597656 161.78125 104.582031 161.8125 103.941406 161.90625 Z M 103.941406 162.046875 "
       id="path154" />
    <path
       style=" stroke:none;fill-rule:nonzero;fill:rgb(0%,0%,0%);fill-opacity:1;"
       d="M 112.535156 158.5625 L 112.535156 158.21875 L 111.847656 158.21875 C 111.660156 158.21875 111.519531 158.1875 111.347656 158.125 L 111.144531 158.0625 C 110.910156 157.96875 110.660156 157.921875 110.425781 157.921875 C 109.597656 157.921875 108.941406 158.5625 108.941406 159.390625 C 108.941406 159.953125 109.175781 160.28125 109.769531 160.578125 L 109.535156 160.796875 C 109.347656 160.984375 109.238281 161.078125 109.207031 161.109375 C 109.019531 161.3125 108.972656 161.40625 108.972656 161.5625 C 108.972656 161.765625 109.066406 161.859375 109.441406 162.03125 C 108.800781 162.5 108.566406 162.796875 108.566406 163.125 C 108.566406 163.609375 109.253906 164 110.113281 164 C 110.785156 164 111.488281 163.765625 111.957031 163.390625 C 112.300781 163.109375 112.457031 162.828125 112.457031 162.484375 C 112.457031 161.9375 112.035156 161.5625 111.363281 161.53125 L 110.207031 161.46875 C 109.722656 161.453125 109.503906 161.375 109.503906 161.234375 C 109.503906 161.046875 109.800781 160.734375 110.050781 160.671875 C 110.363281 160.6875 110.535156 160.703125 110.566406 160.703125 C 110.894531 160.703125 111.253906 160.578125 111.519531 160.328125 C 111.816406 160.078125 111.957031 159.765625 111.957031 159.328125 C 111.957031 159.0625 111.910156 158.859375 111.785156 158.5625 Z M 109.628906 162.0625 C 109.941406 162.125 110.644531 162.1875 111.097656 162.1875 C 111.910156 162.1875 112.207031 162.296875 112.207031 162.625 C 112.207031 163.140625 111.519531 163.484375 110.503906 163.484375 C 109.707031 163.484375 109.191406 163.234375 109.191406 162.84375 C 109.191406 162.625 109.269531 162.5 109.628906 162.0625 Z M 109.675781 159.015625 C 109.675781 158.484375 109.925781 158.171875 110.347656 158.171875 C 110.628906 158.171875 110.847656 158.328125 111.003906 158.59375 C 111.175781 158.90625 111.269531 159.3125 111.269531 159.671875 C 111.269531 160.171875 111.019531 160.484375 110.597656 160.484375 C 110.050781 160.484375 109.675781 159.90625 109.675781 159.046875 Z M 109.675781 159.015625 "
       id="path156" />
    <path
       style=" stroke:none;fill-rule:nonzero;fill:rgb(0%,0%,0%);fill-opacity:1;"
       d="M 113.179688 157.007812 L 117.882812 157.007812 L 117.882812 156.570312 L 113.179688 156.570312 Z M 113.179688 157.007812 "
       id="path158" />
    <path
       style=" stroke:none;fill-rule:nonzero;fill:rgb(0%,0%,0%);fill-opacity:1;"
       d="M 121.433594 158.804688 L 121.433594 158.617188 C 120.902344 158.617188 120.730469 158.617188 120.730469 157.773438 C 120.730469 157.757812 120.730469 154.101562 120.730469 154.101562 L 120.558594 154.101562 L 119.214844 154.679688 L 119.292969 154.867188 C 119.605469 154.742188 119.667969 154.726562 119.761719 154.726562 C 119.964844 154.726562 119.980469 154.898438 119.980469 155.101562 L 119.980469 157.773438 C 119.980469 158.617188 119.824219 158.601562 119.292969 158.617188 L 119.292969 158.804688 Z M 121.433594 158.804688 "
       id="path160" />
    <path
       style=" stroke:none;fill-rule:nonzero;fill:rgb(0%,0%,0%);fill-opacity:1;"
       d="M 4.992188 88.464844 C 4.289062 88.464844 3.820312 88.777344 3.820312 89.449219 C 3.820312 90.042969 4.242188 90.496094 4.804688 90.902344 L 3.820312 90.589844 C 3.820312 90.589844 4.054688 91.792969 4.070312 92.058594 L 4.226562 92.058594 C 4.226562 91.730469 4.195312 91.464844 4.554688 91.464844 C 4.726562 91.464844 5.117188 91.574219 5.335938 91.636719 L 9.070312 92.699219 C 9.414062 92.792969 9.664062 92.949219 9.664062 93.386719 L 9.820312 93.417969 L 9.820312 91.449219 L 9.664062 91.417969 C 9.664062 91.761719 9.648438 92.058594 9.398438 92.058594 C 9.320312 92.058594 9.226562 92.042969 9.054688 91.996094 L 7.804688 91.683594 C 7.945312 91.511719 8.023438 91.246094 8.023438 91.027344 C 8.023438 89.949219 6.492188 88.464844 4.992188 88.464844 Z M 5.085938 89.230469 C 6.257812 89.230469 7.820312 90.214844 7.820312 91.058594 C 7.820312 91.261719 7.742188 91.449219 7.570312 91.621094 C 6.773438 91.417969 4.242188 90.871094 4.242188 89.714844 C 4.242188 89.230469 4.882812 89.230469 5.085938 89.230469 Z M 5.085938 89.230469 "
       id="path162" />
    <path
       style=" stroke:none;fill-rule:nonzero;fill:rgb(0%,0%,0%);fill-opacity:1;"
       d="M 10.191406 88.011719 L 10.191406 86.074219 L 10.066406 86.074219 C 10.019531 86.589844 9.925781 86.667969 9.425781 86.683594 L 8.003906 86.683594 L 8.003906 84.574219 L 9.347656 84.574219 C 9.941406 84.574219 10.019531 84.636719 10.066406 85.183594 L 10.191406 85.183594 L 10.191406 83.246094 L 10.066406 83.246094 C 10.019531 83.761719 9.925781 83.855469 9.425781 83.855469 L 6.332031 83.855469 C 5.832031 83.855469 5.753906 83.777344 5.707031 83.246094 L 5.582031 83.246094 L 5.582031 85.183594 L 5.707031 85.183594 C 5.753906 84.652344 5.816406 84.574219 6.332031 84.574219 L 7.691406 84.574219 L 7.691406 86.683594 L 6.332031 86.683594 C 5.832031 86.667969 5.753906 86.605469 5.707031 86.074219 L 5.582031 86.074219 L 5.582031 88.011719 L 5.707031 88.011719 C 5.753906 87.464844 5.816406 87.402344 6.332031 87.386719 L 9.347656 87.386719 C 9.941406 87.402344 10.019531 87.464844 10.066406 88.011719 Z M 10.191406 88.011719 "
       id="path164" />
    <path
       style=" stroke:none;fill-rule:nonzero;fill:rgb(0%,0%,0%);fill-opacity:1;"
       d="M 7.050781 78.769531 L 5.488281 78.832031 L 5.488281 78.988281 C 5.628906 79.035156 5.707031 79.144531 5.707031 79.285156 C 5.707031 79.347656 5.691406 79.441406 5.660156 79.550781 C 5.535156 79.894531 5.488281 80.238281 5.488281 80.566406 C 5.488281 81.144531 5.691406 81.722656 6.082031 82.144531 C 6.519531 82.644531 7.160156 82.910156 7.925781 82.910156 C 9.347656 82.910156 10.285156 81.972656 10.285156 80.582031 C 10.285156 79.800781 9.972656 79.097656 9.410156 78.691406 L 9.285156 78.816406 C 9.769531 79.316406 9.988281 79.785156 9.988281 80.363281 C 9.988281 80.800781 9.847656 81.191406 9.582031 81.488281 C 9.238281 81.878906 8.613281 82.097656 7.832031 82.097656 C 6.566406 82.097656 5.753906 81.441406 5.753906 80.441406 C 5.753906 80.035156 5.910156 79.675781 6.175781 79.394531 C 6.394531 79.175781 6.597656 79.066406 7.050781 78.941406 Z M 7.050781 78.769531 "
       id="path166" />
    <path
       style=" stroke:none;fill-rule:nonzero;fill:rgb(0%,0%,0%);fill-opacity:1;"
       d="M 10.191406 78.277344 L 10.191406 76.621094 L 10.082031 76.621094 C 10.066406 77.058594 10.003906 77.136719 9.613281 77.152344 L 5.441406 77.152344 L 5.425781 77.183594 C 5.550781 77.527344 5.613281 77.792969 5.738281 78.292969 L 5.847656 78.292969 L 5.847656 78.246094 C 5.847656 78.167969 5.832031 78.089844 5.832031 78.027344 C 5.832031 77.808594 5.925781 77.730469 6.253906 77.730469 L 9.582031 77.730469 C 9.957031 77.746094 10.066406 77.839844 10.082031 78.277344 Z M 10.191406 78.277344 "
       id="path168" />
    <path
       style=" stroke:none;fill-rule:nonzero;fill:rgb(0%,0%,0%);fill-opacity:1;"
       d="M 1.476562 72.230469 L 1.476562 72.667969 L 9.835938 75.777344 L 9.835938 75.324219 Z M 1.476562 72.230469 "
       id="path170" />
    <path
       style=" stroke:none;fill-rule:nonzero;fill:rgb(0%,0%,0%);fill-opacity:1;"
       d="M 7.914062 68.8125 L 7.773438 68.8125 C 7.773438 69.40625 7.789062 69.625 6.617188 69.625 C 6.601562 69.625 1.867188 69.625 1.867188 69.625 L 1.867188 69.75 L 2.601562 71.28125 L 2.742188 71.234375 C 2.601562 70.90625 2.570312 70.828125 2.570312 70.703125 C 2.570312 70.4375 2.804688 70.390625 3.117188 70.390625 L 6.617188 70.390625 C 7.789062 70.390625 7.757812 70.609375 7.773438 71.203125 L 7.914062 71.203125 Z M 7.914062 68.8125 "
       id="path172" />
    <path
       style=" stroke:none;fill-rule:nonzero;fill:rgb(0%,0%,0%);fill-opacity:1;"
       d="M 4.960938 63.621094 C 3.351562 63.621094 1.898438 64.355469 1.898438 65.605469 C 1.898438 66.871094 3.351562 67.605469 4.960938 67.605469 C 6.585938 67.605469 8.023438 66.917969 8.023438 65.605469 C 8.023438 64.402344 6.585938 63.621094 4.960938 63.621094 Z M 4.960938 64.480469 C 6.257812 64.480469 7.773438 64.605469 7.773438 65.605469 C 7.773438 66.558594 6.257812 66.746094 4.960938 66.746094 C 3.882812 66.746094 2.132812 66.621094 2.132812 65.605469 C 2.132812 64.605469 3.882812 64.480469 4.960938 64.480469 Z M 4.960938 64.480469 "
       id="path174" />
    <path
       style=" stroke:none;fill-rule:nonzero;fill:rgb(0%,0%,0%);fill-opacity:1;"
       d="M 3.703125 59.605469 L 3.671875 59.824219 C 4.03125 60.058594 4.09375 60.246094 4.09375 60.589844 L 4.09375 62.246094 C 3.109375 61.058594 2.21875 59.996094 1.25 59.996094 C 0.515625 59.996094 0 60.699219 0 61.464844 C 0 62.230469 0.359375 62.839844 1.375 63.074219 L 1.375 62.824219 C 0.984375 62.605469 0.59375 62.324219 0.59375 61.746094 C 0.59375 61.105469 1.015625 60.746094 1.515625 60.746094 C 2.25 60.746094 3.3125 61.636719 4.5 63.152344 L 4.671875 63.152344 L 4.671875 60.058594 Z M 3.703125 59.605469 "
       id="path176" />
    <path
       style=" stroke:none;fill-rule:nonzero;fill:rgb(0%,0%,0%);fill-opacity:1;"
       d="M 2.148438 57.035156 C 2.226562 56.363281 2.304688 56.285156 2.960938 56.285156 L 6.835938 56.285156 C 7.601562 56.285156 7.679688 56.347656 7.742188 57.035156 L 7.914062 57.035156 L 7.914062 54.519531 L 7.742188 54.519531 C 7.726562 55.222656 7.601562 55.347656 6.929688 55.363281 L 5.304688 55.363281 C 5.320312 55.128906 5.335938 54.972656 5.335938 54.738281 C 5.335938 54.035156 5.242188 53.566406 5.023438 53.175781 C 4.742188 52.644531 4.195312 52.316406 3.601562 52.316406 C 3.226562 52.316406 2.882812 52.441406 2.617188 52.675781 C 2.226562 53.035156 1.976562 53.816406 1.976562 54.660156 L 1.976562 57.035156 Z M 2.617188 55.363281 C 2.367188 55.363281 2.304688 55.300781 2.304688 55.066406 C 2.304688 53.847656 2.726562 53.285156 3.648438 53.285156 C 4.523438 53.285156 4.976562 53.816406 4.976562 54.847656 C 4.976562 55.035156 4.960938 55.160156 4.945312 55.363281 Z M 2.617188 55.363281 "
       id="path178" />
    <path
       style=" stroke:none;fill-rule:nonzero;fill:rgb(0%,0%,0%);fill-opacity:1;"
       d="M 7.320312 48.289062 C 7.445312 48.445312 7.492188 48.554688 7.492188 48.695312 C 7.492188 48.898438 7.367188 48.960938 6.976562 48.960938 L 5.226562 48.960938 C 4.757812 48.960938 4.492188 49.007812 4.289062 49.132812 C 3.960938 49.335938 3.789062 49.726562 3.789062 50.242188 C 3.789062 51.085938 4.226562 51.757812 4.789062 51.757812 C 4.992188 51.757812 5.179688 51.585938 5.179688 51.367188 C 5.179688 51.148438 4.992188 50.960938 4.804688 50.960938 C 4.773438 50.960938 4.726562 50.976562 4.664062 50.976562 C 4.570312 51.007812 4.507812 51.007812 4.445312 51.007812 C 4.195312 51.007812 4.007812 50.726562 4.007812 50.367188 C 4.007812 49.929688 4.257812 49.679688 4.742188 49.679688 L 5.289062 49.679688 C 5.835938 51.054688 5.929688 51.210938 6.257812 51.601562 C 6.445312 51.804688 6.742188 51.929688 7.039062 51.929688 C 7.601562 51.929688 8.007812 51.539062 8.007812 50.976562 C 8.007812 50.585938 7.820312 50.226562 7.351562 49.679688 C 7.820312 49.632812 8.007812 49.460938 8.007812 49.101562 C 8.007812 48.789062 7.898438 48.601562 7.554688 48.289062 Z M 6.804688 49.679688 C 7.085938 49.679688 7.179688 49.726562 7.289062 49.914062 C 7.414062 50.148438 7.476562 50.382812 7.476562 50.570312 C 7.476562 50.882812 7.179688 51.132812 6.789062 51.132812 L 6.757812 51.132812 C 6.226562 51.132812 5.882812 50.726562 5.507812 49.679688 Z M 6.804688 49.679688 "
       id="path180" />
  </g>
</svg>
