%!PS-Adobe-3.0 EPSF-3.0
%%Creator: cairo 1.17.4 (https://cairographics.org)
%%CreationDate: Thu Feb 24 10:48:40 2022
%%Pages: 1
%%DocumentData: Clean7Bit
%%LanguageLevel: 2
%%BoundingBox: 0 0 261 178
%%EndComments
%%BeginProlog
50 dict begin
/q { gsave } bind def
/Q { grestore } bind def
/cm { 6 array astore concat } bind def
/w { setlinewidth } bind def
/J { setlinecap } bind def
/j { setlinejoin } bind def
/M { setmiterlimit } bind def
/d { setdash } bind def
/m { moveto } bind def
/l { lineto } bind def
/c { curveto } bind def
/h { closepath } bind def
/re { exch dup neg 3 1 roll 5 3 roll moveto 0 rlineto
      0 exch rlineto 0 rlineto closepath } bind def
/S { stroke } bind def
/f { fill } bind def
/f* { eofill } bind def
/n { newpath } bind def
/W { clip } bind def
/W* { eoclip } bind def
/BT { } bind def
/ET { } bind def
/BDC { mark 3 1 roll /BDC pdfmark } bind def
/EMC { mark /EMC pdfmark } bind def
/cairo_store_point { /cairo_point_y exch def /cairo_point_x exch def } def
/Tj { show currentpoint cairo_store_point } bind def
/TJ {
  {
    dup
    type /stringtype eq
    { show } { -0.001 mul 0 cairo_font_matrix dtransform rmoveto } ifelse
  } forall
  currentpoint cairo_store_point
} bind def
/cairo_selectfont { cairo_font_matrix aload pop pop pop 0 0 6 array astore
    cairo_font exch selectfont cairo_point_x cairo_point_y moveto } bind def
/Tf { pop /cairo_font exch def /cairo_font_matrix where
      { pop cairo_selectfont } if } bind def
/Td { matrix translate cairo_font_matrix matrix concatmatrix dup
      /cairo_font_matrix exch def dup 4 get exch 5 get cairo_store_point
      /cairo_font where { pop cairo_selectfont } if } bind def
/Tm { 2 copy 8 2 roll 6 array astore /cairo_font_matrix exch def
      cairo_store_point /cairo_font where { pop cairo_selectfont } if } bind def
/g { setgray } bind def
/rg { setrgbcolor } bind def
/d1 { setcachedevice } bind def
/cairo_data_source {
  CairoDataIndex CairoData length lt
    { CairoData CairoDataIndex get /CairoDataIndex CairoDataIndex 1 add def }
    { () } ifelse
} def
/cairo_flush_ascii85_file { cairo_ascii85_file status { cairo_ascii85_file flushfile } if } def
/cairo_image { image cairo_flush_ascii85_file } def
/cairo_imagemask { imagemask cairo_flush_ascii85_file } def
%%EndProlog
%%BeginSetup
%%EndSetup
%%Page: 1 1
%%BeginPageSetup
%%PageBoundingBox: 0 0 261 178
%%EndPageSetup
q 0 0 261 178 rectclip
1 0 0 -1 0 178 cm q
Q q
9.625 0 251.375 121.629 re W n
q
9 0 252 122 re W n
  q
0 g
1.13366 w
0 J
0 j
[] 0.0 d
10 M q 1 0 0 -1 0 0 cm
26.207 -3.047 m 26.66 -10.984 l 27.113 -14.109 l 27.566 -16.441 l 28.02
 -18.426 l 28.473 -20.109 l 30.742 -26.559 l 33.008 -31.273 l 35.277 -35.141
 l 37.543 -38.414 l 39.812 -41.293 l 42.078 -43.871 l 44.348 -46.203 l 46.613
 -48.336 l 48.883 -50.32 l 51.148 -52.156 l 53.418 -53.895 l 55.684 -55.531
 l 57.953 -57.066 l 60.223 -58.508 l 62.488 -59.895 l 64.758 -61.234 l 67.023
 -62.523 l 69.289 -63.715 l 71.559 -64.906 l 73.828 -65.996 l 76.094 -67.09
 l 78.363 -68.129 l 80.629 -69.121 l 82.898 -70.062 l 85.164 -71.008 l 87.434
 -71.949 l 89.703 -72.793 l 91.969 -73.688 l 94.234 -74.48 l 96.504 -75.32
 l 98.773 -76.066 l 101.039 -76.859 l 103.309 -77.605 l 105.574 -78.301 
l 107.844 -78.992 l 110.109 -79.688 l 112.379 -80.383 l 114.645 -81.027 
l 116.914 -81.672 l 119.18 -82.316 l 121.449 -82.91 l 123.719 -83.508 l 
125.984 -84.102 l 128.254 -84.648 l 130.52 -85.242 l 132.789 -85.789 l 135.055
 -86.336 l 137.324 -86.832 l 139.59 -87.375 l 141.859 -87.871 l 144.125 
-88.367 l 146.395 -88.863 l 148.66 -89.359 l 150.93 -89.809 l 153.195 -90.305
 l 155.465 -90.75 l 157.73 -91.195 l 160 -91.645 l 162.27 -92.039 l 164.535
 -92.484 l 166.805 -92.883 l 169.07 -93.328 l 171.34 -93.727 l 173.605 -94.121
 l 175.875 -94.52 l 178.141 -94.867 l 180.41 -95.266 l 182.676 -95.66 l 
187.215 -96.355 l 189.48 -96.703 l 191.746 -97.102 l 194.016 -97.445 l 196.285
 -97.746 l 198.551 -98.094 l 200.82 -98.438 l 203.086 -98.738 l 205.355 
-99.086 l 207.621 -99.383 l 209.891 -99.73 l 212.156 -100.027 l 214.426 
-100.324 l 216.691 -100.621 l 218.961 -100.918 l 221.23 -101.219 l 223.496
 -101.516 l 225.766 -101.762 l 228.031 -102.059 l 230.301 -102.359 l 232.566
 -102.605 l 234.836 -102.902 l 237.102 -103.152 l 239.371 -103.398 l 241.637
 -103.648 l 243.906 -103.945 l 246.172 -104.191 l 250.711 -104.691 l 252.977
 -104.938 l S Q
  Q
Q
Q q
0 g
1.13366 w
1 J
0 j
[] 0.0 d
10 M q 1 0 0 -1 0 0 cm
28.648 -21.723 m 28.66 -21.754 l 29.586 -24.73 m 29.594 -24.762 l 30.52
 -27.738 m 30.531 -27.766 l 31.656 -30.672 m 31.668 -30.699 l 32.855 -33.582
 m 32.867 -33.609 l 34.223 -36.418 m 34.234 -36.445 l 35.648 -39.227 m 35.664
 -39.25 l 37.195 -41.969 m 37.211 -41.996 l 38.84 -44.652 m 38.855 -44.68
 l 40.562 -47.289 m 40.578 -47.312 l 42.367 -49.867 m 42.387 -49.891 l 44.258
 -52.387 m 44.277 -52.41 l 46.223 -54.848 m 46.242 -54.871 l 48.246 -57.262
 m 48.266 -57.285 l 50.324 -59.621 m 50.348 -59.645 l 52.469 -61.93 m 52.492
 -61.949 l 54.668 -64.184 m 54.691 -64.203 l 56.914 -66.391 m 56.938 -66.41
 l 59.199 -68.559 m 59.219 -68.578 l 61.535 -70.668 m 61.559 -70.688 l 63.902
 -72.742 m 63.926 -72.762 l 66.305 -74.777 m 66.332 -74.797 l 68.746 -76.77
 m 68.77 -76.785 l 71.234 -78.695 m 71.258 -78.715 l 73.734 -80.609 m 73.762
 -80.629 l 76.262 -82.488 m 76.289 -82.504 l 78.844 -84.289 m 78.871 -84.309
 l 81.422 -86.098 m 81.449 -86.113 l 84.023 -87.871 m 84.051 -87.887 l 86.656
 -89.598 m 86.684 -89.613 l 89.309 -91.293 m 89.336 -91.312 l 91.969 -92.984
 m 91.992 -93 l 94.656 -94.621 m 94.684 -94.637 l 97.367 -96.223 m 97.395
 -96.238 l 100.094 -97.801 m 100.121 -97.816 l 102.828 -99.359 m 102.859
 -99.375 l 105.586 -100.879 m 105.613 -100.895 l 108.352 -102.387 m 108.379
 -102.402 l 111.121 -103.883 m 111.148 -103.898 l 113.91 -105.344 m 113.938
 -105.359 l 116.719 -106.773 m 116.746 -106.785 l 119.531 -108.188 m 119.559
 -108.203 l 122.352 -109.586 m 122.379 -109.602 l 125.188 -110.953 m 125.219
 -110.969 l 128.027 -112.316 m 128.055 -112.332 l 130.867 -113.68 m 130.895
 -113.691 l 133.727 -114.992 m 133.754 -115.008 l 136.602 -116.277 m 136.629
 -116.289 l 139.469 -117.582 m 139.496 -117.594 l 142.355 -118.836 m 142.387
 -118.848 l 145.254 -120.066 m 145.285 -120.078 l 148.152 -121.297 m 148.184
 -121.309 l 151.062 -122.504 m 151.09 -122.516 l 153.969 -123.715 m 153.996
 -123.727 l 156.875 -124.922 m 156.906 -124.934 l 159.801 -126.09 m 159.828
 -126.102 l 162.73 -127.242 m 162.758 -127.254 l 165.668 -128.375 m 165.699
 -128.387 l 168.605 -129.508 m 168.637 -129.52 l 171.555 -130.613 m 171.582
 -130.625 l 174.504 -131.711 m 174.535 -131.723 l 177.457 -132.809 m 177.488
 -132.82 l 180.41 -133.906 m 180.438 -133.918 l 183.375 -134.961 m 183.406
 -134.973 l 186.336 -136.031 m 186.367 -136.043 l 189.309 -137.074 m 189.336
 -137.082 l 192.281 -138.113 m 192.309 -138.125 l 195.262 -139.129 m 195.289
 -139.137 l 198.238 -140.148 m 198.27 -140.16 l 201.23 -141.137 m 201.262
 -141.145 l 204.223 -142.117 m 204.25 -142.129 l 207.215 -143.102 m 207.242
 -143.109 l 210.207 -144.082 m 210.234 -144.09 l 213.203 -145.043 m 213.234
 -145.051 l 216.203 -146 m 216.234 -146.008 l 219.211 -146.938 m 219.238
 -146.945 l 222.207 -147.898 m 222.238 -147.906 l 225.219 -148.82 m 225.25
 -148.832 l 228.23 -149.742 m 228.262 -149.75 l 231.254 -150.621 m 231.285
 -150.629 l 234.266 -151.543 m 234.293 -151.551 l S Q
0.567043 w
0 J
q 1 0 0 -1 0 0 cm
28.473 -20.258 m 29.883 -24.266 l 30.844 -26.926 m 32.672 -30.762 l 34.043
 -33.238 m 35.277 -35.34 l 36.309 -36.828 l 37.953 -39.133 m 39.812 -41.492
 l 40.625 -42.434 l 42.5 -44.555 m 44.348 -46.453 l 45.5 -47.562 l 47.57
 -49.492 m 48.883 -50.668 l 50.816 -52.234 l 53.039 -53.992 m 53.418 -54.289
 l 55.684 -55.977 l 56.461 -56.504 l 58.805 -58.094 m 60.223 -59.051 l 62.387
 -60.379 l 64.801 -61.855 m 67.023 -63.117 l 68.492 -63.957 l 70.984 -65.301
 m 71.559 -65.602 l 73.828 -66.742 l 74.777 -67.219 l 77.316 -68.473 m 78.363
 -68.973 l 80.629 -70.016 l 81.168 -70.262 l 83.758 -71.414 m 85.164 -72
 l 87.434 -72.992 l 87.66 -73.086 l 90.281 -74.16 m 91.969 -74.828 l 94.234
 -75.719 l 96.887 -76.707 m 98.773 -77.406 l 100.887 -78.145 l 103.559 -79.078
 m 105.574 -79.785 l 107.582 -80.445 l 110.273 -81.328 m 112.379 -82.02 
l 114.32 -82.617 l 117.016 -83.484 m 119.18 -84.102 l 121.09 -84.688 l 123.812
 -85.469 m 125.984 -86.086 l 127.898 -86.629 l 130.637 -87.359 m 132.789
 -87.973 l 134.73 -88.48 l 137.473 -89.199 m 139.59 -89.707 l 141.594 -90.234
 l 144.344 -90.902 m 146.395 -91.395 l 148.473 -91.898 l 151.23 -92.559 
m 153.195 -93.031 l 155.367 -93.508 l 158.133 -94.121 m 160 -94.57 l 162.27
 -95.066 l 162.273 -95.066 l 165.051 -95.625 m 166.805 -96.008 l 169.07 
-96.504 l 169.203 -96.531 l 171.977 -97.09 m 173.605 -97.445 l 175.875 -97.895
 l 176.141 -97.945 l 178.918 -98.492 m 180.41 -98.785 l 182.676 -99.234 
l 183.086 -99.305 l 185.875 -99.812 m 187.215 -100.074 l 189.48 -100.523
 l 190.043 -100.621 l 192.832 -101.109 m 194.016 -101.316 l 196.285 -101.762
 l 197.012 -101.891 l 199.801 -102.379 m 200.82 -102.555 l 203.086 -102.953
 l 203.988 -103.09 l 206.781 -103.551 m 207.621 -103.695 l 209.891 -104.094
 l 210.969 -104.258 l 213.766 -104.723 m 214.426 -104.84 l 216.691 -105.188
 l 217.957 -105.406 l 220.75 -105.855 m 221.23 -105.93 l 223.496 -106.277
 l 224.949 -106.5 l 227.75 -106.93 m 228.031 -106.973 l 230.301 -107.316
 l 231.949 -107.57 l 234.75 -108 m 234.836 -108.012 l 237.102 -108.359 l
 238.949 -108.641 l 241.754 -109.023 m 243.906 -109.352 l 245.961 -109.621
 l 248.762 -110.039 m 250.711 -110.293 l 252.973 -110.594 l S Q
q 1 0 0 -1 0 0 cm
26.207 -3.008 226.781 -148.82 re S Q
0.398506 w
q 1 0 0 -1 0 0 cm
26.207 -151.828 m 26.207 -147.578 l S Q
q 1 0 0 -1 0 0 cm
71.57 -151.828 m 71.57 -147.578 l S Q
q 1 0 0 -1 0 0 cm
116.934 -151.828 m 116.934 -147.578 l S Q
q 1 0 0 -1 0 0 cm
162.297 -151.828 m 162.297 -147.578 l S Q
q 1 0 0 -1 0 0 cm
207.66 -151.828 m 207.66 -147.578 l S Q
q 1 0 0 -1 0 0 cm
253.023 -151.828 m 253.023 -147.578 l S Q
q 1 0 0 -1 0 0 cm
26.207 -151.828 m 26.207 -147.578 l S Q
q 1 0 0 -1 0 0 cm
26.207 -151.828 m 30.457 -151.828 l S Q
q 1 0 0 -1 0 0 cm
26.207 -102.219 m 30.457 -102.219 l S Q
q 1 0 0 -1 0 0 cm
26.207 -52.609 m 30.457 -52.609 l S Q
q 1 0 0 -1 0 0 cm
26.207 -3 m 30.457 -3 l S Q
q 1 0 0 -1 0 0 cm
26.207 -151.828 m 30.457 -151.828 l S Q
q 1 0 0 -1 0 0 cm
26.207 -3.008 m 26.207 -7.262 l S Q
q 1 0 0 -1 0 0 cm
71.57 -3.008 m 71.57 -7.262 l S Q
q 1 0 0 -1 0 0 cm
116.934 -3.008 m 116.934 -7.262 l S Q
q 1 0 0 -1 0 0 cm
162.297 -3.008 m 162.297 -7.262 l S Q
q 1 0 0 -1 0 0 cm
207.66 -3.008 m 207.66 -7.262 l S Q
q 1 0 0 -1 0 0 cm
253.023 -3.008 m 253.023 -7.262 l S Q
q 1 0 0 -1 0 0 cm
26.207 -3.008 m 26.207 -7.262 l S Q
q 1 0 0 -1 0 0 cm
252.988 -151.828 m 248.738 -151.828 l S Q
q 1 0 0 -1 0 0 cm
252.988 -102.219 m 248.738 -102.219 l S Q
q 1 0 0 -1 0 0 cm
252.988 -52.609 m 248.738 -52.609 l S Q
q 1 0 0 -1 0 0 cm
252.988 -3 m 248.738 -3 l S Q
q 1 0 0 -1 0 0 cm
252.988 -151.828 m 248.738 -151.828 l S Q
28.16 158.355 m 28.16 156.746 27.426 155.293 26.176 155.293 c 24.91 155.293
 24.176 156.746 24.176 158.355 c 24.176 159.98 24.863 161.418 26.176 161.418
 c 27.379 161.418 28.16 159.98 28.16 158.355 c h
27.301 158.355 m 27.301 159.652 27.176 161.168 26.176 161.168 c 25.223 
161.168 25.035 159.652 25.035 158.355 c 25.035 157.277 25.16 155.527 26.176
 155.527 c 27.176 155.527 27.301 157.277 27.301 158.355 c h
27.301 158.355 m f
67.879 158.355 m 67.879 156.746 67.145 155.293 65.895 155.293 c 64.629 
155.293 63.895 156.746 63.895 158.355 c 63.895 159.98 64.582 161.418 65.895
 161.418 c 67.098 161.418 67.879 159.98 67.879 158.355 c h
67.02 158.355 m 67.02 159.652 66.895 161.168 65.895 161.168 c 64.941 161.168
 64.754 159.652 64.754 158.355 c 64.754 157.277 64.879 155.527 65.895 155.527
 c 66.895 155.527 67.02 157.277 67.02 158.355 c h
67.02 158.355 m f
69.801 160.934 m 69.801 160.652 69.582 160.434 69.301 160.434 c 69.02 160.434
 68.801 160.652 68.801 160.934 c 68.801 161.215 69.02 161.434 69.301 161.434
 c 69.582 161.434 69.801 161.215 69.801 160.934 c h
69.801 160.934 m f
74.719 158.355 m 74.719 156.746 73.984 155.293 72.734 155.293 c 71.469 
155.293 70.734 156.746 70.734 158.355 c 70.734 159.98 71.422 161.418 72.734
 161.418 c 73.938 161.418 74.719 159.98 74.719 158.355 c h
73.859 158.355 m 73.859 159.652 73.734 161.168 72.734 161.168 c 71.781 
161.168 71.594 159.652 71.594 158.355 c 71.594 157.277 71.719 155.527 72.734
 155.527 c 73.734 155.527 73.859 157.277 73.859 158.355 c h
73.859 158.355 m f
79.188 160.152 m 79.031 160.121 l 78.766 160.574 78.547 160.652 78.109 
160.652 c 76.047 160.652 l 77.469 159.355 78.766 158.184 78.766 156.871 
c 78.766 155.949 77.969 155.293 77.094 155.293 c 76.234 155.293 75.547 155.762
 75.281 156.98 c 75.484 156.98 l 75.734 156.48 76.078 155.965 76.766 155.965
 c 77.547 155.965 77.984 156.559 77.984 157.23 c 77.984 158.199 76.953 159.621
 75.188 161.168 c 75.188 161.309 l 78.719 161.309 l h
79.188 160.152 m f
113.238 158.355 m 113.238 156.746 112.504 155.293 111.254 155.293 c 109.988
 155.293 109.254 156.746 109.254 158.355 c 109.254 159.98 109.941 161.418
 111.254 161.418 c 112.457 161.418 113.238 159.98 113.238 158.355 c h
112.379 158.355 m 112.379 159.652 112.254 161.168 111.254 161.168 c 110.301
 161.168 110.113 159.652 110.113 158.355 c 110.113 157.277 110.238 155.527
 111.254 155.527 c 112.254 155.527 112.379 157.277 112.379 158.355 c h
112.379 158.355 m f
115.16 160.934 m 115.16 160.652 114.941 160.434 114.66 160.434 c 114.379
 160.434 114.16 160.652 114.16 160.934 c 114.16 161.215 114.379 161.434 
114.66 161.434 c 114.941 161.434 115.16 161.215 115.16 160.934 c h
115.16 160.934 m f
120.078 158.355 m 120.078 156.746 119.344 155.293 118.094 155.293 c 116.828
 155.293 116.094 156.746 116.094 158.355 c 116.094 159.98 116.781 161.418
 118.094 161.418 c 119.297 161.418 120.078 159.98 120.078 158.355 c h
119.219 158.355 m 119.219 159.652 119.094 161.168 118.094 161.168 c 117.141
 161.168 116.953 159.652 116.953 158.355 c 116.953 157.277 117.078 155.527
 118.094 155.527 c 119.094 155.527 119.219 157.277 119.219 158.355 c h
119.219 158.355 m f
124.531 159.824 m 124.531 159.215 l 123.656 159.215 l 123.656 155.293 l
 123.219 155.293 l 120.625 159.199 l 120.625 159.824 l 122.922 159.824 l
 122.922 161.309 l 123.656 161.309 l 123.656 159.824 l h
122.922 159.215 m 120.984 159.215 l 122.906 156.23 l 122.922 156.23 l h
122.922 159.215 m f
158.598 158.355 m 158.598 156.746 157.863 155.293 156.613 155.293 c 155.348
 155.293 154.613 156.746 154.613 158.355 c 154.613 159.98 155.301 161.418
 156.613 161.418 c 157.816 161.418 158.598 159.98 158.598 158.355 c h
157.738 158.355 m 157.738 159.652 157.613 161.168 156.613 161.168 c 155.66
 161.168 155.473 159.652 155.473 158.355 c 155.473 157.277 155.598 155.527
 156.613 155.527 c 157.613 155.527 157.738 157.277 157.738 158.355 c h
157.738 158.355 m f
160.523 160.934 m 160.523 160.652 160.305 160.434 160.023 160.434 c 159.742
 160.434 159.523 160.652 159.523 160.934 c 159.523 161.215 159.742 161.434
 160.023 161.434 c 160.305 161.434 160.523 161.215 160.523 160.934 c h
160.523 160.934 m f
165.438 158.355 m 165.438 156.746 164.703 155.293 163.453 155.293 c 162.188
 155.293 161.453 156.746 161.453 158.355 c 161.453 159.98 162.141 161.418
 163.453 161.418 c 164.656 161.418 165.438 159.98 165.438 158.355 c h
164.578 158.355 m 164.578 159.652 164.453 161.168 163.453 161.168 c 162.5
 161.168 162.312 159.652 162.312 158.355 c 162.312 157.277 162.438 155.527
 163.453 155.527 c 164.453 155.527 164.578 157.277 164.578 158.355 c h
164.578 158.355 m f
169.832 159.293 m 169.832 158.309 169.129 157.574 168.238 157.574 c 167.785
 157.574 167.41 157.715 167.02 158.027 c 167.41 156.434 168.582 155.434 
169.707 155.418 c 169.707 155.262 l 166.941 155.262 166.066 157.605 166.066
 158.934 c 166.066 160.355 166.895 161.418 168.004 161.418 c 169.02 161.418
 169.832 160.465 169.832 159.293 c h
169.066 159.746 m 169.066 160.574 168.691 161.152 168.098 161.152 c 167.176
 161.152 166.895 159.809 166.895 159.09 c 166.895 158.855 166.926 158.605
 166.973 158.309 c 167.363 158.059 167.676 157.949 167.988 157.949 c 168.895
 157.949 169.066 158.996 169.066 159.746 c h
169.066 159.746 m f
203.957 158.355 m 203.957 156.746 203.223 155.293 201.973 155.293 c 200.707
 155.293 199.973 156.746 199.973 158.355 c 199.973 159.98 200.66 161.418
 201.973 161.418 c 203.176 161.418 203.957 159.98 203.957 158.355 c h
203.098 158.355 m 203.098 159.652 202.973 161.168 201.973 161.168 c 201.02
 161.168 200.832 159.652 200.832 158.355 c 200.832 157.277 200.957 155.527
 201.973 155.527 c 202.973 155.527 203.098 157.277 203.098 158.355 c h
203.098 158.355 m f
205.883 160.934 m 205.883 160.652 205.664 160.434 205.383 160.434 c 205.102
 160.434 204.883 160.652 204.883 160.934 c 204.883 161.215 205.102 161.434
 205.383 161.434 c 205.664 161.434 205.883 161.215 205.883 160.934 c h
205.883 160.934 m f
210.797 158.355 m 210.797 156.746 210.062 155.293 208.812 155.293 c 207.547
 155.293 206.812 156.746 206.812 158.355 c 206.812 159.98 207.5 161.418 
208.812 161.418 c 210.016 161.418 210.797 159.98 210.797 158.355 c h
209.938 158.355 m 209.938 159.652 209.812 161.168 208.812 161.168 c 207.859
 161.168 207.672 159.652 207.672 158.355 c 207.672 157.277 207.797 155.527
 208.812 155.527 c 209.812 155.527 209.938 157.277 209.938 158.355 c h
209.938 158.355 m f
214.973 159.934 m 214.973 159.293 214.691 158.809 213.598 157.996 c 214.285
 157.621 214.816 157.199 214.816 156.543 c 214.816 155.855 214.176 155.262
 213.223 155.262 c 212.379 155.262 211.582 155.809 211.582 156.652 c 211.582
 157.309 211.926 157.699 212.691 158.309 c 211.832 158.965 211.52 159.293
 211.52 159.965 c 211.52 160.715 212.191 161.418 213.238 161.418 c 214.457
 161.418 214.973 160.59 214.973 159.934 c h
214.207 156.527 m 214.207 157.168 213.832 157.512 213.348 157.84 c 212.754
 157.418 212.238 156.949 212.238 156.434 c 212.238 155.949 212.582 155.527
 213.191 155.527 c 213.863 155.527 214.207 155.949 214.207 156.527 c h
214.332 160.184 m 214.332 160.762 213.895 161.152 213.316 161.152 c 212.629
 161.152 212.191 160.605 212.191 159.871 c 212.191 159.199 212.52 158.809
 212.926 158.465 c 213.91 159.215 214.332 159.59 214.332 160.184 c h
214.332 160.184 m f
15.68 151.875 m 15.68 150.266 14.945 148.812 13.695 148.812 c 12.43 148.812
 11.695 150.266 11.695 151.875 c 11.695 153.5 12.383 154.938 13.695 154.938
 c 14.898 154.938 15.68 153.5 15.68 151.875 c h
14.82 151.875 m 14.82 153.172 14.695 154.688 13.695 154.688 c 12.742 154.688
 12.555 153.172 12.555 151.875 c 12.555 150.797 12.68 149.047 13.695 149.047
 c 14.695 149.047 14.82 150.797 14.82 151.875 c h
14.82 151.875 m f
17.602 154.453 m 17.602 154.172 17.383 153.953 17.102 153.953 c 16.82 153.953
 16.602 154.172 16.602 154.453 c 16.602 154.734 16.82 154.953 17.102 154.953
 c 17.383 154.953 17.602 154.734 17.602 154.453 c h
17.602 154.453 m f
22.395 148.906 m 19.113 148.906 l 18.566 150.234 l 18.723 150.234 l 19.035
 149.75 19.27 149.578 19.785 149.578 c 21.676 149.578 l 19.879 154.938 l
 20.426 154.938 l h
22.395 148.906 m f
15.68 102.316 m 15.68 100.707 14.945 99.254 13.695 99.254 c 12.43 99.254
 11.695 100.707 11.695 102.316 c 11.695 103.941 12.383 105.379 13.695 105.379
 c 14.898 105.379 15.68 103.941 15.68 102.316 c h
14.82 102.316 m 14.82 103.613 14.695 105.129 13.695 105.129 c 12.742 105.129
 12.555 103.613 12.555 102.316 c 12.555 101.238 12.68 99.488 13.695 99.488
 c 14.695 99.488 14.82 101.238 14.82 102.316 c h
14.82 102.316 m f
17.602 104.895 m 17.602 104.613 17.383 104.395 17.102 104.395 c 16.82 104.395
 16.602 104.613 16.602 104.895 c 16.602 105.176 16.82 105.395 17.102 105.395
 c 17.383 105.395 17.602 105.176 17.602 104.895 c h
17.602 104.895 m f
22.254 103.895 m 22.254 103.254 21.973 102.77 20.879 101.957 c 21.566 101.582
 22.098 101.16 22.098 100.504 c 22.098 99.816 21.457 99.223 20.504 99.223
 c 19.66 99.223 18.863 99.77 18.863 100.613 c 18.863 101.27 19.207 101.66
 19.973 102.27 c 19.113 102.926 18.801 103.254 18.801 103.926 c 18.801 104.676
 19.473 105.379 20.52 105.379 c 21.738 105.379 22.254 104.551 22.254 103.895
 c h
21.488 100.488 m 21.488 101.129 21.113 101.473 20.629 101.801 c 20.035 
101.379 19.52 100.91 19.52 100.395 c 19.52 99.91 19.863 99.488 20.473 99.488
 c 21.145 99.488 21.488 99.91 21.488 100.488 c h
21.613 104.145 m 21.613 104.723 21.176 105.113 20.598 105.113 c 19.91 105.113
 19.473 104.566 19.473 103.832 c 19.473 103.16 19.801 102.77 20.207 102.426
 c 21.191 103.176 21.613 103.551 21.613 104.145 c h
21.613 104.145 m f
15.68 52.754 m 15.68 51.145 14.945 49.691 13.695 49.691 c 12.43 49.691 
11.695 51.145 11.695 52.754 c 11.695 54.379 12.383 55.816 13.695 55.816 
c 14.898 55.816 15.68 54.379 15.68 52.754 c h
14.82 52.754 m 14.82 54.051 14.695 55.566 13.695 55.566 c 12.742 55.566
 12.555 54.051 12.555 52.754 c 12.555 51.676 12.68 49.926 13.695 49.926 
c 14.695 49.926 14.82 51.676 14.82 52.754 c h
14.82 52.754 m f
17.602 55.332 m 17.602 55.051 17.383 54.832 17.102 54.832 c 16.82 54.832
 16.602 55.051 16.602 55.332 c 16.602 55.613 16.82 55.832 17.102 55.832 
c 17.383 55.832 17.602 55.613 17.602 55.332 c h
17.602 55.332 m f
22.629 52.129 m 22.629 50.723 21.785 49.66 20.691 49.66 c 19.676 49.66 
18.863 50.598 18.863 51.77 c 18.863 52.77 19.566 53.488 20.441 53.488 c 
20.91 53.488 21.285 53.348 21.66 53.035 c 21.395 54.691 20.113 55.629 18.988
 55.645 c 18.988 55.816 l 21.754 55.816 22.629 53.457 22.629 52.129 c h
21.785 51.988 m 21.785 52.223 21.77 52.457 21.723 52.754 c 21.332 53.02
 21.02 53.113 20.707 53.113 c 19.785 53.113 19.629 52.082 19.629 51.316 
c 19.629 50.504 20.004 49.926 20.598 49.926 c 21.52 49.926 21.785 51.27 
21.785 51.988 c h
21.785 51.988 m f
249.305 158.395 m 249.305 156.785 248.57 155.332 247.32 155.332 c 246.055
 155.332 245.32 156.785 245.32 158.395 c 245.32 160.02 246.008 161.457 247.32
 161.457 c 248.523 161.457 249.305 160.02 249.305 158.395 c h
248.445 158.395 m 248.445 159.691 248.32 161.207 247.32 161.207 c 246.367
 161.207 246.18 159.691 246.18 158.395 c 246.18 157.316 246.305 155.566 
247.32 155.566 c 248.32 155.566 248.445 157.316 248.445 158.395 c h
248.445 158.395 m f
251.227 160.973 m 251.227 160.691 251.008 160.473 250.727 160.473 c 250.445
 160.473 250.227 160.691 250.227 160.973 c 250.227 161.254 250.445 161.473
 250.727 161.473 c 251.008 161.473 251.227 161.254 251.227 160.973 c h
251.227 160.973 m f
255.395 161.348 m 255.395 161.207 l 254.801 161.207 254.582 161.223 254.582
 160.051 c 254.582 160.035 254.582 155.301 254.582 155.301 c 254.457 155.301
 l 252.926 156.035 l 252.973 156.176 l 253.301 156.035 253.379 156.004 253.504
 156.004 c 253.77 156.004 253.816 156.238 253.816 156.551 c 253.816 160.051
 l 253.816 161.223 253.598 161.191 253.004 161.207 c 253.004 161.348 l h
255.395 161.348 m f
260.582 158.395 m 260.582 156.785 259.848 155.332 258.598 155.332 c 257.332
 155.332 256.598 156.785 256.598 158.395 c 256.598 160.02 257.285 161.457
 258.598 161.457 c 259.801 161.457 260.582 160.02 260.582 158.395 c h
259.723 158.395 m 259.723 159.691 259.598 161.207 258.598 161.207 c 257.645
 161.207 257.457 159.691 257.457 158.395 c 257.457 157.316 257.582 155.566
 258.598 155.566 c 259.598 155.566 259.723 157.316 259.723 158.395 c h
259.723 158.395 m f
14.93 6.047 m 14.93 5.906 l 14.336 5.906 14.117 5.922 14.117 4.75 c 14.117
 4.734 14.117 0 14.117 0 c 13.992 0 l 12.461 0.734 l 12.508 0.875 l 12.836
 0.734 12.914 0.703 13.039 0.703 c 13.305 0.703 13.352 0.938 13.352 1.25
 c 13.352 4.75 l 13.352 5.922 13.133 5.891 12.539 5.906 c 12.539 6.047 l
 h
14.93 6.047 m f
17.602 5.672 m 17.602 5.391 17.383 5.172 17.102 5.172 c 16.82 5.172 16.602
 5.391 16.602 5.672 c 16.602 5.953 16.82 6.172 17.102 6.172 c 17.383 6.172
 17.602 5.953 17.602 5.672 c h
17.602 5.672 m f
22.52 3.094 m 22.52 1.484 21.785 0.031 20.535 0.031 c 19.27 0.031 18.535
 1.484 18.535 3.094 c 18.535 4.719 19.223 6.156 20.535 6.156 c 21.738 6.156
 22.52 4.719 22.52 3.094 c h
21.66 3.094 m 21.66 4.391 21.535 5.906 20.535 5.906 c 19.582 5.906 19.395
 4.391 19.395 3.094 c 19.395 2.016 19.52 0.266 20.535 0.266 c 21.535 0.266
 21.66 2.016 21.66 3.094 c h
21.66 3.094 m f
120.418 173.863 m 120.293 173.77 l 120.105 174.004 119.777 174.441 119.59
 174.441 c 119.512 174.441 119.465 174.395 119.465 174.285 c 119.465 174.191
 119.543 173.973 119.59 173.801 c 119.59 173.801 120.121 171.848 120.121
 171.801 c 120.184 171.613 120.215 171.426 120.215 171.301 c 120.215 170.848
 119.934 170.691 119.715 170.691 c 118.98 170.691 118.152 171.66 117.574
 172.691 c 117.574 172.691 117.902 171.645 117.902 171.285 c 117.902 171.051
 117.809 170.691 117.387 170.691 c 116.559 170.691 115.527 172.285 115.309
 172.691 c 115.84 170.691 l 115.84 170.691 114.621 170.926 114.355 170.941
 c 114.355 171.098 l 114.684 171.098 114.949 171.066 114.949 171.426 c 114.949
 171.598 114.871 171.879 114.793 172.16 c 114.793 172.16 114.074 174.551
 114.027 174.785 c 114.715 174.785 l 114.871 174.191 l 115.387 172.254 116.637
 171.191 116.98 171.191 c 117.121 171.191 117.215 171.238 117.215 171.441
 c 117.215 171.582 117.105 171.988 117.043 172.254 c 117.043 172.254 116.418
 174.473 116.34 174.785 c 117.012 174.785 l 117.168 174.191 l 117.715 172.176
 118.934 171.191 119.293 171.191 c 119.418 171.191 119.512 171.285 119.512
 171.426 c 119.512 171.52 119.418 171.926 119.324 172.254 c 118.965 173.598
 l 118.871 173.926 118.793 174.332 118.793 174.473 c 118.793 174.707 118.918
 174.895 119.121 174.895 c 119.574 174.895 120.059 174.379 120.418 173.863
 c h
120.418 173.863 m f
121.242 172.582 m 121.82 172.613 121.898 172.691 121.898 173.207 c 121.898
 176.301 l 121.898 176.832 121.805 176.91 121.242 176.941 c 121.242 177.066
 l 123.57 177.066 l 124.102 177.066 124.602 176.926 124.867 176.676 c 125.117
 176.457 125.242 176.145 125.242 175.816 c 125.242 175.504 125.133 175.223
 124.914 175.02 c 124.695 174.832 124.508 174.754 124.055 174.645 c 124.414
 174.551 124.57 174.488 124.727 174.332 c 124.914 174.176 125.008 173.926
 125.008 173.645 c 125.008 172.863 124.383 172.457 123.18 172.457 c 121.242
 172.457 l h
122.617 174.801 m 123.289 174.801 123.617 174.832 123.867 174.941 c 124.258
 175.098 124.445 175.395 124.445 175.816 c 124.445 176.191 124.305 176.473
 124.023 176.629 c 123.805 176.754 123.508 176.801 123.055 176.801 c 122.711
 176.801 122.617 176.738 122.617 176.52 c h
122.617 174.52 m 122.617 172.926 l 122.617 172.77 122.648 172.723 122.773
 172.723 c 123.07 172.707 l 123.852 172.691 124.305 173.051 124.305 173.66
 c 124.305 174.223 123.945 174.504 123.273 174.52 c h
122.617 174.52 m f
130.184 168.348 m 129.746 168.348 l 126.637 176.707 l 127.09 176.707 l 
h
130.184 168.348 m f
130.855 174.785 m 132.855 174.785 l 132.855 174.645 l 132.387 174.645 132.246
 174.551 132.246 174.191 c 132.246 171.66 l 132.246 171.645 132.309 171.551
 132.371 171.488 c 132.605 171.285 132.98 171.129 133.293 171.129 c 133.699
 171.129 133.887 171.441 133.887 172.066 c 133.887 174.02 l 133.871 174.52
 133.777 174.629 133.277 174.645 c 133.277 174.785 l 135.293 174.785 l 135.293
 174.645 l 134.793 174.645 134.668 174.504 134.637 173.926 c 134.637 171.676
 l 134.918 171.285 135.199 171.129 135.621 171.129 c 136.137 171.129 136.293
 171.363 136.293 172.113 c 136.293 174.004 l 136.277 174.535 136.215 174.598
 135.699 174.645 c 135.699 174.785 l 137.668 174.785 l 137.668 174.645 l
 137.434 174.629 l 137.152 174.582 137.043 174.457 137.043 174.098 c 137.043
 172.254 l 137.043 171.191 136.699 170.66 136.012 170.66 c 135.48 170.66
 135.027 170.895 134.543 171.41 c 134.387 170.895 134.074 170.66 133.59 
170.66 c 133.184 170.66 132.949 170.77 132.199 171.348 c 132.199 170.676
 l 132.137 170.66 l 131.668 170.832 131.355 170.926 130.887 171.066 c 130.887
 171.223 l 130.996 171.191 131.074 171.176 131.168 171.176 c 131.402 171.176
 131.48 171.316 131.48 171.754 c 131.48 174.02 l 131.465 174.52 131.355 
174.645 130.855 174.645 c h
130.855 174.785 m f
139.926 170.66 m 138.738 170.66 137.941 171.52 137.941 172.754 c 137.941
 173.973 138.77 174.879 139.895 174.879 c 141.035 174.879 141.895 173.926
 141.895 172.691 c 141.895 171.504 141.066 170.66 139.926 170.66 c h
139.801 170.91 m 140.551 170.91 141.082 171.77 141.082 173.004 c 141.082
 174.02 140.676 174.629 140.004 174.629 c 139.66 174.629 139.332 174.41 
139.145 174.051 c 138.879 173.582 138.738 172.957 138.738 172.316 c 138.738
 171.473 139.16 170.91 139.801 170.91 c h
139.801 170.91 m f
142.305 174.785 m 144.43 174.785 l 144.43 174.645 l 143.852 174.629 143.758
 174.535 143.742 174.035 c 143.742 168.676 l 143.711 168.66 l 143.258 168.801
 142.93 168.895 142.289 169.051 c 142.289 169.191 l 142.336 169.191 l 142.445
 169.191 142.555 169.176 142.617 169.176 c 142.914 169.176 142.992 169.301
 142.992 169.723 c 142.992 174.004 l 142.992 174.488 142.867 174.613 142.305
 174.645 c h
142.305 174.785 m f
146.258 174.785 m 148.352 174.785 l 148.352 174.645 l 148.18 174.645 l 
147.805 174.613 147.695 174.52 147.68 174.191 c 147.68 172.535 l 148.945
 174.207 l 148.977 174.254 149.008 174.301 149.023 174.332 c 149.102 174.41
 149.133 174.473 149.133 174.52 c 149.133 174.598 149.055 174.645 148.945
 174.645 c 148.773 174.645 l 148.773 174.785 l 150.727 174.785 l 150.727
 174.645 l 150.336 174.629 150.055 174.457 149.68 173.988 c 148.305 172.254
 l 148.57 172.02 l 149.68 171.004 149.93 170.863 150.508 170.879 c 150.508
 170.754 l 148.664 170.754 l 148.664 170.879 l 149.023 170.879 149.117 170.926
 149.117 171.035 c 149.117 171.113 149.039 171.238 148.914 171.348 c 147.68
 172.441 l 147.68 168.676 l 147.648 168.66 l 147.305 168.77 147.039 168.848
 146.523 168.988 c 146.258 169.051 l 146.258 169.191 l 146.367 169.191 146.461
 169.176 146.539 169.176 c 146.852 169.176 146.93 169.301 146.93 169.723
 c 146.93 174.051 l 146.914 174.52 146.898 174.551 146.258 174.645 c h
146.258 174.785 m f
154.855 171.301 m 154.855 170.957 l 154.168 170.957 l 153.98 170.957 153.84
 170.926 153.668 170.863 c 153.465 170.801 l 153.23 170.707 152.98 170.66
 152.746 170.66 c 151.918 170.66 151.262 171.301 151.262 172.129 c 151.262
 172.691 151.496 173.02 152.09 173.316 c 151.855 173.535 l 151.668 173.723
 151.559 173.816 151.527 173.848 c 151.34 174.051 151.293 174.145 151.293
 174.301 c 151.293 174.504 151.387 174.598 151.762 174.77 c 151.121 175.238
 150.887 175.535 150.887 175.863 c 150.887 176.348 151.574 176.738 152.434
 176.738 c 153.105 176.738 153.809 176.504 154.277 176.129 c 154.621 175.848
 154.777 175.566 154.777 175.223 c 154.777 174.676 154.355 174.301 153.684
 174.27 c 152.527 174.207 l 152.043 174.191 151.824 174.113 151.824 173.973
 c 151.824 173.785 152.121 173.473 152.371 173.41 c 152.684 173.426 152.855
 173.441 152.887 173.441 c 153.215 173.441 153.574 173.316 153.84 173.066
 c 154.137 172.816 154.277 172.504 154.277 172.066 c 154.277 171.801 154.23
 171.598 154.105 171.301 c h
151.949 174.801 m 152.262 174.863 152.965 174.926 153.418 174.926 c 154.23
 174.926 154.527 175.035 154.527 175.363 c 154.527 175.879 153.84 176.223
 152.824 176.223 c 152.027 176.223 151.512 175.973 151.512 175.582 c 151.512
 175.363 151.59 175.238 151.949 174.801 c h
151.996 171.754 m 151.996 171.223 152.246 170.91 152.668 170.91 c 152.949
 170.91 153.168 171.066 153.324 171.332 c 153.496 171.645 153.59 172.051
 153.59 172.41 c 153.59 172.91 153.34 173.223 152.918 173.223 c 152.371 
173.223 151.996 172.645 151.996 171.785 c h
151.996 171.754 m f
155.5 169.312 4.703 0.438 re f
163.754 171.547 m 163.754 171.359 l 163.223 171.359 163.051 171.359 163.051
 170.516 c 163.051 170.5 163.051 166.844 163.051 166.844 c 162.879 166.844
 l 161.535 167.422 l 161.613 167.609 l 161.926 167.484 161.988 167.469 162.082
 167.469 c 162.285 167.469 162.301 167.641 162.301 167.844 c 162.301 170.516
 l 162.301 171.359 162.145 171.344 161.613 171.359 c 161.613 171.547 l h
163.754 171.547 m f
0.359 78.453 m 0.125 78.453 0 78.641 0 78.812 c 0 78.922 0.047 79.031 0.156
 79.109 c 0.328 79.203 0.5 79.156 0.797 79.234 c 1.531 79.406 2.312 79.984
 3.625 80.984 c 3.391 80.969 2.625 80.875 1.859 80.875 c 0.938 80.875 0 
81.016 0 81.656 c 0 82.297 0.594 82.5 0.875 82.5 c 0.969 82.5 1.062 82.469
 1.109 82.438 c 1.109 82.359 l 0.953 82.312 0.562 82.172 0.562 81.859 c 
0.562 81.531 1.328 81.312 2.109 81.312 c 3.234 81.328 3.688 81.375 4.047
 81.406 c 4.406 81.672 5.078 82.234 5.641 82.234 c 5.875 82.234 6.016 82.141
 6.016 81.922 c 6.016 81.234 4.562 81.078 4.047 81.047 c 3.672 80.688 1.922
 79.109 0.922 78.594 c 0.688 78.469 0.531 78.453 0.359 78.453 c h
0.359 78.453 m f
6.375 72.828 m 5.938 72.828 l 5.938 75.156 l 4.047 75.156 l 4.047 72.828
 l 3.609 72.828 l 3.609 75.156 l 1.281 75.156 l 1.281 75.578 l 3.609 75.578
 l 3.609 77.906 l 4.047 77.906 l 4.047 75.578 l 5.938 75.578 l 5.938 77.906
 l 6.375 77.906 l h
6.375 72.828 m f
Q Q
showpage
%%Trailer
end
%%EOF
