%!PS-Adobe-3.0 EPSF-3.0
%%Creator: cairo 1.17.4 (https://cairographics.org)
%%CreationDate: Thu Feb 24 10:48:43 2022
%%Pages: 1
%%DocumentData: Clean7Bit
%%LanguageLevel: 2
%%BoundingBox: 0 0 211 174
%%EndComments
%%BeginProlog
50 dict begin
/q { gsave } bind def
/Q { grestore } bind def
/cm { 6 array astore concat } bind def
/w { setlinewidth } bind def
/J { setlinecap } bind def
/j { setlinejoin } bind def
/M { setmiterlimit } bind def
/d { setdash } bind def
/m { moveto } bind def
/l { lineto } bind def
/c { curveto } bind def
/h { closepath } bind def
/re { exch dup neg 3 1 roll 5 3 roll moveto 0 rlineto
      0 exch rlineto 0 rlineto closepath } bind def
/S { stroke } bind def
/f { fill } bind def
/f* { eofill } bind def
/n { newpath } bind def
/W { clip } bind def
/W* { eoclip } bind def
/BT { } bind def
/ET { } bind def
/BDC { mark 3 1 roll /BDC pdfmark } bind def
/EMC { mark /EMC pdfmark } bind def
/cairo_store_point { /cairo_point_y exch def /cairo_point_x exch def } def
/Tj { show currentpoint cairo_store_point } bind def
/TJ {
  {
    dup
    type /stringtype eq
    { show } { -0.001 mul 0 cairo_font_matrix dtransform rmoveto } ifelse
  } forall
  currentpoint cairo_store_point
} bind def
/cairo_selectfont { cairo_font_matrix aload pop pop pop 0 0 6 array astore
    cairo_font exch selectfont cairo_point_x cairo_point_y moveto } bind def
/Tf { pop /cairo_font exch def /cairo_font_matrix where
      { pop cairo_selectfont } if } bind def
/Td { matrix translate cairo_font_matrix matrix concatmatrix dup
      /cairo_font_matrix exch def dup 4 get exch 5 get cairo_store_point
      /cairo_font where { pop cairo_selectfont } if } bind def
/Tm { 2 copy 8 2 roll 6 array astore /cairo_font_matrix exch def
      cairo_store_point /cairo_font where { pop cairo_selectfont } if } bind def
/g { setgray } bind def
/rg { setrgbcolor } bind def
/d1 { setcachedevice } bind def
/cairo_data_source {
  CairoDataIndex CairoData length lt
    { CairoData CairoDataIndex get /CairoDataIndex CairoDataIndex 1 add def }
    { () } ifelse
} def
/cairo_flush_ascii85_file { cairo_ascii85_file status { cairo_ascii85_file flushfile } if } def
/cairo_image { image cairo_flush_ascii85_file } def
/cairo_imagemask { imagemask cairo_flush_ascii85_file } def
%%EndProlog
%%BeginSetup
%%EndSetup
%%Page: 1 1
%%BeginPageSetup
%%PageBoundingBox: 0 0 211 174
%%EndPageSetup
q 0 0 211 174 rectclip
1 0 0 -1 0 174 cm q
Q q
18.66 0 192.34 82.617 re W n
q
18 0 193 83 re W n
  q
0 g
1.13366 w
0 J
0 j
[] 0.0 d
10 M q 1 0 0 -1 0 0 cm
35.039 -3.016 m 35.605 -3.355 l 36.176 -3.668 l 36.742 -4.008 l 37.309 
-4.32 l 37.875 -4.66 l 38.441 -4.973 l 39.008 -5.312 l 40.707 -6.25 l 41.277
 -6.59 l 41.844 -6.902 l 42.41 -7.211 l 43.543 -7.836 l 44.113 -8.148 l 
44.68 -8.461 l 45.246 -8.77 l 48.078 -10.332 l 48.645 -10.641 l 49.215 -10.953
 l 49.781 -11.238 l 50.348 -11.551 l 50.914 -11.859 l 51.48 -12.145 l 52.047
 -12.457 l 52.617 -12.77 l 53.184 -13.051 l 53.75 -13.363 l 54.316 -13.648
 l 54.883 -13.961 l 55.449 -14.242 l 56.016 -14.555 l 56.582 -14.836 l 57.148
 -15.121 l 57.719 -15.434 l 58.285 -15.715 l 58.852 -16 l 59.418 -16.281
 l 59.984 -16.594 l 60.551 -16.879 l 61.121 -17.164 l 61.688 -17.445 l 62.254
 -17.73 l 62.82 -18.012 l 63.387 -18.297 l 63.953 -18.578 l 64.52 -18.863
 l 65.086 -19.145 l 65.652 -19.43 l 66.223 -19.715 l 66.789 -19.969 l 67.355
 -20.254 l 67.922 -20.535 l 68.488 -20.82 l 69.055 -21.074 l 69.625 -21.355
 l 70.191 -21.641 l 70.758 -21.895 l 71.324 -22.18 l 71.891 -22.434 l 72.457
 -22.719 l 73.023 -22.973 l 73.59 -23.258 l 74.156 -23.512 l 74.727 -23.797
 l 75.859 -24.305 l 76.426 -24.59 l 77.559 -25.098 l 78.125 -25.383 l 78.695
 -25.637 l 79.262 -25.891 l 79.828 -26.148 l 80.961 -26.656 l 81.527 -26.914
 l 82.094 -27.168 l 82.664 -27.422 l 83.23 -27.68 l 84.363 -28.188 l 84.93
 -28.445 l 86.062 -28.953 l 86.633 -29.18 l 87.199 -29.438 l 88.332 -29.945
 l 88.898 -30.172 l 89.465 -30.43 l 90.031 -30.684 l 90.598 -30.91 l 91.168
 -31.164 l 91.734 -31.391 l 92.301 -31.648 l 92.867 -31.875 l 93.434 -32.129
 l 94 -32.355 l 94.566 -32.609 l 95.137 -32.836 l 95.699 -33.062 l 96.27
 -33.32 l 97.969 -34 l 98.535 -34.254 l 99.102 -34.48 l 99.672 -34.707 l
 100.238 -34.934 l 100.805 -35.164 l 101.371 -35.387 l 101.938 -35.613 l
 102.504 -35.844 l 103.07 -36.07 l 103.641 -36.297 l 107.039 -37.656 l 107.605
 -37.855 l 108.176 -38.082 l 109.309 -38.535 l 109.875 -38.734 l 111.008
 -39.188 l 111.574 -39.387 l 112.141 -39.613 l 112.711 -39.812 l 113.277
 -40.039 l 113.844 -40.234 l 114.41 -40.465 l 114.977 -40.66 l 115.543 -40.887
 l 116.109 -41.086 l 116.68 -41.285 l 117.246 -41.512 l 117.812 -41.711 
l 118.379 -41.906 l 118.945 -42.137 l 119.512 -42.332 l 120.082 -42.531 
l 120.645 -42.73 l 121.215 -42.957 l 122.914 -43.555 l 123.48 -43.75 l 124.613
 -44.148 l 125.184 -44.348 l 125.75 -44.543 l 128.582 -45.539 l 129.148 
-45.734 l 129.719 -45.906 l 130.285 -46.105 l 130.852 -46.301 l 131.418 
-46.5 l 131.984 -46.672 l 132.551 -46.871 l 133.121 -47.066 l 133.688 -47.266
 l 134.254 -47.438 l 134.82 -47.633 l 135.387 -47.805 l 135.953 -48.004 
l 136.52 -48.172 l 137.086 -48.371 l 137.652 -48.543 l 138.223 -48.738 l
 138.789 -48.91 l 139.355 -49.109 l 139.922 -49.277 l 140.488 -49.477 l 
141.055 -49.648 l 141.625 -49.816 l 142.191 -50.016 l 142.758 -50.184 l 
143.891 -50.527 l 144.457 -50.723 l 145.023 -50.895 l 145.59 -51.062 l 146.156
 -51.234 l 146.727 -51.402 l 147.293 -51.602 l 147.859 -51.773 l 148.426
 -51.941 l 148.992 -52.113 l 149.559 -52.281 l 150.125 -52.453 l 150.695
 -52.625 l 151.262 -52.793 l 151.828 -52.965 l 152.395 -53.133 l 152.961
 -53.305 l 153.527 -53.473 l 154.094 -53.613 l 154.664 -53.785 l 155.23 
-53.957 l 155.797 -54.125 l 156.363 -54.297 l 156.93 -54.438 l 157.496 -54.609
 l 158.629 -54.945 l 159.199 -55.09 l 159.766 -55.262 l 160.332 -55.43 l
 160.898 -55.57 l 161.465 -55.742 l 162.031 -55.883 l 162.598 -56.055 l 
163.168 -56.195 l 163.734 -56.363 l 164.301 -56.508 l 164.867 -56.676 l 
165.434 -56.82 l 166 -56.988 l 166.566 -57.129 l 167.137 -57.301 l 167.699
 -57.441 l 168.27 -57.586 l 168.836 -57.754 l 169.402 -57.895 l 169.969 
-58.039 l 170.535 -58.207 l 171.102 -58.348 l 171.672 -58.492 l 172.238 
-58.633 l 172.805 -58.805 l 174.504 -59.227 l 175.07 -59.371 l 175.641 -59.512
 l 176.207 -59.652 l 176.773 -59.797 l 177.34 -59.938 l 177.906 -60.105 
l 178.473 -60.25 l 179.039 -60.391 l 179.605 -60.504 l 180.176 -60.645 l
 180.742 -60.789 l 182.441 -61.211 l 183.008 -61.355 l 184.141 -61.637 l
 184.711 -61.75 l 185.277 -61.891 l 185.844 -62.035 l 186.41 -62.176 l 186.977
 -62.289 l 187.543 -62.43 l 188.109 -62.574 l 188.68 -62.715 l 189.246 -62.828
 l 189.812 -62.969 l 190.379 -63.082 l 190.945 -63.227 l 191.512 -63.367
 l 192.078 -63.48 l 192.645 -63.621 l 193.215 -63.734 l 193.781 -63.879 
l 194.348 -63.988 l 194.914 -64.133 l 195.48 -64.246 l 196.047 -64.387 l
 196.613 -64.5 l 197.18 -64.641 l 197.75 -64.758 l 198.316 -64.871 l 198.883
 -65.012 l 200.016 -65.238 l 200.582 -65.379 l 201.148 -65.492 l 201.719
 -65.605 l 202.285 -65.719 l 202.852 -65.859 l 203.418 -65.973 l 203.984
 -66.09 l 204.551 -66.203 l 205.121 -66.316 l S Q
  Q
Q
0 g
0.567043 w
0 J
0 j
[] 0.0 d
10 M q 1 0 0 -1 0 0 cm
35.039 -3.012 m 35.605 -3.355 l 36.176 -3.668 l 37.309 -4.344 l 37.875 
-4.66 l 38.441 -5 l 39.008 -5.312 l 39.574 -5.652 l 39.926 -5.844 l 42.379
 -7.25 m 42.41 -7.27 l 42.977 -7.582 l 43.543 -7.887 l 44.113 -8.203 l 45.246
 -8.828 l 45.812 -9.168 l 47.316 -9.996 l 49.805 -11.332 m 50.914 -11.945
 l 51.48 -12.23 l 52.047 -12.543 l 52.617 -12.848 l 53.184 -13.137 l 54.316
 -13.762 l 54.789 -13.996 l 57.293 -15.305 m 57.719 -15.52 l 58.285 -15.828
 l 59.418 -16.398 l 59.984 -16.707 l 60.551 -16.992 l 61.121 -17.273 l 62.254
 -17.844 l 62.324 -17.879 l 64.84 -19.164 m 65.086 -19.289 l 65.652 -19.57
 l 66.223 -19.828 l 66.789 -20.109 l 67.355 -20.395 l 67.922 -20.676 l 69.055
 -21.246 l 69.625 -21.5 l 69.914 -21.645 l 72.453 -22.883 m 72.457 -22.887
 l 73.023 -23.145 l 73.59 -23.426 l 74.156 -23.711 l 74.727 -23.965 l 75.293
 -24.25 l 76.426 -24.758 l 76.992 -25.043 l 77.559 -25.297 l 77.562 -25.297
 l 80.121 -26.492 m 80.395 -26.629 l 80.961 -26.887 l 82.094 -27.395 l 82.664
 -27.648 l 83.23 -27.93 l 84.363 -28.445 l 85.258 -28.844 l 87.84 -30 m 
88.332 -30.203 l 89.465 -30.711 l 90.031 -30.969 l 90.598 -31.219 l 91.168
 -31.473 l 91.734 -31.703 l 92.301 -31.961 l 92.867 -32.215 l 93.012 -32.273
 l 95.605 -33.391 m 95.699 -33.43 l 96.27 -33.66 l 96.836 -33.914 l 97.402
 -34.172 l 97.969 -34.395 l 98.535 -34.625 l 99.102 -34.879 l 99.672 -35.105
 l 100.238 -35.359 l 100.812 -35.586 l 103.418 -36.676 m 103.641 -36.777
 l 105.34 -37.457 l 105.906 -37.715 l 107.605 -38.395 l 108.176 -38.621 
l 108.648 -38.809 l 111.273 -39.859 m 112.141 -40.207 l 112.711 -40.43 l
 115.543 -41.566 l 116.109 -41.762 l 116.531 -41.93 l 119.164 -42.957 m 
119.512 -43.094 l 120.082 -43.297 l 120.645 -43.523 l 121.215 -43.75 l 121.781
 -43.949 l 122.914 -44.402 l 123.48 -44.598 l 124.047 -44.828 l 124.441 
-44.965 l 127.09 -45.961 m 127.449 -46.105 l 128.016 -46.301 l 128.582 -46.5
 l 129.148 -46.723 l 129.719 -46.926 l 130.285 -47.125 l 130.852 -47.348
 l 131.418 -47.551 l 131.984 -47.746 l 132.391 -47.906 l 135.047 -48.875
 m 135.387 -48.996 l 135.953 -49.191 l 137.652 -49.789 l 138.223 -49.988
 l 138.789 -50.215 l 139.355 -50.414 l 139.922 -50.609 l 140.371 -50.766
 l 143.035 -51.699 m 143.891 -52 l 144.457 -52.172 l 145.023 -52.367 l 146.156
 -52.762 l 146.727 -52.965 l 147.293 -53.164 l 147.859 -53.359 l 148.387
 -53.52 l 151.062 -54.426 m 151.262 -54.496 l 152.395 -54.887 l 152.961 
-55.062 l 153.527 -55.262 l 154.094 -55.457 l 154.664 -55.629 l 155.23 -55.828
 l 155.797 -55.996 l 156.422 -56.215 l 159.105 -57.094 m 159.199 -57.129
 l 159.766 -57.301 l 160.332 -57.5 l 160.898 -57.668 l 161.465 -57.867 l
 162.031 -58.039 l 162.598 -58.234 l 163.168 -58.406 l 163.734 -58.578 l
 164.301 -58.773 l 164.484 -58.828 l 167.172 -59.691 m 167.699 -59.848 l
 168.27 -60.023 l 168.836 -60.191 l 169.402 -60.387 l 169.969 -60.555 l 
171.102 -60.902 l 171.672 -61.094 l 172.238 -61.27 l 172.57 -61.367 l 175.266
 -62.203 m 175.641 -62.316 l 176.207 -62.488 l 176.773 -62.656 l 177.906
 -63 l 178.473 -63.168 l 179.039 -63.34 l 179.605 -63.508 l 180.176 -63.676
 l 180.68 -63.828 l 183.387 -64.641 m 184.141 -64.871 l 184.711 -65.039 
l 185.277 -65.211 l 185.844 -65.379 l 186.41 -65.52 l 186.977 -65.691 l 
187.543 -65.859 l 188.109 -66.031 l 188.68 -66.203 l 188.805 -66.238 l 191.52
 -67.023 m 192.078 -67.164 l 192.645 -67.336 l 193.215 -67.504 l 193.781
 -67.676 l 194.348 -67.816 l 194.914 -67.988 l 195.48 -68.156 l 196.047 
-68.301 l 196.613 -68.469 l 196.953 -68.57 l 199.676 -69.328 m 200.016 -69.43
 l 200.582 -69.574 l 201.148 -69.746 l 201.719 -69.887 l 202.852 -70.223
 l 203.418 -70.367 l 203.984 -70.539 l 204.551 -70.676 l 205.117 -70.848
 l S Q
Q q
18.66 0 192.34 152.617 re W n
q
18 0 193 153 re W n
  q
0 g
1.13366 w
0 J
0 j
[] 0.0 d
10 M q 1 0 0 -1 0 0 cm
35.039 -3.016 m 35.605 -3.668 l 36.176 -4.348 l 40.707 -9.566 l 41.277 
-10.188 l 41.844 -10.84 l 42.41 -11.465 l 42.977 -12.117 l 43.543 -12.738
 l 44.113 -13.363 l 44.68 -14.016 l 45.246 -14.641 l 45.812 -15.262 l 46.945
 -16.512 l 47.512 -17.133 l 48.645 -18.383 l 49.215 -18.977 l 49.781 -19.602
 l 50.348 -20.223 l 50.914 -20.82 l 51.48 -21.414 l 52.047 -22.039 l 52.617
 -22.633 l 53.184 -23.227 l 53.75 -23.852 l 54.316 -24.445 l 54.883 -25.043
 l 55.449 -25.637 l 56.016 -26.234 l 56.582 -26.828 l 57.148 -27.395 l 57.719
 -27.988 l 58.285 -28.586 l 58.852 -29.152 l 59.418 -29.75 l 59.984 -30.344
 l 60.551 -30.91 l 61.121 -31.477 l 61.688 -32.07 l 62.254 -32.641 l 67.355
 -37.742 l 67.922 -38.281 l 68.488 -38.848 l 69.055 -39.387 l 69.625 -39.953
 l 70.191 -40.492 l 70.758 -41.059 l 72.457 -42.676 l 73.023 -43.238 l 74.156
 -44.316 l 74.727 -44.855 l 75.859 -45.934 l 76.426 -46.445 l 76.992 -46.98
 l 77.559 -47.52 l 78.125 -48.031 l 78.695 -48.57 l 79.262 -49.109 l 79.828
 -49.621 l 80.395 -50.156 l 81.527 -51.18 l 82.094 -51.715 l 82.664 -52.227
 l 83.23 -52.738 l 83.797 -53.246 l 84.363 -53.758 l 84.93 -54.266 l 86.062
 -55.289 l 86.633 -55.797 l 87.766 -56.82 l 88.332 -57.301 l 88.898 -57.812
 l 89.465 -58.32 l 90.031 -58.805 l 90.598 -59.312 l 91.168 -59.797 l 91.734
 -60.305 l 92.301 -60.789 l 93.434 -61.75 l 94 -62.262 l 94.566 -62.742 
l 95.137 -63.227 l 95.699 -63.707 l 96.27 -64.188 l 96.836 -64.672 l 97.969
 -65.633 l 98.535 -66.117 l 99.102 -66.598 l 99.672 -67.051 l 100.238 -67.531
 l 100.805 -68.016 l 101.371 -68.469 l 101.938 -68.953 l 102.504 -69.402
 l 103.07 -69.887 l 103.641 -70.34 l 104.207 -70.82 l 104.773 -71.273 l 
105.34 -71.73 l 105.906 -72.184 l 106.473 -72.664 l 107.605 -73.57 l 108.176
 -74.023 l 108.742 -74.477 l 109.309 -74.934 l 110.441 -75.84 l 111.008 
-76.266 l 112.141 -77.172 l 112.711 -77.625 l 113.277 -78.051 l 114.41 -78.957
 l 114.977 -79.383 l 115.543 -79.836 l 116.109 -80.262 l 116.68 -80.688 
l 117.246 -81.141 l 117.812 -81.566 l 118.379 -81.988 l 118.945 -82.445 
l 119.512 -82.871 l 120.082 -83.293 l 120.645 -83.719 l 121.215 -84.145 
l 122.914 -85.422 l 123.48 -85.844 l 124.613 -86.695 l 125.184 -87.121 l
 125.75 -87.52 l 126.316 -87.941 l 126.883 -88.367 l 127.449 -88.766 l 128.016
 -89.191 l 128.582 -89.586 l 129.148 -90.012 l 129.719 -90.41 l 130.285 
-90.836 l 130.852 -91.23 l 131.418 -91.656 l 131.984 -92.055 l 132.551 -92.449
 l 133.121 -92.848 l 133.688 -93.273 l 134.254 -93.668 l 135.387 -94.465
 l 135.953 -94.859 l 136.52 -95.258 l 137.086 -95.652 l 137.652 -96.051 
l 138.223 -96.449 l 139.355 -97.238 l 139.922 -97.609 l 140.488 -98.008 
l 141.055 -98.402 l 141.625 -98.77 l 142.758 -99.566 l 143.324 -99.934 l
 143.891 -100.332 l 144.457 -100.699 l 145.023 -101.098 l 145.59 -101.465
 l 146.156 -101.859 l 146.727 -102.23 l 147.293 -102.598 l 147.859 -102.969
 l 148.426 -103.363 l 148.992 -103.73 l 149.559 -104.102 l 150.125 -104.469
 l 150.695 -104.836 l 151.262 -105.207 l 152.395 -105.941 l 152.961 -106.312
 l 154.094 -107.047 l 154.664 -107.418 l 155.797 -108.152 l 156.363 -108.523
 l 156.93 -108.863 l 158.062 -109.598 l 158.629 -109.941 l 159.199 -110.309
 l 159.766 -110.648 l 160.332 -111.016 l 160.898 -111.355 l 161.465 -111.727
 l 162.031 -112.066 l 162.598 -112.434 l 163.168 -112.773 l 163.734 -113.113
 l 164.301 -113.484 l 166 -114.504 l 166.566 -114.871 l 167.137 -115.211
 l 167.699 -115.551 l 168.27 -115.891 l 168.836 -116.234 l 171.102 -117.594
 l 171.672 -117.934 l 172.805 -118.613 l 173.371 -118.926 l 175.07 -119.945
 l 175.641 -120.258 l 176.207 -120.598 l 176.773 -120.91 l 177.906 -121.59
 l 178.473 -121.902 l 179.039 -122.242 l 179.605 -122.555 l 180.176 -122.895
 l 181.309 -123.52 l 181.875 -123.859 l 182.441 -124.172 l 183.008 -124.48
 l 183.574 -124.824 l 184.141 -125.133 l 184.711 -125.445 l 186.41 -126.383
 l 186.977 -126.691 l 187.543 -127.031 l 188.109 -127.344 l 188.68 -127.656
 l 189.812 -128.281 l 190.379 -128.562 l 192.645 -129.812 l 193.215 -130.121
 l 193.781 -130.406 l 194.348 -130.719 l 194.914 -131.027 l 195.48 -131.312
 l 196.613 -131.938 l 197.18 -132.219 l 197.75 -132.531 l 198.316 -132.816
 l 198.883 -133.129 l 199.449 -133.41 l 200.016 -133.723 l 200.582 -134.008
 l 201.148 -134.316 l 201.719 -134.602 l 202.285 -134.887 l 202.852 -135.195
 l 203.418 -135.48 l 203.984 -135.762 l 204.551 -136.047 l 205.121 -136.359
 l S Q
  Q
Q
0 g
0.567043 w
0 J
0 j
[] 0.0 d
10 M q 1 0 0 -1 0 0 cm
35.039 -3.012 m 35.605 -3.668 l 36.176 -4.344 l 37.309 -5.652 l 37.875 
-6.332 l 38.77 -7.363 l 40.664 -9.52 m 40.707 -9.566 l 41.277 -10.219 l 
41.844 -10.871 l 42.41 -11.52 l 42.977 -12.145 l 43.543 -12.797 l 44.113
 -13.422 l 44.457 -13.816 l 46.379 -15.941 m 46.945 -16.566 l 47.512 -17.219
 l 48.078 -17.844 l 48.645 -18.465 l 49.215 -19.062 l 49.781 -19.68 l 50.234
 -20.184 l 52.18 -22.289 m 52.617 -22.746 l 53.184 -23.371 l 53.75 -23.965
 l 54.316 -24.59 l 55.449 -25.777 l 56.016 -26.375 l 56.102 -26.465 l 58.082
 -28.543 m 58.285 -28.758 l 59.418 -29.945 l 59.984 -30.543 l 60.551 -31.109
 l 61.121 -31.703 l 61.688 -32.301 l 62.059 -32.672 l 64.066 -34.715 m 64.52
 -35.191 l 65.652 -36.324 l 66.223 -36.887 l 67.355 -38.023 l 67.922 -38.594
 l 68.109 -38.781 l 70.137 -40.805 m 70.191 -40.859 l 70.758 -41.398 l 71.891
 -42.531 l 72.457 -43.07 l 73.023 -43.637 l 73.59 -44.176 l 74.156 -44.742
 l 74.234 -44.816 l 76.301 -46.801 m 76.426 -46.926 l 78.125 -48.543 l 78.695
 -49.082 l 79.262 -49.621 l 79.828 -50.156 l 80.395 -50.668 l 80.469 -50.738
 l 82.559 -52.699 m 82.664 -52.793 l 83.23 -53.332 l 83.797 -53.844 l 84.363
 -54.383 l 84.93 -54.887 l 85.496 -55.426 l 86.062 -55.941 l 86.633 -56.449
 l 86.773 -56.582 l 88.891 -58.512 m 88.898 -58.52 l 89.465 -59.027 l 90.598
 -60.051 l 91.168 -60.555 l 92.301 -61.582 l 92.867 -62.09 l 93.16 -62.34
 l 95.312 -64.234 m 95.699 -64.586 l 96.27 -65.094 l 97.402 -66.055 l 97.969
 -66.57 l 98.535 -67.051 l 99.102 -67.562 l 99.629 -68.004 l 101.809 -69.863
 m 101.938 -69.969 l 103.07 -70.93 l 103.641 -71.418 l 104.207 -71.898 l
 104.773 -72.383 l 105.906 -73.344 l 106.18 -73.574 l 108.383 -75.41 m 108.742
 -75.695 l 109.309 -76.176 l 109.875 -76.633 l 110.441 -77.113 l 111.008
 -77.566 l 111.574 -78.051 l 112.141 -78.504 l 112.711 -78.957 l 112.812
 -79.043 l 115.039 -80.848 m 116.109 -81.707 l 116.68 -82.16 l 118.945 -83.969
 l 119.512 -84.426 l 119.516 -84.43 l 121.766 -86.203 m 122.348 -86.668 
l 122.914 -87.094 l 123.48 -87.547 l 124.047 -87.969 l 124.613 -88.426 l
 125.184 -88.848 l 125.75 -89.305 l 126.297 -89.715 l 128.578 -91.453 m 
128.582 -91.457 l 129.148 -91.91 l 129.719 -92.336 l 131.418 -93.613 l 131.984
 -94.035 l 132.551 -94.465 l 133.121 -94.887 l 133.148 -94.906 l 135.441
 -96.629 m 135.953 -97.016 l 136.52 -97.41 l 137.652 -98.262 l 138.223 -98.688
 l 138.789 -99.082 l 139.355 -99.508 l 139.922 -99.906 l 140.066 -100.016
 l 142.387 -101.695 m 142.758 -101.973 l 143.891 -102.77 l 144.457 -103.191
 l 145.59 -103.988 l 146.156 -104.383 l 146.727 -104.809 l 147.047 -105.035
 l 149.395 -106.68 m 150.125 -107.191 l 150.695 -107.586 l 151.828 -108.383
 l 152.395 -108.777 l 152.961 -109.145 l 154.094 -109.941 l 154.105 -109.949
 l 156.469 -111.566 m 156.93 -111.867 l 157.496 -112.266 l 158.062 -112.633
 l 158.629 -113.027 l 159.199 -113.426 l 159.766 -113.797 l 160.332 -114.164
 l 160.898 -114.559 l 161.223 -114.77 l 163.613 -116.352 m 163.734 -116.43
 l 164.301 -116.828 l 164.867 -117.195 l 165.434 -117.566 l 166.566 -118.301
 l 167.137 -118.672 l 167.699 -119.039 l 168.27 -119.438 l 168.391 -119.516
 l 170.809 -121.059 m 171.102 -121.25 l 171.672 -121.621 l 173.371 -122.723
 l 173.938 -123.062 l 174.504 -123.434 l 175.07 -123.801 l 175.641 -124.141
 l 178.059 -125.676 m 178.473 -125.926 l 179.039 -126.297 l 179.605 -126.637
 l 180.176 -127.004 l 180.742 -127.344 l 181.309 -127.715 l 181.875 -128.055
 l 182.441 -128.422 l 182.922 -128.711 l 185.367 -130.207 m 186.41 -130.832
 l 186.977 -131.199 l 188.109 -131.879 l 188.68 -132.219 l 190.273 -133.172
 l 192.73 -134.652 m 193.215 -134.941 l 193.781 -135.254 l 196.047 -136.613
 l 196.613 -136.926 l 197.18 -137.266 l 197.672 -137.555 l 200.152 -138.992
 m 201.148 -139.59 l 201.719 -139.902 l 202.285 -140.242 l 202.852 -140.555
 l 203.418 -140.895 l 204.551 -141.52 l 205.117 -141.855 l S Q
Q q
18.66 0 192.34 119.617 re W n
q
18 0 193 120 re W n
  q
0 g
1.13366 w
1 J
0 j
[] 0.0 d
10 M q 1 0 0 -1 0 0 cm
35.555 -3.316 m 35.582 -3.332 l 38.266 -4.91 m 38.293 -4.926 l 40.977 -6.5
 m 41.004 -6.516 l 43.688 -8.094 m 43.715 -8.109 l 46.398 -9.684 m 46.426
 -9.699 l 49.109 -11.277 m 49.137 -11.293 l 51.82 -12.867 m 51.848 -12.883
 l 54.531 -14.461 m 54.559 -14.477 l 57.242 -16.051 m 57.27 -16.066 l 59.953
 -17.645 m 59.98 -17.66 l 62.664 -19.234 m 62.691 -19.25 l 65.375 -20.828
 m 65.402 -20.844 l 68.086 -22.418 m 68.113 -22.438 l 70.797 -24.012 m 70.824
 -24.027 l 73.508 -25.605 m 73.535 -25.621 l 76.219 -27.195 m 76.246 -27.211
 l 78.93 -28.789 m 78.957 -28.805 l 81.641 -30.379 m 81.668 -30.395 l 84.352
 -31.973 m 84.379 -31.988 l 87.062 -33.562 m 87.09 -33.578 l 89.773 -35.156
 m 89.801 -35.172 l 92.484 -36.746 m 92.512 -36.762 l 95.195 -38.34 m 95.223
 -38.355 l 97.906 -39.93 m 97.934 -39.949 l 100.617 -41.523 m 100.645 -41.539
 l 103.328 -43.117 m 103.355 -43.133 l 106.039 -44.707 m 106.066 -44.723
 l 108.75 -46.301 m 108.777 -46.316 l 111.461 -47.891 m 111.488 -47.906 
l 114.172 -49.484 m 114.199 -49.5 l 116.883 -51.074 m 116.91 -51.09 l 119.594
 -52.668 m 119.621 -52.684 l 122.305 -54.258 m 122.332 -54.273 l 125.016
 -55.852 m 125.043 -55.867 l 127.727 -57.441 m 127.754 -57.457 l 130.438
 -59.035 m 130.465 -59.051 l 133.148 -60.625 m 133.176 -60.645 l 135.859
 -62.219 m 135.887 -62.234 l 138.57 -63.812 m 138.598 -63.828 l 141.281 
-65.402 m 141.309 -65.418 l 143.992 -66.996 m 144.02 -67.012 l 146.703 -68.586
 m 146.73 -68.602 l 149.414 -70.18 m 149.441 -70.195 l 152.125 -71.77 m 
152.152 -71.785 l 154.836 -73.363 m 154.863 -73.379 l 157.547 -74.953 m 
157.574 -74.969 l 160.258 -76.547 m 160.285 -76.562 l 162.969 -78.137 m 
162.996 -78.152 l 165.68 -79.73 m 165.707 -79.746 l 168.391 -81.32 m 168.418
 -81.336 l 171.102 -82.914 m 171.129 -82.93 l 173.812 -84.504 m 173.84 -84.523
 l 176.523 -86.098 m 176.551 -86.113 l 179.234 -87.691 m 179.262 -87.707
 l 181.945 -89.281 m 181.973 -89.297 l 184.656 -90.875 m 184.684 -90.891
 l 187.367 -92.465 m 187.395 -92.48 l 190.078 -94.059 m 190.105 -94.074 
l 192.789 -95.648 m 192.816 -95.664 l 195.504 -97.242 m 195.527 -97.258 
l 198.215 -98.832 m 198.238 -98.848 l 200.926 -100.426 m 200.949 -100.441
 l 203.637 -102.016 m 203.66 -102.031 l S Q
  Q
Q
Q q
0 g
1.13366 w
1 J
0 j
[] 0.0 d
10 M q 1 0 0 -1 0 0 cm
35.426 -3.469 m 35.445 -3.492 l 37.48 -5.879 m 37.5 -5.906 l 39.531 -8.293
 m 39.555 -8.316 l 41.586 -10.703 m 41.605 -10.727 l 43.641 -13.117 m 43.66
 -13.141 l 45.691 -15.527 m 45.715 -15.551 l 47.746 -17.938 m 47.766 -17.961
 l 49.801 -20.348 m 49.82 -20.375 l 51.852 -22.762 m 51.875 -22.785 l 53.906
 -25.172 m 53.926 -25.195 l 55.961 -27.586 m 55.98 -27.609 l 58.012 -29.996
 m 58.031 -30.02 l 60.066 -32.406 m 60.086 -32.43 l 62.121 -34.82 m 62.141
 -34.844 l 64.172 -37.23 m 64.195 -37.254 l 66.227 -39.641 m 66.246 -39.664
 l 68.281 -42.055 m 68.301 -42.078 l 70.332 -44.465 m 70.355 -44.488 l 72.387
 -46.875 m 72.406 -46.902 l 74.441 -49.289 m 74.461 -49.312 l 76.492 -51.699
 m 76.516 -51.723 l 78.547 -54.109 m 78.566 -54.133 l 80.602 -56.523 m 80.621
 -56.547 l 82.652 -58.934 m 82.676 -58.957 l 84.707 -61.344 m 84.727 -61.371
 l 86.762 -63.758 m 86.781 -63.781 l 88.812 -66.168 m 88.836 -66.191 l 90.867
 -68.578 m 90.887 -68.605 l 92.922 -70.992 m 92.941 -71.016 l 94.973 -73.402
 m 94.996 -73.426 l 97.027 -75.816 m 97.047 -75.84 l 99.082 -78.227 m 99.102
 -78.25 l 101.133 -80.637 m 101.156 -80.66 l 103.188 -83.047 m 103.207 -83.074
 l 105.242 -85.461 m 105.262 -85.484 l 107.293 -87.871 m 107.316 -87.895
 l 109.348 -90.281 m 109.367 -90.309 l 111.402 -92.695 m 111.422 -92.719
 l 113.453 -95.105 m 113.477 -95.129 l 115.508 -97.516 m 115.527 -97.543
 l 117.562 -99.93 m 117.582 -99.953 l 119.613 -102.34 m 119.637 -102.363
 l 121.668 -104.75 m 121.688 -104.777 l 123.723 -107.164 m 123.742 -107.188
 l 125.773 -109.574 m 125.797 -109.598 l 127.828 -111.984 m 127.848 -112.012
 l 129.883 -114.398 m 129.902 -114.422 l 131.934 -116.809 m 131.957 -116.832
 l 133.988 -119.223 m 134.008 -119.246 l 136.043 -121.633 m 136.062 -121.656
 l 138.094 -124.043 m 138.117 -124.066 l 140.148 -126.457 m 140.168 -126.48
 l 142.203 -128.867 m 142.223 -128.891 l 144.258 -131.277 m 144.277 -131.301
 l 146.309 -133.691 m 146.328 -133.715 l 148.363 -136.102 m 148.383 -136.125
 l 150.414 -138.512 m 150.438 -138.535 l 152.469 -140.926 m 152.488 -140.949
 l 154.523 -143.336 m 154.543 -143.359 l S Q
112.809 37.195 m 115.293 37.195 l 115.293 37.023 l 114.621 36.977 114.527
 36.867 114.512 36.211 c 114.512 34.367 l 117.23 34.367 l 117.23 36.117 
l 117.215 36.883 117.137 36.977 116.434 37.023 c 116.434 37.195 l 118.934
 37.195 l 118.934 37.023 l 118.262 36.977 118.152 36.867 118.137 36.211 
c 118.137 32.242 l 118.152 31.586 118.246 31.492 118.934 31.43 c 118.934
 31.258 l 116.434 31.258 l 116.434 31.43 l 117.137 31.477 117.215 31.57 
117.23 32.242 c 117.23 33.977 l 114.512 33.977 l 114.512 32.242 l 114.527
 31.586 114.605 31.492 115.293 31.43 c 115.293 31.258 l 112.809 31.258 l
 112.809 31.43 l 113.496 31.477 113.59 31.57 113.59 32.242 c 113.59 36.117
 l 113.59 36.883 113.512 36.977 112.809 37.023 c h
112.809 37.195 m f
124.676 33.148 m 124.598 31.133 l 124.41 31.133 l 124.348 31.32 124.207
 31.43 124.035 31.43 c 123.941 31.43 123.816 31.398 123.676 31.352 c 123.238
 31.211 122.785 31.133 122.363 31.133 c 121.629 31.133 120.895 31.414 120.332
 31.898 c 119.707 32.461 119.363 33.289 119.363 34.273 c 119.363 36.102 
120.551 37.32 122.348 37.32 c 123.363 37.32 124.254 36.914 124.785 36.18
 c 124.629 36.023 l 123.973 36.664 123.379 36.93 122.629 36.93 c 122.066
 36.93 121.566 36.742 121.176 36.398 c 120.676 35.961 120.41 35.164 120.41
 34.148 c 120.41 32.539 121.238 31.492 122.535 31.492 c 123.051 31.492 123.52
 31.68 123.879 32.023 c 124.16 32.32 124.301 32.57 124.473 33.148 c h
124.676 33.148 m f
125.301 37.195 m 127.426 37.195 l 127.426 37.055 l 126.848 37.039 126.754
 36.945 126.738 36.445 c 126.738 31.086 l 126.707 31.07 l 126.254 31.211
 125.926 31.305 125.285 31.461 c 125.285 31.602 l 125.332 31.602 l 125.441
 31.602 125.551 31.586 125.613 31.586 c 125.91 31.586 125.988 31.711 125.988
 32.133 c 125.988 36.414 l 125.988 36.898 125.863 37.023 125.301 37.055 
c h
125.301 37.195 m f
116.395 68.922 m 116.316 66.906 l 116.129 66.906 l 116.066 67.094 115.926
 67.203 115.754 67.203 c 115.66 67.203 115.535 67.172 115.395 67.125 c 114.957
 66.984 114.504 66.906 114.082 66.906 c 113.348 66.906 112.613 67.188 112.051
 67.672 c 111.426 68.234 111.082 69.062 111.082 70.047 c 111.082 71.875 
112.27 73.094 114.066 73.094 c 115.082 73.094 115.973 72.688 116.504 71.953
 c 116.348 71.797 l 115.691 72.438 115.098 72.703 114.348 72.703 c 113.785
 72.703 113.285 72.516 112.895 72.172 c 112.395 71.734 112.129 70.938 112.129
 69.922 c 112.129 68.312 112.957 67.266 114.254 67.266 c 114.77 67.266 115.238
 67.453 115.598 67.797 c 115.879 68.094 116.02 68.344 116.191 68.922 c h
116.395 68.922 m f
120.801 72.375 m 120.645 72.5 120.535 72.547 120.395 72.547 c 120.191 72.547
 120.129 72.422 120.129 72.031 c 120.129 70.281 l 120.129 69.812 120.082
 69.547 119.957 69.344 c 119.754 69.016 119.363 68.844 118.848 68.844 c 
118.004 68.844 117.332 69.281 117.332 69.844 c 117.332 70.047 117.504 70.234
 117.723 70.234 c 117.941 70.234 118.129 70.047 118.129 69.859 c 118.129
 69.828 118.113 69.781 118.113 69.719 c 118.082 69.625 118.082 69.562 118.082
 69.5 c 118.082 69.25 118.363 69.062 118.723 69.062 c 119.16 69.062 119.41
 69.312 119.41 69.797 c 119.41 70.344 l 118.035 70.891 117.879 70.984 117.488
 71.312 c 117.285 71.5 117.16 71.797 117.16 72.094 c 117.16 72.656 117.551
 73.062 118.113 73.062 c 118.504 73.062 118.863 72.875 119.41 72.406 c 119.457
 72.875 119.629 73.062 119.988 73.062 c 120.301 73.062 120.488 72.953 120.801
 72.609 c h
119.41 71.859 m 119.41 72.141 119.363 72.234 119.176 72.344 c 118.941 72.469
 118.707 72.531 118.52 72.531 c 118.207 72.531 117.957 72.234 117.957 71.844
 c 117.957 71.812 l 117.957 71.281 118.363 70.938 119.41 70.562 c h
119.41 71.859 m f
126.352 68.922 m 126.273 66.906 l 126.086 66.906 l 126.023 67.094 125.883
 67.203 125.711 67.203 c 125.617 67.203 125.492 67.172 125.352 67.125 c 
124.914 66.984 124.461 66.906 124.039 66.906 c 123.305 66.906 122.57 67.188
 122.008 67.672 c 121.383 68.234 121.039 69.062 121.039 70.047 c 121.039
 71.875 122.227 73.094 124.023 73.094 c 125.039 73.094 125.93 72.688 126.461
 71.953 c 126.305 71.797 l 125.648 72.438 125.055 72.703 124.305 72.703 
c 123.742 72.703 123.242 72.516 122.852 72.172 c 122.352 71.734 122.086 
70.938 122.086 69.922 c 122.086 68.312 122.914 67.266 124.211 67.266 c 124.727
 67.266 125.195 67.453 125.555 67.797 c 125.836 68.094 125.977 68.344 126.148
 68.922 c h
126.352 68.922 m f
126.977 72.969 m 129.102 72.969 l 129.102 72.828 l 128.523 72.812 128.43
 72.719 128.414 72.219 c 128.414 66.859 l 128.383 66.844 l 127.93 66.984
 127.602 67.078 126.961 67.234 c 126.961 67.375 l 127.008 67.375 l 127.117
 67.375 127.227 67.359 127.289 67.359 c 127.586 67.359 127.664 67.484 127.664
 67.906 c 127.664 72.188 l 127.664 72.672 127.539 72.797 126.977 72.828 
c h
126.977 72.969 m f
133.121 74.281 m 132.902 74.25 l 132.668 74.609 132.48 74.672 132.137 74.672
 c 130.48 74.672 l 131.668 73.688 132.73 72.797 132.73 71.828 c 132.73 71.094
 132.027 70.578 131.262 70.578 c 130.496 70.578 129.887 70.938 129.652 71.953
 c 129.902 71.953 l 130.121 71.562 130.402 71.172 130.98 71.172 c 131.621
 71.172 131.98 71.594 131.98 72.094 c 131.98 72.828 131.09 73.891 129.574
 75.078 c 129.574 75.25 l 132.668 75.25 l h
133.121 74.281 m f
0.567043 w
0 J
q 1 0 0 -1 0 0 cm
35.039 -3.004 170.082 -141.734 re S Q
0.398506 w
q 1 0 0 -1 0 0 cm
35.039 -144.738 m 35.039 -140.484 l S Q
q 1 0 0 -1 0 0 cm
91.738 -144.738 m 91.738 -140.484 l S Q
q 1 0 0 -1 0 0 cm
148.434 -144.738 m 148.434 -140.484 l S Q
q 1 0 0 -1 0 0 cm
205.129 -144.738 m 205.129 -140.484 l S Q
q 1 0 0 -1 0 0 cm
35.039 -144.738 m 35.039 -140.484 l S Q
q 1 0 0 -1 0 0 cm
35.039 -144.738 m 39.293 -144.738 l S Q
q 1 0 0 -1 0 0 cm
35.039 -116.391 m 39.293 -116.391 l S Q
q 1 0 0 -1 0 0 cm
35.039 -88.039 m 39.293 -88.039 l S Q
q 1 0 0 -1 0 0 cm
35.039 -59.691 m 39.293 -59.691 l S Q
q 1 0 0 -1 0 0 cm
35.039 -31.344 m 39.293 -31.344 l S Q
q 1 0 0 -1 0 0 cm
35.039 -2.996 m 39.293 -2.996 l S Q
q 1 0 0 -1 0 0 cm
35.039 -144.738 m 39.293 -144.738 l S Q
q 1 0 0 -1 0 0 cm
35.039 -3.004 m 35.039 -7.258 l S Q
q 1 0 0 -1 0 0 cm
91.738 -3.004 m 91.738 -7.258 l S Q
q 1 0 0 -1 0 0 cm
148.434 -3.004 m 148.434 -7.258 l S Q
q 1 0 0 -1 0 0 cm
205.129 -3.004 m 205.129 -7.258 l S Q
q 1 0 0 -1 0 0 cm
35.039 -3.004 m 35.039 -7.258 l S Q
q 1 0 0 -1 0 0 cm
205.121 -144.738 m 200.871 -144.738 l S Q
q 1 0 0 -1 0 0 cm
205.121 -116.391 m 200.871 -116.391 l S Q
q 1 0 0 -1 0 0 cm
205.121 -88.039 m 200.871 -88.039 l S Q
q 1 0 0 -1 0 0 cm
205.121 -59.691 m 200.871 -59.691 l S Q
q 1 0 0 -1 0 0 cm
205.121 -31.344 m 200.871 -31.344 l S Q
q 1 0 0 -1 0 0 cm
205.121 -2.996 m 200.871 -2.996 l S Q
q 1 0 0 -1 0 0 cm
205.121 -144.738 m 200.871 -144.738 l S Q
36.992 151.262 m 36.992 149.652 36.258 148.199 35.008 148.199 c 33.742 
148.199 33.008 149.652 33.008 151.262 c 33.008 152.887 33.695 154.324 35.008
 154.324 c 36.211 154.324 36.992 152.887 36.992 151.262 c h
36.133 151.262 m 36.133 152.559 36.008 154.074 35.008 154.074 c 34.055 
154.074 33.867 152.559 33.867 151.262 c 33.867 150.184 33.992 148.434 35.008
 148.434 c 36.008 148.434 36.133 150.184 36.133 151.262 c h
36.133 151.262 m f
90.273 151.262 m 90.273 149.652 89.539 148.199 88.289 148.199 c 87.023 
148.199 86.289 149.652 86.289 151.262 c 86.289 152.887 86.977 154.324 88.289
 154.324 c 89.492 154.324 90.273 152.887 90.273 151.262 c h
89.414 151.262 m 89.414 152.559 89.289 154.074 88.289 154.074 c 87.336 
154.074 87.148 152.559 87.148 151.262 c 87.148 150.184 87.273 148.434 88.289
 148.434 c 89.289 148.434 89.414 150.184 89.414 151.262 c h
89.414 151.262 m f
92.199 153.84 m 92.199 153.559 91.98 153.34 91.699 153.34 c 91.418 153.34
 91.199 153.559 91.199 153.84 c 91.199 154.121 91.418 154.34 91.699 154.34
 c 91.98 154.34 92.199 154.121 92.199 153.84 c h
92.199 153.84 m f
96.363 154.215 m 96.363 154.074 l 95.77 154.074 95.551 154.09 95.551 152.918
 c 95.551 152.902 95.551 148.168 95.551 148.168 c 95.426 148.168 l 93.895
 148.902 l 93.941 149.043 l 94.27 148.902 94.348 148.871 94.473 148.871 
c 94.738 148.871 94.785 149.105 94.785 149.418 c 94.785 152.918 l 94.785
 154.09 94.566 154.059 93.973 154.074 c 93.973 154.215 l h
96.363 154.215 m f
147.035 151.262 m 147.035 149.652 146.301 148.199 145.051 148.199 c 143.785
 148.199 143.051 149.652 143.051 151.262 c 143.051 152.887 143.738 154.324
 145.051 154.324 c 146.254 154.324 147.035 152.887 147.035 151.262 c h
146.176 151.262 m 146.176 152.559 146.051 154.074 145.051 154.074 c 144.098
 154.074 143.91 152.559 143.91 151.262 c 143.91 150.184 144.035 148.434 
145.051 148.434 c 146.051 148.434 146.176 150.184 146.176 151.262 c h
146.176 151.262 m f
148.957 153.84 m 148.957 153.559 148.738 153.34 148.457 153.34 c 148.176
 153.34 147.957 153.559 147.957 153.84 c 147.957 154.121 148.176 154.34 
148.457 154.34 c 148.738 154.34 148.957 154.121 148.957 153.84 c h
148.957 153.84 m f
153.906 153.059 m 153.75 153.027 l 153.484 153.48 153.266 153.559 152.828
 153.559 c 150.766 153.559 l 152.188 152.262 153.484 151.09 153.484 149.777
 c 153.484 148.855 152.688 148.199 151.812 148.199 c 150.953 148.199 150.266
 148.668 150 149.887 c 150.203 149.887 l 150.453 149.387 150.797 148.871
 151.484 148.871 c 152.266 148.871 152.703 149.465 152.703 150.137 c 152.703
 151.105 151.672 152.527 149.906 154.074 c 149.906 154.215 l 153.438 154.215
 l h
153.906 153.059 m f
14.297 145.25 5.484 0.453 re f
24.512 144.781 m 24.512 143.172 23.777 141.719 22.527 141.719 c 21.262 
141.719 20.527 143.172 20.527 144.781 c 20.527 146.406 21.215 147.844 22.527
 147.844 c 23.73 147.844 24.512 146.406 24.512 144.781 c h
23.652 144.781 m 23.652 146.078 23.527 147.594 22.527 147.594 c 21.574 
147.594 21.387 146.078 21.387 144.781 c 21.387 143.703 21.512 141.953 22.527
 141.953 c 23.527 141.953 23.652 143.703 23.652 144.781 c h
23.652 144.781 m f
26.438 147.359 m 26.438 147.078 26.219 146.859 25.938 146.859 c 25.656 
146.859 25.438 147.078 25.438 147.359 c 25.438 147.641 25.656 147.859 25.938
 147.859 c 26.219 147.859 26.438 147.641 26.438 147.359 c h
26.438 147.359 m f
31.289 141.812 m 28.82 141.812 l 27.711 144.359 l 27.852 144.328 27.992
 144.297 28.164 144.297 c 29.117 144.297 30.414 144.797 30.414 145.969 c
 30.414 146.875 29.758 147.453 29.133 147.453 c 28.586 147.453 28.383 146.953
 27.867 146.953 c 27.617 146.953 27.539 147.172 27.539 147.281 c 27.539 
147.594 27.977 147.844 28.602 147.844 c 29.945 147.844 31.008 146.859 31.008
 145.656 c 31.008 144.234 29.883 143.75 28.664 143.719 c 28.555 143.719 
28.43 143.734 28.32 143.75 c 28.883 142.484 l 30.977 142.469 l h
31.289 141.812 m f
14.297 116.93 5.484 0.453 re f
24.512 116.461 m 24.512 114.852 23.777 113.398 22.527 113.398 c 21.262 
113.398 20.527 114.852 20.527 116.461 c 20.527 118.086 21.215 119.523 22.527
 119.523 c 23.73 119.523 24.512 118.086 24.512 116.461 c h
23.652 116.461 m 23.652 117.758 23.527 119.273 22.527 119.273 c 21.574 
119.273 21.387 117.758 21.387 116.461 c 21.387 115.383 21.512 113.633 22.527
 113.633 c 23.527 113.633 23.652 115.383 23.652 116.461 c h
23.652 116.461 m f
26.438 119.039 m 26.438 118.758 26.219 118.539 25.938 118.539 c 25.656 
118.539 25.438 118.758 25.438 119.039 c 25.438 119.32 25.656 119.539 25.938
 119.539 c 26.219 119.539 26.438 119.32 26.438 119.039 c h
26.438 119.039 m f
31.367 117.93 m 31.367 117.32 l 30.492 117.32 l 30.492 113.398 l 30.055
 113.398 l 27.461 117.305 l 27.461 117.93 l 29.758 117.93 l 29.758 119.414
 l 30.492 119.414 l 30.492 117.93 l h
29.758 117.32 m 27.82 117.32 l 29.742 114.336 l 29.758 114.336 l h
29.758 117.32 m f
14.297 88.613 5.484 0.453 re f
24.512 88.145 m 24.512 86.535 23.777 85.082 22.527 85.082 c 21.262 85.082
 20.527 86.535 20.527 88.145 c 20.527 89.77 21.215 91.207 22.527 91.207 
c 23.73 91.207 24.512 89.77 24.512 88.145 c h
23.652 88.145 m 23.652 89.441 23.527 90.957 22.527 90.957 c 21.574 90.957
 21.387 89.441 21.387 88.145 c 21.387 87.066 21.512 85.316 22.527 85.316
 c 23.527 85.316 23.652 87.066 23.652 88.145 c h
23.652 88.145 m f
26.438 90.723 m 26.438 90.441 26.219 90.223 25.938 90.223 c 25.656 90.223
 25.438 90.441 25.438 90.723 c 25.438 91.004 25.656 91.223 25.938 91.223
 c 26.219 91.223 26.438 91.004 26.438 90.723 c h
26.438 90.723 m f
31.008 89.16 m 31.008 88.223 30.461 87.816 29.93 87.598 c 30.508 87.16 
30.695 86.754 30.695 86.27 c 30.695 85.754 30.273 85.082 29.305 85.082 c
 28.602 85.082 27.93 85.473 27.633 86.441 c 27.773 86.473 l 27.961 86.113
 28.32 85.66 28.977 85.66 c 29.617 85.66 29.992 86.098 29.992 86.598 c 29.992
 87.301 29.445 87.801 28.633 87.988 c 28.617 88.176 l 30.008 88.113 30.352
 89.02 30.352 89.582 c 30.352 90.254 29.867 90.863 29.227 90.863 c 28.648
 90.863 28.398 90.363 27.914 90.363 c 27.758 90.363 27.57 90.52 27.57 90.723
 c 27.57 91.098 28.133 91.207 28.539 91.207 c 29.961 91.207 31.008 90.395
 31.008 89.16 c h
31.008 89.16 m f
14.297 60.293 5.484 0.453 re f
24.512 59.824 m 24.512 58.215 23.777 56.762 22.527 56.762 c 21.262 56.762
 20.527 58.215 20.527 59.824 c 20.527 61.449 21.215 62.887 22.527 62.887
 c 23.73 62.887 24.512 61.449 24.512 59.824 c h
23.652 59.824 m 23.652 61.121 23.527 62.637 22.527 62.637 c 21.574 62.637
 21.387 61.121 21.387 59.824 c 21.387 58.746 21.512 56.996 22.527 56.996
 c 23.527 56.996 23.652 58.746 23.652 59.824 c h
23.652 59.824 m f
26.438 62.402 m 26.438 62.121 26.219 61.902 25.938 61.902 c 25.656 61.902
 25.438 62.121 25.438 62.402 c 25.438 62.684 25.656 62.902 25.938 62.902
 c 26.219 62.902 26.438 62.684 26.438 62.402 c h
26.438 62.402 m f
31.383 61.621 m 31.227 61.59 l 30.961 62.043 30.742 62.121 30.305 62.121
 c 28.242 62.121 l 29.664 60.824 30.961 59.652 30.961 58.34 c 30.961 57.418
 30.164 56.762 29.289 56.762 c 28.43 56.762 27.742 57.23 27.477 58.449 c
 27.68 58.449 l 27.93 57.949 28.273 57.434 28.961 57.434 c 29.742 57.434
 30.18 58.027 30.18 58.699 c 30.18 59.668 29.148 61.09 27.383 62.637 c 27.383
 62.777 l 30.914 62.777 l h
31.383 61.621 m f
14.297 31.852 5.484 0.453 re f
24.512 31.383 m 24.512 29.773 23.777 28.32 22.527 28.32 c 21.262 28.32 
20.527 29.773 20.527 31.383 c 20.527 33.008 21.215 34.445 22.527 34.445 
c 23.73 34.445 24.512 33.008 24.512 31.383 c h
23.652 31.383 m 23.652 32.68 23.527 34.195 22.527 34.195 c 21.574 34.195
 21.387 32.68 21.387 31.383 c 21.387 30.305 21.512 28.555 22.527 28.555 
c 23.527 28.555 23.652 30.305 23.652 31.383 c h
23.652 31.383 m f
26.438 33.961 m 26.438 33.68 26.219 33.461 25.938 33.461 c 25.656 33.461
 25.438 33.68 25.438 33.961 c 25.438 34.242 25.656 34.461 25.938 34.461 
c 26.219 34.461 26.438 34.242 26.438 33.961 c h
26.438 33.961 m f
30.602 34.336 m 30.602 34.195 l 30.008 34.195 29.789 34.211 29.789 33.039
 c 29.789 33.023 29.789 28.289 29.789 28.289 c 29.664 28.289 l 28.133 29.023
 l 28.18 29.164 l 28.508 29.023 28.586 28.992 28.711 28.992 c 28.977 28.992
 29.023 29.227 29.023 29.539 c 29.023 33.039 l 29.023 34.211 28.805 34.18
 28.211 34.195 c 28.211 34.336 l h
30.602 34.336 m f
203.715 151.273 m 203.715 149.664 202.98 148.211 201.73 148.211 c 200.465
 148.211 199.73 149.664 199.73 151.273 c 199.73 152.898 200.418 154.336 
201.73 154.336 c 202.934 154.336 203.715 152.898 203.715 151.273 c h
202.855 151.273 m 202.855 152.57 202.73 154.086 201.73 154.086 c 200.777
 154.086 200.59 152.57 200.59 151.273 c 200.59 150.195 200.715 148.445 201.73
 148.445 c 202.73 148.445 202.855 150.195 202.855 151.273 c h
202.855 151.273 m f
205.637 153.852 m 205.637 153.57 205.418 153.352 205.137 153.352 c 204.855
 153.352 204.637 153.57 204.637 153.852 c 204.637 154.133 204.855 154.352
 205.137 154.352 c 205.418 154.352 205.637 154.133 205.637 153.852 c h
205.637 153.852 m f
210.211 152.289 m 210.211 151.352 209.664 150.945 209.133 150.727 c 209.711
 150.289 209.898 149.883 209.898 149.398 c 209.898 148.883 209.477 148.211
 208.508 148.211 c 207.805 148.211 207.133 148.602 206.836 149.57 c 206.977
 149.602 l 207.164 149.242 207.523 148.789 208.18 148.789 c 208.82 148.789
 209.195 149.227 209.195 149.727 c 209.195 150.43 208.648 150.93 207.836
 151.117 c 207.82 151.305 l 209.211 151.242 209.555 152.148 209.555 152.711
 c 209.555 153.383 209.07 153.992 208.43 153.992 c 207.852 153.992 207.602
 153.492 207.117 153.492 c 206.961 153.492 206.773 153.648 206.773 153.852
 c 206.773 154.227 207.336 154.336 207.742 154.336 c 209.164 154.336 210.211
 153.523 210.211 152.289 c h
210.211 152.289 m f
31.352 3.062 m 31.352 1.453 30.617 0 29.367 0 c 28.102 0 27.367 1.453 27.367
 3.062 c 27.367 4.688 28.055 6.125 29.367 6.125 c 30.57 6.125 31.352 4.688
 31.352 3.062 c h
30.492 3.062 m 30.492 4.359 30.367 5.875 29.367 5.875 c 28.414 5.875 28.227
 4.359 28.227 3.062 c 28.227 1.984 28.352 0.234 29.367 0.234 c 30.367 0.234
 30.492 1.984 30.492 3.062 c h
30.492 3.062 m f
88.695 173.453 m 88.695 173.312 l 87.492 172.281 87.195 169.641 87.195 
168.078 c 87.195 166.516 87.492 163.875 88.695 162.844 c 88.695 162.703 
l 87.383 163.484 86.258 165.672 86.258 168.078 c 86.258 170.484 87.383 172.672
 88.695 173.453 c h
88.695 173.453 m f
93.25 164.379 m 90.922 164.379 l 90.891 164.52 l 91.188 164.52 91.578 164.551
 91.578 164.957 c 91.578 165.082 91.547 165.223 91.453 165.551 c 90.391 
169.379 l 90.141 170.285 89.812 170.27 89.469 170.27 c 89.438 170.426 l 
91.797 170.426 l 91.828 170.27 l 91.5 170.27 91.156 170.285 91.156 169.863
 c 91.156 169.738 91.188 169.582 91.25 169.379 c 92.359 165.426 l 92.547
 164.77 92.812 164.52 93.219 164.52 c h
93.25 164.379 m f
98.762 171.793 m 98.605 171.637 l 98.418 171.871 98.152 172.199 97.996 
172.199 c 97.965 172.199 97.949 172.184 97.949 172.137 c 97.949 172.059 
98.012 171.887 98.043 171.746 c 98.043 171.746 98.496 170.184 98.496 170.137
 c 98.559 169.98 98.59 169.824 98.59 169.715 c 98.59 169.309 98.309 169.184
 98.105 169.184 c 97.543 169.184 96.918 169.793 96.434 170.527 c 96.512 
170.246 96.605 169.887 96.605 169.715 c 96.605 169.496 96.512 169.184 96.121
 169.184 c 95.527 169.184 94.809 170.059 94.48 170.559 c 94.871 169.168 
l 94.871 169.168 93.746 169.371 93.496 169.387 c 93.496 169.605 l 93.793
 169.605 93.996 169.559 93.996 169.809 c 93.996 169.965 93.934 170.184 93.855
 170.402 c 93.855 170.402 93.262 172.34 93.199 172.59 c 93.871 172.59 l 
94.012 172.074 l 94.449 170.527 95.48 169.684 95.777 169.684 c 95.871 169.684
 95.934 169.699 95.934 169.824 c 95.934 169.949 95.855 170.277 95.777 170.48
 c 95.777 170.48 95.262 172.277 95.168 172.59 c 95.84 172.59 l 95.98 172.074
 l 96.434 170.465 97.465 169.684 97.746 169.684 c 97.84 169.684 97.887 169.73
 97.887 169.809 c 97.887 169.902 97.809 170.215 97.73 170.48 c 97.418 171.559
 l 97.34 171.84 97.277 172.168 97.277 172.277 c 97.277 172.496 97.402 172.668
 97.605 172.668 c 98.012 172.668 98.434 172.246 98.762 171.793 c h
98.762 171.793 m f
103.82 163.988 m 103.383 163.988 l 100.273 172.348 l 100.727 172.348 l 
h
103.82 163.988 m f
104.496 170.426 m 106.496 170.426 l 106.496 170.285 l 106.027 170.285 105.887
 170.191 105.887 169.832 c 105.887 167.301 l 105.887 167.285 105.949 167.191
 106.012 167.129 c 106.246 166.926 106.621 166.77 106.934 166.77 c 107.34
 166.77 107.527 167.082 107.527 167.707 c 107.527 169.66 l 107.512 170.16
 107.418 170.27 106.918 170.285 c 106.918 170.426 l 108.934 170.426 l 108.934
 170.285 l 108.434 170.285 108.309 170.145 108.277 169.566 c 108.277 167.316
 l 108.559 166.926 108.84 166.77 109.262 166.77 c 109.777 166.77 109.934
 167.004 109.934 167.754 c 109.934 169.645 l 109.918 170.176 109.855 170.238
 109.34 170.285 c 109.34 170.426 l 111.309 170.426 l 111.309 170.285 l 111.074
 170.27 l 110.793 170.223 110.684 170.098 110.684 169.738 c 110.684 167.895
 l 110.684 166.832 110.34 166.301 109.652 166.301 c 109.121 166.301 108.668
 166.535 108.184 167.051 c 108.027 166.535 107.715 166.301 107.23 166.301
 c 106.824 166.301 106.59 166.41 105.84 166.988 c 105.84 166.316 l 105.777
 166.301 l 105.309 166.473 104.996 166.566 104.527 166.707 c 104.527 166.863
 l 104.637 166.832 104.715 166.816 104.809 166.816 c 105.043 166.816 105.121
 166.957 105.121 167.395 c 105.121 169.66 l 105.105 170.16 104.996 170.285
 104.496 170.285 c h
104.496 170.426 m f
113.566 166.301 m 112.379 166.301 111.582 167.16 111.582 168.395 c 111.582
 169.613 112.41 170.52 113.535 170.52 c 114.676 170.52 115.535 169.566 115.535
 168.332 c 115.535 167.145 114.707 166.301 113.566 166.301 c h
113.441 166.551 m 114.191 166.551 114.723 167.41 114.723 168.645 c 114.723
 169.66 114.316 170.27 113.645 170.27 c 113.301 170.27 112.973 170.051 112.785
 169.691 c 112.52 169.223 112.379 168.598 112.379 167.957 c 112.379 167.113
 112.801 166.551 113.441 166.551 c h
113.441 166.551 m f
115.941 170.426 m 118.066 170.426 l 118.066 170.285 l 117.488 170.27 117.395
 170.176 117.379 169.676 c 117.379 164.316 l 117.348 164.301 l 116.895 164.441
 116.566 164.535 115.926 164.691 c 115.926 164.832 l 115.973 164.832 l 116.082
 164.832 116.191 164.816 116.254 164.816 c 116.551 164.816 116.629 164.941
 116.629 165.363 c 116.629 169.645 l 116.629 170.129 116.504 170.254 115.941
 170.285 c h
115.941 170.426 m f
119.898 170.426 m 121.992 170.426 l 121.992 170.285 l 121.82 170.285 l 
121.445 170.254 121.336 170.16 121.32 169.832 c 121.32 168.176 l 122.586
 169.848 l 122.617 169.895 122.648 169.941 122.664 169.973 c 122.742 170.051
 122.773 170.113 122.773 170.16 c 122.773 170.238 122.695 170.285 122.586
 170.285 c 122.414 170.285 l 122.414 170.426 l 124.367 170.426 l 124.367
 170.285 l 123.977 170.27 123.695 170.098 123.32 169.629 c 121.945 167.895
 l 122.211 167.66 l 123.32 166.645 123.57 166.504 124.148 166.52 c 124.148
 166.395 l 122.305 166.395 l 122.305 166.52 l 122.664 166.52 122.758 166.566
 122.758 166.676 c 122.758 166.754 122.68 166.879 122.555 166.988 c 121.32
 168.082 l 121.32 164.316 l 121.289 164.301 l 120.945 164.41 120.68 164.488
 120.164 164.629 c 119.898 164.691 l 119.898 164.832 l 120.008 164.832 120.102
 164.816 120.18 164.816 c 120.492 164.816 120.57 164.941 120.57 165.363 
c 120.57 169.691 l 120.555 170.16 120.539 170.191 119.898 170.285 c h
119.898 170.426 m f
128.492 166.941 m 128.492 166.598 l 127.805 166.598 l 127.617 166.598 127.477
 166.566 127.305 166.504 c 127.102 166.441 l 126.867 166.348 126.617 166.301
 126.383 166.301 c 125.555 166.301 124.898 166.941 124.898 167.77 c 124.898
 168.332 125.133 168.66 125.727 168.957 c 125.492 169.176 l 125.305 169.363
 125.195 169.457 125.164 169.488 c 124.977 169.691 124.93 169.785 124.93
 169.941 c 124.93 170.145 125.023 170.238 125.398 170.41 c 124.758 170.879
 124.523 171.176 124.523 171.504 c 124.523 171.988 125.211 172.379 126.07
 172.379 c 126.742 172.379 127.445 172.145 127.914 171.77 c 128.258 171.488
 128.414 171.207 128.414 170.863 c 128.414 170.316 127.992 169.941 127.32
 169.91 c 126.164 169.848 l 125.68 169.832 125.461 169.754 125.461 169.613
 c 125.461 169.426 125.758 169.113 126.008 169.051 c 126.32 169.066 126.492
 169.082 126.523 169.082 c 126.852 169.082 127.211 168.957 127.477 168.707
 c 127.773 168.457 127.914 168.145 127.914 167.707 c 127.914 167.441 127.867
 167.238 127.742 166.941 c h
125.586 170.441 m 125.898 170.504 126.602 170.566 127.055 170.566 c 127.867
 170.566 128.164 170.676 128.164 171.004 c 128.164 171.52 127.477 171.863
 126.461 171.863 c 125.664 171.863 125.148 171.613 125.148 171.223 c 125.148
 171.004 125.227 170.879 125.586 170.441 c h
125.633 167.395 m 125.633 166.863 125.883 166.551 126.305 166.551 c 126.586
 166.551 126.805 166.707 126.961 166.973 c 127.133 167.285 127.227 167.691
 127.227 168.051 c 127.227 168.551 126.977 168.863 126.555 168.863 c 126.008
 168.863 125.633 168.285 125.633 167.426 c h
125.633 167.395 m f
129.137 164.953 4.703 0.438 re f
137.391 167.188 m 137.391 167 l 136.859 167 136.688 167 136.688 166.156
 c 136.688 166.141 136.688 162.484 136.688 162.484 c 136.516 162.484 l 135.172
 163.062 l 135.25 163.25 l 135.562 163.125 135.625 163.109 135.719 163.109
 c 135.922 163.109 135.938 163.281 135.938 163.484 c 135.938 166.156 l 135.938
 167 135.781 166.984 135.25 167 c 135.25 167.188 l h
137.391 167.188 m f
141.539 168.078 m 141.539 165.672 140.414 163.484 139.102 162.703 c 139.102
 162.844 l 140.305 163.875 140.602 166.516 140.602 168.078 c 140.602 169.641
 140.305 172.281 139.102 173.312 c 139.102 173.453 l 140.414 172.672 141.539
 170.484 141.539 168.078 c h
141.539 168.078 m f
145.672 165.148 m 145.672 164.961 l 145.141 164.961 144.969 164.961 144.969
 164.117 c 144.969 164.102 144.969 160.445 144.969 160.445 c 144.797 160.445
 l 143.453 161.023 l 143.531 161.211 l 143.844 161.086 143.906 161.07 144
 161.07 c 144.203 161.07 144.219 161.242 144.219 161.445 c 144.219 164.117
 l 144.219 164.961 144.062 164.945 143.531 164.961 c 143.531 165.148 l h
145.672 165.148 m f
149.688 159.805 m 149.266 159.805 l 146.906 166.461 l 147.328 166.461 l
 h
149.688 159.805 m f
154.129 164.18 m 153.91 164.148 l 153.676 164.508 153.488 164.57 153.145
 164.57 c 151.488 164.57 l 152.676 163.586 153.738 162.695 153.738 161.727
 c 153.738 160.992 153.035 160.477 152.27 160.477 c 151.504 160.477 150.895
 160.836 150.66 161.852 c 150.91 161.852 l 151.129 161.461 151.41 161.07
 151.988 161.07 c 152.629 161.07 152.988 161.492 152.988 161.992 c 152.988
 162.727 152.098 163.789 150.582 164.977 c 150.582 165.148 l 153.676 165.148
 l h
154.129 164.18 m f
6.125 83.535 m 6.125 81.41 l 5.984 81.41 l 5.969 81.988 5.875 82.082 5.375
 82.098 c 0.016 82.098 l 0 82.129 l 0.141 82.582 0.234 82.91 0.391 83.551
 c 0.531 83.551 l 0.531 83.504 l 0.531 83.395 0.516 83.285 0.516 83.223 
c 0.516 82.926 0.641 82.848 1.062 82.848 c 5.344 82.848 l 5.828 82.848 5.953
 82.973 5.984 83.535 c h
6.125 83.535 m f
6.125 81.047 m 6.125 79.141 l 5.984 79.141 l 5.969 79.594 5.844 79.734 
5.531 79.734 c 3 79.734 l 2.594 79.297 2.5 79.109 2.5 78.812 c 2.5 78.375
 2.766 78.156 3.359 78.156 c 5.234 78.156 l 5.812 78.172 5.969 78.281 5.984
 78.719 c 6.125 78.719 l 6.125 76.859 l 5.984 76.859 l 5.953 77.297 5.844
 77.391 5.406 77.406 c 3.344 77.406 l 2.5 77.406 2 77.797 2 78.453 c 2 78.875
 2.156 79.156 2.719 79.766 c 2.016 79.766 l 2 79.828 l 2.172 80.281 2.266
 80.594 2.406 81.062 c 2.562 81.062 l 2.531 81 2.516 80.922 2.516 80.812
 c 2.516 80.562 2.656 80.484 3.094 80.484 c 5.312 80.484 l 5.844 80.5 5.969
 80.594 5.984 81.047 c h
6.125 81.047 m f
2.391 70.68 m 2.156 70.68 2.031 70.867 2.031 71.039 c 2.031 71.148 2.078
 71.258 2.188 71.336 c 2.359 71.43 2.531 71.383 2.828 71.461 c 3.562 71.633
 4.344 72.211 5.656 73.211 c 5.422 73.195 4.656 73.102 3.891 73.102 c 2.969
 73.102 2.031 73.242 2.031 73.883 c 2.031 74.523 2.625 74.727 2.906 74.727
 c 3 74.727 3.094 74.695 3.141 74.664 c 3.141 74.586 l 2.984 74.539 2.594
 74.398 2.594 74.086 c 2.594 73.758 3.359 73.539 4.141 73.539 c 5.266 73.555
 5.719 73.602 6.078 73.633 c 6.438 73.898 7.109 74.461 7.672 74.461 c 7.906
 74.461 8.047 74.367 8.047 74.148 c 8.047 73.461 6.594 73.305 6.078 73.273
 c 5.703 72.914 3.953 71.336 2.953 70.82 c 2.719 70.695 2.562 70.68 2.391
 70.68 c h
2.391 70.68 m f
8.406 65.059 m 7.969 65.059 l 7.969 67.387 l 6.078 67.387 l 6.078 65.059
 l 5.641 65.059 l 5.641 67.387 l 3.312 67.387 l 3.312 67.809 l 5.641 67.809
 l 5.641 70.137 l 6.078 70.137 l 6.078 67.809 l 7.969 67.809 l 7.969 70.137
 l 8.406 70.137 l h
8.406 65.059 m f
Q Q
showpage
%%Trailer
end
%%EOF
