%!PS-Adobe-3.0 EPSF-3.0
%%Creator: cairo 1.17.4 (https://cairographics.org)
%%CreationDate: Thu Feb 24 10:48:44 2022
%%Pages: 1
%%DocumentData: Clean7Bit
%%LanguageLevel: 2
%%BoundingBox: 0 0 211 199
%%EndComments
%%BeginProlog
50 dict begin
/q { gsave } bind def
/Q { grestore } bind def
/cm { 6 array astore concat } bind def
/w { setlinewidth } bind def
/J { setlinecap } bind def
/j { setlinejoin } bind def
/M { setmiterlimit } bind def
/d { setdash } bind def
/m { moveto } bind def
/l { lineto } bind def
/c { curveto } bind def
/h { closepath } bind def
/re { exch dup neg 3 1 roll 5 3 roll moveto 0 rlineto
      0 exch rlineto 0 rlineto closepath } bind def
/S { stroke } bind def
/f { fill } bind def
/f* { eofill } bind def
/n { newpath } bind def
/W { clip } bind def
/W* { eoclip } bind def
/BT { } bind def
/ET { } bind def
/BDC { mark 3 1 roll /BDC pdfmark } bind def
/EMC { mark /EMC pdfmark } bind def
/cairo_store_point { /cairo_point_y exch def /cairo_point_x exch def } def
/Tj { show currentpoint cairo_store_point } bind def
/TJ {
  {
    dup
    type /stringtype eq
    { show } { -0.001 mul 0 cairo_font_matrix dtransform rmoveto } ifelse
  } forall
  currentpoint cairo_store_point
} bind def
/cairo_selectfont { cairo_font_matrix aload pop pop pop 0 0 6 array astore
    cairo_font exch selectfont cairo_point_x cairo_point_y moveto } bind def
/Tf { pop /cairo_font exch def /cairo_font_matrix where
      { pop cairo_selectfont } if } bind def
/Td { matrix translate cairo_font_matrix matrix concatmatrix dup
      /cairo_font_matrix exch def dup 4 get exch 5 get cairo_store_point
      /cairo_font where { pop cairo_selectfont } if } bind def
/Tm { 2 copy 8 2 roll 6 array astore /cairo_font_matrix exch def
      cairo_store_point /cairo_font where { pop cairo_selectfont } if } bind def
/g { setgray } bind def
/rg { setrgbcolor } bind def
/d1 { setcachedevice } bind def
/cairo_data_source {
  CairoDataIndex CairoData length lt
    { CairoData CairoDataIndex get /CairoDataIndex CairoDataIndex 1 add def }
    { () } ifelse
} def
/cairo_flush_ascii85_file { cairo_ascii85_file status { cairo_ascii85_file flushfile } if } def
/cairo_image { image cairo_flush_ascii85_file } def
/cairo_imagemask { imagemask cairo_flush_ascii85_file } def
%%EndProlog
%%BeginSetup
%%EndSetup
%%Page: 1 1
%%BeginPageSetup
%%PageBoundingBox: 0 0 211 199
%%EndPageSetup
q 0 0 211 199 rectclip
1 0 0 -1 0 199 cm q
0 g
1.13366 w
0 J
0 j
[] 0.0 d
10 M q 1 0 0 -1 0 0 cm
43.766 -152.289 m 43.766 -152.289 46.453 -133.59 48.402 -123.836 c 49.617
 -117.91 50.871 -112.609 52.453 -106.793 c 53.594 -102.707 54.551 -99.027
 56.133 -95.086 c 58.676 -88.902 61.547 -83.602 64.859 -77.785 c 66.477 
-74.914 67.988 -72.301 70.047 -69.688 c 72.883 -66.117 75.902 -63.32 79.18
 -60.152 c 80.613 -58.754 81.977 -57.539 83.523 -56.25 c 84.773 -55.258 
85.879 -54.375 87.164 -53.492 c 89.816 -51.688 92.32 -50.25 95.152 -48.742
 c 100.125 -46.164 104.797 -44.141 109.988 -41.969 c 112.602 -40.902 114.996
 -39.98 117.719 -39.098 c 123.277 -37.332 128.395 -36.227 134.027 -34.828
 c 135.5 -34.461 136.785 -34.129 138.258 -33.797 c 148.973 -31.59 169.512
 -28.277 169.512 -28.277 c S Q
1 g
45.906 152.305 m 45.906 151.129 44.953 150.176 43.777 150.176 c 42.602 
150.176 41.648 151.129 41.648 152.305 c 41.648 153.48 42.602 154.434 43.777
 154.434 c 44.953 154.434 45.906 153.48 45.906 152.305 c f
0 g
45.906 152.305 m 45.906 151.129 44.953 150.176 43.777 150.176 c 42.602 
150.176 41.648 151.129 41.648 152.305 c 41.648 153.48 42.602 154.434 43.777
 154.434 c 44.953 154.434 45.906 153.48 45.906 152.305 c h
45.906 152.305 m 45.695 152.305 l 45.695 151.246 44.836 150.387 43.777 
150.387 c 42.719 150.387 41.859 151.246 41.859 152.305 c 41.859 153.363 
42.719 154.223 43.777 154.223 c 44.836 154.223 45.695 153.363 45.695 152.305
 c f
1 g
50.543 123.855 m 50.543 122.68 49.59 121.727 48.414 121.727 c 47.238 121.727
 46.285 122.68 46.285 123.855 c 46.285 125.031 47.238 125.984 48.414 125.984
 c 49.59 125.984 50.543 125.031 50.543 123.855 c f
0 g
50.543 123.855 m 50.543 122.68 49.59 121.727 48.414 121.727 c 47.238 121.727
 46.285 122.68 46.285 123.855 c 46.285 125.031 47.238 125.984 48.414 125.984
 c 49.59 125.984 50.543 125.031 50.543 123.855 c h
50.543 123.855 m 50.332 123.855 l 50.332 122.797 49.473 121.938 48.414 
121.938 c 47.355 121.938 46.496 122.797 46.496 123.855 c 46.496 124.914 
47.355 125.773 48.414 125.773 c 49.473 125.773 50.332 124.914 50.332 123.855
 c f
1 g
54.594 106.777 m 54.594 105.602 53.641 104.648 52.465 104.648 c 51.289 
104.648 50.336 105.602 50.336 106.777 c 50.336 107.953 51.289 108.906 52.465
 108.906 c 53.641 108.906 54.594 107.953 54.594 106.777 c f
0 g
54.594 106.777 m 54.594 105.602 53.641 104.648 52.465 104.648 c 51.289 
104.648 50.336 105.602 50.336 106.777 c 50.336 107.953 51.289 108.906 52.465
 108.906 c 53.641 108.906 54.594 107.953 54.594 106.777 c h
54.594 106.777 m 54.383 106.777 l 54.383 105.719 53.523 104.859 52.465 
104.859 c 51.406 104.859 50.547 105.719 50.547 106.777 c 50.547 107.836 
51.406 108.695 52.465 108.695 c 53.523 108.695 54.383 107.836 54.383 106.777
 c f
1 g
58.273 95.105 m 58.273 93.93 57.32 92.977 56.145 92.977 c 54.969 92.977
 54.016 93.93 54.016 95.105 c 54.016 96.281 54.969 97.234 56.145 97.234 
c 57.32 97.234 58.273 96.281 58.273 95.105 c f
0 g
58.273 95.105 m 58.273 93.93 57.32 92.977 56.145 92.977 c 54.969 92.977
 54.016 93.93 54.016 95.105 c 54.016 96.281 54.969 97.234 56.145 97.234 
c 57.32 97.234 58.273 96.281 58.273 95.105 c h
58.273 95.105 m 58.062 95.105 l 58.062 94.047 57.203 93.188 56.145 93.188
 c 55.086 93.188 54.227 94.047 54.227 95.105 c 54.227 96.164 55.086 97.023
 56.145 97.023 c 57.203 97.023 58.062 96.164 58.062 95.105 c f
1 g
66.977 77.785 m 66.977 76.609 66.023 75.656 64.848 75.656 c 63.672 75.656
 62.719 76.609 62.719 77.785 c 62.719 78.961 63.672 79.914 64.848 79.914
 c 66.023 79.914 66.977 78.961 66.977 77.785 c f
0 g
66.977 77.785 m 66.977 76.609 66.023 75.656 64.848 75.656 c 63.672 75.656
 62.719 76.609 62.719 77.785 c 62.719 78.961 63.672 79.914 64.848 79.914
 c 66.023 79.914 66.977 78.961 66.977 77.785 c h
66.977 77.785 m 66.766 77.785 l 66.766 76.727 65.906 75.867 64.848 75.867
 c 63.789 75.867 62.93 76.727 62.93 77.785 c 62.93 78.844 63.789 79.703 
64.848 79.703 c 65.906 79.703 66.766 78.844 66.766 77.785 c f
1 g
72.184 69.688 m 72.184 68.512 71.23 67.559 70.055 67.559 c 68.879 67.559
 67.926 68.512 67.926 69.688 c 67.926 70.863 68.879 71.816 70.055 71.816
 c 71.23 71.816 72.184 70.863 72.184 69.688 c f
0 g
72.184 69.688 m 72.184 68.512 71.23 67.559 70.055 67.559 c 68.879 67.559
 67.926 68.512 67.926 69.688 c 67.926 70.863 68.879 71.816 70.055 71.816
 c 71.23 71.816 72.184 70.863 72.184 69.688 c h
72.184 69.688 m 71.973 69.688 l 71.973 68.629 71.113 67.77 70.055 67.77
 c 68.996 67.77 68.137 68.629 68.137 69.688 c 68.137 70.746 68.996 71.605
 70.055 71.605 c 71.113 71.605 71.973 70.746 71.973 69.688 c f
1 g
81.305 60.145 m 81.305 58.969 80.352 58.016 79.176 58.016 c 78 58.016 77.047
 58.969 77.047 60.145 c 77.047 61.32 78 62.273 79.176 62.273 c 80.352 62.273
 81.305 61.32 81.305 60.145 c f
0 g
81.305 60.145 m 81.305 58.969 80.352 58.016 79.176 58.016 c 78 58.016 77.047
 58.969 77.047 60.145 c 77.047 61.32 78 62.273 79.176 62.273 c 80.352 62.273
 81.305 61.32 81.305 60.145 c h
81.305 60.145 m 81.094 60.145 l 81.094 59.086 80.234 58.227 79.176 58.227
 c 78.117 58.227 77.258 59.086 77.258 60.145 c 77.258 61.203 78.117 62.062
 79.176 62.062 c 80.234 62.062 81.094 61.203 81.094 60.145 c f
1 g
85.664 56.277 m 85.664 55.102 84.711 54.148 83.535 54.148 c 82.359 54.148
 81.406 55.102 81.406 56.277 c 81.406 57.453 82.359 58.406 83.535 58.406
 c 84.711 58.406 85.664 57.453 85.664 56.277 c f
0 g
85.664 56.277 m 85.664 55.102 84.711 54.148 83.535 54.148 c 82.359 54.148
 81.406 55.102 81.406 56.277 c 81.406 57.453 82.359 58.406 83.535 58.406
 c 84.711 58.406 85.664 57.453 85.664 56.277 c h
85.664 56.277 m 85.453 56.277 l 85.453 55.219 84.594 54.359 83.535 54.359
 c 82.477 54.359 81.617 55.219 81.617 56.277 c 81.617 57.336 82.477 58.195
 83.535 58.195 c 84.594 58.195 85.453 57.336 85.453 56.277 c f
1 g
89.305 53.496 m 89.305 52.32 88.352 51.367 87.176 51.367 c 86 51.367 85.047
 52.32 85.047 53.496 c 85.047 54.672 86 55.625 87.176 55.625 c 88.352 55.625
 89.305 54.672 89.305 53.496 c f
0 g
89.305 53.496 m 89.305 52.32 88.352 51.367 87.176 51.367 c 86 51.367 85.047
 52.32 85.047 53.496 c 85.047 54.672 86 55.625 87.176 55.625 c 88.352 55.625
 89.305 54.672 89.305 53.496 c h
89.305 53.496 m 89.094 53.496 l 89.094 52.438 88.234 51.578 87.176 51.578
 c 86.117 51.578 85.258 52.438 85.258 53.496 c 85.258 54.555 86.117 55.414
 87.176 55.414 c 88.234 55.414 89.094 54.555 89.094 53.496 c f
1 g
97.273 48.766 m 97.273 47.59 96.32 46.637 95.145 46.637 c 93.969 46.637
 93.016 47.59 93.016 48.766 c 93.016 49.941 93.969 50.895 95.145 50.895 
c 96.32 50.895 97.273 49.941 97.273 48.766 c f
0 g
97.273 48.766 m 97.273 47.59 96.32 46.637 95.145 46.637 c 93.969 46.637
 93.016 47.59 93.016 48.766 c 93.016 49.941 93.969 50.895 95.145 50.895 
c 96.32 50.895 97.273 49.941 97.273 48.766 c h
97.273 48.766 m 97.062 48.766 l 97.062 47.707 96.203 46.848 95.145 46.848
 c 94.086 46.848 93.227 47.707 93.227 48.766 c 93.227 49.824 94.086 50.684
 95.145 50.684 c 96.203 50.684 97.062 49.824 97.062 48.766 c f
1 g
112.105 41.984 m 112.105 40.809 111.152 39.855 109.977 39.855 c 108.801
 39.855 107.848 40.809 107.848 41.984 c 107.848 43.16 108.801 44.113 109.977
 44.113 c 111.152 44.113 112.105 43.16 112.105 41.984 c f
0 g
112.105 41.984 m 112.105 40.809 111.152 39.855 109.977 39.855 c 108.801
 39.855 107.848 40.809 107.848 41.984 c 107.848 43.16 108.801 44.113 109.977
 44.113 c 111.152 44.113 112.105 43.16 112.105 41.984 c h
112.105 41.984 m 111.895 41.984 l 111.895 40.926 111.035 40.066 109.977
 40.066 c 108.918 40.066 108.059 40.926 108.059 41.984 c 108.059 43.043 
108.918 43.902 109.977 43.902 c 111.035 43.902 111.895 43.043 111.895 41.984
 c f
1 g
119.855 39.105 m 119.855 37.93 118.902 36.977 117.727 36.977 c 116.551 
36.977 115.598 37.93 115.598 39.105 c 115.598 40.281 116.551 41.234 117.727
 41.234 c 118.902 41.234 119.855 40.281 119.855 39.105 c f
0 g
119.855 39.105 m 119.855 37.93 118.902 36.977 117.727 36.977 c 116.551 
36.977 115.598 37.93 115.598 39.105 c 115.598 40.281 116.551 41.234 117.727
 41.234 c 118.902 41.234 119.855 40.281 119.855 39.105 c h
119.855 39.105 m 119.645 39.105 l 119.645 38.047 118.785 37.188 117.727
 37.188 c 116.668 37.188 115.809 38.047 115.809 39.105 c 115.809 40.164 
116.668 41.023 117.727 41.023 c 118.785 41.023 119.645 40.164 119.645 39.105
 c f
1 g
136.156 34.816 m 136.156 33.641 135.203 32.688 134.027 32.688 c 132.852
 32.688 131.898 33.641 131.898 34.816 c 131.898 35.992 132.852 36.945 134.027
 36.945 c 135.203 36.945 136.156 35.992 136.156 34.816 c f
0 g
136.156 34.816 m 136.156 33.641 135.203 32.688 134.027 32.688 c 132.852
 32.688 131.898 33.641 131.898 34.816 c 131.898 35.992 132.852 36.945 134.027
 36.945 c 135.203 36.945 136.156 35.992 136.156 34.816 c h
136.156 34.816 m 135.945 34.816 l 135.945 33.758 135.086 32.898 134.027
 32.898 c 132.969 32.898 132.109 33.758 132.109 34.816 c 132.109 35.875 
132.969 36.734 134.027 36.734 c 135.086 36.734 135.945 35.875 135.945 34.816
 c f
1 g
140.363 33.816 m 140.363 32.641 139.41 31.688 138.234 31.688 c 137.059 
31.688 136.105 32.641 136.105 33.816 c 136.105 34.992 137.059 35.945 138.234
 35.945 c 139.41 35.945 140.363 34.992 140.363 33.816 c f
0 g
140.363 33.816 m 140.363 32.641 139.41 31.688 138.234 31.688 c 137.059 
31.688 136.105 32.641 136.105 33.816 c 136.105 34.992 137.059 35.945 138.234
 35.945 c 139.41 35.945 140.363 34.992 140.363 33.816 c h
140.363 33.816 m 140.152 33.816 l 140.152 32.758 139.293 31.898 138.234
 31.898 c 137.176 31.898 136.316 32.758 136.316 33.816 c 136.316 34.875 
137.176 35.734 138.234 35.734 c 139.293 35.734 140.152 34.875 140.152 33.816
 c f
1 g
171.637 28.285 m 171.637 27.109 170.684 26.156 169.508 26.156 c 168.332
 26.156 167.379 27.109 167.379 28.285 c 167.379 29.461 168.332 30.414 169.508
 30.414 c 170.684 30.414 171.637 29.461 171.637 28.285 c f
0 g
171.637 28.285 m 171.637 27.109 170.684 26.156 169.508 26.156 c 168.332
 26.156 167.379 27.109 167.379 28.285 c 167.379 29.461 168.332 30.414 169.508
 30.414 c 170.684 30.414 171.637 29.461 171.637 28.285 c h
171.637 28.285 m 171.426 28.285 l 171.426 27.227 170.566 26.367 169.508
 26.367 c 168.449 26.367 167.59 27.227 167.59 28.285 c 167.59 29.344 168.449
 30.203 169.508 30.203 c 170.566 30.203 171.426 29.344 171.426 28.285 c f
1 g
160.617 27.055 m 158.184 31.273 l 163.051 31.273 l f
0 g
160.617 27.055 m 158.184 31.273 l 163.051 31.273 l h
160.617 27.477 m 158.547 31.062 l 162.688 31.062 l f
0.567043 w
q 1 0 0 -1 0 0 cm
33.027 -2.965 170.094 -170.094 re S Q
0.398507 w
q 1 0 0 -1 0 0 cm
33.047 -173.066 m 33.047 -168.789 l S Q
0.398506 w
q 1 0 0 -1 0 0 cm
75.574 -173.059 m 75.574 -168.781 l S Q
q 1 0 0 -1 0 0 cm
118.086 -173.051 m 118.086 -168.82 l S Q
q 1 0 0 -1 0 0 cm
160.613 -173.047 m 160.613 -168.82 l S Q
0.398507 w
q 1 0 0 -1 0 0 cm
203.137 -173.043 m 203.137 -168.785 l S Q
q 1 0 0 -1 0 0 cm
33.047 -173.066 m 33.047 -168.789 l S Q
0.398505 w
q 1 0 0 -1 0 0 cm
33.055 -173.039 m 37.301 -173.039 l S Q
q 1 0 0 -1 0 0 cm
33.055 -139.02 m 37.301 -139.02 l S Q
q 1 0 0 -1 0 0 cm
33.055 -105.035 m 37.301 -105.035 l S Q
q 1 0 0 -1 0 0 cm
33.055 -71.016 m 37.301 -71.016 l S Q
q 1 0 0 -1 0 0 cm
33.055 -36.996 m 37.301 -36.996 l S Q
q 1 0 0 -1 0 0 cm
33.055 -2.977 m 37.301 -2.977 l S Q
q 1 0 0 -1 0 0 cm
33.055 -173.039 m 37.301 -173.039 l S Q
0.398507 w
q 1 0 0 -1 0 0 cm
33.047 -2.984 m 33.047 -7.23 l S Q
0.398506 w
q 1 0 0 -1 0 0 cm
75.574 -2.973 m 75.574 -7.215 l S Q
q 1 0 0 -1 0 0 cm
118.086 -2.984 m 118.086 -7.219 l S Q
q 1 0 0 -1 0 0 cm
160.613 -2.977 m 160.613 -7.238 l S Q
0.398507 w
q 1 0 0 -1 0 0 cm
203.137 -2.984 m 203.137 -7.207 l S Q
q 1 0 0 -1 0 0 cm
33.047 -2.984 m 33.047 -7.23 l S Q
0.398505 w
q 1 0 0 -1 0 0 cm
203.121 -173.059 m 198.863 -173.059 l S Q
q 1 0 0 -1 0 0 cm
203.121 -139.039 m 198.863 -139.039 l S Q
q 1 0 0 -1 0 0 cm
203.121 -105.02 m 198.863 -105.02 l S Q
q 1 0 0 -1 0 0 cm
203.121 -71 m 198.863 -71 l S Q
q 1 0 0 -1 0 0 cm
203.121 -36.984 m 198.863 -36.984 l S Q
q 1 0 0 -1 0 0 cm
203.121 -2.965 m 198.863 -2.965 l S Q
q 1 0 0 -1 0 0 cm
203.121 -173.059 m 198.863 -173.059 l S Q
35 179.582 m 35 177.973 34.266 176.52 33.016 176.52 c 31.75 176.52 31.016
 177.973 31.016 179.582 c 31.016 181.207 31.703 182.645 33.016 182.645 c
 34.219 182.645 35 181.207 35 179.582 c h
34.141 179.582 m 34.141 180.879 34.016 182.395 33.016 182.395 c 32.062 
182.395 31.875 180.879 31.875 179.582 c 31.875 178.504 32 176.754 33.016
 176.754 c 34.016 176.754 34.141 178.504 34.141 179.582 c h
34.141 179.582 m f
71.84 179.582 m 71.84 177.973 71.105 176.52 69.855 176.52 c 68.59 176.52
 67.855 177.973 67.855 179.582 c 67.855 181.207 68.543 182.645 69.855 182.645
 c 71.059 182.645 71.84 181.207 71.84 179.582 c h
70.98 179.582 m 70.98 180.879 70.855 182.395 69.855 182.395 c 68.902 182.395
 68.715 180.879 68.715 179.582 c 68.715 178.504 68.84 176.754 69.855 176.754
 c 70.855 176.754 70.98 178.504 70.98 179.582 c h
70.98 179.582 m f
73.766 182.16 m 73.766 181.879 73.547 181.66 73.266 181.66 c 72.984 181.66
 72.766 181.879 72.766 182.16 c 72.766 182.441 72.984 182.66 73.266 182.66
 c 73.547 182.66 73.766 182.441 73.766 182.16 c h
73.766 182.16 m f
78.68 179.582 m 78.68 177.973 77.945 176.52 76.695 176.52 c 75.43 176.52
 74.695 177.973 74.695 179.582 c 74.695 181.207 75.383 182.645 76.695 182.645
 c 77.898 182.645 78.68 181.207 78.68 179.582 c h
77.82 179.582 m 77.82 180.879 77.695 182.395 76.695 182.395 c 75.742 182.395
 75.555 180.879 75.555 179.582 c 75.555 178.504 75.68 176.754 76.695 176.754
 c 77.695 176.754 77.82 178.504 77.82 179.582 c h
77.82 179.582 m f
83.059 176.613 m 80.59 176.613 l 79.48 179.16 l 79.621 179.129 79.762 179.098
 79.934 179.098 c 80.887 179.098 82.184 179.598 82.184 180.77 c 82.184 181.676
 81.527 182.254 80.902 182.254 c 80.355 182.254 80.152 181.754 79.637 181.754
 c 79.387 181.754 79.309 181.973 79.309 182.082 c 79.309 182.395 79.746 
182.645 80.371 182.645 c 81.715 182.645 82.777 181.66 82.777 180.457 c 82.777
 179.035 81.652 178.551 80.434 178.52 c 80.324 178.52 80.199 178.535 80.09
 178.551 c 80.652 177.285 l 82.746 177.27 l h
83.059 176.613 m f
114.441 179.582 m 114.441 177.973 113.707 176.52 112.457 176.52 c 111.191
 176.52 110.457 177.973 110.457 179.582 c 110.457 181.207 111.145 182.645
 112.457 182.645 c 113.66 182.645 114.441 181.207 114.441 179.582 c h
113.582 179.582 m 113.582 180.879 113.457 182.395 112.457 182.395 c 111.504
 182.395 111.316 180.879 111.316 179.582 c 111.316 178.504 111.441 176.754
 112.457 176.754 c 113.457 176.754 113.582 178.504 113.582 179.582 c h
113.582 179.582 m f
116.363 182.16 m 116.363 181.879 116.145 181.66 115.863 181.66 c 115.582
 181.66 115.363 181.879 115.363 182.16 c 115.363 182.441 115.582 182.66 
115.863 182.66 c 116.145 182.66 116.363 182.441 116.363 182.16 c h
116.363 182.16 m f
120.527 182.535 m 120.527 182.395 l 119.934 182.395 119.715 182.41 119.715
 181.238 c 119.715 181.223 119.715 176.488 119.715 176.488 c 119.59 176.488
 l 118.059 177.223 l 118.105 177.363 l 118.434 177.223 118.512 177.191 118.637
 177.191 c 118.902 177.191 118.949 177.426 118.949 177.738 c 118.949 181.238
 l 118.949 182.41 118.73 182.379 118.137 182.395 c 118.137 182.535 l h
120.527 182.535 m f
125.719 179.582 m 125.719 177.973 124.984 176.52 123.734 176.52 c 122.469
 176.52 121.734 177.973 121.734 179.582 c 121.734 181.207 122.422 182.645
 123.734 182.645 c 124.938 182.645 125.719 181.207 125.719 179.582 c h
124.859 179.582 m 124.859 180.879 124.734 182.395 123.734 182.395 c 122.781
 182.395 122.594 180.879 122.594 179.582 c 122.594 178.504 122.719 176.754
 123.734 176.754 c 124.734 176.754 124.859 178.504 124.859 179.582 c h
124.859 179.582 m f
156.918 179.582 m 156.918 177.973 156.184 176.52 154.934 176.52 c 153.668
 176.52 152.934 177.973 152.934 179.582 c 152.934 181.207 153.621 182.645
 154.934 182.645 c 156.137 182.645 156.918 181.207 156.918 179.582 c h
156.059 179.582 m 156.059 180.879 155.934 182.395 154.934 182.395 c 153.98
 182.395 153.793 180.879 153.793 179.582 c 153.793 178.504 153.918 176.754
 154.934 176.754 c 155.934 176.754 156.059 178.504 156.059 179.582 c h
156.059 179.582 m f
158.844 182.16 m 158.844 181.879 158.625 181.66 158.344 181.66 c 158.062
 181.66 157.844 181.879 157.844 182.16 c 157.844 182.441 158.062 182.66 
158.344 182.66 c 158.625 182.66 158.844 182.441 158.844 182.16 c h
158.844 182.16 m f
163.008 182.535 m 163.008 182.395 l 162.414 182.395 162.195 182.41 162.195
 181.238 c 162.195 181.223 162.195 176.488 162.195 176.488 c 162.07 176.488
 l 160.539 177.223 l 160.586 177.363 l 160.914 177.223 160.992 177.191 161.117
 177.191 c 161.383 177.191 161.43 177.426 161.43 177.738 c 161.43 181.238
 l 161.43 182.41 161.211 182.379 160.617 182.395 c 160.617 182.535 l h
163.008 182.535 m f
168.137 176.613 m 165.668 176.613 l 164.559 179.16 l 164.699 179.129 164.84
 179.098 165.012 179.098 c 165.965 179.098 167.262 179.598 167.262 180.77
 c 167.262 181.676 166.605 182.254 165.98 182.254 c 165.434 182.254 165.23
 181.754 164.715 181.754 c 164.465 181.754 164.387 181.973 164.387 182.082
 c 164.387 182.395 164.824 182.645 165.449 182.645 c 166.793 182.645 167.855
 181.66 167.855 180.457 c 167.855 179.035 166.73 178.551 165.512 178.52 
c 165.402 178.52 165.277 178.535 165.168 178.551 c 165.73 177.285 l 167.824
 177.27 l h
168.137 176.613 m f
14.707 173.691 5.484 0.453 re f
24.172 176.176 m 24.172 176.035 l 23.578 176.035 23.359 176.051 23.359 
174.879 c 23.359 174.863 23.359 170.129 23.359 170.129 c 23.234 170.129 
l 21.703 170.863 l 21.75 171.004 l 22.078 170.863 22.156 170.832 22.281 
170.832 c 22.547 170.832 22.594 171.066 22.594 171.379 c 22.594 174.879 
l 22.594 176.051 22.375 176.02 21.781 176.035 c 21.781 176.176 l h
24.172 176.176 m f
29.359 173.223 m 29.359 171.613 28.625 170.16 27.375 170.16 c 26.109 170.16
 25.375 171.613 25.375 173.223 c 25.375 174.848 26.062 176.285 27.375 176.285
 c 28.578 176.285 29.359 174.848 29.359 173.223 c h
28.5 173.223 m 28.5 174.52 28.375 176.035 27.375 176.035 c 26.422 176.035
 26.234 174.52 26.234 173.223 c 26.234 172.145 26.359 170.395 27.375 170.395
 c 28.375 170.395 28.5 172.145 28.5 173.223 c h
28.5 173.223 m f
19.145 139.613 5.484 0.453 re f
29.094 140.723 m 29.094 140.082 28.812 139.598 27.719 138.785 c 28.406 
138.41 28.938 137.988 28.938 137.332 c 28.938 136.645 28.297 136.051 27.344
 136.051 c 26.5 136.051 25.703 136.598 25.703 137.441 c 25.703 138.098 26.047
 138.488 26.812 139.098 c 25.953 139.754 25.641 140.082 25.641 140.754 c
 25.641 141.504 26.312 142.207 27.359 142.207 c 28.578 142.207 29.094 141.379
 29.094 140.723 c h
28.328 137.316 m 28.328 137.957 27.953 138.301 27.469 138.629 c 26.875 
138.207 26.359 137.738 26.359 137.223 c 26.359 136.738 26.703 136.316 27.312
 136.316 c 27.984 136.316 28.328 136.738 28.328 137.316 c h
28.453 140.973 m 28.453 141.551 28.016 141.941 27.438 141.941 c 26.75 141.941
 26.312 141.395 26.312 140.66 c 26.312 139.988 26.641 139.598 27.047 139.254
 c 28.031 140.004 28.453 140.379 28.453 140.973 c h
28.453 140.973 m f
19.145 105.652 5.484 0.453 re f
29.312 106.121 m 29.312 105.137 28.609 104.402 27.719 104.402 c 27.266 
104.402 26.891 104.543 26.5 104.855 c 26.891 103.262 28.062 102.262 29.188
 102.246 c 29.188 102.09 l 26.422 102.09 25.547 104.434 25.547 105.762 c
 25.547 107.184 26.375 108.246 27.484 108.246 c 28.5 108.246 29.312 107.293
 29.312 106.121 c h
28.547 106.574 m 28.547 107.402 28.172 107.98 27.578 107.98 c 26.656 107.98
 26.375 106.637 26.375 105.918 c 26.375 105.684 26.406 105.434 26.453 105.137
 c 26.844 104.887 27.156 104.777 27.469 104.777 c 28.375 104.777 28.547 
105.824 28.547 106.574 c h
28.547 106.574 m f
19.145 71.57 5.484 0.453 re f
29.375 72.57 m 29.375 71.961 l 28.5 71.961 l 28.5 68.039 l 28.062 68.039
 l 25.469 71.945 l 25.469 72.57 l 27.766 72.57 l 27.766 74.055 l 28.5 74.055
 l 28.5 72.57 l h
27.766 71.961 m 25.828 71.961 l 27.75 68.977 l 27.766 68.977 l h
27.766 71.961 m f
19.145 37.609 5.484 0.453 re f
29.391 38.938 m 29.234 38.906 l 28.969 39.359 28.75 39.438 28.312 39.438
 c 26.25 39.438 l 27.672 38.141 28.969 36.969 28.969 35.656 c 28.969 34.734
 28.172 34.078 27.297 34.078 c 26.438 34.078 25.75 34.547 25.484 35.766 
c 25.688 35.766 l 25.938 35.266 26.281 34.75 26.969 34.75 c 27.75 34.75 
28.188 35.344 28.188 36.016 c 28.188 36.984 27.156 38.406 25.391 39.953 
c 25.391 40.094 l 28.922 40.094 l h
29.391 38.938 m f
29.359 3.062 m 29.359 1.453 28.625 0 27.375 0 c 26.109 0 25.375 1.453 25.375
 3.062 c 25.375 4.688 26.062 6.125 27.375 6.125 c 28.578 6.125 29.359 4.688
 29.359 3.062 c h
28.5 3.062 m 28.5 4.359 28.375 5.875 27.375 5.875 c 26.422 5.875 26.234
 4.359 26.234 3.062 c 26.234 1.984 26.359 0.234 27.375 0.234 c 28.375 0.234
 28.5 1.984 28.5 3.062 c h
28.5 3.062 m f
197.602 176.512 m 197.102 176.512 196.727 176.652 196.398 176.98 c 195.883
 177.48 195.539 178.512 195.539 179.559 c 195.539 180.543 195.836 181.59
 196.258 182.09 c 196.586 182.48 197.039 182.699 197.57 182.699 c 198.023
 182.699 198.398 182.543 198.727 182.23 c 199.242 181.746 199.586 180.699
 199.586 179.621 c 199.586 177.777 198.773 176.512 197.602 176.512 c h
197.57 176.746 m 198.32 176.746 198.727 177.762 198.727 179.637 c 198.727
 181.512 198.336 182.465 197.57 182.465 c 196.789 182.465 196.398 181.512
 196.398 179.637 c 196.398 177.73 196.805 176.746 197.57 176.746 c h
197.57 176.746 m f
200.887 181.684 m 200.621 181.684 200.387 181.902 200.387 182.184 c 200.387
 182.449 200.621 182.668 200.871 182.668 c 201.152 182.668 201.387 182.465
 201.387 182.184 c 201.387 181.918 201.152 181.684 200.887 181.684 c h
200.887 181.684 m f
206.309 181.34 m 206.184 181.293 l 205.855 181.824 205.762 181.887 205.34
 181.887 c 203.184 181.887 l 204.699 180.309 l 205.496 179.48 205.84 178.793
 205.84 178.105 c 205.84 177.199 205.121 176.512 204.184 176.512 c 203.699
 176.512 203.23 176.715 202.902 177.074 c 202.605 177.371 202.48 177.652
 202.324 178.293 c 202.512 178.34 l 202.871 177.465 203.184 177.168 203.809
 177.168 c 204.574 177.168 205.074 177.684 205.074 178.434 c 205.074 179.152
 204.668 179.98 203.902 180.777 c 202.309 182.465 l 202.309 182.574 l 205.809
 182.574 l h
206.309 181.34 m f
208.762 176.512 m 208.262 176.512 207.887 176.652 207.559 176.98 c 207.043
 177.48 206.699 178.512 206.699 179.559 c 206.699 180.543 206.996 181.59
 207.418 182.09 c 207.746 182.48 208.199 182.699 208.73 182.699 c 209.184
 182.699 209.559 182.543 209.887 182.23 c 210.402 181.746 210.746 180.699
 210.746 179.621 c 210.746 177.777 209.934 176.512 208.762 176.512 c h
208.73 176.746 m 209.48 176.746 209.887 177.762 209.887 179.637 c 209.887
 181.512 209.496 182.465 208.73 182.465 c 207.949 182.465 207.559 181.512
 207.559 179.637 c 207.559 177.73 207.965 176.746 208.73 176.746 c h
208.73 176.746 m f
98.91 195.215 m 98.785 195.121 l 98.598 195.355 98.27 195.793 98.082 195.793
 c 98.004 195.793 97.957 195.746 97.957 195.637 c 97.957 195.543 98.035 
195.324 98.082 195.152 c 98.082 195.152 98.613 193.199 98.613 193.152 c 
98.676 192.965 98.707 192.777 98.707 192.652 c 98.707 192.199 98.426 192.043
 98.207 192.043 c 97.473 192.043 96.645 193.012 96.066 194.043 c 96.066 
194.043 96.395 192.996 96.395 192.637 c 96.395 192.402 96.301 192.043 95.879
 192.043 c 95.051 192.043 94.02 193.637 93.801 194.043 c 94.332 192.043 
l 94.332 192.043 93.113 192.277 92.848 192.293 c 92.848 192.449 l 93.176
 192.449 93.441 192.418 93.441 192.777 c 93.441 192.949 93.363 193.23 93.285
 193.512 c 93.285 193.512 92.566 195.902 92.52 196.137 c 93.207 196.137 
l 93.363 195.543 l 93.879 193.605 95.129 192.543 95.473 192.543 c 95.613
 192.543 95.707 192.59 95.707 192.793 c 95.707 192.934 95.598 193.34 95.535
 193.605 c 95.535 193.605 94.91 195.824 94.832 196.137 c 95.504 196.137 
l 95.66 195.543 l 96.207 193.527 97.426 192.543 97.785 192.543 c 97.91 192.543
 98.004 192.637 98.004 192.777 c 98.004 192.871 97.91 193.277 97.816 193.605
 c 97.457 194.949 l 97.363 195.277 97.285 195.684 97.285 195.824 c 97.285
 196.059 97.41 196.246 97.613 196.246 c 98.066 196.246 98.551 195.73 98.91
 195.215 c h
98.91 195.215 m f
99.734 193.812 m 100.312 193.844 100.391 193.922 100.391 194.438 c 100.391
 197.531 l 100.391 198.062 100.297 198.141 99.734 198.172 c 99.734 198.297
 l 102.062 198.297 l 102.594 198.297 103.094 198.156 103.359 197.906 c 103.609
 197.688 103.734 197.375 103.734 197.047 c 103.734 196.734 103.625 196.453
 103.406 196.25 c 103.188 196.062 103 195.984 102.547 195.875 c 102.906 
195.781 103.062 195.719 103.219 195.562 c 103.406 195.406 103.5 195.156 
103.5 194.875 c 103.5 194.094 102.875 193.688 101.672 193.688 c 99.734 193.688
 l h
101.109 196.031 m 101.781 196.031 102.109 196.062 102.359 196.172 c 102.75
 196.328 102.938 196.625 102.938 197.047 c 102.938 197.422 102.797 197.703
 102.516 197.859 c 102.297 197.984 102 198.031 101.547 198.031 c 101.203
 198.031 101.109 197.969 101.109 197.75 c h
101.109 195.75 m 101.109 194.156 l 101.109 194 101.141 193.953 101.266 
193.953 c 101.562 193.938 l 102.344 193.922 102.797 194.281 102.797 194.891
 c 102.797 195.453 102.438 195.734 101.766 195.75 c h
101.109 195.75 m f
108.676 189.699 m 108.238 189.699 l 105.129 198.059 l 105.582 198.059 l
 h
108.676 189.699 m f
109.352 196.137 m 111.352 196.137 l 111.352 195.996 l 110.883 195.996 110.742
 195.902 110.742 195.543 c 110.742 193.012 l 110.742 192.996 110.805 192.902
 110.867 192.84 c 111.102 192.637 111.477 192.48 111.789 192.48 c 112.195
 192.48 112.383 192.793 112.383 193.418 c 112.383 195.371 l 112.367 195.871
 112.273 195.98 111.773 195.996 c 111.773 196.137 l 113.789 196.137 l 113.789
 195.996 l 113.289 195.996 113.164 195.855 113.133 195.277 c 113.133 193.027
 l 113.414 192.637 113.695 192.48 114.117 192.48 c 114.633 192.48 114.789
 192.715 114.789 193.465 c 114.789 195.355 l 114.773 195.887 114.711 195.949
 114.195 195.996 c 114.195 196.137 l 116.164 196.137 l 116.164 195.996 l
 115.93 195.98 l 115.648 195.934 115.539 195.809 115.539 195.449 c 115.539
 193.605 l 115.539 192.543 115.195 192.012 114.508 192.012 c 113.977 192.012
 113.523 192.246 113.039 192.762 c 112.883 192.246 112.57 192.012 112.086
 192.012 c 111.68 192.012 111.445 192.121 110.695 192.699 c 110.695 192.027
 l 110.633 192.012 l 110.164 192.184 109.852 192.277 109.383 192.418 c 109.383
 192.574 l 109.492 192.543 109.57 192.527 109.664 192.527 c 109.898 192.527
 109.977 192.668 109.977 193.105 c 109.977 195.371 l 109.961 195.871 109.852
 195.996 109.352 195.996 c h
109.352 196.137 m f
118.422 192.012 m 117.234 192.012 116.438 192.871 116.438 194.105 c 116.438
 195.324 117.266 196.23 118.391 196.23 c 119.531 196.23 120.391 195.277 
120.391 194.043 c 120.391 192.855 119.562 192.012 118.422 192.012 c h
118.297 192.262 m 119.047 192.262 119.578 193.121 119.578 194.355 c 119.578
 195.371 119.172 195.98 118.5 195.98 c 118.156 195.98 117.828 195.762 117.641
 195.402 c 117.375 194.934 117.234 194.309 117.234 193.668 c 117.234 192.824
 117.656 192.262 118.297 192.262 c h
118.297 192.262 m f
120.797 196.137 m 122.922 196.137 l 122.922 195.996 l 122.344 195.98 122.25
 195.887 122.234 195.387 c 122.234 190.027 l 122.203 190.012 l 121.75 190.152
 121.422 190.246 120.781 190.402 c 120.781 190.543 l 120.828 190.543 l 120.938
 190.543 121.047 190.527 121.109 190.527 c 121.406 190.527 121.484 190.652
 121.484 191.074 c 121.484 195.355 l 121.484 195.84 121.359 195.965 120.797
 195.996 c h
120.797 196.137 m f
124.754 196.137 m 126.848 196.137 l 126.848 195.996 l 126.676 195.996 l
 126.301 195.965 126.191 195.871 126.176 195.543 c 126.176 193.887 l 127.441
 195.559 l 127.473 195.605 127.504 195.652 127.52 195.684 c 127.598 195.762
 127.629 195.824 127.629 195.871 c 127.629 195.949 127.551 195.996 127.441
 195.996 c 127.27 195.996 l 127.27 196.137 l 129.223 196.137 l 129.223 195.996
 l 128.832 195.98 128.551 195.809 128.176 195.34 c 126.801 193.605 l 127.066
 193.371 l 128.176 192.355 128.426 192.215 129.004 192.23 c 129.004 192.105
 l 127.16 192.105 l 127.16 192.23 l 127.52 192.23 127.613 192.277 127.613
 192.387 c 127.613 192.465 127.535 192.59 127.41 192.699 c 126.176 193.793
 l 126.176 190.027 l 126.145 190.012 l 125.801 190.121 125.535 190.199 125.02
 190.34 c 124.754 190.402 l 124.754 190.543 l 124.863 190.543 124.957 190.527
 125.035 190.527 c 125.348 190.527 125.426 190.652 125.426 191.074 c 125.426
 195.402 l 125.41 195.871 125.395 195.902 124.754 195.996 c h
124.754 196.137 m f
133.348 192.652 m 133.348 192.309 l 132.66 192.309 l 132.473 192.309 132.332
 192.277 132.16 192.215 c 131.957 192.152 l 131.723 192.059 131.473 192.012
 131.238 192.012 c 130.41 192.012 129.754 192.652 129.754 193.48 c 129.754
 194.043 129.988 194.371 130.582 194.668 c 130.348 194.887 l 130.16 195.074
 130.051 195.168 130.02 195.199 c 129.832 195.402 129.785 195.496 129.785
 195.652 c 129.785 195.855 129.879 195.949 130.254 196.121 c 129.613 196.59
 129.379 196.887 129.379 197.215 c 129.379 197.699 130.066 198.09 130.926
 198.09 c 131.598 198.09 132.301 197.855 132.77 197.48 c 133.113 197.199
 133.27 196.918 133.27 196.574 c 133.27 196.027 132.848 195.652 132.176 
195.621 c 131.02 195.559 l 130.535 195.543 130.316 195.465 130.316 195.324
 c 130.316 195.137 130.613 194.824 130.863 194.762 c 131.176 194.777 131.348
 194.793 131.379 194.793 c 131.707 194.793 132.066 194.668 132.332 194.418
 c 132.629 194.168 132.77 193.855 132.77 193.418 c 132.77 193.152 132.723
 192.949 132.598 192.652 c h
130.441 196.152 m 130.754 196.215 131.457 196.277 131.91 196.277 c 132.723
 196.277 133.02 196.387 133.02 196.715 c 133.02 197.23 132.332 197.574 131.316
 197.574 c 130.52 197.574 130.004 197.324 130.004 196.934 c 130.004 196.715
 130.082 196.59 130.441 196.152 c h
130.488 193.105 m 130.488 192.574 130.738 192.262 131.16 192.262 c 131.441
 192.262 131.66 192.418 131.816 192.684 c 131.988 192.996 132.082 193.402
 132.082 193.762 c 132.082 194.262 131.832 194.574 131.41 194.574 c 130.863
 194.574 130.488 193.996 130.488 193.137 c h
130.488 193.105 m f
133.992 190.543 4.703 0.438 re f
142.246 192.777 m 142.246 192.59 l 141.715 192.59 141.543 192.59 141.543
 191.746 c 141.543 191.73 141.543 188.074 141.543 188.074 c 141.371 188.074
 l 140.027 188.652 l 140.105 188.84 l 140.418 188.715 140.48 188.699 140.574
 188.699 c 140.777 188.699 140.793 188.871 140.793 189.074 c 140.793 191.746
 l 140.793 192.59 140.637 192.574 140.105 192.59 c 140.105 192.777 l h
142.246 192.777 m f
16.141 119.832 m 15.984 119.832 l 13.781 121.816 11.234 122.332 8.062 122.332
 c 4.906 122.332 2.359 121.816 0.141 119.832 c 0 119.832 l 1.641 121.957
 4.453 123.348 8.062 123.348 c 11.672 123.348 14.5 121.957 16.141 119.832
 c h
16.141 119.832 m f
1.051 115.102 m 1.004 115.086 0.957 115.07 0.91 115.07 c 0.738 115.07 0.66
 115.258 0.66 115.367 c 0.66 115.477 0.676 115.664 1.051 115.742 c 2.16 
115.945 l 2.41 117.727 3.723 118.211 4.27 118.211 c 5.52 118.211 5.629 116.93
 5.629 116.852 c 6.473 117.117 l 6.535 117.117 6.582 117.133 6.629 117.133
 c 6.785 117.133 6.879 116.992 6.879 116.867 c 6.879 116.758 6.785 116.586
 6.598 116.539 c 5.676 116.336 l 5.566 115.461 5.129 114.867 4.645 114.508
 c 4.285 114.227 3.863 114.07 3.457 114.07 c 2.848 114.07 2.301 114.445 
2.176 115.445 c h
2.52 115.523 m 2.598 114.992 3.051 114.789 3.488 114.789 c 4.066 114.789
 5.113 115.242 5.332 116.242 c h
5.332 116.742 m 5.191 117.242 4.785 117.461 4.316 117.461 c 3.988 117.461
 3.645 117.352 3.332 117.18 c 2.957 116.945 2.629 116.555 2.535 116.023 
c h
5.332 116.742 m f
6.844 108.727 m 6.766 108.82 l 6.938 108.977 7.234 109.227 7.234 109.383
 c 7.234 109.445 7.219 109.477 7.141 109.477 c 7.062 109.477 6.922 109.414
 6.797 109.383 c 6.797 109.383 5.422 108.961 5.391 108.945 c 5.266 108.914
 5.125 108.883 5.031 108.883 c 4.719 108.883 4.609 109.117 4.609 109.289
 c 4.609 109.867 5.297 110.523 6.016 110.992 c 6.016 110.992 5.281 110.727
 5.031 110.727 c 4.859 110.727 4.609 110.805 4.609 111.133 c 4.609 111.789
 5.734 112.602 6.016 112.773 c 4.609 112.352 l 4.609 112.352 4.781 113.336
 4.797 113.539 c 4.891 113.539 l 4.891 113.273 4.875 113.07 5.125 113.07
 c 5.25 113.07 5.438 113.133 5.641 113.195 c 5.641 113.195 7.312 113.758
 7.484 113.805 c 7.484 113.258 l 7.062 113.133 l 5.719 112.727 4.969 111.727
 4.969 111.445 c 4.969 111.352 5 111.273 5.141 111.273 c 5.234 111.273 5.531
 111.352 5.719 111.414 c 5.719 111.414 7.266 111.898 7.484 111.961 c 7.484
 111.43 l 7.062 111.305 l 5.656 110.867 4.969 109.898 4.969 109.617 c 4.969
 109.508 5.016 109.445 5.125 109.445 c 5.188 109.445 5.484 109.523 5.719
 109.586 c 6.656 109.883 l 6.891 109.945 7.172 110.023 7.266 110.023 c 7.422
 110.023 7.562 109.914 7.562 109.742 c 7.562 109.398 7.188 109.008 6.844
 108.727 c h
6.844 108.727 m f
3.332 102.609 0.438 4.703 re f
5.566 99.059 m 5.379 99.059 l 5.379 99.59 5.379 99.762 4.535 99.762 c 4.52
 99.762 0.863 99.762 0.863 99.762 c 0.863 99.934 l 1.441 101.277 l 1.629
 101.199 l 1.504 100.887 1.488 100.824 1.488 100.73 c 1.488 100.527 1.66
 100.512 1.863 100.512 c 4.535 100.512 l 5.379 100.512 5.363 100.668 5.379
 101.199 c 5.566 101.199 l h
5.566 99.059 m f
7.855 98.027 0.48 20.398 re f
12.809 107.809 m 12.652 107.965 l 12.887 108.152 13.215 108.418 13.215 
108.574 c 13.215 108.605 13.199 108.621 13.152 108.621 c 13.074 108.621 
12.902 108.559 12.762 108.527 c 12.762 108.527 11.199 108.074 11.152 108.074
 c 10.996 108.012 10.84 107.98 10.73 107.98 c 10.324 107.98 10.199 108.262
 10.199 108.465 c 10.199 109.027 10.809 109.652 11.543 110.137 c 11.262 
110.059 10.902 109.965 10.73 109.965 c 10.512 109.965 10.199 110.059 10.199
 110.449 c 10.199 111.043 11.074 111.762 11.574 112.09 c 10.184 111.699 
l 10.184 111.699 10.387 112.824 10.402 113.074 c 10.621 113.074 l 10.621
 112.777 10.574 112.574 10.824 112.574 c 10.98 112.574 11.199 112.637 11.418
 112.715 c 11.418 112.715 13.355 113.309 13.605 113.371 c 13.605 112.699
 l 13.09 112.559 l 11.543 112.121 10.699 111.09 10.699 110.793 c 10.699 
110.699 10.715 110.637 10.84 110.637 c 10.965 110.637 11.293 110.715 11.496
 110.793 c 11.496 110.793 13.293 111.309 13.605 111.402 c 13.605 110.73 
l 13.09 110.59 l 11.48 110.137 10.699 109.105 10.699 108.824 c 10.699 108.73
 10.746 108.684 10.824 108.684 c 10.918 108.684 11.23 108.762 11.496 108.84
 c 12.574 109.152 l 12.855 109.23 13.184 109.293 13.293 109.293 c 13.512
 109.293 13.684 109.168 13.684 108.965 c 13.684 108.559 13.262 108.137 12.809
 107.809 c h
12.809 107.809 m f
11.875 107.16 m 11.906 106.707 11.969 106.645 12.375 106.629 c 14.812 106.629
 l 15.219 106.645 15.281 106.707 15.297 107.16 c 15.406 107.16 l 15.406 
105.332 l 15.406 104.91 15.297 104.52 15.109 104.316 c 14.922 104.113 14.688
 104.004 14.422 104.004 c 14.172 104.004 13.953 104.098 13.797 104.27 c 
13.656 104.441 13.578 104.582 13.5 104.941 c 13.422 104.66 13.375 104.535
 13.25 104.41 c 13.141 104.27 12.938 104.191 12.703 104.191 c 12.094 104.191
 11.781 104.676 11.781 105.629 c 11.781 107.16 l h
13.625 106.082 m 13.625 105.535 13.656 105.285 13.734 105.098 c 13.859 
104.785 14.078 104.629 14.422 104.629 c 14.719 104.629 14.938 104.754 15.062
 104.973 c 15.156 105.145 15.203 105.363 15.203 105.723 c 15.203 106.004
 15.156 106.082 14.984 106.082 c h
13.406 106.082 m 12.141 106.082 l 12.016 106.066 11.984 106.051 11.984 
105.957 c 11.984 105.707 l 11.969 105.098 12.234 104.754 12.734 104.754 
c 13.156 104.754 13.391 105.02 13.406 105.551 c h
13.406 106.082 m f
8.062 93.234 m 4.453 93.234 1.641 94.625 0 96.75 c 0.141 96.75 l 2.359 
94.766 4.906 94.25 8.062 94.25 c 11.234 94.25 13.781 94.766 15.984 96.75
 c 16.141 96.75 l 14.5 94.625 11.672 93.234 8.062 93.234 c h
8.062 93.234 m f
3.93 86.668 m 3.93 87.105 l 12.289 90.215 l 12.289 89.762 l h
3.93 86.668 m f
10.367 86.074 m 10.367 83.98 l 10.227 83.98 l 10.227 84.152 l 10.195 84.527
 10.102 84.637 9.773 84.652 c 8.117 84.652 l 9.789 83.387 l 9.836 83.355
 9.883 83.324 9.914 83.309 c 9.992 83.23 10.055 83.199 10.102 83.199 c 10.18
 83.199 10.227 83.277 10.227 83.387 c 10.227 83.559 l 10.367 83.559 l 10.367
 81.605 l 10.227 81.605 l 10.211 81.996 10.039 82.277 9.57 82.652 c 7.836
 84.027 l 7.602 83.762 l 6.586 82.652 6.445 82.402 6.461 81.824 c 6.336 
81.824 l 6.336 83.668 l 6.461 83.668 l 6.461 83.309 6.508 83.215 6.617 83.215
 c 6.695 83.215 6.82 83.293 6.93 83.418 c 8.023 84.652 l 4.258 84.652 l 
4.242 84.684 l 4.352 85.027 4.43 85.293 4.57 85.809 c 4.633 86.074 l 4.773
 86.074 l 4.773 85.965 4.758 85.871 4.758 85.793 c 4.758 85.48 4.883 85.402
 5.305 85.402 c 9.633 85.402 l 10.102 85.418 10.133 85.434 10.227 86.074
 c h
10.367 86.074 m f
6.883 77.477 m 6.539 77.477 l 6.539 78.164 l 6.539 78.352 6.508 78.492 
6.445 78.664 c 6.383 78.867 l 6.289 79.102 6.242 79.352 6.242 79.586 c 6.242
 80.414 6.883 81.07 7.711 81.07 c 8.273 81.07 8.602 80.836 8.898 80.242 
c 9.117 80.477 l 9.305 80.664 9.398 80.773 9.43 80.805 c 9.633 80.992 9.727
 81.039 9.883 81.039 c 10.086 81.039 10.18 80.945 10.352 80.57 c 10.82 81.211
 11.117 81.445 11.445 81.445 c 11.93 81.445 12.32 80.758 12.32 79.898 c 
12.32 79.227 12.086 78.523 11.711 78.055 c 11.43 77.711 11.148 77.555 10.805
 77.555 c 10.258 77.555 9.883 77.977 9.852 78.648 c 9.789 79.805 l 9.773
 80.289 9.695 80.508 9.555 80.508 c 9.367 80.508 9.055 80.211 8.992 79.961
 c 9.008 79.648 9.023 79.477 9.023 79.445 c 9.023 79.117 8.898 78.758 8.648
 78.492 c 8.398 78.195 8.086 78.055 7.648 78.055 c 7.383 78.055 7.18 78.102
 6.883 78.227 c h
10.383 80.383 m 10.445 80.07 10.508 79.367 10.508 78.914 c 10.508 78.102
 10.617 77.805 10.945 77.805 c 11.461 77.805 11.805 78.492 11.805 79.508
 c 11.805 80.305 11.555 80.82 11.164 80.82 c 10.945 80.82 10.82 80.742 10.383
 80.383 c h
7.336 80.336 m 6.805 80.336 6.492 80.086 6.492 79.664 c 6.492 79.383 6.648
 79.164 6.914 79.008 c 7.227 78.836 7.633 78.742 7.992 78.742 c 8.492 78.742
 8.805 78.992 8.805 79.414 c 8.805 79.961 8.227 80.336 7.367 80.336 c h
7.336 80.336 m f
10.367 75.434 m 10.367 73.434 l 10.227 73.434 l 10.227 73.902 10.133 74.043
 9.773 74.043 c 7.242 74.043 l 7.227 74.043 7.133 73.98 7.07 73.918 c 6.867
 73.684 6.711 73.309 6.711 72.996 c 6.711 72.59 7.023 72.402 7.648 72.402
 c 9.602 72.402 l 10.102 72.418 10.211 72.512 10.227 73.012 c 10.367 73.012
 l 10.367 70.996 l 10.227 70.996 l 10.227 71.496 10.086 71.621 9.508 71.652
 c 7.258 71.652 l 6.867 71.371 6.711 71.09 6.711 70.668 c 6.711 70.152 6.945
 69.996 7.695 69.996 c 9.586 69.996 l 10.117 70.012 10.18 70.074 10.227 
70.59 c 10.367 70.59 l 10.367 68.621 l 10.227 68.621 l 10.211 68.855 l 10.164
 69.137 10.039 69.246 9.68 69.246 c 7.836 69.246 l 6.773 69.246 6.242 69.59
 6.242 70.277 c 6.242 70.809 6.477 71.262 6.992 71.746 c 6.477 71.902 6.242
 72.215 6.242 72.699 c 6.242 73.105 6.352 73.34 6.93 74.09 c 6.258 74.09
 l 6.242 74.152 l 6.414 74.621 6.508 74.934 6.648 75.402 c 6.805 75.402 
l 6.773 75.293 6.758 75.215 6.758 75.121 c 6.758 74.887 6.898 74.809 7.336
 74.809 c 9.602 74.809 l 10.102 74.824 10.227 74.934 10.227 75.434 c h
10.367 75.434 m f
6.242 66.367 m 6.242 67.555 7.102 68.352 8.336 68.352 c 9.555 68.352 10.461
 67.523 10.461 66.398 c 10.461 65.258 9.508 64.398 8.273 64.398 c 7.086 
64.398 6.242 65.227 6.242 66.367 c h
6.492 66.492 m 6.492 65.742 7.352 65.211 8.586 65.211 c 9.602 65.211 10.211
 65.617 10.211 66.289 c 10.211 66.633 9.992 66.961 9.633 67.148 c 9.164 
67.414 8.539 67.555 7.898 67.555 c 7.055 67.555 6.492 67.133 6.492 66.492
 c h
6.492 66.492 m f
10.367 63.988 m 10.367 61.863 l 10.227 61.863 l 10.211 62.441 10.117 62.535
 9.617 62.551 c 4.258 62.551 l 4.242 62.582 l 4.383 63.035 4.477 63.363 
4.633 64.004 c 4.773 64.004 l 4.773 63.957 l 4.773 63.848 4.758 63.738 4.758
 63.676 c 4.758 63.379 4.883 63.301 5.305 63.301 c 9.586 63.301 l 10.07 
63.301 10.195 63.426 10.227 63.988 c h
10.367 63.988 m f
4.891 56.531 0.438 4.703 re f
7.125 52.98 m 6.938 52.98 l 6.938 53.512 6.938 53.684 6.094 53.684 c 6.078
 53.684 2.422 53.684 2.422 53.684 c 2.422 53.855 l 3 55.199 l 3.188 55.121
 l 3.062 54.809 3.047 54.746 3.047 54.652 c 3.047 54.449 3.219 54.434 3.422
 54.434 c 6.094 54.434 l 6.938 54.434 6.922 54.59 6.938 55.121 c 7.125 55.121
 l h
7.125 52.98 m f
Q Q
showpage
%%Trailer
end
%%EOF
