%!PS-Adobe-3.0 EPSF-3.0
%%Creator: cairo 1.17.4 (https://cairographics.org)
%%CreationDate: Thu Feb 24 10:48:45 2022
%%Pages: 1
%%DocumentData: Clean7Bit
%%LanguageLevel: 2
%%BoundingBox: 0 0 325 157
%%EndComments
%%BeginProlog
50 dict begin
/q { gsave } bind def
/Q { grestore } bind def
/cm { 6 array astore concat } bind def
/w { setlinewidth } bind def
/J { setlinecap } bind def
/j { setlinejoin } bind def
/M { setmiterlimit } bind def
/d { setdash } bind def
/m { moveto } bind def
/l { lineto } bind def
/c { curveto } bind def
/h { closepath } bind def
/re { exch dup neg 3 1 roll 5 3 roll moveto 0 rlineto
      0 exch rlineto 0 rlineto closepath } bind def
/S { stroke } bind def
/f { fill } bind def
/f* { eofill } bind def
/n { newpath } bind def
/W { clip } bind def
/W* { eoclip } bind def
/BT { } bind def
/ET { } bind def
/BDC { mark 3 1 roll /BDC pdfmark } bind def
/EMC { mark /EMC pdfmark } bind def
/cairo_store_point { /cairo_point_y exch def /cairo_point_x exch def } def
/Tj { show currentpoint cairo_store_point } bind def
/TJ {
  {
    dup
    type /stringtype eq
    { show } { -0.001 mul 0 cairo_font_matrix dtransform rmoveto } ifelse
  } forall
  currentpoint cairo_store_point
} bind def
/cairo_selectfont { cairo_font_matrix aload pop pop pop 0 0 6 array astore
    cairo_font exch selectfont cairo_point_x cairo_point_y moveto } bind def
/Tf { pop /cairo_font exch def /cairo_font_matrix where
      { pop cairo_selectfont } if } bind def
/Td { matrix translate cairo_font_matrix matrix concatmatrix dup
      /cairo_font_matrix exch def dup 4 get exch 5 get cairo_store_point
      /cairo_font where { pop cairo_selectfont } if } bind def
/Tm { 2 copy 8 2 roll 6 array astore /cairo_font_matrix exch def
      cairo_store_point /cairo_font where { pop cairo_selectfont } if } bind def
/g { setgray } bind def
/rg { setrgbcolor } bind def
/d1 { setcachedevice } bind def
/cairo_data_source {
  CairoDataIndex CairoData length lt
    { CairoData CairoDataIndex get /CairoDataIndex CairoDataIndex 1 add def }
    { () } ifelse
} def
/cairo_flush_ascii85_file { cairo_ascii85_file status { cairo_ascii85_file flushfile } if } def
/cairo_image { image cairo_flush_ascii85_file } def
/cairo_imagemask { imagemask cairo_flush_ascii85_file } def
%%EndProlog
%%BeginSetup
%%EndSetup
%%Page: 1 1
%%BeginPageSetup
%%PageBoundingBox: 0 0 325 157
%%EndPageSetup
q 0 0 325 157 rectclip
1 0 0 -1 0 157 cm q
0 g
0.567043 w
0 J
0 j
[] 0.0 d
10 M q 1 0 0 -1 0 0 cm
39.145 -3.039 113.461 -113.387 re S Q
0.398505 w
q 1 0 0 -1 0 0 cm
39.152 -116.441 m 39.152 -112.184 l S Q
q 1 0 0 -1 0 0 cm
58.055 -116.441 m 58.055 -112.184 l S Q
q 1 0 0 -1 0 0 cm
76.957 -116.441 m 76.957 -112.184 l S Q
q 1 0 0 -1 0 0 cm
95.863 -116.441 m 95.863 -112.184 l S Q
q 1 0 0 -1 0 0 cm
114.766 -116.441 m 114.766 -112.184 l S Q
q 1 0 0 -1 0 0 cm
133.703 -116.441 m 133.703 -112.184 l S Q
q 1 0 0 -1 0 0 cm
152.605 -116.441 m 152.605 -112.184 l S Q
q 1 0 0 -1 0 0 cm
39.152 -116.441 m 39.152 -112.184 l S Q
0.398507 w
q 1 0 0 -1 0 0 cm
39.16 -116.422 m 43.418 -116.422 l S Q
0.398505 w
q 1 0 0 -1 0 0 cm
39.16 -102.258 m 43.391 -102.258 l S Q
0.398507 w
q 1 0 0 -1 0 0 cm
39.176 -88.074 m 43.418 -88.074 l S Q
0.398506 w
q 1 0 0 -1 0 0 cm
39.148 -73.91 m 43.398 -73.91 l S Q
0.398505 w
q 1 0 0 -1 0 0 cm
39.176 -59.73 m 43.402 -59.73 l S Q
q 1 0 0 -1 0 0 cm
39.16 -45.566 m 43.398 -45.566 l S Q
q 1 0 0 -1 0 0 cm
39.164 -31.383 m 43.414 -31.383 l S Q
0.398506 w
q 1 0 0 -1 0 0 cm
39.176 -17.203 m 43.402 -17.203 l S Q
0.398505 w
q 1 0 0 -1 0 0 cm
39.145 -3.039 m 43.418 -3.039 l S Q
0.398507 w
q 1 0 0 -1 0 0 cm
39.16 -116.422 m 43.418 -116.422 l S Q
0.398505 w
q 1 0 0 -1 0 0 cm
39.145 -3.039 m 39.145 -7.273 l S Q
q 1 0 0 -1 0 0 cm
58.062 -3.039 m 58.062 -7.273 l S Q
q 1 0 0 -1 0 0 cm
76.977 -3.039 m 76.977 -7.273 l S Q
q 1 0 0 -1 0 0 cm
95.895 -3.039 m 95.895 -7.273 l S Q
q 1 0 0 -1 0 0 cm
114.773 -3.039 m 114.773 -7.273 l S Q
q 1 0 0 -1 0 0 cm
133.688 -3.039 m 133.688 -7.273 l S Q
q 1 0 0 -1 0 0 cm
152.605 -3.039 m 152.605 -7.273 l S Q
q 1 0 0 -1 0 0 cm
39.145 -3.039 m 39.145 -7.273 l S Q
0.398507 w
q 1 0 0 -1 0 0 cm
152.598 -116.422 m 148.34 -116.422 l S Q
0.398505 w
q 1 0 0 -1 0 0 cm
152.602 -102.258 m 148.336 -102.258 l S Q
0.398507 w
q 1 0 0 -1 0 0 cm
152.59 -88.074 m 148.348 -88.074 l S Q
0.398506 w
q 1 0 0 -1 0 0 cm
152.602 -73.91 m 148.348 -73.91 l S Q
0.398505 w
q 1 0 0 -1 0 0 cm
152.598 -59.73 m 148.336 -59.73 l S Q
q 1 0 0 -1 0 0 cm
152.582 -45.566 m 148.344 -45.566 l S Q
q 1 0 0 -1 0 0 cm
152.59 -31.383 m 148.34 -31.383 l S Q
0.398506 w
q 1 0 0 -1 0 0 cm
152.602 -17.203 m 148.34 -17.203 l S Q
0.398505 w
q 1 0 0 -1 0 0 cm
152.605 -3.039 m 148.332 -3.039 l S Q
0.398507 w
q 1 0 0 -1 0 0 cm
152.598 -116.422 m 148.34 -116.422 l S Q
41.109 122.957 m 41.109 121.348 40.375 119.895 39.125 119.895 c 37.859 
119.895 37.125 121.348 37.125 122.957 c 37.125 124.582 37.812 126.02 39.125
 126.02 c 40.328 126.02 41.109 124.582 41.109 122.957 c h
40.25 122.957 m 40.25 124.254 40.125 125.77 39.125 125.77 c 38.172 125.77
 37.984 124.254 37.984 122.957 c 37.984 121.879 38.109 120.129 39.125 120.129
 c 40.125 120.129 40.25 121.879 40.25 122.957 c h
40.25 122.957 m f
59.32 125.91 m 59.32 125.77 l 58.727 125.77 58.508 125.785 58.508 124.613
 c 58.508 124.598 58.508 119.863 58.508 119.863 c 58.383 119.863 l 56.852
 120.598 l 56.898 120.738 l 57.227 120.598 57.305 120.566 57.43 120.566 
c 57.695 120.566 57.742 120.801 57.742 121.113 c 57.742 124.613 l 57.742
 125.785 57.523 125.754 56.93 125.77 c 56.93 125.91 l h
59.32 125.91 m f
79.062 124.754 m 78.906 124.723 l 78.641 125.176 78.422 125.254 77.984 
125.254 c 75.922 125.254 l 77.344 123.957 78.641 122.785 78.641 121.473 
c 78.641 120.551 77.844 119.895 76.969 119.895 c 76.109 119.895 75.422 120.363
 75.156 121.582 c 75.359 121.582 l 75.609 121.082 75.953 120.566 76.641 
120.566 c 77.422 120.566 77.859 121.16 77.859 121.832 c 77.859 122.801 76.828
 124.223 75.062 125.77 c 75.062 125.91 l 78.594 125.91 l h
79.062 124.754 m f
97.527 123.973 m 97.527 123.035 96.98 122.629 96.449 122.41 c 97.027 121.973
 97.215 121.566 97.215 121.082 c 97.215 120.566 96.793 119.895 95.824 119.895
 c 95.121 119.895 94.449 120.285 94.152 121.254 c 94.293 121.285 l 94.48
 120.926 94.84 120.473 95.496 120.473 c 96.137 120.473 96.512 120.91 96.512
 121.41 c 96.512 122.113 95.965 122.613 95.152 122.801 c 95.137 122.988 
l 96.527 122.926 96.871 123.832 96.871 124.395 c 96.871 125.066 96.387 125.676
 95.746 125.676 c 95.168 125.676 94.918 125.176 94.434 125.176 c 94.277 
125.176 94.09 125.332 94.09 125.535 c 94.09 125.91 94.652 126.02 95.059 
126.02 c 96.48 126.02 97.527 125.207 97.527 123.973 c h
97.527 123.973 m f
116.848 124.426 m 116.848 123.816 l 115.973 123.816 l 115.973 119.895 l
 115.535 119.895 l 112.941 123.801 l 112.941 124.426 l 115.238 124.426 l
 115.238 125.91 l 115.973 125.91 l 115.973 124.426 l h
115.238 123.816 m 113.301 123.816 l 115.223 120.832 l 115.238 120.832 l
 h
115.238 123.816 m f
135.609 119.988 m 133.141 119.988 l 132.031 122.535 l 132.172 122.504 132.312
 122.473 132.484 122.473 c 133.438 122.473 134.734 122.973 134.734 124.145
 c 134.734 125.051 134.078 125.629 133.453 125.629 c 132.906 125.629 132.703
 125.129 132.188 125.129 c 131.938 125.129 131.859 125.348 131.859 125.457
 c 131.859 125.77 132.297 126.02 132.922 126.02 c 134.266 126.02 135.328
 125.035 135.328 123.832 c 135.328 122.41 134.203 121.926 132.984 121.895
 c 132.875 121.895 132.75 121.91 132.641 121.926 c 133.203 120.66 l 135.297
 120.645 l h
135.609 119.988 m f
154.582 123.895 m 154.582 122.91 153.879 122.176 152.988 122.176 c 152.535
 122.176 152.16 122.316 151.77 122.629 c 152.16 121.035 153.332 120.035 
154.457 120.02 c 154.457 119.863 l 151.691 119.863 150.816 122.207 150.816
 123.535 c 150.816 124.957 151.645 126.02 152.754 126.02 c 153.77 126.02
 154.582 125.066 154.582 123.895 c h
153.816 124.348 m 153.816 125.176 153.441 125.754 152.848 125.754 c 151.926
 125.754 151.645 124.41 151.645 123.691 c 151.645 123.457 151.676 123.207
 151.723 122.91 c 152.113 122.66 152.426 122.551 152.738 122.551 c 153.645
 122.551 153.816 123.598 153.816 124.348 c h
153.816 124.348 m f
18.418 116.945 5.484 0.453 re f
28.629 116.477 m 28.629 114.867 27.895 113.414 26.645 113.414 c 25.379 
113.414 24.645 114.867 24.645 116.477 c 24.645 118.102 25.332 119.539 26.645
 119.539 c 27.848 119.539 28.629 118.102 28.629 116.477 c h
27.77 116.477 m 27.77 117.773 27.645 119.289 26.645 119.289 c 25.691 119.289
 25.504 117.773 25.504 116.477 c 25.504 115.398 25.629 113.648 26.645 113.648
 c 27.645 113.648 27.77 115.398 27.77 116.477 c h
27.77 116.477 m f
30.555 119.055 m 30.555 118.773 30.336 118.555 30.055 118.555 c 29.773 
118.555 29.555 118.773 29.555 119.055 c 29.555 119.336 29.773 119.555 30.055
 119.555 c 30.336 119.555 30.555 119.336 30.555 119.055 c h
30.555 119.055 m f
35.344 113.508 m 32.062 113.508 l 31.516 114.836 l 31.672 114.836 l 31.984
 114.352 32.219 114.18 32.734 114.18 c 34.625 114.18 l 32.828 119.539 l 
33.375 119.539 l h
35.344 113.508 m f
18.418 102.785 5.484 0.453 re f
28.629 102.316 m 28.629 100.707 27.895 99.254 26.645 99.254 c 25.379 99.254
 24.645 100.707 24.645 102.316 c 24.645 103.941 25.332 105.379 26.645 105.379
 c 27.848 105.379 28.629 103.941 28.629 102.316 c h
27.77 102.316 m 27.77 103.613 27.645 105.129 26.645 105.129 c 25.691 105.129
 25.504 103.613 25.504 102.316 c 25.504 101.238 25.629 99.488 26.645 99.488
 c 27.645 99.488 27.77 101.238 27.77 102.316 c h
27.77 102.316 m f
30.555 104.895 m 30.555 104.613 30.336 104.395 30.055 104.395 c 29.773 
104.395 29.555 104.613 29.555 104.895 c 29.555 105.176 29.773 105.395 30.055
 105.395 c 30.336 105.395 30.555 105.176 30.555 104.895 c h
30.555 104.895 m f
35.422 103.254 m 35.422 102.27 34.719 101.535 33.828 101.535 c 33.375 101.535
 33 101.676 32.609 101.988 c 33 100.395 34.172 99.395 35.297 99.379 c 35.297
 99.223 l 32.531 99.223 31.656 101.566 31.656 102.895 c 31.656 104.316 32.484
 105.379 33.594 105.379 c 34.609 105.379 35.422 104.426 35.422 103.254 c
 h
34.656 103.707 m 34.656 104.535 34.281 105.113 33.688 105.113 c 32.766 
105.113 32.484 103.77 32.484 103.051 c 32.484 102.816 32.516 102.566 32.562
 102.27 c 32.953 102.02 33.266 101.91 33.578 101.91 c 34.484 101.91 34.656
 102.957 34.656 103.707 c h
34.656 103.707 m f
18.418 88.625 5.484 0.453 re f
28.629 88.156 m 28.629 86.547 27.895 85.094 26.645 85.094 c 25.379 85.094
 24.645 86.547 24.645 88.156 c 24.645 89.781 25.332 91.219 26.645 91.219
 c 27.848 91.219 28.629 89.781 28.629 88.156 c h
27.77 88.156 m 27.77 89.453 27.645 90.969 26.645 90.969 c 25.691 90.969
 25.504 89.453 25.504 88.156 c 25.504 87.078 25.629 85.328 26.645 85.328
 c 27.645 85.328 27.77 87.078 27.77 88.156 c h
27.77 88.156 m f
30.555 90.734 m 30.555 90.453 30.336 90.234 30.055 90.234 c 29.773 90.234
 29.555 90.453 29.555 90.734 c 29.555 91.016 29.773 91.234 30.055 91.234
 c 30.336 91.234 30.555 91.016 30.555 90.734 c h
30.555 90.734 m f
35.406 85.188 m 32.938 85.188 l 31.828 87.734 l 31.969 87.703 32.109 87.672
 32.281 87.672 c 33.234 87.672 34.531 88.172 34.531 89.344 c 34.531 90.25
 33.875 90.828 33.25 90.828 c 32.703 90.828 32.5 90.328 31.984 90.328 c 
31.734 90.328 31.656 90.547 31.656 90.656 c 31.656 90.969 32.094 91.219 
32.719 91.219 c 34.062 91.219 35.125 90.234 35.125 89.031 c 35.125 87.609
 34 87.125 32.781 87.094 c 32.672 87.094 32.547 87.109 32.438 87.125 c 33
 85.859 l 35.094 85.844 l h
35.406 85.188 m f
18.418 74.465 5.484 0.453 re f
28.629 73.996 m 28.629 72.387 27.895 70.934 26.645 70.934 c 25.379 70.934
 24.645 72.387 24.645 73.996 c 24.645 75.621 25.332 77.059 26.645 77.059
 c 27.848 77.059 28.629 75.621 28.629 73.996 c h
27.77 73.996 m 27.77 75.293 27.645 76.809 26.645 76.809 c 25.691 76.809
 25.504 75.293 25.504 73.996 c 25.504 72.918 25.629 71.168 26.645 71.168
 c 27.645 71.168 27.77 72.918 27.77 73.996 c h
27.77 73.996 m f
30.555 76.574 m 30.555 76.293 30.336 76.074 30.055 76.074 c 29.773 76.074
 29.555 76.293 29.555 76.574 c 29.555 76.855 29.773 77.074 30.055 77.074
 c 30.336 77.074 30.555 76.855 30.555 76.574 c h
30.555 76.574 m f
35.484 75.465 m 35.484 74.855 l 34.609 74.855 l 34.609 70.934 l 34.172 
70.934 l 31.578 74.84 l 31.578 75.465 l 33.875 75.465 l 33.875 76.949 l 
34.609 76.949 l 34.609 75.465 l h
33.875 74.855 m 31.938 74.855 l 33.859 71.871 l 33.875 71.871 l h
33.875 74.855 m f
18.418 60.305 5.484 0.453 re f
28.629 59.836 m 28.629 58.227 27.895 56.773 26.645 56.773 c 25.379 56.773
 24.645 58.227 24.645 59.836 c 24.645 61.461 25.332 62.898 26.645 62.898
 c 27.848 62.898 28.629 61.461 28.629 59.836 c h
27.77 59.836 m 27.77 61.133 27.645 62.648 26.645 62.648 c 25.691 62.648
 25.504 61.133 25.504 59.836 c 25.504 58.758 25.629 57.008 26.645 57.008
 c 27.645 57.008 27.77 58.758 27.77 59.836 c h
27.77 59.836 m f
30.555 62.414 m 30.555 62.133 30.336 61.914 30.055 61.914 c 29.773 61.914
 29.555 62.133 29.555 62.414 c 29.555 62.695 29.773 62.914 30.055 62.914
 c 30.336 62.914 30.555 62.695 30.555 62.414 c h
30.555 62.414 m f
35.125 60.852 m 35.125 59.914 34.578 59.508 34.047 59.289 c 34.625 58.852
 34.812 58.445 34.812 57.961 c 34.812 57.445 34.391 56.773 33.422 56.773
 c 32.719 56.773 32.047 57.164 31.75 58.133 c 31.891 58.164 l 32.078 57.805
 32.438 57.352 33.094 57.352 c 33.734 57.352 34.109 57.789 34.109 58.289
 c 34.109 58.992 33.562 59.492 32.75 59.68 c 32.734 59.867 l 34.125 59.805
 34.469 60.711 34.469 61.273 c 34.469 61.945 33.984 62.555 33.344 62.555
 c 32.766 62.555 32.516 62.055 32.031 62.055 c 31.875 62.055 31.688 62.211
 31.688 62.414 c 31.688 62.789 32.25 62.898 32.656 62.898 c 34.078 62.898
 35.125 62.086 35.125 60.852 c h
35.125 60.852 m f
18.418 46.145 5.484 0.453 re f
28.629 45.676 m 28.629 44.066 27.895 42.613 26.645 42.613 c 25.379 42.613
 24.645 44.066 24.645 45.676 c 24.645 47.301 25.332 48.738 26.645 48.738
 c 27.848 48.738 28.629 47.301 28.629 45.676 c h
27.77 45.676 m 27.77 46.973 27.645 48.488 26.645 48.488 c 25.691 48.488
 25.504 46.973 25.504 45.676 c 25.504 44.598 25.629 42.848 26.645 42.848
 c 27.645 42.848 27.77 44.598 27.77 45.676 c h
27.77 45.676 m f
30.555 48.254 m 30.555 47.973 30.336 47.754 30.055 47.754 c 29.773 47.754
 29.555 47.973 29.555 48.254 c 29.555 48.535 29.773 48.754 30.055 48.754
 c 30.336 48.754 30.555 48.535 30.555 48.254 c h
30.555 48.254 m f
35.5 47.473 m 35.344 47.441 l 35.078 47.895 34.859 47.973 34.422 47.973
 c 32.359 47.973 l 33.781 46.676 35.078 45.504 35.078 44.191 c 35.078 43.27
 34.281 42.613 33.406 42.613 c 32.547 42.613 31.859 43.082 31.594 44.301
 c 31.797 44.301 l 32.047 43.801 32.391 43.285 33.078 43.285 c 33.859 43.285
 34.297 43.879 34.297 44.551 c 34.297 45.52 33.266 46.941 31.5 48.488 c 
31.5 48.629 l 35.031 48.629 l h
35.5 47.473 m f
18.418 31.984 5.484 0.453 re f
28.629 31.516 m 28.629 29.906 27.895 28.453 26.645 28.453 c 25.379 28.453
 24.645 29.906 24.645 31.516 c 24.645 33.141 25.332 34.578 26.645 34.578
 c 27.848 34.578 28.629 33.141 28.629 31.516 c h
27.77 31.516 m 27.77 32.812 27.645 34.328 26.645 34.328 c 25.691 34.328
 25.504 32.812 25.504 31.516 c 25.504 30.438 25.629 28.688 26.645 28.688
 c 27.645 28.688 27.77 30.438 27.77 31.516 c h
27.77 31.516 m f
30.555 34.094 m 30.555 33.812 30.336 33.594 30.055 33.594 c 29.773 33.594
 29.555 33.812 29.555 34.094 c 29.555 34.375 29.773 34.594 30.055 34.594
 c 30.336 34.594 30.555 34.375 30.555 34.094 c h
30.555 34.094 m f
34.719 34.469 m 34.719 34.328 l 34.125 34.328 33.906 34.344 33.906 33.172
 c 33.906 33.156 33.906 28.422 33.906 28.422 c 33.781 28.422 l 32.25 29.156
 l 32.297 29.297 l 32.625 29.156 32.703 29.125 32.828 29.125 c 33.094 29.125
 33.141 29.359 33.141 29.672 c 33.141 33.172 l 33.141 34.344 32.922 34.312
 32.328 34.328 c 32.328 34.469 l h
34.719 34.469 m f
35.473 17.355 m 35.473 15.746 34.738 14.293 33.488 14.293 c 32.223 14.293
 31.488 15.746 31.488 17.355 c 31.488 18.98 32.176 20.418 33.488 20.418 
c 34.691 20.418 35.473 18.98 35.473 17.355 c h
34.613 17.355 m 34.613 18.652 34.488 20.168 33.488 20.168 c 32.535 20.168
 32.348 18.652 32.348 17.355 c 32.348 16.277 32.473 14.527 33.488 14.527
 c 34.488 14.527 34.613 16.277 34.613 17.355 c h
34.613 17.355 m f
28.629 3.184 m 28.629 1.574 27.895 0.121 26.645 0.121 c 25.379 0.121 24.645
 1.574 24.645 3.184 c 24.645 4.809 25.332 6.246 26.645 6.246 c 27.848 6.246
 28.629 4.809 28.629 3.184 c h
27.77 3.184 m 27.77 4.48 27.645 5.996 26.645 5.996 c 25.691 5.996 25.504
 4.48 25.504 3.184 c 25.504 2.105 25.629 0.355 26.645 0.355 c 27.645 0.355
 27.77 2.105 27.77 3.184 c h
27.77 3.184 m f
30.555 5.762 m 30.555 5.48 30.336 5.262 30.055 5.262 c 29.773 5.262 29.555
 5.48 29.555 5.762 c 29.555 6.043 29.773 6.262 30.055 6.262 c 30.336 6.262
 30.555 6.043 30.555 5.762 c h
30.555 5.762 m f
34.719 6.137 m 34.719 5.996 l 34.125 5.996 33.906 6.012 33.906 4.84 c 33.906
 4.824 33.906 0.09 33.906 0.09 c 33.781 0.09 l 32.25 0.824 l 32.297 0.965
 l 32.625 0.824 32.703 0.793 32.828 0.793 c 33.094 0.793 33.141 1.027 33.141
 1.34 c 33.141 4.84 l 33.141 6.012 32.922 5.98 32.328 5.996 c 32.328 6.137
 l h
34.719 6.137 m f
76.699 138.52 m 76.574 138.426 l 76.387 138.66 76.059 139.098 75.871 139.098
 c 75.793 139.098 75.746 139.051 75.746 138.941 c 75.746 138.848 75.824 
138.629 75.871 138.457 c 75.871 138.457 76.402 136.504 76.402 136.457 c 
76.465 136.27 76.496 136.082 76.496 135.957 c 76.496 135.504 76.215 135.348
 75.996 135.348 c 75.262 135.348 74.434 136.316 73.855 137.348 c 73.855 
137.348 74.184 136.301 74.184 135.941 c 74.184 135.707 74.09 135.348 73.668
 135.348 c 72.84 135.348 71.809 136.941 71.59 137.348 c 72.121 135.348 l
 72.121 135.348 70.902 135.582 70.637 135.598 c 70.637 135.754 l 70.965 
135.754 71.23 135.723 71.23 136.082 c 71.23 136.254 71.152 136.535 71.074
 136.816 c 71.074 136.816 70.355 139.207 70.309 139.441 c 70.996 139.441
 l 71.152 138.848 l 71.668 136.91 72.918 135.848 73.262 135.848 c 73.402
 135.848 73.496 135.895 73.496 136.098 c 73.496 136.238 73.387 136.645 73.324
 136.91 c 73.324 136.91 72.699 139.129 72.621 139.441 c 73.293 139.441 l
 73.449 138.848 l 73.996 136.832 75.215 135.848 75.574 135.848 c 75.699 
135.848 75.793 135.941 75.793 136.082 c 75.793 136.176 75.699 136.582 75.605
 136.91 c 75.246 138.254 l 75.152 138.582 75.074 138.988 75.074 139.129 
c 75.074 139.363 75.199 139.551 75.402 139.551 c 75.855 139.551 76.34 139.035
 76.699 138.52 c h
76.699 138.52 m f
77.523 137.238 m 78.102 137.27 78.18 137.348 78.18 137.863 c 78.18 140.957
 l 78.18 141.488 78.086 141.566 77.523 141.598 c 77.523 141.723 l 79.852
 141.723 l 80.383 141.723 80.883 141.582 81.148 141.332 c 81.398 141.113
 81.523 140.801 81.523 140.473 c 81.523 140.16 81.414 139.879 81.195 139.676
 c 80.977 139.488 80.789 139.41 80.336 139.301 c 80.695 139.207 80.852 139.145
 81.008 138.988 c 81.195 138.832 81.289 138.582 81.289 138.301 c 81.289 
137.52 80.664 137.113 79.461 137.113 c 77.523 137.113 l h
78.898 139.457 m 79.57 139.457 79.898 139.488 80.148 139.598 c 80.539 139.754
 80.727 140.051 80.727 140.473 c 80.727 140.848 80.586 141.129 80.305 141.285
 c 80.086 141.41 79.789 141.457 79.336 141.457 c 78.992 141.457 78.898 141.395
 78.898 141.176 c h
78.898 139.176 m 78.898 137.582 l 78.898 137.426 78.93 137.379 79.055 137.379
 c 79.352 137.363 l 80.133 137.348 80.586 137.707 80.586 138.316 c 80.586
 138.879 80.227 139.16 79.555 139.176 c h
78.898 139.176 m f
86.465 133.004 m 86.027 133.004 l 82.918 141.363 l 83.371 141.363 l h
86.465 133.004 m f
87.137 139.441 m 89.137 139.441 l 89.137 139.301 l 88.668 139.301 88.527
 139.207 88.527 138.848 c 88.527 136.316 l 88.527 136.301 88.59 136.207 
88.652 136.145 c 88.887 135.941 89.262 135.785 89.574 135.785 c 89.98 135.785
 90.168 136.098 90.168 136.723 c 90.168 138.676 l 90.152 139.176 90.059 
139.285 89.559 139.301 c 89.559 139.441 l 91.574 139.441 l 91.574 139.301
 l 91.074 139.301 90.949 139.16 90.918 138.582 c 90.918 136.332 l 91.199
 135.941 91.48 135.785 91.902 135.785 c 92.418 135.785 92.574 136.02 92.574
 136.77 c 92.574 138.66 l 92.559 139.191 92.496 139.254 91.98 139.301 c 
91.98 139.441 l 93.949 139.441 l 93.949 139.301 l 93.715 139.285 l 93.434
 139.238 93.324 139.113 93.324 138.754 c 93.324 136.91 l 93.324 135.848 
92.98 135.316 92.293 135.316 c 91.762 135.316 91.309 135.551 90.824 136.066
 c 90.668 135.551 90.355 135.316 89.871 135.316 c 89.465 135.316 89.23 135.426
 88.48 136.004 c 88.48 135.332 l 88.418 135.316 l 87.949 135.488 87.637 
135.582 87.168 135.723 c 87.168 135.879 l 87.277 135.848 87.355 135.832 
87.449 135.832 c 87.684 135.832 87.762 135.973 87.762 136.41 c 87.762 138.676
 l 87.746 139.176 87.637 139.301 87.137 139.301 c h
87.137 139.441 m f
96.207 135.316 m 95.02 135.316 94.223 136.176 94.223 137.41 c 94.223 138.629
 95.051 139.535 96.176 139.535 c 97.316 139.535 98.176 138.582 98.176 137.348
 c 98.176 136.16 97.348 135.316 96.207 135.316 c h
96.082 135.566 m 96.832 135.566 97.363 136.426 97.363 137.66 c 97.363 138.676
 96.957 139.285 96.285 139.285 c 95.941 139.285 95.613 139.066 95.426 138.707
 c 95.16 138.238 95.02 137.613 95.02 136.973 c 95.02 136.129 95.441 135.566
 96.082 135.566 c h
96.082 135.566 m f
98.586 139.441 m 100.711 139.441 l 100.711 139.301 l 100.133 139.285 100.039
 139.191 100.023 138.691 c 100.023 133.332 l 99.992 133.316 l 99.539 133.457
 99.211 133.551 98.57 133.707 c 98.57 133.848 l 98.617 133.848 l 98.727 
133.848 98.836 133.832 98.898 133.832 c 99.195 133.832 99.273 133.957 99.273
 134.379 c 99.273 138.66 l 99.273 139.145 99.148 139.27 98.586 139.301 c
 h
98.586 139.441 m f
102.539 139.441 m 104.633 139.441 l 104.633 139.301 l 104.461 139.301 l
 104.086 139.27 103.977 139.176 103.961 138.848 c 103.961 137.191 l 105.227
 138.863 l 105.258 138.91 105.289 138.957 105.305 138.988 c 105.383 139.066
 105.414 139.129 105.414 139.176 c 105.414 139.254 105.336 139.301 105.227
 139.301 c 105.055 139.301 l 105.055 139.441 l 107.008 139.441 l 107.008
 139.301 l 106.617 139.285 106.336 139.113 105.961 138.645 c 104.586 136.91
 l 104.852 136.676 l 105.961 135.66 106.211 135.52 106.789 135.535 c 106.789
 135.41 l 104.945 135.41 l 104.945 135.535 l 105.305 135.535 105.398 135.582
 105.398 135.691 c 105.398 135.77 105.32 135.895 105.195 136.004 c 103.961
 137.098 l 103.961 133.332 l 103.93 133.316 l 103.586 133.426 103.32 133.504
 102.805 133.645 c 102.539 133.707 l 102.539 133.848 l 102.648 133.848 102.742
 133.832 102.82 133.832 c 103.133 133.832 103.211 133.957 103.211 134.379
 c 103.211 138.707 l 103.195 139.176 103.18 139.207 102.539 139.301 c h
102.539 139.441 m f
111.137 135.957 m 111.137 135.613 l 110.449 135.613 l 110.262 135.613 110.121
 135.582 109.949 135.52 c 109.746 135.457 l 109.512 135.363 109.262 135.316
 109.027 135.316 c 108.199 135.316 107.543 135.957 107.543 136.785 c 107.543
 137.348 107.777 137.676 108.371 137.973 c 108.137 138.191 l 107.949 138.379
 107.84 138.473 107.809 138.504 c 107.621 138.707 107.574 138.801 107.574
 138.957 c 107.574 139.16 107.668 139.254 108.043 139.426 c 107.402 139.895
 107.168 140.191 107.168 140.52 c 107.168 141.004 107.855 141.395 108.715
 141.395 c 109.387 141.395 110.09 141.16 110.559 140.785 c 110.902 140.504
 111.059 140.223 111.059 139.879 c 111.059 139.332 110.637 138.957 109.965
 138.926 c 108.809 138.863 l 108.324 138.848 108.105 138.77 108.105 138.629
 c 108.105 138.441 108.402 138.129 108.652 138.066 c 108.965 138.082 109.137
 138.098 109.168 138.098 c 109.496 138.098 109.855 137.973 110.121 137.723
 c 110.418 137.473 110.559 137.16 110.559 136.723 c 110.559 136.457 110.512
 136.254 110.387 135.957 c h
108.23 139.457 m 108.543 139.52 109.246 139.582 109.699 139.582 c 110.512
 139.582 110.809 139.691 110.809 140.02 c 110.809 140.535 110.121 140.879
 109.105 140.879 c 108.309 140.879 107.793 140.629 107.793 140.238 c 107.793
 140.02 107.871 139.895 108.23 139.457 c h
108.277 136.41 m 108.277 135.879 108.527 135.566 108.949 135.566 c 109.23
 135.566 109.449 135.723 109.605 135.988 c 109.777 136.301 109.871 136.707
 109.871 137.066 c 109.871 137.566 109.621 137.879 109.199 137.879 c 108.652
 137.879 108.277 137.301 108.277 136.441 c h
108.277 136.41 m f
111.781 133.965 4.703 0.438 re f
120.035 136.199 m 120.035 136.012 l 119.504 136.012 119.332 136.012 119.332
 135.168 c 119.332 135.152 119.332 131.496 119.332 131.496 c 119.16 131.496
 l 117.816 132.074 l 117.895 132.262 l 118.207 132.137 118.27 132.121 118.363
 132.121 c 118.566 132.121 118.582 132.293 118.582 132.496 c 118.582 135.168
 l 118.582 136.012 118.426 135.996 117.895 136.012 c 117.895 136.199 l h
120.035 136.199 m f
93.598 149.098 m 92.941 149.535 92.676 149.754 92.332 150.176 c 91.707 
150.957 91.395 151.848 91.395 152.895 c 91.395 154.051 91.723 154.926 92.504
 155.832 c 92.879 156.27 93.113 156.457 93.582 156.754 c 93.676 156.598 
l 92.973 156.035 92.723 155.723 92.473 155.051 c 92.254 154.457 92.16 153.785
 92.16 152.879 c 92.16 151.926 92.27 151.191 92.52 150.645 c 92.77 150.082
 93.035 149.754 93.676 149.238 c h
93.598 149.098 m f
97.926 154.566 m 97.77 154.691 97.66 154.738 97.52 154.738 c 97.316 154.738
 97.254 154.613 97.254 154.223 c 97.254 152.473 l 97.254 152.004 97.207 
151.738 97.082 151.535 c 96.879 151.207 96.488 151.035 95.973 151.035 c 
95.129 151.035 94.457 151.473 94.457 152.035 c 94.457 152.238 94.629 152.426
 94.848 152.426 c 95.066 152.426 95.254 152.238 95.254 152.051 c 95.254 
152.02 95.238 151.973 95.238 151.91 c 95.207 151.816 95.207 151.754 95.207
 151.691 c 95.207 151.441 95.488 151.254 95.848 151.254 c 96.285 151.254
 96.535 151.504 96.535 151.988 c 96.535 152.535 l 95.16 153.082 95.004 153.176
 94.613 153.504 c 94.41 153.691 94.285 153.988 94.285 154.285 c 94.285 154.848
 94.676 155.254 95.238 155.254 c 95.629 155.254 95.988 155.066 96.535 154.598
 c 96.582 155.066 96.754 155.254 97.113 155.254 c 97.426 155.254 97.613 
155.145 97.926 154.801 c h
96.535 154.051 m 96.535 154.332 96.488 154.426 96.301 154.535 c 96.066 
154.66 95.832 154.723 95.645 154.723 c 95.332 154.723 95.082 154.426 95.082
 154.035 c 95.082 154.004 l 95.082 153.473 95.488 153.129 96.535 152.754
 c h
96.535 154.051 m f
98.262 156.754 m 98.918 156.301 99.199 156.082 99.527 155.676 c 100.168
 154.895 100.48 153.988 100.48 152.941 c 100.48 151.801 100.137 150.926 
99.355 150.02 c 98.98 149.582 98.746 149.379 98.293 149.098 c 98.184 149.238
 l 98.902 149.801 99.137 150.113 99.387 150.785 c 99.605 151.395 99.699 
152.066 99.699 152.973 c 99.699 153.91 99.59 154.645 99.34 155.191 c 99.105
 155.754 98.824 156.082 98.184 156.598 c h
98.262 156.754 m f
16.141 91.484 m 15.984 91.484 l 13.781 93.469 11.234 93.984 8.062 93.984
 c 4.906 93.984 2.359 93.469 0.141 91.484 c 0 91.484 l 1.641 93.609 4.453
 95 8.062 95 c 11.672 95 14.5 93.609 16.141 91.484 c h
16.141 91.484 m f
1.051 86.758 m 1.004 86.742 0.957 86.727 0.91 86.727 c 0.738 86.727 0.66
 86.914 0.66 87.023 c 0.66 87.133 0.676 87.32 1.051 87.398 c 2.16 87.602
 l 2.41 89.383 3.723 89.867 4.27 89.867 c 5.52 89.867 5.629 88.586 5.629
 88.508 c 6.473 88.773 l 6.535 88.773 6.582 88.789 6.629 88.789 c 6.785 
88.789 6.879 88.648 6.879 88.523 c 6.879 88.414 6.785 88.242 6.598 88.195
 c 5.676 87.992 l 5.566 87.117 5.129 86.523 4.645 86.164 c 4.285 85.883 
3.863 85.727 3.457 85.727 c 2.848 85.727 2.301 86.102 2.176 87.102 c h
2.52 87.18 m 2.598 86.648 3.051 86.445 3.488 86.445 c 4.066 86.445 5.113
 86.898 5.332 87.898 c h
5.332 88.398 m 5.191 88.898 4.785 89.117 4.316 89.117 c 3.988 89.117 3.645
 89.008 3.332 88.836 c 2.957 88.602 2.629 88.211 2.535 87.68 c h
5.332 88.398 m f
6.727 80.379 m 6.648 80.473 l 6.82 80.629 7.117 80.879 7.117 81.035 c 7.117
 81.098 7.102 81.129 7.023 81.129 c 6.945 81.129 6.805 81.066 6.68 81.035
 c 6.68 81.035 5.305 80.613 5.273 80.598 c 5.148 80.566 5.008 80.535 4.914
 80.535 c 4.602 80.535 4.492 80.77 4.492 80.941 c 4.492 81.52 5.18 82.176
 5.898 82.645 c 5.898 82.645 5.164 82.379 4.914 82.379 c 4.742 82.379 4.492
 82.457 4.492 82.785 c 4.492 83.441 5.617 84.254 5.898 84.426 c 4.492 84.004
 l 4.492 84.004 4.664 84.988 4.68 85.191 c 4.773 85.191 l 4.773 84.926 4.758
 84.723 5.008 84.723 c 5.133 84.723 5.32 84.785 5.523 84.848 c 5.523 84.848
 7.195 85.41 7.367 85.457 c 7.367 84.91 l 6.945 84.785 l 5.602 84.379 4.852
 83.379 4.852 83.098 c 4.852 83.004 4.883 82.926 5.023 82.926 c 5.117 82.926
 5.414 83.004 5.602 83.066 c 5.602 83.066 7.148 83.551 7.367 83.613 c 7.367
 83.082 l 6.945 82.957 l 5.539 82.52 4.852 81.551 4.852 81.27 c 4.852 81.16
 4.898 81.098 5.008 81.098 c 5.07 81.098 5.367 81.176 5.602 81.238 c 6.539
 81.535 l 6.773 81.598 7.055 81.676 7.148 81.676 c 7.305 81.676 7.445 81.566
 7.445 81.395 c 7.445 81.051 7.07 80.66 6.727 80.379 c h
6.727 80.379 m f
3.332 74.266 0.438 4.703 re f
5.566 70.715 m 5.379 70.715 l 5.379 71.246 5.379 71.418 4.535 71.418 c 
4.52 71.418 0.863 71.418 0.863 71.418 c 0.863 71.59 l 1.441 72.934 l 1.629
 72.855 l 1.504 72.543 1.488 72.48 1.488 72.387 c 1.488 72.184 1.66 72.168
 1.863 72.168 c 4.535 72.168 l 5.379 72.168 5.363 72.324 5.379 72.855 c 
5.566 72.855 l h
5.566 70.715 m f
7.738 69.68 0.48 20.398 re f
12.688 79.461 m 12.531 79.617 l 12.766 79.805 13.094 80.07 13.094 80.227
 c 13.094 80.258 13.078 80.273 13.031 80.273 c 12.953 80.273 12.781 80.211
 12.641 80.18 c 12.641 80.18 11.078 79.727 11.031 79.727 c 10.875 79.664
 10.719 79.633 10.609 79.633 c 10.203 79.633 10.078 79.914 10.078 80.117
 c 10.078 80.68 10.688 81.305 11.422 81.789 c 11.141 81.711 10.781 81.617
 10.609 81.617 c 10.391 81.617 10.078 81.711 10.078 82.102 c 10.078 82.695
 10.953 83.414 11.453 83.742 c 10.062 83.352 l 10.062 83.352 10.266 84.477
 10.281 84.727 c 10.5 84.727 l 10.5 84.43 10.453 84.227 10.703 84.227 c 
10.859 84.227 11.078 84.289 11.297 84.367 c 11.297 84.367 13.234 84.961 
13.484 85.023 c 13.484 84.352 l 12.969 84.211 l 11.422 83.773 10.578 82.742
 10.578 82.445 c 10.578 82.352 10.594 82.289 10.719 82.289 c 10.844 82.289
 11.172 82.367 11.375 82.445 c 11.375 82.445 13.172 82.961 13.484 83.055
 c 13.484 82.383 l 12.969 82.242 l 11.359 81.789 10.578 80.758 10.578 80.477
 c 10.578 80.383 10.625 80.336 10.703 80.336 c 10.797 80.336 11.109 80.414
 11.375 80.492 c 12.453 80.805 l 12.734 80.883 13.062 80.945 13.172 80.945
 c 13.391 80.945 13.562 80.82 13.562 80.617 c 13.562 80.211 13.141 79.789
 12.688 79.461 c h
12.688 79.461 m f
11.875 78.816 m 11.906 78.363 11.969 78.301 12.375 78.285 c 14.812 78.285
 l 15.219 78.301 15.281 78.363 15.297 78.816 c 15.406 78.816 l 15.406 76.988
 l 15.406 76.566 15.297 76.176 15.109 75.973 c 14.922 75.77 14.688 75.66
 14.422 75.66 c 14.172 75.66 13.953 75.754 13.797 75.926 c 13.656 76.098
 13.578 76.238 13.5 76.598 c 13.422 76.316 13.375 76.191 13.25 76.066 c 
13.141 75.926 12.938 75.848 12.703 75.848 c 12.094 75.848 11.781 76.332 
11.781 77.285 c 11.781 78.816 l h
13.625 77.738 m 13.625 77.191 13.656 76.941 13.734 76.754 c 13.859 76.441
 14.078 76.285 14.422 76.285 c 14.719 76.285 14.938 76.41 15.062 76.629 
c 15.156 76.801 15.203 77.02 15.203 77.379 c 15.203 77.66 15.156 77.738 
14.984 77.738 c h
13.406 77.738 m 12.141 77.738 l 12.016 77.723 11.984 77.707 11.984 77.613
 c 11.984 77.363 l 11.969 76.754 12.234 76.41 12.734 76.41 c 13.156 76.41
 13.391 76.676 13.406 77.207 c h
13.406 77.738 m f
8.062 64.887 m 4.453 64.887 1.641 66.277 0 68.402 c 0.141 68.402 l 2.359
 66.418 4.906 65.902 8.062 65.902 c 11.234 65.902 13.781 66.418 15.984 68.402
 c 16.141 68.402 l 14.5 66.277 11.672 64.887 8.062 64.887 c h
8.062 64.887 m f
3.809 58.324 m 3.809 58.762 l 12.168 61.871 l 12.168 61.418 l h
3.809 58.324 m f
10.246 57.727 m 10.246 55.633 l 10.105 55.633 l 10.105 55.805 l 10.074 
56.18 9.98 56.289 9.652 56.305 c 7.996 56.305 l 9.668 55.039 l 9.715 55.008
 9.762 54.977 9.793 54.961 c 9.871 54.883 9.934 54.852 9.98 54.852 c 10.059
 54.852 10.105 54.93 10.105 55.039 c 10.105 55.211 l 10.246 55.211 l 10.246
 53.258 l 10.105 53.258 l 10.09 53.648 9.918 53.93 9.449 54.305 c 7.715 
55.68 l 7.48 55.414 l 6.465 54.305 6.324 54.055 6.34 53.477 c 6.215 53.477
 l 6.215 55.32 l 6.34 55.32 l 6.34 54.961 6.387 54.867 6.496 54.867 c 6.574
 54.867 6.699 54.945 6.809 55.07 c 7.902 56.305 l 4.137 56.305 l 4.121 56.336
 l 4.23 56.68 4.309 56.945 4.449 57.461 c 4.512 57.727 l 4.652 57.727 l 
4.652 57.617 4.637 57.523 4.637 57.445 c 4.637 57.133 4.762 57.055 5.184
 57.055 c 9.512 57.055 l 9.98 57.07 10.012 57.086 10.105 57.727 c h
10.246 57.727 m f
6.762 49.133 m 6.418 49.133 l 6.418 49.82 l 6.418 50.008 6.387 50.148 6.324
 50.32 c 6.262 50.523 l 6.168 50.758 6.121 51.008 6.121 51.242 c 6.121 52.07
 6.762 52.727 7.59 52.727 c 8.152 52.727 8.48 52.492 8.777 51.898 c 8.996
 52.133 l 9.184 52.32 9.277 52.43 9.309 52.461 c 9.512 52.648 9.605 52.695
 9.762 52.695 c 9.965 52.695 10.059 52.602 10.23 52.227 c 10.699 52.867 
10.996 53.102 11.324 53.102 c 11.809 53.102 12.199 52.414 12.199 51.555 
c 12.199 50.883 11.965 50.18 11.59 49.711 c 11.309 49.367 11.027 49.211 
10.684 49.211 c 10.137 49.211 9.762 49.633 9.73 50.305 c 9.668 51.461 l 
9.652 51.945 9.574 52.164 9.434 52.164 c 9.246 52.164 8.934 51.867 8.871
 51.617 c 8.887 51.305 8.902 51.133 8.902 51.102 c 8.902 50.773 8.777 50.414
 8.527 50.148 c 8.277 49.852 7.965 49.711 7.527 49.711 c 7.262 49.711 7.059
 49.758 6.762 49.883 c h
10.262 52.039 m 10.324 51.727 10.387 51.023 10.387 50.57 c 10.387 49.758
 10.496 49.461 10.824 49.461 c 11.34 49.461 11.684 50.148 11.684 51.164 
c 11.684 51.961 11.434 52.477 11.043 52.477 c 10.824 52.477 10.699 52.398
 10.262 52.039 c h
7.215 51.992 m 6.684 51.992 6.371 51.742 6.371 51.32 c 6.371 51.039 6.527
 50.82 6.793 50.664 c 7.105 50.492 7.512 50.398 7.871 50.398 c 8.371 50.398
 8.684 50.648 8.684 51.07 c 8.684 51.617 8.105 51.992 7.246 51.992 c h
7.215 51.992 m f
10.246 47.09 m 10.246 45.09 l 10.105 45.09 l 10.105 45.559 10.012 45.699
 9.652 45.699 c 7.121 45.699 l 7.105 45.699 7.012 45.637 6.949 45.574 c 
6.746 45.34 6.59 44.965 6.59 44.652 c 6.59 44.246 6.902 44.059 7.527 44.059
 c 9.48 44.059 l 9.98 44.074 10.09 44.168 10.105 44.668 c 10.246 44.668 
l 10.246 42.652 l 10.105 42.652 l 10.105 43.152 9.965 43.277 9.387 43.309
 c 7.137 43.309 l 6.746 43.027 6.59 42.746 6.59 42.324 c 6.59 41.809 6.824
 41.652 7.574 41.652 c 9.465 41.652 l 9.996 41.668 10.059 41.73 10.105 42.246
 c 10.246 42.246 l 10.246 40.277 l 10.105 40.277 l 10.09 40.512 l 10.043
 40.793 9.918 40.902 9.559 40.902 c 7.715 40.902 l 6.652 40.902 6.121 41.246
 6.121 41.934 c 6.121 42.465 6.355 42.918 6.871 43.402 c 6.355 43.559 6.121
 43.871 6.121 44.355 c 6.121 44.762 6.23 44.996 6.809 45.746 c 6.137 45.746
 l 6.121 45.809 l 6.293 46.277 6.387 46.59 6.527 47.059 c 6.684 47.059 l
 6.652 46.949 6.637 46.871 6.637 46.777 c 6.637 46.543 6.777 46.465 7.215
 46.465 c 9.48 46.465 l 9.98 46.48 10.105 46.59 10.105 47.09 c h
10.246 47.09 m f
6.121 38.02 m 6.121 39.207 6.98 40.004 8.215 40.004 c 9.434 40.004 10.34
 39.176 10.34 38.051 c 10.34 36.91 9.387 36.051 8.152 36.051 c 6.965 36.051
 6.121 36.879 6.121 38.02 c h
6.371 38.145 m 6.371 37.395 7.23 36.863 8.465 36.863 c 9.48 36.863 10.09
 37.27 10.09 37.941 c 10.09 38.285 9.871 38.613 9.512 38.801 c 9.043 39.066
 8.418 39.207 7.777 39.207 c 6.934 39.207 6.371 38.785 6.371 38.145 c h
6.371 38.145 m f
10.246 35.641 m 10.246 33.516 l 10.105 33.516 l 10.09 34.094 9.996 34.188
 9.496 34.203 c 4.137 34.203 l 4.121 34.234 l 4.262 34.688 4.355 35.016 
4.512 35.656 c 4.652 35.656 l 4.652 35.609 l 4.652 35.5 4.637 35.391 4.637
 35.328 c 4.637 35.031 4.762 34.953 5.184 34.953 c 9.465 34.953 l 9.949 
34.953 10.074 35.078 10.105 35.641 c h
10.246 35.641 m f
4.773 28.184 0.438 4.703 re f
7.008 24.633 m 6.82 24.633 l 6.82 25.164 6.82 25.336 5.977 25.336 c 5.961
 25.336 2.305 25.336 2.305 25.336 c 2.305 25.508 l 2.883 26.852 l 3.07 26.773
 l 2.945 26.461 2.93 26.398 2.93 26.305 c 2.93 26.102 3.102 26.086 3.305
 26.086 c 5.977 26.086 l 6.82 26.086 6.805 26.242 6.82 26.773 c 7.008 26.773
 l h
7.008 24.633 m f
1.13366 w
q 1 0 0 -1 0 0 cm
41.039 -112.871 m 41.039 -112.871 41.777 -85.488 42.941 -71.109 c 43.398
 -65.332 43.789 -60.148 44.809 -54.441 c 45.797 -49.121 46.324 -44.148 48.617
 -39.25 c 50.941 -34.176 53.867 -29.77 58.062 -26.07 c 60.844 -23.641 64.086
 -22.406 67.504 -20.996 c 70.641 -19.691 73.637 -18.918 76.949 -18.141 c
 83.398 -16.625 89.32 -15.781 95.875 -14.898 c 102.359 -14.02 108.246 -13.559
 114.766 -13.031 c 121.285 -12.504 127.172 -12.148 133.691 -11.762 c 140.211
 -11.375 152.582 -10.848 152.582 -10.848 c S Q
1 g
43.176 112.859 m 43.176 111.684 42.223 110.73 41.047 110.73 c 39.871 110.73
 38.918 111.684 38.918 112.859 c 38.918 114.035 39.871 114.988 41.047 114.988
 c 42.223 114.988 43.176 114.035 43.176 112.859 c f
0 g
43.176 112.859 m 43.176 111.684 42.223 110.73 41.047 110.73 c 39.871 110.73
 38.918 111.684 38.918 112.859 c 38.918 114.035 39.871 114.988 41.047 114.988
 c 42.223 114.988 43.176 114.035 43.176 112.859 c h
43.176 112.859 m 42.965 112.859 l 42.965 111.801 42.105 110.941 41.047 
110.941 c 39.988 110.941 39.129 111.801 39.129 112.859 c 39.129 113.918 
39.988 114.777 41.047 114.777 c 42.105 114.777 42.965 113.918 42.965 112.859
 c f
1 g
45.066 71.121 m 45.066 69.945 44.113 68.992 42.938 68.992 c 41.762 68.992
 40.809 69.945 40.809 71.121 c 40.809 72.297 41.762 73.25 42.938 73.25 c
 44.113 73.25 45.066 72.297 45.066 71.121 c f
0 g
45.066 71.121 m 45.066 69.945 44.113 68.992 42.938 68.992 c 41.762 68.992
 40.809 69.945 40.809 71.121 c 40.809 72.297 41.762 73.25 42.938 73.25 c
 44.113 73.25 45.066 72.297 45.066 71.121 c h
45.066 71.121 m 44.855 71.121 l 44.855 70.062 43.996 69.203 42.938 69.203
 c 41.879 69.203 41.02 70.062 41.02 71.121 c 41.02 72.18 41.879 73.039 42.938
 73.039 c 43.996 73.039 44.855 72.18 44.855 71.121 c f
1 g
46.957 54.418 m 46.957 53.242 46.004 52.289 44.828 52.289 c 43.652 52.289
 42.699 53.242 42.699 54.418 c 42.699 55.594 43.652 56.547 44.828 56.547
 c 46.004 56.547 46.957 55.594 46.957 54.418 c f
0 g
46.957 54.418 m 46.957 53.242 46.004 52.289 44.828 52.289 c 43.652 52.289
 42.699 53.242 42.699 54.418 c 42.699 55.594 43.652 56.547 44.828 56.547
 c 46.004 56.547 46.957 55.594 46.957 54.418 c h
46.957 54.418 m 46.746 54.418 l 46.746 53.359 45.887 52.5 44.828 52.5 c
 43.77 52.5 42.91 53.359 42.91 54.418 c 42.91 55.477 43.77 56.336 44.828
 56.336 c 45.887 56.336 46.746 55.477 46.746 54.418 c f
1 g
50.734 39.238 m 50.734 38.062 49.781 37.109 48.605 37.109 c 47.43 37.109
 46.477 38.062 46.477 39.238 c 46.477 40.414 47.43 41.367 48.605 41.367 
c 49.781 41.367 50.734 40.414 50.734 39.238 c f
0 g
50.734 39.238 m 50.734 38.062 49.781 37.109 48.605 37.109 c 47.43 37.109
 46.477 38.062 46.477 39.238 c 46.477 40.414 47.43 41.367 48.605 41.367 
c 49.781 41.367 50.734 40.414 50.734 39.238 c h
50.734 39.238 m 50.523 39.238 l 50.523 38.18 49.664 37.32 48.605 37.32 
c 47.547 37.32 46.688 38.18 46.688 39.238 c 46.688 40.297 47.547 41.156 
48.605 41.156 c 49.664 41.156 50.523 40.297 50.523 39.238 c f
1 g
60.195 26.078 m 60.195 24.902 59.242 23.949 58.066 23.949 c 56.891 23.949
 55.938 24.902 55.938 26.078 c 55.938 27.254 56.891 28.207 58.066 28.207
 c 59.242 28.207 60.195 27.254 60.195 26.078 c f
0 g
60.195 26.078 m 60.195 24.902 59.242 23.949 58.066 23.949 c 56.891 23.949
 55.938 24.902 55.938 26.078 c 55.938 27.254 56.891 28.207 58.066 28.207
 c 59.242 28.207 60.195 27.254 60.195 26.078 c h
60.195 26.078 m 59.984 26.078 l 59.984 25.02 59.125 24.16 58.066 24.16 
c 57.008 24.16 56.148 25.02 56.148 26.078 c 56.148 27.137 57.008 27.996 
58.066 27.996 c 59.125 27.996 59.984 27.137 59.984 26.078 c f
1 g
69.645 20.988 m 69.645 19.812 68.691 18.859 67.516 18.859 c 66.34 18.859
 65.387 19.812 65.387 20.988 c 65.387 22.164 66.34 23.117 67.516 23.117 
c 68.691 23.117 69.645 22.164 69.645 20.988 c f
0 g
69.645 20.988 m 69.645 19.812 68.691 18.859 67.516 18.859 c 66.34 18.859
 65.387 19.812 65.387 20.988 c 65.387 22.164 66.34 23.117 67.516 23.117 
c 68.691 23.117 69.645 22.164 69.645 20.988 c h
69.645 20.988 m 69.434 20.988 l 69.434 19.93 68.574 19.07 67.516 19.07 
c 66.457 19.07 65.598 19.93 65.598 20.988 c 65.598 22.047 66.457 22.906 
67.516 22.906 c 68.574 22.906 69.434 22.047 69.434 20.988 c f
1 g
79.094 18.141 m 79.094 16.965 78.141 16.012 76.965 16.012 c 75.789 16.012
 74.836 16.965 74.836 18.141 c 74.836 19.316 75.789 20.27 76.965 20.27 c
 78.141 20.27 79.094 19.316 79.094 18.141 c f
0 g
79.094 18.141 m 79.094 16.965 78.141 16.012 76.965 16.012 c 75.789 16.012
 74.836 16.965 74.836 18.141 c 74.836 19.316 75.789 20.27 76.965 20.27 c
 78.141 20.27 79.094 19.316 79.094 18.141 c h
79.094 18.141 m 78.883 18.141 l 78.883 17.082 78.023 16.223 76.965 16.223
 c 75.906 16.223 75.047 17.082 75.047 18.141 c 75.047 19.199 75.906 20.059
 76.965 20.059 c 78.023 20.059 78.883 19.199 78.883 18.141 c f
1 g
98.004 14.891 m 98.004 13.715 97.051 12.762 95.875 12.762 c 94.699 12.762
 93.746 13.715 93.746 14.891 c 93.746 16.066 94.699 17.02 95.875 17.02 c
 97.051 17.02 98.004 16.066 98.004 14.891 c f
0 g
98.004 14.891 m 98.004 13.715 97.051 12.762 95.875 12.762 c 94.699 12.762
 93.746 13.715 93.746 14.891 c 93.746 16.066 94.699 17.02 95.875 17.02 c
 97.051 17.02 98.004 16.066 98.004 14.891 c h
98.004 14.891 m 97.793 14.891 l 97.793 13.832 96.934 12.973 95.875 12.973
 c 94.816 12.973 93.957 13.832 93.957 14.891 c 93.957 15.949 94.816 16.809
 95.875 16.809 c 96.934 16.809 97.793 15.949 97.793 14.891 c f
1 g
116.914 13.02 m 116.914 11.844 115.961 10.891 114.785 10.891 c 113.609 
10.891 112.656 11.844 112.656 13.02 c 112.656 14.195 113.609 15.148 114.785
 15.148 c 115.961 15.148 116.914 14.195 116.914 13.02 c f
0 g
116.914 13.02 m 116.914 11.844 115.961 10.891 114.785 10.891 c 113.609 
10.891 112.656 11.844 112.656 13.02 c 112.656 14.195 113.609 15.148 114.785
 15.148 c 115.961 15.148 116.914 14.195 116.914 13.02 c h
116.914 13.02 m 116.703 13.02 l 116.703 11.961 115.844 11.102 114.785 11.102
 c 113.727 11.102 112.867 11.961 112.867 13.02 c 112.867 14.078 113.727 
14.938 114.785 14.938 c 115.844 14.938 116.703 14.078 116.703 13.02 c f
1 g
135.824 11.758 m 135.824 10.586 134.871 9.633 133.695 9.633 c 132.52 9.633
 131.566 10.586 131.566 11.758 c 131.566 12.934 132.52 13.887 133.695 13.887
 c 134.871 13.887 135.824 12.934 135.824 11.758 c f
0 g
135.824 11.758 m 135.824 10.586 134.871 9.633 133.695 9.633 c 132.52 9.633
 131.566 10.586 131.566 11.758 c 131.566 12.934 132.52 13.887 133.695 13.887
 c 134.871 13.887 135.824 12.934 135.824 11.758 c h
135.824 11.758 m 135.613 11.758 l 135.613 10.699 134.754 9.84 133.695 9.84
 c 132.637 9.84 131.777 10.699 131.777 11.758 c 131.777 12.82 132.637 13.68
 133.695 13.68 c 134.754 13.68 135.613 12.82 135.613 11.758 c f
1 g
154.727 10.84 m 154.727 9.664 153.773 8.711 152.598 8.711 c 151.422 8.711
 150.469 9.664 150.469 10.84 c 150.469 12.016 151.422 12.969 152.598 12.969
 c 153.773 12.969 154.727 12.016 154.727 10.84 c f
0 g
154.727 10.84 m 154.727 9.664 153.773 8.711 152.598 8.711 c 151.422 8.711
 150.469 9.664 150.469 10.84 c 150.469 12.016 151.422 12.969 152.598 12.969
 c 153.773 12.969 154.727 12.016 154.727 10.84 c h
154.727 10.84 m 154.516 10.84 l 154.516 9.781 153.656 8.922 152.598 8.922
 c 151.539 8.922 150.68 9.781 150.68 10.84 c 150.68 11.898 151.539 12.758
 152.598 12.758 c 153.656 12.758 154.516 11.898 154.516 10.84 c f
0.567043 w
q 1 0 0 -1 0 0 cm
209.246 -3.039 113.422 -113.387 re S Q
0.398505 w
q 1 0 0 -1 0 0 cm
209.242 -116.441 m 209.242 -112.184 l S Q
q 1 0 0 -1 0 0 cm
228.145 -116.441 m 228.145 -112.184 l S Q
q 1 0 0 -1 0 0 cm
247.047 -116.441 m 247.047 -112.184 l S Q
q 1 0 0 -1 0 0 cm
265.953 -116.441 m 265.953 -112.184 l S Q
q 1 0 0 -1 0 0 cm
284.855 -116.441 m 284.855 -112.184 l S Q
q 1 0 0 -1 0 0 cm
303.758 -116.441 m 303.758 -112.184 l S Q
q 1 0 0 -1 0 0 cm
322.66 -116.441 m 322.66 -112.184 l S Q
q 1 0 0 -1 0 0 cm
209.242 -116.441 m 209.242 -112.184 l S Q
0.398507 w
q 1 0 0 -1 0 0 cm
209.227 -116.422 m 213.48 -116.422 l S Q
0.398505 w
q 1 0 0 -1 0 0 cm
209.238 -97.531 m 213.477 -97.531 l S Q
0.398507 w
q 1 0 0 -1 0 0 cm
209.254 -78.621 m 213.504 -78.621 l S Q
0.398505 w
q 1 0 0 -1 0 0 cm
209.238 -59.73 m 213.5 -59.73 l S Q
0.398507 w
q 1 0 0 -1 0 0 cm
209.227 -40.82 m 213.504 -40.82 l S Q
0.398505 w
q 1 0 0 -1 0 0 cm
209.223 -21.93 m 213.48 -21.93 l S Q
0.398506 w
q 1 0 0 -1 0 0 cm
209.258 -3.023 m 213.492 -3.023 l S Q
0.398507 w
q 1 0 0 -1 0 0 cm
209.227 -116.422 m 213.48 -116.422 l S Q
0.398505 w
q 1 0 0 -1 0 0 cm
209.246 -3.039 m 209.246 -7.273 l S Q
q 1 0 0 -1 0 0 cm
228.16 -3.039 m 228.16 -7.273 l S Q
q 1 0 0 -1 0 0 cm
247.039 -3.039 m 247.039 -7.273 l S Q
q 1 0 0 -1 0 0 cm
265.957 -3.039 m 265.957 -7.273 l S Q
q 1 0 0 -1 0 0 cm
284.871 -3.039 m 284.871 -7.273 l S Q
q 1 0 0 -1 0 0 cm
303.785 -3.039 m 303.785 -7.273 l S Q
q 1 0 0 -1 0 0 cm
322.668 -3.039 m 322.668 -7.273 l S Q
q 1 0 0 -1 0 0 cm
209.246 -3.039 m 209.246 -7.273 l S Q
0.398507 w
q 1 0 0 -1 0 0 cm
322.695 -116.422 m 318.441 -116.422 l S Q
0.398505 w
q 1 0 0 -1 0 0 cm
322.672 -97.531 m 318.438 -97.531 l S Q
0.398507 w
q 1 0 0 -1 0 0 cm
322.684 -78.621 m 318.434 -78.621 l S Q
0.398505 w
q 1 0 0 -1 0 0 cm
322.66 -59.73 m 318.434 -59.73 l S Q
0.398507 w
q 1 0 0 -1 0 0 cm
322.676 -40.82 m 318.434 -40.82 l S Q
0.398505 w
q 1 0 0 -1 0 0 cm
322.695 -21.93 m 318.438 -21.93 l S Q
0.398506 w
q 1 0 0 -1 0 0 cm
322.684 -3.023 m 318.445 -3.023 l S Q
0.398507 w
q 1 0 0 -1 0 0 cm
322.695 -116.422 m 318.441 -116.422 l S Q
211.191 122.957 m 211.191 121.348 210.457 119.895 209.207 119.895 c 207.941
 119.895 207.207 121.348 207.207 122.957 c 207.207 124.582 207.895 126.02
 209.207 126.02 c 210.41 126.02 211.191 124.582 211.191 122.957 c h
210.332 122.957 m 210.332 124.254 210.207 125.77 209.207 125.77 c 208.254
 125.77 208.066 124.254 208.066 122.957 c 208.066 121.879 208.191 120.129
 209.207 120.129 c 210.207 120.129 210.332 121.879 210.332 122.957 c h
210.332 122.957 m f
229.402 125.91 m 229.402 125.77 l 228.809 125.77 228.59 125.785 228.59 
124.613 c 228.59 124.598 228.59 119.863 228.59 119.863 c 228.465 119.863
 l 226.934 120.598 l 226.98 120.738 l 227.309 120.598 227.387 120.566 227.512
 120.566 c 227.777 120.566 227.824 120.801 227.824 121.113 c 227.824 124.613
 l 227.824 125.785 227.605 125.754 227.012 125.77 c 227.012 125.91 l h
229.402 125.91 m f
249.141 124.754 m 248.984 124.723 l 248.719 125.176 248.5 125.254 248.062
 125.254 c 246 125.254 l 247.422 123.957 248.719 122.785 248.719 121.473
 c 248.719 120.551 247.922 119.895 247.047 119.895 c 246.188 119.895 245.5
 120.363 245.234 121.582 c 245.438 121.582 l 245.688 121.082 246.031 120.566
 246.719 120.566 c 247.5 120.566 247.938 121.16 247.938 121.832 c 247.938
 122.801 246.906 124.223 245.141 125.77 c 245.141 125.91 l 248.672 125.91
 l h
249.141 124.754 m f
267.605 123.973 m 267.605 123.035 267.059 122.629 266.527 122.41 c 267.105
 121.973 267.293 121.566 267.293 121.082 c 267.293 120.566 266.871 119.895
 265.902 119.895 c 265.199 119.895 264.527 120.285 264.23 121.254 c 264.371
 121.285 l 264.559 120.926 264.918 120.473 265.574 120.473 c 266.215 120.473
 266.59 120.91 266.59 121.41 c 266.59 122.113 266.043 122.613 265.23 122.801
 c 265.215 122.988 l 266.605 122.926 266.949 123.832 266.949 124.395 c 266.949
 125.066 266.465 125.676 265.824 125.676 c 265.246 125.676 264.996 125.176
 264.512 125.176 c 264.355 125.176 264.168 125.332 264.168 125.535 c 264.168
 125.91 264.73 126.02 265.137 126.02 c 266.559 126.02 267.605 125.207 267.605
 123.973 c h
267.605 123.973 m f
286.926 124.426 m 286.926 123.816 l 286.051 123.816 l 286.051 119.895 l
 285.613 119.895 l 283.02 123.801 l 283.02 124.426 l 285.316 124.426 l 285.316
 125.91 l 286.051 125.91 l 286.051 124.426 l h
285.316 123.816 m 283.379 123.816 l 285.301 120.832 l 285.316 120.832 l
 h
285.316 123.816 m f
305.688 119.988 m 303.219 119.988 l 302.109 122.535 l 302.25 122.504 302.391
 122.473 302.562 122.473 c 303.516 122.473 304.812 122.973 304.812 124.145
 c 304.812 125.051 304.156 125.629 303.531 125.629 c 302.984 125.629 302.781
 125.129 302.266 125.129 c 302.016 125.129 301.938 125.348 301.938 125.457
 c 301.938 125.77 302.375 126.02 303 126.02 c 304.344 126.02 305.406 125.035
 305.406 123.832 c 305.406 122.41 304.281 121.926 303.062 121.895 c 302.953
 121.895 302.828 121.91 302.719 121.926 c 303.281 120.66 l 305.375 120.645
 l h
305.688 119.988 m f
324.664 123.895 m 324.664 122.91 323.961 122.176 323.07 122.176 c 322.617
 122.176 322.242 122.316 321.852 122.629 c 322.242 121.035 323.414 120.035
 324.539 120.02 c 324.539 119.863 l 321.773 119.863 320.898 122.207 320.898
 123.535 c 320.898 124.957 321.727 126.02 322.836 126.02 c 323.852 126.02
 324.664 125.066 324.664 123.895 c h
323.898 124.348 m 323.898 125.176 323.523 125.754 322.93 125.754 c 322.008
 125.754 321.727 124.41 321.727 123.691 c 321.727 123.457 321.758 123.207
 321.805 122.91 c 322.195 122.66 322.508 122.551 322.82 122.551 c 323.727
 122.551 323.898 123.598 323.898 124.348 c h
323.898 124.348 m f
198.711 116.477 m 198.711 114.867 197.977 113.414 196.727 113.414 c 195.461
 113.414 194.727 114.867 194.727 116.477 c 194.727 118.102 195.414 119.539
 196.727 119.539 c 197.93 119.539 198.711 118.102 198.711 116.477 c h
197.852 116.477 m 197.852 117.773 197.727 119.289 196.727 119.289 c 195.773
 119.289 195.586 117.773 195.586 116.477 c 195.586 115.398 195.711 113.648
 196.727 113.648 c 197.727 113.648 197.852 115.398 197.852 116.477 c h
197.852 116.477 m f
200.637 119.055 m 200.637 118.773 200.418 118.555 200.137 118.555 c 199.855
 118.555 199.637 118.773 199.637 119.055 c 199.637 119.336 199.855 119.555
 200.137 119.555 c 200.418 119.555 200.637 119.336 200.637 119.055 c h
200.637 119.055 m f
205.504 117.414 m 205.504 116.43 204.801 115.695 203.91 115.695 c 203.457
 115.695 203.082 115.836 202.691 116.148 c 203.082 114.555 204.254 113.555
 205.379 113.539 c 205.379 113.383 l 202.613 113.383 201.738 115.727 201.738
 117.055 c 201.738 118.477 202.566 119.539 203.676 119.539 c 204.691 119.539
 205.504 118.586 205.504 117.414 c h
204.738 117.867 m 204.738 118.695 204.363 119.273 203.77 119.273 c 202.848
 119.273 202.566 117.93 202.566 117.211 c 202.566 116.977 202.598 116.727
 202.645 116.43 c 203.035 116.18 203.348 116.07 203.66 116.07 c 204.566 
116.07 204.738 117.117 204.738 117.867 c h
204.738 117.867 m f
198.711 97.637 m 198.711 96.027 197.977 94.574 196.727 94.574 c 195.461
 94.574 194.727 96.027 194.727 97.637 c 194.727 99.262 195.414 100.699 196.727
 100.699 c 197.93 100.699 198.711 99.262 198.711 97.637 c h
197.852 97.637 m 197.852 98.934 197.727 100.449 196.727 100.449 c 195.773
 100.449 195.586 98.934 195.586 97.637 c 195.586 96.559 195.711 94.809 196.727
 94.809 c 197.727 94.809 197.852 96.559 197.852 97.637 c h
197.852 97.637 m f
200.637 100.215 m 200.637 99.934 200.418 99.715 200.137 99.715 c 199.855
 99.715 199.637 99.934 199.637 100.215 c 199.637 100.496 199.855 100.715
 200.137 100.715 c 200.418 100.715 200.637 100.496 200.637 100.215 c h
200.637 100.215 m f
205.426 94.668 m 202.145 94.668 l 201.598 95.996 l 201.754 95.996 l 202.066
 95.512 202.301 95.34 202.816 95.34 c 204.707 95.34 l 202.91 100.699 l 203.457
 100.699 l h
205.426 94.668 m f
198.711 78.676 m 198.711 77.066 197.977 75.613 196.727 75.613 c 195.461
 75.613 194.727 77.066 194.727 78.676 c 194.727 80.301 195.414 81.738 196.727
 81.738 c 197.93 81.738 198.711 80.301 198.711 78.676 c h
197.852 78.676 m 197.852 79.973 197.727 81.488 196.727 81.488 c 195.773
 81.488 195.586 79.973 195.586 78.676 c 195.586 77.598 195.711 75.848 196.727
 75.848 c 197.727 75.848 197.852 77.598 197.852 78.676 c h
197.852 78.676 m f
200.637 81.254 m 200.637 80.973 200.418 80.754 200.137 80.754 c 199.855
 80.754 199.637 80.973 199.637 81.254 c 199.637 81.535 199.855 81.754 200.137
 81.754 c 200.418 81.754 200.637 81.535 200.637 81.254 c h
200.637 81.254 m f
205.285 80.254 m 205.285 79.613 205.004 79.129 203.91 78.316 c 204.598 
77.941 205.129 77.52 205.129 76.863 c 205.129 76.176 204.488 75.582 203.535
 75.582 c 202.691 75.582 201.895 76.129 201.895 76.973 c 201.895 77.629 
202.238 78.02 203.004 78.629 c 202.145 79.285 201.832 79.613 201.832 80.285
 c 201.832 81.035 202.504 81.738 203.551 81.738 c 204.77 81.738 205.285 
80.91 205.285 80.254 c h
204.52 76.848 m 204.52 77.488 204.145 77.832 203.66 78.16 c 203.066 77.738
 202.551 77.27 202.551 76.754 c 202.551 76.27 202.895 75.848 203.504 75.848
 c 204.176 75.848 204.52 76.27 204.52 76.848 c h
204.645 80.504 m 204.645 81.082 204.207 81.473 203.629 81.473 c 202.941
 81.473 202.504 80.926 202.504 80.191 c 202.504 79.52 202.832 79.129 203.238
 78.785 c 204.223 79.535 204.645 79.91 204.645 80.504 c h
204.645 80.504 m f
198.711 59.836 m 198.711 58.227 197.977 56.773 196.727 56.773 c 195.461
 56.773 194.727 58.227 194.727 59.836 c 194.727 61.461 195.414 62.898 196.727
 62.898 c 197.93 62.898 198.711 61.461 198.711 59.836 c h
197.852 59.836 m 197.852 61.133 197.727 62.648 196.727 62.648 c 195.773
 62.648 195.586 61.133 195.586 59.836 c 195.586 58.758 195.711 57.008 196.727
 57.008 c 197.727 57.008 197.852 58.758 197.852 59.836 c h
197.852 59.836 m f
200.637 62.414 m 200.637 62.133 200.418 61.914 200.137 61.914 c 199.855
 61.914 199.637 62.133 199.637 62.414 c 199.637 62.695 199.855 62.914 200.137
 62.914 c 200.418 62.914 200.637 62.695 200.637 62.414 c h
200.637 62.414 m f
205.66 59.211 m 205.66 57.805 204.816 56.742 203.723 56.742 c 202.707 56.742
 201.895 57.68 201.895 58.852 c 201.895 59.852 202.598 60.57 203.473 60.57
 c 203.941 60.57 204.316 60.43 204.691 60.117 c 204.426 61.773 203.145 62.711
 202.02 62.727 c 202.02 62.898 l 204.785 62.898 205.66 60.539 205.66 59.211
 c h
204.816 59.07 m 204.816 59.305 204.801 59.539 204.754 59.836 c 204.363 
60.102 204.051 60.195 203.738 60.195 c 202.816 60.195 202.66 59.164 202.66
 58.398 c 202.66 57.586 203.035 57.008 203.629 57.008 c 204.551 57.008 204.816
 58.352 204.816 59.07 c h
204.816 59.07 m f
197.961 43.828 m 197.961 43.688 l 197.367 43.688 197.148 43.703 197.148
 42.531 c 197.148 42.516 197.148 37.781 197.148 37.781 c 197.023 37.781 
l 195.492 38.516 l 195.539 38.656 l 195.867 38.516 195.945 38.484 196.07
 38.484 c 196.336 38.484 196.383 38.719 196.383 39.031 c 196.383 42.531 
l 196.383 43.703 196.164 43.672 195.57 43.688 c 195.57 43.828 l h
197.961 43.828 m f
200.637 43.453 m 200.637 43.172 200.418 42.953 200.137 42.953 c 199.855
 42.953 199.637 43.172 199.637 43.453 c 199.637 43.734 199.855 43.953 200.137
 43.953 c 200.418 43.953 200.637 43.734 200.637 43.453 c h
200.637 43.453 m f
205.551 40.875 m 205.551 39.266 204.816 37.812 203.566 37.812 c 202.301
 37.812 201.566 39.266 201.566 40.875 c 201.566 42.5 202.254 43.938 203.566
 43.938 c 204.77 43.938 205.551 42.5 205.551 40.875 c h
204.691 40.875 m 204.691 42.172 204.566 43.688 203.566 43.688 c 202.613
 43.688 202.426 42.172 202.426 40.875 c 202.426 39.797 202.551 38.047 203.566
 38.047 c 204.566 38.047 204.691 39.797 204.691 40.875 c h
204.691 40.875 m f
197.961 24.988 m 197.961 24.848 l 197.367 24.848 197.148 24.863 197.148
 23.691 c 197.148 23.676 197.148 18.941 197.148 18.941 c 197.023 18.941 
l 195.492 19.676 l 195.539 19.816 l 195.867 19.676 195.945 19.645 196.07
 19.645 c 196.336 19.645 196.383 19.879 196.383 20.191 c 196.383 23.691 
l 196.383 24.863 196.164 24.832 195.57 24.848 c 195.57 24.988 l h
197.961 24.988 m f
200.637 24.613 m 200.637 24.332 200.418 24.113 200.137 24.113 c 199.855
 24.113 199.637 24.332 199.637 24.613 c 199.637 24.895 199.855 25.113 200.137
 25.113 c 200.418 25.113 200.637 24.895 200.637 24.613 c h
200.637 24.613 m f
204.801 24.988 m 204.801 24.848 l 204.207 24.848 203.988 24.863 203.988
 23.691 c 203.988 23.676 203.988 18.941 203.988 18.941 c 203.863 18.941 
l 202.332 19.676 l 202.379 19.816 l 202.707 19.676 202.785 19.645 202.91
 19.645 c 203.176 19.645 203.223 19.879 203.223 20.191 c 203.223 23.691 
l 203.223 24.863 203.004 24.832 202.41 24.848 c 202.41 24.988 l h
204.801 24.988 m f
197.961 6.047 m 197.961 5.906 l 197.367 5.906 197.148 5.922 197.148 4.75
 c 197.148 4.734 197.148 0 197.148 0 c 197.023 0 l 195.492 0.734 l 195.539
 0.875 l 195.867 0.734 195.945 0.703 196.07 0.703 c 196.336 0.703 196.383
 0.938 196.383 1.25 c 196.383 4.75 l 196.383 5.922 196.164 5.891 195.57 
5.906 c 195.57 6.047 l h
197.961 6.047 m f
200.637 5.672 m 200.637 5.391 200.418 5.172 200.137 5.172 c 199.855 5.172
 199.637 5.391 199.637 5.672 c 199.637 5.953 199.855 6.172 200.137 6.172
 c 200.418 6.172 200.637 5.953 200.637 5.672 c h
200.637 5.672 m f
205.582 4.891 m 205.426 4.859 l 205.16 5.312 204.941 5.391 204.504 5.391
 c 202.441 5.391 l 203.863 4.094 205.16 2.922 205.16 1.609 c 205.16 0.688
 204.363 0.031 203.488 0.031 c 202.629 0.031 201.941 0.5 201.676 1.719 c
 201.879 1.719 l 202.129 1.219 202.473 0.703 203.16 0.703 c 203.941 0.703
 204.379 1.297 204.379 1.969 c 204.379 2.938 203.348 4.359 201.582 5.906
 c 201.582 6.047 l 205.113 6.047 l h
205.582 4.891 m f
246.777 138.555 m 246.652 138.461 l 246.465 138.695 246.137 139.133 245.949
 139.133 c 245.871 139.133 245.824 139.086 245.824 138.977 c 245.824 138.883
 245.902 138.664 245.949 138.492 c 245.949 138.492 246.48 136.539 246.48
 136.492 c 246.543 136.305 246.574 136.117 246.574 135.992 c 246.574 135.539
 246.293 135.383 246.074 135.383 c 245.34 135.383 244.512 136.352 243.934
 137.383 c 243.934 137.383 244.262 136.336 244.262 135.977 c 244.262 135.742
 244.168 135.383 243.746 135.383 c 242.918 135.383 241.887 136.977 241.668
 137.383 c 242.199 135.383 l 242.199 135.383 240.98 135.617 240.715 135.633
 c 240.715 135.789 l 241.043 135.789 241.309 135.758 241.309 136.117 c 241.309
 136.289 241.23 136.57 241.152 136.852 c 241.152 136.852 240.434 139.242
 240.387 139.477 c 241.074 139.477 l 241.23 138.883 l 241.746 136.945 242.996
 135.883 243.34 135.883 c 243.48 135.883 243.574 135.93 243.574 136.133 
c 243.574 136.273 243.465 136.68 243.402 136.945 c 243.402 136.945 242.777
 139.164 242.699 139.477 c 243.371 139.477 l 243.527 138.883 l 244.074 136.867
 245.293 135.883 245.652 135.883 c 245.777 135.883 245.871 135.977 245.871
 136.117 c 245.871 136.211 245.777 136.617 245.684 136.945 c 245.324 138.289
 l 245.23 138.617 245.152 139.023 245.152 139.164 c 245.152 139.398 245.277
 139.586 245.48 139.586 c 245.934 139.586 246.418 139.07 246.777 138.555
 c h
246.777 138.555 m f
247.602 137.273 m 248.18 137.305 248.258 137.383 248.258 137.898 c 248.258
 140.992 l 248.258 141.523 248.164 141.602 247.602 141.633 c 247.602 141.758
 l 249.93 141.758 l 250.461 141.758 250.961 141.617 251.227 141.367 c 251.477
 141.148 251.602 140.836 251.602 140.508 c 251.602 140.195 251.492 139.914
 251.273 139.711 c 251.055 139.523 250.867 139.445 250.414 139.336 c 250.773
 139.242 250.93 139.18 251.086 139.023 c 251.273 138.867 251.367 138.617
 251.367 138.336 c 251.367 137.555 250.742 137.148 249.539 137.148 c 247.602
 137.148 l h
248.977 139.492 m 249.648 139.492 249.977 139.523 250.227 139.633 c 250.617
 139.789 250.805 140.086 250.805 140.508 c 250.805 140.883 250.664 141.164
 250.383 141.32 c 250.164 141.445 249.867 141.492 249.414 141.492 c 249.07
 141.492 248.977 141.43 248.977 141.211 c h
248.977 139.211 m 248.977 137.617 l 248.977 137.461 249.008 137.414 249.133
 137.414 c 249.43 137.398 l 250.211 137.383 250.664 137.742 250.664 138.352
 c 250.664 138.914 250.305 139.195 249.633 139.211 c h
248.977 139.211 m f
256.543 133.039 m 256.105 133.039 l 252.996 141.398 l 253.449 141.398 l
 h
256.543 133.039 m f
257.219 139.477 m 259.219 139.477 l 259.219 139.336 l 258.75 139.336 258.609
 139.242 258.609 138.883 c 258.609 136.352 l 258.609 136.336 258.672 136.242
 258.734 136.18 c 258.969 135.977 259.344 135.82 259.656 135.82 c 260.062
 135.82 260.25 136.133 260.25 136.758 c 260.25 138.711 l 260.234 139.211
 260.141 139.32 259.641 139.336 c 259.641 139.477 l 261.656 139.477 l 261.656
 139.336 l 261.156 139.336 261.031 139.195 261 138.617 c 261 136.367 l 261.281
 135.977 261.562 135.82 261.984 135.82 c 262.5 135.82 262.656 136.055 262.656
 136.805 c 262.656 138.695 l 262.641 139.227 262.578 139.289 262.062 139.336
 c 262.062 139.477 l 264.031 139.477 l 264.031 139.336 l 263.797 139.32 
l 263.516 139.273 263.406 139.148 263.406 138.789 c 263.406 136.945 l 263.406
 135.883 263.062 135.352 262.375 135.352 c 261.844 135.352 261.391 135.586
 260.906 136.102 c 260.75 135.586 260.438 135.352 259.953 135.352 c 259.547
 135.352 259.312 135.461 258.562 136.039 c 258.562 135.367 l 258.5 135.352
 l 258.031 135.523 257.719 135.617 257.25 135.758 c 257.25 135.914 l 257.359
 135.883 257.438 135.867 257.531 135.867 c 257.766 135.867 257.844 136.008
 257.844 136.445 c 257.844 138.711 l 257.828 139.211 257.719 139.336 257.219
 139.336 c h
257.219 139.477 m f
266.289 135.352 m 265.102 135.352 264.305 136.211 264.305 137.445 c 264.305
 138.664 265.133 139.57 266.258 139.57 c 267.398 139.57 268.258 138.617 
268.258 137.383 c 268.258 136.195 267.43 135.352 266.289 135.352 c h
266.164 135.602 m 266.914 135.602 267.445 136.461 267.445 137.695 c 267.445
 138.711 267.039 139.32 266.367 139.32 c 266.023 139.32 265.695 139.102 
265.508 138.742 c 265.242 138.273 265.102 137.648 265.102 137.008 c 265.102
 136.164 265.523 135.602 266.164 135.602 c h
266.164 135.602 m f
268.664 139.477 m 270.789 139.477 l 270.789 139.336 l 270.211 139.32 270.117
 139.227 270.102 138.727 c 270.102 133.367 l 270.07 133.352 l 269.617 133.492
 269.289 133.586 268.648 133.742 c 268.648 133.883 l 268.695 133.883 l 268.805
 133.883 268.914 133.867 268.977 133.867 c 269.273 133.867 269.352 133.992
 269.352 134.414 c 269.352 138.695 l 269.352 139.18 269.227 139.305 268.664
 139.336 c h
268.664 139.477 m f
272.621 139.477 m 274.715 139.477 l 274.715 139.336 l 274.543 139.336 l
 274.168 139.305 274.059 139.211 274.043 138.883 c 274.043 137.227 l 275.309
 138.898 l 275.34 138.945 275.371 138.992 275.387 139.023 c 275.465 139.102
 275.496 139.164 275.496 139.211 c 275.496 139.289 275.418 139.336 275.309
 139.336 c 275.137 139.336 l 275.137 139.477 l 277.09 139.477 l 277.09 139.336
 l 276.699 139.32 276.418 139.148 276.043 138.68 c 274.668 136.945 l 274.934
 136.711 l 276.043 135.695 276.293 135.555 276.871 135.57 c 276.871 135.445
 l 275.027 135.445 l 275.027 135.57 l 275.387 135.57 275.48 135.617 275.48
 135.727 c 275.48 135.805 275.402 135.93 275.277 136.039 c 274.043 137.133
 l 274.043 133.367 l 274.012 133.352 l 273.668 133.461 273.402 133.539 272.887
 133.68 c 272.621 133.742 l 272.621 133.883 l 272.73 133.883 272.824 133.867
 272.902 133.867 c 273.215 133.867 273.293 133.992 273.293 134.414 c 273.293
 138.742 l 273.277 139.211 273.262 139.242 272.621 139.336 c h
272.621 139.477 m f
281.219 135.992 m 281.219 135.648 l 280.531 135.648 l 280.344 135.648 280.203
 135.617 280.031 135.555 c 279.828 135.492 l 279.594 135.398 279.344 135.352
 279.109 135.352 c 278.281 135.352 277.625 135.992 277.625 136.82 c 277.625
 137.383 277.859 137.711 278.453 138.008 c 278.219 138.227 l 278.031 138.414
 277.922 138.508 277.891 138.539 c 277.703 138.742 277.656 138.836 277.656
 138.992 c 277.656 139.195 277.75 139.289 278.125 139.461 c 277.484 139.93
 277.25 140.227 277.25 140.555 c 277.25 141.039 277.938 141.43 278.797 141.43
 c 279.469 141.43 280.172 141.195 280.641 140.82 c 280.984 140.539 281.141
 140.258 281.141 139.914 c 281.141 139.367 280.719 138.992 280.047 138.961
 c 278.891 138.898 l 278.406 138.883 278.188 138.805 278.188 138.664 c 278.188
 138.477 278.484 138.164 278.734 138.102 c 279.047 138.117 279.219 138.133
 279.25 138.133 c 279.578 138.133 279.938 138.008 280.203 137.758 c 280.5
 137.508 280.641 137.195 280.641 136.758 c 280.641 136.492 280.594 136.289
 280.469 135.992 c h
278.312 139.492 m 278.625 139.555 279.328 139.617 279.781 139.617 c 280.594
 139.617 280.891 139.727 280.891 140.055 c 280.891 140.57 280.203 140.914
 279.188 140.914 c 278.391 140.914 277.875 140.664 277.875 140.273 c 277.875
 140.055 277.953 139.93 278.312 139.492 c h
278.359 136.445 m 278.359 135.914 278.609 135.602 279.031 135.602 c 279.312
 135.602 279.531 135.758 279.688 136.023 c 279.859 136.336 279.953 136.742
 279.953 137.102 c 279.953 137.602 279.703 137.914 279.281 137.914 c 278.734
 137.914 278.359 137.336 278.359 136.477 c h
278.359 136.445 m f
281.859 134.004 4.703 0.438 re f
290.113 136.238 m 290.113 136.051 l 289.582 136.051 289.41 136.051 289.41
 135.207 c 289.41 135.191 289.41 131.535 289.41 131.535 c 289.238 131.535
 l 287.895 132.113 l 287.973 132.301 l 288.285 132.176 288.348 132.16 288.441
 132.16 c 288.645 132.16 288.66 132.332 288.66 132.535 c 288.66 135.207 
l 288.66 136.051 288.504 136.035 287.973 136.051 c 287.973 136.238 l h
290.113 136.238 m f
263.32 149.133 m 262.664 149.57 262.398 149.789 262.055 150.211 c 261.43
 150.992 261.117 151.883 261.117 152.93 c 261.117 154.086 261.445 154.961
 262.227 155.867 c 262.602 156.305 262.836 156.492 263.305 156.789 c 263.398
 156.633 l 262.695 156.07 262.445 155.758 262.195 155.086 c 261.977 154.492
 261.883 153.82 261.883 152.914 c 261.883 151.961 261.992 151.227 262.242
 150.68 c 262.492 150.117 262.758 149.789 263.398 149.273 c h
263.32 149.133 m f
265.055 149.086 m 265.008 149.07 l 264.633 149.195 264.398 149.273 263.961
 149.398 c 263.711 149.461 l 263.711 149.602 l 263.758 149.602 263.789 149.602
 263.852 149.602 c 264.211 149.602 264.305 149.68 264.305 150.055 c 264.305
 154.711 l 264.305 154.992 265.055 155.289 265.773 155.289 c 266.961 155.289
 267.883 154.305 267.883 153.023 c 267.883 151.898 267.195 151.07 266.305
 151.07 c 265.758 151.07 265.227 151.383 265.055 151.836 c h
265.055 152.305 m 265.055 151.961 265.477 151.633 265.945 151.633 c 266.195
 151.633 266.414 151.727 266.602 151.898 c 266.883 152.18 267.086 152.789
 267.086 153.43 c 267.086 154.43 266.664 154.992 265.93 154.992 c 265.461
 154.992 265.055 154.805 265.055 154.57 c h
265.055 152.305 m f
268.461 156.789 m 269.117 156.336 269.398 156.117 269.727 155.711 c 270.367
 154.93 270.68 154.023 270.68 152.977 c 270.68 151.836 270.336 150.961 269.555
 150.055 c 269.18 149.617 268.945 149.414 268.492 149.133 c 268.383 149.273
 l 269.102 149.836 269.336 150.148 269.586 150.82 c 269.805 151.43 269.898
 152.102 269.898 153.008 c 269.898 153.945 269.789 154.68 269.539 155.227
 c 269.305 155.789 269.023 156.117 268.383 156.633 c h
268.461 156.789 m f
183.391 60.738 m 183.156 60.738 183.031 60.926 183.031 61.098 c 183.031
 61.207 183.078 61.316 183.188 61.395 c 183.359 61.488 183.531 61.441 183.828
 61.52 c 184.562 61.691 185.344 62.27 186.656 63.27 c 186.422 63.254 185.656
 63.16 184.891 63.16 c 183.969 63.16 183.031 63.301 183.031 63.941 c 183.031
 64.582 183.625 64.785 183.906 64.785 c 184 64.785 184.094 64.754 184.141
 64.723 c 184.141 64.645 l 183.984 64.598 183.594 64.457 183.594 64.145 
c 183.594 63.816 184.359 63.598 185.141 63.598 c 186.266 63.613 186.719 
63.66 187.078 63.691 c 187.438 63.957 188.109 64.52 188.672 64.52 c 188.906
 64.52 189.047 64.426 189.047 64.207 c 189.047 63.52 187.594 63.363 187.078
 63.332 c 186.703 62.973 184.953 61.395 183.953 60.879 c 183.719 60.754 
183.562 60.738 183.391 60.738 c h
183.391 60.738 m f
189.406 55.117 m 188.969 55.117 l 188.969 57.445 l 187.078 57.445 l 187.078
 55.117 l 186.641 55.117 l 186.641 57.445 l 184.312 57.445 l 184.312 57.867
 l 186.641 57.867 l 186.641 60.195 l 187.078 60.195 l 187.078 57.867 l 188.969
 57.867 l 188.969 60.195 l 189.406 60.195 l h
189.406 55.117 m f
1.13366 w
q 1 0 0 -1 0 0 cm
209.238 -40.852 m 209.238 -40.852 208.996 -68.41 211.133 -82.715 c 211.52
 -85.344 212.184 -87.621 213.027 -90.113 c 213.551 -91.793 214.008 -93.371
 214.918 -94.879 c 215.938 -96.703 217.059 -98.352 218.672 -99.648 c 221.512
 -101.855 224.633 -103.293 228.137 -103.996 c 231.328 -104.625 234.379 -104.137
 237.605 -103.68 c 240.934 -103.188 243.879 -102.383 247.035 -101.262 c 
253.836 -98.773 259.727 -95.863 265.969 -92.18 c 272.84 -88.148 278.625 
-83.836 284.867 -78.855 c 291.738 -73.316 297.559 -67.918 303.762 -61.641
 c 310.672 -54.664 322.66 -40.43 322.66 -40.43 c S Q
1 g
211.363 40.84 m 211.363 39.664 210.41 38.711 209.234 38.711 c 208.059 38.711
 207.105 39.664 207.105 40.84 c 207.105 42.016 208.059 42.969 209.234 42.969
 c 210.41 42.969 211.363 42.016 211.363 40.84 c f
0 g
211.363 40.84 m 211.363 39.664 210.41 38.711 209.234 38.711 c 208.059 38.711
 207.105 39.664 207.105 40.84 c 207.105 42.016 208.059 42.969 209.234 42.969
 c 210.41 42.969 211.363 42.016 211.363 40.84 c h
211.363 40.84 m 211.152 40.84 l 211.152 39.781 210.293 38.922 209.234 38.922
 c 208.176 38.922 207.316 39.781 207.316 40.84 c 207.316 41.898 208.176 
42.758 209.234 42.758 c 210.293 42.758 211.152 41.898 211.152 40.84 c f
1 g
213.254 82.719 m 213.254 81.543 212.301 80.59 211.125 80.59 c 209.949 80.59
 208.996 81.543 208.996 82.719 c 208.996 83.895 209.949 84.848 211.125 84.848
 c 212.301 84.848 213.254 83.895 213.254 82.719 c f
0 g
213.254 82.719 m 213.254 81.543 212.301 80.59 211.125 80.59 c 209.949 80.59
 208.996 81.543 208.996 82.719 c 208.996 83.895 209.949 84.848 211.125 84.848
 c 212.301 84.848 213.254 83.895 213.254 82.719 c h
213.254 82.719 m 213.043 82.719 l 213.043 81.66 212.184 80.801 211.125 
80.801 c 210.066 80.801 209.207 81.66 209.207 82.719 c 209.207 83.777 210.066
 84.637 211.125 84.637 c 212.184 84.637 213.043 83.777 213.043 82.719 c f
1 g
215.145 90.109 m 215.145 88.934 214.191 87.98 213.016 87.98 c 211.84 87.98
 210.887 88.934 210.887 90.109 c 210.887 91.285 211.84 92.238 213.016 92.238
 c 214.191 92.238 215.145 91.285 215.145 90.109 c f
0 g
215.145 90.109 m 215.145 88.934 214.191 87.98 213.016 87.98 c 211.84 87.98
 210.887 88.934 210.887 90.109 c 210.887 91.285 211.84 92.238 213.016 92.238
 c 214.191 92.238 215.145 91.285 215.145 90.109 c h
215.145 90.109 m 214.934 90.109 l 214.934 89.051 214.074 88.191 213.016
 88.191 c 211.957 88.191 211.098 89.051 211.098 90.109 c 211.098 91.168 
211.957 92.027 213.016 92.027 c 214.074 92.027 214.934 91.168 214.934 90.109
 c f
1 g
217.035 94.891 m 217.035 93.715 216.082 92.762 214.906 92.762 c 213.73 
92.762 212.777 93.715 212.777 94.891 c 212.777 96.066 213.73 97.02 214.906
 97.02 c 216.082 97.02 217.035 96.066 217.035 94.891 c f
0 g
217.035 94.891 m 217.035 93.715 216.082 92.762 214.906 92.762 c 213.73 
92.762 212.777 93.715 212.777 94.891 c 212.777 96.066 213.73 97.02 214.906
 97.02 c 216.082 97.02 217.035 96.066 217.035 94.891 c h
217.035 94.891 m 216.824 94.891 l 216.824 93.832 215.965 92.973 214.906
 92.973 c 213.848 92.973 212.988 93.832 212.988 94.891 c 212.988 95.949 
213.848 96.809 214.906 96.809 c 215.965 96.809 216.824 95.949 216.824 94.891
 c f
1 g
220.816 99.641 m 220.816 98.465 219.863 97.512 218.688 97.512 c 217.512
 97.512 216.559 98.465 216.559 99.641 c 216.559 100.816 217.512 101.77 218.688
 101.77 c 219.863 101.77 220.816 100.816 220.816 99.641 c f
0 g
220.816 99.641 m 220.816 98.465 219.863 97.512 218.688 97.512 c 217.512
 97.512 216.559 98.465 216.559 99.641 c 216.559 100.816 217.512 101.77 218.688
 101.77 c 219.863 101.77 220.816 100.816 220.816 99.641 c h
220.816 99.641 m 220.605 99.641 l 220.605 98.582 219.746 97.723 218.688
 97.723 c 217.629 97.723 216.77 98.582 216.77 99.641 c 216.77 100.699 217.629
 101.559 218.688 101.559 c 219.746 101.559 220.605 100.699 220.605 99.641
 c f
1 g
230.273 103.98 m 230.273 102.805 229.32 101.852 228.145 101.852 c 226.969
 101.852 226.016 102.805 226.016 103.98 c 226.016 105.156 226.969 106.109
 228.145 106.109 c 229.32 106.109 230.273 105.156 230.273 103.98 c f
0 g
230.273 103.98 m 230.273 102.805 229.32 101.852 228.145 101.852 c 226.969
 101.852 226.016 102.805 226.016 103.98 c 226.016 105.156 226.969 106.109
 228.145 106.109 c 229.32 106.109 230.273 105.156 230.273 103.98 c h
230.273 103.98 m 230.062 103.98 l 230.062 102.922 229.203 102.062 228.145
 102.062 c 227.086 102.062 226.227 102.922 226.227 103.98 c 226.227 105.039
 227.086 105.898 228.145 105.898 c 229.203 105.898 230.062 105.039 230.062
 103.98 c f
1 g
239.727 103.66 m 239.727 102.484 238.773 101.531 237.598 101.531 c 236.422
 101.531 235.469 102.484 235.469 103.66 c 235.469 104.836 236.422 105.789
 237.598 105.789 c 238.773 105.789 239.727 104.836 239.727 103.66 c f
0 g
239.727 103.66 m 239.727 102.484 238.773 101.531 237.598 101.531 c 236.422
 101.531 235.469 102.484 235.469 103.66 c 235.469 104.836 236.422 105.789
 237.598 105.789 c 238.773 105.789 239.727 104.836 239.727 103.66 c h
239.727 103.66 m 239.516 103.66 l 239.516 102.602 238.656 101.742 237.598
 101.742 c 236.539 101.742 235.68 102.602 235.68 103.66 c 235.68 104.719
 236.539 105.578 237.598 105.578 c 238.656 105.578 239.516 104.719 239.516
 103.66 c f
1 g
249.176 101.238 m 249.176 100.062 248.223 99.109 247.047 99.109 c 245.871
 99.109 244.918 100.062 244.918 101.238 c 244.918 102.414 245.871 103.367
 247.047 103.367 c 248.223 103.367 249.176 102.414 249.176 101.238 c f
0 g
249.176 101.238 m 249.176 100.062 248.223 99.109 247.047 99.109 c 245.871
 99.109 244.918 100.062 244.918 101.238 c 244.918 102.414 245.871 103.367
 247.047 103.367 c 248.223 103.367 249.176 102.414 249.176 101.238 c h
249.176 101.238 m 248.965 101.238 l 248.965 100.18 248.105 99.32 247.047
 99.32 c 245.988 99.32 245.129 100.18 245.129 101.238 c 245.129 102.297 
245.988 103.156 247.047 103.156 c 248.105 103.156 248.965 102.297 248.965
 101.238 c f
1 g
268.086 92.188 m 268.086 91.012 267.133 90.059 265.957 90.059 c 264.781
 90.059 263.828 91.012 263.828 92.188 c 263.828 93.363 264.781 94.316 265.957
 94.316 c 267.133 94.316 268.086 93.363 268.086 92.188 c f
0 g
268.086 92.188 m 268.086 91.012 267.133 90.059 265.957 90.059 c 264.781
 90.059 263.828 91.012 263.828 92.188 c 263.828 93.363 264.781 94.316 265.957
 94.316 c 267.133 94.316 268.086 93.363 268.086 92.188 c h
268.086 92.188 m 267.875 92.188 l 267.875 91.129 267.016 90.27 265.957 
90.27 c 264.898 90.27 264.039 91.129 264.039 92.188 c 264.039 93.246 264.898
 94.105 265.957 94.105 c 267.016 94.105 267.875 93.246 267.875 92.188 c f
1 g
286.996 78.848 m 286.996 77.672 286.043 76.719 284.867 76.719 c 283.691
 76.719 282.738 77.672 282.738 78.848 c 282.738 80.023 283.691 80.977 284.867
 80.977 c 286.043 80.977 286.996 80.023 286.996 78.848 c f
0 g
286.996 78.848 m 286.996 77.672 286.043 76.719 284.867 76.719 c 283.691
 76.719 282.738 77.672 282.738 78.848 c 282.738 80.023 283.691 80.977 284.867
 80.977 c 286.043 80.977 286.996 80.023 286.996 78.848 c h
286.996 78.848 m 286.785 78.848 l 286.785 77.789 285.926 76.93 284.867 
76.93 c 283.809 76.93 282.949 77.789 282.949 78.848 c 282.949 79.906 283.809
 80.766 284.867 80.766 c 285.926 80.766 286.785 79.906 286.785 78.848 c f
1 g
305.895 61.629 m 305.895 60.453 304.941 59.5 303.766 59.5 c 302.59 59.5
 301.637 60.453 301.637 61.629 c 301.637 62.805 302.59 63.758 303.766 63.758
 c 304.941 63.758 305.895 62.805 305.895 61.629 c f
0 g
305.895 61.629 m 305.895 60.453 304.941 59.5 303.766 59.5 c 302.59 59.5
 301.637 60.453 301.637 61.629 c 301.637 62.805 302.59 63.758 303.766 63.758
 c 304.941 63.758 305.895 62.805 305.895 61.629 c h
305.895 61.629 m 305.684 61.629 l 305.684 60.57 304.824 59.711 303.766 
59.711 c 302.707 59.711 301.848 60.57 301.848 61.629 c 301.848 62.688 302.707
 63.547 303.766 63.547 c 304.824 63.547 305.684 62.688 305.684 61.629 c f
1 g
324.805 40.43 m 324.805 39.254 323.852 38.301 322.676 38.301 c 321.5 38.301
 320.547 39.254 320.547 40.43 c 320.547 41.605 321.5 42.559 322.676 42.559
 c 323.852 42.559 324.805 41.605 324.805 40.43 c f
0 g
324.805 40.43 m 324.805 39.254 323.852 38.301 322.676 38.301 c 321.5 38.301
 320.547 39.254 320.547 40.43 c 320.547 41.605 321.5 42.559 322.676 42.559
 c 323.852 42.559 324.805 41.605 324.805 40.43 c h
324.805 40.43 m 324.594 40.43 l 324.594 39.371 323.734 38.512 322.676 38.512
 c 321.617 38.512 320.758 39.371 320.758 40.43 c 320.758 41.488 321.617 
42.348 322.676 42.348 c 323.734 42.348 324.594 41.488 324.594 40.43 c f
Q Q
showpage
%%Trailer
end
%%EOF
