%!PS-Adobe-3.0 EPSF-3.0
%%Creator: cairo 1.17.4 (https://cairographics.org)
%%CreationDate: Thu Feb 24 10:47:03 2022
%%Pages: 1
%%DocumentData: Clean7Bit
%%LanguageLevel: 2
%%BoundingBox: 0 0 199 198
%%EndComments
%%BeginProlog
50 dict begin
/q { gsave } bind def
/Q { grestore } bind def
/cm { 6 array astore concat } bind def
/w { setlinewidth } bind def
/J { setlinecap } bind def
/j { setlinejoin } bind def
/M { setmiterlimit } bind def
/d { setdash } bind def
/m { moveto } bind def
/l { lineto } bind def
/c { curveto } bind def
/h { closepath } bind def
/re { exch dup neg 3 1 roll 5 3 roll moveto 0 rlineto
      0 exch rlineto 0 rlineto closepath } bind def
/S { stroke } bind def
/f { fill } bind def
/f* { eofill } bind def
/n { newpath } bind def
/W { clip } bind def
/W* { eoclip } bind def
/BT { } bind def
/ET { } bind def
/BDC { mark 3 1 roll /BDC pdfmark } bind def
/EMC { mark /EMC pdfmark } bind def
/cairo_store_point { /cairo_point_y exch def /cairo_point_x exch def } def
/Tj { show currentpoint cairo_store_point } bind def
/TJ {
  {
    dup
    type /stringtype eq
    { show } { -0.001 mul 0 cairo_font_matrix dtransform rmoveto } ifelse
  } forall
  currentpoint cairo_store_point
} bind def
/cairo_selectfont { cairo_font_matrix aload pop pop pop 0 0 6 array astore
    cairo_font exch selectfont cairo_point_x cairo_point_y moveto } bind def
/Tf { pop /cairo_font exch def /cairo_font_matrix where
      { pop cairo_selectfont } if } bind def
/Td { matrix translate cairo_font_matrix matrix concatmatrix dup
      /cairo_font_matrix exch def dup 4 get exch 5 get cairo_store_point
      /cairo_font where { pop cairo_selectfont } if } bind def
/Tm { 2 copy 8 2 roll 6 array astore /cairo_font_matrix exch def
      cairo_store_point /cairo_font where { pop cairo_selectfont } if } bind def
/g { setgray } bind def
/rg { setrgbcolor } bind def
/d1 { setcachedevice } bind def
/cairo_data_source {
  CairoDataIndex CairoData length lt
    { CairoData CairoDataIndex get /CairoDataIndex CairoDataIndex 1 add def }
    { () } ifelse
} def
/cairo_flush_ascii85_file { cairo_ascii85_file status { cairo_ascii85_file flushfile } if } def
/cairo_image { image cairo_flush_ascii85_file } def
/cairo_imagemask { imagemask cairo_flush_ascii85_file } def
%%EndProlog
%%BeginSetup
%%EndSetup
%%Page: 1 1
%%BeginPageSetup
%%PageBoundingBox: 0 0 199 198
%%EndPageSetup
q 0 0 199 198 rectclip
1 0 0 -1 0 198 cm q
Q q
45.668 0 153.332 172.629 re W n
q
45 0 154 173 re W n
  q
0 g
0.850361 w
0 J
0 j
[] 0.0 d
10 M q 1 0 0 -1 0 0 cm
57.715 -3.012 m 57.715 -3.012 58.77 -11.082 59.414 -15.32 c 60.758 -24.105
 61.984 -31.996 63.668 -40.727 c 64.969 -47.473 66.262 -53.512 67.922 -60.18
 c 69.238 -65.477 70.539 -70.211 72.172 -75.422 c 73.504 -79.668 74.812 
-83.453 76.422 -87.602 c 77.773 -91.082 79.082 -94.176 80.676 -97.555 c 
82.035 -100.438 83.352 -102.984 84.926 -105.758 c 86.305 -108.184 87.621
 -110.316 89.18 -112.625 c 90.566 -114.684 91.891 -116.484 93.43 -118.43
 c 94.832 -120.199 96.152 -121.746 97.684 -123.406 c 99.094 -124.934 100.418
 -126.254 101.934 -127.676 c 103.355 -129.012 104.68 -130.164 106.188 -131.398
 c 107.617 -132.566 108.938 -133.574 110.438 -134.652 c 111.879 -135.684
 113.195 -136.574 114.691 -137.52 c 116.133 -138.438 117.457 -139.211 118.941
 -140.051 c 120.391 -140.867 121.707 -141.574 123.195 -142.324 c 124.645
 -143.059 125.969 -143.676 127.445 -144.348 c 128.902 -145.004 130.219 -145.57
 131.699 -146.172 c 133.156 -146.766 134.477 -147.27 135.949 -147.812 c 
137.41 -148.348 138.727 -148.809 140.203 -149.297 c 141.664 -149.785 142.98
 -150.191 144.453 -150.637 c 145.918 -151.082 147.234 -151.465 148.707 -151.871
 c 150.172 -152.277 151.488 -152.625 152.957 -153 c 154.422 -153.371 155.738
 -153.695 157.211 -154.039 c 158.676 -154.383 159.992 -154.68 161.465 -154.996
 c 162.926 -155.312 164.246 -155.578 165.715 -155.867 c 167.18 -156.156 
168.496 -156.406 169.969 -156.676 c 171.434 -156.949 172.75 -157.188 174.219
 -157.441 c 175.684 -157.695 177.004 -157.91 178.473 -158.145 c 179.938 
-158.375 181.254 -158.566 182.723 -158.781 c 184.188 -158.996 185.508 -159.195
 186.977 -159.398 c 188.441 -159.598 191.227 -159.949 191.227 -159.949 c
 S Q
  Q
Q
Q q
0 g
0.283298 w
0 J
0 j
[] 0.0 d
10 M q 1 0 0 -1 0 0 cm
31.523 -3.012 m 31.539 -3.223 l 31.582 -3.84 l 31.656 -4.812 l 31.691 -5.273
 l 31.777 -6.406 m 31.875 -7.672 l 31.953 -8.672 l 32.039 -9.805 m 32.168
 -11.48 l 32.215 -12.066 l 32.305 -13.199 m 32.336 -13.645 l 32.484 -15.465
 l 32.574 -16.598 m 32.707 -18.273 l 32.758 -18.859 l 32.852 -19.992 m 32.906
 -20.656 l 33.043 -22.254 l 33.141 -23.387 m 33.312 -25.375 l 33.34 -25.648
 l 33.438 -26.777 m 33.512 -27.617 l 33.648 -29.043 l 33.754 -30.172 m 33.855
 -31.199 l 33.902 -31.688 l 33.98 -32.43 l 34.098 -33.562 m 34.133 -33.934
 l 34.328 -35.82 l 34.441 -36.949 m 34.672 -39.211 l 34.789 -40.34 m 34.82
 -40.66 l 35.031 -42.598 l 35.152 -43.727 m 35.398 -45.984 l 35.52 -47.113
 m 35.762 -49.371 l 35.902 -50.496 m 36.184 -52.75 l 36.324 -53.879 m 36.602
 -56.133 l 36.742 -57.258 m 36.848 -58.117 l 37.047 -59.512 l 37.207 -60.633
 m 37.527 -62.883 l 37.688 -64.008 m 37.801 -64.816 l 38.031 -66.25 l 38.211
 -67.371 m 38.371 -68.398 l 38.582 -69.613 l 38.77 -70.73 m 39.062 -72.441
 l 39.164 -72.969 l 39.371 -74.086 m 39.789 -76.316 l 40 -77.434 m 40.047
 -77.688 l 40.461 -79.656 l 40.695 -80.77 m 41.145 -82.906 l 41.164 -82.992
 l 41.422 -84.098 m 41.934 -86.309 l 42.199 -87.414 m 42.633 -89.148 l 42.758
 -89.613 l 43.051 -90.711 m 43.352 -91.855 l 43.652 -92.902 l 43.961 -93.992
 m 44.352 -95.363 l 44.605 -96.172 l 44.945 -97.258 m 45.441 -98.844 l 45.637
 -99.418 l 46.004 -100.492 m 46.344 -101.5 l 46.66 -102.379 l 46.754 -102.637
 l 47.148 -103.703 m 47.633 -104.98 l 47.973 -105.816 l 48.398 -106.871 
m 48.645 -107.488 l 49.289 -108.961 l 49.742 -110 m 50.605 -111.855 l 50.707
 -112.059 l 51.207 -113.074 m 51.906 -114.445 l 52.258 -115.09 l 52.797 
-116.09 m 52.926 -116.336 l 53.93 -118.059 l 54.52 -119.027 m 54.867 -119.602
 l 55.164 -120.066 l 55.5 -120.594 l 55.742 -120.941 l 56.387 -121.879 m
 57.203 -123.07 l 57.703 -123.727 l 58.391 -124.629 m 59.023 -125.469 l 
59.414 -125.957 l 59.762 -126.383 l 59.793 -126.414 l 60.535 -127.277 m 
61.477 -128.375 l 62.043 -128.973 l 62.82 -129.801 m 63.281 -130.289 l 63.668
 -130.676 l 64.016 -131.027 l 64.426 -131.406 l 65.25 -132.184 m 65.746 
-132.652 l 66.949 -133.691 l 67.812 -134.43 m 67.922 -134.523 l 68.273 -134.816
 l 69.594 -135.844 l 70.5 -136.523 m 71.793 -137.473 l 72.172 -137.734 l
 72.344 -137.852 l 73.285 -138.48 m 74.273 -139.133 l 75.199 -139.703 l 
76.168 -140.301 m 76.422 -140.453 l 76.781 -140.668 l 78.137 -141.434 l 
79.133 -141.977 m 80.305 -142.602 l 80.676 -142.793 l 81.035 -142.98 l 81.145
 -143.031 l 82.164 -143.531 m 82.785 -143.836 l 84.219 -144.492 l 85.254
 -144.961 m 85.289 -144.977 l 87.043 -145.723 l 87.348 -145.844 l 88.402
 -146.266 m 88.809 -146.434 l 89.18 -146.578 l 89.543 -146.719 l 90.52 -147.082
 l 91.586 -147.477 m 93.062 -148.004 l 93.43 -148.129 l 93.727 -148.23 l
 94.805 -148.59 m 95.551 -148.84 l 96.969 -149.285 l 98.051 -149.625 m 99.805
 -150.156 l 100.227 -150.277 l 101.316 -150.59 m 101.566 -150.664 l 102.301
 -150.867 l 103.508 -151.184 l 104.609 -151.469 m 105.82 -151.781 l 106.188
 -151.871 l 106.555 -151.965 l 106.812 -152.027 l 107.914 -152.297 m 108.309
 -152.395 l 110.07 -152.809 l 110.125 -152.82 l 111.23 -153.066 m 112.562
 -153.359 l 113.453 -153.543 l 114.562 -153.777 m 114.691 -153.805 l 115.059
 -153.883 l 116.789 -154.223 l 117.906 -154.438 m 118.574 -154.566 l 118.941
 -154.637 l 119.309 -154.703 l 120.137 -154.859 l 121.254 -155.066 m 122.828
 -155.359 l 123.488 -155.469 l 124.609 -155.66 m 125.32 -155.781 l 126.848
 -156.027 l 127.969 -156.207 m 129.57 -156.461 l 130.215 -156.559 l 131.336
 -156.73 m 131.699 -156.781 l 132.066 -156.836 l 133.586 -157.051 l 134.711
 -157.207 m 135.582 -157.328 l 135.949 -157.379 l 136.316 -157.426 l 136.961
 -157.508 l 138.086 -157.656 m 139.836 -157.883 l 140.34 -157.945 l 141.465
 -158.09 m 142.328 -158.199 l 143.719 -158.371 l 144.848 -158.508 m 146.578
 -158.711 l 147.102 -158.77 l 148.23 -158.895 m 148.34 -158.91 l 148.707
 -158.949 l 149.074 -158.992 l 150.488 -159.141 l 151.617 -159.258 m 152.594
 -159.359 l 152.957 -159.398 l 153.324 -159.438 l 153.879 -159.492 l 155.008
 -159.605 m 155.082 -159.613 l 156.844 -159.785 l 157.211 -159.824 l 157.266
 -159.828 l 158.398 -159.938 m 159.336 -160.027 l 160.66 -160.148 l 161.789
 -160.258 m 161.828 -160.262 l 163.59 -160.422 l 164.051 -160.461 l 165.184
 -160.562 m 165.348 -160.578 l 166.082 -160.641 l 167.445 -160.758 l 168.574
 -160.852 m 169.602 -160.941 l 169.969 -160.973 l 170.332 -161 l 170.84 
-161.039 l 171.973 -161.133 m 172.094 -161.145 l 173.852 -161.281 l 174.219
 -161.312 l 174.234 -161.312 l 175.367 -161.398 m 176.344 -161.473 l 177.633
 -161.566 l 178.766 -161.648 m 178.84 -161.656 l 180.598 -161.781 l 181.031
 -161.809 l 182.164 -161.887 m 182.355 -161.902 l 182.723 -161.926 l 183.09
 -161.953 l 184.43 -162.039 l 185.562 -162.109 m 186.609 -162.18 l 186.977
 -162.203 l 187.125 -162.215 l 187.578 -162.242 l 187.828 -162.258 l 188.961
 -162.328 m 188.965 -162.332 l 189.652 -162.379 l 190.27 -162.418 l 190.77
 -162.449 l 191.105 -162.473 l 191.227 -162.48 l S Q
150.887 164.664 m 150.652 164.602 l 150.34 164.977 150.137 165.023 149.73
 164.977 c 147.855 164.789 l 149.309 163.836 150.605 162.914 150.715 161.805
 c 150.809 160.977 150.059 160.32 149.184 160.242 c 148.324 160.148 147.605
 160.477 147.199 161.617 c 147.48 161.648 l 147.793 161.227 148.168 160.82
 148.793 160.883 c 149.527 160.945 149.887 161.477 149.824 162.039 c 149.746
 162.883 148.637 163.992 146.777 165.164 c 146.762 165.367 l 150.277 165.711
 l h
150.887 164.664 m f
155.574 163.57 m 155.715 162.133 155.184 160.789 153.934 160.664 c 152.684
 160.555 151.918 161.773 151.777 163.211 c 151.637 164.648 152.137 165.992
 153.402 166.102 c 154.621 166.227 155.434 165.008 155.574 163.57 c h
154.59 163.477 m 154.496 164.57 154.074 165.852 153.418 165.789 c 152.621
 165.711 152.668 164.398 152.762 163.305 c 152.855 162.383 153.043 160.898
 153.902 160.977 c 154.777 161.07 154.684 162.555 154.59 163.477 c h
154.59 163.477 m f
160.234 164.023 m 160.375 162.586 159.844 161.242 158.594 161.117 c 157.344
 161.008 156.578 162.227 156.438 163.664 c 156.297 165.102 156.797 166.445
 158.062 166.555 c 159.281 166.68 160.094 165.461 160.234 164.023 c h
159.25 163.93 m 159.156 165.023 158.734 166.305 158.078 166.242 c 157.281
 166.164 157.328 164.852 157.422 163.758 c 157.516 162.836 157.703 161.352
 158.562 161.43 c 159.438 161.523 159.344 163.008 159.25 163.93 c h
159.25 163.93 m f
165.52 162.043 m 165.988 162.121 166.035 162.168 166.02 162.34 c 166.004
 162.512 165.816 162.73 165.332 163.09 c 163.785 164.246 l 163.941 162.605
 l 164.02 162.027 164.113 161.965 164.754 161.98 c 164.77 161.824 l 162.52
 161.605 l 162.504 161.762 l 163.129 161.871 163.191 161.965 163.145 162.527
 c 162.816 165.965 l 162.754 166.637 162.645 166.73 162.02 166.699 c 162.004
 166.855 l 164.238 167.074 l 164.254 166.918 l 163.645 166.824 163.566 166.715
 163.598 166.121 c 163.754 164.652 l 163.988 164.512 l 164.738 165.434 l
 165.301 166.09 165.66 166.668 165.645 166.871 c 165.629 166.98 165.52 167.012
 165.285 167.012 c 165.254 167.012 165.16 166.996 165.066 166.996 c 165.051
 167.152 l 167.473 167.387 l 167.488 167.23 l 167.066 167.184 166.957 167.105
 166.332 166.246 c 164.676 164.105 l 166.332 162.746 l 166.91 162.293 167.066
 162.246 167.582 162.246 c 167.598 162.09 l 165.535 161.887 l h
165.52 162.043 m f
q 1 0 0 -1 0 0 cm
42.406 -3.012 m 42.406 -3.055 l 42.402 -3.156 l 42.402 -3.293 l 42.406 
-3.383 l 42.406 -3.41 l 42.477 -4.32 l 42.566 -5.277 l 42.672 -6.406 m 42.73
 -7.055 l 42.914 -8.668 l 43.043 -9.797 m 43.137 -10.613 l 43.332 -12.051
 l 43.484 -13.176 m 43.613 -14.125 l 43.816 -15.426 l 43.992 -16.547 m 44.152
 -17.602 l 44.355 -18.793 l 44.543 -19.91 m 44.738 -21.066 l 44.934 -22.152
 l 45.133 -23.27 m 45.359 -24.559 l 45.535 -25.508 l 45.738 -26.625 m 46.004
 -28.09 l 46.145 -28.859 l 46.352 -29.98 m 46.496 -30.785 l 46.66 -31.688
 l 46.754 -32.215 l 46.961 -33.336 m 47.379 -35.566 l 47.59 -36.684 m 47.617
 -36.824 l 48.039 -38.91 l 48.266 -40.027 m 48.625 -41.82 l 48.719 -42.254
 l 48.961 -43.363 m 49.445 -45.586 l 49.684 -46.695 m 49.707 -46.801 l 50.203
 -48.906 l 50.461 -50.016 m 50.602 -50.613 l 50.91 -51.887 l 50.996 -52.223
 l 51.27 -53.328 m 51.836 -55.527 l 52.129 -56.625 m 52.719 -58.82 l 53.023
 -59.918 m 53.652 -62.098 l 53.969 -63.191 m 53.98 -63.23 l 54.637 -65.363
 l 54.973 -66.449 m 55.164 -67.043 l 55.406 -67.801 l 55.676 -68.609 l 56.035
 -69.688 m 56.156 -70.059 l 56.781 -71.836 l 57.152 -72.91 m 57.176 -72.977
 l 57.945 -75.043 l 58.344 -76.105 m 59.117 -78.09 l 59.172 -78.223 l 59.598
 -79.273 m 59.66 -79.43 l 60.422 -81.234 l 60.48 -81.367 l 60.938 -82.41
 m 61.445 -83.57 l 61.867 -84.484 l 62.348 -85.516 m 62.52 -85.891 l 63.332
 -87.562 l 63.84 -88.578 m 63.918 -88.734 l 64.684 -90.23 l 64.883 -90.598
 l 65.422 -91.598 m 65.711 -92.145 l 66.527 -93.586 l 67.098 -94.566 m 67.633
 -95.48 l 67.922 -95.953 l 68.262 -96.52 l 68.871 -97.477 m 69.98 -99.215
 l 70.102 -99.391 l 70.746 -100.324 m 71.781 -101.84 l 72.039 -102.195 l
 72.711 -103.113 m 74.078 -104.926 l 74.785 -105.816 m 76.039 -107.367 l
 76.219 -107.578 l 76.957 -108.441 m 78.469 -110.141 l 79.246 -110.969 m
 80.297 -112.09 l 80.676 -112.477 l 80.812 -112.613 l 81.621 -113.418 m 
82.766 -114.547 l 83.254 -114.996 l 84.086 -115.77 m 84.547 -116.199 l 84.926
 -116.539 l 85.281 -116.855 l 85.785 -117.281 l 86.648 -118.02 m 87.023 
-118.34 l 88.41 -119.453 l 89.301 -120.16 m 89.539 -120.348 l 91.113 -121.531
 l 92.035 -122.195 m 93.059 -122.934 l 93.43 -123.191 l 93.789 -123.441 
l 93.891 -123.508 l 94.84 -124.133 m 95.539 -124.602 l 96.75 -125.367 l 
97.711 -125.973 m 98.047 -126.18 l 99.656 -127.145 l 100.645 -127.711 m 
101.562 -128.238 l 101.934 -128.441 l 102.297 -128.645 l 102.629 -128.82
 l 103.629 -129.355 m 104.051 -129.582 l 105.648 -130.398 l 106.664 -130.906
 m 108.305 -131.707 l 108.711 -131.895 l 109.742 -132.371 m 110.07 -132.527
 l 110.438 -132.695 l 110.805 -132.859 l 111.816 -133.301 l 112.859 -133.754
 m 114.32 -134.371 l 114.691 -134.523 l 114.957 -134.629 l 116.012 -135.055
 m 116.812 -135.379 l 118.125 -135.887 l 119.188 -136.293 m 119.309 -136.34
 l 121.062 -136.984 l 121.32 -137.074 l 122.395 -137.449 m 122.828 -137.605
 l 123.195 -137.734 l 123.562 -137.859 l 124.543 -138.191 l 125.617 -138.559
 m 127.078 -139.039 l 127.781 -139.262 l 128.863 -139.598 m 129.57 -139.82
 l 131.039 -140.258 l 132.129 -140.578 m 133.82 -141.07 l 134.316 -141.207
 l 135.406 -141.516 m 135.582 -141.566 l 136.316 -141.77 l 137.602 -142.113
 l 138.699 -142.402 m 139.836 -142.699 l 140.57 -142.887 l 140.902 -142.969
 l 142.004 -143.242 m 142.328 -143.324 l 144.09 -143.746 l 144.215 -143.773
 l 145.32 -144.035 m 146.578 -144.332 l 147.535 -144.547 l 148.645 -144.797
 m 149.074 -144.895 l 150.832 -145.277 l 150.863 -145.281 l 151.977 -145.52
 m 152.59 -145.652 l 152.957 -145.727 l 153.324 -145.805 l 154.199 -145.98
 l 155.316 -146.203 m 156.844 -146.508 l 157.547 -146.641 l 158.66 -146.855
 m 159.336 -146.988 l 160.895 -147.281 l 162.012 -147.484 m 163.59 -147.762
 l 164.254 -147.875 l 165.371 -148.066 m 166.082 -148.191 l 167.609 -148.453
 l 168.73 -148.645 m 169.598 -148.793 l 169.969 -148.852 l 170.332 -148.914
 l 170.977 -149.012 l 172.098 -149.188 m 173.852 -149.457 l 174.344 -149.527
 l 175.469 -149.699 m 176.344 -149.836 l 177.715 -150.039 l 178.84 -150.203
 m 180.598 -150.461 l 181.09 -150.531 l 182.215 -150.691 m 182.355 -150.715
 l 183.09 -150.816 l 184.465 -151.004 l 185.59 -151.156 m 186.605 -151.293
 l 186.977 -151.34 l 187.125 -151.359 l 187.578 -151.418 l 187.844 -151.449
 l 188.973 -151.594 m 189.648 -151.676 l 190.27 -151.754 l 190.77 -151.816
 l 191.105 -151.855 l 191.227 -151.871 l S Q
150.816 142.395 m 150.926 141.785 l 150.082 141.629 l 150.723 138.254 l
 150.238 138.16 l 147.082 141.066 l 146.973 141.66 l 149.176 142.082 l 148.926
 143.379 l 149.723 143.535 l 149.973 142.238 l h
149.801 139.02 m 149.77 138.941 l 149.285 141.473 l 147.566 141.145 l h
149.801 139.02 m f
155.586 141.949 m 155.852 140.543 155.461 139.152 154.227 138.918 c 152.992
 138.684 152.117 139.84 151.852 141.246 c 151.586 142.668 151.961 144.043
 153.211 144.293 c 154.414 144.512 155.32 143.371 155.586 141.949 c h
154.617 141.777 m 154.414 142.871 153.914 144.09 153.258 143.965 c 152.461
 143.824 152.602 142.527 152.805 141.434 c 152.977 140.527 153.305 139.059
 154.164 139.23 c 155.023 139.387 154.789 140.871 154.617 141.777 c h
154.617 141.777 m f
160.188 142.82 m 160.453 141.414 160.062 140.023 158.828 139.789 c 157.594
 139.555 156.719 140.711 156.453 142.117 c 156.188 143.539 156.562 144.914
 157.812 145.164 c 159.016 145.383 159.922 144.242 160.188 142.82 c h
159.219 142.648 m 159.016 143.742 158.516 144.961 157.859 144.836 c 157.062
 144.695 157.203 143.398 157.406 142.305 c 157.578 141.398 157.906 139.93
 158.766 140.102 c 159.625 140.258 159.391 141.742 159.219 142.648 c h
159.219 142.648 m f
165.629 141.324 m 166.098 141.449 166.145 141.48 166.113 141.652 c 166.082
 141.824 165.863 142.027 165.348 142.355 c 163.723 143.355 l 164.02 141.746
 l 164.145 141.184 164.238 141.105 164.879 141.184 c 164.91 141.027 l 162.691
 140.605 l 162.66 140.762 l 163.254 140.934 163.316 141.043 163.223 141.605
 c 162.582 144.996 l 162.457 145.652 162.348 145.73 161.738 145.637 c 161.707
 145.793 l 163.91 146.215 l 163.941 146.059 l 163.348 145.918 163.27 145.809
 163.363 145.215 c 163.645 143.762 l 163.895 143.637 l 164.566 144.621 l
 165.051 145.324 165.363 145.949 165.332 146.137 c 165.316 146.246 165.191
 146.277 164.957 146.246 c 164.926 146.246 164.832 146.23 164.738 146.215
 c 164.707 146.371 l 167.113 146.824 l 167.145 146.668 l 166.723 146.574
 166.629 146.48 166.066 145.59 c 164.613 143.293 l 166.363 142.105 l 167.004
 141.699 167.145 141.668 167.676 141.715 c 167.707 141.559 l 165.66 141.168
 l h
165.629 141.324 m f
q 1 0 0 -1 0 0 cm
52.867 -3.012 m 52.883 -3.094 l 52.93 -3.324 l 53.008 -3.695 l 53.105 -4.191
 l 53.23 -4.797 l 53.32 -5.234 l 53.547 -6.348 m 53.695 -7.09 l 53.879 -7.961
 l 54.004 -8.574 l 54.238 -9.688 m 54.445 -10.688 l 54.637 -11.578 l 54.707
 -11.91 l 54.949 -13.02 m 55 -13.258 l 55.121 -13.816 l 55.164 -14 l 55.414
 -15.125 l 55.441 -15.238 l 55.691 -16.344 m 56.18 -18.492 l 56.195 -18.559
 l 56.453 -19.668 m 56.965 -21.879 l 57.223 -22.984 m 57.758 -25.195 l 58.027
 -26.297 m 58.254 -27.23 l 58.582 -28.5 l 58.863 -29.602 m 59.113 -30.574
 l 59.414 -31.688 l 59.445 -31.797 l 59.746 -32.895 m 60.355 -35.082 l 60.672
 -36.172 m 61.309 -38.352 l 61.637 -39.441 m 62.305 -41.613 l 62.645 -42.695
 m 63.344 -44.855 l 63.707 -45.934 m 63.914 -46.566 l 64.438 -48.086 l 64.812
 -49.156 m 65.578 -51.297 l 65.973 -52.359 m 66.773 -54.484 l 66.773 -54.488
 l 67.191 -55.543 m 67.629 -56.668 l 67.922 -57.395 l 68.027 -57.656 l 68.457
 -58.707 m 68.938 -59.859 l 69.344 -60.801 l 69.789 -61.844 m 69.965 -62.254
 l 70.715 -63.918 l 71.184 -64.953 m 71.883 -66.438 l 72.156 -67.008 l 72.652
 -68.027 m 73.195 -69.133 l 73.672 -70.059 l 74.188 -71.07 m 74.227 -71.148
 l 75.258 -73.074 l 75.805 -74.07 m 76.137 -74.68 l 76.422 -75.188 l 76.77
 -75.805 l 76.918 -76.051 l 77.492 -77.031 m 78.488 -78.723 l 78.652 -78.984
 l 79.258 -79.945 m 80.289 -81.59 l 80.473 -81.863 l 81.094 -82.816 m 82.375
 -84.691 l 83.023 -85.625 m 84.355 -87.465 l 85.031 -88.379 m 85.277 -88.711
 l 86.422 -90.176 l 87.125 -91.066 m 88.566 -92.824 l 89.297 -93.691 m 89.531
 -93.973 l 90.797 -95.395 l 91.559 -96.238 m 93.051 -97.84 l 93.109 -97.898
 l 93.902 -98.715 m 95.512 -100.32 l 96.332 -101.102 m 97.309 -102.031 l
 97.684 -102.379 l 97.988 -102.66 l 98.832 -103.418 m 99.785 -104.27 l 100.543
 -104.914 l 101.402 -105.652 m 101.559 -105.789 l 101.934 -106.098 l 102.297
 -106.398 l 103.16 -107.094 l 104.043 -107.809 m 105.812 -109.176 l 105.844
 -109.195 l 106.754 -109.875 m 108.297 -110.992 l 108.598 -111.199 l 109.531
 -111.848 m 110.066 -112.223 l 110.438 -112.477 l 110.801 -112.723 l 111.41
 -113.125 l 112.359 -113.754 m 112.551 -113.883 l 114.27 -114.977 l 115.238
 -115.574 m 116.805 -116.516 l 117.191 -116.734 l 118.172 -117.305 m 118.574
 -117.539 l 118.941 -117.75 l 119.309 -117.957 l 120.152 -118.422 l 121.145
 -118.969 m 122.824 -119.875 l 123.148 -120.039 l 124.16 -120.562 m 125.312
 -121.148 l 126.191 -121.578 l 127.211 -122.078 m 127.812 -122.367 l 129.266
 -123.047 l 130.301 -123.516 m 131.328 -123.984 l 131.699 -124.148 l 132.062
 -124.309 l 132.375 -124.441 l 133.418 -124.891 m 133.816 -125.066 l 135.512
 -125.773 l 136.562 -126.203 m 138.07 -126.809 l 138.676 -127.043 l 139.734
 -127.453 m 139.836 -127.496 l 140.203 -127.637 l 140.566 -127.773 l 141.859
 -128.258 l 142.926 -128.652 m 144.086 -129.078 l 144.453 -129.211 l 144.82
 -129.34 l 145.062 -129.422 l 146.133 -129.797 m 146.578 -129.953 l 148.285
 -130.531 l 149.359 -130.891 m 150.828 -131.367 l 151.523 -131.586 l 152.605
 -131.926 m 153.324 -132.148 l 154.781 -132.59 l 155.867 -132.914 m 156.844
 -133.203 l 157.211 -133.312 l 157.578 -133.418 l 158.051 -133.551 l 159.141
 -133.867 m 159.332 -133.926 l 161.094 -134.422 l 161.328 -134.484 l 162.422
 -134.781 m 163.586 -135.094 l 164.617 -135.363 l 165.719 -135.648 m 166.082
 -135.746 l 167.84 -136.199 l 167.918 -136.219 l 169.02 -136.496 m 169.598
 -136.645 l 169.969 -136.734 l 170.332 -136.824 l 171.227 -137.035 l 172.332
 -137.297 m 173.852 -137.648 l 174.219 -137.734 l 174.547 -137.805 l 175.652
 -138.059 m 176.344 -138.219 l 177.871 -138.555 l 178.98 -138.801 m 180.594
 -139.152 l 181.199 -139.277 l 182.312 -139.516 m 182.355 -139.527 l 182.723
 -139.605 l 183.09 -139.68 l 184.539 -139.969 l 185.652 -140.191 m 186.605
 -140.383 l 186.977 -140.453 l 187.125 -140.484 l 187.578 -140.57 l 187.883
 -140.629 l 188.996 -140.84 m 189.648 -140.965 l 190.27 -141.082 l 190.77
 -141.176 l 191.105 -141.238 l 191.227 -141.262 l S Q
150.914 127.508 m 151.148 126.648 150.633 125.82 149.789 125.57 c 149.398
 125.461 149.008 125.477 148.617 125.586 c 149.367 124.477 150.648 123.992
 151.695 124.289 c 151.758 124.039 l 149.07 123.273 147.68 125.039 147.352
 126.164 c 147.008 127.383 147.539 128.523 148.586 128.836 c 149.586 129.117
 150.617 128.523 150.914 127.508 c h
149.977 127.648 m 149.789 128.32 149.32 128.695 148.789 128.555 c 147.945
 128.305 148.023 127.117 148.195 126.555 c 148.242 126.352 148.32 126.18
 148.43 125.945 c 148.836 125.836 149.133 125.836 149.398 125.914 c 150.242
 126.164 150.148 127.039 149.977 127.648 c h
149.977 127.648 m f
155.633 127.98 m 156.039 126.605 155.742 125.184 154.539 124.84 c 153.32
 124.496 152.367 125.559 151.961 126.934 c 151.57 128.34 151.805 129.746
 153.039 130.105 c 154.211 130.434 155.242 129.387 155.633 127.98 c h
154.68 127.715 m 154.383 128.793 153.758 129.98 153.117 129.809 c 152.336
 129.574 152.617 128.293 152.914 127.215 c 153.164 126.34 153.617 124.887
 154.461 125.137 c 155.305 125.371 154.93 126.84 154.68 127.715 c h
154.68 127.715 m f
160.133 129.262 m 160.539 127.887 160.242 126.465 159.039 126.121 c 157.82
 125.777 156.867 126.84 156.461 128.215 c 156.07 129.621 156.305 131.027
 157.539 131.387 c 158.711 131.715 159.742 130.668 160.133 129.262 c h
159.18 128.996 m 158.883 130.074 158.258 131.262 157.617 131.09 c 156.836
 130.855 157.117 129.574 157.414 128.496 c 157.664 127.621 158.117 126.168
 158.961 126.418 c 159.805 126.652 159.43 128.121 159.18 128.996 c h
159.18 128.996 m f
165.688 128.281 m 166.125 128.422 166.188 128.469 166.125 128.656 c 166.078
 128.828 165.844 129 165.312 129.266 c 163.594 130.141 l 164.047 128.562
 l 164.234 127.984 164.312 127.922 164.953 128.062 c 165 127.906 l 162.812
 127.297 l 162.766 127.453 l 163.359 127.656 163.406 127.766 163.266 128.328
 c 162.328 131.641 l 162.141 132.297 162.016 132.359 161.406 132.219 c 161.359
 132.375 l 163.531 132.984 l 163.578 132.828 l 162.984 132.625 162.938 132.531
 163.078 131.953 c 163.484 130.531 l 163.734 130.406 l 164.328 131.453 l
 164.75 132.219 164.984 132.844 164.938 133.047 c 164.906 133.156 164.797
 133.156 164.562 133.109 c 164.531 133.109 164.453 133.078 164.359 133.047
 c 164.312 133.203 l 166.656 133.875 l 166.703 133.719 l 166.297 133.609
 166.203 133.516 165.734 132.547 c 164.484 130.141 l 166.359 129.109 l 167
 128.75 167.156 128.734 167.688 128.844 c 167.734 128.688 l 165.734 128.125
 l h
165.688 128.281 m f
q 1 0 0 -1 0 0 cm
63.582 -3.012 m 63.59 -3.055 l 63.613 -3.156 l 63.641 -3.293 l 63.66 -3.383
 l 63.668 -3.41 l 63.906 -4.398 l 64.117 -5.215 l 64.395 -6.312 m 64.656
 -7.344 l 64.973 -8.504 l 65.266 -9.602 m 65.684 -11.148 l 65.867 -11.785
 l 66.176 -12.879 m 66.762 -14.941 l 66.797 -15.059 l 67.117 -16.145 m 67.625
 -17.855 l 67.766 -18.316 l 68.098 -19.402 m 68.168 -19.648 l 68.77 -21.566
 l 69.109 -22.648 m 69.805 -24.809 l 70.16 -25.883 m 70.887 -28.031 l 71.258
 -29.102 m 71.883 -30.883 l 72.012 -31.242 l 72.395 -32.309 m 72.422 -32.387
 l 73.184 -34.434 l 73.586 -35.492 m 74.223 -37.148 l 74.406 -37.605 l 74.828
 -38.66 m 75.289 -39.82 l 75.68 -40.762 l 76.113 -41.809 m 76.137 -41.875
 l 76.422 -42.555 l 76.676 -43.148 l 77 -43.895 l 77.449 -44.938 m 78.375
 -47.008 l 78.848 -48.035 m 79.547 -49.547 l 79.809 -50.09 l 80.301 -51.109
 m 80.391 -51.305 l 80.676 -51.887 l 80.93 -52.402 l 81.301 -53.145 l 81.812
 -54.156 m 82.742 -55.953 l 82.859 -56.168 l 83.395 -57.168 m 83.805 -57.938
 l 84.48 -59.16 l 85.031 -60.148 m 85.277 -60.586 l 86.168 -62.109 l 86.742
 -63.09 m 87 -63.531 l 87.922 -65.023 l 88.516 -65.988 m 88.797 -66.441 
l 89.18 -67.043 l 89.531 -67.594 l 89.738 -67.898 l 90.367 -68.844 m 91.262
 -70.188 l 91.637 -70.723 l 92.285 -71.652 m 93.051 -72.742 l 93.43 -73.273
 l 93.598 -73.5 l 94.273 -74.41 m 95.52 -76.074 l 95.637 -76.223 l 96.336
 -77.113 m 97.305 -78.355 l 97.684 -78.82 l 97.742 -78.895 l 98.465 -79.766
 m 99.773 -81.324 l 99.926 -81.5 l 100.676 -82.352 m 101.559 -83.355 l 101.934
 -83.773 l 102.18 -84.047 l 102.953 -84.875 m 104.031 -86.031 l 104.512 
-86.523 l 105.301 -87.336 m 105.812 -87.859 l 106.188 -88.238 l 106.547 
-88.598 l 106.902 -88.941 l 107.719 -89.73 m 108.289 -90.285 l 109.363 -91.289
 l 110.195 -92.059 m 110.438 -92.277 l 110.797 -92.605 l 111.891 -93.566
 l 112.742 -94.312 m 114.316 -95.648 l 114.477 -95.777 l 115.352 -96.496
 m 116.797 -97.66 l 117.121 -97.91 l 118.02 -98.605 m 118.57 -99.035 l 118.941
 -99.316 l 119.305 -99.59 l 119.828 -99.969 l 120.742 -100.641 m 121.055
 -100.871 l 122.59 -101.953 l 123.523 -102.602 m 123.559 -102.629 l 125.309
 -103.812 l 125.402 -103.871 l 126.348 -104.492 m 127.074 -104.969 l 127.445
 -105.207 l 127.809 -105.438 l 128.258 -105.715 l 129.219 -106.316 m 129.562
 -106.531 l 131.156 -107.496 l 132.133 -108.074 m 133.812 -109.051 l 134.094
 -109.207 l 135.082 -109.762 m 135.582 -110.043 l 135.949 -110.246 l 136.312
 -110.445 l 137.074 -110.848 l 138.074 -111.379 m 139.832 -112.289 l 140.09
 -112.418 l 141.102 -112.93 m 142.32 -113.543 l 143.133 -113.938 l 144.152
 -114.434 m 144.82 -114.758 l 146.203 -115.398 l 147.234 -115.871 m 148.34
 -116.375 l 148.707 -116.539 l 149.07 -116.699 l 149.305 -116.797 l 150.348
 -117.242 m 150.828 -117.453 l 152.434 -118.125 l 153.48 -118.559 m 155.078
 -119.219 l 155.582 -119.418 l 156.633 -119.836 m 156.844 -119.922 l 157.211
 -120.066 l 157.574 -120.211 l 158.75 -120.652 l 159.812 -121.051 m 161.094
 -121.527 l 161.465 -121.66 l 161.828 -121.797 l 161.938 -121.836 l 163.004
 -122.223 m 163.586 -122.438 l 165.137 -122.988 l 166.207 -123.363 m 167.836
 -123.914 l 168.355 -124.086 l 169.434 -124.441 m 169.598 -124.496 l 169.969
 -124.617 l 170.332 -124.734 l 171.594 -125.133 l 172.676 -125.473 m 173.852
 -125.844 l 174.219 -125.957 l 174.586 -126.066 l 174.84 -126.141 l 175.926
 -126.473 m 176.344 -126.602 l 178.098 -127.121 l 179.188 -127.438 m 180.594
 -127.848 l 181.367 -128.062 l 182.457 -128.367 m 182.723 -128.441 l 183.09
 -128.543 l 184.648 -128.957 l 185.742 -129.246 m 186.605 -129.473 l 187.125
 -129.609 l 187.578 -129.727 l 187.938 -129.82 l 189.035 -130.105 m 189.648
 -130.266 l 190.27 -130.426 l 190.77 -130.559 l 191.105 -130.645 l 191.227
 -130.676 l S Q
150.676 114.648 m 150.863 114.164 150.77 113.633 150.051 112.617 c 150.77
 112.523 151.363 112.367 151.582 111.836 c 151.801 111.273 151.379 110.523
 150.488 110.18 c 149.691 109.867 148.77 110.055 148.488 110.758 c 148.285
 111.305 148.457 111.742 148.973 112.477 c 148.004 112.695 147.613 112.898
 147.395 113.43 c 147.16 114.07 147.582 114.914 148.551 115.289 c 149.707
 115.742 150.457 115.211 150.676 114.648 c h
150.941 111.586 m 150.754 112.086 150.316 112.211 149.816 112.305 c 149.426
 111.789 149.113 111.242 149.27 110.836 c 149.41 110.477 149.832 110.258
 150.348 110.461 c 150.941 110.695 151.113 111.148 150.941 111.586 c h
149.91 114.602 m 149.738 115.039 149.238 115.195 148.738 115.008 c 148.129
 114.773 147.926 114.195 148.145 113.633 c 148.348 113.117 148.738 112.914
 149.176 112.773 c 149.816 113.695 150.082 114.148 149.91 114.602 c h
149.91 114.602 m f
155.688 115.09 m 156.203 113.746 156.047 112.309 154.875 111.855 c 153.688
 111.402 152.641 112.387 152.125 113.73 c 151.594 115.09 151.734 116.512
 152.922 116.965 c 154.062 117.402 155.156 116.449 155.688 115.09 c h
154.766 114.746 m 154.359 115.793 153.625 116.902 153.016 116.668 c 152.266
 116.371 152.641 115.121 153.047 114.074 c 153.375 113.215 153.953 111.84
 154.766 112.152 c 155.578 112.465 155.094 113.887 154.766 114.746 c h
154.766 114.746 m f
160.055 116.766 m 160.57 115.422 160.414 113.984 159.242 113.531 c 158.055
 113.078 157.008 114.062 156.492 115.406 c 155.961 116.766 156.102 118.188
 157.289 118.641 c 158.43 119.078 159.523 118.125 160.055 116.766 c h
159.133 116.422 m 158.727 117.469 157.992 118.578 157.383 118.344 c 156.633
 118.047 157.008 116.797 157.414 115.75 c 157.742 114.891 158.32 113.516
 159.133 113.828 c 159.945 114.141 159.461 115.562 159.133 116.422 c h
159.133 116.422 m f
165.672 116.277 m 166.094 116.465 166.141 116.527 166.078 116.699 c 166.016
 116.855 165.75 117.012 165.203 117.23 c 163.406 117.934 l 164 116.402 l
 164.234 115.855 164.328 115.809 164.953 115.996 c 165 115.84 l 162.891 
115.027 l 162.844 115.184 l 163.391 115.449 163.438 115.559 163.25 116.121
 c 162.016 119.34 l 161.766 119.965 161.641 120.012 161.062 119.824 c 161
 119.965 l 163.094 120.777 l 163.156 120.637 l 162.594 120.387 162.531 120.262
 162.734 119.699 c 163.266 118.309 l 163.531 118.23 l 164.031 119.324 l 
164.375 120.121 164.562 120.762 164.5 120.949 c 164.453 121.059 164.344 
121.074 164.125 120.996 c 164.094 120.996 164 120.949 163.922 120.918 c 
163.859 121.059 l 166.125 121.934 l 166.188 121.793 l 165.797 121.652 165.719
 121.527 165.328 120.543 c 164.312 118.027 l 166.25 117.168 l 166.938 116.871
 167.078 116.871 167.609 117.012 c 167.656 116.855 l 165.719 116.121 l h
165.672 116.277 m f
0.567043 w
q 1 0 0 -1 0 0 cm
21.148 -3.012 170.074 -170.078 re S Q
0.398506 w
q 1 0 0 -1 0 0 cm
21.148 -173.09 m 21.148 -168.836 l S Q
q 1 0 0 -1 0 0 cm
63.672 -173.09 m 63.672 -168.836 l S Q
q 1 0 0 -1 0 0 cm
106.191 -173.09 m 106.191 -168.836 l S Q
q 1 0 0 -1 0 0 cm
148.715 -173.09 m 148.715 -168.836 l S Q
q 1 0 0 -1 0 0 cm
191.238 -173.09 m 191.238 -168.836 l S Q
q 1 0 0 -1 0 0 cm
21.148 -173.09 m 21.148 -168.836 l S Q
q 1 0 0 -1 0 0 cm
21.148 -173.09 m 25.398 -173.09 l S Q
q 1 0 0 -1 0 0 cm
21.148 -130.57 m 25.398 -130.57 l S Q
q 1 0 0 -1 0 0 cm
21.148 -88.051 m 25.398 -88.051 l S Q
q 1 0 0 -1 0 0 cm
21.148 -45.531 m 25.398 -45.531 l S Q
q 1 0 0 -1 0 0 cm
21.148 -3.012 m 25.398 -3.012 l S Q
q 1 0 0 -1 0 0 cm
21.148 -173.09 m 25.398 -173.09 l S Q
q 1 0 0 -1 0 0 cm
21.148 -3.012 m 21.148 -7.262 l S Q
q 1 0 0 -1 0 0 cm
63.672 -3.012 m 63.672 -7.262 l S Q
q 1 0 0 -1 0 0 cm
106.191 -3.012 m 106.191 -7.262 l S Q
q 1 0 0 -1 0 0 cm
148.715 -3.012 m 148.715 -7.262 l S Q
q 1 0 0 -1 0 0 cm
191.238 -3.012 m 191.238 -7.262 l S Q
q 1 0 0 -1 0 0 cm
21.148 -3.012 m 21.148 -7.262 l S Q
q 1 0 0 -1 0 0 cm
191.223 -173.09 m 186.973 -173.09 l S Q
q 1 0 0 -1 0 0 cm
191.223 -130.57 m 186.973 -130.57 l S Q
q 1 0 0 -1 0 0 cm
191.223 -88.051 m 186.973 -88.051 l S Q
q 1 0 0 -1 0 0 cm
191.223 -45.531 m 186.973 -45.531 l S Q
q 1 0 0 -1 0 0 cm
191.223 -3.012 m 186.973 -3.012 l S Q
q 1 0 0 -1 0 0 cm
191.223 -173.09 m 186.973 -173.09 l S Q
23.102 179.613 m 23.102 178.004 22.367 176.551 21.117 176.551 c 19.852 
176.551 19.117 178.004 19.117 179.613 c 19.117 181.238 19.805 182.676 21.117
 182.676 c 22.32 182.676 23.102 181.238 23.102 179.613 c h
22.242 179.613 m 22.242 180.91 22.117 182.426 21.117 182.426 c 20.164 182.426
 19.977 180.91 19.977 179.613 c 19.977 178.535 20.102 176.785 21.117 176.785
 c 22.117 176.785 22.242 178.535 22.242 179.613 c h
22.242 179.613 m f
59.941 179.613 m 59.941 178.004 59.207 176.551 57.957 176.551 c 56.691 
176.551 55.957 178.004 55.957 179.613 c 55.957 181.238 56.645 182.676 57.957
 182.676 c 59.16 182.676 59.941 181.238 59.941 179.613 c h
59.082 179.613 m 59.082 180.91 58.957 182.426 57.957 182.426 c 57.004 182.426
 56.816 180.91 56.816 179.613 c 56.816 178.535 56.941 176.785 57.957 176.785
 c 58.957 176.785 59.082 178.535 59.082 179.613 c h
59.082 179.613 m f
61.867 182.191 m 61.867 181.91 61.648 181.691 61.367 181.691 c 61.086 181.691
 60.867 181.91 60.867 182.191 c 60.867 182.473 61.086 182.691 61.367 182.691
 c 61.648 182.691 61.867 182.473 61.867 182.191 c h
61.867 182.191 m f
66.031 182.566 m 66.031 182.426 l 65.438 182.426 65.219 182.441 65.219 
181.27 c 65.219 181.254 65.219 176.52 65.219 176.52 c 65.094 176.52 l 63.562
 177.254 l 63.609 177.395 l 63.938 177.254 64.016 177.223 64.141 177.223
 c 64.406 177.223 64.453 177.457 64.453 177.77 c 64.453 181.27 l 64.453 
182.441 64.234 182.41 63.641 182.426 c 63.641 182.566 l h
66.031 182.566 m f
71.223 179.613 m 71.223 178.004 70.488 176.551 69.238 176.551 c 67.973 
176.551 67.238 178.004 67.238 179.613 c 67.238 181.238 67.926 182.676 69.238
 182.676 c 70.441 182.676 71.223 181.238 71.223 179.613 c h
70.363 179.613 m 70.363 180.91 70.238 182.426 69.238 182.426 c 68.285 182.426
 68.098 180.91 68.098 179.613 c 68.098 178.535 68.223 176.785 69.238 176.785
 c 70.238 176.785 70.363 178.535 70.363 179.613 c h
70.363 179.613 m f
102.422 179.613 m 102.422 178.004 101.688 176.551 100.438 176.551 c 99.172
 176.551 98.438 178.004 98.438 179.613 c 98.438 181.238 99.125 182.676 100.438
 182.676 c 101.641 182.676 102.422 181.238 102.422 179.613 c h
101.562 179.613 m 101.562 180.91 101.438 182.426 100.438 182.426 c 99.484
 182.426 99.297 180.91 99.297 179.613 c 99.297 178.535 99.422 176.785 100.438
 176.785 c 101.438 176.785 101.562 178.535 101.562 179.613 c h
101.562 179.613 m f
104.348 182.191 m 104.348 181.91 104.129 181.691 103.848 181.691 c 103.566
 181.691 103.348 181.91 103.348 182.191 c 103.348 182.473 103.566 182.691
 103.848 182.691 c 104.129 182.691 104.348 182.473 104.348 182.191 c h
104.348 182.191 m f
109.293 181.41 m 109.137 181.379 l 108.871 181.832 108.652 181.91 108.215
 181.91 c 106.152 181.91 l 107.574 180.613 108.871 179.441 108.871 178.129
 c 108.871 177.207 108.074 176.551 107.199 176.551 c 106.34 176.551 105.652
 177.02 105.387 178.238 c 105.59 178.238 l 105.84 177.738 106.184 177.223
 106.871 177.223 c 107.652 177.223 108.09 177.816 108.09 178.488 c 108.09
 179.457 107.059 180.879 105.293 182.426 c 105.293 182.566 l 108.824 182.566
 l h
109.293 181.41 m f
113.703 179.613 m 113.703 178.004 112.969 176.551 111.719 176.551 c 110.453
 176.551 109.719 178.004 109.719 179.613 c 109.719 181.238 110.406 182.676
 111.719 182.676 c 112.922 182.676 113.703 181.238 113.703 179.613 c h
112.844 179.613 m 112.844 180.91 112.719 182.426 111.719 182.426 c 110.766
 182.426 110.578 180.91 110.578 179.613 c 110.578 178.535 110.703 176.785
 111.719 176.785 c 112.719 176.785 112.844 178.535 112.844 179.613 c h
112.844 179.613 m f
145.023 179.613 m 145.023 178.004 144.289 176.551 143.039 176.551 c 141.773
 176.551 141.039 178.004 141.039 179.613 c 141.039 181.238 141.727 182.676
 143.039 182.676 c 144.242 182.676 145.023 181.238 145.023 179.613 c h
144.164 179.613 m 144.164 180.91 144.039 182.426 143.039 182.426 c 142.086
 182.426 141.898 180.91 141.898 179.613 c 141.898 178.535 142.023 176.785
 143.039 176.785 c 144.039 176.785 144.164 178.535 144.164 179.613 c h
144.164 179.613 m f
146.945 182.191 m 146.945 181.91 146.727 181.691 146.445 181.691 c 146.164
 181.691 145.945 181.91 145.945 182.191 c 145.945 182.473 146.164 182.691
 146.445 182.691 c 146.727 182.691 146.945 182.473 146.945 182.191 c h
146.945 182.191 m f
151.52 180.629 m 151.52 179.691 150.973 179.285 150.441 179.066 c 151.02
 178.629 151.207 178.223 151.207 177.738 c 151.207 177.223 150.785 176.551
 149.816 176.551 c 149.113 176.551 148.441 176.941 148.145 177.91 c 148.285
 177.941 l 148.473 177.582 148.832 177.129 149.488 177.129 c 150.129 177.129
 150.504 177.566 150.504 178.066 c 150.504 178.77 149.957 179.27 149.145
 179.457 c 149.129 179.645 l 150.52 179.582 150.863 180.488 150.863 181.051
 c 150.863 181.723 150.379 182.332 149.738 182.332 c 149.16 182.332 148.91
 181.832 148.426 181.832 c 148.27 181.832 148.082 181.988 148.082 182.191
 c 148.082 182.566 148.645 182.676 149.051 182.676 c 150.473 182.676 151.52
 181.863 151.52 180.629 c h
151.52 180.629 m f
156.301 179.613 m 156.301 178.004 155.566 176.551 154.316 176.551 c 153.051
 176.551 152.316 178.004 152.316 179.613 c 152.316 181.238 153.004 182.676
 154.316 182.676 c 155.52 182.676 156.301 181.238 156.301 179.613 c h
155.441 179.613 m 155.441 180.91 155.316 182.426 154.316 182.426 c 153.363
 182.426 153.176 180.91 153.176 179.613 c 153.176 178.535 153.301 176.785
 154.316 176.785 c 155.316 176.785 155.441 178.535 155.441 179.613 c h
155.441 179.613 m f
17.465 173.133 m 17.465 171.523 16.73 170.07 15.48 170.07 c 14.215 170.07
 13.48 171.523 13.48 173.133 c 13.48 174.758 14.168 176.195 15.48 176.195
 c 16.684 176.195 17.465 174.758 17.465 173.133 c h
16.605 173.133 m 16.605 174.43 16.48 175.945 15.48 175.945 c 14.527 175.945
 14.34 174.43 14.34 173.133 c 14.34 172.055 14.465 170.305 15.48 170.305
 c 16.48 170.305 16.605 172.055 16.605 173.133 c h
16.605 173.133 m f
17.496 132.449 m 17.34 132.418 l 17.074 132.871 16.855 132.949 16.418 132.949
 c 14.355 132.949 l 15.777 131.652 17.074 130.48 17.074 129.168 c 17.074
 128.246 16.277 127.59 15.402 127.59 c 14.543 127.59 13.855 128.059 13.59
 129.277 c 13.793 129.277 l 14.043 128.777 14.387 128.262 15.074 128.262
 c 15.855 128.262 16.293 128.855 16.293 129.527 c 16.293 130.496 15.262 
131.918 13.496 133.465 c 13.496 133.605 l 17.027 133.605 l h
17.496 132.449 m f
17.48 89.523 m 17.48 88.914 l 16.605 88.914 l 16.605 84.992 l 16.168 84.992
 l 13.574 88.898 l 13.574 89.523 l 15.871 89.523 l 15.871 91.008 l 16.605
 91.008 l 16.605 89.523 l h
15.871 88.914 m 13.934 88.914 l 15.855 85.93 l 15.871 85.93 l h
15.871 88.914 m f
17.418 46.512 m 17.418 45.527 16.715 44.793 15.824 44.793 c 15.371 44.793
 14.996 44.934 14.605 45.246 c 14.996 43.652 16.168 42.652 17.293 42.637
 c 17.293 42.48 l 14.527 42.48 13.652 44.824 13.652 46.152 c 13.652 47.574
 14.48 48.637 15.59 48.637 c 16.605 48.637 17.418 47.684 17.418 46.512 c
 h
16.652 46.965 m 16.652 47.793 16.277 48.371 15.684 48.371 c 14.762 48.371
 14.48 47.027 14.48 46.309 c 14.48 46.074 14.512 45.824 14.559 45.527 c 
14.949 45.277 15.262 45.168 15.574 45.168 c 16.48 45.168 16.652 46.215 16.652
 46.965 c h
16.652 46.965 m f
17.199 4.672 m 17.199 4.031 16.918 3.547 15.824 2.734 c 16.512 2.359 17.043
 1.938 17.043 1.281 c 17.043 0.594 16.402 0 15.449 0 c 14.605 0 13.809 0.547
 13.809 1.391 c 13.809 2.047 14.152 2.438 14.918 3.047 c 14.059 3.703 13.746
 4.031 13.746 4.703 c 13.746 5.453 14.418 6.156 15.465 6.156 c 16.684 6.156
 17.199 5.328 17.199 4.672 c h
16.434 1.266 m 16.434 1.906 16.059 2.25 15.574 2.578 c 14.98 2.156 14.465
 1.688 14.465 1.172 c 14.465 0.688 14.809 0.266 15.418 0.266 c 16.09 0.266
 16.434 0.688 16.434 1.266 c h
16.559 4.922 m 16.559 5.5 16.121 5.891 15.543 5.891 c 14.855 5.891 14.418
 5.344 14.418 4.609 c 14.418 3.938 14.746 3.547 15.152 3.203 c 16.137 3.953
 16.559 4.328 16.559 4.922 c h
16.559 4.922 m f
187.539 179.613 m 187.539 178.004 186.805 176.551 185.555 176.551 c 184.289
 176.551 183.555 178.004 183.555 179.613 c 183.555 181.238 184.242 182.676
 185.555 182.676 c 186.758 182.676 187.539 181.238 187.539 179.613 c h
186.68 179.613 m 186.68 180.91 186.555 182.426 185.555 182.426 c 184.602
 182.426 184.414 180.91 184.414 179.613 c 184.414 178.535 184.539 176.785
 185.555 176.785 c 186.555 176.785 186.68 178.535 186.68 179.613 c h
186.68 179.613 m f
189.465 182.191 m 189.465 181.91 189.246 181.691 188.965 181.691 c 188.684
 181.691 188.465 181.91 188.465 182.191 c 188.465 182.473 188.684 182.691
 188.965 182.691 c 189.246 182.691 189.465 182.473 189.465 182.191 c h
189.465 182.191 m f
194.395 181.082 m 194.395 180.473 l 193.52 180.473 l 193.52 176.551 l 193.082
 176.551 l 190.488 180.457 l 190.488 181.082 l 192.785 181.082 l 192.785
 182.566 l 193.52 182.566 l 193.52 181.082 l h
192.785 180.473 m 190.848 180.473 l 192.77 177.488 l 192.785 177.488 l 
h
192.785 180.473 m f
198.82 179.613 m 198.82 178.004 198.086 176.551 196.836 176.551 c 195.57
 176.551 194.836 178.004 194.836 179.613 c 194.836 181.238 195.523 182.676
 196.836 182.676 c 198.039 182.676 198.82 181.238 198.82 179.613 c h
197.961 179.613 m 197.961 180.91 197.836 182.426 196.836 182.426 c 195.883
 182.426 195.695 180.91 195.695 179.613 c 195.695 178.535 195.82 176.785
 196.836 176.785 c 197.836 176.785 197.961 178.535 197.961 179.613 c h
197.961 179.613 m f
98.637 190.102 m 98.637 189.961 l 96.918 189.961 l 96.918 190.102 l 97.105
 190.102 97.418 190.18 97.418 190.43 c 97.418 190.648 97.199 191.008 97.074
 191.195 c 94.684 194.711 l 94.512 190.789 l 94.48 190.227 94.793 190.102
 95.277 190.102 c 95.277 189.961 l 92.965 189.961 l 92.965 190.102 l 93.574
 190.102 93.621 190.383 93.699 191.117 c 93.902 196.148 l 94.059 196.148
 l 97.684 190.82 l 97.855 190.602 98.246 190.102 98.637 190.102 c h
98.637 190.102 m f
Q q
98.668 188.629 4 9.371 re W n
q
98 188 5 10 re W n
  q
0 g
102.293 189.57 m 101.855 189.57 l 98.746 197.93 l 99.199 197.93 l h
102.293 189.57 m f
  Q
Q
Q q
0 g
108.676 195.492 m 108.551 195.492 108.504 195.492 108.473 195.492 c 108.16
 195.492 108.066 195.398 108.066 194.992 c 108.066 189.898 l 108.035 189.883
 l 107.613 190.023 107.301 190.117 106.707 190.273 c 106.707 190.414 l 106.785
 190.414 106.832 190.414 106.91 190.414 c 107.238 190.414 107.316 190.508
 107.316 190.867 c 107.316 192.273 l 106.973 191.977 106.738 191.883 106.379
 191.883 c 105.348 191.883 104.504 192.898 104.504 194.164 c 104.504 195.32
 105.176 196.102 106.176 196.102 c 106.676 196.102 107.02 195.914 107.316
 195.492 c 107.316 196.07 l 107.348 196.102 l 108.676 195.633 l h
107.316 195.086 m 107.316 195.148 107.254 195.258 107.16 195.367 c 107.02
 195.539 106.785 195.633 106.52 195.633 c 105.77 195.633 105.285 194.914
 105.285 193.805 c 105.285 192.805 105.723 192.133 106.41 192.133 c 106.895
 192.133 107.316 192.555 107.316 193.023 c h
107.316 195.086 m f
108.848 196.008 m 110.848 196.008 l 110.848 195.867 l 110.379 195.867 110.238
 195.773 110.238 195.414 c 110.238 192.883 l 110.238 192.867 110.301 192.773
 110.363 192.711 c 110.598 192.508 110.973 192.352 111.285 192.352 c 111.691
 192.352 111.879 192.664 111.879 193.289 c 111.879 195.242 l 111.863 195.742
 111.77 195.852 111.27 195.867 c 111.27 196.008 l 113.285 196.008 l 113.285
 195.867 l 112.785 195.867 112.66 195.727 112.629 195.148 c 112.629 192.898
 l 112.91 192.508 113.191 192.352 113.613 192.352 c 114.129 192.352 114.285
 192.586 114.285 193.336 c 114.285 195.227 l 114.27 195.758 114.207 195.82
 113.691 195.867 c 113.691 196.008 l 115.66 196.008 l 115.66 195.867 l 115.426
 195.852 l 115.145 195.805 115.035 195.68 115.035 195.32 c 115.035 193.477
 l 115.035 192.414 114.691 191.883 114.004 191.883 c 113.473 191.883 113.02
 192.117 112.535 192.633 c 112.379 192.117 112.066 191.883 111.582 191.883
 c 111.176 191.883 110.941 191.992 110.191 192.57 c 110.191 191.898 l 110.129
 191.883 l 109.66 192.055 109.348 192.148 108.879 192.289 c 108.879 192.445
 l 108.988 192.414 109.066 192.398 109.16 192.398 c 109.395 192.398 109.473
 192.539 109.473 192.977 c 109.473 195.242 l 109.457 195.742 109.348 195.867
 108.848 195.867 c h
108.848 196.008 m f
119.215 191.234 m 119.215 190.516 118.793 190.203 118.34 190.031 c 118.809
 189.703 118.965 189.391 118.965 189.016 c 118.965 188.609 118.59 188.062
 117.73 188.062 c 117.105 188.062 116.512 188.359 116.246 189.172 c 116.449
 189.219 l 116.605 188.938 116.918 188.594 117.449 188.594 c 117.965 188.594
 118.262 188.906 118.262 189.266 c 118.262 189.781 117.809 190.156 117.121
 190.312 c 117.09 190.516 l 118.293 190.469 118.574 191.156 118.574 191.562
 c 118.574 192.047 118.184 192.5 117.668 192.5 c 117.168 192.5 116.949 192.109
 116.543 192.109 c 116.371 192.109 116.199 192.25 116.199 192.438 c 116.199
 192.734 116.699 192.844 117.074 192.844 c 118.309 192.844 119.215 192.188
 119.215 191.234 c h
119.215 191.234 m f
3.203 94.254 m 2.5 94.254 2.031 94.566 2.031 95.238 c 2.031 95.832 2.453
 96.285 3.016 96.691 c 2.031 96.379 l 2.031 96.379 2.266 97.582 2.281 97.848
 c 2.438 97.848 l 2.438 97.52 2.406 97.254 2.766 97.254 c 2.938 97.254 3.328
 97.363 3.547 97.426 c 7.281 98.488 l 7.625 98.582 7.875 98.738 7.875 99.176
 c 8.031 99.207 l 8.031 97.238 l 7.875 97.207 l 7.875 97.551 7.859 97.848
 7.609 97.848 c 7.531 97.848 7.438 97.832 7.266 97.785 c 6.016 97.473 l 
6.156 97.301 6.234 97.035 6.234 96.816 c 6.234 95.738 4.703 94.254 3.203
 94.254 c h
3.297 95.02 m 4.469 95.02 6.031 96.004 6.031 96.848 c 6.031 97.051 5.953
 97.238 5.781 97.41 c 4.984 97.207 2.453 96.66 2.453 95.504 c 2.453 95.02
 3.094 95.02 3.297 95.02 c h
3.297 95.02 m f
0.062 89.551 m 0.062 90.16 l 6.25 92.207 l 6.25 91.598 l h
0.062 89.551 m f
0.016 86.672 m 0 86.719 l 0.125 87.094 0.203 87.328 0.328 87.766 c 0.391
 88.016 l 0.531 88.016 l 0.531 87.969 0.531 87.938 0.531 87.875 c 0.531 
87.516 0.609 87.422 0.984 87.422 c 5.641 87.422 l 5.922 87.422 6.219 86.672
 6.219 85.953 c 6.219 84.766 5.234 83.844 3.953 83.844 c 2.828 83.844 2 
84.531 2 85.422 c 2 85.969 2.312 86.5 2.766 86.672 c h
3.234 86.672 m 2.891 86.672 2.562 86.25 2.562 85.781 c 2.562 85.531 2.656
 85.312 2.828 85.125 c 3.109 84.844 3.719 84.641 4.359 84.641 c 5.359 84.641
 5.922 85.062 5.922 85.797 c 5.922 86.266 5.734 86.672 5.5 86.672 c h
3.234 86.672 m f
5.531 79.641 m 5.656 79.797 5.703 79.906 5.703 80.047 c 5.703 80.25 5.578
 80.312 5.188 80.312 c 3.438 80.312 l 2.969 80.312 2.703 80.359 2.5 80.484
 c 2.172 80.688 2 81.078 2 81.594 c 2 82.438 2.438 83.109 3 83.109 c 3.203
 83.109 3.391 82.938 3.391 82.719 c 3.391 82.5 3.203 82.312 3.016 82.312
 c 2.984 82.312 2.938 82.328 2.875 82.328 c 2.781 82.359 2.719 82.359 2.656
 82.359 c 2.406 82.359 2.219 82.078 2.219 81.719 c 2.219 81.281 2.469 81.031
 2.953 81.031 c 3.5 81.031 l 4.047 82.406 4.141 82.562 4.469 82.953 c 4.656
 83.156 4.953 83.281 5.25 83.281 c 5.812 83.281 6.219 82.891 6.219 82.328
 c 6.219 81.938 6.031 81.578 5.562 81.031 c 6.031 80.984 6.219 80.812 6.219
 80.453 c 6.219 80.141 6.109 79.953 5.766 79.641 c h
5.016 81.031 m 5.297 81.031 5.391 81.078 5.5 81.266 c 5.625 81.5 5.688 
81.734 5.688 81.922 c 5.688 82.234 5.391 82.484 5 82.484 c 4.969 82.484 
l 4.438 82.484 4.094 82.078 3.719 81.031 c h
5.016 81.031 m f
6.125 79.602 m 6.125 77.445 l 5.984 77.445 l 5.969 78.055 5.844 78.195 
5.312 78.211 c 3.297 78.211 l 3.016 78.211 2.562 77.836 2.562 77.586 c 2.562
 77.539 2.609 77.445 2.703 77.352 c 2.828 77.211 2.875 77.117 2.875 76.992
 c 2.875 76.773 2.719 76.648 2.469 76.648 c 2.172 76.648 2 76.836 2 77.133
 c 2 77.508 2.203 77.758 2.844 78.211 c 2.016 78.211 l 2 78.258 l 2.203 
78.758 2.328 79.086 2.484 79.586 c 2.625 79.586 l 2.594 79.461 2.594 79.383
 2.594 79.273 c 2.594 79.055 2.734 78.961 3.125 78.961 c 5.375 78.961 l 
5.844 78.992 5.891 79.039 5.984 79.602 c h
6.125 79.602 m f
Q Q
showpage
%%Trailer
end
%%EOF
