%!PS-Adobe-3.0 EPSF-3.0
%%Creator: cairo 1.17.4 (https://cairographics.org)
%%CreationDate: Thu Feb 24 10:47:05 2022
%%Pages: 1
%%DocumentData: Clean7Bit
%%LanguageLevel: 2
%%BoundingBox: 0 0 160 79
%%EndComments
%%BeginProlog
50 dict begin
/q { gsave } bind def
/Q { grestore } bind def
/cm { 6 array astore concat } bind def
/w { setlinewidth } bind def
/J { setlinecap } bind def
/j { setlinejoin } bind def
/M { setmiterlimit } bind def
/d { setdash } bind def
/m { moveto } bind def
/l { lineto } bind def
/c { curveto } bind def
/h { closepath } bind def
/re { exch dup neg 3 1 roll 5 3 roll moveto 0 rlineto
      0 exch rlineto 0 rlineto closepath } bind def
/S { stroke } bind def
/f { fill } bind def
/f* { eofill } bind def
/n { newpath } bind def
/W { clip } bind def
/W* { eoclip } bind def
/BT { } bind def
/ET { } bind def
/BDC { mark 3 1 roll /BDC pdfmark } bind def
/EMC { mark /EMC pdfmark } bind def
/cairo_store_point { /cairo_point_y exch def /cairo_point_x exch def } def
/Tj { show currentpoint cairo_store_point } bind def
/TJ {
  {
    dup
    type /stringtype eq
    { show } { -0.001 mul 0 cairo_font_matrix dtransform rmoveto } ifelse
  } forall
  currentpoint cairo_store_point
} bind def
/cairo_selectfont { cairo_font_matrix aload pop pop pop 0 0 6 array astore
    cairo_font exch selectfont cairo_point_x cairo_point_y moveto } bind def
/Tf { pop /cairo_font exch def /cairo_font_matrix where
      { pop cairo_selectfont } if } bind def
/Td { matrix translate cairo_font_matrix matrix concatmatrix dup
      /cairo_font_matrix exch def dup 4 get exch 5 get cairo_store_point
      /cairo_font where { pop cairo_selectfont } if } bind def
/Tm { 2 copy 8 2 roll 6 array astore /cairo_font_matrix exch def
      cairo_store_point /cairo_font where { pop cairo_selectfont } if } bind def
/g { setgray } bind def
/rg { setrgbcolor } bind def
/d1 { setcachedevice } bind def
/cairo_data_source {
  CairoDataIndex CairoData length lt
    { CairoData CairoDataIndex get /CairoDataIndex CairoDataIndex 1 add def }
    { () } ifelse
} def
/cairo_flush_ascii85_file { cairo_ascii85_file status { cairo_ascii85_file flushfile } if } def
/cairo_image { image cairo_flush_ascii85_file } def
/cairo_imagemask { imagemask cairo_flush_ascii85_file } def
%%EndProlog
%%BeginSetup
%%EndSetup
%%Page: 1 1
%%BeginPageSetup
%%PageBoundingBox: 0 0 160 79
%%EndPageSetup
q 0 0 160 79 rectclip
1 0 0 -1 0 79 cm q
0.901961 g
3.262 31.555 m 3.262 59.898 l 74.129 59.898 l 74.129 3.207 l 3.262 3.207
 l f
Q q
0 0 159.523 64 re W n
q
0 0 160 64 re W n
  q
0 g
0.850361 w
0 J
0 j
[] 0.0 d
10 M q 1 0 0 -1 0 0 cm
81.215 -59.898 m 3.262 -59.898 l 3.262 -3.207 l 159.168 -3.207 l 159.168
 -0.371 l 0.426 -0.371 l 0.426 -62.734 l 159.168 -62.734 l 159.168 -59.898
 l h
81.215 -59.898 m S Q
  Q
Q
Q q
74.555 23 m 85.039 23 l 85.039 31.555 l 74.555 31.555 l h
74.555 31.555 m 85.039 31.555 l 85.039 59.477 l 74.555 59.477 l h
74.555 31.555 m W n
q
74 23 12 37 re W n
  q
0 g
0.510386 w
2 J
0 j
[] 0.0 d
10 M q 1 0 0 -1 0 0 cm
112.52 -31.109 m 79.352 -64.273 l S Q
  Q
Q
Q q
74.555 21 m 85.039 21 l 85.039 31.555 l 74.555 31.555 l h
74.555 31.555 m 85.039 31.555 l 85.039 59.477 l 74.555 59.477 l h
74.555 31.555 m W n
q
74 21 12 39 re W n
  q
0 g
0.510386 w
2 J
0 j
[] 0.0 d
10 M q 1 0 0 -1 0 0 cm
110.117 -28.711 m 76.953 -61.875 l S Q
  Q
Q
Q q
74.555 19 m 85.039 19 l 85.039 31.555 l 74.555 31.555 l h
74.555 31.555 m 85.039 31.555 l 85.039 59.477 l 74.555 59.477 l h
74.555 31.555 m W n
q
74 19 12 41 re W n
  q
0 g
0.510386 w
2 J
0 j
[] 0.0 d
10 M q 1 0 0 -1 0 0 cm
107.719 -26.309 m 74.555 -59.477 l S Q
  Q
Q
Q q
74.555 16 m 85.039 16 l 85.039 31.555 l 74.555 31.555 l h
74.555 31.555 m 85.039 31.555 l 85.039 59.477 l 74.555 59.477 l h
74.555 31.555 m W n
q
74 16 12 44 re W n
  q
0 g
0.510386 w
2 J
0 j
[] 0.0 d
10 M q 1 0 0 -1 0 0 cm
105.316 -23.91 m 72.152 -57.074 l S Q
  Q
Q
Q q
74.555 14 m 85.039 14 l 85.039 31.555 l 74.555 31.555 l h
74.555 31.555 m 85.039 31.555 l 85.039 59.477 l 74.555 59.477 l h
74.555 31.555 m W n
q
74 14 12 46 re W n
  q
0 g
0.510386 w
2 J
0 j
[] 0.0 d
10 M q 1 0 0 -1 0 0 cm
102.918 -21.512 m 69.754 -54.676 l S Q
  Q
Q
Q q
74.555 11 m 85.039 11 l 85.039 31.555 l 74.555 31.555 l h
74.555 31.555 m 85.039 31.555 l 85.039 59.477 l 74.555 59.477 l h
74.555 31.555 m W n
q
74 11 12 49 re W n
  q
0 g
0.510386 w
2 J
0 j
[] 0.0 d
10 M q 1 0 0 -1 0 0 cm
100.52 -19.109 m 67.352 -52.273 l S Q
  Q
Q
Q q
74.555 9 m 85.039 9 l 85.039 31.555 l 74.555 31.555 l h
74.555 31.555 m 85.039 31.555 l 85.039 58 l 74.555 58 l h
74.555 31.555 m W n
q
74 9 12 49 re W n
  q
0 g
0.510386 w
2 J
0 j
[] 0.0 d
10 M q 1 0 0 -1 0 0 cm
98.117 -16.711 m 64.953 -49.875 l S Q
  Q
Q
Q q
74.555 7 m 85.039 7 l 85.039 31.555 l 74.555 31.555 l h
74.555 31.555 m 85.039 31.555 l 85.039 55 l 74.555 55 l h
74.555 31.555 m W n
q
74 7 12 48 re W n
  q
0 g
0.510386 w
2 J
0 j
[] 0.0 d
10 M q 1 0 0 -1 0 0 cm
95.719 -14.309 m 62.555 -47.477 l S Q
  Q
Q
Q q
74.555 4 m 85.039 4 l 85.039 31.555 l 74.555 31.555 l h
74.555 31.555 m 85.039 31.555 l 85.039 53 l 74.555 53 l h
74.555 31.555 m W n
q
74 4 12 49 re W n
  q
0 g
0.510386 w
2 J
0 j
[] 0.0 d
10 M q 1 0 0 -1 0 0 cm
93.316 -11.91 m 60.152 -45.074 l S Q
  Q
Q
Q q
74.555 3.633 m 85.039 3.633 l 85.039 31.555 l 74.555 31.555 l h
74.555 31.555 m 85.039 31.555 l 85.039 50 l 74.555 50 l h
74.555 31.555 m W n
q
74 3 12 47 re W n
  q
0 g
0.510386 w
2 J
0 j
[] 0.0 d
10 M q 1 0 0 -1 0 0 cm
90.918 -9.512 m 57.754 -42.676 l S Q
  Q
Q
Q q
74.555 3.633 m 85.039 3.633 l 85.039 31.555 l 74.555 31.555 l h
74.555 31.555 m 85.039 31.555 l 85.039 48 l 74.555 48 l h
74.555 31.555 m W n
q
74 3 12 45 re W n
  q
0 g
0.510386 w
2 J
0 j
[] 0.0 d
10 M q 1 0 0 -1 0 0 cm
88.52 -7.109 m 55.352 -40.273 l S Q
  Q
Q
Q q
74.555 3.633 m 85.039 3.633 l 85.039 31.555 l 74.555 31.555 l h
74.555 31.555 m 85.039 31.555 l 85.039 46 l 74.555 46 l h
74.555 31.555 m W n
q
74 3 12 43 re W n
  q
0 g
0.510386 w
2 J
0 j
[] 0.0 d
10 M q 1 0 0 -1 0 0 cm
86.117 -4.711 m 52.953 -37.875 l S Q
  Q
Q
Q q
74.555 3.633 m 85.039 3.633 l 85.039 31.555 l 74.555 31.555 l h
74.555 31.555 m 85.039 31.555 l 85.039 43 l 74.555 43 l h
74.555 31.555 m W n
q
74 3 12 40 re W n
  q
0 g
0.510386 w
2 J
0 j
[] 0.0 d
10 M q 1 0 0 -1 0 0 cm
83.719 -2.309 m 50.555 -35.477 l S Q
  Q
Q
Q q
74.555 3.633 m 85.039 3.633 l 85.039 31.555 l 74.555 31.555 l h
74.555 31.555 m 85.039 31.555 l 85.039 41 l 74.555 41 l h
74.555 31.555 m W n
q
74 3 12 38 re W n
  q
0 g
0.510386 w
2 J
0 j
[] 0.0 d
10 M q 1 0 0 -1 0 0 cm
81.316 0.09 m 48.152 -33.074 l S Q
  Q
Q
Q q
74.555 3.633 m 85.039 3.633 l 85.039 31.555 l 74.555 31.555 l h
74.555 31.555 m 85.039 31.555 l 85.039 38 l 74.555 38 l h
74.555 31.555 m W n
q
74 3 12 35 re W n
  q
0 g
0.510386 w
2 J
0 j
[] 0.0 d
10 M q 1 0 0 -1 0 0 cm
78.918 2.488 m 45.754 -30.676 l S Q
  Q
Q
Q q
0 g
0.850361 w
0 J
0 j
[] 0.0 d
10 M q 1 0 0 -1 0 0 cm
74.555 -31.555 m 74.555 -59.477 l 85.039 -59.477 l 85.039 -3.633 l 74.555
 -3.633 l h
74.555 -31.555 m S Q
0.425176 w
q 1 0 0 -1 0 0 cm
3.262 -65.57 m 3.262 -76.906 l S Q
q 1 0 0 -1 0 0 cm
74.129 -65.57 m 74.129 -76.906 l S Q
70.844 72.41 m 74.129 71.238 l 70.844 70.066 l 72.156 71.238 l f
q 1 0 0 -1 0 0 cm
3.262 -71.238 m 72.156 -71.238 l S Q
Q q
28.922 64 20 14.199 re W n
q
28 64 21 15 re W n
  q
1 g
28.984 71.191 m 28.984 78.109 l 48.504 78.109 l 48.504 64.273 l 28.984 
64.273 l f
  Q
Q
0 g
36.613 67.594 m 36.613 67.375 36.41 67.266 36.238 67.266 c 35.785 67.266
 35.207 67.938 34.77 68.641 c 34.754 68.641 34.691 68.344 34.691 68.344 
c 34.551 67.75 34.379 67.406 34.066 67.266 c 34.066 67.266 33.051 67.469
 32.926 67.516 c 32.926 67.672 l 33.113 67.625 33.254 67.594 33.348 67.594
 c 33.848 67.594 33.926 68.078 34.27 69.375 c 33.863 69.969 33.223 70.969
 32.973 70.969 c 32.77 70.969 32.754 70.75 32.473 70.75 c 32.285 70.75 32.145
 70.891 32.145 71.078 c 32.145 71.312 32.316 71.469 32.566 71.469 c 33.207
 71.469 33.785 70.344 34.332 69.641 c 34.363 69.703 34.566 70.5 34.566 70.5
 c 34.785 71.328 34.957 71.469 35.176 71.469 c 35.457 71.469 35.879 71.188
 36.301 70.406 c 36.176 70.328 l 36.02 70.531 35.77 70.953 35.535 70.953
 c 35.223 70.953 35.051 69.688 34.832 68.891 c 34.879 68.812 35.504 67.812
 35.832 67.812 c 36.004 67.812 36.16 67.953 36.316 67.953 c 36.535 67.953
 36.613 67.766 36.613 67.594 c h
36.613 67.594 m f
36.926 75.152 m 38.613 75.152 l 38.613 75.027 l 38.098 75.012 38.004 74.949
 38.004 74.496 c 38.004 73.402 l 38.254 73.637 38.41 73.699 38.707 73.699
 c 39.535 73.699 40.176 72.934 40.176 71.918 c 40.176 71.059 39.676 70.434
 39.004 70.434 c 38.613 70.434 38.316 70.605 38.004 70.98 c 38.004 70.449
 l 37.957 70.434 l 37.582 70.574 37.348 70.668 36.957 70.793 c 36.957 70.902
 l 37.02 70.887 37.066 70.887 37.129 70.887 c 37.363 70.887 37.41 70.965
 37.41 71.293 c 37.41 74.543 l 37.41 74.918 37.348 74.996 36.926 75.027 
c h
38.004 71.309 m 38.004 71.105 38.395 70.855 38.707 70.855 c 39.223 70.855
 39.566 71.371 39.566 72.199 c 39.566 72.965 39.223 73.48 38.723 73.48 c
 38.395 73.48 38.004 73.23 38.004 73.027 c h
38.004 71.309 m f
40.484 73.637 m 42.141 73.637 l 42.141 73.527 l 41.672 73.496 41.625 73.434
 41.625 72.934 c 41.625 70.449 l 41.594 70.434 l 40.516 70.809 l 40.516 
70.918 l 40.562 70.918 l 40.656 70.902 40.734 70.887 40.812 70.887 c 40.969
 70.887 41.031 70.996 41.031 71.309 c 41.031 72.934 l 41.016 73.449 40.953
 73.512 40.484 73.527 c h
41.266 68.871 m 41.078 68.871 40.922 69.043 40.922 69.23 c 40.922 69.434
 41.078 69.59 41.266 69.59 c 41.469 69.59 41.625 69.434 41.625 69.23 c 41.625
 69.027 41.469 68.871 41.266 68.871 c h
41.266 68.871 m f
44.48 71.449 m 44.465 70.496 l 44.387 70.496 l 44.355 70.543 44.309 70.574
 44.277 70.574 c 44.23 70.574 44.168 70.559 44.09 70.527 c 43.918 70.465
 43.762 70.434 43.59 70.434 c 43.043 70.434 42.652 70.793 42.652 71.293 
c 42.652 71.684 42.871 71.965 43.465 72.293 c 43.871 72.527 l 44.105 72.668
 44.23 72.84 44.23 73.059 c 44.23 73.355 44.012 73.559 43.652 73.559 c 43.168
 73.559 42.934 73.293 42.762 72.574 c 42.652 72.574 l 42.652 73.668 l 42.746
 73.668 l 42.793 73.59 42.824 73.574 42.902 73.574 c 42.98 73.574 43.074
 73.59 43.23 73.637 c 43.418 73.684 43.59 73.699 43.73 73.699 c 44.277 73.699
 44.715 73.309 44.715 72.809 c 44.715 72.465 44.559 72.23 44.137 71.98 c
 43.387 71.543 l 43.184 71.418 43.074 71.246 43.074 71.059 c 43.074 70.777
 43.293 70.59 43.621 70.59 c 44.012 70.59 44.23 70.824 44.387 71.449 c h
44.48 71.449 m f
Q q
0 g
36.027 26.707 m 31.527 26.707 l 31.512 26.848 l 31.793 26.848 32.184 26.879
 32.184 27.285 c 32.184 27.41 32.168 27.551 32.059 27.879 c 31.012 31.707
 l 30.762 32.613 30.449 32.598 30.074 32.598 c 30.059 32.754 l 32.465 32.754
 l 32.496 32.598 l 32.262 32.598 31.855 32.566 31.855 32.129 c 31.855 32.051
 31.855 31.941 31.887 31.832 c 32.434 29.707 l 33.605 29.723 33.918 29.77
 33.918 30.207 c 33.918 30.332 33.887 30.488 33.855 30.707 c 34.027 30.707
 l 34.637 28.535 l 34.48 28.535 l 34.355 28.832 34.246 29.41 32.527 29.41
 c 33.168 27.02 l 34.121 27.02 l 34.965 27.02 35.559 27.191 35.559 27.816
 c 35.559 27.926 35.527 28.02 35.512 28.129 c 35.684 28.129 l h
36.027 26.707 m f
38.52 32.211 m 38.52 31.945 l 37.973 31.945 l 37.832 31.945 37.738 31.914
 37.598 31.867 c 37.441 31.82 l 37.254 31.742 37.066 31.711 36.879 31.711
 c 36.238 31.711 35.723 32.211 35.723 32.852 c 35.723 33.289 35.895 33.555
 36.363 33.773 c 36.191 33.945 l 36.035 34.086 35.957 34.164 35.941 34.195
 c 35.785 34.336 35.754 34.414 35.754 34.539 c 35.754 34.695 35.816 34.773
 36.113 34.914 c 35.613 35.273 35.426 35.492 35.426 35.758 c 35.426 36.133
 35.973 36.43 36.645 36.43 c 37.16 36.43 37.707 36.258 38.066 35.961 c 38.332
 35.742 38.457 35.523 38.457 35.258 c 38.457 34.82 38.129 34.539 37.613 
34.508 c 36.707 34.461 l 36.332 34.461 36.16 34.398 36.16 34.273 c 36.16
 34.133 36.395 33.898 36.582 33.836 c 36.832 33.867 36.973 33.883 36.973
 33.883 c 37.238 33.883 37.52 33.773 37.738 33.586 c 37.957 33.383 38.066
 33.148 38.066 32.789 c 38.066 32.586 38.035 32.43 37.941 32.211 c h
36.27 34.93 m 36.504 34.977 37.051 35.023 37.395 35.023 c 38.02 35.023 
38.254 35.102 38.254 35.367 c 38.254 35.758 37.723 36.039 36.941 36.039 
c 36.316 36.039 35.926 35.836 35.926 35.523 c 35.926 35.367 35.988 35.258
 36.27 34.93 c h
36.301 32.555 m 36.301 32.148 36.488 31.898 36.816 31.898 c 37.035 31.898
 37.207 32.023 37.316 32.227 c 37.457 32.477 37.535 32.789 37.535 33.07 
c 37.535 33.461 37.332 33.695 37.02 33.695 c 36.582 33.695 36.301 33.242
 36.301 32.586 c h
36.301 32.555 m f
41.797 34.461 m 41.688 34.555 41.594 34.586 41.5 34.586 c 41.328 34.586
 41.281 34.492 41.281 34.18 c 41.281 32.82 l 41.281 32.461 41.25 32.258 
41.141 32.086 c 40.984 31.836 40.688 31.711 40.281 31.711 c 39.625 31.711
 39.109 32.055 39.109 32.492 c 39.109 32.648 39.234 32.789 39.406 32.789
 c 39.578 32.789 39.719 32.648 39.719 32.492 c 39.719 32.461 39.719 32.43
 39.703 32.383 c 39.688 32.32 39.688 32.273 39.688 32.211 c 39.688 32.023
 39.906 31.883 40.188 31.883 c 40.531 31.883 40.719 32.07 40.719 32.461 
c 40.719 32.883 l 39.656 33.305 39.531 33.367 39.234 33.633 c 39.078 33.773
 38.984 34.008 38.984 34.242 c 38.984 34.68 39.281 34.977 39.703 34.977 
c 40.016 34.977 40.297 34.836 40.719 34.477 c 40.766 34.852 40.891 34.977
 41.172 34.977 c 41.406 34.977 41.562 34.898 41.797 34.633 c h
40.719 34.055 m 40.719 34.273 40.688 34.336 40.531 34.43 c 40.359 34.523
 40.172 34.586 40.031 34.586 c 39.781 34.586 39.594 34.336 39.594 34.039
 c 39.594 34.008 l 39.594 33.602 39.906 33.336 40.719 33.039 c h
40.719 34.055 m f
44.023 32.727 m 44.008 31.773 l 43.93 31.773 l 43.898 31.82 43.852 31.852
 43.82 31.852 c 43.773 31.852 43.711 31.836 43.633 31.805 c 43.461 31.742
 43.305 31.711 43.133 31.711 c 42.586 31.711 42.195 32.07 42.195 32.57 c
 42.195 32.961 42.414 33.242 43.008 33.57 c 43.414 33.805 l 43.648 33.945
 43.773 34.117 43.773 34.336 c 43.773 34.633 43.555 34.836 43.195 34.836
 c 42.711 34.836 42.477 34.57 42.305 33.852 c 42.195 33.852 l 42.195 34.945
 l 42.289 34.945 l 42.336 34.867 42.367 34.852 42.445 34.852 c 42.523 34.852
 42.617 34.867 42.773 34.914 c 42.961 34.961 43.133 34.977 43.273 34.977
 c 43.82 34.977 44.258 34.586 44.258 34.086 c 44.258 33.742 44.102 33.508
 43.68 33.258 c 42.93 32.82 l 42.727 32.695 42.617 32.523 42.617 32.336 
c 42.617 32.055 42.836 31.867 43.164 31.867 c 43.555 31.867 43.773 32.102
 43.93 32.727 c h
44.023 32.727 m f
69.656 33.152 m 74.129 31.555 l 69.656 29.957 l 71.445 31.555 l f
0.850361 w
0 J
0 j
[] 0.0 d
10 M q 1 0 0 -1 0 0 cm
45.781 -31.555 m 71.445 -31.555 l S Q
1 g
91.445 24.406 m 91.445 31.59 l 113.457 31.59 l 113.457 17.227 l 91.445 
17.227 l f
0 g
101.105 20.219 m 96.605 20.219 l 96.59 20.359 l 96.871 20.359 97.262 20.391
 97.262 20.797 c 97.262 20.922 97.246 21.062 97.137 21.391 c 96.09 25.219
 l 95.84 26.125 95.527 26.109 95.152 26.109 c 95.137 26.266 l 97.543 26.266
 l 97.574 26.109 l 97.34 26.109 96.934 26.078 96.934 25.641 c 96.934 25.562
 96.934 25.453 96.965 25.344 c 97.512 23.219 l 98.684 23.234 98.996 23.281
 98.996 23.719 c 98.996 23.844 98.965 24 98.934 24.219 c 99.105 24.219 l
 99.715 22.047 l 99.559 22.047 l 99.434 22.344 99.324 22.922 97.605 22.922
 c 98.246 20.531 l 99.199 20.531 l 100.043 20.531 100.637 20.703 100.637
 21.328 c 100.637 21.438 100.605 21.531 100.59 21.641 c 100.762 21.641 l
 h
101.105 20.219 m f
102.469 25.406 m 101.609 25.406 l 101.609 24.609 l 101.609 24.188 101.734
 23.984 102 23.984 c 102.156 23.984 102.25 24.047 102.375 24.25 c 102.484
 24.438 102.578 24.5 102.688 24.5 c 102.859 24.5 102.984 24.375 102.984 
24.219 c 102.984 23.969 102.672 23.781 102.25 23.781 c 101.812 23.781 101.453
 23.969 101.281 24.281 c 101.094 24.609 101.031 24.859 101.031 25.406 c 
100.453 25.406 l 100.453 25.641 l 101.031 25.641 l 101.031 27.828 l 101.016
 28.344 100.953 28.422 100.453 28.438 c 100.453 28.547 l 102.266 28.547 
l 102.266 28.438 l 101.688 28.422 101.609 28.344 101.609 27.828 c 101.609
 25.641 l 102.469 25.641 l h
102.469 25.406 m f
102.625 28.547 m 104.297 28.547 l 104.297 28.438 l 103.828 28.422 103.719
 28.328 103.703 27.922 c 103.703 26.359 l 103.703 26.125 104 25.781 104.203
 25.781 c 104.234 25.781 104.297 25.812 104.375 25.891 c 104.484 25.984 
104.562 26.031 104.656 26.031 c 104.828 26.031 104.922 25.906 104.922 25.703
 c 104.922 25.484 104.781 25.344 104.547 25.344 c 104.25 25.344 104.062 
25.5 103.703 26 c 103.703 25.359 l 103.672 25.344 l 103.281 25.5 103.031
 25.594 102.641 25.719 c 102.641 25.828 l 102.734 25.812 102.797 25.797 
102.891 25.797 c 103.062 25.797 103.125 25.906 103.125 26.219 c 103.125 
27.969 l 103.109 28.328 103.062 28.359 102.625 28.438 c h
102.625 28.547 m f
104.984 28.547 m 106.641 28.547 l 106.641 28.438 l 106.172 28.406 106.125
 28.344 106.125 27.844 c 106.125 25.359 l 106.094 25.344 l 105.016 25.719
 l 105.016 25.828 l 105.062 25.828 l 105.156 25.812 105.234 25.797 105.312
 25.797 c 105.469 25.797 105.531 25.906 105.531 26.219 c 105.531 27.844 
l 105.516 28.359 105.453 28.422 104.984 28.438 c h
105.766 23.781 m 105.578 23.781 105.422 23.953 105.422 24.141 c 105.422
 24.344 105.578 24.5 105.766 24.5 c 105.969 24.5 106.125 24.344 106.125 
24.141 c 106.125 23.938 105.969 23.781 105.766 23.781 c h
105.766 23.781 m f
109.574 27.453 m 109.23 27.953 108.98 28.109 108.59 28.109 c 107.949 28.109
 107.496 27.562 107.496 26.75 c 107.496 26.031 107.887 25.547 108.449 25.547
 c 108.699 25.547 108.793 25.609 108.855 25.875 c 108.902 26.031 l 108.965
 26.234 109.09 26.359 109.246 26.359 c 109.418 26.359 109.574 26.219 109.574
 26.062 c 109.574 25.672 109.074 25.344 108.496 25.344 c 108.152 25.344 
107.793 25.484 107.512 25.734 c 107.168 26.031 106.965 26.516 106.965 27.062
 c 106.965 27.969 107.512 28.609 108.293 28.609 c 108.605 28.609 108.887
 28.5 109.137 28.281 c 109.324 28.125 109.449 27.938 109.668 27.516 c h
109.574 27.453 m f
89.941 22.871 m 85.465 24.469 l 89.941 26.062 l 88.152 24.469 l f
q 1 0 0 -1 0 0 cm
88.152 -24.469 m 93.969 -24.469 l S Q
1 g
103.383 38.582 m 103.383 45.762 l 124.133 45.762 l 124.133 31.398 l 103.383
 31.398 l f
0 g
113.043 34.395 m 108.543 34.395 l 108.527 34.535 l 108.809 34.535 109.199
 34.566 109.199 34.973 c 109.199 35.098 109.184 35.238 109.074 35.566 c 
108.027 39.395 l 107.777 40.301 107.465 40.285 107.09 40.285 c 107.074 40.441
 l 109.48 40.441 l 109.512 40.285 l 109.277 40.285 108.871 40.254 108.871
 39.816 c 108.871 39.738 108.871 39.629 108.902 39.52 c 109.449 37.395 l
 110.621 37.41 110.934 37.457 110.934 37.895 c 110.934 38.02 110.902 38.176
 110.871 38.395 c 111.043 38.395 l 111.652 36.223 l 111.496 36.223 l 111.371
 36.52 111.262 37.098 109.543 37.098 c 110.184 34.707 l 111.137 34.707 l
 111.98 34.707 112.574 34.879 112.574 35.504 c 112.574 35.613 112.543 35.707
 112.527 35.816 c 112.699 35.816 l h
113.043 34.395 m f
115.098 41.578 m 114.77 42.109 114.457 42.312 114.02 42.312 c 113.613 42.312
 113.316 42.109 113.113 41.703 c 112.988 41.438 112.941 41.219 112.926 40.781
 c 115.082 40.781 l 115.02 40.328 114.957 40.141 114.77 39.906 c 114.566
 39.656 114.254 39.516 113.879 39.516 c 113.535 39.516 113.207 39.641 112.941
 39.875 c 112.613 40.156 112.426 40.656 112.426 41.234 c 112.426 42.188 
112.926 42.781 113.738 42.781 c 114.395 42.781 114.91 42.375 115.207 41.625
 c h
112.941 40.562 m 113.02 40.016 113.254 39.766 113.676 39.766 c 114.113 
39.766 114.27 39.953 114.363 40.562 c h
112.941 40.562 m f
117.191 42.719 m 118.598 42.719 l 118.598 42.609 l 118.379 42.609 118.238
 42.5 118.02 42.203 c 117.129 40.828 l 117.707 40 l 117.832 39.812 118.035
 39.703 118.27 39.688 c 118.27 39.578 l 117.176 39.578 l 117.176 39.688 
l 117.379 39.703 117.441 39.75 117.441 39.844 c 117.441 39.922 117.363 40.078
 117.191 40.297 c 117.16 40.328 117.066 40.453 116.988 40.594 c 116.926 
40.516 l 116.816 40.359 116.754 40.266 116.738 40.234 c 116.613 40.016 116.566
 39.906 116.566 39.844 c 116.566 39.734 116.66 39.688 116.863 39.688 c 116.863
 39.578 l 115.426 39.578 l 115.426 39.688 l 115.488 39.688 l 115.691 39.688
 115.801 39.781 116.02 40.109 c 116.676 41.109 l 115.879 42.266 l 115.676
 42.547 115.598 42.594 115.379 42.609 c 115.379 42.719 l 116.379 42.719 
l 116.379 42.609 l 116.176 42.609 116.098 42.578 116.098 42.484 c 116.098
 42.438 116.145 42.344 116.238 42.203 c 116.801 41.344 l 117.426 42.328 
l 117.457 42.359 117.473 42.391 117.473 42.453 c 117.473 42.578 117.426 
42.594 117.191 42.609 c h
117.191 42.719 m f
120.516 39.578 m 119.812 39.578 l 119.812 38.781 l 119.812 38.703 119.797
 38.688 119.766 38.688 c 119.359 39.266 119.141 39.5 118.938 39.625 c 118.859
 39.672 118.828 39.719 118.828 39.75 c 118.828 39.781 118.828 39.797 118.859
 39.812 c 119.219 39.812 l 119.219 41.906 l 119.219 42.484 119.438 42.781
 119.844 42.781 c 120.188 42.781 120.453 42.625 120.672 42.266 c 120.594
 42.188 l 120.438 42.359 120.328 42.422 120.172 42.422 c 119.906 42.422 
119.812 42.234 119.812 41.797 c 119.812 39.812 l 120.516 39.812 l h
120.516 39.578 m f
89.941 37.043 m 85.465 38.641 l 89.941 40.238 l 88.152 38.641 l f
q 1 0 0 -1 0 0 cm
88.152 -38.641 m 105.309 -38.641 l S Q
Q Q
showpage
%%Trailer
end
%%EOF
