%!PS-Adobe-3.0 EPSF-3.0
%%Creator: cairo 1.17.4 (https://cairographics.org)
%%CreationDate: Thu Feb 24 10:47:06 2022
%%Pages: 1
%%DocumentData: Clean7Bit
%%LanguageLevel: 2
%%BoundingBox: 0 0 243 99
%%EndComments
%%BeginProlog
50 dict begin
/q { gsave } bind def
/Q { grestore } bind def
/cm { 6 array astore concat } bind def
/w { setlinewidth } bind def
/J { setlinecap } bind def
/j { setlinejoin } bind def
/M { setmiterlimit } bind def
/d { setdash } bind def
/m { moveto } bind def
/l { lineto } bind def
/c { curveto } bind def
/h { closepath } bind def
/re { exch dup neg 3 1 roll 5 3 roll moveto 0 rlineto
      0 exch rlineto 0 rlineto closepath } bind def
/S { stroke } bind def
/f { fill } bind def
/f* { eofill } bind def
/n { newpath } bind def
/W { clip } bind def
/W* { eoclip } bind def
/BT { } bind def
/ET { } bind def
/BDC { mark 3 1 roll /BDC pdfmark } bind def
/EMC { mark /EMC pdfmark } bind def
/cairo_store_point { /cairo_point_y exch def /cairo_point_x exch def } def
/Tj { show currentpoint cairo_store_point } bind def
/TJ {
  {
    dup
    type /stringtype eq
    { show } { -0.001 mul 0 cairo_font_matrix dtransform rmoveto } ifelse
  } forall
  currentpoint cairo_store_point
} bind def
/cairo_selectfont { cairo_font_matrix aload pop pop pop 0 0 6 array astore
    cairo_font exch selectfont cairo_point_x cairo_point_y moveto } bind def
/Tf { pop /cairo_font exch def /cairo_font_matrix where
      { pop cairo_selectfont } if } bind def
/Td { matrix translate cairo_font_matrix matrix concatmatrix dup
      /cairo_font_matrix exch def dup 4 get exch 5 get cairo_store_point
      /cairo_font where { pop cairo_selectfont } if } bind def
/Tm { 2 copy 8 2 roll 6 array astore /cairo_font_matrix exch def
      cairo_store_point /cairo_font where { pop cairo_selectfont } if } bind def
/g { setgray } bind def
/rg { setrgbcolor } bind def
/d1 { setcachedevice } bind def
/cairo_data_source {
  CairoDataIndex CairoData length lt
    { CairoData CairoDataIndex get /CairoDataIndex CairoDataIndex 1 add def }
    { () } ifelse
} def
/cairo_flush_ascii85_file { cairo_ascii85_file status { cairo_ascii85_file flushfile } if } def
/cairo_image { image cairo_flush_ascii85_file } def
/cairo_imagemask { imagemask cairo_flush_ascii85_file } def
%%EndProlog
%%BeginSetup
%%EndSetup
%%Page: 1 1
%%BeginPageSetup
%%PageBoundingBox: 0 0 243 99
%%EndPageSetup
q 0 0 243 99 rectclip
1 0 0 -1 0 99 cm q
0.74902 g
87.594 43.969 m 87.594 25.184 68.555 9.953 45.074 9.953 c 21.59 9.953 2.551
 25.184 2.551 43.969 c 2.551 62.754 21.59 77.984 45.074 77.984 c 68.555 
77.984 87.594 62.754 87.594 43.969 c f
0 g
0.567043 w
0 J
0 j
[] 0.0 d
10 M q 1 0 0 -1 0 0 cm
87.594 -43.969 m 87.594 -25.184 68.555 -9.953 45.074 -9.953 c 21.59 -9.953
 2.551 -25.184 2.551 -43.969 c 2.551 -62.754 21.59 -77.984 45.074 -77.984
 c 68.555 -77.984 87.594 -62.754 87.594 -43.969 c h
87.594 -43.969 m S Q
q 1 0 0 -1 0 0 cm
89.859 -43.969 m 89.859 -23.93 69.809 -7.684 45.074 -7.684 c 20.336 -7.684
 0.285 -23.93 0.285 -43.969 c 0.285 -64.008 20.336 -80.25 45.074 -80.25 
c 69.809 -80.25 89.859 -64.008 89.859 -43.969 c h
89.859 -43.969 m S Q
77.969 16.414 m 76.254 20.844 l 80.387 18.5 l 78.008 18.812 l f
0.850361 w
q 1 0 0 -1 0 0 cm
85.516 -10.113 m 78.008 -18.812 l S Q
88.938 0.395 m 84.438 0.395 l 84.422 0.535 l 84.703 0.535 85.094 0.566 
85.094 0.973 c 85.094 1.098 85.078 1.238 84.969 1.566 c 83.922 5.395 l 83.672
 6.301 83.359 6.285 82.984 6.285 c 82.969 6.441 l 85.375 6.441 l 85.406 
6.285 l 85.172 6.285 84.766 6.254 84.766 5.816 c 84.766 5.738 84.766 5.629
 84.797 5.52 c 85.344 3.395 l 86.516 3.41 86.828 3.457 86.828 3.895 c 86.828
 4.02 86.797 4.176 86.766 4.395 c 86.938 4.395 l 87.547 2.223 l 87.391 2.223
 l 87.266 2.52 87.156 3.098 85.438 3.098 c 86.078 0.707 l 87.031 0.707 l
 87.875 0.707 88.469 0.879 88.469 1.504 c 88.469 1.613 88.438 1.707 88.422
 1.816 c 88.594 1.816 l h
88.938 0.395 m f
91.773 1.016 m 91.758 0.062 l 91.68 0.062 l 91.648 0.109 91.602 0.141 91.57
 0.141 c 91.523 0.141 91.461 0.125 91.383 0.094 c 91.211 0.031 91.055 0 
90.883 0 c 90.336 0 89.945 0.359 89.945 0.859 c 89.945 1.25 90.164 1.531
 90.758 1.859 c 91.164 2.094 l 91.398 2.234 91.523 2.406 91.523 2.625 c 
91.523 2.922 91.305 3.125 90.945 3.125 c 90.461 3.125 90.227 2.859 90.055
 2.141 c 89.945 2.141 l 89.945 3.234 l 90.039 3.234 l 90.086 3.156 90.117
 3.141 90.195 3.141 c 90.273 3.141 90.367 3.156 90.523 3.203 c 90.711 3.25
 90.883 3.266 91.023 3.266 c 91.57 3.266 92.008 2.875 92.008 2.375 c 92.008
 2.031 91.852 1.797 91.43 1.547 c 90.68 1.109 l 90.477 0.984 90.367 0.812
 90.367 0.625 c 90.367 0.344 90.586 0.156 90.914 0.156 c 91.305 0.156 91.523
 0.391 91.68 1.016 c h
91.773 1.016 m f
95.688 2.859 m 95.641 2.859 l 95.312 2.844 95.25 2.781 95.25 2.453 c 95.25
 0.062 l 94.156 0.062 l 94.156 0.188 l 94.578 0.203 94.672 0.281 94.672 
0.625 c 94.672 2.266 l 94.672 2.453 94.625 2.562 94.531 2.625 c 94.344 2.781
 94.125 2.875 93.922 2.875 c 93.641 2.875 93.422 2.625 93.422 2.344 c 93.422
 0.062 l 92.406 0.062 l 92.406 0.172 l 92.734 0.172 92.828 0.281 92.844 
0.609 c 92.844 2.359 l 92.844 2.922 93.172 3.266 93.688 3.266 c 93.938 3.266
 94.219 3.156 94.406 2.969 c 94.703 2.672 l 94.703 3.25 l 94.734 3.266 l
 95.078 3.125 95.328 3.047 95.688 2.953 c h
95.688 2.859 m f
95.855 3.203 m 97.527 3.203 l 97.527 3.094 l 97.059 3.078 96.949 2.984 
96.934 2.578 c 96.934 1.016 l 96.934 0.781 97.23 0.438 97.434 0.438 c 97.465
 0.438 97.527 0.469 97.605 0.547 c 97.715 0.641 97.793 0.688 97.887 0.688
 c 98.059 0.688 98.152 0.562 98.152 0.359 c 98.152 0.141 98.012 0 97.777
 0 c 97.48 0 97.293 0.156 96.934 0.656 c 96.934 0.016 l 96.902 0 l 96.512
 0.156 96.262 0.25 95.871 0.375 c 95.871 0.484 l 95.965 0.469 96.027 0.453
 96.121 0.453 c 96.293 0.453 96.355 0.562 96.355 0.875 c 96.355 2.625 l 
96.34 2.984 96.293 3.016 95.855 3.094 c h
95.855 3.203 m f
89.363 7.508 m 89.332 7.664 89.316 7.82 89.316 7.93 c 89.316 8.477 89.676
 8.68 89.973 8.68 c 90.301 8.68 90.926 8.445 91.129 7.711 c 90.941 7.711
 l 90.754 8.023 90.473 8.195 90.238 8.195 c 90.145 8.195 89.941 8.086 89.941
 7.805 c 89.941 7.742 89.957 7.68 89.973 7.617 c 90.379 5.961 l 90.77 5.961
 l 91.191 5.961 91.598 5.695 91.691 5.227 c 91.566 5.18 l 91.395 5.305 91.16
 5.352 90.91 5.352 c 89.535 5.352 l 89.02 5.352 88.66 5.758 88.582 6.07 
c 88.707 6.133 l 88.832 6.039 88.957 5.961 89.254 5.961 c 89.754 5.961 l
 h
89.363 7.508 m f
74.539 25.273 m 76.254 20.844 l 72.121 23.184 l 74.5 22.875 l f
q 1 0 0 -1 0 0 cm
66.992 -31.57 m 74.5 -22.875 l S Q
60.352 35.371 m 55.852 35.371 l 55.836 35.512 l 56.117 35.512 56.508 35.543
 56.508 35.949 c 56.508 36.074 56.492 36.215 56.383 36.543 c 55.336 40.371
 l 55.086 41.277 54.773 41.262 54.398 41.262 c 54.383 41.418 l 56.789 41.418
 l 56.82 41.262 l 56.586 41.262 56.18 41.23 56.18 40.793 c 56.18 40.715 
56.18 40.605 56.211 40.496 c 56.758 38.371 l 57.93 38.387 58.242 38.434 
58.242 38.871 c 58.242 38.996 58.211 39.152 58.18 39.371 c 58.352 39.371
 l 58.961 37.199 l 58.805 37.199 l 58.68 37.496 58.57 38.074 56.852 38.074
 c 57.492 35.684 l 58.445 35.684 l 59.289 35.684 59.883 35.855 59.883 36.48
 c 59.883 36.59 59.852 36.684 59.836 36.793 c 60.008 36.793 l h
60.352 35.371 m f
63.305 34.434 m 63.289 33.48 l 63.211 33.48 l 63.18 33.527 63.133 33.559
 63.102 33.559 c 63.055 33.559 62.992 33.543 62.914 33.512 c 62.742 33.449
 62.586 33.418 62.414 33.418 c 61.867 33.418 61.477 33.777 61.477 34.277
 c 61.477 34.668 61.695 34.949 62.289 35.277 c 62.695 35.512 l 62.93 35.652
 63.055 35.824 63.055 36.043 c 63.055 36.34 62.836 36.543 62.477 36.543 
c 61.992 36.543 61.758 36.277 61.586 35.559 c 61.477 35.559 l 61.477 36.652
 l 61.57 36.652 l 61.617 36.574 61.648 36.559 61.727 36.559 c 61.805 36.559
 61.898 36.574 62.055 36.621 c 62.242 36.668 62.414 36.684 62.555 36.684
 c 63.102 36.684 63.539 36.293 63.539 35.793 c 63.539 35.449 63.383 35.215
 62.961 34.965 c 62.211 34.527 l 62.008 34.402 61.898 34.23 61.898 34.043
 c 61.898 33.762 62.117 33.574 62.445 33.574 c 62.836 33.574 63.055 33.809
 63.211 34.434 c h
63.305 34.434 m f
67.191 33.48 m 66.254 33.48 l 66.254 33.59 l 66.473 33.59 66.582 33.652
 66.582 33.762 c 66.582 33.793 66.582 33.84 66.551 33.887 c 65.879 35.809
 l 65.082 34.043 l 65.035 33.949 65.004 33.84 65.004 33.777 c 65.004 33.652
 65.113 33.605 65.41 33.59 c 65.41 33.48 l 63.973 33.48 l 63.973 33.59 l
 64.16 33.605 64.27 33.684 64.332 33.809 c 65.129 35.527 l 65.207 35.715
 65.223 35.715 65.254 35.777 c 65.441 36.137 65.551 36.387 65.551 36.496
 c 65.551 36.605 65.395 37.027 65.285 37.246 c 65.176 37.418 65.035 37.559
 64.926 37.559 c 64.895 37.559 64.832 37.543 64.754 37.512 c 64.629 37.465
 64.504 37.434 64.395 37.434 c 64.223 37.434 64.082 37.559 64.082 37.73 
c 64.082 37.965 64.301 38.137 64.598 38.137 c 65.082 38.137 65.395 37.762
 65.785 36.746 c 66.848 33.902 l 66.941 33.684 67.02 33.605 67.191 33.59
 c h
67.191 33.48 m f
69.547 34.434 m 69.531 33.48 l 69.453 33.48 l 69.422 33.527 69.375 33.559
 69.344 33.559 c 69.297 33.559 69.234 33.543 69.156 33.512 c 68.984 33.449
 68.828 33.418 68.656 33.418 c 68.109 33.418 67.719 33.777 67.719 34.277
 c 67.719 34.668 67.938 34.949 68.531 35.277 c 68.938 35.512 l 69.172 35.652
 69.297 35.824 69.297 36.043 c 69.297 36.34 69.078 36.543 68.719 36.543 
c 68.234 36.543 68 36.277 67.828 35.559 c 67.719 35.559 l 67.719 36.652 
l 67.812 36.652 l 67.859 36.574 67.891 36.559 67.969 36.559 c 68.047 36.559
 68.141 36.574 68.297 36.621 c 68.484 36.668 68.656 36.684 68.797 36.684
 c 69.344 36.684 69.781 36.293 69.781 35.793 c 69.781 35.449 69.625 35.215
 69.203 34.965 c 68.453 34.527 l 68.25 34.402 68.141 34.23 68.141 34.043
 c 68.141 33.762 68.359 33.574 68.688 33.574 c 69.078 33.574 69.297 33.809
 69.453 34.434 c h
69.547 34.434 m f
60.777 42.125 m 60.746 42.281 60.73 42.438 60.73 42.547 c 60.73 43.094 
61.09 43.297 61.387 43.297 c 61.715 43.297 62.34 43.062 62.543 42.328 c 
62.355 42.328 l 62.168 42.641 61.887 42.812 61.652 42.812 c 61.559 42.812
 61.355 42.703 61.355 42.422 c 61.355 42.359 61.371 42.297 61.387 42.234
 c 61.793 40.578 l 62.184 40.578 l 62.605 40.578 63.012 40.312 63.105 39.844
 c 62.98 39.797 l 62.809 39.922 62.574 39.969 62.324 39.969 c 60.949 39.969
 l 60.434 39.969 60.074 40.375 59.996 40.688 c 60.121 40.75 l 60.246 40.656
 60.371 40.578 60.668 40.578 c 61.168 40.578 l h
60.777 42.125 m f
1.70071 w
q 1 0 0 -1 0 0 cm
70.668 -16.812 m 73.418 -18.625 l 76.254 -20.836 l 79.09 -23.559 l 80.648
 -25.344 l S Q
Q q
39.992 90.848 3 8.152 re W n
q
39 90 4 9 re W n
  q
0 g
42.793 91.211 m 42.137 91.648 41.871 91.867 41.527 92.289 c 40.902 93.07
 40.59 93.961 40.59 95.008 c 40.59 96.164 40.918 97.039 41.699 97.945 c 
42.074 98.383 42.309 98.57 42.777 98.867 c 42.871 98.711 l 42.168 98.148
 41.918 97.836 41.668 97.164 c 41.449 96.57 41.355 95.898 41.355 94.992 
c 41.355 94.039 41.465 93.305 41.715 92.758 c 41.965 92.195 42.23 91.867
 42.871 91.352 c h
42.793 91.211 m f
  Q
Q
Q q
0 g
47.121 96.68 m 46.965 96.805 46.855 96.852 46.715 96.852 c 46.512 96.852
 46.449 96.727 46.449 96.336 c 46.449 94.586 l 46.449 94.117 46.402 93.852
 46.277 93.648 c 46.074 93.32 45.684 93.148 45.168 93.148 c 44.324 93.148
 43.652 93.586 43.652 94.148 c 43.652 94.352 43.824 94.539 44.043 94.539
 c 44.262 94.539 44.449 94.352 44.449 94.164 c 44.449 94.133 44.434 94.086
 44.434 94.023 c 44.402 93.93 44.402 93.867 44.402 93.805 c 44.402 93.555
 44.684 93.367 45.043 93.367 c 45.48 93.367 45.73 93.617 45.73 94.102 c 
45.73 94.648 l 44.355 95.195 44.199 95.289 43.809 95.617 c 43.605 95.805
 43.48 96.102 43.48 96.398 c 43.48 96.961 43.871 97.367 44.434 97.367 c 
44.824 97.367 45.184 97.18 45.73 96.711 c 45.777 97.18 45.949 97.367 46.309
 97.367 c 46.621 97.367 46.809 97.258 47.121 96.914 c h
45.73 96.164 m 45.73 96.445 45.684 96.539 45.496 96.648 c 45.262 96.773
 45.027 96.836 44.84 96.836 c 44.527 96.836 44.277 96.539 44.277 96.148 
c 44.277 96.117 l 44.277 95.586 44.684 95.242 45.73 94.867 c h
45.73 96.164 m f
Q q
46.992 90.848 3 8.152 re W n
q
46 90 4 9 re W n
  q
0 g
47.453 98.867 m 48.109 98.414 48.391 98.195 48.719 97.789 c 49.359 97.008
 49.672 96.102 49.672 95.055 c 49.672 93.914 49.328 93.039 48.547 92.133
 c 48.172 91.695 47.938 91.492 47.484 91.211 c 47.375 91.352 l 48.094 91.914
 48.328 92.227 48.578 92.898 c 48.797 93.508 48.891 94.18 48.891 95.086 
c 48.891 96.023 48.781 96.758 48.531 97.305 c 48.297 97.867 48.016 98.195
 47.375 98.711 c h
47.453 98.867 m f
  Q
Q
Q q
0 g
0.850361 w
1 J
0 j
[] 0.0 d
10 M q 1 0 0 -1 0 0 cm
229.324 -43.969 m 229.324 -43.949 l 229.258 -42.098 m 229.254 -42.078 l
 229.062 -40.234 m 229.062 -40.215 l 228.746 -38.387 m 228.742 -38.371 l
 228.301 -36.566 m 228.297 -36.551 l 227.742 -34.781 m 227.734 -34.762 l
 227.066 -33.035 m 227.059 -33.016 l 226.277 -31.332 m 226.27 -31.316 l 
225.391 -29.684 m 225.383 -29.668 l 224.406 -28.09 m 224.395 -28.074 l 223.332
 -26.559 m 223.32 -26.543 l 222.168 -25.086 m 222.16 -25.07 l 220.93 -23.68
 m 220.918 -23.668 l 219.621 -22.34 m 219.613 -22.332 l 219.605 -22.328 
l 218.242 -21.07 m 218.23 -21.059 l 216.805 -19.867 m 216.793 -19.855 l 
215.312 -18.734 m 215.297 -18.723 l 213.773 -17.672 m 213.754 -17.66 l 212.184
 -16.676 m 212.168 -16.668 l 210.555 -15.75 m 210.539 -15.742 l 208.887 
-14.895 m 208.871 -14.887 l 207.184 -14.113 m 207.168 -14.105 l 205.453 
-13.398 m 205.434 -13.391 l 203.695 -12.75 m 203.676 -12.742 l 201.91 -12.172
 m 201.895 -12.164 l 200.109 -11.66 m 200.09 -11.656 l 198.289 -11.219 m
 198.27 -11.215 l 196.453 -10.844 m 196.434 -10.84 l 194.605 -10.535 m 194.586
 -10.531 l 192.746 -10.293 m 192.73 -10.289 l 190.883 -10.113 m 190.863 
-10.113 l 189.012 -10 m 188.992 -9.996 l 187.137 -9.953 m 187.121 -9.953
 l 185.266 -9.98 m 185.246 -9.98 l 183.395 -10.07 m 183.375 -10.074 l 181.527
 -10.223 m 181.508 -10.227 l 179.664 -10.441 m 179.648 -10.441 l 177.812
 -10.723 m 177.793 -10.727 l 175.973 -11.07 m 175.953 -11.074 l 174.145 
-11.484 m 174.125 -11.488 l 172.336 -11.977 m 172.316 -11.98 l 170.547 -12.531
 m 170.527 -12.539 l 168.781 -13.16 m 168.762 -13.168 l 167.039 -13.855 
m 167.023 -13.859 l 165.328 -14.613 m 165.312 -14.621 l 163.648 -15.445 
m 163.633 -15.453 l 162.004 -16.344 m 161.988 -16.355 l 160.402 -17.312 
m 160.387 -17.324 l 158.844 -18.352 m 158.828 -18.363 l 157.332 -19.461 
m 157.316 -19.473 l 155.875 -20.641 m 155.863 -20.652 l 154.477 -21.887 
m 154.465 -21.898 l 153.141 -23.199 m 153.129 -23.211 l 151.875 -24.578 
m 151.863 -24.594 l 150.684 -26.023 m 150.672 -26.039 l 149.574 -27.535 
m 149.562 -27.551 l 148.551 -29.105 m 148.539 -29.121 l 147.621 -30.73 m
 147.613 -30.75 l 146.801 -32.418 m 146.793 -32.434 l 146.09 -34.148 m 146.082
 -34.168 l 145.492 -35.926 m 145.484 -35.941 l 145.008 -37.734 m 145.004
 -37.754 l 144.648 -39.57 m 144.645 -39.59 l 144.414 -41.43 m 144.41 -41.449
 l 144.293 -43.301 m 144.293 -43.316 l 144.316 -45.172 m 144.316 -45.191
 l 144.465 -47.039 m 144.465 -47.059 l 144.73 -48.895 m 144.734 -48.914 
l 145.125 -50.727 m 145.129 -50.742 l 145.645 -52.527 m 145.648 -52.543 
l 146.281 -54.289 m 146.289 -54.305 l 147.031 -56.004 m 147.039 -56.023 
l 147.887 -57.672 m 147.895 -57.688 l 148.84 -59.285 m 148.848 -59.301 l
 149.887 -60.836 m 149.898 -60.852 l 151.02 -62.328 m 151.031 -62.344 l 
152.23 -63.758 m 152.242 -63.773 l 153.516 -65.121 m 153.531 -65.133 l 154.871
 -66.414 m 154.883 -66.43 l 156.285 -67.641 m 156.301 -67.652 l 157.758 
-68.801 m 157.773 -68.812 l 159.285 -69.887 m 159.301 -69.898 l 160.855 
-70.91 m 160.871 -70.918 l 162.473 -71.855 m 162.488 -71.867 l 164.125 -72.734
 m 164.141 -72.746 l 165.816 -73.547 m 165.832 -73.555 l 167.535 -74.289
 m 167.551 -74.297 l 169.285 -74.961 m 169.301 -74.965 l 171.059 -75.562
 m 171.074 -75.57 l 172.852 -76.102 m 172.871 -76.105 l 174.668 -76.57 m
 174.684 -76.574 l 176.496 -76.973 m 176.516 -76.977 l 178.34 -77.309 m 
178.359 -77.312 l 180.195 -77.57 m 180.215 -77.574 l 182.059 -77.77 m 182.078
 -77.77 l 183.926 -77.898 m 183.945 -77.898 l 185.801 -77.973 m 185.82 -77.973
 l 187.672 -77.977 m 187.691 -77.977 l 189.547 -77.906 m 189.566 -77.902
 l 191.414 -77.781 m 191.434 -77.781 l 193.281 -77.59 m 193.297 -77.586 
l 195.137 -77.328 m 195.152 -77.324 l 196.98 -76.996 m 196.996 -76.996 l
 198.812 -76.598 m 198.828 -76.594 l 200.625 -76.137 m 200.645 -76.129 l
 202.422 -75.605 m 202.441 -75.598 l 204.199 -75.004 m 204.215 -75 l 205.949
 -74.34 m 205.965 -74.332 l 207.672 -73.602 m 207.688 -73.594 l 209.363 
-72.797 m 209.379 -72.789 l 211.02 -71.922 m 211.035 -71.914 l 212.637 -70.98
 m 212.656 -70.969 l 214.215 -69.965 m 214.23 -69.953 l 215.742 -68.879 
m 215.758 -68.867 l 217.219 -67.727 m 217.234 -67.715 l 218.637 -66.504 
m 218.652 -66.492 l 219.996 -65.215 m 220.008 -65.199 l 221.285 -63.855 
m 221.297 -63.844 l 222.504 -62.434 m 222.516 -62.418 l 223.641 -60.945 
m 223.652 -60.93 l 224.695 -59.395 m 224.707 -59.379 l 225.652 -57.785 m
 225.664 -57.77 l 226.516 -56.125 m 226.527 -56.105 l 227.273 -54.41 m 227.281
 -54.395 l 227.918 -52.652 m 227.926 -52.633 l 228.449 -50.855 m 228.457
 -50.836 l 228.855 -49.023 m 228.855 -49.008 l 229.129 -47.172 m 229.133
 -47.152 l 229.285 -45.305 m 229.285 -45.285 l S Q
0.74902 g
223.652 43.969 m 223.652 28.312 205.887 15.621 183.969 15.621 c 162.051
 15.621 144.285 28.312 144.285 43.969 c 144.285 59.621 162.051 72.312 183.969
 72.312 c 205.887 72.312 223.652 59.621 223.652 43.969 c f
0 g
0.567043 w
0 J
q 1 0 0 -1 0 0 cm
223.652 -43.969 m 223.652 -28.312 205.887 -15.621 183.969 -15.621 c 162.051
 -15.621 144.285 -28.312 144.285 -43.969 c 144.285 -59.621 162.051 -72.312
 183.969 -72.312 c 205.887 -72.312 223.652 -59.621 223.652 -43.969 c h
223.652 -43.969 m S Q
q 1 0 0 -1 0 0 cm
225.922 -43.969 m 225.922 -27.059 207.141 -13.355 183.969 -13.355 c 160.801
 -13.355 142.016 -27.059 142.016 -43.969 c 142.016 -60.875 160.801 -74.582
 183.969 -74.582 c 207.141 -74.582 225.922 -60.875 225.922 -43.969 c h
225.922 -43.969 m S Q
0.425176 w
q 1 0 0 -1 0 0 cm
209.199 -22.082 m 212.402 -16.812 l S Q
q 1 0 0 -1 0 0 cm
217.984 -29.367 m 222.379 -25.344 l S Q
1.70071 w
q 1 0 0 -1 0 0 cm
209.199 -22.082 m 212.316 -24.125 l 215.152 -26.422 l 217.984 -29.367 l
 S Q
207.668 17.996 m 210.941 19.195 l 209.168 16.195 l 209.426 17.934 l f
0.425176 w
q 1 0 0 -1 0 0 cm
205.23 -9.102 m 206.648 -15.621 l 209.426 -17.934 l S Q
203.395 5.688 m 203.27 5.688 203.223 5.688 203.191 5.688 c 202.879 5.688
 202.785 5.594 202.785 5.188 c 202.785 0.094 l 202.754 0.078 l 202.332 0.219
 202.02 0.312 201.426 0.469 c 201.426 0.609 l 201.504 0.609 201.551 0.609
 201.629 0.609 c 201.957 0.609 202.035 0.703 202.035 1.062 c 202.035 2.469
 l 201.691 2.172 201.457 2.078 201.098 2.078 c 200.066 2.078 199.223 3.094
 199.223 4.359 c 199.223 5.516 199.895 6.297 200.895 6.297 c 201.395 6.297
 201.738 6.109 202.035 5.688 c 202.035 6.266 l 202.066 6.297 l 203.395 5.828
 l h
202.035 5.281 m 202.035 5.344 201.973 5.453 201.879 5.562 c 201.738 5.734
 201.504 5.828 201.238 5.828 c 200.488 5.828 200.004 5.109 200.004 4 c 200.004
 3 200.441 2.328 201.129 2.328 c 201.613 2.328 202.035 2.75 202.035 3.219
 c h
202.035 5.281 m f
206.785 2.109 m 206.645 2.109 l 206.613 2.172 206.535 2.297 206.379 2.297
 c 206.16 2.297 206.004 2.109 205.535 2.109 c 204.848 2.109 204.473 2.609
 204.473 3.109 c 204.473 3.922 205.566 4.703 205.566 5.406 c 205.566 5.703
 205.332 6.125 204.863 6.125 c 204.082 6.125 203.988 5.25 203.941 4.859 
c 203.785 4.859 l 203.566 6.312 l 203.738 6.312 l 203.816 6.172 203.926 
6.125 204.051 6.125 c 204.348 6.125 204.426 6.312 204.863 6.312 c 205.457
 6.312 206.223 5.938 206.223 5.094 c 206.223 4.234 205.098 3.5 205.098 2.828
 c 205.098 2.484 205.348 2.312 205.613 2.312 c 206.113 2.312 206.41 2.766
 206.426 3.438 c 206.582 3.438 l h
206.785 2.109 m f
208.246 7.391 m 208.215 7.547 208.199 7.703 208.199 7.812 c 208.199 8.359
 208.559 8.562 208.855 8.562 c 209.184 8.562 209.809 8.328 210.012 7.594
 c 209.824 7.594 l 209.637 7.906 209.355 8.078 209.121 8.078 c 209.027 8.078
 208.824 7.969 208.824 7.688 c 208.824 7.625 208.84 7.562 208.855 7.5 c 
209.262 5.844 l 209.652 5.844 l 210.074 5.844 210.48 5.578 210.574 5.109
 c 210.449 5.062 l 210.277 5.188 210.043 5.234 209.793 5.234 c 208.418 5.234
 l 207.902 5.234 207.543 5.641 207.465 5.953 c 207.59 6.016 l 207.715 5.922
 207.84 5.844 208.137 5.844 c 208.637 5.844 l h
208.246 7.391 m f
219.148 17.559 m 217.984 20.844 l 220.969 19.039 l 219.23 19.316 l f
q 1 0 0 -1 0 0 cm
226.488 -15.621 m 222.238 -15.621 l 219.23 -19.316 l S Q
232.961 16.785 m 232.383 16.785 232.32 16.52 232.305 15.895 c 232.086 10.754
 l 231.898 10.754 l 228.414 16.066 l 227.992 16.707 227.758 16.785 227.508
 16.785 c 227.477 16.941 l 229.148 16.941 l 229.164 16.785 l 228.867 16.785
 228.664 16.707 228.664 16.441 c 228.664 16.301 228.727 16.113 228.898 15.848
 c 229.508 14.91 l 231.398 14.91 l 231.445 16.051 l 231.461 16.723 231.164
 16.785 230.695 16.785 c 230.664 16.941 l 232.93 16.941 l h
231.383 14.598 m 229.727 14.598 l 231.273 12.223 l h
231.383 14.598 m f
235.738 17.035 m 235.723 16.082 l 235.645 16.082 l 235.613 16.129 235.566
 16.16 235.535 16.16 c 235.488 16.16 235.426 16.145 235.348 16.113 c 235.176
 16.051 235.02 16.02 234.848 16.02 c 234.301 16.02 233.91 16.379 233.91 
16.879 c 233.91 17.27 234.129 17.551 234.723 17.879 c 235.129 18.113 l 235.363
 18.254 235.488 18.426 235.488 18.645 c 235.488 18.941 235.27 19.145 234.91
 19.145 c 234.426 19.145 234.191 18.879 234.02 18.16 c 233.91 18.16 l 233.91
 19.254 l 234.004 19.254 l 234.051 19.176 234.082 19.16 234.16 19.16 c 234.238
 19.16 234.332 19.176 234.488 19.223 c 234.676 19.27 234.848 19.285 234.988
 19.285 c 235.535 19.285 235.973 18.895 235.973 18.395 c 235.973 18.051 
235.816 17.816 235.395 17.566 c 234.645 17.129 l 234.441 17.004 234.332 
16.832 234.332 16.645 c 234.332 16.363 234.551 16.176 234.879 16.176 c 235.27
 16.176 235.488 16.41 235.645 17.035 c h
235.738 17.035 m f
236.922 20.363 m 237.125 20.316 237.219 20.27 237.406 20.16 c 237.734 19.941
 237.969 19.629 237.969 19.082 c 237.969 18.551 237.719 18.316 237.391 18.316
 c 237.094 18.316 236.906 18.504 236.906 18.785 c 236.906 19.051 237.094
 19.223 237.344 19.223 c 237.422 19.223 237.5 19.207 237.578 19.16 c 237.609
 19.145 237.609 19.145 237.625 19.145 c 237.656 19.145 237.672 19.207 237.672
 19.285 c 237.672 19.363 237.672 19.863 236.922 20.145 c h
236.922 20.363 m f
239.809 18.129 m 239.777 18.285 239.762 18.441 239.762 18.551 c 239.762
 19.098 240.121 19.301 240.418 19.301 c 240.746 19.301 241.371 19.066 241.574
 18.332 c 241.387 18.332 l 241.199 18.645 240.918 18.816 240.684 18.816 
c 240.59 18.816 240.387 18.707 240.387 18.426 c 240.387 18.363 240.402 18.301
 240.418 18.238 c 240.824 16.582 l 241.215 16.582 l 241.637 16.582 242.043
 16.316 242.137 15.848 c 242.012 15.801 l 241.84 15.926 241.605 15.973 241.355
 15.973 c 239.98 15.973 l 239.465 15.973 239.105 16.379 239.027 16.691 c
 239.152 16.754 l 239.277 16.66 239.402 16.582 239.699 16.582 c 240.199 
16.582 l h
239.809 18.129 m f
Q q
180.992 90.848 4 8.152 re W n
q
180 90 5 9 re W n
  q
0 g
184.164 91.211 m 183.508 91.648 183.242 91.867 182.898 92.289 c 182.273
 93.07 181.961 93.961 181.961 95.008 c 181.961 96.164 182.289 97.039 183.07
 97.945 c 183.445 98.383 183.68 98.57 184.148 98.867 c 184.242 98.711 l 
183.539 98.148 183.289 97.836 183.039 97.164 c 182.82 96.57 182.727 95.898
 182.727 94.992 c 182.727 94.039 182.836 93.305 183.086 92.758 c 183.336
 92.195 183.602 91.867 184.242 91.352 c h
184.164 91.211 m f
  Q
Q
Q q
0 g
185.898 91.164 m 185.852 91.148 l 185.477 91.273 185.242 91.352 184.805
 91.477 c 184.555 91.539 l 184.555 91.68 l 184.602 91.68 184.633 91.68 184.695
 91.68 c 185.055 91.68 185.148 91.758 185.148 92.133 c 185.148 96.789 l 
185.148 97.07 185.898 97.367 186.617 97.367 c 187.805 97.367 188.727 96.383
 188.727 95.102 c 188.727 93.977 188.039 93.148 187.148 93.148 c 186.602
 93.148 186.07 93.461 185.898 93.914 c h
185.898 94.383 m 185.898 94.039 186.32 93.711 186.789 93.711 c 187.039 
93.711 187.258 93.805 187.445 93.977 c 187.727 94.258 187.93 94.867 187.93
 95.508 c 187.93 96.508 187.508 97.07 186.773 97.07 c 186.305 97.07 185.898
 96.883 185.898 96.648 c h
185.898 94.383 m f
Q q
188.992 90.848 3 8.152 re W n
q
188 90 4 9 re W n
  q
0 g
189.305 98.867 m 189.961 98.414 190.242 98.195 190.57 97.789 c 191.211 
97.008 191.523 96.102 191.523 95.055 c 191.523 93.914 191.18 93.039 190.398
 92.133 c 190.023 91.695 189.789 91.492 189.336 91.211 c 189.227 91.352 
l 189.945 91.914 190.18 92.227 190.43 92.898 c 190.648 93.508 190.742 94.18
 190.742 95.086 c 190.742 96.023 190.633 96.758 190.383 97.305 c 190.148
 97.867 189.867 98.195 189.227 98.711 c h
189.305 98.867 m f
  Q
Q
Q Q
showpage
%%Trailer
end
%%EOF
