%!PS-Adobe-3.0 EPSF-3.0
%%Creator: cairo 1.17.4 (https://cairographics.org)
%%CreationDate: Thu Feb 24 10:47:07 2022
%%Pages: 1
%%DocumentData: Clean7Bit
%%LanguageLevel: 2
%%BoundingBox: 0 0 73 92
%%EndComments
%%BeginProlog
50 dict begin
/q { gsave } bind def
/Q { grestore } bind def
/cm { 6 array astore concat } bind def
/w { setlinewidth } bind def
/J { setlinecap } bind def
/j { setlinejoin } bind def
/M { setmiterlimit } bind def
/d { setdash } bind def
/m { moveto } bind def
/l { lineto } bind def
/c { curveto } bind def
/h { closepath } bind def
/re { exch dup neg 3 1 roll 5 3 roll moveto 0 rlineto
      0 exch rlineto 0 rlineto closepath } bind def
/S { stroke } bind def
/f { fill } bind def
/f* { eofill } bind def
/n { newpath } bind def
/W { clip } bind def
/W* { eoclip } bind def
/BT { } bind def
/ET { } bind def
/BDC { mark 3 1 roll /BDC pdfmark } bind def
/EMC { mark /EMC pdfmark } bind def
/cairo_store_point { /cairo_point_y exch def /cairo_point_x exch def } def
/Tj { show currentpoint cairo_store_point } bind def
/TJ {
  {
    dup
    type /stringtype eq
    { show } { -0.001 mul 0 cairo_font_matrix dtransform rmoveto } ifelse
  } forall
  currentpoint cairo_store_point
} bind def
/cairo_selectfont { cairo_font_matrix aload pop pop pop 0 0 6 array astore
    cairo_font exch selectfont cairo_point_x cairo_point_y moveto } bind def
/Tf { pop /cairo_font exch def /cairo_font_matrix where
      { pop cairo_selectfont } if } bind def
/Td { matrix translate cairo_font_matrix matrix concatmatrix dup
      /cairo_font_matrix exch def dup 4 get exch 5 get cairo_store_point
      /cairo_font where { pop cairo_selectfont } if } bind def
/Tm { 2 copy 8 2 roll 6 array astore /cairo_font_matrix exch def
      cairo_store_point /cairo_font where { pop cairo_selectfont } if } bind def
/g { setgray } bind def
/rg { setrgbcolor } bind def
/d1 { setcachedevice } bind def
/cairo_data_source {
  CairoDataIndex CairoData length lt
    { CairoData CairoDataIndex get /CairoDataIndex CairoDataIndex 1 add def }
    { () } ifelse
} def
/cairo_flush_ascii85_file { cairo_ascii85_file status { cairo_ascii85_file flushfile } if } def
/cairo_image { image cairo_flush_ascii85_file } def
/cairo_imagemask { imagemask cairo_flush_ascii85_file } def
%%EndProlog
%%BeginSetup
%%EndSetup
%%Page: 1 1
%%BeginPageSetup
%%PageBoundingBox: 0 0 73 92
%%EndPageSetup
q 0 0 73 92 rectclip
1 0 0 -1 0 92 cm q
Q q
0 33.469 71.926 57.898 re W n
q
0 33 72 59 re W n
  q
0.901961 g
0.707 62.242 m 0.707 90.59 l 71.57 90.59 l 71.57 33.895 l 0.707 33.895 
l f
  Q
Q
Q q
0 18.469 72.926 72.898 re W n
q
0 18 73 74 re W n
  q
0 g
1.41739 w
0 J
0 j
[] 0.0 d
10 M q 1 0 0 -1 0 0 cm
0.707 -22.559 m 0.707 -90.59 l 71.57 -90.59 l 71.57 -19.723 l S Q
  Q
Q
Q q
0 25.469 73 17 re W n
q
0 25 73 18 re W n
  q
0 g
0.567043 w
0 J
0 j
[] 0.0 d
10 M q 1 0 0 -1 0 0 cm
0.707 -33.895 m 0.707 -33.684 l 0.941 -33.688 l 1.176 -33.695 l 1.414 -33.711
 l 1.652 -33.734 l 1.887 -33.758 l 2.121 -33.789 l 2.359 -33.824 l 2.594
 -33.859 l 2.832 -33.895 l 3.066 -33.934 l 3.305 -33.969 l 3.539 -34.004
 l 3.777 -34.031 l 4.012 -34.059 l 4.25 -34.078 l 4.484 -34.098 l 4.723 
-34.105 l 4.957 -34.109 l 5.195 -34.105 l 5.43 -34.098 l 5.664 -34.078 l
 5.902 -34.059 l 6.137 -34.031 l 6.375 -34.004 l 6.609 -33.969 l 6.848 -33.934
 l 7.082 -33.895 l 7.32 -33.859 l 7.555 -33.824 l 7.793 -33.789 l 8.027 
-33.758 l 8.266 -33.734 l 8.5 -33.711 l 8.738 -33.695 l 8.973 -33.688 l 
9.211 -33.684 l 9.445 -33.688 l 9.684 -33.695 l 9.918 -33.711 l 10.156 -33.734
 l 10.391 -33.758 l 10.629 -33.789 l 11.098 -33.859 l 11.336 -33.895 l 11.57
 -33.934 l 11.809 -33.969 l 12.043 -34.004 l 12.281 -34.031 l 12.516 -34.059
 l 12.754 -34.078 l 12.988 -34.098 l 13.223 -34.105 l 13.461 -34.109 l 13.695
 -34.105 l 13.934 -34.098 l 14.168 -34.078 l 14.406 -34.059 l 14.641 -34.031
 l 14.879 -34.004 l 15.113 -33.969 l 15.352 -33.934 l 15.586 -33.895 l 15.824
 -33.859 l 16.059 -33.824 l 16.297 -33.789 l 16.531 -33.758 l 16.77 -33.734
 l 17.004 -33.711 l 17.238 -33.695 l 17.477 -33.688 l 17.711 -33.684 l 17.949
 -33.688 l 18.184 -33.695 l 18.422 -33.711 l 18.656 -33.734 l 18.895 -33.758
 l 19.129 -33.789 l 19.367 -33.824 l 19.602 -33.859 l 19.84 -33.895 l 20.074
 -33.934 l 20.312 -33.969 l 20.547 -34.004 l 20.785 -34.031 l 21.02 -34.059
 l 21.258 -34.078 l 21.492 -34.098 l 21.73 -34.105 l 21.965 -34.109 l 22.199
 -34.105 l 22.438 -34.098 l 22.672 -34.078 l 22.91 -34.059 l 23.145 -34.031
 l 23.383 -34.004 l 23.617 -33.969 l 23.855 -33.934 l 24.09 -33.895 l 24.328
 -33.859 l 24.797 -33.789 l 25.035 -33.758 l 25.273 -33.734 l 25.508 -33.711
 l 25.742 -33.695 l 25.98 -33.688 l 26.215 -33.684 l 26.453 -33.688 l 26.688
 -33.695 l 26.926 -33.711 l 27.16 -33.734 l 27.398 -33.758 l 27.633 -33.789
 l 27.871 -33.824 l 28.34 -33.895 l 28.578 -33.934 l 28.816 -33.969 l 29.051
 -34.004 l 29.285 -34.031 l 29.523 -34.059 l 29.762 -34.078 l 29.996 -34.098
 l 30.23 -34.105 l 30.469 -34.109 l 30.703 -34.105 l 30.941 -34.098 l 31.176
 -34.078 l 31.414 -34.059 l 31.648 -34.031 l 31.887 -34.004 l 32.121 -33.969
 l 32.359 -33.934 l 32.594 -33.895 l 32.828 -33.859 l 33.305 -33.789 l 33.539
 -33.758 l 33.773 -33.734 l 34.012 -33.711 l 34.246 -33.695 l 34.484 -33.688
 l 34.719 -33.684 l 34.957 -33.688 l 35.191 -33.695 l 35.43 -33.711 l 35.664
 -33.734 l 35.902 -33.758 l 36.137 -33.789 l 36.375 -33.824 l 36.844 -33.895
 l 37.082 -33.934 l 37.316 -33.969 l 37.555 -34.004 l 37.789 -34.031 l 38.027
 -34.059 l 38.262 -34.078 l 38.5 -34.098 l 38.734 -34.105 l 38.973 -34.109
 l 39.207 -34.105 l 39.445 -34.098 l 39.68 -34.078 l 39.918 -34.059 l 40.152
 -34.031 l 40.391 -34.004 l 40.625 -33.969 l 40.863 -33.934 l 41.098 -33.895
 l 41.332 -33.859 l 41.57 -33.824 l 41.805 -33.789 l 42.043 -33.758 l 42.277
 -33.734 l 42.516 -33.711 l 42.75 -33.695 l 42.988 -33.688 l 43.223 -33.684
 l 43.461 -33.688 l 43.695 -33.695 l 43.934 -33.711 l 44.168 -33.734 l 44.406
 -33.758 l 44.641 -33.789 l 44.879 -33.824 l 45.348 -33.895 l 45.586 -33.934
 l 45.82 -33.969 l 46.059 -34.004 l 46.293 -34.031 l 46.531 -34.059 l 46.766
 -34.078 l 47.004 -34.098 l 47.238 -34.105 l 47.473 -34.109 l 47.711 -34.105
 l 47.949 -34.098 l 48.418 -34.059 l 48.656 -34.031 l 48.891 -34.004 l 49.129
 -33.969 l 49.363 -33.934 l 49.602 -33.895 l 49.836 -33.859 l 50.074 -33.824
 l 50.309 -33.789 l 50.547 -33.758 l 50.781 -33.734 l 51.02 -33.711 l 51.254
 -33.695 l 51.492 -33.688 l 51.727 -33.684 l 51.961 -33.688 l 52.199 -33.695
 l 52.438 -33.711 l 52.906 -33.758 l 53.145 -33.789 l 53.383 -33.824 l 53.852
 -33.895 l 54.09 -33.934 l 54.324 -33.969 l 54.562 -34.004 l 54.797 -34.031
 l 55.035 -34.059 l 55.27 -34.078 l 55.508 -34.098 l 55.742 -34.105 l 55.98
 -34.109 l 56.215 -34.105 l 56.449 -34.098 l 56.688 -34.078 l 56.922 -34.059
 l 57.16 -34.031 l 57.395 -34.004 l 57.633 -33.969 l 57.867 -33.934 l 58.105
 -33.895 l 58.34 -33.859 l 58.578 -33.824 l 58.812 -33.789 l 59.047 -33.758
 l 59.523 -33.711 l 59.758 -33.695 l 59.992 -33.688 l 60.23 -33.684 l 60.465
 -33.688 l 60.703 -33.695 l 60.938 -33.711 l 61.176 -33.734 l 61.41 -33.758
 l 61.648 -33.789 l 61.883 -33.824 l 62.121 -33.859 l 62.355 -33.895 l 62.594
 -33.934 l 62.828 -33.969 l 63.066 -34.004 l 63.535 -34.059 l 64.012 -34.098
 l 64.246 -34.105 l 64.48 -34.109 l 64.719 -34.105 l 64.953 -34.098 l 65.191
 -34.078 l 65.426 -34.059 l 65.664 -34.031 l 65.898 -34.004 l 66.137 -33.969
 l 66.371 -33.934 l 66.609 -33.895 l 66.844 -33.859 l 67.082 -33.824 l 67.316
 -33.789 l 67.555 -33.758 l 67.789 -33.734 l 68.027 -33.711 l 68.262 -33.695
 l 68.496 -33.688 l 68.734 -33.684 l 68.969 -33.688 l 69.207 -33.695 l 69.441
 -33.711 l 69.68 -33.734 l 69.914 -33.758 l 70.152 -33.789 l 70.387 -33.824
 l 70.625 -33.859 l 70.859 -33.895 l 71.094 -33.934 l 71.57 -34.004 l 71.57
 -33.895 l S Q
  Q
Q
Q q
0 g
0.797011 w
0 J
0 j
[] 0.0 d
10 M q 1 0 0 -1 0 0 cm
17.289 -62.242 m 20.547 -62.242 l 21.965 -65.078 l 24.801 -59.406 l 27.637
 -65.078 l 30.469 -59.406 l 33.305 -65.078 l 36.141 -59.406 l 38.973 -65.078
 l 41.809 -59.406 l 44.645 -65.078 l 47.477 -59.406 l 50.312 -65.078 l 51.73
 -62.242 l 54.988 -62.242 l S Q
25.887 81.41 m 28.012 81.41 l 28.012 81.27 l 27.434 81.254 27.34 81.16 
27.324 80.66 c 27.324 75.301 l 27.293 75.285 l 26.84 75.426 26.512 75.52
 25.871 75.676 c 25.871 75.816 l 25.918 75.816 l 26.027 75.816 26.137 75.801
 26.199 75.801 c 26.496 75.801 26.574 75.926 26.574 76.348 c 26.574 80.629
 l 26.574 81.113 26.449 81.238 25.887 81.27 c h
25.887 81.41 m f
28.359 81.41 m 30.484 81.41 l 30.484 81.27 l 29.891 81.238 29.828 81.145
 29.828 80.488 c 29.828 77.316 l 29.781 77.285 l 28.391 77.785 l 28.391 
77.91 l 28.469 77.91 l 28.578 77.879 28.688 77.879 28.781 77.879 c 28.984
 77.879 29.078 78.02 29.078 78.41 c 29.078 80.488 l 29.047 81.16 28.969 
81.254 28.359 81.27 c h
29.359 75.285 m 29.125 75.285 28.922 75.488 28.922 75.738 c 28.922 76.004
 29.109 76.207 29.359 76.207 c 29.641 76.207 29.828 76.004 29.828 75.738
 c 29.828 75.488 29.625 75.285 29.359 75.285 c h
29.359 75.285 m f
33.977 77.598 m 33.57 77.363 33.305 77.285 32.945 77.285 c 31.805 77.285
 30.961 78.285 30.961 79.582 c 30.961 80.707 31.555 81.504 32.398 81.504
 c 32.914 81.504 33.398 81.27 33.805 80.832 c 33.805 82.52 l 33.789 83.02
 33.633 83.176 33.008 83.207 c 33.008 83.363 l 35.117 83.363 l 35.117 83.238
 l 34.633 83.129 34.57 83.066 34.555 82.676 c 34.555 77.316 l 34.461 77.316
 l h
33.805 80.27 m 33.805 80.488 33.758 80.598 33.68 80.691 c 33.477 80.848
 33.18 80.957 32.898 80.957 c 32.633 80.957 32.383 80.863 32.211 80.691 
c 31.914 80.426 31.727 79.848 31.727 79.254 c 31.727 78.191 32.211 77.535
 32.961 77.535 c 33.523 77.535 33.805 77.832 33.805 78.426 c h
33.805 80.27 m f
39.477 80.957 m 39.43 80.957 l 38.992 80.941 38.93 80.879 38.914 80.457
 c 38.914 77.379 l 37.508 77.379 l 37.508 77.52 l 38.055 77.551 38.164 77.645
 38.164 78.098 c 38.164 80.207 l 38.164 80.457 38.117 80.582 37.992 80.676
 c 37.758 80.879 37.477 80.973 37.211 80.973 c 36.852 80.973 36.57 80.676
 36.57 80.301 c 36.57 77.379 l 35.258 77.379 l 35.258 77.504 l 35.68 77.52
 35.805 77.645 35.82 78.066 c 35.82 80.332 l 35.82 81.035 36.242 81.504 
36.898 81.504 c 37.227 81.504 37.586 81.363 37.82 81.113 c 38.211 80.723
 l 38.211 81.473 l 38.242 81.488 l 38.695 81.316 39.023 81.207 39.477 81.082
 c h
39.477 80.957 m f
39.762 81.41 m 41.887 81.41 l 41.887 81.27 l 41.293 81.238 41.23 81.145
 41.23 80.488 c 41.23 77.316 l 41.184 77.285 l 39.793 77.785 l 39.793 77.91
 l 39.871 77.91 l 39.98 77.879 40.09 77.879 40.184 77.879 c 40.387 77.879
 40.48 78.02 40.48 78.41 c 40.48 80.488 l 40.449 81.16 40.371 81.254 39.762
 81.27 c h
40.762 75.285 m 40.527 75.285 40.324 75.488 40.324 75.738 c 40.324 76.004
 40.512 76.207 40.762 76.207 c 41.043 76.207 41.23 76.004 41.23 75.738 c
 41.23 75.488 41.027 75.285 40.762 75.285 c h
40.762 75.285 m f
46.547 80.895 m 46.422 80.895 46.375 80.895 46.344 80.895 c 46.031 80.895
 45.938 80.801 45.938 80.395 c 45.938 75.301 l 45.906 75.285 l 45.484 75.426
 45.172 75.52 44.578 75.676 c 44.578 75.816 l 44.656 75.816 44.703 75.816
 44.781 75.816 c 45.109 75.816 45.188 75.91 45.188 76.27 c 45.188 77.676
 l 44.844 77.379 44.609 77.285 44.25 77.285 c 43.219 77.285 42.375 78.301
 42.375 79.566 c 42.375 80.723 43.047 81.504 44.047 81.504 c 44.547 81.504
 44.891 81.316 45.188 80.895 c 45.188 81.473 l 45.219 81.504 l 46.547 81.035
 l h
45.188 80.488 m 45.188 80.551 45.125 80.66 45.031 80.77 c 44.891 80.941
 44.656 81.035 44.391 81.035 c 43.641 81.035 43.156 80.316 43.156 79.207
 c 43.156 78.207 43.594 77.535 44.281 77.535 c 44.766 77.535 45.188 77.957
 45.188 78.426 c h
45.188 80.488 m f
q 1 0 0 -1 0 0 cm
17.715 -62.242 m 17.715 -11.219 l 35.004 -11.219 l S Q
12.203 21.977 m 12.203 21.695 12.172 20.602 10.547 20.43 c 10.969 19.008
 l 11 18.93 11.016 18.836 11.016 18.805 c 11.016 18.648 10.891 18.492 10.734
 18.492 c 10.609 18.492 10.406 18.508 10.328 18.836 c 10.031 20.414 l 7.906
 20.695 7.344 22.242 7.344 22.977 c 7.344 24.492 9 24.555 9 24.555 c 8.562
 25.961 l 8.562 25.977 8.547 26.039 8.547 26.07 c 8.547 26.242 8.688 26.398
 8.844 26.398 c 8.969 26.398 9.156 26.289 9.203 26.07 c 9.516 24.602 l 11.438
 24.383 12.203 22.836 12.203 21.977 c h
11.438 21.961 m 11.438 22.742 10.906 24.086 9.594 24.305 c 10.484 20.711
 l 11.172 20.805 11.438 21.414 11.438 21.961 c h
9.953 20.727 m 9.094 24.305 l 8.375 24.102 8.109 23.617 8.109 23.102 c 
8.109 22.43 8.594 20.914 9.953 20.727 c h
9.953 20.727 m f
14.332 22.148 m 12.363 22.148 l 12.363 22.273 l 12.879 22.305 12.957 22.398
 12.973 22.898 c 12.973 25.992 l 12.957 26.492 12.863 26.602 12.363 26.633
 c 12.363 26.758 l 16.113 26.758 l 16.457 25.539 l 16.285 25.539 l 15.957
 26.273 15.645 26.461 14.754 26.492 c 14.285 26.492 l 13.754 26.477 13.691
 26.445 13.691 26.195 c 13.691 22.898 l 13.707 22.398 13.785 22.305 14.332
 22.273 c h
14.332 22.148 m f
29.25 5.797 m 29.25 5.344 l 26.469 5.344 l 26.469 2.578 l 26.031 2.578 
l 26.031 5.344 l 23.25 5.344 l 23.25 5.797 l 26.031 5.797 l 26.031 8.562
 l 26.469 8.562 l 26.469 5.797 l h
29.25 5.797 m f
q 1 0 0 -1 0 0 cm
54.562 -62.242 m 54.562 -11.219 l 38.266 -11.219 l S Q
60.719 21.977 m 60.719 21.695 60.688 20.602 59.062 20.43 c 59.484 19.008
 l 59.516 18.93 59.531 18.836 59.531 18.805 c 59.531 18.648 59.406 18.492
 59.25 18.492 c 59.125 18.492 58.922 18.508 58.844 18.836 c 58.547 20.414
 l 56.422 20.695 55.859 22.242 55.859 22.977 c 55.859 24.492 57.516 24.555
 57.516 24.555 c 57.078 25.961 l 57.078 25.977 57.062 26.039 57.062 26.07
 c 57.062 26.242 57.203 26.398 57.359 26.398 c 57.484 26.398 57.672 26.289
 57.719 26.07 c 58.031 24.602 l 59.953 24.383 60.719 22.836 60.719 21.977
 c h
59.953 21.961 m 59.953 22.742 59.422 24.086 58.109 24.305 c 59 20.711 l
 59.688 20.805 59.953 21.414 59.953 21.961 c h
58.469 20.727 m 57.609 24.305 l 56.891 24.102 56.625 23.617 56.625 23.102
 c 56.625 22.43 57.109 20.914 58.469 20.727 c h
58.469 20.727 m f
65.395 26.633 m 65.129 26.602 64.988 26.539 64.785 26.305 c 63.348 24.539
 l 64.238 24.367 64.613 24.008 64.613 23.367 c 64.613 23.07 64.52 22.82 
64.348 22.617 c 64.082 22.32 63.488 22.148 62.848 22.148 c 60.926 22.148
 l 60.926 22.273 l 61.441 22.336 61.504 22.398 61.504 22.898 c 61.504 25.914
 l 61.504 26.508 61.441 26.586 60.926 26.633 c 60.926 26.758 l 62.848 26.758
 l 62.848 26.633 l 62.316 26.586 62.223 26.508 62.223 25.992 c 62.223 24.633
 l 62.613 24.617 l 64.27 26.758 l 65.395 26.758 l h
62.223 22.648 m 62.223 22.461 62.301 22.398 62.582 22.398 c 63.441 22.398
 63.848 22.695 63.848 23.352 c 63.848 23.711 63.707 23.992 63.457 24.133
 c 63.129 24.305 62.895 24.352 62.223 24.367 c h
62.223 22.648 m f
43.32 4.266 5.484 0.453 re f
58.777 8.523 m 60.234 11.219 l 60.812 8.211 l 59.969 9.508 l f
0.283298 w
q 1 0 0 -1 0 0 cm
59.969 -9.508 m 59.98 -9.547 l 59.25 -7.172 57.051 -5.551 54.562 -5.551
 c S Q
61.688 4.004 m 61.266 4.676 60.875 4.941 60.297 4.941 c 59.797 4.941 59.406
 4.676 59.141 4.176 c 58.984 3.832 58.922 3.551 58.906 2.988 c 61.656 2.988
 l 61.594 2.41 61.5 2.145 61.281 1.863 c 61.016 1.535 60.594 1.348 60.125
 1.348 c 59.688 1.348 59.266 1.504 58.922 1.816 c 58.5 2.176 58.25 2.816
 58.25 3.551 c 58.25 4.785 58.906 5.566 59.938 5.566 c 60.781 5.566 61.453
 5.035 61.828 4.066 c h
58.922 2.707 m 59.016 2.004 59.328 1.676 59.875 1.676 c 60.422 1.676 60.625
 1.926 60.75 2.707 c h
58.922 2.707 m f
62.41 0 4.703 0.438 re f
0.797011 w
q 1 0 0 -1 0 0 cm
35.004 -20.004 m 35.004 -2.43 l S Q
2.26776 w
q 1 0 0 -1 0 0 cm
38.266 -15.754 m 38.266 -6.684 l S Q
0.567043 w
q 1 0 0 -1 0 0 cm
2.121 -60.117 m 2.121 -61.648 l 2.121 -63.668 m 2.121 -66.695 l 2.121 -68.715
 m 2.121 -71.742 l 2.121 -73.758 m 2.121 -76.785 l 2.121 -78.805 m 2.121
 -81.832 l 2.121 -83.852 m 2.121 -86.879 l 2.121 -88.895 m 2.121 -89.172
 l 4.875 -89.172 l 6.895 -89.172 m 9.922 -89.172 l 11.938 -89.172 m 14.965
 -89.172 l 16.984 -89.172 m 20.012 -89.172 l 22.031 -89.172 m 25.059 -89.172
 l 27.074 -89.172 m 30.102 -89.172 l 32.121 -89.172 m 35.148 -89.172 l 37.168
 -89.172 m 40.195 -89.172 l 42.215 -89.172 m 45.242 -89.172 l 47.258 -89.172
 m 50.285 -89.172 l 52.305 -89.172 m 55.332 -89.172 l 57.352 -89.172 m 60.379
 -89.172 l 62.395 -89.172 m 65.422 -89.172 l 67.441 -89.172 m 70.156 -89.172
 l 70.156 -88.859 l 70.156 -86.844 m 70.156 -83.816 l 70.156 -81.797 m 70.156
 -78.77 l 70.156 -76.75 m 70.156 -73.723 l 70.156 -71.707 m 70.156 -68.68
 l 70.156 -66.66 m 70.156 -63.633 l 70.156 -61.613 m 70.156 -58.586 l 70.156
 -56.566 m 70.156 -53.539 l 70.156 -51.523 m 70.156 -48.496 l 70.156 -46.477
 m 70.156 -43.449 l 70.156 -41.43 m 70.156 -38.402 l 70.156 -36.387 m 70.156
 -33.359 l 70.156 -31.34 m 70.156 -31.062 l 67.41 -31.062 l 65.391 -31.062
 m 62.363 -31.062 l 60.344 -31.062 m 57.316 -31.062 l 55.301 -31.062 m 52.273
 -31.062 l 50.254 -31.062 m 47.227 -31.062 l 45.207 -31.062 m 42.18 -31.062
 l 40.16 -31.062 m 37.133 -31.062 l 35.117 -31.062 m 32.09 -31.062 l 30.07
 -31.062 m 27.043 -31.062 l 25.023 -31.062 m 21.996 -31.062 l 19.98 -31.062
 m 16.953 -31.062 l 14.934 -31.062 m 11.906 -31.062 l 9.887 -31.062 m 6.859
 -31.062 l 4.844 -31.062 m 2.121 -31.062 l 2.121 -31.371 l 2.121 -33.387
 m 2.121 -36.414 l 2.121 -38.434 m 2.121 -41.461 l 2.121 -43.48 m 2.121 
-46.508 l 2.121 -48.527 m 2.121 -51.555 l 2.121 -53.57 m 2.121 -56.598 l
 2.121 -58.617 m 2.121 -60.117 l S Q
Q Q
showpage
%%Trailer
end
%%EOF
