%!PS-Adobe-3.0 EPSF-3.0
%%Creator: cairo 1.17.4 (https://cairographics.org)
%%CreationDate: Thu Feb 24 10:47:09 2022
%%Pages: 1
%%DocumentData: Clean7Bit
%%LanguageLevel: 2
%%BoundingBox: 0 0 141 123
%%EndComments
%%BeginProlog
50 dict begin
/q { gsave } bind def
/Q { grestore } bind def
/cm { 6 array astore concat } bind def
/w { setlinewidth } bind def
/J { setlinecap } bind def
/j { setlinejoin } bind def
/M { setmiterlimit } bind def
/d { setdash } bind def
/m { moveto } bind def
/l { lineto } bind def
/c { curveto } bind def
/h { closepath } bind def
/re { exch dup neg 3 1 roll 5 3 roll moveto 0 rlineto
      0 exch rlineto 0 rlineto closepath } bind def
/S { stroke } bind def
/f { fill } bind def
/f* { eofill } bind def
/n { newpath } bind def
/W { clip } bind def
/W* { eoclip } bind def
/BT { } bind def
/ET { } bind def
/BDC { mark 3 1 roll /BDC pdfmark } bind def
/EMC { mark /EMC pdfmark } bind def
/cairo_store_point { /cairo_point_y exch def /cairo_point_x exch def } def
/Tj { show currentpoint cairo_store_point } bind def
/TJ {
  {
    dup
    type /stringtype eq
    { show } { -0.001 mul 0 cairo_font_matrix dtransform rmoveto } ifelse
  } forall
  currentpoint cairo_store_point
} bind def
/cairo_selectfont { cairo_font_matrix aload pop pop pop 0 0 6 array astore
    cairo_font exch selectfont cairo_point_x cairo_point_y moveto } bind def
/Tf { pop /cairo_font exch def /cairo_font_matrix where
      { pop cairo_selectfont } if } bind def
/Td { matrix translate cairo_font_matrix matrix concatmatrix dup
      /cairo_font_matrix exch def dup 4 get exch 5 get cairo_store_point
      /cairo_font where { pop cairo_selectfont } if } bind def
/Tm { 2 copy 8 2 roll 6 array astore /cairo_font_matrix exch def
      cairo_store_point /cairo_font where { pop cairo_selectfont } if } bind def
/g { setgray } bind def
/rg { setrgbcolor } bind def
/d1 { setcachedevice } bind def
/cairo_data_source {
  CairoDataIndex CairoData length lt
    { CairoData CairoDataIndex get /CairoDataIndex CairoDataIndex 1 add def }
    { () } ifelse
} def
/cairo_flush_ascii85_file { cairo_ascii85_file status { cairo_ascii85_file flushfile } if } def
/cairo_image { image cairo_flush_ascii85_file } def
/cairo_imagemask { imagemask cairo_flush_ascii85_file } def
%%EndProlog
%%BeginSetup
%%EndSetup
%%Page: 1 1
%%BeginPageSetup
%%PageBoundingBox: 0 0 141 123
%%EndPageSetup
q 0 0 141 123 rectclip
1 0 0 -1 0 123 cm q
0.74902 0.831373 0.901961 rg
16.543 72.535 m 16.543 121.891 l 101.082 121.891 l 101.082 23.176 l 16.543
 23.176 l f
0 g
0.498132 w
0 J
0 j
[] 0.0 d
10 M q 1 0 0 -1 0 0 cm
16.543 -72.535 m 16.543 -121.891 l 101.082 -121.891 l 101.082 -23.176 l
 16.543 -23.176 l h
16.543 -72.535 m S Q
1 g
39.367 58.715 m 39.367 116.781 l 78.258 116.781 l 78.258 0.648 l 39.367
 0.648 l f
0.901961 g
42.203 92.375 m 42.203 113.238 l 75.422 113.238 l 75.422 71.516 l 42.203
 71.516 l f
0.74902 g
38.969 58.359 m 38.969 116.473 l 78.656 116.473 l 78.656 0.25 l 75.82 0.25
 l 75.82 113.637 l 41.805 113.637 l 41.805 0.25 l 38.969 0.25 l f
0 g
q 1 0 0 -1 0 0 cm
38.969 -58.359 m 38.969 -116.473 l 78.656 -116.473 l 78.656 -0.25 l 75.82
 -0.25 l 75.82 -113.637 l 41.805 -113.637 l 41.805 -0.25 l 38.969 -0.25 
l h
38.969 -58.359 m S Q
0.498039 g
41.805 66.863 m 41.805 71.117 l 75.82 71.117 l 75.82 62.613 l 41.805 62.613
 l f
0 g
q 1 0 0 -1 0 0 cm
41.805 -66.863 m 41.805 -71.117 l 75.82 -71.117 l 75.82 -62.613 l 41.805
 -62.613 l h
41.805 -66.863 m S Q
q 1 0 0 -1 0 0 cm
16.293 -22.926 m 38.969 -22.926 l S Q
q 1 0 0 -1 0 0 cm
101.332 -22.926 m 78.656 -22.926 l S Q
41.805 59.777 m 41.805 56.941 l 46.059 62.613 l 41.805 62.613 l h
41.805 59.777 m f
75.82 59.777 m 75.82 56.941 l 71.57 62.613 l 75.82 62.613 l h
75.82 59.777 m f
49.176 50.031 m 48.754 50.672 48.426 50.875 47.926 50.875 c 47.098 50.875
 46.535 50.156 46.535 49.125 c 46.535 48.203 47.02 47.578 47.754 47.578 
c 48.066 47.578 48.191 47.656 48.27 48 c 48.332 48.203 l 48.41 48.453 48.566
 48.609 48.754 48.609 c 48.988 48.609 49.176 48.438 49.176 48.234 c 49.176
 47.734 48.551 47.312 47.801 47.312 c 47.363 47.312 46.91 47.484 46.535 
47.812 c 46.082 48.203 45.832 48.812 45.832 49.531 c 45.832 50.688 46.551
 51.531 47.535 51.531 c 47.941 51.531 48.301 51.391 48.629 51.109 c 48.863
 50.906 49.035 50.641 49.301 50.125 c h
49.176 50.031 m f
53.543 50.844 m 53.387 50.969 53.277 51.016 53.137 51.016 c 52.934 51.016
 52.871 50.891 52.871 50.5 c 52.871 48.75 l 52.871 48.281 52.824 48.016 
52.699 47.812 c 52.496 47.484 52.105 47.312 51.59 47.312 c 50.746 47.312
 50.074 47.75 50.074 48.312 c 50.074 48.516 50.246 48.703 50.465 48.703 
c 50.684 48.703 50.871 48.516 50.871 48.328 c 50.871 48.297 50.855 48.25
 50.855 48.188 c 50.824 48.094 50.824 48.031 50.824 47.969 c 50.824 47.719
 51.105 47.531 51.465 47.531 c 51.902 47.531 52.152 47.781 52.152 48.266
 c 52.152 48.812 l 50.777 49.359 50.621 49.453 50.23 49.781 c 50.027 49.969
 49.902 50.266 49.902 50.562 c 49.902 51.125 50.293 51.531 50.855 51.531
 c 51.246 51.531 51.605 51.344 52.152 50.875 c 52.199 51.344 52.371 51.531
 52.73 51.531 c 53.043 51.531 53.23 51.422 53.543 51.078 c h
52.152 50.328 m 52.152 50.609 52.105 50.703 51.918 50.812 c 51.684 50.938
 51.449 51 51.262 51 c 50.949 51 50.699 50.703 50.699 50.312 c 50.699 50.281
 l 50.699 49.75 51.105 49.406 52.152 49.031 c h
52.152 50.328 m f
55.812 47.406 m 54.906 47.406 l 54.906 46.359 l 54.906 46.266 54.891 46.25
 54.844 46.25 c 54.328 47 54.062 47.297 53.797 47.453 c 53.703 47.516 53.641
 47.578 53.641 47.625 c 53.641 47.656 53.656 47.672 53.688 47.688 c 54.156
 47.688 l 54.156 50.391 l 54.156 51.141 54.422 51.531 54.953 51.531 c 55.391
 51.531 55.734 51.312 56.031 50.844 c 55.922 50.75 l 55.719 50.984 55.578
 51.062 55.375 51.062 c 55.047 51.062 54.906 50.812 54.906 50.25 c 54.906
 47.688 l 55.812 47.688 l h
55.812 47.406 m f
59.613 50.031 m 59.191 50.672 58.863 50.875 58.363 50.875 c 57.535 50.875
 56.973 50.156 56.973 49.125 c 56.973 48.203 57.457 47.578 58.191 47.578
 c 58.504 47.578 58.629 47.656 58.707 48 c 58.77 48.203 l 58.848 48.453 
59.004 48.609 59.191 48.609 c 59.426 48.609 59.613 48.438 59.613 48.234 
c 59.613 47.734 58.988 47.312 58.238 47.312 c 57.801 47.312 57.348 47.484
 56.973 47.812 c 56.52 48.203 56.27 48.812 56.27 49.531 c 56.27 50.688 56.988
 51.531 57.973 51.531 c 58.379 51.531 58.738 51.391 59.066 51.109 c 59.301
 50.906 59.473 50.641 59.738 50.125 c h
59.613 50.031 m f
64.387 51.297 m 63.902 51.219 63.855 51.156 63.84 50.516 c 63.84 48.734
 l 63.84 47.797 63.48 47.312 62.73 47.312 c 62.215 47.312 61.84 47.531 61.418
 48.062 c 61.418 45.344 l 61.371 45.312 l 61.059 45.422 60.84 45.484 60.34
 45.641 c 60.105 45.703 l 60.105 45.844 l 60.137 45.844 60.152 45.844 60.215
 45.844 c 60.59 45.844 60.668 45.906 60.668 46.297 c 60.668 50.516 l 60.652
 51.172 60.605 51.234 60.09 51.297 c 60.09 51.438 l 62.027 51.438 l 62.027
 51.297 l 61.512 51.266 61.434 51.156 61.418 50.516 c 61.418 48.359 l 61.793
 47.953 62.059 47.797 62.418 47.797 c 62.871 47.797 63.09 48.125 63.09 48.75
 c 63.09 50.516 l 63.074 51.156 62.996 51.266 62.48 51.297 c 62.48 51.438
 l 64.387 51.438 l h
64.387 51.297 m f
68.109 49.969 m 67.688 50.641 67.297 50.906 66.719 50.906 c 66.219 50.906
 65.828 50.641 65.562 50.141 c 65.406 49.797 65.344 49.516 65.328 48.953
 c 68.078 48.953 l 68.016 48.375 67.922 48.109 67.703 47.828 c 67.438 47.5
 67.016 47.312 66.547 47.312 c 66.109 47.312 65.688 47.469 65.344 47.781
 c 64.922 48.141 64.672 48.781 64.672 49.516 c 64.672 50.75 65.328 51.531
 66.359 51.531 c 67.203 51.531 67.875 51 68.25 50.031 c h
65.344 48.672 m 65.438 47.969 65.75 47.641 66.297 47.641 c 66.844 47.641
 67.047 47.891 67.172 48.672 c h
65.344 48.672 m f
71.242 48.625 m 71.211 47.391 l 71.102 47.391 l 71.055 47.469 71.008 47.484
 70.961 47.484 c 70.914 47.484 70.82 47.469 70.727 47.422 c 70.508 47.359
 70.305 47.312 70.086 47.312 c 69.383 47.312 68.867 47.781 68.867 48.422
 c 68.867 48.922 69.164 49.281 69.914 49.719 c 70.445 50.016 l 70.758 50.188
 70.914 50.406 70.914 50.688 c 70.914 51.078 70.617 51.328 70.164 51.328
 c 69.539 51.328 69.227 50.984 69.023 50.078 c 68.883 50.078 l 68.883 51.469
 l 68.992 51.469 l 69.055 51.391 69.102 51.359 69.211 51.359 c 69.305 51.359
 69.414 51.391 69.617 51.438 c 69.852 51.484 70.086 51.531 70.273 51.531
 c 70.977 51.531 71.539 51 71.539 50.375 c 71.539 49.938 71.32 49.641 70.789
 49.312 c 69.82 48.734 l 69.555 48.578 69.43 48.375 69.43 48.125 c 69.43
 47.766 69.711 47.516 70.117 47.516 c 70.633 47.516 70.898 47.812 71.102
 48.625 c h
71.242 48.625 m f
45.801 56.148 m 44.215 59.492 l 47.562 57.91 l 45.695 58.016 l f
q 1 0 0 -1 0 0 cm
45.695 -58.016 m 51.016 -52.691 l S Q
70.066 57.91 m 73.41 59.492 l 71.824 56.148 l 71.934 58.016 l f
q 1 0 0 -1 0 0 cm
71.934 -58.016 m 66.609 -52.691 l S Q
57.031 89.969 m 57.031 89.625 l 56.344 89.625 l 56.156 89.625 56.016 89.594
 55.844 89.531 c 55.641 89.469 l 55.406 89.375 55.156 89.328 54.922 89.328
 c 54.094 89.328 53.438 89.969 53.438 90.797 c 53.438 91.359 53.672 91.688
 54.266 91.984 c 54.031 92.203 l 53.844 92.391 53.734 92.484 53.703 92.516
 c 53.516 92.719 53.469 92.812 53.469 92.969 c 53.469 93.172 53.562 93.266
 53.938 93.438 c 53.297 93.906 53.062 94.203 53.062 94.531 c 53.062 95.016
 53.75 95.406 54.609 95.406 c 55.281 95.406 55.984 95.172 56.453 94.797 
c 56.797 94.516 56.953 94.234 56.953 93.891 c 56.953 93.344 56.531 92.969
 55.859 92.938 c 54.703 92.875 l 54.219 92.859 54 92.781 54 92.641 c 54 
92.453 54.297 92.141 54.547 92.078 c 54.859 92.094 55.031 92.109 55.062 
92.109 c 55.391 92.109 55.75 91.984 56.016 91.734 c 56.312 91.484 56.453
 91.172 56.453 90.734 c 56.453 90.469 56.406 90.266 56.281 89.969 c h
54.125 93.469 m 54.438 93.531 55.141 93.594 55.594 93.594 c 56.406 93.594
 56.703 93.703 56.703 94.031 c 56.703 94.547 56.016 94.891 55 94.891 c 54.203
 94.891 53.688 94.641 53.688 94.25 c 53.688 94.031 53.766 93.906 54.125 
93.469 c h
54.172 90.422 m 54.172 89.891 54.422 89.578 54.844 89.578 c 55.125 89.578
 55.344 89.734 55.5 90 c 55.672 90.312 55.766 90.719 55.766 91.078 c 55.766
 91.578 55.516 91.891 55.094 91.891 c 54.547 91.891 54.172 91.312 54.172
 90.453 c h
54.172 90.422 m f
61.223 92.859 m 61.066 92.984 60.957 93.031 60.816 93.031 c 60.613 93.031
 60.551 92.906 60.551 92.516 c 60.551 90.766 l 60.551 90.297 60.504 90.031
 60.379 89.828 c 60.176 89.5 59.785 89.328 59.27 89.328 c 58.426 89.328 
57.754 89.766 57.754 90.328 c 57.754 90.531 57.926 90.719 58.145 90.719 
c 58.363 90.719 58.551 90.531 58.551 90.344 c 58.551 90.312 58.535 90.266
 58.535 90.203 c 58.504 90.109 58.504 90.047 58.504 89.984 c 58.504 89.734
 58.785 89.547 59.145 89.547 c 59.582 89.547 59.832 89.797 59.832 90.281
 c 59.832 90.828 l 58.457 91.375 58.301 91.469 57.91 91.797 c 57.707 91.984
 57.582 92.281 57.582 92.578 c 57.582 93.141 57.973 93.547 58.535 93.547
 c 58.926 93.547 59.285 93.359 59.832 92.891 c 59.879 93.359 60.051 93.547
 60.41 93.547 c 60.723 93.547 60.91 93.438 61.223 93.094 c h
59.832 92.344 m 59.832 92.625 59.785 92.719 59.598 92.828 c 59.363 92.953
 59.129 93.016 58.941 93.016 c 58.629 93.016 58.379 92.719 58.379 92.328
 c 58.379 92.297 l 58.379 91.766 58.785 91.422 59.832 91.047 c h
59.832 92.344 m f
64.039 90.641 m 64.008 89.406 l 63.898 89.406 l 63.852 89.484 63.805 89.5
 63.758 89.5 c 63.711 89.5 63.617 89.484 63.523 89.438 c 63.305 89.375 63.102
 89.328 62.883 89.328 c 62.18 89.328 61.664 89.797 61.664 90.438 c 61.664
 90.938 61.961 91.297 62.711 91.734 c 63.242 92.031 l 63.555 92.203 63.711
 92.422 63.711 92.703 c 63.711 93.094 63.414 93.344 62.961 93.344 c 62.336
 93.344 62.023 93 61.82 92.094 c 61.68 92.094 l 61.68 93.484 l 61.789 93.484
 l 61.852 93.406 61.898 93.375 62.008 93.375 c 62.102 93.375 62.211 93.406
 62.414 93.453 c 62.648 93.5 62.883 93.547 63.07 93.547 c 63.773 93.547 
64.336 93.016 64.336 92.391 c 64.336 91.953 64.117 91.656 63.586 91.328 
c 62.617 90.75 l 62.352 90.594 62.227 90.391 62.227 90.141 c 62.227 89.781
 62.508 89.531 62.914 89.531 c 63.43 89.531 63.695 89.828 63.898 90.641 
c h
64.039 90.641 m f
q 1 0 0 -1 0 0 cm
13.457 -113.637 m 2.121 -113.637 l S Q
q 1 0 0 -1 0 0 cm
13.457 -71.117 m 2.121 -71.117 l S Q
9.035 74.602 m 7.789 71.117 l 6.543 74.602 l 7.789 73.207 l f
q 1 0 0 -1 0 0 cm
7.789 -113.637 m 7.789 -73.207 l S Q
1 g
0 92.449 m 0 99.777 l 15.539 99.777 l 15.539 85.117 l 0 85.117 l f
0 g
7.301 93.613 m 7.176 93.504 l 6.957 93.801 6.645 94.191 6.473 94.191 c 
6.41 94.191 6.363 94.129 6.363 94.035 c 6.363 93.676 7.098 91.582 7.098 
91.051 c 7.098 90.582 6.77 90.441 6.551 90.441 c 5.77 90.441 4.848 91.723
 4.426 92.426 c 5.566 88.098 l 5.566 88.098 4.363 88.316 4.113 88.332 c 
4.113 88.504 l 4.473 88.504 4.707 88.535 4.707 88.816 c 4.707 88.988 4.598
 89.41 4.535 89.629 c 3.207 94.535 l 3.879 94.535 l 3.91 94.426 4.035 93.941
 4.035 93.941 c 4.598 91.832 5.801 90.941 6.16 90.941 c 6.285 90.941 6.41
 91.035 6.41 91.207 c 6.41 91.582 5.645 93.77 5.645 94.223 c 5.66 94.441
 5.754 94.645 6.035 94.645 c 6.535 94.645 7.02 94.035 7.301 93.613 c h
7.301 93.613 m f
11.066 96.695 m 11.066 96.508 l 10.535 96.508 10.363 96.508 10.363 95.664
 c 10.363 95.648 10.363 91.992 10.363 91.992 c 10.191 91.992 l 8.848 92.57
 l 8.926 92.758 l 9.238 92.633 9.301 92.617 9.395 92.617 c 9.598 92.617 
9.613 92.789 9.613 92.992 c 9.613 95.664 l 9.613 96.508 9.457 96.492 8.926
 96.508 c 8.926 96.695 l h
11.066 96.695 m f
82.141 10.344 m 78.656 11.59 l 82.141 12.832 l 80.746 11.59 l f
q 1 0 0 -1 0 0 cm
80.746 -11.59 m 109.836 -11.59 l S Q
114.816 12.34 m 114.395 12.98 114.066 13.184 113.566 13.184 c 112.738 13.184
 112.176 12.465 112.176 11.434 c 112.176 10.512 112.66 9.887 113.395 9.887
 c 113.707 9.887 113.832 9.965 113.91 10.309 c 113.973 10.512 l 114.051 
10.762 114.207 10.918 114.395 10.918 c 114.629 10.918 114.816 10.746 114.816
 10.543 c 114.816 10.043 114.191 9.621 113.441 9.621 c 113.004 9.621 112.551
 9.793 112.176 10.121 c 111.723 10.512 111.473 11.121 111.473 11.84 c 111.473
 12.996 112.191 13.84 113.176 13.84 c 113.582 13.84 113.941 13.699 114.27
 13.418 c 114.504 13.215 114.676 12.949 114.941 12.434 c h
114.816 12.34 m f
119.359 9.715 m 118.141 9.715 l 118.141 9.84 l 118.438 9.84 118.578 9.918
 118.578 10.074 c 118.578 10.105 118.562 10.152 118.531 10.215 c 117.672
 12.699 l 116.641 10.434 l 116.578 10.309 116.547 10.184 116.547 10.09 c
 116.547 9.918 116.688 9.855 117.062 9.84 c 117.062 9.715 l 115.219 9.715
 l 115.219 9.84 l 115.453 9.871 115.609 9.965 115.672 10.121 c 116.703 12.324
 l 116.812 12.574 116.812 12.574 116.859 12.668 c 117.109 13.121 117.25 
13.449 117.25 13.59 c 117.25 13.73 117.047 14.277 116.891 14.559 c 116.766
 14.777 116.578 14.949 116.453 14.949 c 116.391 14.949 116.312 14.934 116.219
 14.887 c 116.047 14.824 115.891 14.793 115.75 14.793 c 115.531 14.793 115.359
 14.949 115.359 15.184 c 115.359 15.48 115.641 15.699 116.031 15.699 c 116.641
 15.699 117.047 15.215 117.547 13.902 c 118.922 10.246 l 119.047 9.965 119.141
 9.871 119.359 9.84 c h
119.359 9.715 m f
119.723 13.746 m 121.848 13.746 l 121.848 13.605 l 121.27 13.59 121.176
 13.496 121.16 12.996 c 121.16 7.637 l 121.129 7.621 l 120.676 7.762 120.348
 7.855 119.707 8.012 c 119.707 8.152 l 119.754 8.152 l 119.863 8.152 119.973
 8.137 120.035 8.137 c 120.332 8.137 120.41 8.262 120.41 8.684 c 120.41 
12.965 l 120.41 13.449 120.285 13.574 119.723 13.605 c h
119.723 13.746 m f
122.195 13.746 m 124.32 13.746 l 124.32 13.605 l 123.727 13.574 123.664
 13.48 123.664 12.824 c 123.664 9.652 l 123.617 9.621 l 122.227 10.121 l
 122.227 10.246 l 122.305 10.246 l 122.414 10.215 122.523 10.215 122.617
 10.215 c 122.82 10.215 122.914 10.355 122.914 10.746 c 122.914 12.824 l
 122.883 13.496 122.805 13.59 122.195 13.605 c h
123.195 7.621 m 122.961 7.621 122.758 7.824 122.758 8.074 c 122.758 8.34
 122.945 8.543 123.195 8.543 c 123.477 8.543 123.664 8.34 123.664 8.074 
c 123.664 7.824 123.461 7.621 123.195 7.621 c h
123.195 7.621 m f
124.73 13.746 m 126.637 13.746 l 126.637 13.605 l 126.184 13.59 126.043
 13.465 126.043 13.152 c 126.043 10.621 l 126.48 10.215 126.668 10.121 126.965
 10.121 c 127.402 10.121 127.621 10.387 127.621 10.98 c 127.621 12.855 l
 127.605 13.434 127.496 13.59 127.059 13.605 c 127.059 13.746 l 128.918 
13.746 l 128.918 13.605 l 128.48 13.574 128.387 13.465 128.371 13.027 c 
128.371 10.965 l 128.371 10.121 127.98 9.621 127.324 9.621 c 126.902 9.621
 126.621 9.777 126.012 10.34 c 126.012 9.637 l 125.949 9.621 l 125.496 9.793
 125.184 9.887 124.715 10.027 c 124.715 10.184 l 124.777 10.152 124.855 
10.137 124.965 10.137 c 125.215 10.137 125.293 10.277 125.293 10.715 c 125.293
 12.934 l 125.277 13.465 125.184 13.59 124.73 13.605 c h
124.73 13.746 m f
133.418 13.23 m 133.293 13.23 133.246 13.23 133.215 13.23 c 132.902 13.23
 132.809 13.137 132.809 12.73 c 132.809 7.637 l 132.777 7.621 l 132.355 
7.762 132.043 7.855 131.449 8.012 c 131.449 8.152 l 131.527 8.152 131.574
 8.152 131.652 8.152 c 131.98 8.152 132.059 8.246 132.059 8.605 c 132.059
 10.012 l 131.715 9.715 131.48 9.621 131.121 9.621 c 130.09 9.621 129.246
 10.637 129.246 11.902 c 129.246 13.059 129.918 13.84 130.918 13.84 c 131.418
 13.84 131.762 13.652 132.059 13.23 c 132.059 13.809 l 132.09 13.84 l 133.418
 13.371 l h
132.059 12.824 m 132.059 12.887 131.996 12.996 131.902 13.105 c 131.762
 13.277 131.527 13.371 131.262 13.371 c 130.512 13.371 130.027 12.652 130.027
 11.543 c 130.027 10.543 130.465 9.871 131.152 9.871 c 131.637 9.871 132.059
 10.293 132.059 10.762 c h
132.059 12.824 m f
137.109 12.277 m 136.688 12.949 136.297 13.215 135.719 13.215 c 135.219
 13.215 134.828 12.949 134.562 12.449 c 134.406 12.105 134.344 11.824 134.328
 11.262 c 137.078 11.262 l 137.016 10.684 136.922 10.418 136.703 10.137 
c 136.438 9.809 136.016 9.621 135.547 9.621 c 135.109 9.621 134.688 9.777
 134.344 10.09 c 133.922 10.449 133.672 11.09 133.672 11.824 c 133.672 13.059
 134.328 13.84 135.359 13.84 c 136.203 13.84 136.875 13.309 137.25 12.34
 c h
134.344 10.98 m 134.438 10.277 134.75 9.949 135.297 9.949 c 135.844 9.949
 136.047 10.199 136.172 10.98 c h
134.344 10.98 m f
137.461 13.746 m 139.617 13.746 l 139.617 13.605 l 139.008 13.59 138.867
 13.465 138.852 12.934 c 138.852 10.918 l 138.852 10.637 139.227 10.184 
139.477 10.184 c 139.523 10.184 139.617 10.23 139.711 10.324 c 139.852 10.449
 139.945 10.496 140.07 10.496 c 140.289 10.496 140.414 10.34 140.414 10.09
 c 140.414 9.793 140.227 9.621 139.93 9.621 c 139.555 9.621 139.305 9.824
 138.852 10.465 c 138.852 9.637 l 138.805 9.621 l 138.305 9.824 137.977 
9.949 137.477 10.105 c 137.477 10.246 l 137.602 10.215 137.68 10.215 137.789
 10.215 c 138.008 10.215 138.102 10.355 138.102 10.746 c 138.102 12.996 
l 138.07 13.465 138.023 13.512 137.461 13.605 c h
137.461 13.746 m f
84.762 104.336 m 86.918 104.336 l 86.918 104.195 l 86.309 104.18 86.168
 104.055 86.152 103.523 c 86.152 101.508 l 86.152 101.227 86.527 100.773
 86.777 100.773 c 86.824 100.773 86.918 100.82 87.012 100.914 c 87.152 101.039
 87.246 101.086 87.371 101.086 c 87.59 101.086 87.715 100.93 87.715 100.68
 c 87.715 100.383 87.527 100.211 87.23 100.211 c 86.855 100.211 86.605 100.414
 86.152 101.055 c 86.152 100.227 l 86.105 100.211 l 85.605 100.414 85.277
 100.539 84.777 100.695 c 84.777 100.836 l 84.902 100.805 84.98 100.805 
85.09 100.805 c 85.309 100.805 85.402 100.945 85.402 101.336 c 85.402 103.586
 l 85.371 104.055 85.324 104.102 84.762 104.195 c h
84.762 104.336 m f
91.371 102.867 m 90.949 103.539 90.559 103.805 89.98 103.805 c 89.48 103.805
 89.09 103.539 88.824 103.039 c 88.668 102.695 88.605 102.414 88.59 101.852
 c 91.34 101.852 l 91.277 101.273 91.184 101.008 90.965 100.727 c 90.699
 100.398 90.277 100.211 89.809 100.211 c 89.371 100.211 88.949 100.367 88.605
 100.68 c 88.184 101.039 87.934 101.68 87.934 102.414 c 87.934 103.648 88.59
 104.43 89.621 104.43 c 90.465 104.43 91.137 103.898 91.512 102.93 c h
88.605 101.57 m 88.699 100.867 89.012 100.539 89.559 100.539 c 90.105 100.539
 90.309 100.789 90.434 101.57 c h
88.605 101.57 m f
94.504 101.523 m 94.473 100.289 l 94.363 100.289 l 94.316 100.367 94.27
 100.383 94.223 100.383 c 94.176 100.383 94.082 100.367 93.988 100.32 c 
93.77 100.258 93.566 100.211 93.348 100.211 c 92.645 100.211 92.129 100.68
 92.129 101.32 c 92.129 101.82 92.426 102.18 93.176 102.617 c 93.707 102.914
 l 94.02 103.086 94.176 103.305 94.176 103.586 c 94.176 103.977 93.879 104.227
 93.426 104.227 c 92.801 104.227 92.488 103.883 92.285 102.977 c 92.145 
102.977 l 92.145 104.367 l 92.254 104.367 l 92.316 104.289 92.363 104.258
 92.473 104.258 c 92.566 104.258 92.676 104.289 92.879 104.336 c 93.113 
104.383 93.348 104.43 93.535 104.43 c 94.238 104.43 94.801 103.898 94.801
 103.273 c 94.801 102.836 94.582 102.539 94.051 102.211 c 93.082 101.633
 l 92.816 101.477 92.691 101.273 92.691 101.023 c 92.691 100.664 92.973 
100.414 93.379 100.414 c 93.895 100.414 94.16 100.711 94.363 101.523 c h
94.504 101.523 m f
69.371 74.195 m 67.316 71.117 l 66.953 74.801 l 67.824 73.145 l f
q 1 0 0 -1 0 0 cm
67.824 -73.145 m 68.734 -76.785 l 109.836 -76.785 l S Q
111.301 80.898 m 113.473 80.898 l 113.473 80.727 l 112.801 80.727 112.691
 80.633 112.676 80.055 c 112.676 78.648 l 113.004 78.945 113.207 79.039 
113.582 79.039 c 114.66 79.039 115.473 78.023 115.473 76.727 c 115.473 75.617
 114.848 74.82 113.973 74.82 c 113.473 74.82 113.082 75.039 112.676 75.523
 c 112.676 74.836 l 112.629 74.82 l 112.145 75.008 111.832 75.117 111.332
 75.273 c 111.332 75.414 l 111.41 75.414 111.473 75.414 111.566 75.414 c
 111.863 75.414 111.926 75.508 111.926 75.93 c 111.926 80.117 l 111.926 
80.602 111.832 80.68 111.301 80.742 c h
112.676 75.945 m 112.676 75.68 113.176 75.352 113.598 75.352 c 114.254 
75.352 114.691 76.039 114.691 77.086 c 114.691 78.07 114.254 78.742 113.613
 78.742 c 113.191 78.742 112.676 78.43 112.676 78.148 c h
112.676 75.945 m f
115.836 78.945 m 117.961 78.945 l 117.961 78.805 l 117.367 78.773 117.305
 78.68 117.305 78.023 c 117.305 74.852 l 117.258 74.82 l 115.867 75.32 l
 115.867 75.445 l 115.945 75.445 l 116.055 75.414 116.164 75.414 116.258
 75.414 c 116.461 75.414 116.555 75.555 116.555 75.945 c 116.555 78.023 
l 116.523 78.695 116.445 78.789 115.836 78.805 c h
116.836 72.82 m 116.602 72.82 116.398 73.023 116.398 73.273 c 116.398 73.539
 116.586 73.742 116.836 73.742 c 117.117 73.742 117.305 73.539 117.305 73.273
 c 117.305 73.023 117.102 72.82 116.836 72.82 c h
116.836 72.82 m f
121.043 76.133 m 121.012 74.898 l 120.902 74.898 l 120.855 74.977 120.809
 74.992 120.762 74.992 c 120.715 74.992 120.621 74.977 120.527 74.93 c 120.309
 74.867 120.105 74.82 119.887 74.82 c 119.184 74.82 118.668 75.289 118.668
 75.93 c 118.668 76.43 118.965 76.789 119.715 77.227 c 120.246 77.523 l 
120.559 77.695 120.715 77.914 120.715 78.195 c 120.715 78.586 120.418 78.836
 119.965 78.836 c 119.34 78.836 119.027 78.492 118.824 77.586 c 118.684 
77.586 l 118.684 78.977 l 118.793 78.977 l 118.855 78.898 118.902 78.867
 119.012 78.867 c 119.105 78.867 119.215 78.898 119.418 78.945 c 119.652
 78.992 119.887 79.039 120.074 79.039 c 120.777 79.039 121.34 78.508 121.34
 77.883 c 121.34 77.445 121.121 77.148 120.59 76.82 c 119.621 76.242 l 119.355
 76.086 119.23 75.883 119.23 75.633 c 119.23 75.273 119.512 75.023 119.918
 75.023 c 120.434 75.023 120.699 75.32 120.902 76.133 c h
121.043 76.133 m f
123.977 74.914 m 123.07 74.914 l 123.07 73.867 l 123.07 73.773 123.055 
73.758 123.008 73.758 c 122.492 74.508 122.227 74.805 121.961 74.961 c 121.867
 75.023 121.805 75.086 121.805 75.133 c 121.805 75.164 121.82 75.18 121.852
 75.195 c 122.32 75.195 l 122.32 77.898 l 122.32 78.648 122.586 79.039 123.117
 79.039 c 123.555 79.039 123.898 78.82 124.195 78.352 c 124.086 78.258 l
 123.883 78.492 123.742 78.57 123.539 78.57 c 123.211 78.57 123.07 78.32
 123.07 77.758 c 123.07 75.195 l 123.977 75.195 l h
123.977 74.914 m f
126.465 74.82 m 125.277 74.82 124.48 75.68 124.48 76.914 c 124.48 78.133
 125.309 79.039 126.434 79.039 c 127.574 79.039 128.434 78.086 128.434 76.852
 c 128.434 75.664 127.605 74.82 126.465 74.82 c h
126.34 75.07 m 127.09 75.07 127.621 75.93 127.621 77.164 c 127.621 78.18
 127.215 78.789 126.543 78.789 c 126.199 78.789 125.871 78.57 125.684 78.211
 c 125.418 77.742 125.277 77.117 125.277 76.477 c 125.277 75.633 125.699
 75.07 126.34 75.07 c h
126.34 75.07 m f
128.809 78.945 m 130.715 78.945 l 130.715 78.805 l 130.262 78.789 130.121
 78.664 130.121 78.352 c 130.121 75.82 l 130.559 75.414 130.746 75.32 131.043
 75.32 c 131.48 75.32 131.699 75.586 131.699 76.18 c 131.699 78.055 l 131.684
 78.633 131.574 78.789 131.137 78.805 c 131.137 78.945 l 132.996 78.945 
l 132.996 78.805 l 132.559 78.773 132.465 78.664 132.449 78.227 c 132.449
 76.164 l 132.449 75.32 132.059 74.82 131.402 74.82 c 130.98 74.82 130.699
 74.977 130.09 75.539 c 130.09 74.836 l 130.027 74.82 l 129.574 74.992 129.262
 75.086 128.793 75.227 c 128.793 75.383 l 128.855 75.352 128.934 75.336 
129.043 75.336 c 129.293 75.336 129.371 75.477 129.371 75.914 c 129.371 
78.133 l 129.355 78.664 129.262 78.789 128.809 78.805 c h
128.809 78.945 m f
1.70071 w
q 1 0 0 -1 0 0 cm
16.293 -0.25 m 16.293 -122.141 l 101.332 -122.141 l 101.332 -0.25 l S Q
Q Q
showpage
%%Trailer
end
%%EOF
