%!PS-Adobe-3.0 EPSF-3.0
%%Creator: cairo 1.17.4 (https://cairographics.org)
%%CreationDate: Thu Feb 24 10:47:12 2022
%%Pages: 1
%%DocumentData: Clean7Bit
%%LanguageLevel: 2
%%BoundingBox: 0 0 160 77
%%EndComments
%%BeginProlog
50 dict begin
/q { gsave } bind def
/Q { grestore } bind def
/cm { 6 array astore concat } bind def
/w { setlinewidth } bind def
/J { setlinecap } bind def
/j { setlinejoin } bind def
/M { setmiterlimit } bind def
/d { setdash } bind def
/m { moveto } bind def
/l { lineto } bind def
/c { curveto } bind def
/h { closepath } bind def
/re { exch dup neg 3 1 roll 5 3 roll moveto 0 rlineto
      0 exch rlineto 0 rlineto closepath } bind def
/S { stroke } bind def
/f { fill } bind def
/f* { eofill } bind def
/n { newpath } bind def
/W { clip } bind def
/W* { eoclip } bind def
/BT { } bind def
/ET { } bind def
/BDC { mark 3 1 roll /BDC pdfmark } bind def
/EMC { mark /EMC pdfmark } bind def
/cairo_store_point { /cairo_point_y exch def /cairo_point_x exch def } def
/Tj { show currentpoint cairo_store_point } bind def
/TJ {
  {
    dup
    type /stringtype eq
    { show } { -0.001 mul 0 cairo_font_matrix dtransform rmoveto } ifelse
  } forall
  currentpoint cairo_store_point
} bind def
/cairo_selectfont { cairo_font_matrix aload pop pop pop 0 0 6 array astore
    cairo_font exch selectfont cairo_point_x cairo_point_y moveto } bind def
/Tf { pop /cairo_font exch def /cairo_font_matrix where
      { pop cairo_selectfont } if } bind def
/Td { matrix translate cairo_font_matrix matrix concatmatrix dup
      /cairo_font_matrix exch def dup 4 get exch 5 get cairo_store_point
      /cairo_font where { pop cairo_selectfont } if } bind def
/Tm { 2 copy 8 2 roll 6 array astore /cairo_font_matrix exch def
      cairo_store_point /cairo_font where { pop cairo_selectfont } if } bind def
/g { setgray } bind def
/rg { setrgbcolor } bind def
/d1 { setcachedevice } bind def
/cairo_data_source {
  CairoDataIndex CairoData length lt
    { CairoData CairoDataIndex get /CairoDataIndex CairoDataIndex 1 add def }
    { () } ifelse
} def
/cairo_flush_ascii85_file { cairo_ascii85_file status { cairo_ascii85_file flushfile } if } def
/cairo_image { image cairo_flush_ascii85_file } def
/cairo_imagemask { imagemask cairo_flush_ascii85_file } def
%%EndProlog
%%BeginSetup
%%EndSetup
%%Page: 1 1
%%BeginPageSetup
%%PageBoundingBox: 0 0 160 77
%%EndPageSetup
q 0 0 160 77 rectclip
1 0 0 -1 0 77 cm q
0.901961 g
3.262 31.555 m 3.262 59.898 l 116.648 59.898 l 116.648 3.207 l 3.262 3.207
 l f
Q q
0.426 24 m 3.262 24 l 3.262 59.898 l 0.426 59.898 l h
0.426 59.898 m 87.922 59.898 l 87.922 62.734 l 0.426 62.734 l h
0.426 59.898 m W n
q
0 24 88 39 re W n
  q
0 g
0.510386 w
2 J
0 j
[] 0.0 d
10 M q 1 0 0 -1 0 0 cm
79.832 -142.07 m -30.719 -31.52 l S Q
  Q
Q
Q q
0.426 22 m 3.262 22 l 3.262 59.898 l 0.426 59.898 l h
0.426 59.898 m 88.922 59.898 l 88.922 62.734 l 0.426 62.734 l h
0.426 59.898 m W n
q
0 22 89 41 re W n
  q
0 g
0.510386 w
2 J
0 j
[] 0.0 d
10 M q 1 0 0 -1 0 0 cm
81.23 -140.668 m -29.32 -30.117 l S Q
  Q
Q
Q q
0.426 21 m 3.262 21 l 3.262 59.898 l 0.426 59.898 l h
0.426 59.898 m 89.922 59.898 l 89.922 62.734 l 0.426 62.734 l h
0.426 59.898 m W n
q
0 21 90 42 re W n
  q
0 g
0.510386 w
2 J
0 j
[] 0.0 d
10 M q 1 0 0 -1 0 0 cm
82.633 -139.27 m -27.918 -28.719 l S Q
  Q
Q
Q q
0.426 20 m 3.262 20 l 3.262 59.898 l 0.426 59.898 l h
0.426 59.898 m 91.922 59.898 l 91.922 62.734 l 0.426 62.734 l h
0.426 59.898 m W n
q
0 20 92 43 re W n
  q
0 g
0.510386 w
2 J
0 j
[] 0.0 d
10 M q 1 0 0 -1 0 0 cm
84.031 -137.871 m -26.52 -27.32 l S Q
  Q
Q
Q q
0.426 18 m 3.262 18 l 3.262 59.898 l 0.426 59.898 l h
0.426 59.898 m 92.922 59.898 l 92.922 62.734 l 0.426 62.734 l h
0.426 59.898 m W n
q
0 18 93 45 re W n
  q
0 g
0.510386 w
2 J
0 j
[] 0.0 d
10 M q 1 0 0 -1 0 0 cm
85.434 -136.469 m -25.117 -25.918 l S Q
  Q
Q
Q q
0.426 17 m 3.262 17 l 3.262 59.898 l 0.426 59.898 l h
0.426 59.898 m 94.922 59.898 l 94.922 62.734 l 0.426 62.734 l h
0.426 59.898 m W n
q
0 17 95 46 re W n
  q
0 g
0.510386 w
2 J
0 j
[] 0.0 d
10 M q 1 0 0 -1 0 0 cm
86.832 -135.07 m -23.719 -24.52 l S Q
  Q
Q
Q q
0.426 15 m 3.262 15 l 3.262 59.898 l 0.426 59.898 l h
0.426 59.898 m 95.922 59.898 l 95.922 62.734 l 0.426 62.734 l h
0.426 59.898 m W n
q
0 15 96 48 re W n
  q
0 g
0.510386 w
2 J
0 j
[] 0.0 d
10 M q 1 0 0 -1 0 0 cm
88.23 -133.668 m -22.32 -23.117 l S Q
  Q
Q
Q q
0.426 14 m 3.262 14 l 3.262 59.898 l 0.426 59.898 l h
0.426 59.898 m 96.922 59.898 l 96.922 62.734 l 0.426 62.734 l h
0.426 59.898 m W n
q
0 14 97 49 re W n
  q
0 g
0.510386 w
2 J
0 j
[] 0.0 d
10 M q 1 0 0 -1 0 0 cm
89.633 -132.27 m -20.918 -21.719 l S Q
  Q
Q
Q q
0.426 13 m 3.262 13 l 3.262 59.898 l 0.426 59.898 l h
0.426 59.898 m 98.922 59.898 l 98.922 62.734 l 0.426 62.734 l h
0.426 59.898 m W n
q
0 13 99 50 re W n
  q
0 g
0.510386 w
2 J
0 j
[] 0.0 d
10 M q 1 0 0 -1 0 0 cm
91.031 -130.871 m -19.52 -20.32 l S Q
  Q
Q
Q q
0.426 11 m 3.262 11 l 3.262 59.898 l 0.426 59.898 l h
0.426 59.898 m 99.922 59.898 l 99.922 62.734 l 0.426 62.734 l h
0.426 59.898 m W n
q
0 11 100 52 re W n
  q
0 g
0.510386 w
2 J
0 j
[] 0.0 d
10 M q 1 0 0 -1 0 0 cm
92.434 -129.469 m -18.117 -18.918 l S Q
  Q
Q
Q q
0.426 10 m 3.262 10 l 3.262 59.898 l 0.426 59.898 l h
0.426 59.898 m 101.922 59.898 l 101.922 62.734 l 0.426 62.734 l h
0.426 59.898 m W n
q
0 10 102 53 re W n
  q
0 g
0.510386 w
2 J
0 j
[] 0.0 d
10 M q 1 0 0 -1 0 0 cm
93.832 -128.07 m -16.719 -17.52 l S Q
  Q
Q
Q q
0.426 8 m 3.262 8 l 3.262 59.898 l 0.426 59.898 l h
0.426 59.898 m 102.922 59.898 l 102.922 62.734 l 0.426 62.734 l h
0.426 59.898 m W n
q
0 8 103 55 re W n
  q
0 g
0.510386 w
2 J
0 j
[] 0.0 d
10 M q 1 0 0 -1 0 0 cm
95.23 -126.668 m -15.32 -16.117 l S Q
  Q
Q
Q q
0.426 7 m 3.262 7 l 3.262 59.898 l 0.426 59.898 l h
0.426 59.898 m 103.922 59.898 l 103.922 62.734 l 0.426 62.734 l h
0.426 59.898 m W n
q
0 7 104 56 re W n
  q
0 g
0.510386 w
2 J
0 j
[] 0.0 d
10 M q 1 0 0 -1 0 0 cm
96.633 -125.27 m -13.918 -14.719 l S Q
  Q
Q
Q q
0.426 6 m 3.262 6 l 3.262 59.898 l 0.426 59.898 l h
0.426 59.898 m 105.922 59.898 l 105.922 62.734 l 0.426 62.734 l h
0.426 59.898 m W n
q
0 6 106 57 re W n
  q
0 g
0.510386 w
2 J
0 j
[] 0.0 d
10 M q 1 0 0 -1 0 0 cm
98.031 -123.871 m -12.52 -13.32 l S Q
  Q
Q
Q q
0.426 4 m 3.262 4 l 3.262 59.898 l 0.426 59.898 l h
0.426 59.898 m 106.922 59.898 l 106.922 62.734 l 0.426 62.734 l h
0.426 59.898 m W n
q
0 4 107 59 re W n
  q
0 g
0.510386 w
2 J
0 j
[] 0.0 d
10 M q 1 0 0 -1 0 0 cm
99.434 -122.469 m -11.117 -11.918 l S Q
  Q
Q
Q q
0.426 3 m 108.922 3 l 108.922 3.207 l 0.426 3.207 l h
0.426 3.207 m 3.262 3.207 l 3.262 59.898 l 0.426 59.898 l h
0.426 59.898 m 108.922 59.898 l 108.922 62.734 l 0.426 62.734 l h
0.426 59.898 m W n
q
0 3 109 60 re W n
  q
0 g
0.510386 w
2 J
0 j
[] 0.0 d
10 M q 1 0 0 -1 0 0 cm
100.832 -121.07 m -9.719 -10.52 l S Q
  Q
Q
Q q
0.426 1 m 109.922 1 l 109.922 3.207 l 0.426 3.207 l h
0.426 3.207 m 3.262 3.207 l 3.262 59.898 l 0.426 59.898 l h
0.426 59.898 m 109.922 59.898 l 109.922 62.734 l 0.426 62.734 l h
0.426 59.898 m W n
q
0 1 110 62 re W n
  q
0 g
0.510386 w
2 J
0 j
[] 0.0 d
10 M q 1 0 0 -1 0 0 cm
102.23 -119.668 m -8.32 -9.117 l S Q
  Q
Q
Q q
0.426 0.371 m 110.922 0.371 l 110.922 3.207 l 0.426 3.207 l h
0.426 3.207 m 3.262 3.207 l 3.262 59.898 l 0.426 59.898 l h
0.426 59.898 m 110.922 59.898 l 110.922 62.734 l 0.426 62.734 l h
0.426 59.898 m W n
q
0 0 111 63 re W n
  q
0 g
0.510386 w
2 J
0 j
[] 0.0 d
10 M q 1 0 0 -1 0 0 cm
103.633 -118.27 m -6.918 -7.719 l S Q
  Q
Q
Q q
0.426 0.371 m 112.922 0.371 l 112.922 3.207 l 0.426 3.207 l h
0.426 3.207 m 3.262 3.207 l 3.262 59.898 l 0.426 59.898 l h
0.426 59.898 m 112.922 59.898 l 112.922 62.734 l 0.426 62.734 l h
0.426 59.898 m W n
q
0 0 113 63 re W n
  q
0 g
0.510386 w
2 J
0 j
[] 0.0 d
10 M q 1 0 0 -1 0 0 cm
105.031 -116.871 m -5.52 -6.32 l S Q
  Q
Q
Q q
0.426 0.371 m 113.922 0.371 l 113.922 3.207 l 0.426 3.207 l h
0.426 3.207 m 3.262 3.207 l 3.262 59.898 l 0.426 59.898 l h
0.426 59.898 m 113.922 59.898 l 113.922 62.734 l 0.426 62.734 l h
0.426 59.898 m W n
q
0 0 114 63 re W n
  q
0 g
0.510386 w
2 J
0 j
[] 0.0 d
10 M q 1 0 0 -1 0 0 cm
106.434 -115.469 m -4.121 -4.918 l S Q
  Q
Q
Q q
0.426 0.371 m 115.922 0.371 l 115.922 3.207 l 0.426 3.207 l h
0.426 3.207 m 3.262 3.207 l 3.262 59.898 l 0.426 59.898 l h
0.426 59.898 m 115.922 59.898 l 115.922 62.734 l 0.426 62.734 l h
0.426 59.898 m W n
q
0 0 116 63 re W n
  q
0 g
0.510386 w
2 J
0 j
[] 0.0 d
10 M q 1 0 0 -1 0 0 cm
107.832 -114.07 m -2.719 -3.52 l S Q
  Q
Q
Q q
0.426 0.371 m 116.922 0.371 l 116.922 3.207 l 0.426 3.207 l h
0.426 3.207 m 3.262 3.207 l 3.262 59.898 l 0.426 59.898 l h
0.426 59.898 m 116.922 59.898 l 116.922 62.734 l 0.426 62.734 l h
0.426 59.898 m W n
q
0 0 117 63 re W n
  q
0 g
0.510386 w
2 J
0 j
[] 0.0 d
10 M q 1 0 0 -1 0 0 cm
109.23 -112.668 m -1.32 -2.117 l S Q
  Q
Q
Q q
0.426 0.371 m 117.922 0.371 l 117.922 3.207 l 0.426 3.207 l h
0.426 3.207 m 3.262 3.207 l 3.262 59.898 l 0.426 59.898 l h
0.426 59.898 m 117.922 59.898 l 117.922 62.734 l 0.426 62.734 l h
0.426 59.898 m W n
q
0 0 118 63 re W n
  q
0 g
0.510386 w
2 J
0 j
[] 0.0 d
10 M q 1 0 0 -1 0 0 cm
110.633 -111.27 m 0.082 -0.719 l S Q
  Q
Q
Q q
0.426 0.371 m 119.922 0.371 l 119.922 3.207 l 0.426 3.207 l h
0.426 3.207 m 3.262 3.207 l 3.262 59.898 l 0.426 59.898 l h
0.426 59.898 m 119.922 59.898 l 119.922 62.734 l 0.426 62.734 l h
0.426 59.898 m W n
q
0 0 120 63 re W n
  q
0 g
0.510386 w
2 J
0 j
[] 0.0 d
10 M q 1 0 0 -1 0 0 cm
112.031 -109.871 m 1.48 0.68 l S Q
  Q
Q
Q q
0.426 0.371 m 120.922 0.371 l 120.922 3.207 l 0.426 3.207 l h
0.426 3.207 m 3.262 3.207 l 3.262 59.898 l 0.426 59.898 l h
0.426 59.898 m 120.922 59.898 l 120.922 62.734 l 0.426 62.734 l h
0.426 59.898 m W n
q
0 0 121 63 re W n
  q
0 g
0.510386 w
2 J
0 j
[] 0.0 d
10 M q 1 0 0 -1 0 0 cm
113.434 -108.469 m 2.879 2.082 l S Q
  Q
Q
Q q
0.426 0.371 m 122.922 0.371 l 122.922 3.207 l 0.426 3.207 l h
0.426 3.207 m 3.262 3.207 l 3.262 59.898 l 0.426 59.898 l h
0.426 59.898 m 122.922 59.898 l 122.922 62.734 l 0.426 62.734 l h
0.426 59.898 m W n
q
0 0 123 63 re W n
  q
0 g
0.510386 w
2 J
0 j
[] 0.0 d
10 M q 1 0 0 -1 0 0 cm
114.832 -107.07 m 4.281 3.48 l S Q
  Q
Q
Q q
0.426 0.371 m 123.922 0.371 l 123.922 3.207 l 0.426 3.207 l h
0.426 3.207 m 3.262 3.207 l 3.262 59.898 l 0.426 59.898 l h
0.426 59.898 m 123.922 59.898 l 123.922 62.734 l 0.426 62.734 l h
0.426 59.898 m W n
q
0 0 124 63 re W n
  q
0 g
0.510386 w
2 J
0 j
[] 0.0 d
10 M q 1 0 0 -1 0 0 cm
116.23 -105.668 m 5.68 4.883 l S Q
  Q
Q
Q q
0.426 0.371 m 124.922 0.371 l 124.922 3.207 l 0.426 3.207 l h
0.426 3.207 m 3.262 3.207 l 3.262 59.898 l 0.426 59.898 l h
0.426 59.898 m 124.922 59.898 l 124.922 62.734 l 0.426 62.734 l h
0.426 59.898 m W n
q
0 0 125 63 re W n
  q
0 g
0.510386 w
2 J
0 j
[] 0.0 d
10 M q 1 0 0 -1 0 0 cm
117.633 -104.27 m 7.082 6.281 l S Q
  Q
Q
Q q
0.922 0.371 m 126.922 0.371 l 126.922 3.207 l 0.922 3.207 l h
0.922 3.207 m 3.262 3.207 l 3.262 59.898 l 0.922 59.898 l h
0.922 59.898 m 126.922 59.898 l 126.922 62.734 l 0.922 62.734 l h
0.922 59.898 m W n
q
0 0 127 63 re W n
  q
0 g
0.510386 w
2 J
0 j
[] 0.0 d
10 M q 1 0 0 -1 0 0 cm
119.031 -102.871 m 8.48 7.68 l S Q
  Q
Q
Q q
1.922 0.371 m 127.922 0.371 l 127.922 3.207 l 1.922 3.207 l h
1.922 3.207 m 3.262 3.207 l 3.262 59.898 l 1.922 59.898 l h
1.922 59.898 m 127.922 59.898 l 127.922 62.734 l 1.922 62.734 l h
1.922 59.898 m W n
q
1 0 127 63 re W n
  q
0 g
0.510386 w
2 J
0 j
[] 0.0 d
10 M q 1 0 0 -1 0 0 cm
120.434 -101.469 m 9.879 9.082 l S Q
  Q
Q
Q q
3.922 0.371 m 129.922 0.371 l 129.922 3.207 l 3.922 3.207 l h
3.922 59.898 m 129.922 59.898 l 129.922 62.734 l 3.922 62.734 l h
3.922 59.898 m W n
q
3 0 127 63 re W n
  q
0 g
0.510386 w
2 J
0 j
[] 0.0 d
10 M q 1 0 0 -1 0 0 cm
121.832 -100.07 m 11.281 10.48 l S Q
  Q
Q
Q q
4.922 0.371 m 130.922 0.371 l 130.922 3.207 l 4.922 3.207 l h
4.922 59.898 m 130.922 59.898 l 130.922 62.734 l 4.922 62.734 l h
4.922 59.898 m W n
q
4 0 127 63 re W n
  q
0 g
0.510386 w
2 J
0 j
[] 0.0 d
10 M q 1 0 0 -1 0 0 cm
123.23 -98.668 m 12.68 11.883 l S Q
  Q
Q
Q q
5.922 0.371 m 131.922 0.371 l 131.922 3.207 l 5.922 3.207 l h
5.922 59.898 m 131.922 59.898 l 131.922 62.734 l 5.922 62.734 l h
5.922 59.898 m W n
q
5 0 127 63 re W n
  q
0 g
0.510386 w
2 J
0 j
[] 0.0 d
10 M q 1 0 0 -1 0 0 cm
124.633 -97.27 m 14.082 13.281 l S Q
  Q
Q
Q q
7.922 0.371 m 133.922 0.371 l 133.922 3.207 l 7.922 3.207 l h
7.922 59.898 m 133.922 59.898 l 133.922 62.734 l 7.922 62.734 l h
7.922 59.898 m W n
q
7 0 127 63 re W n
  q
0 g
0.510386 w
2 J
0 j
[] 0.0 d
10 M q 1 0 0 -1 0 0 cm
126.031 -95.871 m 15.48 14.68 l S Q
  Q
Q
Q q
8.922 0.371 m 134.922 0.371 l 134.922 3.207 l 8.922 3.207 l h
8.922 59.898 m 134.922 59.898 l 134.922 62.734 l 8.922 62.734 l h
8.922 59.898 m W n
q
8 0 127 63 re W n
  q
0 g
0.510386 w
2 J
0 j
[] 0.0 d
10 M q 1 0 0 -1 0 0 cm
127.434 -94.469 m 16.883 16.082 l S Q
  Q
Q
Q q
10.922 0.371 m 136.922 0.371 l 136.922 3.207 l 10.922 3.207 l h
10.922 59.898 m 136.922 59.898 l 136.922 62.734 l 10.922 62.734 l h
10.922 59.898 m W n
q
10 0 127 63 re W n
  q
0 g
0.510386 w
2 J
0 j
[] 0.0 d
10 M q 1 0 0 -1 0 0 cm
128.832 -93.07 m 18.281 17.48 l S Q
  Q
Q
Q q
11.922 0.371 m 137.922 0.371 l 137.922 3.207 l 11.922 3.207 l h
11.922 59.898 m 137.922 59.898 l 137.922 62.734 l 11.922 62.734 l h
11.922 59.898 m W n
q
11 0 127 63 re W n
  q
0 g
0.510386 w
2 J
0 j
[] 0.0 d
10 M q 1 0 0 -1 0 0 cm
130.23 -91.668 m 19.68 18.883 l S Q
  Q
Q
Q q
12.922 0.371 m 138.922 0.371 l 138.922 3.207 l 12.922 3.207 l h
12.922 59.898 m 138.922 59.898 l 138.922 62.734 l 12.922 62.734 l h
12.922 59.898 m W n
q
12 0 127 63 re W n
  q
0 g
0.510386 w
2 J
0 j
[] 0.0 d
10 M q 1 0 0 -1 0 0 cm
131.633 -90.27 m 21.082 20.281 l S Q
  Q
Q
Q q
14.922 0.371 m 140.922 0.371 l 140.922 3.207 l 14.922 3.207 l h
14.922 59.898 m 140.922 59.898 l 140.922 62.734 l 14.922 62.734 l h
14.922 59.898 m W n
q
14 0 127 63 re W n
  q
0 g
0.510386 w
2 J
0 j
[] 0.0 d
10 M q 1 0 0 -1 0 0 cm
133.031 -88.871 m 22.48 21.68 l S Q
  Q
Q
Q q
15.922 0.371 m 141.922 0.371 l 141.922 3.207 l 15.922 3.207 l h
15.922 59.898 m 141.922 59.898 l 141.922 62.734 l 15.922 62.734 l h
15.922 59.898 m W n
q
15 0 127 63 re W n
  q
0 g
0.510386 w
2 J
0 j
[] 0.0 d
10 M q 1 0 0 -1 0 0 cm
134.434 -87.469 m 23.883 23.082 l S Q
  Q
Q
Q q
17.922 0.371 m 143.922 0.371 l 143.922 3.207 l 17.922 3.207 l h
17.922 59.898 m 143.922 59.898 l 143.922 62.734 l 17.922 62.734 l h
17.922 59.898 m W n
q
17 0 127 63 re W n
  q
0 g
0.510386 w
2 J
0 j
[] 0.0 d
10 M q 1 0 0 -1 0 0 cm
135.832 -86.07 m 25.281 24.48 l S Q
  Q
Q
Q q
18.922 0.371 m 144.922 0.371 l 144.922 3.207 l 18.922 3.207 l h
18.922 59.898 m 144.922 59.898 l 144.922 62.734 l 18.922 62.734 l h
18.922 59.898 m W n
q
18 0 127 63 re W n
  q
0 g
0.510386 w
2 J
0 j
[] 0.0 d
10 M q 1 0 0 -1 0 0 cm
137.23 -84.668 m 26.68 25.883 l S Q
  Q
Q
Q q
19.922 0.371 m 145.922 0.371 l 145.922 3.207 l 19.922 3.207 l h
19.922 59.898 m 145.922 59.898 l 145.922 62.734 l 19.922 62.734 l h
19.922 59.898 m W n
q
19 0 127 63 re W n
  q
0 g
0.510386 w
2 J
0 j
[] 0.0 d
10 M q 1 0 0 -1 0 0 cm
138.633 -83.27 m 28.082 27.281 l S Q
  Q
Q
Q q
21.922 0.371 m 147.922 0.371 l 147.922 3.207 l 21.922 3.207 l h
21.922 59.898 m 147.922 59.898 l 147.922 62.734 l 21.922 62.734 l h
21.922 59.898 m W n
q
21 0 127 63 re W n
  q
0 g
0.510386 w
2 J
0 j
[] 0.0 d
10 M q 1 0 0 -1 0 0 cm
140.031 -81.871 m 29.48 28.68 l S Q
  Q
Q
Q q
22.922 0.371 m 148.922 0.371 l 148.922 3.207 l 22.922 3.207 l h
22.922 59.898 m 148.922 59.898 l 148.922 62.734 l 22.922 62.734 l h
22.922 59.898 m W n
q
22 0 127 63 re W n
  q
0 g
0.510386 w
2 J
0 j
[] 0.0 d
10 M q 1 0 0 -1 0 0 cm
141.434 -80.469 m 30.883 30.082 l S Q
  Q
Q
Q q
24.922 0.371 m 150.922 0.371 l 150.922 3.207 l 24.922 3.207 l h
24.922 59.898 m 150.922 59.898 l 150.922 62.734 l 24.922 62.734 l h
24.922 59.898 m W n
q
24 0 127 63 re W n
  q
0 g
0.510386 w
2 J
0 j
[] 0.0 d
10 M q 1 0 0 -1 0 0 cm
142.832 -79.07 m 32.281 31.48 l S Q
  Q
Q
Q q
25.922 0.371 m 151.922 0.371 l 151.922 3.207 l 25.922 3.207 l h
25.922 59.898 m 151.922 59.898 l 151.922 62.734 l 25.922 62.734 l h
25.922 59.898 m W n
q
25 0 127 63 re W n
  q
0 g
0.510386 w
2 J
0 j
[] 0.0 d
10 M q 1 0 0 -1 0 0 cm
144.23 -77.672 m 33.68 32.883 l S Q
  Q
Q
Q q
26.922 0.371 m 152.922 0.371 l 152.922 3.207 l 26.922 3.207 l h
26.922 59.898 m 152.922 59.898 l 152.922 62.734 l 26.922 62.734 l h
26.922 59.898 m W n
q
26 0 127 63 re W n
  q
0 g
0.510386 w
2 J
0 j
[] 0.0 d
10 M q 1 0 0 -1 0 0 cm
145.633 -76.27 m 35.082 34.281 l S Q
  Q
Q
Q q
28.922 0.371 m 154.922 0.371 l 154.922 3.207 l 28.922 3.207 l h
28.922 59.898 m 154.922 59.898 l 154.922 62.734 l 28.922 62.734 l h
28.922 59.898 m W n
q
28 0 127 63 re W n
  q
0 g
0.510386 w
2 J
0 j
[] 0.0 d
10 M q 1 0 0 -1 0 0 cm
147.031 -74.871 m 36.48 35.68 l S Q
  Q
Q
Q q
29.922 0.371 m 155.922 0.371 l 155.922 3.207 l 29.922 3.207 l h
29.922 59.898 m 155.922 59.898 l 155.922 62.734 l 29.922 62.734 l h
29.922 59.898 m W n
q
29 0 127 63 re W n
  q
0 g
0.510386 w
2 J
0 j
[] 0.0 d
10 M q 1 0 0 -1 0 0 cm
148.434 -73.469 m 37.883 37.082 l S Q
  Q
Q
Q q
31.922 0.371 m 157.922 0.371 l 157.922 3.207 l 31.922 3.207 l h
31.922 59.898 m 157.922 59.898 l 157.922 62.734 l 31.922 62.734 l h
31.922 59.898 m W n
q
31 0 127 63 re W n
  q
0 g
0.510386 w
2 J
0 j
[] 0.0 d
10 M q 1 0 0 -1 0 0 cm
149.832 -72.07 m 39.281 38.48 l S Q
  Q
Q
Q q
32.922 0.371 m 158.922 0.371 l 158.922 3.207 l 32.922 3.207 l h
32.922 59.898 m 158.922 59.898 l 158.922 62.734 l 32.922 62.734 l h
32.922 59.898 m W n
q
32 0 127 63 re W n
  q
0 g
0.510386 w
2 J
0 j
[] 0.0 d
10 M q 1 0 0 -1 0 0 cm
151.23 -70.668 m 40.68 39.883 l S Q
  Q
Q
Q q
33.922 0.371 m 159.168 0.371 l 159.168 3.207 l 33.922 3.207 l h
33.922 59.898 m 159.168 59.898 l 159.168 62.734 l 33.922 62.734 l h
33.922 59.898 m W n
q
33 0 127 63 re W n
  q
0 g
0.510386 w
2 J
0 j
[] 0.0 d
10 M q 1 0 0 -1 0 0 cm
152.633 -69.27 m 42.082 41.281 l S Q
  Q
Q
Q q
35.922 0.371 m 159.168 0.371 l 159.168 3.207 l 35.922 3.207 l h
35.922 59.898 m 159.168 59.898 l 159.168 62.734 l 35.922 62.734 l h
35.922 59.898 m W n
q
35 0 125 63 re W n
  q
0 g
0.510386 w
2 J
0 j
[] 0.0 d
10 M q 1 0 0 -1 0 0 cm
154.031 -67.871 m 43.48 42.68 l S Q
  Q
Q
Q q
36.922 0.371 m 159.168 0.371 l 159.168 3.207 l 36.922 3.207 l h
36.922 59.898 m 159.168 59.898 l 159.168 62.734 l 36.922 62.734 l h
36.922 59.898 m W n
q
36 0 124 63 re W n
  q
0 g
0.510386 w
2 J
0 j
[] 0.0 d
10 M q 1 0 0 -1 0 0 cm
155.434 -66.469 m 44.883 44.082 l S Q
  Q
Q
Q q
38.922 0.371 m 159.168 0.371 l 159.168 3.207 l 38.922 3.207 l h
38.922 59.898 m 159.168 59.898 l 159.168 62.734 l 38.922 62.734 l h
38.922 59.898 m W n
q
38 0 122 63 re W n
  q
0 g
0.510386 w
2 J
0 j
[] 0.0 d
10 M q 1 0 0 -1 0 0 cm
156.832 -65.07 m 46.281 45.48 l S Q
  Q
Q
Q q
39.922 0.371 m 159.168 0.371 l 159.168 3.207 l 39.922 3.207 l h
39.922 59.898 m 159.168 59.898 l 159.168 62.734 l 39.922 62.734 l h
39.922 59.898 m W n
q
39 0 121 63 re W n
  q
0 g
0.510386 w
2 J
0 j
[] 0.0 d
10 M q 1 0 0 -1 0 0 cm
158.23 -63.668 m 47.68 46.883 l S Q
  Q
Q
Q q
40.922 0.371 m 159.168 0.371 l 159.168 3.207 l 40.922 3.207 l h
40.922 59.898 m 159.168 59.898 l 159.168 62.734 l 40.922 62.734 l h
40.922 59.898 m W n
q
40 0 120 63 re W n
  q
0 g
0.510386 w
2 J
0 j
[] 0.0 d
10 M q 1 0 0 -1 0 0 cm
159.633 -62.27 m 49.082 48.281 l S Q
  Q
Q
Q q
42.922 0.371 m 159.168 0.371 l 159.168 3.207 l 42.922 3.207 l h
42.922 59.898 m 159.168 59.898 l 159.168 62.734 l 42.922 62.734 l h
42.922 59.898 m W n
q
42 0 118 63 re W n
  q
0 g
0.510386 w
2 J
0 j
[] 0.0 d
10 M q 1 0 0 -1 0 0 cm
161.031 -60.871 m 50.48 49.68 l S Q
  Q
Q
Q q
43.922 0.371 m 159.168 0.371 l 159.168 3.207 l 43.922 3.207 l h
43.922 59.898 m 159.168 59.898 l 159.168 62.734 l 43.922 62.734 l h
43.922 59.898 m W n
q
43 0 117 63 re W n
  q
0 g
0.510386 w
2 J
0 j
[] 0.0 d
10 M q 1 0 0 -1 0 0 cm
162.434 -59.469 m 51.883 51.082 l S Q
  Q
Q
Q q
45.922 0.371 m 159.168 0.371 l 159.168 3.207 l 45.922 3.207 l h
45.922 59.898 m 159.168 59.898 l 159.168 62.734 l 45.922 62.734 l h
45.922 59.898 m W n
q
45 0 115 63 re W n
  q
0 g
0.510386 w
2 J
0 j
[] 0.0 d
10 M q 1 0 0 -1 0 0 cm
163.832 -58.07 m 53.281 52.48 l S Q
  Q
Q
Q q
46.922 0.371 m 159.168 0.371 l 159.168 3.207 l 46.922 3.207 l h
46.922 59.898 m 159.168 59.898 l 159.168 62.734 l 46.922 62.734 l h
46.922 59.898 m W n
q
46 0 114 63 re W n
  q
0 g
0.510386 w
2 J
0 j
[] 0.0 d
10 M q 1 0 0 -1 0 0 cm
165.23 -56.668 m 54.68 53.883 l S Q
  Q
Q
Q q
47.922 0.371 m 159.168 0.371 l 159.168 3.207 l 47.922 3.207 l h
47.922 59.898 m 159.168 59.898 l 159.168 62.734 l 47.922 62.734 l h
47.922 59.898 m W n
q
47 0 113 63 re W n
  q
0 g
0.510386 w
2 J
0 j
[] 0.0 d
10 M q 1 0 0 -1 0 0 cm
166.633 -55.27 m 56.082 55.281 l S Q
  Q
Q
Q q
49.922 0.371 m 159.168 0.371 l 159.168 3.207 l 49.922 3.207 l h
49.922 59.898 m 159.168 59.898 l 159.168 62 l 49.922 62 l h
49.922 59.898 m W n
q
49 0 111 62 re W n
  q
0 g
0.510386 w
2 J
0 j
[] 0.0 d
10 M q 1 0 0 -1 0 0 cm
168.031 -53.871 m 57.48 56.68 l S Q
  Q
Q
Q q
50.922 0.371 m 159.168 0.371 l 159.168 3.207 l 50.922 3.207 l h
50.922 59.898 m 159.168 59.898 l 159.168 60 l 50.922 60 l h
50.922 59.898 m W n
q
50 0 110 60 re W n
  q
0 g
0.510386 w
2 J
0 j
[] 0.0 d
10 M q 1 0 0 -1 0 0 cm
169.434 -52.469 m 58.883 58.082 l S Q
  Q
Q
Q q
52.922 0.371 106.246 2.836 re W n
q
52 0 108 4 re W n
  q
0 g
0.510386 w
2 J
0 j
[] 0.0 d
10 M q 1 0 0 -1 0 0 cm
170.832 -51.07 m 60.281 59.48 l S Q
  Q
Q
Q q
53.922 0.371 105.246 2.836 re W n
q
53 0 107 4 re W n
  q
0 g
0.510386 w
2 J
0 j
[] 0.0 d
10 M q 1 0 0 -1 0 0 cm
172.23 -49.668 m 61.68 60.883 l S Q
  Q
Q
Q q
54.922 0.371 104.246 2.836 re W n
q
54 0 106 4 re W n
  q
0 g
0.510386 w
2 J
0 j
[] 0.0 d
10 M q 1 0 0 -1 0 0 cm
173.633 -48.27 m 63.082 62.281 l S Q
  Q
Q
Q q
56.922 0.371 102.246 2.836 re W n
q
56 0 104 4 re W n
  q
0 g
0.510386 w
2 J
0 j
[] 0.0 d
10 M q 1 0 0 -1 0 0 cm
175.031 -46.871 m 64.48 63.68 l S Q
  Q
Q
Q q
57.922 0.371 101.246 2.836 re W n
q
57 0 103 4 re W n
  q
0 g
0.510386 w
2 J
0 j
[] 0.0 d
10 M q 1 0 0 -1 0 0 cm
176.434 -45.469 m 65.883 65.082 l S Q
  Q
Q
Q q
59.922 0.371 99.246 2.836 re W n
q
59 0 101 4 re W n
  q
0 g
0.510386 w
2 J
0 j
[] 0.0 d
10 M q 1 0 0 -1 0 0 cm
177.832 -44.07 m 67.281 66.48 l S Q
  Q
Q
Q q
60.922 0.371 98.246 2.836 re W n
q
60 0 100 4 re W n
  q
0 g
0.510386 w
2 J
0 j
[] 0.0 d
10 M q 1 0 0 -1 0 0 cm
179.23 -42.668 m 68.68 67.883 l S Q
  Q
Q
Q q
61.922 0.371 97.246 2.836 re W n
q
61 0 99 4 re W n
  q
0 g
0.510386 w
2 J
0 j
[] 0.0 d
10 M q 1 0 0 -1 0 0 cm
180.633 -41.27 m 70.082 69.281 l S Q
  Q
Q
Q q
63.922 0.371 95.246 2.836 re W n
q
63 0 97 4 re W n
  q
0 g
0.510386 w
2 J
0 j
[] 0.0 d
10 M q 1 0 0 -1 0 0 cm
182.031 -39.871 m 71.48 70.68 l S Q
  Q
Q
Q q
64.922 0.371 94.246 2.836 re W n
q
64 0 96 4 re W n
  q
0 g
0.510386 w
2 J
0 j
[] 0.0 d
10 M q 1 0 0 -1 0 0 cm
183.434 -38.469 m 72.883 72.082 l S Q
  Q
Q
Q q
66.922 0.371 92.246 2.836 re W n
q
66 0 94 4 re W n
  q
0 g
0.510386 w
2 J
0 j
[] 0.0 d
10 M q 1 0 0 -1 0 0 cm
184.832 -37.07 m 74.281 73.48 l S Q
  Q
Q
Q q
67.922 0.371 91.246 2.836 re W n
q
67 0 93 4 re W n
  q
0 g
0.510386 w
2 J
0 j
[] 0.0 d
10 M q 1 0 0 -1 0 0 cm
186.23 -35.668 m 75.68 74.883 l S Q
  Q
Q
Q q
68.922 0.371 90.246 2.836 re W n
q
68 0 92 4 re W n
  q
0 g
0.510386 w
2 J
0 j
[] 0.0 d
10 M q 1 0 0 -1 0 0 cm
187.633 -34.27 m 77.082 76.281 l S Q
  Q
Q
Q q
70.922 0.371 88.246 2.836 re W n
q
70 0 90 4 re W n
  q
0 g
0.510386 w
2 J
0 j
[] 0.0 d
10 M q 1 0 0 -1 0 0 cm
189.031 -32.871 m 78.48 77.68 l S Q
  Q
Q
Q q
71.922 0.371 87.246 2.836 re W n
q
71 0 89 4 re W n
  q
0 g
0.510386 w
2 J
0 j
[] 0.0 d
10 M q 1 0 0 -1 0 0 cm
190.434 -31.469 m 79.883 79.082 l S Q
  Q
Q
Q q
0 0 159.523 64 re W n
q
0 0 160 64 re W n
  q
0 g
0.850361 w
0 J
0 j
[] 0.0 d
10 M q 1 0 0 -1 0 0 cm
81.215 -59.898 m 3.262 -59.898 l 3.262 -3.207 l 159.168 -3.207 l 159.168
 -0.371 l 0.426 -0.371 l 0.426 -62.734 l 159.168 -62.734 l 159.168 -59.898
 l h
81.215 -59.898 m S Q
  Q
Q
Q q
117.074 23 m 127.562 23 l 127.562 31.555 l 117.074 31.555 l h
117.074 31.555 m 127.562 31.555 l 127.562 59.477 l 117.074 59.477 l h
117.074 31.555 m W n
q
117 23 11 37 re W n
  q
0 g
0.510386 w
2 J
0 j
[] 0.0 d
10 M q 1 0 0 -1 0 0 cm
154.438 -30.508 m 121.273 -63.676 l S Q
  Q
Q
Q q
117.074 21 m 127.562 21 l 127.562 31.555 l 117.074 31.555 l h
117.074 31.555 m 127.562 31.555 l 127.562 59.477 l 117.074 59.477 l h
117.074 31.555 m W n
q
117 21 11 39 re W n
  q
0 g
0.510386 w
2 J
0 j
[] 0.0 d
10 M q 1 0 0 -1 0 0 cm
153.039 -29.109 m 119.871 -62.273 l S Q
  Q
Q
Q q
117.074 20 m 127.562 20 l 127.562 31.555 l 117.074 31.555 l h
117.074 31.555 m 127.562 31.555 l 127.562 59.477 l 117.074 59.477 l h
117.074 31.555 m W n
q
117 20 11 40 re W n
  q
0 g
0.510386 w
2 J
0 j
[] 0.0 d
10 M q 1 0 0 -1 0 0 cm
151.637 -27.711 m 118.473 -60.875 l S Q
  Q
Q
Q q
117.074 19 m 127.562 19 l 127.562 31.555 l 117.074 31.555 l h
117.074 31.555 m 127.562 31.555 l 127.562 59.477 l 117.074 59.477 l h
117.074 31.555 m W n
q
117 19 11 41 re W n
  q
0 g
0.510386 w
2 J
0 j
[] 0.0 d
10 M q 1 0 0 -1 0 0 cm
150.238 -26.309 m 117.074 -59.477 l S Q
  Q
Q
Q q
117.074 17 m 127.562 17 l 127.562 31.555 l 117.074 31.555 l h
117.074 31.555 m 127.562 31.555 l 127.562 59.477 l 117.074 59.477 l h
117.074 31.555 m W n
q
117 17 11 43 re W n
  q
0 g
0.510386 w
2 J
0 j
[] 0.0 d
10 M q 1 0 0 -1 0 0 cm
148.836 -24.91 m 115.672 -58.074 l S Q
  Q
Q
Q q
117.074 16 m 127.562 16 l 127.562 31.555 l 117.074 31.555 l h
117.074 31.555 m 127.562 31.555 l 127.562 59.477 l 117.074 59.477 l h
117.074 31.555 m W n
q
117 16 11 44 re W n
  q
0 g
0.510386 w
2 J
0 j
[] 0.0 d
10 M q 1 0 0 -1 0 0 cm
147.438 -23.508 m 114.273 -56.676 l S Q
  Q
Q
Q q
117.074 14 m 127.562 14 l 127.562 31.555 l 117.074 31.555 l h
117.074 31.555 m 127.562 31.555 l 127.562 59.477 l 117.074 59.477 l h
117.074 31.555 m W n
q
117 14 11 46 re W n
  q
0 g
0.510386 w
2 J
0 j
[] 0.0 d
10 M q 1 0 0 -1 0 0 cm
146.039 -22.109 m 112.871 -55.273 l S Q
  Q
Q
Q q
117.074 13 m 127.562 13 l 127.562 31.555 l 117.074 31.555 l h
117.074 31.555 m 127.562 31.555 l 127.562 59.477 l 117.074 59.477 l h
117.074 31.555 m W n
q
117 13 11 47 re W n
  q
0 g
0.510386 w
2 J
0 j
[] 0.0 d
10 M q 1 0 0 -1 0 0 cm
144.637 -20.711 m 111.473 -53.875 l S Q
  Q
Q
Q q
117.074 12 m 127.562 12 l 127.562 31.555 l 117.074 31.555 l h
117.074 31.555 m 127.562 31.555 l 127.562 59.477 l 117.074 59.477 l h
117.074 31.555 m W n
q
117 12 11 48 re W n
  q
0 g
0.510386 w
2 J
0 j
[] 0.0 d
10 M q 1 0 0 -1 0 0 cm
143.238 -19.309 m 110.074 -52.477 l S Q
  Q
Q
Q q
117.074 10 m 127.562 10 l 127.562 31.555 l 117.074 31.555 l h
117.074 31.555 m 127.562 31.555 l 127.562 59 l 117.074 59 l h
117.074 31.555 m W n
q
117 10 11 49 re W n
  q
0 g
0.510386 w
2 J
0 j
[] 0.0 d
10 M q 1 0 0 -1 0 0 cm
141.836 -17.91 m 108.672 -51.074 l S Q
  Q
Q
Q q
117.074 9 m 127.562 9 l 127.562 31.555 l 117.074 31.555 l h
117.074 31.555 m 127.562 31.555 l 127.562 57 l 117.074 57 l h
117.074 31.555 m W n
q
117 9 11 48 re W n
  q
0 g
0.510386 w
2 J
0 j
[] 0.0 d
10 M q 1 0 0 -1 0 0 cm
140.438 -16.508 m 107.273 -49.676 l S Q
  Q
Q
Q q
117.074 7 m 127.562 7 l 127.562 31.555 l 117.074 31.555 l h
117.074 31.555 m 127.562 31.555 l 127.562 56 l 117.074 56 l h
117.074 31.555 m W n
q
117 7 11 49 re W n
  q
0 g
0.510386 w
2 J
0 j
[] 0.0 d
10 M q 1 0 0 -1 0 0 cm
139.039 -15.109 m 105.871 -48.273 l S Q
  Q
Q
Q q
117.074 6 m 127.562 6 l 127.562 31.555 l 117.074 31.555 l h
117.074 31.555 m 127.562 31.555 l 127.562 55 l 117.074 55 l h
117.074 31.555 m W n
q
117 6 11 49 re W n
  q
0 g
0.510386 w
2 J
0 j
[] 0.0 d
10 M q 1 0 0 -1 0 0 cm
137.637 -13.711 m 104.473 -46.875 l S Q
  Q
Q
Q q
117.074 5 m 127.562 5 l 127.562 31.555 l 117.074 31.555 l h
117.074 31.555 m 127.562 31.555 l 127.562 53 l 117.074 53 l h
117.074 31.555 m W n
q
117 5 11 48 re W n
  q
0 g
0.510386 w
2 J
0 j
[] 0.0 d
10 M q 1 0 0 -1 0 0 cm
136.238 -12.309 m 103.074 -45.477 l S Q
  Q
Q
Q q
117.074 3.633 m 127.562 3.633 l 127.562 31.555 l 117.074 31.555 l h
117.074 31.555 m 127.562 31.555 l 127.562 52 l 117.074 52 l h
117.074 31.555 m W n
q
117 3 11 49 re W n
  q
0 g
0.510386 w
2 J
0 j
[] 0.0 d
10 M q 1 0 0 -1 0 0 cm
134.836 -10.91 m 101.672 -44.074 l S Q
  Q
Q
Q q
117.074 3.633 m 127.562 3.633 l 127.562 31.555 l 117.074 31.555 l h
117.074 31.555 m 127.562 31.555 l 127.562 50 l 117.074 50 l h
117.074 31.555 m W n
q
117 3 11 47 re W n
  q
0 g
0.510386 w
2 J
0 j
[] 0.0 d
10 M q 1 0 0 -1 0 0 cm
133.438 -9.508 m 100.273 -42.676 l S Q
  Q
Q
Q q
117.074 3.633 m 127.562 3.633 l 127.562 31.555 l 117.074 31.555 l h
117.074 31.555 m 127.562 31.555 l 127.562 49 l 117.074 49 l h
117.074 31.555 m W n
q
117 3 11 46 re W n
  q
0 g
0.510386 w
2 J
0 j
[] 0.0 d
10 M q 1 0 0 -1 0 0 cm
132.039 -8.109 m 98.875 -41.273 l S Q
  Q
Q
Q q
117.074 3.633 m 127.562 3.633 l 127.562 31.555 l 117.074 31.555 l h
117.074 31.555 m 127.562 31.555 l 127.562 48 l 117.074 48 l h
117.074 31.555 m W n
q
117 3 11 45 re W n
  q
0 g
0.510386 w
2 J
0 j
[] 0.0 d
10 M q 1 0 0 -1 0 0 cm
130.637 -6.711 m 97.473 -39.875 l S Q
  Q
Q
Q q
117.074 3.633 m 127.562 3.633 l 127.562 31.555 l 117.074 31.555 l h
117.074 31.555 m 127.562 31.555 l 127.562 46 l 117.074 46 l h
117.074 31.555 m W n
q
117 3 11 43 re W n
  q
0 g
0.510386 w
2 J
0 j
[] 0.0 d
10 M q 1 0 0 -1 0 0 cm
129.238 -5.309 m 96.074 -38.477 l S Q
  Q
Q
Q q
117.074 3.633 m 127.562 3.633 l 127.562 31.555 l 117.074 31.555 l h
117.074 31.555 m 127.562 31.555 l 127.562 45 l 117.074 45 l h
117.074 31.555 m W n
q
117 3 11 42 re W n
  q
0 g
0.510386 w
2 J
0 j
[] 0.0 d
10 M q 1 0 0 -1 0 0 cm
127.836 -3.91 m 94.672 -37.074 l S Q
  Q
Q
Q q
117.074 3.633 m 127.562 3.633 l 127.562 31.555 l 117.074 31.555 l h
117.074 31.555 m 127.562 31.555 l 127.562 43 l 117.074 43 l h
117.074 31.555 m W n
q
117 3 11 40 re W n
  q
0 g
0.510386 w
2 J
0 j
[] 0.0 d
10 M q 1 0 0 -1 0 0 cm
126.438 -2.508 m 93.273 -35.676 l S Q
  Q
Q
Q q
117.074 3.633 m 127.562 3.633 l 127.562 31.555 l 117.074 31.555 l h
117.074 31.555 m 127.562 31.555 l 127.562 42 l 117.074 42 l h
117.074 31.555 m W n
q
117 3 11 39 re W n
  q
0 g
0.510386 w
2 J
0 j
[] 0.0 d
10 M q 1 0 0 -1 0 0 cm
125.039 -1.109 m 91.875 -34.273 l S Q
  Q
Q
Q q
117.074 3.633 m 127.562 3.633 l 127.562 31.555 l 117.074 31.555 l h
117.074 31.555 m 127.562 31.555 l 127.562 41 l 117.074 41 l h
117.074 31.555 m W n
q
117 3 11 38 re W n
  q
0 g
0.510386 w
2 J
0 j
[] 0.0 d
10 M q 1 0 0 -1 0 0 cm
123.637 0.289 m 90.473 -32.875 l S Q
  Q
Q
Q q
117.074 3.633 m 127.562 3.633 l 127.562 31.555 l 117.074 31.555 l h
117.074 31.555 m 127.562 31.555 l 127.562 39 l 117.074 39 l h
117.074 31.555 m W n
q
117 3 11 36 re W n
  q
0 g
0.510386 w
2 J
0 j
[] 0.0 d
10 M q 1 0 0 -1 0 0 cm
122.238 1.691 m 89.074 -31.477 l S Q
  Q
Q
Q q
0 g
0.850361 w
0 J
0 j
[] 0.0 d
10 M q 1 0 0 -1 0 0 cm
117.074 -31.555 m 117.074 -59.477 l 127.562 -59.477 l 127.562 -3.633 l 
117.074 -3.633 l h
117.074 -31.555 m S Q
1 g
45.781 31.555 m 45.781 33.539 l 116.648 33.539 l 116.648 29.57 l 45.781
 29.57 l f
Q q
72.922 29.145 m 117.074 29.145 l 117.074 31.555 l 72.922 31.555 l h
72.922 31.555 m 117.074 31.555 l 117.074 33.965 l 72.922 33.965 l h
72.922 31.555 m W n
q
72 29 46 5 re W n
  q
0 g
0.510386 w
2 J
0 j
[] 0.0 d
10 M q 1 0 0 -1 0 0 cm
118.746 -30.816 m 80.477 -69.082 l S Q
  Q
Q
Q q
69.922 29.145 m 117.074 29.145 l 117.074 31.555 l 69.922 31.555 l h
69.922 31.555 m 117.074 31.555 l 117.074 33.965 l 69.922 33.965 l h
69.922 31.555 m W n
q
69 29 49 5 re W n
  q
0 g
0.510386 w
2 J
0 j
[] 0.0 d
10 M q 1 0 0 -1 0 0 cm
116.344 -28.414 m 78.078 -66.684 l S Q
  Q
Q
Q q
67.922 29.145 m 117.074 29.145 l 117.074 31.555 l 67.922 31.555 l h
67.922 31.555 m 117.074 31.555 l 117.074 33.965 l 67.922 33.965 l h
67.922 31.555 m W n
q
67 29 51 5 re W n
  q
0 g
0.510386 w
2 J
0 j
[] 0.0 d
10 M q 1 0 0 -1 0 0 cm
113.945 -26.016 m 75.676 -64.285 l S Q
  Q
Q
Q q
65.922 29.145 m 117.074 29.145 l 117.074 31.555 l 65.922 31.555 l h
65.922 31.555 m 117.074 31.555 l 117.074 33.965 l 65.922 33.965 l h
65.922 31.555 m W n
q
65 29 53 5 re W n
  q
0 g
0.510386 w
2 J
0 j
[] 0.0 d
10 M q 1 0 0 -1 0 0 cm
111.543 -23.617 m 73.277 -61.883 l S Q
  Q
Q
Q q
62.922 29.145 m 116.922 29.145 l 116.922 31.555 l 62.922 31.555 l h
62.922 31.555 m 116.922 31.555 l 116.922 33.965 l 62.922 33.965 l h
62.922 31.555 m W n
q
62 29 55 5 re W n
  q
0 g
0.510386 w
2 J
0 j
[] 0.0 d
10 M q 1 0 0 -1 0 0 cm
109.145 -21.215 m 70.879 -59.484 l S Q
  Q
Q
Q q
60.922 29.145 m 114.922 29.145 l 114.922 31.555 l 60.922 31.555 l h
60.922 31.555 m 114.922 31.555 l 114.922 33.965 l 60.922 33.965 l h
60.922 31.555 m W n
q
60 29 55 5 re W n
  q
0 g
0.510386 w
2 J
0 j
[] 0.0 d
10 M q 1 0 0 -1 0 0 cm
106.746 -18.816 m 68.477 -57.086 l S Q
  Q
Q
Q q
57.922 29.145 m 111.922 29.145 l 111.922 31.555 l 57.922 31.555 l h
57.922 31.555 m 111.922 31.555 l 111.922 33.965 l 57.922 33.965 l h
57.922 31.555 m W n
q
57 29 55 5 re W n
  q
0 g
0.510386 w
2 J
0 j
[] 0.0 d
10 M q 1 0 0 -1 0 0 cm
104.344 -16.414 m 66.078 -54.684 l S Q
  Q
Q
Q q
55.922 29.145 m 109.922 29.145 l 109.922 31.555 l 55.922 31.555 l h
55.922 31.555 m 109.922 31.555 l 109.922 33.965 l 55.922 33.965 l h
55.922 31.555 m W n
q
55 29 55 5 re W n
  q
0 g
0.510386 w
2 J
0 j
[] 0.0 d
10 M q 1 0 0 -1 0 0 cm
101.945 -14.016 m 63.676 -52.285 l S Q
  Q
Q
Q q
53.922 29.145 m 106.922 29.145 l 106.922 31.555 l 53.922 31.555 l h
53.922 31.555 m 106.922 31.555 l 106.922 33.965 l 53.922 33.965 l h
53.922 31.555 m W n
q
53 29 54 5 re W n
  q
0 g
0.510386 w
2 J
0 j
[] 0.0 d
10 M q 1 0 0 -1 0 0 cm
99.543 -11.617 m 61.277 -49.883 l S Q
  Q
Q
Q q
50.922 29.145 m 104.922 29.145 l 104.922 31.555 l 50.922 31.555 l h
50.922 31.555 m 104.922 31.555 l 104.922 33.965 l 50.922 33.965 l h
50.922 31.555 m W n
q
50 29 55 5 re W n
  q
0 g
0.510386 w
2 J
0 j
[] 0.0 d
10 M q 1 0 0 -1 0 0 cm
97.145 -9.215 m 58.879 -47.484 l S Q
  Q
Q
Q q
48.922 29.145 m 102.922 29.145 l 102.922 31.555 l 48.922 31.555 l h
48.922 31.555 m 102.922 31.555 l 102.922 33.965 l 48.922 33.965 l h
48.922 31.555 m W n
q
48 29 55 5 re W n
  q
0 g
0.510386 w
2 J
0 j
[] 0.0 d
10 M q 1 0 0 -1 0 0 cm
94.746 -6.816 m 56.477 -45.086 l S Q
  Q
Q
Q q
45.922 29.145 m 99.922 29.145 l 99.922 31.555 l 45.922 31.555 l h
45.922 31.555 m 99.922 31.555 l 99.922 33.965 l 45.922 33.965 l h
45.922 31.555 m W n
q
45 29 55 5 re W n
  q
0 g
0.510386 w
2 J
0 j
[] 0.0 d
10 M q 1 0 0 -1 0 0 cm
92.344 -4.414 m 54.078 -42.684 l S Q
  Q
Q
Q q
45.355 29.145 m 97.922 29.145 l 97.922 31.555 l 45.355 31.555 l h
45.355 31.555 m 97.922 31.555 l 97.922 33.965 l 45.355 33.965 l h
45.355 31.555 m W n
q
45 29 53 5 re W n
  q
0 g
0.510386 w
2 J
0 j
[] 0.0 d
10 M q 1 0 0 -1 0 0 cm
89.945 -2.016 m 51.676 -40.285 l S Q
  Q
Q
Q q
45.355 29.145 m 94.922 29.145 l 94.922 31.555 l 45.355 31.555 l h
45.355 31.555 m 94.922 31.555 l 94.922 33.965 l 45.355 33.965 l h
45.355 31.555 m W n
q
45 29 50 5 re W n
  q
0 g
0.510386 w
2 J
0 j
[] 0.0 d
10 M q 1 0 0 -1 0 0 cm
87.543 0.383 m 49.277 -37.883 l S Q
  Q
Q
Q q
45.355 29.145 m 92.922 29.145 l 92.922 31.555 l 45.355 31.555 l h
45.355 31.555 m 92.922 31.555 l 92.922 33.965 l 45.355 33.965 l h
45.355 31.555 m W n
q
45 29 48 5 re W n
  q
0 g
0.510386 w
2 J
0 j
[] 0.0 d
10 M q 1 0 0 -1 0 0 cm
85.145 2.785 m 46.879 -35.484 l S Q
  Q
Q
Q q
45.355 29.145 m 90.922 29.145 l 90.922 31.555 l 45.355 31.555 l h
45.355 31.555 m 90.922 31.555 l 90.922 33.965 l 45.355 33.965 l h
45.355 31.555 m W n
q
45 29 46 5 re W n
  q
0 g
0.510386 w
2 J
0 j
[] 0.0 d
10 M q 1 0 0 -1 0 0 cm
82.746 5.184 m 44.477 -33.086 l S Q
  Q
Q
Q q
45.355 29.145 m 87.922 29.145 l 87.922 31.555 l 45.355 31.555 l h
45.355 31.555 m 87.922 31.555 l 87.922 33.965 l 45.355 33.965 l h
45.355 31.555 m W n
q
45 29 43 5 re W n
  q
0 g
0.510386 w
2 J
0 j
[] 0.0 d
10 M q 1 0 0 -1 0 0 cm
80.344 7.586 m 42.078 -30.684 l S Q
  Q
Q
Q q
0 g
0.850361 w
0 J
0 j
[] 0.0 d
10 M q 1 0 0 -1 0 0 cm
45.355 -31.555 m 45.355 -33.965 l 117.074 -33.965 l 117.074 -29.145 l 45.355
 -29.145 l h
45.355 -31.555 m S Q
1 g
3.262 25.883 m 3.262 28.719 l 8.93 28.719 l 8.93 23.051 l 3.262 23.051 
l f
14.602 25.883 m 14.602 28.719 l 79.797 28.719 l 79.797 23.051 l 14.602 
23.051 l f
3.262 37.223 m 3.262 40.059 l 79.797 40.059 l 79.797 34.387 l 3.262 34.387
 l f
Q q
3.688 23.477 m 8.504 23.477 l 8.504 25.883 l 3.688 25.883 l h
3.688 25.883 m 8.504 25.883 l 8.504 28.293 l 3.688 28.293 l h
3.688 25.883 m W n
q
3 23 6 6 re W n
  q
0 g
0.510386 w
2 J
0 j
[] 0.0 d
10 M q 1 0 0 -1 0 0 cm
4.48 -32.32 m -0.34 -27.5 l S Q
q 1 0 0 -1 0 0 cm
6.879 -29.918 m 2.062 -25.102 l S Q
q 1 0 0 -1 0 0 cm
9.281 -27.52 m 4.461 -22.699 l S Q
q 1 0 0 -1 0 0 cm
11.68 -25.117 m 6.863 -20.301 l S Q
  Q
Q
Q q
0 g
0.850361 w
0 J
0 j
[] 0.0 d
10 M q 1 0 0 -1 0 0 cm
3.688 -25.883 m 3.688 -28.293 l 8.504 -28.293 l 8.504 -23.477 l 3.688 -23.477
 l h
3.688 -25.883 m S Q
Q q
15.027 23.477 m 54.922 23.477 l 54.922 25.883 l 15.027 25.883 l h
15.027 25.883 m 54.922 25.883 l 54.922 28.293 l 15.027 28.293 l h
15.027 25.883 m W n
q
15 23 40 6 re W n
  q
0 g
0.510386 w
2 J
0 j
[] 0.0 d
10 M q 1 0 0 -1 0 0 cm
47.113 -60.551 m 12.531 -25.969 l S Q
  Q
Q
Q q
15.027 23.477 m 56.922 23.477 l 56.922 25.883 l 15.027 25.883 l h
15.027 25.883 m 56.922 25.883 l 56.922 28.293 l 15.027 28.293 l h
15.027 25.883 m W n
q
15 23 42 6 re W n
  q
0 g
0.510386 w
2 J
0 j
[] 0.0 d
10 M q 1 0 0 -1 0 0 cm
49.516 -58.152 m 14.93 -23.57 l S Q
  Q
Q
Q q
15.027 23.477 m 59.922 23.477 l 59.922 25.883 l 15.027 25.883 l h
15.027 25.883 m 59.922 25.883 l 59.922 28.293 l 15.027 28.293 l h
15.027 25.883 m W n
q
15 23 45 6 re W n
  q
0 g
0.510386 w
2 J
0 j
[] 0.0 d
10 M q 1 0 0 -1 0 0 cm
51.914 -55.754 m 17.332 -21.168 l S Q
  Q
Q
Q q
15.027 23.477 m 61.922 23.477 l 61.922 25.883 l 15.027 25.883 l h
15.027 25.883 m 61.922 25.883 l 61.922 28.293 l 15.027 28.293 l h
15.027 25.883 m W n
q
15 23 47 6 re W n
  q
0 g
0.510386 w
2 J
0 j
[] 0.0 d
10 M q 1 0 0 -1 0 0 cm
54.312 -53.352 m 19.73 -18.77 l S Q
  Q
Q
Q q
15.027 23.477 m 64.922 23.477 l 64.922 25.883 l 15.027 25.883 l h
15.027 25.883 m 64.922 25.883 l 64.922 28.293 l 15.027 28.293 l h
15.027 25.883 m W n
q
15 23 50 6 re W n
  q
0 g
0.510386 w
2 J
0 j
[] 0.0 d
10 M q 1 0 0 -1 0 0 cm
56.715 -50.953 m 22.133 -16.367 l S Q
  Q
Q
Q q
16.922 23.477 m 66.922 23.477 l 66.922 25.883 l 16.922 25.883 l h
16.922 25.883 m 66.922 25.883 l 66.922 28.293 l 16.922 28.293 l h
16.922 25.883 m W n
q
16 23 51 6 re W n
  q
0 g
0.510386 w
2 J
0 j
[] 0.0 d
10 M q 1 0 0 -1 0 0 cm
59.113 -48.551 m 24.531 -13.969 l S Q
  Q
Q
Q q
18.922 23.477 m 68.922 23.477 l 68.922 25.883 l 18.922 25.883 l h
18.922 25.883 m 68.922 25.883 l 68.922 28.293 l 18.922 28.293 l h
18.922 25.883 m W n
q
18 23 51 6 re W n
  q
0 g
0.510386 w
2 J
0 j
[] 0.0 d
10 M q 1 0 0 -1 0 0 cm
61.516 -46.152 m 26.93 -11.57 l S Q
  Q
Q
Q q
21.922 23.477 m 71.922 23.477 l 71.922 25.883 l 21.922 25.883 l h
21.922 25.883 m 71.922 25.883 l 71.922 28.293 l 21.922 28.293 l h
21.922 25.883 m W n
q
21 23 51 6 re W n
  q
0 g
0.510386 w
2 J
0 j
[] 0.0 d
10 M q 1 0 0 -1 0 0 cm
63.914 -43.754 m 29.332 -9.168 l S Q
  Q
Q
Q q
23.922 23.477 m 73.922 23.477 l 73.922 25.883 l 23.922 25.883 l h
23.922 25.883 m 73.922 25.883 l 73.922 28.293 l 23.922 28.293 l h
23.922 25.883 m W n
q
23 23 51 6 re W n
  q
0 g
0.510386 w
2 J
0 j
[] 0.0 d
10 M q 1 0 0 -1 0 0 cm
66.312 -41.352 m 31.73 -6.77 l S Q
  Q
Q
Q q
25.922 23.477 m 76.922 23.477 l 76.922 25.883 l 25.922 25.883 l h
25.922 25.883 m 76.922 25.883 l 76.922 28.293 l 25.922 28.293 l h
25.922 25.883 m W n
q
25 23 52 6 re W n
  q
0 g
0.510386 w
2 J
0 j
[] 0.0 d
10 M q 1 0 0 -1 0 0 cm
68.715 -38.953 m 34.133 -4.367 l S Q
  Q
Q
Q q
28.922 23.477 m 78.922 23.477 l 78.922 25.883 l 28.922 25.883 l h
28.922 25.883 m 78.922 25.883 l 78.922 28.293 l 28.922 28.293 l h
28.922 25.883 m W n
q
28 23 51 6 re W n
  q
0 g
0.510386 w
2 J
0 j
[] 0.0 d
10 M q 1 0 0 -1 0 0 cm
71.113 -36.551 m 36.531 -1.969 l S Q
  Q
Q
Q q
30.922 23.477 m 79.371 23.477 l 79.371 25.883 l 30.922 25.883 l h
30.922 25.883 m 79.371 25.883 l 79.371 28.293 l 30.922 28.293 l h
30.922 25.883 m W n
q
30 23 50 6 re W n
  q
0 g
0.510386 w
2 J
0 j
[] 0.0 d
10 M q 1 0 0 -1 0 0 cm
73.516 -34.152 m 38.93 0.43 l S Q
  Q
Q
Q q
33.922 23.477 m 79.371 23.477 l 79.371 25.883 l 33.922 25.883 l h
33.922 25.883 m 79.371 25.883 l 79.371 28.293 l 33.922 28.293 l h
33.922 25.883 m W n
q
33 23 47 6 re W n
  q
0 g
0.510386 w
2 J
0 j
[] 0.0 d
10 M q 1 0 0 -1 0 0 cm
75.914 -31.754 m 41.332 2.832 l S Q
  Q
Q
Q q
35.922 23.477 m 79.371 23.477 l 79.371 25.883 l 35.922 25.883 l h
35.922 25.883 m 79.371 25.883 l 79.371 28.293 l 35.922 28.293 l h
35.922 25.883 m W n
q
35 23 45 6 re W n
  q
0 g
0.510386 w
2 J
0 j
[] 0.0 d
10 M q 1 0 0 -1 0 0 cm
78.312 -29.352 m 43.73 5.23 l S Q
  Q
Q
Q q
37.922 23.477 m 79.371 23.477 l 79.371 25.883 l 37.922 25.883 l h
37.922 25.883 m 79.371 25.883 l 79.371 28.293 l 37.922 28.293 l h
37.922 25.883 m W n
q
37 23 43 6 re W n
  q
0 g
0.510386 w
2 J
0 j
[] 0.0 d
10 M q 1 0 0 -1 0 0 cm
80.715 -26.953 m 46.133 7.633 l S Q
  Q
Q
Q q
40.922 23.477 m 79.371 23.477 l 79.371 25.883 l 40.922 25.883 l h
40.922 25.883 m 79.371 25.883 l 79.371 28.293 l 40.922 28.293 l h
40.922 25.883 m W n
q
40 23 40 6 re W n
  q
0 g
0.510386 w
2 J
0 j
[] 0.0 d
10 M q 1 0 0 -1 0 0 cm
83.113 -24.551 m 48.531 10.031 l S Q
  Q
Q
Q q
0 g
0.850361 w
0 J
0 j
[] 0.0 d
10 M q 1 0 0 -1 0 0 cm
15.027 -25.883 m 15.027 -28.293 l 79.371 -28.293 l 79.371 -23.477 l 15.027
 -23.477 l h
15.027 -25.883 m S Q
Q q
3.688 34.812 m 48.922 34.812 l 48.922 37.223 l 3.688 37.223 l h
3.688 37.223 m 48.922 37.223 l 48.922 39.633 l 3.688 39.633 l h
3.688 37.223 m W n
q
3 34 46 6 re W n
  q
0 g
0.510386 w
2 J
0 j
[] 0.0 d
10 M q 1 0 0 -1 0 0 cm
40.781 -78.223 m 0.531 -37.969 l S Q
  Q
Q
Q q
3.688 34.812 m 50.922 34.812 l 50.922 37.223 l 3.688 37.223 l h
3.688 37.223 m 50.922 37.223 l 50.922 39.633 l 3.688 39.633 l h
3.688 37.223 m W n
q
3 34 48 6 re W n
  q
0 g
0.510386 w
2 J
0 j
[] 0.0 d
10 M q 1 0 0 -1 0 0 cm
43.184 -75.82 m 2.93 -35.57 l S Q
  Q
Q
Q q
3.688 34.812 m 52.922 34.812 l 52.922 37.223 l 3.688 37.223 l h
3.688 37.223 m 52.922 37.223 l 52.922 39.633 l 3.688 39.633 l h
3.688 37.223 m W n
q
3 34 50 6 re W n
  q
0 g
0.510386 w
2 J
0 j
[] 0.0 d
10 M q 1 0 0 -1 0 0 cm
45.582 -73.422 m 5.332 -33.168 l S Q
  Q
Q
Q q
3.688 34.812 m 55.922 34.812 l 55.922 37.223 l 3.688 37.223 l h
3.688 37.223 m 55.922 37.223 l 55.922 39.633 l 3.688 39.633 l h
3.688 37.223 m W n
q
3 34 53 6 re W n
  q
0 g
0.510386 w
2 J
0 j
[] 0.0 d
10 M q 1 0 0 -1 0 0 cm
47.984 -71.02 m 7.73 -30.77 l S Q
  Q
Q
Q q
3.688 34.812 m 57.922 34.812 l 57.922 37.223 l 3.688 37.223 l h
3.688 37.223 m 57.922 37.223 l 57.922 39.633 l 3.688 39.633 l h
3.688 37.223 m W n
q
3 34 55 6 re W n
  q
0 g
0.510386 w
2 J
0 j
[] 0.0 d
10 M q 1 0 0 -1 0 0 cm
50.383 -68.621 m 10.133 -28.371 l S Q
  Q
Q
Q q
4.922 34.812 m 60.922 34.812 l 60.922 37.223 l 4.922 37.223 l h
4.922 37.223 m 60.922 37.223 l 60.922 39.633 l 4.922 39.633 l h
4.922 37.223 m W n
q
4 34 57 6 re W n
  q
0 g
0.510386 w
2 J
0 j
[] 0.0 d
10 M q 1 0 0 -1 0 0 cm
52.781 -66.223 m 12.531 -25.969 l S Q
  Q
Q
Q q
6.922 34.812 m 62.922 34.812 l 62.922 37.223 l 6.922 37.223 l h
6.922 37.223 m 62.922 37.223 l 62.922 39.633 l 6.922 39.633 l h
6.922 37.223 m W n
q
6 34 57 6 re W n
  q
0 g
0.510386 w
2 J
0 j
[] 0.0 d
10 M q 1 0 0 -1 0 0 cm
55.184 -63.82 m 14.93 -23.57 l S Q
  Q
Q
Q q
9.922 34.812 m 64.922 34.812 l 64.922 37.223 l 9.922 37.223 l h
9.922 37.223 m 64.922 37.223 l 64.922 39.633 l 9.922 39.633 l h
9.922 37.223 m W n
q
9 34 56 6 re W n
  q
0 g
0.510386 w
2 J
0 j
[] 0.0 d
10 M q 1 0 0 -1 0 0 cm
57.582 -61.422 m 17.332 -21.168 l S Q
  Q
Q
Q q
11.922 34.812 m 67.922 34.812 l 67.922 37.223 l 11.922 37.223 l h
11.922 37.223 m 67.922 37.223 l 67.922 39.633 l 11.922 39.633 l h
11.922 37.223 m W n
q
11 34 57 6 re W n
  q
0 g
0.510386 w
2 J
0 j
[] 0.0 d
10 M q 1 0 0 -1 0 0 cm
59.984 -59.02 m 19.73 -18.77 l S Q
  Q
Q
Q q
13.922 34.812 m 69.922 34.812 l 69.922 37.223 l 13.922 37.223 l h
13.922 37.223 m 69.922 37.223 l 69.922 39.633 l 13.922 39.633 l h
13.922 37.223 m W n
q
13 34 57 6 re W n
  q
0 g
0.510386 w
2 J
0 j
[] 0.0 d
10 M q 1 0 0 -1 0 0 cm
62.383 -56.621 m 22.133 -16.371 l S Q
  Q
Q
Q q
16.922 34.812 m 72.922 34.812 l 72.922 37.223 l 16.922 37.223 l h
16.922 37.223 m 72.922 37.223 l 72.922 39.633 l 16.922 39.633 l h
16.922 37.223 m W n
q
16 34 57 6 re W n
  q
0 g
0.510386 w
2 J
0 j
[] 0.0 d
10 M q 1 0 0 -1 0 0 cm
64.781 -54.223 m 24.531 -13.969 l S Q
  Q
Q
Q q
18.922 34.812 m 74.922 34.812 l 74.922 37.223 l 18.922 37.223 l h
18.922 37.223 m 74.922 37.223 l 74.922 39.633 l 18.922 39.633 l h
18.922 37.223 m W n
q
18 34 57 6 re W n
  q
0 g
0.510386 w
2 J
0 j
[] 0.0 d
10 M q 1 0 0 -1 0 0 cm
67.184 -51.82 m 26.93 -11.57 l S Q
  Q
Q
Q q
21.922 34.812 m 76.922 34.812 l 76.922 37.223 l 21.922 37.223 l h
21.922 37.223 m 76.922 37.223 l 76.922 39.633 l 21.922 39.633 l h
21.922 37.223 m W n
q
21 34 56 6 re W n
  q
0 g
0.510386 w
2 J
0 j
[] 0.0 d
10 M q 1 0 0 -1 0 0 cm
69.582 -49.422 m 29.332 -9.168 l S Q
  Q
Q
Q q
23.922 34.812 m 79.371 34.812 l 79.371 37.223 l 23.922 37.223 l h
23.922 37.223 m 79.371 37.223 l 79.371 39.633 l 23.922 39.633 l h
23.922 37.223 m W n
q
23 34 57 6 re W n
  q
0 g
0.510386 w
2 J
0 j
[] 0.0 d
10 M q 1 0 0 -1 0 0 cm
71.984 -47.02 m 31.73 -6.77 l S Q
  Q
Q
Q q
25.922 34.812 m 79.371 34.812 l 79.371 37.223 l 25.922 37.223 l h
25.922 37.223 m 79.371 37.223 l 79.371 39.633 l 25.922 39.633 l h
25.922 37.223 m W n
q
25 34 55 6 re W n
  q
0 g
0.510386 w
2 J
0 j
[] 0.0 d
10 M q 1 0 0 -1 0 0 cm
74.383 -44.621 m 34.133 -4.371 l S Q
  Q
Q
Q q
28.922 34.812 m 79.371 34.812 l 79.371 37.223 l 28.922 37.223 l h
28.922 37.223 m 79.371 37.223 l 79.371 39.633 l 28.922 39.633 l h
28.922 37.223 m W n
q
28 34 52 6 re W n
  q
0 g
0.510386 w
2 J
0 j
[] 0.0 d
10 M q 1 0 0 -1 0 0 cm
76.781 -42.223 m 36.531 -1.969 l S Q
  Q
Q
Q q
30.922 34.812 m 79.371 34.812 l 79.371 37.223 l 30.922 37.223 l h
30.922 37.223 m 79.371 37.223 l 79.371 39.633 l 30.922 39.633 l h
30.922 37.223 m W n
q
30 34 50 6 re W n
  q
0 g
0.510386 w
2 J
0 j
[] 0.0 d
10 M q 1 0 0 -1 0 0 cm
79.184 -39.82 m 38.93 0.43 l S Q
  Q
Q
Q q
33.922 34.812 m 79.371 34.812 l 79.371 37.223 l 33.922 37.223 l h
33.922 37.223 m 79.371 37.223 l 79.371 39.633 l 33.922 39.633 l h
33.922 37.223 m W n
q
33 34 47 6 re W n
  q
0 g
0.510386 w
2 J
0 j
[] 0.0 d
10 M q 1 0 0 -1 0 0 cm
81.582 -37.422 m 41.332 2.832 l S Q
  Q
Q
Q q
35.922 34.812 m 79.371 34.812 l 79.371 37.223 l 35.922 37.223 l h
35.922 37.223 m 79.371 37.223 l 79.371 39.633 l 35.922 39.633 l h
35.922 37.223 m W n
q
35 34 45 6 re W n
  q
0 g
0.510386 w
2 J
0 j
[] 0.0 d
10 M q 1 0 0 -1 0 0 cm
83.984 -35.02 m 43.73 5.23 l S Q
  Q
Q
Q q
0 g
0.850361 w
0 J
0 j
[] 0.0 d
10 M q 1 0 0 -1 0 0 cm
3.688 -37.223 m 3.688 -39.633 l 79.371 -39.633 l 79.371 -34.812 l 3.688
 -34.812 l h
3.688 -37.223 m S Q
58.172 12.141 m 58.172 11.797 l 57.484 11.797 l 57.297 11.797 57.156 11.766
 56.984 11.703 c 56.781 11.641 l 56.547 11.547 56.297 11.5 56.062 11.5 c
 55.234 11.5 54.578 12.141 54.578 12.969 c 54.578 13.531 54.812 13.859 55.406
 14.156 c 55.172 14.375 l 54.984 14.562 54.875 14.656 54.844 14.688 c 54.656
 14.891 54.609 14.984 54.609 15.141 c 54.609 15.344 54.703 15.438 55.078
 15.609 c 54.438 16.078 54.203 16.375 54.203 16.703 c 54.203 17.188 54.891
 17.578 55.75 17.578 c 56.422 17.578 57.125 17.344 57.594 16.969 c 57.938
 16.688 58.094 16.406 58.094 16.062 c 58.094 15.516 57.672 15.141 57 15.109
 c 55.844 15.047 l 55.359 15.031 55.141 14.953 55.141 14.812 c 55.141 14.625
 55.438 14.312 55.688 14.25 c 56 14.266 56.172 14.281 56.203 14.281 c 56.531
 14.281 56.891 14.156 57.156 13.906 c 57.453 13.656 57.594 13.344 57.594
 12.906 c 57.594 12.641 57.547 12.438 57.422 12.141 c h
55.266 15.641 m 55.578 15.703 56.281 15.766 56.734 15.766 c 57.547 15.766
 57.844 15.875 57.844 16.203 c 57.844 16.719 57.156 17.062 56.141 17.062
 c 55.344 17.062 54.828 16.812 54.828 16.422 c 54.828 16.203 54.906 16.078
 55.266 15.641 c h
55.312 12.594 m 55.312 12.062 55.562 11.75 55.984 11.75 c 56.266 11.75 
56.484 11.906 56.641 12.172 c 56.812 12.484 56.906 12.891 56.906 13.25 c
 56.906 13.75 56.656 14.062 56.234 14.062 c 55.688 14.062 55.312 13.484 
55.312 12.625 c h
55.312 12.594 m f
62.363 15.031 m 62.207 15.156 62.098 15.203 61.957 15.203 c 61.754 15.203
 61.691 15.078 61.691 14.688 c 61.691 12.938 l 61.691 12.469 61.645 12.203
 61.52 12 c 61.316 11.672 60.926 11.5 60.41 11.5 c 59.566 11.5 58.895 11.938
 58.895 12.5 c 58.895 12.703 59.066 12.891 59.285 12.891 c 59.504 12.891
 59.691 12.703 59.691 12.516 c 59.691 12.484 59.676 12.438 59.676 12.375
 c 59.645 12.281 59.645 12.219 59.645 12.156 c 59.645 11.906 59.926 11.719
 60.285 11.719 c 60.723 11.719 60.973 11.969 60.973 12.453 c 60.973 13 l
 59.598 13.547 59.441 13.641 59.051 13.969 c 58.848 14.156 58.723 14.453
 58.723 14.75 c 58.723 15.312 59.113 15.719 59.676 15.719 c 60.066 15.719
 60.426 15.531 60.973 15.062 c 61.02 15.531 61.191 15.719 61.551 15.719 
c 61.863 15.719 62.051 15.609 62.363 15.266 c h
60.973 14.516 m 60.973 14.797 60.926 14.891 60.738 15 c 60.504 15.125 60.27
 15.188 60.082 15.188 c 59.77 15.188 59.52 14.891 59.52 14.5 c 59.52 14.469
 l 59.52 13.938 59.926 13.594 60.973 13.219 c h
60.973 14.516 m f
65.184 12.812 m 65.152 11.578 l 65.043 11.578 l 64.996 11.656 64.949 11.672
 64.902 11.672 c 64.855 11.672 64.762 11.656 64.668 11.609 c 64.449 11.547
 64.246 11.5 64.027 11.5 c 63.324 11.5 62.809 11.969 62.809 12.609 c 62.809
 13.109 63.105 13.469 63.855 13.906 c 64.387 14.203 l 64.699 14.375 64.855
 14.594 64.855 14.875 c 64.855 15.266 64.559 15.516 64.105 15.516 c 63.48
 15.516 63.168 15.172 62.965 14.266 c 62.824 14.266 l 62.824 15.656 l 62.934
 15.656 l 62.996 15.578 63.043 15.547 63.152 15.547 c 63.246 15.547 63.355
 15.578 63.559 15.625 c 63.793 15.672 64.027 15.719 64.215 15.719 c 64.918
 15.719 65.48 15.188 65.48 14.562 c 65.48 14.125 65.262 13.828 64.73 13.5
 c 63.762 12.922 l 63.496 12.766 63.371 12.562 63.371 12.312 c 63.371 11.953
 63.652 11.703 64.059 11.703 c 64.574 11.703 64.84 12 65.043 12.812 c h
65.184 12.812 m f
34.434 42.961 m 35.184 43.008 35.277 43.102 35.293 43.773 c 35.293 47.742
 l 35.277 48.414 35.168 48.523 34.434 48.555 c 34.434 48.727 l 37.418 48.727
 l 38.121 48.727 38.762 48.539 39.09 48.227 c 39.418 47.945 39.59 47.539
 39.59 47.117 c 39.59 46.711 39.449 46.352 39.152 46.102 c 38.887 45.852
 38.652 45.742 38.059 45.602 c 38.527 45.492 38.715 45.398 38.934 45.211
 c 39.152 45.008 39.293 44.695 39.293 44.32 c 39.293 43.305 38.48 42.789
 36.934 42.789 c 34.434 42.789 l h
36.199 45.805 m 37.074 45.805 37.48 45.852 37.809 45.992 c 38.324 46.195
 38.559 46.57 38.559 47.117 c 38.559 47.602 38.371 47.961 38.012 48.164 
c 37.73 48.32 37.355 48.398 36.777 48.398 c 36.324 48.398 36.199 48.32 36.199
 48.023 c h
36.199 45.445 m 36.199 43.383 l 36.215 43.195 36.246 43.133 36.402 43.133
 c 36.793 43.117 l 37.793 43.102 38.371 43.555 38.371 44.352 c 38.371 45.055
 37.918 45.43 37.059 45.445 c h
36.199 45.445 m f
102.547 42.887 m 102.203 42.855 102.031 42.777 101.766 42.465 c 99.922 
40.199 l 101.062 39.98 101.547 39.527 101.547 38.699 c 101.547 38.309 101.438
 37.98 101.203 37.715 c 100.859 37.355 100.109 37.121 99.266 37.121 c 96.797
 37.121 l 96.797 37.293 l 97.453 37.371 97.547 37.449 97.562 38.105 c 97.562
 41.98 l 97.547 42.746 97.469 42.84 96.797 42.887 c 96.797 43.059 l 99.281
 43.059 l 99.281 42.887 l 98.594 42.84 98.484 42.73 98.469 42.074 c 98.469
 40.309 l 98.969 40.293 l 101.109 43.059 l 102.547 43.059 l h
98.469 37.777 m 98.469 37.527 98.562 37.449 98.922 37.449 c 100.047 37.449
 100.562 37.84 100.562 38.684 c 100.562 39.137 100.375 39.512 100.062 39.684
 c 99.641 39.918 99.328 39.965 98.469 39.98 c h
98.469 37.777 m f
129.859 14.613 m 130.531 14.691 130.609 14.77 130.609 15.426 c 130.609 
19.301 l 130.609 20.066 130.547 20.145 129.859 20.207 c 129.859 20.379 l
 132.375 20.379 l 132.375 20.207 l 131.672 20.191 131.547 20.066 131.531
 19.395 c 131.531 17.77 l 131.766 17.785 131.922 17.801 132.156 17.801 c
 132.859 17.801 133.328 17.707 133.719 17.488 c 134.25 17.207 134.578 16.66
 134.578 16.066 c 134.578 15.691 134.453 15.348 134.219 15.082 c 133.859
 14.691 133.078 14.441 132.234 14.441 c 129.859 14.441 l h
131.531 15.082 m 131.531 14.832 131.594 14.77 131.828 14.77 c 133.047 14.77
 133.609 15.191 133.609 16.113 c 133.609 16.988 133.078 17.441 132.047 17.441
 c 131.859 17.441 131.734 17.426 131.531 17.41 c h
131.531 15.082 m f
0.425176 w
q 1 0 0 -1 0 0 cm
79.797 -65.57 m 79.797 -76.906 l S Q
q 1 0 0 -1 0 0 cm
116.648 -65.57 m 116.648 -76.906 l S Q
113.363 72.41 m 116.648 71.238 l 113.363 70.066 l 114.68 71.238 l f
q 1 0 0 -1 0 0 cm
79.797 -71.238 m 114.68 -71.238 l S Q
1 g
92.594 71.23 m 92.594 76.266 l 103.926 76.266 l 103.926 66.191 l 92.594
 66.191 l f
0 g
100.223 69.512 m 100.223 69.293 100.02 69.184 99.848 69.184 c 99.395 69.184
 98.816 69.855 98.379 70.559 c 98.363 70.559 98.301 70.262 98.301 70.262
 c 98.16 69.668 97.988 69.324 97.676 69.184 c 97.676 69.184 96.66 69.387
 96.535 69.434 c 96.535 69.59 l 96.723 69.543 96.863 69.512 96.957 69.512
 c 97.457 69.512 97.535 69.996 97.879 71.293 c 97.473 71.887 96.832 72.887
 96.582 72.887 c 96.379 72.887 96.363 72.668 96.082 72.668 c 95.895 72.668
 95.754 72.809 95.754 72.996 c 95.754 73.23 95.926 73.387 96.176 73.387 
c 96.816 73.387 97.395 72.262 97.941 71.559 c 97.973 71.621 98.176 72.418
 98.176 72.418 c 98.395 73.246 98.566 73.387 98.785 73.387 c 99.066 73.387
 99.488 73.105 99.91 72.324 c 99.785 72.246 l 99.629 72.449 99.379 72.871
 99.145 72.871 c 98.832 72.871 98.66 71.605 98.441 70.809 c 98.488 70.73
 99.113 69.73 99.441 69.73 c 99.613 69.73 99.77 69.871 99.926 69.871 c 100.145
 69.871 100.223 69.684 100.223 69.512 c h
100.223 69.512 m f
0.567043 w
q 1 0 0 -1 0 0 cm
4.68 -31.555 m 4.68 -33.066 l 4.68 -35.074 m 4.68 -38.078 l 4.68 -40.086
 m 4.68 -43.09 l 4.68 -45.098 m 4.68 -48.105 l 4.68 -50.109 m 4.68 -53.117
 l 4.68 -55.121 m 4.68 -58.129 l 6.332 -58.48 m 9.34 -58.48 l 11.344 -58.48
 m 14.352 -58.48 l 16.355 -58.48 m 19.363 -58.48 l 21.367 -58.48 m 24.375
 -58.48 l 26.379 -58.48 m 29.387 -58.48 l 31.391 -58.48 m 34.398 -58.48 
l 36.406 -58.48 m 39.41 -58.48 l 41.418 -58.48 m 44.426 -58.48 l 46.43 -58.48
 m 49.438 -58.48 l 51.441 -58.48 m 54.449 -58.48 l 56.453 -58.48 m 59.461
 -58.48 l 61.465 -58.48 m 64.473 -58.48 l 66.477 -58.48 m 69.484 -58.48 
l 71.488 -58.48 m 74.496 -58.48 l 76.5 -58.48 m 79.508 -58.48 l 81.516 -58.48
 m 84.52 -58.48 l 86.527 -58.48 m 89.535 -58.48 l 91.539 -58.48 m 94.547
 -58.48 l 96.551 -58.48 m 99.559 -58.48 l 101.562 -58.48 m 104.57 -58.48
 l 106.574 -58.48 m 109.582 -58.48 l 111.586 -58.48 m 114.594 -58.48 l 116.223
 -58.102 m 116.223 -55.098 l 116.223 -53.09 m 116.223 -50.086 l 116.223 
-48.078 m 116.223 -45.07 l 116.223 -43.066 m 116.223 -40.059 l 116.223 -38.055
 m 116.223 -35.047 l 116.223 -33.043 m 116.223 -30.035 l 116.223 -28.031
 m 116.223 -25.023 l 116.223 -23.02 m 116.223 -20.012 l 116.223 -18.008 
m 116.223 -15 l 116.223 -12.992 m 116.223 -9.988 l 116.223 -7.98 m 116.223
 -4.977 l 114.566 -4.625 m 111.559 -4.625 l 109.555 -4.625 m 106.547 -4.625
 l 104.543 -4.625 m 101.535 -4.625 l 99.531 -4.625 m 96.523 -4.625 l 94.52
 -4.625 m 91.512 -4.625 l 89.508 -4.625 m 86.5 -4.625 l 84.496 -4.625 m 
81.488 -4.625 l 79.48 -4.625 m 76.477 -4.625 l 74.469 -4.625 m 71.461 -4.625
 l 69.457 -4.625 m 66.449 -4.625 l 64.445 -4.625 m 61.438 -4.625 l 59.434
 -4.625 m 56.426 -4.625 l 54.422 -4.625 m 51.414 -4.625 l 49.41 -4.625 m
 46.402 -4.625 l 44.398 -4.625 m 41.391 -4.625 l 39.387 -4.625 m 36.379 
-4.625 l 34.371 -4.625 m 31.367 -4.625 l 29.359 -4.625 m 26.352 -4.625 l
 24.348 -4.625 m 21.34 -4.625 l 19.336 -4.625 m 16.328 -4.625 l 14.324 -4.625
 m 11.316 -4.625 l 9.312 -4.625 m 6.305 -4.625 l 4.68 -5.004 m 4.68 -8.012
 l 4.68 -10.016 m 4.68 -13.023 l 4.68 -15.027 m 4.68 -18.035 l 4.68 -20.043
 m 4.68 -23.047 l 4.68 -25.055 m 4.68 -28.059 l 4.68 -30.066 m 4.68 -31.555
 l S Q
Q Q
showpage
%%Trailer
end
%%EOF
