%!PS-Adobe-3.0 EPSF-3.0
%%Creator: cairo 1.17.4 (https://cairographics.org)
%%CreationDate: Thu Feb 24 10:47:13 2022
%%Pages: 1
%%DocumentData: Clean7Bit
%%LanguageLevel: 2
%%BoundingBox: 0 0 186 81
%%EndComments
%%BeginProlog
50 dict begin
/q { gsave } bind def
/Q { grestore } bind def
/cm { 6 array astore concat } bind def
/w { setlinewidth } bind def
/J { setlinecap } bind def
/j { setlinejoin } bind def
/M { setmiterlimit } bind def
/d { setdash } bind def
/m { moveto } bind def
/l { lineto } bind def
/c { curveto } bind def
/h { closepath } bind def
/re { exch dup neg 3 1 roll 5 3 roll moveto 0 rlineto
      0 exch rlineto 0 rlineto closepath } bind def
/S { stroke } bind def
/f { fill } bind def
/f* { eofill } bind def
/n { newpath } bind def
/W { clip } bind def
/W* { eoclip } bind def
/BT { } bind def
/ET { } bind def
/BDC { mark 3 1 roll /BDC pdfmark } bind def
/EMC { mark /EMC pdfmark } bind def
/cairo_store_point { /cairo_point_y exch def /cairo_point_x exch def } def
/Tj { show currentpoint cairo_store_point } bind def
/TJ {
  {
    dup
    type /stringtype eq
    { show } { -0.001 mul 0 cairo_font_matrix dtransform rmoveto } ifelse
  } forall
  currentpoint cairo_store_point
} bind def
/cairo_selectfont { cairo_font_matrix aload pop pop pop 0 0 6 array astore
    cairo_font exch selectfont cairo_point_x cairo_point_y moveto } bind def
/Tf { pop /cairo_font exch def /cairo_font_matrix where
      { pop cairo_selectfont } if } bind def
/Td { matrix translate cairo_font_matrix matrix concatmatrix dup
      /cairo_font_matrix exch def dup 4 get exch 5 get cairo_store_point
      /cairo_font where { pop cairo_selectfont } if } bind def
/Tm { 2 copy 8 2 roll 6 array astore /cairo_font_matrix exch def
      cairo_store_point /cairo_font where { pop cairo_selectfont } if } bind def
/g { setgray } bind def
/rg { setrgbcolor } bind def
/d1 { setcachedevice } bind def
/cairo_data_source {
  CairoDataIndex CairoData length lt
    { CairoData CairoDataIndex get /CairoDataIndex CairoDataIndex 1 add def }
    { () } ifelse
} def
/cairo_flush_ascii85_file { cairo_ascii85_file status { cairo_ascii85_file flushfile } if } def
/cairo_image { image cairo_flush_ascii85_file } def
/cairo_imagemask { imagemask cairo_flush_ascii85_file } def
%%EndProlog
%%BeginSetup
%%EndSetup
%%Page: 1 1
%%BeginPageSetup
%%PageBoundingBox: 0 0 186 81
%%EndPageSetup
q 0 0 186 81 rectclip
1 0 0 -1 0 81 cm q
0 g
0.567044 w
0 J
0 j
[] 0.0 d
10 M q 1 0 0 -1 0 0 cm
14.902 -44.332 m 14.902 -30.426 l 42.68 -30.426 l 42.68 -58.203 l 14.902
 -58.203 l h
14.902 -44.332 m S Q
25.867 45.91 m 25.445 46.551 25.117 46.754 24.617 46.754 c 23.789 46.754
 23.227 46.035 23.227 45.004 c 23.227 44.082 23.711 43.457 24.445 43.457
 c 24.758 43.457 24.883 43.535 24.961 43.879 c 25.023 44.082 l 25.102 44.332
 25.258 44.488 25.445 44.488 c 25.68 44.488 25.867 44.316 25.867 44.113 
c 25.867 43.613 25.242 43.191 24.492 43.191 c 24.055 43.191 23.602 43.363
 23.227 43.691 c 22.773 44.082 22.523 44.691 22.523 45.41 c 22.523 46.566
 23.242 47.41 24.227 47.41 c 24.633 47.41 24.992 47.27 25.32 46.988 c 25.555
 46.785 25.727 46.52 25.992 46.004 c h
25.867 45.91 m f
29.922 45.848 m 29.5 46.52 29.109 46.785 28.531 46.785 c 28.031 46.785 
27.641 46.52 27.375 46.02 c 27.219 45.676 27.156 45.395 27.141 44.832 c 
29.891 44.832 l 29.828 44.254 29.734 43.988 29.516 43.707 c 29.25 43.379
 28.828 43.191 28.359 43.191 c 27.922 43.191 27.5 43.348 27.156 43.66 c 
26.734 44.02 26.484 44.66 26.484 45.395 c 26.484 46.629 27.141 47.41 28.172
 47.41 c 29.016 47.41 29.688 46.879 30.062 45.91 c h
27.156 44.551 m 27.25 43.848 27.562 43.52 28.109 43.52 c 28.656 43.52 28.859
 43.77 28.984 44.551 c h
27.156 44.551 m f
30.414 47.316 m 32.539 47.316 l 32.539 47.176 l 31.961 47.16 31.867 47.066
 31.852 46.566 c 31.852 41.207 l 31.82 41.191 l 31.367 41.332 31.039 41.426
 30.398 41.582 c 30.398 41.723 l 30.445 41.723 l 30.555 41.723 30.664 41.707
 30.727 41.707 c 31.023 41.707 31.102 41.832 31.102 42.254 c 31.102 46.535
 l 31.102 47.02 30.977 47.145 30.414 47.176 c h
30.414 47.316 m f
32.934 47.316 m 35.059 47.316 l 35.059 47.176 l 34.48 47.16 34.387 47.066
 34.371 46.566 c 34.371 41.207 l 34.34 41.191 l 33.887 41.332 33.559 41.426
 32.918 41.582 c 32.918 41.723 l 32.965 41.723 l 33.074 41.723 33.184 41.707
 33.246 41.707 c 33.543 41.707 33.621 41.832 33.621 42.254 c 33.621 46.535
 l 33.621 47.02 33.496 47.145 32.934 47.176 c h
32.934 47.316 m f
0.850361 w
q 1 0 0 -1 0 0 cm
14.617 -44.32 m 0.426 -44.32 l 0.426 -4.633 l 6.117 -4.633 l 13.473 -0.367
 l S Q
7.355 4.656 m 7.355 3.949 6.781 3.375 6.074 3.375 c 5.367 3.375 4.793 3.949
 4.793 4.656 c 4.793 5.363 5.367 5.938 6.074 5.938 c 6.781 5.938 7.355 5.363
 7.355 4.656 c f
15.855 4.656 m 15.855 3.949 15.281 3.375 14.574 3.375 c 13.867 3.375 13.293
 3.949 13.293 4.656 c 13.293 5.363 13.867 5.938 14.574 5.938 c 15.281 5.938
 15.855 5.363 15.855 4.656 c f
7.684 49.73 m 7.684 49.449 7.652 48.355 6.027 48.184 c 6.449 46.762 l 6.48
 46.684 6.496 46.59 6.496 46.559 c 6.496 46.402 6.371 46.246 6.215 46.246
 c 6.09 46.246 5.887 46.262 5.809 46.59 c 5.512 48.168 l 3.387 48.449 2.824
 49.996 2.824 50.73 c 2.824 52.246 4.48 52.309 4.48 52.309 c 4.043 53.715
 l 4.043 53.73 4.027 53.793 4.027 53.824 c 4.027 53.996 4.168 54.152 4.324
 54.152 c 4.449 54.152 4.637 54.043 4.684 53.824 c 4.996 52.355 l 6.918 
52.137 7.684 50.59 7.684 49.73 c h
6.918 49.715 m 6.918 50.496 6.387 51.84 5.074 52.059 c 5.965 48.465 l 6.652
 48.559 6.918 49.168 6.918 49.715 c h
5.434 48.48 m 4.574 52.059 l 3.855 51.855 3.59 51.371 3.59 50.855 c 3.59
 50.184 4.074 48.668 5.434 48.48 c h
5.434 48.48 m f
9.812 49.902 m 7.844 49.902 l 7.844 50.027 l 8.359 50.059 8.438 50.152 
8.453 50.652 c 8.453 53.746 l 8.438 54.246 8.344 54.355 7.844 54.387 c 7.844
 54.512 l 11.594 54.512 l 11.938 53.293 l 11.766 53.293 l 11.438 54.027 
11.125 54.215 10.234 54.246 c 9.766 54.246 l 9.234 54.23 9.172 54.199 9.172
 53.949 c 9.172 50.652 l 9.188 50.152 9.266 50.059 9.812 50.027 c h
9.812 49.902 m f
5.188 40.398 4.703 0.438 re f
0.850363 w
q 1 0 0 -1 0 0 cm
42.945 -44.312 m 57.125 -44.312 l 57.125 -4.621 l S Q
49.965 49.734 m 49.965 49.453 49.934 48.359 48.309 48.188 c 48.73 46.766
 l 48.762 46.688 48.777 46.594 48.777 46.562 c 48.777 46.406 48.652 46.25
 48.496 46.25 c 48.371 46.25 48.168 46.266 48.09 46.594 c 47.793 48.172 
l 45.668 48.453 45.105 50 45.105 50.734 c 45.105 52.25 46.762 52.312 46.762
 52.312 c 46.324 53.719 l 46.324 53.734 46.309 53.797 46.309 53.828 c 46.309
 54 46.449 54.156 46.605 54.156 c 46.73 54.156 46.918 54.047 46.965 53.828
 c 47.277 52.359 l 49.199 52.141 49.965 50.594 49.965 49.734 c h
49.199 49.719 m 49.199 50.5 48.668 51.844 47.355 52.062 c 48.246 48.469
 l 48.934 48.562 49.199 49.172 49.199 49.719 c h
47.715 48.484 m 46.855 52.062 l 46.137 51.859 45.871 51.375 45.871 50.859
 c 45.871 50.188 46.355 48.672 47.715 48.484 c h
47.715 48.484 m f
54.637 54.391 m 54.371 54.359 54.23 54.297 54.027 54.062 c 52.59 52.297
 l 53.48 52.125 53.855 51.766 53.855 51.125 c 53.855 50.828 53.762 50.578
 53.59 50.375 c 53.324 50.078 52.73 49.906 52.09 49.906 c 50.168 49.906 
l 50.168 50.031 l 50.684 50.094 50.746 50.156 50.746 50.656 c 50.746 53.672
 l 50.746 54.266 50.684 54.344 50.168 54.391 c 50.168 54.516 l 52.09 54.516
 l 52.09 54.391 l 51.559 54.344 51.465 54.266 51.465 53.75 c 51.465 52.391
 l 51.855 52.375 l 53.512 54.516 l 54.637 54.516 l h
51.465 50.406 m 51.465 50.219 51.543 50.156 51.824 50.156 c 52.684 50.156
 53.09 50.453 53.09 51.109 c 53.09 51.469 52.949 51.75 52.699 51.891 c 52.371
 52.062 52.137 52.109 51.465 52.125 c h
51.465 50.406 m f
52.629 40.238 m 52.629 39.801 l 50.301 39.801 l 50.301 37.473 l 49.879 
37.473 l 49.879 39.801 l 47.551 39.801 l 47.551 40.238 l 49.879 40.238 l
 49.879 42.566 l 50.301 42.566 l 50.301 40.238 l h
52.629 40.238 m f
0.850359 w
q 1 0 0 -1 0 0 cm
14.598 -4.617 m 21.188 -4.617 l 22.262 -2.504 l 24.375 -6.77 l 26.527 -2.504
 l 28.641 -6.77 l 30.758 -2.504 l 32.906 -6.77 l 35.023 -2.504 l 37.137 
-6.77 l 39.285 -2.504 l 41.402 -6.77 l 43.516 -2.504 l 45.633 -6.77 l 47.781
 -2.504 l 49.898 -6.77 l 50.973 -4.617 l 57.562 -4.617 l S Q
26.504 72.703 m 25.848 73.141 25.582 73.359 25.238 73.781 c 24.613 74.562
 24.301 75.453 24.301 76.5 c 24.301 77.656 24.629 78.531 25.41 79.438 c 
25.785 79.875 26.02 80.062 26.488 80.359 c 26.582 80.203 l 25.879 79.641
 25.629 79.328 25.379 78.656 c 25.16 78.062 25.066 77.391 25.066 76.484 
c 25.066 75.531 25.176 74.797 25.426 74.25 c 25.676 73.688 25.941 73.359
 26.582 72.844 c h
26.504 72.703 m f
30.832 78.172 m 30.676 78.297 30.566 78.344 30.426 78.344 c 30.223 78.344
 30.16 78.219 30.16 77.828 c 30.16 76.078 l 30.16 75.609 30.113 75.344 29.988
 75.141 c 29.785 74.812 29.395 74.641 28.879 74.641 c 28.035 74.641 27.363
 75.078 27.363 75.641 c 27.363 75.844 27.535 76.031 27.754 76.031 c 27.973
 76.031 28.16 75.844 28.16 75.656 c 28.16 75.625 28.145 75.578 28.145 75.516
 c 28.113 75.422 28.113 75.359 28.113 75.297 c 28.113 75.047 28.395 74.859
 28.754 74.859 c 29.191 74.859 29.441 75.109 29.441 75.594 c 29.441 76.141
 l 28.066 76.688 27.91 76.781 27.52 77.109 c 27.316 77.297 27.191 77.594
 27.191 77.891 c 27.191 78.453 27.582 78.859 28.145 78.859 c 28.535 78.859
 28.895 78.672 29.441 78.203 c 29.488 78.672 29.66 78.859 30.02 78.859 c
 30.332 78.859 30.52 78.75 30.832 78.406 c h
29.441 77.656 m 29.441 77.938 29.395 78.031 29.207 78.141 c 28.973 78.266
 28.738 78.328 28.551 78.328 c 28.238 78.328 27.988 78.031 27.988 77.641
 c 27.988 77.609 l 27.988 77.078 28.395 76.734 29.441 76.359 c h
29.441 77.656 m f
31.168 80.359 m 31.824 79.906 32.105 79.688 32.434 79.281 c 33.074 78.5
 33.387 77.594 33.387 76.547 c 33.387 75.406 33.043 74.531 32.262 73.625
 c 31.887 73.188 31.652 72.984 31.199 72.703 c 31.09 72.844 l 31.809 73.406
 32.043 73.719 32.293 74.391 c 32.512 75 32.605 75.672 32.605 76.578 c 32.605
 77.516 32.496 78.25 32.246 78.797 c 32.012 79.359 31.73 79.688 31.09 80.203
 c h
31.168 80.359 m f
0.567044 w
q 1 0 0 -1 0 0 cm
142.469 -44.332 m 142.469 -30.426 l 170.246 -30.426 l 170.246 -58.203 l
 142.469 -58.203 l h
142.469 -44.332 m S Q
153.426 45.91 m 153.004 46.551 152.676 46.754 152.176 46.754 c 151.348 
46.754 150.785 46.035 150.785 45.004 c 150.785 44.082 151.27 43.457 152.004
 43.457 c 152.316 43.457 152.441 43.535 152.52 43.879 c 152.582 44.082 l
 152.66 44.332 152.816 44.488 153.004 44.488 c 153.238 44.488 153.426 44.316
 153.426 44.113 c 153.426 43.613 152.801 43.191 152.051 43.191 c 151.613
 43.191 151.16 43.363 150.785 43.691 c 150.332 44.082 150.082 44.691 150.082
 45.41 c 150.082 46.566 150.801 47.41 151.785 47.41 c 152.191 47.41 152.551
 47.27 152.879 46.988 c 153.113 46.785 153.285 46.52 153.551 46.004 c h
153.426 45.91 m f
157.48 45.848 m 157.059 46.52 156.668 46.785 156.09 46.785 c 155.59 46.785
 155.199 46.52 154.934 46.02 c 154.777 45.676 154.715 45.395 154.699 44.832
 c 157.449 44.832 l 157.387 44.254 157.293 43.988 157.074 43.707 c 156.809
 43.379 156.387 43.191 155.918 43.191 c 155.48 43.191 155.059 43.348 154.715
 43.66 c 154.293 44.02 154.043 44.66 154.043 45.395 c 154.043 46.629 154.699
 47.41 155.73 47.41 c 156.574 47.41 157.246 46.879 157.621 45.91 c h
154.715 44.551 m 154.809 43.848 155.121 43.52 155.668 43.52 c 156.215 43.52
 156.418 43.77 156.543 44.551 c h
154.715 44.551 m f
157.973 47.316 m 160.098 47.316 l 160.098 47.176 l 159.52 47.16 159.426
 47.066 159.41 46.566 c 159.41 41.207 l 159.379 41.191 l 158.926 41.332 
158.598 41.426 157.957 41.582 c 157.957 41.723 l 158.004 41.723 l 158.113
 41.723 158.223 41.707 158.285 41.707 c 158.582 41.707 158.66 41.832 158.66
 42.254 c 158.66 46.535 l 158.66 47.02 158.535 47.145 157.973 47.176 c h
157.973 47.316 m f
160.492 47.316 m 162.617 47.316 l 162.617 47.176 l 162.039 47.16 161.945
 47.066 161.93 46.566 c 161.93 41.207 l 161.898 41.191 l 161.445 41.332 
161.117 41.426 160.477 41.582 c 160.477 41.723 l 160.523 41.723 l 160.633
 41.723 160.742 41.707 160.805 41.707 c 161.102 41.707 161.18 41.832 161.18
 42.254 c 161.18 46.535 l 161.18 47.02 161.055 47.145 160.492 47.176 c h
160.492 47.316 m f
0.850363 w
q 1 0 0 -1 0 0 cm
142.188 -44.312 m 128.012 -44.312 l 128.012 -4.621 l 142.188 -4.621 l S Q
124.035 47.34 m 122.312 44.312 l 121.727 47.754 l 122.656 46.238 l f
0.425178 w
q 1 0 0 -1 0 0 cm
122.676 -46.254 m 122.641 -46.188 l 123.465 -48.457 125.602 -49.973 128.008
 -49.973 c S Q
115.27 53.988 m 114.848 54.66 114.457 54.926 113.879 54.926 c 113.379 54.926
 112.988 54.66 112.723 54.16 c 112.566 53.816 112.504 53.535 112.488 52.973
 c 115.238 52.973 l 115.176 52.395 115.082 52.129 114.863 51.848 c 114.598
 51.52 114.176 51.332 113.707 51.332 c 113.27 51.332 112.848 51.488 112.504
 51.801 c 112.082 52.16 111.832 52.801 111.832 53.535 c 111.832 54.77 112.488
 55.551 113.52 55.551 c 114.363 55.551 115.035 55.02 115.41 54.051 c h
112.504 52.691 m 112.598 51.988 112.91 51.66 113.457 51.66 c 114.004 51.66
 114.207 51.91 114.332 52.691 c h
112.504 52.691 m f
115.996 49.98 4.703 0.438 re f
134.953 4.652 m 134.953 3.945 134.379 3.371 133.672 3.371 c 132.965 3.371
 132.391 3.945 132.391 4.652 c 132.391 5.359 132.965 5.934 133.672 5.934
 c 134.379 5.934 134.953 5.359 134.953 4.652 c f
143.453 4.652 m 143.453 3.945 142.879 3.371 142.172 3.371 c 141.465 3.371
 140.891 3.945 140.891 4.652 c 140.891 5.359 141.465 5.934 142.172 5.934
 c 142.879 5.934 143.453 5.359 143.453 4.652 c f
132.742 40.398 4.703 0.438 re f
0.850363 w
q 1 0 0 -1 0 0 cm
170.508 -44.312 m 184.688 -44.312 l 184.688 -4.621 l S Q
180.188 40.238 m 180.188 39.801 l 177.859 39.801 l 177.859 37.473 l 177.438
 37.473 l 177.438 39.801 l 175.109 39.801 l 175.109 40.238 l 177.438 40.238
 l 177.438 42.566 l 177.859 42.566 l 177.859 40.238 l h
180.188 40.238 m f
0.850359 w
q 1 0 0 -1 0 0 cm
142.172 -4.617 m 148.762 -4.617 l 149.836 -2.504 l 151.953 -6.77 l 154.066
 -2.504 l 156.215 -6.77 l 158.332 -2.504 l 160.449 -6.77 l 162.562 -2.504
 l 164.711 -6.77 l 166.828 -2.504 l 168.941 -6.77 l 171.094 -2.504 l 173.207
 -6.77 l 175.324 -2.504 l 177.473 -6.77 l 178.516 -4.617 l 185.102 -4.617
 l S Q
153.707 72.703 m 153.051 73.141 152.785 73.359 152.441 73.781 c 151.816
 74.562 151.504 75.453 151.504 76.5 c 151.504 77.656 151.832 78.531 152.613
 79.438 c 152.988 79.875 153.223 80.062 153.691 80.359 c 153.785 80.203 
l 153.082 79.641 152.832 79.328 152.582 78.656 c 152.363 78.062 152.27 77.391
 152.27 76.484 c 152.27 75.531 152.379 74.797 152.629 74.25 c 152.879 73.688
 153.145 73.359 153.785 72.844 c h
153.707 72.703 m f
155.441 72.656 m 155.395 72.641 l 155.02 72.766 154.785 72.844 154.348 
72.969 c 154.098 73.031 l 154.098 73.172 l 154.145 73.172 154.176 73.172
 154.238 73.172 c 154.598 73.172 154.691 73.25 154.691 73.625 c 154.691 
78.281 l 154.691 78.562 155.441 78.859 156.16 78.859 c 157.348 78.859 158.27
 77.875 158.27 76.594 c 158.27 75.469 157.582 74.641 156.691 74.641 c 156.145
 74.641 155.613 74.953 155.441 75.406 c h
155.441 75.875 m 155.441 75.531 155.863 75.203 156.332 75.203 c 156.582
 75.203 156.801 75.297 156.988 75.469 c 157.27 75.75 157.473 76.359 157.473
 77 c 157.473 78 157.051 78.562 156.316 78.562 c 155.848 78.562 155.441 
78.375 155.441 78.141 c h
155.441 75.875 m f
158.848 80.359 m 159.504 79.906 159.785 79.688 160.113 79.281 c 160.754
 78.5 161.066 77.594 161.066 76.547 c 161.066 75.406 160.723 74.531 159.941
 73.625 c 159.566 73.188 159.332 72.984 158.879 72.703 c 158.77 72.844 l
 159.488 73.406 159.723 73.719 159.973 74.391 c 160.191 75 160.285 75.672
 160.285 76.578 c 160.285 77.516 160.176 78.25 159.926 78.797 c 159.691 
79.359 159.41 79.688 158.77 80.203 c h
158.848 80.359 m f
Q Q
showpage
%%Trailer
end
%%EOF
