%!PS-Adobe-3.0 EPSF-3.0
%%Creator: cairo 1.17.4 (https://cairographics.org)
%%CreationDate: Thu Feb 24 10:47:14 2022
%%Pages: 1
%%DocumentData: Clean7Bit
%%LanguageLevel: 2
%%BoundingBox: 0 0 370 225
%%EndComments
%%BeginProlog
50 dict begin
/q { gsave } bind def
/Q { grestore } bind def
/cm { 6 array astore concat } bind def
/w { setlinewidth } bind def
/J { setlinecap } bind def
/j { setlinejoin } bind def
/M { setmiterlimit } bind def
/d { setdash } bind def
/m { moveto } bind def
/l { lineto } bind def
/c { curveto } bind def
/h { closepath } bind def
/re { exch dup neg 3 1 roll 5 3 roll moveto 0 rlineto
      0 exch rlineto 0 rlineto closepath } bind def
/S { stroke } bind def
/f { fill } bind def
/f* { eofill } bind def
/n { newpath } bind def
/W { clip } bind def
/W* { eoclip } bind def
/BT { } bind def
/ET { } bind def
/BDC { mark 3 1 roll /BDC pdfmark } bind def
/EMC { mark /EMC pdfmark } bind def
/cairo_store_point { /cairo_point_y exch def /cairo_point_x exch def } def
/Tj { show currentpoint cairo_store_point } bind def
/TJ {
  {
    dup
    type /stringtype eq
    { show } { -0.001 mul 0 cairo_font_matrix dtransform rmoveto } ifelse
  } forall
  currentpoint cairo_store_point
} bind def
/cairo_selectfont { cairo_font_matrix aload pop pop pop 0 0 6 array astore
    cairo_font exch selectfont cairo_point_x cairo_point_y moveto } bind def
/Tf { pop /cairo_font exch def /cairo_font_matrix where
      { pop cairo_selectfont } if } bind def
/Td { matrix translate cairo_font_matrix matrix concatmatrix dup
      /cairo_font_matrix exch def dup 4 get exch 5 get cairo_store_point
      /cairo_font where { pop cairo_selectfont } if } bind def
/Tm { 2 copy 8 2 roll 6 array astore /cairo_font_matrix exch def
      cairo_store_point /cairo_font where { pop cairo_selectfont } if } bind def
/g { setgray } bind def
/rg { setrgbcolor } bind def
/d1 { setcachedevice } bind def
/cairo_data_source {
  CairoDataIndex CairoData length lt
    { CairoData CairoDataIndex get /CairoDataIndex CairoDataIndex 1 add def }
    { () } ifelse
} def
/cairo_flush_ascii85_file { cairo_ascii85_file status { cairo_ascii85_file flushfile } if } def
/cairo_image { image cairo_flush_ascii85_file } def
/cairo_imagemask { imagemask cairo_flush_ascii85_file } def
%%EndProlog
%%BeginSetup
%%EndSetup
%%Page: 1 1
%%BeginPageSetup
%%PageBoundingBox: 0 0 370 225
%%EndPageSetup
q 0 0 370 225 rectclip
1 0 0 -1 0 225 cm q
0 g
1.13366 w
0 J
0 j
[] 0.0 d
10 M q 1 0 0 -1 0 0 cm
63.145 -43.219 m 64.051 -47.809 l 64.949 -52.258 l 65.855 -56.531 l 66.762
 -60.637 l 67.66 -64.598 l 68.602 -68.422 l 69.508 -72.141 l 70.406 -75.723
 l 71.312 -79.199 l 72.219 -82.57 l 73.117 -85.805 l 74.023 -88.969 l 74.93
 -92.027 l 75.832 -94.98 l 76.734 -97.832 l 77.676 -100.648 l 78.582 -103.359
 l 79.48 -106.004 l 80.387 -108.539 l 81.293 -111.008 l 82.191 -113.406 
l 83.098 -115.738 l 84.004 -117.996 l 84.902 -120.188 l 85.809 -122.309 
l 86.715 -124.359 l 87.652 -126.34 l 88.555 -128.285 l 89.461 -130.129 l
 90.363 -131.938 l 91.266 -133.676 l 92.172 -135.344 l 93.074 -136.977 l
 93.977 -138.508 l 94.887 -140.004 l 95.785 -141.461 l 96.688 -142.82 l 
97.629 -144.141 l 98.535 -145.391 l 99.438 -146.641 l 100.344 -147.789 l
 101.246 -148.867 l 102.148 -149.91 l 103.055 -150.918 l 103.957 -151.855
 l 104.859 -152.762 l 105.766 -153.594 l 106.672 -154.395 l 107.605 -155.09
 l 108.508 -155.82 l 109.418 -156.445 l 110.316 -157.039 l 111.223 -157.594
 l 112.129 -158.082 l 113.027 -158.566 l 114.84 -159.332 l 115.738 -159.68
 l 116.645 -159.957 l 117.586 -160.199 l 118.492 -160.41 l 119.391 -160.582
 l 120.297 -160.758 l 121.203 -160.859 l 122.102 -160.93 l 123.914 -161 
l 124.812 -161 l 125.719 -160.965 l 126.625 -160.895 l 127.559 -160.828 
l 128.465 -160.723 l 129.371 -160.582 l 130.277 -160.445 l 131.176 -160.305
 l 132.082 -160.133 l 132.988 -159.957 l 133.887 -159.75 l 134.793 -159.574
 l 135.699 -159.367 l 136.598 -159.156 l 137.539 -158.949 l 138.445 -158.773
 l 139.344 -158.566 l 140.25 -158.395 l 141.156 -158.219 l 142.059 -158.047
 l 143.867 -157.766 l 144.77 -157.664 l 145.672 -157.559 l 146.582 -157.523
 l 147.52 -157.453 l 148.418 -157.453 l 150.23 -157.594 l 151.129 -157.699
 l 152.035 -157.836 l 152.941 -158.082 l 153.844 -158.324 l S Q
102.359 153.801 m 108.496 155.812 l 105.023 150.391 l 105.633 153.598 l
 f
q 1 0 0 -1 0 0 cm
153.836 -161.734 m 153.734 -161.699 l 153.488 -161.664 l 153.215 -161.559
 l 153.004 -161.523 l 152.938 -161.488 l 152.867 -161.457 l 152.105 -161.281
 l 151.961 -161.211 l 151.199 -161.004 l 151.148 -160.98 l 150.078 -160.676
 m 149.387 -160.445 l 149.32 -160.414 l 149.215 -160.414 l 148.488 -160.168
 l 148.379 -160.168 l 148.309 -160.133 l 147.582 -159.891 l 147.48 -159.891
 l 147.414 -159.859 l 146.352 -159.523 m 145.742 -159.301 l 145.672 -159.301
 l 145.598 -159.266 l 144.836 -159.023 l 144.77 -158.988 l 144.699 -158.988
 l 143.93 -158.707 l 143.859 -158.676 l 143.793 -158.641 l 143.711 -158.613
 l 142.648 -158.273 m 142.121 -158.082 l 142.055 -158.082 l 141.988 -158.047
 l 141.219 -157.77 l 141.082 -157.699 l 140.316 -157.422 l 140.25 -157.422
 l 140.141 -157.387 l 140.016 -157.34 l 138.969 -156.938 m 138.512 -156.762
 l 138.402 -156.727 l 138.336 -156.691 l 137.605 -156.414 l 137.504 -156.379
 l 137.43 -156.344 l 136.699 -156.066 l 136.598 -156.031 l 136.527 -155.996
 l 136.355 -155.926 l 135.324 -155.492 m 134.859 -155.301 l 134.785 -155.266
 l 134.719 -155.23 l 133.953 -154.918 l 133.887 -154.883 l 133.816 -154.852
 l 133.047 -154.535 l 132.98 -154.504 l 132.91 -154.469 l 132.742 -154.402
 l 131.715 -153.953 m 131.242 -153.738 l 131.176 -153.703 l 131.07 -153.668
 l 130.336 -153.355 l 130.266 -153.32 l 130.168 -153.285 l 129.438 -152.902
 l 129.367 -152.867 l 129.258 -152.832 l 129.172 -152.789 l 128.156 -152.312
 m 127.625 -152.035 l 127.52 -152 l 127.453 -151.965 l 126.727 -151.582 
l 126.617 -151.547 l 125.785 -151.129 l 125.719 -151.094 l 125.652 -151.062
 l 124.672 -150.535 m 123.98 -150.156 l 123.004 -149.668 l 122.938 -149.602
 l 122.207 -149.207 l 121.242 -148.648 m 121.199 -148.625 l 121.09 -148.594
 l 120.359 -148.141 l 120.293 -148.105 l 120.184 -148.035 l 119.457 -147.617
 l 119.387 -147.582 l 119.285 -147.516 l 118.828 -147.23 l 117.883 -146.629
 m 117.648 -146.473 l 117.547 -146.438 l 117.473 -146.367 l 116.742 -145.879
 l 116.641 -145.848 l 116.574 -145.812 l 115.809 -145.289 l 115.734 -145.254
 l 115.668 -145.219 l 115.531 -145.125 l 114.609 -144.488 m 113.996 -144.074
 l 113.93 -144.004 l 113.863 -143.969 l 113.098 -143.414 l 113.023 -143.379
 l 112.953 -143.309 l 112.324 -142.879 l 111.438 -142.199 m 111.285 -142.09
 l 111.215 -142.023 l 111.117 -141.988 l 110.387 -141.43 l 110.312 -141.359
 l 110.207 -141.293 l 109.48 -140.699 l 109.414 -140.633 l 109.309 -140.562
 l 109.223 -140.492 l 108.352 -139.789 m 107.676 -139.207 l 107.566 -139.172
 l 107.496 -139.102 l 106.734 -138.441 l 106.664 -138.371 l 106.598 -138.301
 l 106.215 -137.992 l 105.375 -137.25 m 104.922 -136.84 l 104.785 -136.703
 l 104.023 -136.008 l 103.879 -135.867 l 103.328 -135.34 l 102.527 -134.555
 m 102.215 -134.27 l 102.148 -134.199 l 102.074 -134.094 l 101.691 -133.746
 l 101.242 -133.297 l 101.133 -133.191 l 100.785 -132.809 l 100.551 -132.57
 l 99.785 -131.762 m 99.504 -131.453 l 99.43 -131.383 l 99.328 -131.277 
l 98.945 -130.898 l 98.598 -130.48 l 98.422 -130.305 l 98.039 -129.855 l
 97.902 -129.688 l 97.168 -128.844 m 97.141 -128.812 l 96.758 -128.395 l
 96.613 -128.184 l 96.234 -127.734 l 95.852 -127.316 l 95.785 -127.211 l
 95.711 -127.109 l 95.367 -126.699 l 94.688 -125.812 m 94.43 -125.508 l 
94.047 -125.023 l 93.902 -124.812 l 93.523 -124.328 l 93.141 -123.805 l 
93.074 -123.699 l 93.004 -123.598 l 92.992 -123.582 l 92.312 -122.688 m 
92.234 -122.59 l 92.164 -122.449 l 92.098 -122.344 l 91.719 -121.824 l 91.336
 -121.301 l 91.262 -121.199 l 91.156 -121.094 l 90.809 -120.535 l 90.711
 -120.395 l 90.066 -119.484 m 89.871 -119.18 l 89.523 -118.625 l 89.453 
-118.484 l 89.352 -118.383 l 88.969 -117.789 l 88.617 -117.199 l 88.551 
-117.133 l 87.965 -116.18 m 87.719 -115.738 l 87.613 -115.602 l 87.547 -115.496
 l 86.777 -114.246 l 86.707 -114.105 l 86.641 -114 l 86.516 -113.785 l 85.949
 -112.816 m 85.871 -112.68 l 85.805 -112.543 l 85.734 -112.402 l 84.973 
-111.047 l 84.902 -110.906 l 84.828 -110.77 l 84.602 -110.359 l 84.066 -109.375
 m 83.93 -109.098 l 83.16 -107.641 l 83.09 -107.5 l 83.023 -107.328 l 82.793
 -106.879 l 82.285 -105.879 m 82.191 -105.691 l 82.082 -105.52 l 81.352 
-103.953 l 81.285 -103.816 l 81.184 -103.641 l 81.059 -103.363 l 80.602 
-102.34 m 80.453 -102.008 l 80.379 -101.832 l 80.277 -101.66 l 79.547 -99.992
 l 79.48 -99.816 l 79.461 -99.781 l 79.008 -98.762 m 78.641 -97.871 l 78.539
 -97.66 l 78.473 -97.488 l 77.941 -96.168 l 77.5 -95.141 m 76.805 -93.387
 l 76.734 -93.176 l 76.66 -92.969 l 76.484 -92.527 l 76.074 -91.484 m 75.895
 -91.023 l 75.828 -90.812 l 75.762 -90.605 l 75.117 -88.852 l 74.742 -87.793
 m 74.09 -85.945 l 74.023 -85.738 l 73.949 -85.492 l 73.828 -85.145 l 73.469
 -84.086 m 73.184 -83.234 l 73.117 -82.992 l 73.047 -82.746 l 72.664 -81.602
 l 72.605 -81.418 l 72.254 -80.352 m 72.211 -80.211 l 72.105 -79.934 l 71.762
 -78.715 l 71.441 -77.672 l 71.102 -76.605 m 70.82 -75.691 l 70.473 -74.402
 l 70.402 -74.125 l 70.324 -73.914 l 70.004 -72.84 m 69.914 -72.527 l 69.566
 -71.172 l 69.465 -70.895 l 69.395 -70.613 l 69.27 -70.137 l 68.98 -69.055
 m 68.668 -67.797 l 68.559 -67.484 l 68.492 -67.172 l 68.273 -66.344 l 67.992
 -65.258 m 67.727 -64.254 l 67.59 -63.629 l 67.324 -62.535 l 67.051 -61.449
 m 66.82 -60.531 l 66.754 -60.184 l 66.684 -59.836 l 66.418 -58.719 l 66.16
 -57.629 m 65.922 -56.605 l 65.852 -56.258 l 65.777 -55.875 l 65.555 -54.891
 l 65.312 -53.801 m 65.016 -52.469 l 64.945 -52.121 l 64.879 -51.738 l 64.734
 -51.055 l 64.504 -49.961 m 64.496 -49.93 l 64.109 -48.156 l 64.039 -47.773
 l 64.004 -47.602 l 63.926 -47.219 l 63.715 -46.117 m 63.625 -45.617 l 63.453
 -44.891 l 63.344 -44.227 l 63.242 -43.672 l 63.184 -43.367 l S Q
108.652 142.941 m 114.84 144.652 l 111.109 139.387 l 111.859 142.566 l f
1 g
64.715 43.199 m 64.715 42.336 64.016 41.637 63.152 41.637 c 62.289 41.637
 61.59 42.336 61.59 43.199 c 61.59 44.062 62.289 44.762 63.152 44.762 c 
64.016 44.762 64.715 44.062 64.715 43.199 c f
0 g
64.715 43.199 m 64.715 42.336 64.016 41.637 63.152 41.637 c 62.289 41.637
 61.59 42.336 61.59 43.199 c 61.59 44.062 62.289 44.762 63.152 44.762 c 
64.016 44.762 64.715 44.062 64.715 43.199 c h
64.715 43.199 m 64.559 43.199 l 64.559 42.422 63.93 41.793 63.152 41.793
 c 62.375 41.793 61.746 42.422 61.746 43.199 c 61.746 43.977 62.375 44.605
 63.152 44.605 c 63.93 44.605 64.559 43.977 64.559 43.199 c f
1 g
155.414 158.297 m 155.414 157.434 154.715 156.734 153.852 156.734 c 152.988
 156.734 152.289 157.434 152.289 158.297 c 152.289 159.16 152.988 159.859
 153.852 159.859 c 154.715 159.859 155.414 159.16 155.414 158.297 c f
0 g
155.414 158.297 m 155.414 157.434 154.715 156.734 153.852 156.734 c 152.988
 156.734 152.289 157.434 152.289 158.297 c 152.289 159.16 152.988 159.859
 153.852 159.859 c 154.715 159.859 155.414 159.16 155.414 158.297 c h
155.414 158.297 m 155.258 158.297 l 155.258 157.52 154.629 156.891 153.852
 156.891 c 153.074 156.891 152.445 157.52 152.445 158.297 c 152.445 159.074
 153.074 159.703 153.852 159.703 c 154.629 159.703 155.258 159.074 155.258
 158.297 c f
1 g
155.414 161.699 m 155.414 160.836 154.715 160.137 153.852 160.137 c 152.988
 160.137 152.289 160.836 152.289 161.699 c 152.289 162.562 152.988 163.262
 153.852 163.262 c 154.715 163.262 155.414 162.562 155.414 161.699 c f
0 g
155.414 161.699 m 155.414 160.836 154.715 160.137 153.852 160.137 c 152.988
 160.137 152.289 160.836 152.289 161.699 c 152.289 162.562 152.988 163.262
 153.852 163.262 c 154.715 163.262 155.414 162.562 155.414 161.699 c h
155.414 161.699 m 155.258 161.699 l 155.258 160.922 154.629 160.293 153.852
 160.293 c 153.074 160.293 152.445 160.922 152.445 161.699 c 152.445 162.477
 153.074 163.105 153.852 163.105 c 154.629 163.105 155.258 162.477 155.258
 161.699 c f
0.567041 w
q 1 0 0 -1 0 0 cm
17.77 -2.957 158.746 -181.43 re S Q
0.398507 w
q 1 0 0 -1 0 0 cm
17.785 -184.363 m 17.785 -180.121 l S Q
q 1 0 0 -1 0 0 cm
63.145 -184.363 m 63.145 -180.121 l S Q
q 1 0 0 -1 0 0 cm
108.504 -184.363 m 108.504 -180.121 l S Q
q 1 0 0 -1 0 0 cm
153.855 -184.363 m 153.855 -180.121 l S Q
q 1 0 0 -1 0 0 cm
17.785 -184.363 m 17.785 -180.121 l S Q
0.398506 w
q 1 0 0 -1 0 0 cm
17.805 -184.359 m 22.043 -184.359 l S Q
q 1 0 0 -1 0 0 cm
17.781 -139.012 m 22.02 -139.012 l S Q
0.398504 w
q 1 0 0 -1 0 0 cm
17.762 -93.668 m 22.035 -93.668 l S Q
0.398507 w
q 1 0 0 -1 0 0 cm
17.773 -48.305 m 22.043 -48.305 l S Q
0.398506 w
q 1 0 0 -1 0 0 cm
17.77 -2.957 m 22.043 -2.957 l S Q
q 1 0 0 -1 0 0 cm
17.805 -184.359 m 22.043 -184.359 l S Q
q 1 0 0 -1 0 0 cm
17.77 -2.957 m 17.77 -7.191 l S Q
q 1 0 0 -1 0 0 cm
63.145 -2.957 m 63.145 -7.191 l S Q
q 1 0 0 -1 0 0 cm
108.484 -2.957 m 108.484 -7.191 l S Q
q 1 0 0 -1 0 0 cm
153.859 -2.957 m 153.859 -7.191 l S Q
q 1 0 0 -1 0 0 cm
17.77 -2.957 m 17.77 -7.191 l S Q
q 1 0 0 -1 0 0 cm
176.523 -184.359 m 172.285 -184.359 l S Q
q 1 0 0 -1 0 0 cm
176.539 -139.012 m 172.266 -139.012 l S Q
0.398504 w
q 1 0 0 -1 0 0 cm
176.535 -93.668 m 172.262 -93.668 l S Q
0.398507 w
q 1 0 0 -1 0 0 cm
176.543 -48.305 m 172.266 -48.305 l S Q
0.398506 w
q 1 0 0 -1 0 0 cm
176.516 -2.957 m 172.277 -2.957 l S Q
q 1 0 0 -1 0 0 cm
176.523 -184.359 m 172.285 -184.359 l S Q
19.738 190.895 m 19.738 189.285 19.004 187.832 17.754 187.832 c 16.488 
187.832 15.754 189.285 15.754 190.895 c 15.754 192.52 16.441 193.957 17.754
 193.957 c 18.957 193.957 19.738 192.52 19.738 190.895 c h
18.879 190.895 m 18.879 192.191 18.754 193.707 17.754 193.707 c 16.801 
193.707 16.613 192.191 16.613 190.895 c 16.613 189.816 16.738 188.066 17.754
 188.066 c 18.754 188.066 18.879 189.816 18.879 190.895 c h
18.879 190.895 m f
59.457 190.895 m 59.457 189.285 58.723 187.832 57.473 187.832 c 56.207 
187.832 55.473 189.285 55.473 190.895 c 55.473 192.52 56.16 193.957 57.473
 193.957 c 58.676 193.957 59.457 192.52 59.457 190.895 c h
58.598 190.895 m 58.598 192.191 58.473 193.707 57.473 193.707 c 56.52 193.707
 56.332 192.191 56.332 190.895 c 56.332 189.816 56.457 188.066 57.473 188.066
 c 58.473 188.066 58.598 189.816 58.598 190.895 c h
58.598 190.895 m f
61.383 193.473 m 61.383 193.191 61.164 192.973 60.883 192.973 c 60.602 
192.973 60.383 193.191 60.383 193.473 c 60.383 193.754 60.602 193.973 60.883
 193.973 c 61.164 193.973 61.383 193.754 61.383 193.473 c h
61.383 193.473 m f
65.547 193.848 m 65.547 193.707 l 64.953 193.707 64.734 193.723 64.734 
192.551 c 64.734 192.535 64.734 187.801 64.734 187.801 c 64.609 187.801 
l 63.078 188.535 l 63.125 188.676 l 63.453 188.535 63.531 188.504 63.656
 188.504 c 63.922 188.504 63.969 188.738 63.969 189.051 c 63.969 192.551
 l 63.969 193.723 63.75 193.691 63.156 193.707 c 63.156 193.848 l h
65.547 193.848 m f
70.738 190.895 m 70.738 189.285 70.004 187.832 68.754 187.832 c 67.488 
187.832 66.754 189.285 66.754 190.895 c 66.754 192.52 67.441 193.957 68.754
 193.957 c 69.957 193.957 70.738 192.52 70.738 190.895 c h
69.879 190.895 m 69.879 192.191 69.754 193.707 68.754 193.707 c 67.801 
193.707 67.613 192.191 67.613 190.895 c 67.613 189.816 67.738 188.066 68.754
 188.066 c 69.754 188.066 69.879 189.816 69.879 190.895 c h
69.879 190.895 m f
104.816 190.895 m 104.816 189.285 104.082 187.832 102.832 187.832 c 101.566
 187.832 100.832 189.285 100.832 190.895 c 100.832 192.52 101.52 193.957
 102.832 193.957 c 104.035 193.957 104.816 192.52 104.816 190.895 c h
103.957 190.895 m 103.957 192.191 103.832 193.707 102.832 193.707 c 101.879
 193.707 101.691 192.191 101.691 190.895 c 101.691 189.816 101.816 188.066
 102.832 188.066 c 103.832 188.066 103.957 189.816 103.957 190.895 c h
103.957 190.895 m f
106.742 193.473 m 106.742 193.191 106.523 192.973 106.242 192.973 c 105.961
 192.973 105.742 193.191 105.742 193.473 c 105.742 193.754 105.961 193.973
 106.242 193.973 c 106.523 193.973 106.742 193.754 106.742 193.473 c h
106.742 193.473 m f
111.688 192.691 m 111.531 192.66 l 111.266 193.113 111.047 193.191 110.609
 193.191 c 108.547 193.191 l 109.969 191.895 111.266 190.723 111.266 189.41
 c 111.266 188.488 110.469 187.832 109.594 187.832 c 108.734 187.832 108.047
 188.301 107.781 189.52 c 107.984 189.52 l 108.234 189.02 108.578 188.504
 109.266 188.504 c 110.047 188.504 110.484 189.098 110.484 189.77 c 110.484
 190.738 109.453 192.16 107.688 193.707 c 107.688 193.848 l 111.219 193.848
 l h
111.688 192.691 m f
116.098 190.895 m 116.098 189.285 115.363 187.832 114.113 187.832 c 112.848
 187.832 112.113 189.285 112.113 190.895 c 112.113 192.52 112.801 193.957
 114.113 193.957 c 115.316 193.957 116.098 192.52 116.098 190.895 c h
115.238 190.895 m 115.238 192.191 115.113 193.707 114.113 193.707 c 113.16
 193.707 112.973 192.191 112.973 190.895 c 112.973 189.816 113.098 188.066
 114.113 188.066 c 115.113 188.066 115.238 189.816 115.238 190.895 c h
115.238 190.895 m f
150.176 190.895 m 150.176 189.285 149.441 187.832 148.191 187.832 c 146.926
 187.832 146.191 189.285 146.191 190.895 c 146.191 192.52 146.879 193.957
 148.191 193.957 c 149.395 193.957 150.176 192.52 150.176 190.895 c h
149.316 190.895 m 149.316 192.191 149.191 193.707 148.191 193.707 c 147.238
 193.707 147.051 192.191 147.051 190.895 c 147.051 189.816 147.176 188.066
 148.191 188.066 c 149.191 188.066 149.316 189.816 149.316 190.895 c h
149.316 190.895 m f
152.102 193.473 m 152.102 193.191 151.883 192.973 151.602 192.973 c 151.32
 192.973 151.102 193.191 151.102 193.473 c 151.102 193.754 151.32 193.973
 151.602 193.973 c 151.883 193.973 152.102 193.754 152.102 193.473 c h
152.102 193.473 m f
156.672 191.91 m 156.672 190.973 156.125 190.566 155.594 190.348 c 156.172
 189.91 156.359 189.504 156.359 189.02 c 156.359 188.504 155.938 187.832
 154.969 187.832 c 154.266 187.832 153.594 188.223 153.297 189.191 c 153.438
 189.223 l 153.625 188.863 153.984 188.41 154.641 188.41 c 155.281 188.41
 155.656 188.848 155.656 189.348 c 155.656 190.051 155.109 190.551 154.297
 190.738 c 154.281 190.926 l 155.672 190.863 156.016 191.77 156.016 192.332
 c 156.016 193.004 155.531 193.613 154.891 193.613 c 154.312 193.613 154.062
 193.113 153.578 193.113 c 153.422 193.113 153.234 193.27 153.234 193.473
 c 153.234 193.848 153.797 193.957 154.203 193.957 c 155.625 193.957 156.672
 193.145 156.672 191.91 c h
156.672 191.91 m f
161.457 190.895 m 161.457 189.285 160.723 187.832 159.473 187.832 c 158.207
 187.832 157.473 189.285 157.473 190.895 c 157.473 192.52 158.16 193.957
 159.473 193.957 c 160.676 193.957 161.457 192.52 161.457 190.895 c h
160.598 190.895 m 160.598 192.191 160.473 193.707 159.473 193.707 c 158.52
 193.707 158.332 192.191 158.332 190.895 c 158.332 189.816 158.457 188.066
 159.473 188.066 c 160.473 188.066 160.598 189.816 160.598 190.895 c h
160.598 190.895 m f
14.098 184.414 m 14.098 182.805 13.363 181.352 12.113 181.352 c 10.848 
181.352 10.113 182.805 10.113 184.414 c 10.113 186.039 10.801 187.477 12.113
 187.477 c 13.316 187.477 14.098 186.039 14.098 184.414 c h
13.238 184.414 m 13.238 185.711 13.113 187.227 12.113 187.227 c 11.16 187.227
 10.973 185.711 10.973 184.414 c 10.973 183.336 11.098 181.586 12.113 181.586
 c 13.113 181.586 13.238 183.336 13.238 184.414 c h
13.238 184.414 m f
14.129 140.852 m 13.973 140.82 l 13.707 141.273 13.488 141.352 13.051 141.352
 c 10.988 141.352 l 12.41 140.055 13.707 138.883 13.707 137.57 c 13.707 
136.648 12.91 135.992 12.035 135.992 c 11.176 135.992 10.488 136.461 10.223
 137.68 c 10.426 137.68 l 10.676 137.18 11.02 136.664 11.707 136.664 c 12.488
 136.664 12.926 137.258 12.926 137.93 c 12.926 138.898 11.895 140.32 10.129
 141.867 c 10.129 142.008 l 13.66 142.008 l h
14.129 140.852 m f
14.113 95.164 m 14.113 94.555 l 13.238 94.555 l 13.238 90.633 l 12.801 
90.633 l 10.207 94.539 l 10.207 95.164 l 12.504 95.164 l 12.504 96.648 l
 13.238 96.648 l 13.238 95.164 l h
12.504 94.555 m 10.566 94.555 l 12.488 91.57 l 12.504 91.57 l h
12.504 94.555 m f
14.051 49.273 m 14.051 48.289 13.348 47.555 12.457 47.555 c 12.004 47.555
 11.629 47.695 11.238 48.008 c 11.629 46.414 12.801 45.414 13.926 45.398
 c 13.926 45.242 l 11.16 45.242 10.285 47.586 10.285 48.914 c 10.285 50.336
 11.113 51.398 12.223 51.398 c 13.238 51.398 14.051 50.445 14.051 49.273
 c h
13.285 49.727 m 13.285 50.555 12.91 51.133 12.316 51.133 c 11.395 51.133
 11.113 49.789 11.113 49.07 c 11.113 48.836 11.145 48.586 11.191 48.289 
c 11.582 48.039 11.895 47.93 12.207 47.93 c 13.113 47.93 13.285 48.977 13.285
 49.727 c h
13.285 49.727 m f
13.832 4.672 m 13.832 4.031 13.551 3.547 12.457 2.734 c 13.145 2.359 13.676
 1.938 13.676 1.281 c 13.676 0.594 13.035 0 12.082 0 c 11.238 0 10.441 0.547
 10.441 1.391 c 10.441 2.047 10.785 2.438 11.551 3.047 c 10.691 3.703 10.379
 4.031 10.379 4.703 c 10.379 5.453 11.051 6.156 12.098 6.156 c 13.316 6.156
 13.832 5.328 13.832 4.672 c h
13.066 1.266 m 13.066 1.906 12.691 2.25 12.207 2.578 c 11.613 2.156 11.098
 1.688 11.098 1.172 c 11.098 0.688 11.441 0.266 12.051 0.266 c 12.723 0.266
 13.066 0.688 13.066 1.266 c h
13.191 4.922 m 13.191 5.5 12.754 5.891 12.176 5.891 c 11.488 5.891 11.051
 5.344 11.051 4.609 c 11.051 3.938 11.379 3.547 11.785 3.203 c 12.77 3.953
 13.191 4.328 13.191 4.922 c h
13.191 4.922 m f
89.605 201.5 m 89.605 201.359 l 87.887 201.359 l 87.887 201.5 l 88.074 
201.5 88.387 201.578 88.387 201.828 c 88.387 202.047 88.168 202.406 88.043
 202.594 c 85.652 206.109 l 85.48 202.188 l 85.449 201.625 85.762 201.5 
86.246 201.5 c 86.246 201.359 l 83.934 201.359 l 83.934 201.5 l 84.543 201.5
 84.59 201.781 84.668 202.516 c 84.871 207.547 l 85.027 207.547 l 88.652
 202.219 l 88.824 202 89.215 201.5 89.605 201.5 c h
89.605 201.5 m f
93.262 200.969 m 92.824 200.969 l 89.715 209.328 l 90.168 209.328 l h
93.262 200.969 m f
99.762 206.891 m 99.637 206.891 99.59 206.891 99.559 206.891 c 99.246 206.891
 99.152 206.797 99.152 206.391 c 99.152 201.297 l 99.121 201.281 l 98.699
 201.422 98.387 201.516 97.793 201.672 c 97.793 201.812 l 97.871 201.812
 97.918 201.812 97.996 201.812 c 98.324 201.812 98.402 201.906 98.402 202.266
 c 98.402 203.672 l 98.059 203.375 97.824 203.281 97.465 203.281 c 96.434
 203.281 95.59 204.297 95.59 205.562 c 95.59 206.719 96.262 207.5 97.262
 207.5 c 97.762 207.5 98.105 207.312 98.402 206.891 c 98.402 207.469 l 98.434
 207.5 l 99.762 207.031 l h
98.402 206.484 m 98.402 206.547 98.34 206.656 98.246 206.766 c 98.105 206.938
 97.871 207.031 97.605 207.031 c 96.855 207.031 96.371 206.312 96.371 205.203
 c 96.371 204.203 96.809 203.531 97.496 203.531 c 97.98 203.531 98.402 203.953
 98.402 204.422 c h
98.402 206.484 m f
99.934 207.406 m 101.934 207.406 l 101.934 207.266 l 101.465 207.266 101.324
 207.172 101.324 206.812 c 101.324 204.281 l 101.324 204.266 101.387 204.172
 101.449 204.109 c 101.684 203.906 102.059 203.75 102.371 203.75 c 102.777
 203.75 102.965 204.062 102.965 204.688 c 102.965 206.641 l 102.949 207.141
 102.855 207.25 102.355 207.266 c 102.355 207.406 l 104.371 207.406 l 104.371
 207.266 l 103.871 207.266 103.746 207.125 103.715 206.547 c 103.715 204.297
 l 103.996 203.906 104.277 203.75 104.699 203.75 c 105.215 203.75 105.371
 203.984 105.371 204.734 c 105.371 206.625 l 105.355 207.156 105.293 207.219
 104.777 207.266 c 104.777 207.406 l 106.746 207.406 l 106.746 207.266 l
 106.512 207.25 l 106.23 207.203 106.121 207.078 106.121 206.719 c 106.121
 204.875 l 106.121 203.812 105.777 203.281 105.09 203.281 c 104.559 203.281
 104.105 203.516 103.621 204.031 c 103.465 203.516 103.152 203.281 102.668
 203.281 c 102.262 203.281 102.027 203.391 101.277 203.969 c 101.277 203.297
 l 101.215 203.281 l 100.746 203.453 100.434 203.547 99.965 203.688 c 99.965
 203.844 l 100.074 203.812 100.152 203.797 100.246 203.797 c 100.48 203.797
 100.559 203.938 100.559 204.375 c 100.559 206.641 l 100.543 207.141 100.434
 207.266 99.934 207.266 c h
99.934 207.406 m f
110.301 202.637 m 110.301 201.918 109.879 201.605 109.426 201.434 c 109.895
 201.105 110.051 200.793 110.051 200.418 c 110.051 200.012 109.676 199.465
 108.816 199.465 c 108.191 199.465 107.598 199.762 107.332 200.574 c 107.535
 200.621 l 107.691 200.34 108.004 199.996 108.535 199.996 c 109.051 199.996
 109.348 200.309 109.348 200.668 c 109.348 201.184 108.895 201.559 108.207
 201.715 c 108.176 201.918 l 109.379 201.871 109.66 202.559 109.66 202.965
 c 109.66 203.449 109.27 203.902 108.754 203.902 c 108.254 203.902 108.035
 203.512 107.629 203.512 c 107.457 203.512 107.285 203.652 107.285 203.84
 c 107.285 204.137 107.785 204.246 108.16 204.246 c 109.395 204.246 110.301
 203.59 110.301 202.637 c h
110.301 202.637 m f
3.52 104.426 m 2.816 104.426 2.348 104.738 2.348 105.41 c 2.348 106.004
 2.77 106.457 3.332 106.863 c 2.348 106.551 l 2.348 106.551 2.582 107.754
 2.598 108.02 c 2.754 108.02 l 2.754 107.691 2.723 107.426 3.082 107.426
 c 3.254 107.426 3.645 107.535 3.863 107.598 c 7.598 108.66 l 7.941 108.754
 8.191 108.91 8.191 109.348 c 8.348 109.379 l 8.348 107.41 l 8.191 107.379
 l 8.191 107.723 8.176 108.02 7.926 108.02 c 7.848 108.02 7.754 108.004 
7.582 107.957 c 6.332 107.645 l 6.473 107.473 6.551 107.207 6.551 106.988
 c 6.551 105.91 5.02 104.426 3.52 104.426 c h
3.613 105.191 m 4.785 105.191 6.348 106.176 6.348 107.02 c 6.348 107.223
 6.27 107.41 6.098 107.582 c 5.301 107.379 2.77 106.832 2.77 105.676 c 2.77
 105.191 3.41 105.191 3.613 105.191 c h
3.613 105.191 m f
1.016 101.551 m 0.062 101.566 l 0.062 101.645 l 0.109 101.676 0.141 101.723
 0.141 101.754 c 0.141 101.801 0.125 101.863 0.094 101.941 c 0.031 102.113
 0 102.27 0 102.441 c 0 102.988 0.359 103.379 0.859 103.379 c 1.25 103.379
 1.531 103.16 1.859 102.566 c 2.094 102.16 l 2.234 101.926 2.406 101.801
 2.625 101.801 c 2.922 101.801 3.125 102.02 3.125 102.379 c 3.125 102.863
 2.859 103.098 2.141 103.27 c 2.141 103.379 l 3.234 103.379 l 3.234 103.285
 l 3.156 103.238 3.141 103.207 3.141 103.129 c 3.141 103.051 3.156 102.957
 3.203 102.801 c 3.25 102.613 3.266 102.441 3.266 102.301 c 3.266 101.754
 2.875 101.316 2.375 101.316 c 2.031 101.316 1.797 101.473 1.547 101.895
 c 1.109 102.645 l 0.984 102.848 0.812 102.957 0.625 102.957 c 0.344 102.957
 0.156 102.738 0.156 102.41 c 0.156 102.02 0.391 101.801 1.016 101.645 c
 h
1.016 101.551 m f
0.062 97.664 m 0.062 98.602 l 0.172 98.602 l 0.172 98.383 0.234 98.273 
0.344 98.273 c 0.375 98.273 0.422 98.273 0.469 98.305 c 2.391 98.977 l 0.625
 99.773 l 0.531 99.82 0.422 99.852 0.359 99.852 c 0.234 99.852 0.188 99.742
 0.172 99.445 c 0.062 99.445 l 0.062 100.883 l 0.172 100.883 l 0.188 100.695
 0.266 100.586 0.391 100.523 c 2.109 99.727 l 2.297 99.648 2.297 99.633 
2.359 99.602 c 2.719 99.414 2.969 99.305 3.078 99.305 c 3.188 99.305 3.609
 99.461 3.828 99.57 c 4 99.68 4.141 99.82 4.141 99.93 c 4.141 99.961 4.125
 100.023 4.094 100.102 c 4.047 100.227 4.016 100.352 4.016 100.461 c 4.016
 100.633 4.141 100.773 4.312 100.773 c 4.547 100.773 4.719 100.555 4.719
 100.258 c 4.719 99.773 4.344 99.461 3.328 99.07 c 0.484 98.008 l 0.266 
97.914 0.188 97.836 0.172 97.664 c h
0.062 97.664 m f
1.016 95.309 m 0.062 95.324 l 0.062 95.402 l 0.109 95.434 0.141 95.48 0.141
 95.512 c 0.141 95.559 0.125 95.621 0.094 95.699 c 0.031 95.871 0 96.027
 0 96.199 c 0 96.746 0.359 97.137 0.859 97.137 c 1.25 97.137 1.531 96.918
 1.859 96.324 c 2.094 95.918 l 2.234 95.684 2.406 95.559 2.625 95.559 c 
2.922 95.559 3.125 95.777 3.125 96.137 c 3.125 96.621 2.859 96.855 2.141
 97.027 c 2.141 97.137 l 3.234 97.137 l 3.234 97.043 l 3.156 96.996 3.141
 96.965 3.141 96.887 c 3.141 96.809 3.156 96.715 3.203 96.559 c 3.25 96.371
 3.266 96.199 3.266 96.059 c 3.266 95.512 2.875 95.074 2.375 95.074 c 2.031
 95.074 1.797 95.23 1.547 95.652 c 1.109 96.402 l 0.984 96.605 0.812 96.715
 0.625 96.715 c 0.344 96.715 0.156 96.496 0.156 96.168 c 0.156 95.777 0.391
 95.559 1.016 95.402 c h
1.016 95.309 m f
0.379 90.359 m 0.379 90.969 l 6.566 93.016 l 6.566 92.406 l h
0.379 90.359 m f
0.332 87.602 m 0.316 87.648 l 0.441 88.023 0.52 88.258 0.645 88.695 c 0.707
 88.945 l 0.848 88.945 l 0.848 88.898 0.848 88.867 0.848 88.805 c 0.848 
88.445 0.926 88.352 1.301 88.352 c 5.957 88.352 l 6.238 88.352 6.535 87.602
 6.535 86.883 c 6.535 85.695 5.551 84.773 4.27 84.773 c 3.145 84.773 2.316
 85.461 2.316 86.352 c 2.316 86.898 2.629 87.43 3.082 87.602 c h
3.551 87.602 m 3.207 87.602 2.879 87.18 2.879 86.711 c 2.879 86.461 2.973
 86.242 3.145 86.055 c 3.426 85.773 4.035 85.57 4.676 85.57 c 5.676 85.57
 6.238 85.992 6.238 86.727 c 6.238 87.195 6.051 87.602 5.816 87.602 c h
3.551 87.602 m f
5.848 80.57 m 5.973 80.727 6.02 80.836 6.02 80.977 c 6.02 81.18 5.895 81.242
 5.504 81.242 c 3.754 81.242 l 3.285 81.242 3.02 81.289 2.816 81.414 c 2.488
 81.617 2.316 82.008 2.316 82.523 c 2.316 83.367 2.754 84.039 3.316 84.039
 c 3.52 84.039 3.707 83.867 3.707 83.648 c 3.707 83.43 3.52 83.242 3.332
 83.242 c 3.301 83.242 3.254 83.258 3.191 83.258 c 3.098 83.289 3.035 83.289
 2.973 83.289 c 2.723 83.289 2.535 83.008 2.535 82.648 c 2.535 82.211 2.785
 81.961 3.27 81.961 c 3.816 81.961 l 4.363 83.336 4.457 83.492 4.785 83.883
 c 4.973 84.086 5.27 84.211 5.566 84.211 c 6.129 84.211 6.535 83.82 6.535
 83.258 c 6.535 82.867 6.348 82.508 5.879 81.961 c 6.348 81.914 6.535 81.742
 6.535 81.383 c 6.535 81.07 6.426 80.883 6.082 80.57 c h
5.332 81.961 m 5.613 81.961 5.707 82.008 5.816 82.195 c 5.941 82.43 6.004
 82.664 6.004 82.852 c 6.004 83.164 5.707 83.414 5.316 83.414 c 5.285 83.414
 l 4.754 83.414 4.41 83.008 4.035 81.961 c h
5.332 81.961 m f
6.441 80.531 m 6.441 78.375 l 6.301 78.375 l 6.285 78.984 6.16 79.125 5.629
 79.141 c 3.613 79.141 l 3.332 79.141 2.879 78.766 2.879 78.516 c 2.879 
78.469 2.926 78.375 3.02 78.281 c 3.145 78.141 3.191 78.047 3.191 77.922
 c 3.191 77.703 3.035 77.578 2.785 77.578 c 2.488 77.578 2.316 77.766 2.316
 78.062 c 2.316 78.438 2.52 78.688 3.16 79.141 c 2.332 79.141 l 2.316 79.188
 l 2.52 79.688 2.645 80.016 2.801 80.516 c 2.941 80.516 l 2.91 80.391 2.91
 80.312 2.91 80.203 c 2.91 79.984 3.051 79.891 3.441 79.891 c 5.691 79.891
 l 6.16 79.922 6.207 79.969 6.301 80.531 c h
6.441 80.531 m f
94.875 217.066 m 94.219 217.504 93.953 217.723 93.609 218.145 c 92.984 
218.926 92.672 219.816 92.672 220.863 c 92.672 222.02 93 222.895 93.781 
223.801 c 94.156 224.238 94.391 224.426 94.859 224.723 c 94.953 224.566 
l 94.25 224.004 94 223.691 93.75 223.02 c 93.531 222.426 93.438 221.754 
93.438 220.848 c 93.438 219.895 93.547 219.16 93.797 218.613 c 94.047 218.051
 94.312 217.723 94.953 217.207 c h
94.875 217.066 m f
99.203 222.535 m 99.047 222.66 98.938 222.707 98.797 222.707 c 98.594 222.707
 98.531 222.582 98.531 222.191 c 98.531 220.441 l 98.531 219.973 98.484 
219.707 98.359 219.504 c 98.156 219.176 97.766 219.004 97.25 219.004 c 96.406
 219.004 95.734 219.441 95.734 220.004 c 95.734 220.207 95.906 220.395 96.125
 220.395 c 96.344 220.395 96.531 220.207 96.531 220.02 c 96.531 219.988 
96.516 219.941 96.516 219.879 c 96.484 219.785 96.484 219.723 96.484 219.66
 c 96.484 219.41 96.766 219.223 97.125 219.223 c 97.562 219.223 97.812 219.473
 97.812 219.957 c 97.812 220.504 l 96.438 221.051 96.281 221.145 95.891 
221.473 c 95.688 221.66 95.562 221.957 95.562 222.254 c 95.562 222.816 95.953
 223.223 96.516 223.223 c 96.906 223.223 97.266 223.035 97.812 222.566 c
 97.859 223.035 98.031 223.223 98.391 223.223 c 98.703 223.223 98.891 223.113
 99.203 222.77 c h
97.812 222.02 m 97.812 222.301 97.766 222.395 97.578 222.504 c 97.344 222.629
 97.109 222.691 96.922 222.691 c 96.609 222.691 96.359 222.395 96.359 222.004
 c 96.359 221.973 l 96.359 221.441 96.766 221.098 97.812 220.723 c h
97.812 222.02 m f
99.535 224.723 m 100.191 224.27 100.473 224.051 100.801 223.645 c 101.441
 222.863 101.754 221.957 101.754 220.91 c 101.754 219.77 101.41 218.895 
100.629 217.988 c 100.254 217.551 100.02 217.348 99.566 217.066 c 99.457
 217.207 l 100.176 217.77 100.41 218.082 100.66 218.754 c 100.879 219.363
 100.973 220.035 100.973 220.941 c 100.973 221.879 100.863 222.613 100.613
 223.16 c 100.379 223.723 100.098 224.051 99.457 224.566 c h
99.535 224.723 m f
1.13366 w
q 1 0 0 -1 0 0 cm
346.582 -161.738 m 345.676 -161.461 l 344.766 -161.145 l 343.859 -160.727
 l 342.051 -159.75 l 341.141 -159.191 l 340.234 -158.562 l 339.328 -157.938
 l 338.418 -157.238 l 337.508 -156.504 l 336.602 -155.738 l 335.695 -154.934
 l 334.789 -154.098 l 333.883 -153.227 l 332.977 -152.352 l 332.07 -151.445
 l 331.156 -150.504 l 330.25 -149.562 l 329.344 -148.582 l 328.438 -147.605
 l 327.527 -146.629 l 326.621 -145.582 l 325.719 -144.57 l 324.848 -143.523
 l 323.902 -142.512 l 322.996 -141.465 l 322.121 -140.418 l 319.402 -137.277
 l 318.496 -136.195 l 317.586 -135.148 l 316.68 -134.137 l 314.863 -132.043
 l 313.953 -131.031 l 312.141 -128.938 l 311.234 -127.961 l 309.422 -125.938
 l 308.516 -124.961 l 307.609 -123.949 l 306.695 -122.969 l 305.789 -122.027
 l 304.883 -121.051 l 302.164 -118.227 l 301.258 -117.281 l 300.348 -116.375
 l 299.441 -115.469 l 298.531 -114.527 l 297.625 -113.617 l 296.715 -112.711
 l 295.809 -111.77 l 294.902 -110.863 l 293.996 -109.953 l 293.09 -109.047
 l 292.184 -108.105 l 291.277 -107.199 l 290.371 -106.254 l 289.457 -105.312
 l 287.645 -103.359 l 286.738 -102.348 l 284.02 -99.207 l 283.109 -98.09
 l 281.293 -95.785 l 280.387 -94.566 l 279.477 -93.273 l 278.57 -91.949 
l 277.664 -90.586 l 276.758 -89.156 l 275.852 -87.656 l 274.945 -86.086 
l 274.039 -84.445 l 273.133 -82.703 l 272.219 -80.887 l 271.312 -78.969 
l 270.406 -76.945 l 269.5 -74.816 l 268.594 -72.547 l 267.688 -70.176 l 
266.781 -67.625 l 265.871 -64.941 l 264.965 -62.113 l 264.055 -59.113 l 
263.148 -55.938 l 262.238 -52.516 l 261.332 -48.922 l 260.426 -45.117 l 
259.52 -41.035 l 258.613 -36.711 l 257.707 -32.066 l 256.801 -27.148 l 255.895
 -21.914 l S Q
307 119.809 m 301.234 116.926 l 303.848 122.793 l 303.738 119.57 l f
q 1 0 0 -1 0 0 cm
346.609 -161.734 m 346.508 -161.699 l 346.266 -161.664 l 345.949 -161.559
 l 345.738 -161.523 l 345.703 -161.488 l 345.602 -161.457 l 344.875 -161.281
 l 344.766 -161.246 l 344.695 -161.211 l 343.965 -161.004 l 343.922 -160.988
 l 342.848 -160.68 m 342.129 -160.445 l 342.059 -160.414 l 341.984 -160.414
 l 341.219 -160.168 l 341.152 -160.168 l 341.086 -160.133 l 340.316 -159.891
 l 340.246 -159.891 l 340.184 -159.855 l 339.117 -159.523 m 338.508 -159.301
 l 338.441 -159.301 l 338.375 -159.266 l 337.605 -159.023 l 337.535 -158.988
 l 337.434 -158.988 l 336.703 -158.707 l 336.637 -158.676 l 336.527 -158.641
 l 336.477 -158.625 l 335.414 -158.281 m 334.898 -158.082 l 334.789 -158.082
 l 334.723 -158.047 l 333.992 -157.77 l 333.891 -157.734 l 333.816 -157.699
 l 333.051 -157.422 l 332.984 -157.422 l 332.914 -157.387 l 332.785 -157.34
 l 331.738 -156.941 m 331.246 -156.762 l 331.172 -156.727 l 331.105 -156.691
 l 330.34 -156.414 l 330.203 -156.344 l 329.434 -156.066 l 329.367 -156.031
 l 329.297 -155.996 l 329.129 -155.926 l 328.094 -155.5 m 327.629 -155.301
 l 327.562 -155.266 l 327.457 -155.23 l 326.723 -154.918 l 326.652 -154.883
 l 326.551 -154.852 l 325.824 -154.535 l 325.715 -154.504 l 325.645 -154.469
 l 325.516 -154.414 l 324.488 -153.965 m 324.012 -153.738 l 323.906 -153.703
 l 323.84 -153.668 l 323.078 -153.355 l 322.102 -152.867 l 322.035 -152.832
 l 321.945 -152.789 l 320.93 -152.316 m 320.363 -152.035 l 320.297 -152 
l 318.484 -151.094 l 318.418 -151.07 l 317.43 -150.547 m 316.746 -150.156
 l 316.68 -150.121 l 316.57 -150.086 l 315.848 -149.703 l 315.738 -149.668
 l 315.672 -149.602 l 314.98 -149.203 l 314.012 -148.652 m 313.934 -148.625
 l 313.863 -148.594 l 313.094 -148.141 l 313.027 -148.105 l 312.961 -148.035
 l 312.195 -147.617 l 312.121 -147.582 l 312.051 -147.516 l 311.598 -147.246
 l 310.656 -146.645 m 310.383 -146.473 l 310.312 -146.438 l 310.246 -146.367
 l 309.484 -145.879 l 309.41 -145.848 l 309.34 -145.812 l 308.578 -145.289
 l 308.512 -145.254 l 308.402 -145.219 l 308.301 -145.145 l 307.383 -144.508
 m 306.773 -144.074 l 306.703 -144.004 l 306.594 -143.969 l 305.867 -143.414
 l 305.766 -143.379 l 305.695 -143.309 l 305.109 -142.891 l 304.223 -142.215
 m 304.059 -142.09 l 303.953 -142.023 l 303.883 -141.988 l 303.121 -141.43
 l 302.984 -141.293 l 302.215 -140.699 l 302.145 -140.633 l 302.078 -140.562
 l 302.008 -140.508 l 301.137 -139.801 m 300.41 -139.207 l 300.34 -139.172
 l 300.266 -139.102 l 299.504 -138.441 l 299.367 -138.301 l 298.996 -137.996
 l 298.145 -137.27 m 297.695 -136.84 l 297.629 -136.773 l 297.52 -136.703
 l 296.789 -136.008 l 296.723 -135.938 l 296.621 -135.867 l 296.105 -135.352
 l 295.297 -134.582 m 294.984 -134.27 l 294.883 -134.199 l 294.809 -134.094
 l 294.426 -133.746 l 293.977 -133.297 l 293.91 -133.191 l 293.32 -132.605
 l 292.551 -131.793 m 292.238 -131.453 l 292.172 -131.383 l 292.102 -131.277
 l 291.715 -130.898 l 291.332 -130.48 l 291.266 -130.375 l 291.199 -130.305
 l 290.816 -129.855 l 290.684 -129.711 l 289.949 -128.863 m 289.906 -128.812
 l 289.527 -128.395 l 289.461 -128.289 l 289.391 -128.184 l 289.004 -127.734
 l 288.621 -127.316 l 288.551 -127.211 l 288.449 -127.109 l 288.152 -126.719
 l 287.453 -125.844 m 287.195 -125.508 l 286.816 -125.023 l 286.746 -124.918
 l 286.645 -124.812 l 286.258 -124.328 l 285.91 -123.805 l 285.809 -123.699
 l 285.754 -123.621 l 285.098 -122.715 m 285.008 -122.59 l 284.902 -122.449
 l 284.832 -122.344 l 284.449 -121.824 l 284.07 -121.301 l 284 -121.199 
l 283.934 -121.094 l 283.547 -120.535 l 283.473 -120.43 l 282.852 -119.496
 m 282.645 -119.18 l 282.258 -118.625 l 282.191 -118.484 l 282.121 -118.383
 l 281.738 -117.789 l 281.359 -117.199 l 281.324 -117.148 l 280.73 -116.199
 m 280.453 -115.738 l 280.383 -115.602 l 280.316 -115.496 l 279.551 -114.246
 l 279.477 -114.105 l 279.41 -114 l 279.293 -113.793 l 278.73 -112.824 m
 278.648 -112.68 l 278.578 -112.543 l 278.469 -112.402 l 277.738 -111.047
 l 277.672 -110.906 l 277.57 -110.77 l 277.367 -110.383 l 276.844 -109.391
 m 276.84 -109.379 l 276.766 -109.238 l 276.664 -109.098 l 275.934 -107.641
 l 275.832 -107.5 l 275.758 -107.328 l 275.551 -106.906 l 275.059 -105.898
 m 275.027 -105.832 l 274.926 -105.691 l 274.859 -105.52 l 274.094 -103.953
 l 274.02 -103.816 l 273.949 -103.641 l 273.828 -103.387 l 273.355 -102.371
 m 273.188 -102.008 l 273.121 -101.832 l 273.047 -101.66 l 272.281 -99.992
 l 272.215 -99.816 l 272.215 -99.812 l 271.773 -98.781 m 271.383 -97.871
 l 271.309 -97.66 l 271.238 -97.488 l 270.695 -96.195 l 270.281 -95.152 
m 269.57 -93.387 l 269.504 -93.176 l 269.434 -92.969 l 269.266 -92.543 l
 268.852 -91.5 m 268.664 -91.023 l 268.598 -90.812 l 268.492 -90.605 l 267.887
 -88.871 l 267.496 -87.824 m 266.859 -85.945 l 266.789 -85.738 l 266.688
 -85.492 l 266.578 -85.176 l 266.223 -84.113 m 265.953 -83.234 l 265.852
 -82.992 l 265.781 -82.746 l 265.402 -81.602 l 265.355 -81.449 l 265.023
 -80.379 m 264.949 -80.211 l 264.875 -79.934 l 264.496 -78.715 l 264.188
 -77.707 l 263.883 -76.629 m 263.594 -75.691 l 263.207 -74.402 l 263.137
 -74.125 l 263.094 -73.938 l 262.785 -72.863 m 262.688 -72.527 l 262.309
 -71.172 l 262.238 -70.895 l 262.164 -70.613 l 262.043 -70.16 l 261.75 -69.078
 m 261.398 -67.797 l 261.266 -67.172 l 261.055 -66.363 l 260.77 -65.281 
m 260.496 -64.254 l 260.355 -63.629 l 260.098 -62.559 l 259.828 -61.469 
m 259.598 -60.531 l 259.527 -60.184 l 259.418 -59.836 l 259.18 -58.746 l
 258.934 -57.652 m 258.688 -56.605 l 258.621 -56.258 l 258.52 -55.875 l 
258.305 -54.922 l 258.066 -53.824 m 257.789 -52.469 l 257.715 -52.121 l 
257.613 -51.738 l 257.477 -51.086 l 257.242 -49.992 m 257.23 -49.93 l 256.883
 -48.156 l 256.781 -47.773 l 256.781 -47.602 l 256.699 -47.246 l 256.48 
-46.148 m 256.359 -45.617 l 256.223 -44.891 l 256.086 -44.227 l 255.977 
-43.672 l 255.926 -43.398 l S Q
297.922 134.242 m 292.172 131.367 l 294.805 137.254 l 294.707 134.004 l
 f
1 g
348.215 161.699 m 348.215 160.836 347.516 160.137 346.652 160.137 c 345.789
 160.137 345.09 160.836 345.09 161.699 c 345.09 162.562 345.789 163.262 
346.652 163.262 c 347.516 163.262 348.215 162.562 348.215 161.699 c f
0 g
348.215 161.699 m 348.215 160.836 347.516 160.137 346.652 160.137 c 345.789
 160.137 345.09 160.836 345.09 161.699 c 345.09 162.562 345.789 163.262 
346.652 163.262 c 347.516 163.262 348.215 162.562 348.215 161.699 c h
348.215 161.699 m 348.059 161.699 l 348.059 160.922 347.43 160.293 346.652
 160.293 c 345.875 160.293 345.246 160.922 345.246 161.699 c 345.246 162.477
 345.875 163.105 346.652 163.105 c 347.43 163.105 348.059 162.477 348.059
 161.699 c f
1 g
257.414 21.996 m 257.414 21.133 256.715 20.434 255.852 20.434 c 254.988
 20.434 254.289 21.133 254.289 21.996 c 254.289 22.859 254.988 23.559 255.852
 23.559 c 256.715 23.559 257.414 22.859 257.414 21.996 c f
0 g
257.414 21.996 m 257.414 21.133 256.715 20.434 255.852 20.434 c 254.988
 20.434 254.289 21.133 254.289 21.996 c 254.289 22.859 254.988 23.559 255.852
 23.559 c 256.715 23.559 257.414 22.859 257.414 21.996 c h
257.414 21.996 m 257.258 21.996 l 257.258 21.219 256.629 20.59 255.852 
20.59 c 255.074 20.59 254.445 21.219 254.445 21.996 c 254.445 22.773 255.074
 23.402 255.852 23.402 c 256.629 23.402 257.258 22.773 257.258 21.996 c f
1 g
257.414 43.199 m 257.414 42.336 256.715 41.637 255.852 41.637 c 254.988
 41.637 254.289 42.336 254.289 43.199 c 254.289 44.062 254.988 44.762 255.852
 44.762 c 256.715 44.762 257.414 44.062 257.414 43.199 c f
0 g
257.414 43.199 m 257.414 42.336 256.715 41.637 255.852 41.637 c 254.988
 41.637 254.289 42.336 254.289 43.199 c 254.289 44.062 254.988 44.762 255.852
 44.762 c 256.715 44.762 257.414 44.062 257.414 43.199 c h
257.414 43.199 m 257.258 43.199 l 257.258 42.422 256.629 41.793 255.852
 41.793 c 255.074 41.793 254.445 42.422 254.445 43.199 c 254.445 43.977 
255.074 44.605 255.852 44.605 c 256.629 44.605 257.258 43.977 257.258 43.199
 c f
0.567041 w
q 1 0 0 -1 0 0 cm
210.547 -2.957 158.742 -181.43 re S Q
0.398507 w
q 1 0 0 -1 0 0 cm
210.551 -184.363 m 210.551 -180.121 l S Q
q 1 0 0 -1 0 0 cm
255.902 -184.363 m 255.902 -180.121 l S Q
q 1 0 0 -1 0 0 cm
301.262 -184.363 m 301.262 -180.121 l S Q
q 1 0 0 -1 0 0 cm
346.621 -184.363 m 346.621 -180.121 l S Q
q 1 0 0 -1 0 0 cm
210.551 -184.363 m 210.551 -180.121 l S Q
0.398506 w
q 1 0 0 -1 0 0 cm
210.555 -184.359 m 214.789 -184.359 l S Q
q 1 0 0 -1 0 0 cm
210.543 -139.012 m 214.781 -139.012 l S Q
0.398504 w
q 1 0 0 -1 0 0 cm
210.539 -93.668 m 214.777 -93.668 l S Q
0.398507 w
q 1 0 0 -1 0 0 cm
210.547 -48.305 m 214.785 -48.305 l S Q
0.398506 w
q 1 0 0 -1 0 0 cm
210.547 -2.957 m 214.777 -2.957 l S Q
q 1 0 0 -1 0 0 cm
210.555 -184.359 m 214.789 -184.359 l S Q
q 1 0 0 -1 0 0 cm
210.547 -2.957 m 210.547 -7.191 l S Q
q 1 0 0 -1 0 0 cm
255.883 -2.957 m 255.883 -7.191 l S Q
q 1 0 0 -1 0 0 cm
301.258 -2.957 m 301.258 -7.191 l S Q
q 1 0 0 -1 0 0 cm
346.602 -2.957 m 346.602 -7.191 l S Q
q 1 0 0 -1 0 0 cm
210.547 -2.957 m 210.547 -7.191 l S Q
q 1 0 0 -1 0 0 cm
369.305 -184.359 m 365.035 -184.359 l S Q
q 1 0 0 -1 0 0 cm
369.293 -139.012 m 365.02 -139.012 l S Q
0.398504 w
q 1 0 0 -1 0 0 cm
369.277 -93.668 m 365.039 -93.668 l S Q
0.398507 w
q 1 0 0 -1 0 0 cm
369.273 -48.305 m 365.039 -48.305 l S Q
0.398506 w
q 1 0 0 -1 0 0 cm
369.289 -2.957 m 365.016 -2.957 l S Q
q 1 0 0 -1 0 0 cm
369.305 -184.359 m 365.035 -184.359 l S Q
212.496 190.895 m 212.496 189.285 211.762 187.832 210.512 187.832 c 209.246
 187.832 208.512 189.285 208.512 190.895 c 208.512 192.52 209.199 193.957
 210.512 193.957 c 211.715 193.957 212.496 192.52 212.496 190.895 c h
211.637 190.895 m 211.637 192.191 211.512 193.707 210.512 193.707 c 209.559
 193.707 209.371 192.191 209.371 190.895 c 209.371 189.816 209.496 188.066
 210.512 188.066 c 211.512 188.066 211.637 189.816 211.637 190.895 c h
211.637 190.895 m f
252.219 190.895 m 252.219 189.285 251.484 187.832 250.234 187.832 c 248.969
 187.832 248.234 189.285 248.234 190.895 c 248.234 192.52 248.922 193.957
 250.234 193.957 c 251.438 193.957 252.219 192.52 252.219 190.895 c h
251.359 190.895 m 251.359 192.191 251.234 193.707 250.234 193.707 c 249.281
 193.707 249.094 192.191 249.094 190.895 c 249.094 189.816 249.219 188.066
 250.234 188.066 c 251.234 188.066 251.359 189.816 251.359 190.895 c h
251.359 190.895 m f
254.141 193.473 m 254.141 193.191 253.922 192.973 253.641 192.973 c 253.359
 192.973 253.141 193.191 253.141 193.473 c 253.141 193.754 253.359 193.973
 253.641 193.973 c 253.922 193.973 254.141 193.754 254.141 193.473 c h
254.141 193.473 m f
258.309 193.848 m 258.309 193.707 l 257.715 193.707 257.496 193.723 257.496
 192.551 c 257.496 192.535 257.496 187.801 257.496 187.801 c 257.371 187.801
 l 255.84 188.535 l 255.887 188.676 l 256.215 188.535 256.293 188.504 256.418
 188.504 c 256.684 188.504 256.73 188.738 256.73 189.051 c 256.73 192.551
 l 256.73 193.723 256.512 193.691 255.918 193.707 c 255.918 193.848 l h
258.309 193.848 m f
263.496 190.895 m 263.496 189.285 262.762 187.832 261.512 187.832 c 260.246
 187.832 259.512 189.285 259.512 190.895 c 259.512 192.52 260.199 193.957
 261.512 193.957 c 262.715 193.957 263.496 192.52 263.496 190.895 c h
262.637 190.895 m 262.637 192.191 262.512 193.707 261.512 193.707 c 260.559
 193.707 260.371 192.191 260.371 190.895 c 260.371 189.816 260.496 188.066
 261.512 188.066 c 262.512 188.066 262.637 189.816 262.637 190.895 c h
262.637 190.895 m f
297.578 190.895 m 297.578 189.285 296.844 187.832 295.594 187.832 c 294.328
 187.832 293.594 189.285 293.594 190.895 c 293.594 192.52 294.281 193.957
 295.594 193.957 c 296.797 193.957 297.578 192.52 297.578 190.895 c h
296.719 190.895 m 296.719 192.191 296.594 193.707 295.594 193.707 c 294.641
 193.707 294.453 192.191 294.453 190.895 c 294.453 189.816 294.578 188.066
 295.594 188.066 c 296.594 188.066 296.719 189.816 296.719 190.895 c h
296.719 190.895 m f
299.5 193.473 m 299.5 193.191 299.281 192.973 299 192.973 c 298.719 192.973
 298.5 193.191 298.5 193.473 c 298.5 193.754 298.719 193.973 299 193.973
 c 299.281 193.973 299.5 193.754 299.5 193.473 c h
299.5 193.473 m f
304.449 192.691 m 304.293 192.66 l 304.027 193.113 303.809 193.191 303.371
 193.191 c 301.309 193.191 l 302.73 191.895 304.027 190.723 304.027 189.41
 c 304.027 188.488 303.23 187.832 302.355 187.832 c 301.496 187.832 300.809
 188.301 300.543 189.52 c 300.746 189.52 l 300.996 189.02 301.34 188.504
 302.027 188.504 c 302.809 188.504 303.246 189.098 303.246 189.77 c 303.246
 190.738 302.215 192.16 300.449 193.707 c 300.449 193.848 l 303.98 193.848
 l h
304.449 192.691 m f
308.855 190.895 m 308.855 189.285 308.121 187.832 306.871 187.832 c 305.605
 187.832 304.871 189.285 304.871 190.895 c 304.871 192.52 305.559 193.957
 306.871 193.957 c 308.074 193.957 308.855 192.52 308.855 190.895 c h
307.996 190.895 m 307.996 192.191 307.871 193.707 306.871 193.707 c 305.918
 193.707 305.73 192.191 305.73 190.895 c 305.73 189.816 305.855 188.066 
306.871 188.066 c 307.871 188.066 307.996 189.816 307.996 190.895 c h
307.996 190.895 m f
342.938 190.895 m 342.938 189.285 342.203 187.832 340.953 187.832 c 339.688
 187.832 338.953 189.285 338.953 190.895 c 338.953 192.52 339.641 193.957
 340.953 193.957 c 342.156 193.957 342.938 192.52 342.938 190.895 c h
342.078 190.895 m 342.078 192.191 341.953 193.707 340.953 193.707 c 340
 193.707 339.812 192.191 339.812 190.895 c 339.812 189.816 339.938 188.066
 340.953 188.066 c 341.953 188.066 342.078 189.816 342.078 190.895 c h
342.078 190.895 m f
344.859 193.473 m 344.859 193.191 344.641 192.973 344.359 192.973 c 344.078
 192.973 343.859 193.191 343.859 193.473 c 343.859 193.754 344.078 193.973
 344.359 193.973 c 344.641 193.973 344.859 193.754 344.859 193.473 c h
344.859 193.473 m f
349.434 191.91 m 349.434 190.973 348.887 190.566 348.355 190.348 c 348.934
 189.91 349.121 189.504 349.121 189.02 c 349.121 188.504 348.699 187.832
 347.73 187.832 c 347.027 187.832 346.355 188.223 346.059 189.191 c 346.199
 189.223 l 346.387 188.863 346.746 188.41 347.402 188.41 c 348.043 188.41
 348.418 188.848 348.418 189.348 c 348.418 190.051 347.871 190.551 347.059
 190.738 c 347.043 190.926 l 348.434 190.863 348.777 191.77 348.777 192.332
 c 348.777 193.004 348.293 193.613 347.652 193.613 c 347.074 193.613 346.824
 193.113 346.34 193.113 c 346.184 193.113 345.996 193.27 345.996 193.473
 c 345.996 193.848 346.559 193.957 346.965 193.957 c 348.387 193.957 349.434
 193.145 349.434 191.91 c h
349.434 191.91 m f
354.215 190.895 m 354.215 189.285 353.48 187.832 352.23 187.832 c 350.965
 187.832 350.23 189.285 350.23 190.895 c 350.23 192.52 350.918 193.957 352.23
 193.957 c 353.434 193.957 354.215 192.52 354.215 190.895 c h
353.355 190.895 m 353.355 192.191 353.23 193.707 352.23 193.707 c 351.277
 193.707 351.09 192.191 351.09 190.895 c 351.09 189.816 351.215 188.066 
352.23 188.066 c 353.23 188.066 353.355 189.816 353.355 190.895 c h
353.355 190.895 m f
206.859 184.414 m 206.859 182.805 206.125 181.352 204.875 181.352 c 203.609
 181.352 202.875 182.805 202.875 184.414 c 202.875 186.039 203.562 187.477
 204.875 187.477 c 206.078 187.477 206.859 186.039 206.859 184.414 c h
206 184.414 m 206 185.711 205.875 187.227 204.875 187.227 c 203.922 187.227
 203.734 185.711 203.734 184.414 c 203.734 183.336 203.859 181.586 204.875
 181.586 c 205.875 181.586 206 183.336 206 184.414 c h
206 184.414 m f
206.891 140.852 m 206.734 140.82 l 206.469 141.273 206.25 141.352 205.812
 141.352 c 203.75 141.352 l 205.172 140.055 206.469 138.883 206.469 137.57
 c 206.469 136.648 205.672 135.992 204.797 135.992 c 203.938 135.992 203.25
 136.461 202.984 137.68 c 203.188 137.68 l 203.438 137.18 203.781 136.664
 204.469 136.664 c 205.25 136.664 205.688 137.258 205.688 137.93 c 205.688
 138.898 204.656 140.32 202.891 141.867 c 202.891 142.008 l 206.422 142.008
 l h
206.891 140.852 m f
206.875 95.164 m 206.875 94.555 l 206 94.555 l 206 90.633 l 205.562 90.633
 l 202.969 94.539 l 202.969 95.164 l 205.266 95.164 l 205.266 96.648 l 206
 96.648 l 206 95.164 l h
205.266 94.555 m 203.328 94.555 l 205.25 91.57 l 205.266 91.57 l h
205.266 94.555 m f
206.812 49.273 m 206.812 48.289 206.109 47.555 205.219 47.555 c 204.766
 47.555 204.391 47.695 204 48.008 c 204.391 46.414 205.562 45.414 206.688
 45.398 c 206.688 45.242 l 203.922 45.242 203.047 47.586 203.047 48.914 
c 203.047 50.336 203.875 51.398 204.984 51.398 c 206 51.398 206.812 50.445
 206.812 49.273 c h
206.047 49.727 m 206.047 50.555 205.672 51.133 205.078 51.133 c 204.156
 51.133 203.875 49.789 203.875 49.07 c 203.875 48.836 203.906 48.586 203.953
 48.289 c 204.344 48.039 204.656 47.93 204.969 47.93 c 205.875 47.93 206.047
 48.977 206.047 49.727 c h
206.047 49.727 m f
206.594 4.672 m 206.594 4.031 206.312 3.547 205.219 2.734 c 205.906 2.359
 206.438 1.938 206.438 1.281 c 206.438 0.594 205.797 0 204.844 0 c 204 0
 203.203 0.547 203.203 1.391 c 203.203 2.047 203.547 2.438 204.312 3.047
 c 203.453 3.703 203.141 4.031 203.141 4.703 c 203.141 5.453 203.812 6.156
 204.859 6.156 c 206.078 6.156 206.594 5.328 206.594 4.672 c h
205.828 1.266 m 205.828 1.906 205.453 2.25 204.969 2.578 c 204.375 2.156
 203.859 1.688 203.859 1.172 c 203.859 0.688 204.203 0.266 204.812 0.266
 c 205.484 0.266 205.828 0.688 205.828 1.266 c h
205.953 4.922 m 205.953 5.5 205.516 5.891 204.938 5.891 c 204.25 5.891 
203.812 5.344 203.812 4.609 c 203.812 3.938 204.141 3.547 204.547 3.203 
c 205.531 3.953 205.953 4.328 205.953 4.922 c h
205.953 4.922 m f
282.363 201.5 m 282.363 201.359 l 280.645 201.359 l 280.645 201.5 l 280.832
 201.5 281.145 201.578 281.145 201.828 c 281.145 202.047 280.926 202.406
 280.801 202.594 c 278.41 206.109 l 278.238 202.188 l 278.207 201.625 278.52
 201.5 279.004 201.5 c 279.004 201.359 l 276.691 201.359 l 276.691 201.5
 l 277.301 201.5 277.348 201.781 277.426 202.516 c 277.629 207.547 l 277.785
 207.547 l 281.41 202.219 l 281.582 202 281.973 201.5 282.363 201.5 c h
282.363 201.5 m f
286.02 200.969 m 285.582 200.969 l 282.473 209.328 l 282.926 209.328 l 
h
286.02 200.969 m f
292.52 206.891 m 292.395 206.891 292.348 206.891 292.316 206.891 c 292.004
 206.891 291.91 206.797 291.91 206.391 c 291.91 201.297 l 291.879 201.281
 l 291.457 201.422 291.145 201.516 290.551 201.672 c 290.551 201.812 l 290.629
 201.812 290.676 201.812 290.754 201.812 c 291.082 201.812 291.16 201.906
 291.16 202.266 c 291.16 203.672 l 290.816 203.375 290.582 203.281 290.223
 203.281 c 289.191 203.281 288.348 204.297 288.348 205.562 c 288.348 206.719
 289.02 207.5 290.02 207.5 c 290.52 207.5 290.863 207.312 291.16 206.891
 c 291.16 207.469 l 291.191 207.5 l 292.52 207.031 l h
291.16 206.484 m 291.16 206.547 291.098 206.656 291.004 206.766 c 290.863
 206.938 290.629 207.031 290.363 207.031 c 289.613 207.031 289.129 206.312
 289.129 205.203 c 289.129 204.203 289.566 203.531 290.254 203.531 c 290.738
 203.531 291.16 203.953 291.16 204.422 c h
291.16 206.484 m f
292.695 207.406 m 294.695 207.406 l 294.695 207.266 l 294.227 207.266 294.086
 207.172 294.086 206.812 c 294.086 204.281 l 294.086 204.266 294.148 204.172
 294.211 204.109 c 294.445 203.906 294.82 203.75 295.133 203.75 c 295.539
 203.75 295.727 204.062 295.727 204.688 c 295.727 206.641 l 295.711 207.141
 295.617 207.25 295.117 207.266 c 295.117 207.406 l 297.133 207.406 l 297.133
 207.266 l 296.633 207.266 296.508 207.125 296.477 206.547 c 296.477 204.297
 l 296.758 203.906 297.039 203.75 297.461 203.75 c 297.977 203.75 298.133
 203.984 298.133 204.734 c 298.133 206.625 l 298.117 207.156 298.055 207.219
 297.539 207.266 c 297.539 207.406 l 299.508 207.406 l 299.508 207.266 l
 299.273 207.25 l 298.992 207.203 298.883 207.078 298.883 206.719 c 298.883
 204.875 l 298.883 203.812 298.539 203.281 297.852 203.281 c 297.32 203.281
 296.867 203.516 296.383 204.031 c 296.227 203.516 295.914 203.281 295.43
 203.281 c 295.023 203.281 294.789 203.391 294.039 203.969 c 294.039 203.297
 l 293.977 203.281 l 293.508 203.453 293.195 203.547 292.727 203.688 c 292.727
 203.844 l 292.836 203.812 292.914 203.797 293.008 203.797 c 293.242 203.797
 293.32 203.938 293.32 204.375 c 293.32 206.641 l 293.305 207.141 293.195
 207.266 292.695 207.266 c h
292.695 207.406 m f
303.062 202.637 m 303.062 201.918 302.641 201.605 302.188 201.434 c 302.656
 201.105 302.812 200.793 302.812 200.418 c 302.812 200.012 302.438 199.465
 301.578 199.465 c 300.953 199.465 300.359 199.762 300.094 200.574 c 300.297
 200.621 l 300.453 200.34 300.766 199.996 301.297 199.996 c 301.812 199.996
 302.109 200.309 302.109 200.668 c 302.109 201.184 301.656 201.559 300.969
 201.715 c 300.938 201.918 l 302.141 201.871 302.422 202.559 302.422 202.965
 c 302.422 203.449 302.031 203.902 301.516 203.902 c 301.016 203.902 300.797
 203.512 300.391 203.512 c 300.219 203.512 300.047 203.652 300.047 203.84
 c 300.047 204.137 300.547 204.246 300.922 204.246 c 302.156 204.246 303.062
 203.59 303.062 202.637 c h
303.062 202.637 m f
196.281 104.426 m 195.578 104.426 195.109 104.738 195.109 105.41 c 195.109
 106.004 195.531 106.457 196.094 106.863 c 195.109 106.551 l 195.109 106.551
 195.344 107.754 195.359 108.02 c 195.516 108.02 l 195.516 107.691 195.484
 107.426 195.844 107.426 c 196.016 107.426 196.406 107.535 196.625 107.598
 c 200.359 108.66 l 200.703 108.754 200.953 108.91 200.953 109.348 c 201.109
 109.379 l 201.109 107.41 l 200.953 107.379 l 200.953 107.723 200.938 108.02
 200.688 108.02 c 200.609 108.02 200.516 108.004 200.344 107.957 c 199.094
 107.645 l 199.234 107.473 199.312 107.207 199.312 106.988 c 199.312 105.91
 197.781 104.426 196.281 104.426 c h
196.375 105.191 m 197.547 105.191 199.109 106.176 199.109 107.02 c 199.109
 107.223 199.031 107.41 198.859 107.582 c 198.062 107.379 195.531 106.832
 195.531 105.676 c 195.531 105.191 196.172 105.191 196.375 105.191 c h
196.375 105.191 m f
193.777 101.551 m 192.824 101.566 l 192.824 101.645 l 192.871 101.676 192.902
 101.723 192.902 101.754 c 192.902 101.801 192.887 101.863 192.855 101.941
 c 192.793 102.113 192.762 102.27 192.762 102.441 c 192.762 102.988 193.121
 103.379 193.621 103.379 c 194.012 103.379 194.293 103.16 194.621 102.566
 c 194.855 102.16 l 194.996 101.926 195.168 101.801 195.387 101.801 c 195.684
 101.801 195.887 102.02 195.887 102.379 c 195.887 102.863 195.621 103.098
 194.902 103.27 c 194.902 103.379 l 195.996 103.379 l 195.996 103.285 l 
195.918 103.238 195.902 103.207 195.902 103.129 c 195.902 103.051 195.918
 102.957 195.965 102.801 c 196.012 102.613 196.027 102.441 196.027 102.301
 c 196.027 101.754 195.637 101.316 195.137 101.316 c 194.793 101.316 194.559
 101.473 194.309 101.895 c 193.871 102.645 l 193.746 102.848 193.574 102.957
 193.387 102.957 c 193.105 102.957 192.918 102.738 192.918 102.41 c 192.918
 102.02 193.152 101.801 193.777 101.645 c h
193.777 101.551 m f
192.824 97.664 m 192.824 98.602 l 192.934 98.602 l 192.934 98.383 192.996
 98.273 193.105 98.273 c 193.137 98.273 193.184 98.273 193.23 98.305 c 195.152
 98.977 l 193.387 99.773 l 193.293 99.82 193.184 99.852 193.121 99.852 c
 192.996 99.852 192.949 99.742 192.934 99.445 c 192.824 99.445 l 192.824
 100.883 l 192.934 100.883 l 192.949 100.695 193.027 100.586 193.152 100.523
 c 194.871 99.727 l 195.059 99.648 195.059 99.633 195.121 99.602 c 195.48
 99.414 195.73 99.305 195.84 99.305 c 195.949 99.305 196.371 99.461 196.59
 99.57 c 196.762 99.68 196.902 99.82 196.902 99.93 c 196.902 99.961 196.887
 100.023 196.855 100.102 c 196.809 100.227 196.777 100.352 196.777 100.461
 c 196.777 100.633 196.902 100.773 197.074 100.773 c 197.309 100.773 197.48
 100.555 197.48 100.258 c 197.48 99.773 197.105 99.461 196.09 99.07 c 193.246
 98.008 l 193.027 97.914 192.949 97.836 192.934 97.664 c h
192.824 97.664 m f
193.777 95.309 m 192.824 95.324 l 192.824 95.402 l 192.871 95.434 192.902
 95.48 192.902 95.512 c 192.902 95.559 192.887 95.621 192.855 95.699 c 192.793
 95.871 192.762 96.027 192.762 96.199 c 192.762 96.746 193.121 97.137 193.621
 97.137 c 194.012 97.137 194.293 96.918 194.621 96.324 c 194.855 95.918 
l 194.996 95.684 195.168 95.559 195.387 95.559 c 195.684 95.559 195.887 
95.777 195.887 96.137 c 195.887 96.621 195.621 96.855 194.902 97.027 c 194.902
 97.137 l 195.996 97.137 l 195.996 97.043 l 195.918 96.996 195.902 96.965
 195.902 96.887 c 195.902 96.809 195.918 96.715 195.965 96.559 c 196.012
 96.371 196.027 96.199 196.027 96.059 c 196.027 95.512 195.637 95.074 195.137
 95.074 c 194.793 95.074 194.559 95.23 194.309 95.652 c 193.871 96.402 l
 193.746 96.605 193.574 96.715 193.387 96.715 c 193.105 96.715 192.918 96.496
 192.918 96.168 c 192.918 95.777 193.152 95.559 193.777 95.402 c h
193.777 95.309 m f
193.141 90.359 m 193.141 90.969 l 199.328 93.016 l 199.328 92.406 l h
193.141 90.359 m f
193.094 87.602 m 193.078 87.648 l 193.203 88.023 193.281 88.258 193.406
 88.695 c 193.469 88.945 l 193.609 88.945 l 193.609 88.898 193.609 88.867
 193.609 88.805 c 193.609 88.445 193.688 88.352 194.062 88.352 c 198.719
 88.352 l 199 88.352 199.297 87.602 199.297 86.883 c 199.297 85.695 198.312
 84.773 197.031 84.773 c 195.906 84.773 195.078 85.461 195.078 86.352 c 
195.078 86.898 195.391 87.43 195.844 87.602 c h
196.312 87.602 m 195.969 87.602 195.641 87.18 195.641 86.711 c 195.641 
86.461 195.734 86.242 195.906 86.055 c 196.188 85.773 196.797 85.57 197.438
 85.57 c 198.438 85.57 199 85.992 199 86.727 c 199 87.195 198.812 87.602
 198.578 87.602 c h
196.312 87.602 m f
198.609 80.57 m 198.734 80.727 198.781 80.836 198.781 80.977 c 198.781 
81.18 198.656 81.242 198.266 81.242 c 196.516 81.242 l 196.047 81.242 195.781
 81.289 195.578 81.414 c 195.25 81.617 195.078 82.008 195.078 82.523 c 195.078
 83.367 195.516 84.039 196.078 84.039 c 196.281 84.039 196.469 83.867 196.469
 83.648 c 196.469 83.43 196.281 83.242 196.094 83.242 c 196.062 83.242 196.016
 83.258 195.953 83.258 c 195.859 83.289 195.797 83.289 195.734 83.289 c 
195.484 83.289 195.297 83.008 195.297 82.648 c 195.297 82.211 195.547 81.961
 196.031 81.961 c 196.578 81.961 l 197.125 83.336 197.219 83.492 197.547
 83.883 c 197.734 84.086 198.031 84.211 198.328 84.211 c 198.891 84.211 
199.297 83.82 199.297 83.258 c 199.297 82.867 199.109 82.508 198.641 81.961
 c 199.109 81.914 199.297 81.742 199.297 81.383 c 199.297 81.07 199.188 
80.883 198.844 80.57 c h
198.094 81.961 m 198.375 81.961 198.469 82.008 198.578 82.195 c 198.703
 82.43 198.766 82.664 198.766 82.852 c 198.766 83.164 198.469 83.414 198.078
 83.414 c 198.047 83.414 l 197.516 83.414 197.172 83.008 196.797 81.961 
c h
198.094 81.961 m f
199.203 80.531 m 199.203 78.375 l 199.062 78.375 l 199.047 78.984 198.922
 79.125 198.391 79.141 c 196.375 79.141 l 196.094 79.141 195.641 78.766 
195.641 78.516 c 195.641 78.469 195.688 78.375 195.781 78.281 c 195.906 
78.141 195.953 78.047 195.953 77.922 c 195.953 77.703 195.797 77.578 195.547
 77.578 c 195.25 77.578 195.078 77.766 195.078 78.062 c 195.078 78.438 195.281
 78.688 195.922 79.141 c 195.094 79.141 l 195.078 79.188 l 195.281 79.688
 195.406 80.016 195.562 80.516 c 195.703 80.516 l 195.672 80.391 195.672
 80.312 195.672 80.203 c 195.672 79.984 195.812 79.891 196.203 79.891 c 
198.453 79.891 l 198.922 79.922 198.969 79.969 199.062 80.531 c h
199.203 80.531 m f
287.273 217.066 m 286.617 217.504 286.352 217.723 286.008 218.145 c 285.383
 218.926 285.07 219.816 285.07 220.863 c 285.07 222.02 285.398 222.895 286.18
 223.801 c 286.555 224.238 286.789 224.426 287.258 224.723 c 287.352 224.566
 l 286.648 224.004 286.398 223.691 286.148 223.02 c 285.93 222.426 285.836
 221.754 285.836 220.848 c 285.836 219.895 285.945 219.16 286.195 218.613
 c 286.445 218.051 286.711 217.723 287.352 217.207 c h
287.273 217.066 m f
289.008 217.02 m 288.961 217.004 l 288.586 217.129 288.352 217.207 287.914
 217.332 c 287.664 217.395 l 287.664 217.535 l 287.711 217.535 287.742 217.535
 287.805 217.535 c 288.164 217.535 288.258 217.613 288.258 217.988 c 288.258
 222.645 l 288.258 222.926 289.008 223.223 289.727 223.223 c 290.914 223.223
 291.836 222.238 291.836 220.957 c 291.836 219.832 291.148 219.004 290.258
 219.004 c 289.711 219.004 289.18 219.316 289.008 219.77 c h
289.008 220.238 m 289.008 219.895 289.43 219.566 289.898 219.566 c 290.148
 219.566 290.367 219.66 290.555 219.832 c 290.836 220.113 291.039 220.723
 291.039 221.363 c 291.039 222.363 290.617 222.926 289.883 222.926 c 289.414
 222.926 289.008 222.738 289.008 222.504 c h
289.008 220.238 m f
292.418 224.723 m 293.074 224.27 293.355 224.051 293.684 223.645 c 294.324
 222.863 294.637 221.957 294.637 220.91 c 294.637 219.77 294.293 218.895
 293.512 217.988 c 293.137 217.551 292.902 217.348 292.449 217.066 c 292.34
 217.207 l 293.059 217.77 293.293 218.082 293.543 218.754 c 293.762 219.363
 293.855 220.035 293.855 220.941 c 293.855 221.879 293.746 222.613 293.496
 223.16 c 293.262 223.723 292.98 224.051 292.34 224.566 c h
292.418 224.723 m f
Q Q
showpage
%%Trailer
end
%%EOF
