%!PS-Adobe-3.0 EPSF-3.0
%%Creator: cairo 1.17.4 (https://cairographics.org)
%%CreationDate: Thu Feb 24 10:47:19 2022
%%Pages: 1
%%DocumentData: Clean7Bit
%%LanguageLevel: 2
%%BoundingBox: 0 0 125 140
%%EndComments
%%BeginProlog
50 dict begin
/q { gsave } bind def
/Q { grestore } bind def
/cm { 6 array astore concat } bind def
/w { setlinewidth } bind def
/J { setlinecap } bind def
/j { setlinejoin } bind def
/M { setmiterlimit } bind def
/d { setdash } bind def
/m { moveto } bind def
/l { lineto } bind def
/c { curveto } bind def
/h { closepath } bind def
/re { exch dup neg 3 1 roll 5 3 roll moveto 0 rlineto
      0 exch rlineto 0 rlineto closepath } bind def
/S { stroke } bind def
/f { fill } bind def
/f* { eofill } bind def
/n { newpath } bind def
/W { clip } bind def
/W* { eoclip } bind def
/BT { } bind def
/ET { } bind def
/BDC { mark 3 1 roll /BDC pdfmark } bind def
/EMC { mark /EMC pdfmark } bind def
/cairo_store_point { /cairo_point_y exch def /cairo_point_x exch def } def
/Tj { show currentpoint cairo_store_point } bind def
/TJ {
  {
    dup
    type /stringtype eq
    { show } { -0.001 mul 0 cairo_font_matrix dtransform rmoveto } ifelse
  } forall
  currentpoint cairo_store_point
} bind def
/cairo_selectfont { cairo_font_matrix aload pop pop pop 0 0 6 array astore
    cairo_font exch selectfont cairo_point_x cairo_point_y moveto } bind def
/Tf { pop /cairo_font exch def /cairo_font_matrix where
      { pop cairo_selectfont } if } bind def
/Td { matrix translate cairo_font_matrix matrix concatmatrix dup
      /cairo_font_matrix exch def dup 4 get exch 5 get cairo_store_point
      /cairo_font where { pop cairo_selectfont } if } bind def
/Tm { 2 copy 8 2 roll 6 array astore /cairo_font_matrix exch def
      cairo_store_point /cairo_font where { pop cairo_selectfont } if } bind def
/g { setgray } bind def
/rg { setrgbcolor } bind def
/d1 { setcachedevice } bind def
/cairo_data_source {
  CairoDataIndex CairoData length lt
    { CairoData CairoDataIndex get /CairoDataIndex CairoDataIndex 1 add def }
    { () } ifelse
} def
/cairo_flush_ascii85_file { cairo_ascii85_file status { cairo_ascii85_file flushfile } if } def
/cairo_image { image cairo_flush_ascii85_file } def
/cairo_imagemask { imagemask cairo_flush_ascii85_file } def
%%EndProlog
%%BeginSetup
%%EndSetup
%%Page: 1 1
%%BeginPageSetup
%%PageBoundingBox: 0 0 125 140
%%EndPageSetup
q 0 0 125 140 rectclip
1 0 0 -1 0 140 cm q
0.74902 0.831373 0.901961 rg
5.332 87.816 m 5.332 137.703 l 101.707 137.703 l 101.707 37.926 l 5.332
 37.926 l f
Q q
101.707 82.305 m 103.406 82.305 l 103.406 137.703 l 101.707 137.703 l h
48.918 137.703 m 103.406 137.703 l 103.406 139.406 l 48.918 139.406 l h
48.918 137.703 m W n
q
48 82 56 58 re W n
  q
0 g
0.283298 w
2 J
0 j
[] 0.0 d
10 M q 1 0 0 -1 0 0 cm
158.469 -86.754 m 53.023 -192.199 l S Q
  Q
Q
Q q
101.707 80.305 m 103.406 80.305 l 103.406 137.703 l 101.707 137.703 l h
46.918 137.703 m 103.406 137.703 l 103.406 139.406 l 46.918 139.406 l h
46.918 137.703 m W n
q
46 80 58 60 re W n
  q
0 g
0.283298 w
2 J
0 j
[] 0.0 d
10 M q 1 0 0 -1 0 0 cm
156.668 -84.953 m 51.223 -190.402 l S Q
  Q
Q
Q q
101.707 78.305 m 103.406 78.305 l 103.406 137.703 l 101.707 137.703 l h
44.918 137.703 m 103.406 137.703 l 103.406 139.406 l 44.918 139.406 l h
44.918 137.703 m W n
q
44 78 60 62 re W n
  q
0 g
0.283298 w
2 J
0 j
[] 0.0 d
10 M q 1 0 0 -1 0 0 cm
154.867 -83.152 m 49.422 -188.602 l S Q
  Q
Q
Q q
101.707 77.305 m 103.406 77.305 l 103.406 137.703 l 101.707 137.703 l h
42.918 137.703 m 103.406 137.703 l 103.406 139.406 l 42.918 139.406 l h
42.918 137.703 m W n
q
42 77 62 63 re W n
  q
0 g
0.283298 w
2 J
0 j
[] 0.0 d
10 M q 1 0 0 -1 0 0 cm
153.07 -81.352 m 47.621 -186.801 l S Q
  Q
Q
Q q
101.707 75.305 m 103.406 75.305 l 103.406 137.703 l 101.707 137.703 l h
40.918 137.703 m 103.406 137.703 l 103.406 139.406 l 40.918 139.406 l h
40.918 137.703 m W n
q
40 75 64 65 re W n
  q
0 g
0.283298 w
2 J
0 j
[] 0.0 d
10 M q 1 0 0 -1 0 0 cm
151.27 -79.551 m 45.82 -185 l S Q
  Q
Q
Q q
101.707 73.305 m 103.406 73.305 l 103.406 137.703 l 101.707 137.703 l h
39.918 137.703 m 103.406 137.703 l 103.406 139.406 l 39.918 139.406 l h
39.918 137.703 m W n
q
39 73 65 67 re W n
  q
0 g
0.283298 w
2 J
0 j
[] 0.0 d
10 M q 1 0 0 -1 0 0 cm
149.469 -77.754 m 44.023 -183.199 l S Q
  Q
Q
Q q
101.707 71.305 m 103.406 71.305 l 103.406 137.703 l 101.707 137.703 l h
37.918 137.703 m 103.406 137.703 l 103.406 139.406 l 37.918 139.406 l h
37.918 137.703 m W n
q
37 71 67 69 re W n
  q
0 g
0.283298 w
2 J
0 j
[] 0.0 d
10 M q 1 0 0 -1 0 0 cm
147.668 -75.953 m 42.223 -181.402 l S Q
  Q
Q
Q q
101.707 69.305 m 103.406 69.305 l 103.406 137.703 l 101.707 137.703 l h
35.918 137.703 m 103.406 137.703 l 103.406 139.406 l 35.918 139.406 l h
35.918 137.703 m W n
q
35 69 69 71 re W n
  q
0 g
0.283298 w
2 J
0 j
[] 0.0 d
10 M q 1 0 0 -1 0 0 cm
145.867 -74.152 m 40.422 -179.602 l S Q
  Q
Q
Q q
101.707 68.305 m 103.406 68.305 l 103.406 137.703 l 101.707 137.703 l h
33.918 137.703 m 103.406 137.703 l 103.406 139.406 l 33.918 139.406 l h
33.918 137.703 m W n
q
33 68 71 72 re W n
  q
0 g
0.283298 w
2 J
0 j
[] 0.0 d
10 M q 1 0 0 -1 0 0 cm
144.07 -72.352 m 38.621 -177.801 l S Q
  Q
Q
Q q
101.707 66.305 m 103.406 66.305 l 103.406 137.703 l 101.707 137.703 l h
31.918 137.703 m 103.406 137.703 l 103.406 139.406 l 31.918 139.406 l h
31.918 137.703 m W n
q
31 66 73 74 re W n
  q
0 g
0.283298 w
2 J
0 j
[] 0.0 d
10 M q 1 0 0 -1 0 0 cm
142.27 -70.551 m 36.82 -176 l S Q
  Q
Q
Q q
101.707 64.305 m 103.406 64.305 l 103.406 137.703 l 101.707 137.703 l h
30.918 137.703 m 103.406 137.703 l 103.406 139.406 l 30.918 139.406 l h
30.918 137.703 m W n
q
30 64 74 76 re W n
  q
0 g
0.283298 w
2 J
0 j
[] 0.0 d
10 M q 1 0 0 -1 0 0 cm
140.469 -68.754 m 35.023 -174.199 l S Q
  Q
Q
Q q
101.707 62.305 m 103.406 62.305 l 103.406 137.703 l 101.707 137.703 l h
28.918 137.703 m 103.406 137.703 l 103.406 139.406 l 28.918 139.406 l h
28.918 137.703 m W n
q
28 62 76 78 re W n
  q
0 g
0.283298 w
2 J
0 j
[] 0.0 d
10 M q 1 0 0 -1 0 0 cm
138.668 -66.953 m 33.223 -172.402 l S Q
  Q
Q
Q q
101.707 60.305 m 103.406 60.305 l 103.406 137.703 l 101.707 137.703 l h
26.918 137.703 m 103.406 137.703 l 103.406 139.406 l 26.918 139.406 l h
26.918 137.703 m W n
q
26 60 78 80 re W n
  q
0 g
0.283298 w
2 J
0 j
[] 0.0 d
10 M q 1 0 0 -1 0 0 cm
136.867 -65.152 m 31.422 -170.602 l S Q
  Q
Q
Q q
101.707 59.305 m 103.406 59.305 l 103.406 137.703 l 101.707 137.703 l h
24.918 137.703 m 103.406 137.703 l 103.406 139.406 l 24.918 139.406 l h
24.918 137.703 m W n
q
24 59 80 81 re W n
  q
0 g
0.283298 w
2 J
0 j
[] 0.0 d
10 M q 1 0 0 -1 0 0 cm
135.07 -63.352 m 29.621 -168.801 l S Q
  Q
Q
Q q
101.707 57.305 m 103.406 57.305 l 103.406 137.703 l 101.707 137.703 l h
22.918 137.703 m 103.406 137.703 l 103.406 139.406 l 22.918 139.406 l h
22.918 137.703 m W n
q
22 57 82 83 re W n
  q
0 g
0.283298 w
2 J
0 j
[] 0.0 d
10 M q 1 0 0 -1 0 0 cm
133.27 -61.551 m 27.82 -167 l S Q
  Q
Q
Q q
101.707 55.305 m 103.406 55.305 l 103.406 137.703 l 101.707 137.703 l h
21.918 137.703 m 103.406 137.703 l 103.406 139.406 l 21.918 139.406 l h
21.918 137.703 m W n
q
21 55 83 85 re W n
  q
0 g
0.283298 w
2 J
0 j
[] 0.0 d
10 M q 1 0 0 -1 0 0 cm
131.469 -59.754 m 26.023 -165.199 l S Q
  Q
Q
Q q
101.707 53.305 m 103.406 53.305 l 103.406 137.703 l 101.707 137.703 l h
19.918 137.703 m 103.406 137.703 l 103.406 139.406 l 19.918 139.406 l h
19.918 137.703 m W n
q
19 53 85 87 re W n
  q
0 g
0.283298 w
2 J
0 j
[] 0.0 d
10 M q 1 0 0 -1 0 0 cm
129.668 -57.953 m 24.223 -163.402 l S Q
  Q
Q
Q q
101.707 51.305 m 103.406 51.305 l 103.406 137.703 l 101.707 137.703 l h
17.918 137.703 m 103.406 137.703 l 103.406 139.406 l 17.918 139.406 l h
17.918 137.703 m W n
q
17 51 87 89 re W n
  q
0 g
0.283298 w
2 J
0 j
[] 0.0 d
10 M q 1 0 0 -1 0 0 cm
127.867 -56.152 m 22.422 -161.602 l S Q
  Q
Q
Q q
101.707 50.305 m 103.406 50.305 l 103.406 137.703 l 101.707 137.703 l h
15.918 137.703 m 103.406 137.703 l 103.406 139.406 l 15.918 139.406 l h
15.918 137.703 m W n
q
15 50 89 90 re W n
  q
0 g
0.283298 w
2 J
0 j
[] 0.0 d
10 M q 1 0 0 -1 0 0 cm
126.07 -54.352 m 20.621 -159.801 l S Q
  Q
Q
Q q
101.707 48.305 m 103.406 48.305 l 103.406 137.703 l 101.707 137.703 l h
13.918 137.703 m 103.406 137.703 l 103.406 139.406 l 13.918 139.406 l h
13.918 137.703 m W n
q
13 48 91 92 re W n
  q
0 g
0.283298 w
2 J
0 j
[] 0.0 d
10 M q 1 0 0 -1 0 0 cm
124.27 -52.551 m 18.82 -158 l S Q
  Q
Q
Q q
101.707 46.305 m 103.406 46.305 l 103.406 137.703 l 101.707 137.703 l h
12.918 137.703 m 103.406 137.703 l 103.406 139.406 l 12.918 139.406 l h
12.918 137.703 m W n
q
12 46 92 94 re W n
  q
0 g
0.283298 w
2 J
0 j
[] 0.0 d
10 M q 1 0 0 -1 0 0 cm
122.469 -50.754 m 17.023 -156.199 l S Q
  Q
Q
Q q
101.707 44.305 m 103.406 44.305 l 103.406 137.703 l 101.707 137.703 l h
10.918 137.703 m 103.406 137.703 l 103.406 139.406 l 10.918 139.406 l h
10.918 137.703 m W n
q
10 44 94 96 re W n
  q
0 g
0.283298 w
2 J
0 j
[] 0.0 d
10 M q 1 0 0 -1 0 0 cm
120.668 -48.953 m 15.223 -154.402 l S Q
  Q
Q
Q q
101.707 42.305 m 103.406 42.305 l 103.406 137.703 l 101.707 137.703 l h
8.918 137.703 m 103.406 137.703 l 103.406 139.406 l 8.918 139.406 l h
8.918 137.703 m W n
q
8 42 96 98 re W n
  q
0 g
0.283298 w
2 J
0 j
[] 0.0 d
10 M q 1 0 0 -1 0 0 cm
118.867 -47.152 m 13.422 -152.602 l S Q
  Q
Q
Q q
101.707 41.305 m 103.406 41.305 l 103.406 137.703 l 101.707 137.703 l h
6.918 137.703 m 103.406 137.703 l 103.406 139.406 l 6.918 139.406 l h
6.918 137.703 m W n
q
6 41 98 99 re W n
  q
0 g
0.283298 w
2 J
0 j
[] 0.0 d
10 M q 1 0 0 -1 0 0 cm
117.07 -45.352 m 11.621 -150.801 l S Q
  Q
Q
Q q
101.707 39.305 m 103.406 39.305 l 103.406 137.703 l 101.707 137.703 l h
4.918 39.305 m 5.332 39.305 l 5.332 137.703 l 4.918 137.703 l h
4.918 137.703 m 103.406 137.703 l 103.406 139.406 l 4.918 139.406 l h
4.918 137.703 m W n
q
4 39 100 101 re W n
  q
0 g
0.283298 w
2 J
0 j
[] 0.0 d
10 M q 1 0 0 -1 0 0 cm
115.27 -43.551 m 9.82 -149 l S Q
  Q
Q
Q q
3.918 37.305 m 5.332 37.305 l 5.332 37.359 l 3.918 37.359 l h
101.707 37.305 m 106.809 37.305 l 106.809 37.359 l 101.707 37.359 l h
101.707 37.359 m 103.406 37.359 l 103.406 137.703 l 101.707 137.703 l h
3.918 37.359 m 5.332 37.359 l 5.332 137.703 l 3.918 137.703 l h
3.918 137.703 m 103.406 137.703 l 103.406 139.406 l 3.918 139.406 l h
3.918 137.703 m W n
q
3 37 104 103 re W n
  q
0 g
0.283298 w
2 J
0 j
[] 0.0 d
10 M q 1 0 0 -1 0 0 cm
113.469 -41.754 m 8.023 -147.199 l S Q
  Q
Q
Q q
1.918 35.305 m 5.332 35.305 l 5.332 37.359 l 1.918 37.359 l h
101.707 35.305 m 106.809 35.305 l 106.809 37.359 l 101.707 37.359 l h
101.707 37.359 m 103.406 37.359 l 103.406 137.703 l 101.707 137.703 l h
3.629 37.359 m 5.332 37.359 l 5.332 137.703 l 3.629 137.703 l h
3.629 137.703 m 103.406 137.703 l 103.406 139.406 l 3.629 139.406 l h
3.629 137.703 m W n
q
1 35 106 105 re W n
  q
0 g
0.283298 w
2 J
0 j
[] 0.0 d
10 M q 1 0 0 -1 0 0 cm
111.668 -39.953 m 6.223 -145.402 l S Q
  Q
Q
Q q
0.227 35.09 m 5.332 35.09 l 5.332 37.359 l 0.227 37.359 l h
101.707 35.09 m 106.809 35.09 l 106.809 37.359 l 101.707 37.359 l h
101.707 37.359 m 103.406 37.359 l 103.406 137.703 l 101.707 137.703 l h
3.629 37.359 m 5.332 37.359 l 5.332 137.703 l 3.629 137.703 l h
3.629 137.703 m 103.406 137.703 l 103.406 139.406 l 3.629 139.406 l h
3.629 137.703 m W n
q
0 35 107 105 re W n
  q
0 g
0.283298 w
2 J
0 j
[] 0.0 d
10 M q 1 0 0 -1 0 0 cm
109.867 -38.152 m 4.422 -143.602 l S Q
q 1 0 0 -1 0 0 cm
108.07 -36.352 m 2.621 -141.801 l S Q
q 1 0 0 -1 0 0 cm
106.27 -34.551 m 0.82 -140 l S Q
q 1 0 0 -1 0 0 cm
104.469 -32.754 m -0.977 -138.199 l S Q
q 1 0 0 -1 0 0 cm
102.668 -30.953 m -2.777 -136.402 l S Q
  Q
Q
Q q
0.227 35.09 m 5.332 35.09 l 5.332 37.359 l 0.227 37.359 l h
101.707 35.09 m 104.918 35.09 l 104.918 37.359 l 101.707 37.359 l h
101.707 37.359 m 103.406 37.359 l 103.406 137.703 l 101.707 137.703 l h
3.629 37.359 m 5.332 37.359 l 5.332 137.703 l 3.629 137.703 l h
3.629 137.703 m 103.406 137.703 l 103.406 139.305 l 3.629 139.305 l h
3.629 137.703 m W n
q
0 35 105 105 re W n
  q
0 g
0.283298 w
2 J
0 j
[] 0.0 d
10 M q 1 0 0 -1 0 0 cm
100.867 -29.152 m -4.578 -134.602 l S Q
  Q
Q
Q q
101.707 35.09 m 103.918 35.09 l 103.918 37.359 l 101.707 37.359 l h
0.227 35.09 m 5.332 35.09 l 5.332 37.359 l 0.227 37.359 l h
3.629 37.359 m 5.332 37.359 l 5.332 137.305 l 3.629 137.305 l h
101.707 37.359 m 103.406 37.359 l 103.406 137.305 l 101.707 137.305 l h
101.707 37.359 m W n
q
0 35 104 103 re W n
  q
0 g
0.283298 w
2 J
0 j
[] 0.0 d
10 M q 1 0 0 -1 0 0 cm
99.07 -27.352 m -6.379 -132.801 l S Q
  Q
Q
Q q
101.707 35.09 m 101.918 35.09 l 101.918 37.359 l 101.707 37.359 l h
0.227 35.09 m 5.332 35.09 l 5.332 37.359 l 0.227 37.359 l h
3.629 37.359 m 5.332 37.359 l 5.332 135.305 l 3.629 135.305 l h
101.707 37.359 m 101.918 37.359 l 101.918 135.305 l 101.707 135.305 l h
101.707 37.359 m W n
q
0 35 102 101 re W n
  q
0 g
0.283298 w
2 J
0 j
[] 0.0 d
10 M q 1 0 0 -1 0 0 cm
97.27 -25.551 m -8.18 -131 l S Q
  Q
Q
Q q
0.227 35.09 m 5.332 35.09 l 5.332 37.359 l 0.227 37.359 l h
3.629 37.359 m 5.332 37.359 l 5.332 133.305 l 3.629 133.305 l h
3.629 37.359 m W n
q
0 35 6 99 re W n
  q
0 g
0.283298 w
2 J
0 j
[] 0.0 d
10 M q 1 0 0 -1 0 0 cm
95.469 -23.754 m -9.977 -129.199 l S Q
  Q
Q
Q q
0.227 35.09 m 5.332 35.09 l 5.332 37.359 l 0.227 37.359 l h
3.629 37.359 m 5.332 37.359 l 5.332 132.305 l 3.629 132.305 l h
3.629 37.359 m W n
q
0 35 6 98 re W n
  q
0 g
0.283298 w
2 J
0 j
[] 0.0 d
10 M q 1 0 0 -1 0 0 cm
93.668 -21.953 m -11.777 -127.402 l S Q
  Q
Q
Q q
0.227 35.09 m 5.332 35.09 l 5.332 37.359 l 0.227 37.359 l h
3.629 37.359 m 5.332 37.359 l 5.332 130.305 l 3.629 130.305 l h
3.629 37.359 m W n
q
0 35 6 96 re W n
  q
0 g
0.283298 w
2 J
0 j
[] 0.0 d
10 M q 1 0 0 -1 0 0 cm
91.871 -20.152 m -13.578 -125.602 l S Q
  Q
Q
Q q
0.227 35.09 m 5.332 35.09 l 5.332 37.359 l 0.227 37.359 l h
3.629 37.359 m 5.332 37.359 l 5.332 128.305 l 3.629 128.305 l h
3.629 37.359 m W n
q
0 35 6 94 re W n
  q
0 g
0.283298 w
2 J
0 j
[] 0.0 d
10 M q 1 0 0 -1 0 0 cm
90.07 -18.352 m -15.379 -123.801 l S Q
  Q
Q
Q q
0.227 35.09 m 5.332 35.09 l 5.332 37.359 l 0.227 37.359 l h
3.629 37.359 m 5.332 37.359 l 5.332 126.305 l 3.629 126.305 l h
3.629 37.359 m W n
q
0 35 6 92 re W n
  q
0 g
0.283298 w
2 J
0 j
[] 0.0 d
10 M q 1 0 0 -1 0 0 cm
88.27 -16.551 m -17.18 -122 l S Q
  Q
Q
Q q
0.227 35.09 m 5.332 35.09 l 5.332 37.359 l 0.227 37.359 l h
3.629 37.359 m 5.332 37.359 l 5.332 124.305 l 3.629 124.305 l h
3.629 37.359 m W n
q
0 35 6 90 re W n
  q
0 g
0.283298 w
2 J
0 j
[] 0.0 d
10 M q 1 0 0 -1 0 0 cm
86.469 -14.754 m -18.977 -120.199 l S Q
  Q
Q
Q q
0.227 35.09 m 5.332 35.09 l 5.332 37.359 l 0.227 37.359 l h
3.629 37.359 m 5.332 37.359 l 5.332 123.305 l 3.629 123.305 l h
3.629 37.359 m W n
q
0 35 6 89 re W n
  q
0 g
0.283298 w
2 J
0 j
[] 0.0 d
10 M q 1 0 0 -1 0 0 cm
84.668 -12.953 m -20.777 -118.402 l S Q
  Q
Q
Q q
0.227 35.09 m 5.332 35.09 l 5.332 37.359 l 0.227 37.359 l h
3.629 37.359 m 5.332 37.359 l 5.332 121.305 l 3.629 121.305 l h
3.629 37.359 m W n
q
0 35 6 87 re W n
  q
0 g
0.283298 w
2 J
0 j
[] 0.0 d
10 M q 1 0 0 -1 0 0 cm
82.871 -11.152 m -22.578 -116.602 l S Q
  Q
Q
Q q
0.227 35.09 m 5.332 35.09 l 5.332 37.359 l 0.227 37.359 l h
3.629 37.359 m 5.332 37.359 l 5.332 119.305 l 3.629 119.305 l h
3.629 37.359 m W n
q
0 35 6 85 re W n
  q
0 g
0.283298 w
2 J
0 j
[] 0.0 d
10 M q 1 0 0 -1 0 0 cm
81.07 -9.352 m -24.379 -114.801 l S Q
  Q
Q
Q q
0.227 35.09 m 5.332 35.09 l 5.332 37.359 l 0.227 37.359 l h
3.629 37.359 m 5.332 37.359 l 5.332 117.305 l 3.629 117.305 l h
3.629 37.359 m W n
q
0 35 6 83 re W n
  q
0 g
0.283298 w
2 J
0 j
[] 0.0 d
10 M q 1 0 0 -1 0 0 cm
79.27 -7.551 m -26.18 -113 l S Q
  Q
Q
Q q
0.227 35.09 m 5.332 35.09 l 5.332 37.359 l 0.227 37.359 l h
3.629 37.359 m 5.332 37.359 l 5.332 115.305 l 3.629 115.305 l h
3.629 37.359 m W n
q
0 35 6 81 re W n
  q
0 g
0.283298 w
2 J
0 j
[] 0.0 d
10 M q 1 0 0 -1 0 0 cm
77.469 -5.754 m -27.977 -111.199 l S Q
  Q
Q
Q q
0.227 35.09 m 5.332 35.09 l 5.332 37.359 l 0.227 37.359 l h
3.629 37.359 m 5.332 37.359 l 5.332 114.305 l 3.629 114.305 l h
3.629 37.359 m W n
q
0 35 6 80 re W n
  q
0 g
0.283298 w
2 J
0 j
[] 0.0 d
10 M q 1 0 0 -1 0 0 cm
75.668 -3.953 m -29.777 -109.402 l S Q
  Q
Q
Q q
0.227 35.09 m 5.332 35.09 l 5.332 37.359 l 0.227 37.359 l h
3.629 37.359 m 5.332 37.359 l 5.332 112.305 l 3.629 112.305 l h
3.629 37.359 m W n
q
0 35 6 78 re W n
  q
0 g
0.283298 w
2 J
0 j
[] 0.0 d
10 M q 1 0 0 -1 0 0 cm
73.871 -2.152 m -31.578 -107.602 l S Q
  Q
Q
Q q
0.227 35.09 m 5.332 35.09 l 5.332 37.359 l 0.227 37.359 l h
3.629 37.359 m 5.332 37.359 l 5.332 110.305 l 3.629 110.305 l h
3.629 37.359 m W n
q
0 35 6 76 re W n
  q
0 g
0.283298 w
2 J
0 j
[] 0.0 d
10 M q 1 0 0 -1 0 0 cm
72.07 -0.352 m -33.379 -105.801 l S Q
  Q
Q
Q q
0.227 35.09 m 5.332 35.09 l 5.332 37.359 l 0.227 37.359 l h
3.629 37.359 m 5.332 37.359 l 5.332 108.305 l 3.629 108.305 l h
3.629 37.359 m W n
q
0 35 6 74 re W n
  q
0 g
0.283298 w
2 J
0 j
[] 0.0 d
10 M q 1 0 0 -1 0 0 cm
70.27 1.449 m -35.18 -104 l S Q
  Q
Q
Q q
0.227 35.09 m 5.332 35.09 l 5.332 37.359 l 0.227 37.359 l h
3.629 37.359 m 5.332 37.359 l 5.332 106.305 l 3.629 106.305 l h
3.629 37.359 m W n
q
0 35 6 72 re W n
  q
0 g
0.283298 w
2 J
0 j
[] 0.0 d
10 M q 1 0 0 -1 0 0 cm
68.469 3.246 m -36.977 -102.199 l S Q
  Q
Q
Q q
0.227 35.09 m 5.332 35.09 l 5.332 37.359 l 0.227 37.359 l h
3.629 37.359 m 5.332 37.359 l 5.332 105.305 l 3.629 105.305 l h
3.629 37.359 m W n
q
0 35 6 71 re W n
  q
0 g
0.283298 w
2 J
0 j
[] 0.0 d
10 M q 1 0 0 -1 0 0 cm
66.668 5.047 m -38.777 -100.402 l S Q
  Q
Q
Q q
0.227 35.09 m 5.332 35.09 l 5.332 37.359 l 0.227 37.359 l h
3.629 37.359 m 5.332 37.359 l 5.332 103.305 l 3.629 103.305 l h
3.629 37.359 m W n
q
0 35 6 69 re W n
  q
0 g
0.283298 w
2 J
0 j
[] 0.0 d
10 M q 1 0 0 -1 0 0 cm
64.871 6.848 m -40.578 -98.602 l S Q
  Q
Q
Q q
0.227 35.09 m 5.332 35.09 l 5.332 37.359 l 0.227 37.359 l h
3.629 37.359 m 5.332 37.359 l 5.332 101.305 l 3.629 101.305 l h
3.629 37.359 m W n
q
0 35 6 67 re W n
  q
0 g
0.283298 w
2 J
0 j
[] 0.0 d
10 M q 1 0 0 -1 0 0 cm
63.07 8.648 m -42.379 -96.801 l S Q
  Q
Q
Q q
0.227 35.09 m 5.332 35.09 l 5.332 37.359 l 0.227 37.359 l h
3.629 37.359 m 5.332 37.359 l 5.332 99.305 l 3.629 99.305 l h
3.629 37.359 m W n
q
0 35 6 65 re W n
  q
0 g
0.283298 w
2 J
0 j
[] 0.0 d
10 M q 1 0 0 -1 0 0 cm
61.27 10.449 m -44.18 -95 l S Q
  Q
Q
Q q
0.227 35.09 m 5.332 35.09 l 5.332 37.359 l 0.227 37.359 l h
3.629 37.359 m 5.332 37.359 l 5.332 97.305 l 3.629 97.305 l h
3.629 37.359 m W n
q
0 35 6 63 re W n
  q
0 g
0.283298 w
2 J
0 j
[] 0.0 d
10 M q 1 0 0 -1 0 0 cm
59.469 12.246 m -45.977 -93.199 l S Q
  Q
Q
Q q
0.227 35.09 m 5.332 35.09 l 5.332 37.359 l 0.227 37.359 l h
3.629 37.359 m 5.332 37.359 l 5.332 96.305 l 3.629 96.305 l h
3.629 37.359 m W n
q
0 35 6 62 re W n
  q
0 g
0.283298 w
2 J
0 j
[] 0.0 d
10 M q 1 0 0 -1 0 0 cm
57.668 14.047 m -47.777 -91.402 l S Q
  Q
Q
Q q
0.227 35.09 m 5.332 35.09 l 5.332 37.359 l 0.227 37.359 l h
3.629 37.359 m 5.332 37.359 l 5.332 94.305 l 3.629 94.305 l h
3.629 37.359 m W n
q
0 35 6 60 re W n
  q
0 g
0.283298 w
2 J
0 j
[] 0.0 d
10 M q 1 0 0 -1 0 0 cm
55.871 15.848 m -49.578 -89.602 l S Q
  Q
Q
Q q
0.227 35.09 m 5.332 35.09 l 5.332 37.359 l 0.227 37.359 l h
3.629 37.359 m 5.332 37.359 l 5.332 92.305 l 3.629 92.305 l h
3.629 37.359 m W n
q
0 35 6 58 re W n
  q
0 g
0.283298 w
2 J
0 j
[] 0.0 d
10 M q 1 0 0 -1 0 0 cm
54.07 17.648 m -51.379 -87.801 l S Q
  Q
Q
Q q
0.227 35.09 m 5.332 35.09 l 5.332 37.359 l 0.227 37.359 l h
3.629 37.359 m 5.332 37.359 l 5.332 90.305 l 3.629 90.305 l h
3.629 37.359 m W n
q
0 35 6 56 re W n
  q
0 g
0.283298 w
2 J
0 j
[] 0.0 d
10 M q 1 0 0 -1 0 0 cm
52.27 19.449 m -53.18 -86 l S Q
  Q
Q
Q q
0 34.305 107.918 105.398 re W n
q
0 34 108 106 re W n
  q
0 g
0.45345 w
0 J
0 j
[] 0.0 d
10 M q 1 0 0 -1 0 0 cm
53.52 -139.406 m 3.629 -139.406 l 3.629 -37.359 l 0.227 -37.359 l 0.227
 -35.09 l 5.332 -35.09 l 5.332 -137.703 l 101.707 -137.703 l 101.707 -35.09
 l 106.809 -35.09 l 106.809 -37.359 l 103.406 -37.359 l 103.406 -139.406
 l h
53.52 -139.406 m S Q
  Q
Q
0 g
0.340124 w
0 J
0 j
[] 0.0 d
10 M q 1 0 0 -1 0 0 cm
5.332 -37.926 m 5.332 -37.758 l 5.52 -37.758 l 5.707 -37.766 l 5.898 -37.781
 l 6.086 -37.797 l 6.273 -37.816 l 6.465 -37.84 l 6.652 -37.867 l 6.84 -37.898
 l 7.031 -37.926 l 7.219 -37.957 l 7.406 -37.984 l 7.598 -38.012 l 7.785
 -38.035 l 7.977 -38.059 l 8.164 -38.074 l 8.352 -38.086 l 8.543 -38.094
 l 8.73 -38.098 l 8.918 -38.094 l 9.109 -38.086 l 9.297 -38.074 l 9.488 
-38.059 l 9.863 -38.012 l 10.055 -37.984 l 10.242 -37.957 l 10.434 -37.926
 l 10.621 -37.898 l 10.809 -37.867 l 11 -37.84 l 11.188 -37.816 l 11.379
 -37.797 l 11.754 -37.766 l 11.941 -37.758 l 12.32 -37.758 l 12.512 -37.766
 l 12.887 -37.797 l 13.078 -37.816 l 13.266 -37.84 l 13.453 -37.867 l 13.645
 -37.898 l 13.832 -37.926 l 14.023 -37.957 l 14.398 -38.012 l 14.59 -38.035
 l 14.777 -38.059 l 14.965 -38.074 l 15.156 -38.086 l 15.344 -38.094 l 15.535
 -38.098 l 15.723 -38.094 l 15.91 -38.086 l 16.102 -38.074 l 16.289 -38.059
 l 16.477 -38.035 l 16.668 -38.012 l 16.855 -37.984 l 17.047 -37.957 l 17.234
 -37.926 l 17.422 -37.898 l 17.613 -37.867 l 17.801 -37.84 l 17.988 -37.816
 l 18.18 -37.797 l 18.367 -37.781 l 18.559 -37.766 l 18.746 -37.758 l 19.125
 -37.758 l 19.312 -37.766 l 19.504 -37.781 l 19.691 -37.797 l 19.879 -37.816
 l 20.066 -37.84 l 20.258 -37.867 l 20.445 -37.898 l 20.637 -37.926 l 20.824
 -37.957 l 21.012 -37.984 l 21.203 -38.012 l 21.578 -38.059 l 21.77 -38.074
 l 21.957 -38.086 l 22.148 -38.094 l 22.336 -38.098 l 22.523 -38.094 l 22.715
 -38.086 l 22.902 -38.074 l 23.09 -38.059 l 23.281 -38.035 l 23.469 -38.012
 l 23.66 -37.984 l 23.848 -37.957 l 24.035 -37.926 l 24.227 -37.898 l 24.414
 -37.867 l 24.605 -37.84 l 24.793 -37.816 l 24.98 -37.797 l 25.172 -37.781
 l 25.359 -37.766 l 25.547 -37.758 l 25.926 -37.758 l 26.113 -37.766 l 26.305
 -37.781 l 26.492 -37.797 l 26.684 -37.816 l 26.871 -37.84 l 27.059 -37.867
 l 27.25 -37.898 l 27.438 -37.926 l 27.629 -37.957 l 28.004 -38.012 l 28.195
 -38.035 l 28.383 -38.059 l 28.57 -38.074 l 28.762 -38.086 l 28.949 -38.094
 l 29.137 -38.098 l 29.328 -38.094 l 29.516 -38.086 l 29.707 -38.074 l 29.895
 -38.059 l 30.082 -38.035 l 30.273 -38.012 l 30.648 -37.957 l 30.84 -37.926
 l 31.027 -37.898 l 31.215 -37.867 l 31.406 -37.84 l 31.594 -37.816 l 31.785
 -37.797 l 32.16 -37.766 l 32.352 -37.758 l 32.73 -37.758 l 32.918 -37.766
 l 33.105 -37.781 l 33.297 -37.797 l 33.484 -37.816 l 33.672 -37.84 l 33.863
 -37.867 l 34.051 -37.898 l 34.238 -37.926 l 34.43 -37.957 l 34.617 -37.984
 l 34.809 -38.012 l 35.184 -38.059 l 35.375 -38.074 l 35.562 -38.086 l 35.754
 -38.094 l 35.941 -38.098 l 36.129 -38.094 l 36.32 -38.086 l 36.508 -38.074
 l 36.695 -38.059 l 36.887 -38.035 l 37.074 -38.012 l 37.266 -37.984 l 37.453
 -37.957 l 37.641 -37.926 l 37.832 -37.898 l 38.02 -37.867 l 38.207 -37.84
 l 38.398 -37.816 l 38.586 -37.797 l 38.773 -37.781 l 38.965 -37.766 l 39.152
 -37.758 l 39.531 -37.758 l 39.719 -37.766 l 39.91 -37.781 l 40.098 -37.797
 l 40.285 -37.816 l 40.477 -37.84 l 40.664 -37.867 l 40.855 -37.898 l 41.043
 -37.926 l 41.23 -37.957 l 41.422 -37.984 l 41.609 -38.012 l 41.801 -38.035
 l 41.988 -38.059 l 42.176 -38.074 l 42.367 -38.086 l 42.555 -38.094 l 42.742
 -38.098 l 42.934 -38.094 l 43.121 -38.086 l 43.309 -38.074 l 43.5 -38.059
 l 43.688 -38.035 l 43.879 -38.012 l 44.254 -37.957 l 44.445 -37.926 l 44.633
 -37.898 l 44.82 -37.867 l 45.012 -37.84 l 45.199 -37.816 l 45.391 -37.797
 l 45.766 -37.766 l 45.957 -37.758 l 46.332 -37.758 l 46.523 -37.766 l 46.898
 -37.797 l 47.09 -37.816 l 47.277 -37.84 l 47.469 -37.867 l 47.656 -37.898
 l 47.844 -37.926 l 48.035 -37.957 l 48.41 -38.012 l 48.602 -38.035 l 48.789
 -38.059 l 48.98 -38.074 l 49.168 -38.086 l 49.355 -38.094 l 49.547 -38.098
 l 49.734 -38.094 l 49.926 -38.086 l 50.113 -38.074 l 50.301 -38.059 l 50.492
 -38.035 l 50.68 -38.012 l 50.871 -37.984 l 51.059 -37.957 l 51.246 -37.926
 l 51.438 -37.898 l 51.625 -37.867 l 51.812 -37.84 l 52.004 -37.816 l 52.191
 -37.797 l 52.383 -37.781 l 52.57 -37.766 l 52.758 -37.758 l 53.137 -37.758
 l 53.324 -37.766 l 53.516 -37.781 l 53.703 -37.797 l 53.891 -37.816 l 54.082
 -37.84 l 54.27 -37.867 l 54.457 -37.898 l 54.648 -37.926 l 54.836 -37.957
 l 55.027 -37.984 l 55.215 -38.012 l 55.402 -38.035 l 55.594 -38.059 l 55.781
 -38.074 l 55.973 -38.086 l 56.16 -38.094 l 56.348 -38.098 l 56.539 -38.094
 l 56.727 -38.086 l 56.914 -38.074 l 57.105 -38.059 l 57.48 -38.012 l 57.672
 -37.984 l 57.859 -37.957 l 58.051 -37.926 l 58.238 -37.898 l 58.426 -37.867
 l 58.617 -37.84 l 58.805 -37.816 l 58.996 -37.797 l 59.371 -37.766 l 59.562
 -37.758 l 59.938 -37.758 l 60.129 -37.766 l 60.316 -37.781 l 60.508 -37.797
 l 60.695 -37.816 l 60.883 -37.84 l 61.07 -37.867 l 61.262 -37.898 l 61.449
 -37.926 l 61.641 -37.957 l 62.016 -38.012 l 62.207 -38.035 l 62.395 -38.059
 l 62.582 -38.074 l 62.773 -38.086 l 62.961 -38.094 l 63.152 -38.098 l 63.34
 -38.094 l 63.527 -38.086 l 63.719 -38.074 l 63.906 -38.059 l 64.098 -38.035
 l 64.285 -38.012 l 64.473 -37.984 l 64.664 -37.957 l 64.852 -37.926 l 65.039
 -37.898 l 65.23 -37.867 l 65.418 -37.84 l 65.605 -37.816 l 65.797 -37.797
 l 65.984 -37.781 l 66.176 -37.766 l 66.363 -37.758 l 66.742 -37.758 l 66.93
 -37.766 l 67.121 -37.781 l 67.309 -37.797 l 67.496 -37.816 l 67.688 -37.84
 l 67.875 -37.867 l 68.062 -37.898 l 68.254 -37.926 l 68.441 -37.957 l 68.633
 -37.984 l 68.82 -38.012 l 69.008 -38.035 l 69.199 -38.059 l 69.387 -38.074
 l 69.574 -38.086 l 69.766 -38.094 l 69.953 -38.098 l 70.141 -38.094 l 70.332
 -38.086 l 70.52 -38.074 l 70.707 -38.059 l 70.898 -38.035 l 71.086 -38.012
 l 71.277 -37.984 l 71.465 -37.957 l 71.652 -37.926 l 71.844 -37.898 l 72.031
 -37.867 l 72.223 -37.84 l 72.41 -37.816 l 72.598 -37.797 l 72.789 -37.781
 l 72.977 -37.766 l 73.164 -37.758 l 73.543 -37.758 l 73.73 -37.766 l 73.922
 -37.781 l 74.109 -37.797 l 74.301 -37.816 l 74.488 -37.84 l 74.676 -37.867
 l 74.867 -37.898 l 75.055 -37.926 l 75.246 -37.957 l 75.621 -38.012 l 75.812
 -38.035 l 76 -38.059 l 76.188 -38.074 l 76.379 -38.086 l 76.566 -38.094
 l 76.758 -38.098 l 76.945 -38.094 l 77.133 -38.086 l 77.324 -38.074 l 77.512
 -38.059 l 77.699 -38.035 l 77.891 -38.012 l 78.078 -37.984 l 78.27 -37.957
 l 78.457 -37.926 l 78.645 -37.898 l 78.832 -37.867 l 79.023 -37.84 l 79.211
 -37.816 l 79.402 -37.797 l 79.777 -37.766 l 79.969 -37.758 l 80.348 -37.758
 l 80.535 -37.766 l 80.723 -37.781 l 80.914 -37.797 l 81.102 -37.816 l 81.289
 -37.84 l 81.48 -37.867 l 81.668 -37.898 l 81.859 -37.926 l 82.047 -37.957
 l 82.234 -37.984 l 82.426 -38.012 l 82.613 -38.035 l 82.805 -38.059 l 82.992
 -38.074 l 83.18 -38.086 l 83.371 -38.094 l 83.559 -38.098 l 83.746 -38.094
 l 83.938 -38.086 l 84.125 -38.074 l 84.312 -38.059 l 84.504 -38.035 l 84.691
 -38.012 l 84.883 -37.984 l 85.07 -37.957 l 85.258 -37.926 l 85.449 -37.898
 l 85.637 -37.867 l 85.824 -37.84 l 86.016 -37.816 l 86.203 -37.797 l 86.395
 -37.781 l 86.582 -37.766 l 86.77 -37.758 l 87.148 -37.758 l 87.336 -37.766
 l 87.527 -37.781 l 87.715 -37.797 l 87.902 -37.816 l 88.094 -37.84 l 88.281
 -37.867 l 88.473 -37.898 l 88.66 -37.926 l 88.848 -37.957 l 89.039 -37.984
 l 89.227 -38.012 l 89.414 -38.035 l 89.605 -38.059 l 89.793 -38.074 l 89.984
 -38.086 l 90.172 -38.094 l 90.359 -38.098 l 90.551 -38.094 l 90.738 -38.086
 l 90.93 -38.074 l 91.117 -38.059 l 91.305 -38.035 l 91.496 -38.012 l 91.684
 -37.984 l 91.875 -37.957 l 92.062 -37.926 l 92.25 -37.898 l 92.438 -37.867
 l 92.629 -37.84 l 92.816 -37.816 l 93.008 -37.797 l 93.383 -37.766 l 93.574
 -37.758 l 93.949 -37.758 l 94.141 -37.766 l 94.328 -37.781 l 94.52 -37.797
 l 94.707 -37.816 l 94.895 -37.84 l 95.086 -37.867 l 95.273 -37.898 l 95.461
 -37.926 l 95.652 -37.957 l 95.84 -37.984 l 96.031 -38.012 l 96.406 -38.059
 l 96.598 -38.074 l 96.785 -38.086 l 96.973 -38.094 l 97.164 -38.098 l 97.352
 -38.094 l 97.539 -38.086 l 97.73 -38.074 l 97.918 -38.059 l 98.109 -38.035
 l 98.297 -38.012 l 98.484 -37.984 l 98.676 -37.957 l 98.863 -37.926 l 99.055
 -37.898 l 99.242 -37.867 l 99.43 -37.84 l 99.621 -37.816 l 99.809 -37.797
 l 99.996 -37.781 l 100.188 -37.766 l 100.375 -37.758 l 100.754 -37.758 
l 100.941 -37.766 l 101.133 -37.781 l 101.32 -37.797 l 101.508 -37.816 l
 101.699 -37.84 l 101.707 -37.844 l 101.707 -37.926 l S Q
Q q
0 21.305 27.918 14 re W n
q
0 21 28 15 re W n
  q
Q q
2.777 35.09 m 0.227 35.09 l 0.227 32.824 l 5.332 32.824 l 48.414 28.262
 l 48.414 13.551 l 50.117 13.551 l 50.117 30.352 l 5.332 35.09 l h
2.777 35.09 m W n
q
0 21 28 15 re W n
  q
0 g
0.283298 w
2 J
0 j
[] 0.0 d
10 M q 1 0 0 -1 0 0 cm
23.91 -61.297 m -11.805 -25.582 l S Q
  Q
Q
  Q
Q
Q q
0 19.305 29.918 16 re W n
q
0 19 30 17 re W n
  q
Q q
2.777 35.09 m 0.227 35.09 l 0.227 32.824 l 5.332 32.824 l 48.414 28.262
 l 48.414 13.551 l 50.117 13.551 l 50.117 30.352 l 5.332 35.09 l h
2.777 35.09 m W n
q
0 19 30 17 re W n
  q
0 g
0.283298 w
2 J
0 j
[] 0.0 d
10 M q 1 0 0 -1 0 0 cm
25.711 -59.496 m -10.004 -23.781 l S Q
  Q
Q
  Q
Q
Q q
0 17.305 31.918 18 re W n
q
0 17 32 19 re W n
  q
Q q
2.777 35.09 m 0.227 35.09 l 0.227 32.824 l 5.332 32.824 l 48.414 28.262
 l 48.414 13.551 l 50.117 13.551 l 50.117 30.352 l 5.332 35.09 l h
2.777 35.09 m W n
q
0 17 32 19 re W n
  q
0 g
0.283298 w
2 J
0 j
[] 0.0 d
10 M q 1 0 0 -1 0 0 cm
27.512 -57.699 m -8.207 -21.98 l S Q
  Q
Q
  Q
Q
Q q
0 15.305 33.918 20 re W n
q
0 15 34 21 re W n
  q
Q q
2.777 35.09 m 0.227 35.09 l 0.227 32.824 l 5.332 32.824 l 48.414 28.262
 l 48.414 13.551 l 50.117 13.551 l 50.117 30.352 l 5.332 35.09 l h
2.777 35.09 m W n
q
0 15 34 21 re W n
  q
0 g
0.283298 w
2 J
0 j
[] 0.0 d
10 M q 1 0 0 -1 0 0 cm
29.312 -55.898 m -6.406 -20.184 l S Q
  Q
Q
  Q
Q
Q q
0 14.305 35.918 21 re W n
q
0 14 36 22 re W n
  q
Q q
2.777 35.09 m 0.227 35.09 l 0.227 32.824 l 5.332 32.824 l 48.414 28.262
 l 48.414 13.551 l 50.117 13.551 l 50.117 30.352 l 5.332 35.09 l h
2.777 35.09 m W n
q
0 14 36 22 re W n
  q
0 g
0.283298 w
2 J
0 j
[] 0.0 d
10 M q 1 0 0 -1 0 0 cm
31.109 -54.098 m -4.605 -18.383 l S Q
  Q
Q
  Q
Q
Q q
0 13.305 36.918 22 re W n
q
0 13 37 23 re W n
  q
Q q
2.777 35.09 m 0.227 35.09 l 0.227 32.824 l 5.332 32.824 l 48.414 28.262
 l 48.414 13.551 l 50.117 13.551 l 50.117 30.352 l 5.332 35.09 l h
2.777 35.09 m W n
q
0 13 37 23 re W n
  q
0 g
0.283298 w
2 J
0 j
[] 0.0 d
10 M q 1 0 0 -1 0 0 cm
32.91 -52.297 m -2.805 -16.582 l S Q
  Q
Q
  Q
Q
Q q
0 13.305 38.918 22 re W n
q
0 13 39 23 re W n
  q
Q q
2.777 35.09 m 0.227 35.09 l 0.227 32.824 l 5.332 32.824 l 48.414 28.262
 l 48.414 13.551 l 50.117 13.551 l 50.117 30.352 l 5.332 35.09 l h
2.777 35.09 m W n
q
0 13 39 23 re W n
  q
0 g
0.283298 w
2 J
0 j
[] 0.0 d
10 M q 1 0 0 -1 0 0 cm
34.711 -50.496 m -1.004 -14.781 l S Q
  Q
Q
  Q
Q
Q q
0 13.305 40.918 22 re W n
q
0 13 41 23 re W n
  q
Q q
2.777 35.09 m 0.227 35.09 l 0.227 32.824 l 5.332 32.824 l 48.414 28.262
 l 48.414 13.551 l 50.117 13.551 l 50.117 30.352 l 5.332 35.09 l h
2.777 35.09 m W n
q
0 13 41 23 re W n
  q
0 g
0.283298 w
2 J
0 j
[] 0.0 d
10 M q 1 0 0 -1 0 0 cm
36.512 -48.699 m 0.793 -12.98 l S Q
  Q
Q
  Q
Q
Q q
0 13.305 42.918 22 re W n
q
0 13 43 23 re W n
  q
Q q
2.777 35.09 m 0.227 35.09 l 0.227 32.824 l 5.332 32.824 l 48.414 28.262
 l 48.414 13.551 l 50.117 13.551 l 50.117 30.352 l 5.332 35.09 l h
2.777 35.09 m W n
q
0 13 43 23 re W n
  q
0 g
0.283298 w
2 J
0 j
[] 0.0 d
10 M q 1 0 0 -1 0 0 cm
38.312 -46.898 m 2.594 -11.184 l S Q
  Q
Q
  Q
Q
Q q
0 13.305 44.918 22 re W n
q
0 13 45 23 re W n
  q
Q q
2.777 35.09 m 0.227 35.09 l 0.227 32.824 l 5.332 32.824 l 48.414 28.262
 l 48.414 13.551 l 50.117 13.551 l 50.117 30.352 l 5.332 35.09 l h
2.777 35.09 m W n
q
0 13 45 23 re W n
  q
0 g
0.283298 w
2 J
0 j
[] 0.0 d
10 M q 1 0 0 -1 0 0 cm
40.109 -45.098 m 4.395 -9.383 l S Q
  Q
Q
  Q
Q
Q q
1.918 13.305 44 22 re W n
q
1 13 45 23 re W n
  q
Q q
2.777 35.09 m 0.227 35.09 l 0.227 32.824 l 5.332 32.824 l 48.414 28.262
 l 48.414 13.551 l 50.117 13.551 l 50.117 30.352 l 5.332 35.09 l h
2.777 35.09 m W n
q
1 13 45 23 re W n
  q
0 g
0.283298 w
2 J
0 j
[] 0.0 d
10 M q 1 0 0 -1 0 0 cm
41.91 -43.297 m 6.195 -7.582 l S Q
  Q
Q
  Q
Q
Q q
3.918 13.305 44 22 re W n
q
3 13 45 23 re W n
  q
Q q
2.777 35.09 m 0.227 35.09 l 0.227 32.824 l 5.332 32.824 l 48.414 28.262
 l 48.414 13.551 l 50.117 13.551 l 50.117 30.352 l 5.332 35.09 l h
2.777 35.09 m W n
q
3 13 45 23 re W n
  q
0 g
0.283298 w
2 J
0 j
[] 0.0 d
10 M q 1 0 0 -1 0 0 cm
43.711 -41.496 m 7.996 -5.781 l S Q
  Q
Q
  Q
Q
Q q
4.918 13.305 45 22 re W n
q
4 13 46 23 re W n
  q
Q q
2.777 35.09 m 0.227 35.09 l 0.227 32.824 l 5.332 32.824 l 48.414 28.262
 l 48.414 13.551 l 50.117 13.551 l 50.117 30.352 l 5.332 35.09 l h
2.777 35.09 m W n
q
4 13 46 23 re W n
  q
0 g
0.283298 w
2 J
0 j
[] 0.0 d
10 M q 1 0 0 -1 0 0 cm
45.512 -39.699 m 9.793 -3.98 l S Q
  Q
Q
  Q
Q
Q q
6.918 13.305 44 22 re W n
q
6 13 45 23 re W n
  q
Q q
2.777 35.09 m 0.227 35.09 l 0.227 32.824 l 5.332 32.824 l 48.414 28.262
 l 48.414 13.551 l 50.117 13.551 l 50.117 30.352 l 5.332 35.09 l h
2.777 35.09 m W n
q
6 13 45 23 re W n
  q
0 g
0.283298 w
2 J
0 j
[] 0.0 d
10 M q 1 0 0 -1 0 0 cm
47.312 -37.898 m 11.594 -2.184 l S Q
  Q
Q
  Q
Q
Q q
8.918 13.305 42 22 re W n
q
8 13 43 23 re W n
  q
Q q
2.777 35.09 m 0.227 35.09 l 0.227 32.824 l 5.332 32.824 l 48.414 28.262
 l 48.414 13.551 l 50.117 13.551 l 50.117 30.352 l 5.332 35.09 l h
2.777 35.09 m W n
q
8 13 43 23 re W n
  q
0 g
0.283298 w
2 J
0 j
[] 0.0 d
10 M q 1 0 0 -1 0 0 cm
49.109 -36.098 m 13.395 -0.383 l S Q
  Q
Q
  Q
Q
Q q
10.918 13.305 40 22 re W n
q
10 13 41 23 re W n
  q
Q q
2.777 35.09 m 0.227 35.09 l 0.227 32.824 l 5.332 32.824 l 48.414 28.262
 l 48.414 13.551 l 50.117 13.551 l 50.117 30.352 l 5.332 35.09 l h
2.777 35.09 m W n
q
10 13 41 23 re W n
  q
0 g
0.283298 w
2 J
0 j
[] 0.0 d
10 M q 1 0 0 -1 0 0 cm
50.91 -34.297 m 15.195 1.418 l S Q
  Q
Q
  Q
Q
Q q
12.918 13.305 38 22 re W n
q
12 13 39 23 re W n
  q
Q q
2.777 35.09 m 0.227 35.09 l 0.227 32.824 l 5.332 32.824 l 48.414 28.262
 l 48.414 13.551 l 50.117 13.551 l 50.117 30.352 l 5.332 35.09 l h
2.777 35.09 m W n
q
12 13 39 23 re W n
  q
0 g
0.283298 w
2 J
0 j
[] 0.0 d
10 M q 1 0 0 -1 0 0 cm
52.711 -32.496 m 16.996 3.219 l S Q
  Q
Q
  Q
Q
Q q
13.918 13.305 37 22 re W n
q
13 13 38 23 re W n
  q
Q q
2.777 35.09 m 0.227 35.09 l 0.227 32.824 l 5.332 32.824 l 48.414 28.262
 l 48.414 13.551 l 50.117 13.551 l 50.117 30.352 l 5.332 35.09 l h
2.777 35.09 m W n
q
13 13 38 23 re W n
  q
0 g
0.283298 w
2 J
0 j
[] 0.0 d
10 M q 1 0 0 -1 0 0 cm
54.512 -30.699 m 18.797 5.02 l S Q
  Q
Q
  Q
Q
Q q
15.918 13.305 35 20 re W n
q
15 13 36 21 re W n
  q
Q q
2.777 35.09 m 0.227 35.09 l 0.227 32.824 l 5.332 32.824 l 48.414 28.262
 l 48.414 13.551 l 50.117 13.551 l 50.117 30.352 l 5.332 35.09 l h
2.777 35.09 m W n
q
15 13 36 21 re W n
  q
0 g
0.283298 w
2 J
0 j
[] 0.0 d
10 M q 1 0 0 -1 0 0 cm
56.312 -28.898 m 20.594 6.816 l S Q
  Q
Q
  Q
Q
Q q
17.918 13.305 33 18 re W n
q
17 13 34 19 re W n
  q
Q q
2.777 35.09 m 0.227 35.09 l 0.227 32.824 l 5.332 32.824 l 48.414 28.262
 l 48.414 13.551 l 50.117 13.551 l 50.117 30.352 l 5.332 35.09 l h
2.777 35.09 m W n
q
17 13 34 19 re W n
  q
0 g
0.283298 w
2 J
0 j
[] 0.0 d
10 M q 1 0 0 -1 0 0 cm
58.109 -27.098 m 22.395 8.617 l S Q
  Q
Q
  Q
Q
Q q
19.918 13.305 31 16 re W n
q
19 13 32 17 re W n
  q
Q q
2.777 35.09 m 0.227 35.09 l 0.227 32.824 l 5.332 32.824 l 48.414 28.262
 l 48.414 13.551 l 50.117 13.551 l 50.117 30.352 l 5.332 35.09 l h
2.777 35.09 m W n
q
19 13 32 17 re W n
  q
0 g
0.283298 w
2 J
0 j
[] 0.0 d
10 M q 1 0 0 -1 0 0 cm
59.91 -25.297 m 24.195 10.418 l S Q
  Q
Q
  Q
Q
Q q
21.918 13.305 29 15 re W n
q
21 13 30 16 re W n
  q
Q q
2.777 35.09 m 0.227 35.09 l 0.227 32.824 l 5.332 32.824 l 48.414 28.262
 l 48.414 13.551 l 50.117 13.551 l 50.117 30.352 l 5.332 35.09 l h
2.777 35.09 m W n
q
21 13 30 16 re W n
  q
0 g
0.283298 w
2 J
0 j
[] 0.0 d
10 M q 1 0 0 -1 0 0 cm
61.711 -23.496 m 25.996 12.219 l S Q
  Q
Q
  Q
Q
Q q
0 g
0.45345 w
0 J
0 j
[] 0.0 d
10 M q 1 0 0 -1 0 0 cm
2.777 -35.09 m 0.227 -35.09 l 0.227 -32.824 l 5.332 -32.824 l 48.414 -28.262
 l 48.414 -13.551 l 50.117 -13.551 l 50.117 -30.352 l 5.332 -35.09 l h
2.777 -35.09 m S Q
Q q
56.918 19.305 10 13 re W n
q
56 19 11 14 re W n
  q
Q q
56 19 11 13 re W n
63.156 31.008 m 56.922 30.352 l 56.922 13.551 l 58.621 13.551 l 58.621 
28.262 l 67.691 29.223 l 67.691 13.551 l 69.391 13.551 l 69.391 31.668 l
 h
63.156 31.008 m W n
q
56 19 11 13 re W n
  q
0 g
0.283298 w
2 J
0 j
[] 0.0 d
10 M q 1 0 0 -1 0 0 cm
62.438 -38.625 m 47.141 -23.328 l S Q
  Q
Q
  Q
Q
Q q
56.918 17.305 12 15 re W n
q
56 17 13 16 re W n
  q
Q q
56 17 13 15 re W n
63.156 31.008 m 56.922 30.352 l 56.922 13.551 l 58.621 13.551 l 58.621 
28.262 l 67.691 29.223 l 67.691 13.551 l 69.391 13.551 l 69.391 31.668 l
 h
63.156 31.008 m W n
q
56 17 13 15 re W n
  q
0 g
0.283298 w
2 J
0 j
[] 0.0 d
10 M q 1 0 0 -1 0 0 cm
64.238 -36.824 m 48.941 -21.527 l S Q
  Q
Q
  Q
Q
Q q
56.918 15.305 13 17 re W n
q
56 15 14 18 re W n
  q
Q q
56 15 14 17 re W n
63.156 31.008 m 56.922 30.352 l 56.922 13.551 l 58.621 13.551 l 58.621 
28.262 l 67.691 29.223 l 67.691 13.551 l 69.391 13.551 l 69.391 31.668 l
 h
63.156 31.008 m W n
q
56 15 14 17 re W n
  q
0 g
0.283298 w
2 J
0 j
[] 0.0 d
10 M q 1 0 0 -1 0 0 cm
66.039 -35.023 m 50.742 -19.727 l S Q
  Q
Q
  Q
Q
Q q
56.918 13.305 13 19 re W n
q
56 13 14 20 re W n
  q
Q q
56 13 14 19 re W n
63.156 31.008 m 56.922 30.352 l 56.922 13.551 l 58.621 13.551 l 58.621 
28.262 l 67.691 29.223 l 67.691 13.551 l 69.391 13.551 l 69.391 31.668 l
 h
63.156 31.008 m W n
q
56 13 14 19 re W n
  q
0 g
0.283298 w
2 J
0 j
[] 0.0 d
10 M q 1 0 0 -1 0 0 cm
67.836 -33.227 m 52.539 -17.926 l S Q
q 1 0 0 -1 0 0 cm
69.637 -31.426 m 54.34 -16.129 l S Q
q 1 0 0 -1 0 0 cm
71.438 -29.625 m 56.141 -14.328 l S Q
q 1 0 0 -1 0 0 cm
73.238 -27.824 m 57.941 -12.527 l S Q
  Q
Q
  Q
Q
Q q
56.918 13.305 13 17 re W n
q
56 13 14 18 re W n
  q
Q q
63.156 31.008 m 56.922 30.352 l 56.922 13.551 l 58.621 13.551 l 58.621 
28.262 l 67.691 29.223 l 67.691 13.551 l 69.391 13.551 l 69.391 31.668 l
 h
63.156 31.008 m W n
q
56 13 14 18 re W n
  q
0 g
0.283298 w
2 J
0 j
[] 0.0 d
10 M q 1 0 0 -1 0 0 cm
75.039 -26.023 m 59.742 -10.727 l S Q
  Q
Q
  Q
Q
Q q
56.918 13.305 13 15 re W n
q
56 13 14 16 re W n
  q
Q q
63.156 31.008 m 56.922 30.352 l 56.922 13.551 l 58.621 13.551 l 58.621 
28.262 l 67.691 29.223 l 67.691 13.551 l 69.391 13.551 l 69.391 31.668 l
 h
63.156 31.008 m W n
q
56 13 14 16 re W n
  q
0 g
0.283298 w
2 J
0 j
[] 0.0 d
10 M q 1 0 0 -1 0 0 cm
76.836 -24.227 m 61.539 -8.926 l S Q
  Q
Q
  Q
Q
Q q
58.918 13.305 11 14 re W n
q
58 13 12 15 re W n
  q
Q q
63.156 31.008 m 56.922 30.352 l 56.922 13.551 l 58.621 13.551 l 58.621 
28.262 l 67.691 29.223 l 67.691 13.551 l 69.391 13.551 l 69.391 31.668 l
 h
63.156 31.008 m W n
q
58 13 12 15 re W n
  q
0 g
0.283298 w
2 J
0 j
[] 0.0 d
10 M q 1 0 0 -1 0 0 cm
78.637 -22.426 m 63.34 -7.129 l S Q
  Q
Q
  Q
Q
Q q
0 g
0.45345 w
0 J
0 j
[] 0.0 d
10 M q 1 0 0 -1 0 0 cm
63.156 -31.008 m 56.922 -30.352 l 56.922 -13.551 l 58.621 -13.551 l 58.621
 -28.262 l 67.691 -29.223 l 67.691 -13.551 l 69.391 -13.551 l 69.391 -31.668
 l h
63.156 -31.008 m S Q
Q q
75.918 21.305 19 14 re W n
q
75 21 20 15 re W n
  q
Q q
76 21 19 15 re W n
88.949 33.742 m 76.195 32.391 l 76.195 13.551 l 77.895 13.551 l 77.895 
30.301 l 101.707 32.824 l 106.809 32.824 l 106.809 35.09 l 101.707 35.09
 l h
88.949 33.742 m W n
q
76 21 19 15 re W n
  q
0 g
0.283298 w
2 J
0 j
[] 0.0 d
10 M q 1 0 0 -1 0 0 cm
90.059 -51.844 m 63.98 -25.766 l S Q
  Q
Q
  Q
Q
Q q
75.918 19.305 20 16 re W n
q
75 19 21 17 re W n
  q
Q q
76 19 20 17 re W n
88.949 33.742 m 76.195 32.391 l 76.195 13.551 l 77.895 13.551 l 77.895 
30.301 l 101.707 32.824 l 106.809 32.824 l 106.809 35.09 l 101.707 35.09
 l h
88.949 33.742 m W n
q
76 19 20 17 re W n
  q
0 g
0.283298 w
2 J
0 j
[] 0.0 d
10 M q 1 0 0 -1 0 0 cm
91.855 -50.043 m 65.777 -23.965 l S Q
  Q
Q
  Q
Q
Q q
75.918 17.305 22 18 re W n
q
75 17 23 19 re W n
  q
Q q
76 17 22 19 re W n
88.949 33.742 m 76.195 32.391 l 76.195 13.551 l 77.895 13.551 l 77.895 
30.301 l 101.707 32.824 l 106.809 32.824 l 106.809 35.09 l 101.707 35.09
 l h
88.949 33.742 m W n
q
76 17 22 19 re W n
  q
0 g
0.283298 w
2 J
0 j
[] 0.0 d
10 M q 1 0 0 -1 0 0 cm
93.656 -48.242 m 67.578 -22.164 l S Q
  Q
Q
  Q
Q
Q q
75.918 16.305 24 19 re W n
q
75 16 25 20 re W n
  q
Q q
76 16 24 20 re W n
88.949 33.742 m 76.195 32.391 l 76.195 13.551 l 77.895 13.551 l 77.895 
30.301 l 101.707 32.824 l 106.809 32.824 l 106.809 35.09 l 101.707 35.09
 l h
88.949 33.742 m W n
q
76 16 24 20 re W n
  q
0 g
0.283298 w
2 J
0 j
[] 0.0 d
10 M q 1 0 0 -1 0 0 cm
95.457 -46.445 m 69.379 -20.367 l S Q
  Q
Q
  Q
Q
Q q
75.918 14.305 26 21 re W n
q
75 14 27 22 re W n
  q
Q q
76 14 26 22 re W n
88.949 33.742 m 76.195 32.391 l 76.195 13.551 l 77.895 13.551 l 77.895 
30.301 l 101.707 32.824 l 106.809 32.824 l 106.809 35.09 l 101.707 35.09
 l h
88.949 33.742 m W n
q
76 14 26 22 re W n
  q
0 g
0.283298 w
2 J
0 j
[] 0.0 d
10 M q 1 0 0 -1 0 0 cm
97.258 -44.645 m 71.18 -18.566 l S Q
  Q
Q
  Q
Q
Q q
75.918 13.305 28 22 re W n
q
75 13 29 23 re W n
  q
Q q
76 13 28 23 re W n
88.949 33.742 m 76.195 32.391 l 76.195 13.551 l 77.895 13.551 l 77.895 
30.301 l 101.707 32.824 l 106.809 32.824 l 106.809 35.09 l 101.707 35.09
 l h
88.949 33.742 m W n
q
76 13 28 23 re W n
  q
0 g
0.283298 w
2 J
0 j
[] 0.0 d
10 M q 1 0 0 -1 0 0 cm
99.059 -42.844 m 72.98 -16.766 l S Q
  Q
Q
  Q
Q
Q q
75.918 13.305 29 22 re W n
q
75 13 30 23 re W n
  q
Q q
76 13 29 23 re W n
88.949 33.742 m 76.195 32.391 l 76.195 13.551 l 77.895 13.551 l 77.895 
30.301 l 101.707 32.824 l 106.809 32.824 l 106.809 35.09 l 101.707 35.09
 l h
88.949 33.742 m W n
q
76 13 29 23 re W n
  q
0 g
0.283298 w
2 J
0 j
[] 0.0 d
10 M q 1 0 0 -1 0 0 cm
100.855 -41.043 m 74.777 -14.965 l S Q
  Q
Q
  Q
Q
Q q
75.918 13.305 31 22 re W n
q
75 13 32 23 re W n
  q
Q q
76 13 31 23 re W n
88.949 33.742 m 76.195 32.391 l 76.195 13.551 l 77.895 13.551 l 77.895 
30.301 l 101.707 32.824 l 106.809 32.824 l 106.809 35.09 l 101.707 35.09
 l h
88.949 33.742 m W n
q
76 13 31 23 re W n
  q
0 g
0.283298 w
2 J
0 j
[] 0.0 d
10 M q 1 0 0 -1 0 0 cm
102.656 -39.242 m 76.578 -13.164 l S Q
q 1 0 0 -1 0 0 cm
104.457 -37.445 m 78.379 -11.367 l S Q
q 1 0 0 -1 0 0 cm
106.258 -35.645 m 80.18 -9.566 l S Q
  Q
Q
  Q
Q
Q q
77.918 13.305 29 22 re W n
q
77 13 30 23 re W n
  q
Q q
88.949 33.742 m 76.195 32.391 l 76.195 13.551 l 77.895 13.551 l 77.895 
30.301 l 101.707 32.824 l 106.809 32.824 l 106.809 35.09 l 101.707 35.09
 l h
88.949 33.742 m W n
q
77 13 30 23 re W n
  q
0 g
0.283298 w
2 J
0 j
[] 0.0 d
10 M q 1 0 0 -1 0 0 cm
108.059 -33.844 m 81.98 -7.766 l S Q
  Q
Q
  Q
Q
Q q
78.918 13.305 28 22 re W n
q
78 13 29 23 re W n
  q
Q q
88.949 33.742 m 76.195 32.391 l 76.195 13.551 l 77.895 13.551 l 77.895 
30.301 l 101.707 32.824 l 106.809 32.824 l 106.809 35.09 l 101.707 35.09
 l h
88.949 33.742 m W n
q
78 13 29 23 re W n
  q
0 g
0.283298 w
2 J
0 j
[] 0.0 d
10 M q 1 0 0 -1 0 0 cm
109.855 -32.043 m 83.777 -5.965 l S Q
  Q
Q
  Q
Q
Q q
80.918 13.305 26 21 re W n
q
80 13 27 22 re W n
  q
Q q
88.949 33.742 m 76.195 32.391 l 76.195 13.551 l 77.895 13.551 l 77.895 
30.301 l 101.707 32.824 l 106.809 32.824 l 106.809 35.09 l 101.707 35.09
 l h
88.949 33.742 m W n
q
80 13 27 22 re W n
  q
0 g
0.283298 w
2 J
0 j
[] 0.0 d
10 M q 1 0 0 -1 0 0 cm
111.656 -30.242 m 85.578 -4.164 l S Q
  Q
Q
  Q
Q
Q q
82.918 13.305 24 20 re W n
q
82 13 25 21 re W n
  q
Q q
88.949 33.742 m 76.195 32.391 l 76.195 13.551 l 77.895 13.551 l 77.895 
30.301 l 101.707 32.824 l 106.809 32.824 l 106.809 35.09 l 101.707 35.09
 l h
88.949 33.742 m W n
q
82 13 25 21 re W n
  q
0 g
0.283298 w
2 J
0 j
[] 0.0 d
10 M q 1 0 0 -1 0 0 cm
113.457 -28.445 m 87.379 -2.367 l S Q
  Q
Q
  Q
Q
Q q
84.918 13.305 22 18 re W n
q
84 13 23 19 re W n
  q
Q q
88.949 33.742 m 76.195 32.391 l 76.195 13.551 l 77.895 13.551 l 77.895 
30.301 l 101.707 32.824 l 106.809 32.824 l 106.809 35.09 l 101.707 35.09
 l h
88.949 33.742 m W n
q
84 13 23 19 re W n
  q
0 g
0.283298 w
2 J
0 j
[] 0.0 d
10 M q 1 0 0 -1 0 0 cm
115.258 -26.645 m 89.18 -0.566 l S Q
  Q
Q
  Q
Q
Q q
86.918 13.305 20 16 re W n
q
86 13 21 17 re W n
  q
Q q
88.949 33.742 m 76.195 32.391 l 76.195 13.551 l 77.895 13.551 l 77.895 
30.301 l 101.707 32.824 l 106.809 32.824 l 106.809 35.09 l 101.707 35.09
 l h
88.949 33.742 m W n
q
86 13 21 17 re W n
  q
0 g
0.283298 w
2 J
0 j
[] 0.0 d
10 M q 1 0 0 -1 0 0 cm
117.059 -24.844 m 90.98 1.234 l S Q
  Q
Q
  Q
Q
Q q
87.918 13.305 19 14 re W n
q
87 13 20 15 re W n
  q
Q q
88.949 33.742 m 76.195 32.391 l 76.195 13.551 l 77.895 13.551 l 77.895 
30.301 l 101.707 32.824 l 106.809 32.824 l 106.809 35.09 l 101.707 35.09
 l h
88.949 33.742 m W n
q
87 13 20 15 re W n
  q
0 g
0.283298 w
2 J
0 j
[] 0.0 d
10 M q 1 0 0 -1 0 0 cm
118.855 -23.043 m 92.777 3.035 l S Q
  Q
Q
  Q
Q
Q q
0 g
0.45345 w
0 J
0 j
[] 0.0 d
10 M q 1 0 0 -1 0 0 cm
88.949 -33.742 m 76.195 -32.391 l 76.195 -13.551 l 77.895 -13.551 l 77.895
 -30.301 l 101.707 -32.824 l 106.809 -32.824 l 106.809 -35.09 l 101.707 
-35.09 l h
88.949 -33.742 m S Q
0.74902 g
80.73 137.703 m 101.707 137.703 l 101.707 48.133 l 59.754 48.133 l 59.754
 58.336 l 94.336 58.336 l 94.336 64.004 l 59.754 64.004 l 59.754 76.477 
l 84.133 76.477 l 84.133 69.676 l 97.738 69.676 l 97.738 88.949 l 84.133
 88.949 l 84.133 82.148 l 59.754 82.148 l 59.754 96.32 l 94.336 96.32 l 
94.336 101.988 l 59.754 101.988 l 59.754 115.594 l 84.133 115.594 l 84.133
 108.223 l 97.738 108.223 l 97.738 128.633 l 84.133 128.633 l 84.133 121.266
 l 59.754 121.266 l 59.754 137.703 l f
0 g
q 1 0 0 -1 0 0 cm
80.73 -137.703 m 101.707 -137.703 l 101.707 -48.133 l 59.754 -48.133 l 
59.754 -58.336 l 94.336 -58.336 l 94.336 -64.004 l 59.754 -64.004 l 59.754
 -76.477 l 84.133 -76.477 l 84.133 -69.676 l 97.738 -69.676 l 97.738 -88.949
 l 84.133 -88.949 l 84.133 -82.148 l 59.754 -82.148 l 59.754 -96.32 l 94.336
 -96.32 l 94.336 -101.988 l 59.754 -101.988 l 59.754 -115.594 l 84.133 -115.594
 l 84.133 -108.223 l 97.738 -108.223 l 97.738 -128.633 l 84.133 -128.633
 l 84.133 -121.266 l 59.754 -121.266 l 59.754 -137.703 l h
80.73 -137.703 m S Q
0.74902 g
26.305 137.703 m 5.332 137.703 l 5.332 48.133 l 47.281 48.133 l 47.281 
58.336 l 12.699 58.336 l 12.699 64.004 l 47.281 64.004 l 47.281 76.477 l
 22.902 76.477 l 22.902 69.676 l 9.297 69.676 l 9.297 88.949 l 22.902 88.949
 l 22.902 82.148 l 47.281 82.148 l 47.281 96.32 l 12.699 96.32 l 12.699 
101.988 l 47.281 101.988 l 47.281 115.594 l 22.902 115.594 l 22.902 108.223
 l 9.297 108.223 l 9.297 128.633 l 22.902 128.633 l 22.902 121.266 l 47.281
 121.266 l 47.281 137.703 l f
0 g
q 1 0 0 -1 0 0 cm
26.305 -137.703 m 5.332 -137.703 l 5.332 -48.133 l 47.281 -48.133 l 47.281
 -58.336 l 12.699 -58.336 l 12.699 -64.004 l 47.281 -64.004 l 47.281 -76.477
 l 22.902 -76.477 l 22.902 -69.676 l 9.297 -69.676 l 9.297 -88.949 l 22.902
 -88.949 l 22.902 -82.148 l 47.281 -82.148 l 47.281 -96.32 l 12.699 -96.32
 l 12.699 -101.988 l 47.281 -101.988 l 47.281 -115.594 l 22.902 -115.594
 l 22.902 -108.223 l 9.297 -108.223 l 9.297 -128.633 l 22.902 -128.633 l
 22.902 -121.266 l 47.281 -121.266 l 47.281 -137.703 l h
26.305 -137.703 m S Q
0.498039 g
53.52 137.703 m 55.332 137.703 l 55.332 136.004 l 56.922 136.004 l 56.922
 119.281 l 86.398 119.281 l 86.398 126.367 l 95.469 126.367 l 95.469 110.492
 l 86.398 110.492 l 86.398 117.578 l 56.922 117.578 l 56.922 100.004 l 92.066
 100.004 l 92.066 98.305 l 56.922 98.305 l 56.922 80.16 l 86.398 80.16 l
 86.398 86.684 l 95.469 86.684 l 95.469 71.941 l 86.398 71.941 l 86.398 
78.461 l 56.922 78.461 l 56.922 62.02 l 92.066 62.02 l 92.066 60.32 l 56.922
 60.32 l 56.922 48.133 l 55.332 48.133 l 55.332 1.645 l 54.652 1.645 l 54.086
 2.777 l 52.949 0.508 l 52.383 1.645 l 51.703 1.645 l 51.703 48.133 l 50.117
 48.133 l 50.117 60.32 l 14.969 60.32 l 14.969 62.02 l 50.117 62.02 l 50.117
 78.461 l 20.637 78.461 l 20.637 71.941 l 11.566 71.941 l 11.566 86.684 
l 20.637 86.684 l 20.637 80.16 l 50.117 80.16 l 50.117 98.305 l 14.969 98.305
 l 14.969 100.004 l 50.117 100.004 l 50.117 117.578 l 20.637 117.578 l 20.637
 110.492 l 11.566 110.492 l 11.566 126.367 l 20.637 126.367 l 20.637 119.281
 l 50.117 119.281 l 50.117 136.004 l 51.703 136.004 l 51.703 137.703 l f
Q q
4.918 0 97 139.703 re W n
q
4 0 98 140 re W n
  q
0 g
0.45345 w
0 J
0 j
[] 0.0 d
10 M q 1 0 0 -1 0 0 cm
53.52 -137.703 m 55.332 -137.703 l 55.332 -136.004 l 56.922 -136.004 l 
56.922 -119.281 l 86.398 -119.281 l 86.398 -126.367 l 95.469 -126.367 l 
95.469 -110.492 l 86.398 -110.492 l 86.398 -117.578 l 56.922 -117.578 l 
56.922 -100.004 l 92.066 -100.004 l 92.066 -98.305 l 56.922 -98.305 l 56.922
 -80.16 l 86.398 -80.16 l 86.398 -86.684 l 95.469 -86.684 l 95.469 -71.941
 l 86.398 -71.941 l 86.398 -78.461 l 56.922 -78.461 l 56.922 -62.02 l 92.066
 -62.02 l 92.066 -60.32 l 56.922 -60.32 l 56.922 -48.133 l 55.332 -48.133
 l 55.332 -1.645 l 54.652 -1.645 l 54.086 -2.777 l 52.949 -0.508 l 52.383
 -1.645 l 51.703 -1.645 l 51.703 -48.133 l 50.117 -48.133 l 50.117 -60.32
 l 14.969 -60.32 l 14.969 -62.02 l 50.117 -62.02 l 50.117 -78.461 l 20.637
 -78.461 l 20.637 -71.941 l 11.566 -71.941 l 11.566 -86.684 l 20.637 -86.684
 l 20.637 -80.16 l 50.117 -80.16 l 50.117 -98.305 l 14.969 -98.305 l 14.969
 -100.004 l 50.117 -100.004 l 50.117 -117.578 l 20.637 -117.578 l 20.637
 -110.492 l 11.566 -110.492 l 11.566 -126.367 l 20.637 -126.367 l 20.637
 -119.281 l 50.117 -119.281 l 50.117 -136.004 l 51.703 -136.004 l 51.703
 -137.703 l h
53.52 -137.703 m S Q
  Q
Q
0 g
0.45345 w
0 J
0 j
[] 0.0 d
10 M q 1 0 0 -1 0 0 cm
50.117 -92.066 m 50.117 -136.004 l 56.922 -136.004 l 56.922 -48.133 l 50.117
 -48.133 l h
50.117 -92.066 m S Q
30.031 41.609 m 30.031 41.719 l 30.312 41.781 30.391 41.828 30.391 41.969
 c 30.391 42.094 30.344 42.281 30.25 42.5 c 29.531 44.266 l 28.859 42.484
 l 28.734 42.109 28.734 42.109 28.734 42.016 c 28.734 41.828 28.812 41.781
 29.188 41.719 c 29.188 41.609 l 27.578 41.609 l 27.578 41.719 l 27.859 
41.75 27.969 41.844 28.125 42.266 c 28.156 42.375 28.234 42.578 28.281 42.719
 c 27.562 44.297 l 26.766 42.219 l 26.734 42.141 26.719 42.062 26.719 41.984
 c 26.719 41.812 26.812 41.75 27.094 41.719 c 27.094 41.609 l 25.656 41.609
 l 25.656 41.719 l 25.828 41.734 25.906 41.812 26.078 42.219 c 27.156 44.953
 l 27.25 45.203 27.312 45.297 27.359 45.297 c 27.391 45.297 27.453 45.203
 27.562 44.984 c 28.453 43.078 l 29.172 44.953 l 29.297 45.266 29.312 45.297
 29.359 45.297 c 29.422 45.297 29.453 45.234 29.594 44.906 c 30.688 42.156
 l 30.828 41.812 30.859 41.781 31.016 41.719 c 31.016 41.609 l h
30.031 41.609 m f
34.637 44.656 m 34.512 44.766 34.418 44.812 34.293 44.812 c 34.105 44.812
 34.059 44.703 34.059 44.344 c 34.059 42.797 l 34.059 42.375 34.012 42.156
 33.887 41.953 c 33.715 41.672 33.371 41.516 32.902 41.516 c 32.152 41.516
 31.574 41.906 31.574 42.422 c 31.574 42.594 31.715 42.75 31.902 42.75 c
 32.105 42.75 32.262 42.594 32.262 42.422 c 32.262 42.391 32.262 42.344 
32.246 42.297 c 32.23 42.219 32.23 42.156 32.23 42.109 c 32.23 41.891 32.48
 41.719 32.809 41.719 c 33.199 41.719 33.402 41.938 33.402 42.375 c 33.402
 42.859 l 32.184 43.344 32.043 43.422 31.699 43.719 c 31.527 43.875 31.418
 44.156 31.418 44.422 c 31.418 44.922 31.762 45.266 32.246 45.266 c 32.605
 45.266 32.934 45.094 33.418 44.688 c 33.449 45.109 33.605 45.266 33.934
 45.266 c 34.199 45.266 34.371 45.172 34.637 44.875 c h
33.402 44.203 m 33.402 44.453 33.371 44.531 33.199 44.625 c 32.996 44.734
 32.793 44.812 32.621 44.812 c 32.34 44.812 32.121 44.531 32.121 44.188 
c 32.121 44.156 l 32.121 43.688 32.48 43.375 33.402 43.047 c h
33.402 44.203 m f
36.633 41.609 m 35.836 41.609 l 35.836 40.672 l 35.836 40.594 35.82 40.578
 35.773 40.578 c 35.305 41.25 35.07 41.516 34.836 41.656 c 34.758 41.703
 34.711 41.75 34.711 41.797 c 34.711 41.828 34.711 41.844 34.742 41.859 
c 35.164 41.859 l 35.164 44.25 l 35.164 44.922 35.398 45.266 35.867 45.266
 c 36.258 45.266 36.555 45.078 36.82 44.656 c 36.727 44.578 l 36.539 44.781
 36.414 44.859 36.242 44.859 c 35.945 44.859 35.836 44.641 35.836 44.141
 c 35.836 41.859 l 36.633 41.859 l h
36.633 41.609 m f
40.012 43.875 m 39.637 44.484 39.293 44.719 38.777 44.719 c 38.324 44.719
 37.98 44.484 37.746 44.031 c 37.605 43.734 37.543 43.469 37.527 42.984 
c 39.996 42.984 l 39.918 42.469 39.84 42.234 39.652 41.969 c 39.402 41.688
 39.043 41.516 38.621 41.516 c 38.23 41.516 37.855 41.672 37.543 41.938 
c 37.184 42.266 36.965 42.828 36.965 43.484 c 36.965 44.578 37.527 45.266
 38.449 45.266 c 39.215 45.266 39.809 44.797 40.137 43.938 c h
37.543 42.719 m 37.637 42.109 37.902 41.812 38.402 41.812 c 38.887 41.812
 39.074 42.031 39.184 42.719 c h
37.543 42.719 m f
40.289 45.188 m 42.195 45.188 l 42.195 45.062 l 41.664 45.047 41.539 44.938
 41.523 44.469 c 41.523 42.672 l 41.523 42.422 41.852 42.031 42.07 42.031
 c 42.117 42.031 42.195 42.062 42.289 42.141 c 42.398 42.266 42.492 42.297
 42.602 42.297 c 42.789 42.297 42.914 42.172 42.914 41.938 c 42.914 41.688
 42.742 41.516 42.477 41.516 c 42.133 41.516 41.914 41.703 41.523 42.266
 c 41.523 41.531 l 41.477 41.516 l 41.023 41.703 40.742 41.812 40.305 41.953
 c 40.305 42.078 l 40.414 42.062 40.477 42.047 40.57 42.047 c 40.773 42.047
 40.852 42.172 40.852 42.531 c 40.852 44.516 l 40.836 44.938 40.789 44.984
 40.289 45.062 c h
40.289 45.188 m f
71.707 9.938 m 72.793 12.98 l 73.883 9.938 l 72.793 11.156 l f
0.340124 w
q 1 0 0 -1 0 0 cm
81.863 -7.312 m 72.793 -7.312 l 72.793 -11.156 l S Q
86.117 2.039 m 85.086 2.039 84.367 2.805 84.367 3.914 c 84.367 4.992 85.102
 5.789 86.102 5.789 c 87.117 5.789 87.883 4.961 87.883 3.852 c 87.883 2.789
 87.148 2.039 86.117 2.039 c h
86.023 2.273 m 86.695 2.273 87.164 3.039 87.164 4.133 c 87.164 5.039 86.805
 5.57 86.211 5.57 c 85.898 5.57 85.602 5.383 85.43 5.055 c 85.211 4.648 
85.086 4.086 85.086 3.523 c 85.086 2.758 85.445 2.273 86.023 2.273 c h
86.023 2.273 m f
88.141 7.445 m 90.062 7.445 l 90.062 7.289 l 89.469 7.289 89.375 7.211 
89.359 6.695 c 89.359 5.445 l 89.641 5.711 89.828 5.789 90.172 5.789 c 91.109
 5.789 91.844 4.898 91.844 3.742 c 91.844 2.758 91.281 2.039 90.516 2.039
 c 90.062 2.039 89.719 2.242 89.359 2.68 c 89.359 2.055 l 89.312 2.039 l
 88.875 2.211 88.609 2.32 88.172 2.445 c 88.172 2.586 l 88.234 2.57 88.281
 2.57 88.359 2.57 c 88.641 2.57 88.688 2.648 88.688 3.023 c 88.688 6.758
 l 88.688 7.18 88.609 7.258 88.141 7.305 c h
89.359 3.055 m 89.359 2.805 89.812 2.523 90.172 2.523 c 90.766 2.523 91.156
 3.133 91.156 4.055 c 91.156 4.945 90.766 5.539 90.188 5.539 c 89.812 5.539
 89.359 5.242 89.359 5.008 c h
89.359 3.055 m f
95.301 4.398 m 94.926 5.008 94.582 5.242 94.066 5.242 c 93.613 5.242 93.27
 5.008 93.035 4.555 c 92.895 4.258 92.832 3.992 92.816 3.508 c 95.285 3.508
 l 95.207 2.992 95.129 2.758 94.941 2.492 c 94.691 2.211 94.332 2.039 93.91
 2.039 c 93.52 2.039 93.145 2.195 92.832 2.461 c 92.473 2.789 92.254 3.352
 92.254 4.008 c 92.254 5.102 92.816 5.789 93.738 5.789 c 94.504 5.789 95.098
 5.32 95.426 4.461 c h
92.832 3.242 m 92.926 2.633 93.191 2.336 93.691 2.336 c 94.176 2.336 94.363
 2.555 94.473 3.242 c h
92.832 3.242 m f
95.672 5.711 m 97.359 5.711 l 97.359 5.586 l 96.969 5.57 96.844 5.461 96.844
 5.18 c 96.844 2.945 l 97.219 2.586 97.391 2.477 97.656 2.477 c 98.047 2.477
 98.234 2.727 98.234 3.258 c 98.234 4.93 l 98.219 5.445 98.125 5.57 97.734
 5.586 c 97.734 5.711 l 99.391 5.711 l 99.391 5.586 l 99 5.555 98.922 5.461
 98.906 5.07 c 98.906 3.242 l 98.906 2.492 98.562 2.039 97.969 2.039 c 97.609
 2.039 97.359 2.18 96.812 2.695 c 96.812 2.055 l 96.766 2.039 l 96.344 2.195
 96.078 2.289 95.656 2.398 c 95.656 2.539 l 95.719 2.508 95.781 2.508 95.875
 2.508 c 96.094 2.508 96.172 2.633 96.172 3.023 c 96.172 4.992 l 96.156 
5.461 96.078 5.57 95.672 5.586 c h
95.672 5.711 m f
Q q
0 g
99.617 5.711 m 101.508 5.711 l 101.508 5.586 l 100.977 5.555 100.93 5.477
 100.914 4.898 c 100.914 2.07 l 100.883 2.039 l 99.648 2.477 l 99.648 2.602
 l 99.711 2.602 l 99.805 2.586 99.914 2.57 99.992 2.57 c 100.18 2.57 100.242
 2.695 100.242 3.055 c 100.242 4.898 l 100.227 5.492 100.164 5.57 99.617
 5.586 c h
100.508 0.273 m 100.305 0.273 100.117 0.445 100.117 0.68 c 100.117 0.898
 100.289 1.086 100.508 1.086 c 100.758 1.086 100.93 0.898 100.93 0.68 c 
100.93 0.445 100.742 0.273 100.508 0.273 c h
100.508 0.273 m f
101.793 5.711 m 103.48 5.711 l 103.48 5.586 l 103.09 5.57 102.965 5.461
 102.965 5.18 c 102.965 2.945 l 103.34 2.586 103.512 2.477 103.777 2.477
 c 104.168 2.477 104.355 2.727 104.355 3.258 c 104.355 4.93 l 104.34 5.445
 104.246 5.57 103.855 5.586 c 103.855 5.711 l 105.512 5.711 l 105.512 5.586
 l 105.121 5.555 105.043 5.461 105.027 5.07 c 105.027 3.242 l 105.027 2.492
 104.684 2.039 104.09 2.039 c 103.73 2.039 103.48 2.18 102.934 2.695 c 102.934
 2.055 l 102.887 2.039 l 102.465 2.195 102.199 2.289 101.777 2.398 c 101.777
 2.539 l 101.84 2.508 101.902 2.508 101.996 2.508 c 102.215 2.508 102.293
 2.633 102.293 3.023 c 102.293 4.992 l 102.277 5.461 102.199 5.57 101.793
 5.586 c h
101.793 5.711 m f
109.363 2.617 m 109.363 2.305 l 108.738 2.305 l 108.582 2.305 108.473 2.289
 108.301 2.227 c 108.129 2.164 l 107.926 2.086 107.707 2.039 107.488 2.039
 c 106.754 2.039 106.16 2.617 106.16 3.352 c 106.16 3.852 106.363 4.148 
106.91 4.414 c 106.691 4.602 l 106.535 4.758 106.441 4.852 106.41 4.883 
c 106.238 5.055 106.191 5.148 106.191 5.273 c 106.191 5.461 106.285 5.539
 106.613 5.695 c 106.051 6.117 105.832 6.383 105.832 6.68 c 105.832 7.102
 106.457 7.445 107.223 7.445 c 107.816 7.445 108.441 7.242 108.848 6.898
 c 109.145 6.664 109.285 6.398 109.285 6.102 c 109.285 5.602 108.91 5.273
 108.316 5.242 c 107.301 5.195 l 106.863 5.18 106.676 5.117 106.676 4.992
 c 106.676 4.82 106.941 4.555 107.145 4.477 c 107.441 4.508 107.582 4.523
 107.598 4.523 c 107.895 4.523 108.223 4.398 108.473 4.195 c 108.723 3.961
 108.848 3.68 108.848 3.289 c 108.848 3.055 108.816 2.867 108.691 2.617 
c h
106.785 5.727 m 107.051 5.789 107.676 5.836 108.082 5.836 c 108.801 5.836
 109.066 5.93 109.066 6.227 c 109.066 6.68 108.457 6.992 107.551 6.992 c
 106.848 6.992 106.395 6.758 106.395 6.414 c 106.395 6.227 106.473 6.102
 106.785 5.727 c h
106.832 3.023 m 106.832 2.555 107.051 2.273 107.41 2.273 c 107.66 2.273
 107.863 2.398 107.988 2.648 c 108.145 2.93 108.238 3.273 108.238 3.602 
c 108.238 4.039 108.02 4.32 107.645 4.32 c 107.145 4.32 106.832 3.805 106.832
 3.039 c h
106.832 3.023 m f
114.32 2.133 m 113.336 2.133 l 113.336 1.195 l 113.336 0.727 113.492 0.492
 113.789 0.492 c 113.961 0.492 114.07 0.57 114.211 0.805 c 114.336 1.008
 114.43 1.086 114.57 1.086 c 114.758 1.086 114.898 0.945 114.898 0.758 c
 114.898 0.477 114.555 0.273 114.07 0.273 c 113.57 0.273 113.164 0.477 112.945
 0.836 c 112.742 1.195 112.68 1.492 112.68 2.133 c 112.023 2.133 l 112.023
 2.383 l 112.68 2.383 l 112.68 4.883 l 112.664 5.477 112.57 5.57 112.008
 5.586 c 112.008 5.711 l 114.086 5.711 l 114.086 5.586 l 113.43 5.57 113.336
 5.477 113.336 4.883 c 113.336 2.383 l 114.32 2.383 l h
114.32 2.133 m f
116.477 2.039 m 115.445 2.039 114.727 2.805 114.727 3.914 c 114.727 4.992
 115.461 5.789 116.461 5.789 c 117.477 5.789 118.242 4.961 118.242 3.852
 c 118.242 2.789 117.508 2.039 116.477 2.039 c h
116.383 2.273 m 117.055 2.273 117.523 3.039 117.523 4.133 c 117.523 5.039
 117.164 5.57 116.57 5.57 c 116.258 5.57 115.961 5.383 115.789 5.055 c 115.57
 4.648 115.445 4.086 115.445 3.523 c 115.445 2.758 115.805 2.273 116.383
 2.273 c h
116.383 2.273 m f
118.5 5.711 m 120.406 5.711 l 120.406 5.586 l 119.875 5.57 119.75 5.461
 119.734 4.992 c 119.734 3.195 l 119.734 2.945 120.062 2.555 120.281 2.555
 c 120.328 2.555 120.406 2.586 120.5 2.664 c 120.609 2.789 120.703 2.82 
120.812 2.82 c 121 2.82 121.125 2.695 121.125 2.461 c 121.125 2.211 120.953
 2.039 120.688 2.039 c 120.344 2.039 120.125 2.227 119.734 2.789 c 119.734
 2.055 l 119.688 2.039 l 119.234 2.227 118.953 2.336 118.516 2.477 c 118.516
 2.602 l 118.625 2.586 118.688 2.57 118.781 2.57 c 118.984 2.57 119.062 
2.695 119.062 3.055 c 119.062 5.039 l 119.047 5.461 119 5.508 118.5 5.586
 c h
118.5 5.711 m f
86.164 9.777 m 85.367 9.777 l 85.367 8.84 l 85.367 8.762 85.352 8.746 85.305
 8.746 c 84.836 9.418 84.602 9.684 84.367 9.824 c 84.289 9.871 84.242 9.918
 84.242 9.965 c 84.242 9.996 84.242 10.012 84.273 10.027 c 84.695 10.027
 l 84.695 12.418 l 84.695 13.09 84.93 13.434 85.398 13.434 c 85.789 13.434
 86.086 13.246 86.352 12.824 c 86.258 12.746 l 86.07 12.949 85.945 13.027
 85.773 13.027 c 85.477 13.027 85.367 12.809 85.367 12.309 c 85.367 10.027
 l 86.164 10.027 l h
86.164 9.777 m f
90.168 13.23 m 89.746 13.168 89.699 13.105 89.699 12.543 c 89.699 10.949
 l 89.699 10.121 89.371 9.684 88.715 9.684 c 88.246 9.684 87.918 9.887 87.543
 10.355 c 87.543 7.934 l 87.512 7.918 l 87.23 8.012 87.027 8.074 86.59 8.199
 c 86.371 8.262 l 86.371 8.387 l 86.402 8.387 86.418 8.387 86.465 8.387 
c 86.809 8.387 86.871 8.449 86.871 8.793 c 86.871 12.543 l 86.855 13.121
 86.824 13.184 86.371 13.23 c 86.371 13.355 l 88.09 13.355 l 88.09 13.23
 l 87.621 13.199 87.559 13.105 87.543 12.543 c 87.543 10.621 l 87.871 10.262
 88.121 10.121 88.434 10.121 c 88.824 10.121 89.027 10.402 89.027 10.965
 c 89.027 12.543 l 89.012 13.105 88.934 13.199 88.48 13.23 c 88.48 13.355
 l 90.168 13.355 l h
90.168 13.23 m f
93.504 12.043 m 93.129 12.652 92.785 12.887 92.27 12.887 c 91.816 12.887
 91.473 12.652 91.238 12.199 c 91.098 11.902 91.035 11.637 91.02 11.152 
c 93.488 11.152 l 93.41 10.637 93.332 10.402 93.145 10.137 c 92.895 9.855
 92.535 9.684 92.113 9.684 c 91.723 9.684 91.348 9.84 91.035 10.105 c 90.676
 10.434 90.457 10.996 90.457 11.652 c 90.457 12.746 91.02 13.434 91.941 
13.434 c 92.707 13.434 93.301 12.965 93.629 12.105 c h
91.035 10.887 m 91.129 10.277 91.395 9.98 91.895 9.98 c 92.379 9.98 92.566
 10.199 92.676 10.887 c h
91.035 10.887 m f
93.781 13.355 m 95.688 13.355 l 95.688 13.23 l 95.156 13.215 95.031 13.105
 95.016 12.637 c 95.016 10.84 l 95.016 10.59 95.344 10.199 95.562 10.199
 c 95.609 10.199 95.688 10.23 95.781 10.309 c 95.891 10.434 95.984 10.465
 96.094 10.465 c 96.281 10.465 96.406 10.34 96.406 10.105 c 96.406 9.855
 96.234 9.684 95.969 9.684 c 95.625 9.684 95.406 9.871 95.016 10.434 c 95.016
 9.699 l 94.969 9.684 l 94.516 9.871 94.234 9.98 93.797 10.121 c 93.797 
10.246 l 93.906 10.23 93.969 10.215 94.062 10.215 c 94.266 10.215 94.344
 10.34 94.344 10.699 c 94.344 12.684 l 94.328 13.105 94.281 13.152 93.781
 13.23 c h
93.781 13.355 m f
96.496 13.355 m 98.262 13.355 l 98.262 13.23 l 97.855 13.23 97.73 13.137
 97.73 12.824 c 97.73 10.574 l 97.73 10.559 97.793 10.48 97.84 10.418 c 
98.043 10.246 98.387 10.105 98.668 10.105 c 99.012 10.105 99.199 10.387 
99.199 10.934 c 99.199 12.668 l 99.184 13.121 99.09 13.215 98.652 13.23 
c 98.652 13.355 l 100.434 13.355 l 100.434 13.23 l 99.996 13.23 99.871 13.105
 99.855 12.605 c 99.855 10.59 l 100.105 10.246 100.355 10.105 100.73 10.105
 c 101.184 10.105 101.324 10.324 101.324 10.98 c 101.324 12.668 l 101.309
 13.137 101.262 13.184 100.809 13.23 c 100.809 13.355 l 102.543 13.355 l
 102.543 13.23 l 102.34 13.215 l 102.09 13.184 101.996 13.059 101.996 12.746
 c 101.996 11.105 l 101.996 10.168 101.684 9.684 101.074 9.684 c 100.605
 9.684 100.199 9.902 99.777 10.355 c 99.637 9.902 99.355 9.684 98.934 9.684
 c 98.574 9.684 98.355 9.793 97.699 10.309 c 97.699 9.699 l 97.637 9.684
 l 97.215 9.84 96.949 9.934 96.527 10.043 c 96.527 10.184 l 96.621 10.152
 96.684 10.152 96.777 10.152 c 96.98 10.152 97.059 10.277 97.059 10.668 
c 97.059 12.684 l 97.043 13.121 96.934 13.23 96.496 13.23 c h
96.496 13.355 m f
104.598 9.684 m 103.566 9.684 102.848 10.449 102.848 11.559 c 102.848 12.637
 103.582 13.434 104.582 13.434 c 105.598 13.434 106.363 12.605 106.363 11.496
 c 106.363 10.434 105.629 9.684 104.598 9.684 c h
104.504 9.918 m 105.176 9.918 105.645 10.684 105.645 11.777 c 105.645 12.684
 105.285 13.215 104.691 13.215 c 104.379 13.215 104.082 13.027 103.91 12.699
 c 103.691 12.293 103.566 11.73 103.566 11.168 c 103.566 10.402 103.926 
9.918 104.504 9.918 c h
104.504 9.918 m f
106.699 13.355 m 108.465 13.355 l 108.465 13.23 l 108.059 13.23 107.934
 13.137 107.934 12.824 c 107.934 10.574 l 107.934 10.559 107.996 10.48 108.043
 10.418 c 108.246 10.246 108.59 10.105 108.871 10.105 c 109.215 10.105 109.402
 10.387 109.402 10.934 c 109.402 12.668 l 109.387 13.121 109.293 13.215 
108.855 13.23 c 108.855 13.355 l 110.637 13.355 l 110.637 13.23 l 110.199
 13.23 110.074 13.105 110.059 12.605 c 110.059 10.59 l 110.309 10.246 110.559
 10.105 110.934 10.105 c 111.387 10.105 111.527 10.324 111.527 10.98 c 111.527
 12.668 l 111.512 13.137 111.465 13.184 111.012 13.23 c 111.012 13.355 l
 112.746 13.355 l 112.746 13.23 l 112.543 13.215 l 112.293 13.184 112.199
 13.059 112.199 12.746 c 112.199 11.105 l 112.199 10.168 111.887 9.684 111.277
 9.684 c 110.809 9.684 110.402 9.902 109.98 10.355 c 109.84 9.902 109.559
 9.684 109.137 9.684 c 108.777 9.684 108.559 9.793 107.902 10.309 c 107.902
 9.699 l 107.84 9.684 l 107.418 9.84 107.152 9.934 106.73 10.043 c 106.73
 10.184 l 106.824 10.152 106.887 10.152 106.98 10.152 c 107.184 10.152 107.262
 10.277 107.262 10.668 c 107.262 12.684 l 107.246 13.121 107.137 13.23 106.699
 13.23 c h
106.699 13.355 m f
116.062 12.043 m 115.688 12.652 115.344 12.887 114.828 12.887 c 114.375
 12.887 114.031 12.652 113.797 12.199 c 113.656 11.902 113.594 11.637 113.578
 11.152 c 116.047 11.152 l 115.969 10.637 115.891 10.402 115.703 10.137 
c 115.453 9.855 115.094 9.684 114.672 9.684 c 114.281 9.684 113.906 9.84
 113.594 10.105 c 113.234 10.434 113.016 10.996 113.016 11.652 c 113.016
 12.746 113.578 13.434 114.5 13.434 c 115.266 13.434 115.859 12.965 116.188
 12.105 c h
113.594 10.887 m 113.688 10.277 113.953 9.98 114.453 9.98 c 114.938 9.98
 115.125 10.199 115.234 10.887 c h
113.594 10.887 m f
118.324 9.777 m 117.527 9.777 l 117.527 8.84 l 117.527 8.762 117.512 8.746
 117.465 8.746 c 116.996 9.418 116.762 9.684 116.527 9.824 c 116.449 9.871
 116.402 9.918 116.402 9.965 c 116.402 9.996 116.402 10.012 116.434 10.027
 c 116.855 10.027 l 116.855 12.418 l 116.855 13.09 117.09 13.434 117.559
 13.434 c 117.949 13.434 118.246 13.246 118.512 12.824 c 118.418 12.746 
l 118.23 12.949 118.105 13.027 117.934 13.027 c 117.637 13.027 117.527 12.809
 117.527 12.309 c 117.527 10.027 l 118.324 10.027 l h
118.324 9.777 m f
121.703 12.043 m 121.328 12.652 120.984 12.887 120.469 12.887 c 120.016
 12.887 119.672 12.652 119.438 12.199 c 119.297 11.902 119.234 11.637 119.219
 11.152 c 121.688 11.152 l 121.609 10.637 121.531 10.402 121.344 10.137 
c 121.094 9.855 120.734 9.684 120.312 9.684 c 119.922 9.684 119.547 9.84
 119.234 10.105 c 118.875 10.434 118.656 10.996 118.656 11.652 c 118.656
 12.746 119.219 13.434 120.141 13.434 c 120.906 13.434 121.5 12.965 121.828
 12.105 c h
119.234 10.887 m 119.328 10.277 119.594 9.98 120.094 9.98 c 120.578 9.98
 120.766 10.199 120.875 10.887 c h
119.234 10.887 m f
121.98 13.355 m 123.887 13.355 l 123.887 13.23 l 123.355 13.215 123.23 
13.105 123.215 12.637 c 123.215 10.84 l 123.215 10.59 123.543 10.199 123.762
 10.199 c 123.809 10.199 123.887 10.23 123.98 10.309 c 124.09 10.434 124.184
 10.465 124.293 10.465 c 124.48 10.465 124.605 10.34 124.605 10.105 c 124.605
 9.855 124.434 9.684 124.168 9.684 c 123.824 9.684 123.605 9.871 123.215
 10.434 c 123.215 9.699 l 123.168 9.684 l 122.715 9.871 122.434 9.98 121.996
 10.121 c 121.996 10.246 l 122.105 10.23 122.168 10.215 122.262 10.215 c
 122.465 10.215 122.543 10.34 122.543 10.699 c 122.543 12.684 l 122.527 
13.105 122.48 13.152 121.98 13.23 c h
121.98 13.355 m f
Q Q
showpage
%%Trailer
end
%%EOF
