<?xml version="1.0" encoding="UTF-8" standalone="no"?>
<svg
   width="125.6pt"
   height="68.6pt"
   viewBox="0 0 125.6 68.6"
   version="1.2"
   id="svg81"
   xmlns:xlink="http://www.w3.org/1999/xlink"
   xmlns="http://www.w3.org/2000/svg"
   xmlns:svg="http://www.w3.org/2000/svg">
  <defs
     id="defs28">
    <g
       id="g17">
      <symbol
         overflow="visible"
         id="glyph0-0">
        <path
           style="stroke:none;"
           d=""
           id="path2" />
      </symbol>
      <symbol
         overflow="visible"
         id="glyph0-1">
        <path
           style="stroke:none;"
           d="M 2.640625 -6.0625 C 1.984375 -5.625 1.71875 -5.40625 1.375 -4.984375 C 0.75 -4.203125 0.4375 -3.3125 0.4375 -2.265625 C 0.4375 -1.109375 0.765625 -0.234375 1.546875 0.671875 C 1.921875 1.109375 2.15625 1.296875 2.625 1.59375 L 2.71875 1.4375 C 2.015625 0.875 1.765625 0.5625 1.515625 -0.109375 C 1.296875 -0.703125 1.203125 -1.375 1.203125 -2.28125 C 1.203125 -3.234375 1.3125 -3.96875 1.5625 -4.515625 C 1.8125 -5.078125 2.078125 -5.40625 2.71875 -5.921875 Z M 2.640625 -6.0625 "
           id="path5" />
      </symbol>
      <symbol
         overflow="visible"
         id="glyph0-2">
        <path
           style="stroke:none;"
           d="M 3.96875 -0.59375 C 3.8125 -0.46875 3.703125 -0.421875 3.5625 -0.421875 C 3.359375 -0.421875 3.296875 -0.546875 3.296875 -0.9375 L 3.296875 -2.6875 C 3.296875 -3.15625 3.25 -3.421875 3.125 -3.625 C 2.921875 -3.953125 2.53125 -4.125 2.015625 -4.125 C 1.171875 -4.125 0.5 -3.6875 0.5 -3.125 C 0.5 -2.921875 0.671875 -2.734375 0.890625 -2.734375 C 1.109375 -2.734375 1.296875 -2.921875 1.296875 -3.109375 C 1.296875 -3.140625 1.28125 -3.1875 1.28125 -3.25 C 1.25 -3.34375 1.25 -3.40625 1.25 -3.46875 C 1.25 -3.71875 1.53125 -3.90625 1.890625 -3.90625 C 2.328125 -3.90625 2.578125 -3.65625 2.578125 -3.171875 L 2.578125 -2.625 C 1.203125 -2.078125 1.046875 -1.984375 0.65625 -1.65625 C 0.453125 -1.46875 0.328125 -1.171875 0.328125 -0.875 C 0.328125 -0.3125 0.71875 0.09375 1.28125 0.09375 C 1.671875 0.09375 2.03125 -0.09375 2.578125 -0.5625 C 2.625 -0.09375 2.796875 0.09375 3.15625 0.09375 C 3.46875 0.09375 3.65625 -0.015625 3.96875 -0.359375 Z M 2.578125 -1.109375 C 2.578125 -0.828125 2.53125 -0.734375 2.34375 -0.625 C 2.109375 -0.5 1.875 -0.4375 1.6875 -0.4375 C 1.375 -0.4375 1.125 -0.734375 1.125 -1.125 L 1.125 -1.15625 C 1.125 -1.6875 1.53125 -2.03125 2.578125 -2.40625 Z M 2.578125 -1.109375 "
           id="path8" />
      </symbol>
      <symbol
         overflow="visible"
         id="glyph0-3">
        <path
           style="stroke:none;"
           d="M 0.34375 1.59375 C 1 1.140625 1.28125 0.921875 1.609375 0.515625 C 2.25 -0.265625 2.5625 -1.171875 2.5625 -2.21875 C 2.5625 -3.359375 2.21875 -4.234375 1.4375 -5.140625 C 1.0625 -5.578125 0.828125 -5.78125 0.375 -6.0625 L 0.265625 -5.921875 C 0.984375 -5.359375 1.21875 -5.046875 1.46875 -4.375 C 1.6875 -3.765625 1.78125 -3.09375 1.78125 -2.1875 C 1.78125 -1.25 1.671875 -0.515625 1.421875 0.03125 C 1.1875 0.59375 0.90625 0.921875 0.265625 1.4375 Z M 0.34375 1.59375 "
           id="path11" />
      </symbol>
      <symbol
         overflow="visible"
         id="glyph0-4">
        <path
           style="stroke:none;"
           d="M 1.375 -6.109375 L 1.328125 -6.125 C 0.953125 -6 0.71875 -5.921875 0.28125 -5.796875 L 0.03125 -5.734375 L 0.03125 -5.59375 C 0.078125 -5.59375 0.109375 -5.59375 0.171875 -5.59375 C 0.53125 -5.59375 0.625 -5.515625 0.625 -5.140625 L 0.625 -0.484375 C 0.625 -0.203125 1.375 0.09375 2.09375 0.09375 C 3.28125 0.09375 4.203125 -0.890625 4.203125 -2.171875 C 4.203125 -3.296875 3.515625 -4.125 2.625 -4.125 C 2.078125 -4.125 1.546875 -3.8125 1.375 -3.359375 Z M 1.375 -2.890625 C 1.375 -3.234375 1.796875 -3.5625 2.265625 -3.5625 C 2.515625 -3.5625 2.734375 -3.46875 2.921875 -3.296875 C 3.203125 -3.015625 3.40625 -2.40625 3.40625 -1.765625 C 3.40625 -0.765625 2.984375 -0.203125 2.25 -0.203125 C 1.78125 -0.203125 1.375 -0.390625 1.375 -0.625 Z M 1.375 -2.890625 "
           id="path14" />
      </symbol>
    </g>
    <clipPath
       id="clip1">
      <path
         d="M 73 0 L 125.601562 0 L 125.601562 52 L 73 52 Z M 73 0 "
         id="path19" />
    </clipPath>
    <clipPath
       id="clip2">
      <path
         d="M 71 0 L 125.601562 0 L 125.601562 47 L 71 47 Z M 71 0 "
         id="path22" />
    </clipPath>
    <clipPath
       id="clip3">
      <path
         d="M 101 18 L 125.601562 18 L 125.601562 50 L 101 50 Z M 101 18 "
         id="path25" />
    </clipPath>
  </defs>
  <g
     id="surface1">
    <path
       style="fill:none;stroke-width:8.50361;stroke-linecap:butt;stroke-linejoin:miter;stroke:rgb(0%,0%,0%);stroke-opacity:1;stroke-miterlimit:10;"
       d="M 4.804688 427.132812 L 4.804688 682.25 L 515.039062 682.25 L 515.039062 172.015625 L 4.804688 172.015625 Z M 4.804688 427.132812 "
       transform="matrix(0.1,0,0,-0.1,0,68.6)"
       id="path30" />
    <g
       clip-path="url(#clip1)"
       clip-rule="nonzero"
       id="g34">
      <path
         style="fill:none;stroke-width:8.50361;stroke-linecap:butt;stroke-linejoin:miter;stroke:rgb(0%,0%,0%);stroke-opacity:1;stroke-miterlimit:10;"
         d="M 741.796875 427.132812 L 741.796875 682.25 L 1252.03125 682.25 L 1252.03125 172.015625 L 741.796875 172.015625 Z M 741.796875 427.132812 "
         transform="matrix(0.1,0,0,-0.1,0,68.6)"
         id="path32" />
    </g>
    <path
       style=" stroke:none;fill-rule:nonzero;fill:rgb(0%,0%,0%);fill-opacity:1;"
       d="M 40.070312 30.652344 L 43 34.390625 L 43.101562 29.644531 L 42.148438 31.847656 "
       id="path36" />
    <path
       style="fill:none;stroke-width:8.50361;stroke-linecap:butt;stroke-linejoin:miter;stroke:rgb(0%,0%,0%);stroke-opacity:1;stroke-miterlimit:10"
       d="M 89.8438 342.094 L 92.4219 349.828 L 99.4435 370.007 M 100.469 372.953 M 102.784 379.262 L 111.094 401.898 L 113.078 406.925 M 116.691 416.077 L 121.719 428.812 L 127.926 443.372 M 131.784 452.422 L 132.344 453.734 L 142.93 476.703 L 144.194 479.204 M 148.633 487.984 L 153.555 497.719 L 162.604 513.981 M 164.141 516.742 M 167.661 522.419 L 174.727 533.812 L 183.969 547.011 M 185.312 548.93 M 190.011 554.772 L 195.898 562.094 L 206.406 573.305 L 209.975 576.451 M 216.953 582.602 M 217.393 582.909 L 227.461 589.945 L 237.93 595.336 L 243.112 597.057 M 248.398 598.812 M 252.621 599.443 L 258.867 600.375 L 269.258 600.023 L 279.648 597.758 L 281.661 596.941 M 290.039 593.539 M 290.726 593.133 L 300.352 587.445 L 310.664 579.477 L 314.486 575.8 M 320.938 569.594 M 321.521 568.924 L 331.172 557.836 L 340.03 545.957 M 341.367 544.164 M 345.526 537.799 L 351.523 528.617 L 360.839 512.575 M 361.641 511.195 M 365.457 503.888 L 371.719 491.898 L 378.603 477.463 M 381.797 470.766 M 382.76 468.547 L 391.797 447.719 L 394.321 441.389 M 397.965 432.25 L 401.719 422.836 L 408.467 404.663 M 411.641 396.117 M 411.878 395.435 L 419.102 374.711 L 421.484 367.523 M 421.484 367.523"
       transform="matrix(0.1,0,0,-0.1,0,68.6)"
       id="path38" />
    <path
       style=" stroke:none;fill-rule:nonzero;fill:rgb(100%,100%,100%);fill-opacity:1;"
       d="M 12.386719 34.390625 C 12.386719 32.511719 10.863281 30.992188 8.984375 30.992188 C 7.105469 30.992188 5.582031 32.511719 5.582031 34.390625 C 5.582031 36.269531 7.105469 37.792969 8.984375 37.792969 C 10.863281 37.792969 12.386719 36.269531 12.386719 34.390625 "
       id="path40" />
    <path
       style="fill:none;stroke-width:8.50361;stroke-linecap:butt;stroke-linejoin:miter;stroke:rgb(0%,0%,0%);stroke-opacity:1;stroke-miterlimit:10;"
       d="M 123.867188 342.09375 C 123.867188 360.882812 108.632812 376.078125 89.84375 376.078125 C 71.054688 376.078125 55.820312 360.882812 55.820312 342.09375 C 55.820312 323.304688 71.054688 308.070312 89.84375 308.070312 C 108.632812 308.070312 123.867188 323.304688 123.867188 342.09375 Z M 123.867188 342.09375 "
       transform="matrix(0.1,0,0,-0.1,0,68.6)"
       id="path42" />
    <path
       style=" stroke:none;fill-rule:nonzero;fill:rgb(0%,0%,0%);fill-opacity:1;"
       d="M 82.585938 29.644531 L 82.683594 34.390625 L 85.613281 30.652344 L 83.53125 31.847656 "
       id="path44" />
    <g
       clip-path="url(#clip2)"
       clip-rule="nonzero"
       id="g48">
      <path
         style="fill:none;stroke-width:8.50361;stroke-linecap:butt;stroke-linejoin:miter;stroke:rgb(0%,0%,0%);stroke-opacity:1;stroke-miterlimit:10;clip-rule:nonzero"
         d="M 1166.99 342.094 L 1164.41 349.828 L 1157.39 370.007 M 1156.37 372.953 M 1154.05 379.263 L 1145.74 401.898 L 1143.76 406.927 M 1140.14 416.079 L 1135.12 428.812 L 1128.91 443.373 M 1125.05 452.425 L 1124.49 453.734 L 1113.91 476.703 L 1112.64 479.206 M 1108.2 487.987 L 1103.28 497.719 L 1094.23 513.984 M 1092.7 516.742 M 1089.17 522.422 L 1082.11 533.812 L 1072.87 547.013 M 1071.52 548.93 M 1066.83 554.783 L 1060.98 562.094 L 1050.43 573.305 L 1046.86 576.451 M 1039.88 582.602 M 1039.44 582.91 L 1029.38 589.945 L 1018.91 595.336 L 1013.72 597.058 M 1008.44 598.812 M 1004.21 599.443 L 997.969 600.375 L 987.578 600.023 L 977.188 597.758 L 975.173 596.94 M 966.797 593.539 M 966.108 593.132 L 956.484 587.445 L 946.172 579.477 L 942.347 575.797 M 935.898 569.594 M 935.313 568.922 L 925.664 557.836 L 916.804 545.955 M 915.469 544.164 M 911.309 537.796 L 905.312 528.617 L 895.994 512.571 M 895.195 511.195 M 891.365 503.89 L 885.078 491.898 L 878.222 477.465 M 875.039 470.766 M 874.075 468.543 L 865.039 447.719 L 862.514 441.385 M 858.869 432.245 L 855.117 422.836 L 848.368 404.661 M 845.195 396.117 M 844.956 395.431 L 837.734 374.711 L 835.315 367.532 M 835.312 367.523"
         transform="matrix(0.1,0,0,-0.1,0,68.6)"
         id="path46" />
      <path
         style="display:none;fill:none;stroke:#000000;stroke-width:8.50361;stroke-linecap:butt;stroke-linejoin:miter;stroke-miterlimit:10;stroke-dasharray:29.5188, 9.83959;stroke-opacity:1"
         d="m 1166.9922,342.09375 -2.5781,7.73437 -8.0469,23.125 -10.625,28.94532 -10.625,26.91406 -10.625,24.92187 -10.5859,22.96875 -10.625,21.01563 -10.586,19.02344 -10.5859,17.07031 -10.586,15.11719 -10.5468,13.16406 -10.5469,11.21094 -10.5469,9.29687 -10.5078,7.34375 -10.4688,5.39063 -10.4687,3.47656 -10.46875,1.5625 -10.39063,-0.35156 -10.39062,-2.26563 -10.39063,-4.21875 -10.3125,-6.09375 -10.3125,-7.96875 -10.27343,-9.88281 -10.23438,-11.75781 -10.19531,-13.67188 -10.15625,-15.54687 -10.11719,-17.42188 -10.11719,-19.29687 -10.03906,-21.13282 -10,-23.04687 -9.92187,-24.88281 -9.92188,-26.71875 -7.46094,-21.40625 -2.42187,-7.1875"
         transform="matrix(0.1,0,0,-0.1,0,68.6)"
         id="path1471" />
    </g>
    <path
       style=" stroke:none;fill-rule:nonzero;fill:rgb(100%,100%,100%);fill-opacity:1;"
       d="M 120.101562 34.390625 C 120.101562 32.511719 118.578125 30.992188 116.699219 30.992188 C 114.820312 30.992188 113.300781 32.511719 113.300781 34.390625 C 113.300781 36.269531 114.820312 37.792969 116.699219 37.792969 C 118.578125 37.792969 120.101562 36.269531 120.101562 34.390625 "
       id="path50" />
    <g
       clip-path="url(#clip3)"
       clip-rule="nonzero"
       id="g54">
      <path
         style="fill:none;stroke-width:8.50361;stroke-linecap:butt;stroke-linejoin:miter;stroke:rgb(0%,0%,0%);stroke-opacity:1;stroke-miterlimit:10;"
         d="M 1201.015625 342.09375 C 1201.015625 360.882812 1185.78125 376.078125 1166.992188 376.078125 C 1148.203125 376.078125 1133.007812 360.882812 1133.007812 342.09375 C 1133.007812 323.304688 1148.203125 308.070312 1166.992188 308.070312 C 1185.78125 308.070312 1201.015625 323.304688 1201.015625 342.09375 Z M 1201.015625 342.09375 "
         transform="matrix(0.1,0,0,-0.1,0,68.6)"
         id="path52" />
    </g>
    <g
       style="fill:rgb(0%,0%,0%);fill-opacity:1;"
       id="g58">
      <use
         xlink:href="#glyph0-1"
         x="21.0711"
         y="66.03984"
         id="use56" />
    </g>
    <g
       style="fill:rgb(0%,0%,0%);fill-opacity:1;"
       id="g62">
      <use
         xlink:href="#glyph0-2"
         x="24.0711"
         y="66.03984"
         id="use60" />
    </g>
    <g
       style="fill:rgb(0%,0%,0%);fill-opacity:1;"
       id="g66">
      <use
         xlink:href="#glyph0-3"
         x="28.031256"
         y="66.03984"
         id="use64" />
    </g>
    <g
       style="fill:rgb(0%,0%,0%);fill-opacity:1;"
       id="g70">
      <use
         xlink:href="#glyph0-1"
         x="94.412505"
         y="66.03984"
         id="use68" />
    </g>
    <g
       style="fill:rgb(0%,0%,0%);fill-opacity:1;"
       id="g74">
      <use
         xlink:href="#glyph0-4"
         x="97.412506"
         y="66.03984"
         id="use72" />
    </g>
    <g
       style="fill:rgb(0%,0%,0%);fill-opacity:1;"
       id="g78">
      <use
         xlink:href="#glyph0-3"
         x="101.852349"
         y="66.03984"
         id="use76" />
    </g>
    <path
       style="display:none;fill:none;stroke:#000000;stroke-width:8.50361;stroke-linecap:butt;stroke-linejoin:miter;stroke-miterlimit:10;stroke-dasharray:29.5184, 9.83948;stroke-opacity:1"
       d="m 89.84375,342.09375 2.578125,7.73437 8.046875,23.125 10.625,28.94532 10.625,26.91406 10.625,24.92187 10.58594,22.96875 10.625,21.01563 10.58593,19.02344 10.58594,17.07031 10.58594,15.11719 10.58594,13.16406 10.50781,11.21094 10.54687,9.29687 10.50782,7.34375 10.46875,5.39063 10.46875,3.47656 10.46875,1.5625 10.39062,-0.35156 10.39063,-2.26563 10.39062,-4.21875 10.3125,-6.09375 10.3125,-7.96875 10.27344,-9.88281 10.23437,-11.75781 10.19532,-13.67188 10.15625,-15.54687 10.11718,-17.42188 10.07813,-19.29687 10.07812,-21.13282 10,-23.04687 9.92188,-24.88281 9.92187,-26.71875 7.46094,-21.40625 2.38281,-7.1875"
       transform="matrix(0.1,0,0,-0.1,0,68.6)"
       id="path770" />
  </g>
</svg>
