%!PS-Adobe-3.0 EPSF-3.0
%%Creator: cairo 1.17.4 (https://cairographics.org)
%%CreationDate: Thu Feb 24 10:47:21 2022
%%Pages: 1
%%DocumentData: Clean7Bit
%%LanguageLevel: 2
%%BoundingBox: 0 0 126 68
%%EndComments
%%BeginProlog
50 dict begin
/q { gsave } bind def
/Q { grestore } bind def
/cm { 6 array astore concat } bind def
/w { setlinewidth } bind def
/J { setlinecap } bind def
/j { setlinejoin } bind def
/M { setmiterlimit } bind def
/d { setdash } bind def
/m { moveto } bind def
/l { lineto } bind def
/c { curveto } bind def
/h { closepath } bind def
/re { exch dup neg 3 1 roll 5 3 roll moveto 0 rlineto
      0 exch rlineto 0 rlineto closepath } bind def
/S { stroke } bind def
/f { fill } bind def
/f* { eofill } bind def
/n { newpath } bind def
/W { clip } bind def
/W* { eoclip } bind def
/BT { } bind def
/ET { } bind def
/BDC { mark 3 1 roll /BDC pdfmark } bind def
/EMC { mark /EMC pdfmark } bind def
/cairo_store_point { /cairo_point_y exch def /cairo_point_x exch def } def
/Tj { show currentpoint cairo_store_point } bind def
/TJ {
  {
    dup
    type /stringtype eq
    { show } { -0.001 mul 0 cairo_font_matrix dtransform rmoveto } ifelse
  } forall
  currentpoint cairo_store_point
} bind def
/cairo_selectfont { cairo_font_matrix aload pop pop pop 0 0 6 array astore
    cairo_font exch selectfont cairo_point_x cairo_point_y moveto } bind def
/Tf { pop /cairo_font exch def /cairo_font_matrix where
      { pop cairo_selectfont } if } bind def
/Td { matrix translate cairo_font_matrix matrix concatmatrix dup
      /cairo_font_matrix exch def dup 4 get exch 5 get cairo_store_point
      /cairo_font where { pop cairo_selectfont } if } bind def
/Tm { 2 copy 8 2 roll 6 array astore /cairo_font_matrix exch def
      cairo_store_point /cairo_font where { pop cairo_selectfont } if } bind def
/g { setgray } bind def
/rg { setrgbcolor } bind def
/d1 { setcachedevice } bind def
/cairo_data_source {
  CairoDataIndex CairoData length lt
    { CairoData CairoDataIndex get /CairoDataIndex CairoDataIndex 1 add def }
    { () } ifelse
} def
/cairo_flush_ascii85_file { cairo_ascii85_file status { cairo_ascii85_file flushfile } if } def
/cairo_image { image cairo_flush_ascii85_file } def
/cairo_imagemask { imagemask cairo_flush_ascii85_file } def
%%EndProlog
%%BeginSetup
%%EndSetup
%%Page: 1 1
%%BeginPageSetup
%%PageBoundingBox: 0 0 126 68
%%EndPageSetup
q 0 0 126 68 rectclip
1 0 0 -1 0 68 cm q
0 g
0.850361 w
0 J
0 j
[] 0.0 d
10 M q 1 0 0 -1 0 0 cm
0.426 -25.938 m 0.426 -0.426 l 51.449 -0.426 l 51.449 -51.449 l 0.426 -51.449
 l h
0.426 -25.938 m S Q
Q q
72.945 0.051 52.602 52 re W n
q
72 0 54 53 re W n
  q
0 g
0.850361 w
0 J
0 j
[] 0.0 d
10 M q 1 0 0 -1 0 0 cm
74.125 -25.938 m 74.125 -0.426 l 125.148 -0.426 l 125.148 -51.449 l 74.125
 -51.449 l h
74.125 -25.938 m S Q
  Q
Q
Q q
0 g
40.016 30.703 m 42.945 34.441 l 43.047 29.695 l 42.094 31.898 l f
0.850361 w
0 J
0 j
[] 0.0 d
10 M q 1 0 0 -1 0 0 cm
8.93 -34.441 m 9.188 -33.668 l 9.891 -31.648 l 10.223 -30.723 m 11.055 
-28.461 l 11.254 -27.957 l 11.613 -27.043 m 12.117 -25.77 l 12.738 -24.312
 l 13.125 -23.406 m 13.18 -23.277 l 14.238 -20.98 l 14.363 -20.73 l 14.809
 -19.852 m 15.301 -18.879 l 16.207 -17.254 l 16.711 -16.41 m 17.418 -15.27
 l 18.34 -13.949 l 18.945 -13.172 m 19.535 -12.441 l 20.586 -11.32 l 20.941
 -11.004 l 21.684 -10.359 m 22.691 -9.656 l 23.738 -9.117 l 24.258 -8.945
 l 25.207 -8.707 m 25.832 -8.613 l 26.871 -8.648 l 27.91 -8.875 l 28.109
 -8.957 l 29.016 -9.336 m 29.98 -9.906 l 31.012 -10.703 l 31.395 -11.07 
l 32.098 -11.758 m 33.062 -12.867 l 33.949 -14.055 l 34.496 -14.871 m 35.098
 -15.789 l 36.027 -17.395 l 36.492 -18.262 m 37.117 -19.461 l 37.805 -20.902
 l 38.223 -21.797 m 39.125 -23.879 l 39.375 -24.512 l 39.742 -25.426 m 40.117
 -26.367 l 40.793 -28.184 l 41.133 -29.105 m 41.855 -31.18 l 42.094 -31.898
 l S Q
1 g
12.332 34.441 m 12.332 32.562 10.809 31.043 8.93 31.043 c 7.051 31.043 
5.527 32.562 5.527 34.441 c 5.527 36.32 7.051 37.844 8.93 37.844 c 10.809
 37.844 12.332 36.32 12.332 34.441 c f
0 g
q 1 0 0 -1 0 0 cm
12.332 -34.441 m 12.332 -32.562 10.809 -31.043 8.93 -31.043 c 7.051 -31.043
 5.527 -32.562 5.527 -34.441 c 5.527 -36.32 7.051 -37.844 8.93 -37.844 c
 10.809 -37.844 12.332 -36.32 12.332 -34.441 c h
12.332 -34.441 m S Q
82.531 29.695 m 82.629 34.441 l 85.559 30.703 l 83.477 31.898 l f
Q q
70.945 0.051 54.602 47 re W n
q
70 0 56 48 re W n
  q
0 g
0.850361 w
0 J
0 j
[] 0.0 d
10 M q 1 0 0 -1 0 0 cm
116.645 -34.441 m 116.387 -33.668 l 115.684 -31.648 l 115.352 -30.723 m
 114.52 -28.461 l 114.32 -27.957 l 113.957 -27.043 m 113.457 -25.77 l 112.836
 -24.312 l 112.449 -23.406 m 112.395 -23.277 l 111.336 -20.98 l 111.207 
-20.73 l 110.766 -19.852 m 110.273 -18.879 l 109.367 -17.25 l 108.863 -16.406
 m 108.156 -15.27 l 107.23 -13.949 l 106.629 -13.172 m 106.043 -12.441 l
 104.988 -11.32 l 104.629 -11.004 l 103.891 -10.359 m 102.883 -9.656 l 101.836
 -9.117 l 101.316 -8.945 l 100.367 -8.707 m 99.742 -8.613 l 98.703 -8.648
 l 97.664 -8.875 l 97.461 -8.957 l 96.555 -9.336 m 95.594 -9.906 l 94.562
 -10.703 l 94.18 -11.07 l 93.477 -11.758 m 92.512 -12.867 l 91.625 -14.055
 l 91.074 -14.871 m 90.477 -15.789 l 89.543 -17.395 l 89.082 -18.262 m 88.453
 -19.461 l 87.766 -20.902 l 87.352 -21.797 m 86.449 -23.879 l 86.195 -24.512
 l 85.832 -25.426 m 85.457 -26.367 l 84.781 -28.184 l 84.441 -29.105 m 83.719
 -31.18 l 83.477 -31.898 l S Q
  Q
Q
1 g
120.047 34.441 m 120.047 32.562 118.523 31.043 116.645 31.043 c 114.766
 31.043 113.246 32.562 113.246 34.441 c 113.246 36.32 114.766 37.844 116.645
 37.844 c 118.523 37.844 120.047 36.32 120.047 34.441 c f
Q q
100.945 18.051 24.602 32 re W n
q
100 18 26 33 re W n
  q
0 g
0.850361 w
0 J
0 j
[] 0.0 d
10 M q 1 0 0 -1 0 0 cm
120.047 -34.441 m 120.047 -32.562 118.523 -31.043 116.645 -31.043 c 114.766
 -31.043 113.246 -32.562 113.246 -34.441 c 113.246 -36.32 114.766 -37.844
 116.645 -37.844 c 118.523 -37.844 120.047 -36.32 120.047 -34.441 c h
120.047 -34.441 m S Q
  Q
Q
Q q
0 g
23.656 60.027 m 23 60.465 22.734 60.684 22.391 61.105 c 21.766 61.887 21.453
 62.777 21.453 63.824 c 21.453 64.98 21.781 65.855 22.562 66.762 c 22.938
 67.199 23.172 67.387 23.641 67.684 c 23.734 67.527 l 23.031 66.965 22.781
 66.652 22.531 65.98 c 22.312 65.387 22.219 64.715 22.219 63.809 c 22.219
 62.855 22.328 62.121 22.578 61.574 c 22.828 61.012 23.094 60.684 23.734
 60.168 c h
23.656 60.027 m f
27.984 65.496 m 27.828 65.621 27.719 65.668 27.578 65.668 c 27.375 65.668
 27.312 65.543 27.312 65.152 c 27.312 63.402 l 27.312 62.934 27.266 62.668
 27.141 62.465 c 26.938 62.137 26.547 61.965 26.031 61.965 c 25.188 61.965
 24.516 62.402 24.516 62.965 c 24.516 63.168 24.688 63.355 24.906 63.355
 c 25.125 63.355 25.312 63.168 25.312 62.98 c 25.312 62.949 25.297 62.902
 25.297 62.84 c 25.266 62.746 25.266 62.684 25.266 62.621 c 25.266 62.371
 25.547 62.184 25.906 62.184 c 26.344 62.184 26.594 62.434 26.594 62.918
 c 26.594 63.465 l 25.219 64.012 25.062 64.105 24.672 64.434 c 24.469 64.621
 24.344 64.918 24.344 65.215 c 24.344 65.777 24.734 66.184 25.297 66.184
 c 25.688 66.184 26.047 65.996 26.594 65.527 c 26.641 65.996 26.812 66.184
 27.172 66.184 c 27.484 66.184 27.672 66.074 27.984 65.73 c h
26.594 64.98 m 26.594 65.262 26.547 65.355 26.359 65.465 c 26.125 65.59
 25.891 65.652 25.703 65.652 c 25.391 65.652 25.141 65.355 25.141 64.965
 c 25.141 64.934 l 25.141 64.402 25.547 64.059 26.594 63.684 c h
26.594 64.98 m f
28.32 67.684 m 28.977 67.23 29.258 67.012 29.586 66.605 c 30.227 65.824
 30.539 64.918 30.539 63.871 c 30.539 62.73 30.195 61.855 29.414 60.949 
c 29.039 60.512 28.805 60.309 28.352 60.027 c 28.242 60.168 l 28.961 60.73
 29.195 61.043 29.445 61.715 c 29.664 62.324 29.758 62.996 29.758 63.902
 c 29.758 64.84 29.648 65.574 29.398 66.121 c 29.164 66.684 28.883 67.012
 28.242 67.527 c h
28.32 67.684 m f
96.996 60.027 m 96.34 60.465 96.074 60.684 95.73 61.105 c 95.105 61.887
 94.793 62.777 94.793 63.824 c 94.793 64.98 95.121 65.855 95.902 66.762 
c 96.277 67.199 96.512 67.387 96.98 67.684 c 97.074 67.527 l 96.371 66.965
 96.121 66.652 95.871 65.98 c 95.652 65.387 95.559 64.715 95.559 63.809 
c 95.559 62.855 95.668 62.121 95.918 61.574 c 96.168 61.012 96.434 60.684
 97.074 60.168 c h
96.996 60.027 m f
98.73 59.98 m 98.684 59.965 l 98.309 60.09 98.074 60.168 97.637 60.293 
c 97.387 60.355 l 97.387 60.496 l 97.434 60.496 97.465 60.496 97.527 60.496
 c 97.887 60.496 97.98 60.574 97.98 60.949 c 97.98 65.605 l 97.98 65.887
 98.73 66.184 99.449 66.184 c 100.637 66.184 101.559 65.199 101.559 63.918
 c 101.559 62.793 100.871 61.965 99.98 61.965 c 99.434 61.965 98.902 62.277
 98.73 62.73 c h
98.73 63.199 m 98.73 62.855 99.152 62.527 99.621 62.527 c 99.871 62.527
 100.09 62.621 100.277 62.793 c 100.559 63.074 100.762 63.684 100.762 64.324
 c 100.762 65.324 100.34 65.887 99.605 65.887 c 99.137 65.887 98.73 65.699
 98.73 65.465 c h
98.73 63.199 m f
102.141 67.684 m 102.797 67.23 103.078 67.012 103.406 66.605 c 104.047 
65.824 104.359 64.918 104.359 63.871 c 104.359 62.73 104.016 61.855 103.234
 60.949 c 102.859 60.512 102.625 60.309 102.172 60.027 c 102.062 60.168 
l 102.781 60.73 103.016 61.043 103.266 61.715 c 103.484 62.324 103.578 62.996
 103.578 63.902 c 103.578 64.84 103.469 65.574 103.219 66.121 c 102.984 
66.684 102.703 67.012 102.062 67.527 c h
102.141 67.684 m f
Q Q
showpage
%%Trailer
end
%%EOF
