%!PS-Adobe-3.0 EPSF-3.0
%%Creator: cairo 1.17.4 (https://cairographics.org)
%%CreationDate: Thu Feb 24 10:47:22 2022
%%Pages: 1
%%DocumentData: Clean7Bit
%%LanguageLevel: 2
%%BoundingBox: 0 0 179 110
%%EndComments
%%BeginProlog
50 dict begin
/q { gsave } bind def
/Q { grestore } bind def
/cm { 6 array astore concat } bind def
/w { setlinewidth } bind def
/J { setlinecap } bind def
/j { setlinejoin } bind def
/M { setmiterlimit } bind def
/d { setdash } bind def
/m { moveto } bind def
/l { lineto } bind def
/c { curveto } bind def
/h { closepath } bind def
/re { exch dup neg 3 1 roll 5 3 roll moveto 0 rlineto
      0 exch rlineto 0 rlineto closepath } bind def
/S { stroke } bind def
/f { fill } bind def
/f* { eofill } bind def
/n { newpath } bind def
/W { clip } bind def
/W* { eoclip } bind def
/BT { } bind def
/ET { } bind def
/BDC { mark 3 1 roll /BDC pdfmark } bind def
/EMC { mark /EMC pdfmark } bind def
/cairo_store_point { /cairo_point_y exch def /cairo_point_x exch def } def
/Tj { show currentpoint cairo_store_point } bind def
/TJ {
  {
    dup
    type /stringtype eq
    { show } { -0.001 mul 0 cairo_font_matrix dtransform rmoveto } ifelse
  } forall
  currentpoint cairo_store_point
} bind def
/cairo_selectfont { cairo_font_matrix aload pop pop pop 0 0 6 array astore
    cairo_font exch selectfont cairo_point_x cairo_point_y moveto } bind def
/Tf { pop /cairo_font exch def /cairo_font_matrix where
      { pop cairo_selectfont } if } bind def
/Td { matrix translate cairo_font_matrix matrix concatmatrix dup
      /cairo_font_matrix exch def dup 4 get exch 5 get cairo_store_point
      /cairo_font where { pop cairo_selectfont } if } bind def
/Tm { 2 copy 8 2 roll 6 array astore /cairo_font_matrix exch def
      cairo_store_point /cairo_font where { pop cairo_selectfont } if } bind def
/g { setgray } bind def
/rg { setrgbcolor } bind def
/d1 { setcachedevice } bind def
/cairo_data_source {
  CairoDataIndex CairoData length lt
    { CairoData CairoDataIndex get /CairoDataIndex CairoDataIndex 1 add def }
    { () } ifelse
} def
/cairo_flush_ascii85_file { cairo_ascii85_file status { cairo_ascii85_file flushfile } if } def
/cairo_image { image cairo_flush_ascii85_file } def
/cairo_imagemask { imagemask cairo_flush_ascii85_file } def
%%EndProlog
%%BeginSetup
%%EndSetup
%%Page: 1 1
%%BeginPageSetup
%%PageBoundingBox: 0 0 179 110
%%EndPageSetup
q 0 0 179 110 rectclip
1 0 0 -1 0 110 cm q
Q q
0.199 57 66.801 52 re W n
q
0 57 67 52 re W n
  q
0 g
0.510385 w
2 J
0 j
[] 0.0 d
10 M q 1 0 0 -1 0 0 cm
59.758 -168.02 m -43.289 -64.973 l S Q
  Q
Q
Q q
0.199 55 69.801 54 re W n
q
0 55 70 54 re W n
  q
0 g
0.510384 w
2 J
0 j
[] 0.0 d
10 M q 1 0 0 -1 0 0 cm
62.16 -165.633 m -40.898 -62.574 l S Q
  Q
Q
Q q
0.199 52 71.801 57 re W n
q
0 52 72 57 re W n
  q
0 g
0.510387 w
2 J
0 j
[] 0.0 d
10 M q 1 0 0 -1 0 0 cm
64.574 -163.195 m -38.492 -60.164 l S Q
  Q
Q
Q q
0.199 50 74.102 59 re W n
q
0 50 75 59 re W n
  q
0 g
0.510386 w
2 J
0 j
[] 0.0 d
10 M q 1 0 0 -1 0 0 cm
66.945 -160.809 m -36.098 -57.766 l S Q
  Q
Q
Q q
0.199 48 76.801 61 re W n
q
0 48 77 61 re W n
  q
0 g
0.510387 w
2 J
0 j
[] 0.0 d
10 M q 1 0 0 -1 0 0 cm
69.348 -158.422 m -33.672 -55.371 l S Q
  Q
Q
Q q
0.199 45 78.801 64 re W n
q
0 45 79 64 re W n
  q
0 g
0.510385 w
2 J
0 j
[] 0.0 d
10 M q 1 0 0 -1 0 0 cm
71.75 -156 m -31.277 -52.977 l S Q
  Q
Q
Q q
0.199 43 81.801 66 re W n
q
0 43 82 66 re W n
  q
0 g
0.510388 w
2 J
0 j
[] 0.0 d
10 M q 1 0 0 -1 0 0 cm
74.168 -153.598 m -28.867 -50.562 l S Q
  Q
Q
Q q
0.199 40 83.801 69 re W n
q
0 40 84 69 re W n
  q
0 g
0.510386 w
2 J
0 j
[] 0.0 d
10 M q 1 0 0 -1 0 0 cm
76.57 -151.211 m -26.477 -48.168 l S Q
  Q
Q
Q q
0.199 38 86.102 71 re W n
q
0 38 87 71 re W n
  q
0 g
0.510387 w
2 J
0 j
[] 0.0 d
10 M q 1 0 0 -1 0 0 cm
78.938 -148.828 m -24.082 -45.77 l S Q
  Q
Q
Q q
0.199 36 88.801 73 re W n
q
0 36 89 73 re W n
  q
0 g
0.510384 w
2 J
0 j
[] 0.0 d
10 M q 1 0 0 -1 0 0 cm
81.344 -146.406 m -21.688 -43.375 l S Q
  Q
Q
Q q
0.199 33 90.801 76 re W n
q
0 33 91 76 re W n
  q
0 g
0.510386 w
2 J
0 j
[] 0.0 d
10 M q 1 0 0 -1 0 0 cm
83.762 -144.004 m -19.277 -40.961 l S Q
  Q
Q
Q q
0.199 31 93.801 78 re W n
q
0 31 94 78 re W n
  q
0 g
0.510386 w
2 J
0 j
[] 0.0 d
10 M q 1 0 0 -1 0 0 cm
86.164 -141.617 m -16.883 -38.566 l S Q
  Q
Q
Q q
0.199 28 95.801 81 re W n
q
0 28 96 81 re W n
  q
0 g
0.510387 w
2 J
0 j
[] 0.0 d
10 M q 1 0 0 -1 0 0 cm
88.57 -139.195 m -14.492 -36.172 l S Q
  Q
Q
Q q
0.199 26 98.102 83 re W n
q
0 26 99 83 re W n
  q
0 g
0.510387 w
2 J
0 j
[] 0.0 d
10 M q 1 0 0 -1 0 0 cm
90.938 -136.809 m -12.098 -33.773 l S Q
  Q
Q
Q q
0.199 24 100.801 85 re W n
q
0 24 101 85 re W n
  q
0 g
0.510388 w
2 J
0 j
[] 0.0 d
10 M q 1 0 0 -1 0 0 cm
93.359 -134.406 m -9.688 -31.363 l S Q
  Q
Q
Q q
0.199 21.398 102.801 87.602 re W n
q
0 21 103 88 re W n
  q
0 g
0.510388 w
2 J
0 j
[] 0.0 d
10 M q 1 0 0 -1 0 0 cm
95.762 -132.02 m -7.293 -28.965 l S Q
  Q
Q
Q q
0.199 21.398 105.801 87.602 re W n
q
0 21 106 88 re W n
  q
0 g
0.510387 w
2 J
0 j
[] 0.0 d
10 M q 1 0 0 -1 0 0 cm
98.168 -129.598 m -4.895 -26.57 l S Q
  Q
Q
Q q
0.199 21.398 107.801 87.602 re W n
q
0 21 108 88 re W n
  q
0 g
0.510386 w
2 J
0 j
[] 0.0 d
10 M q 1 0 0 -1 0 0 cm
100.535 -127.211 m -2.5 -24.172 l S Q
  Q
Q
Q q
0.199 21.398 110.102 87.602 re W n
q
0 21 111 88 re W n
  q
0 g
0.510387 w
2 J
0 j
[] 0.0 d
10 M q 1 0 0 -1 0 0 cm
102.957 -124.809 m -0.09 -21.762 l S Q
  Q
Q
Q q
0.199 21.398 112.801 87.602 re W n
q
0 21 113 88 re W n
  q
0 g
0.510386 w
2 J
0 j
[] 0.0 d
10 M q 1 0 0 -1 0 0 cm
105.359 -122.422 m 2.305 -19.363 l S Q
  Q
Q
Q q
0.199 21.398 114.801 87.602 re W n
q
0 21 115 88 re W n
  q
0 g
0.510384 w
2 J
0 j
[] 0.0 d
10 M q 1 0 0 -1 0 0 cm
107.766 -120 m 4.699 -16.969 l S Q
  Q
Q
Q q
0.199 21.398 117.801 87.602 re W n
q
0 21 118 88 re W n
  q
0 g
0.510386 w
2 J
0 j
[] 0.0 d
10 M q 1 0 0 -1 0 0 cm
110.137 -117.613 m 7.098 -14.574 l S Q
  Q
Q
Q q
2 21.398 116.898 87.602 re W n
q
2 21 117 88 re W n
  q
0 g
0.510385 w
2 J
0 j
[] 0.0 d
10 M q 1 0 0 -1 0 0 cm
112.543 -115.227 m 9.492 -12.176 l S Q
  Q
Q
Q q
4.199 21.398 114.699 87.602 re W n
q
4 21 115 88 re W n
  q
0 g
0.510388 w
2 J
0 j
[] 0.0 d
10 M q 1 0 0 -1 0 0 cm
114.961 -112.789 m 11.902 -9.766 l S Q
  Q
Q
Q q
7 21.398 111.898 87.602 re W n
q
7 21 112 88 re W n
  q
0 g
0.510386 w
2 J
0 j
[] 0.0 d
10 M q 1 0 0 -1 0 0 cm
117.367 -110.398 m 14.336 -7.367 l S Q
  Q
Q
Q q
9.199 21.398 109.699 87.602 re W n
q
9 21 110 88 re W n
  q
0 g
0.510387 w
2 J
0 j
[] 0.0 d
10 M q 1 0 0 -1 0 0 cm
119.738 -108.012 m 16.699 -4.973 l S Q
  Q
Q
Q q
11.199 21.398 107.699 87.602 re W n
q
11 21 108 88 re W n
  q
0 g
0.510384 w
2 J
0 j
[] 0.0 d
10 M q 1 0 0 -1 0 0 cm
122.145 -105.625 m 19.094 -2.574 l S Q
  Q
Q
Q q
14.199 21.398 104.699 87.602 re W n
q
14 21 105 88 re W n
  q
0 g
0.510387 w
2 J
0 j
[] 0.0 d
10 M q 1 0 0 -1 0 0 cm
124.566 -103.188 m 21.508 -0.164 l S Q
  Q
Q
Q q
16.281 21.465 m 118.852 21.465 l 118.852 65.195 l 16.281 65.195 l h
16.281 65.195 m 118.852 65.195 l 118.852 108.094 l 16.281 108.094 l h
16.281 65.195 m W n
q
16 21 103 88 re W n
  q
0 g
0.510388 w
2 J
0 j
[] 0.0 d
10 M q 1 0 0 -1 0 0 cm
126.973 -100.801 m 23.902 2.234 l S Q
  Q
Q
Q q
19 21.465 m 118.852 21.465 l 118.852 65.195 l 19 65.195 l h
19 65.195 m 118.852 65.195 l 118.852 106 l 19 106 l h
19 65.195 m W n
q
19 21 100 85 re W n
  q
0 g
0.510385 w
2 J
0 j
[] 0.0 d
10 M q 1 0 0 -1 0 0 cm
129.344 -98.414 m 26.301 4.629 l S Q
  Q
Q
Q q
21.281 21.465 m 118.852 21.465 l 118.852 65.195 l 21.281 65.195 l h
21.281 65.195 m 118.852 65.195 l 118.852 104 l 21.281 104 l h
21.281 65.195 m W n
q
21 21 98 83 re W n
  q
0 g
0.510385 w
2 J
0 j
[] 0.0 d
10 M q 1 0 0 -1 0 0 cm
131.75 -96.027 m 28.699 7.023 l S Q
  Q
Q
Q q
23.281 21.465 m 118.852 21.465 l 118.852 65.195 l 23.281 65.195 l h
23.281 65.195 m 118.852 65.195 l 118.852 101 l 23.281 101 l h
23.281 65.195 m W n
q
23 21 96 80 re W n
  q
0 g
0.510387 w
2 J
0 j
[] 0.0 d
10 M q 1 0 0 -1 0 0 cm
134.172 -93.59 m 31.109 9.438 l S Q
  Q
Q
Q q
26.281 21.465 m 118.852 21.465 l 118.852 65.195 l 26.281 65.195 l h
26.281 65.195 m 118.852 65.195 l 118.852 99 l 26.281 99 l h
26.281 65.195 m W n
q
26 21 93 78 re W n
  q
0 g
0.510386 w
2 J
0 j
[] 0.0 d
10 M q 1 0 0 -1 0 0 cm
136.543 -91.199 m 33.508 11.832 l S Q
  Q
Q
Q q
28.281 21.465 m 118.852 21.465 l 118.852 65.195 l 28.281 65.195 l h
28.281 65.195 m 118.852 65.195 l 118.852 96.094 l 28.281 96.094 l h
28.281 65.195 m W n
q
28 21 91 76 re W n
  q
0 g
0.510386 w
2 J
0 j
[] 0.0 d
10 M q 1 0 0 -1 0 0 cm
138.949 -88.812 m 35.906 14.23 l S Q
  Q
Q
Q q
31 21.465 m 118.852 21.465 l 118.852 65.195 l 31 65.195 l h
31 65.195 m 118.852 65.195 l 118.852 94 l 31 94 l h
31 65.195 m W n
q
31 21 88 73 re W n
  q
0 g
0.510386 w
2 J
0 j
[] 0.0 d
10 M q 1 0 0 -1 0 0 cm
141.355 -86.426 m 38.305 16.625 l S Q
  Q
Q
Q q
33.281 21.465 m 118.852 21.465 l 118.852 65.195 l 33.281 65.195 l h
33.281 65.195 m 118.852 65.195 l 118.852 92 l 33.281 92 l h
33.281 65.195 m W n
q
33 21 86 71 re W n
  q
0 g
0.510387 w
2 J
0 j
[] 0.0 d
10 M q 1 0 0 -1 0 0 cm
143.777 -83.988 m 40.719 19.039 l S Q
  Q
Q
Q q
35.281 21.465 m 118.852 21.465 l 118.852 65.195 l 35.281 65.195 l h
35.281 65.195 m 118.852 65.195 l 118.852 89 l 35.281 89 l h
35.281 65.195 m W n
q
35 21 84 68 re W n
  q
0 g
0.510386 w
2 J
0 j
[] 0.0 d
10 M q 1 0 0 -1 0 0 cm
146.152 -81.602 m 43.117 21.434 l S Q
  Q
Q
Q q
38.281 21.465 m 118.852 21.465 l 118.852 65.195 l 38.281 65.195 l h
38.281 65.195 m 118.852 65.195 l 118.852 87 l 38.281 87 l h
38.281 65.195 m W n
q
38 21 81 66 re W n
  q
0 g
0.510385 w
2 J
0 j
[] 0.0 d
10 M q 1 0 0 -1 0 0 cm
148.559 -79.211 m 45.516 23.832 l S Q
  Q
Q
Q q
40.281 21.465 m 118.852 21.465 l 118.852 65.195 l 40.281 65.195 l h
40.281 65.195 m 118.852 65.195 l 118.852 84.094 l 40.281 84.094 l h
40.281 65.195 m W n
q
40 21 79 64 re W n
  q
0 g
0.510384 w
2 J
0 j
[] 0.0 d
10 M q 1 0 0 -1 0 0 cm
150.965 -76.824 m 47.914 26.227 l S Q
  Q
Q
Q q
43 21.465 m 118.852 21.465 l 118.852 65.195 l 43 65.195 l h
43 65.195 m 118.852 65.195 l 118.852 82 l 43 82 l h
43 65.195 m W n
q
43 21 76 61 re W n
  q
0 g
0.510388 w
2 J
0 j
[] 0.0 d
10 M q 1 0 0 -1 0 0 cm
153.355 -74.387 m 50.328 28.641 l S Q
  Q
Q
Q q
45.281 21.465 m 118.852 21.465 l 118.852 65.195 l 45.281 65.195 l h
45.281 65.195 m 118.852 65.195 l 118.852 80 l 45.281 80 l h
45.281 65.195 m W n
q
45 21 74 59 re W n
  q
0 g
0.510386 w
2 J
0 j
[] 0.0 d
10 M q 1 0 0 -1 0 0 cm
155.762 -72 m 52.727 31.035 l S Q
  Q
Q
Q q
47.281 21.465 m 118.852 21.465 l 118.852 65.195 l 47.281 65.195 l h
47.281 65.195 m 118.852 65.195 l 118.852 77 l 47.281 77 l h
47.281 65.195 m W n
q
47 21 72 56 re W n
  q
0 g
0.510384 w
2 J
0 j
[] 0.0 d
10 M q 1 0 0 -1 0 0 cm
158.172 -69.609 m 55.129 33.43 l S Q
  Q
Q
Q q
50.281 21.465 m 118.852 21.465 l 118.852 65.195 l 50.281 65.195 l h
50.281 65.195 m 118.852 65.195 l 118.852 75 l 50.281 75 l h
50.281 65.195 m W n
q
50 21 69 54 re W n
  q
0 g
0.510386 w
2 J
0 j
[] 0.0 d
10 M q 1 0 0 -1 0 0 cm
160.543 -67.223 m 57.527 35.828 l S Q
  Q
Q
Q q
52.281 21.465 m 118.852 21.465 l 118.852 65.195 l 52.281 65.195 l h
52.281 65.195 m 118.852 65.195 l 118.852 72.094 l 52.281 72.094 l h
52.281 65.195 m W n
q
52 21 67 52 re W n
  q
0 g
0.510384 w
2 J
0 j
[] 0.0 d
10 M q 1 0 0 -1 0 0 cm
162.953 -64.801 m 59.891 38.223 l S Q
  Q
Q
Q q
0 g
0.425177 w
0 J
0 j
[] 0.0 d
10 M q 1 0 0 -1 0 0 cm
0.211 -65.191 m 0.211 -108.918 l 118.867 -108.918 l 118.867 -21.469 l 0.211
 -21.469 l h
0.211 -65.191 m S Q
1 g
8.305 65.199 m 8.305 100.848 l 110.762 100.848 l 110.762 29.551 l 8.305
 29.551 l f
0 g
0.425175 w
q 1 0 0 -1 0 0 cm
8.305 -65.199 m 8.305 -100.848 l 110.762 -100.848 l 110.762 -29.551 l 8.305
 -29.551 l h
8.305 -65.199 m S Q
0.741176 0.831373 0.901961 rg
8.508 69.434 m 8.508 100.613 l 107.734 100.613 l 107.734 38.258 l 8.508
 38.258 l f
0 g
0.567044 w
q 1 0 0 -1 0 0 cm
11.355 -38.25 m 11.355 -38.043 l 11.805 -38.043 l 12.047 -38.078 l 12.289
 -38.078 l 12.531 -38.113 l 12.77 -38.148 l 13.254 -38.219 l 13.461 -38.25
 l 13.945 -38.32 l 14.184 -38.355 l 14.668 -38.426 l 14.91 -38.457 l 16.324
 -38.457 l 16.531 -38.426 l 16.773 -38.391 l 17.012 -38.355 l 17.738 -38.25
 l 17.98 -38.219 l 18.188 -38.184 l 18.426 -38.148 l 18.91 -38.078 l 19.152
 -38.078 l 19.395 -38.043 l 20.324 -38.043 l 20.566 -38.078 l 20.809 -38.078
 l 21.047 -38.113 l 21.254 -38.148 l 21.738 -38.219 l 21.98 -38.25 l 22.465
 -38.32 l 22.703 -38.355 l 22.91 -38.391 l 23.152 -38.426 l 23.395 -38.457
 l 24.809 -38.457 l 25.051 -38.426 l 25.293 -38.391 l 25.531 -38.355 l 25.773
 -38.32 l 25.98 -38.285 l 26.223 -38.25 l 26.465 -38.219 l 26.707 -38.184
 l 26.945 -38.148 l 27.188 -38.113 l 27.395 -38.078 l 27.637 -38.078 l 27.879
 -38.043 l 28.844 -38.043 l 29.051 -38.078 l 29.293 -38.078 l 29.535 -38.113
 l 29.773 -38.148 l 30.258 -38.219 l 30.5 -38.25 l 30.707 -38.285 l 30.949
 -38.32 l 31.188 -38.355 l 31.672 -38.426 l 31.914 -38.457 l 33.328 -38.457
 l 33.57 -38.426 l 33.777 -38.391 l 34.016 -38.355 l 34.742 -38.25 l 34.984
 -38.219 l 35.191 -38.184 l 35.43 -38.148 l 35.914 -38.078 l 36.156 -38.078
 l 36.398 -38.043 l 37.328 -38.043 l 37.57 -38.078 l 37.812 -38.078 l 38.055
 -38.113 l 38.293 -38.148 l 38.5 -38.184 l 38.742 -38.219 l 38.984 -38.25
 l 39.469 -38.32 l 39.707 -38.355 l 39.914 -38.391 l 40.156 -38.426 l 40.398
 -38.457 l 41.812 -38.457 l 42.055 -38.426 l 42.297 -38.391 l 42.535 -38.355
 l 42.777 -38.32 l 42.984 -38.285 l 43.227 -38.25 l 43.469 -38.219 l 43.711
 -38.184 l 43.949 -38.148 l 44.434 -38.078 l 44.641 -38.078 l 44.883 -38.043
 l 45.848 -38.043 l 46.09 -38.078 l 46.297 -38.078 l 46.539 -38.113 l 46.777
 -38.148 l 47.262 -38.219 l 47.504 -38.25 l 47.711 -38.285 l 47.953 -38.32
 l 48.191 -38.355 l 48.676 -38.426 l 48.918 -38.457 l 50.332 -38.457 l 50.574
 -38.426 l 50.781 -38.391 l 51.023 -38.355 l 51.262 -38.32 l 51.746 -38.25
 l 51.988 -38.219 l 52.23 -38.184 l 52.438 -38.148 l 52.676 -38.113 l 52.918
 -38.078 l 53.16 -38.078 l 53.402 -38.043 l 54.332 -38.043 l 54.574 -38.078
 l 54.816 -38.078 l 55.059 -38.113 l 55.297 -38.148 l 55.504 -38.184 l 55.746
 -38.219 l 55.988 -38.25 l 56.473 -38.32 l 56.711 -38.355 l 56.953 -38.391
 l 57.16 -38.426 l 57.402 -38.457 l 58.816 -38.457 l 59.059 -38.426 l 59.301
 -38.391 l 59.539 -38.355 l 60.023 -38.285 l 60.23 -38.25 l 60.473 -38.219
 l 60.715 -38.184 l 60.953 -38.148 l 61.438 -38.078 l 61.68 -38.078 l 61.887
 -38.043 l 62.852 -38.043 l 63.094 -38.078 l 63.301 -38.078 l 63.785 -38.148
 l 64.023 -38.184 l 64.266 -38.219 l 64.508 -38.25 l 64.75 -38.285 l 64.957
 -38.32 l 65.199 -38.355 l 65.438 -38.391 l 65.68 -38.426 l 65.922 -38.457
 l 67.336 -38.457 l 67.578 -38.426 l 67.82 -38.391 l 68.027 -38.355 l 68.266
 -38.32 l 68.75 -38.25 l 68.992 -38.219 l 69.234 -38.184 l 69.441 -38.148
 l 69.68 -38.113 l 69.922 -38.078 l 70.164 -38.078 l 70.406 -38.043 l 71.336
 -38.043 l 71.578 -38.078 l 71.82 -38.078 l 72.062 -38.113 l 72.301 -38.148
 l 72.543 -38.184 l 72.75 -38.219 l 72.992 -38.25 l 73.477 -38.32 l 73.715
 -38.355 l 73.957 -38.391 l 74.164 -38.426 l 74.406 -38.457 l 75.82 -38.457
 l 76.062 -38.426 l 76.547 -38.355 l 76.785 -38.32 l 77.027 -38.285 l 77.234
 -38.25 l 77.477 -38.219 l 77.961 -38.148 l 78.199 -38.113 l 78.441 -38.078
 l 78.684 -38.078 l 78.891 -38.043 l 79.855 -38.043 l 80.098 -38.078 l 80.34
 -38.078 l 80.547 -38.113 l 80.789 -38.148 l 81.027 -38.184 l 81.27 -38.219
 l 81.512 -38.25 l 81.754 -38.285 l 81.961 -38.32 l 82.203 -38.355 l 82.441
 -38.391 l 82.684 -38.426 l 82.926 -38.457 l 84.34 -38.457 l 84.582 -38.426
 l 84.824 -38.391 l 85.031 -38.355 l 85.27 -38.32 l 85.754 -38.25 l 85.996
 -38.219 l 86.238 -38.184 l 86.477 -38.148 l 86.684 -38.113 l 86.926 -38.078
 l 87.168 -38.078 l 87.41 -38.043 l 88.34 -38.043 l 88.582 -38.078 l 88.824
 -38.078 l 89.309 -38.148 l 89.547 -38.184 l 89.754 -38.219 l 89.996 -38.25
 l 90.723 -38.355 l 90.961 -38.391 l 91.203 -38.426 l 91.41 -38.457 l 92.824
 -38.457 l 93.066 -38.426 l 93.551 -38.355 l 93.789 -38.32 l 94.273 -38.25
 l 94.48 -38.219 l 94.965 -38.148 l 95.203 -38.113 l 95.445 -38.078 l 95.688
 -38.078 l 95.93 -38.043 l 96.859 -38.043 l 97.102 -38.078 l 97.344 -38.078
 l 97.551 -38.113 l 97.793 -38.148 l 98.031 -38.184 l 98.273 -38.219 l 98.516
 -38.25 l 99 -38.32 l 99.207 -38.355 l 99.445 -38.391 l 99.688 -38.426 l
 99.93 -38.457 l 101.344 -38.457 l 101.586 -38.426 l 101.828 -38.391 l 102.066
 -38.355 l 102.273 -38.32 l 102.758 -38.25 l 103 -38.219 l 103.484 -38.148
 l 103.723 -38.113 l 103.93 -38.078 l 104.172 -38.078 l 104.414 -38.043 
l 105.344 -38.043 l 105.586 -38.078 l 105.828 -38.078 l 106.312 -38.148 
l 106.551 -38.184 l 106.793 -38.219 l 107 -38.25 l 107.727 -38.355 l 107.727
 -38.25 l S Q
26.359 79.273 m 26.359 79.398 l 26.656 79.461 26.75 79.523 26.75 79.68 
c 26.75 79.82 26.703 80.023 26.594 80.273 c 25.797 82.258 l 25.031 80.258
 l 24.891 79.836 24.891 79.836 24.891 79.727 c 24.891 79.523 24.984 79.461
 25.406 79.398 c 25.406 79.273 l 23.578 79.273 l 23.578 79.398 l 23.922 
79.445 24.031 79.539 24.203 80.023 c 24.25 80.148 24.328 80.367 24.375 80.523
 c 23.562 82.305 l 22.672 79.961 l 22.641 79.883 22.625 79.789 22.625 79.695
 c 22.625 79.508 22.719 79.445 23.031 79.398 c 23.031 79.273 l 21.422 79.273
 l 21.422 79.398 l 21.625 79.414 21.703 79.508 21.891 79.961 c 23.109 83.039
 l 23.219 83.32 23.281 83.43 23.344 83.43 c 23.391 83.43 23.453 83.32 23.562
 83.086 c 24.578 80.93 l 25.391 83.039 l 25.516 83.383 25.547 83.43 25.609
 83.43 c 25.672 83.43 25.703 83.352 25.859 82.992 c 27.094 79.883 l 27.25
 79.508 27.281 79.461 27.453 79.398 c 27.453 79.273 l h
26.359 79.273 m f
31.562 82.711 m 31.406 82.836 31.297 82.883 31.156 82.883 c 30.953 82.883
 30.891 82.758 30.891 82.367 c 30.891 80.617 l 30.891 80.148 30.844 79.883
 30.719 79.68 c 30.516 79.352 30.125 79.18 29.609 79.18 c 28.766 79.18 28.094
 79.617 28.094 80.18 c 28.094 80.383 28.266 80.57 28.484 80.57 c 28.703 
80.57 28.891 80.383 28.891 80.195 c 28.891 80.164 28.875 80.117 28.875 80.055
 c 28.844 79.961 28.844 79.898 28.844 79.836 c 28.844 79.586 29.125 79.398
 29.484 79.398 c 29.922 79.398 30.172 79.648 30.172 80.133 c 30.172 80.68
 l 28.797 81.227 28.641 81.32 28.25 81.648 c 28.047 81.836 27.922 82.133
 27.922 82.43 c 27.922 82.992 28.312 83.398 28.875 83.398 c 29.266 83.398
 29.625 83.211 30.172 82.742 c 30.219 83.211 30.391 83.398 30.75 83.398 
c 31.062 83.398 31.25 83.289 31.562 82.945 c h
30.172 82.195 m 30.172 82.477 30.125 82.57 29.938 82.68 c 29.703 82.805
 29.469 82.867 29.281 82.867 c 28.969 82.867 28.719 82.57 28.719 82.18 c
 28.719 82.148 l 28.719 81.617 29.125 81.273 30.172 80.898 c h
30.172 82.195 m f
33.836 79.273 m 32.93 79.273 l 32.93 78.227 l 32.93 78.133 32.914 78.117
 32.867 78.117 c 32.352 78.867 32.086 79.164 31.82 79.32 c 31.727 79.383
 31.664 79.445 31.664 79.492 c 31.664 79.523 31.68 79.539 31.711 79.555 
c 32.18 79.555 l 32.18 82.258 l 32.18 83.008 32.445 83.398 32.977 83.398
 c 33.414 83.398 33.758 83.18 34.055 82.711 c 33.945 82.617 l 33.742 82.852
 33.602 82.93 33.398 82.93 c 33.07 82.93 32.93 82.68 32.93 82.117 c 32.93
 79.555 l 33.836 79.555 l h
33.836 79.273 m f
37.73 81.836 m 37.309 82.508 36.918 82.773 36.34 82.773 c 35.84 82.773 
35.449 82.508 35.184 82.008 c 35.027 81.664 34.965 81.383 34.949 80.82 c
 37.699 80.82 l 37.637 80.242 37.543 79.977 37.324 79.695 c 37.059 79.367
 36.637 79.18 36.168 79.18 c 35.73 79.18 35.309 79.336 34.965 79.648 c 34.543
 80.008 34.293 80.648 34.293 81.383 c 34.293 82.617 34.949 83.398 35.98 
83.398 c 36.824 83.398 37.496 82.867 37.871 81.898 c h
34.965 80.539 m 35.059 79.836 35.371 79.508 35.918 79.508 c 36.465 79.508
 36.668 79.758 36.793 80.539 c h
34.965 80.539 m f
38.078 83.305 m 40.234 83.305 l 40.234 83.164 l 39.625 83.148 39.484 83.023
 39.469 82.492 c 39.469 80.477 l 39.469 80.195 39.844 79.742 40.094 79.742
 c 40.141 79.742 40.234 79.789 40.328 79.883 c 40.469 80.008 40.562 80.055
 40.688 80.055 c 40.906 80.055 41.031 79.898 41.031 79.648 c 41.031 79.352
 40.844 79.18 40.547 79.18 c 40.172 79.18 39.922 79.383 39.469 80.023 c 
39.469 79.195 l 39.422 79.18 l 38.922 79.383 38.594 79.508 38.094 79.664
 c 38.094 79.805 l 38.219 79.773 38.297 79.773 38.406 79.773 c 38.625 79.773
 38.719 79.914 38.719 80.305 c 38.719 82.555 l 38.688 83.023 38.641 83.07
 38.078 83.164 c h
38.078 83.305 m f
0.567043 w
q 1 0 0 -1 0 0 cm
25.527 -7.074 m 19.84 -7.074 l 19.84 -58.09 l S Q
q 1 0 0 -1 0 0 cm
42.523 -58.09 m 42.523 -7.074 l 39.711 -7.074 l S Q
40.062 6.484 m 39.719 6.277 39.266 6.379 39.094 6.727 c 38.883 7.039 38.988
 7.488 39.336 7.699 c 39.648 7.906 40.098 7.766 40.309 7.453 c 40.516 7.109
 40.375 6.691 40.062 6.484 c f
1 g
39.742 6.961 m 39.672 6.93 39.605 6.961 39.57 7.031 c 39.535 7.066 39.535
 7.172 39.605 7.207 c 39.672 7.238 39.777 7.238 39.812 7.172 c 39.848 7.102
 39.812 6.996 39.742 6.961 c f
0 g
q 1 0 0 -1 0 0 cm
39.215 -6.809 m 34.012 -3.684 l S Q
34.008 6.375 m 33.625 6.375 33.316 6.688 33.316 7.066 c 33.316 7.484 33.625
 7.797 34.008 7.797 c 34.426 7.797 34.738 7.484 34.738 7.066 c 34.738 6.688
 34.426 6.375 34.008 6.375 c f
1 g
34.004 6.945 m 33.941 6.945 33.867 7.012 33.867 7.082 c 33.867 7.152 33.938
 7.223 34.004 7.223 c 34.109 7.223 34.145 7.152 34.145 7.082 c 34.145 7.012
 34.109 6.945 34.004 6.945 c f
0 g
q 1 0 0 -1 0 0 cm
33.469 -7.074 m 28.371 -7.074 l S Q
0.850361 w
q 1 0 0 -1 0 0 cm
25.508 -14.168 m 25.508 0 l S Q
1.70071 w
q 1 0 0 -1 0 0 cm
28.332 -11.34 m 28.332 -2.836 l S Q
0.567044 w
q 1 0 0 -1 0 0 cm
19.859 -58.105 m 22.68 -58.105 l 23.746 -55.973 l 25.879 -60.238 l 28.008
 -55.973 l 30.141 -60.238 l 32.273 -55.973 l 34.371 -60.238 l 36.5 -55.973
 l 38.633 -60.238 l 39.699 -58.105 l 42.52 -58.105 l S Q
11.359 63.789 m 11.359 97.812 l 107.73 97.812 l 107.73 29.766 l 110.562
 29.766 l 110.562 100.645 l 8.492 100.645 l 8.492 29.766 l 11.359 29.766
 l f
1 g
70.867 25.516 m 70.867 32.609 l 76.543 32.609 l 76.543 18.418 l 70.867 
18.418 l f
0 g
0.425175 w
q 1 0 0 -1 0 0 cm
70.875 -29.766 m 70.875 -21.254 l S Q
q 1 0 0 -1 0 0 cm
76.547 -29.766 m 76.547 -21.254 l S Q
3.96889 w
q 1 0 0 -1 0 0 cm
73.699 -89.273 m 73.699 -15.582 l S Q
1 g
2.83481 w
q 1 0 0 -1 0 0 cm
73.699 -89.273 m 73.699 -15.582 l S Q
0 g
0.567043 w
q 1 0 0 -1 0 0 cm
71.703 -89.293 m 75.703 -89.293 l S Q
1 g
51.027 83.625 m 51.027 86.465 l 71.734 86.465 l 71.734 80.781 l 51.027 
80.781 l f
0 g
q 1 0 0 -1 0 0 cm
51.027 -83.625 m 51.027 -86.465 l 71.734 -86.465 l 71.734 -80.781 l 51.027
 -80.781 l h
51.027 -83.625 m S Q
1 g
75.707 83.625 m 75.707 86.465 l 96.383 86.465 l 96.383 80.781 l 75.707 
80.781 l f
0 g
q 1 0 0 -1 0 0 cm
75.707 -83.625 m 75.707 -86.465 l 96.383 -86.465 l 96.383 -80.781 l 75.707
 -80.781 l h
75.707 -83.625 m S Q
1 g
51.035 72.285 m 51.035 75.098 l 71.719 75.098 l 71.719 69.438 l 51.035 
69.438 l f
0 g
q 1 0 0 -1 0 0 cm
51.035 -72.285 m 51.035 -75.098 l 71.719 -75.098 l 71.719 -69.438 l 51.035
 -69.438 l h
51.035 -72.285 m S Q
1 g
75.699 72.285 m 75.699 75.098 l 96.379 75.098 l 96.379 69.438 l 75.699 
69.438 l f
0 g
q 1 0 0 -1 0 0 cm
75.699 -72.285 m 75.699 -75.098 l 96.379 -75.098 l 96.379 -69.438 l 75.699
 -69.438 l h
75.699 -72.285 m S Q
1 g
51.023 60.93 m 51.023 63.781 l 71.711 63.781 l 71.711 58.109 l 51.023 58.109
 l f
0 g
0.567041 w
q 1 0 0 -1 0 0 cm
51.023 -60.93 m 51.023 -63.781 l 71.711 -63.781 l 71.711 -58.109 l 51.023
 -58.109 l h
51.023 -60.93 m S Q
1 g
75.699 60.93 m 75.699 63.781 l 96.387 63.781 l 96.387 58.109 l 75.699 58.109
 l f
0 g
q 1 0 0 -1 0 0 cm
75.699 -60.93 m 75.699 -63.781 l 96.387 -63.781 l 96.387 -58.109 l 75.699
 -58.109 l h
75.699 -60.93 m S Q
1 g
51.016 49.59 m 51.016 52.445 l 71.711 52.445 l 71.711 46.766 l 51.016 46.766
 l f
0 g
0.567043 w
q 1 0 0 -1 0 0 cm
51.016 -49.59 m 51.016 -52.445 l 71.711 -52.445 l 71.711 -46.766 l 51.016
 -46.766 l h
51.016 -49.59 m S Q
1 g
75.707 49.59 m 75.707 52.445 l 96.367 52.445 l 96.367 46.766 l 75.707 46.766
 l f
0 g
q 1 0 0 -1 0 0 cm
75.707 -49.59 m 75.707 -52.445 l 96.367 -52.445 l 96.367 -46.766 l 75.707
 -46.766 l h
75.707 -49.59 m S Q
q 1 0 0 -1 0 0 cm
62.383 -10.617 m 62.383 -15.578 l 85.035 -15.578 l 85.035 -5.656 l 62.383
 -5.656 l h
62.383 -10.617 m S Q
1.13366 w
1 J
q 1 0 0 -1 0 0 cm
61.809 -8.461 m 61.914 -8.461 l S Q
0 J
q 1 0 0 -1 0 0 cm
61.805 -8.457 m 71.445 -7.938 l 130.395 -7.938 l S Q
1 J
q 1 0 0 -1 0 0 cm
85.609 -9.941 m 85.504 -9.941 l S Q
q 1 0 0 -1 0 0 cm
61.793 -11.297 m 61.898 -11.297 l S Q
0 J
q 1 0 0 -1 0 0 cm
85.609 -9.941 m 61.793 -11.297 l S Q
1 J
q 1 0 0 -1 0 0 cm
85.613 -12.781 m 85.512 -12.781 l S Q
q 1 0 0 -1 0 0 cm
61.812 -14.133 m 61.914 -14.133 l S Q
0 J
q 1 0 0 -1 0 0 cm
85.613 -12.781 m 61.812 -14.129 l S Q
q 1 0 0 -1 0 0 cm
136.652 -11.328 m 136.652 -38.254 l S Q
1 g
137.48 14.148 m 137.48 10.266 134.324 7.074 130.402 7.074 c 126.484 7.074
 123.328 10.266 123.328 14.148 c 123.328 18.066 126.484 21.258 130.402 21.258
 c 134.324 21.258 137.48 18.066 137.48 14.148 c f
0 g
0.567043 w
q 1 0 0 -1 0 0 cm
137.48 -14.148 m 137.48 -10.266 134.324 -7.074 130.402 -7.074 c 126.484
 -7.074 123.328 -10.266 123.328 -14.148 c 123.328 -18.066 126.484 -21.258
 130.402 -21.258 c 134.324 -21.258 137.48 -18.066 137.48 -14.148 c h
137.48 -14.148 m S Q
131 14.145 m 131 13.832 130.746 13.578 130.434 13.578 c 130.121 13.578 
129.867 13.832 129.867 14.145 c 129.867 14.457 130.121 14.711 130.434 14.711
 c 130.746 14.711 131 14.457 131 14.145 c f
q 1 0 0 -1 0 0 cm
130.254 -45.328 m 130.98 -38.258 l 142.328 -38.258 l 143.742 -52.434 l 
129.566 -52.434 l h
130.254 -45.328 m S Q
139.543 46.461 m 139.418 46.367 l 139.23 46.602 138.902 47.039 138.715 
47.039 c 138.637 47.039 138.59 46.992 138.59 46.883 c 138.59 46.789 138.668
 46.57 138.715 46.398 c 138.715 46.398 139.246 44.445 139.246 44.398 c 139.309
 44.211 139.34 44.023 139.34 43.898 c 139.34 43.445 139.059 43.289 138.84
 43.289 c 138.105 43.289 137.277 44.258 136.699 45.289 c 136.699 45.289 
137.027 44.242 137.027 43.883 c 137.027 43.648 136.934 43.289 136.512 43.289
 c 135.684 43.289 134.652 44.883 134.434 45.289 c 134.965 43.289 l 134.965
 43.289 133.746 43.523 133.48 43.539 c 133.48 43.695 l 133.809 43.695 134.074
 43.664 134.074 44.023 c 134.074 44.195 133.996 44.477 133.918 44.758 c 
133.918 44.758 133.199 47.148 133.152 47.383 c 133.84 47.383 l 133.996 46.789
 l 134.512 44.852 135.762 43.789 136.105 43.789 c 136.246 43.789 136.34 
43.836 136.34 44.039 c 136.34 44.18 136.23 44.586 136.168 44.852 c 136.168
 44.852 135.543 47.07 135.465 47.383 c 136.137 47.383 l 136.293 46.789 l
 136.84 44.773 138.059 43.789 138.418 43.789 c 138.543 43.789 138.637 43.883
 138.637 44.023 c 138.637 44.117 138.543 44.523 138.449 44.852 c 138.09 
46.195 l 137.996 46.523 137.918 46.93 137.918 47.07 c 137.918 47.305 138.043
 47.492 138.246 47.492 c 138.699 47.492 139.184 46.977 139.543 46.461 c 
h
139.543 46.461 m f
158.809 43.352 m 158.809 43.477 l 159.105 43.539 159.199 43.602 159.199
 43.758 c 159.199 43.898 159.152 44.102 159.043 44.352 c 158.246 46.336 
l 157.48 44.336 l 157.34 43.914 157.34 43.914 157.34 43.805 c 157.34 43.602
 157.434 43.539 157.855 43.477 c 157.855 43.352 l 156.027 43.352 l 156.027
 43.477 l 156.371 43.523 156.48 43.617 156.652 44.102 c 156.699 44.227 156.777
 44.445 156.824 44.602 c 156.012 46.383 l 155.121 44.039 l 155.09 43.961
 155.074 43.867 155.074 43.773 c 155.074 43.586 155.168 43.523 155.48 43.477
 c 155.48 43.352 l 153.871 43.352 l 153.871 43.477 l 154.074 43.492 154.152
 43.586 154.34 44.039 c 155.559 47.117 l 155.668 47.398 155.73 47.508 155.793
 47.508 c 155.84 47.508 155.902 47.398 156.012 47.164 c 157.027 45.008 l
 157.84 47.117 l 157.965 47.461 157.996 47.508 158.059 47.508 c 158.121 
47.508 158.152 47.43 158.309 47.07 c 159.543 43.961 l 159.699 43.586 159.73
 43.539 159.902 43.477 c 159.902 43.352 l h
158.809 43.352 m f
163.82 45.914 m 163.398 46.586 163.008 46.852 162.43 46.852 c 161.93 46.852
 161.539 46.586 161.273 46.086 c 161.117 45.742 161.055 45.461 161.039 44.898
 c 163.789 44.898 l 163.727 44.32 163.633 44.055 163.414 43.773 c 163.148
 43.445 162.727 43.258 162.258 43.258 c 161.82 43.258 161.398 43.414 161.055
 43.727 c 160.633 44.086 160.383 44.727 160.383 45.461 c 160.383 46.695 
161.039 47.477 162.07 47.477 c 162.914 47.477 163.586 46.945 163.961 45.977
 c h
161.055 44.617 m 161.148 43.914 161.461 43.586 162.008 43.586 c 162.555
 43.586 162.758 43.836 162.883 44.617 c h
161.055 44.617 m f
164.266 47.383 m 166.391 47.383 l 166.391 47.242 l 165.797 47.211 165.734
 47.117 165.734 46.461 c 165.734 43.289 l 165.688 43.258 l 164.297 43.758
 l 164.297 43.883 l 164.375 43.883 l 164.484 43.852 164.594 43.852 164.688
 43.852 c 164.891 43.852 164.984 43.992 164.984 44.383 c 164.984 46.461 
l 164.953 47.133 164.875 47.227 164.266 47.242 c h
165.266 41.258 m 165.031 41.258 164.828 41.461 164.828 41.711 c 164.828
 41.977 165.016 42.18 165.266 42.18 c 165.547 42.18 165.734 41.977 165.734
 41.711 c 165.734 41.461 165.531 41.258 165.266 41.258 c h
165.266 41.258 m f
170.863 43.898 m 170.863 43.555 l 170.176 43.555 l 169.988 43.555 169.848
 43.523 169.676 43.461 c 169.473 43.398 l 169.238 43.305 168.988 43.258 
168.754 43.258 c 167.926 43.258 167.27 43.898 167.27 44.727 c 167.27 45.289
 167.504 45.617 168.098 45.914 c 167.863 46.133 l 167.676 46.32 167.566 
46.414 167.535 46.445 c 167.348 46.648 167.301 46.742 167.301 46.898 c 167.301
 47.102 167.395 47.195 167.77 47.367 c 167.129 47.836 166.895 48.133 166.895
 48.461 c 166.895 48.945 167.582 49.336 168.441 49.336 c 169.113 49.336 
169.816 49.102 170.285 48.727 c 170.629 48.445 170.785 48.164 170.785 47.82
 c 170.785 47.273 170.363 46.898 169.691 46.867 c 168.535 46.805 l 168.051
 46.789 167.832 46.711 167.832 46.57 c 167.832 46.383 168.129 46.07 168.379
 46.008 c 168.691 46.023 168.863 46.039 168.895 46.039 c 169.223 46.039 
169.582 45.914 169.848 45.664 c 170.145 45.414 170.285 45.102 170.285 44.664
 c 170.285 44.398 170.238 44.195 170.113 43.898 c h
167.957 47.398 m 168.27 47.461 168.973 47.523 169.426 47.523 c 170.238 
47.523 170.535 47.633 170.535 47.961 c 170.535 48.477 169.848 48.82 168.832
 48.82 c 168.035 48.82 167.52 48.57 167.52 48.18 c 167.52 47.961 167.598
 47.836 167.957 47.398 c h
168.004 44.352 m 168.004 43.82 168.254 43.508 168.676 43.508 c 168.957 
43.508 169.176 43.664 169.332 43.93 c 169.504 44.242 169.598 44.648 169.598
 45.008 c 169.598 45.508 169.348 45.82 168.926 45.82 c 168.379 45.82 168.004
 45.242 168.004 44.383 c h
168.004 44.352 m f
175.457 47.242 m 174.973 47.164 174.926 47.102 174.91 46.461 c 174.91 44.68
 l 174.91 43.742 174.551 43.258 173.801 43.258 c 173.285 43.258 172.91 43.477
 172.488 44.008 c 172.488 41.289 l 172.441 41.258 l 172.129 41.367 171.91
 41.43 171.41 41.586 c 171.176 41.648 l 171.176 41.789 l 171.207 41.789 
171.223 41.789 171.285 41.789 c 171.66 41.789 171.738 41.852 171.738 42.242
 c 171.738 46.461 l 171.723 47.117 171.676 47.18 171.16 47.242 c 171.16 
47.383 l 173.098 47.383 l 173.098 47.242 l 172.582 47.211 172.504 47.102
 172.488 46.461 c 172.488 44.305 l 172.863 43.898 173.129 43.742 173.488
 43.742 c 173.941 43.742 174.16 44.07 174.16 44.695 c 174.16 46.461 l 174.145
 47.102 174.066 47.211 173.551 47.242 c 173.551 47.383 l 175.457 47.383 
l h
175.457 47.242 m f
177.805 43.352 m 176.898 43.352 l 176.898 42.305 l 176.898 42.211 176.883
 42.195 176.836 42.195 c 176.32 42.945 176.055 43.242 175.789 43.398 c 175.695
 43.461 175.633 43.523 175.633 43.57 c 175.633 43.602 175.648 43.617 175.68
 43.633 c 176.148 43.633 l 176.148 46.336 l 176.148 47.086 176.414 47.477
 176.945 47.477 c 177.383 47.477 177.727 47.258 178.023 46.789 c 177.914
 46.695 l 177.711 46.93 177.57 47.008 177.367 47.008 c 177.039 47.008 176.898
 46.758 176.898 46.195 c 176.898 43.633 l 177.805 43.633 l h
177.805 43.352 m f
0.567044 w
q 1 0 0 -1 0 0 cm
144.566 -55.258 m 138.887 -52.438 l 150.242 -52.438 l 150.242 -58.113 l
 h
144.566 -55.258 m S Q
0.567042 w
q 1 0 0 -1 0 0 cm
144.582 -103.449 m 138.922 -100.621 l 150.242 -100.621 l 150.242 -106.281
 l h
144.582 -103.449 m S Q
156.5 102.32 m 156.469 101.086 l 156.359 101.086 l 156.312 101.164 156.266
 101.18 156.219 101.18 c 156.172 101.18 156.078 101.164 155.984 101.117 
c 155.766 101.055 155.562 101.008 155.344 101.008 c 154.641 101.008 154.125
 101.477 154.125 102.117 c 154.125 102.617 154.422 102.977 155.172 103.414
 c 155.703 103.711 l 156.016 103.883 156.172 104.102 156.172 104.383 c 156.172
 104.773 155.875 105.023 155.422 105.023 c 154.797 105.023 154.484 104.68
 154.281 103.773 c 154.141 103.773 l 154.141 105.164 l 154.25 105.164 l 
154.312 105.086 154.359 105.055 154.469 105.055 c 154.562 105.055 154.672
 105.086 154.875 105.133 c 155.109 105.18 155.344 105.227 155.531 105.227
 c 156.234 105.227 156.797 104.695 156.797 104.07 c 156.797 103.633 156.578
 103.336 156.047 103.008 c 155.078 102.43 l 154.812 102.273 154.688 102.07
 154.688 101.82 c 154.688 101.461 154.969 101.211 155.375 101.211 c 155.891
 101.211 156.156 101.508 156.359 102.32 c h
156.5 102.32 m f
159.434 101.102 m 158.527 101.102 l 158.527 100.055 l 158.527 99.961 158.512
 99.945 158.465 99.945 c 157.949 100.695 157.684 100.992 157.418 101.148
 c 157.324 101.211 157.262 101.273 157.262 101.32 c 157.262 101.352 157.277
 101.367 157.309 101.383 c 157.777 101.383 l 157.777 104.086 l 157.777 104.836
 158.043 105.227 158.574 105.227 c 159.012 105.227 159.355 105.008 159.652
 104.539 c 159.543 104.445 l 159.34 104.68 159.199 104.758 158.996 104.758
 c 158.668 104.758 158.527 104.508 158.527 103.945 c 158.527 101.383 l 159.434
 101.383 l h
159.434 101.102 m f
161.922 101.008 m 160.734 101.008 159.938 101.867 159.938 103.102 c 159.938
 104.32 160.766 105.227 161.891 105.227 c 163.031 105.227 163.891 104.273
 163.891 103.039 c 163.891 101.852 163.062 101.008 161.922 101.008 c h
161.797 101.258 m 162.547 101.258 163.078 102.117 163.078 103.352 c 163.078
 104.367 162.672 104.977 162 104.977 c 161.656 104.977 161.328 104.758 161.141
 104.398 c 160.875 103.93 160.734 103.305 160.734 102.664 c 160.734 101.82
 161.156 101.258 161.797 101.258 c h
161.797 101.258 m f
164.16 107.086 m 166.332 107.086 l 166.332 106.914 l 165.66 106.914 165.551
 106.82 165.535 106.242 c 165.535 104.836 l 165.863 105.133 166.066 105.227
 166.441 105.227 c 167.52 105.227 168.332 104.211 168.332 102.914 c 168.332
 101.805 167.707 101.008 166.832 101.008 c 166.332 101.008 165.941 101.227
 165.535 101.711 c 165.535 101.023 l 165.488 101.008 l 165.004 101.195 164.691
 101.305 164.191 101.461 c 164.191 101.602 l 164.27 101.602 164.332 101.602
 164.426 101.602 c 164.723 101.602 164.785 101.695 164.785 102.117 c 164.785
 106.305 l 164.785 106.789 164.691 106.867 164.16 106.93 c h
165.535 102.133 m 165.535 101.867 166.035 101.539 166.457 101.539 c 167.113
 101.539 167.551 102.227 167.551 103.273 c 167.551 104.258 167.113 104.93
 166.473 104.93 c 166.051 104.93 165.535 104.617 165.535 104.336 c h
165.535 102.133 m f
Q Q
showpage
%%Trailer
end
%%EOF
