%!PS-Adobe-3.0 EPSF-3.0
%%Creator: cairo 1.17.4 (https://cairographics.org)
%%CreationDate: Thu Feb 24 10:47:24 2022
%%Pages: 1
%%DocumentData: Clean7Bit
%%LanguageLevel: 2
%%BoundingBox: 0 0 117 93
%%EndComments
%%BeginProlog
50 dict begin
/q { gsave } bind def
/Q { grestore } bind def
/cm { 6 array astore concat } bind def
/w { setlinewidth } bind def
/J { setlinecap } bind def
/j { setlinejoin } bind def
/M { setmiterlimit } bind def
/d { setdash } bind def
/m { moveto } bind def
/l { lineto } bind def
/c { curveto } bind def
/h { closepath } bind def
/re { exch dup neg 3 1 roll 5 3 roll moveto 0 rlineto
      0 exch rlineto 0 rlineto closepath } bind def
/S { stroke } bind def
/f { fill } bind def
/f* { eofill } bind def
/n { newpath } bind def
/W { clip } bind def
/W* { eoclip } bind def
/BT { } bind def
/ET { } bind def
/BDC { mark 3 1 roll /BDC pdfmark } bind def
/EMC { mark /EMC pdfmark } bind def
/cairo_store_point { /cairo_point_y exch def /cairo_point_x exch def } def
/Tj { show currentpoint cairo_store_point } bind def
/TJ {
  {
    dup
    type /stringtype eq
    { show } { -0.001 mul 0 cairo_font_matrix dtransform rmoveto } ifelse
  } forall
  currentpoint cairo_store_point
} bind def
/cairo_selectfont { cairo_font_matrix aload pop pop pop 0 0 6 array astore
    cairo_font exch selectfont cairo_point_x cairo_point_y moveto } bind def
/Tf { pop /cairo_font exch def /cairo_font_matrix where
      { pop cairo_selectfont } if } bind def
/Td { matrix translate cairo_font_matrix matrix concatmatrix dup
      /cairo_font_matrix exch def dup 4 get exch 5 get cairo_store_point
      /cairo_font where { pop cairo_selectfont } if } bind def
/Tm { 2 copy 8 2 roll 6 array astore /cairo_font_matrix exch def
      cairo_store_point /cairo_font where { pop cairo_selectfont } if } bind def
/g { setgray } bind def
/rg { setrgbcolor } bind def
/d1 { setcachedevice } bind def
/cairo_data_source {
  CairoDataIndex CairoData length lt
    { CairoData CairoDataIndex get /CairoDataIndex CairoDataIndex 1 add def }
    { () } ifelse
} def
/cairo_flush_ascii85_file { cairo_ascii85_file status { cairo_ascii85_file flushfile } if } def
/cairo_image { image cairo_flush_ascii85_file } def
/cairo_imagemask { imagemask cairo_flush_ascii85_file } def
%%EndProlog
%%BeginSetup
%%EndSetup
%%Page: 1 1
%%BeginPageSetup
%%PageBoundingBox: 0 0 117 93
%%EndPageSetup
q 0 0 117 93 rectclip
1 0 0 -1 0 93 cm q
0 g
43.82 10.73 m 42.672 7.461 l 41.492 10.73 l 42.672 9.445 l f
0.425177 w
0 J
0 j
[] 0.0 d
10 M q 1 0 0 -1 0 0 cm
42.652 -92.48 m 42.652 -9.418 l S Q
81.914 51.145 m 85.191 49.969 l 81.914 48.801 l 83.223 49.969 l f
q 1 0 0 -1 0 0 cm
0.145 -49.973 m 83.203 -49.973 l S Q
91.449 54.297 m 90.09 50.125 l 91.449 45.938 l 90.902 45.938 l 89.543 50.125
 l 90.902 54.297 l h
91.449 54.297 m f
96.309 51.738 m 96.184 51.738 96.137 51.738 96.105 51.738 c 95.793 51.738
 95.699 51.645 95.699 51.238 c 95.699 46.145 l 95.668 46.129 l 95.246 46.27
 94.934 46.363 94.34 46.52 c 94.34 46.66 l 94.418 46.66 94.465 46.66 94.543
 46.66 c 94.871 46.66 94.949 46.754 94.949 47.113 c 94.949 48.52 l 94.605
 48.223 94.371 48.129 94.012 48.129 c 92.98 48.129 92.137 49.145 92.137 
50.41 c 92.137 51.566 92.809 52.348 93.809 52.348 c 94.309 52.348 94.652
 52.16 94.949 51.738 c 94.949 52.316 l 94.98 52.348 l 96.309 51.879 l h
94.949 51.332 m 94.949 51.395 94.887 51.504 94.793 51.613 c 94.652 51.785
 94.418 51.879 94.152 51.879 c 93.402 51.879 92.918 51.16 92.918 50.051 
c 92.918 49.051 93.355 48.379 94.043 48.379 c 94.527 48.379 94.949 48.801
 94.949 49.27 c h
94.949 51.332 m f
102.949 46.348 m 102.949 46.207 l 101.23 46.207 l 101.23 46.348 l 101.418
 46.348 101.73 46.426 101.73 46.676 c 101.73 46.895 101.512 47.254 101.387
 47.441 c 98.996 50.957 l 98.824 47.035 l 98.793 46.473 99.105 46.348 99.59
 46.348 c 99.59 46.207 l 97.277 46.207 l 97.277 46.348 l 97.887 46.348 97.934
 46.629 98.012 47.363 c 98.215 52.395 l 98.371 52.395 l 101.996 47.066 l
 102.168 46.848 102.559 46.348 102.949 46.348 c h
102.949 46.348 m f
106.008 45.816 m 105.57 45.816 l 102.461 54.176 l 102.914 54.176 l h
106.008 45.816 m f
110.945 51.738 m 110.82 51.738 110.773 51.738 110.742 51.738 c 110.43 51.738
 110.336 51.645 110.336 51.238 c 110.336 46.145 l 110.305 46.129 l 109.883
 46.27 109.57 46.363 108.977 46.52 c 108.977 46.66 l 109.055 46.66 109.102
 46.66 109.18 46.66 c 109.508 46.66 109.586 46.754 109.586 47.113 c 109.586
 48.52 l 109.242 48.223 109.008 48.129 108.648 48.129 c 107.617 48.129 106.773
 49.145 106.773 50.41 c 106.773 51.566 107.445 52.348 108.445 52.348 c 108.945
 52.348 109.289 52.16 109.586 51.738 c 109.586 52.316 l 109.617 52.348 l
 110.945 51.879 l h
109.586 51.332 m 109.586 51.395 109.523 51.504 109.43 51.613 c 109.289 
51.785 109.055 51.879 108.789 51.879 c 108.039 51.879 107.555 51.16 107.555
 50.051 c 107.555 49.051 107.992 48.379 108.68 48.379 c 109.164 48.379 109.586
 48.801 109.586 49.27 c h
109.586 51.332 m f
113.605 48.238 m 112.934 48.238 l 113.23 47.16 l 113.09 47.16 l 112.668
 47.785 112.168 48.207 111.559 48.348 c 111.512 48.535 l 112.184 48.535 
l 111.449 51.238 l 111.418 51.426 111.309 51.785 111.309 51.926 c 111.309
 52.27 111.559 52.363 111.73 52.363 c 112.121 52.363 112.543 52.066 113.012
 51.316 c 112.887 51.254 l 112.652 51.52 112.371 51.926 112.152 51.926 c
 112.027 51.926 111.996 51.848 111.996 51.785 c 111.996 51.723 112.012 51.676
 112.043 51.535 c 112.855 48.535 l 113.559 48.535 l h
113.605 48.238 m f
116.867 50.125 m 115.508 45.938 l 114.961 45.938 l 116.32 50.125 l 114.961
 54.297 l 115.508 54.297 l h
116.867 50.125 m f
45.336 0.938 m 45.336 0.484 45.273 0 44.867 0 c 44.695 0 44.492 0.109 44.492
 0.359 c 44.492 0.734 44.992 0.562 44.992 1.344 c 44.992 2.359 44.227 3.953
 43.445 3.953 c 43.07 3.953 42.898 3.641 42.898 3.219 c 42.898 3.078 42.945
 2.766 42.977 2.609 c 43.57 0 l 42.836 0 l 42.289 2.547 l 42.07 3.531 41.648
 3.953 41.32 3.953 c 41.07 3.953 40.867 3.703 40.867 3.234 c 40.867 2.578
 41.289 1.328 41.289 0.844 c 41.289 0.281 40.914 0 40.555 0 c 40.039 0 39.789
 0.469 39.789 0.781 c 39.789 0.859 39.805 0.953 39.852 1.016 c 39.945 1.016
 l 39.945 0.984 39.945 0.969 39.945 0.953 c 39.945 0.781 40.008 0.406 40.352
 0.406 c 40.492 0.406 40.602 0.516 40.602 0.859 c 40.602 1.172 40.18 2.594
 40.18 3.125 c 40.18 3.828 40.742 4.203 41.195 4.203 c 41.758 4.203 42.289
 3.781 42.477 3.312 c 42.523 3.875 42.867 4.203 43.445 4.203 c 44.539 4.203
 45.336 2.156 45.336 0.938 c h
45.336 0.938 m f
1.41739 w
q 1 0 0 -1 0 0 cm
42.668 -24.457 m 0.141 -15.949 l S Q
q 1 0 0 -1 0 0 cm
42.637 -75.488 m 85.16 -66.988 l S Q
1 g
44.48 24.445 m 44.48 23.426 43.652 22.598 42.633 22.598 c 41.613 22.598
 40.785 23.426 40.785 24.445 c 40.785 25.465 41.613 26.293 42.633 26.293
 c 43.652 26.293 44.48 25.465 44.48 24.445 c f
0 g
44.48 24.445 m 44.48 23.426 43.652 22.598 42.633 22.598 c 41.613 22.598
 40.785 23.426 40.785 24.445 c 40.785 25.465 41.613 26.293 42.633 26.293
 c 43.652 26.293 44.48 25.465 44.48 24.445 c h
44.48 24.445 m 44.293 24.445 l 44.293 23.527 43.551 22.785 42.633 22.785
 c 41.715 22.785 40.973 23.527 40.973 24.445 c 40.973 25.363 41.715 26.105
 42.633 26.105 c 43.551 26.105 44.293 25.363 44.293 24.445 c f
1 g
44.48 75.445 m 44.48 74.426 43.652 73.598 42.633 73.598 c 41.613 73.598
 40.785 74.426 40.785 75.445 c 40.785 76.465 41.613 77.293 42.633 77.293
 c 43.652 77.293 44.48 76.465 44.48 75.445 c f
0 g
44.48 75.445 m 44.48 74.426 43.652 73.598 42.633 73.598 c 41.613 73.598
 40.785 74.426 40.785 75.445 c 40.785 76.465 41.613 77.293 42.633 77.293
 c 43.652 77.293 44.48 76.465 44.48 75.445 c h
44.48 75.445 m 44.293 75.445 l 44.293 74.527 43.551 73.785 42.633 73.785
 c 41.715 73.785 40.973 74.527 40.973 75.445 c 40.973 76.363 41.715 77.105
 42.633 77.105 c 43.551 77.105 44.293 76.363 44.293 75.445 c f
3.312 31.512 m 2.922 32.074 2.641 32.262 2.188 32.262 c 1.453 32.262 0.953
 31.637 0.953 30.715 c 0.953 29.887 1.391 29.324 2.031 29.324 c 2.328 29.324
 2.422 29.402 2.5 29.715 c 2.562 29.887 l 2.625 30.121 2.766 30.246 2.938
 30.246 c 3.141 30.246 3.312 30.105 3.312 29.918 c 3.312 29.465 2.75 29.09
 2.078 29.09 c 1.688 29.09 1.281 29.262 0.969 29.543 c 0.562 29.887 0.344
 30.434 0.344 31.074 c 0.344 32.105 0.969 32.84 1.859 32.84 c 2.219 32.84
 2.531 32.715 2.812 32.465 c 3.031 32.277 3.188 32.059 3.422 31.59 c h
3.312 31.512 m f
5.605 29.09 m 4.574 29.09 3.855 29.855 3.855 30.965 c 3.855 32.043 4.59
 32.84 5.59 32.84 c 6.605 32.84 7.371 32.012 7.371 30.902 c 7.371 29.84 
6.637 29.09 5.605 29.09 c h
5.512 29.324 m 6.184 29.324 6.652 30.09 6.652 31.184 c 6.652 32.09 6.293
 32.621 5.699 32.621 c 5.387 32.621 5.09 32.434 4.918 32.105 c 4.699 31.699
 4.574 31.137 4.574 30.574 c 4.574 29.809 4.934 29.324 5.512 29.324 c h
5.512 29.324 m f
7.707 32.762 m 9.473 32.762 l 9.473 32.637 l 9.066 32.637 8.941 32.543 
8.941 32.23 c 8.941 29.98 l 8.941 29.965 9.004 29.887 9.051 29.824 c 9.254
 29.652 9.598 29.512 9.879 29.512 c 10.223 29.512 10.41 29.793 10.41 30.34
 c 10.41 32.074 l 10.395 32.527 10.301 32.621 9.863 32.637 c 9.863 32.762
 l 11.645 32.762 l 11.645 32.637 l 11.207 32.637 11.082 32.512 11.066 32.012
 c 11.066 29.996 l 11.316 29.652 11.566 29.512 11.941 29.512 c 12.395 29.512
 12.535 29.73 12.535 30.387 c 12.535 32.074 l 12.52 32.543 12.473 32.59 
12.02 32.637 c 12.02 32.762 l 13.754 32.762 l 13.754 32.637 l 13.551 32.621
 l 13.301 32.59 13.207 32.465 13.207 32.152 c 13.207 30.512 l 13.207 29.574
 12.895 29.09 12.285 29.09 c 11.816 29.09 11.41 29.309 10.988 29.762 c 10.848
 29.309 10.566 29.09 10.145 29.09 c 9.785 29.09 9.566 29.199 8.91 29.715
 c 8.91 29.105 l 8.848 29.09 l 8.426 29.246 8.16 29.34 7.738 29.449 c 7.738
 29.59 l 7.832 29.559 7.895 29.559 7.988 29.559 c 8.191 29.559 8.27 29.684
 8.27 30.074 c 8.27 32.09 l 8.254 32.527 8.145 32.637 7.707 32.637 c h
7.707 32.762 m f
13.867 34.496 m 15.789 34.496 l 15.789 34.34 l 15.195 34.34 15.102 34.262
 15.086 33.746 c 15.086 32.496 l 15.367 32.762 15.555 32.84 15.898 32.84
 c 16.836 32.84 17.57 31.949 17.57 30.793 c 17.57 29.809 17.008 29.09 16.242
 29.09 c 15.789 29.09 15.445 29.293 15.086 29.73 c 15.086 29.105 l 15.039
 29.09 l 14.602 29.262 14.336 29.371 13.898 29.496 c 13.898 29.637 l 13.961
 29.621 14.008 29.621 14.086 29.621 c 14.367 29.621 14.414 29.699 14.414
 30.074 c 14.414 33.809 l 14.414 34.23 14.336 34.309 13.867 34.355 c h
15.086 30.105 m 15.086 29.855 15.539 29.574 15.898 29.574 c 16.492 29.574
 16.883 30.184 16.883 31.105 c 16.883 31.996 16.492 32.59 15.914 32.59 c
 15.539 32.59 15.086 32.293 15.086 32.059 c h
15.086 30.105 m f
17.828 32.762 m 19.734 32.762 l 19.734 32.637 l 19.203 32.621 19.078 32.512
 19.062 32.043 c 19.062 30.246 l 19.062 29.996 19.391 29.605 19.609 29.605
 c 19.656 29.605 19.734 29.637 19.828 29.715 c 19.938 29.84 20.031 29.871
 20.141 29.871 c 20.328 29.871 20.453 29.746 20.453 29.512 c 20.453 29.262
 20.281 29.09 20.016 29.09 c 19.672 29.09 19.453 29.277 19.062 29.84 c 19.062
 29.105 l 19.016 29.09 l 18.562 29.277 18.281 29.387 17.844 29.527 c 17.844
 29.652 l 17.953 29.637 18.016 29.621 18.109 29.621 c 18.312 29.621 18.391
 29.746 18.391 30.105 c 18.391 32.09 l 18.375 32.512 18.328 32.559 17.828
 32.637 c h
17.828 32.762 m f
23.672 31.449 m 23.297 32.059 22.953 32.293 22.438 32.293 c 21.984 32.293
 21.641 32.059 21.406 31.605 c 21.266 31.309 21.203 31.043 21.188 30.559
 c 23.656 30.559 l 23.578 30.043 23.5 29.809 23.312 29.543 c 23.062 29.262
 22.703 29.09 22.281 29.09 c 21.891 29.09 21.516 29.246 21.203 29.512 c 
20.844 29.84 20.625 30.402 20.625 31.059 c 20.625 32.152 21.188 32.84 22.109
 32.84 c 22.875 32.84 23.469 32.371 23.797 31.512 c h
21.203 30.293 m 21.297 29.684 21.562 29.387 22.062 29.387 c 22.547 29.387
 22.734 29.605 22.844 30.293 c h
21.203 30.293 m f
26.418 30.262 m 26.387 29.168 l 26.293 29.168 l 26.246 29.23 26.215 29.262
 26.168 29.262 c 26.121 29.262 26.043 29.246 25.949 29.199 c 25.762 29.137
 25.59 29.09 25.387 29.09 c 24.762 29.09 24.309 29.512 24.309 30.09 c 24.309
 30.527 24.559 30.855 25.246 31.23 c 25.699 31.496 l 25.98 31.652 26.121
 31.84 26.121 32.09 c 26.121 32.449 25.855 32.668 25.449 32.668 c 24.902
 32.668 24.621 32.371 24.449 31.543 c 24.324 31.543 l 24.324 32.793 l 24.418
 32.793 l 24.48 32.715 24.512 32.699 24.605 32.699 c 24.684 32.699 24.793
 32.715 24.965 32.762 c 25.184 32.809 25.387 32.84 25.559 32.84 c 26.168
 32.84 26.668 32.387 26.668 31.824 c 26.668 31.418 26.48 31.152 26.012 30.871
 c 25.152 30.355 l 24.918 30.23 24.809 30.043 24.809 29.824 c 24.809 29.496
 25.043 29.277 25.418 29.277 c 25.871 29.277 26.105 29.543 26.293 30.262
 c h
26.418 30.262 m f
29.535 30.262 m 29.504 29.168 l 29.41 29.168 l 29.363 29.23 29.332 29.262
 29.285 29.262 c 29.238 29.262 29.16 29.246 29.066 29.199 c 28.879 29.137
 28.707 29.09 28.504 29.09 c 27.879 29.09 27.426 29.512 27.426 30.09 c 27.426
 30.527 27.676 30.855 28.363 31.23 c 28.816 31.496 l 29.098 31.652 29.238
 31.84 29.238 32.09 c 29.238 32.449 28.973 32.668 28.566 32.668 c 28.02 
32.668 27.738 32.371 27.566 31.543 c 27.441 31.543 l 27.441 32.793 l 27.535
 32.793 l 27.598 32.715 27.629 32.699 27.723 32.699 c 27.801 32.699 27.91
 32.715 28.082 32.762 c 28.301 32.809 28.504 32.84 28.676 32.84 c 29.285
 32.84 29.785 32.387 29.785 31.824 c 29.785 31.418 29.598 31.152 29.129 
30.871 c 28.27 30.355 l 28.035 30.23 27.926 30.043 27.926 29.824 c 27.926
 29.496 28.16 29.277 28.535 29.277 c 28.988 29.277 29.223 29.543 29.41 30.262
 c h
29.535 30.262 m f
30.266 32.762 m 32.156 32.762 l 32.156 32.637 l 31.625 32.605 31.578 32.527
 31.562 31.949 c 31.562 29.121 l 31.531 29.09 l 30.297 29.527 l 30.297 29.652
 l 30.359 29.652 l 30.453 29.637 30.562 29.621 30.641 29.621 c 30.828 29.621
 30.891 29.746 30.891 30.105 c 30.891 31.949 l 30.875 32.543 30.812 32.621
 30.266 32.637 c h
31.156 27.324 m 30.953 27.324 30.766 27.496 30.766 27.73 c 30.766 27.949
 30.938 28.137 31.156 28.137 c 31.406 28.137 31.578 27.949 31.578 27.73 
c 31.578 27.496 31.391 27.324 31.156 27.324 c h
31.156 27.324 m f
34.285 29.09 m 33.254 29.09 32.535 29.855 32.535 30.965 c 32.535 32.043
 33.27 32.84 34.27 32.84 c 35.285 32.84 36.051 32.012 36.051 30.902 c 36.051
 29.84 35.316 29.09 34.285 29.09 c h
34.191 29.324 m 34.863 29.324 35.332 30.09 35.332 31.184 c 35.332 32.09
 34.973 32.621 34.379 32.621 c 34.066 32.621 33.77 32.434 33.598 32.105 
c 33.379 31.699 33.254 31.137 33.254 30.574 c 33.254 29.809 33.613 29.324
 34.191 29.324 c h
34.191 29.324 m f
36.402 32.762 m 38.09 32.762 l 38.09 32.637 l 37.699 32.621 37.574 32.512
 37.574 32.23 c 37.574 29.996 l 37.949 29.637 38.121 29.527 38.387 29.527
 c 38.777 29.527 38.965 29.777 38.965 30.309 c 38.965 31.98 l 38.949 32.496
 38.855 32.621 38.465 32.637 c 38.465 32.762 l 40.121 32.762 l 40.121 32.637
 l 39.73 32.605 39.652 32.512 39.637 32.121 c 39.637 30.293 l 39.637 29.543
 39.293 29.09 38.699 29.09 c 38.34 29.09 38.09 29.23 37.543 29.746 c 37.543
 29.105 l 37.496 29.09 l 37.074 29.246 36.809 29.34 36.387 29.449 c 36.387
 29.59 l 36.449 29.559 36.512 29.559 36.605 29.559 c 36.824 29.559 36.902
 29.684 36.902 30.074 c 36.902 32.043 l 36.887 32.512 36.809 32.621 36.402
 32.637 c h
36.402 32.762 m f
51.438 81.195 m 51.062 81.805 50.719 82.039 50.203 82.039 c 49.75 82.039
 49.406 81.805 49.172 81.352 c 49.031 81.055 48.969 80.789 48.953 80.305
 c 51.422 80.305 l 51.344 79.789 51.266 79.555 51.078 79.289 c 50.828 79.008
 50.469 78.836 50.047 78.836 c 49.656 78.836 49.281 78.992 48.969 79.258
 c 48.609 79.586 48.391 80.148 48.391 80.805 c 48.391 81.898 48.953 82.586
 49.875 82.586 c 50.641 82.586 51.234 82.117 51.562 81.258 c h
48.969 80.039 m 49.062 79.43 49.328 79.133 49.828 79.133 c 50.312 79.133
 50.5 79.352 50.609 80.039 c h
48.969 80.039 m f
53.77 82.508 m 55.363 82.508 l 55.363 82.383 l 55.113 82.383 54.957 82.258
 54.707 81.914 c 53.691 80.352 l 54.363 79.398 l 54.504 79.18 54.738 79.055
 55.004 79.039 c 55.004 78.93 l 53.738 78.93 l 53.738 79.039 l 53.988 79.055
 54.066 79.102 54.066 79.211 c 54.066 79.305 53.973 79.492 53.77 79.742 
c 53.723 79.789 53.629 79.93 53.52 80.086 c 53.457 79.992 l 53.348 79.805
 53.27 79.695 53.254 79.664 c 53.098 79.43 53.051 79.289 53.051 79.211 c
 53.051 79.102 53.16 79.055 53.395 79.039 c 53.395 78.93 l 51.738 78.93 
l 51.738 79.039 l 51.816 79.039 l 52.051 79.039 52.176 79.148 52.426 79.523
 c 53.176 80.664 l 52.27 81.977 l 52.035 82.305 51.941 82.367 51.691 82.383
 c 51.691 82.508 l 52.848 82.508 l 52.848 82.383 l 52.613 82.383 52.52 82.352
 52.52 82.242 c 52.52 82.195 52.566 82.086 52.676 81.914 c 53.316 80.945
 l 54.035 82.055 l 54.066 82.102 54.082 82.148 54.082 82.195 c 54.082 82.336
 54.035 82.367 53.77 82.383 c h
53.77 82.508 m f
55.555 84.242 m 57.477 84.242 l 57.477 84.086 l 56.883 84.086 56.789 84.008
 56.773 83.492 c 56.773 82.242 l 57.055 82.508 57.242 82.586 57.586 82.586
 c 58.523 82.586 59.258 81.695 59.258 80.539 c 59.258 79.555 58.695 78.836
 57.93 78.836 c 57.477 78.836 57.133 79.039 56.773 79.477 c 56.773 78.852
 l 56.727 78.836 l 56.289 79.008 56.023 79.117 55.586 79.242 c 55.586 79.383
 l 55.648 79.367 55.695 79.367 55.773 79.367 c 56.055 79.367 56.102 79.445
 56.102 79.82 c 56.102 83.555 l 56.102 83.977 56.023 84.055 55.555 84.102
 c h
56.773 79.852 m 56.773 79.602 57.227 79.32 57.586 79.32 c 58.18 79.32 58.57
 79.93 58.57 80.852 c 58.57 81.742 58.18 82.336 57.602 82.336 c 57.227 82.336
 56.773 82.039 56.773 81.805 c h
56.773 79.852 m f
62.984 81.977 m 62.859 82.086 62.766 82.133 62.641 82.133 c 62.453 82.133
 62.406 82.023 62.406 81.664 c 62.406 80.117 l 62.406 79.695 62.359 79.477
 62.234 79.273 c 62.062 78.992 61.719 78.836 61.25 78.836 c 60.5 78.836 
59.922 79.227 59.922 79.742 c 59.922 79.914 60.062 80.07 60.25 80.07 c 60.453
 80.07 60.609 79.914 60.609 79.742 c 60.609 79.711 60.609 79.664 60.594 
79.617 c 60.578 79.539 60.578 79.477 60.578 79.43 c 60.578 79.211 60.828
 79.039 61.156 79.039 c 61.547 79.039 61.75 79.258 61.75 79.695 c 61.75 
80.18 l 60.531 80.664 60.391 80.742 60.047 81.039 c 59.875 81.195 59.766
 81.477 59.766 81.742 c 59.766 82.242 60.109 82.586 60.594 82.586 c 60.953
 82.586 61.281 82.414 61.766 82.008 c 61.797 82.43 61.953 82.586 62.281 
82.586 c 62.547 82.586 62.719 82.492 62.984 82.195 c h
61.75 81.523 m 61.75 81.773 61.719 81.852 61.547 81.945 c 61.344 82.055
 61.141 82.133 60.969 82.133 c 60.688 82.133 60.469 81.852 60.469 81.508
 c 60.469 81.477 l 60.469 81.008 60.828 80.695 61.75 80.367 c h
61.75 81.523 m f
63.09 82.508 m 64.777 82.508 l 64.777 82.383 l 64.387 82.367 64.262 82.258
 64.262 81.977 c 64.262 79.742 l 64.637 79.383 64.809 79.273 65.074 79.273
 c 65.465 79.273 65.652 79.523 65.652 80.055 c 65.652 81.727 l 65.637 82.242
 65.543 82.367 65.152 82.383 c 65.152 82.508 l 66.809 82.508 l 66.809 82.383
 l 66.418 82.352 66.34 82.258 66.324 81.867 c 66.324 80.039 l 66.324 79.289
 65.98 78.836 65.387 78.836 c 65.027 78.836 64.777 78.977 64.23 79.492 c
 64.23 78.852 l 64.184 78.836 l 63.762 78.992 63.496 79.086 63.074 79.195
 c 63.074 79.336 l 63.137 79.305 63.199 79.305 63.293 79.305 c 63.512 79.305
 63.59 79.43 63.59 79.82 c 63.59 81.789 l 63.574 82.258 63.496 82.367 63.09
 82.383 c h
63.09 82.508 m f
69.426 80.008 m 69.395 78.914 l 69.301 78.914 l 69.254 78.977 69.223 79.008
 69.176 79.008 c 69.129 79.008 69.051 78.992 68.957 78.945 c 68.77 78.883
 68.598 78.836 68.395 78.836 c 67.77 78.836 67.316 79.258 67.316 79.836 
c 67.316 80.273 67.566 80.602 68.254 80.977 c 68.707 81.242 l 68.988 81.398
 69.129 81.586 69.129 81.836 c 69.129 82.195 68.863 82.414 68.457 82.414
 c 67.91 82.414 67.629 82.117 67.457 81.289 c 67.332 81.289 l 67.332 82.539
 l 67.426 82.539 l 67.488 82.461 67.52 82.445 67.613 82.445 c 67.691 82.445
 67.801 82.461 67.973 82.508 c 68.191 82.555 68.395 82.586 68.566 82.586
 c 69.176 82.586 69.676 82.133 69.676 81.57 c 69.676 81.164 69.488 80.898
 69.02 80.617 c 68.16 80.102 l 67.926 79.977 67.816 79.789 67.816 79.57 
c 67.816 79.242 68.051 79.023 68.426 79.023 c 68.879 79.023 69.113 79.289
 69.301 80.008 c h
69.426 80.008 m f
70.156 82.508 m 72.047 82.508 l 72.047 82.383 l 71.516 82.352 71.469 82.273
 71.453 81.695 c 71.453 78.867 l 71.422 78.836 l 70.188 79.273 l 70.188 
79.398 l 70.25 79.398 l 70.344 79.383 70.453 79.367 70.531 79.367 c 70.719
 79.367 70.781 79.492 70.781 79.852 c 70.781 81.695 l 70.766 82.289 70.703
 82.367 70.156 82.383 c h
71.047 77.07 m 70.844 77.07 70.656 77.242 70.656 77.477 c 70.656 77.695
 70.828 77.883 71.047 77.883 c 71.297 77.883 71.469 77.695 71.469 77.477
 c 71.469 77.242 71.281 77.07 71.047 77.07 c h
71.047 77.07 m f
74.176 78.836 m 73.145 78.836 72.426 79.602 72.426 80.711 c 72.426 81.789
 73.16 82.586 74.16 82.586 c 75.176 82.586 75.941 81.758 75.941 80.648 c
 75.941 79.586 75.207 78.836 74.176 78.836 c h
74.082 79.07 m 74.754 79.07 75.223 79.836 75.223 80.93 c 75.223 81.836 
74.863 82.367 74.27 82.367 c 73.957 82.367 73.66 82.18 73.488 81.852 c 73.27
 81.445 73.145 80.883 73.145 80.32 c 73.145 79.555 73.504 79.07 74.082 79.07
 c h
74.082 79.07 m f
76.289 82.508 m 77.977 82.508 l 77.977 82.383 l 77.586 82.367 77.461 82.258
 77.461 81.977 c 77.461 79.742 l 77.836 79.383 78.008 79.273 78.273 79.273
 c 78.664 79.273 78.852 79.523 78.852 80.055 c 78.852 81.727 l 78.836 82.242
 78.742 82.367 78.352 82.383 c 78.352 82.508 l 80.008 82.508 l 80.008 82.383
 l 79.617 82.352 79.539 82.258 79.523 81.867 c 79.523 80.039 l 79.523 79.289
 79.18 78.836 78.586 78.836 c 78.227 78.836 77.977 78.977 77.43 79.492 c
 77.43 78.852 l 77.383 78.836 l 76.961 78.992 76.695 79.086 76.273 79.195
 c 76.273 79.336 l 76.336 79.305 76.398 79.305 76.492 79.305 c 76.711 79.305
 76.789 79.43 76.789 79.82 c 76.789 81.789 l 76.773 82.258 76.695 82.367
 76.289 82.383 c h
76.289 82.508 m f
Q Q
showpage
%%Trailer
end
%%EOF
