%!PS-Adobe-3.0 EPSF-3.0
%%Creator: cairo 1.17.4 (https://cairographics.org)
%%CreationDate: Thu Feb 24 10:47:25 2022
%%Pages: 1
%%DocumentData: Clean7Bit
%%LanguageLevel: 2
%%BoundingBox: 0 0 94 95
%%EndComments
%%BeginProlog
50 dict begin
/q { gsave } bind def
/Q { grestore } bind def
/cm { 6 array astore concat } bind def
/w { setlinewidth } bind def
/J { setlinecap } bind def
/j { setlinejoin } bind def
/M { setmiterlimit } bind def
/d { setdash } bind def
/m { moveto } bind def
/l { lineto } bind def
/c { curveto } bind def
/h { closepath } bind def
/re { exch dup neg 3 1 roll 5 3 roll moveto 0 rlineto
      0 exch rlineto 0 rlineto closepath } bind def
/S { stroke } bind def
/f { fill } bind def
/f* { eofill } bind def
/n { newpath } bind def
/W { clip } bind def
/W* { eoclip } bind def
/BT { } bind def
/ET { } bind def
/BDC { mark 3 1 roll /BDC pdfmark } bind def
/EMC { mark /EMC pdfmark } bind def
/cairo_store_point { /cairo_point_y exch def /cairo_point_x exch def } def
/Tj { show currentpoint cairo_store_point } bind def
/TJ {
  {
    dup
    type /stringtype eq
    { show } { -0.001 mul 0 cairo_font_matrix dtransform rmoveto } ifelse
  } forall
  currentpoint cairo_store_point
} bind def
/cairo_selectfont { cairo_font_matrix aload pop pop pop 0 0 6 array astore
    cairo_font exch selectfont cairo_point_x cairo_point_y moveto } bind def
/Tf { pop /cairo_font exch def /cairo_font_matrix where
      { pop cairo_selectfont } if } bind def
/Td { matrix translate cairo_font_matrix matrix concatmatrix dup
      /cairo_font_matrix exch def dup 4 get exch 5 get cairo_store_point
      /cairo_font where { pop cairo_selectfont } if } bind def
/Tm { 2 copy 8 2 roll 6 array astore /cairo_font_matrix exch def
      cairo_store_point /cairo_font where { pop cairo_selectfont } if } bind def
/g { setgray } bind def
/rg { setrgbcolor } bind def
/d1 { setcachedevice } bind def
/cairo_data_source {
  CairoDataIndex CairoData length lt
    { CairoData CairoDataIndex get /CairoDataIndex CairoDataIndex 1 add def }
    { () } ifelse
} def
/cairo_flush_ascii85_file { cairo_ascii85_file status { cairo_ascii85_file flushfile } if } def
/cairo_image { image cairo_flush_ascii85_file } def
/cairo_imagemask { imagemask cairo_flush_ascii85_file } def
%%EndProlog
%%BeginSetup
%%EndSetup
%%Page: 1 1
%%BeginPageSetup
%%PageBoundingBox: 0 0 94 95
%%EndPageSetup
q 0 0 94 95 rectclip
1 0 0 -1 0 95 cm q
0 g
44.004 13.008 m 42.855 9.738 l 41.676 13.008 l 42.855 11.723 l f
0.425177 w
0 J
0 j
[] 0.0 d
10 M q 1 0 0 -1 0 0 cm
42.836 -94.762 m 42.836 -11.695 l S Q
82.098 53.422 m 85.375 52.25 l 82.098 51.078 l 83.406 52.25 l f
q 1 0 0 -1 0 0 cm
0.328 -52.25 m 83.387 -52.25 l S Q
93.102 49.328 m 90.773 49.328 l 90.742 49.469 l 91.039 49.469 91.43 49.5
 91.43 49.906 c 91.43 50.031 91.398 50.172 91.305 50.5 c 90.242 54.328 l
 89.992 55.234 89.664 55.219 89.32 55.219 c 89.289 55.375 l 91.648 55.375
 l 91.68 55.219 l 91.352 55.219 91.008 55.234 91.008 54.812 c 91.008 54.688
 91.039 54.531 91.102 54.328 c 92.211 50.375 l 92.398 49.719 92.664 49.469
 93.07 49.469 c h
93.102 49.328 m f
42.883 0.938 m 42.883 0.484 42.82 0 42.414 0 c 42.242 0 42.039 0.109 42.039
 0.359 c 42.039 0.734 42.539 0.562 42.539 1.344 c 42.539 2.359 41.773 3.953
 40.992 3.953 c 40.617 3.953 40.445 3.641 40.445 3.219 c 40.445 3.078 40.492
 2.766 40.523 2.609 c 41.117 0 l 40.383 0 l 39.836 2.547 l 39.617 3.531 
39.195 3.953 38.867 3.953 c 38.617 3.953 38.414 3.703 38.414 3.234 c 38.414
 2.578 38.836 1.328 38.836 0.844 c 38.836 0.281 38.461 0 38.102 0 c 37.586
 0 37.336 0.469 37.336 0.781 c 37.336 0.859 37.352 0.953 37.398 1.016 c 
37.492 1.016 l 37.492 0.984 37.492 0.969 37.492 0.953 c 37.492 0.781 37.555
 0.406 37.898 0.406 c 38.039 0.406 38.148 0.516 38.148 0.859 c 38.148 1.172
 37.727 2.594 37.727 3.125 c 37.727 3.828 38.289 4.203 38.742 4.203 c 39.305
 4.203 39.836 3.781 40.023 3.312 c 40.07 3.875 40.414 4.203 40.992 4.203
 c 42.086 4.203 42.883 2.156 42.883 0.938 c h
42.883 0.938 m f
46.172 5.113 m 45.844 5.645 45.531 5.848 45.094 5.848 c 44.688 5.848 44.391
 5.645 44.188 5.238 c 44.062 4.973 44.016 4.754 44 4.316 c 46.156 4.316 
l 46.094 3.863 46.031 3.676 45.844 3.441 c 45.641 3.191 45.328 3.051 44.953
 3.051 c 44.609 3.051 44.281 3.176 44.016 3.41 c 43.688 3.691 43.5 4.191
 43.5 4.77 c 43.5 5.723 44 6.316 44.812 6.316 c 45.469 6.316 45.984 5.91
 46.281 5.16 c h
44.016 4.098 m 44.094 3.551 44.328 3.301 44.75 3.301 c 45.188 3.301 45.344
 3.488 45.438 4.098 c h
44.016 4.098 m f
46.586 6.254 m 48.242 6.254 l 48.242 6.145 l 47.805 6.129 47.727 6.066 
47.711 5.676 c 47.711 1.504 l 47.68 1.488 l 47.336 1.613 47.07 1.676 46.57
 1.801 c 46.57 1.91 l 46.617 1.91 l 46.695 1.91 46.773 1.895 46.836 1.895
 c 47.055 1.895 47.133 1.988 47.133 2.316 c 47.133 5.645 l 47.117 6.02 47.023
 6.129 46.586 6.145 c h
46.586 6.254 m f
1.41739 w
q 1 0 0 -1 0 0 cm
0.316 -30.996 m 42.852 -52.262 l 85.352 -30.996 l S Q
1 g
44.664 52.223 m 44.664 51.203 43.836 50.375 42.816 50.375 c 41.797 50.375
 40.969 51.203 40.969 52.223 c 40.969 53.242 41.797 54.07 42.816 54.07 c
 43.836 54.07 44.664 53.242 44.664 52.223 c f
0 g
44.664 52.223 m 44.664 51.203 43.836 50.375 42.816 50.375 c 41.797 50.375
 40.969 51.203 40.969 52.223 c 40.969 53.242 41.797 54.07 42.816 54.07 c
 43.836 54.07 44.664 53.242 44.664 52.223 c h
44.664 52.223 m 44.477 52.223 l 44.477 51.305 43.734 50.562 42.816 50.562
 c 41.898 50.562 41.156 51.305 41.156 52.223 c 41.156 53.141 41.898 53.883
 42.816 53.883 c 43.734 53.883 44.477 53.141 44.477 52.223 c f
Q Q
showpage
%%Trailer
end
%%EOF
