<?xml version="1.0" encoding="UTF-8" standalone="no"?>
<svg
   width="237pt"
   height="115pt"
   viewBox="0 0 237 115"
   version="1.2"
   id="svg57"
   xmlns="http://www.w3.org/2000/svg"
   xmlns:svg="http://www.w3.org/2000/svg">
  <defs
     id="defs61" />
  <g
     id="surface1">
    <path
       style=" stroke:none;fill-rule:nonzero;fill:rgb(0%,0%,0%);fill-opacity:1;"
       d="M 43.828125 10.734375 L 42.640625 7.449219 L 41.488281 10.734375 L 42.640625 9.40625 "
       id="path2" />
    <path
       style="fill:none;stroke-width:4.25175;stroke-linecap:butt;stroke-linejoin:miter;stroke:rgb(0%,0%,0%);stroke-opacity:1;stroke-miterlimit:10;"
       d="M 426.601562 225.15625 L 426.601562 1055.78125 "
       transform="matrix(0.1,0,0,-0.1,0,115)"
       id="path4" />
    <path
       style=" stroke:none;fill-rule:nonzero;fill:rgb(0%,0%,0%);fill-opacity:1;"
       d="M 81.886719 51.160156 L 85.148438 49.980469 L 81.886719 48.800781 L 83.207031 49.980469 "
       id="path6" />
    <path
       style="fill:none;stroke-width:4.25174;stroke-linecap:butt;stroke-linejoin:miter;stroke:rgb(0%,0%,0%);stroke-opacity:1;stroke-miterlimit:10;"
       d="M 1.328125 650.234375 L 831.953125 650.234375 "
       transform="matrix(0.1,0,0,-0.1,0,115)"
       id="path8" />
    <path
       style=" stroke:none;fill-rule:nonzero;fill:rgb(0%,0%,0%);fill-opacity:1;"
       d="M 94.304688 49.621094 C 94.304688 48.277344 93.289062 47.917969 92.976562 47.917969 L 92.976562 48.042969 C 93.570312 48.324219 93.648438 49.011719 93.648438 49.683594 C 93.648438 50.746094 92.664062 51.824219 92.101562 51.824219 C 91.710938 51.824219 91.460938 51.636719 91.460938 50.949219 C 91.726562 50.605469 92.179688 49.730469 92.179688 49.277344 C 92.179688 49.058594 92.085938 48.839844 91.820312 48.839844 C 91.539062 48.839844 91.414062 49.074219 91.351562 49.230469 C 91.164062 49.683594 91.148438 50.121094 91.148438 50.574219 C 91.148438 50.699219 91.148438 50.808594 91.164062 50.886719 C 90.851562 51.386719 90.585938 51.777344 90.039062 51.777344 C 89.664062 51.777344 89.398438 51.417969 89.398438 50.917969 C 89.398438 49.542969 90.367188 48.449219 91.023438 48.042969 L 91.023438 47.917969 C 89.460938 48.261719 88.742188 49.746094 88.742188 50.824219 C 88.742188 51.480469 89.101562 52.121094 89.898438 52.121094 C 90.570312 52.121094 91.023438 51.574219 91.210938 51.324219 C 91.289062 51.777344 91.476562 52.121094 92.039062 52.121094 C 93.070312 52.121094 94.304688 50.964844 94.304688 49.621094 Z M 94.304688 49.621094 "
       id="path10" />
    <path
       style=" stroke:none;fill-rule:nonzero;fill:rgb(0%,0%,0%);fill-opacity:1;"
       d="M 45.316406 0.9375 C 45.316406 0.484375 45.253906 0 44.847656 0 C 44.675781 0 44.472656 0.109375 44.472656 0.359375 C 44.472656 0.734375 44.972656 0.5625 44.972656 1.34375 C 44.972656 2.359375 44.207031 3.953125 43.425781 3.953125 C 43.050781 3.953125 42.878906 3.640625 42.878906 3.21875 C 42.878906 3.078125 42.925781 2.765625 42.957031 2.609375 L 43.550781 0 L 42.816406 0 L 42.269531 2.546875 C 42.050781 3.53125 41.628906 3.953125 41.300781 3.953125 C 41.050781 3.953125 40.847656 3.703125 40.847656 3.234375 C 40.847656 2.578125 41.269531 1.328125 41.269531 0.84375 C 41.269531 0.28125 40.894531 0 40.535156 0 C 40.019531 0 39.769531 0.46875 39.769531 0.78125 C 39.769531 0.859375 39.785156 0.953125 39.832031 1.015625 L 39.925781 1.015625 C 39.925781 0.984375 39.925781 0.96875 39.925781 0.953125 C 39.925781 0.78125 39.988281 0.40625 40.332031 0.40625 C 40.472656 0.40625 40.582031 0.515625 40.582031 0.859375 C 40.582031 1.171875 40.160156 2.59375 40.160156 3.125 C 40.160156 3.828125 40.722656 4.203125 41.175781 4.203125 C 41.738281 4.203125 42.269531 3.78125 42.457031 3.3125 C 42.503906 3.875 42.847656 4.203125 43.425781 4.203125 C 44.519531 4.203125 45.316406 2.15625 45.316406 0.9375 Z M 45.316406 0.9375 "
       id="path12" />
    <path
       style="fill:none;stroke-width:14.1739;stroke-linecap:butt;stroke-linejoin:miter;stroke:rgb(0%,0%,0%);stroke-opacity:1;stroke-miterlimit:10;"
       d="M 426.328125 905.273438 L 851.640625 990.429688 "
       transform="matrix(0.1,0,0,-0.1,0,115)"
       id="path14" />
    <path
       style="fill:none;stroke-width:14.1739;stroke-linecap:butt;stroke-linejoin:miter;stroke:rgb(0%,0%,0%);stroke-opacity:1;stroke-miterlimit:10;"
       d="M 426.367188 395.15625 L 1.40625 480.234375 "
       transform="matrix(0.1,0,0,-0.1,0,115)"
       id="path16" />
    <path
       style=" stroke:none;fill-rule:nonzero;fill:rgb(100%,100%,100%);fill-opacity:1;"
       d="M 44.460938 24.464844 C 44.460938 23.445312 43.632812 22.617188 42.613281 22.617188 C 41.59375 22.617188 40.765625 23.445312 40.765625 24.464844 C 40.765625 25.484375 41.59375 26.3125 42.613281 26.3125 C 43.632812 26.3125 44.460938 25.484375 44.460938 24.464844 "
       id="path18" />
    <path
       style=" stroke:none;fill-rule:nonzero;fill:rgb(0%,0%,0%);fill-opacity:1;"
       d="M 44.460938 24.464844 C 44.460938 23.445312 43.632812 22.617188 42.613281 22.617188 C 41.59375 22.617188 40.765625 23.445312 40.765625 24.464844 C 40.765625 25.484375 41.59375 26.3125 42.613281 26.3125 C 43.632812 26.3125 44.460938 25.484375 44.460938 24.464844 Z M 44.460938 24.464844 L 44.273438 24.464844 C 44.273438 23.546875 43.53125 22.804688 42.613281 22.804688 C 41.695312 22.804688 40.953125 23.546875 40.953125 24.464844 C 40.953125 25.382812 41.695312 26.125 42.613281 26.125 C 43.53125 26.125 44.273438 25.382812 44.273438 24.464844 "
       id="path20" />
    <path
       style=" stroke:none;fill-rule:nonzero;fill:rgb(100%,100%,100%);fill-opacity:1;"
       d="M 44.460938 75.464844 C 44.460938 74.445312 43.632812 73.617188 42.613281 73.617188 C 41.59375 73.617188 40.765625 74.445312 40.765625 75.464844 C 40.765625 76.484375 41.59375 77.3125 42.613281 77.3125 C 43.632812 77.3125 44.460938 76.484375 44.460938 75.464844 "
       id="path22" />
    <path
       style=" stroke:none;fill-rule:nonzero;fill:rgb(0%,0%,0%);fill-opacity:1;"
       d="M 44.460938 75.464844 C 44.460938 74.445312 43.632812 73.617188 42.613281 73.617188 C 41.59375 73.617188 40.765625 74.445312 40.765625 75.464844 C 40.765625 76.484375 41.59375 77.3125 42.613281 77.3125 C 43.632812 77.3125 44.460938 76.484375 44.460938 75.464844 Z M 44.460938 75.464844 L 44.273438 75.464844 C 44.273438 74.546875 43.53125 73.804688 42.613281 73.804688 C 41.695312 73.804688 40.953125 74.546875 40.953125 75.464844 C 40.953125 76.382812 41.695312 77.125 42.613281 77.125 C 43.53125 77.125 44.273438 76.382812 44.273438 75.464844 "
       id="path24" />
    <path
       style=" stroke:none;fill-rule:nonzero;fill:rgb(0%,0%,0%);fill-opacity:1;"
       d="M 40.363281 106.710938 C 39.707031 107.148438 39.441406 107.367188 39.097656 107.789062 C 38.472656 108.570312 38.160156 109.460938 38.160156 110.507812 C 38.160156 111.664062 38.488281 112.539062 39.269531 113.445312 C 39.644531 113.882812 39.878906 114.070312 40.347656 114.367188 L 40.441406 114.210938 C 39.738281 113.648438 39.488281 113.335938 39.238281 112.664062 C 39.019531 112.070312 38.925781 111.398438 38.925781 110.492188 C 38.925781 109.539062 39.035156 108.804688 39.285156 108.257812 C 39.535156 107.695312 39.800781 107.367188 40.441406 106.851562 Z M 40.363281 106.710938 "
       id="path26" />
    <path
       style=" stroke:none;fill-rule:nonzero;fill:rgb(0%,0%,0%);fill-opacity:1;"
       d="M 44.691406 112.179688 C 44.535156 112.304688 44.425781 112.351562 44.285156 112.351562 C 44.082031 112.351562 44.019531 112.226562 44.019531 111.835938 L 44.019531 110.085938 C 44.019531 109.617188 43.972656 109.351562 43.847656 109.148438 C 43.644531 108.820312 43.253906 108.648438 42.738281 108.648438 C 41.894531 108.648438 41.222656 109.085938 41.222656 109.648438 C 41.222656 109.851562 41.394531 110.039062 41.613281 110.039062 C 41.832031 110.039062 42.019531 109.851562 42.019531 109.664062 C 42.019531 109.632812 42.003906 109.585938 42.003906 109.523438 C 41.972656 109.429688 41.972656 109.367188 41.972656 109.304688 C 41.972656 109.054688 42.253906 108.867188 42.613281 108.867188 C 43.050781 108.867188 43.300781 109.117188 43.300781 109.601562 L 43.300781 110.148438 C 41.925781 110.695312 41.769531 110.789062 41.378906 111.117188 C 41.175781 111.304688 41.050781 111.601562 41.050781 111.898438 C 41.050781 112.460938 41.441406 112.867188 42.003906 112.867188 C 42.394531 112.867188 42.753906 112.679688 43.300781 112.210938 C 43.347656 112.679688 43.519531 112.867188 43.878906 112.867188 C 44.191406 112.867188 44.378906 112.757812 44.691406 112.414062 Z M 43.300781 111.664062 C 43.300781 111.945312 43.253906 112.039062 43.066406 112.148438 C 42.832031 112.273438 42.597656 112.335938 42.410156 112.335938 C 42.097656 112.335938 41.847656 112.039062 41.847656 111.648438 L 41.847656 111.617188 C 41.847656 111.085938 42.253906 110.742188 43.300781 110.367188 Z M 43.300781 111.664062 "
       id="path28" />
    <path
       style=" stroke:none;fill-rule:nonzero;fill:rgb(0%,0%,0%);fill-opacity:1;"
       d="M 45.023438 114.367188 C 45.679688 113.914062 45.960938 113.695312 46.289062 113.289062 C 46.929688 112.507812 47.242188 111.601562 47.242188 110.554688 C 47.242188 109.414062 46.898438 108.539062 46.117188 107.632812 C 45.742188 107.195312 45.507812 106.992188 45.054688 106.710938 L 44.945312 106.851562 C 45.664062 107.414062 45.898438 107.726562 46.148438 108.398438 C 46.367188 109.007812 46.460938 109.679688 46.460938 110.585938 C 46.460938 111.523438 46.351562 112.257812 46.101562 112.804688 C 45.867188 113.367188 45.585938 113.695312 44.945312 114.210938 Z M 45.023438 114.367188 "
       id="path30" />
    <path
       style=" stroke:none;fill-rule:nonzero;fill:rgb(0%,0%,0%);fill-opacity:1;"
       d="M 185.554688 10.734375 L 184.367188 7.449219 L 183.214844 10.734375 L 184.367188 9.40625 "
       id="path32" />
    <path
       style="fill:none;stroke-width:4.25175;stroke-linecap:butt;stroke-linejoin:miter;stroke:rgb(0%,0%,0%);stroke-opacity:1;stroke-miterlimit:10;"
       d="M 1843.710938 225.15625 L 1843.710938 1055.78125 "
       transform="matrix(0.1,0,0,-0.1,0,115)"
       id="path34" />
    <path
       style=" stroke:none;fill-rule:nonzero;fill:rgb(0%,0%,0%);fill-opacity:1;"
       d="M 223.625 51.160156 L 226.886719 49.980469 L 223.625 48.800781 L 224.910156 49.980469 "
       id="path36" />
    <path
       style="fill:none;stroke-width:4.25174;stroke-linecap:butt;stroke-linejoin:miter;stroke:rgb(0%,0%,0%);stroke-opacity:1;stroke-miterlimit:10;"
       d="M 1418.398438 650.234375 L 2249.375 650.234375 "
       transform="matrix(0.1,0,0,-0.1,0,115)"
       id="path38" />
    <path
       style=" stroke:none;fill-rule:nonzero;fill:rgb(0%,0%,0%);fill-opacity:1;"
       d="M 236.03125 49.621094 C 236.03125 48.277344 235.015625 47.917969 234.703125 47.917969 L 234.703125 48.042969 C 235.296875 48.324219 235.375 49.011719 235.375 49.683594 C 235.375 50.746094 234.390625 51.824219 233.828125 51.824219 C 233.4375 51.824219 233.1875 51.636719 233.1875 50.949219 C 233.453125 50.605469 233.90625 49.730469 233.90625 49.277344 C 233.90625 49.058594 233.8125 48.839844 233.546875 48.839844 C 233.265625 48.839844 233.140625 49.074219 233.078125 49.230469 C 232.890625 49.683594 232.875 50.121094 232.875 50.574219 C 232.875 50.699219 232.875 50.808594 232.890625 50.886719 C 232.578125 51.386719 232.3125 51.777344 231.765625 51.777344 C 231.390625 51.777344 231.125 51.417969 231.125 50.917969 C 231.125 49.542969 232.09375 48.449219 232.75 48.042969 L 232.75 47.917969 C 231.1875 48.261719 230.46875 49.746094 230.46875 50.824219 C 230.46875 51.480469 230.828125 52.121094 231.625 52.121094 C 232.296875 52.121094 232.75 51.574219 232.9375 51.324219 C 233.015625 51.777344 233.203125 52.121094 233.765625 52.121094 C 234.796875 52.121094 236.03125 50.964844 236.03125 49.621094 Z M 236.03125 49.621094 "
       id="path40" />
    <path
       style=" stroke:none;fill-rule:nonzero;fill:rgb(0%,0%,0%);fill-opacity:1;"
       d="M 187.046875 0.9375 C 187.046875 0.484375 186.984375 0 186.578125 0 C 186.40625 0 186.203125 0.109375 186.203125 0.359375 C 186.203125 0.734375 186.703125 0.5625 186.703125 1.34375 C 186.703125 2.359375 185.9375 3.953125 185.15625 3.953125 C 184.78125 3.953125 184.609375 3.640625 184.609375 3.21875 C 184.609375 3.078125 184.65625 2.765625 184.6875 2.609375 L 185.28125 0 L 184.546875 0 L 184 2.546875 C 183.78125 3.53125 183.359375 3.953125 183.03125 3.953125 C 182.78125 3.953125 182.578125 3.703125 182.578125 3.234375 C 182.578125 2.578125 183 1.328125 183 0.84375 C 183 0.28125 182.625 0 182.265625 0 C 181.75 0 181.5 0.46875 181.5 0.78125 C 181.5 0.859375 181.515625 0.953125 181.5625 1.015625 L 181.65625 1.015625 C 181.65625 0.984375 181.65625 0.96875 181.65625 0.953125 C 181.65625 0.78125 181.71875 0.40625 182.0625 0.40625 C 182.203125 0.40625 182.3125 0.515625 182.3125 0.859375 C 182.3125 1.171875 181.890625 2.59375 181.890625 3.125 C 181.890625 3.828125 182.453125 4.203125 182.90625 4.203125 C 183.46875 4.203125 184 3.78125 184.1875 3.3125 C 184.234375 3.875 184.578125 4.203125 185.15625 4.203125 C 186.25 4.203125 187.046875 2.15625 187.046875 0.9375 Z M 187.046875 0.9375 "
       id="path42" />
    <path
       style="fill:none;stroke-width:14.1739;stroke-linecap:butt;stroke-linejoin:miter;stroke:rgb(0%,0%,0%);stroke-opacity:1;stroke-miterlimit:10;"
       d="M 1418.710938 862.96875 L 1843.75 650.273438 L 2269.179688 862.96875 "
       transform="matrix(0.1,0,0,-0.1,0,115)"
       id="path44" />
    <path
       style=" stroke:none;fill-rule:nonzero;fill:rgb(100%,100%,100%);fill-opacity:1;"
       d="M 186.257812 49.964844 C 186.257812 48.945312 185.429688 48.117188 184.410156 48.117188 C 183.390625 48.117188 182.5625 48.945312 182.5625 49.964844 C 182.5625 50.984375 183.390625 51.8125 184.410156 51.8125 C 185.429688 51.8125 186.257812 50.984375 186.257812 49.964844 "
       id="path46" />
    <path
       style=" stroke:none;fill-rule:nonzero;fill:rgb(0%,0%,0%);fill-opacity:1;"
       d="M 186.257812 49.964844 C 186.257812 48.945312 185.429688 48.117188 184.410156 48.117188 C 183.390625 48.117188 182.5625 48.945312 182.5625 49.964844 C 182.5625 50.984375 183.390625 51.8125 184.410156 51.8125 C 185.429688 51.8125 186.257812 50.984375 186.257812 49.964844 Z M 186.257812 49.964844 L 186.070312 49.964844 C 186.070312 49.046875 185.328125 48.304688 184.410156 48.304688 C 183.492188 48.304688 182.75 49.046875 182.75 49.964844 C 182.75 50.882812 183.492188 51.625 184.410156 51.625 C 185.328125 51.625 186.070312 50.882812 186.070312 49.964844 "
       id="path48" />
    <path
       style=" stroke:none;fill-rule:nonzero;fill:rgb(0%,0%,0%);fill-opacity:1;"
       d="M 181.734375 106.710938 C 181.078125 107.148438 180.8125 107.367188 180.46875 107.789062 C 179.84375 108.570312 179.53125 109.460938 179.53125 110.507812 C 179.53125 111.664062 179.859375 112.539062 180.640625 113.445312 C 181.015625 113.882812 181.25 114.070312 181.71875 114.367188 L 181.8125 114.210938 C 181.109375 113.648438 180.859375 113.335938 180.609375 112.664062 C 180.390625 112.070312 180.296875 111.398438 180.296875 110.492188 C 180.296875 109.539062 180.40625 108.804688 180.65625 108.257812 C 180.90625 107.695312 181.171875 107.367188 181.8125 106.851562 Z M 181.734375 106.710938 "
       id="path50" />
    <path
       style=" stroke:none;fill-rule:nonzero;fill:rgb(0%,0%,0%);fill-opacity:1;"
       d="M 183.46875 106.664062 L 183.421875 106.648438 C 183.046875 106.773438 182.8125 106.851562 182.375 106.976562 L 182.125 107.039062 L 182.125 107.179688 C 182.171875 107.179688 182.203125 107.179688 182.265625 107.179688 C 182.625 107.179688 182.71875 107.257812 182.71875 107.632812 L 182.71875 112.289062 C 182.71875 112.570312 183.46875 112.867188 184.1875 112.867188 C 185.375 112.867188 186.296875 111.882812 186.296875 110.601562 C 186.296875 109.476562 185.609375 108.648438 184.71875 108.648438 C 184.171875 108.648438 183.640625 108.960938 183.46875 109.414062 Z M 183.46875 109.882812 C 183.46875 109.539062 183.890625 109.210938 184.359375 109.210938 C 184.609375 109.210938 184.828125 109.304688 185.015625 109.476562 C 185.296875 109.757812 185.5 110.367188 185.5 111.007812 C 185.5 112.007812 185.078125 112.570312 184.34375 112.570312 C 183.875 112.570312 183.46875 112.382812 183.46875 112.148438 Z M 183.46875 109.882812 "
       id="path52" />
    <path
       style=" stroke:none;fill-rule:nonzero;fill:rgb(0%,0%,0%);fill-opacity:1;"
       d="M 186.878906 114.367188 C 187.535156 113.914062 187.816406 113.695312 188.144531 113.289062 C 188.785156 112.507812 189.097656 111.601562 189.097656 110.554688 C 189.097656 109.414062 188.753906 108.539062 187.972656 107.632812 C 187.597656 107.195312 187.363281 106.992188 186.910156 106.710938 L 186.800781 106.851562 C 187.519531 107.414062 187.753906 107.726562 188.003906 108.398438 C 188.222656 109.007812 188.316406 109.679688 188.316406 110.585938 C 188.316406 111.523438 188.207031 112.257812 187.957031 112.804688 C 187.722656 113.367188 187.441406 113.695312 186.800781 114.210938 Z M 186.878906 114.367188 "
       id="path54" />
  </g>
</svg>
