%!PS-Adobe-3.0 EPSF-3.0
%%Creator: cairo 1.17.4 (https://cairographics.org)
%%CreationDate: Thu Feb 24 10:47:28 2022
%%Pages: 1
%%DocumentData: Clean7Bit
%%LanguageLevel: 2
%%BoundingBox: 0 0 237 115
%%EndComments
%%BeginProlog
50 dict begin
/q { gsave } bind def
/Q { grestore } bind def
/cm { 6 array astore concat } bind def
/w { setlinewidth } bind def
/J { setlinecap } bind def
/j { setlinejoin } bind def
/M { setmiterlimit } bind def
/d { setdash } bind def
/m { moveto } bind def
/l { lineto } bind def
/c { curveto } bind def
/h { closepath } bind def
/re { exch dup neg 3 1 roll 5 3 roll moveto 0 rlineto
      0 exch rlineto 0 rlineto closepath } bind def
/S { stroke } bind def
/f { fill } bind def
/f* { eofill } bind def
/n { newpath } bind def
/W { clip } bind def
/W* { eoclip } bind def
/BT { } bind def
/ET { } bind def
/BDC { mark 3 1 roll /BDC pdfmark } bind def
/EMC { mark /EMC pdfmark } bind def
/cairo_store_point { /cairo_point_y exch def /cairo_point_x exch def } def
/Tj { show currentpoint cairo_store_point } bind def
/TJ {
  {
    dup
    type /stringtype eq
    { show } { -0.001 mul 0 cairo_font_matrix dtransform rmoveto } ifelse
  } forall
  currentpoint cairo_store_point
} bind def
/cairo_selectfont { cairo_font_matrix aload pop pop pop 0 0 6 array astore
    cairo_font exch selectfont cairo_point_x cairo_point_y moveto } bind def
/Tf { pop /cairo_font exch def /cairo_font_matrix where
      { pop cairo_selectfont } if } bind def
/Td { matrix translate cairo_font_matrix matrix concatmatrix dup
      /cairo_font_matrix exch def dup 4 get exch 5 get cairo_store_point
      /cairo_font where { pop cairo_selectfont } if } bind def
/Tm { 2 copy 8 2 roll 6 array astore /cairo_font_matrix exch def
      cairo_store_point /cairo_font where { pop cairo_selectfont } if } bind def
/g { setgray } bind def
/rg { setrgbcolor } bind def
/d1 { setcachedevice } bind def
/cairo_data_source {
  CairoDataIndex CairoData length lt
    { CairoData CairoDataIndex get /CairoDataIndex CairoDataIndex 1 add def }
    { () } ifelse
} def
/cairo_flush_ascii85_file { cairo_ascii85_file status { cairo_ascii85_file flushfile } if } def
/cairo_image { image cairo_flush_ascii85_file } def
/cairo_imagemask { imagemask cairo_flush_ascii85_file } def
%%EndProlog
%%BeginSetup
%%EndSetup
%%Page: 1 1
%%BeginPageSetup
%%PageBoundingBox: 0 0 237 115
%%EndPageSetup
q 0 0 237 115 rectclip
1 0 0 -1 0 115 cm q
0 g
43.828 10.734 m 42.641 7.449 l 41.488 10.734 l 42.641 9.406 l f
0.425175 w
0 J
0 j
[] 0.0 d
10 M q 1 0 0 -1 0 0 cm
42.66 -92.484 m 42.66 -9.422 l S Q
81.887 51.16 m 85.148 49.98 l 81.887 48.801 l 83.207 49.98 l f
0.425174 w
q 1 0 0 -1 0 0 cm
0.133 -49.977 m 83.195 -49.977 l S Q
94.305 49.621 m 94.305 48.277 93.289 47.918 92.977 47.918 c 92.977 48.043
 l 93.57 48.324 93.648 49.012 93.648 49.684 c 93.648 50.746 92.664 51.824
 92.102 51.824 c 91.711 51.824 91.461 51.637 91.461 50.949 c 91.727 50.605
 92.18 49.73 92.18 49.277 c 92.18 49.059 92.086 48.84 91.82 48.84 c 91.539
 48.84 91.414 49.074 91.352 49.23 c 91.164 49.684 91.148 50.121 91.148 50.574
 c 91.148 50.699 91.148 50.809 91.164 50.887 c 90.852 51.387 90.586 51.777
 90.039 51.777 c 89.664 51.777 89.398 51.418 89.398 50.918 c 89.398 49.543
 90.367 48.449 91.023 48.043 c 91.023 47.918 l 89.461 48.262 88.742 49.746
 88.742 50.824 c 88.742 51.48 89.102 52.121 89.898 52.121 c 90.57 52.121
 91.023 51.574 91.211 51.324 c 91.289 51.777 91.477 52.121 92.039 52.121
 c 93.07 52.121 94.305 50.965 94.305 49.621 c h
94.305 49.621 m f
45.316 0.938 m 45.316 0.484 45.254 0 44.848 0 c 44.676 0 44.473 0.109 44.473
 0.359 c 44.473 0.734 44.973 0.562 44.973 1.344 c 44.973 2.359 44.207 3.953
 43.426 3.953 c 43.051 3.953 42.879 3.641 42.879 3.219 c 42.879 3.078 42.926
 2.766 42.957 2.609 c 43.551 0 l 42.816 0 l 42.27 2.547 l 42.051 3.531 41.629
 3.953 41.301 3.953 c 41.051 3.953 40.848 3.703 40.848 3.234 c 40.848 2.578
 41.27 1.328 41.27 0.844 c 41.27 0.281 40.895 0 40.535 0 c 40.02 0 39.77
 0.469 39.77 0.781 c 39.77 0.859 39.785 0.953 39.832 1.016 c 39.926 1.016
 l 39.926 0.984 39.926 0.969 39.926 0.953 c 39.926 0.781 39.988 0.406 40.332
 0.406 c 40.473 0.406 40.582 0.516 40.582 0.859 c 40.582 1.172 40.16 2.594
 40.16 3.125 c 40.16 3.828 40.723 4.203 41.176 4.203 c 41.738 4.203 42.27
 3.781 42.457 3.312 c 42.504 3.875 42.848 4.203 43.426 4.203 c 44.52 4.203
 45.316 2.156 45.316 0.938 c h
45.316 0.938 m f
1.41739 w
q 1 0 0 -1 0 0 cm
42.633 -24.473 m 85.164 -15.957 l S Q
q 1 0 0 -1 0 0 cm
42.637 -75.484 m 0.141 -66.977 l S Q
1 g
44.461 24.465 m 44.461 23.445 43.633 22.617 42.613 22.617 c 41.594 22.617
 40.766 23.445 40.766 24.465 c 40.766 25.484 41.594 26.312 42.613 26.312
 c 43.633 26.312 44.461 25.484 44.461 24.465 c f
0 g
44.461 24.465 m 44.461 23.445 43.633 22.617 42.613 22.617 c 41.594 22.617
 40.766 23.445 40.766 24.465 c 40.766 25.484 41.594 26.312 42.613 26.312
 c 43.633 26.312 44.461 25.484 44.461 24.465 c h
44.461 24.465 m 44.273 24.465 l 44.273 23.547 43.531 22.805 42.613 22.805
 c 41.695 22.805 40.953 23.547 40.953 24.465 c 40.953 25.383 41.695 26.125
 42.613 26.125 c 43.531 26.125 44.273 25.383 44.273 24.465 c f
1 g
44.461 75.465 m 44.461 74.445 43.633 73.617 42.613 73.617 c 41.594 73.617
 40.766 74.445 40.766 75.465 c 40.766 76.484 41.594 77.312 42.613 77.312
 c 43.633 77.312 44.461 76.484 44.461 75.465 c f
0 g
44.461 75.465 m 44.461 74.445 43.633 73.617 42.613 73.617 c 41.594 73.617
 40.766 74.445 40.766 75.465 c 40.766 76.484 41.594 77.312 42.613 77.312
 c 43.633 77.312 44.461 76.484 44.461 75.465 c h
44.461 75.465 m 44.273 75.465 l 44.273 74.547 43.531 73.805 42.613 73.805
 c 41.695 73.805 40.953 74.547 40.953 75.465 c 40.953 76.383 41.695 77.125
 42.613 77.125 c 43.531 77.125 44.273 76.383 44.273 75.465 c f
40.363 106.711 m 39.707 107.148 39.441 107.367 39.098 107.789 c 38.473 
108.57 38.16 109.461 38.16 110.508 c 38.16 111.664 38.488 112.539 39.27 
113.445 c 39.645 113.883 39.879 114.07 40.348 114.367 c 40.441 114.211 l
 39.738 113.648 39.488 113.336 39.238 112.664 c 39.02 112.07 38.926 111.398
 38.926 110.492 c 38.926 109.539 39.035 108.805 39.285 108.258 c 39.535 
107.695 39.801 107.367 40.441 106.852 c h
40.363 106.711 m f
44.691 112.18 m 44.535 112.305 44.426 112.352 44.285 112.352 c 44.082 112.352
 44.02 112.227 44.02 111.836 c 44.02 110.086 l 44.02 109.617 43.973 109.352
 43.848 109.148 c 43.645 108.82 43.254 108.648 42.738 108.648 c 41.895 108.648
 41.223 109.086 41.223 109.648 c 41.223 109.852 41.395 110.039 41.613 110.039
 c 41.832 110.039 42.02 109.852 42.02 109.664 c 42.02 109.633 42.004 109.586
 42.004 109.523 c 41.973 109.43 41.973 109.367 41.973 109.305 c 41.973 109.055
 42.254 108.867 42.613 108.867 c 43.051 108.867 43.301 109.117 43.301 109.602
 c 43.301 110.148 l 41.926 110.695 41.77 110.789 41.379 111.117 c 41.176
 111.305 41.051 111.602 41.051 111.898 c 41.051 112.461 41.441 112.867 42.004
 112.867 c 42.395 112.867 42.754 112.68 43.301 112.211 c 43.348 112.68 43.52
 112.867 43.879 112.867 c 44.191 112.867 44.379 112.758 44.691 112.414 c
 h
43.301 111.664 m 43.301 111.945 43.254 112.039 43.066 112.148 c 42.832 
112.273 42.598 112.336 42.41 112.336 c 42.098 112.336 41.848 112.039 41.848
 111.648 c 41.848 111.617 l 41.848 111.086 42.254 110.742 43.301 110.367
 c h
43.301 111.664 m f
45.023 114.367 m 45.68 113.914 45.961 113.695 46.289 113.289 c 46.93 112.508
 47.242 111.602 47.242 110.555 c 47.242 109.414 46.898 108.539 46.117 107.633
 c 45.742 107.195 45.508 106.992 45.055 106.711 c 44.945 106.852 l 45.664
 107.414 45.898 107.727 46.148 108.398 c 46.367 109.008 46.461 109.68 46.461
 110.586 c 46.461 111.523 46.352 112.258 46.102 112.805 c 45.867 113.367
 45.586 113.695 44.945 114.211 c h
45.023 114.367 m f
185.555 10.734 m 184.367 7.449 l 183.215 10.734 l 184.367 9.406 l f
0.425175 w
q 1 0 0 -1 0 0 cm
184.371 -92.484 m 184.371 -9.422 l S Q
223.625 51.16 m 226.887 49.98 l 223.625 48.801 l 224.91 49.98 l f
0.425174 w
q 1 0 0 -1 0 0 cm
141.84 -49.977 m 224.938 -49.977 l S Q
236.031 49.621 m 236.031 48.277 235.016 47.918 234.703 47.918 c 234.703
 48.043 l 235.297 48.324 235.375 49.012 235.375 49.684 c 235.375 50.746 
234.391 51.824 233.828 51.824 c 233.438 51.824 233.188 51.637 233.188 50.949
 c 233.453 50.605 233.906 49.73 233.906 49.277 c 233.906 49.059 233.812 
48.84 233.547 48.84 c 233.266 48.84 233.141 49.074 233.078 49.23 c 232.891
 49.684 232.875 50.121 232.875 50.574 c 232.875 50.699 232.875 50.809 232.891
 50.887 c 232.578 51.387 232.312 51.777 231.766 51.777 c 231.391 51.777 
231.125 51.418 231.125 50.918 c 231.125 49.543 232.094 48.449 232.75 48.043
 c 232.75 47.918 l 231.188 48.262 230.469 49.746 230.469 50.824 c 230.469
 51.48 230.828 52.121 231.625 52.121 c 232.297 52.121 232.75 51.574 232.938
 51.324 c 233.016 51.777 233.203 52.121 233.766 52.121 c 234.797 52.121 
236.031 50.965 236.031 49.621 c h
236.031 49.621 m f
187.047 0.938 m 187.047 0.484 186.984 0 186.578 0 c 186.406 0 186.203 0.109
 186.203 0.359 c 186.203 0.734 186.703 0.562 186.703 1.344 c 186.703 2.359
 185.938 3.953 185.156 3.953 c 184.781 3.953 184.609 3.641 184.609 3.219
 c 184.609 3.078 184.656 2.766 184.688 2.609 c 185.281 0 l 184.547 0 l 184
 2.547 l 183.781 3.531 183.359 3.953 183.031 3.953 c 182.781 3.953 182.578
 3.703 182.578 3.234 c 182.578 2.578 183 1.328 183 0.844 c 183 0.281 182.625
 0 182.266 0 c 181.75 0 181.5 0.469 181.5 0.781 c 181.5 0.859 181.516 0.953
 181.562 1.016 c 181.656 1.016 l 181.656 0.984 181.656 0.969 181.656 0.953
 c 181.656 0.781 181.719 0.406 182.062 0.406 c 182.203 0.406 182.312 0.516
 182.312 0.859 c 182.312 1.172 181.891 2.594 181.891 3.125 c 181.891 3.828
 182.453 4.203 182.906 4.203 c 183.469 4.203 184 3.781 184.188 3.312 c 184.234
 3.875 184.578 4.203 185.156 4.203 c 186.25 4.203 187.047 2.156 187.047 
0.938 c h
187.047 0.938 m f
1.41739 w
q 1 0 0 -1 0 0 cm
141.871 -28.703 m 184.375 -49.973 l 226.918 -28.703 l S Q
1 g
186.258 49.965 m 186.258 48.945 185.43 48.117 184.41 48.117 c 183.391 48.117
 182.562 48.945 182.562 49.965 c 182.562 50.984 183.391 51.812 184.41 51.812
 c 185.43 51.812 186.258 50.984 186.258 49.965 c f
0 g
186.258 49.965 m 186.258 48.945 185.43 48.117 184.41 48.117 c 183.391 48.117
 182.562 48.945 182.562 49.965 c 182.562 50.984 183.391 51.812 184.41 51.812
 c 185.43 51.812 186.258 50.984 186.258 49.965 c h
186.258 49.965 m 186.07 49.965 l 186.07 49.047 185.328 48.305 184.41 48.305
 c 183.492 48.305 182.75 49.047 182.75 49.965 c 182.75 50.883 183.492 51.625
 184.41 51.625 c 185.328 51.625 186.07 50.883 186.07 49.965 c f
181.734 106.711 m 181.078 107.148 180.812 107.367 180.469 107.789 c 179.844
 108.57 179.531 109.461 179.531 110.508 c 179.531 111.664 179.859 112.539
 180.641 113.445 c 181.016 113.883 181.25 114.07 181.719 114.367 c 181.812
 114.211 l 181.109 113.648 180.859 113.336 180.609 112.664 c 180.391 112.07
 180.297 111.398 180.297 110.492 c 180.297 109.539 180.406 108.805 180.656
 108.258 c 180.906 107.695 181.172 107.367 181.812 106.852 c h
181.734 106.711 m f
183.469 106.664 m 183.422 106.648 l 183.047 106.773 182.812 106.852 182.375
 106.977 c 182.125 107.039 l 182.125 107.18 l 182.172 107.18 182.203 107.18
 182.266 107.18 c 182.625 107.18 182.719 107.258 182.719 107.633 c 182.719
 112.289 l 182.719 112.57 183.469 112.867 184.188 112.867 c 185.375 112.867
 186.297 111.883 186.297 110.602 c 186.297 109.477 185.609 108.648 184.719
 108.648 c 184.172 108.648 183.641 108.961 183.469 109.414 c h
183.469 109.883 m 183.469 109.539 183.891 109.211 184.359 109.211 c 184.609
 109.211 184.828 109.305 185.016 109.477 c 185.297 109.758 185.5 110.367
 185.5 111.008 c 185.5 112.008 185.078 112.57 184.344 112.57 c 183.875 112.57
 183.469 112.383 183.469 112.148 c h
183.469 109.883 m f
186.879 114.367 m 187.535 113.914 187.816 113.695 188.145 113.289 c 188.785
 112.508 189.098 111.602 189.098 110.555 c 189.098 109.414 188.754 108.539
 187.973 107.633 c 187.598 107.195 187.363 106.992 186.91 106.711 c 186.801
 106.852 l 187.52 107.414 187.754 107.727 188.004 108.398 c 188.223 109.008
 188.316 109.68 188.316 110.586 c 188.316 111.523 188.207 112.258 187.957
 112.805 c 187.723 113.367 187.441 113.695 186.801 114.211 c h
186.879 114.367 m f
Q Q
showpage
%%Trailer
end
%%EOF
