%!PS-Adobe-3.0 EPSF-3.0
%%Creator: cairo 1.17.4 (https://cairographics.org)
%%CreationDate: Thu Feb 24 10:47:27 2022
%%Pages: 1
%%DocumentData: Clean7Bit
%%LanguageLevel: 2
%%BoundingBox: 0 0 93 95
%%EndComments
%%BeginProlog
50 dict begin
/q { gsave } bind def
/Q { grestore } bind def
/cm { 6 array astore concat } bind def
/w { setlinewidth } bind def
/J { setlinecap } bind def
/j { setlinejoin } bind def
/M { setmiterlimit } bind def
/d { setdash } bind def
/m { moveto } bind def
/l { lineto } bind def
/c { curveto } bind def
/h { closepath } bind def
/re { exch dup neg 3 1 roll 5 3 roll moveto 0 rlineto
      0 exch rlineto 0 rlineto closepath } bind def
/S { stroke } bind def
/f { fill } bind def
/f* { eofill } bind def
/n { newpath } bind def
/W { clip } bind def
/W* { eoclip } bind def
/BT { } bind def
/ET { } bind def
/BDC { mark 3 1 roll /BDC pdfmark } bind def
/EMC { mark /EMC pdfmark } bind def
/cairo_store_point { /cairo_point_y exch def /cairo_point_x exch def } def
/Tj { show currentpoint cairo_store_point } bind def
/TJ {
  {
    dup
    type /stringtype eq
    { show } { -0.001 mul 0 cairo_font_matrix dtransform rmoveto } ifelse
  } forall
  currentpoint cairo_store_point
} bind def
/cairo_selectfont { cairo_font_matrix aload pop pop pop 0 0 6 array astore
    cairo_font exch selectfont cairo_point_x cairo_point_y moveto } bind def
/Tf { pop /cairo_font exch def /cairo_font_matrix where
      { pop cairo_selectfont } if } bind def
/Td { matrix translate cairo_font_matrix matrix concatmatrix dup
      /cairo_font_matrix exch def dup 4 get exch 5 get cairo_store_point
      /cairo_font where { pop cairo_selectfont } if } bind def
/Tm { 2 copy 8 2 roll 6 array astore /cairo_font_matrix exch def
      cairo_store_point /cairo_font where { pop cairo_selectfont } if } bind def
/g { setgray } bind def
/rg { setrgbcolor } bind def
/d1 { setcachedevice } bind def
/cairo_data_source {
  CairoDataIndex CairoData length lt
    { CairoData CairoDataIndex get /CairoDataIndex CairoDataIndex 1 add def }
    { () } ifelse
} def
/cairo_flush_ascii85_file { cairo_ascii85_file status { cairo_ascii85_file flushfile } if } def
/cairo_image { image cairo_flush_ascii85_file } def
/cairo_imagemask { imagemask cairo_flush_ascii85_file } def
%%EndProlog
%%BeginSetup
%%EndSetup
%%Page: 1 1
%%BeginPageSetup
%%PageBoundingBox: 0 0 93 95
%%EndPageSetup
q 0 0 93 95 rectclip
1 0 0 -1 0 95 cm q
0 g
43.809 13.008 m 42.66 9.738 l 41.48 13.008 l 42.66 11.723 l f
0.425177 w
0 J
0 j
[] 0.0 d
10 M q 1 0 0 -1 0 0 cm
42.641 -94.762 m 42.641 -11.695 l S Q
81.902 53.422 m 85.18 52.25 l 81.902 51.078 l 83.211 52.25 l f
q 1 0 0 -1 0 0 cm
0.133 -52.25 m 83.191 -52.25 l S Q
92.906 49.328 m 90.578 49.328 l 90.547 49.469 l 90.844 49.469 91.234 49.5
 91.234 49.906 c 91.234 50.031 91.203 50.172 91.109 50.5 c 90.047 54.328
 l 89.797 55.234 89.469 55.219 89.125 55.219 c 89.094 55.375 l 91.453 55.375
 l 91.484 55.219 l 91.156 55.219 90.812 55.234 90.812 54.812 c 90.812 54.688
 90.844 54.531 90.906 54.328 c 92.016 50.375 l 92.203 49.719 92.469 49.469
 92.875 49.469 c h
92.906 49.328 m f
42.688 0.938 m 42.688 0.484 42.625 0 42.219 0 c 42.047 0 41.844 0.109 41.844
 0.359 c 41.844 0.734 42.344 0.562 42.344 1.344 c 42.344 2.359 41.578 3.953
 40.797 3.953 c 40.422 3.953 40.25 3.641 40.25 3.219 c 40.25 3.078 40.297
 2.766 40.328 2.609 c 40.922 0 l 40.188 0 l 39.641 2.547 l 39.422 3.531 
39 3.953 38.672 3.953 c 38.422 3.953 38.219 3.703 38.219 3.234 c 38.219 
2.578 38.641 1.328 38.641 0.844 c 38.641 0.281 38.266 0 37.906 0 c 37.391
 0 37.141 0.469 37.141 0.781 c 37.141 0.859 37.156 0.953 37.203 1.016 c 
37.297 1.016 l 37.297 0.984 37.297 0.969 37.297 0.953 c 37.297 0.781 37.359
 0.406 37.703 0.406 c 37.844 0.406 37.953 0.516 37.953 0.859 c 37.953 1.172
 37.531 2.594 37.531 3.125 c 37.531 3.828 38.094 4.203 38.547 4.203 c 39.109
 4.203 39.641 3.781 39.828 3.312 c 39.875 3.875 40.219 4.203 40.797 4.203
 c 41.891 4.203 42.688 2.156 42.688 0.938 c h
42.688 0.938 m f
45.973 5.113 m 45.645 5.645 45.332 5.848 44.895 5.848 c 44.488 5.848 44.191
 5.645 43.988 5.238 c 43.863 4.973 43.816 4.754 43.801 4.316 c 45.957 4.316
 l 45.895 3.863 45.832 3.676 45.645 3.441 c 45.441 3.191 45.129 3.051 44.754
 3.051 c 44.41 3.051 44.082 3.176 43.816 3.41 c 43.488 3.691 43.301 4.191
 43.301 4.77 c 43.301 5.723 43.801 6.316 44.613 6.316 c 45.27 6.316 45.785
 5.91 46.082 5.16 c h
43.816 4.098 m 43.895 3.551 44.129 3.301 44.551 3.301 c 44.988 3.301 45.145
 3.488 45.238 4.098 c h
43.816 4.098 m f
46.391 6.254 m 48.047 6.254 l 48.047 6.145 l 47.609 6.129 47.531 6.066 
47.516 5.676 c 47.516 1.504 l 47.484 1.488 l 47.141 1.613 46.875 1.676 46.375
 1.801 c 46.375 1.91 l 46.422 1.91 l 46.5 1.91 46.578 1.895 46.641 1.895
 c 46.859 1.895 46.938 1.988 46.938 2.316 c 46.938 5.645 l 46.922 6.02 46.828
 6.129 46.391 6.145 c h
46.391 6.254 m f
1.41739 w
q 1 0 0 -1 0 0 cm
42.656 -26.738 m 85.184 -18.23 l S Q
q 1 0 0 -1 0 0 cm
42.625 -77.766 m 0.141 -69.266 l S Q
1 g
44.469 26.723 m 44.469 25.703 43.641 24.875 42.621 24.875 c 41.602 24.875
 40.773 25.703 40.773 26.723 c 40.773 27.742 41.602 28.57 42.621 28.57 c
 43.641 28.57 44.469 27.742 44.469 26.723 c f
0 g
44.469 26.723 m 44.469 25.703 43.641 24.875 42.621 24.875 c 41.602 24.875
 40.773 25.703 40.773 26.723 c 40.773 27.742 41.602 28.57 42.621 28.57 c
 43.641 28.57 44.469 27.742 44.469 26.723 c h
44.469 26.723 m 44.281 26.723 l 44.281 25.805 43.539 25.062 42.621 25.062
 c 41.703 25.062 40.961 25.805 40.961 26.723 c 40.961 27.641 41.703 28.383
 42.621 28.383 c 43.539 28.383 44.281 27.641 44.281 26.723 c f
1 g
44.469 77.723 m 44.469 76.703 43.641 75.875 42.621 75.875 c 41.602 75.875
 40.773 76.703 40.773 77.723 c 40.773 78.742 41.602 79.57 42.621 79.57 c
 43.641 79.57 44.469 78.742 44.469 77.723 c f
0 g
44.469 77.723 m 44.469 76.703 43.641 75.875 42.621 75.875 c 41.602 75.875
 40.773 76.703 40.773 77.723 c 40.773 78.742 41.602 79.57 42.621 79.57 c
 43.641 79.57 44.469 78.742 44.469 77.723 c h
44.469 77.723 m 44.281 77.723 l 44.281 76.805 43.539 76.062 42.621 76.062
 c 41.703 76.062 40.961 76.805 40.961 77.723 c 40.961 78.641 41.703 79.383
 42.621 79.383 c 43.539 79.383 44.281 78.641 44.281 77.723 c f
Q Q
showpage
%%Trailer
end
%%EOF
