%!PS-Adobe-3.0 EPSF-3.0
%%Creator: cairo 1.17.4 (https://cairographics.org)
%%CreationDate: Thu Feb 24 10:47:29 2022
%%Pages: 1
%%DocumentData: Clean7Bit
%%LanguageLevel: 2
%%BoundingBox: 0 0 172 106
%%EndComments
%%BeginProlog
50 dict begin
/q { gsave } bind def
/Q { grestore } bind def
/cm { 6 array astore concat } bind def
/w { setlinewidth } bind def
/J { setlinecap } bind def
/j { setlinejoin } bind def
/M { setmiterlimit } bind def
/d { setdash } bind def
/m { moveto } bind def
/l { lineto } bind def
/c { curveto } bind def
/h { closepath } bind def
/re { exch dup neg 3 1 roll 5 3 roll moveto 0 rlineto
      0 exch rlineto 0 rlineto closepath } bind def
/S { stroke } bind def
/f { fill } bind def
/f* { eofill } bind def
/n { newpath } bind def
/W { clip } bind def
/W* { eoclip } bind def
/BT { } bind def
/ET { } bind def
/BDC { mark 3 1 roll /BDC pdfmark } bind def
/EMC { mark /EMC pdfmark } bind def
/cairo_store_point { /cairo_point_y exch def /cairo_point_x exch def } def
/Tj { show currentpoint cairo_store_point } bind def
/TJ {
  {
    dup
    type /stringtype eq
    { show } { -0.001 mul 0 cairo_font_matrix dtransform rmoveto } ifelse
  } forall
  currentpoint cairo_store_point
} bind def
/cairo_selectfont { cairo_font_matrix aload pop pop pop 0 0 6 array astore
    cairo_font exch selectfont cairo_point_x cairo_point_y moveto } bind def
/Tf { pop /cairo_font exch def /cairo_font_matrix where
      { pop cairo_selectfont } if } bind def
/Td { matrix translate cairo_font_matrix matrix concatmatrix dup
      /cairo_font_matrix exch def dup 4 get exch 5 get cairo_store_point
      /cairo_font where { pop cairo_selectfont } if } bind def
/Tm { 2 copy 8 2 roll 6 array astore /cairo_font_matrix exch def
      cairo_store_point /cairo_font where { pop cairo_selectfont } if } bind def
/g { setgray } bind def
/rg { setrgbcolor } bind def
/d1 { setcachedevice } bind def
/cairo_data_source {
  CairoDataIndex CairoData length lt
    { CairoData CairoDataIndex get /CairoDataIndex CairoDataIndex 1 add def }
    { () } ifelse
} def
/cairo_flush_ascii85_file { cairo_ascii85_file status { cairo_ascii85_file flushfile } if } def
/cairo_image { image cairo_flush_ascii85_file } def
/cairo_imagemask { imagemask cairo_flush_ascii85_file } def
%%EndProlog
%%BeginSetup
%%EndSetup
%%Page: 1 1
%%BeginPageSetup
%%PageBoundingBox: 0 0 172 106
%%EndPageSetup
q 0 0 172 106 rectclip
1 0 0 -1 0 106 cm q
0 g
0.567043 w
0 J
0 j
[] 0.0 d
10 M q 1 0 0 -1 0 0 cm
2.125 -52.66 m 2.125 -54.16 l 2.125 -56.156 m 2.125 -59.152 l 2.125 -61.148
 m 2.125 -64.145 l 2.125 -66.141 m 2.125 -69.137 l 2.125 -71.133 m 2.125
 -74.125 l 2.125 -76.125 m 2.125 -79.117 l 2.125 -81.113 m 2.125 -83.133
 l 3.102 -83.133 l 5.098 -83.133 m 8.094 -83.133 l 10.09 -83.133 m 13.086
 -83.133 l 15.082 -83.133 m 18.078 -83.133 l 20.074 -83.133 m 23.07 -83.133
 l 25.066 -83.133 m 28.059 -83.133 l 30.055 -83.133 m 33.051 -83.133 l 35.047
 -83.133 m 38.043 -83.133 l 40.039 -83.133 m 43.035 -83.133 l 45.031 -83.133
 m 48.027 -83.133 l 50.023 -83.133 m 53.016 -83.133 l 55.016 -83.133 m 55.984
 -83.133 l 55.984 -81.109 l 55.984 -79.113 m 55.984 -76.121 l 55.984 -74.121
 m 55.984 -71.129 l 55.984 -69.133 m 55.984 -66.137 l 55.984 -64.141 m 55.984
 -61.145 l 55.984 -59.148 m 55.984 -56.152 l 55.984 -54.156 m 55.984 -51.16
 l 55.984 -49.164 m 55.984 -46.172 l 55.984 -44.176 m 55.984 -41.18 l 55.984
 -39.184 m 55.984 -36.188 l 55.984 -34.191 m 55.984 -31.195 l 55.984 -29.199
 m 55.984 -26.203 l 55.984 -24.207 m 55.984 -22.188 l 55.012 -22.188 l 53.016
 -22.188 m 50.02 -22.188 l 48.023 -22.188 m 45.027 -22.188 l 43.031 -22.188
 m 40.039 -22.188 l 38.039 -22.188 m 35.047 -22.188 l 33.051 -22.188 m 30.055
 -22.188 l 28.059 -22.188 m 25.062 -22.188 l 23.066 -22.188 m 20.07 -22.188
 l 18.074 -22.188 m 15.082 -22.188 l 13.082 -22.188 m 10.09 -22.188 l 8.094
 -22.188 m 5.098 -22.188 l 3.102 -22.188 m 2.125 -22.188 l 2.125 -24.207
 l 2.125 -26.203 m 2.125 -29.199 l 2.125 -31.195 m 2.125 -34.191 l 2.125
 -36.188 m 2.125 -39.184 l 2.125 -41.18 m 2.125 -44.176 l 2.125 -46.172 
m 2.125 -49.164 l 2.125 -51.16 m 2.125 -52.66 l S Q
1.41739 w
q 1 0 0 -1 0 0 cm
0.707 -8.016 m 0.707 -84.551 l 57.402 -84.551 l 57.402 -8.016 l S Q
0.567043 w
q 1 0 0 -1 0 0 cm
41.527 -40.332 m 41.527 -2.348 l S Q
q 1 0 0 -1 0 0 cm
44.93 -40.332 m 44.93 -2.348 l S Q
q 1 0 0 -1 0 0 cm
41.527 -2.348 m 41.527 -2.348 42.113 -1.605 42.52 -1.637 c 42.855 -1.664
 42.984 -2.102 43.23 -2.348 c 43.473 -2.59 43.602 -3.027 43.938 -3.055 c
 44.344 -3.09 44.93 -2.746 44.93 -2.348 c 44.93 -1.949 44.344 -1.605 43.938
 -1.637 c 43.602 -1.664 43.23 -2.348 43.23 -2.348 c S Q
q 1 0 0 -1 0 0 cm
40.676 -44.867 m 40.676 -49.402 l 45.781 -49.402 l 45.781 -40.332 l 40.676
 -40.332 l h
40.676 -44.867 m S Q
45.07 44.867 m 45.07 44.242 44.754 43.734 44.363 43.734 c 43.973 43.734
 43.652 44.242 43.652 44.867 c 43.652 45.492 43.973 46 44.363 46 c 44.754
 46 45.07 45.492 45.07 44.867 c f
1 J
q 1 0 0 -1 0 0 cm
43.23 -47.133 m 43.324 -47.117 l S Q
q 1 0 0 -1 0 0 cm
46.348 -46.566 m 46.25 -46.586 l S Q
0 J
q 1 0 0 -1 0 0 cm
43.23 -47.133 m 46.348 -46.566 l S Q
0.567044 w
1 J
q 1 0 0 -1 0 0 cm
40.109 -45.434 m 40.211 -45.422 l S Q
q 1 0 0 -1 0 0 cm
44.363 -44.867 m 44.262 -44.879 l S Q
0.567043 w
0 J
q 1 0 0 -1 0 0 cm
40.109 -45.434 m 44.363 -44.867 l S Q
q 1 0 0 -1 0 0 cm
26.219 -51.387 m 26.219 -49.039 24.316 -47.133 21.969 -47.133 c 19.621 
-47.133 17.715 -49.039 17.715 -51.387 c 17.715 -53.734 19.621 -55.637 21.969
 -55.637 c 24.316 -55.637 26.219 -53.734 26.219 -51.387 c h
26.219 -51.387 m S Q
22.82 51.387 m 22.82 50.918 22.438 50.535 21.969 50.535 c 21.5 50.535 21.117
 50.918 21.117 51.387 c 21.117 51.855 21.5 52.234 21.969 52.234 c 22.438
 52.234 22.82 51.855 22.82 51.387 c f
q 1 0 0 -1 0 0 cm
21.969 -47.133 m 43.23 -47.133 l S Q
q 1 0 0 -1 0 0 cm
17.715 -51.387 m 17.715 -66.836 l S Q
q 1 0 0 -1 0 0 cm
14.527 -70.379 m 14.883 -66.836 l 20.551 -66.836 l 21.262 -73.922 l 14.172
 -73.922 l h
14.527 -70.379 m S Q
52.629 9.172 m 48.898 8.016 l 51.055 11.273 l 50.664 9.34 l f
1 g
1.70113 w
q 1 0 0 -1 0 0 cm
37.559 -8.016 m 26.219 -16.52 60.238 -16.52 50.664 -9.34 c S Q
0 g
0.567043 w
q 1 0 0 -1 0 0 cm
37.559 -8.016 m 26.219 -16.52 60.238 -16.52 50.664 -9.34 c S Q
52.629 9.172 m 48.898 8.016 l 51.055 11.273 l 50.664 9.34 l f
52.566 3.125 m 52.566 2.797 l 51.895 2.75 l 52.066 1.297 51.66 0 50.66 
0 c 49.973 0 49.629 0.625 49.629 1.312 c 49.629 2.219 50.395 2.844 51.207
 2.984 c 50.723 5.484 49.895 6.266 49.332 6.266 c 48.91 6.266 48.754 6.031
 48.754 5.656 c 48.754 5.453 48.801 5.219 48.863 4.938 c 49.27 3.578 l 49.316
 3.391 49.332 3.25 49.332 3.125 c 49.332 2.547 49.004 2.344 48.66 2.344 
c 48.066 2.344 47.848 2.953 47.848 3.375 c 48.004 3.375 l 48.02 3.016 48.191
 2.797 48.441 2.797 c 48.551 2.797 48.738 2.891 48.738 3.172 c 48.738 3.234
 48.738 3.297 48.723 3.375 c 48.316 4.844 l 48.254 5.125 48.238 5.344 48.238
 5.547 c 48.238 6.234 48.613 6.547 49.238 6.547 c 50.816 6.547 51.723 3.906
 51.863 3.078 c h
51.316 1.641 m 51.316 1.922 51.285 2.406 51.238 2.656 c 50.457 2.484 50.004
 1.969 50.004 1.203 c 50.004 0.625 50.301 0.297 50.613 0.297 c 50.973 0.297
 51.316 0.672 51.316 1.641 c h
51.316 1.641 m f
15.551 97.535 m 15.363 97.535 l 15.316 97.738 15.223 97.832 15.066 97.832
 c 14.973 97.832 14.832 97.801 14.676 97.738 c 14.348 97.613 14.004 97.535
 13.707 97.535 c 13.332 97.535 12.941 97.691 12.645 97.941 c 12.332 98.223
 12.176 98.598 12.176 99.066 c 12.176 99.785 12.566 100.285 13.566 100.816
 c 14.223 101.16 14.676 101.52 14.91 101.863 c 14.988 101.988 15.035 102.176
 15.035 102.395 c 15.035 102.988 14.582 103.395 13.926 103.395 c 13.129 
103.395 12.566 102.91 12.113 101.816 c 11.91 101.816 l 12.176 103.707 l 
12.379 103.707 l 12.395 103.551 12.488 103.426 12.629 103.426 c 12.723 103.426
 12.879 103.457 13.051 103.52 c 13.395 103.645 13.754 103.723 14.113 103.723
 c 15.145 103.723 15.941 103.02 15.941 102.082 c 15.941 101.348 15.441 100.77
 14.254 100.129 c 13.316 99.613 12.941 99.223 12.941 98.723 c 12.941 98.238
 13.316 97.91 13.879 97.91 c 14.285 97.91 14.66 98.066 14.973 98.395 c 15.254
 98.676 15.379 98.91 15.52 99.441 c 15.738 99.441 l h
15.551 97.535 m f
20.844 99.566 m 19.625 99.566 l 19.625 99.691 l 19.922 99.691 20.062 99.77
 20.062 99.926 c 20.062 99.957 20.047 100.004 20.016 100.066 c 19.156 102.551
 l 18.125 100.285 l 18.062 100.16 18.031 100.035 18.031 99.941 c 18.031 
99.77 18.172 99.707 18.547 99.691 c 18.547 99.566 l 16.703 99.566 l 16.703
 99.691 l 16.938 99.723 17.094 99.816 17.156 99.973 c 18.188 102.176 l 18.297
 102.426 18.297 102.426 18.344 102.52 c 18.594 102.973 18.734 103.301 18.734
 103.441 c 18.734 103.582 18.531 104.129 18.375 104.41 c 18.25 104.629 18.062
 104.801 17.938 104.801 c 17.875 104.801 17.797 104.785 17.703 104.738 c
 17.531 104.676 17.375 104.645 17.234 104.645 c 17.016 104.645 16.844 104.801
 16.844 105.035 c 16.844 105.332 17.125 105.551 17.516 105.551 c 18.125 
105.551 18.531 105.066 19.031 103.754 c 20.406 100.098 l 20.531 99.816 20.625
 99.723 20.844 99.691 c h
20.844 99.566 m f
23.844 100.785 m 23.812 99.551 l 23.703 99.551 l 23.656 99.629 23.609 99.645
 23.562 99.645 c 23.516 99.645 23.422 99.629 23.328 99.582 c 23.109 99.52
 22.906 99.473 22.688 99.473 c 21.984 99.473 21.469 99.941 21.469 100.582
 c 21.469 101.082 21.766 101.441 22.516 101.879 c 23.047 102.176 l 23.359
 102.348 23.516 102.566 23.516 102.848 c 23.516 103.238 23.219 103.488 22.766
 103.488 c 22.141 103.488 21.828 103.145 21.625 102.238 c 21.484 102.238
 l 21.484 103.629 l 21.594 103.629 l 21.656 103.551 21.703 103.52 21.812
 103.52 c 21.906 103.52 22.016 103.551 22.219 103.598 c 22.453 103.645 22.688
 103.691 22.875 103.691 c 23.578 103.691 24.141 103.16 24.141 102.535 c 
24.141 102.098 23.922 101.801 23.391 101.473 c 22.422 100.895 l 22.156 100.738
 22.031 100.535 22.031 100.285 c 22.031 99.926 22.312 99.676 22.719 99.676
 c 23.234 99.676 23.5 99.973 23.703 100.785 c h
23.844 100.785 m f
26.777 99.566 m 25.871 99.566 l 25.871 98.52 l 25.871 98.426 25.855 98.41
 25.809 98.41 c 25.293 99.16 25.027 99.457 24.762 99.613 c 24.668 99.676
 24.605 99.738 24.605 99.785 c 24.605 99.816 24.621 99.832 24.652 99.848
 c 25.121 99.848 l 25.121 102.551 l 25.121 103.301 25.387 103.691 25.918
 103.691 c 26.355 103.691 26.699 103.473 26.996 103.004 c 26.887 102.91 
l 26.684 103.145 26.543 103.223 26.34 103.223 c 26.012 103.223 25.871 102.973
 25.871 102.41 c 25.871 99.848 l 26.777 99.848 l h
26.777 99.566 m f
30.672 102.129 m 30.25 102.801 29.859 103.066 29.281 103.066 c 28.781 103.066
 28.391 102.801 28.125 102.301 c 27.969 101.957 27.906 101.676 27.891 101.113
 c 30.641 101.113 l 30.578 100.535 30.484 100.27 30.266 99.988 c 30 99.66
 29.578 99.473 29.109 99.473 c 28.672 99.473 28.25 99.629 27.906 99.941 
c 27.484 100.301 27.234 100.941 27.234 101.676 c 27.234 102.91 27.891 103.691
 28.922 103.691 c 29.766 103.691 30.438 103.16 30.812 102.191 c h
27.906 100.832 m 28 100.129 28.312 99.801 28.859 99.801 c 29.406 99.801
 29.609 100.051 29.734 100.832 c h
27.906 100.832 m f
31.117 103.598 m 33.117 103.598 l 33.117 103.457 l 32.648 103.457 32.508
 103.363 32.508 103.004 c 32.508 100.473 l 32.508 100.457 32.57 100.363 
32.633 100.301 c 32.867 100.098 33.242 99.941 33.555 99.941 c 33.961 99.941
 34.148 100.254 34.148 100.879 c 34.148 102.832 l 34.133 103.332 34.039 
103.441 33.539 103.457 c 33.539 103.598 l 35.555 103.598 l 35.555 103.457
 l 35.055 103.457 34.93 103.316 34.898 102.738 c 34.898 100.488 l 35.18 
100.098 35.461 99.941 35.883 99.941 c 36.398 99.941 36.555 100.176 36.555
 100.926 c 36.555 102.816 l 36.539 103.348 36.477 103.41 35.961 103.457 
c 35.961 103.598 l 37.93 103.598 l 37.93 103.457 l 37.695 103.441 l 37.414
 103.395 37.305 103.27 37.305 102.91 c 37.305 101.066 l 37.305 100.004 36.961
 99.473 36.273 99.473 c 35.742 99.473 35.289 99.707 34.805 100.223 c 34.648
 99.707 34.336 99.473 33.852 99.473 c 33.445 99.473 33.211 99.582 32.461
 100.16 c 32.461 99.488 l 32.398 99.473 l 31.93 99.645 31.617 99.738 31.148
 99.879 c 31.148 100.035 l 31.258 100.004 31.336 99.988 31.43 99.988 c 31.664
 99.988 31.742 100.129 31.742 100.566 c 31.742 102.832 l 31.727 103.332 
31.617 103.457 31.117 103.457 c h
31.117 103.598 m f
46.426 103.426 m 46.02 103.395 45.941 103.316 45.629 102.645 c 43.395 97.551
 l 43.207 97.551 l 41.348 101.957 l 40.77 103.27 40.66 103.41 40.238 103.426
 c 40.238 103.598 l 42.004 103.598 l 42.004 103.426 l 41.582 103.426 41.395
 103.316 41.395 103.066 c 41.395 102.957 41.426 102.832 41.473 102.707 c
 41.879 101.66 l 44.238 101.66 l 44.598 102.52 l 44.707 102.77 44.77 103.004
 44.77 103.129 c 44.77 103.348 44.613 103.426 44.145 103.426 c 44.145 103.598
 l 46.426 103.598 l h
42.035 101.285 m 43.066 98.832 l 44.113 101.285 l h
42.035 101.285 m f
0.74902 0.831373 0.901961 rg
114.094 54.789 m 114.094 84.551 l 170.789 84.551 l 170.789 25.023 l 114.094
 25.023 l f
0 g
q 1 0 0 -1 0 0 cm
115.512 -52.66 m 115.512 -54.16 l 115.512 -56.156 m 115.512 -59.152 l 115.512
 -61.148 m 115.512 -64.145 l 115.512 -66.141 m 115.512 -69.137 l 115.512
 -71.133 m 115.512 -74.125 l 115.512 -76.125 m 115.512 -79.117 l 115.512
 -81.113 m 115.512 -83.133 l 116.488 -83.133 l 118.484 -83.133 m 121.48 
-83.133 l 123.477 -83.133 m 126.473 -83.133 l 128.469 -83.133 m 131.465 
-83.133 l 133.461 -83.133 m 136.453 -83.133 l 138.449 -83.133 m 141.445 
-83.133 l 143.441 -83.133 m 146.438 -83.133 l 148.434 -83.133 m 151.43 -83.133
 l 153.426 -83.133 m 156.422 -83.133 l 158.418 -83.133 m 161.41 -83.133 
l 163.41 -83.133 m 166.402 -83.133 l 168.398 -83.133 m 169.371 -83.133 l
 169.371 -81.109 l 169.371 -79.113 m 169.371 -76.121 l 169.371 -74.125 m
 169.371 -71.129 l 169.371 -69.133 m 169.371 -66.137 l 169.371 -64.141 m
 169.371 -61.145 l 169.371 -59.148 m 169.371 -56.152 l 169.371 -54.156 m
 169.371 -51.164 l 169.371 -49.164 m 169.371 -46.172 l 169.371 -44.176 m
 169.371 -41.18 l 169.371 -39.184 m 169.371 -36.188 l 169.371 -34.191 m 
169.371 -31.195 l 169.371 -29.199 m 169.371 -26.207 l 169.371 -24.211 m 
169.371 -22.188 l 168.398 -22.188 l 166.402 -22.188 m 163.406 -22.188 l 
161.41 -22.188 m 158.414 -22.188 l 156.422 -22.188 m 153.426 -22.188 l 151.43
 -22.188 m 148.434 -22.188 l 146.438 -22.188 m 143.441 -22.188 l 141.445
 -22.188 m 138.449 -22.188 l 136.453 -22.188 m 133.461 -22.188 l 131.465
 -22.188 m 128.469 -22.188 l 126.473 -22.188 m 123.477 -22.188 l 121.48 
-22.188 m 118.484 -22.188 l 116.488 -22.188 m 115.512 -22.188 l 115.512 
-24.207 l 115.512 -26.203 m 115.512 -29.199 l 115.512 -31.195 m 115.512 
-34.191 l 115.512 -36.188 m 115.512 -39.18 l 115.512 -41.18 m 115.512 -44.172
 l 115.512 -46.168 m 115.512 -49.164 l 115.512 -51.16 m 115.512 -52.66 l
 S Q
Q q
112.902 7.035 58.5 79 re W n
q
112 7 60 80 re W n
  q
0 g
1.41739 w
0 J
0 j
[] 0.0 d
10 M q 1 0 0 -1 0 0 cm
114.094 -8.016 m 114.094 -84.551 l 170.789 -84.551 l 170.789 -8.016 l S Q
  Q
Q
0 g
0.567043 w
0 J
0 j
[] 0.0 d
10 M q 1 0 0 -1 0 0 cm
114.094 -25.023 m 114.094 -24.812 l 114.332 -24.812 l 114.566 -24.824 l
 114.805 -24.84 l 115.039 -24.859 l 115.273 -24.887 l 115.75 -24.949 l 115.984
 -24.988 l 116.219 -25.023 l 116.457 -25.062 l 116.691 -25.098 l 116.93 
-25.129 l 117.164 -25.16 l 117.402 -25.188 l 117.637 -25.207 l 117.875 -25.223
 l 118.109 -25.234 l 118.582 -25.234 l 118.816 -25.223 l 119.055 -25.207
 l 119.293 -25.188 l 119.527 -25.16 l 119.762 -25.129 l 120 -25.098 l 120.238
 -25.062 l 120.473 -25.023 l 120.707 -24.988 l 120.945 -24.949 l 121.18 
-24.918 l 121.418 -24.887 l 121.652 -24.859 l 121.891 -24.84 l 122.125 -24.824
 l 122.363 -24.812 l 122.836 -24.812 l 123.07 -24.824 l 123.305 -24.84 l
 123.543 -24.859 l 123.781 -24.887 l 124.25 -24.949 l 124.488 -24.988 l 
124.723 -25.023 l 124.961 -25.062 l 125.195 -25.098 l 125.434 -25.129 l 
125.668 -25.16 l 125.906 -25.188 l 126.141 -25.207 l 126.379 -25.223 l 126.613
 -25.234 l 127.086 -25.234 l 127.324 -25.223 l 127.559 -25.207 l 127.793
 -25.188 l 128.031 -25.16 l 128.266 -25.129 l 128.504 -25.098 l 128.738 
-25.062 l 128.977 -25.023 l 129.211 -24.988 l 129.449 -24.949 l 129.684 
-24.918 l 129.922 -24.887 l 130.156 -24.859 l 130.395 -24.84 l 130.629 -24.824
 l 130.867 -24.812 l 131.34 -24.812 l 131.574 -24.824 l 131.809 -24.84 l
 132.047 -24.859 l 132.281 -24.887 l 132.52 -24.918 l 132.754 -24.949 l 
132.992 -24.988 l 133.227 -25.023 l 133.465 -25.062 l 133.699 -25.098 l 
133.938 -25.129 l 134.172 -25.16 l 134.41 -25.188 l 134.645 -25.207 l 134.883
 -25.223 l 135.117 -25.234 l 135.59 -25.234 l 135.824 -25.223 l 136.062 
-25.207 l 136.297 -25.188 l 136.535 -25.16 l 136.77 -25.129 l 137.008 -25.098
 l 137.242 -25.062 l 137.48 -25.023 l 137.715 -24.988 l 137.953 -24.949 
l 138.188 -24.918 l 138.426 -24.887 l 138.66 -24.859 l 138.895 -24.84 l 
139.133 -24.824 l 139.367 -24.812 l 139.84 -24.812 l 140.078 -24.824 l 140.312
 -24.84 l 140.551 -24.859 l 140.785 -24.887 l 141.023 -24.918 l 141.258 
-24.949 l 141.496 -24.988 l 141.73 -25.023 l 141.969 -25.062 l 142.203 -25.098
 l 142.438 -25.129 l 142.676 -25.16 l 142.914 -25.188 l 143.148 -25.207 
l 143.383 -25.223 l 143.621 -25.234 l 144.094 -25.234 l 144.328 -25.223 
l 144.566 -25.207 l 144.801 -25.188 l 145.039 -25.16 l 145.273 -25.129 l
 145.512 -25.098 l 145.746 -25.062 l 145.98 -25.023 l 146.219 -24.988 l 
146.457 -24.949 l 146.926 -24.887 l 147.164 -24.859 l 147.398 -24.84 l 147.637
 -24.824 l 147.871 -24.812 l 148.344 -24.812 l 148.582 -24.824 l 148.816
 -24.84 l 149.055 -24.859 l 149.289 -24.887 l 149.523 -24.918 l 149.762 
-24.949 l 150 -24.988 l 150.234 -25.023 l 150.469 -25.062 l 150.707 -25.098
 l 150.941 -25.129 l 151.18 -25.16 l 151.414 -25.188 l 151.652 -25.207 l
 151.887 -25.223 l 152.125 -25.234 l 152.598 -25.234 l 152.832 -25.223 l
 153.07 -25.207 l 153.305 -25.188 l 153.543 -25.16 l 154.012 -25.098 l 154.25
 -25.062 l 154.488 -25.023 l 154.723 -24.988 l 154.914 -24.957 l 154.914
 -25.023 l S Q
Q q
149.902 16.035 21.5 18 re W n
q
149 16 23 19 re W n
  q
0 g
0.567043 w
0 J
0 j
[] 0.0 d
10 M q 1 0 0 -1 0 0 cm
158.316 -25.023 m 158.316 -24.812 l 158.551 -24.812 l 158.789 -24.824 l
 159.023 -24.84 l 159.258 -24.859 l 159.496 -24.887 l 159.73 -24.918 l 159.969
 -24.949 l 160.203 -24.988 l 160.441 -25.023 l 160.676 -25.062 l 160.914
 -25.098 l 161.148 -25.129 l 161.387 -25.16 l 161.621 -25.188 l 161.859 
-25.207 l 162.094 -25.223 l 162.332 -25.234 l 162.801 -25.234 l 163.039 
-25.223 l 163.273 -25.207 l 163.512 -25.188 l 163.746 -25.16 l 163.984 -25.129
 l 164.219 -25.098 l 164.457 -25.062 l 164.691 -25.023 l 164.93 -24.988 
l 165.164 -24.949 l 165.402 -24.918 l 165.637 -24.887 l 165.875 -24.859 
l 166.109 -24.84 l 166.348 -24.824 l 166.582 -24.812 l 167.055 -24.812 l
 167.293 -24.824 l 167.527 -24.84 l 167.762 -24.859 l 168 -24.887 l 168.234
 -24.918 l 168.473 -24.949 l 168.707 -24.988 l 168.945 -25.023 l 169.18 
-25.062 l 169.418 -25.098 l 169.652 -25.129 l 169.891 -25.16 l 170.125 -25.188
 l 170.363 -25.207 l 170.598 -25.223 l 170.789 -25.23 l 170.789 -25.023 
l S Q
  Q
Q
Q q
0 g
130.52 51.859 m 130.52 51.984 l 130.816 52.047 130.91 52.109 130.91 52.266
 c 130.91 52.406 130.863 52.609 130.754 52.859 c 129.957 54.844 l 129.191
 52.844 l 129.051 52.422 129.051 52.422 129.051 52.312 c 129.051 52.109 
129.145 52.047 129.566 51.984 c 129.566 51.859 l 127.738 51.859 l 127.738
 51.984 l 128.082 52.031 128.191 52.125 128.363 52.609 c 128.41 52.734 128.488
 52.953 128.535 53.109 c 127.723 54.891 l 126.832 52.547 l 126.801 52.469
 126.785 52.375 126.785 52.281 c 126.785 52.094 126.879 52.031 127.191 51.984
 c 127.191 51.859 l 125.582 51.859 l 125.582 51.984 l 125.785 52 125.863
 52.094 126.051 52.547 c 127.27 55.625 l 127.379 55.906 127.441 56.016 127.504
 56.016 c 127.551 56.016 127.613 55.906 127.723 55.672 c 128.738 53.516 
l 129.551 55.625 l 129.676 55.969 129.707 56.016 129.77 56.016 c 129.832
 56.016 129.863 55.938 130.02 55.578 c 131.254 52.469 l 131.41 52.094 131.441
 52.047 131.613 51.984 c 131.613 51.859 l h
130.52 51.859 m f
135.727 55.297 m 135.57 55.422 135.461 55.469 135.32 55.469 c 135.117 55.469
 135.055 55.344 135.055 54.953 c 135.055 53.203 l 135.055 52.734 135.008
 52.469 134.883 52.266 c 134.68 51.938 134.289 51.766 133.773 51.766 c 132.93
 51.766 132.258 52.203 132.258 52.766 c 132.258 52.969 132.43 53.156 132.648
 53.156 c 132.867 53.156 133.055 52.969 133.055 52.781 c 133.055 52.75 133.039
 52.703 133.039 52.641 c 133.008 52.547 133.008 52.484 133.008 52.422 c 
133.008 52.172 133.289 51.984 133.648 51.984 c 134.086 51.984 134.336 52.234
 134.336 52.719 c 134.336 53.266 l 132.961 53.812 132.805 53.906 132.414
 54.234 c 132.211 54.422 132.086 54.719 132.086 55.016 c 132.086 55.578 
132.477 55.984 133.039 55.984 c 133.43 55.984 133.789 55.797 134.336 55.328
 c 134.383 55.797 134.555 55.984 134.914 55.984 c 135.227 55.984 135.414
 55.875 135.727 55.531 c h
134.336 54.781 m 134.336 55.062 134.289 55.156 134.102 55.266 c 133.867
 55.391 133.633 55.453 133.445 55.453 c 133.133 55.453 132.883 55.156 132.883
 54.766 c 132.883 54.734 l 132.883 54.203 133.289 53.859 134.336 53.484 
c h
134.336 54.781 m f
137.996 51.859 m 137.09 51.859 l 137.09 50.812 l 137.09 50.719 137.074 
50.703 137.027 50.703 c 136.512 51.453 136.246 51.75 135.98 51.906 c 135.887
 51.969 135.824 52.031 135.824 52.078 c 135.824 52.109 135.84 52.125 135.871
 52.141 c 136.34 52.141 l 136.34 54.844 l 136.34 55.594 136.605 55.984 137.137
 55.984 c 137.574 55.984 137.918 55.766 138.215 55.297 c 138.105 55.203 
l 137.902 55.438 137.762 55.516 137.559 55.516 c 137.23 55.516 137.09 55.266
 137.09 54.703 c 137.09 52.141 l 137.996 52.141 l h
137.996 51.859 m f
141.891 54.422 m 141.469 55.094 141.078 55.359 140.5 55.359 c 140 55.359
 139.609 55.094 139.344 54.594 c 139.188 54.25 139.125 53.969 139.109 53.406
 c 141.859 53.406 l 141.797 52.828 141.703 52.562 141.484 52.281 c 141.219
 51.953 140.797 51.766 140.328 51.766 c 139.891 51.766 139.469 51.922 139.125
 52.234 c 138.703 52.594 138.453 53.234 138.453 53.969 c 138.453 55.203 
139.109 55.984 140.141 55.984 c 140.984 55.984 141.656 55.453 142.031 54.484
 c h
139.125 53.125 m 139.219 52.422 139.531 52.094 140.078 52.094 c 140.625
 52.094 140.828 52.344 140.953 53.125 c h
139.125 53.125 m f
142.242 55.891 m 144.398 55.891 l 144.398 55.75 l 143.789 55.734 143.648
 55.609 143.633 55.078 c 143.633 53.062 l 143.633 52.781 144.008 52.328 
144.258 52.328 c 144.305 52.328 144.398 52.375 144.492 52.469 c 144.633 
52.594 144.727 52.641 144.852 52.641 c 145.07 52.641 145.195 52.484 145.195
 52.234 c 145.195 51.938 145.008 51.766 144.711 51.766 c 144.336 51.766 
144.086 51.969 143.633 52.609 c 143.633 51.781 l 143.586 51.766 l 143.086
 51.969 142.758 52.094 142.258 52.25 c 142.258 52.391 l 142.383 52.359 142.461
 52.359 142.57 52.359 c 142.789 52.359 142.883 52.5 142.883 52.891 c 142.883
 55.141 l 142.852 55.609 142.805 55.656 142.242 55.75 c h
142.242 55.891 m f
1 g
154.914 46.852 m 154.914 68.676 l 158.316 68.676 l 158.316 25.023 l 154.914
 25.023 l f
0 g
0.567043 w
0 J
0 j
[] 0.0 d
10 M q 1 0 0 -1 0 0 cm
154.914 -68.676 m 154.914 -2.348 l S Q
q 1 0 0 -1 0 0 cm
158.316 -68.676 m 158.316 -2.348 l S Q
q 1 0 0 -1 0 0 cm
154.914 -2.348 m 154.914 -2.348 155.496 -1.605 155.906 -1.637 c 156.242
 -1.664 156.371 -2.102 156.613 -2.348 c 156.859 -2.59 156.988 -3.027 157.324
 -3.055 c 157.73 -3.09 158.316 -2.746 158.316 -2.348 c 158.316 -1.949 157.73
 -1.605 157.324 -1.637 c 156.988 -1.664 156.613 -2.348 156.613 -2.348 c S Q
1 g
165.117 70.379 m 166.621 71.461 166.621 74.965 165.117 76.047 c 160.363
 79.477 152.867 66.949 148.109 70.379 c 146.605 71.461 146.605 74.965 148.109
 76.047 c 152.867 79.477 160.363 66.949 165.117 70.379 c f
Q q
138.902 61.035 32.5 24 re W n
q
138 61 34 25 re W n
  q
0 g
0.567043 w
0 J
0 j
[] 0.0 d
10 M q 1 0 0 -1 0 0 cm
165.117 -70.379 m 166.621 -71.461 166.621 -74.965 165.117 -76.047 c 160.363
 -79.477 152.867 -66.949 148.109 -70.379 c 146.605 -71.461 146.605 -74.965
 148.109 -76.047 c 152.867 -79.477 160.363 -66.949 165.117 -70.379 c h
165.117 -70.379 m S Q
  Q
Q
1 g
154.062 73.215 m 154.062 77.75 l 159.164 77.75 l 159.164 68.676 l 154.062
 68.676 l f
0 g
0.567043 w
0 J
0 j
[] 0.0 d
10 M q 1 0 0 -1 0 0 cm
154.062 -73.215 m 154.062 -77.75 l 159.164 -77.75 l 159.164 -68.676 l 154.062
 -68.676 l h
154.062 -73.215 m S Q
Q q
0 g
166.016 9.172 m 162.285 8.016 l 164.438 11.273 l 164.051 9.34 l f
Q q
123.902 0.035 47.5 39 re W n
q
123 0 49 40 re W n
  q
1 g
1.70113 w
0 J
0 j
[] 0.0 d
10 M q 1 0 0 -1 0 0 cm
150.945 -8.016 m 139.605 -16.52 173.621 -16.52 164.051 -9.34 c S Q
  Q
Q
Q q
139.902 0.035 31.5 23 re W n
q
139 0 33 24 re W n
  q
0 g
0.567043 w
0 J
0 j
[] 0.0 d
10 M q 1 0 0 -1 0 0 cm
150.945 -8.016 m 139.605 -16.52 173.621 -16.52 164.051 -9.34 c S Q
  Q
Q
0 g
166.016 9.172 m 162.285 8.016 l 164.438 11.273 l 164.051 9.34 l f
Q q
0 g
165.953 3.125 m 165.953 2.797 l 165.281 2.75 l 165.453 1.297 165.047 0 
164.047 0 c 163.359 0 163.016 0.625 163.016 1.312 c 163.016 2.219 163.781
 2.844 164.594 2.984 c 164.109 5.484 163.281 6.266 162.719 6.266 c 162.297
 6.266 162.141 6.031 162.141 5.656 c 162.141 5.453 162.188 5.219 162.25 
4.938 c 162.656 3.578 l 162.703 3.391 162.719 3.25 162.719 3.125 c 162.719
 2.547 162.391 2.344 162.047 2.344 c 161.453 2.344 161.234 2.953 161.234
 3.375 c 161.391 3.375 l 161.406 3.016 161.578 2.797 161.828 2.797 c 161.938
 2.797 162.125 2.891 162.125 3.172 c 162.125 3.234 162.125 3.297 162.109
 3.375 c 161.703 4.844 l 161.641 5.125 161.625 5.344 161.625 5.547 c 161.625
 6.234 162 6.547 162.625 6.547 c 164.203 6.547 165.109 3.906 165.25 3.078
 c h
164.703 1.641 m 164.703 1.922 164.672 2.406 164.625 2.656 c 163.844 2.484
 163.391 1.969 163.391 1.203 c 163.391 0.625 163.688 0.297 164 0.297 c 164.359
 0.297 164.703 0.672 164.703 1.641 c h
164.703 1.641 m f
129.18 97.535 m 128.992 97.535 l 128.945 97.738 128.852 97.832 128.695 
97.832 c 128.602 97.832 128.461 97.801 128.305 97.738 c 127.977 97.613 127.633
 97.535 127.336 97.535 c 126.961 97.535 126.57 97.691 126.273 97.941 c 125.961
 98.223 125.805 98.598 125.805 99.066 c 125.805 99.785 126.195 100.285 127.195
 100.816 c 127.852 101.16 128.305 101.52 128.539 101.863 c 128.617 101.988
 128.664 102.176 128.664 102.395 c 128.664 102.988 128.211 103.395 127.555
 103.395 c 126.758 103.395 126.195 102.91 125.742 101.816 c 125.539 101.816
 l 125.805 103.707 l 126.008 103.707 l 126.023 103.551 126.117 103.426 126.258
 103.426 c 126.352 103.426 126.508 103.457 126.68 103.52 c 127.023 103.645
 127.383 103.723 127.742 103.723 c 128.773 103.723 129.57 103.02 129.57 
102.082 c 129.57 101.348 129.07 100.77 127.883 100.129 c 126.945 99.613 
126.57 99.223 126.57 98.723 c 126.57 98.238 126.945 97.91 127.508 97.91 
c 127.914 97.91 128.289 98.066 128.602 98.395 c 128.883 98.676 129.008 98.91
 129.148 99.441 c 129.367 99.441 l h
129.18 97.535 m f
134.469 99.566 m 133.25 99.566 l 133.25 99.691 l 133.547 99.691 133.688
 99.77 133.688 99.926 c 133.688 99.957 133.672 100.004 133.641 100.066 c
 132.781 102.551 l 131.75 100.285 l 131.688 100.16 131.656 100.035 131.656
 99.941 c 131.656 99.77 131.797 99.707 132.172 99.691 c 132.172 99.566 l
 130.328 99.566 l 130.328 99.691 l 130.562 99.723 130.719 99.816 130.781
 99.973 c 131.812 102.176 l 131.922 102.426 131.922 102.426 131.969 102.52
 c 132.219 102.973 132.359 103.301 132.359 103.441 c 132.359 103.582 132.156
 104.129 132 104.41 c 131.875 104.629 131.688 104.801 131.562 104.801 c 
131.5 104.801 131.422 104.785 131.328 104.738 c 131.156 104.676 131 104.645
 130.859 104.645 c 130.641 104.645 130.469 104.801 130.469 105.035 c 130.469
 105.332 130.75 105.551 131.141 105.551 c 131.75 105.551 132.156 105.066
 132.656 103.754 c 134.031 100.098 l 134.156 99.816 134.25 99.723 134.469
 99.691 c h
134.469 99.566 m f
137.469 100.785 m 137.438 99.551 l 137.328 99.551 l 137.281 99.629 137.234
 99.645 137.188 99.645 c 137.141 99.645 137.047 99.629 136.953 99.582 c 
136.734 99.52 136.531 99.473 136.312 99.473 c 135.609 99.473 135.094 99.941
 135.094 100.582 c 135.094 101.082 135.391 101.441 136.141 101.879 c 136.672
 102.176 l 136.984 102.348 137.141 102.566 137.141 102.848 c 137.141 103.238
 136.844 103.488 136.391 103.488 c 135.766 103.488 135.453 103.145 135.25
 102.238 c 135.109 102.238 l 135.109 103.629 l 135.219 103.629 l 135.281
 103.551 135.328 103.52 135.438 103.52 c 135.531 103.52 135.641 103.551 
135.844 103.598 c 136.078 103.645 136.312 103.691 136.5 103.691 c 137.203
 103.691 137.766 103.16 137.766 102.535 c 137.766 102.098 137.547 101.801
 137.016 101.473 c 136.047 100.895 l 135.781 100.738 135.656 100.535 135.656
 100.285 c 135.656 99.926 135.938 99.676 136.344 99.676 c 136.859 99.676
 137.125 99.973 137.328 100.785 c h
137.469 100.785 m f
140.402 99.566 m 139.496 99.566 l 139.496 98.52 l 139.496 98.426 139.48
 98.41 139.434 98.41 c 138.918 99.16 138.652 99.457 138.387 99.613 c 138.293
 99.676 138.23 99.738 138.23 99.785 c 138.23 99.816 138.246 99.832 138.277
 99.848 c 138.746 99.848 l 138.746 102.551 l 138.746 103.301 139.012 103.691
 139.543 103.691 c 139.98 103.691 140.324 103.473 140.621 103.004 c 140.512
 102.91 l 140.309 103.145 140.168 103.223 139.965 103.223 c 139.637 103.223
 139.496 102.973 139.496 102.41 c 139.496 99.848 l 140.402 99.848 l h
140.402 99.566 m f
144.297 102.129 m 143.875 102.801 143.484 103.066 142.906 103.066 c 142.406
 103.066 142.016 102.801 141.75 102.301 c 141.594 101.957 141.531 101.676
 141.516 101.113 c 144.266 101.113 l 144.203 100.535 144.109 100.27 143.891
 99.988 c 143.625 99.66 143.203 99.473 142.734 99.473 c 142.297 99.473 141.875
 99.629 141.531 99.941 c 141.109 100.301 140.859 100.941 140.859 101.676
 c 140.859 102.91 141.516 103.691 142.547 103.691 c 143.391 103.691 144.062
 103.16 144.438 102.191 c h
141.531 100.832 m 141.625 100.129 141.938 99.801 142.484 99.801 c 143.031
 99.801 143.234 100.051 143.359 100.832 c h
141.531 100.832 m f
144.742 103.598 m 146.742 103.598 l 146.742 103.457 l 146.273 103.457 146.133
 103.363 146.133 103.004 c 146.133 100.473 l 146.133 100.457 146.195 100.363
 146.258 100.301 c 146.492 100.098 146.867 99.941 147.18 99.941 c 147.586
 99.941 147.773 100.254 147.773 100.879 c 147.773 102.832 l 147.758 103.332
 147.664 103.441 147.164 103.457 c 147.164 103.598 l 149.18 103.598 l 149.18
 103.457 l 148.68 103.457 148.555 103.316 148.523 102.738 c 148.523 100.488
 l 148.805 100.098 149.086 99.941 149.508 99.941 c 150.023 99.941 150.18
 100.176 150.18 100.926 c 150.18 102.816 l 150.164 103.348 150.102 103.41
 149.586 103.457 c 149.586 103.598 l 151.555 103.598 l 151.555 103.457 l
 151.32 103.441 l 151.039 103.395 150.93 103.27 150.93 102.91 c 150.93 101.066
 l 150.93 100.004 150.586 99.473 149.898 99.473 c 149.367 99.473 148.914
 99.707 148.43 100.223 c 148.273 99.707 147.961 99.473 147.477 99.473 c 
147.07 99.473 146.836 99.582 146.086 100.16 c 146.086 99.488 l 146.023 99.473
 l 145.555 99.645 145.242 99.738 144.773 99.879 c 144.773 100.035 l 144.883
 100.004 144.961 99.988 145.055 99.988 c 145.289 99.988 145.367 100.129 
145.367 100.566 c 145.367 102.832 l 145.352 103.332 145.242 103.457 144.742
 103.457 c h
144.742 103.598 m f
153.879 97.832 m 154.629 97.879 154.723 97.973 154.738 98.645 c 154.738
 102.613 l 154.723 103.285 154.613 103.395 153.879 103.426 c 153.879 103.598
 l 156.863 103.598 l 157.566 103.598 158.207 103.41 158.535 103.098 c 158.863
 102.816 159.035 102.41 159.035 101.988 c 159.035 101.582 158.895 101.223
 158.598 100.973 c 158.332 100.723 158.098 100.613 157.504 100.473 c 157.973
 100.363 158.16 100.27 158.379 100.082 c 158.598 99.879 158.738 99.566 158.738
 99.191 c 158.738 98.176 157.926 97.66 156.379 97.66 c 153.879 97.66 l h
155.645 100.676 m 156.52 100.676 156.926 100.723 157.254 100.863 c 157.77
 101.066 158.004 101.441 158.004 101.988 c 158.004 102.473 157.816 102.832
 157.457 103.035 c 157.176 103.191 156.801 103.27 156.223 103.27 c 155.77
 103.27 155.645 103.191 155.645 102.895 c h
155.645 100.316 m 155.645 98.254 l 155.66 98.066 155.691 98.004 155.848
 98.004 c 156.238 97.988 l 157.238 97.973 157.816 98.426 157.816 99.223 
c 157.816 99.926 157.363 100.301 156.504 100.316 c h
155.645 100.316 m f
Q Q
showpage
%%Trailer
end
%%EOF
