%!PS-Adobe-3.0 EPSF-3.0
%%Creator: cairo 1.17.4 (https://cairographics.org)
%%CreationDate: Thu Feb 24 10:47:32 2022
%%Pages: 1
%%DocumentData: Clean7Bit
%%LanguageLevel: 2
%%BoundingBox: 0 0 49 164
%%EndComments
%%BeginProlog
50 dict begin
/q { gsave } bind def
/Q { grestore } bind def
/cm { 6 array astore concat } bind def
/w { setlinewidth } bind def
/J { setlinecap } bind def
/j { setlinejoin } bind def
/M { setmiterlimit } bind def
/d { setdash } bind def
/m { moveto } bind def
/l { lineto } bind def
/c { curveto } bind def
/h { closepath } bind def
/re { exch dup neg 3 1 roll 5 3 roll moveto 0 rlineto
      0 exch rlineto 0 rlineto closepath } bind def
/S { stroke } bind def
/f { fill } bind def
/f* { eofill } bind def
/n { newpath } bind def
/W { clip } bind def
/W* { eoclip } bind def
/BT { } bind def
/ET { } bind def
/BDC { mark 3 1 roll /BDC pdfmark } bind def
/EMC { mark /EMC pdfmark } bind def
/cairo_store_point { /cairo_point_y exch def /cairo_point_x exch def } def
/Tj { show currentpoint cairo_store_point } bind def
/TJ {
  {
    dup
    type /stringtype eq
    { show } { -0.001 mul 0 cairo_font_matrix dtransform rmoveto } ifelse
  } forall
  currentpoint cairo_store_point
} bind def
/cairo_selectfont { cairo_font_matrix aload pop pop pop 0 0 6 array astore
    cairo_font exch selectfont cairo_point_x cairo_point_y moveto } bind def
/Tf { pop /cairo_font exch def /cairo_font_matrix where
      { pop cairo_selectfont } if } bind def
/Td { matrix translate cairo_font_matrix matrix concatmatrix dup
      /cairo_font_matrix exch def dup 4 get exch 5 get cairo_store_point
      /cairo_font where { pop cairo_selectfont } if } bind def
/Tm { 2 copy 8 2 roll 6 array astore /cairo_font_matrix exch def
      cairo_store_point /cairo_font where { pop cairo_selectfont } if } bind def
/g { setgray } bind def
/rg { setrgbcolor } bind def
/d1 { setcachedevice } bind def
/cairo_data_source {
  CairoDataIndex CairoData length lt
    { CairoData CairoDataIndex get /CairoDataIndex CairoDataIndex 1 add def }
    { () } ifelse
} def
/cairo_flush_ascii85_file { cairo_ascii85_file status { cairo_ascii85_file flushfile } if } def
/cairo_image { image cairo_flush_ascii85_file } def
/cairo_imagemask { imagemask cairo_flush_ascii85_file } def
%%EndProlog
%%BeginSetup
%%EndSetup
%%Page: 1 1
%%BeginPageSetup
%%PageBoundingBox: 0 0 49 164
%%EndPageSetup
q 0 0 49 164 rectclip
1 0 0 -1 0 164 cm q
0.901961 g
3.262 124.805 m 3.262 160.238 l 31.605 160.238 l 31.605 89.371 l 3.262 
89.371 l f
Q q
0 3.078 35 160.5 re W n
q
0 3 35 161 re W n
  q
0 g
0.850361 w
0 J
0 j
[] 0.0 d
10 M q 1 0 0 -1 0 0 cm
3.262 -82.285 m 3.262 -160.238 l 31.605 -160.238 l 31.605 -4.332 l 34.441
 -4.332 l 34.441 -163.074 l 0.426 -163.074 l 0.426 -4.332 l 3.262 -4.332
 l h
3.262 -82.285 m S Q
  Q
Q
Q q
8 81.293 m 31.18 81.293 l 31.18 85.121 l 8 85.121 l h
8 85.121 m 31.18 85.121 l 31.18 88.945 l 8 88.945 l h
8 85.121 m W n
q
8 81 24 8 re W n
  q
0 g
0.510386 w
2 J
0 j
[] 0.0 d
10 M q 1 0 0 -1 0 0 cm
33.262 -83.371 m 15.684 -100.945 l S Q
  Q
Q
Q q
6 81.293 m 31.18 81.293 l 31.18 85.121 l 6 85.121 l h
6 85.121 m 31.18 85.121 l 31.18 88.945 l 6 88.945 l h
6 85.121 m W n
q
6 81 26 8 re W n
  q
0 g
0.510386 w
2 J
0 j
[] 0.0 d
10 M q 1 0 0 -1 0 0 cm
30.859 -80.973 m 13.285 -98.547 l S Q
  Q
Q
Q q
3.684 81.293 m 31.18 81.293 l 31.18 85.121 l 3.684 85.121 l h
3.684 85.121 m 31.18 85.121 l 31.18 88.945 l 3.684 88.945 l h
3.684 85.121 m W n
q
3 81 29 8 re W n
  q
0 g
0.510386 w
2 J
0 j
[] 0.0 d
10 M q 1 0 0 -1 0 0 cm
28.461 -78.57 m 10.887 -96.148 l S Q
q 1 0 0 -1 0 0 cm
26.059 -76.172 m 8.484 -93.746 l S Q
  Q
Q
Q q
3.684 81.293 m 31 81.293 l 31 85.121 l 3.684 85.121 l h
3.684 85.121 m 31 85.121 l 31 88.945 l 3.684 88.945 l h
3.684 85.121 m W n
q
3 81 28 8 re W n
  q
0 g
0.510386 w
2 J
0 j
[] 0.0 d
10 M q 1 0 0 -1 0 0 cm
23.66 -73.773 m 6.086 -91.348 l S Q
  Q
Q
Q q
3.684 81.293 m 29 81.293 l 29 85.121 l 3.684 85.121 l h
3.684 85.121 m 29 85.121 l 29 88.945 l 3.684 88.945 l h
3.684 85.121 m W n
q
3 81 26 8 re W n
  q
0 g
0.510386 w
2 J
0 j
[] 0.0 d
10 M q 1 0 0 -1 0 0 cm
21.262 -71.371 m 3.684 -88.945 l S Q
  Q
Q
Q q
3.684 81.293 m 27 81.293 l 27 85.121 l 3.684 85.121 l h
3.684 85.121 m 27 85.121 l 27 88.945 l 3.684 88.945 l h
3.684 85.121 m W n
q
3 81 24 8 re W n
  q
0 g
0.510386 w
2 J
0 j
[] 0.0 d
10 M q 1 0 0 -1 0 0 cm
18.859 -68.973 m 1.285 -86.547 l S Q
  Q
Q
Q q
3.684 81.293 m 24 81.293 l 24 85.121 l 3.684 85.121 l h
3.684 85.121 m 24 85.121 l 24 88.945 l 3.684 88.945 l h
3.684 85.121 m W n
q
3 81 21 8 re W n
  q
0 g
0.510386 w
2 J
0 j
[] 0.0 d
10 M q 1 0 0 -1 0 0 cm
16.461 -66.57 m -1.113 -84.148 l S Q
  Q
Q
Q q
0 g
0.850361 w
0 J
0 j
[] 0.0 d
10 M q 1 0 0 -1 0 0 cm
3.684 -85.121 m 3.684 -88.945 l 31.18 -88.945 l 31.18 -81.293 l 3.684 -81.293
 l h
3.684 -85.121 m S Q
Q q
14.883 35.078 m 19.984 35.078 l 19.984 41.184 l 14.883 41.184 l h
14.883 41.184 m 19.984 41.184 l 19.984 81.293 l 14.883 81.293 l h
14.883 41.184 m W n
q
14 35 6 47 re W n
  q
0 g
0.510386 w
2 J
0 j
[] 0.0 d
10 M q 1 0 0 -1 0 0 cm
15.352 -85.93 m -27.312 -43.266 l S Q
  Q
Q
Q q
14.883 33.078 m 19.984 33.078 l 19.984 41.184 l 14.883 41.184 l h
14.883 41.184 m 19.984 41.184 l 19.984 81.293 l 14.883 81.293 l h
14.883 41.184 m W n
q
14 33 6 49 re W n
  q
0 g
0.510386 w
2 J
0 j
[] 0.0 d
10 M q 1 0 0 -1 0 0 cm
17.75 -83.527 m -24.91 -40.867 l S Q
  Q
Q
Q q
14.883 31.078 m 19.984 31.078 l 19.984 41.184 l 14.883 41.184 l h
14.883 41.184 m 19.984 41.184 l 19.984 81.293 l 14.883 81.293 l h
14.883 41.184 m W n
q
14 31 6 51 re W n
  q
0 g
0.510386 w
2 J
0 j
[] 0.0 d
10 M q 1 0 0 -1 0 0 cm
20.148 -81.129 m -22.512 -38.465 l S Q
  Q
Q
Q q
14.883 28.078 m 19.984 28.078 l 19.984 41.184 l 14.883 41.184 l h
14.883 41.184 m 19.984 41.184 l 19.984 81.293 l 14.883 81.293 l h
14.883 41.184 m W n
q
14 28 6 54 re W n
  q
0 g
0.510386 w
2 J
0 j
[] 0.0 d
10 M q 1 0 0 -1 0 0 cm
22.551 -78.727 m -20.113 -36.066 l S Q
  Q
Q
Q q
14.883 26.078 m 19.984 26.078 l 19.984 41.184 l 14.883 41.184 l h
14.883 41.184 m 19.984 41.184 l 19.984 81.293 l 14.883 81.293 l h
14.883 41.184 m W n
q
14 26 6 56 re W n
  q
0 g
0.510386 w
2 J
0 j
[] 0.0 d
10 M q 1 0 0 -1 0 0 cm
24.949 -76.328 m -17.711 -33.668 l S Q
  Q
Q
Q q
14.883 23.078 m 19.984 23.078 l 19.984 41.184 l 14.883 41.184 l h
14.883 41.184 m 19.984 41.184 l 19.984 81.293 l 14.883 81.293 l h
14.883 41.184 m W n
q
14 23 6 59 re W n
  q
0 g
0.510386 w
2 J
0 j
[] 0.0 d
10 M q 1 0 0 -1 0 0 cm
27.352 -73.93 m -15.312 -31.266 l S Q
  Q
Q
Q q
14.883 21.078 m 19.984 21.078 l 19.984 41.184 l 14.883 41.184 l h
14.883 41.184 m 19.984 41.184 l 19.984 79.078 l 14.883 79.078 l h
14.883 41.184 m W n
q
14 21 6 59 re W n
  q
0 g
0.510386 w
2 J
0 j
[] 0.0 d
10 M q 1 0 0 -1 0 0 cm
29.75 -71.527 m -12.91 -28.867 l S Q
  Q
Q
Q q
14.883 19.078 m 19.984 19.078 l 19.984 41.184 l 14.883 41.184 l h
14.883 41.184 m 19.984 41.184 l 19.984 77.078 l 14.883 77.078 l h
14.883 41.184 m W n
q
14 19 6 59 re W n
  q
0 g
0.510386 w
2 J
0 j
[] 0.0 d
10 M q 1 0 0 -1 0 0 cm
32.148 -69.129 m -10.512 -26.465 l S Q
  Q
Q
Q q
14.883 16.078 m 19.984 16.078 l 19.984 41.184 l 14.883 41.184 l h
14.883 41.184 m 19.984 41.184 l 19.984 74.078 l 14.883 74.078 l h
14.883 41.184 m W n
q
14 16 6 59 re W n
  q
0 g
0.510386 w
2 J
0 j
[] 0.0 d
10 M q 1 0 0 -1 0 0 cm
34.551 -66.727 m -8.113 -24.066 l S Q
  Q
Q
Q q
14.883 14.078 m 19.984 14.078 l 19.984 41.184 l 14.883 41.184 l h
14.883 41.184 m 19.984 41.184 l 19.984 72.078 l 14.883 72.078 l h
14.883 41.184 m W n
q
14 14 6 59 re W n
  q
0 g
0.510386 w
2 J
0 j
[] 0.0 d
10 M q 1 0 0 -1 0 0 cm
36.949 -64.328 m -5.711 -21.668 l S Q
  Q
Q
Q q
14.883 11.078 m 19.984 11.078 l 19.984 41.184 l 14.883 41.184 l h
14.883 41.184 m 19.984 41.184 l 19.984 70.078 l 14.883 70.078 l h
14.883 41.184 m W n
q
14 11 6 60 re W n
  q
0 g
0.510386 w
2 J
0 j
[] 0.0 d
10 M q 1 0 0 -1 0 0 cm
39.352 -61.93 m -3.312 -19.266 l S Q
  Q
Q
Q q
14.883 9.078 m 19.984 9.078 l 19.984 41.184 l 14.883 41.184 l h
14.883 41.184 m 19.984 41.184 l 19.984 67.078 l 14.883 67.078 l h
14.883 41.184 m W n
q
14 9 6 59 re W n
  q
0 g
0.510386 w
2 J
0 j
[] 0.0 d
10 M q 1 0 0 -1 0 0 cm
41.75 -59.527 m -0.91 -16.867 l S Q
  Q
Q
Q q
14.883 7.078 m 19.984 7.078 l 19.984 41.184 l 14.883 41.184 l h
14.883 41.184 m 19.984 41.184 l 19.984 65.078 l 14.883 65.078 l h
14.883 41.184 m W n
q
14 7 6 59 re W n
  q
0 g
0.510386 w
2 J
0 j
[] 0.0 d
10 M q 1 0 0 -1 0 0 cm
44.148 -57.129 m 1.488 -14.465 l S Q
  Q
Q
Q q
14.883 4.078 m 19.984 4.078 l 19.984 41.184 l 14.883 41.184 l h
14.883 41.184 m 19.984 41.184 l 19.984 62.078 l 14.883 62.078 l h
14.883 41.184 m W n
q
14 4 6 59 re W n
  q
0 g
0.510386 w
2 J
0 j
[] 0.0 d
10 M q 1 0 0 -1 0 0 cm
46.551 -54.727 m 3.887 -12.066 l S Q
  Q
Q
Q q
14.883 2.078 m 19.984 2.078 l 19.984 41.184 l 14.883 41.184 l h
14.883 41.184 m 19.984 41.184 l 19.984 60.078 l 14.883 60.078 l h
14.883 41.184 m W n
q
14 2 6 59 re W n
  q
0 g
0.510386 w
2 J
0 j
[] 0.0 d
10 M q 1 0 0 -1 0 0 cm
48.949 -52.328 m 6.289 -9.668 l S Q
  Q
Q
Q q
14.883 1.074 m 19.984 1.074 l 19.984 41.184 l 14.883 41.184 l h
14.883 41.184 m 19.984 41.184 l 19.984 58.078 l 14.883 58.078 l h
14.883 41.184 m W n
q
14 1 6 58 re W n
  q
0 g
0.510386 w
2 J
0 j
[] 0.0 d
10 M q 1 0 0 -1 0 0 cm
51.352 -49.93 m 8.688 -7.266 l S Q
  Q
Q
Q q
14.883 1.074 m 19.984 1.074 l 19.984 41.184 l 14.883 41.184 l h
14.883 41.184 m 19.984 41.184 l 19.984 55.078 l 14.883 55.078 l h
14.883 41.184 m W n
q
14 1 6 55 re W n
  q
0 g
0.510386 w
2 J
0 j
[] 0.0 d
10 M q 1 0 0 -1 0 0 cm
53.75 -47.527 m 11.09 -4.867 l S Q
  Q
Q
Q q
14.883 1.074 m 19.984 1.074 l 19.984 41.184 l 14.883 41.184 l h
14.883 41.184 m 19.984 41.184 l 19.984 53.078 l 14.883 53.078 l h
14.883 41.184 m W n
q
14 1 6 53 re W n
  q
0 g
0.510386 w
2 J
0 j
[] 0.0 d
10 M q 1 0 0 -1 0 0 cm
56.148 -45.129 m 13.488 -2.465 l S Q
  Q
Q
Q q
14.883 1.074 m 19.984 1.074 l 19.984 41.184 l 14.883 41.184 l h
14.883 41.184 m 19.984 41.184 l 19.984 50.078 l 14.883 50.078 l h
14.883 41.184 m W n
q
14 1 6 50 re W n
  q
0 g
0.510386 w
2 J
0 j
[] 0.0 d
10 M q 1 0 0 -1 0 0 cm
58.551 -42.727 m 15.887 -0.066 l S Q
  Q
Q
Q q
14.883 1.074 m 19.984 1.074 l 19.984 41.184 l 14.883 41.184 l h
14.883 41.184 m 19.984 41.184 l 19.984 48.078 l 14.883 48.078 l h
14.883 41.184 m W n
q
14 1 6 48 re W n
  q
0 g
0.510386 w
2 J
0 j
[] 0.0 d
10 M q 1 0 0 -1 0 0 cm
60.949 -40.328 m 18.289 2.332 l S Q
  Q
Q
Q q
0 g
0.850361 w
0 J
0 j
[] 0.0 d
10 M q 1 0 0 -1 0 0 cm
14.883 -41.184 m 14.883 -81.293 l 19.984 -81.293 l 19.984 -1.074 l 14.883
 -1.074 l h
14.883 -41.184 m S Q
1 g
0.963676 w
q 1 0 0 -1 0 0 cm
14.316 -1.074 m 20.551 -1.074 l S Q
0 g
0.850361 w
q 1 0 0 -1 0 0 cm
19.984 -2.914 m 19.984 2.754 16.016 -5.75 14.883 -0.082 c S Q
q 1 0 0 -1 0 0 cm
14.883 -1.5 m 14.883 -0.082 l S Q
12.277 121.434 m 12.277 122.137 l 11.887 121.559 11.465 121.309 10.871 
121.309 c 9.699 121.309 8.902 122.387 8.902 123.918 c 8.902 124.73 9.09 
125.324 9.496 125.809 c 9.855 126.23 10.324 126.465 10.809 126.465 c 11.387
 126.465 11.809 126.199 12.199 125.59 c 12.199 125.84 l 12.199 127.121 11.855
 127.605 10.902 127.605 c 10.246 127.605 9.902 127.34 9.824 126.793 c 9.059
 126.793 l 9.121 127.684 9.824 128.246 10.871 128.246 c 11.59 128.246 12.168
 128.012 12.48 127.637 c 12.855 127.184 12.98 126.59 12.98 125.465 c 12.98
 121.434 l h
10.934 122.012 m 11.746 122.012 12.199 122.684 12.199 123.902 c 12.199 
125.074 11.746 125.746 10.934 125.746 c 10.152 125.746 9.699 125.059 9.699
 123.887 c 9.699 122.699 10.152 122.012 10.934 122.012 c h
10.934 122.012 m f
18.523 125.793 m 18.445 125.809 18.398 125.809 18.352 125.809 c 18.086 
125.809 17.945 125.684 17.945 125.434 c 17.945 122.621 l 17.945 121.762 
17.32 121.309 16.133 121.309 c 15.43 121.309 14.867 121.512 14.539 121.855
 c 14.32 122.105 14.227 122.387 14.211 122.855 c 14.977 122.855 l 15.055
 122.277 15.398 122.012 16.117 122.012 c 16.805 122.012 17.18 122.262 17.18
 122.73 c 17.18 122.934 l 17.18 123.262 17.008 123.371 16.383 123.465 c 
15.305 123.59 15.133 123.637 14.852 123.746 c 14.289 123.996 14.008 124.418
 14.008 125.043 c 14.008 125.902 14.602 126.465 15.586 126.465 c 16.18 126.465
 16.664 126.246 17.211 125.746 c 17.273 126.246 17.508 126.465 18.008 126.465
 c 18.164 126.465 18.273 126.434 18.523 126.371 c h
17.18 124.73 m 17.18 124.996 17.117 125.152 16.883 125.355 c 16.57 125.637
 16.195 125.793 15.742 125.793 c 15.148 125.793 14.805 125.496 14.805 125.012
 c 14.805 124.512 15.133 124.262 15.961 124.137 c 16.773 124.027 16.93 123.996
 17.18 123.871 c h
17.18 124.73 m f
22.672 122.777 m 22.672 121.84 22.047 121.309 20.938 121.309 c 19.812 121.309
 19.094 121.887 19.094 122.777 c 19.094 123.527 19.469 123.887 20.609 124.152
 c 21.328 124.324 l 21.859 124.465 22.062 124.652 22.062 124.996 c 22.062
 125.449 21.625 125.746 20.953 125.746 c 20.531 125.746 20.188 125.637 20
 125.434 c 19.875 125.293 19.828 125.152 19.781 124.809 c 18.969 124.809
 l 19 125.918 19.625 126.465 20.891 126.465 c 22.094 126.465 22.859 125.855
 22.859 124.934 c 22.859 124.215 22.469 123.824 21.516 123.59 c 20.781 123.418
 l 20.156 123.277 19.891 123.074 19.891 122.73 c 19.891 122.277 20.281 122.012
 20.906 122.012 c 21.516 122.012 21.844 122.277 21.859 122.777 c h
22.672 122.777 m f
0.425176 w
q 1 0 0 -1 0 0 cm
37.277 -160.238 m 48.613 -160.238 l S Q
q 1 0 0 -1 0 0 cm
37.277 -89.371 m 48.613 -89.371 l S Q
44.117 92.656 m 42.945 89.371 l 41.773 92.656 l 42.945 91.34 l f
q 1 0 0 -1 0 0 cm
42.945 -160.238 m 42.945 -91.34 l S Q
1 g
37.914 124.832 m 37.914 131.395 l 47.867 131.395 l 47.867 118.273 l 37.914
 118.273 l f
0 g
43.812 121.266 m 43.812 121.266 42.469 121.5 42.188 121.516 c 42.188 121.703
 l 42.578 121.703 42.844 121.734 42.844 122.047 c 42.844 122.234 42.719 
122.719 42.656 122.953 c 41.516 127.078 l 41.453 127.297 41.328 127.797 
41.328 128.016 c 41.328 128.219 41.391 128.531 41.75 128.531 c 42.438 128.531
 43.062 127.594 43.203 127.328 c 43.062 127.234 l 42.766 127.703 42.406 
128.031 42.234 128.031 c 42.125 128.031 42.094 127.953 42.094 127.844 c 
42.094 127.719 42.125 127.609 42.188 127.375 c h
43.812 121.266 m f
Q Q
showpage
%%Trailer
end
%%EOF
