%!PS-Adobe-3.0 EPSF-3.0
%%Creator: cairo 1.17.4 (https://cairographics.org)
%%CreationDate: Thu Feb 24 10:48:09 2022
%%Pages: 1
%%DocumentData: Clean7Bit
%%LanguageLevel: 2
%%BoundingBox: 0 0 249 197
%%EndComments
%%BeginProlog
50 dict begin
/q { gsave } bind def
/Q { grestore } bind def
/cm { 6 array astore concat } bind def
/w { setlinewidth } bind def
/J { setlinecap } bind def
/j { setlinejoin } bind def
/M { setmiterlimit } bind def
/d { setdash } bind def
/m { moveto } bind def
/l { lineto } bind def
/c { curveto } bind def
/h { closepath } bind def
/re { exch dup neg 3 1 roll 5 3 roll moveto 0 rlineto
      0 exch rlineto 0 rlineto closepath } bind def
/S { stroke } bind def
/f { fill } bind def
/f* { eofill } bind def
/n { newpath } bind def
/W { clip } bind def
/W* { eoclip } bind def
/BT { } bind def
/ET { } bind def
/BDC { mark 3 1 roll /BDC pdfmark } bind def
/EMC { mark /EMC pdfmark } bind def
/cairo_store_point { /cairo_point_y exch def /cairo_point_x exch def } def
/Tj { show currentpoint cairo_store_point } bind def
/TJ {
  {
    dup
    type /stringtype eq
    { show } { -0.001 mul 0 cairo_font_matrix dtransform rmoveto } ifelse
  } forall
  currentpoint cairo_store_point
} bind def
/cairo_selectfont { cairo_font_matrix aload pop pop pop 0 0 6 array astore
    cairo_font exch selectfont cairo_point_x cairo_point_y moveto } bind def
/Tf { pop /cairo_font exch def /cairo_font_matrix where
      { pop cairo_selectfont } if } bind def
/Td { matrix translate cairo_font_matrix matrix concatmatrix dup
      /cairo_font_matrix exch def dup 4 get exch 5 get cairo_store_point
      /cairo_font where { pop cairo_selectfont } if } bind def
/Tm { 2 copy 8 2 roll 6 array astore /cairo_font_matrix exch def
      cairo_store_point /cairo_font where { pop cairo_selectfont } if } bind def
/g { setgray } bind def
/rg { setrgbcolor } bind def
/d1 { setcachedevice } bind def
/cairo_data_source {
  CairoDataIndex CairoData length lt
    { CairoData CairoDataIndex get /CairoDataIndex CairoDataIndex 1 add def }
    { () } ifelse
} def
/cairo_flush_ascii85_file { cairo_ascii85_file status { cairo_ascii85_file flushfile } if } def
/cairo_image { image cairo_flush_ascii85_file } def
/cairo_imagemask { imagemask cairo_flush_ascii85_file } def
%%EndProlog
%%BeginSetup
%%EndSetup
%%Page: 1 1
%%BeginPageSetup
%%PageBoundingBox: 0 0 249 197
%%EndPageSetup
q 0 0 249 197 rectclip
1 0 0 -1 0 197 cm q
0 g
0.567043 w
0 J
0 j
[] 0.0 d
10 M q 1 0 0 -1 0 0 cm
29.609 -3.012 212.609 -170.09 re S Q
0.398505 w
q 1 0 0 -1 0 0 cm
29.625 -173.086 m 29.625 -168.832 l S Q
q 1 0 0 -1 0 0 cm
100.504 -173.086 m 100.504 -168.832 l S Q
q 1 0 0 -1 0 0 cm
171.379 -173.086 m 171.379 -168.832 l S Q
q 1 0 0 -1 0 0 cm
242.223 -173.086 m 242.223 -168.832 l S Q
q 1 0 0 -1 0 0 cm
29.625 -173.086 m 29.625 -168.832 l S Q
0.398507 w
q 1 0 0 -1 0 0 cm
29.625 -173.086 m 33.875 -173.086 l S Q
0.398508 w
q 1 0 0 -1 0 0 cm
29.629 -144.742 m 33.867 -144.742 l S Q
0.398507 w
q 1 0 0 -1 0 0 cm
29.637 -116.395 m 33.863 -116.395 l S Q
q 1 0 0 -1 0 0 cm
29.613 -88.051 m 33.859 -88.051 l S Q
q 1 0 0 -1 0 0 cm
29.633 -59.703 m 33.867 -59.703 l S Q
q 1 0 0 -1 0 0 cm
29.629 -31.359 m 33.887 -31.359 l S Q
q 1 0 0 -1 0 0 cm
29.609 -3.012 m 33.887 -3.012 l S Q
q 1 0 0 -1 0 0 cm
29.625 -173.086 m 33.875 -173.086 l S Q
q 1 0 0 -1 0 0 cm
29.609 -3.012 m 29.609 -7.254 l S Q
q 1 0 0 -1 0 0 cm
100.5 -3.012 m 100.5 -7.254 l S Q
q 1 0 0 -1 0 0 cm
171.359 -3.012 m 171.359 -7.254 l S Q
q 1 0 0 -1 0 0 cm
242.219 -3.012 m 242.219 -7.254 l S Q
q 1 0 0 -1 0 0 cm
29.609 -3.012 m 29.609 -7.254 l S Q
q 1 0 0 -1 0 0 cm
242.227 -173.086 m 237.977 -173.086 l S Q
0.398508 w
q 1 0 0 -1 0 0 cm
242.242 -144.742 m 237.973 -144.742 l S Q
0.398507 w
q 1 0 0 -1 0 0 cm
242.215 -116.395 m 237.992 -116.395 l S Q
q 1 0 0 -1 0 0 cm
242.215 -88.051 m 237.969 -88.051 l S Q
q 1 0 0 -1 0 0 cm
242.246 -59.703 m 237.98 -59.703 l S Q
q 1 0 0 -1 0 0 cm
242.246 -31.359 m 237.992 -31.359 l S Q
q 1 0 0 -1 0 0 cm
242.219 -3.012 m 237.977 -3.012 l S Q
q 1 0 0 -1 0 0 cm
242.227 -173.086 m 237.977 -173.086 l S Q
27.172 181.41 m 27.016 181.379 l 26.75 181.832 26.531 181.91 26.094 181.91
 c 24.031 181.91 l 25.453 180.613 26.75 179.441 26.75 178.129 c 26.75 177.207
 25.953 176.551 25.078 176.551 c 24.219 176.551 23.531 177.02 23.266 178.238
 c 23.469 178.238 l 23.719 177.738 24.062 177.223 24.75 177.223 c 25.531
 177.223 25.969 177.816 25.969 178.488 c 25.969 179.457 24.938 180.879 23.172
 182.426 c 23.172 182.566 l 26.703 182.566 l h
27.172 181.41 m f
31.516 176.645 m 29.047 176.645 l 27.938 179.191 l 28.078 179.16 28.219
 179.129 28.391 179.129 c 29.344 179.129 30.641 179.629 30.641 180.801 c
 30.641 181.707 29.984 182.285 29.359 182.285 c 28.812 182.285 28.609 181.785
 28.094 181.785 c 27.844 181.785 27.766 182.004 27.766 182.113 c 27.766 
182.426 28.203 182.676 28.828 182.676 c 30.172 182.676 31.234 181.691 31.234
 180.488 c 31.234 179.066 30.109 178.582 28.891 178.551 c 28.781 178.551
 28.656 178.566 28.547 178.582 c 29.109 177.316 l 31.203 177.301 l h
31.516 176.645 m f
36.02 179.613 m 36.02 178.004 35.285 176.551 34.035 176.551 c 32.77 176.551
 32.035 178.004 32.035 179.613 c 32.035 181.238 32.723 182.676 34.035 182.676
 c 35.238 182.676 36.02 181.238 36.02 179.613 c h
35.16 179.613 m 35.16 180.91 35.035 182.426 34.035 182.426 c 33.082 182.426
 32.895 180.91 32.895 179.613 c 32.895 178.535 33.02 176.785 34.035 176.785
 c 35.035 176.785 35.16 178.535 35.16 179.613 c h
35.16 179.613 m f
97.715 180.629 m 97.715 179.691 97.168 179.285 96.637 179.066 c 97.215 
178.629 97.402 178.223 97.402 177.738 c 97.402 177.223 96.98 176.551 96.012
 176.551 c 95.309 176.551 94.637 176.941 94.34 177.91 c 94.48 177.941 l 
94.668 177.582 95.027 177.129 95.684 177.129 c 96.324 177.129 96.699 177.566
 96.699 178.066 c 96.699 178.77 96.152 179.27 95.34 179.457 c 95.324 179.645
 l 96.715 179.582 97.059 180.488 97.059 181.051 c 97.059 181.723 96.574 
182.332 95.934 182.332 c 95.355 182.332 95.105 181.832 94.621 181.832 c 
94.465 181.832 94.277 181.988 94.277 182.191 c 94.277 182.566 94.84 182.676
 95.246 182.676 c 96.668 182.676 97.715 181.863 97.715 180.629 c h
97.715 180.629 m f
102.5 179.613 m 102.5 178.004 101.766 176.551 100.516 176.551 c 99.25 176.551
 98.516 178.004 98.516 179.613 c 98.516 181.238 99.203 182.676 100.516 182.676
 c 101.719 182.676 102.5 181.238 102.5 179.613 c h
101.641 179.613 m 101.641 180.91 101.516 182.426 100.516 182.426 c 99.562
 182.426 99.375 180.91 99.375 179.613 c 99.375 178.535 99.5 176.785 100.516
 176.785 c 101.516 176.785 101.641 178.535 101.641 179.613 c h
101.641 179.613 m f
106.938 179.613 m 106.938 178.004 106.203 176.551 104.953 176.551 c 103.688
 176.551 102.953 178.004 102.953 179.613 c 102.953 181.238 103.641 182.676
 104.953 182.676 c 106.156 182.676 106.938 181.238 106.938 179.613 c h
106.078 179.613 m 106.078 180.91 105.953 182.426 104.953 182.426 c 104 
182.426 103.812 180.91 103.812 179.613 c 103.812 178.535 103.938 176.785
 104.953 176.785 c 105.953 176.785 106.078 178.535 106.078 179.613 c h
106.078 179.613 m f
168.516 180.629 m 168.516 179.691 167.969 179.285 167.438 179.066 c 168.016
 178.629 168.203 178.223 168.203 177.738 c 168.203 177.223 167.781 176.551
 166.812 176.551 c 166.109 176.551 165.438 176.941 165.141 177.91 c 165.281
 177.941 l 165.469 177.582 165.828 177.129 166.484 177.129 c 167.125 177.129
 167.5 177.566 167.5 178.066 c 167.5 178.77 166.953 179.27 166.141 179.457
 c 166.125 179.645 l 167.516 179.582 167.859 180.488 167.859 181.051 c 167.859
 181.723 167.375 182.332 166.734 182.332 c 166.156 182.332 165.906 181.832
 165.422 181.832 c 165.266 181.832 165.078 181.988 165.078 182.191 c 165.078
 182.566 165.641 182.676 166.047 182.676 c 167.469 182.676 168.516 181.863
 168.516 180.629 c h
168.516 180.629 m f
173.234 176.645 m 170.766 176.645 l 169.656 179.191 l 169.797 179.16 169.938
 179.129 170.109 179.129 c 171.062 179.129 172.359 179.629 172.359 180.801
 c 172.359 181.707 171.703 182.285 171.078 182.285 c 170.531 182.285 170.328
 181.785 169.812 181.785 c 169.562 181.785 169.484 182.004 169.484 182.113
 c 169.484 182.426 169.922 182.676 170.547 182.676 c 171.891 182.676 172.953
 181.691 172.953 180.488 c 172.953 179.066 171.828 178.582 170.609 178.551
 c 170.5 178.551 170.375 178.566 170.266 178.582 c 170.828 177.316 l 172.922
 177.301 l h
173.234 176.645 m f
177.738 179.613 m 177.738 178.004 177.004 176.551 175.754 176.551 c 174.488
 176.551 173.754 178.004 173.754 179.613 c 173.754 181.238 174.441 182.676
 175.754 182.676 c 176.957 182.676 177.738 181.238 177.738 179.613 c h
176.879 179.613 m 176.879 180.91 176.754 182.426 175.754 182.426 c 174.801
 182.426 174.613 180.91 174.613 179.613 c 174.613 178.535 174.738 176.785
 175.754 176.785 c 176.754 176.785 176.879 178.535 176.879 179.613 c h
176.879 179.613 m f
239.793 181.082 m 239.793 180.473 l 238.918 180.473 l 238.918 176.551 l
 238.48 176.551 l 235.887 180.457 l 235.887 181.082 l 238.184 181.082 l 
238.184 182.566 l 238.918 182.566 l 238.918 181.082 l h
238.184 180.473 m 236.246 180.473 l 238.168 177.488 l 238.184 177.488 l
 h
238.184 180.473 m f
244.219 179.613 m 244.219 178.004 243.484 176.551 242.234 176.551 c 240.969
 176.551 240.234 178.004 240.234 179.613 c 240.234 181.238 240.922 182.676
 242.234 182.676 c 243.438 182.676 244.219 181.238 244.219 179.613 c h
243.359 179.613 m 243.359 180.91 243.234 182.426 242.234 182.426 c 241.281
 182.426 241.094 180.91 241.094 179.613 c 241.094 178.535 241.219 176.785
 242.234 176.785 c 243.234 176.785 243.359 178.535 243.359 179.613 c h
243.359 179.613 m f
248.656 179.613 m 248.656 178.004 247.922 176.551 246.672 176.551 c 245.406
 176.551 244.672 178.004 244.672 179.613 c 244.672 181.238 245.359 182.676
 246.672 182.676 c 247.875 182.676 248.656 181.238 248.656 179.613 c h
247.797 179.613 m 247.797 180.91 247.672 182.426 246.672 182.426 c 245.719
 182.426 245.531 180.91 245.531 179.613 c 245.531 178.535 245.656 176.785
 246.672 176.785 c 247.672 176.785 247.797 178.535 247.797 179.613 c h
247.797 179.613 m f
25.938 173.254 m 25.938 171.645 25.203 170.191 23.953 170.191 c 22.688 
170.191 21.953 171.645 21.953 173.254 c 21.953 174.879 22.641 176.316 23.953
 176.316 c 25.156 176.316 25.938 174.879 25.938 173.254 c h
25.078 173.254 m 25.078 174.551 24.953 176.066 23.953 176.066 c 23 176.066
 22.812 174.551 22.812 173.254 c 22.812 172.176 22.938 170.426 23.953 170.426
 c 24.953 170.426 25.078 172.176 25.078 173.254 c h
25.078 173.254 m f
19.098 144.812 m 19.098 143.203 18.363 141.75 17.113 141.75 c 15.848 141.75
 15.113 143.203 15.113 144.812 c 15.113 146.438 15.801 147.875 17.113 147.875
 c 18.316 147.875 19.098 146.438 19.098 144.812 c h
18.238 144.812 m 18.238 146.109 18.113 147.625 17.113 147.625 c 16.16 147.625
 15.973 146.109 15.973 144.812 c 15.973 143.734 16.098 141.984 17.113 141.984
 c 18.113 141.984 18.238 143.734 18.238 144.812 c h
18.238 144.812 m f
21.023 147.391 m 21.023 147.109 20.805 146.891 20.523 146.891 c 20.242 
146.891 20.023 147.109 20.023 147.391 c 20.023 147.672 20.242 147.891 20.523
 147.891 c 20.805 147.891 21.023 147.672 21.023 147.391 c h
21.023 147.391 m f
25.969 146.609 m 25.812 146.578 l 25.547 147.031 25.328 147.109 24.891 
147.109 c 22.828 147.109 l 24.25 145.812 25.547 144.641 25.547 143.328 c
 25.547 142.406 24.75 141.75 23.875 141.75 c 23.016 141.75 22.328 142.219
 22.062 143.438 c 22.266 143.438 l 22.516 142.938 22.859 142.422 23.547 
142.422 c 24.328 142.422 24.766 143.016 24.766 143.688 c 24.766 144.656 
23.734 146.078 21.969 147.625 c 21.969 147.766 l 25.5 147.766 l h
25.969 146.609 m f
19.098 116.492 m 19.098 114.883 18.363 113.43 17.113 113.43 c 15.848 113.43
 15.113 114.883 15.113 116.492 c 15.113 118.117 15.801 119.555 17.113 119.555
 c 18.316 119.555 19.098 118.117 19.098 116.492 c h
18.238 116.492 m 18.238 117.789 18.113 119.305 17.113 119.305 c 16.16 119.305
 15.973 117.789 15.973 116.492 c 15.973 115.414 16.098 113.664 17.113 113.664
 c 18.113 113.664 18.238 115.414 18.238 116.492 c h
18.238 116.492 m f
21.023 119.07 m 21.023 118.789 20.805 118.57 20.523 118.57 c 20.242 118.57
 20.023 118.789 20.023 119.07 c 20.023 119.352 20.242 119.57 20.523 119.57
 c 20.805 119.57 21.023 119.352 21.023 119.07 c h
21.023 119.07 m f
25.953 117.961 m 25.953 117.352 l 25.078 117.352 l 25.078 113.43 l 24.641
 113.43 l 22.047 117.336 l 22.047 117.961 l 24.344 117.961 l 24.344 119.445
 l 25.078 119.445 l 25.078 117.961 l h
24.344 117.352 m 22.406 117.352 l 24.328 114.367 l 24.344 114.367 l h
24.344 117.352 m f
19.098 88.176 m 19.098 86.566 18.363 85.113 17.113 85.113 c 15.848 85.113
 15.113 86.566 15.113 88.176 c 15.113 89.801 15.801 91.238 17.113 91.238
 c 18.316 91.238 19.098 89.801 19.098 88.176 c h
18.238 88.176 m 18.238 89.473 18.113 90.988 17.113 90.988 c 16.16 90.988
 15.973 89.473 15.973 88.176 c 15.973 87.098 16.098 85.348 17.113 85.348
 c 18.113 85.348 18.238 87.098 18.238 88.176 c h
18.238 88.176 m f
21.023 90.754 m 21.023 90.473 20.805 90.254 20.523 90.254 c 20.242 90.254
 20.023 90.473 20.023 90.754 c 20.023 91.035 20.242 91.254 20.523 91.254
 c 20.805 91.254 21.023 91.035 21.023 90.754 c h
21.023 90.754 m f
25.891 89.113 m 25.891 88.129 25.188 87.395 24.297 87.395 c 23.844 87.395
 23.469 87.535 23.078 87.848 c 23.469 86.254 24.641 85.254 25.766 85.238
 c 25.766 85.082 l 23 85.082 22.125 87.426 22.125 88.754 c 22.125 90.176
 22.953 91.238 24.062 91.238 c 25.078 91.238 25.891 90.285 25.891 89.113
 c h
25.125 89.566 m 25.125 90.395 24.75 90.973 24.156 90.973 c 23.234 90.973
 22.953 89.629 22.953 88.91 c 22.953 88.676 22.984 88.426 23.031 88.129 
c 23.422 87.879 23.734 87.77 24.047 87.77 c 24.953 87.77 25.125 88.816 25.125
 89.566 c h
25.125 89.566 m f
19.098 59.855 m 19.098 58.246 18.363 56.793 17.113 56.793 c 15.848 56.793
 15.113 58.246 15.113 59.855 c 15.113 61.48 15.801 62.918 17.113 62.918 
c 18.316 62.918 19.098 61.48 19.098 59.855 c h
18.238 59.855 m 18.238 61.152 18.113 62.668 17.113 62.668 c 16.16 62.668
 15.973 61.152 15.973 59.855 c 15.973 58.777 16.098 57.027 17.113 57.027
 c 18.113 57.027 18.238 58.777 18.238 59.855 c h
18.238 59.855 m f
21.023 62.434 m 21.023 62.152 20.805 61.934 20.523 61.934 c 20.242 61.934
 20.023 62.152 20.023 62.434 c 20.023 62.715 20.242 62.934 20.523 62.934
 c 20.805 62.934 21.023 62.715 21.023 62.434 c h
21.023 62.434 m f
25.672 61.434 m 25.672 60.793 25.391 60.309 24.297 59.496 c 24.984 59.121
 25.516 58.699 25.516 58.043 c 25.516 57.355 24.875 56.762 23.922 56.762
 c 23.078 56.762 22.281 57.309 22.281 58.152 c 22.281 58.809 22.625 59.199
 23.391 59.809 c 22.531 60.465 22.219 60.793 22.219 61.465 c 22.219 62.215
 22.891 62.918 23.938 62.918 c 25.156 62.918 25.672 62.09 25.672 61.434 
c h
24.906 58.027 m 24.906 58.668 24.531 59.012 24.047 59.34 c 23.453 58.918
 22.938 58.449 22.938 57.934 c 22.938 57.449 23.281 57.027 23.891 57.027
 c 24.562 57.027 24.906 57.449 24.906 58.027 c h
25.031 61.684 m 25.031 62.262 24.594 62.652 24.016 62.652 c 23.328 62.652
 22.891 62.105 22.891 61.371 c 22.891 60.699 23.219 60.309 23.625 59.965
 c 24.609 60.715 25.031 61.09 25.031 61.684 c h
25.031 61.684 m f
18.348 34.367 m 18.348 34.227 l 17.754 34.227 17.535 34.242 17.535 33.07
 c 17.535 33.055 17.535 28.32 17.535 28.32 c 17.41 28.32 l 15.879 29.055
 l 15.926 29.195 l 16.254 29.055 16.332 29.023 16.457 29.023 c 16.723 29.023
 16.77 29.258 16.77 29.57 c 16.77 33.07 l 16.77 34.242 16.551 34.211 15.957
 34.227 c 15.957 34.367 l h
18.348 34.367 m f
21.023 33.992 m 21.023 33.711 20.805 33.492 20.523 33.492 c 20.242 33.492
 20.023 33.711 20.023 33.992 c 20.023 34.273 20.242 34.492 20.523 34.492
 c 20.805 34.492 21.023 34.273 21.023 33.992 c h
21.023 33.992 m f
25.938 31.414 m 25.938 29.805 25.203 28.352 23.953 28.352 c 22.688 28.352
 21.953 29.805 21.953 31.414 c 21.953 33.039 22.641 34.477 23.953 34.477
 c 25.156 34.477 25.938 33.039 25.938 31.414 c h
25.078 31.414 m 25.078 32.711 24.953 34.227 23.953 34.227 c 23 34.227 22.812
 32.711 22.812 31.414 c 22.812 30.336 22.938 28.586 23.953 28.586 c 24.953
 28.586 25.078 30.336 25.078 31.414 c h
25.078 31.414 m f
18.348 6.047 m 18.348 5.906 l 17.754 5.906 17.535 5.922 17.535 4.75 c 17.535
 4.734 17.535 0 17.535 0 c 17.41 0 l 15.879 0.734 l 15.926 0.875 l 16.254
 0.734 16.332 0.703 16.457 0.703 c 16.723 0.703 16.77 0.938 16.77 1.25 c
 16.77 4.75 l 16.77 5.922 16.551 5.891 15.957 5.906 c 15.957 6.047 l h
18.348 6.047 m f
21.023 5.672 m 21.023 5.391 20.805 5.172 20.523 5.172 c 20.242 5.172 20.023
 5.391 20.023 5.672 c 20.023 5.953 20.242 6.172 20.523 6.172 c 20.805 6.172
 21.023 5.953 21.023 5.672 c h
21.023 5.672 m f
25.969 4.891 m 25.812 4.859 l 25.547 5.312 25.328 5.391 24.891 5.391 c 
22.828 5.391 l 24.25 4.094 25.547 2.922 25.547 1.609 c 25.547 0.688 24.75
 0.031 23.875 0.031 c 23.016 0.031 22.328 0.5 22.062 1.719 c 22.266 1.719
 l 22.516 1.219 22.859 0.703 23.547 0.703 c 24.328 0.703 24.766 1.297 24.766
 1.969 c 24.766 2.938 23.734 4.359 21.969 5.906 c 21.969 6.047 l 25.5 6.047
 l h
25.969 4.891 m f
133.453 188.52 m 128.438 188.52 l 128.016 190.051 l 128.188 190.051 l 128.562
 189.066 129.031 188.848 129.812 188.848 c 129.812 188.848 130.328 188.848
 130.438 188.848 c 129.141 193.52 l 128.891 194.426 128.578 194.41 128.219
 194.41 c 128.203 194.566 l 130.562 194.566 l 130.594 194.41 l 130.25 194.41
 129.906 194.426 129.906 193.973 c 129.906 193.848 129.938 193.707 129.984
 193.52 c 131.266 188.848 l 132.016 188.848 l 132.453 188.848 132.922 188.91
 132.922 189.535 c 132.922 189.676 132.906 189.832 132.859 190.051 c 133.031
 190.051 l h
133.453 188.52 m f
137.426 188.129 m 136.988 188.129 l 133.879 196.488 l 134.332 196.488 l
 h
137.426 188.129 m f
141.664 188.801 m 142.211 188.832 142.273 188.863 142.273 189.082 c 142.273
 189.27 142.07 189.551 141.57 190.004 c 139.992 191.441 l 139.992 189.613
 l 139.992 188.941 140.086 188.848 140.82 188.801 c 140.82 188.629 l 138.273
 188.629 l 138.273 188.801 l 138.961 188.848 139.055 188.957 139.07 189.613
 c 139.07 193.488 l 139.07 194.254 138.961 194.348 138.273 194.395 c 138.273
 194.566 l 140.789 194.566 l 140.789 194.395 l 140.102 194.348 139.992 194.254
 139.992 193.582 c 139.992 191.91 l 140.227 191.723 l 141.164 192.66 l 141.867
 193.363 142.336 193.973 142.336 194.191 c 142.336 194.332 142.227 194.379
 141.961 194.395 c 141.914 194.395 141.82 194.395 141.711 194.395 c 141.711
 194.566 l 144.445 194.566 l 144.445 194.395 l 143.977 194.395 143.852 194.301
 143.039 193.426 c 140.945 191.191 l 142.648 189.504 l 143.258 188.91 143.398
 188.848 144.008 188.801 c 144.008 188.629 l 141.664 188.629 l h
141.664 188.801 m f
1 g
0.5 87.516 m 0.234 87.516 0 87.734 0 88.016 c 0 88.281 0.234 88.5 0.484
 88.5 c 0.766 88.5 1 88.297 1 88.016 c 1 87.75 0.766 87.516 0.5 87.516 c
 h
0.5 87.516 m f
0 g
4.562 93.656 m 3.859 93.656 3.391 93.969 3.391 94.641 c 3.391 95.234 3.812
 95.688 4.375 96.094 c 3.391 95.781 l 3.391 95.781 3.625 96.984 3.641 97.25
 c 3.797 97.25 l 3.797 96.922 3.766 96.656 4.125 96.656 c 4.297 96.656 4.688
 96.766 4.906 96.828 c 8.641 97.891 l 8.984 97.984 9.234 98.141 9.234 98.578
 c 9.391 98.609 l 9.391 96.641 l 9.234 96.609 l 9.234 96.953 9.219 97.25
 8.969 97.25 c 8.891 97.25 8.797 97.234 8.625 97.188 c 7.375 96.875 l 7.516
 96.703 7.594 96.438 7.594 96.219 c 7.594 95.141 6.062 93.656 4.562 93.656
 c h
4.656 94.422 m 5.828 94.422 7.391 95.406 7.391 96.25 c 7.391 96.453 7.312
 96.641 7.141 96.812 c 6.344 96.609 3.812 96.062 3.812 94.906 c 3.812 94.422
 4.453 94.422 4.656 94.422 c h
4.656 94.422 m f
1.047 89.059 m 1.047 89.496 l 9.406 92.605 l 9.406 92.152 l h
1.047 89.059 m f
1.375 87.152 m 1.359 87.199 l 1.484 87.574 1.562 87.809 1.688 88.246 c 
1.75 88.496 l 1.891 88.496 l 1.891 88.449 1.891 88.418 1.891 88.355 c 1.891
 87.996 1.969 87.902 2.344 87.902 c 7 87.902 l 7.281 87.902 7.578 87.152
 7.578 86.434 c 7.578 85.246 6.594 84.324 5.312 84.324 c 4.188 84.324 3.359
 85.012 3.359 85.902 c 3.359 86.449 3.672 86.98 4.125 87.152 c h
4.594 87.152 m 4.25 87.152 3.922 86.73 3.922 86.262 c 3.922 86.012 4.016
 85.793 4.188 85.605 c 4.469 85.324 5.078 85.121 5.719 85.121 c 6.719 85.121
 7.281 85.543 7.281 86.277 c 7.281 86.746 7.094 87.152 6.859 87.152 c h
4.594 87.152 m f
6.891 80.117 m 7.016 80.273 7.062 80.383 7.062 80.523 c 7.062 80.727 6.938
 80.789 6.547 80.789 c 4.797 80.789 l 4.328 80.789 4.062 80.836 3.859 80.961
 c 3.531 81.164 3.359 81.555 3.359 82.07 c 3.359 82.914 3.797 83.586 4.359
 83.586 c 4.562 83.586 4.75 83.414 4.75 83.195 c 4.75 82.977 4.562 82.789
 4.375 82.789 c 4.344 82.789 4.297 82.805 4.234 82.805 c 4.141 82.836 4.078
 82.836 4.016 82.836 c 3.766 82.836 3.578 82.555 3.578 82.195 c 3.578 81.758
 3.828 81.508 4.312 81.508 c 4.859 81.508 l 5.406 82.883 5.5 83.039 5.828
 83.43 c 6.016 83.633 6.312 83.758 6.609 83.758 c 7.172 83.758 7.578 83.367
 7.578 82.805 c 7.578 82.414 7.391 82.055 6.922 81.508 c 7.391 81.461 7.578
 81.289 7.578 80.93 c 7.578 80.617 7.469 80.43 7.125 80.117 c h
6.375 81.508 m 6.656 81.508 6.75 81.555 6.859 81.742 c 6.984 81.977 7.047
 82.211 7.047 82.398 c 7.047 82.711 6.75 82.961 6.359 82.961 c 6.328 82.961
 l 5.797 82.961 5.453 82.555 5.078 81.508 c h
6.375 81.508 m f
7.484 80.082 m 7.484 77.926 l 7.344 77.926 l 7.328 78.535 7.203 78.676 
6.672 78.691 c 4.656 78.691 l 4.375 78.691 3.922 78.316 3.922 78.066 c 3.922
 78.02 3.969 77.926 4.062 77.832 c 4.188 77.691 4.234 77.598 4.234 77.473
 c 4.234 77.254 4.078 77.129 3.828 77.129 c 3.531 77.129 3.359 77.316 3.359
 77.613 c 3.359 77.988 3.562 78.238 4.203 78.691 c 3.375 78.691 l 3.359 
78.738 l 3.562 79.238 3.688 79.566 3.844 80.066 c 3.984 80.066 l 3.953 79.941
 3.953 79.863 3.953 79.754 c 3.953 79.535 4.094 79.441 4.484 79.441 c 6.734
 79.441 l 7.203 79.473 7.25 79.52 7.344 80.082 c h
7.484 80.082 m f
0.85036 w
q 1 0 0 -1 0 0 cm
62.43 -172.23 m 62.43 -172.23 63.367 -172.195 63.855 -172.16 c 64.344 -172.125
 64.793 -172.125 65.281 -172.09 c 65.664 -172.059 66.047 -172.059 66.465
 -172.023 c 67.438 -171.988 68.305 -171.918 69.281 -171.883 c 70.289 -171.812
 71.156 -171.777 72.129 -171.676 c 77.031 -171.293 81.449 -170.98 86.316
 -170.387 c 91.219 -169.762 95.633 -169.102 100.469 -168.059 c 105.438 -167.016
 109.855 -165.938 114.652 -164.27 c 119.695 -162.496 124.145 -160.688 128.836
 -158.148 c 133.984 -155.332 138.469 -152.414 142.988 -148.691 c 148.344
 -144.312 152.758 -139.859 157.176 -134.543 c 162.703 -127.938 167.012 -121.434
 171.359 -114.027 c 176.992 -104.398 181.023 -95.148 185.512 -84.961 c 187.18
 -81.207 188.43 -77.73 189.891 -73.871 c 191.699 -69.004 193.262 -64.621
 194.934 -59.719 c 196.566 -54.852 197.957 -50.438 199.453 -45.535 c 200.945
 -40.668 202.234 -36.25 203.625 -31.348 c 204.98 -26.48 206.129 -22.102 
207.414 -17.199 c 208.664 -12.297 210.926 -3.012 210.926 -3.012 c S Q
q 1 0 0 -1 0 0 cm
62.43 -172.23 m 62.43 -3.012 l S Q
0.850362 w
q 1 0 0 -1 0 0 cm
62.445 -172.223 m 62.445 -172.223 59.508 -172.359 57.957 -172.426 c 53.066
 -172.594 48.684 -172.695 43.789 -172.797 c 38.898 -172.898 29.625 -172.965
 29.625 -172.965 c S Q
1 g
64.242 31.398 m 64.242 30.379 63.414 29.551 62.395 29.551 c 61.375 29.551
 60.547 30.379 60.547 31.398 c 60.547 32.418 61.375 33.246 62.395 33.246
 c 63.414 33.246 64.242 32.418 64.242 31.398 c f
0 g
64.242 31.398 m 64.242 30.379 63.414 29.551 62.395 29.551 c 61.375 29.551
 60.547 30.379 60.547 31.398 c 60.547 32.418 61.375 33.246 62.395 33.246
 c 63.414 33.246 64.242 32.418 64.242 31.398 c h
64.242 31.398 m 64.055 31.398 l 64.055 30.48 63.312 29.738 62.395 29.738
 c 61.477 29.738 60.734 30.48 60.734 31.398 c 60.734 32.316 61.477 33.059
 62.395 33.059 c 63.312 33.059 64.055 32.316 64.055 31.398 c f
1 g
205.441 31.398 m 205.441 30.379 204.613 29.551 203.594 29.551 c 202.574
 29.551 201.746 30.379 201.746 31.398 c 201.746 32.418 202.574 33.246 203.594
 33.246 c 204.613 33.246 205.441 32.418 205.441 31.398 c f
0 g
205.441 31.398 m 205.441 30.379 204.613 29.551 203.594 29.551 c 202.574
 29.551 201.746 30.379 201.746 31.398 c 201.746 32.418 202.574 33.246 203.594
 33.246 c 204.613 33.246 205.441 32.418 205.441 31.398 c h
205.441 31.398 m 205.254 31.398 l 205.254 30.48 204.512 29.738 203.594 
29.738 c 202.676 29.738 201.934 30.48 201.934 31.398 c 201.934 32.316 202.676
 33.059 203.594 33.059 c 204.512 33.059 205.254 32.316 205.254 31.398 c f
1 g
64.242 172.195 m 64.242 171.176 63.414 170.348 62.395 170.348 c 61.375 
170.348 60.547 171.176 60.547 172.195 c 60.547 173.215 61.375 174.043 62.395
 174.043 c 63.414 174.043 64.242 173.215 64.242 172.195 c f
0 g
64.242 172.195 m 64.242 171.176 63.414 170.348 62.395 170.348 c 61.375 
170.348 60.547 171.176 60.547 172.195 c 60.547 173.215 61.375 174.043 62.395
 174.043 c 63.414 174.043 64.242 173.215 64.242 172.195 c h
64.242 172.195 m 64.055 172.195 l 64.055 171.277 63.312 170.535 62.395 
170.535 c 61.477 170.535 60.734 171.277 60.734 172.195 c 60.734 173.113 
61.477 173.855 62.395 173.855 c 63.312 173.855 64.055 173.113 64.055 172.195
 c f
47.578 73.176 m 47.547 72.082 l 47.453 72.082 l 47.406 72.145 47.375 72.176
 47.328 72.176 c 47.281 72.176 47.203 72.16 47.109 72.113 c 46.922 72.051
 46.75 72.004 46.547 72.004 c 45.922 72.004 45.469 72.426 45.469 73.004 
c 45.469 73.441 45.719 73.77 46.406 74.145 c 46.859 74.41 l 47.141 74.566
 47.281 74.754 47.281 75.004 c 47.281 75.363 47.016 75.582 46.609 75.582
 c 46.062 75.582 45.781 75.285 45.609 74.457 c 45.484 74.457 l 45.484 75.707
 l 45.578 75.707 l 45.641 75.629 45.672 75.613 45.766 75.613 c 45.844 75.613
 45.953 75.629 46.125 75.676 c 46.344 75.723 46.547 75.754 46.719 75.754
 c 47.328 75.754 47.828 75.301 47.828 74.738 c 47.828 74.332 47.641 74.066
 47.172 73.785 c 46.312 73.27 l 46.078 73.145 45.969 72.957 45.969 72.738
 c 45.969 72.41 46.203 72.191 46.578 72.191 c 47.031 72.191 47.266 72.457
 47.453 73.176 c h
47.578 73.176 m f
127.926 76.633 m 129.801 76.633 l 129.801 76.508 l 129.301 76.492 129.207
 76.414 129.207 75.961 c 129.207 71.211 l 129.176 71.195 l 128.77 71.32 
128.473 71.398 127.91 71.539 c 127.91 71.664 l 127.957 71.664 l 128.035 
71.664 128.129 71.648 128.207 71.648 c 128.457 71.648 128.535 71.758 128.535
 72.133 c 128.535 75.945 l 128.52 76.367 128.41 76.477 127.926 76.508 c 
h
127.926 76.633 m f
208.5 71.742 m 208.5 71.43 l 207.875 71.43 l 207.719 71.43 207.609 71.414
 207.438 71.352 c 207.266 71.289 l 207.062 71.211 206.844 71.164 206.625
 71.164 c 205.891 71.164 205.297 71.742 205.297 72.477 c 205.297 72.977 
205.5 73.273 206.047 73.539 c 205.828 73.727 l 205.672 73.883 205.578 73.977
 205.547 74.008 c 205.375 74.18 205.328 74.273 205.328 74.398 c 205.328 
74.586 205.422 74.664 205.75 74.82 c 205.188 75.242 204.969 75.508 204.969
 75.805 c 204.969 76.227 205.594 76.57 206.359 76.57 c 206.953 76.57 207.578
 76.367 207.984 76.023 c 208.281 75.789 208.422 75.523 208.422 75.227 c 
208.422 74.727 208.047 74.398 207.453 74.367 c 206.438 74.32 l 206 74.305
 205.812 74.242 205.812 74.117 c 205.812 73.945 206.078 73.68 206.281 73.602
 c 206.578 73.633 206.719 73.648 206.734 73.648 c 207.031 73.648 207.359
 73.523 207.609 73.32 c 207.859 73.086 207.984 72.805 207.984 72.414 c 207.984
 72.18 207.953 71.992 207.828 71.742 c h
205.922 74.852 m 206.188 74.914 206.812 74.961 207.219 74.961 c 207.938
 74.961 208.203 75.055 208.203 75.352 c 208.203 75.805 207.594 76.117 206.688
 76.117 c 205.984 76.117 205.531 75.883 205.531 75.539 c 205.531 75.352 
205.609 75.227 205.922 74.852 c h
205.969 72.148 m 205.969 71.68 206.188 71.398 206.547 71.398 c 206.797 
71.398 207 71.523 207.125 71.773 c 207.281 72.055 207.375 72.398 207.375
 72.727 c 207.375 73.164 207.156 73.445 206.781 73.445 c 206.281 73.445 
205.969 72.93 205.969 72.164 c h
205.969 72.148 m f
65.762 167.449 m 64.445 170.215 l 67.215 168.898 l 65.66 169 l f
0.283298 w
q 1 0 0 -1 0 0 cm
65.672 -168.973 m 74.629 -160.047 l S Q
78.645 156.391 m 77.848 156.391 l 77.848 155.453 l 77.848 155.375 77.832
 155.359 77.785 155.359 c 77.316 156.031 77.082 156.297 76.848 156.438 c
 76.77 156.484 76.723 156.531 76.723 156.578 c 76.723 156.609 76.723 156.625
 76.754 156.641 c 77.176 156.641 l 77.176 159.031 l 77.176 159.703 77.41
 160.047 77.879 160.047 c 78.27 160.047 78.566 159.859 78.832 159.438 c 
78.738 159.359 l 78.551 159.562 78.426 159.641 78.254 159.641 c 77.957 159.641
 77.848 159.422 77.848 158.922 c 77.848 156.641 l 78.645 156.641 l h
78.645 156.391 m f
78.82 159.969 m 80.727 159.969 l 80.727 159.844 l 80.195 159.828 80.07 
159.719 80.055 159.25 c 80.055 157.453 l 80.055 157.203 80.383 156.812 80.602
 156.812 c 80.648 156.812 80.727 156.844 80.82 156.922 c 80.93 157.047 81.023
 157.078 81.133 157.078 c 81.32 157.078 81.445 156.953 81.445 156.719 c 
81.445 156.469 81.273 156.297 81.008 156.297 c 80.664 156.297 80.445 156.484
 80.055 157.047 c 80.055 156.312 l 80.008 156.297 l 79.555 156.484 79.273
 156.594 78.836 156.734 c 78.836 156.859 l 78.945 156.844 79.008 156.828
 79.102 156.828 c 79.305 156.828 79.383 156.953 79.383 157.312 c 79.383 
159.297 l 79.367 159.719 79.32 159.766 78.82 159.844 c h
78.82 159.969 m f
81.539 159.969 m 83.43 159.969 l 83.43 159.844 l 82.898 159.812 82.852 
159.734 82.836 159.156 c 82.836 156.328 l 82.805 156.297 l 81.57 156.734
 l 81.57 156.859 l 81.633 156.859 l 81.727 156.844 81.836 156.828 81.914
 156.828 c 82.102 156.828 82.164 156.953 82.164 157.312 c 82.164 159.156
 l 82.148 159.75 82.086 159.828 81.539 159.844 c h
82.43 154.531 m 82.227 154.531 82.039 154.703 82.039 154.938 c 82.039 155.156
 82.211 155.344 82.43 155.344 c 82.68 155.344 82.852 155.156 82.852 154.938
 c 82.852 154.703 82.664 154.531 82.43 154.531 c h
82.43 154.531 m f
83.621 161.703 m 85.543 161.703 l 85.543 161.547 l 84.949 161.547 84.855
 161.469 84.84 160.953 c 84.84 159.703 l 85.121 159.969 85.309 160.047 85.652
 160.047 c 86.59 160.047 87.324 159.156 87.324 158 c 87.324 157.016 86.762
 156.297 85.996 156.297 c 85.543 156.297 85.199 156.5 84.84 156.938 c 84.84
 156.312 l 84.793 156.297 l 84.355 156.469 84.09 156.578 83.652 156.703 
c 83.652 156.844 l 83.715 156.828 83.762 156.828 83.84 156.828 c 84.121 
156.828 84.168 156.906 84.168 157.281 c 84.168 161.016 l 84.168 161.438 
84.09 161.516 83.621 161.562 c h
84.84 157.312 m 84.84 157.062 85.293 156.781 85.652 156.781 c 86.246 156.781
 86.637 157.391 86.637 158.312 c 86.637 159.203 86.246 159.797 85.668 159.797
 c 85.293 159.797 84.84 159.5 84.84 159.266 c h
84.84 157.312 m f
87.707 159.969 m 89.582 159.969 l 89.582 159.844 l 89.082 159.828 88.988
 159.75 88.988 159.297 c 88.988 154.547 l 88.957 154.531 l 88.551 154.656
 88.254 154.734 87.691 154.875 c 87.691 155 l 87.738 155 l 87.816 155 87.91
 154.984 87.988 154.984 c 88.238 154.984 88.316 155.094 88.316 155.469 c
 88.316 159.281 l 88.301 159.703 88.191 159.812 87.707 159.844 c h
87.707 159.969 m f
92.945 158.656 m 92.57 159.266 92.227 159.5 91.711 159.5 c 91.258 159.5
 90.914 159.266 90.68 158.812 c 90.539 158.516 90.477 158.25 90.461 157.766
 c 92.93 157.766 l 92.852 157.25 92.773 157.016 92.586 156.75 c 92.336 156.469
 91.977 156.297 91.555 156.297 c 91.164 156.297 90.789 156.453 90.477 156.719
 c 90.117 157.047 89.898 157.609 89.898 158.266 c 89.898 159.359 90.461 
160.047 91.383 160.047 c 92.148 160.047 92.742 159.578 93.07 158.719 c h
90.477 157.5 m 90.57 156.891 90.836 156.594 91.336 156.594 c 91.82 156.594
 92.008 156.812 92.117 157.5 c h
90.477 157.5 m f
95.504 161.703 m 97.426 161.703 l 97.426 161.547 l 96.832 161.547 96.738
 161.469 96.723 160.953 c 96.723 159.703 l 97.004 159.969 97.191 160.047
 97.535 160.047 c 98.473 160.047 99.207 159.156 99.207 158 c 99.207 157.016
 98.645 156.297 97.879 156.297 c 97.426 156.297 97.082 156.5 96.723 156.938
 c 96.723 156.312 l 96.676 156.297 l 96.238 156.469 95.973 156.578 95.535
 156.703 c 95.535 156.844 l 95.598 156.828 95.645 156.828 95.723 156.828
 c 96.004 156.828 96.051 156.906 96.051 157.281 c 96.051 161.016 l 96.051
 161.438 95.973 161.516 95.504 161.562 c h
96.723 157.312 m 96.723 157.062 97.176 156.781 97.535 156.781 c 98.129 
156.781 98.52 157.391 98.52 158.312 c 98.52 159.203 98.129 159.797 97.551
 159.797 c 97.176 159.797 96.723 159.5 96.723 159.266 c h
96.723 157.312 m f
101.398 156.297 m 100.367 156.297 99.648 157.062 99.648 158.172 c 99.648
 159.25 100.383 160.047 101.383 160.047 c 102.398 160.047 103.164 159.219
 103.164 158.109 c 103.164 157.047 102.43 156.297 101.398 156.297 c h
101.305 156.531 m 101.977 156.531 102.445 157.297 102.445 158.391 c 102.445
 159.297 102.086 159.828 101.492 159.828 c 101.18 159.828 100.883 159.641
 100.711 159.312 c 100.492 158.906 100.367 158.344 100.367 157.781 c 100.367
 157.016 100.727 156.531 101.305 156.531 c h
101.305 156.531 m f
103.5 159.969 m 105.391 159.969 l 105.391 159.844 l 104.859 159.812 104.812
 159.734 104.797 159.156 c 104.797 156.328 l 104.766 156.297 l 103.531 156.734
 l 103.531 156.859 l 103.594 156.859 l 103.688 156.844 103.797 156.828 103.875
 156.828 c 104.062 156.828 104.125 156.953 104.125 157.312 c 104.125 159.156
 l 104.109 159.75 104.047 159.828 103.5 159.844 c h
104.391 154.531 m 104.188 154.531 104 154.703 104 154.938 c 104 155.156
 104.172 155.344 104.391 155.344 c 104.641 155.344 104.812 155.156 104.812
 154.938 c 104.812 154.703 104.625 154.531 104.391 154.531 c h
104.391 154.531 m f
105.676 159.969 m 107.363 159.969 l 107.363 159.844 l 106.973 159.828 106.848
 159.719 106.848 159.438 c 106.848 157.203 l 107.223 156.844 107.395 156.734
 107.66 156.734 c 108.051 156.734 108.238 156.984 108.238 157.516 c 108.238
 159.188 l 108.223 159.703 108.129 159.828 107.738 159.844 c 107.738 159.969
 l 109.395 159.969 l 109.395 159.844 l 109.004 159.812 108.926 159.719 108.91
 159.328 c 108.91 157.5 l 108.91 156.75 108.566 156.297 107.973 156.297 
c 107.613 156.297 107.363 156.438 106.816 156.953 c 106.816 156.312 l 106.77
 156.297 l 106.348 156.453 106.082 156.547 105.66 156.656 c 105.66 156.797
 l 105.723 156.766 105.785 156.766 105.879 156.766 c 106.098 156.766 106.176
 156.891 106.176 157.281 c 106.176 159.25 l 106.16 159.719 106.082 159.828
 105.676 159.844 c h
105.676 159.969 m f
111.527 156.391 m 110.73 156.391 l 110.73 155.453 l 110.73 155.375 110.715
 155.359 110.668 155.359 c 110.199 156.031 109.965 156.297 109.73 156.438
 c 109.652 156.484 109.605 156.531 109.605 156.578 c 109.605 156.609 109.605
 156.625 109.637 156.641 c 110.059 156.641 l 110.059 159.031 l 110.059 159.703
 110.293 160.047 110.762 160.047 c 111.152 160.047 111.449 159.859 111.715
 159.438 c 111.621 159.359 l 111.434 159.562 111.309 159.641 111.137 159.641
 c 110.84 159.641 110.73 159.422 110.73 158.922 c 110.73 156.641 l 111.527
 156.641 l h
111.527 156.391 m f
79.105 31.613 m 79.074 30.52 l 78.98 30.52 l 78.934 30.582 78.902 30.613
 78.855 30.613 c 78.809 30.613 78.73 30.598 78.637 30.551 c 78.449 30.488
 78.277 30.441 78.074 30.441 c 77.449 30.441 76.996 30.863 76.996 31.441
 c 76.996 31.879 77.246 32.207 77.934 32.582 c 78.387 32.848 l 78.668 33.004
 78.809 33.191 78.809 33.441 c 78.809 33.801 78.543 34.02 78.137 34.02 c
 77.59 34.02 77.309 33.723 77.137 32.895 c 77.012 32.895 l 77.012 34.145
 l 77.105 34.145 l 77.168 34.066 77.199 34.051 77.293 34.051 c 77.371 34.051
 77.48 34.066 77.652 34.113 c 77.871 34.16 78.074 34.191 78.246 34.191 c
 78.855 34.191 79.355 33.738 79.355 33.176 c 79.355 32.77 79.168 32.504 
78.699 32.223 c 77.84 31.707 l 77.605 31.582 77.496 31.395 77.496 31.176
 c 77.496 30.848 77.73 30.629 78.105 30.629 c 78.559 30.629 78.793 30.895
 78.98 31.613 c h
79.105 31.613 m f
81.742 30.535 m 80.945 30.535 l 80.945 29.598 l 80.945 29.52 80.93 29.504
 80.883 29.504 c 80.414 30.176 80.18 30.441 79.945 30.582 c 79.867 30.629
 79.82 30.676 79.82 30.723 c 79.82 30.754 79.82 30.77 79.852 30.785 c 80.273
 30.785 l 80.273 33.176 l 80.273 33.848 80.508 34.191 80.977 34.191 c 81.367
 34.191 81.664 34.004 81.93 33.582 c 81.836 33.504 l 81.648 33.707 81.523
 33.785 81.352 33.785 c 81.055 33.785 80.945 33.566 80.945 33.066 c 80.945
 30.785 l 81.742 30.785 l h
81.742 30.535 m f
85.387 33.582 m 85.262 33.691 85.168 33.738 85.043 33.738 c 84.855 33.738
 84.809 33.629 84.809 33.27 c 84.809 31.723 l 84.809 31.301 84.762 31.082
 84.637 30.879 c 84.465 30.598 84.121 30.441 83.652 30.441 c 82.902 30.441
 82.324 30.832 82.324 31.348 c 82.324 31.52 82.465 31.676 82.652 31.676 
c 82.855 31.676 83.012 31.52 83.012 31.348 c 83.012 31.316 83.012 31.27 
82.996 31.223 c 82.98 31.145 82.98 31.082 82.98 31.035 c 82.98 30.816 83.23
 30.645 83.559 30.645 c 83.949 30.645 84.152 30.863 84.152 31.301 c 84.152
 31.785 l 82.934 32.27 82.793 32.348 82.449 32.645 c 82.277 32.801 82.168
 33.082 82.168 33.348 c 82.168 33.848 82.512 34.191 82.996 34.191 c 83.355
 34.191 83.684 34.02 84.168 33.613 c 84.199 34.035 84.355 34.191 84.684 
34.191 c 84.949 34.191 85.121 34.098 85.387 33.801 c h
84.152 33.129 m 84.152 33.379 84.121 33.457 83.949 33.551 c 83.746 33.66
 83.543 33.738 83.371 33.738 c 83.09 33.738 82.871 33.457 82.871 33.113 
c 82.871 33.082 l 82.871 32.613 83.23 32.301 84.152 31.973 c h
84.152 33.129 m f
85.492 34.113 m 87.18 34.113 l 87.18 33.988 l 86.789 33.973 86.664 33.863
 86.664 33.582 c 86.664 31.348 l 87.039 30.988 87.211 30.879 87.477 30.879
 c 87.867 30.879 88.055 31.129 88.055 31.66 c 88.055 33.332 l 88.039 33.848
 87.945 33.973 87.555 33.988 c 87.555 34.113 l 89.211 34.113 l 89.211 33.988
 l 88.82 33.957 88.742 33.863 88.727 33.473 c 88.727 31.645 l 88.727 30.895
 88.383 30.441 87.789 30.441 c 87.43 30.441 87.18 30.582 86.633 31.098 c
 86.633 30.457 l 86.586 30.441 l 86.164 30.598 85.898 30.691 85.477 30.801
 c 85.477 30.941 l 85.539 30.91 85.602 30.91 85.695 30.91 c 85.914 30.91
 85.992 31.035 85.992 31.426 c 85.992 33.395 l 85.977 33.863 85.898 33.973
 85.492 33.988 c h
85.492 34.113 m f
93.219 33.645 m 93.125 33.66 93.078 33.66 93.047 33.66 c 92.766 33.66 92.688
 33.566 92.688 33.207 c 92.688 28.691 l 92.656 28.676 l 92.281 28.801 92
 28.879 91.484 29.02 c 91.484 29.145 l 91.547 29.145 91.578 29.145 91.656
 29.145 c 91.953 29.145 92.016 29.223 92.016 29.551 c 92.016 30.785 l 91.719
 30.535 91.5 30.441 91.188 30.441 c 90.266 30.441 89.531 31.348 89.531 32.473
 c 89.531 33.504 90.125 34.191 91 34.191 c 91.453 34.191 91.75 34.035 92.016
 33.66 c 92.016 34.176 l 92.047 34.191 l 93.219 33.785 l h
92.016 33.301 m 92.016 33.363 91.969 33.457 91.891 33.535 c 91.75 33.691
 91.547 33.785 91.312 33.785 c 90.641 33.785 90.219 33.145 90.219 32.16 
c 90.219 31.254 90.609 30.676 91.203 30.676 c 91.641 30.676 92.016 31.051
 92.016 31.473 c h
92.016 33.301 m f
96.785 33.582 m 96.66 33.691 96.566 33.738 96.441 33.738 c 96.254 33.738
 96.207 33.629 96.207 33.27 c 96.207 31.723 l 96.207 31.301 96.16 31.082
 96.035 30.879 c 95.863 30.598 95.52 30.441 95.051 30.441 c 94.301 30.441
 93.723 30.832 93.723 31.348 c 93.723 31.52 93.863 31.676 94.051 31.676 
c 94.254 31.676 94.41 31.52 94.41 31.348 c 94.41 31.316 94.41 31.27 94.395
 31.223 c 94.379 31.145 94.379 31.082 94.379 31.035 c 94.379 30.816 94.629
 30.645 94.957 30.645 c 95.348 30.645 95.551 30.863 95.551 31.301 c 95.551
 31.785 l 94.332 32.27 94.191 32.348 93.848 32.645 c 93.676 32.801 93.566
 33.082 93.566 33.348 c 93.566 33.848 93.91 34.191 94.395 34.191 c 94.754
 34.191 95.082 34.02 95.566 33.613 c 95.598 34.035 95.754 34.191 96.082 
34.191 c 96.348 34.191 96.52 34.098 96.785 33.801 c h
95.551 33.129 m 95.551 33.379 95.52 33.457 95.348 33.551 c 95.145 33.66
 94.941 33.738 94.77 33.738 c 94.488 33.738 94.27 33.457 94.27 33.113 c 
94.27 33.082 l 94.27 32.613 94.629 32.301 95.551 31.973 c h
95.551 33.129 m f
96.797 34.113 m 98.703 34.113 l 98.703 33.988 l 98.172 33.973 98.047 33.863
 98.031 33.395 c 98.031 31.598 l 98.031 31.348 98.359 30.957 98.578 30.957
 c 98.625 30.957 98.703 30.988 98.797 31.066 c 98.906 31.191 99 31.223 99.109
 31.223 c 99.297 31.223 99.422 31.098 99.422 30.863 c 99.422 30.613 99.25
 30.441 98.984 30.441 c 98.641 30.441 98.422 30.629 98.031 31.191 c 98.031
 30.457 l 97.984 30.441 l 97.531 30.629 97.25 30.738 96.812 30.879 c 96.812
 31.004 l 96.922 30.988 96.984 30.973 97.078 30.973 c 97.281 30.973 97.359
 31.098 97.359 31.457 c 97.359 33.441 l 97.344 33.863 97.297 33.91 96.797
 33.988 c h
96.797 34.113 m f
103.297 33.645 m 103.203 33.66 103.156 33.66 103.125 33.66 c 102.844 33.66
 102.766 33.566 102.766 33.207 c 102.766 28.691 l 102.734 28.676 l 102.359
 28.801 102.078 28.879 101.562 29.02 c 101.562 29.145 l 101.625 29.145 101.656
 29.145 101.734 29.145 c 102.031 29.145 102.094 29.223 102.094 29.551 c 
102.094 30.785 l 101.797 30.535 101.578 30.441 101.266 30.441 c 100.344 
30.441 99.609 31.348 99.609 32.473 c 99.609 33.504 100.203 34.191 101.078
 34.191 c 101.531 34.191 101.828 34.035 102.094 33.66 c 102.094 34.176 l
 102.125 34.191 l 103.297 33.785 l h
102.094 33.301 m 102.094 33.363 102.047 33.457 101.969 33.535 c 101.828
 33.691 101.625 33.785 101.391 33.785 c 100.719 33.785 100.297 33.145 100.297
 32.16 c 100.297 31.254 100.688 30.676 101.281 30.676 c 101.719 30.676 102.094
 31.051 102.094 31.473 c h
102.094 33.301 m f
76.715 44.609 m 78.48 44.609 l 78.48 44.484 l 78.074 44.484 77.949 44.391
 77.949 44.078 c 77.949 41.828 l 77.949 41.812 78.012 41.734 78.059 41.672
 c 78.262 41.5 78.605 41.359 78.887 41.359 c 79.23 41.359 79.418 41.641 
79.418 42.188 c 79.418 43.922 l 79.402 44.375 79.309 44.469 78.871 44.484
 c 78.871 44.609 l 80.652 44.609 l 80.652 44.484 l 80.215 44.484 80.09 44.359
 80.074 43.859 c 80.074 41.844 l 80.324 41.5 80.574 41.359 80.949 41.359
 c 81.402 41.359 81.543 41.578 81.543 42.234 c 81.543 43.922 l 81.527 44.391
 81.48 44.438 81.027 44.484 c 81.027 44.609 l 82.762 44.609 l 82.762 44.484
 l 82.559 44.469 l 82.309 44.438 82.215 44.312 82.215 44 c 82.215 42.359
 l 82.215 41.422 81.902 40.938 81.293 40.938 c 80.824 40.938 80.418 41.156
 79.996 41.609 c 79.855 41.156 79.574 40.938 79.152 40.938 c 78.793 40.938
 78.574 41.047 77.918 41.562 c 77.918 40.953 l 77.855 40.938 l 77.434 41.094
 77.168 41.188 76.746 41.297 c 76.746 41.438 l 76.84 41.406 76.902 41.406
 76.996 41.406 c 77.199 41.406 77.277 41.531 77.277 41.922 c 77.277 43.938
 l 77.262 44.375 77.152 44.484 76.715 44.484 c h
76.715 44.609 m f
86.082 43.297 m 85.707 43.906 85.363 44.141 84.848 44.141 c 84.395 44.141
 84.051 43.906 83.816 43.453 c 83.676 43.156 83.613 42.891 83.598 42.406
 c 86.066 42.406 l 85.988 41.891 85.91 41.656 85.723 41.391 c 85.473 41.109
 85.113 40.938 84.691 40.938 c 84.301 40.938 83.926 41.094 83.613 41.359
 c 83.254 41.688 83.035 42.25 83.035 42.906 c 83.035 44 83.598 44.688 84.52
 44.688 c 85.285 44.688 85.879 44.219 86.207 43.359 c h
83.613 42.141 m 83.707 41.531 83.973 41.234 84.473 41.234 c 84.957 41.234
 85.145 41.453 85.254 42.141 c h
83.613 42.141 m f
86.484 44.609 m 88.359 44.609 l 88.359 44.484 l 87.859 44.469 87.766 44.391
 87.766 43.938 c 87.766 39.188 l 87.734 39.172 l 87.328 39.297 87.031 39.375
 86.469 39.516 c 86.469 39.641 l 86.516 39.641 l 86.594 39.641 86.688 39.625
 86.766 39.625 c 87.016 39.625 87.094 39.734 87.094 40.109 c 87.094 43.922
 l 87.078 44.344 86.969 44.453 86.484 44.484 c h
86.484 44.609 m f
90.504 41.031 m 89.707 41.031 l 89.707 40.094 l 89.707 40.016 89.691 40
 89.645 40 c 89.176 40.672 88.941 40.938 88.707 41.078 c 88.629 41.125 88.582
 41.172 88.582 41.219 c 88.582 41.25 88.582 41.266 88.613 41.281 c 89.035
 41.281 l 89.035 43.672 l 89.035 44.344 89.27 44.688 89.738 44.688 c 90.129
 44.688 90.426 44.5 90.691 44.078 c 90.598 44 l 90.41 44.203 90.285 44.281
 90.113 44.281 c 89.816 44.281 89.707 44.062 89.707 43.562 c 89.707 41.281
 l 90.504 41.281 l h
90.504 41.031 m f
90.758 44.609 m 92.648 44.609 l 92.648 44.484 l 92.117 44.453 92.07 44.375
 92.055 43.797 c 92.055 40.969 l 92.023 40.938 l 90.789 41.375 l 90.789 
41.5 l 90.852 41.5 l 90.945 41.484 91.055 41.469 91.133 41.469 c 91.32 41.469
 91.383 41.594 91.383 41.953 c 91.383 43.797 l 91.367 44.391 91.305 44.469
 90.758 44.484 c h
91.648 39.172 m 91.445 39.172 91.258 39.344 91.258 39.578 c 91.258 39.797
 91.43 39.984 91.648 39.984 c 91.898 39.984 92.07 39.797 92.07 39.578 c 
92.07 39.344 91.883 39.172 91.648 39.172 c h
91.648 39.172 m f
92.934 44.609 m 94.621 44.609 l 94.621 44.484 l 94.23 44.469 94.105 44.359
 94.105 44.078 c 94.105 41.844 l 94.48 41.484 94.652 41.375 94.918 41.375
 c 95.309 41.375 95.496 41.625 95.496 42.156 c 95.496 43.828 l 95.48 44.344
 95.387 44.469 94.996 44.484 c 94.996 44.609 l 96.652 44.609 l 96.652 44.484
 l 96.262 44.453 96.184 44.359 96.168 43.969 c 96.168 42.141 l 96.168 41.391
 95.824 40.938 95.23 40.938 c 94.871 40.938 94.621 41.078 94.074 41.594 
c 94.074 40.953 l 94.027 40.938 l 93.605 41.094 93.34 41.188 92.918 41.297
 c 92.918 41.438 l 92.98 41.406 93.043 41.406 93.137 41.406 c 93.355 41.406
 93.434 41.531 93.434 41.922 c 93.434 43.891 l 93.418 44.359 93.34 44.469
 92.934 44.484 c h
92.934 44.609 m f
100.5 41.516 m 100.5 41.203 l 99.875 41.203 l 99.719 41.203 99.609 41.188
 99.438 41.125 c 99.266 41.062 l 99.062 40.984 98.844 40.938 98.625 40.938
 c 97.891 40.938 97.297 41.516 97.297 42.25 c 97.297 42.75 97.5 43.047 98.047
 43.312 c 97.828 43.5 l 97.672 43.656 97.578 43.75 97.547 43.781 c 97.375
 43.953 97.328 44.047 97.328 44.172 c 97.328 44.359 97.422 44.438 97.75 
44.594 c 97.188 45.016 96.969 45.281 96.969 45.578 c 96.969 46 97.594 46.344
 98.359 46.344 c 98.953 46.344 99.578 46.141 99.984 45.797 c 100.281 45.562
 100.422 45.297 100.422 45 c 100.422 44.5 100.047 44.172 99.453 44.141 c
 98.438 44.094 l 98 44.078 97.812 44.016 97.812 43.891 c 97.812 43.719 98.078
 43.453 98.281 43.375 c 98.578 43.406 98.719 43.422 98.734 43.422 c 99.031
 43.422 99.359 43.297 99.609 43.094 c 99.859 42.859 99.984 42.578 99.984
 42.188 c 99.984 41.953 99.953 41.766 99.828 41.516 c h
97.922 44.625 m 98.188 44.688 98.812 44.734 99.219 44.734 c 99.938 44.734
 100.203 44.828 100.203 45.125 c 100.203 45.578 99.594 45.891 98.688 45.891
 c 97.984 45.891 97.531 45.656 97.531 45.312 c 97.531 45.125 97.609 45 97.922
 44.625 c h
97.969 41.922 m 97.969 41.453 98.188 41.172 98.547 41.172 c 98.797 41.172
 99 41.297 99.125 41.547 c 99.281 41.828 99.375 42.172 99.375 42.5 c 99.375
 42.938 99.156 43.219 98.781 43.219 c 98.281 43.219 97.969 42.703 97.969
 41.938 c h
97.969 41.922 m f
103.039 46.344 m 104.961 46.344 l 104.961 46.188 l 104.367 46.188 104.273
 46.109 104.258 45.594 c 104.258 44.344 l 104.539 44.609 104.727 44.688 
105.07 44.688 c 106.008 44.688 106.742 43.797 106.742 42.641 c 106.742 41.656
 106.18 40.938 105.414 40.938 c 104.961 40.938 104.617 41.141 104.258 41.578
 c 104.258 40.953 l 104.211 40.938 l 103.773 41.109 103.508 41.219 103.07
 41.344 c 103.07 41.484 l 103.133 41.469 103.18 41.469 103.258 41.469 c 
103.539 41.469 103.586 41.547 103.586 41.922 c 103.586 45.656 l 103.586 
46.078 103.508 46.156 103.039 46.203 c h
104.258 41.953 m 104.258 41.703 104.711 41.422 105.07 41.422 c 105.664 
41.422 106.055 42.031 106.055 42.953 c 106.055 43.844 105.664 44.438 105.086
 44.438 c 104.711 44.438 104.258 44.141 104.258 43.906 c h
104.258 41.953 m f
108.938 40.938 m 107.906 40.938 107.188 41.703 107.188 42.812 c 107.188
 43.891 107.922 44.688 108.922 44.688 c 109.938 44.688 110.703 43.859 110.703
 42.75 c 110.703 41.688 109.969 40.938 108.938 40.938 c h
108.844 41.172 m 109.516 41.172 109.984 41.938 109.984 43.031 c 109.984
 43.938 109.625 44.469 109.031 44.469 c 108.719 44.469 108.422 44.281 108.25
 43.953 c 108.031 43.547 107.906 42.984 107.906 42.422 c 107.906 41.656 
108.266 41.172 108.844 41.172 c h
108.844 41.172 m f
111.035 44.609 m 112.926 44.609 l 112.926 44.484 l 112.395 44.453 112.348
 44.375 112.332 43.797 c 112.332 40.969 l 112.301 40.938 l 111.066 41.375
 l 111.066 41.5 l 111.129 41.5 l 111.223 41.484 111.332 41.469 111.41 41.469
 c 111.598 41.469 111.66 41.594 111.66 41.953 c 111.66 43.797 l 111.645 
44.391 111.582 44.469 111.035 44.484 c h
111.926 39.172 m 111.723 39.172 111.535 39.344 111.535 39.578 c 111.535
 39.797 111.707 39.984 111.926 39.984 c 112.176 39.984 112.348 39.797 112.348
 39.578 c 112.348 39.344 112.16 39.172 111.926 39.172 c h
111.926 39.172 m f
113.211 44.609 m 114.898 44.609 l 114.898 44.484 l 114.508 44.469 114.383
 44.359 114.383 44.078 c 114.383 41.844 l 114.758 41.484 114.93 41.375 115.195
 41.375 c 115.586 41.375 115.773 41.625 115.773 42.156 c 115.773 43.828 
l 115.758 44.344 115.664 44.469 115.273 44.484 c 115.273 44.609 l 116.93
 44.609 l 116.93 44.484 l 116.539 44.453 116.461 44.359 116.445 43.969 c
 116.445 42.141 l 116.445 41.391 116.102 40.938 115.508 40.938 c 115.148
 40.938 114.898 41.078 114.352 41.594 c 114.352 40.953 l 114.305 40.938 
l 113.883 41.094 113.617 41.188 113.195 41.297 c 113.195 41.438 l 113.258
 41.406 113.32 41.406 113.414 41.406 c 113.633 41.406 113.711 41.531 113.711
 41.922 c 113.711 43.891 l 113.695 44.359 113.617 44.469 113.211 44.484 
c h
113.211 44.609 m f
119.062 41.031 m 118.266 41.031 l 118.266 40.094 l 118.266 40.016 118.25
 40 118.203 40 c 117.734 40.672 117.5 40.938 117.266 41.078 c 117.188 41.125
 117.141 41.172 117.141 41.219 c 117.141 41.25 117.141 41.266 117.172 41.281
 c 117.594 41.281 l 117.594 43.672 l 117.594 44.344 117.828 44.688 118.297
 44.688 c 118.688 44.688 118.984 44.5 119.25 44.078 c 119.156 44 l 118.969
 44.203 118.844 44.281 118.672 44.281 c 118.375 44.281 118.266 44.062 118.266
 43.562 c 118.266 41.281 l 119.062 41.281 l h
119.062 41.031 m f
68.164 30.348 m 65.258 31.387 l 68.129 32.426 l 66.988 31.387 l f
q 1 0 0 -1 0 0 cm
66.977 -31.375 m 73.758 -31.41 l S Q
164.969 31.617 m 164.938 30.523 l 164.844 30.523 l 164.797 30.586 164.766
 30.617 164.719 30.617 c 164.672 30.617 164.594 30.602 164.5 30.555 c 164.312
 30.492 164.141 30.445 163.938 30.445 c 163.312 30.445 162.859 30.867 162.859
 31.445 c 162.859 31.883 163.109 32.211 163.797 32.586 c 164.25 32.852 l
 164.531 33.008 164.672 33.195 164.672 33.445 c 164.672 33.805 164.406 34.023
 164 34.023 c 163.453 34.023 163.172 33.727 163 32.898 c 162.875 32.898 
l 162.875 34.148 l 162.969 34.148 l 163.031 34.07 163.062 34.055 163.156
 34.055 c 163.234 34.055 163.344 34.07 163.516 34.117 c 163.734 34.164 163.938
 34.195 164.109 34.195 c 164.719 34.195 165.219 33.742 165.219 33.18 c 165.219
 32.773 165.031 32.508 164.562 32.227 c 163.703 31.711 l 163.469 31.586 
163.359 31.398 163.359 31.18 c 163.359 30.852 163.594 30.633 163.969 30.633
 c 164.422 30.633 164.656 30.898 164.844 31.617 c h
164.969 31.617 m f
167.605 30.539 m 166.809 30.539 l 166.809 29.602 l 166.809 29.523 166.793
 29.508 166.746 29.508 c 166.277 30.18 166.043 30.445 165.809 30.586 c 165.73
 30.633 165.684 30.68 165.684 30.727 c 165.684 30.758 165.684 30.773 165.715
 30.789 c 166.137 30.789 l 166.137 33.18 l 166.137 33.852 166.371 34.195
 166.84 34.195 c 167.23 34.195 167.527 34.008 167.793 33.586 c 167.699 33.508
 l 167.512 33.711 167.387 33.789 167.215 33.789 c 166.918 33.789 166.809
 33.57 166.809 33.07 c 166.809 30.789 l 167.605 30.789 l h
167.605 30.539 m f
171.25 33.586 m 171.125 33.695 171.031 33.742 170.906 33.742 c 170.719 
33.742 170.672 33.633 170.672 33.273 c 170.672 31.727 l 170.672 31.305 170.625
 31.086 170.5 30.883 c 170.328 30.602 169.984 30.445 169.516 30.445 c 168.766
 30.445 168.188 30.836 168.188 31.352 c 168.188 31.523 168.328 31.68 168.516
 31.68 c 168.719 31.68 168.875 31.523 168.875 31.352 c 168.875 31.32 168.875
 31.273 168.859 31.227 c 168.844 31.148 168.844 31.086 168.844 31.039 c 
168.844 30.82 169.094 30.648 169.422 30.648 c 169.812 30.648 170.016 30.867
 170.016 31.305 c 170.016 31.789 l 168.797 32.273 168.656 32.352 168.312
 32.648 c 168.141 32.805 168.031 33.086 168.031 33.352 c 168.031 33.852 
168.375 34.195 168.859 34.195 c 169.219 34.195 169.547 34.023 170.031 33.617
 c 170.062 34.039 170.219 34.195 170.547 34.195 c 170.812 34.195 170.984
 34.102 171.25 33.805 c h
170.016 33.133 m 170.016 33.383 169.984 33.461 169.812 33.555 c 169.609
 33.664 169.406 33.742 169.234 33.742 c 168.953 33.742 168.734 33.461 168.734
 33.117 c 168.734 33.086 l 168.734 32.617 169.094 32.305 170.016 31.977 
c h
170.016 33.133 m f
171.355 34.117 m 173.043 34.117 l 173.043 33.992 l 172.652 33.977 172.527
 33.867 172.527 33.586 c 172.527 31.352 l 172.902 30.992 173.074 30.883 
173.34 30.883 c 173.73 30.883 173.918 31.133 173.918 31.664 c 173.918 33.336
 l 173.902 33.852 173.809 33.977 173.418 33.992 c 173.418 34.117 l 175.074
 34.117 l 175.074 33.992 l 174.684 33.961 174.605 33.867 174.59 33.477 c
 174.59 31.648 l 174.59 30.898 174.246 30.445 173.652 30.445 c 173.293 30.445
 173.043 30.586 172.496 31.102 c 172.496 30.461 l 172.449 30.445 l 172.027
 30.602 171.762 30.695 171.34 30.805 c 171.34 30.945 l 171.402 30.914 171.465
 30.914 171.559 30.914 c 171.777 30.914 171.855 31.039 171.855 31.43 c 171.855
 33.398 l 171.84 33.867 171.762 33.977 171.355 33.992 c h
171.355 34.117 m f
179.082 33.648 m 178.988 33.664 178.941 33.664 178.91 33.664 c 178.629 
33.664 178.551 33.57 178.551 33.211 c 178.551 28.695 l 178.52 28.68 l 178.145
 28.805 177.863 28.883 177.348 29.023 c 177.348 29.148 l 177.41 29.148 177.441
 29.148 177.52 29.148 c 177.816 29.148 177.879 29.227 177.879 29.555 c 177.879
 30.789 l 177.582 30.539 177.363 30.445 177.051 30.445 c 176.129 30.445 
175.395 31.352 175.395 32.477 c 175.395 33.508 175.988 34.195 176.863 34.195
 c 177.316 34.195 177.613 34.039 177.879 33.664 c 177.879 34.18 l 177.91
 34.195 l 179.082 33.789 l h
177.879 33.305 m 177.879 33.367 177.832 33.461 177.754 33.539 c 177.613
 33.695 177.41 33.789 177.176 33.789 c 176.504 33.789 176.082 33.148 176.082
 32.164 c 176.082 31.258 176.473 30.68 177.066 30.68 c 177.504 30.68 177.879
 31.055 177.879 31.477 c h
177.879 33.305 m f
182.652 33.586 m 182.527 33.695 182.434 33.742 182.309 33.742 c 182.121
 33.742 182.074 33.633 182.074 33.273 c 182.074 31.727 l 182.074 31.305 
182.027 31.086 181.902 30.883 c 181.73 30.602 181.387 30.445 180.918 30.445
 c 180.168 30.445 179.59 30.836 179.59 31.352 c 179.59 31.523 179.73 31.68
 179.918 31.68 c 180.121 31.68 180.277 31.523 180.277 31.352 c 180.277 31.32
 180.277 31.273 180.262 31.227 c 180.246 31.148 180.246 31.086 180.246 31.039
 c 180.246 30.82 180.496 30.648 180.824 30.648 c 181.215 30.648 181.418 
30.867 181.418 31.305 c 181.418 31.789 l 180.199 32.273 180.059 32.352 179.715
 32.648 c 179.543 32.805 179.434 33.086 179.434 33.352 c 179.434 33.852 
179.777 34.195 180.262 34.195 c 180.621 34.195 180.949 34.023 181.434 33.617
 c 181.465 34.039 181.621 34.195 181.949 34.195 c 182.215 34.195 182.387
 34.102 182.652 33.805 c h
181.418 33.133 m 181.418 33.383 181.387 33.461 181.215 33.555 c 181.012
 33.664 180.809 33.742 180.637 33.742 c 180.355 33.742 180.137 33.461 180.137
 33.117 c 180.137 33.086 l 180.137 32.617 180.496 32.305 181.418 31.977 
c h
181.418 33.133 m f
182.66 34.117 m 184.566 34.117 l 184.566 33.992 l 184.035 33.977 183.91
 33.867 183.895 33.398 c 183.895 31.602 l 183.895 31.352 184.223 30.961 
184.441 30.961 c 184.488 30.961 184.566 30.992 184.66 31.07 c 184.77 31.195
 184.863 31.227 184.973 31.227 c 185.16 31.227 185.285 31.102 185.285 30.867
 c 185.285 30.617 185.113 30.445 184.848 30.445 c 184.504 30.445 184.285
 30.633 183.895 31.195 c 183.895 30.461 l 183.848 30.445 l 183.395 30.633
 183.113 30.742 182.676 30.883 c 182.676 31.008 l 182.785 30.992 182.848
 30.977 182.941 30.977 c 183.145 30.977 183.223 31.102 183.223 31.461 c 
183.223 33.445 l 183.207 33.867 183.16 33.914 182.66 33.992 c h
182.66 34.117 m f
189.16 33.648 m 189.066 33.664 189.02 33.664 188.988 33.664 c 188.707 33.664
 188.629 33.57 188.629 33.211 c 188.629 28.695 l 188.598 28.68 l 188.223
 28.805 187.941 28.883 187.426 29.023 c 187.426 29.148 l 187.488 29.148 
187.52 29.148 187.598 29.148 c 187.895 29.148 187.957 29.227 187.957 29.555
 c 187.957 30.789 l 187.66 30.539 187.441 30.445 187.129 30.445 c 186.207
 30.445 185.473 31.352 185.473 32.477 c 185.473 33.508 186.066 34.195 186.941
 34.195 c 187.395 34.195 187.691 34.039 187.957 33.664 c 187.957 34.18 l
 187.988 34.195 l 189.16 33.789 l h
187.957 33.305 m 187.957 33.367 187.91 33.461 187.832 33.539 c 187.691 
33.695 187.488 33.789 187.254 33.789 c 186.582 33.789 186.16 33.148 186.16
 32.164 c 186.16 31.258 186.551 30.68 187.145 30.68 c 187.582 30.68 187.957
 31.055 187.957 31.477 c h
187.957 33.305 m f
149.754 39.195 m 149.707 39.18 l 149.395 39.289 149.176 39.352 148.785 
39.461 c 148.566 39.523 l 148.566 39.648 l 148.613 39.648 148.629 39.648
 148.691 39.648 c 149.02 39.648 149.082 39.711 149.082 40.055 c 149.082 
44.18 l 149.082 44.43 149.754 44.695 150.395 44.695 c 151.457 44.695 152.27
 43.82 152.27 42.68 c 152.27 41.695 151.66 40.945 150.863 40.945 c 150.379
 40.945 149.91 41.227 149.754 41.633 c h
149.754 42.055 m 149.754 41.742 150.129 41.461 150.551 41.461 c 150.77 
41.461 150.973 41.539 151.129 41.68 c 151.395 41.93 151.566 42.477 151.566
 43.055 c 151.566 43.93 151.176 44.445 150.52 44.445 c 150.113 44.445 149.754
 44.273 149.754 44.055 c h
149.754 42.055 m f
154.48 40.945 m 153.449 40.945 152.73 41.711 152.73 42.82 c 152.73 43.898
 153.465 44.695 154.465 44.695 c 155.48 44.695 156.246 43.867 156.246 42.758
 c 156.246 41.695 155.512 40.945 154.48 40.945 c h
154.387 41.18 m 155.059 41.18 155.527 41.945 155.527 43.039 c 155.527 43.945
 155.168 44.477 154.574 44.477 c 154.262 44.477 153.965 44.289 153.793 43.961
 c 153.574 43.555 153.449 42.992 153.449 42.43 c 153.449 41.664 153.809 
41.18 154.387 41.18 c h
154.387 41.18 m f
156.578 44.617 m 158.469 44.617 l 158.469 44.492 l 157.938 44.461 157.891
 44.383 157.875 43.805 c 157.875 40.977 l 157.844 40.945 l 156.609 41.383
 l 156.609 41.508 l 156.672 41.508 l 156.766 41.492 156.875 41.477 156.953
 41.477 c 157.141 41.477 157.203 41.602 157.203 41.961 c 157.203 43.805 
l 157.188 44.398 157.125 44.477 156.578 44.492 c h
157.469 39.18 m 157.266 39.18 157.078 39.352 157.078 39.586 c 157.078 39.805
 157.25 39.992 157.469 39.992 c 157.719 39.992 157.891 39.805 157.891 39.586
 c 157.891 39.352 157.703 39.18 157.469 39.18 c h
157.469 39.18 m f
158.785 44.617 m 160.66 44.617 l 160.66 44.492 l 160.16 44.477 160.066 
44.398 160.066 43.945 c 160.066 39.195 l 160.035 39.18 l 159.629 39.305 
159.332 39.383 158.77 39.523 c 158.77 39.648 l 158.816 39.648 l 158.895 
39.648 158.988 39.633 159.066 39.633 c 159.316 39.633 159.395 39.742 159.395
 40.117 c 159.395 43.93 l 159.379 44.352 159.27 44.461 158.785 44.492 c 
h
158.785 44.617 m f
160.898 44.617 m 162.789 44.617 l 162.789 44.492 l 162.258 44.461 162.211
 44.383 162.195 43.805 c 162.195 40.977 l 162.164 40.945 l 160.93 41.383
 l 160.93 41.508 l 160.992 41.508 l 161.086 41.492 161.195 41.477 161.273
 41.477 c 161.461 41.477 161.523 41.602 161.523 41.961 c 161.523 43.805 
l 161.508 44.398 161.445 44.477 160.898 44.492 c h
161.789 39.18 m 161.586 39.18 161.398 39.352 161.398 39.586 c 161.398 39.805
 161.57 39.992 161.789 39.992 c 162.039 39.992 162.211 39.805 162.211 39.586
 c 162.211 39.352 162.023 39.18 161.789 39.18 c h
161.789 39.18 m f
163.074 44.617 m 164.762 44.617 l 164.762 44.492 l 164.371 44.477 164.246
 44.367 164.246 44.086 c 164.246 41.852 l 164.621 41.492 164.793 41.383 
165.059 41.383 c 165.449 41.383 165.637 41.633 165.637 42.164 c 165.637 
43.836 l 165.621 44.352 165.527 44.477 165.137 44.492 c 165.137 44.617 l
 166.793 44.617 l 166.793 44.492 l 166.402 44.461 166.324 44.367 166.309
 43.977 c 166.309 42.148 l 166.309 41.398 165.965 40.945 165.371 40.945 
c 165.012 40.945 164.762 41.086 164.215 41.602 c 164.215 40.961 l 164.168
 40.945 l 163.746 41.102 163.48 41.195 163.059 41.305 c 163.059 41.445 l
 163.121 41.414 163.184 41.414 163.277 41.414 c 163.496 41.414 163.574 41.539
 163.574 41.93 c 163.574 43.898 l 163.559 44.367 163.48 44.477 163.074 44.492
 c h
163.074 44.617 m f
170.645 41.523 m 170.645 41.211 l 170.02 41.211 l 169.863 41.211 169.754
 41.195 169.582 41.133 c 169.41 41.07 l 169.207 40.992 168.988 40.945 168.77
 40.945 c 168.035 40.945 167.441 41.523 167.441 42.258 c 167.441 42.758 
167.645 43.055 168.191 43.32 c 167.973 43.508 l 167.816 43.664 167.723 43.758
 167.691 43.789 c 167.52 43.961 167.473 44.055 167.473 44.18 c 167.473 44.367
 167.566 44.445 167.895 44.602 c 167.332 45.023 167.113 45.289 167.113 45.586
 c 167.113 46.008 167.738 46.352 168.504 46.352 c 169.098 46.352 169.723
 46.148 170.129 45.805 c 170.426 45.57 170.566 45.305 170.566 45.008 c 170.566
 44.508 170.191 44.18 169.598 44.148 c 168.582 44.102 l 168.145 44.086 167.957
 44.023 167.957 43.898 c 167.957 43.727 168.223 43.461 168.426 43.383 c 
168.723 43.414 168.863 43.43 168.879 43.43 c 169.176 43.43 169.504 43.305
 169.754 43.102 c 170.004 42.867 170.129 42.586 170.129 42.195 c 170.129
 41.961 170.098 41.773 169.973 41.523 c h
168.066 44.633 m 168.332 44.695 168.957 44.742 169.363 44.742 c 170.082
 44.742 170.348 44.836 170.348 45.133 c 170.348 45.586 169.738 45.898 168.832
 45.898 c 168.129 45.898 167.676 45.664 167.676 45.32 c 167.676 45.133 167.754
 45.008 168.066 44.633 c h
168.113 41.93 m 168.113 41.461 168.332 41.18 168.691 41.18 c 168.941 41.18
 169.145 41.305 169.27 41.555 c 169.426 41.836 169.52 42.18 169.52 42.508
 c 169.52 42.945 169.301 43.227 168.926 43.227 c 168.426 43.227 168.113 
42.711 168.113 41.945 c h
168.113 41.93 m f
173.184 46.352 m 175.105 46.352 l 175.105 46.195 l 174.512 46.195 174.418
 46.117 174.402 45.602 c 174.402 44.352 l 174.684 44.617 174.871 44.695 
175.215 44.695 c 176.152 44.695 176.887 43.805 176.887 42.648 c 176.887 
41.664 176.324 40.945 175.559 40.945 c 175.105 40.945 174.762 41.148 174.402
 41.586 c 174.402 40.961 l 174.355 40.945 l 173.918 41.117 173.652 41.227
 173.215 41.352 c 173.215 41.492 l 173.277 41.477 173.324 41.477 173.402
 41.477 c 173.684 41.477 173.73 41.555 173.73 41.93 c 173.73 45.664 l 173.73
 46.086 173.652 46.164 173.184 46.211 c h
174.402 41.961 m 174.402 41.711 174.855 41.43 175.215 41.43 c 175.809 41.43
 176.199 42.039 176.199 42.961 c 176.199 43.852 175.809 44.445 175.23 44.445
 c 174.855 44.445 174.402 44.148 174.402 43.914 c h
174.402 41.961 m f
179.078 40.945 m 178.047 40.945 177.328 41.711 177.328 42.82 c 177.328 
43.898 178.062 44.695 179.062 44.695 c 180.078 44.695 180.844 43.867 180.844
 42.758 c 180.844 41.695 180.109 40.945 179.078 40.945 c h
178.984 41.18 m 179.656 41.18 180.125 41.945 180.125 43.039 c 180.125 43.945
 179.766 44.477 179.172 44.477 c 178.859 44.477 178.562 44.289 178.391 43.961
 c 178.172 43.555 178.047 42.992 178.047 42.43 c 178.047 41.664 178.406 
41.18 178.984 41.18 c h
178.984 41.18 m f
181.18 44.617 m 183.07 44.617 l 183.07 44.492 l 182.539 44.461 182.492 
44.383 182.477 43.805 c 182.477 40.977 l 182.445 40.945 l 181.211 41.383
 l 181.211 41.508 l 181.273 41.508 l 181.367 41.492 181.477 41.477 181.555
 41.477 c 181.742 41.477 181.805 41.602 181.805 41.961 c 181.805 43.805 
l 181.789 44.398 181.727 44.477 181.18 44.492 c h
182.07 39.18 m 181.867 39.18 181.68 39.352 181.68 39.586 c 181.68 39.805
 181.852 39.992 182.07 39.992 c 182.32 39.992 182.492 39.805 182.492 39.586
 c 182.492 39.352 182.305 39.18 182.07 39.18 c h
182.07 39.18 m f
183.355 44.617 m 185.043 44.617 l 185.043 44.492 l 184.652 44.477 184.527
 44.367 184.527 44.086 c 184.527 41.852 l 184.902 41.492 185.074 41.383 
185.34 41.383 c 185.73 41.383 185.918 41.633 185.918 42.164 c 185.918 43.836
 l 185.902 44.352 185.809 44.477 185.418 44.492 c 185.418 44.617 l 187.074
 44.617 l 187.074 44.492 l 186.684 44.461 186.605 44.367 186.59 43.977 c
 186.59 42.148 l 186.59 41.398 186.246 40.945 185.652 40.945 c 185.293 40.945
 185.043 41.086 184.496 41.602 c 184.496 40.961 l 184.449 40.945 l 184.027
 41.102 183.762 41.195 183.34 41.305 c 183.34 41.445 l 183.402 41.414 183.465
 41.414 183.559 41.414 c 183.777 41.414 183.855 41.539 183.855 41.93 c 183.855
 43.898 l 183.84 44.367 183.762 44.477 183.355 44.492 c h
183.355 44.617 m f
189.207 41.039 m 188.41 41.039 l 188.41 40.102 l 188.41 40.023 188.395 
40.008 188.348 40.008 c 187.879 40.68 187.645 40.945 187.41 41.086 c 187.332
 41.133 187.285 41.18 187.285 41.227 c 187.285 41.258 187.285 41.273 187.316
 41.289 c 187.738 41.289 l 187.738 43.68 l 187.738 44.352 187.973 44.695
 188.441 44.695 c 188.832 44.695 189.129 44.508 189.395 44.086 c 189.301
 44.008 l 189.113 44.211 188.988 44.289 188.816 44.289 c 188.52 44.289 188.41
 44.07 188.41 43.57 c 188.41 41.289 l 189.207 41.289 l h
189.207 41.039 m f
197.883 32.426 m 200.789 31.387 l 197.883 30.348 l 199.059 31.387 l f
q 1 0 0 -1 0 0 cm
199.059 -31.375 m 192.277 -31.41 l S Q
Q Q
showpage
%%Trailer
end
%%EOF
