%!PS-Adobe-3.0 EPSF-3.0
%%Creator: cairo 1.17.4 (https://cairographics.org)
%%CreationDate: Thu Feb 24 10:48:15 2022
%%Pages: 1
%%DocumentData: Clean7Bit
%%LanguageLevel: 2
%%BoundingBox: 0 0 181 128
%%EndComments
%%BeginProlog
50 dict begin
/q { gsave } bind def
/Q { grestore } bind def
/cm { 6 array astore concat } bind def
/w { setlinewidth } bind def
/J { setlinecap } bind def
/j { setlinejoin } bind def
/M { setmiterlimit } bind def
/d { setdash } bind def
/m { moveto } bind def
/l { lineto } bind def
/c { curveto } bind def
/h { closepath } bind def
/re { exch dup neg 3 1 roll 5 3 roll moveto 0 rlineto
      0 exch rlineto 0 rlineto closepath } bind def
/S { stroke } bind def
/f { fill } bind def
/f* { eofill } bind def
/n { newpath } bind def
/W { clip } bind def
/W* { eoclip } bind def
/BT { } bind def
/ET { } bind def
/BDC { mark 3 1 roll /BDC pdfmark } bind def
/EMC { mark /EMC pdfmark } bind def
/cairo_store_point { /cairo_point_y exch def /cairo_point_x exch def } def
/Tj { show currentpoint cairo_store_point } bind def
/TJ {
  {
    dup
    type /stringtype eq
    { show } { -0.001 mul 0 cairo_font_matrix dtransform rmoveto } ifelse
  } forall
  currentpoint cairo_store_point
} bind def
/cairo_selectfont { cairo_font_matrix aload pop pop pop 0 0 6 array astore
    cairo_font exch selectfont cairo_point_x cairo_point_y moveto } bind def
/Tf { pop /cairo_font exch def /cairo_font_matrix where
      { pop cairo_selectfont } if } bind def
/Td { matrix translate cairo_font_matrix matrix concatmatrix dup
      /cairo_font_matrix exch def dup 4 get exch 5 get cairo_store_point
      /cairo_font where { pop cairo_selectfont } if } bind def
/Tm { 2 copy 8 2 roll 6 array astore /cairo_font_matrix exch def
      cairo_store_point /cairo_font where { pop cairo_selectfont } if } bind def
/g { setgray } bind def
/rg { setrgbcolor } bind def
/d1 { setcachedevice } bind def
/cairo_data_source {
  CairoDataIndex CairoData length lt
    { CairoData CairoDataIndex get /CairoDataIndex CairoDataIndex 1 add def }
    { () } ifelse
} def
/cairo_flush_ascii85_file { cairo_ascii85_file status { cairo_ascii85_file flushfile } if } def
/cairo_image { image cairo_flush_ascii85_file } def
/cairo_imagemask { imagemask cairo_flush_ascii85_file } def
%%EndProlog
%%BeginSetup
%%EndSetup
%%Page: 1 1
%%BeginPageSetup
%%PageBoundingBox: 0 0 181 128
%%EndPageSetup
q 0 0 181 128 rectclip
1 0 0 -1 0 128 cm q
0 g
0.567042 w
0 J
0 j
[] 0.0 d
10 M q 1 0 0 -1 0 0 cm
10.566 -0.566 m 10.566 -113.945 l 180.656 -113.945 l S Q
1.13366 w
q 1 0 0 -1 0 0 cm
26.156 -85.605 m 72.453 27.781 118.75 27.781 165.047 -85.605 c S Q
0.850361 w
q 1 0 0 -1 0 0 cm
38.918 -57.258 m 44.449 -57.258 l 47.215 -57.258 m 52.746 -57.258 l 55.512
 -57.258 m 61.043 -57.258 l 63.809 -57.258 m 69.34 -57.258 l 72.105 -57.258
 m 77.637 -57.258 l 80.402 -57.258 m 85.93 -57.258 l 88.695 -57.258 m 94.227
 -57.258 l 96.992 -57.258 m 102.523 -57.258 l 105.289 -57.258 m 110.82 -57.258
 l 113.586 -57.258 m 119.117 -57.258 l 121.883 -57.258 m 127.414 -57.258
 l 130.18 -57.258 m 135.711 -57.258 l 138.477 -57.258 m 144.008 -57.258 
l 146.773 -57.258 m 152.301 -57.258 l S Q
40.777 57.301 m 40.777 56.281 39.949 55.453 38.93 55.453 c 37.91 55.453
 37.082 56.281 37.082 57.301 c 37.082 58.32 37.91 59.148 38.93 59.148 c 
39.949 59.148 40.777 58.32 40.777 57.301 c f
116.379 57.301 m 116.379 56.281 115.551 55.453 114.531 55.453 c 113.512
 55.453 112.684 56.281 112.684 57.301 c 112.684 58.32 113.512 59.148 114.531
 59.148 c 115.551 59.148 116.379 58.32 116.379 57.301 c f
154.18 57.301 m 154.18 56.281 153.352 55.453 152.332 55.453 c 151.312 55.453
 150.484 56.281 150.484 57.301 c 150.484 58.32 151.312 59.148 152.332 59.148
 c 153.352 59.148 154.18 58.32 154.18 57.301 c f
43.414 68.008 m 43.008 67.977 42.93 67.898 42.617 67.227 c 40.383 62.133
 l 40.195 62.133 l 38.336 66.539 l 37.758 67.852 37.648 67.992 37.227 68.008
 c 37.227 68.18 l 38.992 68.18 l 38.992 68.008 l 38.57 68.008 38.383 67.898
 38.383 67.648 c 38.383 67.539 38.414 67.414 38.461 67.289 c 38.867 66.242
 l 41.227 66.242 l 41.586 67.102 l 41.695 67.352 41.758 67.586 41.758 67.711
 c 41.758 67.93 41.602 68.008 41.133 68.008 c 41.133 68.18 l 43.414 68.18
 l h
39.023 65.867 m 40.055 63.414 l 41.102 65.867 l h
39.023 65.867 m f
116.004 62.234 m 115.816 62.234 l 115.77 62.438 115.676 62.531 115.52 62.531
 c 115.426 62.531 115.285 62.5 115.129 62.438 c 114.801 62.312 114.457 62.234
 114.16 62.234 c 113.785 62.234 113.395 62.391 113.098 62.641 c 112.785 
62.922 112.629 63.297 112.629 63.766 c 112.629 64.484 113.02 64.984 114.02
 65.516 c 114.676 65.859 115.129 66.219 115.363 66.562 c 115.441 66.688 
115.488 66.875 115.488 67.094 c 115.488 67.688 115.035 68.094 114.379 68.094
 c 113.582 68.094 113.02 67.609 112.566 66.516 c 112.363 66.516 l 112.629
 68.406 l 112.832 68.406 l 112.848 68.25 112.941 68.125 113.082 68.125 c
 113.176 68.125 113.332 68.156 113.504 68.219 c 113.848 68.344 114.207 68.422
 114.566 68.422 c 115.598 68.422 116.395 67.719 116.395 66.781 c 116.395
 66.047 115.895 65.469 114.707 64.828 c 113.77 64.312 113.395 63.922 113.395
 63.422 c 113.395 62.938 113.77 62.609 114.332 62.609 c 114.738 62.609 115.113
 62.766 115.426 63.094 c 115.707 63.375 115.832 63.609 115.973 64.141 c 
116.191 64.141 l h
116.004 62.234 m f
148.031 62.414 m 148.781 62.461 148.875 62.555 148.891 63.227 c 148.891
 67.195 l 148.875 67.867 148.766 67.977 148.031 68.008 c 148.031 68.18 l
 151.016 68.18 l 151.719 68.18 152.359 67.992 152.688 67.68 c 153.016 67.398
 153.188 66.992 153.188 66.57 c 153.188 66.164 153.047 65.805 152.75 65.555
 c 152.484 65.305 152.25 65.195 151.656 65.055 c 152.125 64.945 152.312 
64.852 152.531 64.664 c 152.75 64.461 152.891 64.148 152.891 63.773 c 152.891
 62.758 152.078 62.242 150.531 62.242 c 148.031 62.242 l h
149.797 65.258 m 150.672 65.258 151.078 65.305 151.406 65.445 c 151.922
 65.648 152.156 66.023 152.156 66.57 c 152.156 67.055 151.969 67.414 151.609
 67.617 c 151.328 67.773 150.953 67.852 150.375 67.852 c 149.922 67.852 
149.797 67.773 149.797 67.477 c h
149.797 64.898 m 149.797 62.836 l 149.812 62.648 149.844 62.586 150 62.586
 c 150.391 62.57 l 151.391 62.555 151.969 63.008 151.969 63.805 c 151.969
 64.508 151.516 64.883 150.656 64.898 c h
149.797 64.898 m f
4.953 55.418 m 4.953 54.715 4.641 54.246 3.969 54.246 c 3.375 54.246 2.922
 54.668 2.516 55.23 c 2.828 54.246 l 2.828 54.246 1.625 54.48 1.359 54.496
 c 1.359 54.652 l 1.688 54.652 1.953 54.621 1.953 54.98 c 1.953 55.152 1.844
 55.543 1.781 55.762 c 0.719 59.496 l 0.625 59.84 0.469 60.09 0.031 60.09
 c 0 60.246 l 1.969 60.246 l 2 60.09 l 1.656 60.09 1.359 60.074 1.359 59.824
 c 1.359 59.746 1.375 59.652 1.422 59.48 c 1.734 58.23 l 1.906 58.371 2.172
 58.449 2.391 58.449 c 3.469 58.449 4.953 56.918 4.953 55.418 c h
4.188 55.512 m 4.188 56.684 3.203 58.246 2.359 58.246 c 2.156 58.246 1.969
 58.168 1.797 57.996 c 2 57.199 2.547 54.668 3.703 54.668 c 4.188 54.668
 4.188 55.309 4.188 55.512 c h
4.188 55.512 m f
94.051 119.445 m 94.051 119.305 l 92.332 119.305 l 92.332 119.445 l 92.52
 119.445 92.832 119.523 92.832 119.773 c 92.832 119.992 92.613 120.352 92.488
 120.539 c 90.098 124.055 l 89.926 120.133 l 89.895 119.57 90.207 119.445
 90.691 119.445 c 90.691 119.305 l 88.379 119.305 l 88.379 119.445 l 88.988
 119.445 89.035 119.727 89.113 120.461 c 89.316 125.492 l 89.473 125.492
 l 93.098 120.164 l 93.27 119.945 93.66 119.445 94.051 119.445 c h
94.051 119.445 m f
97.707 118.914 m 97.27 118.914 l 94.16 127.273 l 94.613 127.273 l h
97.707 118.914 m f
102.906 124.43 m 102.781 124.336 l 102.609 124.57 102.266 125.008 102.078
 125.008 c 102.016 125.008 101.969 124.961 101.969 124.852 c 101.969 124.758
 102.031 124.539 102.078 124.367 c 102.078 124.367 102.609 122.414 102.625
 122.367 c 102.672 122.18 102.703 121.992 102.703 121.867 c 102.703 121.414
 102.422 121.258 102.203 121.258 c 101.359 121.258 100.328 122.852 100.109
 123.258 c 100.641 121.258 l 100.641 121.258 99.422 121.492 99.156 121.508
 c 99.156 121.664 l 99.484 121.664 99.75 121.633 99.75 121.992 c 99.75 122.164
 99.672 122.445 99.594 122.727 c 99.594 122.727 98.875 125.117 98.828 125.352
 c 99.516 125.352 l 99.672 124.758 l 100.188 122.82 101.438 121.758 101.781
 121.758 c 101.922 121.758 102 121.852 102 121.992 c 102 122.086 101.906
 122.492 101.828 122.82 c 101.453 124.164 l 101.359 124.492 101.281 124.898
 101.281 125.039 c 101.281 125.273 101.406 125.461 101.625 125.461 c 102.078
 125.461 102.547 124.945 102.906 124.43 c h
102.906 124.43 m f
23.723 37.582 m 25.848 37.582 l 25.848 37.441 l 25.27 37.426 25.176 37.332
 25.16 36.832 c 25.16 31.473 l 25.129 31.457 l 24.676 31.598 24.348 31.691
 23.707 31.848 c 23.707 31.988 l 23.754 31.988 l 23.863 31.988 23.973 31.973
 24.035 31.973 c 24.332 31.973 24.41 32.098 24.41 32.52 c 24.41 36.801 l
 24.41 37.285 24.285 37.41 23.723 37.441 c h
23.723 37.582 m f
87.508 36.621 m 89.633 36.621 l 89.633 36.48 l 89.055 36.465 88.961 36.371
 88.945 35.871 c 88.945 30.512 l 88.914 30.496 l 88.461 30.637 88.133 30.73
 87.492 30.887 c 87.492 31.027 l 87.539 31.027 l 87.648 31.027 87.758 31.012
 87.82 31.012 c 88.117 31.012 88.195 31.137 88.195 31.559 c 88.195 35.84
 l 88.195 36.324 88.07 36.449 87.508 36.48 c h
87.508 36.621 m f
94.355 34.059 m 92.387 34.059 l 92.387 34.652 l 94.355 34.652 l 94.355 
36.621 l 94.949 36.621 l 94.949 34.652 l 96.918 34.652 l 96.918 34.059 l
 94.949 34.059 l 94.949 32.09 l 94.355 32.09 l h
94.355 34.059 m f
103.66 33.137 m 103.66 32.793 l 102.973 32.793 l 102.785 32.793 102.645
 32.762 102.473 32.699 c 102.27 32.637 l 102.035 32.543 101.785 32.496 101.551
 32.496 c 100.723 32.496 100.066 33.137 100.066 33.965 c 100.066 34.527 
100.301 34.855 100.895 35.152 c 100.66 35.371 l 100.473 35.559 100.363 35.652
 100.332 35.684 c 100.145 35.887 100.098 35.98 100.098 36.137 c 100.098 
36.34 100.191 36.434 100.566 36.605 c 99.926 37.074 99.691 37.371 99.691
 37.699 c 99.691 38.184 100.379 38.574 101.238 38.574 c 101.91 38.574 102.613
 38.34 103.082 37.965 c 103.426 37.684 103.582 37.402 103.582 37.059 c 103.582
 36.512 103.16 36.137 102.488 36.105 c 101.332 36.043 l 100.848 36.027 100.629
 35.949 100.629 35.809 c 100.629 35.621 100.926 35.309 101.176 35.246 c 
101.488 35.262 101.66 35.277 101.691 35.277 c 102.02 35.277 102.379 35.152
 102.645 34.902 c 102.941 34.652 103.082 34.34 103.082 33.902 c 103.082 
33.637 103.035 33.434 102.91 33.137 c h
100.754 36.637 m 101.066 36.699 101.77 36.762 102.223 36.762 c 103.035 
36.762 103.332 36.871 103.332 37.199 c 103.332 37.715 102.645 38.059 101.629
 38.059 c 100.832 38.059 100.316 37.809 100.316 37.418 c 100.316 37.199 
100.395 37.074 100.754 36.637 c h
100.801 33.59 m 100.801 33.059 101.051 32.746 101.473 32.746 c 101.754 
32.746 101.973 32.902 102.129 33.168 c 102.301 33.48 102.395 33.887 102.395
 34.246 c 102.395 34.746 102.145 35.059 101.723 35.059 c 101.176 35.059 
100.801 34.48 100.801 33.621 c h
100.801 33.59 m f
168.406 32.176 m 168.406 31.832 l 167.719 31.832 l 167.531 31.832 167.391
 31.801 167.219 31.738 c 167.016 31.676 l 166.781 31.582 166.531 31.535 
166.297 31.535 c 165.469 31.535 164.812 32.176 164.812 33.004 c 164.812 
33.566 165.047 33.895 165.641 34.191 c 165.406 34.41 l 165.219 34.598 165.109
 34.691 165.078 34.723 c 164.891 34.926 164.844 35.02 164.844 35.176 c 164.844
 35.379 164.938 35.473 165.312 35.645 c 164.672 36.113 164.438 36.41 164.438
 36.738 c 164.438 37.223 165.125 37.613 165.984 37.613 c 166.656 37.613 
167.359 37.379 167.828 37.004 c 168.172 36.723 168.328 36.441 168.328 36.098
 c 168.328 35.551 167.906 35.176 167.234 35.145 c 166.078 35.082 l 165.594
 35.066 165.375 34.988 165.375 34.848 c 165.375 34.66 165.672 34.348 165.922
 34.285 c 166.234 34.301 166.406 34.316 166.438 34.316 c 166.766 34.316 
167.125 34.191 167.391 33.941 c 167.688 33.691 167.828 33.379 167.828 32.941
 c 167.828 32.676 167.781 32.473 167.656 32.176 c h
165.5 35.676 m 165.812 35.738 166.516 35.801 166.969 35.801 c 167.781 35.801
 168.078 35.91 168.078 36.238 c 168.078 36.754 167.391 37.098 166.375 37.098
 c 165.578 37.098 165.062 36.848 165.062 36.457 c 165.062 36.238 165.141
 36.113 165.5 35.676 c h
165.547 32.629 m 165.547 32.098 165.797 31.785 166.219 31.785 c 166.5 31.785
 166.719 31.941 166.875 32.207 c 167.047 32.52 167.141 32.926 167.141 33.285
 c 167.141 33.785 166.891 34.098 166.469 34.098 c 165.922 34.098 165.547
 33.52 165.547 32.66 c h
165.547 32.629 m f
78.109 50.516 m 77.922 50.516 l 77.453 51.594 76.906 51.891 75.953 51.891
 c 75.078 51.891 l 74.828 51.891 74.422 51.906 74.422 51.5 c 74.422 51.406
 74.5 51.094 74.531 50.969 c 75.578 47.219 l 75.75 46.562 76.031 46.312 
76.438 46.312 c 76.469 46.172 l 74.172 46.172 l 74.156 46.312 l 74.438 46.312
 74.828 46.344 74.828 46.75 c 74.828 46.875 74.797 47.016 74.703 47.344 
c 73.641 51.172 l 73.391 52.078 73.047 52.062 72.719 52.062 c 72.703 52.219
 l 77.547 52.219 l h
78.109 50.516 m f
78.887 48.977 m 80.543 48.977 l 80.543 48.867 l 80.105 48.852 80.027 48.789
 80.012 48.398 c 80.012 44.227 l 79.98 44.211 l 79.637 44.336 79.371 44.398
 78.871 44.523 c 78.871 44.633 l 78.918 44.633 l 78.996 44.633 79.074 44.617
 79.137 44.617 c 79.355 44.617 79.434 44.711 79.434 45.039 c 79.434 48.367
 l 79.418 48.742 79.324 48.852 78.887 48.867 c h
78.887 48.977 m f
133.965 50.516 m 133.777 50.516 l 133.309 51.594 132.762 51.891 131.809
 51.891 c 130.934 51.891 l 130.684 51.891 130.277 51.906 130.277 51.5 c 
130.277 51.406 130.355 51.094 130.387 50.969 c 131.434 47.219 l 131.605 
46.562 131.887 46.312 132.293 46.312 c 132.324 46.172 l 130.027 46.172 l
 130.012 46.312 l 130.293 46.312 130.684 46.344 130.684 46.75 c 130.684 
46.875 130.652 47.016 130.559 47.344 c 129.496 51.172 l 129.246 52.078 128.902
 52.062 128.574 52.062 c 128.559 52.219 l 133.402 52.219 l h
133.965 50.516 m f
137.883 46.273 m 137.883 46.008 l 137.336 46.008 l 137.195 46.008 137.102
 45.977 136.961 45.93 c 136.805 45.883 l 136.617 45.805 136.43 45.773 136.242
 45.773 c 135.602 45.773 135.086 46.273 135.086 46.914 c 135.086 47.352 
135.258 47.617 135.727 47.836 c 135.555 48.008 l 135.398 48.148 135.32 48.227
 135.305 48.258 c 135.148 48.398 135.117 48.477 135.117 48.602 c 135.117
 48.758 135.18 48.836 135.477 48.977 c 134.977 49.336 134.789 49.555 134.789
 49.82 c 134.789 50.195 135.336 50.492 136.008 50.492 c 136.523 50.492 137.07
 50.32 137.43 50.023 c 137.695 49.805 137.82 49.586 137.82 49.32 c 137.82
 48.883 137.492 48.602 136.977 48.57 c 136.07 48.523 l 135.695 48.523 135.523
 48.461 135.523 48.336 c 135.523 48.195 135.758 47.961 135.945 47.898 c 
136.195 47.93 136.336 47.945 136.336 47.945 c 136.602 47.945 136.883 47.836
 137.102 47.648 c 137.32 47.445 137.43 47.211 137.43 46.852 c 137.43 46.648
 137.398 46.492 137.305 46.273 c h
135.633 48.992 m 135.867 49.039 136.414 49.086 136.758 49.086 c 137.383
 49.086 137.617 49.164 137.617 49.43 c 137.617 49.82 137.086 50.102 136.305
 50.102 c 135.68 50.102 135.289 49.898 135.289 49.586 c 135.289 49.43 135.352
 49.32 135.633 48.992 c h
135.664 46.617 m 135.664 46.211 135.852 45.961 136.18 45.961 c 136.398 
45.961 136.57 46.086 136.68 46.289 c 136.82 46.539 136.898 46.852 136.898
 47.133 c 136.898 47.523 136.695 47.758 136.383 47.758 c 135.945 47.758 
135.664 47.305 135.664 46.648 c h
135.664 46.617 m f
Q Q
showpage
%%Trailer
end
%%EOF
