%!PS-Adobe-3.0 EPSF-3.0
%%Creator: cairo 1.17.4 (https://cairographics.org)
%%CreationDate: Thu Feb 24 10:49:24 2022
%%Pages: 1
%%DocumentData: Clean7Bit
%%LanguageLevel: 2
%%BoundingBox: 0 0 145 138
%%EndComments
%%BeginProlog
50 dict begin
/q { gsave } bind def
/Q { grestore } bind def
/cm { 6 array astore concat } bind def
/w { setlinewidth } bind def
/J { setlinecap } bind def
/j { setlinejoin } bind def
/M { setmiterlimit } bind def
/d { setdash } bind def
/m { moveto } bind def
/l { lineto } bind def
/c { curveto } bind def
/h { closepath } bind def
/re { exch dup neg 3 1 roll 5 3 roll moveto 0 rlineto
      0 exch rlineto 0 rlineto closepath } bind def
/S { stroke } bind def
/f { fill } bind def
/f* { eofill } bind def
/n { newpath } bind def
/W { clip } bind def
/W* { eoclip } bind def
/BT { } bind def
/ET { } bind def
/BDC { mark 3 1 roll /BDC pdfmark } bind def
/EMC { mark /EMC pdfmark } bind def
/cairo_store_point { /cairo_point_y exch def /cairo_point_x exch def } def
/Tj { show currentpoint cairo_store_point } bind def
/TJ {
  {
    dup
    type /stringtype eq
    { show } { -0.001 mul 0 cairo_font_matrix dtransform rmoveto } ifelse
  } forall
  currentpoint cairo_store_point
} bind def
/cairo_selectfont { cairo_font_matrix aload pop pop pop 0 0 6 array astore
    cairo_font exch selectfont cairo_point_x cairo_point_y moveto } bind def
/Tf { pop /cairo_font exch def /cairo_font_matrix where
      { pop cairo_selectfont } if } bind def
/Td { matrix translate cairo_font_matrix matrix concatmatrix dup
      /cairo_font_matrix exch def dup 4 get exch 5 get cairo_store_point
      /cairo_font where { pop cairo_selectfont } if } bind def
/Tm { 2 copy 8 2 roll 6 array astore /cairo_font_matrix exch def
      cairo_store_point /cairo_font where { pop cairo_selectfont } if } bind def
/g { setgray } bind def
/rg { setrgbcolor } bind def
/d1 { setcachedevice } bind def
/cairo_data_source {
  CairoDataIndex CairoData length lt
    { CairoData CairoDataIndex get /CairoDataIndex CairoDataIndex 1 add def }
    { () } ifelse
} def
/cairo_flush_ascii85_file { cairo_ascii85_file status { cairo_ascii85_file flushfile } if } def
/cairo_image { image cairo_flush_ascii85_file } def
/cairo_imagemask { imagemask cairo_flush_ascii85_file } def
%%EndProlog
%%BeginSetup
%%EndSetup
%%Page: 1 1
%%BeginPageSetup
%%PageBoundingBox: 0 0 145 138
%%EndPageSetup
q 0 0 145 138 rectclip
1 0 0 -1 0 138 cm q
Q q
9.016 9.617 135.984 106 re W n
q
9 9 136 107 re W n
  q
0 g
1.13366 w
0 J
0 j
[] 0.0 d
10 M q 1 0 0 -1 0 0 cm
25.996 -64.902 m 25.996 -64.902 32.148 -71.375 35.406 -74.77 c 39.969 -79.52
 43.551 -84.355 48.672 -88.488 c 53.578 -92.445 58.219 -96.203 64.207 -98.125
 c 67.035 -99.035 69.887 -99.156 72.824 -98.691 c 75.852 -98.215 78.43 -96.918
 81.102 -95.406 c 84.996 -93.199 88.086 -90.516 91.418 -87.523 c 93.828 
-85.363 95.781 -83.184 97.883 -80.723 c 100.762 -77.348 102.992 -74.027 
105.707 -70.516 c 110.07 -64.867 114.07 -59.859 118.406 -54.191 c 120.859
 -50.98 123.008 -48.062 125.434 -44.836 c 127.938 -41.508 130.207 -38.539
 132.691 -35.199 c 135.02 -32.062 139.383 -26.07 139.383 -26.07 c S Q
q 1 0 0 -1 0 0 cm
25.996 -64.902 m 25.996 -64.902 29.098 -71.551 31.211 -74.77 c 34.539 -79.84
 37.484 -84.707 42.211 -88.488 c 48.113 -93.211 54.609 -96.27 61.938 -98.125
 c 66.484 -99.277 70.887 -99.277 75.547 -98.691 c 79.473 -98.203 82.887 
-96.926 86.543 -95.406 c 91.805 -93.219 96.426 -90.84 101.055 -87.523 c 
103.871 -85.512 106.012 -83.199 108.426 -80.723 c 111.699 -77.367 114.59
 -74.277 117.383 -70.516 c 121.348 -65.188 124.375 -60.004 127.59 -54.191
 c 129.324 -51.051 130.645 -48.102 132.125 -44.836 c 133.617 -41.547 134.91
 -38.566 136.207 -35.199 c 137.406 -32.086 139.383 -26.07 139.383 -26.07
 c S Q
  Q
Q
Q q
0 g
0.567043 w
0 J
0 j
[] 0.0 d
10 M q 1 0 0 -1 0 0 cm
25.996 -3.031 113.387 -113.387 re S Q
0.398506 w
q 1 0 0 -1 0 0 cm
25.996 -116.418 m 25.996 -112.164 l S Q
q 1 0 0 -1 0 0 cm
48.672 -116.418 m 48.672 -112.164 l S Q
q 1 0 0 -1 0 0 cm
71.352 -116.418 m 71.352 -112.164 l S Q
q 1 0 0 -1 0 0 cm
94.027 -116.418 m 94.027 -112.164 l S Q
q 1 0 0 -1 0 0 cm
116.703 -116.418 m 116.703 -112.164 l S Q
q 1 0 0 -1 0 0 cm
139.379 -116.418 m 139.379 -112.164 l S Q
q 1 0 0 -1 0 0 cm
25.996 -116.418 m 25.996 -112.164 l S Q
q 1 0 0 -1 0 0 cm
25.996 -116.418 m 30.246 -116.418 l S Q
q 1 0 0 -1 0 0 cm
25.996 -88.07 m 30.246 -88.07 l S Q
q 1 0 0 -1 0 0 cm
25.996 -59.727 m 30.246 -59.727 l S Q
q 1 0 0 -1 0 0 cm
25.996 -31.379 m 30.246 -31.379 l S Q
q 1 0 0 -1 0 0 cm
25.996 -3.031 m 30.246 -3.031 l S Q
q 1 0 0 -1 0 0 cm
25.996 -116.418 m 30.246 -116.418 l S Q
q 1 0 0 -1 0 0 cm
25.996 -3.031 m 25.996 -7.285 l S Q
q 1 0 0 -1 0 0 cm
48.672 -3.031 m 48.672 -7.285 l S Q
q 1 0 0 -1 0 0 cm
71.352 -3.031 m 71.352 -7.285 l S Q
q 1 0 0 -1 0 0 cm
94.027 -3.031 m 94.027 -7.285 l S Q
q 1 0 0 -1 0 0 cm
116.703 -3.031 m 116.703 -7.285 l S Q
q 1 0 0 -1 0 0 cm
139.379 -3.031 m 139.379 -7.285 l S Q
q 1 0 0 -1 0 0 cm
25.996 -3.031 m 25.996 -7.285 l S Q
q 1 0 0 -1 0 0 cm
139.383 -116.418 m 135.129 -116.418 l S Q
q 1 0 0 -1 0 0 cm
139.383 -88.07 m 135.129 -88.07 l S Q
q 1 0 0 -1 0 0 cm
139.383 -59.727 m 135.129 -59.727 l S Q
q 1 0 0 -1 0 0 cm
139.383 -31.379 m 135.129 -31.379 l S Q
q 1 0 0 -1 0 0 cm
139.383 -3.031 m 135.129 -3.031 l S Q
q 1 0 0 -1 0 0 cm
139.383 -116.418 m 135.129 -116.418 l S Q
27.949 122.941 m 27.949 121.332 27.215 119.879 25.965 119.879 c 24.699 
119.879 23.965 121.332 23.965 122.941 c 23.965 124.566 24.652 126.004 25.965
 126.004 c 27.168 126.004 27.949 124.566 27.949 122.941 c h
27.09 122.941 m 27.09 124.238 26.965 125.754 25.965 125.754 c 25.012 125.754
 24.824 124.238 24.824 122.941 c 24.824 121.863 24.949 120.113 25.965 120.113
 c 26.965 120.113 27.09 121.863 27.09 122.941 c h
27.09 122.941 m f
47.27 122.941 m 47.27 121.332 46.535 119.879 45.285 119.879 c 44.02 119.879
 43.285 121.332 43.285 122.941 c 43.285 124.566 43.973 126.004 45.285 126.004
 c 46.488 126.004 47.27 124.566 47.27 122.941 c h
46.41 122.941 m 46.41 124.238 46.285 125.754 45.285 125.754 c 44.332 125.754
 44.145 124.238 44.145 122.941 c 44.145 121.863 44.27 120.113 45.285 120.113
 c 46.285 120.113 46.41 121.863 46.41 122.941 c h
46.41 122.941 m f
49.195 125.52 m 49.195 125.238 48.977 125.02 48.695 125.02 c 48.414 125.02
 48.195 125.238 48.195 125.52 c 48.195 125.801 48.414 126.02 48.695 126.02
 c 48.977 126.02 49.195 125.801 49.195 125.52 c h
49.195 125.52 m f
54.141 124.738 m 53.984 124.707 l 53.719 125.16 53.5 125.238 53.062 125.238
 c 51 125.238 l 52.422 123.941 53.719 122.77 53.719 121.457 c 53.719 120.535
 52.922 119.879 52.047 119.879 c 51.188 119.879 50.5 120.348 50.234 121.566
 c 50.438 121.566 l 50.688 121.066 51.031 120.551 51.719 120.551 c 52.5 
120.551 52.938 121.145 52.938 121.816 c 52.938 122.785 51.906 124.207 50.141
 125.754 c 50.141 125.895 l 53.672 125.895 l h
54.141 124.738 m f
69.949 122.941 m 69.949 121.332 69.215 119.879 67.965 119.879 c 66.699 
119.879 65.965 121.332 65.965 122.941 c 65.965 124.566 66.652 126.004 67.965
 126.004 c 69.168 126.004 69.949 124.566 69.949 122.941 c h
69.09 122.941 m 69.09 124.238 68.965 125.754 67.965 125.754 c 67.012 125.754
 66.824 124.238 66.824 122.941 c 66.824 121.863 66.949 120.113 67.965 120.113
 c 68.965 120.113 69.09 121.863 69.09 122.941 c h
69.09 122.941 m f
71.875 125.52 m 71.875 125.238 71.656 125.02 71.375 125.02 c 71.094 125.02
 70.875 125.238 70.875 125.52 c 70.875 125.801 71.094 126.02 71.375 126.02
 c 71.656 126.02 71.875 125.801 71.875 125.52 c h
71.875 125.52 m f
76.805 124.41 m 76.805 123.801 l 75.93 123.801 l 75.93 119.879 l 75.492
 119.879 l 72.898 123.785 l 72.898 124.41 l 75.195 124.41 l 75.195 125.895
 l 75.93 125.895 l 75.93 124.41 l h
75.195 123.801 m 73.258 123.801 l 75.18 120.816 l 75.195 120.816 l h
75.195 123.801 m f
92.633 122.941 m 92.633 121.332 91.898 119.879 90.648 119.879 c 89.383 
119.879 88.648 121.332 88.648 122.941 c 88.648 124.566 89.336 126.004 90.648
 126.004 c 91.852 126.004 92.633 124.566 92.633 122.941 c h
91.773 122.941 m 91.773 124.238 91.648 125.754 90.648 125.754 c 89.695 
125.754 89.508 124.238 89.508 122.941 c 89.508 121.863 89.633 120.113 90.648
 120.113 c 91.648 120.113 91.773 121.863 91.773 122.941 c h
91.773 122.941 m f
94.555 125.52 m 94.555 125.238 94.336 125.02 94.055 125.02 c 93.773 125.02
 93.555 125.238 93.555 125.52 c 93.555 125.801 93.773 126.02 94.055 126.02
 c 94.336 126.02 94.555 125.801 94.555 125.52 c h
94.555 125.52 m f
99.426 123.879 m 99.426 122.895 98.723 122.16 97.832 122.16 c 97.379 122.16
 97.004 122.301 96.613 122.613 c 97.004 121.02 98.176 120.02 99.301 120.004
 c 99.301 119.848 l 96.535 119.848 95.66 122.191 95.66 123.52 c 95.66 124.941
 96.488 126.004 97.598 126.004 c 98.613 126.004 99.426 125.051 99.426 123.879
 c h
98.66 124.332 m 98.66 125.16 98.285 125.738 97.691 125.738 c 96.77 125.738
 96.488 124.395 96.488 123.676 c 96.488 123.441 96.52 123.191 96.566 122.895
 c 96.957 122.645 97.27 122.535 97.582 122.535 c 98.488 122.535 98.66 123.582
 98.66 124.332 c h
98.66 124.332 m f
115.312 122.941 m 115.312 121.332 114.578 119.879 113.328 119.879 c 112.062
 119.879 111.328 121.332 111.328 122.941 c 111.328 124.566 112.016 126.004
 113.328 126.004 c 114.531 126.004 115.312 124.566 115.312 122.941 c h
114.453 122.941 m 114.453 124.238 114.328 125.754 113.328 125.754 c 112.375
 125.754 112.188 124.238 112.188 122.941 c 112.188 121.863 112.312 120.113
 113.328 120.113 c 114.328 120.113 114.453 121.863 114.453 122.941 c h
114.453 122.941 m f
117.234 125.52 m 117.234 125.238 117.016 125.02 116.734 125.02 c 116.453
 125.02 116.234 125.238 116.234 125.52 c 116.234 125.801 116.453 126.02 
116.734 126.02 c 117.016 126.02 117.234 125.801 117.234 125.52 c h
117.234 125.52 m f
121.887 124.52 m 121.887 123.879 121.605 123.395 120.512 122.582 c 121.199
 122.207 121.73 121.785 121.73 121.129 c 121.73 120.441 121.09 119.848 120.137
 119.848 c 119.293 119.848 118.496 120.395 118.496 121.238 c 118.496 121.895
 118.84 122.285 119.605 122.895 c 118.746 123.551 118.434 123.879 118.434
 124.551 c 118.434 125.301 119.105 126.004 120.152 126.004 c 121.371 126.004
 121.887 125.176 121.887 124.52 c h
121.121 121.113 m 121.121 121.754 120.746 122.098 120.262 122.426 c 119.668
 122.004 119.152 121.535 119.152 121.02 c 119.152 120.535 119.496 120.113
 120.105 120.113 c 120.777 120.113 121.121 120.535 121.121 121.113 c h
121.246 124.77 m 121.246 125.348 120.809 125.738 120.23 125.738 c 119.543
 125.738 119.105 125.191 119.105 124.457 c 119.105 123.785 119.434 123.395
 119.84 123.051 c 120.824 123.801 121.246 124.176 121.246 124.77 c h
121.246 124.77 m f
137.242 125.895 m 137.242 125.754 l 136.648 125.754 136.43 125.77 136.43
 124.598 c 136.43 124.582 136.43 119.848 136.43 119.848 c 136.305 119.848
 l 134.773 120.582 l 134.82 120.723 l 135.148 120.582 135.227 120.551 135.352
 120.551 c 135.617 120.551 135.664 120.785 135.664 121.098 c 135.664 124.598
 l 135.664 125.77 135.445 125.738 134.852 125.754 c 134.852 125.895 l h
137.242 125.895 m f
139.914 125.52 m 139.914 125.238 139.695 125.02 139.414 125.02 c 139.133
 125.02 138.914 125.238 138.914 125.52 c 138.914 125.801 139.133 126.02 
139.414 126.02 c 139.695 126.02 139.914 125.801 139.914 125.52 c h
139.914 125.52 m f
144.832 122.941 m 144.832 121.332 144.098 119.879 142.848 119.879 c 141.582
 119.879 140.848 121.332 140.848 122.941 c 140.848 124.566 141.535 126.004
 142.848 126.004 c 144.051 126.004 144.832 124.566 144.832 122.941 c h
143.973 122.941 m 143.973 124.238 143.848 125.754 142.848 125.754 c 141.895
 125.754 141.707 124.238 141.707 122.941 c 141.707 121.863 141.832 120.113
 142.848 120.113 c 143.848 120.113 143.973 121.863 143.973 122.941 c h
143.973 122.941 m f
17.527 117.477 m 17.527 116.539 16.98 116.133 16.449 115.914 c 17.027 115.477
 17.215 115.07 17.215 114.586 c 17.215 114.07 16.793 113.398 15.824 113.398
 c 15.121 113.398 14.449 113.789 14.152 114.758 c 14.293 114.789 l 14.48
 114.43 14.84 113.977 15.496 113.977 c 16.137 113.977 16.512 114.414 16.512
 114.914 c 16.512 115.617 15.965 116.117 15.152 116.305 c 15.137 116.492
 l 16.527 116.43 16.871 117.336 16.871 117.898 c 16.871 118.57 16.387 119.18
 15.746 119.18 c 15.168 119.18 14.918 118.68 14.434 118.68 c 14.277 118.68
 14.09 118.836 14.09 119.039 c 14.09 119.414 14.652 119.523 15.059 119.523
 c 16.48 119.523 17.527 118.711 17.527 117.477 c h
17.527 117.477 m f
22.309 116.461 m 22.309 114.852 21.574 113.398 20.324 113.398 c 19.059 
113.398 18.324 114.852 18.324 116.461 c 18.324 118.086 19.012 119.523 20.324
 119.523 c 21.527 119.523 22.309 118.086 22.309 116.461 c h
21.449 116.461 m 21.449 117.758 21.324 119.273 20.324 119.273 c 19.371 
119.273 19.184 117.758 19.184 116.461 c 19.184 115.383 19.309 113.633 20.324
 113.633 c 21.324 113.633 21.449 115.383 21.449 116.461 c h
21.449 116.461 m f
17.527 89.156 m 17.527 88.219 16.98 87.812 16.449 87.594 c 17.027 87.156
 17.215 86.75 17.215 86.266 c 17.215 85.75 16.793 85.078 15.824 85.078 c
 15.121 85.078 14.449 85.469 14.152 86.438 c 14.293 86.469 l 14.48 86.109
 14.84 85.656 15.496 85.656 c 16.137 85.656 16.512 86.094 16.512 86.594 
c 16.512 87.297 15.965 87.797 15.152 87.984 c 15.137 88.172 l 16.527 88.109
 16.871 89.016 16.871 89.578 c 16.871 90.25 16.387 90.859 15.746 90.859 
c 15.168 90.859 14.918 90.359 14.434 90.359 c 14.277 90.359 14.09 90.516
 14.09 90.719 c 14.09 91.094 14.652 91.203 15.059 91.203 c 16.48 91.203 
17.527 90.391 17.527 89.156 c h
17.527 89.156 m f
22.246 85.172 m 19.777 85.172 l 18.668 87.719 l 18.809 87.688 18.949 87.656
 19.121 87.656 c 20.074 87.656 21.371 88.156 21.371 89.328 c 21.371 90.234
 20.715 90.812 20.09 90.812 c 19.543 90.812 19.34 90.312 18.824 90.312 c
 18.574 90.312 18.496 90.531 18.496 90.641 c 18.496 90.953 18.934 91.203
 19.559 91.203 c 20.902 91.203 21.965 90.219 21.965 89.016 c 21.965 87.594
 20.84 87.109 19.621 87.078 c 19.512 87.078 19.387 87.094 19.277 87.109 
c 19.84 85.844 l 21.934 85.828 l h
22.246 85.172 m f
17.887 61.293 m 17.887 60.684 l 17.012 60.684 l 17.012 56.762 l 16.574 
56.762 l 13.98 60.668 l 13.98 61.293 l 16.277 61.293 l 16.277 62.777 l 17.012
 62.777 l 17.012 61.293 l h
16.277 60.684 m 14.34 60.684 l 16.262 57.699 l 16.277 57.699 l h
16.277 60.684 m f
22.309 59.824 m 22.309 58.215 21.574 56.762 20.324 56.762 c 19.059 56.762
 18.324 58.215 18.324 59.824 c 18.324 61.449 19.012 62.887 20.324 62.887
 c 21.527 62.887 22.309 61.449 22.309 59.824 c h
21.449 59.824 m 21.449 61.121 21.324 62.637 20.324 62.637 c 19.371 62.637
 19.184 61.121 19.184 59.824 c 19.184 58.746 19.309 56.996 20.324 56.996
 c 21.324 56.996 21.449 58.746 21.449 59.824 c h
21.449 59.824 m f
17.887 32.852 m 17.887 32.242 l 17.012 32.242 l 17.012 28.32 l 16.574 28.32
 l 13.98 32.227 l 13.98 32.852 l 16.277 32.852 l 16.277 34.336 l 17.012 
34.336 l 17.012 32.852 l h
16.277 32.242 m 14.34 32.242 l 16.262 29.258 l 16.277 29.258 l h
16.277 32.242 m f
22.246 28.414 m 19.777 28.414 l 18.668 30.961 l 18.809 30.93 18.949 30.898
 19.121 30.898 c 20.074 30.898 21.371 31.398 21.371 32.57 c 21.371 33.477
 20.715 34.055 20.09 34.055 c 19.543 34.055 19.34 33.555 18.824 33.555 c
 18.574 33.555 18.496 33.773 18.496 33.883 c 18.496 34.195 18.934 34.445
 19.559 34.445 c 20.902 34.445 21.965 33.461 21.965 32.258 c 21.965 30.836
 20.84 30.352 19.621 30.32 c 19.512 30.32 19.387 30.336 19.277 30.352 c 
19.84 29.086 l 21.934 29.07 l h
22.246 28.414 m f
17.809 0.094 m 15.34 0.094 l 14.23 2.641 l 14.371 2.609 14.512 2.578 14.684
 2.578 c 15.637 2.578 16.934 3.078 16.934 4.25 c 16.934 5.156 16.277 5.734
 15.652 5.734 c 15.105 5.734 14.902 5.234 14.387 5.234 c 14.137 5.234 14.059
 5.453 14.059 5.562 c 14.059 5.875 14.496 6.125 15.121 6.125 c 16.465 6.125
 17.527 5.141 17.527 3.938 c 17.527 2.516 16.402 2.031 15.184 2 c 15.074
 2 14.949 2.016 14.84 2.031 c 15.402 0.766 l 17.496 0.75 l h
17.809 0.094 m f
22.309 3.062 m 22.309 1.453 21.574 0 20.324 0 c 19.059 0 18.324 1.453 18.324
 3.062 c 18.324 4.688 19.012 6.125 20.324 6.125 c 21.527 6.125 22.309 4.688
 22.309 3.062 c h
21.449 3.062 m 21.449 4.359 21.324 5.875 20.324 5.875 c 19.371 5.875 19.184
 4.359 19.184 3.062 c 19.184 1.984 19.309 0.234 20.324 0.234 c 21.324 0.234
 21.449 1.984 21.449 3.062 c h
21.449 3.062 m f
81.906 131.484 m 79.109 131.484 l 78.719 132.641 l 78.906 132.641 l 79.125
 132.094 79.344 132.078 79.672 132.078 c 81.125 132.078 l 78.031 135.578
 l 80.875 135.578 l 81.266 134.391 l 81.094 134.391 l 80.891 135 80.547 
135 80.219 135 c 78.797 135 l h
81.906 131.484 m f
87.012 137.613 m 86.699 137.582 86.621 137.52 86.387 137.004 c 84.652 133.035
 l 84.512 133.035 l 83.059 136.457 l 82.605 137.473 82.527 137.598 82.199
 137.613 c 82.199 137.738 l 83.574 137.738 l 83.574 137.613 l 83.246 137.613
 83.105 137.52 83.105 137.316 c 83.105 137.238 83.121 137.145 83.152 137.051
 c 83.48 136.238 l 85.309 136.238 l 85.59 136.895 l 85.668 137.098 85.715
 137.27 85.715 137.363 c 85.715 137.551 85.605 137.598 85.23 137.613 c 85.23
 137.738 l 87.012 137.738 l h
83.59 135.941 m 84.402 134.035 l 85.199 135.941 l h
83.59 135.941 m f
3.516 66.254 m 2.812 66.254 2.344 66.566 2.344 67.238 c 2.344 67.832 2.766
 68.285 3.328 68.691 c 2.344 68.379 l 2.344 68.379 2.578 69.582 2.594 69.848
 c 2.75 69.848 l 2.75 69.52 2.719 69.254 3.078 69.254 c 3.25 69.254 3.641
 69.363 3.859 69.426 c 7.594 70.488 l 7.938 70.582 8.188 70.738 8.188 71.176
 c 8.344 71.207 l 8.344 69.238 l 8.188 69.207 l 8.188 69.551 8.172 69.848
 7.922 69.848 c 7.844 69.848 7.75 69.832 7.578 69.785 c 6.328 69.473 l 6.469
 69.301 6.547 69.035 6.547 68.816 c 6.547 67.738 5.016 66.254 3.516 66.254
 c h
3.609 67.02 m 4.781 67.02 6.344 68.004 6.344 68.848 c 6.344 69.051 6.266
 69.238 6.094 69.41 c 5.297 69.207 2.766 68.66 2.766 67.504 c 2.766 67.02
 3.406 67.02 3.609 67.02 c h
3.609 67.02 m f
0 61.66 m 0 62.098 l 8.359 65.207 l 8.359 64.754 l h
0 61.66 m f
6.438 61.066 m 6.438 58.973 l 6.297 58.973 l 6.297 59.145 l 6.266 59.52
 6.172 59.629 5.844 59.645 c 4.188 59.645 l 5.859 58.379 l 5.906 58.348 
5.953 58.316 5.984 58.301 c 6.062 58.223 6.125 58.191 6.172 58.191 c 6.25
 58.191 6.297 58.27 6.297 58.379 c 6.297 58.551 l 6.438 58.551 l 6.438 56.598
 l 6.297 56.598 l 6.281 56.988 6.109 57.27 5.641 57.645 c 3.906 59.02 l 
3.672 58.754 l 2.656 57.645 2.516 57.395 2.531 56.816 c 2.406 56.816 l 2.406
 58.66 l 2.531 58.66 l 2.531 58.301 2.578 58.207 2.688 58.207 c 2.766 58.207
 2.891 58.285 3 58.41 c 4.094 59.645 l 0.328 59.645 l 0.312 59.676 l 0.422
 60.02 0.5 60.285 0.641 60.801 c 0.703 61.066 l 0.844 61.066 l 0.844 60.957
 0.828 60.863 0.828 60.785 c 0.828 60.473 0.953 60.395 1.375 60.395 c 5.703
 60.395 l 6.172 60.41 6.203 60.426 6.297 61.066 c h
6.438 61.066 m f
0.672 56.547 m 0.75 55.875 0.828 55.797 1.484 55.797 c 5.359 55.797 l 6.125
 55.797 6.203 55.859 6.266 56.547 c 6.438 56.547 l 6.438 54.031 l 6.266 
54.031 l 6.25 54.734 6.125 54.859 5.453 54.875 c 3.828 54.875 l 3.844 54.641
 3.859 54.484 3.859 54.25 c 3.859 53.547 3.766 53.078 3.547 52.688 c 3.266
 52.156 2.719 51.828 2.125 51.828 c 1.75 51.828 1.406 51.953 1.141 52.188
 c 0.75 52.547 0.5 53.328 0.5 54.172 c 0.5 56.547 l h
1.141 54.875 m 0.891 54.875 0.828 54.812 0.828 54.578 c 0.828 53.359 1.25
 52.797 2.172 52.797 c 3.047 52.797 3.5 53.328 3.5 54.359 c 3.5 54.547 3.484
 54.672 3.469 54.875 c h
1.141 54.875 m f
5.844 47.797 m 5.969 47.953 6.016 48.062 6.016 48.203 c 6.016 48.406 5.891
 48.469 5.5 48.469 c 3.75 48.469 l 3.281 48.469 3.016 48.516 2.812 48.641
 c 2.484 48.844 2.312 49.234 2.312 49.75 c 2.312 50.594 2.75 51.266 3.312
 51.266 c 3.516 51.266 3.703 51.094 3.703 50.875 c 3.703 50.656 3.516 50.469
 3.328 50.469 c 3.297 50.469 3.25 50.484 3.188 50.484 c 3.094 50.516 3.031
 50.516 2.969 50.516 c 2.719 50.516 2.531 50.234 2.531 49.875 c 2.531 49.438
 2.781 49.188 3.266 49.188 c 3.812 49.188 l 4.359 50.562 4.453 50.719 4.781
 51.109 c 4.969 51.312 5.266 51.438 5.562 51.438 c 6.125 51.438 6.531 51.047
 6.531 50.484 c 6.531 50.094 6.344 49.734 5.875 49.188 c 6.344 49.141 6.531
 48.969 6.531 48.609 c 6.531 48.297 6.422 48.109 6.078 47.797 c h
5.328 49.188 m 5.609 49.188 5.703 49.234 5.812 49.422 c 5.938 49.656 6 
49.891 6 50.078 c 6 50.391 5.703 50.641 5.312 50.641 c 5.281 50.641 l 4.75
 50.641 4.406 50.234 4.031 49.188 c h
5.328 49.188 m f
61.098 50.508 m 63.223 50.508 l 63.223 50.367 l 62.645 50.352 62.551 50.258
 62.535 49.758 c 62.535 44.398 l 62.504 44.383 l 62.051 44.523 61.723 44.617
 61.082 44.773 c 61.082 44.914 l 61.129 44.914 l 61.238 44.914 61.348 44.898
 61.41 44.898 c 61.707 44.898 61.785 45.023 61.785 45.445 c 61.785 49.727
 l 61.785 50.211 61.66 50.336 61.098 50.367 c h
61.098 50.508 m f
63.57 50.508 m 65.695 50.508 l 65.695 50.367 l 65.102 50.336 65.039 50.242
 65.039 49.586 c 65.039 46.414 l 64.992 46.383 l 63.602 46.883 l 63.602 
47.008 l 63.68 47.008 l 63.789 46.977 63.898 46.977 63.992 46.977 c 64.195
 46.977 64.289 47.117 64.289 47.508 c 64.289 49.586 l 64.258 50.258 64.18
 50.352 63.57 50.367 c h
64.57 44.383 m 64.336 44.383 64.133 44.586 64.133 44.836 c 64.133 45.102
 64.32 45.305 64.57 45.305 c 64.852 45.305 65.039 45.102 65.039 44.836 c
 65.039 44.586 64.836 44.383 64.57 44.383 c h
64.57 44.383 m f
69.184 46.695 m 68.777 46.461 68.512 46.383 68.152 46.383 c 67.012 46.383
 66.168 47.383 66.168 48.68 c 66.168 49.805 66.762 50.602 67.605 50.602 
c 68.121 50.602 68.605 50.367 69.012 49.93 c 69.012 51.617 l 68.996 52.117
 68.84 52.273 68.215 52.305 c 68.215 52.461 l 70.324 52.461 l 70.324 52.336
 l 69.84 52.227 69.777 52.164 69.762 51.773 c 69.762 46.414 l 69.668 46.414
 l h
69.012 49.367 m 69.012 49.586 68.965 49.695 68.887 49.789 c 68.684 49.945
 68.387 50.055 68.105 50.055 c 67.84 50.055 67.59 49.961 67.418 49.789 c
 67.121 49.523 66.934 48.945 66.934 48.352 c 66.934 47.289 67.418 46.633
 68.168 46.633 c 68.73 46.633 69.012 46.93 69.012 47.523 c h
69.012 49.367 m f
74.688 50.055 m 74.641 50.055 l 74.203 50.039 74.141 49.977 74.125 49.555
 c 74.125 46.477 l 72.719 46.477 l 72.719 46.617 l 73.266 46.648 73.375 
46.742 73.375 47.195 c 73.375 49.305 l 73.375 49.555 73.328 49.68 73.203
 49.773 c 72.969 49.977 72.688 50.07 72.422 50.07 c 72.062 50.07 71.781 
49.773 71.781 49.398 c 71.781 46.477 l 70.469 46.477 l 70.469 46.602 l 70.891
 46.617 71.016 46.742 71.031 47.164 c 71.031 49.43 l 71.031 50.133 71.453
 50.602 72.109 50.602 c 72.438 50.602 72.797 50.461 73.031 50.211 c 73.422
 49.82 l 73.422 50.57 l 73.453 50.586 l 73.906 50.414 74.234 50.305 74.688
 50.18 c h
74.688 50.055 m f
74.969 50.508 m 77.094 50.508 l 77.094 50.367 l 76.5 50.336 76.438 50.242
 76.438 49.586 c 76.438 46.414 l 76.391 46.383 l 75 46.883 l 75 47.008 l
 75.078 47.008 l 75.188 46.977 75.297 46.977 75.391 46.977 c 75.594 46.977
 75.688 47.117 75.688 47.508 c 75.688 49.586 l 75.656 50.258 75.578 50.352
 74.969 50.367 c h
75.969 44.383 m 75.734 44.383 75.531 44.586 75.531 44.836 c 75.531 45.102
 75.719 45.305 75.969 45.305 c 76.25 45.305 76.438 45.102 76.438 44.836 
c 76.438 44.586 76.234 44.383 75.969 44.383 c h
75.969 44.383 m f
81.758 49.992 m 81.633 49.992 81.586 49.992 81.555 49.992 c 81.242 49.992
 81.148 49.898 81.148 49.492 c 81.148 44.398 l 81.117 44.383 l 80.695 44.523
 80.383 44.617 79.789 44.773 c 79.789 44.914 l 79.867 44.914 79.914 44.914
 79.992 44.914 c 80.32 44.914 80.398 45.008 80.398 45.367 c 80.398 46.773
 l 80.055 46.477 79.82 46.383 79.461 46.383 c 78.43 46.383 77.586 47.398
 77.586 48.664 c 77.586 49.82 78.258 50.602 79.258 50.602 c 79.758 50.602
 80.102 50.414 80.398 49.992 c 80.398 50.57 l 80.43 50.602 l 81.758 50.133
 l h
80.398 49.586 m 80.398 49.648 80.336 49.758 80.242 49.867 c 80.102 50.039
 79.867 50.133 79.602 50.133 c 78.852 50.133 78.367 49.414 78.367 48.305
 c 78.367 47.305 78.805 46.633 79.492 46.633 c 79.977 46.633 80.398 47.055
 80.398 47.523 c h
80.398 49.586 m f
114.926 96.969 m 114.926 96.625 l 114.238 96.625 l 114.051 96.625 113.91
 96.594 113.738 96.531 c 113.535 96.469 l 113.301 96.375 113.051 96.328 
112.816 96.328 c 111.988 96.328 111.332 96.969 111.332 97.797 c 111.332 
98.359 111.566 98.688 112.16 98.984 c 111.926 99.203 l 111.738 99.391 111.629
 99.484 111.598 99.516 c 111.41 99.719 111.363 99.812 111.363 99.969 c 111.363
 100.172 111.457 100.266 111.832 100.438 c 111.191 100.906 110.957 101.203
 110.957 101.531 c 110.957 102.016 111.645 102.406 112.504 102.406 c 113.176
 102.406 113.879 102.172 114.348 101.797 c 114.691 101.516 114.848 101.234
 114.848 100.891 c 114.848 100.344 114.426 99.969 113.754 99.938 c 112.598
 99.875 l 112.113 99.859 111.895 99.781 111.895 99.641 c 111.895 99.453 
112.191 99.141 112.441 99.078 c 112.754 99.094 112.926 99.109 112.957 99.109
 c 113.285 99.109 113.645 98.984 113.91 98.734 c 114.207 98.484 114.348 
98.172 114.348 97.734 c 114.348 97.469 114.301 97.266 114.176 96.969 c h
112.02 100.469 m 112.332 100.531 113.035 100.594 113.488 100.594 c 114.301
 100.594 114.598 100.703 114.598 101.031 c 114.598 101.547 113.91 101.891
 112.895 101.891 c 112.098 101.891 111.582 101.641 111.582 101.25 c 111.582
 101.031 111.66 100.906 112.02 100.469 c h
112.066 97.422 m 112.066 96.891 112.316 96.578 112.738 96.578 c 113.02 
96.578 113.238 96.734 113.395 97 c 113.566 97.312 113.66 97.719 113.66 98.078
 c 113.66 98.578 113.41 98.891 112.988 98.891 c 112.441 98.891 112.066 98.312
 112.066 97.453 c h
112.066 97.422 m f
119.113 99.859 m 118.957 99.984 118.848 100.031 118.707 100.031 c 118.504
 100.031 118.441 99.906 118.441 99.516 c 118.441 97.766 l 118.441 97.297
 118.395 97.031 118.27 96.828 c 118.066 96.5 117.676 96.328 117.16 96.328
 c 116.316 96.328 115.645 96.766 115.645 97.328 c 115.645 97.531 115.816
 97.719 116.035 97.719 c 116.254 97.719 116.441 97.531 116.441 97.344 c 
116.441 97.312 116.426 97.266 116.426 97.203 c 116.395 97.109 116.395 97.047
 116.395 96.984 c 116.395 96.734 116.676 96.547 117.035 96.547 c 117.473
 96.547 117.723 96.797 117.723 97.281 c 117.723 97.828 l 116.348 98.375 
116.191 98.469 115.801 98.797 c 115.598 98.984 115.473 99.281 115.473 99.578
 c 115.473 100.141 115.863 100.547 116.426 100.547 c 116.816 100.547 117.176
 100.359 117.723 99.891 c 117.77 100.359 117.941 100.547 118.301 100.547
 c 118.613 100.547 118.801 100.438 119.113 100.094 c h
117.723 99.344 m 117.723 99.625 117.676 99.719 117.488 99.828 c 117.254
 99.953 117.02 100.016 116.832 100.016 c 116.52 100.016 116.27 99.719 116.27
 99.328 c 116.27 99.297 l 116.27 98.766 116.676 98.422 117.723 98.047 c 
h
117.723 99.344 m f
121.934 97.641 m 121.902 96.406 l 121.793 96.406 l 121.746 96.484 121.699
 96.5 121.652 96.5 c 121.605 96.5 121.512 96.484 121.418 96.438 c 121.199
 96.375 120.996 96.328 120.777 96.328 c 120.074 96.328 119.559 96.797 119.559
 97.438 c 119.559 97.938 119.855 98.297 120.605 98.734 c 121.137 99.031 
l 121.449 99.203 121.605 99.422 121.605 99.703 c 121.605 100.094 121.309
 100.344 120.855 100.344 c 120.23 100.344 119.918 100 119.715 99.094 c 119.574
 99.094 l 119.574 100.484 l 119.684 100.484 l 119.746 100.406 119.793 100.375
 119.902 100.375 c 119.996 100.375 120.105 100.406 120.309 100.453 c 120.543
 100.5 120.777 100.547 120.965 100.547 c 121.668 100.547 122.23 100.016 
122.23 99.391 c 122.23 98.953 122.012 98.656 121.48 98.328 c 120.512 97.75
 l 120.246 97.594 120.121 97.391 120.121 97.141 c 120.121 96.781 120.402
 96.531 120.809 96.531 c 121.324 96.531 121.59 96.828 121.793 97.641 c h
121.934 97.641 m f
0.283298 w
q 1 0 0 -1 0 0 cm
39.602 -82.367 m 50.941 -71.027 l S Q
1 g
43.945 71.102 m 43.945 66.078 l 57.969 66.078 l 57.969 76.125 l 43.945 
76.125 l f
0 g
49.16 69.699 m 49.16 69.355 l 48.473 69.355 l 48.285 69.355 48.145 69.324
 47.973 69.262 c 47.77 69.199 l 47.535 69.105 47.285 69.059 47.051 69.059
 c 46.223 69.059 45.566 69.699 45.566 70.527 c 45.566 71.09 45.801 71.418
 46.395 71.715 c 46.16 71.934 l 45.973 72.121 45.863 72.215 45.832 72.246
 c 45.645 72.449 45.598 72.543 45.598 72.699 c 45.598 72.902 45.691 72.996
 46.066 73.168 c 45.426 73.637 45.191 73.934 45.191 74.262 c 45.191 74.746
 45.879 75.137 46.738 75.137 c 47.41 75.137 48.113 74.902 48.582 74.527 
c 48.926 74.246 49.082 73.965 49.082 73.621 c 49.082 73.074 48.66 72.699
 47.988 72.668 c 46.832 72.605 l 46.348 72.59 46.129 72.512 46.129 72.371
 c 46.129 72.184 46.426 71.871 46.676 71.809 c 46.988 71.824 47.16 71.84
 47.191 71.84 c 47.52 71.84 47.879 71.715 48.145 71.465 c 48.441 71.215 
48.582 70.902 48.582 70.465 c 48.582 70.199 48.535 69.996 48.41 69.699 c
 h
46.254 73.199 m 46.566 73.262 47.27 73.324 47.723 73.324 c 48.535 73.324
 48.832 73.434 48.832 73.762 c 48.832 74.277 48.145 74.621 47.129 74.621
 c 46.332 74.621 45.816 74.371 45.816 73.98 c 45.816 73.762 45.895 73.637
 46.254 73.199 c h
46.301 70.152 m 46.301 69.621 46.551 69.309 46.973 69.309 c 47.254 69.309
 47.473 69.465 47.629 69.73 c 47.801 70.043 47.895 70.449 47.895 70.809 
c 47.895 71.309 47.645 71.621 47.223 71.621 c 46.676 71.621 46.301 71.043
 46.301 70.184 c h
46.301 70.152 m f
51.617 70.621 m 49.648 70.621 l 49.648 71.215 l 51.617 71.215 l 51.617 
73.184 l 52.211 73.184 l 52.211 71.215 l 54.18 71.215 l 54.18 70.621 l 52.211
 70.621 l 52.211 68.652 l 51.617 68.652 l h
51.617 70.621 m f
54.609 73.184 m 56.734 73.184 l 56.734 73.043 l 56.156 73.027 56.062 72.934
 56.047 72.434 c 56.047 67.074 l 56.016 67.059 l 55.562 67.199 55.234 67.293
 54.594 67.449 c 54.594 67.59 l 54.641 67.59 l 54.75 67.59 54.859 67.574
 54.922 67.574 c 55.219 67.574 55.297 67.699 55.297 68.121 c 55.297 72.402
 l 55.297 72.887 55.172 73.012 54.609 73.043 c h
54.609 73.184 m f
q 1 0 0 -1 0 0 cm
111.035 -71.027 m 99.695 -59.688 l S Q
1 g
92.699 59.762 m 92.699 54.738 l 106.727 54.738 l 106.727 64.785 l 92.699
 64.785 l f
0 g
93.883 61.848 m 96.008 61.848 l 96.008 61.707 l 95.43 61.691 95.336 61.598
 95.32 61.098 c 95.32 55.738 l 95.289 55.723 l 94.836 55.863 94.508 55.957
 93.867 56.113 c 93.867 56.254 l 93.914 56.254 l 94.023 56.254 94.133 56.238
 94.195 56.238 c 94.492 56.238 94.57 56.363 94.57 56.785 c 94.57 61.066 
l 94.57 61.551 94.445 61.676 93.883 61.707 c h
93.883 61.848 m f
98.449 59.285 m 96.48 59.285 l 96.48 59.879 l 98.449 59.879 l 98.449 61.848
 l 99.043 61.848 l 99.043 59.879 l 101.012 59.879 l 101.012 59.285 l 99.043
 59.285 l 99.043 57.316 l 98.449 57.316 l h
98.449 59.285 m f
105.477 58.363 m 105.477 58.02 l 104.789 58.02 l 104.602 58.02 104.461 
57.988 104.289 57.926 c 104.086 57.863 l 103.852 57.77 103.602 57.723 103.367
 57.723 c 102.539 57.723 101.883 58.363 101.883 59.191 c 101.883 59.754 
102.117 60.082 102.711 60.379 c 102.477 60.598 l 102.289 60.785 102.18 60.879
 102.148 60.91 c 101.961 61.113 101.914 61.207 101.914 61.363 c 101.914 
61.566 102.008 61.66 102.383 61.832 c 101.742 62.301 101.508 62.598 101.508
 62.926 c 101.508 63.41 102.195 63.801 103.055 63.801 c 103.727 63.801 104.43
 63.566 104.898 63.191 c 105.242 62.91 105.398 62.629 105.398 62.285 c 105.398
 61.738 104.977 61.363 104.305 61.332 c 103.148 61.27 l 102.664 61.254 102.445
 61.176 102.445 61.035 c 102.445 60.848 102.742 60.535 102.992 60.473 c 
103.305 60.488 103.477 60.504 103.508 60.504 c 103.836 60.504 104.195 60.379
 104.461 60.129 c 104.758 59.879 104.898 59.566 104.898 59.129 c 104.898
 58.863 104.852 58.66 104.727 58.363 c h
102.57 61.863 m 102.883 61.926 103.586 61.988 104.039 61.988 c 104.852 
61.988 105.148 62.098 105.148 62.426 c 105.148 62.941 104.461 63.285 103.445
 63.285 c 102.648 63.285 102.133 63.035 102.133 62.645 c 102.133 62.426 
102.211 62.301 102.57 61.863 c h
102.617 58.816 m 102.617 58.285 102.867 57.973 103.289 57.973 c 103.57 
57.973 103.789 58.129 103.945 58.395 c 104.117 58.707 104.211 59.113 104.211
 59.473 c 104.211 59.973 103.961 60.285 103.539 60.285 c 102.992 60.285 
102.617 59.707 102.617 58.848 c h
102.617 58.816 m f
Q Q
showpage
%%Trailer
end
%%EOF
