%!PS-Adobe-3.0 EPSF-3.0
%%Creator: cairo 1.17.4 (https://cairographics.org)
%%CreationDate: Thu Feb 24 10:49:25 2022
%%Pages: 1
%%DocumentData: Clean7Bit
%%LanguageLevel: 2
%%BoundingBox: 0 0 174 167
%%EndComments
%%BeginProlog
50 dict begin
/q { gsave } bind def
/Q { grestore } bind def
/cm { 6 array astore concat } bind def
/w { setlinewidth } bind def
/J { setlinecap } bind def
/j { setlinejoin } bind def
/M { setmiterlimit } bind def
/d { setdash } bind def
/m { moveto } bind def
/l { lineto } bind def
/c { curveto } bind def
/h { closepath } bind def
/re { exch dup neg 3 1 roll 5 3 roll moveto 0 rlineto
      0 exch rlineto 0 rlineto closepath } bind def
/S { stroke } bind def
/f { fill } bind def
/f* { eofill } bind def
/n { newpath } bind def
/W { clip } bind def
/W* { eoclip } bind def
/BT { } bind def
/ET { } bind def
/BDC { mark 3 1 roll /BDC pdfmark } bind def
/EMC { mark /EMC pdfmark } bind def
/cairo_store_point { /cairo_point_y exch def /cairo_point_x exch def } def
/Tj { show currentpoint cairo_store_point } bind def
/TJ {
  {
    dup
    type /stringtype eq
    { show } { -0.001 mul 0 cairo_font_matrix dtransform rmoveto } ifelse
  } forall
  currentpoint cairo_store_point
} bind def
/cairo_selectfont { cairo_font_matrix aload pop pop pop 0 0 6 array astore
    cairo_font exch selectfont cairo_point_x cairo_point_y moveto } bind def
/Tf { pop /cairo_font exch def /cairo_font_matrix where
      { pop cairo_selectfont } if } bind def
/Td { matrix translate cairo_font_matrix matrix concatmatrix dup
      /cairo_font_matrix exch def dup 4 get exch 5 get cairo_store_point
      /cairo_font where { pop cairo_selectfont } if } bind def
/Tm { 2 copy 8 2 roll 6 array astore /cairo_font_matrix exch def
      cairo_store_point /cairo_font where { pop cairo_selectfont } if } bind def
/g { setgray } bind def
/rg { setrgbcolor } bind def
/d1 { setcachedevice } bind def
/cairo_data_source {
  CairoDataIndex CairoData length lt
    { CairoData CairoDataIndex get /CairoDataIndex CairoDataIndex 1 add def }
    { () } ifelse
} def
/cairo_flush_ascii85_file { cairo_ascii85_file status { cairo_ascii85_file flushfile } if } def
/cairo_image { image cairo_flush_ascii85_file } def
/cairo_imagemask { imagemask cairo_flush_ascii85_file } def
%%EndProlog
%%BeginSetup
%%EndSetup
%%Page: 1 1
%%BeginPageSetup
%%PageBoundingBox: 0 0 174 167
%%EndPageSetup
q 0 0 174 167 rectclip
1 0 0 -1 0 167 cm q
0 g
1.13366 w
0 J
0 j
[] 0.0 d
10 M q 1 0 0 -1 0 0 cm
26.27 -30.777 m 26.27 -30.777 30.059 -37.047 31.938 -40.418 c 33.98 -44.086
 35.688 -47.453 37.605 -51.188 c 39.602 -55.082 41.34 -58.605 43.277 -62.527
 c 45.25 -66.527 47.121 -70.078 48.945 -74.148 c 51.059 -78.875 52.727 -83.219
 54.613 -88.039 c 56.137 -91.934 58.867 -99.379 58.867 -99.379 c S Q
q 1 0 0 -1 0 0 cm
58.867 -99.379 m 58.867 -99.379 63.414 -91.988 65.953 -88.184 c 67.84 -85.348
 69.496 -82.762 71.621 -80.102 c 73.438 -77.832 75.285 -75.973 77.293 -73.867
 c 79.199 -71.863 80.812 -69.938 82.961 -68.195 c 84.773 -66.73 86.516 -65.492
 88.629 -64.512 c 90.48 -63.652 92.297 -63.207 94.297 -62.812 c 95.262 -62.621
 96.152 -62.527 97.133 -62.527 c 98.117 -62.527 99.004 -62.621 99.969 -62.812
 c 101.973 -63.207 103.785 -63.652 105.637 -64.512 c 107.754 -65.492 109.395
 -66.859 111.305 -68.195 c 113.312 -69.598 115.066 -70.922 116.977 -72.449
 c 118.984 -74.051 122.645 -77.27 122.645 -77.27 c S Q
Q q
105.688 0 68.312 93.617 re W n
q
105 0 69 94 re W n
  q
0 g
1.13366 w
0 J
0 j
[] 0.0 d
10 M q 1 0 0 -1 0 0 cm
122.645 -77.27 m 122.645 -77.27 126.316 -70.746 128.316 -67.348 c 130.23
 -64.094 132.07 -61.246 133.984 -57.992 c 135.984 -54.594 137.605 -51.441
 139.652 -48.07 c 141.527 -44.984 143.367 -42.316 145.324 -39.281 c 147.277
 -36.25 148.938 -33.461 150.992 -30.496 c 152.863 -27.793 154.68 -25.465
 156.66 -22.84 c 158.594 -20.277 160.352 -17.996 162.332 -15.469 c 164.262
 -13.008 168 -8.383 168 -8.383 c S Q
  Q
Q
Q q
0 g
1.13366 w
0 J
0 j
[] 0.0 d
10 M q 1 0 0 -1 0 0 cm
97.133 -144.738 m 97.133 -62.527 l S Q
q 1 0 0 -1 0 0 cm
26.27 -99.379 m 97.133 -99.379 l S Q
q 1 0 0 -1 0 0 cm
97.133 -77.27 m 168 -77.27 l S Q
0.567043 w
q 1 0 0 -1 0 0 cm
26.27 -2.996 141.73 -141.742 re S Q
0.398506 w
q 1 0 0 -1 0 0 cm
26.27 -144.738 m 26.27 -140.484 l S Q
q 1 0 0 -1 0 0 cm
54.613 -144.738 m 54.613 -140.484 l S Q
q 1 0 0 -1 0 0 cm
82.961 -144.738 m 82.961 -140.484 l S Q
q 1 0 0 -1 0 0 cm
111.305 -144.738 m 111.305 -140.484 l S Q
q 1 0 0 -1 0 0 cm
139.652 -144.738 m 139.652 -140.484 l S Q
q 1 0 0 -1 0 0 cm
167.996 -144.738 m 167.996 -140.484 l S Q
q 1 0 0 -1 0 0 cm
26.27 -144.738 m 26.27 -140.484 l S Q
q 1 0 0 -1 0 0 cm
26.27 -144.738 m 30.52 -144.738 l S Q
q 1 0 0 -1 0 0 cm
26.27 -116.391 m 30.52 -116.391 l S Q
q 1 0 0 -1 0 0 cm
26.27 -88.039 m 30.52 -88.039 l S Q
q 1 0 0 -1 0 0 cm
26.27 -59.691 m 30.52 -59.691 l S Q
q 1 0 0 -1 0 0 cm
26.27 -31.344 m 30.52 -31.344 l S Q
q 1 0 0 -1 0 0 cm
26.27 -2.996 m 30.52 -2.996 l S Q
q 1 0 0 -1 0 0 cm
26.27 -144.738 m 30.52 -144.738 l S Q
q 1 0 0 -1 0 0 cm
26.27 -2.996 m 26.27 -7.25 l S Q
q 1 0 0 -1 0 0 cm
54.613 -2.996 m 54.613 -7.25 l S Q
q 1 0 0 -1 0 0 cm
82.961 -2.996 m 82.961 -7.25 l S Q
q 1 0 0 -1 0 0 cm
111.305 -2.996 m 111.305 -7.25 l S Q
q 1 0 0 -1 0 0 cm
139.652 -2.996 m 139.652 -7.25 l S Q
q 1 0 0 -1 0 0 cm
167.996 -2.996 m 167.996 -7.25 l S Q
q 1 0 0 -1 0 0 cm
26.27 -2.996 m 26.27 -7.25 l S Q
q 1 0 0 -1 0 0 cm
168 -144.738 m 163.75 -144.738 l S Q
q 1 0 0 -1 0 0 cm
168 -116.391 m 163.75 -116.391 l S Q
q 1 0 0 -1 0 0 cm
168 -88.039 m 163.75 -88.039 l S Q
q 1 0 0 -1 0 0 cm
168 -59.691 m 163.75 -59.691 l S Q
q 1 0 0 -1 0 0 cm
168 -31.344 m 163.75 -31.344 l S Q
q 1 0 0 -1 0 0 cm
168 -2.996 m 163.75 -2.996 l S Q
q 1 0 0 -1 0 0 cm
168 -144.738 m 163.75 -144.738 l S Q
28.223 151.262 m 28.223 149.652 27.488 148.199 26.238 148.199 c 24.973 
148.199 24.238 149.652 24.238 151.262 c 24.238 152.887 24.926 154.324 26.238
 154.324 c 27.441 154.324 28.223 152.887 28.223 151.262 c h
27.363 151.262 m 27.363 152.559 27.238 154.074 26.238 154.074 c 25.285 
154.074 25.098 152.559 25.098 151.262 c 25.098 150.184 25.223 148.434 26.238
 148.434 c 27.238 148.434 27.363 150.184 27.363 151.262 c h
27.363 151.262 m f
53.184 151.262 m 53.184 149.652 52.449 148.199 51.199 148.199 c 49.934 
148.199 49.199 149.652 49.199 151.262 c 49.199 152.887 49.887 154.324 51.199
 154.324 c 52.402 154.324 53.184 152.887 53.184 151.262 c h
52.324 151.262 m 52.324 152.559 52.199 154.074 51.199 154.074 c 50.246 
154.074 50.059 152.559 50.059 151.262 c 50.059 150.184 50.184 148.434 51.199
 148.434 c 52.199 148.434 52.324 150.184 52.324 151.262 c h
52.324 151.262 m f
55.105 153.84 m 55.105 153.559 54.887 153.34 54.605 153.34 c 54.324 153.34
 54.105 153.559 54.105 153.84 c 54.105 154.121 54.324 154.34 54.605 154.34
 c 54.887 154.34 55.105 154.121 55.105 153.84 c h
55.105 153.84 m f
60.055 153.059 m 59.898 153.027 l 59.633 153.48 59.414 153.559 58.977 153.559
 c 56.914 153.559 l 58.336 152.262 59.633 151.09 59.633 149.777 c 59.633
 148.855 58.836 148.199 57.961 148.199 c 57.102 148.199 56.414 148.668 56.148
 149.887 c 56.352 149.887 l 56.602 149.387 56.945 148.871 57.633 148.871
 c 58.414 148.871 58.852 149.465 58.852 150.137 c 58.852 151.105 57.82 152.527
 56.055 154.074 c 56.055 154.215 l 59.586 154.215 l h
60.055 153.059 m f
81.504 151.262 m 81.504 149.652 80.77 148.199 79.52 148.199 c 78.254 148.199
 77.52 149.652 77.52 151.262 c 77.52 152.887 78.207 154.324 79.52 154.324
 c 80.723 154.324 81.504 152.887 81.504 151.262 c h
80.645 151.262 m 80.645 152.559 80.52 154.074 79.52 154.074 c 78.566 154.074
 78.379 152.559 78.379 151.262 c 78.379 150.184 78.504 148.434 79.52 148.434
 c 80.52 148.434 80.645 150.184 80.645 151.262 c h
80.645 151.262 m f
83.426 153.84 m 83.426 153.559 83.207 153.34 82.926 153.34 c 82.645 153.34
 82.426 153.559 82.426 153.84 c 82.426 154.121 82.645 154.34 82.926 154.34
 c 83.207 154.34 83.426 154.121 83.426 153.84 c h
83.426 153.84 m f
88.359 152.73 m 88.359 152.121 l 87.484 152.121 l 87.484 148.199 l 87.047
 148.199 l 84.453 152.105 l 84.453 152.73 l 86.75 152.73 l 86.75 154.215
 l 87.484 154.215 l 87.484 152.73 l h
86.75 152.121 m 84.812 152.121 l 86.734 149.137 l 86.75 149.137 l h
86.75 152.121 m f
109.82 151.262 m 109.82 149.652 109.086 148.199 107.836 148.199 c 106.57
 148.199 105.836 149.652 105.836 151.262 c 105.836 152.887 106.523 154.324
 107.836 154.324 c 109.039 154.324 109.82 152.887 109.82 151.262 c h
108.961 151.262 m 108.961 152.559 108.836 154.074 107.836 154.074 c 106.883
 154.074 106.695 152.559 106.695 151.262 c 106.695 150.184 106.82 148.434
 107.836 148.434 c 108.836 148.434 108.961 150.184 108.961 151.262 c h
108.961 151.262 m f
111.746 153.84 m 111.746 153.559 111.527 153.34 111.246 153.34 c 110.965
 153.34 110.746 153.559 110.746 153.84 c 110.746 154.121 110.965 154.34 
111.246 154.34 c 111.527 154.34 111.746 154.121 111.746 153.84 c h
111.746 153.84 m f
116.613 152.199 m 116.613 151.215 115.91 150.48 115.02 150.48 c 114.566
 150.48 114.191 150.621 113.801 150.934 c 114.191 149.34 115.363 148.34 
116.488 148.324 c 116.488 148.168 l 113.723 148.168 112.848 150.512 112.848
 151.84 c 112.848 153.262 113.676 154.324 114.785 154.324 c 115.801 154.324
 116.613 153.371 116.613 152.199 c h
115.848 152.652 m 115.848 153.48 115.473 154.059 114.879 154.059 c 113.957
 154.059 113.676 152.715 113.676 151.996 c 113.676 151.762 113.707 151.512
 113.754 151.215 c 114.145 150.965 114.457 150.855 114.77 150.855 c 115.676
 150.855 115.848 151.902 115.848 152.652 c h
115.848 152.652 m f
138.262 151.262 m 138.262 149.652 137.527 148.199 136.277 148.199 c 135.012
 148.199 134.277 149.652 134.277 151.262 c 134.277 152.887 134.965 154.324
 136.277 154.324 c 137.48 154.324 138.262 152.887 138.262 151.262 c h
137.402 151.262 m 137.402 152.559 137.277 154.074 136.277 154.074 c 135.324
 154.074 135.137 152.559 135.137 151.262 c 135.137 150.184 135.262 148.434
 136.277 148.434 c 137.277 148.434 137.402 150.184 137.402 151.262 c h
137.402 151.262 m f
140.188 153.84 m 140.188 153.559 139.969 153.34 139.688 153.34 c 139.406
 153.34 139.188 153.559 139.188 153.84 c 139.188 154.121 139.406 154.34 
139.688 154.34 c 139.969 154.34 140.188 154.121 140.188 153.84 c h
140.188 153.84 m f
144.836 152.84 m 144.836 152.199 144.555 151.715 143.461 150.902 c 144.148
 150.527 144.68 150.105 144.68 149.449 c 144.68 148.762 144.039 148.168 
143.086 148.168 c 142.242 148.168 141.445 148.715 141.445 149.559 c 141.445
 150.215 141.789 150.605 142.555 151.215 c 141.695 151.871 141.383 152.199
 141.383 152.871 c 141.383 153.621 142.055 154.324 143.102 154.324 c 144.32
 154.324 144.836 153.496 144.836 152.84 c h
144.07 149.434 m 144.07 150.074 143.695 150.418 143.211 150.746 c 142.617
 150.324 142.102 149.855 142.102 149.34 c 142.102 148.855 142.445 148.434
 143.055 148.434 c 143.727 148.434 144.07 148.855 144.07 149.434 c h
144.195 153.09 m 144.195 153.668 143.758 154.059 143.18 154.059 c 142.492
 154.059 142.055 153.512 142.055 152.777 c 142.055 152.105 142.383 151.715
 142.789 151.371 c 143.773 152.121 144.195 152.496 144.195 153.09 c h
144.195 153.09 m f
165.832 154.215 m 165.832 154.074 l 165.238 154.074 165.02 154.09 165.02
 152.918 c 165.02 152.902 165.02 148.168 165.02 148.168 c 164.895 148.168
 l 163.363 148.902 l 163.41 149.043 l 163.738 148.902 163.816 148.871 163.941
 148.871 c 164.207 148.871 164.254 149.105 164.254 149.418 c 164.254 152.918
 l 164.254 154.09 164.035 154.059 163.441 154.074 c 163.441 154.215 l h
165.832 154.215 m f
168.508 153.84 m 168.508 153.559 168.289 153.34 168.008 153.34 c 167.727
 153.34 167.508 153.559 167.508 153.84 c 167.508 154.121 167.727 154.34 
168.008 154.34 c 168.289 154.34 168.508 154.121 168.508 153.84 c h
168.508 153.84 m f
173.422 151.262 m 173.422 149.652 172.688 148.199 171.438 148.199 c 170.172
 148.199 169.438 149.652 169.438 151.262 c 169.438 152.887 170.125 154.324
 171.438 154.324 c 172.641 154.324 173.422 152.887 173.422 151.262 c h
172.562 151.262 m 172.562 152.559 172.438 154.074 171.438 154.074 c 170.484
 154.074 170.297 152.559 170.297 151.262 c 170.297 150.184 170.422 148.434
 171.438 148.434 c 172.438 148.434 172.562 150.184 172.562 151.262 c h
172.562 151.262 m f
22.582 144.781 m 22.582 143.172 21.848 141.719 20.598 141.719 c 19.332 
141.719 18.598 143.172 18.598 144.781 c 18.598 146.406 19.285 147.844 20.598
 147.844 c 21.801 147.844 22.582 146.406 22.582 144.781 c h
21.723 144.781 m 21.723 146.078 21.598 147.594 20.598 147.594 c 19.645 
147.594 19.457 146.078 19.457 144.781 c 19.457 143.703 19.582 141.953 20.598
 141.953 c 21.598 141.953 21.723 143.703 21.723 144.781 c h
21.723 144.781 m f
17.391 119.414 m 17.391 119.273 l 16.797 119.273 16.578 119.289 16.578 
118.117 c 16.578 118.102 16.578 113.367 16.578 113.367 c 16.453 113.367 
l 14.922 114.102 l 14.969 114.242 l 15.297 114.102 15.375 114.07 15.5 114.07
 c 15.766 114.07 15.812 114.305 15.812 114.617 c 15.812 118.117 l 15.812
 119.289 15.594 119.258 15 119.273 c 15 119.414 l h
17.391 119.414 m f
22.582 116.461 m 22.582 114.852 21.848 113.398 20.598 113.398 c 19.332 
113.398 18.598 114.852 18.598 116.461 c 18.598 118.086 19.285 119.523 20.598
 119.523 c 21.801 119.523 22.582 118.086 22.582 116.461 c h
21.723 116.461 m 21.723 117.758 21.598 119.273 20.598 119.273 c 19.645 
119.273 19.457 117.758 19.457 116.461 c 19.457 115.383 19.582 113.633 20.598
 113.633 c 21.598 113.633 21.723 115.383 21.723 116.461 c h
21.723 116.461 m f
18.172 89.938 m 18.016 89.906 l 17.75 90.359 17.531 90.438 17.094 90.438
 c 15.031 90.438 l 16.453 89.141 17.75 87.969 17.75 86.656 c 17.75 85.734
 16.953 85.078 16.078 85.078 c 15.219 85.078 14.531 85.547 14.266 86.766
 c 14.469 86.766 l 14.719 86.266 15.062 85.75 15.75 85.75 c 16.531 85.75
 16.969 86.344 16.969 87.016 c 16.969 87.984 15.938 89.406 14.172 90.953
 c 14.172 91.094 l 17.703 91.094 l h
18.172 89.938 m f
22.582 88.141 m 22.582 86.531 21.848 85.078 20.598 85.078 c 19.332 85.078
 18.598 86.531 18.598 88.141 c 18.598 89.766 19.285 91.203 20.598 91.203
 c 21.801 91.203 22.582 89.766 22.582 88.141 c h
21.723 88.141 m 21.723 89.438 21.598 90.953 20.598 90.953 c 19.645 90.953
 19.457 89.438 19.457 88.141 c 19.457 87.062 19.582 85.312 20.598 85.312
 c 21.598 85.312 21.723 87.062 21.723 88.141 c h
21.723 88.141 m f
17.797 60.84 m 17.797 59.902 17.25 59.496 16.719 59.277 c 17.297 58.84 
17.484 58.434 17.484 57.949 c 17.484 57.434 17.062 56.762 16.094 56.762 
c 15.391 56.762 14.719 57.152 14.422 58.121 c 14.562 58.152 l 14.75 57.793
 15.109 57.34 15.766 57.34 c 16.406 57.34 16.781 57.777 16.781 58.277 c 
16.781 58.98 16.234 59.48 15.422 59.668 c 15.406 59.855 l 16.797 59.793 
17.141 60.699 17.141 61.262 c 17.141 61.934 16.656 62.543 16.016 62.543 
c 15.438 62.543 15.188 62.043 14.703 62.043 c 14.547 62.043 14.359 62.199
 14.359 62.402 c 14.359 62.777 14.922 62.887 15.328 62.887 c 16.75 62.887
 17.797 62.074 17.797 60.84 c h
17.797 60.84 m f
22.582 59.824 m 22.582 58.215 21.848 56.762 20.598 56.762 c 19.332 56.762
 18.598 58.215 18.598 59.824 c 18.598 61.449 19.285 62.887 20.598 62.887
 c 21.801 62.887 22.582 61.449 22.582 59.824 c h
21.723 59.824 m 21.723 61.121 21.598 62.637 20.598 62.637 c 19.645 62.637
 19.457 61.121 19.457 59.824 c 19.457 58.746 19.582 56.996 20.598 56.996
 c 21.598 56.996 21.723 58.746 21.723 59.824 c h
21.723 59.824 m f
18.156 32.852 m 18.156 32.242 l 17.281 32.242 l 17.281 28.32 l 16.844 28.32
 l 14.25 32.227 l 14.25 32.852 l 16.547 32.852 l 16.547 34.336 l 17.281 
34.336 l 17.281 32.852 l h
16.547 32.242 m 14.609 32.242 l 16.531 29.258 l 16.547 29.258 l h
16.547 32.242 m f
22.582 31.383 m 22.582 29.773 21.848 28.32 20.598 28.32 c 19.332 28.32 
18.598 29.773 18.598 31.383 c 18.598 33.008 19.285 34.445 20.598 34.445 
c 21.801 34.445 22.582 33.008 22.582 31.383 c h
21.723 31.383 m 21.723 32.68 21.598 34.195 20.598 34.195 c 19.645 34.195
 19.457 32.68 19.457 31.383 c 19.457 30.305 19.582 28.555 20.598 28.555 
c 21.598 28.555 21.723 30.305 21.723 31.383 c h
21.723 31.383 m f
18.078 0.094 m 15.609 0.094 l 14.5 2.641 l 14.641 2.609 14.781 2.578 14.953
 2.578 c 15.906 2.578 17.203 3.078 17.203 4.25 c 17.203 5.156 16.547 5.734
 15.922 5.734 c 15.375 5.734 15.172 5.234 14.656 5.234 c 14.406 5.234 14.328
 5.453 14.328 5.562 c 14.328 5.875 14.766 6.125 15.391 6.125 c 16.734 6.125
 17.797 5.141 17.797 3.938 c 17.797 2.516 16.672 2.031 15.453 2 c 15.344
 2 15.219 2.016 15.109 2.031 c 15.672 0.766 l 17.766 0.75 l h
18.078 0.094 m f
22.582 3.062 m 22.582 1.453 21.848 0 20.598 0 c 19.332 0 18.598 1.453 18.598
 3.062 c 18.598 4.688 19.285 6.125 20.598 6.125 c 21.801 6.125 22.582 4.688
 22.582 3.062 c h
21.723 3.062 m 21.723 4.359 21.598 5.875 20.598 5.875 c 19.645 5.875 19.457
 4.359 19.457 3.062 c 19.457 1.984 19.582 0.234 20.598 0.234 c 21.598 0.234
 21.723 1.984 21.723 3.062 c h
21.723 3.062 m f
96.469 159.844 m 93.672 159.844 l 93.281 161 l 93.469 161 l 93.688 160.453
 93.906 160.438 94.234 160.438 c 95.688 160.438 l 92.594 163.938 l 95.438
 163.938 l 95.828 162.75 l 95.656 162.75 l 95.453 163.359 95.109 163.359
 94.781 163.359 c 93.359 163.359 l h
96.469 159.844 m f
96.777 161.613 m 97.355 161.645 97.434 161.723 97.434 162.238 c 97.434 
165.332 l 97.434 165.863 97.34 165.941 96.777 165.973 c 96.777 166.098 l
 99.105 166.098 l 99.637 166.098 100.137 165.957 100.402 165.707 c 100.652
 165.488 100.777 165.176 100.777 164.848 c 100.777 164.535 100.668 164.254
 100.449 164.051 c 100.23 163.863 100.043 163.785 99.59 163.676 c 99.949
 163.582 100.105 163.52 100.262 163.363 c 100.449 163.207 100.543 162.957
 100.543 162.676 c 100.543 161.895 99.918 161.488 98.715 161.488 c 96.777
 161.488 l h
98.152 163.832 m 98.824 163.832 99.152 163.863 99.402 163.973 c 99.793 
164.129 99.98 164.426 99.98 164.848 c 99.98 165.223 99.84 165.504 99.559
 165.66 c 99.34 165.785 99.043 165.832 98.59 165.832 c 98.246 165.832 98.152
 165.77 98.152 165.551 c h
98.152 163.551 m 98.152 161.957 l 98.152 161.801 98.184 161.754 98.309 
161.754 c 98.605 161.738 l 99.387 161.723 99.84 162.082 99.84 162.691 c 
99.84 163.254 99.48 163.535 98.809 163.551 c h
98.152 163.551 m f
29.355 165.562 m 28.949 165.531 28.871 165.453 28.559 164.781 c 26.324 
159.688 l 26.137 159.688 l 24.277 164.094 l 23.699 165.406 23.59 165.547
 23.168 165.562 c 23.168 165.734 l 24.934 165.734 l 24.934 165.562 l 24.512
 165.562 24.324 165.453 24.324 165.203 c 24.324 165.094 24.355 164.969 24.402
 164.844 c 24.809 163.797 l 27.168 163.797 l 27.527 164.656 l 27.637 164.906
 27.699 165.141 27.699 165.266 c 27.699 165.484 27.543 165.562 27.074 165.562
 c 27.074 165.734 l 29.355 165.734 l h
24.965 163.422 m 25.996 160.969 l 27.043 163.422 l h
24.965 163.422 m f
165.156 159.969 m 165.906 160.016 166 160.109 166.016 160.781 c 166.016
 164.75 l 166 165.422 165.891 165.531 165.156 165.562 c 165.156 165.734 
l 168.141 165.734 l 168.844 165.734 169.484 165.547 169.812 165.234 c 170.141
 164.953 170.312 164.547 170.312 164.125 c 170.312 163.719 170.172 163.359
 169.875 163.109 c 169.609 162.859 169.375 162.75 168.781 162.609 c 169.25
 162.5 169.438 162.406 169.656 162.219 c 169.875 162.016 170.016 161.703
 170.016 161.328 c 170.016 160.312 169.203 159.797 167.656 159.797 c 165.156
 159.797 l h
166.922 162.812 m 167.797 162.812 168.203 162.859 168.531 163 c 169.047
 163.203 169.281 163.578 169.281 164.125 c 169.281 164.609 169.094 164.969
 168.734 165.172 c 168.453 165.328 168.078 165.406 167.5 165.406 c 167.047
 165.406 166.922 165.328 166.922 165.031 c h
166.922 162.453 m 166.922 160.391 l 166.938 160.203 166.969 160.141 167.125
 160.141 c 167.516 160.125 l 168.516 160.109 169.094 160.562 169.094 161.359
 c 169.094 162.062 168.641 162.438 167.781 162.453 c h
166.922 162.453 m f
2.691 80.359 m 2.691 81.031 l 1.613 80.734 l 1.613 80.875 l 2.238 81.297
 2.66 81.797 2.801 82.406 c 2.988 82.453 l 2.988 81.781 l 5.691 82.516 l
 5.879 82.547 6.238 82.656 6.379 82.656 c 6.723 82.656 6.816 82.406 6.816
 82.234 c 6.816 81.844 6.52 81.422 5.77 80.953 c 5.707 81.078 l 5.973 81.312
 6.379 81.594 6.379 81.812 c 6.379 81.938 6.301 81.969 6.238 81.969 c 6.176
 81.969 6.129 81.953 5.988 81.922 c 2.988 81.109 l 2.988 80.406 l h
2.691 80.359 m f
0.27 75.598 m 0.27 76.035 l 8.629 79.145 l 8.629 78.691 l h
0.27 75.598 m f
1.453 71.676 m 0.656 71.676 0 72.332 0 73.16 c 0 73.988 0.656 74.645 1.453
 74.645 c 2.234 74.645 2.891 73.988 2.891 73.16 c 2.891 72.332 2.234 71.676
 1.453 71.676 c h
1.453 72.145 m 1.984 72.145 2.438 72.613 2.438 73.16 c 2.438 73.707 1.984
 74.16 1.453 74.16 c 0.922 74.16 0.469 73.707 0.469 73.16 c 0.469 72.613
 0.922 72.145 1.453 72.145 c h
1.453 72.145 m f
2.66 65.062 m 0.645 65.141 l 0.645 65.328 l 0.832 65.391 0.941 65.531 0.941
 65.703 c 0.941 65.797 0.91 65.922 0.863 66.062 c 0.723 66.5 0.645 66.953
 0.645 67.375 c 0.645 68.109 0.926 68.844 1.41 69.406 c 1.973 70.031 2.801
 70.375 3.785 70.375 c 5.613 70.375 6.832 69.188 6.832 67.391 c 6.832 66.375
 6.426 65.484 5.691 64.953 c 5.535 65.109 l 6.176 65.766 6.441 66.359 6.441
 67.109 c 6.441 67.672 6.254 68.172 5.91 68.562 c 5.473 69.062 4.676 69.328
 3.66 69.328 c 2.051 69.328 1.004 68.5 1.004 67.203 c 1.004 66.688 1.191
 66.219 1.535 65.859 c 1.832 65.578 2.082 65.438 2.66 65.266 c h
2.66 65.062 m f
73.891 36.098 m 75.766 36.098 l 75.766 35.973 l 75.266 35.957 75.172 35.879
 75.172 35.426 c 75.172 30.676 l 75.141 30.66 l 74.734 30.785 74.438 30.863
 73.875 31.004 c 73.875 31.129 l 73.922 31.129 l 74 31.129 74.094 31.113
 74.172 31.113 c 74.422 31.113 74.5 31.223 74.5 31.598 c 74.5 35.41 l 74.484
 35.832 74.375 35.941 73.891 35.973 c h
73.891 36.098 m f
76.004 36.098 m 77.895 36.098 l 77.895 35.973 l 77.363 35.941 77.316 35.863
 77.301 35.285 c 77.301 32.457 l 77.27 32.426 l 76.035 32.863 l 76.035 32.988
 l 76.098 32.988 l 76.191 32.973 76.301 32.957 76.379 32.957 c 76.566 32.957
 76.629 33.082 76.629 33.441 c 76.629 35.285 l 76.613 35.879 76.551 35.957
 76.004 35.973 c h
76.895 30.66 m 76.691 30.66 76.504 30.832 76.504 31.066 c 76.504 31.285
 76.676 31.473 76.895 31.473 c 77.145 31.473 77.316 31.285 77.316 31.066
 c 77.316 30.832 77.129 30.66 76.895 30.66 c h
76.895 30.66 m f
80.914 32.707 m 80.555 32.504 80.305 32.426 79.992 32.426 c 78.992 32.426
 78.227 33.316 78.227 34.473 c 78.227 35.473 78.758 36.176 79.508 36.176
 c 79.961 36.176 80.398 35.973 80.758 35.582 c 80.758 37.082 l 80.742 37.535
 80.602 37.66 80.055 37.691 c 80.055 37.832 l 81.93 37.832 l 81.93 37.723
 l 81.492 37.613 81.445 37.566 81.43 37.223 c 81.43 32.457 l 81.336 32.457
 l h
80.758 35.082 m 80.758 35.27 80.727 35.379 80.648 35.457 c 80.477 35.598
 80.211 35.691 79.961 35.691 c 79.711 35.691 79.492 35.613 79.336 35.457
 c 79.086 35.223 78.914 34.707 78.914 34.176 c 78.914 33.238 79.336 32.66
 80.008 32.66 c 80.508 32.66 80.758 32.926 80.758 33.441 c h
80.758 35.082 m f
85.812 35.707 m 85.781 35.707 l 85.391 35.676 85.328 35.613 85.328 35.238
 c 85.328 32.52 l 84.062 32.52 l 84.062 32.645 l 84.562 32.676 84.656 32.754
 84.656 33.145 c 84.656 35.02 l 84.656 35.238 84.609 35.363 84.5 35.441 
c 84.281 35.613 84.047 35.723 83.797 35.723 c 83.484 35.723 83.234 35.441
 83.234 35.113 c 83.234 32.52 l 82.078 32.52 l 82.078 32.629 l 82.453 32.645
 82.562 32.754 82.562 33.129 c 82.562 35.145 l 82.562 35.77 82.953 36.176
 83.531 36.176 c 83.828 36.176 84.141 36.051 84.344 35.832 c 84.688 35.488
 l 84.688 36.16 l 84.719 36.176 l 85.125 36.004 85.406 35.926 85.812 35.816
 c h
85.812 35.707 m f
86.086 36.098 m 87.977 36.098 l 87.977 35.973 l 87.445 35.941 87.398 35.863
 87.383 35.285 c 87.383 32.457 l 87.352 32.426 l 86.117 32.863 l 86.117 
32.988 l 86.18 32.988 l 86.273 32.973 86.383 32.957 86.461 32.957 c 86.648
 32.957 86.711 33.082 86.711 33.441 c 86.711 35.285 l 86.695 35.879 86.633
 35.957 86.086 35.973 c h
86.977 30.66 m 86.773 30.66 86.586 30.832 86.586 31.066 c 86.586 31.285
 86.758 31.473 86.977 31.473 c 87.227 31.473 87.398 31.285 87.398 31.066
 c 87.398 30.832 87.211 30.66 86.977 30.66 c h
86.977 30.66 m f
92.027 35.629 m 91.934 35.645 91.887 35.645 91.855 35.645 c 91.574 35.645
 91.496 35.551 91.496 35.191 c 91.496 30.676 l 91.465 30.66 l 91.09 30.785
 90.809 30.863 90.293 31.004 c 90.293 31.129 l 90.355 31.129 90.387 31.129
 90.465 31.129 c 90.762 31.129 90.824 31.207 90.824 31.535 c 90.824 32.77
 l 90.527 32.52 90.309 32.426 89.996 32.426 c 89.074 32.426 88.34 33.332
 88.34 34.457 c 88.34 35.488 88.934 36.176 89.809 36.176 c 90.262 36.176
 90.559 36.02 90.824 35.645 c 90.824 36.16 l 90.855 36.176 l 92.027 35.77
 l h
90.824 35.285 m 90.824 35.348 90.777 35.441 90.699 35.52 c 90.559 35.676
 90.355 35.77 90.121 35.77 c 89.449 35.77 89.027 35.129 89.027 34.145 c 
89.027 33.238 89.418 32.66 90.012 32.66 c 90.449 32.66 90.824 33.035 90.824
 33.457 c h
90.824 35.285 m f
33.367 84.254 m 33.008 84.238 32.93 84.16 32.648 83.566 c 30.664 79.035
 l 30.508 79.035 l 28.852 82.957 l 28.336 84.113 28.242 84.238 27.867 84.254
 c 27.867 84.41 l 29.445 84.41 l 29.445 84.254 l 29.055 84.254 28.898 84.16
 28.898 83.926 c 28.898 83.832 28.914 83.723 28.961 83.629 c 29.32 82.691
 l 31.414 82.691 l 31.742 83.457 l 31.836 83.676 31.898 83.879 31.898 83.988
 c 31.898 84.191 31.758 84.254 31.336 84.254 c 31.336 84.41 l 33.367 84.41
 l h
29.461 82.363 m 30.383 80.176 l 31.305 82.363 l h
29.461 82.363 m f
35.848 79.02 m 35.27 79.41 35.02 79.613 34.738 79.973 c 34.16 80.676 33.879
 81.473 33.879 82.395 c 33.879 83.426 34.176 84.191 34.879 85.004 c 35.207
 85.395 35.41 85.566 35.832 85.816 c 35.926 85.691 l 35.285 85.191 35.066
 84.91 34.848 84.316 c 34.66 83.785 34.566 83.176 34.566 82.379 c 34.566
 81.535 34.676 80.879 34.895 80.395 c 35.113 79.895 35.348 79.613 35.926
 79.145 c h
35.848 79.02 m f
38.66 81.91 m 38.629 80.816 l 38.535 80.816 l 38.488 80.879 38.457 80.91
 38.41 80.91 c 38.363 80.91 38.285 80.895 38.191 80.848 c 38.004 80.785 
37.832 80.738 37.629 80.738 c 37.004 80.738 36.551 81.16 36.551 81.738 c
 36.551 82.176 36.801 82.504 37.488 82.879 c 37.941 83.145 l 38.223 83.301
 38.363 83.488 38.363 83.738 c 38.363 84.098 38.098 84.316 37.691 84.316
 c 37.145 84.316 36.863 84.02 36.691 83.191 c 36.566 83.191 l 36.566 84.441
 l 36.66 84.441 l 36.723 84.363 36.754 84.348 36.848 84.348 c 36.926 84.348
 37.035 84.363 37.207 84.41 c 37.426 84.457 37.629 84.488 37.801 84.488 
c 38.41 84.488 38.91 84.035 38.91 83.473 c 38.91 83.066 38.723 82.801 38.254
 82.52 c 37.395 82.004 l 37.16 81.879 37.051 81.691 37.051 81.473 c 37.051
 81.145 37.285 80.926 37.66 80.926 c 38.113 80.926 38.348 81.191 38.535 
81.91 c h
38.66 81.91 m f
39.559 85.816 m 40.152 85.426 40.387 85.238 40.684 84.863 c 41.246 84.176
 41.527 83.379 41.527 82.441 c 41.527 81.426 41.23 80.645 40.543 79.832 
c 40.215 79.457 39.996 79.285 39.59 79.02 c 39.496 79.145 l 40.137 79.66
 40.34 79.926 40.574 80.535 c 40.762 81.066 40.84 81.66 40.84 82.473 c 40.84
 83.301 40.746 83.957 40.527 84.441 c 40.309 84.941 40.074 85.238 39.496
 85.691 c h
39.559 85.816 m f
43.887 82.129 m 42.137 82.129 l 42.137 82.66 l 43.887 82.66 l 43.887 84.41
 l 44.418 84.41 l 44.418 82.66 l 46.152 82.66 l 46.152 82.129 l 44.418 82.129
 l 44.418 80.379 l 43.887 80.379 l h
43.887 82.129 m f
47.281 84.41 m 49.484 84.41 l 49.484 84.285 l 48.875 84.285 48.734 84.207
 48.719 83.816 c 48.719 79.035 l 48.656 79.02 l 47.234 79.754 l 47.234 79.863
 l 47.531 79.738 47.734 79.691 47.797 79.691 c 47.969 79.691 48.047 79.801
 48.047 80.066 c 48.047 83.676 l 48.031 84.176 47.891 84.285 47.281 84.285
 c h
47.281 84.41 m f
68.637 92.914 m 70.512 92.914 l 70.512 92.789 l 70.012 92.773 69.918 92.695
 69.918 92.242 c 69.918 87.492 l 69.887 87.477 l 69.48 87.602 69.184 87.68
 68.621 87.82 c 68.621 87.945 l 68.668 87.945 l 68.746 87.945 68.84 87.93
 68.918 87.93 c 69.168 87.93 69.246 88.039 69.246 88.414 c 69.246 92.227
 l 69.23 92.648 69.121 92.758 68.637 92.789 c h
68.637 92.914 m f
72.609 90.633 m 70.859 90.633 l 70.859 91.164 l 72.609 91.164 l 72.609 
92.914 l 73.141 92.914 l 73.141 91.164 l 74.875 91.164 l 74.875 90.633 l
 73.141 90.633 l 73.141 88.883 l 72.609 88.883 l h
72.609 90.633 m f
80.688 92.758 m 80.328 92.742 80.25 92.664 79.969 92.07 c 77.984 87.539
 l 77.828 87.539 l 76.172 91.461 l 75.656 92.617 75.562 92.742 75.188 92.758
 c 75.188 92.914 l 76.766 92.914 l 76.766 92.758 l 76.375 92.758 76.219 
92.664 76.219 92.43 c 76.219 92.336 76.234 92.227 76.281 92.133 c 76.641
 91.195 l 78.734 91.195 l 79.062 91.961 l 79.156 92.18 79.219 92.383 79.219
 92.492 c 79.219 92.695 79.078 92.758 78.656 92.758 c 78.656 92.914 l 80.688
 92.914 l h
76.781 90.867 m 77.703 88.68 l 78.625 90.867 l h
76.781 90.867 m f
80.965 87.789 m 81.637 87.836 81.715 87.914 81.73 88.508 c 81.73 92.039
 l 81.715 92.648 81.605 92.742 80.965 92.758 c 80.965 92.914 l 83.621 92.914
 l 84.23 92.914 84.809 92.742 85.105 92.477 c 85.387 92.227 85.543 91.867
 85.543 91.477 c 85.543 91.133 85.418 90.805 85.152 90.586 c 84.918 90.367
 84.699 90.273 84.184 90.148 c 84.605 90.039 84.762 89.961 84.965 89.789
 c 85.152 89.617 85.277 89.336 85.277 88.992 c 85.277 88.102 84.559 87.633
 83.184 87.633 c 80.965 87.633 l h
82.543 90.32 m 83.309 90.32 83.684 90.367 83.965 90.477 c 84.418 90.664
 84.637 90.992 84.637 91.492 c 84.637 91.914 84.465 92.227 84.152 92.414
 c 83.887 92.555 83.559 92.617 83.043 92.617 c 82.652 92.617 82.543 92.555
 82.543 92.289 c h
82.543 90.008 m 82.543 88.18 l 82.543 87.992 82.574 87.945 82.715 87.945
 c 83.059 87.93 l 83.949 87.914 84.465 88.32 84.465 89.023 c 84.465 89.648
 84.059 89.992 83.293 89.992 c h
82.543 90.008 m f
88.445 87.523 m 87.867 87.914 87.617 88.117 87.336 88.477 c 86.758 89.18
 86.477 89.977 86.477 90.898 c 86.477 91.93 86.773 92.695 87.477 93.508 
c 87.805 93.898 88.008 94.07 88.43 94.32 c 88.523 94.195 l 87.883 93.695
 87.664 93.414 87.445 92.82 c 87.258 92.289 87.164 91.68 87.164 90.883 c
 87.164 90.039 87.273 89.383 87.492 88.898 c 87.711 88.398 87.945 88.117
 88.523 87.648 c h
88.445 87.523 m f
91.258 90.414 m 91.227 89.32 l 91.133 89.32 l 91.086 89.383 91.055 89.414
 91.008 89.414 c 90.961 89.414 90.883 89.398 90.789 89.352 c 90.602 89.289
 90.43 89.242 90.227 89.242 c 89.602 89.242 89.148 89.664 89.148 90.242 
c 89.148 90.68 89.398 91.008 90.086 91.383 c 90.539 91.648 l 90.82 91.805
 90.961 91.992 90.961 92.242 c 90.961 92.602 90.695 92.82 90.289 92.82 c
 89.742 92.82 89.461 92.523 89.289 91.695 c 89.164 91.695 l 89.164 92.945
 l 89.258 92.945 l 89.32 92.867 89.352 92.852 89.445 92.852 c 89.523 92.852
 89.633 92.867 89.805 92.914 c 90.023 92.961 90.227 92.992 90.398 92.992
 c 91.008 92.992 91.508 92.539 91.508 91.977 c 91.508 91.57 91.32 91.305
 90.852 91.023 c 89.992 90.508 l 89.758 90.383 89.648 90.195 89.648 89.977
 c 89.648 89.648 89.883 89.43 90.258 89.43 c 90.711 89.43 90.945 89.695 
91.133 90.414 c h
91.258 90.414 m f
92.16 94.32 m 92.754 93.93 92.988 93.742 93.285 93.367 c 93.848 92.68 94.129
 91.883 94.129 90.945 c 94.129 89.93 93.832 89.148 93.145 88.336 c 92.816
 87.961 92.598 87.789 92.191 87.523 c 92.098 87.648 l 92.738 88.164 92.941
 88.43 93.176 89.039 c 93.363 89.57 93.441 90.164 93.441 90.977 c 93.441
 91.805 93.348 92.461 93.129 92.945 c 92.91 93.445 92.676 93.742 92.098 
94.195 c h
92.16 94.32 m f
48.246 123.941 m 47.887 123.926 47.809 123.848 47.527 123.254 c 45.543 
118.723 l 45.387 118.723 l 43.73 122.645 l 43.215 123.801 43.121 123.926
 42.746 123.941 c 42.746 124.098 l 44.324 124.098 l 44.324 123.941 l 43.934
 123.941 43.777 123.848 43.777 123.613 c 43.777 123.52 43.793 123.41 43.84
 123.316 c 44.199 122.379 l 46.293 122.379 l 46.621 123.145 l 46.715 123.363
 46.777 123.566 46.777 123.676 c 46.777 123.879 46.637 123.941 46.215 123.941
 c 46.215 124.098 l 48.246 124.098 l h
44.34 122.051 m 45.262 119.863 l 46.184 122.051 l h
44.34 122.051 m f
50.727 118.707 m 50.148 119.098 49.898 119.301 49.617 119.66 c 49.039 120.363
 48.758 121.16 48.758 122.082 c 48.758 123.113 49.055 123.879 49.758 124.691
 c 50.086 125.082 50.289 125.254 50.711 125.504 c 50.805 125.379 l 50.164
 124.879 49.945 124.598 49.727 124.004 c 49.539 123.473 49.445 122.863 49.445
 122.066 c 49.445 121.223 49.555 120.566 49.773 120.082 c 49.992 119.582
 50.227 119.301 50.805 118.832 c h
50.727 118.707 m f
53.535 121.598 m 53.504 120.504 l 53.41 120.504 l 53.363 120.566 53.332
 120.598 53.285 120.598 c 53.238 120.598 53.16 120.582 53.066 120.535 c 
52.879 120.473 52.707 120.426 52.504 120.426 c 51.879 120.426 51.426 120.848
 51.426 121.426 c 51.426 121.863 51.676 122.191 52.363 122.566 c 52.816 
122.832 l 53.098 122.988 53.238 123.176 53.238 123.426 c 53.238 123.785 
52.973 124.004 52.566 124.004 c 52.02 124.004 51.738 123.707 51.566 122.879
 c 51.441 122.879 l 51.441 124.129 l 51.535 124.129 l 51.598 124.051 51.629
 124.035 51.723 124.035 c 51.801 124.035 51.91 124.051 52.082 124.098 c 
52.301 124.145 52.504 124.176 52.676 124.176 c 53.285 124.176 53.785 123.723
 53.785 123.16 c 53.785 122.754 53.598 122.488 53.129 122.207 c 52.27 121.691
 l 52.035 121.566 51.926 121.379 51.926 121.16 c 51.926 120.832 52.16 120.613
 52.535 120.613 c 52.988 120.613 53.223 120.879 53.41 121.598 c h
53.535 121.598 m f
54.438 125.504 m 55.031 125.113 55.266 124.926 55.562 124.551 c 56.125 
123.863 56.406 123.066 56.406 122.129 c 56.406 121.113 56.109 120.332 55.422
 119.52 c 55.094 119.145 54.875 118.973 54.469 118.707 c 54.375 118.832 
l 55.016 119.348 55.219 119.613 55.453 120.223 c 55.641 120.754 55.719 121.348
 55.719 122.16 c 55.719 122.988 55.625 123.645 55.406 124.129 c 55.188 124.629
 54.953 124.926 54.375 125.379 c h
54.438 125.504 m f
58.766 121.816 m 57.016 121.816 l 57.016 122.348 l 58.766 122.348 l 58.766
 124.098 l 59.297 124.098 l 59.297 122.348 l 61.031 122.348 l 61.031 121.816
 l 59.297 121.816 l 59.297 120.066 l 58.766 120.066 l h
58.766 121.816 m f
66.844 123.941 m 66.484 123.926 66.406 123.848 66.125 123.254 c 64.141 
118.723 l 63.984 118.723 l 62.328 122.645 l 61.812 123.801 61.719 123.926
 61.344 123.941 c 61.344 124.098 l 62.922 124.098 l 62.922 123.941 l 62.531
 123.941 62.375 123.848 62.375 123.613 c 62.375 123.52 62.391 123.41 62.438
 123.316 c 62.797 122.379 l 64.891 122.379 l 65.219 123.145 l 65.312 123.363
 65.375 123.566 65.375 123.676 c 65.375 123.879 65.234 123.941 64.812 123.941
 c 64.812 124.098 l 66.844 124.098 l h
62.938 122.051 m 63.859 119.863 l 64.781 122.051 l h
62.938 122.051 m f
67.121 118.973 m 67.793 119.02 67.871 119.098 67.887 119.691 c 67.887 123.223
 l 67.871 123.832 67.762 123.926 67.121 123.941 c 67.121 124.098 l 69.777
 124.098 l 70.387 124.098 70.965 123.926 71.262 123.66 c 71.543 123.41 71.699
 123.051 71.699 122.66 c 71.699 122.316 71.574 121.988 71.309 121.77 c 71.074
 121.551 70.855 121.457 70.34 121.332 c 70.762 121.223 70.918 121.145 71.121
 120.973 c 71.309 120.801 71.434 120.52 71.434 120.176 c 71.434 119.285 
70.715 118.816 69.34 118.816 c 67.121 118.816 l h
68.699 121.504 m 69.465 121.504 69.84 121.551 70.121 121.66 c 70.574 121.848
 70.793 122.176 70.793 122.676 c 70.793 123.098 70.621 123.41 70.309 123.598
 c 70.043 123.738 69.715 123.801 69.199 123.801 c 68.809 123.801 68.699 
123.738 68.699 123.473 c h
68.699 121.191 m 68.699 119.363 l 68.699 119.176 68.73 119.129 68.871 119.129
 c 69.215 119.113 l 70.105 119.098 70.621 119.504 70.621 120.207 c 70.621
 120.832 70.215 121.176 69.449 121.176 c h
68.699 121.191 m f
74.605 118.707 m 74.027 119.098 73.777 119.301 73.496 119.66 c 72.918 120.363
 72.637 121.16 72.637 122.082 c 72.637 123.113 72.934 123.879 73.637 124.691
 c 73.965 125.082 74.168 125.254 74.59 125.504 c 74.684 125.379 l 74.043
 124.879 73.824 124.598 73.605 124.004 c 73.418 123.473 73.324 122.863 73.324
 122.066 c 73.324 121.223 73.434 120.566 73.652 120.082 c 73.871 119.582
 74.105 119.301 74.684 118.832 c h
74.605 118.707 m f
77.418 121.598 m 77.387 120.504 l 77.293 120.504 l 77.246 120.566 77.215
 120.598 77.168 120.598 c 77.121 120.598 77.043 120.582 76.949 120.535 c
 76.762 120.473 76.59 120.426 76.387 120.426 c 75.762 120.426 75.309 120.848
 75.309 121.426 c 75.309 121.863 75.559 122.191 76.246 122.566 c 76.699 
122.832 l 76.98 122.988 77.121 123.176 77.121 123.426 c 77.121 123.785 76.855
 124.004 76.449 124.004 c 75.902 124.004 75.621 123.707 75.449 122.879 c
 75.324 122.879 l 75.324 124.129 l 75.418 124.129 l 75.48 124.051 75.512
 124.035 75.605 124.035 c 75.684 124.035 75.793 124.051 75.965 124.098 c
 76.184 124.145 76.387 124.176 76.559 124.176 c 77.168 124.176 77.668 123.723
 77.668 123.16 c 77.668 122.754 77.48 122.488 77.012 122.207 c 76.152 121.691
 l 75.918 121.566 75.809 121.379 75.809 121.16 c 75.809 120.832 76.043 120.613
 76.418 120.613 c 76.871 120.613 77.105 120.879 77.293 121.598 c h
77.418 121.598 m f
78.316 125.504 m 78.91 125.113 79.145 124.926 79.441 124.551 c 80.004 123.863
 80.285 123.066 80.285 122.129 c 80.285 121.113 79.988 120.332 79.301 119.52
 c 78.973 119.145 78.754 118.973 78.348 118.707 c 78.254 118.832 l 78.895
 119.348 79.098 119.613 79.332 120.223 c 79.52 120.754 79.598 121.348 79.598
 122.16 c 79.598 122.988 79.504 123.645 79.285 124.129 c 79.066 124.629 
78.832 124.926 78.254 125.379 c h
78.316 125.504 m f
119.352 123.941 m 118.992 123.926 118.914 123.848 118.633 123.254 c 116.648
 118.723 l 116.492 118.723 l 114.836 122.645 l 114.32 123.801 114.227 123.926
 113.852 123.941 c 113.852 124.098 l 115.43 124.098 l 115.43 123.941 l 115.039
 123.941 114.883 123.848 114.883 123.613 c 114.883 123.52 114.898 123.41
 114.945 123.316 c 115.305 122.379 l 117.398 122.379 l 117.727 123.145 l
 117.82 123.363 117.883 123.566 117.883 123.676 c 117.883 123.879 117.742
 123.941 117.32 123.941 c 117.32 124.098 l 119.352 124.098 l h
115.445 122.051 m 116.367 119.863 l 117.289 122.051 l h
115.445 122.051 m f
119.629 118.973 m 120.301 119.02 120.379 119.098 120.395 119.691 c 120.395
 123.223 l 120.379 123.832 120.27 123.926 119.629 123.941 c 119.629 124.098
 l 122.285 124.098 l 122.895 124.098 123.473 123.926 123.77 123.66 c 124.051
 123.41 124.207 123.051 124.207 122.66 c 124.207 122.316 124.082 121.988
 123.816 121.77 c 123.582 121.551 123.363 121.457 122.848 121.332 c 123.27
 121.223 123.426 121.145 123.629 120.973 c 123.816 120.801 123.941 120.52
 123.941 120.176 c 123.941 119.285 123.223 118.816 121.848 118.816 c 119.629
 118.816 l h
121.207 121.504 m 121.973 121.504 122.348 121.551 122.629 121.66 c 123.082
 121.848 123.301 122.176 123.301 122.676 c 123.301 123.098 123.129 123.41
 122.816 123.598 c 122.551 123.738 122.223 123.801 121.707 123.801 c 121.316
 123.801 121.207 123.738 121.207 123.473 c h
121.207 121.191 m 121.207 119.363 l 121.207 119.176 121.238 119.129 121.379
 119.129 c 121.723 119.113 l 122.613 119.098 123.129 119.504 123.129 120.207
 c 123.129 120.832 122.723 121.176 121.957 121.176 c h
121.207 121.191 m f
127.109 118.707 m 126.531 119.098 126.281 119.301 126 119.66 c 125.422 
120.363 125.141 121.16 125.141 122.082 c 125.141 123.113 125.438 123.879
 126.141 124.691 c 126.469 125.082 126.672 125.254 127.094 125.504 c 127.188
 125.379 l 126.547 124.879 126.328 124.598 126.109 124.004 c 125.922 123.473
 125.828 122.863 125.828 122.066 c 125.828 121.223 125.938 120.566 126.156
 120.082 c 126.375 119.582 126.609 119.301 127.188 118.832 c h
127.109 118.707 m f
129.922 121.598 m 129.891 120.504 l 129.797 120.504 l 129.75 120.566 129.719
 120.598 129.672 120.598 c 129.625 120.598 129.547 120.582 129.453 120.535
 c 129.266 120.473 129.094 120.426 128.891 120.426 c 128.266 120.426 127.812
 120.848 127.812 121.426 c 127.812 121.863 128.062 122.191 128.75 122.566
 c 129.203 122.832 l 129.484 122.988 129.625 123.176 129.625 123.426 c 129.625
 123.785 129.359 124.004 128.953 124.004 c 128.406 124.004 128.125 123.707
 127.953 122.879 c 127.828 122.879 l 127.828 124.129 l 127.922 124.129 l
 127.984 124.051 128.016 124.035 128.109 124.035 c 128.188 124.035 128.297
 124.051 128.469 124.098 c 128.688 124.145 128.891 124.176 129.062 124.176
 c 129.672 124.176 130.172 123.723 130.172 123.16 c 130.172 122.754 129.984
 122.488 129.516 122.207 c 128.656 121.691 l 128.422 121.566 128.312 121.379
 128.312 121.16 c 128.312 120.832 128.547 120.613 128.922 120.613 c 129.375
 120.613 129.609 120.879 129.797 121.598 c h
129.922 121.598 m f
130.824 125.504 m 131.418 125.113 131.652 124.926 131.949 124.551 c 132.512
 123.863 132.793 123.066 132.793 122.129 c 132.793 121.113 132.496 120.332
 131.809 119.52 c 131.48 119.145 131.262 118.973 130.855 118.707 c 130.762
 118.832 l 131.402 119.348 131.605 119.613 131.84 120.223 c 132.027 120.754
 132.105 121.348 132.105 122.16 c 132.105 122.988 132.012 123.645 131.793
 124.129 c 131.574 124.629 131.34 124.926 130.762 125.379 c h
130.824 125.504 m f
135.152 121.816 m 133.402 121.816 l 133.402 122.348 l 135.152 122.348 l
 135.152 124.098 l 135.684 124.098 l 135.684 122.348 l 137.418 122.348 l
 137.418 121.816 l 135.684 121.816 l 135.684 120.066 l 135.152 120.066 l
 h
135.152 121.816 m f
137.746 118.973 m 138.418 119.02 138.496 119.098 138.512 119.691 c 138.512
 123.223 l 138.496 123.832 138.387 123.926 137.746 123.941 c 137.746 124.098
 l 140.402 124.098 l 141.012 124.098 141.59 123.926 141.887 123.66 c 142.168
 123.41 142.324 123.051 142.324 122.66 c 142.324 122.316 142.199 121.988
 141.934 121.77 c 141.699 121.551 141.48 121.457 140.965 121.332 c 141.387
 121.223 141.543 121.145 141.746 120.973 c 141.934 120.801 142.059 120.52
 142.059 120.176 c 142.059 119.285 141.34 118.816 139.965 118.816 c 137.746
 118.816 l h
139.324 121.504 m 140.09 121.504 140.465 121.551 140.746 121.66 c 141.199
 121.848 141.418 122.176 141.418 122.676 c 141.418 123.098 141.246 123.41
 140.934 123.598 c 140.668 123.738 140.34 123.801 139.824 123.801 c 139.434
 123.801 139.324 123.738 139.324 123.473 c h
139.324 121.191 m 139.324 119.363 l 139.324 119.176 139.355 119.129 139.496
 119.129 c 139.84 119.113 l 140.73 119.098 141.246 119.504 141.246 120.207
 c 141.246 120.832 140.84 121.176 140.074 121.176 c h
139.324 121.191 m f
145.23 118.707 m 144.652 119.098 144.402 119.301 144.121 119.66 c 143.543
 120.363 143.262 121.16 143.262 122.082 c 143.262 123.113 143.559 123.879
 144.262 124.691 c 144.59 125.082 144.793 125.254 145.215 125.504 c 145.309
 125.379 l 144.668 124.879 144.449 124.598 144.23 124.004 c 144.043 123.473
 143.949 122.863 143.949 122.066 c 143.949 121.223 144.059 120.566 144.277
 120.082 c 144.496 119.582 144.73 119.301 145.309 118.832 c h
145.23 118.707 m f
148.043 121.598 m 148.012 120.504 l 147.918 120.504 l 147.871 120.566 147.84
 120.598 147.793 120.598 c 147.746 120.598 147.668 120.582 147.574 120.535
 c 147.387 120.473 147.215 120.426 147.012 120.426 c 146.387 120.426 145.934
 120.848 145.934 121.426 c 145.934 121.863 146.184 122.191 146.871 122.566
 c 147.324 122.832 l 147.605 122.988 147.746 123.176 147.746 123.426 c 147.746
 123.785 147.48 124.004 147.074 124.004 c 146.527 124.004 146.246 123.707
 146.074 122.879 c 145.949 122.879 l 145.949 124.129 l 146.043 124.129 l
 146.105 124.051 146.137 124.035 146.23 124.035 c 146.309 124.035 146.418
 124.051 146.59 124.098 c 146.809 124.145 147.012 124.176 147.184 124.176
 c 147.793 124.176 148.293 123.723 148.293 123.16 c 148.293 122.754 148.105
 122.488 147.637 122.207 c 146.777 121.691 l 146.543 121.566 146.434 121.379
 146.434 121.16 c 146.434 120.832 146.668 120.613 147.043 120.613 c 147.496
 120.613 147.73 120.879 147.918 121.598 c h
148.043 121.598 m f
148.941 125.504 m 149.535 125.113 149.77 124.926 150.066 124.551 c 150.629
 123.863 150.91 123.066 150.91 122.129 c 150.91 121.113 150.613 120.332 
149.926 119.52 c 149.598 119.145 149.379 118.973 148.973 118.707 c 148.879
 118.832 l 149.52 119.348 149.723 119.613 149.957 120.223 c 150.145 120.754
 150.223 121.348 150.223 122.16 c 150.223 122.988 150.129 123.645 149.91
 124.129 c 149.691 124.629 149.457 124.926 148.879 125.379 c h
148.941 125.504 m f
136.711 67.398 m 138.586 67.398 l 138.586 67.273 l 138.086 67.258 137.992
 67.18 137.992 66.727 c 137.992 61.977 l 137.961 61.961 l 137.555 62.086
 137.258 62.164 136.695 62.305 c 136.695 62.43 l 136.742 62.43 l 136.82 
62.43 136.914 62.414 136.992 62.414 c 137.242 62.414 137.32 62.523 137.32
 62.898 c 137.32 66.711 l 137.305 67.133 137.195 67.242 136.711 67.273 c
 h
136.711 67.398 m f
140.684 65.117 m 138.934 65.117 l 138.934 65.648 l 140.684 65.648 l 140.684
 67.398 l 141.215 67.398 l 141.215 65.648 l 142.949 65.648 l 142.949 65.117
 l 141.215 65.117 l 141.215 63.367 l 140.684 63.367 l h
140.684 65.117 m f
143.281 62.273 m 143.953 62.32 144.031 62.398 144.047 62.992 c 144.047 
66.523 l 144.031 67.133 143.922 67.227 143.281 67.242 c 143.281 67.398 l
 145.938 67.398 l 146.547 67.398 147.125 67.227 147.422 66.961 c 147.703
 66.711 147.859 66.352 147.859 65.961 c 147.859 65.617 147.734 65.289 147.469
 65.07 c 147.234 64.852 147.016 64.758 146.5 64.633 c 146.922 64.523 147.078
 64.445 147.281 64.273 c 147.469 64.102 147.594 63.82 147.594 63.477 c 147.594
 62.586 146.875 62.117 145.5 62.117 c 143.281 62.117 l h
144.859 64.805 m 145.625 64.805 146 64.852 146.281 64.961 c 146.734 65.148
 146.953 65.477 146.953 65.977 c 146.953 66.398 146.781 66.711 146.469 66.898
 c 146.203 67.039 145.875 67.102 145.359 67.102 c 144.969 67.102 144.859
 67.039 144.859 66.773 c h
144.859 64.492 m 144.859 62.664 l 144.859 62.477 144.891 62.43 145.031 
62.43 c 145.375 62.414 l 146.266 62.398 146.781 62.805 146.781 63.508 c 
146.781 64.133 146.375 64.477 145.609 64.477 c h
144.859 64.492 m f
150.766 62.008 m 150.188 62.398 149.938 62.602 149.656 62.961 c 149.078
 63.664 148.797 64.461 148.797 65.383 c 148.797 66.414 149.094 67.18 149.797
 67.992 c 150.125 68.383 150.328 68.555 150.75 68.805 c 150.844 68.68 l 
150.203 68.18 149.984 67.898 149.766 67.305 c 149.578 66.773 149.484 66.164
 149.484 65.367 c 149.484 64.523 149.594 63.867 149.812 63.383 c 150.031
 62.883 150.266 62.602 150.844 62.133 c h
150.766 62.008 m f
153.578 64.898 m 153.547 63.805 l 153.453 63.805 l 153.406 63.867 153.375
 63.898 153.328 63.898 c 153.281 63.898 153.203 63.883 153.109 63.836 c 
152.922 63.773 152.75 63.727 152.547 63.727 c 151.922 63.727 151.469 64.148
 151.469 64.727 c 151.469 65.164 151.719 65.492 152.406 65.867 c 152.859
 66.133 l 153.141 66.289 153.281 66.477 153.281 66.727 c 153.281 67.086 
153.016 67.305 152.609 67.305 c 152.062 67.305 151.781 67.008 151.609 66.18
 c 151.484 66.18 l 151.484 67.43 l 151.578 67.43 l 151.641 67.352 151.672
 67.336 151.766 67.336 c 151.844 67.336 151.953 67.352 152.125 67.398 c 
152.344 67.445 152.547 67.477 152.719 67.477 c 153.328 67.477 153.828 67.023
 153.828 66.461 c 153.828 66.055 153.641 65.789 153.172 65.508 c 152.312
 64.992 l 152.078 64.867 151.969 64.68 151.969 64.461 c 151.969 64.133 152.203
 63.914 152.578 63.914 c 153.031 63.914 153.266 64.18 153.453 64.898 c h
153.578 64.898 m f
154.477 68.805 m 155.07 68.414 155.305 68.227 155.602 67.852 c 156.164 
67.164 156.445 66.367 156.445 65.43 c 156.445 64.414 156.148 63.633 155.461
 62.82 c 155.133 62.445 154.914 62.273 154.508 62.008 c 154.414 62.133 l
 155.055 62.648 155.258 62.914 155.492 63.523 c 155.68 64.055 155.758 64.648
 155.758 65.461 c 155.758 66.289 155.664 66.945 155.445 67.43 c 155.227 
67.93 154.992 68.227 154.414 68.68 c h
154.477 68.805 m f
107.059 73.621 m 104.219 71.598 l 105.137 74.961 l 105.348 73.215 l f
0.425176 w
q 1 0 0 -1 0 0 cm
105.348 -73.215 m 112.723 -83.789 l S Q
118.605 87.09 m 118.246 87.074 118.168 86.996 117.887 86.402 c 115.902 
81.871 l 115.746 81.871 l 114.09 85.793 l 113.574 86.949 113.48 87.074 113.105
 87.09 c 113.105 87.246 l 114.684 87.246 l 114.684 87.09 l 114.293 87.09
 114.137 86.996 114.137 86.762 c 114.137 86.668 114.152 86.559 114.199 86.465
 c 114.559 85.527 l 116.652 85.527 l 116.98 86.293 l 117.074 86.512 117.137
 86.715 117.137 86.824 c 117.137 87.027 116.996 87.09 116.574 87.09 c 116.574
 87.246 l 118.605 87.246 l h
114.699 85.199 m 115.621 83.012 l 116.543 85.199 l h
114.699 85.199 m f
118.879 82.121 m 119.551 82.168 119.629 82.246 119.645 82.84 c 119.645 
86.371 l 119.629 86.98 119.52 87.074 118.879 87.09 c 118.879 87.246 l 121.535
 87.246 l 122.145 87.246 122.723 87.074 123.02 86.809 c 123.301 86.559 123.457
 86.199 123.457 85.809 c 123.457 85.465 123.332 85.137 123.066 84.918 c 
122.832 84.699 122.613 84.605 122.098 84.48 c 122.52 84.371 122.676 84.293
 122.879 84.121 c 123.066 83.949 123.191 83.668 123.191 83.324 c 123.191
 82.434 122.473 81.965 121.098 81.965 c 118.879 81.965 l h
120.457 84.652 m 121.223 84.652 121.598 84.699 121.879 84.809 c 122.332
 84.996 122.551 85.324 122.551 85.824 c 122.551 86.246 122.379 86.559 122.066
 86.746 c 121.801 86.887 121.473 86.949 120.957 86.949 c 120.566 86.949 
120.457 86.887 120.457 86.621 c h
120.457 84.34 m 120.457 82.512 l 120.457 82.324 120.488 82.277 120.629 
82.277 c 120.973 82.262 l 121.863 82.246 122.379 82.652 122.379 83.355 c
 122.379 83.98 121.973 84.324 121.207 84.324 c h
120.457 84.34 m f
126.363 81.855 m 125.785 82.246 125.535 82.449 125.254 82.809 c 124.676
 83.512 124.395 84.309 124.395 85.23 c 124.395 86.262 124.691 87.027 125.395
 87.84 c 125.723 88.23 125.926 88.402 126.348 88.652 c 126.441 88.527 l 
125.801 88.027 125.582 87.746 125.363 87.152 c 125.176 86.621 125.082 86.012
 125.082 85.215 c 125.082 84.371 125.191 83.715 125.41 83.23 c 125.629 82.73
 125.863 82.449 126.441 81.98 c h
126.363 81.855 m f
129.176 84.746 m 129.145 83.652 l 129.051 83.652 l 129.004 83.715 128.973
 83.746 128.926 83.746 c 128.879 83.746 128.801 83.73 128.707 83.684 c 128.52
 83.621 128.348 83.574 128.145 83.574 c 127.52 83.574 127.066 83.996 127.066
 84.574 c 127.066 85.012 127.316 85.34 128.004 85.715 c 128.457 85.98 l 
128.738 86.137 128.879 86.324 128.879 86.574 c 128.879 86.934 128.613 87.152
 128.207 87.152 c 127.66 87.152 127.379 86.855 127.207 86.027 c 127.082 
86.027 l 127.082 87.277 l 127.176 87.277 l 127.238 87.199 127.27 87.184 
127.363 87.184 c 127.441 87.184 127.551 87.199 127.723 87.246 c 127.941 
87.293 128.145 87.324 128.316 87.324 c 128.926 87.324 129.426 86.871 129.426
 86.309 c 129.426 85.902 129.238 85.637 128.77 85.355 c 127.91 84.84 l 127.676
 84.715 127.566 84.527 127.566 84.309 c 127.566 83.98 127.801 83.762 128.176
 83.762 c 128.629 83.762 128.863 84.027 129.051 84.746 c h
129.176 84.746 m f
130.074 88.652 m 130.668 88.262 130.902 88.074 131.199 87.699 c 131.762
 87.012 132.043 86.215 132.043 85.277 c 132.043 84.262 131.746 83.48 131.059
 82.668 c 130.73 82.293 130.512 82.121 130.105 81.855 c 130.012 81.98 l 
130.652 82.496 130.855 82.762 131.09 83.371 c 131.277 83.902 131.355 84.496
 131.355 85.309 c 131.355 86.137 131.262 86.793 131.043 87.277 c 130.824
 87.777 130.59 88.074 130.012 88.527 c h
130.074 88.652 m f
134.402 84.965 m 132.652 84.965 l 132.652 85.496 l 134.402 85.496 l 134.402
 87.246 l 134.934 87.246 l 134.934 85.496 l 136.668 85.496 l 136.668 84.965
 l 134.934 84.965 l 134.934 83.215 l 134.402 83.215 l h
134.402 84.965 m f
137.797 87.246 m 140 87.246 l 140 87.121 l 139.391 87.121 139.25 87.043
 139.234 86.652 c 139.234 81.871 l 139.172 81.855 l 137.75 82.59 l 137.75
 82.699 l 138.047 82.574 138.25 82.527 138.312 82.527 c 138.484 82.527 138.562
 82.637 138.562 82.902 c 138.562 86.512 l 138.547 87.012 138.406 87.121 
137.797 87.121 c h
137.797 87.246 m f
Q Q
showpage
%%Trailer
end
%%EOF
