<?xml version="1.0" encoding="UTF-8" standalone="no"?>
<svg
   width="361.5pt"
   height="172.3pt"
   viewBox="0 0 361.5 172.3"
   version="1.2"
   id="svg940"
   xmlns:xlink="http://www.w3.org/1999/xlink"
   xmlns="http://www.w3.org/2000/svg"
   xmlns:svg="http://www.w3.org/2000/svg">
  <defs
     id="defs157">
    <g
       id="g155">
      <symbol
         overflow="visible"
         id="glyph0-0">
        <path
           style="stroke:none;"
           d=""
           id="path2" />
      </symbol>
      <symbol
         overflow="visible"
         id="glyph0-1">
        <path
           style="stroke:none;"
           d="M 3.75 -3.09375 L 3.75 -3.40625 L 3.125 -3.40625 C 2.96875 -3.40625 2.859375 -3.421875 2.6875 -3.484375 L 2.515625 -3.546875 C 2.3125 -3.625 2.09375 -3.671875 1.875 -3.671875 C 1.140625 -3.671875 0.546875 -3.09375 0.546875 -2.359375 C 0.546875 -1.859375 0.75 -1.5625 1.296875 -1.296875 L 1.078125 -1.109375 C 0.921875 -0.953125 0.828125 -0.859375 0.796875 -0.828125 C 0.625 -0.65625 0.578125 -0.5625 0.578125 -0.4375 C 0.578125 -0.25 0.671875 -0.171875 1 -0.015625 C 0.4375 0.40625 0.21875 0.671875 0.21875 0.96875 C 0.21875 1.390625 0.84375 1.734375 1.609375 1.734375 C 2.203125 1.734375 2.828125 1.53125 3.234375 1.1875 C 3.53125 0.953125 3.671875 0.6875 3.671875 0.390625 C 3.671875 -0.109375 3.296875 -0.4375 2.703125 -0.46875 L 1.6875 -0.515625 C 1.25 -0.53125 1.0625 -0.59375 1.0625 -0.71875 C 1.0625 -0.890625 1.328125 -1.15625 1.53125 -1.234375 C 1.828125 -1.203125 1.96875 -1.1875 1.984375 -1.1875 C 2.28125 -1.1875 2.609375 -1.3125 2.859375 -1.515625 C 3.109375 -1.75 3.234375 -2.03125 3.234375 -2.421875 C 3.234375 -2.65625 3.203125 -2.84375 3.078125 -3.09375 Z M 1.171875 0.015625 C 1.4375 0.078125 2.0625 0.125 2.46875 0.125 C 3.1875 0.125 3.453125 0.21875 3.453125 0.515625 C 3.453125 0.96875 2.84375 1.28125 1.9375 1.28125 C 1.234375 1.28125 0.78125 1.046875 0.78125 0.703125 C 0.78125 0.515625 0.859375 0.390625 1.171875 0.015625 Z M 1.21875 -2.6875 C 1.21875 -3.15625 1.4375 -3.4375 1.796875 -3.4375 C 2.046875 -3.4375 2.25 -3.3125 2.375 -3.0625 C 2.53125 -2.78125 2.625 -2.4375 2.625 -2.109375 C 2.625 -1.671875 2.40625 -1.390625 2.03125 -1.390625 C 1.53125 -1.390625 1.21875 -1.90625 1.21875 -2.671875 Z M 1.21875 -2.6875 "
           id="path5" />
      </symbol>
      <symbol
         overflow="visible"
         id="glyph0-2">
        <path
           style="stroke:none;"
           d="M 1.984375 -2.28125 L 0.234375 -2.28125 L 0.234375 -1.75 L 1.984375 -1.75 L 1.984375 0 L 2.515625 0 L 2.515625 -1.75 L 4.25 -1.75 L 4.25 -2.28125 L 2.515625 -2.28125 L 2.515625 -4.03125 L 1.984375 -4.03125 Z M 1.984375 -2.28125 "
           id="path8" />
      </symbol>
      <symbol
         overflow="visible"
         id="glyph0-3">
        <path
           style="stroke:none;"
           d="M 0.171875 0 L 2.046875 0 L 2.046875 -0.125 C 1.546875 -0.140625 1.453125 -0.21875 1.453125 -0.671875 L 1.453125 -5.421875 L 1.421875 -5.4375 C 1.015625 -5.3125 0.71875 -5.234375 0.15625 -5.09375 L 0.15625 -4.96875 L 0.203125 -4.96875 C 0.28125 -4.96875 0.375 -4.984375 0.453125 -4.984375 C 0.703125 -4.984375 0.78125 -4.875 0.78125 -4.5 L 0.78125 -0.6875 C 0.765625 -0.265625 0.65625 -0.15625 0.171875 -0.125 Z M 0.171875 0 "
           id="path11" />
      </symbol>
      <symbol
         overflow="visible"
         id="glyph0-4">
        <path
           style="stroke:none;"
           d="M 0.125 0 L 2.015625 0 L 2.015625 -0.125 C 1.484375 -0.15625 1.4375 -0.234375 1.421875 -0.8125 L 1.421875 -3.640625 L 1.390625 -3.671875 L 0.15625 -3.234375 L 0.15625 -3.109375 L 0.21875 -3.109375 C 0.3125 -3.125 0.421875 -3.140625 0.5 -3.140625 C 0.6875 -3.140625 0.75 -3.015625 0.75 -2.65625 L 0.75 -0.8125 C 0.734375 -0.21875 0.671875 -0.140625 0.125 -0.125 Z M 1.015625 -5.4375 C 0.8125 -5.4375 0.625 -5.265625 0.625 -5.03125 C 0.625 -4.8125 0.796875 -4.625 1.015625 -4.625 C 1.265625 -4.625 1.4375 -4.8125 1.4375 -5.03125 C 1.4375 -5.265625 1.25 -5.4375 1.015625 -5.4375 Z M 1.015625 -5.4375 "
           id="path14" />
      </symbol>
      <symbol
         overflow="visible"
         id="glyph0-5">
        <path
           style="stroke:none;"
           d="M 2.875 -3.390625 C 2.515625 -3.59375 2.265625 -3.671875 1.953125 -3.671875 C 0.953125 -3.671875 0.1875 -2.78125 0.1875 -1.625 C 0.1875 -0.625 0.71875 0.078125 1.46875 0.078125 C 1.921875 0.078125 2.359375 -0.125 2.71875 -0.515625 L 2.71875 0.984375 C 2.703125 1.4375 2.5625 1.5625 2.015625 1.59375 L 2.015625 1.734375 L 3.890625 1.734375 L 3.890625 1.625 C 3.453125 1.515625 3.40625 1.46875 3.390625 1.125 L 3.390625 -3.640625 L 3.296875 -3.640625 Z M 2.71875 -1.015625 C 2.71875 -0.828125 2.6875 -0.71875 2.609375 -0.640625 C 2.4375 -0.5 2.171875 -0.40625 1.921875 -0.40625 C 1.671875 -0.40625 1.453125 -0.484375 1.296875 -0.640625 C 1.046875 -0.875 0.875 -1.390625 0.875 -1.921875 C 0.875 -2.859375 1.296875 -3.4375 1.96875 -3.4375 C 2.46875 -3.4375 2.71875 -3.171875 2.71875 -2.65625 Z M 2.71875 -1.015625 "
           id="path17" />
      </symbol>
      <symbol
         overflow="visible"
         id="glyph0-6">
        <path
           style="stroke:none;"
           d="M 3.8125 -0.390625 L 3.78125 -0.390625 C 3.390625 -0.421875 3.328125 -0.484375 3.328125 -0.859375 L 3.328125 -3.578125 L 2.0625 -3.578125 L 2.0625 -3.453125 C 2.5625 -3.421875 2.65625 -3.34375 2.65625 -2.953125 L 2.65625 -1.078125 C 2.65625 -0.859375 2.609375 -0.734375 2.5 -0.65625 C 2.28125 -0.484375 2.046875 -0.375 1.796875 -0.375 C 1.484375 -0.375 1.234375 -0.65625 1.234375 -0.984375 L 1.234375 -3.578125 L 0.078125 -3.578125 L 0.078125 -3.46875 C 0.453125 -3.453125 0.5625 -3.34375 0.5625 -2.96875 L 0.5625 -0.953125 C 0.5625 -0.328125 0.953125 0.078125 1.53125 0.078125 C 1.828125 0.078125 2.140625 -0.046875 2.34375 -0.265625 L 2.6875 -0.609375 L 2.6875 0.0625 L 2.71875 0.078125 C 3.125 -0.09375 3.40625 -0.171875 3.8125 -0.28125 Z M 3.8125 -0.390625 "
           id="path20" />
      </symbol>
      <symbol
         overflow="visible"
         id="glyph0-7">
        <path
           style="stroke:none;"
           d="M 3.90625 -0.46875 C 3.8125 -0.453125 3.765625 -0.453125 3.734375 -0.453125 C 3.453125 -0.453125 3.375 -0.546875 3.375 -0.90625 L 3.375 -5.421875 L 3.34375 -5.4375 C 2.96875 -5.3125 2.6875 -5.234375 2.171875 -5.09375 L 2.171875 -4.96875 C 2.234375 -4.96875 2.265625 -4.96875 2.34375 -4.96875 C 2.640625 -4.96875 2.703125 -4.890625 2.703125 -4.5625 L 2.703125 -3.328125 C 2.40625 -3.578125 2.1875 -3.671875 1.875 -3.671875 C 0.953125 -3.671875 0.21875 -2.765625 0.21875 -1.640625 C 0.21875 -0.609375 0.8125 0.078125 1.6875 0.078125 C 2.140625 0.078125 2.4375 -0.078125 2.703125 -0.453125 L 2.703125 0.0625 L 2.734375 0.078125 L 3.90625 -0.328125 Z M 2.703125 -0.8125 C 2.703125 -0.75 2.65625 -0.65625 2.578125 -0.578125 C 2.4375 -0.421875 2.234375 -0.328125 2 -0.328125 C 1.328125 -0.328125 0.90625 -0.96875 0.90625 -1.953125 C 0.90625 -2.859375 1.296875 -3.4375 1.890625 -3.4375 C 2.328125 -3.4375 2.703125 -3.0625 2.703125 -2.640625 Z M 2.703125 -0.8125 "
           id="path23" />
      </symbol>
      <symbol
         overflow="visible"
         id="glyph0-8">
        <path
           style="stroke:none;"
           d="M 2.515625 -2.5 L 2.484375 -3.59375 L 2.390625 -3.59375 C 2.34375 -3.53125 2.3125 -3.5 2.265625 -3.5 C 2.21875 -3.5 2.140625 -3.515625 2.046875 -3.5625 C 1.859375 -3.625 1.6875 -3.671875 1.484375 -3.671875 C 0.859375 -3.671875 0.40625 -3.25 0.40625 -2.671875 C 0.40625 -2.234375 0.65625 -1.90625 1.34375 -1.53125 L 1.796875 -1.265625 C 2.078125 -1.109375 2.21875 -0.921875 2.21875 -0.671875 C 2.21875 -0.3125 1.953125 -0.09375 1.546875 -0.09375 C 1 -0.09375 0.71875 -0.390625 0.546875 -1.21875 L 0.421875 -1.21875 L 0.421875 0.03125 L 0.515625 0.03125 C 0.578125 -0.046875 0.609375 -0.0625 0.703125 -0.0625 C 0.78125 -0.0625 0.890625 -0.046875 1.0625 0 C 1.28125 0.046875 1.484375 0.078125 1.65625 0.078125 C 2.265625 0.078125 2.765625 -0.375 2.765625 -0.9375 C 2.765625 -1.34375 2.578125 -1.609375 2.109375 -1.890625 L 1.25 -2.40625 C 1.015625 -2.53125 0.90625 -2.71875 0.90625 -2.9375 C 0.90625 -3.265625 1.140625 -3.484375 1.515625 -3.484375 C 1.96875 -3.484375 2.203125 -3.21875 2.390625 -2.5 Z M 2.515625 -2.5 "
           id="path26" />
      </symbol>
      <symbol
         overflow="visible"
         id="glyph0-9">
        <path
           style="stroke:none;"
           d="M 3.796875 -3.578125 L 2.6875 -3.578125 L 2.6875 -3.46875 C 2.953125 -3.4375 3.0625 -3.359375 3.0625 -3.21875 C 3.0625 -3.125 3.046875 -3.046875 3.015625 -2.96875 L 2.234375 -0.90625 L 1.421875 -2.953125 C 1.375 -3.0625 1.34375 -3.171875 1.34375 -3.25 C 1.34375 -3.390625 1.4375 -3.4375 1.71875 -3.46875 L 1.71875 -3.578125 L 0.15625 -3.578125 L 0.15625 -3.46875 C 0.453125 -3.453125 0.515625 -3.375 0.875 -2.546875 L 1.828125 -0.265625 C 1.84375 -0.21875 1.875 -0.15625 1.890625 -0.09375 C 1.921875 -0.03125 1.9375 0.03125 1.96875 0.0625 C 1.984375 0.09375 2.015625 0.109375 2.046875 0.109375 C 2.09375 0.109375 2.140625 0.015625 2.265625 -0.28125 L 3.28125 -2.84375 C 3.515625 -3.390625 3.5625 -3.4375 3.796875 -3.46875 Z M 3.796875 -3.578125 "
           id="path29" />
      </symbol>
      <symbol
         overflow="visible"
         id="glyph0-10">
        <path
           style="stroke:none;"
           d="M 3.515625 -0.53125 C 3.390625 -0.421875 3.296875 -0.375 3.171875 -0.375 C 2.984375 -0.375 2.9375 -0.484375 2.9375 -0.84375 L 2.9375 -2.390625 C 2.9375 -2.8125 2.890625 -3.03125 2.765625 -3.234375 C 2.59375 -3.515625 2.25 -3.671875 1.78125 -3.671875 C 1.03125 -3.671875 0.453125 -3.28125 0.453125 -2.765625 C 0.453125 -2.59375 0.59375 -2.4375 0.78125 -2.4375 C 0.984375 -2.4375 1.140625 -2.59375 1.140625 -2.765625 C 1.140625 -2.796875 1.140625 -2.84375 1.125 -2.890625 C 1.109375 -2.96875 1.109375 -3.03125 1.109375 -3.078125 C 1.109375 -3.296875 1.359375 -3.46875 1.6875 -3.46875 C 2.078125 -3.46875 2.28125 -3.25 2.28125 -2.8125 L 2.28125 -2.328125 C 1.0625 -1.84375 0.921875 -1.765625 0.578125 -1.46875 C 0.40625 -1.3125 0.296875 -1.03125 0.296875 -0.765625 C 0.296875 -0.265625 0.640625 0.078125 1.125 0.078125 C 1.484375 0.078125 1.8125 -0.09375 2.296875 -0.5 C 2.328125 -0.078125 2.484375 0.078125 2.8125 0.078125 C 3.078125 0.078125 3.25 -0.015625 3.515625 -0.3125 Z M 2.28125 -0.984375 C 2.28125 -0.734375 2.25 -0.65625 2.078125 -0.5625 C 1.875 -0.453125 1.671875 -0.375 1.5 -0.375 C 1.21875 -0.375 1 -0.65625 1 -1 L 1 -1.03125 C 1 -1.5 1.359375 -1.8125 2.28125 -2.140625 Z M 2.28125 -0.984375 "
           id="path32" />
      </symbol>
      <symbol
         overflow="visible"
         id="glyph0-11">
        <path
           style="stroke:none;"
           d="M 0.046875 1.734375 L 1.96875 1.734375 L 1.96875 1.578125 C 1.375 1.578125 1.28125 1.5 1.265625 0.984375 L 1.265625 -0.265625 C 1.546875 0 1.734375 0.078125 2.078125 0.078125 C 3.015625 0.078125 3.75 -0.8125 3.75 -1.96875 C 3.75 -2.953125 3.1875 -3.671875 2.421875 -3.671875 C 1.96875 -3.671875 1.625 -3.46875 1.265625 -3.03125 L 1.265625 -3.65625 L 1.21875 -3.671875 C 0.78125 -3.5 0.515625 -3.390625 0.078125 -3.265625 L 0.078125 -3.125 C 0.140625 -3.140625 0.1875 -3.140625 0.265625 -3.140625 C 0.546875 -3.140625 0.59375 -3.0625 0.59375 -2.6875 L 0.59375 1.046875 C 0.59375 1.46875 0.515625 1.546875 0.046875 1.59375 Z M 1.265625 -2.65625 C 1.265625 -2.90625 1.71875 -3.1875 2.078125 -3.1875 C 2.671875 -3.1875 3.0625 -2.578125 3.0625 -1.65625 C 3.0625 -0.765625 2.671875 -0.171875 2.09375 -0.171875 C 1.71875 -0.171875 1.265625 -0.46875 1.265625 -0.703125 Z M 1.265625 -2.65625 "
           id="path35" />
      </symbol>
      <symbol
         overflow="visible"
         id="glyph0-12">
        <path
           style="stroke:none;"
           d="M 1.984375 -3.671875 C 0.953125 -3.671875 0.234375 -2.90625 0.234375 -1.796875 C 0.234375 -0.71875 0.96875 0.078125 1.96875 0.078125 C 2.984375 0.078125 3.75 -0.75 3.75 -1.859375 C 3.75 -2.921875 3.015625 -3.671875 1.984375 -3.671875 Z M 1.890625 -3.4375 C 2.5625 -3.4375 3.03125 -2.671875 3.03125 -1.578125 C 3.03125 -0.671875 2.671875 -0.140625 2.078125 -0.140625 C 1.765625 -0.140625 1.46875 -0.328125 1.296875 -0.65625 C 1.078125 -1.0625 0.953125 -1.625 0.953125 -2.1875 C 0.953125 -2.953125 1.3125 -3.4375 1.890625 -3.4375 Z M 1.890625 -3.4375 "
           id="path38" />
      </symbol>
      <symbol
         overflow="visible"
         id="glyph0-13">
        <path
           style="stroke:none;"
           d="M 0.046875 0 L 1.953125 0 L 1.953125 -0.125 C 1.421875 -0.140625 1.296875 -0.25 1.28125 -0.71875 L 1.28125 -2.515625 C 1.28125 -2.765625 1.609375 -3.15625 1.828125 -3.15625 C 1.875 -3.15625 1.953125 -3.125 2.046875 -3.046875 C 2.15625 -2.921875 2.25 -2.890625 2.359375 -2.890625 C 2.546875 -2.890625 2.671875 -3.015625 2.671875 -3.25 C 2.671875 -3.5 2.5 -3.671875 2.234375 -3.671875 C 1.890625 -3.671875 1.671875 -3.484375 1.28125 -2.921875 L 1.28125 -3.65625 L 1.234375 -3.671875 C 0.78125 -3.484375 0.5 -3.375 0.0625 -3.234375 L 0.0625 -3.109375 C 0.171875 -3.125 0.234375 -3.140625 0.328125 -3.140625 C 0.53125 -3.140625 0.609375 -3.015625 0.609375 -2.65625 L 0.609375 -0.671875 C 0.59375 -0.25 0.546875 -0.203125 0.046875 -0.125 Z M 0.046875 0 "
           id="path41" />
      </symbol>
      <symbol
         overflow="visible"
         id="glyph1-0">
        <path
           style="stroke:none;"
           d=""
           id="path44" />
      </symbol>
      <symbol
         overflow="visible"
         id="glyph1-1">
        <path
           style="stroke:none;"
           d="M 4.234375 -2.640625 C 4.234375 -4.078125 3.578125 -5.375 2.328125 -5.375 C 1.0625 -5.375 0.421875 -4.078125 0.421875 -2.640625 C 0.421875 -1.1875 1.046875 0.09375 2.328125 0.09375 C 3.546875 0.09375 4.234375 -1.1875 4.234375 -2.640625 Z M 3.25 -2.640625 C 3.25 -1.53125 2.96875 -0.21875 2.3125 -0.21875 C 1.5 -0.21875 1.40625 -1.53125 1.40625 -2.640625 C 1.40625 -3.5625 1.453125 -5.0625 2.328125 -5.0625 C 3.203125 -5.0625 3.25 -3.5625 3.25 -2.640625 Z M 3.25 -2.640625 "
           id="path47" />
      </symbol>
      <symbol
         overflow="visible"
         id="glyph1-2">
        <path
           style="stroke:none;"
           d="M 1.21875 -1.046875 C 0.9375 -1.046875 0.671875 -0.828125 0.671875 -0.515625 C 0.671875 -0.203125 0.921875 0.03125 1.21875 0.03125 C 1.515625 0.03125 1.75 -0.203125 1.75 -0.515625 C 1.75 -0.78125 1.53125 -1.046875 1.21875 -1.046875 Z M 1.21875 -1.046875 "
           id="path50" />
      </symbol>
      <symbol
         overflow="visible"
         id="glyph1-3">
        <path
           style="stroke:none;"
           d="M 4.34375 -1.09375 L 4.109375 -1.140625 C 3.828125 -0.734375 3.640625 -0.671875 3.234375 -0.671875 L 1.34375 -0.671875 C 2.703125 -1.78125 3.90625 -2.8125 3.90625 -3.921875 C 3.90625 -4.75 3.109375 -5.34375 2.234375 -5.34375 C 1.359375 -5.34375 0.671875 -4.9375 0.390625 -3.765625 L 0.671875 -3.765625 C 0.9375 -4.21875 1.265625 -4.65625 1.90625 -4.65625 C 2.640625 -4.65625 3.046875 -4.171875 3.046875 -3.609375 C 3.046875 -2.765625 2.046875 -1.546875 0.3125 -0.203125 L 0.3125 0 L 3.84375 0 Z M 4.34375 -1.09375 "
           id="path53" />
      </symbol>
      <symbol
         overflow="visible"
         id="glyph1-4">
        <path
           style="stroke:none;"
           d="M 4.296875 -1.3125 L 4.296875 -1.9375 L 3.4375 -1.9375 L 3.4375 -5.375 L 2.9375 -5.375 L 0.375 -1.921875 L 0.375 -1.3125 L 2.625 -1.3125 L 2.625 0 L 3.4375 0 L 3.4375 -1.3125 Z M 2.671875 -4.453125 L 2.625 -4.515625 L 2.625 -1.9375 L 0.875 -1.9375 Z M 2.671875 -4.453125 "
           id="path56" />
      </symbol>
      <symbol
         overflow="visible"
         id="glyph1-5">
        <path
           style="stroke:none;"
           d="M 4.234375 -1.796875 C 4.234375 -2.703125 3.515625 -3.359375 2.625 -3.359375 C 2.21875 -3.359375 1.859375 -3.25 1.515625 -3.03125 C 1.921875 -4.3125 3.015625 -5.125 4.109375 -5.125 L 4.109375 -5.375 C 1.3125 -5.375 0.453125 -3.296875 0.453125 -2.125 C 0.453125 -0.859375 1.28125 0.09375 2.375 0.09375 C 3.40625 0.09375 4.234375 -0.75 4.234375 -1.796875 Z M 3.375 -1.40625 C 3.375 -0.71875 3.03125 -0.234375 2.484375 -0.234375 C 1.609375 -0.234375 1.359375 -1.390625 1.359375 -1.984375 C 1.359375 -2.1875 1.375 -2.375 1.421875 -2.625 C 1.78125 -2.84375 2.078125 -2.921875 2.359375 -2.921875 C 3.234375 -2.921875 3.375 -2.046875 3.375 -1.40625 Z M 3.375 -1.40625 "
           id="path59" />
      </symbol>
      <symbol
         overflow="visible"
         id="glyph1-6">
        <path
           style="stroke:none;"
           d="M 4.078125 -1.265625 C 4.078125 -1.796875 3.8125 -2.234375 2.78125 -2.9375 C 3.421875 -3.28125 3.921875 -3.640625 3.921875 -4.21875 C 3.921875 -4.828125 3.265625 -5.375 2.3125 -5.375 C 1.453125 -5.375 0.65625 -4.875 0.65625 -4.109375 C 0.65625 -3.53125 0.96875 -3.171875 1.71875 -2.671875 C 0.890625 -2.125 0.59375 -1.8125 0.59375 -1.234375 C 0.59375 -0.546875 1.28125 0.09375 2.328125 0.09375 C 3.5625 0.09375 4.078125 -0.671875 4.078125 -1.265625 Z M 3.234375 -4.21875 C 3.234375 -3.6875 2.875 -3.40625 2.4375 -3.140625 C 1.890625 -3.484375 1.40625 -3.875 1.40625 -4.3125 C 1.40625 -4.703125 1.71875 -5.046875 2.28125 -5.046875 C 2.90625 -5.046875 3.234375 -4.6875 3.234375 -4.21875 Z M 3.34375 -1.03125 C 3.34375 -0.5625 2.9375 -0.234375 2.40625 -0.234375 C 1.765625 -0.234375 1.359375 -0.703125 1.359375 -1.3125 C 1.359375 -1.859375 1.65625 -2.1875 2.015625 -2.46875 C 2.9375 -1.84375 3.34375 -1.53125 3.34375 -1.03125 Z M 3.34375 -1.03125 "
           id="path62" />
      </symbol>
      <symbol
         overflow="visible"
         id="glyph1-7">
        <path
           style="stroke:none;"
           d="M 3.609375 0 L 3.609375 -0.21875 C 3 -0.21875 2.8125 -0.21875 2.8125 -1.1875 C 2.8125 -1.1875 2.8125 -5.375 2.8125 -5.375 L 2.609375 -5.375 L 1.0625 -4.71875 L 1.15625 -4.5 C 1.515625 -4.640625 1.578125 -4.65625 1.703125 -4.65625 C 1.9375 -4.65625 1.953125 -4.46875 1.953125 -4.234375 L 1.953125 -1.1875 C 1.953125 -0.21875 1.765625 -0.234375 1.15625 -0.21875 L 1.15625 0 Z M 3.609375 0 "
           id="path65" />
      </symbol>
      <symbol
         overflow="visible"
         id="glyph1-8">
        <path
           style="stroke:none;"
           d="M 4.0625 -1.75 C 4.0625 -2.5625 3.578125 -2.9375 3.0625 -3.125 C 3.59375 -3.5 3.765625 -3.859375 3.765625 -4.28125 C 3.765625 -4.75 3.34375 -5.375 2.34375 -5.375 C 1.640625 -5.375 0.96875 -5.03125 0.65625 -4.109375 L 0.890625 -4.046875 C 1.078125 -4.375 1.421875 -4.765625 2.03125 -4.765625 C 2.625 -4.765625 2.96875 -4.421875 2.96875 -4 C 2.96875 -3.421875 2.453125 -2.984375 1.65625 -2.8125 L 1.640625 -2.5625 C 3 -2.625 3.328125 -1.84375 3.328125 -1.375 C 3.328125 -0.828125 2.875 -0.296875 2.28125 -0.296875 C 1.71875 -0.296875 1.453125 -0.75 1 -0.75 C 0.8125 -0.75 0.609375 -0.59375 0.609375 -0.375 C 0.609375 -0.03125 1.171875 0.09375 1.609375 0.09375 C 3.03125 0.09375 4.0625 -0.65625 4.0625 -1.75 Z M 4.0625 -1.75 "
           id="path68" />
      </symbol>
      <symbol
         overflow="visible"
         id="glyph1-9">
        <path
           style="stroke:none;"
           d="M 4.234375 -5.296875 L 1.6875 -5.296875 L 0.5625 -2.953125 C 0.78125 -3 0.921875 -3.015625 1.078125 -3.015625 C 1.984375 -3.015625 3.234375 -2.59375 3.234375 -1.609375 C 3.234375 -0.84375 2.625 -0.34375 2.046875 -0.34375 C 1.484375 -0.34375 1.296875 -0.78125 0.796875 -0.78125 C 0.515625 -0.78125 0.4375 -0.5625 0.4375 -0.453125 C 0.4375 -0.15625 0.875 0.09375 1.515625 0.09375 C 2.875 0.09375 3.90625 -0.8125 3.90625 -1.859375 C 3.90625 -3.140625 2.796875 -3.609375 1.5625 -3.625 C 1.5 -3.625 1.421875 -3.625 1.34375 -3.609375 L 1.828125 -4.609375 L 3.84375 -4.59375 Z M 4.234375 -5.296875 "
           id="path71" />
      </symbol>
      <symbol
         overflow="visible"
         id="glyph1-10">
        <path
           style="stroke:none;"
           d="M 4.28125 -5.296875 L 0.953125 -5.296875 L 0.390625 -4.0625 L 0.625 -4.0625 C 0.9375 -4.5 1.15625 -4.609375 1.65625 -4.609375 L 3.421875 -4.609375 L 1.671875 0.09375 L 2.3125 0.09375 Z M 4.28125 -5.296875 "
           id="path74" />
      </symbol>
      <symbol
         overflow="visible"
         id="glyph1-11">
        <path
           style="stroke:none;"
           d="M 4.171875 -3.171875 C 4.171875 -4.4375 3.328125 -5.375 2.21875 -5.375 C 1.21875 -5.375 0.375 -4.53125 0.375 -3.484375 C 0.375 -2.59375 1.078125 -1.921875 1.984375 -1.921875 C 2.40625 -1.921875 2.75 -2.046875 3.109375 -2.265625 C 2.78125 -0.9375 1.59375 -0.15625 0.515625 -0.15625 L 0.515625 0.09375 C 3.296875 0.09375 4.171875 -1.984375 4.171875 -3.171875 Z M 3.25 -3.296875 C 3.25 -3.09375 3.234375 -2.90625 3.1875 -2.65625 C 2.828125 -2.453125 2.53125 -2.359375 2.234375 -2.359375 C 1.375 -2.359375 1.234375 -3.25 1.234375 -3.875 C 1.234375 -4.5625 1.5625 -5.046875 2.125 -5.046875 C 3 -5.046875 3.25 -3.90625 3.25 -3.296875 Z M 3.25 -3.296875 "
           id="path77" />
      </symbol>
      <symbol
         overflow="visible"
         id="glyph2-0">
        <path
           style="stroke:none;"
           d=""
           id="path80" />
      </symbol>
      <symbol
         overflow="visible"
         id="glyph2-1">
        <path
           style="stroke:none;"
           d="M 1.375 -6.109375 L 1.328125 -6.125 C 0.953125 -6 0.71875 -5.921875 0.28125 -5.796875 L 0.03125 -5.734375 L 0.03125 -5.59375 C 0.078125 -5.59375 0.109375 -5.59375 0.171875 -5.59375 C 0.53125 -5.59375 0.625 -5.515625 0.625 -5.140625 L 0.625 -0.484375 C 0.625 -0.203125 1.375 0.09375 2.09375 0.09375 C 3.28125 0.09375 4.203125 -0.890625 4.203125 -2.171875 C 4.203125 -3.296875 3.515625 -4.125 2.625 -4.125 C 2.078125 -4.125 1.546875 -3.8125 1.375 -3.359375 Z M 1.375 -2.890625 C 1.375 -3.234375 1.796875 -3.5625 2.265625 -3.5625 C 2.515625 -3.5625 2.734375 -3.46875 2.921875 -3.296875 C 3.203125 -3.015625 3.40625 -2.40625 3.40625 -1.765625 C 3.40625 -0.765625 2.984375 -0.203125 2.25 -0.203125 C 1.78125 -0.203125 1.375 -0.390625 1.375 -0.625 Z M 1.375 -2.890625 "
           id="path83" />
      </symbol>
      <symbol
         overflow="visible"
         id="glyph2-2">
        <path
           style="stroke:none;"
           d="M 3.65625 -1.46875 C 3.234375 -0.796875 2.84375 -0.53125 2.265625 -0.53125 C 1.765625 -0.53125 1.375 -0.796875 1.109375 -1.296875 C 0.953125 -1.640625 0.890625 -1.921875 0.875 -2.484375 L 3.625 -2.484375 C 3.5625 -3.0625 3.46875 -3.328125 3.25 -3.609375 C 2.984375 -3.9375 2.5625 -4.125 2.09375 -4.125 C 1.65625 -4.125 1.234375 -3.96875 0.890625 -3.65625 C 0.46875 -3.296875 0.21875 -2.65625 0.21875 -1.921875 C 0.21875 -0.6875 0.875 0.09375 1.90625 0.09375 C 2.75 0.09375 3.421875 -0.4375 3.796875 -1.40625 Z M 0.890625 -2.765625 C 0.984375 -3.46875 1.296875 -3.796875 1.84375 -3.796875 C 2.390625 -3.796875 2.59375 -3.546875 2.71875 -2.765625 Z M 0.890625 -2.765625 "
           id="path86" />
      </symbol>
      <symbol
         overflow="visible"
         id="glyph2-3">
        <path
           style="stroke:none;"
           d="M 0.15625 0 L 2.0625 0 L 2.0625 -0.140625 C 1.609375 -0.15625 1.46875 -0.28125 1.46875 -0.59375 L 1.46875 -3.125 C 1.90625 -3.53125 2.09375 -3.625 2.390625 -3.625 C 2.828125 -3.625 3.046875 -3.359375 3.046875 -2.765625 L 3.046875 -0.890625 C 3.03125 -0.3125 2.921875 -0.15625 2.484375 -0.140625 L 2.484375 0 L 4.34375 0 L 4.34375 -0.140625 C 3.90625 -0.171875 3.8125 -0.28125 3.796875 -0.71875 L 3.796875 -2.78125 C 3.796875 -3.625 3.40625 -4.125 2.75 -4.125 C 2.328125 -4.125 2.046875 -3.96875 1.4375 -3.40625 L 1.4375 -4.109375 L 1.375 -4.125 C 0.921875 -3.953125 0.609375 -3.859375 0.140625 -3.71875 L 0.140625 -3.5625 C 0.203125 -3.59375 0.28125 -3.609375 0.390625 -3.609375 C 0.640625 -3.609375 0.71875 -3.46875 0.71875 -3.03125 L 0.71875 -0.8125 C 0.703125 -0.28125 0.609375 -0.15625 0.15625 -0.140625 Z M 0.15625 0 "
           id="path89" />
      </symbol>
      <symbol
         overflow="visible"
         id="glyph2-4">
        <path
           style="stroke:none;"
           d="M 3.75 -1.203125 L 3.59375 -1.25 C 3.421875 -0.40625 3.296875 -0.296875 2.4375 -0.265625 L 1.203125 -0.265625 L 3.609375 -3.90625 L 3.609375 -4.03125 L 0.5 -4.03125 L 0.46875 -2.984375 L 0.640625 -2.984375 C 0.703125 -3.609375 0.828125 -3.75 1.390625 -3.765625 L 2.625 -3.765625 L 0.234375 -0.140625 L 0.234375 0 L 3.625 0 Z M 3.75 -1.203125 "
           id="path92" />
      </symbol>
      <symbol
         overflow="visible"
         id="glyph2-5">
        <path
           style="stroke:none;"
           d="M 2.28125 -4.03125 L 1.375 -4.03125 L 1.375 -5.078125 C 1.375 -5.171875 1.359375 -5.1875 1.3125 -5.1875 C 0.796875 -4.4375 0.53125 -4.140625 0.265625 -3.984375 C 0.171875 -3.921875 0.109375 -3.859375 0.109375 -3.8125 C 0.109375 -3.78125 0.125 -3.765625 0.15625 -3.75 L 0.625 -3.75 L 0.625 -1.046875 C 0.625 -0.296875 0.890625 0.09375 1.421875 0.09375 C 1.859375 0.09375 2.203125 -0.125 2.5 -0.59375 L 2.390625 -0.6875 C 2.1875 -0.453125 2.046875 -0.375 1.84375 -0.375 C 1.515625 -0.375 1.375 -0.625 1.375 -1.1875 L 1.375 -3.75 L 2.28125 -3.75 Z M 2.28125 -4.03125 "
           id="path95" />
      </symbol>
      <symbol
         overflow="visible"
         id="glyph2-6">
        <path
           style="stroke:none;"
           d="M 2.25 -4.125 C 1.0625 -4.125 0.265625 -3.265625 0.265625 -2.03125 C 0.265625 -0.8125 1.09375 0.09375 2.21875 0.09375 C 3.359375 0.09375 4.21875 -0.859375 4.21875 -2.09375 C 4.21875 -3.28125 3.390625 -4.125 2.25 -4.125 Z M 2.125 -3.875 C 2.875 -3.875 3.40625 -3.015625 3.40625 -1.78125 C 3.40625 -0.765625 3 -0.15625 2.328125 -0.15625 C 1.984375 -0.15625 1.65625 -0.375 1.46875 -0.734375 C 1.203125 -1.203125 1.0625 -1.828125 1.0625 -2.46875 C 1.0625 -3.3125 1.484375 -3.875 2.125 -3.875 Z M 2.125 -3.875 "
           id="path98" />
      </symbol>
      <symbol
         overflow="visible"
         id="glyph2-7">
        <path
           style="stroke:none;"
           d="M 0.1875 0 L 2.3125 0 L 2.3125 -0.140625 C 1.734375 -0.15625 1.640625 -0.25 1.625 -0.75 L 1.625 -6.109375 L 1.59375 -6.125 C 1.140625 -5.984375 0.8125 -5.890625 0.171875 -5.734375 L 0.171875 -5.59375 L 0.21875 -5.59375 C 0.328125 -5.59375 0.4375 -5.609375 0.5 -5.609375 C 0.796875 -5.609375 0.875 -5.484375 0.875 -5.0625 L 0.875 -0.78125 C 0.875 -0.296875 0.75 -0.171875 0.1875 -0.140625 Z M 0.1875 0 "
           id="path101" />
      </symbol>
      <symbol
         overflow="visible"
         id="glyph2-8">
        <path
           style="stroke:none;"
           d="M 4.296875 -0.453125 L 4.25 -0.453125 C 3.8125 -0.46875 3.75 -0.53125 3.734375 -0.953125 L 3.734375 -4.03125 L 2.328125 -4.03125 L 2.328125 -3.890625 C 2.875 -3.859375 2.984375 -3.765625 2.984375 -3.3125 L 2.984375 -1.203125 C 2.984375 -0.953125 2.9375 -0.828125 2.8125 -0.734375 C 2.578125 -0.53125 2.296875 -0.4375 2.03125 -0.4375 C 1.671875 -0.4375 1.390625 -0.734375 1.390625 -1.109375 L 1.390625 -4.03125 L 0.078125 -4.03125 L 0.078125 -3.90625 C 0.5 -3.890625 0.625 -3.765625 0.640625 -3.34375 L 0.640625 -1.078125 C 0.640625 -0.375 1.0625 0.09375 1.71875 0.09375 C 2.046875 0.09375 2.40625 -0.046875 2.640625 -0.296875 L 3.03125 -0.6875 L 3.03125 0.0625 L 3.0625 0.078125 C 3.515625 -0.09375 3.84375 -0.203125 4.296875 -0.328125 Z M 4.296875 -0.453125 "
           id="path104" />
      </symbol>
      <symbol
         overflow="visible"
         id="glyph2-9">
        <path
           style="stroke:none;"
           d="M 2.640625 -6.0625 C 1.984375 -5.625 1.71875 -5.40625 1.375 -4.984375 C 0.75 -4.203125 0.4375 -3.3125 0.4375 -2.265625 C 0.4375 -1.109375 0.765625 -0.234375 1.546875 0.671875 C 1.921875 1.109375 2.15625 1.296875 2.625 1.59375 L 2.71875 1.4375 C 2.015625 0.875 1.765625 0.5625 1.515625 -0.109375 C 1.296875 -0.703125 1.203125 -1.375 1.203125 -2.28125 C 1.203125 -3.234375 1.3125 -3.96875 1.5625 -4.515625 C 1.8125 -5.078125 2.078125 -5.40625 2.71875 -5.921875 Z M 2.640625 -6.0625 "
           id="path107" />
      </symbol>
      <symbol
         overflow="visible"
         id="glyph2-10">
        <path
           style="stroke:none;"
           d="M 3.96875 -0.59375 C 3.8125 -0.46875 3.703125 -0.421875 3.5625 -0.421875 C 3.359375 -0.421875 3.296875 -0.546875 3.296875 -0.9375 L 3.296875 -2.6875 C 3.296875 -3.15625 3.25 -3.421875 3.125 -3.625 C 2.921875 -3.953125 2.53125 -4.125 2.015625 -4.125 C 1.171875 -4.125 0.5 -3.6875 0.5 -3.125 C 0.5 -2.921875 0.671875 -2.734375 0.890625 -2.734375 C 1.109375 -2.734375 1.296875 -2.921875 1.296875 -3.109375 C 1.296875 -3.140625 1.28125 -3.1875 1.28125 -3.25 C 1.25 -3.34375 1.25 -3.40625 1.25 -3.46875 C 1.25 -3.71875 1.53125 -3.90625 1.890625 -3.90625 C 2.328125 -3.90625 2.578125 -3.65625 2.578125 -3.171875 L 2.578125 -2.625 C 1.203125 -2.078125 1.046875 -1.984375 0.65625 -1.65625 C 0.453125 -1.46875 0.328125 -1.171875 0.328125 -0.875 C 0.328125 -0.3125 0.71875 0.09375 1.28125 0.09375 C 1.671875 0.09375 2.03125 -0.09375 2.578125 -0.5625 C 2.625 -0.09375 2.796875 0.09375 3.15625 0.09375 C 3.46875 0.09375 3.65625 -0.015625 3.96875 -0.359375 Z M 2.578125 -1.109375 C 2.578125 -0.828125 2.53125 -0.734375 2.34375 -0.625 C 2.109375 -0.5 1.875 -0.4375 1.6875 -0.4375 C 1.375 -0.4375 1.125 -0.734375 1.125 -1.125 L 1.125 -1.15625 C 1.125 -1.6875 1.53125 -2.03125 2.578125 -2.40625 Z M 2.578125 -1.109375 "
           id="path110" />
      </symbol>
      <symbol
         overflow="visible"
         id="glyph2-11">
        <path
           style="stroke:none;"
           d="M 0.34375 1.59375 C 1 1.140625 1.28125 0.921875 1.609375 0.515625 C 2.25 -0.265625 2.5625 -1.171875 2.5625 -2.21875 C 2.5625 -3.359375 2.21875 -4.234375 1.4375 -5.140625 C 1.0625 -5.578125 0.828125 -5.78125 0.375 -6.0625 L 0.265625 -5.921875 C 0.984375 -5.359375 1.21875 -5.046875 1.46875 -4.375 C 1.6875 -3.765625 1.78125 -3.09375 1.78125 -2.1875 C 1.78125 -1.25 1.671875 -0.515625 1.421875 0.03125 C 1.1875 0.59375 0.90625 0.921875 0.265625 1.4375 Z M 0.34375 1.59375 "
           id="path113" />
      </symbol>
      <symbol
         overflow="visible"
         id="glyph3-0">
        <path
           style="stroke:none;"
           d=""
           id="path116" />
      </symbol>
      <symbol
         overflow="visible"
         id="glyph3-1">
        <path
           style="stroke:none;"
           d="M 4.015625 -4.09375 L 1.21875 -4.09375 L 0.828125 -2.9375 L 1.015625 -2.9375 C 1.234375 -3.484375 1.453125 -3.5 1.78125 -3.5 L 3.234375 -3.5 L 0.140625 0 L 2.984375 0 L 3.375 -1.1875 L 3.203125 -1.1875 C 3 -0.578125 2.65625 -0.578125 2.328125 -0.578125 L 0.90625 -0.578125 Z M 4.015625 -4.09375 "
           id="path119" />
      </symbol>
      <symbol
         overflow="visible"
         id="glyph4-0">
        <path
           style="stroke:none;"
           d=""
           id="path122" />
      </symbol>
      <symbol
         overflow="visible"
         id="glyph4-1">
        <path
           style="stroke:none;"
           d="M 4.921875 -0.125 C 4.609375 -0.15625 4.53125 -0.21875 4.296875 -0.734375 L 2.5625 -4.703125 L 2.421875 -4.703125 L 0.96875 -1.28125 C 0.515625 -0.265625 0.4375 -0.140625 0.109375 -0.125 L 0.109375 0 L 1.484375 0 L 1.484375 -0.125 C 1.15625 -0.125 1.015625 -0.21875 1.015625 -0.421875 C 1.015625 -0.5 1.03125 -0.59375 1.0625 -0.6875 L 1.390625 -1.5 L 3.21875 -1.5 L 3.5 -0.84375 C 3.578125 -0.640625 3.625 -0.46875 3.625 -0.375 C 3.625 -0.1875 3.515625 -0.140625 3.140625 -0.125 L 3.140625 0 L 4.921875 0 Z M 1.5 -1.796875 L 2.3125 -3.703125 L 3.109375 -1.796875 Z M 1.5 -1.796875 "
           id="path125" />
      </symbol>
      <symbol
         overflow="visible"
         id="glyph5-0">
        <path
           style="stroke:none;"
           d=""
           id="path128" />
      </symbol>
      <symbol
         overflow="visible"
         id="glyph5-1">
        <path
           style="stroke:none;"
           d="M -2.921875 -5.3125 C -3.625 -5.3125 -4.09375 -5 -4.09375 -4.328125 C -4.09375 -3.734375 -3.671875 -3.28125 -3.109375 -2.875 L -4.09375 -3.1875 C -4.09375 -3.1875 -3.859375 -1.984375 -3.84375 -1.71875 L -3.6875 -1.71875 C -3.6875 -2.046875 -3.71875 -2.3125 -3.359375 -2.3125 C -3.1875 -2.3125 -2.796875 -2.203125 -2.578125 -2.140625 L 1.15625 -1.078125 C 1.5 -0.984375 1.75 -0.828125 1.75 -0.390625 L 1.90625 -0.359375 L 1.90625 -2.328125 L 1.75 -2.359375 C 1.75 -2.015625 1.734375 -1.71875 1.484375 -1.71875 C 1.40625 -1.71875 1.3125 -1.734375 1.140625 -1.78125 L -0.109375 -2.09375 C 0.03125 -2.265625 0.109375 -2.53125 0.109375 -2.75 C 0.109375 -3.828125 -1.421875 -5.3125 -2.921875 -5.3125 Z M -2.828125 -4.546875 C -1.65625 -4.546875 -0.09375 -3.5625 -0.09375 -2.71875 C -0.09375 -2.515625 -0.171875 -2.328125 -0.34375 -2.15625 C -1.140625 -2.359375 -3.671875 -2.90625 -3.671875 -4.0625 C -3.671875 -4.546875 -3.03125 -4.546875 -2.828125 -4.546875 Z M -2.828125 -4.546875 "
           id="path131" />
      </symbol>
      <symbol
         overflow="visible"
         id="glyph5-2">
        <path
           style="stroke:none;"
           d="M -6.4375 -3.90625 L -6.4375 -3.46875 L 1.921875 -0.359375 L 1.921875 -0.8125 Z M -6.4375 -3.90625 "
           id="path134" />
      </symbol>
      <symbol
         overflow="visible"
         id="glyph5-3">
        <path
           style="stroke:none;"
           d="M -6.046875 -6.171875 L -6.046875 -1.15625 L -4.515625 -0.734375 L -4.515625 -0.90625 C -5.5 -1.28125 -5.71875 -1.75 -5.71875 -2.53125 C -5.71875 -2.53125 -5.71875 -3.046875 -5.71875 -3.15625 L -1.046875 -1.859375 C -0.140625 -1.609375 -0.15625 -1.296875 -0.15625 -0.9375 L 0 -0.921875 L 0 -3.28125 L -0.15625 -3.3125 C -0.15625 -2.96875 -0.140625 -2.625 -0.59375 -2.625 C -0.71875 -2.625 -0.859375 -2.65625 -1.046875 -2.703125 L -5.71875 -3.984375 L -5.71875 -4.734375 C -5.71875 -5.171875 -5.65625 -5.640625 -5.03125 -5.640625 C -4.890625 -5.640625 -4.734375 -5.625 -4.515625 -5.578125 L -4.515625 -5.75 Z M -6.046875 -6.171875 "
           id="path137" />
      </symbol>
      <symbol
         overflow="visible"
         id="glyph6-0">
        <path
           style="stroke:none;"
           d=""
           id="path140" />
      </symbol>
      <symbol
         overflow="visible"
         id="glyph6-1">
        <path
           style="stroke:none;"
           d="M -6.109375 -1.375 L -6.125 -1.328125 C -6 -0.953125 -5.921875 -0.71875 -5.796875 -0.28125 L -5.734375 -0.03125 L -5.59375 -0.03125 C -5.59375 -0.078125 -5.59375 -0.109375 -5.59375 -0.171875 C -5.59375 -0.53125 -5.515625 -0.625 -5.140625 -0.625 L -0.484375 -0.625 C -0.203125 -0.625 0.09375 -1.375 0.09375 -2.09375 C 0.09375 -3.28125 -0.890625 -4.203125 -2.171875 -4.203125 C -3.296875 -4.203125 -4.125 -3.515625 -4.125 -2.625 C -4.125 -2.078125 -3.8125 -1.546875 -3.359375 -1.375 Z M -2.890625 -1.375 C -3.234375 -1.375 -3.5625 -1.796875 -3.5625 -2.265625 C -3.5625 -2.515625 -3.46875 -2.734375 -3.296875 -2.921875 C -3.015625 -3.203125 -2.40625 -3.40625 -1.765625 -3.40625 C -0.765625 -3.40625 -0.203125 -2.984375 -0.203125 -2.25 C -0.203125 -1.78125 -0.390625 -1.375 -0.625 -1.375 Z M -2.890625 -1.375 "
           id="path143" />
      </symbol>
      <symbol
         overflow="visible"
         id="glyph6-2">
        <path
           style="stroke:none;"
           d="M -0.59375 -3.96875 C -0.46875 -3.8125 -0.421875 -3.703125 -0.421875 -3.5625 C -0.421875 -3.359375 -0.546875 -3.296875 -0.9375 -3.296875 L -2.6875 -3.296875 C -3.15625 -3.296875 -3.421875 -3.25 -3.625 -3.125 C -3.953125 -2.921875 -4.125 -2.53125 -4.125 -2.015625 C -4.125 -1.171875 -3.6875 -0.5 -3.125 -0.5 C -2.921875 -0.5 -2.734375 -0.671875 -2.734375 -0.890625 C -2.734375 -1.109375 -2.921875 -1.296875 -3.109375 -1.296875 C -3.140625 -1.296875 -3.1875 -1.28125 -3.25 -1.28125 C -3.34375 -1.25 -3.40625 -1.25 -3.46875 -1.25 C -3.71875 -1.25 -3.90625 -1.53125 -3.90625 -1.890625 C -3.90625 -2.328125 -3.65625 -2.578125 -3.171875 -2.578125 L -2.625 -2.578125 C -2.078125 -1.203125 -1.984375 -1.046875 -1.65625 -0.65625 C -1.46875 -0.453125 -1.171875 -0.328125 -0.875 -0.328125 C -0.3125 -0.328125 0.09375 -0.71875 0.09375 -1.28125 C 0.09375 -1.671875 -0.09375 -2.03125 -0.5625 -2.578125 C -0.09375 -2.625 0.09375 -2.796875 0.09375 -3.15625 C 0.09375 -3.46875 -0.015625 -3.65625 -0.359375 -3.96875 Z M -1.109375 -2.578125 C -0.828125 -2.578125 -0.734375 -2.53125 -0.625 -2.34375 C -0.5 -2.109375 -0.4375 -1.875 -0.4375 -1.6875 C -0.4375 -1.375 -0.734375 -1.125 -1.125 -1.125 L -1.15625 -1.125 C -1.6875 -1.125 -2.03125 -1.53125 -2.40625 -2.578125 Z M -1.109375 -2.578125 "
           id="path146" />
      </symbol>
      <symbol
         overflow="visible"
         id="glyph6-3">
        <path
           style="stroke:none;"
           d="M 0 -0.046875 L 0 -2.203125 L -0.140625 -2.203125 C -0.15625 -1.59375 -0.28125 -1.453125 -0.8125 -1.4375 L -2.828125 -1.4375 C -3.109375 -1.4375 -3.5625 -1.8125 -3.5625 -2.0625 C -3.5625 -2.109375 -3.515625 -2.203125 -3.421875 -2.296875 C -3.296875 -2.4375 -3.25 -2.53125 -3.25 -2.65625 C -3.25 -2.875 -3.40625 -3 -3.65625 -3 C -3.953125 -3 -4.125 -2.8125 -4.125 -2.515625 C -4.125 -2.140625 -3.921875 -1.890625 -3.28125 -1.4375 L -4.109375 -1.4375 L -4.125 -1.390625 C -3.921875 -0.890625 -3.796875 -0.5625 -3.640625 -0.0625 L -3.5 -0.0625 C -3.53125 -0.1875 -3.53125 -0.265625 -3.53125 -0.375 C -3.53125 -0.59375 -3.390625 -0.6875 -3 -0.6875 L -0.75 -0.6875 C -0.28125 -0.65625 -0.234375 -0.609375 -0.140625 -0.046875 Z M 0 -0.046875 "
           id="path149" />
      </symbol>
      <symbol
         overflow="visible"
         id="glyph6-4">
        <path
           style="stroke:none;"
           d="M -5.765625 -3.703125 C -5.734375 -4.25 -5.703125 -4.3125 -5.484375 -4.3125 C -5.296875 -4.3125 -5.015625 -4.109375 -4.5625 -3.609375 L -3.125 -2.03125 L -4.953125 -2.03125 C -5.625 -2.03125 -5.71875 -2.125 -5.765625 -2.859375 L -5.9375 -2.859375 L -5.9375 -0.3125 L -5.765625 -0.3125 C -5.71875 -1 -5.609375 -1.09375 -4.953125 -1.109375 L -1.078125 -1.109375 C -0.3125 -1.109375 -0.21875 -1 -0.171875 -0.3125 L 0 -0.3125 L 0 -2.828125 L -0.171875 -2.828125 C -0.21875 -2.140625 -0.3125 -2.03125 -0.984375 -2.03125 L -2.65625 -2.03125 L -2.84375 -2.265625 L -1.90625 -3.203125 C -1.203125 -3.90625 -0.59375 -4.375 -0.375 -4.375 C -0.234375 -4.375 -0.1875 -4.265625 -0.171875 -4 C -0.171875 -3.953125 -0.171875 -3.859375 -0.171875 -3.75 L 0 -3.75 L 0 -6.484375 L -0.171875 -6.484375 C -0.171875 -6.015625 -0.265625 -5.890625 -1.140625 -5.078125 L -3.375 -2.984375 L -5.0625 -4.6875 C -5.65625 -5.296875 -5.71875 -5.4375 -5.765625 -6.046875 L -5.9375 -6.046875 L -5.9375 -3.703125 Z M -5.765625 -3.703125 "
           id="path152" />
      </symbol>
    </g>
  </defs>
  <g
     id="surface1">
    <path
       style="fill:none;stroke-width:11.3366;stroke-linecap:butt;stroke-linejoin:miter;stroke:rgb(0%,0%,0%);stroke-opacity:1;stroke-miterlimit:10;"
       d="M 1591.40625 798.039062 L 315.820312 1467.21875 "
       transform="matrix(0.1,0,0,-0.1,0,172.3)"
       id="path159" />
    <path
       style="fill:none;stroke-width:11.3366;stroke-linecap:butt;stroke-linejoin:miter;stroke:rgb(0%,0%,0%);stroke-opacity:1;stroke-miterlimit:10;"
       d="M 315.820312 1467.21875 L 341.328125 1431.789062 L 366.835938 1398.664062 L 392.34375 1367.648438 L 417.851562 1338.507812 L 443.359375 1311.125 L 468.867188 1285.304688 L 494.375 1260.890625 L 519.882812 1237.84375 L 545.390625 1216.007812 L 570.9375 1195.304688 L 596.445312 1175.617188 L 621.953125 1156.90625 L 647.460938 1139.09375 L 672.96875 1122.140625 L 698.476562 1105.929688 L 723.984375 1090.460938 L 749.492188 1075.65625 L 775 1061.476562 L 800.507812 1047.921875 L 826.054688 1034.875 L 851.5625 1022.375 L 877.070312 1010.382812 L 902.578125 998.859375 L 928.085938 987.765625 L 953.59375 977.0625 L 979.101562 966.75 L 1004.609375 956.828125 L 1030.117188 947.257812 L 1055.625 938 L 1081.132812 929.054688 L 1106.640625 920.421875 L 1132.1875 912.101562 L 1157.695312 904.015625 L 1183.203125 896.164062 L 1208.710938 888.625 L 1234.21875 881.28125 L 1259.726562 874.132812 L 1285.234375 867.257812 L 1310.742188 860.539062 L 1336.289062 854.015625 L 1361.796875 847.726562 L 1387.304688 841.554688 L 1412.8125 835.578125 L 1438.320312 829.796875 L 1463.828125 824.132812 L 1489.335938 818.625 L 1514.84375 813.273438 L 1540.351562 808.078125 L 1565.898438 803 L 1591.40625 798.039062 "
       transform="matrix(0.1,0,0,-0.1,0,172.3)"
       id="path161" />
    <g
       style="fill:rgb(0%,0%,0%);fill-opacity:1;"
       id="g165">
      <use
         xlink:href="#glyph0-1"
         x="103.373"
         y="55.493"
         id="use163" />
    </g>
    <g
       style="fill:rgb(0%,0%,0%);fill-opacity:1;"
       id="g169">
      <use
         xlink:href="#glyph0-2"
         x="108.772997"
         y="55.493"
         id="use167" />
    </g>
    <g
       style="fill:rgb(0%,0%,0%);fill-opacity:1;"
       id="g173">
      <use
         xlink:href="#glyph0-3"
         x="114.533154"
         y="55.493"
         id="use171" />
    </g>
    <path
       style=" stroke:none;fill-rule:nonzero;fill:rgb(0%,0%,0%);fill-opacity:1;"
       d="M 96.355469 64.324219 L 95.359375 67.222656 L 97.964844 65.613281 L 96.441406 65.871094 "
       id="path175" />
    <path
       style="fill:none;stroke-width:2.83298;stroke-linecap:butt;stroke-linejoin:miter;stroke:rgb(0%,0%,0%);stroke-opacity:1;stroke-miterlimit:10;"
       d="M 1030.117188 1146.476562 L 964.414062 1064.289062 "
       transform="matrix(0.1,0,0,-0.1,0,172.3)"
       id="path177" />
    <g
       style="fill:rgb(0%,0%,0%);fill-opacity:1;"
       id="g181">
      <use
         xlink:href="#glyph0-3"
         x="61.2781"
         y="31.576"
         id="use179" />
    </g>
    <g
       style="fill:rgb(0%,0%,0%);fill-opacity:1;"
       id="g185">
      <use
         xlink:href="#glyph0-4"
         x="63.438255"
         y="31.576"
         id="use183" />
    </g>
    <g
       style="fill:rgb(0%,0%,0%);fill-opacity:1;"
       id="g189">
      <use
         xlink:href="#glyph0-5"
         x="65.598409"
         y="31.576"
         id="use187" />
    </g>
    <g
       style="fill:rgb(0%,0%,0%);fill-opacity:1;"
       id="g193">
      <use
         xlink:href="#glyph0-6"
         x="69.558568"
         y="31.576"
         id="use191" />
    </g>
    <g
       style="fill:rgb(0%,0%,0%);fill-opacity:1;"
       id="g197">
      <use
         xlink:href="#glyph0-4"
         x="73.518727"
         y="31.576"
         id="use195" />
    </g>
    <g
       style="fill:rgb(0%,0%,0%);fill-opacity:1;"
       id="g201">
      <use
         xlink:href="#glyph0-7"
         x="75.678882"
         y="31.576"
         id="use199" />
    </g>
    <g
       style="fill:rgb(0%,0%,0%);fill-opacity:1;"
       id="g205">
      <use
         xlink:href="#glyph0-6"
         x="79.63904"
         y="31.576"
         id="use203" />
    </g>
    <g
       style="fill:rgb(0%,0%,0%);fill-opacity:1;"
       id="g209">
      <use
         xlink:href="#glyph0-8"
         x="83.599199"
         y="31.576"
         id="use207" />
    </g>
    <path
       style=" stroke:none;fill-rule:nonzero;fill:rgb(0%,0%,0%);fill-opacity:1;"
       d="M 58.238281 35.199219 L 57.089844 38.042969 L 59.777344 36.570312 L 58.242188 36.746094 "
       id="path211" />
    <path
       style="fill:none;stroke-width:2.83298;stroke-linecap:butt;stroke-linejoin:miter;stroke:rgb(0%,0%,0%);stroke-opacity:1;stroke-miterlimit:10;"
       d="M 609.179688 1385.65625 L 582.421875 1355.539062 "
       transform="matrix(0.1,0,0,-0.1,0,172.3)"
       id="path213" />
    <g
       style="fill:rgb(0%,0%,0%);fill-opacity:1;"
       id="g217">
      <use
         xlink:href="#glyph0-9"
         x="104.361"
         y="95.7352"
         id="use215" />
    </g>
    <g
       style="fill:rgb(0%,0%,0%);fill-opacity:1;"
       id="g221">
      <use
         xlink:href="#glyph0-10"
         x="108.080918"
         y="95.7352"
         id="use219" />
    </g>
    <g
       style="fill:rgb(0%,0%,0%);fill-opacity:1;"
       id="g225">
      <use
         xlink:href="#glyph0-11"
         x="111.560992"
         y="95.7352"
         id="use223" />
    </g>
    <g
       style="fill:rgb(0%,0%,0%);fill-opacity:1;"
       id="g229">
      <use
         xlink:href="#glyph0-12"
         x="115.521145"
         y="95.7352"
         id="use227" />
    </g>
    <g
       style="fill:rgb(0%,0%,0%);fill-opacity:1;"
       id="g233">
      <use
         xlink:href="#glyph0-13"
         x="119.481297"
         y="95.7352"
         id="use231" />
    </g>
    <g
       style="fill:rgb(0%,0%,0%);fill-opacity:1;"
       id="g237">
      <use
         xlink:href="#glyph0-6"
         x="122.121147"
         y="95.7352"
         id="use235" />
    </g>
    <g
       style="fill:rgb(0%,0%,0%);fill-opacity:1;"
       id="g241">
      <use
         xlink:href="#glyph0-8"
         x="126.0813"
         y="95.7352"
         id="use239" />
    </g>
    <path
       style=" stroke:none;fill-rule:nonzero;fill:rgb(0%,0%,0%);fill-opacity:1;"
       d="M 132.480469 90.3125 L 133.628906 87.472656 L 130.941406 88.941406 L 132.476562 88.765625 "
       id="path243" />
    <path
       style="fill:none;stroke-width:2.83298;stroke-linecap:butt;stroke-linejoin:miter;stroke:rgb(0%,0%,0%);stroke-opacity:1;stroke-miterlimit:10;"
       d="M 1298.007812 805.265625 L 1324.765625 835.34375 "
       transform="matrix(0.1,0,0,-0.1,0,172.3)"
       id="path245" />
    <g
       style="fill:rgb(0%,0%,0%);fill-opacity:1;"
       id="g249">
      <use
         xlink:href="#glyph0-3"
         x="111.631"
         y="35.536"
         id="use247" />
    </g>
    <g
       style="fill:rgb(0%,0%,0%);fill-opacity:1;"
       id="g253">
      <use
         xlink:href="#glyph0-4"
         x="113.791161"
         y="35.536"
         id="use251" />
    </g>
    <g
       style="fill:rgb(0%,0%,0%);fill-opacity:1;"
       id="g257">
      <use
         xlink:href="#glyph0-5"
         x="115.951322"
         y="35.536"
         id="use255" />
    </g>
    <g
       style="fill:rgb(0%,0%,0%);fill-opacity:1;"
       id="g261">
      <use
         xlink:href="#glyph0-6"
         x="119.911474"
         y="35.536"
         id="use259" />
    </g>
    <g
       style="fill:rgb(0%,0%,0%);fill-opacity:1;"
       id="g265">
      <use
         xlink:href="#glyph0-4"
         x="123.871627"
         y="35.536"
         id="use263" />
    </g>
    <g
       style="fill:rgb(0%,0%,0%);fill-opacity:1;"
       id="g269">
      <use
         xlink:href="#glyph0-7"
         x="126.031788"
         y="35.536"
         id="use267" />
    </g>
    <g
       style="fill:rgb(0%,0%,0%);fill-opacity:1;"
       id="g273">
      <use
         xlink:href="#glyph0-1"
         x="64.5681"
         y="92.7348"
         id="use271" />
    </g>
    <g
       style="fill:rgb(0%,0%,0%);fill-opacity:1;"
       id="g277">
      <use
         xlink:href="#glyph0-10"
         x="68.528259"
         y="92.7348"
         id="use275" />
    </g>
    <g
       style="fill:rgb(0%,0%,0%);fill-opacity:1;"
       id="g281">
      <use
         xlink:href="#glyph0-8"
         x="72.008339"
         y="92.7348"
         id="use279" />
    </g>
    <path
       style="fill:none;stroke-width:5.67043;stroke-linecap:butt;stroke-linejoin:miter;stroke:rgb(0%,0%,0%);stroke-opacity:1;stroke-miterlimit:10;"
       d="M 315.820312 413 L 1591.40625 413 L 1591.40625 1688.585938 L 315.820312 1688.585938 Z M 315.820312 413 "
       transform="matrix(0.1,0,0,-0.1,0,172.3)"
       id="path283" />
    <path
       style="fill:none;stroke-width:3.98506;stroke-linecap:butt;stroke-linejoin:miter;stroke:rgb(0%,0%,0%);stroke-opacity:1;stroke-miterlimit:10;"
       d="M 315.820312 413 L 315.820312 455.539062 "
       transform="matrix(0.1,0,0,-0.1,0,172.3)"
       id="path285" />
    <path
       style="fill:none;stroke-width:3.98506;stroke-linecap:butt;stroke-linejoin:miter;stroke:rgb(0%,0%,0%);stroke-opacity:1;stroke-miterlimit:10;"
       d="M 570.898438 413 L 570.898438 455.539062 "
       transform="matrix(0.1,0,0,-0.1,0,172.3)"
       id="path287" />
    <path
       style="fill:none;stroke-width:3.98506;stroke-linecap:butt;stroke-linejoin:miter;stroke:rgb(0%,0%,0%);stroke-opacity:1;stroke-miterlimit:10;"
       d="M 826.015625 413 L 826.015625 455.539062 "
       transform="matrix(0.1,0,0,-0.1,0,172.3)"
       id="path289" />
    <path
       style="fill:none;stroke-width:3.98506;stroke-linecap:butt;stroke-linejoin:miter;stroke:rgb(0%,0%,0%);stroke-opacity:1;stroke-miterlimit:10;"
       d="M 1081.132812 413 L 1081.132812 455.539062 "
       transform="matrix(0.1,0,0,-0.1,0,172.3)"
       id="path291" />
    <path
       style="fill:none;stroke-width:3.98506;stroke-linecap:butt;stroke-linejoin:miter;stroke:rgb(0%,0%,0%);stroke-opacity:1;stroke-miterlimit:10;"
       d="M 1336.25 413 L 1336.25 455.539062 "
       transform="matrix(0.1,0,0,-0.1,0,172.3)"
       id="path293" />
    <path
       style="fill:none;stroke-width:3.98506;stroke-linecap:butt;stroke-linejoin:miter;stroke:rgb(0%,0%,0%);stroke-opacity:1;stroke-miterlimit:10;"
       d="M 1591.367188 413 L 1591.367188 455.539062 "
       transform="matrix(0.1,0,0,-0.1,0,172.3)"
       id="path295" />
    <path
       style="fill:none;stroke-width:3.98506;stroke-linecap:butt;stroke-linejoin:miter;stroke:rgb(0%,0%,0%);stroke-opacity:1;stroke-miterlimit:10;"
       d="M 315.820312 413 L 315.820312 455.539062 "
       transform="matrix(0.1,0,0,-0.1,0,172.3)"
       id="path297" />
    <path
       style="fill:none;stroke-width:3.98506;stroke-linecap:butt;stroke-linejoin:miter;stroke:rgb(0%,0%,0%);stroke-opacity:1;stroke-miterlimit:10;"
       d="M 315.820312 413 L 358.320312 413 "
       transform="matrix(0.1,0,0,-0.1,0,172.3)"
       id="path299" />
    <path
       style="fill:none;stroke-width:3.98506;stroke-linecap:butt;stroke-linejoin:miter;stroke:rgb(0%,0%,0%);stroke-opacity:1;stroke-miterlimit:10;"
       d="M 315.820312 731.90625 L 358.320312 731.90625 "
       transform="matrix(0.1,0,0,-0.1,0,172.3)"
       id="path301" />
    <path
       style="fill:none;stroke-width:3.98506;stroke-linecap:butt;stroke-linejoin:miter;stroke:rgb(0%,0%,0%);stroke-opacity:1;stroke-miterlimit:10;"
       d="M 315.820312 1050.773438 L 358.320312 1050.773438 "
       transform="matrix(0.1,0,0,-0.1,0,172.3)"
       id="path303" />
    <path
       style="fill:none;stroke-width:3.98506;stroke-linecap:butt;stroke-linejoin:miter;stroke:rgb(0%,0%,0%);stroke-opacity:1;stroke-miterlimit:10;"
       d="M 315.820312 1369.679688 L 358.320312 1369.679688 "
       transform="matrix(0.1,0,0,-0.1,0,172.3)"
       id="path305" />
    <path
       style="fill:none;stroke-width:3.98506;stroke-linecap:butt;stroke-linejoin:miter;stroke:rgb(0%,0%,0%);stroke-opacity:1;stroke-miterlimit:10;"
       d="M 315.820312 1688.585938 L 358.320312 1688.585938 "
       transform="matrix(0.1,0,0,-0.1,0,172.3)"
       id="path307" />
    <path
       style="fill:none;stroke-width:3.98506;stroke-linecap:butt;stroke-linejoin:miter;stroke:rgb(0%,0%,0%);stroke-opacity:1;stroke-miterlimit:10;"
       d="M 315.820312 413 L 358.320312 413 "
       transform="matrix(0.1,0,0,-0.1,0,172.3)"
       id="path309" />
    <path
       style="fill:none;stroke-width:3.98506;stroke-linecap:butt;stroke-linejoin:miter;stroke:rgb(0%,0%,0%);stroke-opacity:1;stroke-miterlimit:10;"
       d="M 315.820312 1688.585938 L 315.820312 1646.085938 "
       transform="matrix(0.1,0,0,-0.1,0,172.3)"
       id="path311" />
    <path
       style="fill:none;stroke-width:3.98506;stroke-linecap:butt;stroke-linejoin:miter;stroke:rgb(0%,0%,0%);stroke-opacity:1;stroke-miterlimit:10;"
       d="M 570.898438 1688.585938 L 570.898438 1646.085938 "
       transform="matrix(0.1,0,0,-0.1,0,172.3)"
       id="path313" />
    <path
       style="fill:none;stroke-width:3.98506;stroke-linecap:butt;stroke-linejoin:miter;stroke:rgb(0%,0%,0%);stroke-opacity:1;stroke-miterlimit:10;"
       d="M 826.015625 1688.585938 L 826.015625 1646.085938 "
       transform="matrix(0.1,0,0,-0.1,0,172.3)"
       id="path315" />
    <path
       style="fill:none;stroke-width:3.98506;stroke-linecap:butt;stroke-linejoin:miter;stroke:rgb(0%,0%,0%);stroke-opacity:1;stroke-miterlimit:10;"
       d="M 1081.132812 1688.585938 L 1081.132812 1646.085938 "
       transform="matrix(0.1,0,0,-0.1,0,172.3)"
       id="path317" />
    <path
       style="fill:none;stroke-width:3.98506;stroke-linecap:butt;stroke-linejoin:miter;stroke:rgb(0%,0%,0%);stroke-opacity:1;stroke-miterlimit:10;"
       d="M 1336.25 1688.585938 L 1336.25 1646.085938 "
       transform="matrix(0.1,0,0,-0.1,0,172.3)"
       id="path319" />
    <path
       style="fill:none;stroke-width:3.98506;stroke-linecap:butt;stroke-linejoin:miter;stroke:rgb(0%,0%,0%);stroke-opacity:1;stroke-miterlimit:10;"
       d="M 1591.367188 1688.585938 L 1591.367188 1646.085938 "
       transform="matrix(0.1,0,0,-0.1,0,172.3)"
       id="path321" />
    <path
       style="fill:none;stroke-width:3.98506;stroke-linecap:butt;stroke-linejoin:miter;stroke:rgb(0%,0%,0%);stroke-opacity:1;stroke-miterlimit:10;"
       d="M 315.820312 1688.585938 L 315.820312 1646.085938 "
       transform="matrix(0.1,0,0,-0.1,0,172.3)"
       id="path323" />
    <path
       style="fill:none;stroke-width:3.98506;stroke-linecap:butt;stroke-linejoin:miter;stroke:rgb(0%,0%,0%);stroke-opacity:1;stroke-miterlimit:10;"
       d="M 1591.40625 413 L 1548.867188 413 "
       transform="matrix(0.1,0,0,-0.1,0,172.3)"
       id="path325" />
    <path
       style="fill:none;stroke-width:3.98506;stroke-linecap:butt;stroke-linejoin:miter;stroke:rgb(0%,0%,0%);stroke-opacity:1;stroke-miterlimit:10;"
       d="M 1591.40625 731.90625 L 1548.867188 731.90625 "
       transform="matrix(0.1,0,0,-0.1,0,172.3)"
       id="path327" />
    <path
       style="fill:none;stroke-width:3.98506;stroke-linecap:butt;stroke-linejoin:miter;stroke:rgb(0%,0%,0%);stroke-opacity:1;stroke-miterlimit:10;"
       d="M 1591.40625 1050.773438 L 1548.867188 1050.773438 "
       transform="matrix(0.1,0,0,-0.1,0,172.3)"
       id="path329" />
    <path
       style="fill:none;stroke-width:3.98506;stroke-linecap:butt;stroke-linejoin:miter;stroke:rgb(0%,0%,0%);stroke-opacity:1;stroke-miterlimit:10;"
       d="M 1591.40625 1369.679688 L 1548.867188 1369.679688 "
       transform="matrix(0.1,0,0,-0.1,0,172.3)"
       id="path331" />
    <path
       style="fill:none;stroke-width:3.98506;stroke-linecap:butt;stroke-linejoin:miter;stroke:rgb(0%,0%,0%);stroke-opacity:1;stroke-miterlimit:10;"
       d="M 1591.40625 1688.585938 L 1548.867188 1688.585938 "
       transform="matrix(0.1,0,0,-0.1,0,172.3)"
       id="path333" />
    <path
       style="fill:none;stroke-width:3.98506;stroke-linecap:butt;stroke-linejoin:miter;stroke:rgb(0%,0%,0%);stroke-opacity:1;stroke-miterlimit:10;"
       d="M 1591.40625 413 L 1548.867188 413 "
       transform="matrix(0.1,0,0,-0.1,0,172.3)"
       id="path335" />
    <g
       style="fill:rgb(0%,0%,0%);fill-opacity:1;"
       id="g339">
      <use
         xlink:href="#glyph1-1"
         x="29.3"
         y="139.7602"
         id="use337" />
    </g>
    <g
       style="fill:rgb(0%,0%,0%);fill-opacity:1;"
       id="g343">
      <use
         xlink:href="#glyph1-1"
         x="51.260124"
         y="139.7602"
         id="use341" />
    </g>
    <g
       style="fill:rgb(0%,0%,0%);fill-opacity:1;"
       id="g347">
      <use
         xlink:href="#glyph1-2"
         x="55.940203"
         y="139.7602"
         id="use345" />
    </g>
    <g
       style="fill:rgb(0%,0%,0%);fill-opacity:1;"
       id="g351">
      <use
         xlink:href="#glyph1-3"
         x="58.340203"
         y="139.7602"
         id="use349" />
    </g>
    <g
       style="fill:rgb(0%,0%,0%);fill-opacity:1;"
       id="g355">
      <use
         xlink:href="#glyph1-1"
         x="76.699989"
         y="139.7602"
         id="use353" />
    </g>
    <g
       style="fill:rgb(0%,0%,0%);fill-opacity:1;"
       id="g359">
      <use
         xlink:href="#glyph1-2"
         x="81.380068"
         y="139.7602"
         id="use357" />
    </g>
    <g
       style="fill:rgb(0%,0%,0%);fill-opacity:1;"
       id="g363">
      <use
         xlink:href="#glyph1-4"
         x="83.780068"
         y="139.7602"
         id="use361" />
    </g>
    <g
       style="fill:rgb(0%,0%,0%);fill-opacity:1;"
       id="g367">
      <use
         xlink:href="#glyph1-1"
         x="102.260123"
         y="139.7602"
         id="use365" />
    </g>
    <g
       style="fill:rgb(0%,0%,0%);fill-opacity:1;"
       id="g371">
      <use
         xlink:href="#glyph1-2"
         x="106.940202"
         y="139.7602"
         id="use369" />
    </g>
    <g
       style="fill:rgb(0%,0%,0%);fill-opacity:1;"
       id="g375">
      <use
         xlink:href="#glyph1-5"
         x="109.340202"
         y="139.7602"
         id="use373" />
    </g>
    <g
       style="fill:rgb(0%,0%,0%);fill-opacity:1;"
       id="g379">
      <use
         xlink:href="#glyph1-1"
         x="127.820257"
         y="139.7602"
         id="use377" />
    </g>
    <g
       style="fill:rgb(0%,0%,0%);fill-opacity:1;"
       id="g383">
      <use
         xlink:href="#glyph1-2"
         x="132.500336"
         y="139.7602"
         id="use381" />
    </g>
    <g
       style="fill:rgb(0%,0%,0%);fill-opacity:1;"
       id="g387">
      <use
         xlink:href="#glyph1-6"
         x="134.900336"
         y="139.7602"
         id="use385" />
    </g>
    <g
       style="fill:rgb(0%,0%,0%);fill-opacity:1;"
       id="g391">
      <use
         xlink:href="#glyph1-7"
         x="153.260122"
         y="139.7602"
         id="use389" />
    </g>
    <g
       style="fill:rgb(0%,0%,0%);fill-opacity:1;"
       id="g395">
      <use
         xlink:href="#glyph1-2"
         x="157.940201"
         y="139.7602"
         id="use393" />
    </g>
    <g
       style="fill:rgb(0%,0%,0%);fill-opacity:1;"
       id="g399">
      <use
         xlink:href="#glyph1-1"
         x="160.340201"
         y="139.7602"
         id="use397" />
    </g>
    <g
       style="fill:rgb(0%,0%,0%);fill-opacity:1;"
       id="g403">
      <use
         xlink:href="#glyph1-1"
         x="23.53984"
         y="133.64028"
         id="use401" />
    </g>
    <g
       style="fill:rgb(0%,0%,0%);fill-opacity:1;"
       id="g407">
      <use
         xlink:href="#glyph1-1"
         x="16.46015"
         y="101.84028"
         id="use405" />
    </g>
    <g
       style="fill:rgb(0%,0%,0%);fill-opacity:1;"
       id="g411">
      <use
         xlink:href="#glyph1-2"
         x="21.140229"
         y="101.84028"
         id="use409" />
    </g>
    <g
       style="fill:rgb(0%,0%,0%);fill-opacity:1;"
       id="g415">
      <use
         xlink:href="#glyph1-3"
         x="23.540229"
         y="101.84028"
         id="use413" />
    </g>
    <g
       style="fill:rgb(0%,0%,0%);fill-opacity:1;"
       id="g419">
      <use
         xlink:href="#glyph1-1"
         x="16.46015"
         y="69.92038"
         id="use417" />
    </g>
    <g
       style="fill:rgb(0%,0%,0%);fill-opacity:1;"
       id="g423">
      <use
         xlink:href="#glyph1-2"
         x="21.140229"
         y="69.92038"
         id="use421" />
    </g>
    <g
       style="fill:rgb(0%,0%,0%);fill-opacity:1;"
       id="g427">
      <use
         xlink:href="#glyph1-4"
         x="23.540229"
         y="69.92038"
         id="use425" />
    </g>
    <g
       style="fill:rgb(0%,0%,0%);fill-opacity:1;"
       id="g431">
      <use
         xlink:href="#glyph1-1"
         x="16.46015"
         y="38.00048"
         id="use429" />
    </g>
    <g
       style="fill:rgb(0%,0%,0%);fill-opacity:1;"
       id="g435">
      <use
         xlink:href="#glyph1-2"
         x="21.140229"
         y="38.00048"
         id="use433" />
    </g>
    <g
       style="fill:rgb(0%,0%,0%);fill-opacity:1;"
       id="g439">
      <use
         xlink:href="#glyph1-5"
         x="23.540229"
         y="38.00048"
         id="use437" />
    </g>
    <g
       style="fill:rgb(0%,0%,0%);fill-opacity:1;"
       id="g443">
      <use
         xlink:href="#glyph1-1"
         x="16.46015"
         y="6.08058"
         id="use441" />
    </g>
    <g
       style="fill:rgb(0%,0%,0%);fill-opacity:1;"
       id="g447">
      <use
         xlink:href="#glyph1-2"
         x="21.140229"
         y="6.08058"
         id="use445" />
    </g>
    <g
       style="fill:rgb(0%,0%,0%);fill-opacity:1;"
       id="g451">
      <use
         xlink:href="#glyph1-6"
         x="23.540229"
         y="6.08058"
         id="use449" />
    </g>
    <g
       style="fill:rgb(0%,0%,0%);fill-opacity:1;"
       id="g455">
      <use
         xlink:href="#glyph2-1"
         x="16.939838"
         y="152.12058"
         id="use453" />
    </g>
    <g
       style="fill:rgb(0%,0%,0%);fill-opacity:1;"
       id="g459">
      <use
         xlink:href="#glyph2-2"
         x="21.379682"
         y="152.12058"
         id="use457" />
    </g>
    <g
       style="fill:rgb(0%,0%,0%);fill-opacity:1;"
       id="g463">
      <use
         xlink:href="#glyph2-3"
         x="25.339838"
         y="152.12058"
         id="use461" />
    </g>
    <g
       style="fill:rgb(0%,0%,0%);fill-opacity:1;"
       id="g467">
      <use
         xlink:href="#glyph2-4"
         x="29.779681"
         y="152.12058"
         id="use465" />
    </g>
    <g
       style="fill:rgb(0%,0%,0%);fill-opacity:1;"
       id="g471">
      <use
         xlink:href="#glyph2-2"
         x="33.739837"
         y="152.12058"
         id="use469" />
    </g>
    <g
       style="fill:rgb(0%,0%,0%);fill-opacity:1;"
       id="g475">
      <use
         xlink:href="#glyph2-3"
         x="37.699993"
         y="152.12058"
         id="use473" />
    </g>
    <g
       style="fill:rgb(0%,0%,0%);fill-opacity:1;"
       id="g479">
      <use
         xlink:href="#glyph2-2"
         x="42.139836"
         y="152.12058"
         id="use477" />
    </g>
    <g
       style="fill:rgb(0%,0%,0%);fill-opacity:1;"
       id="g483">
      <use
         xlink:href="#glyph3-1"
         x="90.559338"
         y="150.08074"
         id="use481" />
    </g>
    <g
       style="fill:rgb(0%,0%,0%);fill-opacity:1;"
       id="g487">
      <use
         xlink:href="#glyph4-1"
         x="94.759338"
         y="152.36043"
         id="use485" />
    </g>
    <g
       style="fill:rgb(0%,0%,0%);fill-opacity:1;"
       id="g491">
      <use
         xlink:href="#glyph2-5"
         x="145.939038"
         y="152.120586"
         id="use489" />
    </g>
    <g
       style="fill:rgb(0%,0%,0%);fill-opacity:1;"
       id="g495">
      <use
         xlink:href="#glyph2-6"
         x="148.458962"
         y="152.120586"
         id="use493" />
    </g>
    <g
       style="fill:rgb(0%,0%,0%);fill-opacity:1;"
       id="g499">
      <use
         xlink:href="#glyph2-7"
         x="152.898805"
         y="152.120586"
         id="use497" />
    </g>
    <g
       style="fill:rgb(0%,0%,0%);fill-opacity:1;"
       id="g503">
      <use
         xlink:href="#glyph2-8"
         x="155.418729"
         y="152.120586"
         id="use501" />
    </g>
    <g
       style="fill:rgb(0%,0%,0%);fill-opacity:1;"
       id="g507">
      <use
         xlink:href="#glyph2-2"
         x="159.858572"
         y="152.120586"
         id="use505" />
    </g>
    <g
       style="fill:rgb(0%,0%,0%);fill-opacity:1;"
       id="g511">
      <use
         xlink:href="#glyph2-3"
         x="163.818734"
         y="152.120586"
         id="use509" />
    </g>
    <g
       style="fill:rgb(0%,0%,0%);fill-opacity:1;"
       id="g515">
      <use
         xlink:href="#glyph2-2"
         x="168.258577"
         y="152.120586"
         id="use513" />
    </g>
    <g
       style="fill:rgb(0%,0%,0%);fill-opacity:1;"
       id="g519">
      <use
         xlink:href="#glyph2-9"
         x="90.439438"
         y="169.760386"
         id="use517" />
    </g>
    <g
       style="fill:rgb(0%,0%,0%);fill-opacity:1;"
       id="g523">
      <use
         xlink:href="#glyph2-10"
         x="93.439439"
         y="169.760386"
         id="use521" />
    </g>
    <g
       style="fill:rgb(0%,0%,0%);fill-opacity:1;"
       id="g527">
      <use
         xlink:href="#glyph2-11"
         x="97.399595"
         y="169.760386"
         id="use525" />
    </g>
    <g
       style="fill:rgb(0%,0%,0%);fill-opacity:1;"
       id="g531">
      <use
         xlink:href="#glyph5-1"
         x="9.46992"
         y="78.141"
         id="use529" />
    </g>
    <g
       style="fill:rgb(0%,0%,0%);fill-opacity:1;"
       id="g535">
      <use
         xlink:href="#glyph5-2"
         x="9.46992"
         y="72.140998"
         id="use533" />
    </g>
    <g
       style="fill:rgb(0%,0%,0%);fill-opacity:1;"
       id="g539">
      <use
         xlink:href="#glyph6-1"
         x="9.46992"
         y="67.7012"
         id="use537" />
    </g>
    <g
       style="fill:rgb(0%,0%,0%);fill-opacity:1;"
       id="g543">
      <use
         xlink:href="#glyph6-2"
         x="9.46992"
         y="63.261357"
         id="use541" />
    </g>
    <g
       style="fill:rgb(0%,0%,0%);fill-opacity:1;"
       id="g547">
      <use
         xlink:href="#glyph6-3"
         x="9.46992"
         y="59.301195"
         id="use545" />
    </g>
    <path
       style="fill:none;stroke-width:11.3366;stroke-linecap:butt;stroke-linejoin:miter;stroke:rgb(0%,0%,0%);stroke-opacity:1;stroke-miterlimit:10;"
       d="M 2158.320312 503.625 L 2196.953125 523.078125 L 2234.726562 542.492188 L 2271.835938 561.945312 L 2308.203125 581.398438 L 2343.90625 600.8125 L 2378.867188 620.265625 L 2413.164062 639.71875 L 2446.71875 659.132812 L 2479.765625 678.585938 L 2512.1875 698.039062 L 2543.945312 717.492188 L 2575.039062 736.90625 L 2605.664062 756.359375 L 2635.78125 775.8125 L 2665.234375 795.226562 L 2694.21875 814.679688 L 2722.65625 834.132812 L 2750.585938 853.585938 L 2778.007812 873.039062 L 2804.921875 892.492188 L 2831.328125 911.90625 L 2857.34375 931.359375 L 2882.851562 950.8125 L 2907.96875 970.265625 L 2932.617188 989.679688 L 2956.835938 1009.132812 L 2980.703125 1028.585938 L 3004.023438 1048 L 3027.109375 1067.453125 L 3049.6875 1086.90625 L 3072.03125 1106.359375 L 3093.828125 1125.773438 L 3115.390625 1145.226562 L 3136.5625 1164.640625 L 3157.5 1184.132812 L 3178.007812 1203.585938 L 3198.164062 1223.039062 L 3218.085938 1242.453125 L 3237.578125 1261.90625 L 3256.875 1281.359375 L 3275.742188 1300.773438 L 3294.492188 1320.226562 L 3312.851562 1339.679688 L 3330.859375 1359.09375 L 3348.710938 1378.546875 L 3366.289062 1398 L 3383.515625 1417.414062 L 3400.625 1436.867188 L 3417.304688 1456.359375 L 3433.90625 1475.773438 "
       transform="matrix(0.1,0,0,-0.1,0,172.3)"
       id="path549" />
    <path
       style="fill:none;stroke-width:11.3366;stroke-linecap:butt;stroke-linejoin:miter;stroke:rgb(0%,0%,0%);stroke-opacity:1;stroke-miterlimit:10;"
       d="M 3433.90625 1475.773438 L 3395.625 1456.359375 L 3358.007812 1436.867188 L 3321.015625 1417.414062 L 3284.53125 1398 L 3248.828125 1378.546875 L 3213.59375 1359.09375 L 3178.90625 1339.679688 L 3144.84375 1320.226562 L 3111.445312 1300.773438 L 3078.515625 1281.359375 L 3046.25 1261.90625 L 3014.492188 1242.453125 L 2983.242188 1223.039062 L 2952.617188 1203.585938 L 2922.539062 1184.132812 L 2892.929688 1164.640625 L 2863.867188 1145.226562 L 2835.273438 1125.773438 L 2807.226562 1106.359375 L 2779.648438 1086.90625 L 2752.617188 1067.453125 L 2726.09375 1048 L 2700.078125 1028.585938 L 2674.414062 1009.132812 L 2649.296875 989.679688 L 2624.6875 970.265625 L 2600.429688 950.8125 L 2576.71875 931.359375 L 2553.515625 911.90625 L 2530.664062 892.492188 L 2508.203125 873.039062 L 2486.289062 853.585938 L 2464.726562 834.132812 L 2443.554688 814.679688 L 2422.890625 795.226562 L 2402.578125 775.8125 L 2382.695312 756.359375 L 2363.164062 736.90625 L 2344.023438 717.492188 L 2325.429688 698.039062 L 2307.03125 678.585938 L 2289.0625 659.132812 L 2271.445312 639.71875 L 2254.257812 620.265625 L 2237.421875 600.8125 L 2220.820312 581.398438 L 2204.765625 561.945312 L 2188.945312 542.492188 L 2173.515625 523.078125 L 2158.320312 503.625 "
       transform="matrix(0.1,0,0,-0.1,0,172.3)"
       id="path551" />
    <g
       style="fill:rgb(0%,0%,0%);fill-opacity:1;"
       id="g555">
      <use
         xlink:href="#glyph0-1"
         x="255.727"
         y="58.75"
         id="use553" />
    </g>
    <g
       style="fill:rgb(0%,0%,0%);fill-opacity:1;"
       id="g559">
      <use
         xlink:href="#glyph0-2"
         x="261.007078"
         y="58.75"
         id="use557" />
    </g>
    <g
       style="fill:rgb(0%,0%,0%);fill-opacity:1;"
       id="g563">
      <use
         xlink:href="#glyph0-3"
         x="266.767236"
         y="58.75"
         id="use561" />
    </g>
    <path
       style=" stroke:none;fill-rule:nonzero;fill:rgb(0%,0%,0%);fill-opacity:1;"
       d="M 277.003906 71.9375 L 279.609375 73.546875 L 278.613281 70.648438 L 278.53125 72.195312 "
       id="path565" />
    <path
       style="fill:none;stroke-width:2.83298;stroke-linecap:butt;stroke-linejoin:miter;stroke:rgb(0%,0%,0%);stroke-opacity:1;stroke-miterlimit:10;"
       d="M 2694.0625 1115.109375 L 2785.3125 1001.046875 "
       transform="matrix(0.1,0,0,-0.1,0,172.3)"
       id="path567" />
    <g
       style="fill:rgb(0%,0%,0%);fill-opacity:1;"
       id="g571">
      <use
         xlink:href="#glyph0-3"
         x="244.255"
         y="120.884"
         id="use569" />
    </g>
    <g
       style="fill:rgb(0%,0%,0%);fill-opacity:1;"
       id="g575">
      <use
         xlink:href="#glyph0-4"
         x="246.415149"
         y="120.884"
         id="use573" />
    </g>
    <g
       style="fill:rgb(0%,0%,0%);fill-opacity:1;"
       id="g579">
      <use
         xlink:href="#glyph0-5"
         x="248.575297"
         y="120.884"
         id="use577" />
    </g>
    <g
       style="fill:rgb(0%,0%,0%);fill-opacity:1;"
       id="g583">
      <use
         xlink:href="#glyph0-6"
         x="252.53545"
         y="120.884"
         id="use581" />
    </g>
    <g
       style="fill:rgb(0%,0%,0%);fill-opacity:1;"
       id="g587">
      <use
         xlink:href="#glyph0-4"
         x="256.495602"
         y="120.884"
         id="use585" />
    </g>
    <g
       style="fill:rgb(0%,0%,0%);fill-opacity:1;"
       id="g591">
      <use
         xlink:href="#glyph0-7"
         x="258.655751"
         y="120.884"
         id="use589" />
    </g>
    <g
       style="fill:rgb(0%,0%,0%);fill-opacity:1;"
       id="g595">
      <use
         xlink:href="#glyph0-6"
         x="262.615904"
         y="120.884"
         id="use593" />
    </g>
    <g
       style="fill:rgb(0%,0%,0%);fill-opacity:1;"
       id="g599">
      <use
         xlink:href="#glyph0-8"
         x="266.576056"
         y="120.884"
         id="use597" />
    </g>
    <path
       style=" stroke:none;fill-rule:nonzero;fill:rgb(0%,0%,0%);fill-opacity:1;"
       d="M 243.371094 110.921875 L 241.34375 108.625 L 241.457031 111.6875 L 241.984375 110.234375 "
       id="path601" />
    <path
       style="fill:none;stroke-width:2.83298;stroke-linecap:butt;stroke-linejoin:miter;stroke:rgb(0%,0%,0%);stroke-opacity:1;stroke-miterlimit:10;"
       d="M 2438.945312 572.960938 L 2419.84375 620.65625 "
       transform="matrix(0.1,0,0,-0.1,0,172.3)"
       id="path603" />
    <g
       style="fill:rgb(0%,0%,0%);fill-opacity:1;"
       id="g607">
      <use
         xlink:href="#glyph0-9"
         x="289.888"
         y="30.048"
         id="use605" />
    </g>
    <g
       style="fill:rgb(0%,0%,0%);fill-opacity:1;"
       id="g611">
      <use
         xlink:href="#glyph0-10"
         x="293.607918"
         y="30.048"
         id="use609" />
    </g>
    <g
       style="fill:rgb(0%,0%,0%);fill-opacity:1;"
       id="g615">
      <use
         xlink:href="#glyph0-11"
         x="297.088004"
         y="30.048"
         id="use613" />
    </g>
    <g
       style="fill:rgb(0%,0%,0%);fill-opacity:1;"
       id="g619">
      <use
         xlink:href="#glyph0-12"
         x="301.048157"
         y="30.048"
         id="use617" />
    </g>
    <g
       style="fill:rgb(0%,0%,0%);fill-opacity:1;"
       id="g623">
      <use
         xlink:href="#glyph0-13"
         x="305.00831"
         y="30.048"
         id="use621" />
    </g>
    <g
       style="fill:rgb(0%,0%,0%);fill-opacity:1;"
       id="g627">
      <use
         xlink:href="#glyph0-6"
         x="307.648147"
         y="30.048"
         id="use625" />
    </g>
    <g
       style="fill:rgb(0%,0%,0%);fill-opacity:1;"
       id="g631">
      <use
         xlink:href="#glyph0-8"
         x="311.6083"
         y="30.048"
         id="use629" />
    </g>
    <path
       style=" stroke:none;fill-rule:nonzero;fill:rgb(0%,0%,0%);fill-opacity:1;"
       d="M 315.773438 35.664062 L 317.878906 37.890625 L 317.660156 34.835938 L 317.183594 36.308594 "
       id="path633" />
    <path
       style="fill:none;stroke-width:2.83298;stroke-linecap:butt;stroke-linejoin:miter;stroke:rgb(0%,0%,0%);stroke-opacity:1;stroke-miterlimit:10;"
       d="M 3153.28125 1402.101562 L 3171.835938 1359.914062 "
       transform="matrix(0.1,0,0,-0.1,0,172.3)"
       id="path635" />
    <g
       style="fill:rgb(0%,0%,0%);fill-opacity:1;"
       id="g639">
      <use
         xlink:href="#glyph0-1"
         x="248.82"
         y="36.237"
         id="use637" />
    </g>
    <g
       style="fill:rgb(0%,0%,0%);fill-opacity:1;"
       id="g643">
      <use
         xlink:href="#glyph0-10"
         x="252.780153"
         y="36.237"
         id="use641" />
    </g>
    <g
       style="fill:rgb(0%,0%,0%);fill-opacity:1;"
       id="g647">
      <use
         xlink:href="#glyph0-8"
         x="256.260239"
         y="36.237"
         id="use645" />
    </g>
    <g
       style="fill:rgb(0%,0%,0%);fill-opacity:1;"
       id="g651">
      <use
         xlink:href="#glyph0-3"
         x="295.8829"
         y="100.9784"
         id="use649" />
    </g>
    <g
       style="fill:rgb(0%,0%,0%);fill-opacity:1;"
       id="g655">
      <use
         xlink:href="#glyph0-4"
         x="298.043049"
         y="100.9784"
         id="use653" />
    </g>
    <g
       style="fill:rgb(0%,0%,0%);fill-opacity:1;"
       id="g659">
      <use
         xlink:href="#glyph0-5"
         x="300.203197"
         y="100.9784"
         id="use657" />
    </g>
    <g
       style="fill:rgb(0%,0%,0%);fill-opacity:1;"
       id="g663">
      <use
         xlink:href="#glyph0-6"
         x="304.162959"
         y="100.9784"
         id="use661" />
    </g>
    <g
       style="fill:rgb(0%,0%,0%);fill-opacity:1;"
       id="g667">
      <use
         xlink:href="#glyph0-4"
         x="308.123112"
         y="100.9784"
         id="use665" />
    </g>
    <g
       style="fill:rgb(0%,0%,0%);fill-opacity:1;"
       id="g671">
      <use
         xlink:href="#glyph0-7"
         x="310.28326"
         y="100.9784"
         id="use669" />
    </g>
    <path
       style="fill:none;stroke-width:5.67043;stroke-linecap:butt;stroke-linejoin:miter;stroke:rgb(0%,0%,0%);stroke-opacity:1;stroke-miterlimit:10;"
       d="M 2158.320312 413 L 3433.90625 413 L 3433.90625 1688.625 L 2158.320312 1688.625 Z M 2158.320312 413 "
       transform="matrix(0.1,0,0,-0.1,0,172.3)"
       id="path673" />
    <path
       style="fill:none;stroke-width:3.98506;stroke-linecap:butt;stroke-linejoin:miter;stroke:rgb(0%,0%,0%);stroke-opacity:1;stroke-miterlimit:10;"
       d="M 2158.320312 413 L 2158.320312 455.539062 "
       transform="matrix(0.1,0,0,-0.1,0,172.3)"
       id="path675" />
    <path
       style="fill:none;stroke-width:3.98506;stroke-linecap:butt;stroke-linejoin:miter;stroke:rgb(0%,0%,0%);stroke-opacity:1;stroke-miterlimit:10;"
       d="M 2413.4375 413 L 2413.4375 455.539062 "
       transform="matrix(0.1,0,0,-0.1,0,172.3)"
       id="path677" />
    <path
       style="fill:none;stroke-width:3.98506;stroke-linecap:butt;stroke-linejoin:miter;stroke:rgb(0%,0%,0%);stroke-opacity:1;stroke-miterlimit:10;"
       d="M 2668.554688 413 L 2668.554688 455.539062 "
       transform="matrix(0.1,0,0,-0.1,0,172.3)"
       id="path679" />
    <path
       style="fill:none;stroke-width:3.98506;stroke-linecap:butt;stroke-linejoin:miter;stroke:rgb(0%,0%,0%);stroke-opacity:1;stroke-miterlimit:10;"
       d="M 2923.671875 413 L 2923.671875 455.539062 "
       transform="matrix(0.1,0,0,-0.1,0,172.3)"
       id="path681" />
    <path
       style="fill:none;stroke-width:3.98506;stroke-linecap:butt;stroke-linejoin:miter;stroke:rgb(0%,0%,0%);stroke-opacity:1;stroke-miterlimit:10;"
       d="M 3178.789062 413 L 3178.789062 455.539062 "
       transform="matrix(0.1,0,0,-0.1,0,172.3)"
       id="path683" />
    <path
       style="fill:none;stroke-width:3.98506;stroke-linecap:butt;stroke-linejoin:miter;stroke:rgb(0%,0%,0%);stroke-opacity:1;stroke-miterlimit:10;"
       d="M 3433.90625 413 L 3433.90625 455.539062 "
       transform="matrix(0.1,0,0,-0.1,0,172.3)"
       id="path685" />
    <path
       style="fill:none;stroke-width:3.98506;stroke-linecap:butt;stroke-linejoin:miter;stroke:rgb(0%,0%,0%);stroke-opacity:1;stroke-miterlimit:10;"
       d="M 2158.320312 413 L 2158.320312 455.539062 "
       transform="matrix(0.1,0,0,-0.1,0,172.3)"
       id="path687" />
    <path
       style="fill:none;stroke-width:3.98506;stroke-linecap:butt;stroke-linejoin:miter;stroke:rgb(0%,0%,0%);stroke-opacity:1;stroke-miterlimit:10;"
       d="M 2158.320312 413 L 2200.859375 413 "
       transform="matrix(0.1,0,0,-0.1,0,172.3)"
       id="path689" />
    <path
       style="fill:none;stroke-width:3.98506;stroke-linecap:butt;stroke-linejoin:miter;stroke:rgb(0%,0%,0%);stroke-opacity:1;stroke-miterlimit:10;"
       d="M 2158.320312 731.90625 L 2200.859375 731.90625 "
       transform="matrix(0.1,0,0,-0.1,0,172.3)"
       id="path691" />
    <path
       style="fill:none;stroke-width:3.98506;stroke-linecap:butt;stroke-linejoin:miter;stroke:rgb(0%,0%,0%);stroke-opacity:1;stroke-miterlimit:10;"
       d="M 2158.320312 1050.8125 L 2200.859375 1050.8125 "
       transform="matrix(0.1,0,0,-0.1,0,172.3)"
       id="path693" />
    <path
       style="fill:none;stroke-width:3.98506;stroke-linecap:butt;stroke-linejoin:miter;stroke:rgb(0%,0%,0%);stroke-opacity:1;stroke-miterlimit:10;"
       d="M 2158.320312 1369.71875 L 2200.859375 1369.71875 "
       transform="matrix(0.1,0,0,-0.1,0,172.3)"
       id="path695" />
    <path
       style="fill:none;stroke-width:3.98506;stroke-linecap:butt;stroke-linejoin:miter;stroke:rgb(0%,0%,0%);stroke-opacity:1;stroke-miterlimit:10;"
       d="M 2158.320312 1688.625 L 2200.859375 1688.625 "
       transform="matrix(0.1,0,0,-0.1,0,172.3)"
       id="path697" />
    <path
       style="fill:none;stroke-width:3.98506;stroke-linecap:butt;stroke-linejoin:miter;stroke:rgb(0%,0%,0%);stroke-opacity:1;stroke-miterlimit:10;"
       d="M 2158.320312 413 L 2200.859375 413 "
       transform="matrix(0.1,0,0,-0.1,0,172.3)"
       id="path699" />
    <path
       style="fill:none;stroke-width:3.98506;stroke-linecap:butt;stroke-linejoin:miter;stroke:rgb(0%,0%,0%);stroke-opacity:1;stroke-miterlimit:10;"
       d="M 2158.320312 1688.625 L 2158.320312 1646.125 "
       transform="matrix(0.1,0,0,-0.1,0,172.3)"
       id="path701" />
    <path
       style="fill:none;stroke-width:3.98506;stroke-linecap:butt;stroke-linejoin:miter;stroke:rgb(0%,0%,0%);stroke-opacity:1;stroke-miterlimit:10;"
       d="M 2413.4375 1688.625 L 2413.4375 1646.125 "
       transform="matrix(0.1,0,0,-0.1,0,172.3)"
       id="path703" />
    <path
       style="fill:none;stroke-width:3.98506;stroke-linecap:butt;stroke-linejoin:miter;stroke:rgb(0%,0%,0%);stroke-opacity:1;stroke-miterlimit:10;"
       d="M 2668.554688 1688.625 L 2668.554688 1646.125 "
       transform="matrix(0.1,0,0,-0.1,0,172.3)"
       id="path705" />
    <path
       style="fill:none;stroke-width:3.98506;stroke-linecap:butt;stroke-linejoin:miter;stroke:rgb(0%,0%,0%);stroke-opacity:1;stroke-miterlimit:10;"
       d="M 2923.671875 1688.625 L 2923.671875 1646.125 "
       transform="matrix(0.1,0,0,-0.1,0,172.3)"
       id="path707" />
    <path
       style="fill:none;stroke-width:3.98506;stroke-linecap:butt;stroke-linejoin:miter;stroke:rgb(0%,0%,0%);stroke-opacity:1;stroke-miterlimit:10;"
       d="M 3178.789062 1688.625 L 3178.789062 1646.125 "
       transform="matrix(0.1,0,0,-0.1,0,172.3)"
       id="path709" />
    <path
       style="fill:none;stroke-width:3.98506;stroke-linecap:butt;stroke-linejoin:miter;stroke:rgb(0%,0%,0%);stroke-opacity:1;stroke-miterlimit:10;"
       d="M 3433.90625 1688.625 L 3433.90625 1646.125 "
       transform="matrix(0.1,0,0,-0.1,0,172.3)"
       id="path711" />
    <path
       style="fill:none;stroke-width:3.98506;stroke-linecap:butt;stroke-linejoin:miter;stroke:rgb(0%,0%,0%);stroke-opacity:1;stroke-miterlimit:10;"
       d="M 2158.320312 1688.625 L 2158.320312 1646.125 "
       transform="matrix(0.1,0,0,-0.1,0,172.3)"
       id="path713" />
    <path
       style="fill:none;stroke-width:3.98506;stroke-linecap:butt;stroke-linejoin:miter;stroke:rgb(0%,0%,0%);stroke-opacity:1;stroke-miterlimit:10;"
       d="M 3433.90625 413 L 3391.40625 413 "
       transform="matrix(0.1,0,0,-0.1,0,172.3)"
       id="path715" />
    <path
       style="fill:none;stroke-width:3.98506;stroke-linecap:butt;stroke-linejoin:miter;stroke:rgb(0%,0%,0%);stroke-opacity:1;stroke-miterlimit:10;"
       d="M 3433.90625 731.90625 L 3391.40625 731.90625 "
       transform="matrix(0.1,0,0,-0.1,0,172.3)"
       id="path717" />
    <path
       style="fill:none;stroke-width:3.98506;stroke-linecap:butt;stroke-linejoin:miter;stroke:rgb(0%,0%,0%);stroke-opacity:1;stroke-miterlimit:10;"
       d="M 3433.90625 1050.8125 L 3391.40625 1050.8125 "
       transform="matrix(0.1,0,0,-0.1,0,172.3)"
       id="path719" />
    <path
       style="fill:none;stroke-width:3.98506;stroke-linecap:butt;stroke-linejoin:miter;stroke:rgb(0%,0%,0%);stroke-opacity:1;stroke-miterlimit:10;"
       d="M 3433.90625 1369.71875 L 3391.40625 1369.71875 "
       transform="matrix(0.1,0,0,-0.1,0,172.3)"
       id="path721" />
    <path
       style="fill:none;stroke-width:3.98506;stroke-linecap:butt;stroke-linejoin:miter;stroke:rgb(0%,0%,0%);stroke-opacity:1;stroke-miterlimit:10;"
       d="M 3433.90625 1688.625 L 3391.40625 1688.625 "
       transform="matrix(0.1,0,0,-0.1,0,172.3)"
       id="path723" />
    <path
       style="fill:none;stroke-width:3.98506;stroke-linecap:butt;stroke-linejoin:miter;stroke:rgb(0%,0%,0%);stroke-opacity:1;stroke-miterlimit:10;"
       d="M 3433.90625 413 L 3391.40625 413 "
       transform="matrix(0.1,0,0,-0.1,0,172.3)"
       id="path725" />
    <g
       style="fill:rgb(0%,0%,0%);fill-opacity:1;"
       id="g729">
      <use
         xlink:href="#glyph1-1"
         x="213.552"
         y="139.7602"
         id="use727" />
    </g>
    <g
       style="fill:rgb(0%,0%,0%);fill-opacity:1;"
       id="g733">
      <use
         xlink:href="#glyph1-1"
         x="235.512124"
         y="139.7602"
         id="use731" />
    </g>
    <g
       style="fill:rgb(0%,0%,0%);fill-opacity:1;"
       id="g737">
      <use
         xlink:href="#glyph1-2"
         x="240.192203"
         y="139.7602"
         id="use735" />
    </g>
    <g
       style="fill:rgb(0%,0%,0%);fill-opacity:1;"
       id="g741">
      <use
         xlink:href="#glyph1-3"
         x="242.592203"
         y="139.7602"
         id="use739" />
    </g>
    <g
       style="fill:rgb(0%,0%,0%);fill-opacity:1;"
       id="g745">
      <use
         xlink:href="#glyph1-1"
         x="260.951989"
         y="139.7602"
         id="use743" />
    </g>
    <g
       style="fill:rgb(0%,0%,0%);fill-opacity:1;"
       id="g749">
      <use
         xlink:href="#glyph1-2"
         x="265.632068"
         y="139.7602"
         id="use747" />
    </g>
    <g
       style="fill:rgb(0%,0%,0%);fill-opacity:1;"
       id="g753">
      <use
         xlink:href="#glyph1-4"
         x="268.032068"
         y="139.7602"
         id="use751" />
    </g>
    <g
       style="fill:rgb(0%,0%,0%);fill-opacity:1;"
       id="g757">
      <use
         xlink:href="#glyph1-1"
         x="286.512123"
         y="139.7602"
         id="use755" />
    </g>
    <g
       style="fill:rgb(0%,0%,0%);fill-opacity:1;"
       id="g761">
      <use
         xlink:href="#glyph1-2"
         x="291.192202"
         y="139.7602"
         id="use759" />
    </g>
    <g
       style="fill:rgb(0%,0%,0%);fill-opacity:1;"
       id="g765">
      <use
         xlink:href="#glyph1-5"
         x="293.592202"
         y="139.7602"
         id="use763" />
    </g>
    <g
       style="fill:rgb(0%,0%,0%);fill-opacity:1;"
       id="g769">
      <use
         xlink:href="#glyph1-1"
         x="312.072257"
         y="139.7602"
         id="use767" />
    </g>
    <g
       style="fill:rgb(0%,0%,0%);fill-opacity:1;"
       id="g773">
      <use
         xlink:href="#glyph1-2"
         x="316.752336"
         y="139.7602"
         id="use771" />
    </g>
    <g
       style="fill:rgb(0%,0%,0%);fill-opacity:1;"
       id="g777">
      <use
         xlink:href="#glyph1-6"
         x="319.152336"
         y="139.7602"
         id="use775" />
    </g>
    <g
       style="fill:rgb(0%,0%,0%);fill-opacity:1;"
       id="g781">
      <use
         xlink:href="#glyph1-7"
         x="337.512122"
         y="139.7602"
         id="use779" />
    </g>
    <g
       style="fill:rgb(0%,0%,0%);fill-opacity:1;"
       id="g785">
      <use
         xlink:href="#glyph1-2"
         x="342.192201"
         y="139.7602"
         id="use783" />
    </g>
    <g
       style="fill:rgb(0%,0%,0%);fill-opacity:1;"
       id="g789">
      <use
         xlink:href="#glyph1-1"
         x="344.592201"
         y="139.7602"
         id="use787" />
    </g>
    <g
       style="fill:rgb(0%,0%,0%);fill-opacity:1;"
       id="g793">
      <use
         xlink:href="#glyph1-8"
         x="198.4321"
         y="133.64028"
         id="use791" />
    </g>
    <g
       style="fill:rgb(0%,0%,0%);fill-opacity:1;"
       id="g797">
      <use
         xlink:href="#glyph1-9"
         x="203.112179"
         y="133.64028"
         id="use795" />
    </g>
    <g
       style="fill:rgb(0%,0%,0%);fill-opacity:1;"
       id="g801">
      <use
         xlink:href="#glyph1-1"
         x="207.792258"
         y="133.64028"
         id="use799" />
    </g>
    <g
       style="fill:rgb(0%,0%,0%);fill-opacity:1;"
       id="g805">
      <use
         xlink:href="#glyph1-8"
         x="198.4321"
         y="101.84028"
         id="use803" />
    </g>
    <g
       style="fill:rgb(0%,0%,0%);fill-opacity:1;"
       id="g809">
      <use
         xlink:href="#glyph1-5"
         x="203.112179"
         y="101.84028"
         id="use807" />
    </g>
    <g
       style="fill:rgb(0%,0%,0%);fill-opacity:1;"
       id="g813">
      <use
         xlink:href="#glyph1-1"
         x="207.792258"
         y="101.84028"
         id="use811" />
    </g>
    <g
       style="fill:rgb(0%,0%,0%);fill-opacity:1;"
       id="g817">
      <use
         xlink:href="#glyph1-8"
         x="198.4321"
         y="69.92038"
         id="use815" />
    </g>
    <g
       style="fill:rgb(0%,0%,0%);fill-opacity:1;"
       id="g821">
      <use
         xlink:href="#glyph1-10"
         x="203.112179"
         y="69.92038"
         id="use819" />
    </g>
    <g
       style="fill:rgb(0%,0%,0%);fill-opacity:1;"
       id="g825">
      <use
         xlink:href="#glyph1-1"
         x="207.792258"
         y="69.92038"
         id="use823" />
    </g>
    <g
       style="fill:rgb(0%,0%,0%);fill-opacity:1;"
       id="g829">
      <use
         xlink:href="#glyph1-8"
         x="198.4321"
         y="38.00048"
         id="use827" />
    </g>
    <g
       style="fill:rgb(0%,0%,0%);fill-opacity:1;"
       id="g833">
      <use
         xlink:href="#glyph1-6"
         x="203.112179"
         y="38.00048"
         id="use831" />
    </g>
    <g
       style="fill:rgb(0%,0%,0%);fill-opacity:1;"
       id="g837">
      <use
         xlink:href="#glyph1-1"
         x="207.792258"
         y="38.00048"
         id="use835" />
    </g>
    <g
       style="fill:rgb(0%,0%,0%);fill-opacity:1;"
       id="g841">
      <use
         xlink:href="#glyph1-8"
         x="198.4321"
         y="6.08058"
         id="use839" />
    </g>
    <g
       style="fill:rgb(0%,0%,0%);fill-opacity:1;"
       id="g845">
      <use
         xlink:href="#glyph1-11"
         x="203.112179"
         y="6.08058"
         id="use843" />
    </g>
    <g
       style="fill:rgb(0%,0%,0%);fill-opacity:1;"
       id="g849">
      <use
         xlink:href="#glyph1-1"
         x="207.792258"
         y="6.08058"
         id="use847" />
    </g>
    <g
       style="fill:rgb(0%,0%,0%);fill-opacity:1;"
       id="g853">
      <use
         xlink:href="#glyph2-1"
         x="201.19187"
         y="152.06958"
         id="use851" />
    </g>
    <g
       style="fill:rgb(0%,0%,0%);fill-opacity:1;"
       id="g857">
      <use
         xlink:href="#glyph2-2"
         x="205.631725"
         y="152.06958"
         id="use855" />
    </g>
    <g
       style="fill:rgb(0%,0%,0%);fill-opacity:1;"
       id="g861">
      <use
         xlink:href="#glyph2-3"
         x="209.591875"
         y="152.06958"
         id="use859" />
    </g>
    <g
       style="fill:rgb(0%,0%,0%);fill-opacity:1;"
       id="g865">
      <use
         xlink:href="#glyph2-4"
         x="214.03173"
         y="152.06958"
         id="use863" />
    </g>
    <g
       style="fill:rgb(0%,0%,0%);fill-opacity:1;"
       id="g869">
      <use
         xlink:href="#glyph2-2"
         x="217.99188"
         y="152.06958"
         id="use867" />
    </g>
    <g
       style="fill:rgb(0%,0%,0%);fill-opacity:1;"
       id="g873">
      <use
         xlink:href="#glyph2-3"
         x="221.95203"
         y="152.06958"
         id="use871" />
    </g>
    <g
       style="fill:rgb(0%,0%,0%);fill-opacity:1;"
       id="g877">
      <use
         xlink:href="#glyph2-2"
         x="226.391885"
         y="152.06958"
         id="use875" />
    </g>
    <g
       style="fill:rgb(0%,0%,0%);fill-opacity:1;"
       id="g881">
      <use
         xlink:href="#glyph3-1"
         x="274.81137"
         y="150.14927"
         id="use879" />
    </g>
    <g
       style="fill:rgb(0%,0%,0%);fill-opacity:1;"
       id="g885">
      <use
         xlink:href="#glyph4-1"
         x="279.01137"
         y="152.30943"
         id="use883" />
    </g>
    <g
       style="fill:rgb(0%,0%,0%);fill-opacity:1;"
       id="g889">
      <use
         xlink:href="#glyph2-5"
         x="330.19107"
         y="152.069586"
         id="use887" />
    </g>
    <g
       style="fill:rgb(0%,0%,0%);fill-opacity:1;"
       id="g893">
      <use
         xlink:href="#glyph2-6"
         x="332.710994"
         y="152.069586"
         id="use891" />
    </g>
    <g
       style="fill:rgb(0%,0%,0%);fill-opacity:1;"
       id="g897">
      <use
         xlink:href="#glyph2-7"
         x="337.150849"
         y="152.069586"
         id="use895" />
    </g>
    <g
       style="fill:rgb(0%,0%,0%);fill-opacity:1;"
       id="g901">
      <use
         xlink:href="#glyph2-8"
         x="339.670773"
         y="152.069586"
         id="use899" />
    </g>
    <g
       style="fill:rgb(0%,0%,0%);fill-opacity:1;"
       id="g905">
      <use
         xlink:href="#glyph2-2"
         x="344.110628"
         y="152.069586"
         id="use903" />
    </g>
    <g
       style="fill:rgb(0%,0%,0%);fill-opacity:1;"
       id="g909">
      <use
         xlink:href="#glyph2-3"
         x="348.070778"
         y="152.069586"
         id="use907" />
    </g>
    <g
       style="fill:rgb(0%,0%,0%);fill-opacity:1;"
       id="g913">
      <use
         xlink:href="#glyph2-2"
         x="352.510633"
         y="152.069586"
         id="use911" />
    </g>
    <g
       style="fill:rgb(0%,0%,0%);fill-opacity:1;"
       id="g917">
      <use
         xlink:href="#glyph2-9"
         x="274.33127"
         y="169.709386"
         id="use915" />
    </g>
    <g
       style="fill:rgb(0%,0%,0%);fill-opacity:1;"
       id="g921">
      <use
         xlink:href="#glyph2-1"
         x="277.331259"
         y="169.709386"
         id="use919" />
    </g>
    <g
       style="fill:rgb(0%,0%,0%);fill-opacity:1;"
       id="g925">
      <use
         xlink:href="#glyph2-11"
         x="281.771114"
         y="169.709386"
         id="use923" />
    </g>
    <g
       style="fill:rgb(0%,0%,0%);fill-opacity:1;"
       id="g929">
      <use
         xlink:href="#glyph5-3"
         x="191.737"
         y="75.8078"
         id="use927" />
    </g>
    <g
       style="fill:rgb(0%,0%,0%);fill-opacity:1;"
       id="g933">
      <use
         xlink:href="#glyph5-2"
         x="191.737"
         y="69.567962"
         id="use931" />
    </g>
    <g
       style="fill:rgb(0%,0%,0%);fill-opacity:1;"
       id="g937">
      <use
         xlink:href="#glyph6-4"
         x="191.737"
         y="65.1281"
         id="use935" />
    </g>
  </g>
</svg>
