%!PS-Adobe-3.0 EPSF-3.0
%%Creator: cairo 1.17.4 (https://cairographics.org)
%%CreationDate: Thu Feb 24 10:49:29 2022
%%Pages: 1
%%DocumentData: Clean7Bit
%%LanguageLevel: 2
%%BoundingBox: 0 0 156 133
%%EndComments
%%BeginProlog
50 dict begin
/q { gsave } bind def
/Q { grestore } bind def
/cm { 6 array astore concat } bind def
/w { setlinewidth } bind def
/J { setlinecap } bind def
/j { setlinejoin } bind def
/M { setmiterlimit } bind def
/d { setdash } bind def
/m { moveto } bind def
/l { lineto } bind def
/c { curveto } bind def
/h { closepath } bind def
/re { exch dup neg 3 1 roll 5 3 roll moveto 0 rlineto
      0 exch rlineto 0 rlineto closepath } bind def
/S { stroke } bind def
/f { fill } bind def
/f* { eofill } bind def
/n { newpath } bind def
/W { clip } bind def
/W* { eoclip } bind def
/BT { } bind def
/ET { } bind def
/BDC { mark 3 1 roll /BDC pdfmark } bind def
/EMC { mark /EMC pdfmark } bind def
/cairo_store_point { /cairo_point_y exch def /cairo_point_x exch def } def
/Tj { show currentpoint cairo_store_point } bind def
/TJ {
  {
    dup
    type /stringtype eq
    { show } { -0.001 mul 0 cairo_font_matrix dtransform rmoveto } ifelse
  } forall
  currentpoint cairo_store_point
} bind def
/cairo_selectfont { cairo_font_matrix aload pop pop pop 0 0 6 array astore
    cairo_font exch selectfont cairo_point_x cairo_point_y moveto } bind def
/Tf { pop /cairo_font exch def /cairo_font_matrix where
      { pop cairo_selectfont } if } bind def
/Td { matrix translate cairo_font_matrix matrix concatmatrix dup
      /cairo_font_matrix exch def dup 4 get exch 5 get cairo_store_point
      /cairo_font where { pop cairo_selectfont } if } bind def
/Tm { 2 copy 8 2 roll 6 array astore /cairo_font_matrix exch def
      cairo_store_point /cairo_font where { pop cairo_selectfont } if } bind def
/g { setgray } bind def
/rg { setrgbcolor } bind def
/d1 { setcachedevice } bind def
/cairo_data_source {
  CairoDataIndex CairoData length lt
    { CairoData CairoDataIndex get /CairoDataIndex CairoDataIndex 1 add def }
    { () } ifelse
} def
/cairo_flush_ascii85_file { cairo_ascii85_file status { cairo_ascii85_file flushfile } if } def
/cairo_image { image cairo_flush_ascii85_file } def
/cairo_imagemask { imagemask cairo_flush_ascii85_file } def
%%EndProlog
%%BeginSetup
%%EndSetup
%%Page: 1 1
%%BeginPageSetup
%%PageBoundingBox: 0 0 156 133
%%EndPageSetup
q 0 0 156 133 rectclip
1 0 0 -1 0 133 cm q
0 g
0.992219 w
0 J
0 j
[] 0.0 d
10 M q 1 0 0 -1 0 0 cm
80.066 -122.449 m 14.598 -122.449 l 80.066 -9.051 l 145.535 -122.449 l 
h
80.066 -122.449 m S Q
0.708484 w
q 1 0 0 -1 0 0 cm
16.582 -122.457 m 16.582 -122.457 19.668 -117.105 21.727 -114.57 c 24.129
 -111.586 26.77 -109.254 29.617 -106.645 c 33.559 -103.078 37.16 -99.926
 41.484 -96.77 c 45.395 -93.922 49.098 -91.59 53.316 -89.293 c 57.293 -87.098
 60.93 -85.277 65.184 -83.734 c 69.16 -82.297 72.863 -81.266 77.051 -80.582
 c 81.098 -79.93 84.801 -79.793 88.883 -79.793 c 92.996 -79.793 96.703 -79.93
 100.75 -80.582 c 104.898 -81.23 108.742 -81.883 112.617 -83.531 c 115.566
 -84.797 117.934 -86.547 120.504 -88.469 c 123.453 -90.699 125.992 -92.859
 128.426 -95.602 c 131.582 -99.203 133.605 -103.078 136.316 -107.059 c 137.688
 -109.082 138.992 -110.863 140.262 -112.992 c 142.18 -116.18 145.406 -122.457
 145.406 -122.457 c S Q
1 g
80.289 80.668 m 80.289 79.727 79.527 78.965 78.586 78.965 c 77.645 78.965
 76.883 79.727 76.883 80.668 c 76.883 81.609 77.645 82.371 78.586 82.371
 c 79.527 82.371 80.289 81.609 80.289 80.668 c f
0 g
80.289 80.668 m 80.289 79.727 79.527 78.965 78.586 78.965 c 77.645 78.965
 76.883 79.727 76.883 80.668 c 76.883 81.609 77.645 82.371 78.586 82.371
 c 79.527 82.371 80.289 81.609 80.289 80.668 c h
80.289 80.668 m 80.121 80.668 l 80.121 79.82 79.434 79.133 78.586 79.133
 c 77.738 79.133 77.051 79.82 77.051 80.668 c 77.051 81.516 77.738 82.203
 78.586 82.203 c 79.434 82.203 80.121 81.516 80.121 80.668 c f
124.988 122.469 m 124.988 121.527 124.227 120.766 123.285 120.766 c 122.344
 120.766 121.582 121.527 121.582 122.469 c 121.582 123.41 122.344 124.172
 123.285 124.172 c 124.227 124.172 124.988 123.41 124.988 122.469 c f
120.191 110.066 m 120.191 109.125 119.43 108.363 118.488 108.363 c 117.547
 108.363 116.785 109.125 116.785 110.066 c 116.785 111.008 117.547 111.77
 118.488 111.77 c 119.43 111.77 120.191 111.008 120.191 110.066 c f
109.691 82.168 m 109.691 81.227 108.93 80.465 107.988 80.465 c 107.047 
80.465 106.285 81.227 106.285 82.168 c 106.285 83.109 107.047 83.871 107.988
 83.871 c 108.93 83.871 109.691 83.109 109.691 82.168 c f
0.850361 w
1 J
q 1 0 0 -1 0 0 cm
123.113 -122.031 m 123.105 -122.008 l 122.266 -119.801 m 122.254 -119.777
 l 121.414 -117.57 m 121.406 -117.547 l 120.562 -115.34 m 120.555 -115.316
 l 119.715 -113.109 m 119.707 -113.086 l 118.863 -110.879 m 118.855 -110.855
 l 118.016 -108.648 m 118.008 -108.625 l 117.164 -106.418 m 117.156 -106.395
 l 116.316 -104.188 m 116.309 -104.164 l 115.465 -101.957 m 115.457 -101.934
 l 114.617 -99.727 m 114.605 -99.707 l 113.766 -97.496 m 113.758 -97.477
 l 112.914 -95.266 m 112.906 -95.246 l 112.066 -93.035 m 112.059 -93.016
 l 111.219 -90.805 m 111.207 -90.785 l 110.367 -88.574 m 110.359 -88.555
 l 109.516 -86.344 m 109.508 -86.324 l 108.668 -84.117 m 108.66 -84.094 
l 107.816 -81.887 m 107.809 -81.863 l 106.969 -79.656 m 106.961 -79.633 
l 106.117 -77.426 m 106.109 -77.402 l 105.27 -75.195 m 105.262 -75.172 l
 104.418 -72.965 m 104.41 -72.941 l 103.57 -70.734 m 103.562 -70.711 l 102.719
 -68.504 m 102.711 -68.48 l 101.871 -66.273 m 101.859 -66.25 l 101.02 -64.043
 m 101.012 -64.023 l 100.172 -61.812 m 100.16 -61.793 l 99.32 -59.582 m 
99.312 -59.562 l 98.469 -57.352 m 98.461 -57.332 l 97.621 -55.121 m 97.613
 -55.102 l 96.77 -52.891 m 96.762 -52.871 l 95.922 -50.664 m 95.914 -50.641
 l 95.07 -48.434 m 95.062 -48.41 l 94.223 -46.203 m 94.215 -46.18 l 93.371
 -43.973 m 93.363 -43.949 l 92.523 -41.742 m 92.512 -41.719 l 91.672 -39.512
 m 91.664 -39.488 l 90.824 -37.281 m 90.812 -37.258 l 89.973 -35.051 m 89.965
 -35.027 l 89.121 -32.82 m 89.113 -32.797 l 88.273 -30.59 m 88.266 -30.566
 l 87.422 -28.359 m 87.414 -28.336 l 86.574 -26.129 m 86.566 -26.105 l 85.723
 -23.898 m 85.715 -23.879 l 84.875 -21.668 m 84.867 -21.648 l 84.023 -19.438
 m 84.016 -19.414 l 83.176 -17.207 m 83.168 -17.188 l 82.324 -14.977 m 82.316
 -14.957 l 81.477 -12.746 m 81.465 -12.727 l 80.625 -10.52 m 80.617 -10.496
 l S Q
0.425175 w
0 J
q 1 0 0 -1 0 0 cm
19.75 -117.719 m 22.734 -117.488 l 24.723 -117.336 m 27.707 -117.102 l 
29.695 -116.949 m 32.68 -116.719 l 34.668 -116.566 m 37.652 -116.332 l 39.641
 -116.18 m 42.625 -115.949 l 44.613 -115.797 m 47.598 -115.562 l 49.59 -115.41
 m 52.57 -115.18 l 54.562 -115.027 m 57.543 -114.793 l 59.535 -114.641 m
 62.52 -114.41 l 64.508 -114.258 m 67.492 -114.023 l 69.48 -113.871 m 72.465
 -113.641 l 74.453 -113.488 m 77.438 -113.258 l 79.426 -113.102 m 82.41 
-112.871 l 84.398 -112.719 m 87.383 -112.488 l 89.371 -112.332 m 92.355 
-112.102 l 94.344 -111.949 m 97.328 -111.719 l 99.32 -111.562 m 102.305 
-111.332 l 104.293 -111.18 m 107.277 -110.949 l 109.266 -110.793 m 112.25
 -110.562 l 114.238 -110.41 m 117.223 -110.18 l 119.211 -110.023 m 122.195
 -109.793 l 124.184 -109.641 m 127.168 -109.41 l 129.156 -109.254 m 132.141
 -109.023 l 134.129 -108.871 m 137.094 -108.641 l S Q
q 1 0 0 -1 0 0 cm
26.848 -109.422 m 29.828 -109.066 l 31.816 -108.828 m 34.797 -108.473 l
 36.785 -108.234 m 39.766 -107.879 l 41.754 -107.641 m 44.734 -107.281 l
 46.723 -107.047 m 49.703 -106.688 l 51.691 -106.449 m 54.672 -106.094 l
 56.656 -105.855 m 59.641 -105.5 l 61.625 -105.262 m 64.605 -104.906 l 66.594
 -104.668 m 69.574 -104.312 l 71.562 -104.074 m 74.543 -103.719 l 76.531
 -103.48 m 79.512 -103.125 l 81.5 -102.887 m 84.48 -102.531 l 86.469 -102.293
 m 89.449 -101.934 l 91.438 -101.699 m 94.418 -101.34 l 96.406 -101.105 
m 99.387 -100.746 l 101.371 -100.508 m 104.355 -100.152 l 106.34 -99.914
 m 109.32 -99.559 l 111.309 -99.32 m 114.289 -98.965 l 116.277 -98.727 m
 119.258 -98.371 l 121.246 -98.133 m 124.227 -97.777 l 126.215 -97.539 m
 129.184 -97.184 l S Q
0.425176 w
q 1 0 0 -1 0 0 cm
38.309 -99.957 m 41.25 -99.516 l 43.211 -99.219 m 46.156 -98.773 l 48.117
 -98.48 m 51.059 -98.035 l 53.02 -97.742 m 55.961 -97.297 l 57.922 -97.004
 m 60.867 -96.559 l 62.828 -96.266 m 65.77 -95.82 l 67.73 -95.527 m 70.672
 -95.082 l 72.633 -94.785 m 75.578 -94.344 l 77.539 -94.047 m 80.48 -93.605
 l 82.441 -93.309 m 85.383 -92.867 l 87.344 -92.57 m 90.289 -92.129 l 92.25
 -91.832 m 95.191 -91.391 l 97.152 -91.094 m 100.094 -90.652 l 102.059 -90.355
 m 105 -89.914 l 106.961 -89.617 m 109.902 -89.172 l 111.863 -88.879 m 114.809
 -88.434 l 116.77 -88.141 m 119.711 -87.695 l S Q
0.425177 w
q 1 0 0 -1 0 0 cm
56.086 -88.461 m 59.062 -87.91 l 61.047 -87.543 m 64.027 -86.992 l 66.012
 -86.629 m 68.988 -86.078 l 70.977 -85.711 m 73.953 -85.16 l 75.938 -84.793
 m 78.914 -84.242 l 80.902 -83.879 m 83.879 -83.328 l 85.863 -82.961 m 88.84
 -82.41 l 90.828 -82.043 m 93.805 -81.492 l 95.789 -81.125 m 98.766 -80.578
 l S Q
76.754 56.805 m 76.754 56.133 76.316 55.398 74.691 55.398 c 72.613 55.398
 l 72.598 55.539 l 72.895 55.555 73.27 55.57 73.27 55.977 c 73.27 56.102
 73.238 56.242 73.145 56.57 c 72.082 60.398 l 71.832 61.305 71.551 61.258
 71.16 61.289 c 71.145 61.445 l 73.566 61.445 l 73.582 61.289 l 73.348 61.289
 72.91 61.258 72.91 60.82 c 72.91 60.742 72.926 60.633 72.957 60.523 c 73.488
 58.57 l 73.832 58.57 74.191 58.57 74.191 58.57 c 76.113 58.57 76.754 57.617
 76.754 56.805 c h
75.832 56.727 m 75.832 57.82 75.051 58.289 74.113 58.289 c 73.582 58.289
 l 74.316 55.648 l 74.613 55.648 l 75.488 55.648 75.832 56.023 75.832 56.727
 c h
75.832 56.727 m f
84.656 58.023 m 78.656 58.023 l 78.656 58.523 l 84.656 58.523 l h
84.656 59.836 m 78.656 59.836 l 78.656 60.336 l 84.656 60.336 l h
84.656 59.836 m f
88.832 61.445 m 88.832 61.305 l 88.238 61.305 88.02 61.32 88.02 60.148 
c 88.02 60.133 88.02 55.398 88.02 55.398 c 87.895 55.398 l 86.363 56.133
 l 86.41 56.273 l 86.738 56.133 86.816 56.102 86.941 56.102 c 87.207 56.102
 87.254 56.336 87.254 56.648 c 87.254 60.148 l 87.254 61.32 87.035 61.289
 86.441 61.305 c 86.441 61.445 l h
88.832 61.445 m f
86.664 105.805 m 86.664 105.133 86.227 104.398 84.602 104.398 c 82.523 
104.398 l 82.508 104.539 l 82.805 104.555 83.18 104.57 83.18 104.977 c 83.18
 105.102 83.148 105.242 83.055 105.57 c 81.992 109.398 l 81.742 110.305 
81.461 110.258 81.07 110.289 c 81.055 110.445 l 83.477 110.445 l 83.492 
110.289 l 83.258 110.289 82.82 110.258 82.82 109.82 c 82.82 109.742 82.836
 109.633 82.867 109.523 c 83.398 107.57 l 83.742 107.57 84.102 107.57 84.102
 107.57 c 86.023 107.57 86.664 106.617 86.664 105.805 c h
85.742 105.727 m 85.742 106.82 84.961 107.289 84.023 107.289 c 83.492 107.289
 l 84.227 104.648 l 84.523 104.648 l 85.398 104.648 85.742 105.023 85.742
 105.727 c h
85.742 105.727 m f
94.57 107.023 m 88.57 107.023 l 88.57 107.523 l 94.57 107.523 l h
94.57 108.836 m 88.57 108.836 l 88.57 109.336 l 94.57 109.336 l h
94.57 108.836 m f
99.645 109.289 m 99.488 109.258 l 99.223 109.711 99.004 109.789 98.566 
109.789 c 96.504 109.789 l 97.926 108.492 99.223 107.32 99.223 106.008 c
 99.223 105.086 98.426 104.43 97.551 104.43 c 96.691 104.43 96.004 104.898
 95.738 106.117 c 95.941 106.117 l 96.191 105.617 96.535 105.102 97.223 
105.102 c 98.004 105.102 98.441 105.695 98.441 106.367 c 98.441 107.336 
97.41 108.758 95.645 110.305 c 95.645 110.445 l 99.176 110.445 l h
99.645 109.289 m f
128.367 119.441 m 128.211 119.566 128.102 119.613 127.961 119.613 c 127.758
 119.613 127.695 119.488 127.695 119.098 c 127.695 117.348 l 127.695 116.879
 127.648 116.613 127.523 116.41 c 127.32 116.082 126.93 115.91 126.414 115.91
 c 125.57 115.91 124.898 116.348 124.898 116.91 c 124.898 117.113 125.07
 117.301 125.289 117.301 c 125.508 117.301 125.695 117.113 125.695 116.926
 c 125.695 116.895 125.68 116.848 125.68 116.785 c 125.648 116.691 125.648
 116.629 125.648 116.566 c 125.648 116.316 125.93 116.129 126.289 116.129
 c 126.727 116.129 126.977 116.379 126.977 116.863 c 126.977 117.41 l 125.602
 117.957 125.445 118.051 125.055 118.379 c 124.852 118.566 124.727 118.863
 124.727 119.16 c 124.727 119.723 125.117 120.129 125.68 120.129 c 126.07
 120.129 126.43 119.941 126.977 119.473 c 127.023 119.941 127.195 120.129
 127.555 120.129 c 127.867 120.129 128.055 120.02 128.367 119.676 c h
126.977 118.926 m 126.977 119.207 126.93 119.301 126.742 119.41 c 126.508
 119.535 126.273 119.598 126.086 119.598 c 125.773 119.598 125.523 119.301
 125.523 118.91 c 125.523 118.879 l 125.523 118.348 125.93 118.004 126.977
 117.629 c h
126.977 118.926 m f
120.398 101.969 m 120.352 101.953 l 119.977 102.078 119.742 102.156 119.305
 102.281 c 119.055 102.344 l 119.055 102.484 l 119.102 102.484 119.133 102.484
 119.195 102.484 c 119.555 102.484 119.648 102.562 119.648 102.938 c 119.648
 107.594 l 119.648 107.875 120.398 108.172 121.117 108.172 c 122.305 108.172
 123.227 107.188 123.227 105.906 c 123.227 104.781 122.539 103.953 121.648
 103.953 c 121.102 103.953 120.57 104.266 120.398 104.719 c h
120.398 105.188 m 120.398 104.844 120.82 104.516 121.289 104.516 c 121.539
 104.516 121.758 104.609 121.945 104.781 c 122.227 105.062 122.43 105.672
 122.43 106.312 c 122.43 107.312 122.008 107.875 121.273 107.875 c 120.805
 107.875 120.398 107.688 120.398 107.453 c h
120.398 105.188 m f
112.551 78.719 m 112.129 79.359 111.801 79.562 111.301 79.562 c 110.473
 79.562 109.91 78.844 109.91 77.812 c 109.91 76.891 110.395 76.266 111.129
 76.266 c 111.441 76.266 111.566 76.344 111.645 76.688 c 111.707 76.891 
l 111.785 77.141 111.941 77.297 112.129 77.297 c 112.363 77.297 112.551 
77.125 112.551 76.922 c 112.551 76.422 111.926 76 111.176 76 c 110.738 76
 110.285 76.172 109.91 76.5 c 109.457 76.891 109.207 77.5 109.207 78.219
 c 109.207 79.375 109.926 80.219 110.91 80.219 c 111.316 80.219 111.676 
80.078 112.004 79.797 c 112.238 79.594 112.41 79.328 112.676 78.812 c h
112.551 78.719 m f
70.523 4.656 m 70.102 5.328 69.711 5.594 69.133 5.594 c 68.633 5.594 68.242
 5.328 67.977 4.828 c 67.82 4.484 67.758 4.203 67.742 3.641 c 70.492 3.641
 l 70.43 3.062 70.336 2.797 70.117 2.516 c 69.852 2.188 69.43 2 68.961 2
 c 68.523 2 68.102 2.156 67.758 2.469 c 67.336 2.828 67.086 3.469 67.086
 4.203 c 67.086 5.438 67.742 6.219 68.773 6.219 c 69.617 6.219 70.289 5.688
 70.664 4.719 c h
67.758 3.359 m 67.852 2.656 68.164 2.328 68.711 2.328 c 69.258 2.328 69.461
 2.578 69.586 3.359 c h
67.758 3.359 m f
73.109 2.094 m 72.203 2.094 l 72.203 1.047 l 72.203 0.953 72.188 0.938 
72.141 0.938 c 71.625 1.688 71.359 1.984 71.094 2.141 c 71 2.203 70.938 
2.266 70.938 2.312 c 70.938 2.344 70.953 2.359 70.984 2.375 c 71.453 2.375
 l 71.453 5.078 l 71.453 5.828 71.719 6.219 72.25 6.219 c 72.688 6.219 73.031
 6 73.328 5.531 c 73.219 5.438 l 73.016 5.672 72.875 5.75 72.672 5.75 c 
72.344 5.75 72.203 5.5 72.203 4.938 c 72.203 2.375 l 73.109 2.375 l h
73.109 2.094 m f
77.723 5.984 m 77.238 5.906 77.191 5.844 77.176 5.203 c 77.176 3.422 l 
77.176 2.484 76.816 2 76.066 2 c 75.551 2 75.176 2.219 74.754 2.75 c 74.754
 0.031 l 74.707 0 l 74.395 0.109 74.176 0.172 73.676 0.328 c 73.441 0.391
 l 73.441 0.531 l 73.473 0.531 73.488 0.531 73.551 0.531 c 73.926 0.531 
74.004 0.594 74.004 0.984 c 74.004 5.203 l 73.988 5.859 73.941 5.922 73.426
 5.984 c 73.426 6.125 l 75.363 6.125 l 75.363 5.984 l 74.848 5.953 74.77
 5.844 74.754 5.203 c 74.754 3.047 l 75.129 2.641 75.395 2.484 75.754 2.484
 c 76.207 2.484 76.426 2.812 76.426 3.438 c 76.426 5.203 l 76.41 5.844 76.332
 5.953 75.816 5.984 c 75.816 6.125 l 77.723 6.125 l h
77.723 5.984 m f
81.754 5.531 m 81.598 5.656 81.488 5.703 81.348 5.703 c 81.145 5.703 81.082
 5.578 81.082 5.188 c 81.082 3.438 l 81.082 2.969 81.035 2.703 80.91 2.5
 c 80.707 2.172 80.316 2 79.801 2 c 78.957 2 78.285 2.438 78.285 3 c 78.285
 3.203 78.457 3.391 78.676 3.391 c 78.895 3.391 79.082 3.203 79.082 3.016
 c 79.082 2.984 79.066 2.938 79.066 2.875 c 79.035 2.781 79.035 2.719 79.035
 2.656 c 79.035 2.406 79.316 2.219 79.676 2.219 c 80.113 2.219 80.363 2.469
 80.363 2.953 c 80.363 3.5 l 78.988 4.047 78.832 4.141 78.441 4.469 c 78.238
 4.656 78.113 4.953 78.113 5.25 c 78.113 5.812 78.504 6.219 79.066 6.219
 c 79.457 6.219 79.816 6.031 80.363 5.562 c 80.41 6.031 80.582 6.219 80.941
 6.219 c 81.254 6.219 81.441 6.109 81.754 5.766 c h
80.363 5.016 m 80.363 5.297 80.316 5.391 80.129 5.5 c 79.895 5.625 79.66
 5.688 79.473 5.688 c 79.16 5.688 78.91 5.391 78.91 5 c 78.91 4.969 l 78.91
 4.438 79.316 4.094 80.363 3.719 c h
80.363 5.016 m f
81.902 6.125 m 83.809 6.125 l 83.809 5.984 l 83.355 5.969 83.215 5.844 
83.215 5.531 c 83.215 3 l 83.652 2.594 83.84 2.5 84.137 2.5 c 84.574 2.5
 84.793 2.766 84.793 3.359 c 84.793 5.234 l 84.777 5.812 84.668 5.969 84.23
 5.984 c 84.23 6.125 l 86.09 6.125 l 86.09 5.984 l 85.652 5.953 85.559 5.844
 85.543 5.406 c 85.543 3.344 l 85.543 2.5 85.152 2 84.496 2 c 84.074 2 83.793
 2.156 83.184 2.719 c 83.184 2.016 l 83.121 2 l 82.668 2.172 82.355 2.266
 81.887 2.406 c 81.887 2.562 l 81.949 2.531 82.027 2.516 82.137 2.516 c 
82.387 2.516 82.465 2.656 82.465 3.094 c 82.465 5.312 l 82.449 5.844 82.355
 5.969 81.902 5.984 c h
81.902 6.125 m f
88.438 2 m 87.25 2 86.453 2.859 86.453 4.094 c 86.453 5.312 87.281 6.219
 88.406 6.219 c 89.547 6.219 90.406 5.266 90.406 4.031 c 90.406 2.844 89.578
 2 88.438 2 c h
88.312 2.25 m 89.062 2.25 89.594 3.109 89.594 4.344 c 89.594 5.359 89.188
 5.969 88.516 5.969 c 88.172 5.969 87.844 5.75 87.656 5.391 c 87.391 4.922
 87.25 4.297 87.25 3.656 c 87.25 2.812 87.672 2.25 88.312 2.25 c h
88.312 2.25 m f
90.812 6.125 m 92.938 6.125 l 92.938 5.984 l 92.359 5.969 92.266 5.875 
92.25 5.375 c 92.25 0.016 l 92.219 0 l 91.766 0.141 91.438 0.234 90.797 
0.391 c 90.797 0.531 l 90.844 0.531 l 90.953 0.531 91.062 0.516 91.125 0.516
 c 91.422 0.516 91.5 0.641 91.5 1.062 c 91.5 5.344 l 91.5 5.828 91.375 5.953
 90.812 5.984 c h
90.812 6.125 m f
1.344 126.469 m 1.297 126.453 l 0.922 126.578 0.688 126.656 0.25 126.781
 c 0 126.844 l 0 126.984 l 0.047 126.984 0.078 126.984 0.141 126.984 c 0.5
 126.984 0.594 127.062 0.594 127.438 c 0.594 132.094 l 0.594 132.375 1.344
 132.672 2.062 132.672 c 3.25 132.672 4.172 131.688 4.172 130.406 c 4.172
 129.281 3.484 128.453 2.594 128.453 c 2.047 128.453 1.516 128.766 1.344
 129.219 c h
1.344 129.688 m 1.344 129.344 1.766 129.016 2.234 129.016 c 2.484 129.016
 2.703 129.109 2.891 129.281 c 3.172 129.562 3.375 130.172 3.375 130.812
 c 3.375 131.812 2.953 132.375 2.219 132.375 c 1.75 132.375 1.344 132.188
 1.344 131.953 c h
1.344 129.688 m f
8.066 131.109 m 7.645 131.781 7.254 132.047 6.676 132.047 c 6.176 132.047
 5.785 131.781 5.52 131.281 c 5.363 130.938 5.301 130.656 5.285 130.094 
c 8.035 130.094 l 7.973 129.516 7.879 129.25 7.66 128.969 c 7.395 128.641
 6.973 128.453 6.504 128.453 c 6.066 128.453 5.645 128.609 5.301 128.922
 c 4.879 129.281 4.629 129.922 4.629 130.656 c 4.629 131.891 5.285 132.672
 6.316 132.672 c 7.16 132.672 7.832 132.141 8.207 131.172 c h
5.301 129.812 m 5.395 129.109 5.707 128.781 6.254 128.781 c 6.801 128.781
 7.004 129.031 7.129 129.812 c h
5.301 129.812 m f
8.523 132.578 m 10.43 132.578 l 10.43 132.438 l 9.977 132.422 9.836 132.297
 9.836 131.984 c 9.836 129.453 l 10.273 129.047 10.461 128.953 10.758 128.953
 c 11.195 128.953 11.414 129.219 11.414 129.812 c 11.414 131.688 l 11.398
 132.266 11.289 132.422 10.852 132.438 c 10.852 132.578 l 12.711 132.578
 l 12.711 132.438 l 12.273 132.406 12.18 132.297 12.164 131.859 c 12.164
 129.797 l 12.164 128.953 11.773 128.453 11.117 128.453 c 10.695 128.453
 10.414 128.609 9.805 129.172 c 9.805 128.469 l 9.742 128.453 l 9.289 128.625
 8.977 128.719 8.508 128.859 c 8.508 129.016 l 8.57 128.984 8.648 128.969
 8.758 128.969 c 9.008 128.969 9.086 129.109 9.086 129.547 c 9.086 131.766
 l 9.07 132.297 8.977 132.422 8.523 132.438 c h
8.523 132.578 m f
16.559 131.375 m 16.402 131.328 l 16.23 132.172 16.105 132.281 15.246 132.312
 c 14.012 132.312 l 16.418 128.672 l 16.418 128.547 l 13.309 128.547 l 13.277
 129.594 l 13.449 129.594 l 13.512 128.969 13.637 128.828 14.199 128.812
 c 15.434 128.812 l 13.043 132.438 l 13.043 132.578 l 16.434 132.578 l h
16.559 131.375 m f
20.426 131.109 m 20.004 131.781 19.613 132.047 19.035 132.047 c 18.535 
132.047 18.145 131.781 17.879 131.281 c 17.723 130.938 17.66 130.656 17.645
 130.094 c 20.395 130.094 l 20.332 129.516 20.238 129.25 20.02 128.969 c
 19.754 128.641 19.332 128.453 18.863 128.453 c 18.426 128.453 18.004 128.609
 17.66 128.922 c 17.238 129.281 16.988 129.922 16.988 130.656 c 16.988 131.891
 17.645 132.672 18.676 132.672 c 19.52 132.672 20.191 132.141 20.566 131.172
 c h
17.66 129.812 m 17.754 129.109 18.066 128.781 18.613 128.781 c 19.16 128.781
 19.363 129.031 19.488 129.812 c h
17.66 129.812 m f
20.883 132.578 m 22.789 132.578 l 22.789 132.438 l 22.336 132.422 22.195
 132.297 22.195 131.984 c 22.195 129.453 l 22.633 129.047 22.82 128.953 
23.117 128.953 c 23.555 128.953 23.773 129.219 23.773 129.812 c 23.773 131.688
 l 23.758 132.266 23.648 132.422 23.211 132.438 c 23.211 132.578 l 25.07
 132.578 l 25.07 132.438 l 24.633 132.406 24.539 132.297 24.523 131.859 
c 24.523 129.797 l 24.523 128.953 24.133 128.453 23.477 128.453 c 23.055
 128.453 22.773 128.609 22.164 129.172 c 22.164 128.469 l 22.102 128.453
 l 21.648 128.625 21.336 128.719 20.867 128.859 c 20.867 129.016 l 20.93
 128.984 21.008 128.969 21.117 128.969 c 21.367 128.969 21.445 129.109 21.445
 129.547 c 21.445 131.766 l 21.43 132.297 21.336 132.422 20.883 132.438 
c h
20.883 132.578 m f
28.824 131.109 m 28.402 131.781 28.012 132.047 27.434 132.047 c 26.934 
132.047 26.543 131.781 26.277 131.281 c 26.121 130.938 26.059 130.656 26.043
 130.094 c 28.793 130.094 l 28.73 129.516 28.637 129.25 28.418 128.969 c
 28.152 128.641 27.73 128.453 27.262 128.453 c 26.824 128.453 26.402 128.609
 26.059 128.922 c 25.637 129.281 25.387 129.922 25.387 130.656 c 25.387 
131.891 26.043 132.672 27.074 132.672 c 27.918 132.672 28.59 132.141 28.965
 131.172 c h
26.059 129.812 m 26.152 129.109 26.465 128.781 27.012 128.781 c 27.559 
128.781 27.762 129.031 27.887 129.812 c h
26.059 129.812 m f
140.809 128.066 m 140.809 128.191 l 141.105 128.254 141.199 128.316 141.199
 128.473 c 141.199 128.613 141.152 128.816 141.043 129.066 c 140.246 131.051
 l 139.48 129.051 l 139.34 128.629 139.34 128.629 139.34 128.52 c 139.34
 128.316 139.434 128.254 139.855 128.191 c 139.855 128.066 l 138.027 128.066
 l 138.027 128.191 l 138.371 128.238 138.48 128.332 138.652 128.816 c 138.699
 128.941 138.777 129.16 138.824 129.316 c 138.012 131.098 l 137.121 128.754
 l 137.09 128.676 137.074 128.582 137.074 128.488 c 137.074 128.301 137.168
 128.238 137.48 128.191 c 137.48 128.066 l 135.871 128.066 l 135.871 128.191
 l 136.074 128.207 136.152 128.301 136.34 128.754 c 137.559 131.832 l 137.668
 132.113 137.73 132.223 137.793 132.223 c 137.84 132.223 137.902 132.113
 138.012 131.879 c 139.027 129.723 l 139.84 131.832 l 139.965 132.176 139.996
 132.223 140.059 132.223 c 140.121 132.223 140.152 132.145 140.309 131.785
 c 141.543 128.676 l 141.699 128.301 141.73 128.254 141.902 128.191 c 141.902
 128.066 l h
140.809 128.066 m f
146.016 131.504 m 145.859 131.629 145.75 131.676 145.609 131.676 c 145.406
 131.676 145.344 131.551 145.344 131.16 c 145.344 129.41 l 145.344 128.941
 145.297 128.676 145.172 128.473 c 144.969 128.145 144.578 127.973 144.062
 127.973 c 143.219 127.973 142.547 128.41 142.547 128.973 c 142.547 129.176
 142.719 129.363 142.938 129.363 c 143.156 129.363 143.344 129.176 143.344
 128.988 c 143.344 128.957 143.328 128.91 143.328 128.848 c 143.297 128.754
 143.297 128.691 143.297 128.629 c 143.297 128.379 143.578 128.191 143.938
 128.191 c 144.375 128.191 144.625 128.441 144.625 128.926 c 144.625 129.473
 l 143.25 130.02 143.094 130.113 142.703 130.441 c 142.5 130.629 142.375
 130.926 142.375 131.223 c 142.375 131.785 142.766 132.191 143.328 132.191
 c 143.719 132.191 144.078 132.004 144.625 131.535 c 144.672 132.004 144.844
 132.191 145.203 132.191 c 145.516 132.191 145.703 132.082 146.016 131.738
 c h
144.625 130.988 m 144.625 131.27 144.578 131.363 144.391 131.473 c 144.156
 131.598 143.922 131.66 143.734 131.66 c 143.422 131.66 143.172 131.363 
143.172 130.973 c 143.172 130.941 l 143.172 130.41 143.578 130.066 144.625
 129.691 c h
144.625 130.988 m f
148.285 128.066 m 147.379 128.066 l 147.379 127.02 l 147.379 126.926 147.363
 126.91 147.316 126.91 c 146.801 127.66 146.535 127.957 146.27 128.113 c
 146.176 128.176 146.113 128.238 146.113 128.285 c 146.113 128.316 146.129
 128.332 146.16 128.348 c 146.629 128.348 l 146.629 131.051 l 146.629 131.801
 146.895 132.191 147.426 132.191 c 147.863 132.191 148.207 131.973 148.504
 131.504 c 148.395 131.41 l 148.191 131.645 148.051 131.723 147.848 131.723
 c 147.52 131.723 147.379 131.473 147.379 130.91 c 147.379 128.348 l 148.285
 128.348 l h
148.285 128.066 m f
152.184 130.629 m 151.762 131.301 151.371 131.566 150.793 131.566 c 150.293
 131.566 149.902 131.301 149.637 130.801 c 149.48 130.457 149.418 130.176
 149.402 129.613 c 152.152 129.613 l 152.09 129.035 151.996 128.77 151.777
 128.488 c 151.512 128.16 151.09 127.973 150.621 127.973 c 150.184 127.973
 149.762 128.129 149.418 128.441 c 148.996 128.801 148.746 129.441 148.746
 130.176 c 148.746 131.41 149.402 132.191 150.434 132.191 c 151.277 132.191
 151.949 131.66 152.324 130.691 c h
149.418 129.332 m 149.512 128.629 149.824 128.301 150.371 128.301 c 150.918
 128.301 151.121 128.551 151.246 129.332 c h
149.418 129.332 m f
152.531 132.098 m 154.688 132.098 l 154.688 131.957 l 154.078 131.941 153.938
 131.816 153.922 131.285 c 153.922 129.27 l 153.922 128.988 154.297 128.535
 154.547 128.535 c 154.594 128.535 154.688 128.582 154.781 128.676 c 154.922
 128.801 155.016 128.848 155.141 128.848 c 155.359 128.848 155.484 128.691
 155.484 128.441 c 155.484 128.145 155.297 127.973 155 127.973 c 154.625
 127.973 154.375 128.176 153.922 128.816 c 153.922 127.988 l 153.875 127.973
 l 153.375 128.176 153.047 128.301 152.547 128.457 c 152.547 128.598 l 152.672
 128.566 152.75 128.566 152.859 128.566 c 153.078 128.566 153.172 128.707
 153.172 129.098 c 153.172 131.348 l 153.141 131.816 153.094 131.863 152.531
 131.957 c h
152.531 132.098 m f
Q Q
showpage
%%Trailer
end
%%EOF
