%!PS-Adobe-3.0 EPSF-3.0
%%Creator: cairo 1.17.4 (https://cairographics.org)
%%CreationDate: Thu Feb 24 10:49:33 2022
%%Pages: 1
%%DocumentData: Clean7Bit
%%LanguageLevel: 2
%%BoundingBox: 0 0 268 251
%%EndComments
%%BeginProlog
50 dict begin
/q { gsave } bind def
/Q { grestore } bind def
/cm { 6 array astore concat } bind def
/w { setlinewidth } bind def
/J { setlinecap } bind def
/j { setlinejoin } bind def
/M { setmiterlimit } bind def
/d { setdash } bind def
/m { moveto } bind def
/l { lineto } bind def
/c { curveto } bind def
/h { closepath } bind def
/re { exch dup neg 3 1 roll 5 3 roll moveto 0 rlineto
      0 exch rlineto 0 rlineto closepath } bind def
/S { stroke } bind def
/f { fill } bind def
/f* { eofill } bind def
/n { newpath } bind def
/W { clip } bind def
/W* { eoclip } bind def
/BT { } bind def
/ET { } bind def
/BDC { mark 3 1 roll /BDC pdfmark } bind def
/EMC { mark /EMC pdfmark } bind def
/cairo_store_point { /cairo_point_y exch def /cairo_point_x exch def } def
/Tj { show currentpoint cairo_store_point } bind def
/TJ {
  {
    dup
    type /stringtype eq
    { show } { -0.001 mul 0 cairo_font_matrix dtransform rmoveto } ifelse
  } forall
  currentpoint cairo_store_point
} bind def
/cairo_selectfont { cairo_font_matrix aload pop pop pop 0 0 6 array astore
    cairo_font exch selectfont cairo_point_x cairo_point_y moveto } bind def
/Tf { pop /cairo_font exch def /cairo_font_matrix where
      { pop cairo_selectfont } if } bind def
/Td { matrix translate cairo_font_matrix matrix concatmatrix dup
      /cairo_font_matrix exch def dup 4 get exch 5 get cairo_store_point
      /cairo_font where { pop cairo_selectfont } if } bind def
/Tm { 2 copy 8 2 roll 6 array astore /cairo_font_matrix exch def
      cairo_store_point /cairo_font where { pop cairo_selectfont } if } bind def
/g { setgray } bind def
/rg { setrgbcolor } bind def
/d1 { setcachedevice } bind def
/cairo_data_source {
  CairoDataIndex CairoData length lt
    { CairoData CairoDataIndex get /CairoDataIndex CairoDataIndex 1 add def }
    { () } ifelse
} def
/cairo_flush_ascii85_file { cairo_ascii85_file status { cairo_ascii85_file flushfile } if } def
/cairo_image { image cairo_flush_ascii85_file } def
/cairo_imagemask { imagemask cairo_flush_ascii85_file } def
%%EndProlog
%%BeginSetup
%%EndSetup
%%Page: 1 1
%%BeginPageSetup
%%PageBoundingBox: 0 0 268 251
%%EndPageSetup
q 0 0 268 251 rectclip
1 0 0 -1 0 251 cm q
0 g
1.13366 w
0 J
0 j
[] 0.0 d
10 M q 1 0 0 -1 0 0 cm
242.258 -45.859 m 242.258 -45.859 241.996 -34.305 242.258 -28.23 c 242.664
 -19.508 244.531 -3.07 244.531 -3.07 c S Q
q 1 0 0 -1 0 0 cm
196.918 -59.691 m 196.918 -59.691 198.371 -55.559 199.191 -53.395 c 200.684
 -49.484 200.836 -45.086 203.699 -42.07 c 206.195 -39.461 209.848 -38.715
 213.355 -37.672 c 216.184 -36.816 218.906 -36.297 221.848 -36.406 c 223.855
 -36.48 225.613 -37.113 227.508 -37.672 c 230.531 -38.566 233.32 -39.277
 236.043 -40.84 c 238.43 -42.18 242.266 -45.871 242.266 -45.871 c S Q
q 1 0 0 -1 0 0 cm
164.594 -91.16 m 164.594 -91.16 166.742 -86.98 167.996 -84.871 c 171.879
 -78.215 174.438 -71.375 179.906 -65.977 c 182.824 -63.094 186.305 -61.281
 190.109 -59.691 c 191.773 -58.988 193.438 -58.102 195.219 -58.434 c 195.918
 -58.582 196.918 -59.691 196.918 -59.691 c S Q
q 1 0 0 -1 0 0 cm
143.633 -94.449 m 143.633 -94.449 149.992 -89.922 153.816 -88.637 c 155.512
 -88.086 157.199 -87.68 158.93 -88.012 c 161.102 -88.453 164.598 -91.176
 164.598 -91.176 c S Q
q 1 0 0 -1 0 0 cm
62.543 -198.148 m 62.543 -198.148 62.727 -186.602 63.125 -180.52 c 63.492
 -174.434 63.57 -168.898 64.816 -162.926 c 68.297 -146.359 74.016 -132.102
 80.133 -116.34 c 81.855 -111.906 83.613 -107.984 85.781 -103.77 c 88.086
 -99.297 89.922 -95.008 93.145 -91.16 c 95.312 -88.594 97.512 -86.324 100.516
 -84.895 c 104.84 -82.84 109.387 -82.438 114.145 -82.363 c 116.895 -82.328
 119.387 -82.879 122.066 -83.609 c 125.328 -84.527 128.148 -85.809 131.152
 -87.387 c 133.207 -88.484 134.781 -90.023 136.801 -91.16 c 139.074 -92.445
 143.617 -94.461 143.617 -94.461 c S Q
q 1 0 0 -1 0 0 cm
33.094 -128.934 m 33.094 -128.934 41.082 -136.707 44.406 -141.516 c 47.336
 -145.711 49.25 -149.977 51.207 -154.711 c 52.43 -157.676 53.121 -160.461
 54.062 -163.535 c 55.684 -168.922 57.203 -173.766 58.578 -179.262 c 60.207
 -185.73 62.555 -198.133 62.555 -198.133 c S Q
q 1 0 0 -1 0 0 cm
33.074 -198.152 m 114.148 -198.152 l S Q
q 1 0 0 -1 0 0 cm
114.148 -229.625 m 114.148 -82.355 l S Q
q 1 0 0 -1 0 0 cm
114.129 -94.434 m 158.922 -94.434 l S Q
q 1 0 0 -1 0 0 cm
158.922 -229.617 m 158.922 -88.039 l S Q
q 1 0 0 -1 0 0 cm
158.941 -91.152 m 195.203 -91.152 l S Q
q 1 0 0 -1 0 0 cm
195.203 -229.637 m 195.203 -58.438 l S Q
q 1 0 0 -1 0 0 cm
195.195 -59.684 m 221.855 -59.684 l S Q
q 1 0 0 -1 0 0 cm
221.855 -229.598 m 221.855 -36.402 l S Q
q 1 0 0 -1 0 0 cm
221.836 -45.852 m 259.836 -45.852 l S Q
34.918 128.926 m 34.918 127.906 34.09 127.078 33.07 127.078 c 32.051 127.078
 31.223 127.906 31.223 128.926 c 31.223 129.945 32.051 130.773 33.07 130.773
 c 34.09 130.773 34.918 129.945 34.918 128.926 c f
46.254 141.512 m 46.254 140.492 45.426 139.664 44.406 139.664 c 43.387 
139.664 42.559 140.492 42.559 141.512 c 42.559 142.531 43.387 143.359 44.406
 143.359 c 45.426 143.359 46.254 142.531 46.254 141.512 c f
53.059 154.73 m 53.059 153.711 52.23 152.883 51.211 152.883 c 50.191 152.883
 49.363 153.711 49.363 154.73 c 49.363 155.75 50.191 156.578 51.211 156.578
 c 52.23 156.578 53.059 155.75 53.059 154.73 c f
55.895 163.539 m 55.895 162.52 55.066 161.691 54.047 161.691 c 53.027 161.691
 52.199 162.52 52.199 163.539 c 52.199 164.559 53.027 165.387 54.047 165.387
 c 55.066 165.387 55.895 164.559 55.895 163.539 c f
60.43 179.273 m 60.43 178.254 59.602 177.426 58.582 177.426 c 57.562 177.426
 56.734 178.254 56.734 179.273 c 56.734 180.293 57.562 181.121 58.582 181.121
 c 59.602 181.121 60.43 180.293 60.43 179.273 c f
64.398 198.152 m 64.398 197.133 63.57 196.305 62.551 196.305 c 61.531 196.305
 60.703 197.133 60.703 198.152 c 60.703 199.172 61.531 200 62.551 200 c 
63.57 200 64.398 199.172 64.398 198.152 c f
64.965 180.531 m 64.965 179.512 64.137 178.684 63.117 178.684 c 62.098 
178.684 61.27 179.512 61.27 180.531 c 61.27 181.551 62.098 182.379 63.117
 182.379 c 64.137 182.379 64.965 181.551 64.965 180.531 c f
66.664 162.91 m 66.664 161.891 65.836 161.062 64.816 161.062 c 63.797 161.062
 62.969 161.891 62.969 162.91 c 62.969 163.93 63.797 164.758 64.816 164.758
 c 65.836 164.758 66.664 163.93 66.664 162.91 c f
78.004 128.926 m 78.004 127.906 77.176 127.078 76.156 127.078 c 75.137 
127.078 74.309 127.906 74.309 128.926 c 74.309 129.945 75.137 130.773 76.156
 130.773 c 77.176 130.773 78.004 129.945 78.004 128.926 c f
81.973 116.34 m 81.973 115.32 81.145 114.492 80.125 114.492 c 79.105 114.492
 78.277 115.32 78.277 116.34 c 78.277 117.359 79.105 118.188 80.125 118.188
 c 81.145 118.188 81.973 117.359 81.973 116.34 c f
87.641 103.754 m 87.641 102.734 86.812 101.906 85.793 101.906 c 84.773 
101.906 83.945 102.734 83.945 103.754 c 83.945 104.773 84.773 105.602 85.793
 105.602 c 86.812 105.602 87.641 104.773 87.641 103.754 c f
95.012 91.168 m 95.012 90.148 94.184 89.32 93.164 89.32 c 92.145 89.32 
91.316 90.148 91.316 91.168 c 91.316 92.188 92.145 93.016 93.164 93.016 
c 94.184 93.016 95.012 92.188 95.012 91.168 c f
102.383 84.875 m 102.383 83.855 101.555 83.027 100.535 83.027 c 99.516 
83.027 98.688 83.855 98.688 84.875 c 98.688 85.895 99.516 86.723 100.535
 86.723 c 101.555 86.723 102.383 85.895 102.383 84.875 c f
115.988 82.355 m 115.988 81.336 115.16 80.508 114.141 80.508 c 113.121 
80.508 112.293 81.336 112.293 82.355 c 112.293 83.375 113.121 84.203 114.141
 84.203 c 115.16 84.203 115.988 83.375 115.988 82.355 c f
123.926 83.613 m 123.926 82.594 123.098 81.766 122.078 81.766 c 121.059
 81.766 120.23 82.594 120.23 83.613 c 120.23 84.633 121.059 85.461 122.078
 85.461 c 123.098 85.461 123.926 84.633 123.926 83.613 c f
132.996 87.391 m 132.996 86.371 132.168 85.543 131.148 85.543 c 130.129
 85.543 129.301 86.371 129.301 87.391 c 129.301 88.41 130.129 89.238 131.148
 89.238 c 132.168 89.238 132.996 88.41 132.996 87.391 c f
138.664 91.168 m 138.664 90.148 137.836 89.32 136.816 89.32 c 135.797 89.32
 134.969 90.148 134.969 91.168 c 134.969 92.188 135.797 93.016 136.816 93.016
 c 137.836 93.016 138.664 92.188 138.664 91.168 c f
145.469 94.438 m 145.469 93.418 144.641 92.59 143.621 92.59 c 142.602 92.59
 141.773 93.418 141.773 94.438 c 141.773 95.457 142.602 96.285 143.621 96.285
 c 144.641 96.285 145.469 95.457 145.469 94.438 c f
155.672 88.648 m 155.672 87.629 154.844 86.801 153.824 86.801 c 152.805
 86.801 151.977 87.629 151.977 88.648 c 151.977 89.668 152.805 90.496 153.824
 90.496 c 154.844 90.496 155.672 89.668 155.672 88.648 c f
160.773 88.02 m 160.773 87 159.945 86.172 158.926 86.172 c 157.906 86.172
 157.078 87 157.078 88.02 c 157.078 89.039 157.906 89.867 158.926 89.867
 c 159.945 89.867 160.773 89.039 160.773 88.02 c f
166.445 91.168 m 166.445 90.148 165.617 89.32 164.598 89.32 c 163.578 89.32
 162.75 90.148 162.75 91.168 c 162.75 92.188 163.578 93.016 164.598 93.016
 c 165.617 93.016 166.445 92.188 166.445 91.168 c f
169.844 84.875 m 169.844 83.855 169.016 83.027 167.996 83.027 c 166.977
 83.027 166.148 83.855 166.148 84.875 c 166.148 85.895 166.977 86.723 167.996
 86.723 c 169.016 86.723 169.844 85.895 169.844 84.875 c f
181.75 65.992 m 181.75 64.973 180.922 64.145 179.902 64.145 c 178.883 64.145
 178.055 64.973 178.055 65.992 c 178.055 67.012 178.883 67.84 179.902 67.84
 c 180.922 67.84 181.75 67.012 181.75 65.992 c f
191.957 59.699 m 191.957 58.68 191.129 57.852 190.109 57.852 c 189.09 57.852
 188.262 58.68 188.262 59.699 c 188.262 60.719 189.09 61.547 190.109 61.547
 c 191.129 61.547 191.957 60.719 191.957 59.699 c f
197.059 58.441 m 197.059 57.422 196.23 56.594 195.211 56.594 c 194.191 
56.594 193.363 57.422 193.363 58.441 c 193.363 59.461 194.191 60.289 195.211
 60.289 c 196.23 60.289 197.059 59.461 197.059 58.441 c f
198.758 59.699 m 198.758 58.68 197.93 57.852 196.91 57.852 c 195.891 57.852
 195.062 58.68 195.062 59.699 c 195.062 60.719 195.891 61.547 196.91 61.547
 c 197.93 61.547 198.758 60.719 198.758 59.699 c f
201.027 53.406 m 201.027 52.387 200.199 51.559 199.18 51.559 c 198.16 51.559
 197.332 52.387 197.332 53.406 c 197.332 54.426 198.16 55.254 199.18 55.254
 c 200.199 55.254 201.027 54.426 201.027 53.406 c f
205.562 42.078 m 205.562 41.059 204.734 40.23 203.715 40.23 c 202.695 40.23
 201.867 41.059 201.867 42.078 c 201.867 43.098 202.695 43.926 203.715 43.926
 c 204.734 43.926 205.562 43.098 205.562 42.078 c f
215.199 37.672 m 215.199 36.652 214.371 35.824 213.352 35.824 c 212.332
 35.824 211.504 36.652 211.504 37.672 c 211.504 38.691 212.332 39.52 213.352
 39.52 c 214.371 39.52 215.199 38.691 215.199 37.672 c f
223.703 36.414 m 223.703 35.395 222.875 34.566 221.855 34.566 c 220.836
 34.566 220.008 35.395 220.008 36.414 c 220.008 37.434 220.836 38.262 221.855
 38.262 c 222.875 38.262 223.703 37.434 223.703 36.414 c f
229.375 37.672 m 229.375 36.652 228.547 35.824 227.527 35.824 c 226.508
 35.824 225.68 36.652 225.68 37.672 c 225.68 38.691 226.508 39.52 227.527
 39.52 c 228.547 39.52 229.375 38.691 229.375 37.672 c f
237.879 40.82 m 237.879 39.801 237.051 38.973 236.031 38.973 c 235.012 
38.973 234.184 39.801 234.184 40.82 c 234.184 41.84 235.012 42.668 236.031
 42.668 c 237.051 42.668 237.879 41.84 237.879 40.82 c f
244.113 45.855 m 244.113 44.836 243.285 44.008 242.266 44.008 c 241.246
 44.008 240.418 44.836 240.418 45.855 c 240.418 46.875 241.246 47.703 242.266
 47.703 c 243.285 47.703 244.113 46.875 244.113 45.855 c f
244.113 28.234 m 244.113 27.215 243.285 26.387 242.266 26.387 c 241.246
 26.387 240.418 27.215 240.418 28.234 c 240.418 29.254 241.246 30.082 242.266
 30.082 c 243.285 30.082 244.113 29.254 244.113 28.234 c f
246.383 3.062 m 246.383 2.043 245.555 1.215 244.535 1.215 c 243.516 1.215
 242.688 2.043 242.688 3.062 c 242.688 4.082 243.516 4.91 244.535 4.91 c
 245.555 4.91 246.383 4.082 246.383 3.062 c f
89.738 214.559 m 87.629 218.215 l 91.848 218.215 l f
188.938 63.559 m 186.828 67.215 l 191.047 67.215 l f
94.309 220.031 m 96.777 220.031 l 96.777 219.891 l 96.09 219.891 95.934
 219.797 95.934 219.375 c 95.934 213.984 l 95.855 213.969 l 94.246 214.781
 l 94.246 214.906 l 94.59 214.781 94.809 214.719 94.887 214.719 c 95.074
 214.719 95.152 214.844 95.152 215.141 c 95.152 219.203 l 95.137 219.766
 94.98 219.891 94.309 219.891 c h
94.309 220.031 m f
190.957 74.238 m 190.832 74.191 l 190.504 74.723 190.41 74.785 189.988 
74.785 c 187.832 74.785 l 189.348 73.207 l 190.145 72.379 190.488 71.691
 190.488 71.004 c 190.488 70.098 189.77 69.41 188.832 69.41 c 188.348 69.41
 187.879 69.613 187.551 69.973 c 187.254 70.27 187.129 70.551 186.973 71.191
 c 187.16 71.238 l 187.52 70.363 187.832 70.066 188.457 70.066 c 189.223
 70.066 189.723 70.582 189.723 71.332 c 189.723 72.051 189.316 72.879 188.551
 73.676 c 186.957 75.363 l 186.957 75.473 l 190.457 75.473 l h
190.957 74.238 m f
0.567043 w
q 1 0 0 -1 0 0 cm
33.07 -3.066 226.766 -226.543 re S Q
0.398507 w
q 1 0 0 -1 0 0 cm
33.07 -229.613 m 33.07 -225.367 l S Q
q 1 0 0 -1 0 0 cm
61.414 -229.594 m 61.414 -225.363 l S Q
0.398506 w
q 1 0 0 -1 0 0 cm
89.762 -229.605 m 89.762 -225.355 l S Q
q 1 0 0 -1 0 0 cm
118.105 -229.613 m 118.105 -225.344 l S Q
q 1 0 0 -1 0 0 cm
146.469 -229.602 m 146.469 -225.348 l S Q
q 1 0 0 -1 0 0 cm
174.812 -229.59 m 174.812 -225.352 l S Q
0.398507 w
q 1 0 0 -1 0 0 cm
203.16 -229.598 m 203.16 -225.34 l S Q
0.398504 w
q 1 0 0 -1 0 0 cm
231.504 -229.59 m 231.504 -225.348 l S Q
0.398507 w
q 1 0 0 -1 0 0 cm
259.848 -229.594 m 259.848 -225.371 l S Q
q 1 0 0 -1 0 0 cm
33.07 -229.613 m 33.07 -225.367 l S Q
0.398505 w
q 1 0 0 -1 0 0 cm
33.078 -229.59 m 37.324 -229.59 l S Q
q 1 0 0 -1 0 0 cm
33.078 -204.426 m 37.324 -204.426 l S Q
q 1 0 0 -1 0 0 cm
33.078 -179.262 m 37.324 -179.262 l S Q
q 1 0 0 -1 0 0 cm
33.078 -154.098 m 37.324 -154.098 l S Q
q 1 0 0 -1 0 0 cm
33.078 -128.898 m 37.324 -128.898 l S Q
q 1 0 0 -1 0 0 cm
33.078 -103.734 m 37.324 -103.734 l S Q
q 1 0 0 -1 0 0 cm
33.078 -78.57 m 37.324 -78.57 l S Q
q 1 0 0 -1 0 0 cm
33.078 -53.371 m 37.324 -53.371 l S Q
q 1 0 0 -1 0 0 cm
33.078 -28.207 m 37.324 -28.207 l S Q
q 1 0 0 -1 0 0 cm
33.078 -3.047 m 37.324 -3.047 l S Q
q 1 0 0 -1 0 0 cm
33.078 -229.59 m 37.324 -229.59 l S Q
0.398507 w
q 1 0 0 -1 0 0 cm
33.07 -3.055 m 33.07 -7.297 l S Q
q 1 0 0 -1 0 0 cm
61.414 -3.059 m 61.414 -7.285 l S Q
0.398506 w
q 1 0 0 -1 0 0 cm
89.762 -3.035 m 89.762 -7.32 l S Q
q 1 0 0 -1 0 0 cm
118.105 -3.051 m 118.105 -7.324 l S Q
q 1 0 0 -1 0 0 cm
146.469 -3.059 m 146.469 -7.273 l S Q
q 1 0 0 -1 0 0 cm
174.812 -3.039 m 174.812 -7.277 l S Q
0.398507 w
q 1 0 0 -1 0 0 cm
203.16 -3.055 m 203.16 -7.312 l S Q
0.398504 w
q 1 0 0 -1 0 0 cm
231.504 -3.059 m 231.504 -7.301 l S Q
0.398507 w
q 1 0 0 -1 0 0 cm
259.848 -3.051 m 259.848 -7.312 l S Q
q 1 0 0 -1 0 0 cm
33.07 -3.055 m 33.07 -7.297 l S Q
0.398506 w
q 1 0 0 -1 0 0 cm
259.836 -229.609 m 255.578 -229.609 l S Q
q 1 0 0 -1 0 0 cm
259.836 -204.426 m 255.578 -204.426 l S Q
q 1 0 0 -1 0 0 cm
259.836 -179.277 m 255.578 -179.277 l S Q
q 1 0 0 -1 0 0 cm
259.836 -154.094 m 255.578 -154.094 l S Q
q 1 0 0 -1 0 0 cm
259.836 -128.91 m 255.578 -128.91 l S Q
q 1 0 0 -1 0 0 cm
259.836 -103.727 m 255.578 -103.727 l S Q
q 1 0 0 -1 0 0 cm
259.836 -78.582 m 255.578 -78.582 l S Q
q 1 0 0 -1 0 0 cm
259.836 -53.398 m 255.578 -53.398 l S Q
q 1 0 0 -1 0 0 cm
259.836 -28.215 m 255.578 -28.215 l S Q
q 1 0 0 -1 0 0 cm
259.836 -3.066 m 255.578 -3.066 l S Q
q 1 0 0 -1 0 0 cm
259.836 -229.609 m 255.578 -229.609 l S Q
35.023 236.133 m 35.023 234.523 34.289 233.07 33.039 233.07 c 31.773 233.07
 31.039 234.523 31.039 236.133 c 31.039 237.758 31.727 239.195 33.039 239.195
 c 34.242 239.195 35.023 237.758 35.023 236.133 c h
34.164 236.133 m 34.164 237.43 34.039 238.945 33.039 238.945 c 32.086 238.945
 31.898 237.43 31.898 236.133 c 31.898 235.055 32.023 233.305 33.039 233.305
 c 34.039 233.305 34.164 235.055 34.164 236.133 c h
34.164 236.133 m f
57.703 236.133 m 57.703 234.523 56.969 233.07 55.719 233.07 c 54.453 233.07
 53.719 234.523 53.719 236.133 c 53.719 237.758 54.406 239.195 55.719 239.195
 c 56.922 239.195 57.703 237.758 57.703 236.133 c h
56.844 236.133 m 56.844 237.43 56.719 238.945 55.719 238.945 c 54.766 238.945
 54.578 237.43 54.578 236.133 c 54.578 235.055 54.703 233.305 55.719 233.305
 c 56.719 233.305 56.844 235.055 56.844 236.133 c h
56.844 236.133 m f
59.629 238.711 m 59.629 238.43 59.41 238.211 59.129 238.211 c 58.848 238.211
 58.629 238.43 58.629 238.711 c 58.629 238.992 58.848 239.211 59.129 239.211
 c 59.41 239.211 59.629 238.992 59.629 238.711 c h
59.629 238.711 m f
64.543 236.133 m 64.543 234.523 63.809 233.07 62.559 233.07 c 61.293 233.07
 60.559 234.523 60.559 236.133 c 60.559 237.758 61.246 239.195 62.559 239.195
 c 63.762 239.195 64.543 237.758 64.543 236.133 c h
63.684 236.133 m 63.684 237.43 63.559 238.945 62.559 238.945 c 61.605 238.945
 61.418 237.43 61.418 236.133 c 61.418 235.055 61.543 233.305 62.559 233.305
 c 63.559 233.305 63.684 235.055 63.684 236.133 c h
63.684 236.133 m f
68.922 233.164 m 66.453 233.164 l 65.344 235.711 l 65.484 235.68 65.625
 235.648 65.797 235.648 c 66.75 235.648 68.047 236.148 68.047 237.32 c 68.047
 238.227 67.391 238.805 66.766 238.805 c 66.219 238.805 66.016 238.305 65.5
 238.305 c 65.25 238.305 65.172 238.523 65.172 238.633 c 65.172 238.945 
65.609 239.195 66.234 239.195 c 67.578 239.195 68.641 238.211 68.641 237.008
 c 68.641 235.586 67.516 235.102 66.297 235.07 c 66.188 235.07 66.062 235.086
 65.953 235.102 c 66.516 233.836 l 68.609 233.82 l h
68.922 233.164 m f
86.145 236.133 m 86.145 234.523 85.41 233.07 84.16 233.07 c 82.895 233.07
 82.16 234.523 82.16 236.133 c 82.16 237.758 82.848 239.195 84.16 239.195
 c 85.363 239.195 86.145 237.758 86.145 236.133 c h
85.285 236.133 m 85.285 237.43 85.16 238.945 84.16 238.945 c 83.207 238.945
 83.02 237.43 83.02 236.133 c 83.02 235.055 83.145 233.305 84.16 233.305
 c 85.16 233.305 85.285 235.055 85.285 236.133 c h
85.285 236.133 m f
88.066 238.711 m 88.066 238.43 87.848 238.211 87.566 238.211 c 87.285 238.211
 87.066 238.43 87.066 238.711 c 87.066 238.992 87.285 239.211 87.566 239.211
 c 87.848 239.211 88.066 238.992 88.066 238.711 c h
88.066 238.711 m f
92.23 239.086 m 92.23 238.945 l 91.637 238.945 91.418 238.961 91.418 237.789
 c 91.418 237.773 91.418 233.039 91.418 233.039 c 91.293 233.039 l 89.762
 233.773 l 89.809 233.914 l 90.137 233.773 90.215 233.742 90.34 233.742 
c 90.605 233.742 90.652 233.977 90.652 234.289 c 90.652 237.789 l 90.652
 238.961 90.434 238.93 89.84 238.945 c 89.84 239.086 l h
92.23 239.086 m f
97.422 236.133 m 97.422 234.523 96.688 233.07 95.438 233.07 c 94.172 233.07
 93.438 234.523 93.438 236.133 c 93.438 237.758 94.125 239.195 95.438 239.195
 c 96.641 239.195 97.422 237.758 97.422 236.133 c h
96.562 236.133 m 96.562 237.43 96.438 238.945 95.438 238.945 c 94.484 238.945
 94.297 237.43 94.297 236.133 c 94.297 235.055 94.422 233.305 95.438 233.305
 c 96.438 233.305 96.562 235.055 96.562 236.133 c h
96.562 236.133 m f
114.461 236.133 m 114.461 234.523 113.727 233.07 112.477 233.07 c 111.211
 233.07 110.477 234.523 110.477 236.133 c 110.477 237.758 111.164 239.195
 112.477 239.195 c 113.68 239.195 114.461 237.758 114.461 236.133 c h
113.602 236.133 m 113.602 237.43 113.477 238.945 112.477 238.945 c 111.523
 238.945 111.336 237.43 111.336 236.133 c 111.336 235.055 111.461 233.305
 112.477 233.305 c 113.477 233.305 113.602 235.055 113.602 236.133 c h
113.602 236.133 m f
116.387 238.711 m 116.387 238.43 116.168 238.211 115.887 238.211 c 115.605
 238.211 115.387 238.43 115.387 238.711 c 115.387 238.992 115.605 239.211
 115.887 239.211 c 116.168 239.211 116.387 238.992 116.387 238.711 c h
116.387 238.711 m f
120.551 239.086 m 120.551 238.945 l 119.957 238.945 119.738 238.961 119.738
 237.789 c 119.738 237.773 119.738 233.039 119.738 233.039 c 119.613 233.039
 l 118.082 233.773 l 118.129 233.914 l 118.457 233.773 118.535 233.742 118.66
 233.742 c 118.926 233.742 118.973 233.977 118.973 234.289 c 118.973 237.789
 l 118.973 238.961 118.754 238.93 118.16 238.945 c 118.16 239.086 l h
120.551 239.086 m f
125.68 233.164 m 123.211 233.164 l 122.102 235.711 l 122.242 235.68 122.383
 235.648 122.555 235.648 c 123.508 235.648 124.805 236.148 124.805 237.32
 c 124.805 238.227 124.148 238.805 123.523 238.805 c 122.977 238.805 122.773
 238.305 122.258 238.305 c 122.008 238.305 121.93 238.523 121.93 238.633
 c 121.93 238.945 122.367 239.195 122.992 239.195 c 124.336 239.195 125.398
 238.211 125.398 237.008 c 125.398 235.586 124.273 235.102 123.055 235.07
 c 122.945 235.07 122.82 235.086 122.711 235.102 c 123.273 233.836 l 125.367
 233.82 l h
125.68 233.164 m f
142.781 236.133 m 142.781 234.523 142.047 233.07 140.797 233.07 c 139.531
 233.07 138.797 234.523 138.797 236.133 c 138.797 237.758 139.484 239.195
 140.797 239.195 c 142 239.195 142.781 237.758 142.781 236.133 c h
141.922 236.133 m 141.922 237.43 141.797 238.945 140.797 238.945 c 139.844
 238.945 139.656 237.43 139.656 236.133 c 139.656 235.055 139.781 233.305
 140.797 233.305 c 141.797 233.305 141.922 235.055 141.922 236.133 c h
141.922 236.133 m f
144.707 238.711 m 144.707 238.43 144.488 238.211 144.207 238.211 c 143.926
 238.211 143.707 238.43 143.707 238.711 c 143.707 238.992 143.926 239.211
 144.207 239.211 c 144.488 239.211 144.707 238.992 144.707 238.711 c h
144.707 238.711 m f
149.652 237.93 m 149.496 237.898 l 149.23 238.352 149.012 238.43 148.574
 238.43 c 146.512 238.43 l 147.934 237.133 149.23 235.961 149.23 234.648
 c 149.23 233.727 148.434 233.07 147.559 233.07 c 146.699 233.07 146.012
 233.539 145.746 234.758 c 145.949 234.758 l 146.199 234.258 146.543 233.742
 147.23 233.742 c 148.012 233.742 148.449 234.336 148.449 235.008 c 148.449
 235.977 147.418 237.398 145.652 238.945 c 145.652 239.086 l 149.184 239.086
 l h
149.652 237.93 m f
154.062 236.133 m 154.062 234.523 153.328 233.07 152.078 233.07 c 150.812
 233.07 150.078 234.523 150.078 236.133 c 150.078 237.758 150.766 239.195
 152.078 239.195 c 153.281 239.195 154.062 237.758 154.062 236.133 c h
153.203 236.133 m 153.203 237.43 153.078 238.945 152.078 238.945 c 151.125
 238.945 150.938 237.43 150.938 236.133 c 150.938 235.055 151.062 233.305
 152.078 233.305 c 153.078 233.305 153.203 235.055 153.203 236.133 c h
153.203 236.133 m f
171.102 236.133 m 171.102 234.523 170.367 233.07 169.117 233.07 c 167.852
 233.07 167.117 234.523 167.117 236.133 c 167.117 237.758 167.805 239.195
 169.117 239.195 c 170.32 239.195 171.102 237.758 171.102 236.133 c h
170.242 236.133 m 170.242 237.43 170.117 238.945 169.117 238.945 c 168.164
 238.945 167.977 237.43 167.977 236.133 c 167.977 235.055 168.102 233.305
 169.117 233.305 c 170.117 233.305 170.242 235.055 170.242 236.133 c h
170.242 236.133 m f
173.023 238.711 m 173.023 238.43 172.805 238.211 172.523 238.211 c 172.242
 238.211 172.023 238.43 172.023 238.711 c 172.023 238.992 172.242 239.211
 172.523 239.211 c 172.805 239.211 173.023 238.992 173.023 238.711 c h
173.023 238.711 m f
177.973 237.93 m 177.816 237.898 l 177.551 238.352 177.332 238.43 176.895
 238.43 c 174.832 238.43 l 176.254 237.133 177.551 235.961 177.551 234.648
 c 177.551 233.727 176.754 233.07 175.879 233.07 c 175.02 233.07 174.332
 233.539 174.066 234.758 c 174.27 234.758 l 174.52 234.258 174.863 233.742
 175.551 233.742 c 176.332 233.742 176.77 234.336 176.77 235.008 c 176.77
 235.977 175.738 237.398 173.973 238.945 c 173.973 239.086 l 177.504 239.086
 l h
177.973 237.93 m f
182.316 233.164 m 179.848 233.164 l 178.738 235.711 l 178.879 235.68 179.02
 235.648 179.191 235.648 c 180.145 235.648 181.441 236.148 181.441 237.32
 c 181.441 238.227 180.785 238.805 180.16 238.805 c 179.613 238.805 179.41
 238.305 178.895 238.305 c 178.645 238.305 178.566 238.523 178.566 238.633
 c 178.566 238.945 179.004 239.195 179.629 239.195 c 180.973 239.195 182.035
 238.211 182.035 237.008 c 182.035 235.586 180.91 235.102 179.691 235.07
 c 179.582 235.07 179.457 235.086 179.348 235.102 c 179.91 233.836 l 182.004
 233.82 l h
182.316 233.164 m f
199.539 236.133 m 199.539 234.523 198.805 233.07 197.555 233.07 c 196.289
 233.07 195.555 234.523 195.555 236.133 c 195.555 237.758 196.242 239.195
 197.555 239.195 c 198.758 239.195 199.539 237.758 199.539 236.133 c h
198.68 236.133 m 198.68 237.43 198.555 238.945 197.555 238.945 c 196.602
 238.945 196.414 237.43 196.414 236.133 c 196.414 235.055 196.539 233.305
 197.555 233.305 c 198.555 233.305 198.68 235.055 198.68 236.133 c h
198.68 236.133 m f
201.465 238.711 m 201.465 238.43 201.246 238.211 200.965 238.211 c 200.684
 238.211 200.465 238.43 200.465 238.711 c 200.465 238.992 200.684 239.211
 200.965 239.211 c 201.246 239.211 201.465 238.992 201.465 238.711 c h
201.465 238.711 m f
206.035 237.148 m 206.035 236.211 205.488 235.805 204.957 235.586 c 205.535
 235.148 205.723 234.742 205.723 234.258 c 205.723 233.742 205.301 233.07
 204.332 233.07 c 203.629 233.07 202.957 233.461 202.66 234.43 c 202.801
 234.461 l 202.988 234.102 203.348 233.648 204.004 233.648 c 204.645 233.648
 205.02 234.086 205.02 234.586 c 205.02 235.289 204.473 235.789 203.66 235.977
 c 203.645 236.164 l 205.035 236.102 205.379 237.008 205.379 237.57 c 205.379
 238.242 204.895 238.852 204.254 238.852 c 203.676 238.852 203.426 238.352
 202.941 238.352 c 202.785 238.352 202.598 238.508 202.598 238.711 c 202.598
 239.086 203.16 239.195 203.566 239.195 c 204.988 239.195 206.035 238.383
 206.035 237.148 c h
206.035 237.148 m f
210.82 236.133 m 210.82 234.523 210.086 233.07 208.836 233.07 c 207.57 
233.07 206.836 234.523 206.836 236.133 c 206.836 237.758 207.523 239.195
 208.836 239.195 c 210.039 239.195 210.82 237.758 210.82 236.133 c h
209.961 236.133 m 209.961 237.43 209.836 238.945 208.836 238.945 c 207.883
 238.945 207.695 237.43 207.695 236.133 c 207.695 235.055 207.82 233.305
 208.836 233.305 c 209.836 233.305 209.961 235.055 209.961 236.133 c h
209.961 236.133 m f
227.859 236.133 m 227.859 234.523 227.125 233.07 225.875 233.07 c 224.609
 233.07 223.875 234.523 223.875 236.133 c 223.875 237.758 224.562 239.195
 225.875 239.195 c 227.078 239.195 227.859 237.758 227.859 236.133 c h
227 236.133 m 227 237.43 226.875 238.945 225.875 238.945 c 224.922 238.945
 224.734 237.43 224.734 236.133 c 224.734 235.055 224.859 233.305 225.875
 233.305 c 226.875 233.305 227 235.055 227 236.133 c h
227 236.133 m f
229.781 238.711 m 229.781 238.43 229.562 238.211 229.281 238.211 c 229 
238.211 228.781 238.43 228.781 238.711 c 228.781 238.992 229 239.211 229.281
 239.211 c 229.562 239.211 229.781 238.992 229.781 238.711 c h
229.781 238.711 m f
234.355 237.148 m 234.355 236.211 233.809 235.805 233.277 235.586 c 233.855
 235.148 234.043 234.742 234.043 234.258 c 234.043 233.742 233.621 233.07
 232.652 233.07 c 231.949 233.07 231.277 233.461 230.98 234.43 c 231.121
 234.461 l 231.309 234.102 231.668 233.648 232.324 233.648 c 232.965 233.648
 233.34 234.086 233.34 234.586 c 233.34 235.289 232.793 235.789 231.98 235.977
 c 231.965 236.164 l 233.355 236.102 233.699 237.008 233.699 237.57 c 233.699
 238.242 233.215 238.852 232.574 238.852 c 231.996 238.852 231.746 238.352
 231.262 238.352 c 231.105 238.352 230.918 238.508 230.918 238.711 c 230.918
 239.086 231.48 239.195 231.887 239.195 c 233.309 239.195 234.355 238.383
 234.355 237.148 c h
234.355 237.148 m f
239.074 233.164 m 236.605 233.164 l 235.496 235.711 l 235.637 235.68 235.777
 235.648 235.949 235.648 c 236.902 235.648 238.199 236.148 238.199 237.32
 c 238.199 238.227 237.543 238.805 236.918 238.805 c 236.371 238.805 236.168
 238.305 235.652 238.305 c 235.402 238.305 235.324 238.523 235.324 238.633
 c 235.324 238.945 235.762 239.195 236.387 239.195 c 237.73 239.195 238.793
 238.211 238.793 237.008 c 238.793 235.586 237.668 235.102 236.449 235.07
 c 236.34 235.07 236.215 235.086 236.105 235.102 c 236.668 233.836 l 238.762
 233.82 l h
239.074 233.164 m f
14.73 230.121 5.484 0.453 re f
24.676 231.23 m 24.676 230.59 24.395 230.105 23.301 229.293 c 23.988 228.918
 24.52 228.496 24.52 227.84 c 24.52 227.152 23.879 226.559 22.926 226.559
 c 22.082 226.559 21.285 227.105 21.285 227.949 c 21.285 228.605 21.629 
228.996 22.395 229.605 c 21.535 230.262 21.223 230.59 21.223 231.262 c 21.223
 232.012 21.895 232.715 22.941 232.715 c 24.16 232.715 24.676 231.887 24.676
 231.23 c h
23.91 227.824 m 23.91 228.465 23.535 228.809 23.051 229.137 c 22.457 228.715
 21.941 228.246 21.941 227.73 c 21.941 227.246 22.285 226.824 22.895 226.824
 c 23.566 226.824 23.91 227.246 23.91 227.824 c h
24.035 231.48 m 24.035 232.059 23.598 232.449 23.02 232.449 c 22.332 232.449
 21.895 231.902 21.895 231.168 c 21.895 230.496 22.223 230.105 22.629 229.762
 c 23.613 230.512 24.035 230.887 24.035 231.48 c h
24.035 231.48 m f
29.383 229.652 m 29.383 228.043 28.648 226.59 27.398 226.59 c 26.133 226.59
 25.398 228.043 25.398 229.652 c 25.398 231.277 26.086 232.715 27.398 232.715
 c 28.602 232.715 29.383 231.277 29.383 229.652 c h
28.523 229.652 m 28.523 230.949 28.398 232.465 27.398 232.465 c 26.445 
232.465 26.258 230.949 26.258 229.652 c 26.258 228.574 26.383 226.824 27.398
 226.824 c 28.398 226.824 28.523 228.574 28.523 229.652 c h
28.523 229.652 m f
14.73 204.922 5.484 0.453 re f
24.895 205.391 m 24.895 204.406 24.191 203.672 23.301 203.672 c 22.848 
203.672 22.473 203.812 22.082 204.125 c 22.473 202.531 23.645 201.531 24.77
 201.516 c 24.77 201.359 l 22.004 201.359 21.129 203.703 21.129 205.031 
c 21.129 206.453 21.957 207.516 23.066 207.516 c 24.082 207.516 24.895 206.562
 24.895 205.391 c h
24.129 205.844 m 24.129 206.672 23.754 207.25 23.16 207.25 c 22.238 207.25
 21.957 205.906 21.957 205.188 c 21.957 204.953 21.988 204.703 22.035 204.406
 c 22.426 204.156 22.738 204.047 23.051 204.047 c 23.957 204.047 24.129 
205.094 24.129 205.844 c h
24.129 205.844 m f
29.383 204.453 m 29.383 202.844 28.648 201.391 27.398 201.391 c 26.133 
201.391 25.398 202.844 25.398 204.453 c 25.398 206.078 26.086 207.516 27.398
 207.516 c 28.602 207.516 29.383 206.078 29.383 204.453 c h
28.523 204.453 m 28.523 205.75 28.398 207.266 27.398 207.266 c 26.445 207.266
 26.258 205.75 26.258 204.453 c 26.258 203.375 26.383 201.625 27.398 201.625
 c 28.398 201.625 28.523 203.375 28.523 204.453 c h
28.523 204.453 m f
14.73 179.844 5.484 0.453 re f
24.957 180.844 m 24.957 180.234 l 24.082 180.234 l 24.082 176.312 l 23.645
 176.312 l 21.051 180.219 l 21.051 180.844 l 23.348 180.844 l 23.348 182.328
 l 24.082 182.328 l 24.082 180.844 l h
23.348 180.234 m 21.41 180.234 l 23.332 177.25 l 23.348 177.25 l h
23.348 180.234 m f
29.383 179.375 m 29.383 177.766 28.648 176.312 27.398 176.312 c 26.133 
176.312 25.398 177.766 25.398 179.375 c 25.398 181 26.086 182.438 27.398
 182.438 c 28.602 182.438 29.383 181 29.383 179.375 c h
28.523 179.375 m 28.523 180.672 28.398 182.188 27.398 182.188 c 26.445 
182.188 26.258 180.672 26.258 179.375 c 26.258 178.297 26.383 176.547 27.398
 176.547 c 28.398 176.547 28.523 178.297 28.523 179.375 c h
28.523 179.375 m f
14.73 154.645 5.484 0.453 re f
24.973 155.973 m 24.816 155.941 l 24.551 156.395 24.332 156.473 23.895 
156.473 c 21.832 156.473 l 23.254 155.176 24.551 154.004 24.551 152.691 
c 24.551 151.77 23.754 151.113 22.879 151.113 c 22.02 151.113 21.332 151.582
 21.066 152.801 c 21.27 152.801 l 21.52 152.301 21.863 151.785 22.551 151.785
 c 23.332 151.785 23.77 152.379 23.77 153.051 c 23.77 154.02 22.738 155.441
 20.973 156.988 c 20.973 157.129 l 24.504 157.129 l h
24.973 155.973 m f
29.383 154.176 m 29.383 152.566 28.648 151.113 27.398 151.113 c 26.133 
151.113 25.398 152.566 25.398 154.176 c 25.398 155.801 26.086 157.238 27.398
 157.238 c 28.602 157.238 29.383 155.801 29.383 154.176 c h
28.523 154.176 m 28.523 155.473 28.398 156.988 27.398 156.988 c 26.445 
156.988 26.258 155.473 26.258 154.176 c 26.258 153.098 26.383 151.348 27.398
 151.348 c 28.398 151.348 28.523 153.098 28.523 154.176 c h
28.523 154.176 m f
29.383 128.973 m 29.383 127.363 28.648 125.91 27.398 125.91 c 26.133 125.91
 25.398 127.363 25.398 128.973 c 25.398 130.598 26.086 132.035 27.398 132.035
 c 28.602 132.035 29.383 130.598 29.383 128.973 c h
28.523 128.973 m 28.523 130.27 28.398 131.785 27.398 131.785 c 26.445 131.785
 26.258 130.27 26.258 128.973 c 26.258 127.895 26.383 126.145 27.398 126.145
 c 28.398 126.145 28.523 127.895 28.523 128.973 c h
28.523 128.973 m f
24.973 105.57 m 24.816 105.539 l 24.551 105.992 24.332 106.07 23.895 106.07
 c 21.832 106.07 l 23.254 104.773 24.551 103.602 24.551 102.289 c 24.551
 101.367 23.754 100.711 22.879 100.711 c 22.02 100.711 21.332 101.18 21.066
 102.398 c 21.27 102.398 l 21.52 101.898 21.863 101.383 22.551 101.383 c
 23.332 101.383 23.77 101.977 23.77 102.648 c 23.77 103.617 22.738 105.039
 20.973 106.586 c 20.973 106.727 l 24.504 106.727 l h
24.973 105.57 m f
29.383 103.773 m 29.383 102.164 28.648 100.711 27.398 100.711 c 26.133 
100.711 25.398 102.164 25.398 103.773 c 25.398 105.398 26.086 106.836 27.398
 106.836 c 28.602 106.836 29.383 105.398 29.383 103.773 c h
28.523 103.773 m 28.523 105.07 28.398 106.586 27.398 106.586 c 26.445 106.586
 26.258 105.07 26.258 103.773 c 26.258 102.695 26.383 100.945 27.398 100.945
 c 28.398 100.945 28.523 102.695 28.523 103.773 c h
28.523 103.773 m f
24.957 80.164 m 24.957 79.555 l 24.082 79.555 l 24.082 75.633 l 23.645 
75.633 l 21.051 79.539 l 21.051 80.164 l 23.348 80.164 l 23.348 81.648 l
 24.082 81.648 l 24.082 80.164 l h
23.348 79.555 m 21.41 79.555 l 23.332 76.57 l 23.348 76.57 l h
23.348 79.555 m f
29.383 78.695 m 29.383 77.086 28.648 75.633 27.398 75.633 c 26.133 75.633
 25.398 77.086 25.398 78.695 c 25.398 80.32 26.086 81.758 27.398 81.758 
c 28.602 81.758 29.383 80.32 29.383 78.695 c h
28.523 78.695 m 28.523 79.992 28.398 81.508 27.398 81.508 c 26.445 81.508
 26.258 79.992 26.258 78.695 c 26.258 77.617 26.383 75.867 27.398 75.867
 c 28.398 75.867 28.523 77.617 28.523 78.695 c h
28.523 78.695 m f
24.895 54.43 m 24.895 53.445 24.191 52.711 23.301 52.711 c 22.848 52.711
 22.473 52.852 22.082 53.164 c 22.473 51.57 23.645 50.57 24.77 50.555 c 
24.77 50.398 l 22.004 50.398 21.129 52.742 21.129 54.07 c 21.129 55.492 
21.957 56.555 23.066 56.555 c 24.082 56.555 24.895 55.602 24.895 54.43 c
 h
24.129 54.883 m 24.129 55.711 23.754 56.289 23.16 56.289 c 22.238 56.289
 21.957 54.945 21.957 54.227 c 21.957 53.992 21.988 53.742 22.035 53.445
 c 22.426 53.195 22.738 53.086 23.051 53.086 c 23.957 53.086 24.129 54.133
 24.129 54.883 c h
24.129 54.883 m f
29.383 53.492 m 29.383 51.883 28.648 50.43 27.398 50.43 c 26.133 50.43 
25.398 51.883 25.398 53.492 c 25.398 55.117 26.086 56.555 27.398 56.555 
c 28.602 56.555 29.383 55.117 29.383 53.492 c h
28.523 53.492 m 28.523 54.789 28.398 56.305 27.398 56.305 c 26.445 56.305
 26.258 54.789 26.258 53.492 c 26.258 52.414 26.383 50.664 27.398 50.664
 c 28.398 50.664 28.523 52.414 28.523 53.492 c h
28.523 53.492 m f
24.676 29.871 m 24.676 29.23 24.395 28.746 23.301 27.934 c 23.988 27.559
 24.52 27.137 24.52 26.48 c 24.52 25.793 23.879 25.199 22.926 25.199 c 22.082
 25.199 21.285 25.746 21.285 26.59 c 21.285 27.246 21.629 27.637 22.395 
28.246 c 21.535 28.902 21.223 29.23 21.223 29.902 c 21.223 30.652 21.895
 31.355 22.941 31.355 c 24.16 31.355 24.676 30.527 24.676 29.871 c h
23.91 26.465 m 23.91 27.105 23.535 27.449 23.051 27.777 c 22.457 27.355
 21.941 26.887 21.941 26.371 c 21.941 25.887 22.285 25.465 22.895 25.465
 c 23.566 25.465 23.91 25.887 23.91 26.465 c h
24.035 30.121 m 24.035 30.699 23.598 31.09 23.02 31.09 c 22.332 31.09 21.895
 30.543 21.895 29.809 c 21.895 29.137 22.223 28.746 22.629 28.402 c 23.613
 29.152 24.035 29.527 24.035 30.121 c h
24.035 30.121 m f
29.383 28.293 m 29.383 26.684 28.648 25.23 27.398 25.23 c 26.133 25.23 
25.398 26.684 25.398 28.293 c 25.398 29.918 26.086 31.355 27.398 31.355 
c 28.602 31.355 29.383 29.918 29.383 28.293 c h
28.523 28.293 m 28.523 29.59 28.398 31.105 27.398 31.105 c 26.445 31.105
 26.258 29.59 26.258 28.293 c 26.258 27.215 26.383 25.465 27.398 25.465 
c 28.398 25.465 28.523 27.215 28.523 28.293 c h
28.523 28.293 m f
19.754 6.047 m 19.754 5.906 l 19.16 5.906 18.941 5.922 18.941 4.75 c 18.941
 4.734 18.941 0 18.941 0 c 18.816 0 l 17.285 0.734 l 17.332 0.875 l 17.66
 0.734 17.738 0.703 17.863 0.703 c 18.129 0.703 18.176 0.938 18.176 1.25
 c 18.176 4.75 l 18.176 5.922 17.957 5.891 17.363 5.906 c 17.363 6.047 l
 h
19.754 6.047 m f
24.941 3.094 m 24.941 1.484 24.207 0.031 22.957 0.031 c 21.691 0.031 20.957
 1.484 20.957 3.094 c 20.957 4.719 21.645 6.156 22.957 6.156 c 24.16 6.156
 24.941 4.719 24.941 3.094 c h
24.082 3.094 m 24.082 4.391 23.957 5.906 22.957 5.906 c 22.004 5.906 21.816
 4.391 21.816 3.094 c 21.816 2.016 21.941 0.266 22.957 0.266 c 23.957 0.266
 24.082 2.016 24.082 3.094 c h
24.082 3.094 m f
29.383 3.094 m 29.383 1.484 28.648 0.031 27.398 0.031 c 26.133 0.031 25.398
 1.484 25.398 3.094 c 25.398 4.719 26.086 6.156 27.398 6.156 c 28.602 6.156
 29.383 4.719 29.383 3.094 c h
28.523 3.094 m 28.523 4.391 28.398 5.906 27.398 5.906 c 26.445 5.906 26.258
 4.391 26.258 3.094 c 26.258 2.016 26.383 0.266 27.398 0.266 c 28.398 0.266
 28.523 2.016 28.523 3.094 c h
28.523 3.094 m f
256.152 236.148 m 256.152 234.539 255.418 233.086 254.168 233.086 c 252.902
 233.086 252.168 234.539 252.168 236.148 c 252.168 237.773 252.855 239.211
 254.168 239.211 c 255.371 239.211 256.152 237.773 256.152 236.148 c h
255.293 236.148 m 255.293 237.445 255.168 238.961 254.168 238.961 c 253.215
 238.961 253.027 237.445 253.027 236.148 c 253.027 235.07 253.152 233.32
 254.168 233.32 c 255.168 233.32 255.293 235.07 255.293 236.148 c h
255.293 236.148 m f
258.074 238.727 m 258.074 238.445 257.855 238.227 257.574 238.227 c 257.293
 238.227 257.074 238.445 257.074 238.727 c 257.074 239.008 257.293 239.227
 257.574 239.227 c 257.855 239.227 258.074 239.008 258.074 238.727 c h
258.074 238.727 m f
263.008 237.617 m 263.008 237.008 l 262.133 237.008 l 262.133 233.086 l
 261.695 233.086 l 259.102 236.992 l 259.102 237.617 l 261.398 237.617 l
 261.398 239.102 l 262.133 239.102 l 262.133 237.617 l h
261.398 237.008 m 259.461 237.008 l 261.383 234.023 l 261.398 234.023 l
 h
261.398 237.008 m f
267.43 236.148 m 267.43 234.539 266.695 233.086 265.445 233.086 c 264.18
 233.086 263.445 234.539 263.445 236.148 c 263.445 237.773 264.133 239.211
 265.445 239.211 c 266.648 239.211 267.43 237.773 267.43 236.148 c h
266.57 236.148 m 266.57 237.445 266.445 238.961 265.445 238.961 c 264.492
 238.961 264.305 237.445 264.305 236.148 c 264.305 235.07 264.43 233.32 
265.445 233.32 c 266.445 233.32 266.57 235.07 266.57 236.148 c h
266.57 236.148 m f
145.668 244.605 m 142.871 244.605 l 142.48 245.762 l 142.668 245.762 l 
142.887 245.215 143.105 245.199 143.434 245.199 c 144.887 245.199 l 141.793
 248.699 l 144.637 248.699 l 145.027 247.512 l 144.855 247.512 l 144.652
 248.121 144.309 248.121 143.98 248.121 c 142.559 248.121 l h
145.668 244.605 m f
150.773 250.855 m 150.461 250.824 150.383 250.762 150.148 250.246 c 148.414
 246.277 l 148.273 246.277 l 146.82 249.699 l 146.367 250.715 146.289 250.84
 145.961 250.855 c 145.961 250.98 l 147.336 250.98 l 147.336 250.855 l 147.008
 250.855 146.867 250.762 146.867 250.559 c 146.867 250.48 146.883 250.387
 146.914 250.293 c 147.242 249.48 l 149.07 249.48 l 149.352 250.137 l 149.43
 250.34 149.477 250.512 149.477 250.605 c 149.477 250.793 149.367 250.84
 148.992 250.855 c 148.992 250.98 l 150.773 250.98 l h
147.352 249.184 m 148.164 247.277 l 148.961 249.184 l h
147.352 249.184 m f
2.691 122.832 m 2.691 123.504 l 1.613 123.207 l 1.613 123.348 l 2.238 123.77
 2.66 124.27 2.801 124.879 c 2.988 124.926 l 2.988 124.254 l 5.691 124.988
 l 5.879 125.02 6.238 125.129 6.379 125.129 c 6.723 125.129 6.816 124.879
 6.816 124.707 c 6.816 124.316 6.52 123.895 5.77 123.426 c 5.707 123.551
 l 5.973 123.785 6.379 124.066 6.379 124.285 c 6.379 124.41 6.301 124.441
 6.238 124.441 c 6.176 124.441 6.129 124.426 5.988 124.395 c 2.988 123.582
 l 2.988 122.879 l h
2.691 122.832 m f
0.27 118.07 m 0.27 118.508 l 8.629 121.617 l 8.629 121.164 l h
0.27 118.07 m f
1.453 114.145 m 0.656 114.145 0 114.801 0 115.629 c 0 116.457 0.656 117.113
 1.453 117.113 c 2.234 117.113 2.891 116.457 2.891 115.629 c 2.891 114.801
 2.234 114.145 1.453 114.145 c h
1.453 114.613 m 1.984 114.613 2.438 115.082 2.438 115.629 c 2.438 116.176
 1.984 116.629 1.453 116.629 c 0.922 116.629 0.469 116.176 0.469 115.629
 c 0.469 115.082 0.922 114.613 1.453 114.613 c h
1.453 114.613 m f
2.66 107.535 m 0.645 107.613 l 0.645 107.801 l 0.832 107.863 0.941 108.004
 0.941 108.176 c 0.941 108.27 0.91 108.395 0.863 108.535 c 0.723 108.973
 0.645 109.426 0.645 109.848 c 0.645 110.582 0.926 111.316 1.41 111.879 
c 1.973 112.504 2.801 112.848 3.785 112.848 c 5.613 112.848 6.832 111.66
 6.832 109.863 c 6.832 108.848 6.426 107.957 5.691 107.426 c 5.535 107.582
 l 6.176 108.238 6.441 108.832 6.441 109.582 c 6.441 110.145 6.254 110.645
 5.91 111.035 c 5.473 111.535 4.676 111.801 3.66 111.801 c 2.051 111.801
 1.004 110.973 1.004 109.676 c 1.004 109.16 1.191 108.691 1.535 108.332 
c 1.832 108.051 2.082 107.91 2.66 107.738 c h
2.66 107.535 m f
Q Q
showpage
%%Trailer
end
%%EOF
