%!PS-Adobe-3.0 EPSF-3.0
%%Creator: cairo 1.17.4 (https://cairographics.org)
%%CreationDate: Thu Feb 24 10:49:40 2022
%%Pages: 1
%%DocumentData: Clean7Bit
%%LanguageLevel: 2
%%BoundingBox: 0 0 315 183
%%EndComments
%%BeginProlog
50 dict begin
/q { gsave } bind def
/Q { grestore } bind def
/cm { 6 array astore concat } bind def
/w { setlinewidth } bind def
/J { setlinecap } bind def
/j { setlinejoin } bind def
/M { setmiterlimit } bind def
/d { setdash } bind def
/m { moveto } bind def
/l { lineto } bind def
/c { curveto } bind def
/h { closepath } bind def
/re { exch dup neg 3 1 roll 5 3 roll moveto 0 rlineto
      0 exch rlineto 0 rlineto closepath } bind def
/S { stroke } bind def
/f { fill } bind def
/f* { eofill } bind def
/n { newpath } bind def
/W { clip } bind def
/W* { eoclip } bind def
/BT { } bind def
/ET { } bind def
/BDC { mark 3 1 roll /BDC pdfmark } bind def
/EMC { mark /EMC pdfmark } bind def
/cairo_store_point { /cairo_point_y exch def /cairo_point_x exch def } def
/Tj { show currentpoint cairo_store_point } bind def
/TJ {
  {
    dup
    type /stringtype eq
    { show } { -0.001 mul 0 cairo_font_matrix dtransform rmoveto } ifelse
  } forall
  currentpoint cairo_store_point
} bind def
/cairo_selectfont { cairo_font_matrix aload pop pop pop 0 0 6 array astore
    cairo_font exch selectfont cairo_point_x cairo_point_y moveto } bind def
/Tf { pop /cairo_font exch def /cairo_font_matrix where
      { pop cairo_selectfont } if } bind def
/Td { matrix translate cairo_font_matrix matrix concatmatrix dup
      /cairo_font_matrix exch def dup 4 get exch 5 get cairo_store_point
      /cairo_font where { pop cairo_selectfont } if } bind def
/Tm { 2 copy 8 2 roll 6 array astore /cairo_font_matrix exch def
      cairo_store_point /cairo_font where { pop cairo_selectfont } if } bind def
/g { setgray } bind def
/rg { setrgbcolor } bind def
/d1 { setcachedevice } bind def
/cairo_data_source {
  CairoDataIndex CairoData length lt
    { CairoData CairoDataIndex get /CairoDataIndex CairoDataIndex 1 add def }
    { () } ifelse
} def
/cairo_flush_ascii85_file { cairo_ascii85_file status { cairo_ascii85_file flushfile } if } def
/cairo_image { image cairo_flush_ascii85_file } def
/cairo_imagemask { imagemask cairo_flush_ascii85_file } def
%%EndProlog
%%BeginSetup
%%EndSetup
%%Page: 1 1
%%BeginPageSetup
%%PageBoundingBox: 0 0 315 183
%%EndPageSetup
q 0 0 315 183 rectclip
1 0 0 -1 0 183 cm q
0 g
1.13366 w
0 J
0 j
[] 0.0 d
10 M q 1 0 0 -1 0 0 cm
26 -141.859 m 26 -141.859 26.207 -138.102 26.414 -136.137 c 26.617 -134.312
 26.93 -132.691 27.137 -130.867 c 27.445 -128.418 27.551 -126.215 27.824
 -123.77 c 27.996 -122.184 28.102 -120.734 28.344 -119.148 c 28.688 -116.703
 29.066 -114.531 29.547 -112.086 c 29.961 -110.191 30.41 -108.504 30.891
 -106.605 c 31.582 -103.883 31.996 -101.367 32.926 -98.715 c 33.719 -96.543
 34.406 -94.582 35.684 -92.652 c 36.992 -90.688 38.543 -89.172 40.301 -87.586
 c 42.297 -85.793 44.191 -84.207 46.535 -82.898 c 48.434 -81.832 50.363 
-81.246 52.465 -80.555 c 55.875 -79.383 58.977 -78.523 62.457 -77.625 c 
64.766 -77.039 66.832 -76.629 69.141 -76.145 c 70.691 -75.801 72.07 -75.594
 73.621 -75.285 c 75.758 -74.871 77.688 -74.457 79.789 -74.043 c 82.441 
-73.492 84.785 -72.973 87.441 -72.527 c 88.613 -72.32 89.645 -72.25 90.816
 -72.043 c 92.574 -71.734 94.125 -71.426 95.883 -71.043 c 97.227 -70.734
 98.434 -70.426 99.812 -70.113 c 100.914 -69.875 101.914 -69.633 103.016
 -69.355 c 104.844 -68.91 106.496 -68.527 108.289 -68.012 c 109.527 -67.668
 110.664 -67.359 111.871 -66.945 c 114.25 -66.188 116.352 -65.461 118.625
 -64.531 c 120.898 -63.672 122.898 -62.738 125.137 -61.742 c 126.277 -61.223
 127.309 -60.742 128.41 -60.191 c 129.344 -59.707 130.137 -59.258 131.031
 -58.742 c 131.961 -58.227 132.789 -57.742 133.684 -57.156 c 134.062 -56.918
 134.406 -56.711 134.785 -56.434 c 135.234 -56.16 135.613 -55.883 136.062
 -55.574 c 136.441 -55.332 136.785 -55.125 137.164 -54.848 c 137.508 -54.641
 137.82 -54.402 138.199 -54.16 c 138.613 -53.883 139.371 -53.332 139.371
 -53.332 c S Q
q 1 0 0 -1 0 0 cm
25.996 -82.543 m 25.996 -82.543 26.27 -82.578 26.406 -82.609 c 26.684 -82.645
 26.922 -82.578 27.164 -82.68 c 27.438 -82.816 27.504 -83.262 27.812 -83.363
 c 27.984 -83.434 28.156 -83.262 28.328 -83.262 c 28.809 -83.332 29.117 
-83.707 29.562 -83.844 c 30.008 -84.016 30.418 -84.051 30.863 -84.188 c 
31.586 -84.395 32.203 -84.668 32.957 -84.805 c 33.883 -85.012 34.738 -85.012
 35.664 -85.148 c 37.273 -85.352 38.715 -85.594 40.324 -85.867 c 42.453 
-86.176 44.371 -86.555 46.531 -86.793 c 48.555 -87.031 50.402 -87.066 52.461
 -87.238 c 55.922 -87.512 59.008 -87.855 62.473 -88.234 c 64.77 -88.438 
66.824 -88.68 69.121 -88.918 c 70.699 -89.055 72.07 -89.16 73.613 -89.328
 c 75.773 -89.57 77.691 -89.809 79.816 -90.117 c 82.457 -90.496 84.82 -90.906
 87.461 -91.285 c 88.594 -91.457 89.656 -91.523 90.82 -91.73 c 92.57 -92.039
 94.145 -92.379 95.895 -92.793 c 97.23 -93.137 98.465 -93.441 99.801 -93.82
 c 100.934 -94.164 101.926 -94.473 103.023 -94.848 c 104.875 -95.5 106.52
 -96.117 108.305 -96.906 c 109.57 -97.488 110.703 -98.035 111.867 -98.723
 c 114.336 -100.195 116.496 -101.566 118.656 -103.453 c 121.125 -105.578
 123.043 -107.875 125.137 -110.41 c 126.371 -111.922 127.363 -113.359 128.426
 -114.973 c 129.422 -116.547 130.176 -118.055 131.031 -119.703 c 132.027
 -121.621 132.812 -123.371 133.672 -125.359 c 134.082 -126.25 134.426 -127.039
 134.77 -127.93 c 135.246 -129.129 135.625 -130.191 136.07 -131.355 c 136.449
 -132.453 136.789 -133.414 137.168 -134.512 c 137.543 -135.641 137.852 -136.672
 138.195 -137.801 c 138.605 -139.207 139.395 -141.848 139.395 -141.848 c
 S Q
q 1 0 0 -1 0 0 cm
26.004 -82.551 m 26.004 -82.551 26.211 -78.809 26.422 -76.867 c 26.594 
-75.066 26.941 -73.473 27.148 -71.703 c 27.426 -69.484 27.598 -67.477 27.805
 -65.293 c 27.98 -63.664 28.117 -62.176 28.328 -60.582 c 28.672 -58.328 
29.055 -56.316 29.539 -54.066 c 29.953 -52.297 30.406 -50.703 30.891 -48.938
 c 31.551 -46.406 32 -44.086 32.934 -41.66 c 33.699 -39.719 34.461 -37.918
 35.672 -36.219 c 36.988 -34.383 38.516 -32.961 40.316 -31.578 c 42.293 
-30.051 44.266 -28.875 46.52 -27.832 c 48.492 -26.934 50.367 -26.449 52.445
 -25.93 c 55.875 -25.027 58.992 -24.508 62.457 -23.988 c 64.746 -23.605 
66.824 -23.434 69.148 -23.191 c 70.672 -23.016 72.094 -22.879 73.617 -22.773
 c 75.766 -22.566 77.672 -22.43 79.82 -22.324 c 82.453 -22.152 84.809 -22.047
 87.441 -21.977 c 88.621 -21.941 89.66 -21.941 90.805 -21.91 c 91.465 -21.91
 92.016 -21.875 92.676 -21.875 c 93.785 -21.875 94.789 -21.941 95.898 -21.977
 c 97.25 -22.012 98.461 -22.012 99.812 -22.082 c 100.922 -22.152 101.895
 -22.254 103.004 -22.359 c 104.84 -22.566 106.504 -22.738 108.305 -23.051
 c 109.551 -23.258 110.66 -23.469 111.875 -23.812 c 114.266 -24.473 116.414
 -25.062 118.629 -26.137 c 121.055 -27.281 123.031 -28.664 125.145 -30.293
 c 126.359 -31.23 127.363 -32.199 128.402 -33.309 c 129.406 -34.383 130.168
 -35.422 131.035 -36.602 c 132.008 -37.953 132.805 -39.199 133.668 -40.621
 c 134.086 -41.277 134.434 -41.867 134.777 -42.527 c 135.23 -43.395 135.645
 -44.191 136.062 -45.09 c 136.441 -45.922 136.789 -46.648 137.168 -47.516
 c 137.551 -48.418 137.828 -49.215 138.176 -50.117 c 138.625 -51.223 139.387
 -53.34 139.387 -53.34 c S Q
0.283298 w
q 1 0 0 -1 0 0 cm
26 -141.859 m 28.379 -140.004 l 29.965 -138.766 m 32.344 -136.906 l 33.93
 -135.668 m 36.309 -133.812 l 37.895 -132.574 m 40.27 -130.715 l 41.855 
-129.477 m 44.234 -127.621 l 45.82 -126.383 m 48.199 -124.523 l 49.785 -123.285
 m 52.164 -121.43 l 53.75 -120.191 m 56.129 -118.332 l 57.715 -117.094 m
 60.094 -115.238 l 61.68 -114 m 64.059 -112.141 l 65.645 -110.902 m 68.023
 -109.047 l 69.605 -107.809 m 71.984 -105.949 l 73.57 -104.711 m 75.949 
-102.855 l 77.535 -101.617 m 79.914 -99.758 l 81.5 -98.52 m 83.879 -96.664
 l 85.465 -95.426 m 87.844 -93.566 l 89.43 -92.328 m 91.809 -90.473 l 93.395
 -89.234 m 95.773 -87.379 l 97.359 -86.141 m 99.734 -84.281 l 101.32 -83.043
 m 103.699 -81.188 l 105.285 -79.949 m 107.664 -78.09 l 109.25 -76.852 m
 111.629 -74.996 l 113.215 -73.758 m 115.594 -71.898 l 117.18 -70.66 m 119.559
 -68.805 l 121.145 -67.566 m 123.523 -65.707 l 125.109 -64.469 m 127.484
 -62.613 l 129.07 -61.375 m 131.449 -59.516 l 133.035 -58.277 m 135.414 
-56.422 l 137 -55.184 m 139.371 -53.332 l S Q
q 1 0 0 -1 0 0 cm
139.395 -141.848 m 136.738 -140.457 l 134.965 -139.531 m 132.309 -138.141
 l 130.535 -137.215 m 127.879 -135.824 l 126.105 -134.898 m 123.449 -133.508
 l 121.676 -132.582 m 119.02 -131.191 l 117.246 -130.266 m 114.59 -128.875
 l 112.816 -127.949 m 110.16 -126.559 l 108.391 -125.633 m 105.73 -124.242
 l 103.961 -123.316 m 101.301 -121.926 l 99.531 -121 m 96.871 -119.609 l
 95.102 -118.684 m 92.441 -117.293 l 90.672 -116.367 m 88.016 -114.977 l
 86.242 -114.051 m 83.586 -112.66 l 81.812 -111.734 m 79.156 -110.344 l 
77.383 -109.418 m 74.727 -108.027 l 72.953 -107.102 m 70.297 -105.711 l 
68.523 -104.785 m 65.867 -103.395 l 64.094 -102.469 m 61.438 -101.078 l 
59.664 -100.152 m 57.008 -98.762 l 55.234 -97.836 m 52.578 -96.445 l 50.805
 -95.52 m 48.148 -94.129 l 46.379 -93.203 m 43.719 -91.812 l 41.949 -90.887
 m 39.289 -89.496 l 37.52 -88.57 m 34.859 -87.18 l 33.09 -86.254 m 30.43
 -84.863 l 28.66 -83.938 m 26 -82.547 l S Q
q 1 0 0 -1 0 0 cm
139.371 -53.332 m 136.488 -54.074 l 134.566 -54.57 m 131.684 -55.312 l 
129.762 -55.809 m 126.879 -56.551 l 124.957 -57.047 m 122.074 -57.789 l 
120.152 -58.285 m 117.273 -59.027 l 115.352 -59.523 m 112.469 -60.266 l 
110.547 -60.762 m 107.664 -61.504 l 105.742 -62 m 102.859 -62.742 l 100.938
 -63.238 m 98.055 -63.98 l 96.133 -64.477 m 93.25 -65.219 l 91.328 -65.715
 m 88.445 -66.461 l 86.523 -66.953 m 83.641 -67.695 l 81.719 -68.191 m 78.836
 -68.934 l 76.914 -69.43 m 74.031 -70.176 l 72.109 -70.668 m 69.227 -71.41
 l 67.305 -71.906 m 64.422 -72.652 l 62.504 -73.145 m 59.621 -73.891 l 57.699
 -74.383 m 54.816 -75.129 l 52.895 -75.621 m 50.012 -76.367 l 48.09 -76.859
 m 45.207 -77.605 l 43.285 -78.098 m 40.402 -78.844 l 38.48 -79.34 m 35.598
 -80.082 l 33.676 -80.574 m 30.793 -81.32 l 28.871 -81.812 m 26 -82.555 
l S Q
37.488 110.297 m 37.488 109.641 37.16 109.156 36.457 109.156 c 35.973 109.156
 35.551 109.422 35.191 109.828 c 35.441 109.141 l 35.441 109.141 34.16 109.344
 33.879 109.375 c 33.879 109.609 l 34.223 109.609 34.457 109.562 34.457 
109.844 c 34.457 110 34.348 110.344 34.285 110.516 c 33.254 113.812 l 33.16
 114.094 33.02 114.297 32.566 114.297 c 32.535 114.531 l 34.551 114.531 
l 34.598 114.297 l 34.254 114.297 33.973 114.312 33.973 114.109 c 33.973
 114.047 33.973 113.969 34.02 113.828 c 34.316 112.984 l 34.488 113.094 
34.691 113.156 34.895 113.156 c 35.988 113.156 37.488 111.656 37.488 110.297
 c h
36.645 110.375 m 36.645 111.422 35.676 112.875 34.895 112.875 c 34.723 
112.875 34.551 112.812 34.395 112.703 c 34.738 111.594 35.113 109.625 36.207
 109.625 c 36.645 109.625 36.645 110.203 36.645 110.375 c h
36.645 110.375 m f
42.035 114.977 m 41.77 114.961 41.707 114.898 41.504 114.445 c 40.02 111.055
 l 39.895 111.055 l 38.645 113.992 l 38.27 114.867 38.191 114.961 37.91 
114.977 c 37.91 115.086 l 39.098 115.086 l 39.098 114.977 l 38.801 114.977
 38.691 114.898 38.691 114.727 c 38.691 114.648 38.707 114.57 38.738 114.492
 c 39.004 113.789 l 40.582 113.789 l 40.816 114.367 l 40.895 114.523 40.941
 114.68 40.941 114.773 c 40.941 114.914 40.832 114.961 40.52 114.977 c 40.52
 115.086 l 42.035 115.086 l h
39.113 113.555 m 39.801 111.898 l 40.488 113.555 l h
39.113 113.555 m f
116.98 110.297 m 116.98 109.641 116.652 109.156 115.949 109.156 c 115.465
 109.156 115.043 109.422 114.684 109.828 c 114.934 109.141 l 114.934 109.141
 113.652 109.344 113.371 109.375 c 113.371 109.609 l 113.715 109.609 113.949
 109.562 113.949 109.844 c 113.949 110 113.84 110.344 113.777 110.516 c 
112.746 113.812 l 112.652 114.094 112.512 114.297 112.059 114.297 c 112.027
 114.531 l 114.043 114.531 l 114.09 114.297 l 113.746 114.297 113.465 114.312
 113.465 114.109 c 113.465 114.047 113.465 113.969 113.512 113.828 c 113.809
 112.984 l 113.98 113.094 114.184 113.156 114.387 113.156 c 115.48 113.156
 116.98 111.656 116.98 110.297 c h
116.137 110.375 m 116.137 111.422 115.168 112.875 114.387 112.875 c 114.215
 112.875 114.043 112.812 113.887 112.703 c 114.23 111.594 114.605 109.625
 115.699 109.625 c 116.137 109.625 116.137 110.203 116.137 110.375 c h
116.137 110.375 m f
117.418 111.242 m 117.918 111.273 117.98 111.32 117.98 111.773 c 117.98
 114.43 l 117.98 114.883 117.902 114.961 117.418 114.977 c 117.418 115.086
 l 119.402 115.086 l 119.871 115.086 120.293 114.961 120.527 114.758 c 120.73
 114.57 120.855 114.289 120.855 114.008 c 120.855 113.742 120.762 113.508
 120.559 113.336 c 120.387 113.164 120.23 113.102 119.84 113.008 c 120.152
 112.93 120.277 112.867 120.418 112.742 c 120.559 112.602 120.652 112.398
 120.652 112.148 c 120.652 111.477 120.121 111.117 119.09 111.117 c 117.418
 111.117 l h
118.59 113.133 m 119.168 113.133 119.449 113.164 119.668 113.258 c 120.012
 113.398 120.168 113.648 120.168 114.008 c 120.168 114.336 120.043 114.57
 119.809 114.711 c 119.605 114.82 119.371 114.867 118.965 114.867 c 118.684
 114.867 118.59 114.805 118.59 114.617 c h
118.59 112.898 m 118.59 111.523 l 118.605 111.398 118.621 111.352 118.73
 111.352 c 118.996 111.352 l 119.652 111.32 120.043 111.633 120.043 112.164
 c 120.043 112.633 119.73 112.883 119.168 112.898 c h
118.59 112.898 m f
85.004 27.188 m 85.004 26.531 84.676 26.047 83.973 26.047 c 83.488 26.047
 83.066 26.312 82.707 26.719 c 82.957 26.031 l 82.957 26.031 81.676 26.234
 81.395 26.266 c 81.395 26.5 l 81.738 26.5 81.973 26.453 81.973 26.734 c
 81.973 26.891 81.863 27.234 81.801 27.406 c 80.77 30.703 l 80.676 30.984
 80.535 31.188 80.082 31.188 c 80.051 31.422 l 82.066 31.422 l 82.113 31.188
 l 81.77 31.188 81.488 31.203 81.488 31 c 81.488 30.938 81.488 30.859 81.535
 30.719 c 81.832 29.875 l 82.004 29.984 82.207 30.047 82.41 30.047 c 83.504
 30.047 85.004 28.547 85.004 27.188 c h
84.16 27.266 m 84.16 28.312 83.191 29.766 82.41 29.766 c 82.238 29.766 
82.066 29.703 81.91 29.594 c 82.254 28.484 82.629 26.516 83.723 26.516 c
 84.16 26.516 84.16 27.094 84.16 27.266 c h
84.16 27.266 m f
0.567043 w
q 1 0 0 -1 0 0 cm
25.977 -2.949 113.414 -138.898 re S Q
0.398508 w
q 1 0 0 -1 0 0 cm
26.004 -141.848 m 26.004 -137.605 l S Q
q 1 0 0 -1 0 0 cm
48.68 -141.848 m 48.68 -137.605 l S Q
q 1 0 0 -1 0 0 cm
71.352 -141.848 m 71.352 -137.605 l S Q
q 1 0 0 -1 0 0 cm
94.027 -141.848 m 94.027 -137.605 l S Q
q 1 0 0 -1 0 0 cm
116.699 -141.848 m 116.699 -137.605 l S Q
q 1 0 0 -1 0 0 cm
139.371 -141.848 m 139.371 -137.605 l S Q
q 1 0 0 -1 0 0 cm
26.004 -141.848 m 26.004 -137.605 l S Q
0.398506 w
q 1 0 0 -1 0 0 cm
25.98 -141.859 m 30.254 -141.859 l S Q
0.398508 w
q 1 0 0 -1 0 0 cm
25.988 -122.004 m 30.242 -122.004 l S Q
0.398505 w
q 1 0 0 -1 0 0 cm
25.984 -102.168 m 30.254 -102.168 l S Q
0.398506 w
q 1 0 0 -1 0 0 cm
26 -82.312 m 30.254 -82.312 l S Q
0.398507 w
q 1 0 0 -1 0 0 cm
26.012 -62.477 m 30.242 -62.477 l S Q
0.398505 w
q 1 0 0 -1 0 0 cm
25.996 -42.641 m 30.242 -42.641 l S Q
0.398508 w
q 1 0 0 -1 0 0 cm
26.004 -22.785 m 30.266 -22.785 l S Q
0.398506 w
q 1 0 0 -1 0 0 cm
25.977 -2.949 m 30.25 -2.949 l S Q
q 1 0 0 -1 0 0 cm
25.98 -141.859 m 30.254 -141.859 l S Q
q 1 0 0 -1 0 0 cm
25.977 -2.949 m 25.977 -7.191 l S Q
q 1 0 0 -1 0 0 cm
48.68 -2.949 m 48.68 -7.191 l S Q
q 1 0 0 -1 0 0 cm
71.348 -2.949 m 71.348 -7.191 l S Q
q 1 0 0 -1 0 0 cm
94.016 -2.949 m 94.016 -7.191 l S Q
q 1 0 0 -1 0 0 cm
116.688 -2.949 m 116.688 -7.191 l S Q
q 1 0 0 -1 0 0 cm
139.391 -2.949 m 139.391 -7.191 l S Q
q 1 0 0 -1 0 0 cm
25.977 -2.949 m 25.977 -7.191 l S Q
q 1 0 0 -1 0 0 cm
139.363 -141.859 m 135.121 -141.859 l S Q
0.398508 w
q 1 0 0 -1 0 0 cm
139.402 -122.004 m 135.148 -122.004 l S Q
0.398505 w
q 1 0 0 -1 0 0 cm
139.395 -102.168 m 135.125 -102.168 l S Q
0.398506 w
q 1 0 0 -1 0 0 cm
139.406 -82.312 m 135.121 -82.312 l S Q
0.398507 w
q 1 0 0 -1 0 0 cm
139.371 -62.477 m 135.137 -62.477 l S Q
0.398505 w
q 1 0 0 -1 0 0 cm
139.375 -42.641 m 135.129 -42.641 l S Q
0.398508 w
q 1 0 0 -1 0 0 cm
139.367 -22.785 m 135.141 -22.785 l S Q
0.398506 w
q 1 0 0 -1 0 0 cm
139.391 -2.949 m 135.113 -2.949 l S Q
q 1 0 0 -1 0 0 cm
139.363 -141.859 m 135.121 -141.859 l S Q
27.953 148.383 m 27.953 146.773 27.219 145.32 25.969 145.32 c 24.703 145.32
 23.969 146.773 23.969 148.383 c 23.969 150.008 24.656 151.445 25.969 151.445
 c 27.172 151.445 27.953 150.008 27.953 148.383 c h
27.094 148.383 m 27.094 149.68 26.969 151.195 25.969 151.195 c 25.016 151.195
 24.828 149.68 24.828 148.383 c 24.828 147.305 24.953 145.555 25.969 145.555
 c 26.969 145.555 27.094 147.305 27.094 148.383 c h
27.094 148.383 m f
47.273 148.383 m 47.273 146.773 46.539 145.32 45.289 145.32 c 44.023 145.32
 43.289 146.773 43.289 148.383 c 43.289 150.008 43.977 151.445 45.289 151.445
 c 46.492 151.445 47.273 150.008 47.273 148.383 c h
46.414 148.383 m 46.414 149.68 46.289 151.195 45.289 151.195 c 44.336 151.195
 44.148 149.68 44.148 148.383 c 44.148 147.305 44.273 145.555 45.289 145.555
 c 46.289 145.555 46.414 147.305 46.414 148.383 c h
46.414 148.383 m f
49.195 150.961 m 49.195 150.68 48.977 150.461 48.695 150.461 c 48.414 150.461
 48.195 150.68 48.195 150.961 c 48.195 151.242 48.414 151.461 48.695 151.461
 c 48.977 151.461 49.195 151.242 49.195 150.961 c h
49.195 150.961 m f
54.145 150.18 m 53.988 150.148 l 53.723 150.602 53.504 150.68 53.066 150.68
 c 51.004 150.68 l 52.426 149.383 53.723 148.211 53.723 146.898 c 53.723
 145.977 52.926 145.32 52.051 145.32 c 51.191 145.32 50.504 145.789 50.238
 147.008 c 50.441 147.008 l 50.691 146.508 51.035 145.992 51.723 145.992
 c 52.504 145.992 52.941 146.586 52.941 147.258 c 52.941 148.227 51.91 149.648
 50.145 151.195 c 50.145 151.336 l 53.676 151.336 l h
54.145 150.18 m f
69.953 148.383 m 69.953 146.773 69.219 145.32 67.969 145.32 c 66.703 145.32
 65.969 146.773 65.969 148.383 c 65.969 150.008 66.656 151.445 67.969 151.445
 c 69.172 151.445 69.953 150.008 69.953 148.383 c h
69.094 148.383 m 69.094 149.68 68.969 151.195 67.969 151.195 c 67.016 151.195
 66.828 149.68 66.828 148.383 c 66.828 147.305 66.953 145.555 67.969 145.555
 c 68.969 145.555 69.094 147.305 69.094 148.383 c h
69.094 148.383 m f
71.875 150.961 m 71.875 150.68 71.656 150.461 71.375 150.461 c 71.094 150.461
 70.875 150.68 70.875 150.961 c 70.875 151.242 71.094 151.461 71.375 151.461
 c 71.656 151.461 71.875 151.242 71.875 150.961 c h
71.875 150.961 m f
76.809 149.852 m 76.809 149.242 l 75.934 149.242 l 75.934 145.32 l 75.496
 145.32 l 72.902 149.227 l 72.902 149.852 l 75.199 149.852 l 75.199 151.336
 l 75.934 151.336 l 75.934 149.852 l h
75.199 149.242 m 73.262 149.242 l 75.184 146.258 l 75.199 146.258 l h
75.199 149.242 m f
92.633 148.383 m 92.633 146.773 91.898 145.32 90.648 145.32 c 89.383 145.32
 88.648 146.773 88.648 148.383 c 88.648 150.008 89.336 151.445 90.648 151.445
 c 91.852 151.445 92.633 150.008 92.633 148.383 c h
91.773 148.383 m 91.773 149.68 91.648 151.195 90.648 151.195 c 89.695 151.195
 89.508 149.68 89.508 148.383 c 89.508 147.305 89.633 145.555 90.648 145.555
 c 91.648 145.555 91.773 147.305 91.773 148.383 c h
91.773 148.383 m f
94.555 150.961 m 94.555 150.68 94.336 150.461 94.055 150.461 c 93.773 150.461
 93.555 150.68 93.555 150.961 c 93.555 151.242 93.773 151.461 94.055 151.461
 c 94.336 151.461 94.555 151.242 94.555 150.961 c h
94.555 150.961 m f
99.426 149.32 m 99.426 148.336 98.723 147.602 97.832 147.602 c 97.379 147.602
 97.004 147.742 96.613 148.055 c 97.004 146.461 98.176 145.461 99.301 145.445
 c 99.301 145.289 l 96.535 145.289 95.66 147.633 95.66 148.961 c 95.66 150.383
 96.488 151.445 97.598 151.445 c 98.613 151.445 99.426 150.492 99.426 149.32
 c h
98.66 149.773 m 98.66 150.602 98.285 151.18 97.691 151.18 c 96.77 151.18
 96.488 149.836 96.488 149.117 c 96.488 148.883 96.52 148.633 96.566 148.336
 c 96.957 148.086 97.27 147.977 97.582 147.977 c 98.488 147.977 98.66 149.023
 98.66 149.773 c h
98.66 149.773 m f
115.312 148.383 m 115.312 146.773 114.578 145.32 113.328 145.32 c 112.062
 145.32 111.328 146.773 111.328 148.383 c 111.328 150.008 112.016 151.445
 113.328 151.445 c 114.531 151.445 115.312 150.008 115.312 148.383 c h
114.453 148.383 m 114.453 149.68 114.328 151.195 113.328 151.195 c 112.375
 151.195 112.188 149.68 112.188 148.383 c 112.188 147.305 112.312 145.555
 113.328 145.555 c 114.328 145.555 114.453 147.305 114.453 148.383 c h
114.453 148.383 m f
117.234 150.961 m 117.234 150.68 117.016 150.461 116.734 150.461 c 116.453
 150.461 116.234 150.68 116.234 150.961 c 116.234 151.242 116.453 151.461
 116.734 151.461 c 117.016 151.461 117.234 151.242 117.234 150.961 c h
117.234 150.961 m f
121.887 149.961 m 121.887 149.32 121.605 148.836 120.512 148.023 c 121.199
 147.648 121.73 147.227 121.73 146.57 c 121.73 145.883 121.09 145.289 120.137
 145.289 c 119.293 145.289 118.496 145.836 118.496 146.68 c 118.496 147.336
 118.84 147.727 119.605 148.336 c 118.746 148.992 118.434 149.32 118.434
 149.992 c 118.434 150.742 119.105 151.445 120.152 151.445 c 121.371 151.445
 121.887 150.617 121.887 149.961 c h
121.121 146.555 m 121.121 147.195 120.746 147.539 120.262 147.867 c 119.668
 147.445 119.152 146.977 119.152 146.461 c 119.152 145.977 119.496 145.555
 120.105 145.555 c 120.777 145.555 121.121 145.977 121.121 146.555 c h
121.246 150.211 m 121.246 150.789 120.809 151.18 120.23 151.18 c 119.543
 151.18 119.105 150.633 119.105 149.898 c 119.105 149.227 119.434 148.836
 119.84 148.492 c 120.824 149.242 121.246 149.617 121.246 150.211 c h
121.246 150.211 m f
137.242 151.336 m 137.242 151.195 l 136.648 151.195 136.43 151.211 136.43
 150.039 c 136.43 150.023 136.43 145.289 136.43 145.289 c 136.305 145.289
 l 134.773 146.023 l 134.82 146.164 l 135.148 146.023 135.227 145.992 135.352
 145.992 c 135.617 145.992 135.664 146.227 135.664 146.539 c 135.664 150.039
 l 135.664 151.211 135.445 151.18 134.852 151.195 c 134.852 151.336 l h
137.242 151.336 m f
139.914 150.961 m 139.914 150.68 139.695 150.461 139.414 150.461 c 139.133
 150.461 138.914 150.68 138.914 150.961 c 138.914 151.242 139.133 151.461
 139.414 151.461 c 139.695 151.461 139.914 151.242 139.914 150.961 c h
139.914 150.961 m f
144.832 148.383 m 144.832 146.773 144.098 145.32 142.848 145.32 c 141.582
 145.32 140.848 146.773 140.848 148.383 c 140.848 150.008 141.535 151.445
 142.848 151.445 c 144.051 151.445 144.832 150.008 144.832 148.383 c h
143.973 148.383 m 143.973 149.68 143.848 151.195 142.848 151.195 c 141.895
 151.195 141.707 149.68 141.707 148.383 c 141.707 147.305 141.832 145.555
 142.848 145.555 c 143.848 145.555 143.973 147.305 143.973 148.383 c h
143.973 148.383 m f
22.312 142.023 m 22.312 140.414 21.578 138.961 20.328 138.961 c 19.062 
138.961 18.328 140.414 18.328 142.023 c 18.328 143.648 19.016 145.086 20.328
 145.086 c 21.531 145.086 22.312 143.648 22.312 142.023 c h
21.453 142.023 m 21.453 143.32 21.328 144.836 20.328 144.836 c 19.375 144.836
 19.188 143.32 19.188 142.023 c 19.188 140.945 19.312 139.195 20.328 139.195
 c 21.328 139.195 21.453 140.945 21.453 142.023 c h
21.453 142.023 m f
17.121 125.055 m 17.121 124.914 l 16.527 124.914 16.309 124.93 16.309 123.758
 c 16.309 123.742 16.309 119.008 16.309 119.008 c 16.184 119.008 l 14.652
 119.742 l 14.699 119.883 l 15.027 119.742 15.105 119.711 15.23 119.711 
c 15.496 119.711 15.543 119.945 15.543 120.258 c 15.543 123.758 l 15.543
 124.93 15.324 124.898 14.73 124.914 c 14.73 125.055 l h
17.121 125.055 m f
22.312 122.102 m 22.312 120.492 21.578 119.039 20.328 119.039 c 19.062 
119.039 18.328 120.492 18.328 122.102 c 18.328 123.727 19.016 125.164 20.328
 125.164 c 21.531 125.164 22.312 123.727 22.312 122.102 c h
21.453 122.102 m 21.453 123.398 21.328 124.914 20.328 124.914 c 19.375 
124.914 19.188 123.398 19.188 122.102 c 19.188 121.023 19.312 119.273 20.328
 119.273 c 21.328 119.273 21.453 121.023 21.453 122.102 c h
21.453 122.102 m f
17.902 104.098 m 17.746 104.066 l 17.48 104.52 17.262 104.598 16.824 104.598
 c 14.762 104.598 l 16.184 103.301 17.48 102.129 17.48 100.816 c 17.48 99.895
 16.684 99.238 15.809 99.238 c 14.949 99.238 14.262 99.707 13.996 100.926
 c 14.199 100.926 l 14.449 100.426 14.793 99.91 15.48 99.91 c 16.262 99.91
 16.699 100.504 16.699 101.176 c 16.699 102.145 15.668 103.566 13.902 105.113
 c 13.902 105.254 l 17.434 105.254 l h
17.902 104.098 m f
22.312 102.301 m 22.312 100.691 21.578 99.238 20.328 99.238 c 19.062 99.238
 18.328 100.691 18.328 102.301 c 18.328 103.926 19.016 105.363 20.328 105.363
 c 21.531 105.363 22.312 103.926 22.312 102.301 c h
21.453 102.301 m 21.453 103.598 21.328 105.113 20.328 105.113 c 19.375 
105.113 19.188 103.598 19.188 102.301 c 19.188 101.223 19.312 99.473 20.328
 99.473 c 21.328 99.473 21.453 101.223 21.453 102.301 c h
21.453 102.301 m f
17.527 83.516 m 17.527 82.578 16.98 82.172 16.449 81.953 c 17.027 81.516
 17.215 81.109 17.215 80.625 c 17.215 80.109 16.793 79.438 15.824 79.438
 c 15.121 79.438 14.449 79.828 14.152 80.797 c 14.293 80.828 l 14.48 80.469
 14.84 80.016 15.496 80.016 c 16.137 80.016 16.512 80.453 16.512 80.953 
c 16.512 81.656 15.965 82.156 15.152 82.344 c 15.137 82.531 l 16.527 82.469
 16.871 83.375 16.871 83.938 c 16.871 84.609 16.387 85.219 15.746 85.219
 c 15.168 85.219 14.918 84.719 14.434 84.719 c 14.277 84.719 14.09 84.875
 14.09 85.078 c 14.09 85.453 14.652 85.562 15.059 85.562 c 16.48 85.562 
17.527 84.75 17.527 83.516 c h
17.527 83.516 m f
22.312 82.5 m 22.312 80.891 21.578 79.438 20.328 79.438 c 19.062 79.438
 18.328 80.891 18.328 82.5 c 18.328 84.125 19.016 85.562 20.328 85.562 c
 21.531 85.562 22.312 84.125 22.312 82.5 c h
21.453 82.5 m 21.453 83.797 21.328 85.312 20.328 85.312 c 19.375 85.312
 19.188 83.797 19.188 82.5 c 19.188 81.422 19.312 79.672 20.328 79.672 c
 21.328 79.672 21.453 81.422 21.453 82.5 c h
21.453 82.5 m f
17.887 64.051 m 17.887 63.441 l 17.012 63.441 l 17.012 59.52 l 16.574 59.52
 l 13.98 63.426 l 13.98 64.051 l 16.277 64.051 l 16.277 65.535 l 17.012 
65.535 l 17.012 64.051 l h
16.277 63.441 m 14.34 63.441 l 16.262 60.457 l 16.277 60.457 l h
16.277 63.441 m f
22.312 62.582 m 22.312 60.973 21.578 59.52 20.328 59.52 c 19.062 59.52 
18.328 60.973 18.328 62.582 c 18.328 64.207 19.016 65.645 20.328 65.645 
c 21.531 65.645 22.312 64.207 22.312 62.582 c h
21.453 62.582 m 21.453 63.879 21.328 65.395 20.328 65.395 c 19.375 65.395
 19.188 63.879 19.188 62.582 c 19.188 61.504 19.312 59.754 20.328 59.754
 c 21.328 59.754 21.453 61.504 21.453 62.582 c h
21.453 62.582 m f
17.809 39.812 m 15.34 39.812 l 14.23 42.359 l 14.371 42.328 14.512 42.297
 14.684 42.297 c 15.637 42.297 16.934 42.797 16.934 43.969 c 16.934 44.875
 16.277 45.453 15.652 45.453 c 15.105 45.453 14.902 44.953 14.387 44.953
 c 14.137 44.953 14.059 45.172 14.059 45.281 c 14.059 45.594 14.496 45.844
 15.121 45.844 c 16.465 45.844 17.527 44.859 17.527 43.656 c 17.527 42.234
 16.402 41.75 15.184 41.719 c 15.074 41.719 14.949 41.734 14.84 41.75 c 
15.402 40.484 l 17.496 40.469 l h
17.809 39.812 m f
22.312 42.781 m 22.312 41.172 21.578 39.719 20.328 39.719 c 19.062 39.719
 18.328 41.172 18.328 42.781 c 18.328 44.406 19.016 45.844 20.328 45.844
 c 21.531 45.844 22.312 44.406 22.312 42.781 c h
21.453 42.781 m 21.453 44.078 21.328 45.594 20.328 45.594 c 19.375 45.594
 19.188 44.078 19.188 42.781 c 19.188 41.703 19.312 39.953 20.328 39.953
 c 21.328 39.953 21.453 41.703 21.453 42.781 c h
21.453 42.781 m f
17.824 23.801 m 17.824 22.816 17.121 22.082 16.23 22.082 c 15.777 22.082
 15.402 22.223 15.012 22.535 c 15.402 20.941 16.574 19.941 17.699 19.926
 c 17.699 19.77 l 14.934 19.77 14.059 22.113 14.059 23.441 c 14.059 24.863
 14.887 25.926 15.996 25.926 c 17.012 25.926 17.824 24.973 17.824 23.801
 c h
17.059 24.254 m 17.059 25.082 16.684 25.66 16.09 25.66 c 15.168 25.66 14.887
 24.316 14.887 23.598 c 14.887 23.363 14.918 23.113 14.965 22.816 c 15.355
 22.566 15.668 22.457 15.98 22.457 c 16.887 22.457 17.059 23.504 17.059 
24.254 c h
17.059 24.254 m f
22.312 22.863 m 22.312 21.254 21.578 19.801 20.328 19.801 c 19.062 19.801
 18.328 21.254 18.328 22.863 c 18.328 24.488 19.016 25.926 20.328 25.926
 c 21.531 25.926 22.312 24.488 22.312 22.863 c h
21.453 22.863 m 21.453 24.16 21.328 25.676 20.328 25.676 c 19.375 25.676
 19.188 24.16 19.188 22.863 c 19.188 21.785 19.312 20.035 20.328 20.035 
c 21.328 20.035 21.453 21.785 21.453 22.863 c h
21.453 22.863 m f
17.746 0.094 m 14.465 0.094 l 13.918 1.422 l 14.074 1.422 l 14.387 0.938
 14.621 0.766 15.137 0.766 c 17.027 0.766 l 15.23 6.125 l 15.777 6.125 l
 h
17.746 0.094 m f
22.312 3.062 m 22.312 1.453 21.578 0 20.328 0 c 19.062 0 18.328 1.453 18.328
 3.062 c 18.328 4.688 19.016 6.125 20.328 6.125 c 21.531 6.125 22.312 4.688
 22.312 3.062 c h
21.453 3.062 m 21.453 4.359 21.328 5.875 20.328 5.875 c 19.375 5.875 19.188
 4.359 19.188 3.062 c 19.188 1.984 19.312 0.234 20.328 0.234 c 21.328 0.234
 21.453 1.984 21.453 3.062 c h
21.453 3.062 m f
82.172 157.289 m 82.172 157.07 81.969 156.961 81.797 156.961 c 81.344 156.961
 80.766 157.633 80.328 158.336 c 80.312 158.336 80.25 158.039 80.25 158.039
 c 80.109 157.445 79.938 157.102 79.625 156.961 c 79.625 156.961 78.609 
157.164 78.484 157.211 c 78.484 157.367 l 78.672 157.32 78.812 157.289 78.906
 157.289 c 79.406 157.289 79.484 157.773 79.828 159.07 c 79.422 159.664 
78.781 160.664 78.531 160.664 c 78.328 160.664 78.312 160.445 78.031 160.445
 c 77.844 160.445 77.703 160.586 77.703 160.773 c 77.703 161.008 77.875 
161.164 78.125 161.164 c 78.766 161.164 79.344 160.039 79.891 159.336 c 
79.922 159.398 80.125 160.195 80.125 160.195 c 80.344 161.023 80.516 161.164
 80.734 161.164 c 81.016 161.164 81.438 160.883 81.859 160.102 c 81.734 
160.023 l 81.578 160.227 81.328 160.648 81.094 160.648 c 80.781 160.648 
80.609 159.383 80.391 158.586 c 80.438 158.508 81.062 157.508 81.391 157.508
 c 81.562 157.508 81.719 157.648 81.875 157.648 c 82.094 157.648 82.172 
157.461 82.172 157.289 c h
82.172 157.289 m f
87.371 163.211 m 87.059 163.18 86.98 163.117 86.746 162.602 c 85.012 158.633
 l 84.871 158.633 l 83.418 162.055 l 82.965 163.07 82.887 163.195 82.559
 163.211 c 82.559 163.336 l 83.934 163.336 l 83.934 163.211 l 83.605 163.211
 83.465 163.117 83.465 162.914 c 83.465 162.836 83.48 162.742 83.512 162.648
 c 83.84 161.836 l 85.668 161.836 l 85.949 162.492 l 86.027 162.695 86.074
 162.867 86.074 162.961 c 86.074 163.148 85.965 163.195 85.59 163.211 c 
85.59 163.336 l 87.371 163.336 l h
83.949 161.539 m 84.762 159.633 l 85.559 161.539 l h
83.949 161.539 m f
80.41 174.555 m 79.754 174.992 79.488 175.211 79.145 175.633 c 78.52 176.414
 78.207 177.305 78.207 178.352 c 78.207 179.508 78.535 180.383 79.316 181.289
 c 79.691 181.727 79.926 181.914 80.395 182.211 c 80.488 182.055 l 79.785
 181.492 79.535 181.18 79.285 180.508 c 79.066 179.914 78.973 179.242 78.973
 178.336 c 78.973 177.383 79.082 176.648 79.332 176.102 c 79.582 175.539
 79.848 175.211 80.488 174.695 c h
80.41 174.555 m f
84.738 180.023 m 84.582 180.148 84.473 180.195 84.332 180.195 c 84.129 
180.195 84.066 180.07 84.066 179.68 c 84.066 177.93 l 84.066 177.461 84.02
 177.195 83.895 176.992 c 83.691 176.664 83.301 176.492 82.785 176.492 c
 81.941 176.492 81.27 176.93 81.27 177.492 c 81.27 177.695 81.441 177.883
 81.66 177.883 c 81.879 177.883 82.066 177.695 82.066 177.508 c 82.066 177.477
 82.051 177.43 82.051 177.367 c 82.02 177.273 82.02 177.211 82.02 177.148
 c 82.02 176.898 82.301 176.711 82.66 176.711 c 83.098 176.711 83.348 176.961
 83.348 177.445 c 83.348 177.992 l 81.973 178.539 81.816 178.633 81.426 
178.961 c 81.223 179.148 81.098 179.445 81.098 179.742 c 81.098 180.305 
81.488 180.711 82.051 180.711 c 82.441 180.711 82.801 180.523 83.348 180.055
 c 83.395 180.523 83.566 180.711 83.926 180.711 c 84.238 180.711 84.426 
180.602 84.738 180.258 c h
83.348 179.508 m 83.348 179.789 83.301 179.883 83.113 179.992 c 82.879 
180.117 82.645 180.18 82.457 180.18 c 82.145 180.18 81.895 179.883 81.895
 179.492 c 81.895 179.461 l 81.895 178.93 82.301 178.586 83.348 178.211 
c h
83.348 179.508 m f
85.074 182.211 m 85.73 181.758 86.012 181.539 86.34 181.133 c 86.98 180.352
 87.293 179.445 87.293 178.398 c 87.293 177.258 86.949 176.383 86.168 175.477
 c 85.793 175.039 85.559 174.836 85.105 174.555 c 84.996 174.695 l 85.715
 175.258 85.949 175.57 86.199 176.242 c 86.418 176.852 86.512 177.523 86.512
 178.43 c 86.512 179.367 86.402 180.102 86.152 180.648 c 85.918 181.211 
85.637 181.539 84.996 182.055 c h
85.074 182.211 m f
3.516 78.961 m 2.812 78.961 2.344 79.273 2.344 79.945 c 2.344 80.539 2.766
 80.992 3.328 81.398 c 2.344 81.086 l 2.344 81.086 2.578 82.289 2.594 82.555
 c 2.75 82.555 l 2.75 82.227 2.719 81.961 3.078 81.961 c 3.25 81.961 3.641
 82.07 3.859 82.133 c 7.594 83.195 l 7.938 83.289 8.188 83.445 8.188 83.883
 c 8.344 83.914 l 8.344 81.945 l 8.188 81.914 l 8.188 82.258 8.172 82.555
 7.922 82.555 c 7.844 82.555 7.75 82.539 7.578 82.492 c 6.328 82.18 l 6.469
 82.008 6.547 81.742 6.547 81.523 c 6.547 80.445 5.016 78.961 3.516 78.961
 c h
3.609 79.727 m 4.781 79.727 6.344 80.711 6.344 81.555 c 6.344 81.758 6.266
 81.945 6.094 82.117 c 5.297 81.914 2.766 81.367 2.766 80.211 c 2.766 79.727
 3.406 79.727 3.609 79.727 c h
3.609 79.727 m f
0 74.367 m 0 74.805 l 8.359 77.914 l 8.359 77.461 l h
0 74.367 m f
6.438 73.773 m 6.438 71.68 l 6.297 71.68 l 6.297 71.852 l 6.266 72.227 
6.172 72.336 5.844 72.352 c 4.188 72.352 l 5.859 71.086 l 5.906 71.055 5.953
 71.023 5.984 71.008 c 6.062 70.93 6.125 70.898 6.172 70.898 c 6.25 70.898
 6.297 70.977 6.297 71.086 c 6.297 71.258 l 6.438 71.258 l 6.438 69.305 
l 6.297 69.305 l 6.281 69.695 6.109 69.977 5.641 70.352 c 3.906 71.727 l
 3.672 71.461 l 2.656 70.352 2.516 70.102 2.531 69.523 c 2.406 69.523 l 
2.406 71.367 l 2.531 71.367 l 2.531 71.008 2.578 70.914 2.688 70.914 c 2.766
 70.914 2.891 70.992 3 71.117 c 4.094 72.352 l 0.328 72.352 l 0.312 72.383
 l 0.422 72.727 0.5 72.992 0.641 73.508 c 0.703 73.773 l 0.844 73.773 l 
0.844 73.664 0.828 73.57 0.828 73.492 c 0.828 73.18 0.953 73.102 1.375 73.102
 c 5.703 73.102 l 6.172 73.117 6.203 73.133 6.297 73.773 c h
6.438 73.773 m f
0.672 69.254 m 0.75 68.582 0.828 68.504 1.484 68.504 c 5.359 68.504 l 6.125
 68.504 6.203 68.566 6.266 69.254 c 6.438 69.254 l 6.438 66.738 l 6.266 
66.738 l 6.25 67.441 6.125 67.566 5.453 67.582 c 3.828 67.582 l 3.844 67.348
 3.859 67.191 3.859 66.957 c 3.859 66.254 3.766 65.785 3.547 65.395 c 3.266
 64.863 2.719 64.535 2.125 64.535 c 1.75 64.535 1.406 64.66 1.141 64.895
 c 0.75 65.254 0.5 66.035 0.5 66.879 c 0.5 69.254 l h
1.141 67.582 m 0.891 67.582 0.828 67.52 0.828 67.285 c 0.828 66.066 1.25
 65.504 2.172 65.504 c 3.047 65.504 3.5 66.035 3.5 67.066 c 3.5 67.254 3.484
 67.379 3.469 67.582 c h
1.141 67.582 m f
5.844 60.508 m 5.969 60.664 6.016 60.773 6.016 60.914 c 6.016 61.117 5.891
 61.18 5.5 61.18 c 3.75 61.18 l 3.281 61.18 3.016 61.227 2.812 61.352 c 
2.484 61.555 2.312 61.945 2.312 62.461 c 2.312 63.305 2.75 63.977 3.312 
63.977 c 3.516 63.977 3.703 63.805 3.703 63.586 c 3.703 63.367 3.516 63.18
 3.328 63.18 c 3.297 63.18 3.25 63.195 3.188 63.195 c 3.094 63.227 3.031
 63.227 2.969 63.227 c 2.719 63.227 2.531 62.945 2.531 62.586 c 2.531 62.148
 2.781 61.898 3.266 61.898 c 3.812 61.898 l 4.359 63.273 4.453 63.43 4.781
 63.82 c 4.969 64.023 5.266 64.148 5.562 64.148 c 6.125 64.148 6.531 63.758
 6.531 63.195 c 6.531 62.805 6.344 62.445 5.875 61.898 c 6.344 61.852 6.531
 61.68 6.531 61.32 c 6.531 61.008 6.422 60.82 6.078 60.508 c h
5.328 61.898 m 5.609 61.898 5.703 61.945 5.812 62.133 c 5.938 62.367 6 
62.602 6 62.789 c 6 63.102 5.703 63.352 5.312 63.352 c 5.281 63.352 l 4.75
 63.352 4.406 62.945 4.031 61.898 c h
5.328 61.898 m f
1.13366 w
q 1 0 0 -1 0 0 cm
196.078 -82.551 m 196.078 -82.551 196.285 -78.809 196.496 -76.867 c 196.703
 -75.066 197.016 -73.473 197.223 -71.703 c 197.5 -69.484 197.672 -67.477
 197.914 -65.293 c 198.09 -63.664 198.191 -62.176 198.434 -60.582 c 198.746
 -58.328 199.129 -56.316 199.648 -54.066 c 200.027 -52.297 200.48 -50.703
 200.965 -48.938 c 201.656 -46.406 202.074 -44.086 203.008 -41.66 c 203.77
 -39.719 204.535 -37.918 205.746 -36.219 c 207.098 -34.383 208.621 -32.961
 210.391 -31.578 c 212.367 -30.051 214.34 -28.875 216.594 -27.832 c 218.566
 -26.934 220.438 -26.449 222.555 -25.93 c 225.949 -25.027 229.066 -24.508
 232.531 -23.988 c 234.855 -23.605 236.898 -23.434 239.223 -23.191 c 240.781
 -23.016 242.168 -22.879 243.691 -22.773 c 245.84 -22.566 247.746 -22.43
 249.895 -22.324 c 252.527 -22.152 254.883 -22.047 257.516 -21.977 c 258.695
 -21.941 259.734 -21.941 260.879 -21.91 c 261.535 -21.91 262.09 -21.875 
262.75 -21.875 c 263.859 -21.875 264.863 -21.941 265.973 -21.977 c 267.324
 -22.012 268.535 -22.012 269.887 -22.082 c 270.996 -22.152 272.004 -22.254
 273.109 -22.359 c 274.914 -22.566 276.574 -22.738 278.379 -23.051 c 279.625
 -23.258 280.734 -23.469 281.949 -23.812 c 284.34 -24.473 286.488 -25.062
 288.703 -26.137 c 291.129 -27.281 293.105 -28.664 295.219 -30.293 c 296.434
 -31.23 297.438 -32.199 298.512 -33.309 c 299.48 -34.383 300.277 -35.422
 301.109 -36.602 c 302.082 -37.953 302.879 -39.199 303.742 -40.621 c 304.16
 -41.277 304.508 -41.867 304.852 -42.527 c 305.336 -43.395 305.719 -44.191
 306.133 -45.09 c 306.551 -45.922 306.863 -46.648 307.242 -47.516 c 307.625
 -48.418 307.938 -49.215 308.281 -50.117 c 308.699 -51.223 309.461 -53.34
 309.461 -53.34 c S Q
q 1 0 0 -1 0 0 cm
309.457 -53.34 m 309.457 -53.34 306.164 -51.227 304.469 -50.117 c 303.117
 -49.215 301.973 -48.418 300.656 -47.52 c 299.445 -46.688 298.371 -45.926
 297.191 -45.059 c 295.945 -44.191 294.801 -43.43 293.586 -42.527 c 292.688
 -41.871 291.855 -41.281 290.953 -40.621 c 289.117 -39.238 287.453 -37.988
 285.617 -36.602 c 284.16 -35.496 282.844 -34.453 281.391 -33.312 c 280.074
 -32.27 278.859 -31.336 277.508 -30.297 c 275.566 -28.84 273.871 -27.453
 271.824 -26.102 c 270.578 -25.273 269.363 -24.543 268.047 -23.816 c 267.527
 -23.539 267.078 -23.297 266.559 -23.055 c 266.004 -22.777 265.484 -22.57
 264.859 -22.359 c 264.582 -22.258 264.305 -22.152 263.992 -22.082 c 263.684
 -22.016 263.406 -22.016 263.059 -21.945 c 262.953 -21.945 262.852 -21.875
 262.746 -21.875 c 262.539 -21.84 262.332 -21.875 262.086 -21.91 c 261.949
 -21.91 261.812 -21.91 261.637 -21.945 c 261.223 -22.051 260.84 -22.152 
260.391 -22.293 c 260.078 -22.43 259.766 -22.57 259.453 -22.742 c 259.246
 -22.879 259.074 -23.02 258.863 -23.156 c 258.52 -23.434 258.207 -23.676
 257.895 -23.953 c 257.203 -24.578 256.613 -25.203 256.023 -25.895 c 255.539
 -26.52 255.191 -27.176 254.707 -27.836 c 253.77 -29.152 252.836 -30.262
 251.867 -31.578 c 250.758 -33.137 249.82 -34.629 248.711 -36.223 c 247.43
 -38.094 246.285 -39.824 244.898 -41.664 c 242.996 -44.227 241.156 -46.445
 239.113 -48.906 c 237.555 -50.742 236.168 -52.371 234.539 -54.066 c 232.285
 -56.391 230.105 -58.332 227.746 -60.547 c 226.082 -62.176 224.699 -63.77
 222.895 -65.262 c 219.949 -67.723 217.004 -69.523 213.852 -71.672 c 211.184
 -73.508 208.828 -75.172 206.09 -76.871 c 202.691 -78.949 196.074 -82.52
 196.074 -82.52 c S Q
1 g
264.191 21.863 m 264.191 21.078 263.555 20.441 262.77 20.441 c 261.984 
20.441 261.348 21.078 261.348 21.863 c 261.348 22.648 261.984 23.285 262.77
 23.285 c 263.555 23.285 264.191 22.648 264.191 21.863 c f
0 g
264.191 21.863 m 264.191 21.078 263.555 20.441 262.77 20.441 c 261.984 
20.441 261.348 21.078 261.348 21.863 c 261.348 22.648 261.984 23.285 262.77
 23.285 c 263.555 23.285 264.191 22.648 264.191 21.863 c h
264.191 21.863 m 264.047 21.863 l 264.047 21.156 263.477 20.586 262.77 
20.586 c 262.062 20.586 261.492 21.156 261.492 21.863 c 261.492 22.57 262.062
 23.141 262.77 23.141 c 263.477 23.141 264.047 22.57 264.047 21.863 c f
221.023 18.754 m 222.898 18.754 l 222.898 18.629 l 222.398 18.613 222.305
 18.535 222.305 18.082 c 222.305 13.332 l 222.273 13.316 l 221.867 13.441
 221.57 13.52 221.008 13.66 c 221.008 13.785 l 221.055 13.785 l 221.133 
13.785 221.227 13.77 221.305 13.77 c 221.555 13.77 221.633 13.879 221.633
 14.254 c 221.633 18.066 l 221.617 18.488 221.508 18.598 221.023 18.629 
c h
221.023 18.754 m f
223.137 18.754 m 225.027 18.754 l 225.027 18.629 l 224.496 18.598 224.449
 18.52 224.434 17.941 c 224.434 15.113 l 224.402 15.082 l 223.168 15.52 
l 223.168 15.645 l 223.23 15.645 l 223.324 15.629 223.434 15.613 223.512
 15.613 c 223.699 15.613 223.762 15.738 223.762 16.098 c 223.762 17.941 
l 223.746 18.535 223.684 18.613 223.137 18.629 c h
224.027 13.316 m 223.824 13.316 223.637 13.488 223.637 13.723 c 223.637
 13.941 223.809 14.129 224.027 14.129 c 224.277 14.129 224.449 13.941 224.449
 13.723 c 224.449 13.488 224.262 13.316 224.027 13.316 c h
224.027 13.316 m f
228.047 15.363 m 227.688 15.16 227.438 15.082 227.125 15.082 c 226.125 
15.082 225.359 15.973 225.359 17.129 c 225.359 18.129 225.891 18.832 226.641
 18.832 c 227.094 18.832 227.531 18.629 227.891 18.238 c 227.891 19.738 
l 227.875 20.191 227.734 20.316 227.188 20.348 c 227.188 20.488 l 229.062
 20.488 l 229.062 20.379 l 228.625 20.27 228.578 20.223 228.562 19.879 c
 228.562 15.113 l 228.469 15.113 l h
227.891 17.738 m 227.891 17.926 227.859 18.035 227.781 18.113 c 227.609
 18.254 227.344 18.348 227.094 18.348 c 226.844 18.348 226.625 18.27 226.469
 18.113 c 226.219 17.879 226.047 17.363 226.047 16.832 c 226.047 15.895 
226.469 15.316 227.141 15.316 c 227.641 15.316 227.891 15.582 227.891 16.098
 c h
227.891 17.738 m f
232.945 18.363 m 232.914 18.363 l 232.523 18.332 232.461 18.27 232.461 
17.895 c 232.461 15.176 l 231.195 15.176 l 231.195 15.301 l 231.695 15.332
 231.789 15.41 231.789 15.801 c 231.789 17.676 l 231.789 17.895 231.742 
18.02 231.633 18.098 c 231.414 18.27 231.18 18.379 230.93 18.379 c 230.617
 18.379 230.367 18.098 230.367 17.77 c 230.367 15.176 l 229.211 15.176 l
 229.211 15.285 l 229.586 15.301 229.695 15.41 229.695 15.785 c 229.695 
17.801 l 229.695 18.426 230.086 18.832 230.664 18.832 c 230.961 18.832 231.273
 18.707 231.477 18.488 c 231.82 18.145 l 231.82 18.816 l 231.852 18.832 
l 232.258 18.66 232.539 18.582 232.945 18.473 c h
232.945 18.363 m f
233.219 18.754 m 235.109 18.754 l 235.109 18.629 l 234.578 18.598 234.531
 18.52 234.516 17.941 c 234.516 15.113 l 234.484 15.082 l 233.25 15.52 l
 233.25 15.645 l 233.312 15.645 l 233.406 15.629 233.516 15.613 233.594 
15.613 c 233.781 15.613 233.844 15.738 233.844 16.098 c 233.844 17.941 l
 233.828 18.535 233.766 18.613 233.219 18.629 c h
234.109 13.316 m 233.906 13.316 233.719 13.488 233.719 13.723 c 233.719
 13.941 233.891 14.129 234.109 14.129 c 234.359 14.129 234.531 13.941 234.531
 13.723 c 234.531 13.488 234.344 13.316 234.109 13.316 c h
234.109 13.316 m f
239.16 18.285 m 239.066 18.301 239.02 18.301 238.988 18.301 c 238.707 18.301
 238.629 18.207 238.629 17.848 c 238.629 13.332 l 238.598 13.316 l 238.223
 13.441 237.941 13.52 237.426 13.66 c 237.426 13.785 l 237.488 13.785 237.52
 13.785 237.598 13.785 c 237.895 13.785 237.957 13.863 237.957 14.191 c 
237.957 15.426 l 237.66 15.176 237.441 15.082 237.129 15.082 c 236.207 15.082
 235.473 15.988 235.473 17.113 c 235.473 18.145 236.066 18.832 236.941 18.832
 c 237.395 18.832 237.691 18.676 237.957 18.301 c 237.957 18.816 l 237.988
 18.832 l 239.16 18.426 l h
237.957 17.941 m 237.957 18.004 237.91 18.098 237.832 18.176 c 237.691 
18.332 237.488 18.426 237.254 18.426 c 236.582 18.426 236.16 17.785 236.16
 16.801 c 236.16 15.895 236.551 15.316 237.145 15.316 c 237.582 15.316 237.957
 15.691 237.957 16.113 c h
237.957 17.941 m f
251.238 90.109 m 251.238 89.797 l 250.613 89.797 l 250.457 89.797 250.348
 89.781 250.176 89.719 c 250.004 89.656 l 249.801 89.578 249.582 89.531 
249.363 89.531 c 248.629 89.531 248.035 90.109 248.035 90.844 c 248.035 
91.344 248.238 91.641 248.785 91.906 c 248.566 92.094 l 248.41 92.25 248.316
 92.344 248.285 92.375 c 248.113 92.547 248.066 92.641 248.066 92.766 c 
248.066 92.953 248.16 93.031 248.488 93.188 c 247.926 93.609 247.707 93.875
 247.707 94.172 c 247.707 94.594 248.332 94.938 249.098 94.938 c 249.691
 94.938 250.316 94.734 250.723 94.391 c 251.02 94.156 251.16 93.891 251.16
 93.594 c 251.16 93.094 250.785 92.766 250.191 92.734 c 249.176 92.688 l
 248.738 92.672 248.551 92.609 248.551 92.484 c 248.551 92.312 248.816 92.047
 249.02 91.969 c 249.316 92 249.457 92.016 249.473 92.016 c 249.77 92.016
 250.098 91.891 250.348 91.688 c 250.598 91.453 250.723 91.172 250.723 90.781
 c 250.723 90.547 250.691 90.359 250.566 90.109 c h
248.66 93.219 m 248.926 93.281 249.551 93.328 249.957 93.328 c 250.676 
93.328 250.941 93.422 250.941 93.719 c 250.941 94.172 250.332 94.484 249.426
 94.484 c 248.723 94.484 248.27 94.25 248.27 93.906 c 248.27 93.719 248.348
 93.594 248.66 93.219 c h
248.707 90.516 m 248.707 90.047 248.926 89.766 249.285 89.766 c 249.535
 89.766 249.738 89.891 249.863 90.141 c 250.02 90.422 250.113 90.766 250.113
 91.094 c 250.113 91.531 249.895 91.812 249.52 91.812 c 249.02 91.812 248.707
 91.297 248.707 90.531 c h
248.707 90.516 m f
254.965 92.672 m 254.84 92.781 254.746 92.828 254.621 92.828 c 254.434 
92.828 254.387 92.719 254.387 92.359 c 254.387 90.812 l 254.387 90.391 254.34
 90.172 254.215 89.969 c 254.043 89.688 253.699 89.531 253.23 89.531 c 252.48
 89.531 251.902 89.922 251.902 90.438 c 251.902 90.609 252.043 90.766 252.23
 90.766 c 252.434 90.766 252.59 90.609 252.59 90.438 c 252.59 90.406 252.59
 90.359 252.574 90.312 c 252.559 90.234 252.559 90.172 252.559 90.125 c 
252.559 89.906 252.809 89.734 253.137 89.734 c 253.527 89.734 253.73 89.953
 253.73 90.391 c 253.73 90.875 l 252.512 91.359 252.371 91.438 252.027 91.734
 c 251.855 91.891 251.746 92.172 251.746 92.438 c 251.746 92.938 252.09 
93.281 252.574 93.281 c 252.934 93.281 253.262 93.109 253.746 92.703 c 253.777
 93.125 253.934 93.281 254.262 93.281 c 254.527 93.281 254.699 93.188 254.965
 92.891 c h
253.73 92.219 m 253.73 92.469 253.699 92.547 253.527 92.641 c 253.324 92.75
 253.121 92.828 252.949 92.828 c 252.668 92.828 252.449 92.547 252.449 92.203
 c 252.449 92.172 l 252.449 91.703 252.809 91.391 253.73 91.062 c h
253.73 92.219 m f
257.445 90.703 m 257.414 89.609 l 257.32 89.609 l 257.273 89.672 257.242
 89.703 257.195 89.703 c 257.148 89.703 257.07 89.688 256.977 89.641 c 256.789
 89.578 256.617 89.531 256.414 89.531 c 255.789 89.531 255.336 89.953 255.336
 90.531 c 255.336 90.969 255.586 91.297 256.273 91.672 c 256.727 91.938 
l 257.008 92.094 257.148 92.281 257.148 92.531 c 257.148 92.891 256.883 
93.109 256.477 93.109 c 255.93 93.109 255.648 92.812 255.477 91.984 c 255.352
 91.984 l 255.352 93.234 l 255.445 93.234 l 255.508 93.156 255.539 93.141
 255.633 93.141 c 255.711 93.141 255.82 93.156 255.992 93.203 c 256.211 
93.25 256.414 93.281 256.586 93.281 c 257.195 93.281 257.695 92.828 257.695
 92.266 c 257.695 91.859 257.508 91.594 257.039 91.312 c 256.18 90.797 l
 255.945 90.672 255.836 90.484 255.836 90.266 c 255.836 89.938 256.07 89.719
 256.445 89.719 c 256.898 89.719 257.133 89.984 257.32 90.703 c h
257.445 90.703 m f
212.207 48.52 m 214.082 48.52 l 214.082 48.395 l 213.582 48.379 213.488
 48.301 213.488 47.848 c 213.488 43.098 l 213.457 43.082 l 213.051 43.207
 212.754 43.285 212.191 43.426 c 212.191 43.551 l 212.238 43.551 l 212.316
 43.551 212.41 43.535 212.488 43.535 c 212.738 43.535 212.816 43.645 212.816
 44.02 c 212.816 47.832 l 212.801 48.254 212.691 48.363 212.207 48.395 c
 h
212.207 48.52 m f
217.617 46.238 m 215.867 46.238 l 215.867 46.77 l 217.617 46.77 l 217.617
 48.52 l 218.148 48.52 l 218.148 46.77 l 219.883 46.77 l 219.883 46.238 
l 218.148 46.238 l 218.148 44.488 l 217.617 44.488 l h
217.617 46.238 m f
225.262 45.426 m 225.262 45.113 l 224.637 45.113 l 224.48 45.113 224.371
 45.098 224.199 45.035 c 224.027 44.973 l 223.824 44.895 223.605 44.848 
223.387 44.848 c 222.652 44.848 222.059 45.426 222.059 46.16 c 222.059 46.66
 222.262 46.957 222.809 47.223 c 222.59 47.41 l 222.434 47.566 222.34 47.66
 222.309 47.691 c 222.137 47.863 222.09 47.957 222.09 48.082 c 222.09 48.27
 222.184 48.348 222.512 48.504 c 221.949 48.926 221.73 49.191 221.73 49.488
 c 221.73 49.91 222.355 50.254 223.121 50.254 c 223.715 50.254 224.34 50.051
 224.746 49.707 c 225.043 49.473 225.184 49.207 225.184 48.91 c 225.184 
48.41 224.809 48.082 224.215 48.051 c 223.199 48.004 l 222.762 47.988 222.574
 47.926 222.574 47.801 c 222.574 47.629 222.84 47.363 223.043 47.285 c 223.34
 47.316 223.48 47.332 223.496 47.332 c 223.793 47.332 224.121 47.207 224.371
 47.004 c 224.621 46.77 224.746 46.488 224.746 46.098 c 224.746 45.863 224.715
 45.676 224.59 45.426 c h
222.684 48.535 m 222.949 48.598 223.574 48.645 223.98 48.645 c 224.699 
48.645 224.965 48.738 224.965 49.035 c 224.965 49.488 224.355 49.801 223.449
 49.801 c 222.746 49.801 222.293 49.566 222.293 49.223 c 222.293 49.035 
222.371 48.91 222.684 48.535 c h
222.73 45.832 m 222.73 45.363 222.949 45.082 223.309 45.082 c 223.559 45.082
 223.762 45.207 223.887 45.457 c 224.043 45.738 224.137 46.082 224.137 46.41
 c 224.137 46.848 223.918 47.129 223.543 47.129 c 223.043 47.129 222.73 
46.613 222.73 45.848 c h
222.73 45.832 m f
274.348 45.66 m 274.348 45.348 l 273.723 45.348 l 273.566 45.348 273.457
 45.332 273.285 45.27 c 273.113 45.207 l 272.91 45.129 272.691 45.082 272.473
 45.082 c 271.738 45.082 271.145 45.66 271.145 46.395 c 271.145 46.895 271.348
 47.191 271.895 47.457 c 271.676 47.645 l 271.52 47.801 271.426 47.895 271.395
 47.926 c 271.223 48.098 271.176 48.191 271.176 48.316 c 271.176 48.504 
271.27 48.582 271.598 48.738 c 271.035 49.16 270.816 49.426 270.816 49.723
 c 270.816 50.145 271.441 50.488 272.207 50.488 c 272.801 50.488 273.426
 50.285 273.832 49.941 c 274.129 49.707 274.27 49.441 274.27 49.145 c 274.27
 48.645 273.895 48.316 273.301 48.285 c 272.285 48.238 l 271.848 48.223 
271.66 48.16 271.66 48.035 c 271.66 47.863 271.926 47.598 272.129 47.52 
c 272.426 47.551 272.566 47.566 272.582 47.566 c 272.879 47.566 273.207 
47.441 273.457 47.238 c 273.707 47.004 273.832 46.723 273.832 46.332 c 273.832
 46.098 273.801 45.91 273.676 45.66 c h
271.77 48.77 m 272.035 48.832 272.66 48.879 273.066 48.879 c 273.785 48.879
 274.051 48.973 274.051 49.27 c 274.051 49.723 273.441 50.035 272.535 50.035
 c 271.832 50.035 271.379 49.801 271.379 49.457 c 271.379 49.27 271.457 
49.145 271.77 48.77 c h
271.816 46.066 m 271.816 45.598 272.035 45.316 272.395 45.316 c 272.645
 45.316 272.848 45.441 272.973 45.691 c 273.129 45.973 273.223 46.316 273.223
 46.645 c 273.223 47.082 273.004 47.363 272.629 47.363 c 272.129 47.363 
271.816 46.848 271.816 46.082 c h
271.816 46.066 m f
277.859 46.473 m 276.109 46.473 l 276.109 47.004 l 277.859 47.004 l 277.859
 48.754 l 278.391 48.754 l 278.391 47.004 l 280.125 47.004 l 280.125 46.473
 l 278.391 46.473 l 278.391 44.723 l 277.859 44.723 l h
277.859 46.473 m f
281.93 48.754 m 283.805 48.754 l 283.805 48.629 l 283.305 48.613 283.211
 48.535 283.211 48.082 c 283.211 43.332 l 283.18 43.316 l 282.773 43.441
 282.477 43.52 281.914 43.66 c 281.914 43.785 l 281.961 43.785 l 282.039
 43.785 282.133 43.77 282.211 43.77 c 282.461 43.77 282.539 43.879 282.539
 44.254 c 282.539 48.066 l 282.523 48.488 282.414 48.598 281.93 48.629 c
 h
281.93 48.754 m f
291.145 37.469 m 292.457 34.703 l 289.691 36.016 l 291.211 35.91 l f
0.283298 w
q 1 0 0 -1 0 0 cm
284.508 -42.629 m 291.215 -35.926 l S Q
0.567043 w
q 1 0 0 -1 0 0 cm
196.062 -2.949 113.379 -138.898 re S Q
0.398508 w
q 1 0 0 -1 0 0 cm
196.09 -141.848 m 196.09 -137.605 l S Q
q 1 0 0 -1 0 0 cm
218.766 -141.848 m 218.766 -137.605 l S Q
q 1 0 0 -1 0 0 cm
241.438 -141.848 m 241.438 -137.605 l S Q
q 1 0 0 -1 0 0 cm
264.109 -141.848 m 264.109 -137.605 l S Q
q 1 0 0 -1 0 0 cm
286.785 -141.848 m 286.785 -137.605 l S Q
q 1 0 0 -1 0 0 cm
309.457 -141.848 m 309.457 -137.605 l S Q
q 1 0 0 -1 0 0 cm
196.09 -141.848 m 196.09 -137.605 l S Q
0.398506 w
q 1 0 0 -1 0 0 cm
196.07 -141.859 m 200.309 -141.859 l S Q
0.398508 w
q 1 0 0 -1 0 0 cm
196.074 -122.004 m 200.332 -122.004 l S Q
0.398505 w
q 1 0 0 -1 0 0 cm
196.066 -102.168 m 200.336 -102.168 l S Q
0.398506 w
q 1 0 0 -1 0 0 cm
196.074 -82.312 m 200.324 -82.312 l S Q
0.398507 w
q 1 0 0 -1 0 0 cm
196.066 -62.477 m 200.332 -62.477 l S Q
0.398505 w
q 1 0 0 -1 0 0 cm
196.066 -42.641 m 200.312 -42.641 l S Q
0.398508 w
q 1 0 0 -1 0 0 cm
196.086 -22.785 m 200.312 -22.785 l S Q
0.398506 w
q 1 0 0 -1 0 0 cm
196.062 -2.949 m 200.305 -2.949 l S Q
q 1 0 0 -1 0 0 cm
196.07 -141.859 m 200.309 -141.859 l S Q
q 1 0 0 -1 0 0 cm
196.062 -2.949 m 196.062 -7.191 l S Q
q 1 0 0 -1 0 0 cm
218.73 -2.949 m 218.73 -7.191 l S Q
q 1 0 0 -1 0 0 cm
241.434 -2.949 m 241.434 -7.191 l S Q
q 1 0 0 -1 0 0 cm
264.105 -2.949 m 264.105 -7.191 l S Q
q 1 0 0 -1 0 0 cm
286.773 -2.949 m 286.773 -7.191 l S Q
q 1 0 0 -1 0 0 cm
309.441 -2.949 m 309.441 -7.191 l S Q
q 1 0 0 -1 0 0 cm
196.062 -2.949 m 196.062 -7.191 l S Q
q 1 0 0 -1 0 0 cm
309.453 -141.859 m 305.215 -141.859 l S Q
0.398508 w
q 1 0 0 -1 0 0 cm
309.457 -122.004 m 305.203 -122.004 l S Q
0.398505 w
q 1 0 0 -1 0 0 cm
309.477 -102.168 m 305.207 -102.168 l S Q
0.398506 w
q 1 0 0 -1 0 0 cm
309.477 -82.312 m 305.227 -82.312 l S Q
0.398507 w
q 1 0 0 -1 0 0 cm
309.461 -62.477 m 305.195 -62.477 l S Q
0.398505 w
q 1 0 0 -1 0 0 cm
309.445 -42.641 m 305.199 -42.641 l S Q
0.398508 w
q 1 0 0 -1 0 0 cm
309.449 -22.785 m 305.223 -22.785 l S Q
0.398506 w
q 1 0 0 -1 0 0 cm
309.441 -2.949 m 305.199 -2.949 l S Q
q 1 0 0 -1 0 0 cm
309.453 -141.859 m 305.215 -141.859 l S Q
198.031 148.383 m 198.031 146.773 197.297 145.32 196.047 145.32 c 194.781
 145.32 194.047 146.773 194.047 148.383 c 194.047 150.008 194.734 151.445
 196.047 151.445 c 197.25 151.445 198.031 150.008 198.031 148.383 c h
197.172 148.383 m 197.172 149.68 197.047 151.195 196.047 151.195 c 195.094
 151.195 194.906 149.68 194.906 148.383 c 194.906 147.305 195.031 145.555
 196.047 145.555 c 197.047 145.555 197.172 147.305 197.172 148.383 c h
197.172 148.383 m f
217.352 148.383 m 217.352 146.773 216.617 145.32 215.367 145.32 c 214.102
 145.32 213.367 146.773 213.367 148.383 c 213.367 150.008 214.055 151.445
 215.367 151.445 c 216.57 151.445 217.352 150.008 217.352 148.383 c h
216.492 148.383 m 216.492 149.68 216.367 151.195 215.367 151.195 c 214.414
 151.195 214.227 149.68 214.227 148.383 c 214.227 147.305 214.352 145.555
 215.367 145.555 c 216.367 145.555 216.492 147.305 216.492 148.383 c h
216.492 148.383 m f
219.277 150.961 m 219.277 150.68 219.059 150.461 218.777 150.461 c 218.496
 150.461 218.277 150.68 218.277 150.961 c 218.277 151.242 218.496 151.461
 218.777 151.461 c 219.059 151.461 219.277 151.242 219.277 150.961 c h
219.277 150.961 m f
224.223 150.18 m 224.066 150.148 l 223.801 150.602 223.582 150.68 223.145
 150.68 c 221.082 150.68 l 222.504 149.383 223.801 148.211 223.801 146.898
 c 223.801 145.977 223.004 145.32 222.129 145.32 c 221.27 145.32 220.582
 145.789 220.316 147.008 c 220.52 147.008 l 220.77 146.508 221.113 145.992
 221.801 145.992 c 222.582 145.992 223.02 146.586 223.02 147.258 c 223.02
 148.227 221.988 149.648 220.223 151.195 c 220.223 151.336 l 223.754 151.336
 l h
224.223 150.18 m f
240.031 148.383 m 240.031 146.773 239.297 145.32 238.047 145.32 c 236.781
 145.32 236.047 146.773 236.047 148.383 c 236.047 150.008 236.734 151.445
 238.047 151.445 c 239.25 151.445 240.031 150.008 240.031 148.383 c h
239.172 148.383 m 239.172 149.68 239.047 151.195 238.047 151.195 c 237.094
 151.195 236.906 149.68 236.906 148.383 c 236.906 147.305 237.031 145.555
 238.047 145.555 c 239.047 145.555 239.172 147.305 239.172 148.383 c h
239.172 148.383 m f
241.957 150.961 m 241.957 150.68 241.738 150.461 241.457 150.461 c 241.176
 150.461 240.957 150.68 240.957 150.961 c 240.957 151.242 241.176 151.461
 241.457 151.461 c 241.738 151.461 241.957 151.242 241.957 150.961 c h
241.957 150.961 m f
246.887 149.852 m 246.887 149.242 l 246.012 149.242 l 246.012 145.32 l 
245.574 145.32 l 242.98 149.227 l 242.98 149.852 l 245.277 149.852 l 245.277
 151.336 l 246.012 151.336 l 246.012 149.852 l h
245.277 149.242 m 243.34 149.242 l 245.262 146.258 l 245.277 146.258 l 
h
245.277 149.242 m f
262.711 148.383 m 262.711 146.773 261.977 145.32 260.727 145.32 c 259.461
 145.32 258.727 146.773 258.727 148.383 c 258.727 150.008 259.414 151.445
 260.727 151.445 c 261.93 151.445 262.711 150.008 262.711 148.383 c h
261.852 148.383 m 261.852 149.68 261.727 151.195 260.727 151.195 c 259.773
 151.195 259.586 149.68 259.586 148.383 c 259.586 147.305 259.711 145.555
 260.727 145.555 c 261.727 145.555 261.852 147.305 261.852 148.383 c h
261.852 148.383 m f
264.637 150.961 m 264.637 150.68 264.418 150.461 264.137 150.461 c 263.855
 150.461 263.637 150.68 263.637 150.961 c 263.637 151.242 263.855 151.461
 264.137 151.461 c 264.418 151.461 264.637 151.242 264.637 150.961 c h
264.637 150.961 m f
269.504 149.32 m 269.504 148.336 268.801 147.602 267.91 147.602 c 267.457
 147.602 267.082 147.742 266.691 148.055 c 267.082 146.461 268.254 145.461
 269.379 145.445 c 269.379 145.289 l 266.613 145.289 265.738 147.633 265.738
 148.961 c 265.738 150.383 266.566 151.445 267.676 151.445 c 268.691 151.445
 269.504 150.492 269.504 149.32 c h
268.738 149.773 m 268.738 150.602 268.363 151.18 267.77 151.18 c 266.848
 151.18 266.566 149.836 266.566 149.117 c 266.566 148.883 266.598 148.633
 266.645 148.336 c 267.035 148.086 267.348 147.977 267.66 147.977 c 268.566
 147.977 268.738 149.023 268.738 149.773 c h
268.738 149.773 m f
285.391 148.383 m 285.391 146.773 284.656 145.32 283.406 145.32 c 282.141
 145.32 281.406 146.773 281.406 148.383 c 281.406 150.008 282.094 151.445
 283.406 151.445 c 284.609 151.445 285.391 150.008 285.391 148.383 c h
284.531 148.383 m 284.531 149.68 284.406 151.195 283.406 151.195 c 282.453
 151.195 282.266 149.68 282.266 148.383 c 282.266 147.305 282.391 145.555
 283.406 145.555 c 284.406 145.555 284.531 147.305 284.531 148.383 c h
284.531 148.383 m f
287.316 150.961 m 287.316 150.68 287.098 150.461 286.816 150.461 c 286.535
 150.461 286.316 150.68 286.316 150.961 c 286.316 151.242 286.535 151.461
 286.816 151.461 c 287.098 151.461 287.316 151.242 287.316 150.961 c h
287.316 150.961 m f
291.965 149.961 m 291.965 149.32 291.684 148.836 290.59 148.023 c 291.277
 147.648 291.809 147.227 291.809 146.57 c 291.809 145.883 291.168 145.289
 290.215 145.289 c 289.371 145.289 288.574 145.836 288.574 146.68 c 288.574
 147.336 288.918 147.727 289.684 148.336 c 288.824 148.992 288.512 149.32
 288.512 149.992 c 288.512 150.742 289.184 151.445 290.23 151.445 c 291.449
 151.445 291.965 150.617 291.965 149.961 c h
291.199 146.555 m 291.199 147.195 290.824 147.539 290.34 147.867 c 289.746
 147.445 289.23 146.977 289.23 146.461 c 289.23 145.977 289.574 145.555 
290.184 145.555 c 290.855 145.555 291.199 145.977 291.199 146.555 c h
291.324 150.211 m 291.324 150.789 290.887 151.18 290.309 151.18 c 289.621
 151.18 289.184 150.633 289.184 149.898 c 289.184 149.227 289.512 148.836
 289.918 148.492 c 290.902 149.242 291.324 149.617 291.324 150.211 c h
291.324 150.211 m f
307.32 151.336 m 307.32 151.195 l 306.727 151.195 306.508 151.211 306.508
 150.039 c 306.508 150.023 306.508 145.289 306.508 145.289 c 306.383 145.289
 l 304.852 146.023 l 304.898 146.164 l 305.227 146.023 305.305 145.992 305.43
 145.992 c 305.695 145.992 305.742 146.227 305.742 146.539 c 305.742 150.039
 l 305.742 151.211 305.523 151.18 304.93 151.195 c 304.93 151.336 l h
307.32 151.336 m f
309.996 150.961 m 309.996 150.68 309.777 150.461 309.496 150.461 c 309.215
 150.461 308.996 150.68 308.996 150.961 c 308.996 151.242 309.215 151.461
 309.496 151.461 c 309.777 151.461 309.996 151.242 309.996 150.961 c h
309.996 150.961 m f
314.91 148.383 m 314.91 146.773 314.176 145.32 312.926 145.32 c 311.66 
145.32 310.926 146.773 310.926 148.383 c 310.926 150.008 311.613 151.445
 312.926 151.445 c 314.129 151.445 314.91 150.008 314.91 148.383 c h
314.051 148.383 m 314.051 149.68 313.926 151.195 312.926 151.195 c 311.973
 151.195 311.785 149.68 311.785 148.383 c 311.785 147.305 311.91 145.555
 312.926 145.555 c 313.926 145.555 314.051 147.305 314.051 148.383 c h
314.051 148.383 m f
192.391 142.023 m 192.391 140.414 191.656 138.961 190.406 138.961 c 189.141
 138.961 188.406 140.414 188.406 142.023 c 188.406 143.648 189.094 145.086
 190.406 145.086 c 191.609 145.086 192.391 143.648 192.391 142.023 c h
191.531 142.023 m 191.531 143.32 191.406 144.836 190.406 144.836 c 189.453
 144.836 189.266 143.32 189.266 142.023 c 189.266 140.945 189.391 139.195
 190.406 139.195 c 191.406 139.195 191.531 140.945 191.531 142.023 c h
191.531 142.023 m f
187.203 125.055 m 187.203 124.914 l 186.609 124.914 186.391 124.93 186.391
 123.758 c 186.391 123.742 186.391 119.008 186.391 119.008 c 186.266 119.008
 l 184.734 119.742 l 184.781 119.883 l 185.109 119.742 185.188 119.711 185.312
 119.711 c 185.578 119.711 185.625 119.945 185.625 120.258 c 185.625 123.758
 l 185.625 124.93 185.406 124.898 184.812 124.914 c 184.812 125.055 l h
187.203 125.055 m f
192.391 122.102 m 192.391 120.492 191.656 119.039 190.406 119.039 c 189.141
 119.039 188.406 120.492 188.406 122.102 c 188.406 123.727 189.094 125.164
 190.406 125.164 c 191.609 125.164 192.391 123.727 192.391 122.102 c h
191.531 122.102 m 191.531 123.398 191.406 124.914 190.406 124.914 c 189.453
 124.914 189.266 123.398 189.266 122.102 c 189.266 121.023 189.391 119.273
 190.406 119.273 c 191.406 119.273 191.531 121.023 191.531 122.102 c h
191.531 122.102 m f
187.984 104.098 m 187.828 104.066 l 187.562 104.52 187.344 104.598 186.906
 104.598 c 184.844 104.598 l 186.266 103.301 187.562 102.129 187.562 100.816
 c 187.562 99.895 186.766 99.238 185.891 99.238 c 185.031 99.238 184.344
 99.707 184.078 100.926 c 184.281 100.926 l 184.531 100.426 184.875 99.91
 185.562 99.91 c 186.344 99.91 186.781 100.504 186.781 101.176 c 186.781
 102.145 185.75 103.566 183.984 105.113 c 183.984 105.254 l 187.516 105.254
 l h
187.984 104.098 m f
192.391 102.301 m 192.391 100.691 191.656 99.238 190.406 99.238 c 189.141
 99.238 188.406 100.691 188.406 102.301 c 188.406 103.926 189.094 105.363
 190.406 105.363 c 191.609 105.363 192.391 103.926 192.391 102.301 c h
191.531 102.301 m 191.531 103.598 191.406 105.113 190.406 105.113 c 189.453
 105.113 189.266 103.598 189.266 102.301 c 189.266 101.223 189.391 99.473
 190.406 99.473 c 191.406 99.473 191.531 101.223 191.531 102.301 c h
191.531 102.301 m f
187.609 83.516 m 187.609 82.578 187.062 82.172 186.531 81.953 c 187.109
 81.516 187.297 81.109 187.297 80.625 c 187.297 80.109 186.875 79.438 185.906
 79.438 c 185.203 79.438 184.531 79.828 184.234 80.797 c 184.375 80.828 
l 184.562 80.469 184.922 80.016 185.578 80.016 c 186.219 80.016 186.594 
80.453 186.594 80.953 c 186.594 81.656 186.047 82.156 185.234 82.344 c 185.219
 82.531 l 186.609 82.469 186.953 83.375 186.953 83.938 c 186.953 84.609 
186.469 85.219 185.828 85.219 c 185.25 85.219 185 84.719 184.516 84.719 
c 184.359 84.719 184.172 84.875 184.172 85.078 c 184.172 85.453 184.734 
85.562 185.141 85.562 c 186.562 85.562 187.609 84.75 187.609 83.516 c h
187.609 83.516 m f
192.391 82.5 m 192.391 80.891 191.656 79.438 190.406 79.438 c 189.141 79.438
 188.406 80.891 188.406 82.5 c 188.406 84.125 189.094 85.562 190.406 85.562
 c 191.609 85.562 192.391 84.125 192.391 82.5 c h
191.531 82.5 m 191.531 83.797 191.406 85.312 190.406 85.312 c 189.453 85.312
 189.266 83.797 189.266 82.5 c 189.266 81.422 189.391 79.672 190.406 79.672
 c 191.406 79.672 191.531 81.422 191.531 82.5 c h
191.531 82.5 m f
187.969 64.051 m 187.969 63.441 l 187.094 63.441 l 187.094 59.52 l 186.656
 59.52 l 184.062 63.426 l 184.062 64.051 l 186.359 64.051 l 186.359 65.535
 l 187.094 65.535 l 187.094 64.051 l h
186.359 63.441 m 184.422 63.441 l 186.344 60.457 l 186.359 60.457 l h
186.359 63.441 m f
192.391 62.582 m 192.391 60.973 191.656 59.52 190.406 59.52 c 189.141 59.52
 188.406 60.973 188.406 62.582 c 188.406 64.207 189.094 65.645 190.406 65.645
 c 191.609 65.645 192.391 64.207 192.391 62.582 c h
191.531 62.582 m 191.531 63.879 191.406 65.395 190.406 65.395 c 189.453
 65.395 189.266 63.879 189.266 62.582 c 189.266 61.504 189.391 59.754 190.406
 59.754 c 191.406 59.754 191.531 61.504 191.531 62.582 c h
191.531 62.582 m f
187.891 39.812 m 185.422 39.812 l 184.312 42.359 l 184.453 42.328 184.594
 42.297 184.766 42.297 c 185.719 42.297 187.016 42.797 187.016 43.969 c 
187.016 44.875 186.359 45.453 185.734 45.453 c 185.188 45.453 184.984 44.953
 184.469 44.953 c 184.219 44.953 184.141 45.172 184.141 45.281 c 184.141
 45.594 184.578 45.844 185.203 45.844 c 186.547 45.844 187.609 44.859 187.609
 43.656 c 187.609 42.234 186.484 41.75 185.266 41.719 c 185.156 41.719 185.031
 41.734 184.922 41.75 c 185.484 40.484 l 187.578 40.469 l h
187.891 39.812 m f
192.391 42.781 m 192.391 41.172 191.656 39.719 190.406 39.719 c 189.141
 39.719 188.406 41.172 188.406 42.781 c 188.406 44.406 189.094 45.844 190.406
 45.844 c 191.609 45.844 192.391 44.406 192.391 42.781 c h
191.531 42.781 m 191.531 44.078 191.406 45.594 190.406 45.594 c 189.453
 45.594 189.266 44.078 189.266 42.781 c 189.266 41.703 189.391 39.953 190.406
 39.953 c 191.406 39.953 191.531 41.703 191.531 42.781 c h
191.531 42.781 m f
187.906 23.801 m 187.906 22.816 187.203 22.082 186.312 22.082 c 185.859
 22.082 185.484 22.223 185.094 22.535 c 185.484 20.941 186.656 19.941 187.781
 19.926 c 187.781 19.77 l 185.016 19.77 184.141 22.113 184.141 23.441 c 
184.141 24.863 184.969 25.926 186.078 25.926 c 187.094 25.926 187.906 24.973
 187.906 23.801 c h
187.141 24.254 m 187.141 25.082 186.766 25.66 186.172 25.66 c 185.25 25.66
 184.969 24.316 184.969 23.598 c 184.969 23.363 185 23.113 185.047 22.816
 c 185.438 22.566 185.75 22.457 186.062 22.457 c 186.969 22.457 187.141 
23.504 187.141 24.254 c h
187.141 24.254 m f
192.391 22.863 m 192.391 21.254 191.656 19.801 190.406 19.801 c 189.141
 19.801 188.406 21.254 188.406 22.863 c 188.406 24.488 189.094 25.926 190.406
 25.926 c 191.609 25.926 192.391 24.488 192.391 22.863 c h
191.531 22.863 m 191.531 24.16 191.406 25.676 190.406 25.676 c 189.453 
25.676 189.266 24.16 189.266 22.863 c 189.266 21.785 189.391 20.035 190.406
 20.035 c 191.406 20.035 191.531 21.785 191.531 22.863 c h
191.531 22.863 m f
187.828 0.094 m 184.547 0.094 l 184 1.422 l 184.156 1.422 l 184.469 0.938
 184.703 0.766 185.219 0.766 c 187.109 0.766 l 185.312 6.125 l 185.859 6.125
 l h
187.828 0.094 m f
192.391 3.062 m 192.391 1.453 191.656 0 190.406 0 c 189.141 0 188.406 1.453
 188.406 3.062 c 188.406 4.688 189.094 6.125 190.406 6.125 c 191.609 6.125
 192.391 4.688 192.391 3.062 c h
191.531 3.062 m 191.531 4.359 191.406 5.875 190.406 5.875 c 189.453 5.875
 189.266 4.359 189.266 3.062 c 189.266 1.984 189.391 0.234 190.406 0.234
 c 191.406 0.234 191.531 1.984 191.531 3.062 c h
191.531 3.062 m f
251.984 156.961 m 249.188 156.961 l 248.797 158.117 l 248.984 158.117 l
 249.203 157.57 249.422 157.555 249.75 157.555 c 251.203 157.555 l 248.109
 161.055 l 250.953 161.055 l 251.344 159.867 l 251.172 159.867 l 250.969
 160.477 250.625 160.477 250.297 160.477 c 248.875 160.477 l h
251.984 156.961 m f
257.094 163.211 m 256.781 163.18 256.703 163.117 256.469 162.602 c 254.734
 158.633 l 254.594 158.633 l 253.141 162.055 l 252.688 163.07 252.609 163.195
 252.281 163.211 c 252.281 163.336 l 253.656 163.336 l 253.656 163.211 l
 253.328 163.211 253.188 163.117 253.188 162.914 c 253.188 162.836 253.203
 162.742 253.234 162.648 c 253.562 161.836 l 255.391 161.836 l 255.672 162.492
 l 255.75 162.695 255.797 162.867 255.797 162.961 c 255.797 163.148 255.688
 163.195 255.312 163.211 c 255.312 163.336 l 257.094 163.336 l h
253.672 161.539 m 254.484 159.633 l 255.281 161.539 l h
253.672 161.539 m f
250.133 174.555 m 249.477 174.992 249.211 175.211 248.867 175.633 c 248.242
 176.414 247.93 177.305 247.93 178.352 c 247.93 179.508 248.258 180.383 
249.039 181.289 c 249.414 181.727 249.648 181.914 250.117 182.211 c 250.211
 182.055 l 249.508 181.492 249.258 181.18 249.008 180.508 c 248.789 179.914
 248.695 179.242 248.695 178.336 c 248.695 177.383 248.805 176.648 249.055
 176.102 c 249.305 175.539 249.57 175.211 250.211 174.695 c h
250.133 174.555 m f
251.867 174.508 m 251.82 174.492 l 251.445 174.617 251.211 174.695 250.773
 174.82 c 250.523 174.883 l 250.523 175.023 l 250.57 175.023 250.602 175.023
 250.664 175.023 c 251.023 175.023 251.117 175.102 251.117 175.477 c 251.117
 180.133 l 251.117 180.414 251.867 180.711 252.586 180.711 c 253.773 180.711
 254.695 179.727 254.695 178.445 c 254.695 177.32 254.008 176.492 253.117
 176.492 c 252.57 176.492 252.039 176.805 251.867 177.258 c h
251.867 177.727 m 251.867 177.383 252.289 177.055 252.758 177.055 c 253.008
 177.055 253.227 177.148 253.414 177.32 c 253.695 177.602 253.898 178.211
 253.898 178.852 c 253.898 179.852 253.477 180.414 252.742 180.414 c 252.273
 180.414 251.867 180.227 251.867 179.992 c h
251.867 177.727 m f
255.273 182.211 m 255.93 181.758 256.211 181.539 256.539 181.133 c 257.18
 180.352 257.492 179.445 257.492 178.398 c 257.492 177.258 257.148 176.383
 256.367 175.477 c 255.992 175.039 255.758 174.836 255.305 174.555 c 255.195
 174.695 l 255.914 175.258 256.148 175.57 256.398 176.242 c 256.617 176.852
 256.711 177.523 256.711 178.43 c 256.711 179.367 256.602 180.102 256.352
 180.648 c 256.117 181.211 255.836 181.539 255.195 182.055 c h
255.273 182.211 m f
173.598 78.961 m 172.895 78.961 172.426 79.273 172.426 79.945 c 172.426
 80.539 172.848 80.992 173.41 81.398 c 172.426 81.086 l 172.426 81.086 172.66
 82.289 172.676 82.555 c 172.832 82.555 l 172.832 82.227 172.801 81.961 
173.16 81.961 c 173.332 81.961 173.723 82.07 173.941 82.133 c 177.676 83.195
 l 178.02 83.289 178.27 83.445 178.27 83.883 c 178.426 83.914 l 178.426 
81.945 l 178.27 81.914 l 178.27 82.258 178.254 82.555 178.004 82.555 c 177.926
 82.555 177.832 82.539 177.66 82.492 c 176.41 82.18 l 176.551 82.008 176.629
 81.742 176.629 81.523 c 176.629 80.445 175.098 78.961 173.598 78.961 c 
h
173.691 79.727 m 174.863 79.727 176.426 80.711 176.426 81.555 c 176.426
 81.758 176.348 81.945 176.176 82.117 c 175.379 81.914 172.848 81.367 172.848
 80.211 c 172.848 79.727 173.488 79.727 173.691 79.727 c h
173.691 79.727 m f
170.082 74.367 m 170.082 74.805 l 178.441 77.914 l 178.441 77.461 l h
170.082 74.367 m f
176.52 73.773 m 176.52 71.68 l 176.379 71.68 l 176.379 71.852 l 176.348
 72.227 176.254 72.336 175.926 72.352 c 174.27 72.352 l 175.941 71.086 l
 175.988 71.055 176.035 71.023 176.066 71.008 c 176.145 70.93 176.207 70.898
 176.254 70.898 c 176.332 70.898 176.379 70.977 176.379 71.086 c 176.379
 71.258 l 176.52 71.258 l 176.52 69.305 l 176.379 69.305 l 176.363 69.695
 176.191 69.977 175.723 70.352 c 173.988 71.727 l 173.754 71.461 l 172.738
 70.352 172.598 70.102 172.613 69.523 c 172.488 69.523 l 172.488 71.367 
l 172.613 71.367 l 172.613 71.008 172.66 70.914 172.77 70.914 c 172.848 
70.914 172.973 70.992 173.082 71.117 c 174.176 72.352 l 170.41 72.352 l 
170.395 72.383 l 170.504 72.727 170.582 72.992 170.723 73.508 c 170.785 
73.773 l 170.926 73.773 l 170.926 73.664 170.91 73.57 170.91 73.492 c 170.91
 73.18 171.035 73.102 171.457 73.102 c 175.785 73.102 l 176.254 73.117 176.285
 73.133 176.379 73.773 c h
176.52 73.773 m f
170.754 69.254 m 170.832 68.582 170.91 68.504 171.566 68.504 c 175.441 
68.504 l 176.207 68.504 176.285 68.566 176.348 69.254 c 176.52 69.254 l 
176.52 66.738 l 176.348 66.738 l 176.332 67.441 176.207 67.566 175.535 67.582
 c 173.91 67.582 l 173.926 67.348 173.941 67.191 173.941 66.957 c 173.941
 66.254 173.848 65.785 173.629 65.395 c 173.348 64.863 172.801 64.535 172.207
 64.535 c 171.832 64.535 171.488 64.66 171.223 64.895 c 170.832 65.254 170.582
 66.035 170.582 66.879 c 170.582 69.254 l h
171.223 67.582 m 170.973 67.582 170.91 67.52 170.91 67.285 c 170.91 66.066
 171.332 65.504 172.254 65.504 c 173.129 65.504 173.582 66.035 173.582 67.066
 c 173.582 67.254 173.566 67.379 173.551 67.582 c h
171.223 67.582 m f
175.926 60.508 m 176.051 60.664 176.098 60.773 176.098 60.914 c 176.098
 61.117 175.973 61.18 175.582 61.18 c 173.832 61.18 l 173.363 61.18 173.098
 61.227 172.895 61.352 c 172.566 61.555 172.395 61.945 172.395 62.461 c 
172.395 63.305 172.832 63.977 173.395 63.977 c 173.598 63.977 173.785 63.805
 173.785 63.586 c 173.785 63.367 173.598 63.18 173.41 63.18 c 173.379 63.18
 173.332 63.195 173.27 63.195 c 173.176 63.227 173.113 63.227 173.051 63.227
 c 172.801 63.227 172.613 62.945 172.613 62.586 c 172.613 62.148 172.863
 61.898 173.348 61.898 c 173.895 61.898 l 174.441 63.273 174.535 63.43 174.863
 63.82 c 175.051 64.023 175.348 64.148 175.645 64.148 c 176.207 64.148 176.613
 63.758 176.613 63.195 c 176.613 62.805 176.426 62.445 175.957 61.898 c 
176.426 61.852 176.613 61.68 176.613 61.32 c 176.613 61.008 176.504 60.82
 176.16 60.508 c h
175.41 61.898 m 175.691 61.898 175.785 61.945 175.895 62.133 c 176.02 62.367
 176.082 62.602 176.082 62.789 c 176.082 63.102 175.785 63.352 175.395 63.352
 c 175.363 63.352 l 174.832 63.352 174.488 62.945 174.113 61.898 c h
175.41 61.898 m f
Q Q
showpage
%%Trailer
end
%%EOF
