%!PS-Adobe-3.0 EPSF-3.0
%%Creator: cairo 1.17.4 (https://cairographics.org)
%%CreationDate: Thu Feb 24 10:49:43 2022
%%Pages: 1
%%DocumentData: Clean7Bit
%%LanguageLevel: 2
%%BoundingBox: 0 0 220 209
%%EndComments
%%BeginProlog
50 dict begin
/q { gsave } bind def
/Q { grestore } bind def
/cm { 6 array astore concat } bind def
/w { setlinewidth } bind def
/J { setlinecap } bind def
/j { setlinejoin } bind def
/M { setmiterlimit } bind def
/d { setdash } bind def
/m { moveto } bind def
/l { lineto } bind def
/c { curveto } bind def
/h { closepath } bind def
/re { exch dup neg 3 1 roll 5 3 roll moveto 0 rlineto
      0 exch rlineto 0 rlineto closepath } bind def
/S { stroke } bind def
/f { fill } bind def
/f* { eofill } bind def
/n { newpath } bind def
/W { clip } bind def
/W* { eoclip } bind def
/BT { } bind def
/ET { } bind def
/BDC { mark 3 1 roll /BDC pdfmark } bind def
/EMC { mark /EMC pdfmark } bind def
/cairo_store_point { /cairo_point_y exch def /cairo_point_x exch def } def
/Tj { show currentpoint cairo_store_point } bind def
/TJ {
  {
    dup
    type /stringtype eq
    { show } { -0.001 mul 0 cairo_font_matrix dtransform rmoveto } ifelse
  } forall
  currentpoint cairo_store_point
} bind def
/cairo_selectfont { cairo_font_matrix aload pop pop pop 0 0 6 array astore
    cairo_font exch selectfont cairo_point_x cairo_point_y moveto } bind def
/Tf { pop /cairo_font exch def /cairo_font_matrix where
      { pop cairo_selectfont } if } bind def
/Td { matrix translate cairo_font_matrix matrix concatmatrix dup
      /cairo_font_matrix exch def dup 4 get exch 5 get cairo_store_point
      /cairo_font where { pop cairo_selectfont } if } bind def
/Tm { 2 copy 8 2 roll 6 array astore /cairo_font_matrix exch def
      cairo_store_point /cairo_font where { pop cairo_selectfont } if } bind def
/g { setgray } bind def
/rg { setrgbcolor } bind def
/d1 { setcachedevice } bind def
/cairo_data_source {
  CairoDataIndex CairoData length lt
    { CairoData CairoDataIndex get /CairoDataIndex CairoDataIndex 1 add def }
    { () } ifelse
} def
/cairo_flush_ascii85_file { cairo_ascii85_file status { cairo_ascii85_file flushfile } if } def
/cairo_image { image cairo_flush_ascii85_file } def
/cairo_imagemask { imagemask cairo_flush_ascii85_file } def
%%EndProlog
%%BeginSetup
%%EndSetup
%%Page: 1 1
%%BeginPageSetup
%%PageBoundingBox: 0 0 220 209
%%EndPageSetup
q 0 0 220 209 rectclip
1 0 0 -1 0 209 cm q
0 g
1.13366 w
0 J
0 j
[] 0.0 d
10 M q 1 0 0 -1 0 0 cm
30.117 -138.055 m 113.844 -138.055 l S Q
q 1 0 0 -1 0 0 cm
113.844 -187.281 m 113.844 -49.348 l S Q
q 1 0 0 -1 0 0 cm
84.465 -49.348 m 214.363 -49.348 l S Q
q 1 0 0 -1 0 0 cm
30.109 -134.629 m 35.645 -138.059 l S Q
q 1 0 0 -1 0 0 cm
35.637 -138.074 m 35.637 -138.074 37.703 -118.383 40.223 -108.316 c 41.395
 -103.66 42.879 -99.523 44.844 -95.145 c 46.98 -90.418 49.43 -86.383 52.223
 -82.004 c 55.152 -77.281 57.879 -73.109 61.43 -68.832 c 65.5 -63.934 69.359
 -59.66 74.324 -55.66 c 77.531 -53.074 84.465 -49.348 84.465 -49.348 c S Q
q 1 0 0 -1 0 0 cm
84.457 -49.352 m 84.457 -49.352 83.934 -36.246 83.555 -29.328 c 83.031 
-20.254 81.711 -3.008 81.711 -3.008 c S Q
0.567044 w
q 1 0 0 -1 0 0 cm
30.371 -95.152 m 30.371 -3.301 l 214.074 -3.301 l 214.074 -187.004 l 30.371
 -187.004 l h
30.371 -95.152 m S Q
139.988 202.27 m 137.191 202.27 l 136.801 203.426 l 136.988 203.426 l 137.207
 202.879 137.426 202.863 137.754 202.863 c 139.207 202.863 l 136.113 206.363
 l 138.957 206.363 l 139.348 205.176 l 139.176 205.176 l 138.973 205.785
 138.629 205.785 138.301 205.785 c 136.879 205.785 l h
139.988 202.27 m f
140.301 204.16 m 140.879 204.191 140.957 204.27 140.957 204.785 c 140.957
 207.879 l 140.957 208.41 140.863 208.488 140.301 208.52 c 140.301 208.645
 l 142.629 208.645 l 143.16 208.645 143.66 208.504 143.926 208.254 c 144.176
 208.035 144.301 207.723 144.301 207.395 c 144.301 207.082 144.191 206.801
 143.973 206.598 c 143.754 206.41 143.566 206.332 143.113 206.223 c 143.473
 206.129 143.629 206.066 143.785 205.91 c 143.973 205.754 144.066 205.504
 144.066 205.223 c 144.066 204.441 143.441 204.035 142.238 204.035 c 140.301
 204.035 l h
141.676 206.379 m 142.348 206.379 142.676 206.41 142.926 206.52 c 143.316
 206.676 143.504 206.973 143.504 207.395 c 143.504 207.77 143.363 208.051
 143.082 208.207 c 142.863 208.332 142.566 208.379 142.113 208.379 c 141.77
 208.379 141.676 208.316 141.676 208.098 c h
141.676 206.098 m 141.676 204.504 l 141.676 204.348 141.707 204.301 141.832
 204.301 c 142.129 204.285 l 142.91 204.27 143.363 204.629 143.363 205.238
 c 143.363 205.801 143.004 206.082 142.332 206.098 c h
141.676 206.098 m f
32.062 193.809 m 32.062 192.199 31.328 190.746 30.078 190.746 c 28.812 
190.746 28.078 192.199 28.078 193.809 c 28.078 195.434 28.766 196.871 30.078
 196.871 c 31.281 196.871 32.062 195.434 32.062 193.809 c h
31.203 193.809 m 31.203 195.105 31.078 196.621 30.078 196.621 c 29.125 
196.621 28.938 195.105 28.938 193.809 c 28.938 192.73 29.062 190.98 30.078
 190.98 c 31.078 190.98 31.203 192.73 31.203 193.809 c h
31.203 193.809 m f
120.836 193.809 m 120.836 192.199 120.102 190.746 118.852 190.746 c 117.586
 190.746 116.852 192.199 116.852 193.809 c 116.852 195.434 117.539 196.871
 118.852 196.871 c 120.055 196.871 120.836 195.434 120.836 193.809 c h
119.977 193.809 m 119.977 195.105 119.852 196.621 118.852 196.621 c 117.898
 196.621 117.711 195.105 117.711 193.809 c 117.711 192.73 117.836 190.98
 118.852 190.98 c 119.852 190.98 119.977 192.73 119.977 193.809 c h
119.977 193.809 m f
122.758 196.387 m 122.758 196.105 122.539 195.887 122.258 195.887 c 121.977
 195.887 121.758 196.105 121.758 196.387 c 121.758 196.668 121.977 196.887
 122.258 196.887 c 122.539 196.887 122.758 196.668 122.758 196.387 c h
122.758 196.387 m f
126.926 196.762 m 126.926 196.621 l 126.332 196.621 126.113 196.637 126.113
 195.465 c 126.113 195.449 126.113 190.715 126.113 190.715 c 125.988 190.715
 l 124.457 191.449 l 124.504 191.59 l 124.832 191.449 124.91 191.418 125.035
 191.418 c 125.301 191.418 125.348 191.652 125.348 191.965 c 125.348 195.465
 l 125.348 196.637 125.129 196.605 124.535 196.621 c 124.535 196.762 l h
126.926 196.762 m f
212.953 193.809 m 212.953 192.199 212.219 190.746 210.969 190.746 c 209.703
 190.746 208.969 192.199 208.969 193.809 c 208.969 195.434 209.656 196.871
 210.969 196.871 c 212.172 196.871 212.953 195.434 212.953 193.809 c h
212.094 193.809 m 212.094 195.105 211.969 196.621 210.969 196.621 c 210.016
 196.621 209.828 195.105 209.828 193.809 c 209.828 192.73 209.953 190.98
 210.969 190.98 c 211.969 190.98 212.094 192.73 212.094 193.809 c h
212.094 193.809 m f
214.875 196.387 m 214.875 196.105 214.656 195.887 214.375 195.887 c 214.094
 195.887 213.875 196.105 213.875 196.387 c 213.875 196.668 214.094 196.887
 214.375 196.887 c 214.656 196.887 214.875 196.668 214.875 196.387 c h
214.875 196.387 m f
219.824 195.605 m 219.668 195.574 l 219.402 196.027 219.184 196.105 218.746
 196.105 c 216.684 196.105 l 218.105 194.809 219.402 193.637 219.402 192.324
 c 219.402 191.402 218.605 190.746 217.73 190.746 c 216.871 190.746 216.184
 191.215 215.918 192.434 c 216.121 192.434 l 216.371 191.934 216.715 191.418
 217.402 191.418 c 218.184 191.418 218.621 192.012 218.621 192.684 c 218.621
 193.652 217.59 195.074 215.824 196.621 c 215.824 196.762 l 219.355 196.762
 l h
219.824 195.605 m f
11.918 88.477 m 11.918 89.148 l 10.84 88.852 l 10.84 88.992 l 11.465 89.414
 11.887 89.914 12.027 90.523 c 12.215 90.57 l 12.215 89.898 l 14.918 90.633
 l 15.105 90.664 15.465 90.773 15.605 90.773 c 15.949 90.773 16.043 90.523
 16.043 90.352 c 16.043 89.961 15.746 89.539 14.996 89.07 c 14.934 89.195
 l 15.199 89.43 15.605 89.711 15.605 89.93 c 15.605 90.055 15.527 90.086
 15.465 90.086 c 15.402 90.086 15.355 90.07 15.215 90.039 c 12.215 89.227
 l 12.215 88.523 l h
11.918 88.477 m f
9.496 83.715 m 9.496 84.152 l 17.855 87.262 l 17.855 86.809 l h
9.496 83.715 m f
10.68 79.793 m 9.883 79.793 9.227 80.449 9.227 81.277 c 9.227 82.105 9.883
 82.762 10.68 82.762 c 11.461 82.762 12.117 82.105 12.117 81.277 c 12.117
 80.449 11.461 79.793 10.68 79.793 c h
10.68 80.262 m 11.211 80.262 11.664 80.73 11.664 81.277 c 11.664 81.824
 11.211 82.277 10.68 82.277 c 10.148 82.277 9.695 81.824 9.695 81.277 c 
9.695 80.73 10.148 80.262 10.68 80.262 c h
10.68 80.262 m f
11.887 73.18 m 9.871 73.258 l 9.871 73.445 l 10.059 73.508 10.168 73.648
 10.168 73.82 c 10.168 73.914 10.137 74.039 10.09 74.18 c 9.949 74.617 9.871
 75.07 9.871 75.492 c 9.871 76.227 10.152 76.961 10.637 77.523 c 11.199 
78.148 12.027 78.492 13.012 78.492 c 14.84 78.492 16.059 77.305 16.059 75.508
 c 16.059 74.492 15.652 73.602 14.918 73.07 c 14.762 73.227 l 15.402 73.883
 15.668 74.477 15.668 75.227 c 15.668 75.789 15.48 76.289 15.137 76.68 c
 14.699 77.18 13.902 77.445 12.887 77.445 c 11.277 77.445 10.23 76.617 10.23
 75.32 c 10.23 74.805 10.418 74.336 10.762 73.977 c 11.059 73.695 11.309
 73.555 11.887 73.383 c h
11.887 73.18 m f
11.766 187.797 5.484 0.453 re f
22.012 189.125 m 21.855 189.094 l 21.59 189.547 21.371 189.625 20.934 189.625
 c 18.871 189.625 l 20.293 188.328 21.59 187.156 21.59 185.844 c 21.59 184.922
 20.793 184.266 19.918 184.266 c 19.059 184.266 18.371 184.734 18.105 185.953
 c 18.309 185.953 l 18.559 185.453 18.902 184.938 19.59 184.938 c 20.371
 184.938 20.809 185.531 20.809 186.203 c 20.809 187.172 19.777 188.594 18.012
 190.141 c 18.012 190.281 l 21.543 190.281 l h
22.012 189.125 m f
26.418 187.328 m 26.418 185.719 25.684 184.266 24.434 184.266 c 23.168 
184.266 22.434 185.719 22.434 187.328 c 22.434 188.953 23.121 190.391 24.434
 190.391 c 25.637 190.391 26.418 188.953 26.418 187.328 c h
25.559 187.328 m 25.559 188.625 25.434 190.141 24.434 190.141 c 23.48 190.141
 23.293 188.625 23.293 187.328 c 23.293 186.25 23.418 184.5 24.434 184.5
 c 25.434 184.5 25.559 186.25 25.559 187.328 c h
25.559 187.328 m f
26.418 134.684 m 26.418 133.074 25.684 131.621 24.434 131.621 c 23.168 
131.621 22.434 133.074 22.434 134.684 c 22.434 136.309 23.121 137.746 24.434
 137.746 c 25.637 137.746 26.418 136.309 26.418 134.684 c h
25.559 134.684 m 25.559 135.98 25.434 137.496 24.434 137.496 c 23.48 137.496
 23.293 135.98 23.293 134.684 c 23.293 133.605 23.418 131.855 24.434 131.855
 c 25.434 131.855 25.559 133.605 25.559 134.684 c h
25.559 134.684 m f
21.918 0.094 m 19.449 0.094 l 18.34 2.641 l 18.48 2.609 18.621 2.578 18.793
 2.578 c 19.746 2.578 21.043 3.078 21.043 4.25 c 21.043 5.156 20.387 5.734
 19.762 5.734 c 19.215 5.734 19.012 5.234 18.496 5.234 c 18.246 5.234 18.168
 5.453 18.168 5.562 c 18.168 5.875 18.605 6.125 19.23 6.125 c 20.574 6.125
 21.637 5.141 21.637 3.938 c 21.637 2.516 20.512 2.031 19.293 2 c 19.184
 2 19.059 2.016 18.949 2.031 c 19.512 0.766 l 21.605 0.75 l h
21.918 0.094 m f
26.418 3.062 m 26.418 1.453 25.684 0 24.434 0 c 23.168 0 22.434 1.453 22.434
 3.062 c 22.434 4.688 23.121 6.125 24.434 6.125 c 25.637 6.125 26.418 4.688
 26.418 3.062 c h
25.559 3.062 m 25.559 4.359 25.434 5.875 24.434 5.875 c 23.48 5.875 23.293
 4.359 23.293 3.062 c 23.293 1.984 23.418 0.234 24.434 0.234 c 25.434 0.234
 25.559 1.984 25.559 3.062 c h
25.559 3.062 m f
0.567042 w
q 1 0 0 -1 0 0 cm
30.094 -160.953 m 34.355 -160.953 l S Q
q 1 0 0 -1 0 0 cm
209.941 -160.953 m 214.367 -160.953 l S Q
q 1 0 0 -1 0 0 cm
30.109 -134.629 m 34.355 -134.629 l S Q
q 1 0 0 -1 0 0 cm
209.93 -134.629 m 214.344 -134.629 l S Q
0.567043 w
q 1 0 0 -1 0 0 cm
30.094 -108.305 m 34.324 -108.305 l S Q
q 1 0 0 -1 0 0 cm
209.953 -108.305 m 214.352 -108.305 l S Q
0.567042 w
q 1 0 0 -1 0 0 cm
30.121 -81.98 m 34.34 -81.98 l S Q
q 1 0 0 -1 0 0 cm
209.938 -81.98 m 214.363 -81.98 l S Q
0.567044 w
q 1 0 0 -1 0 0 cm
30.094 -55.656 m 34.328 -55.656 l S Q
q 1 0 0 -1 0 0 cm
209.93 -55.656 m 214.371 -55.656 l S Q
0.567045 w
q 1 0 0 -1 0 0 cm
30.113 -29.332 m 34.332 -29.332 l S Q
q 1 0 0 -1 0 0 cm
209.961 -29.332 m 214.355 -29.332 l S Q
q 1 0 0 -1 0 0 cm
122.258 -187.285 m 122.258 -183.008 l S Q
q 1 0 0 -1 0 0 cm
122.25 -7.285 m 122.25 -3.008 l S Q
0.567041 w
q 1 0 0 -1 0 0 cm
48.531 -187.27 m 48.531 -184.441 l S Q
0.567045 w
q 1 0 0 -1 0 0 cm
48.543 -5.859 m 48.543 -3.008 l S Q
0.567041 w
q 1 0 0 -1 0 0 cm
66.938 -187.27 m 66.938 -184.441 l S Q
0.567045 w
q 1 0 0 -1 0 0 cm
66.969 -5.859 m 66.969 -3.008 l S Q
0.567041 w
q 1 0 0 -1 0 0 cm
85.383 -187.27 m 85.383 -184.441 l S Q
0.567045 w
q 1 0 0 -1 0 0 cm
85.395 -5.859 m 85.395 -3.008 l S Q
0.567041 w
q 1 0 0 -1 0 0 cm
103.793 -187.27 m 103.793 -184.441 l S Q
0.567045 w
q 1 0 0 -1 0 0 cm
103.824 -5.859 m 103.824 -3.008 l S Q
0.567041 w
q 1 0 0 -1 0 0 cm
140.645 -187.27 m 140.645 -184.441 l S Q
0.567045 w
q 1 0 0 -1 0 0 cm
140.641 -5.859 m 140.641 -3.008 l S Q
0.567041 w
q 1 0 0 -1 0 0 cm
159.086 -187.27 m 159.086 -184.441 l S Q
0.567045 w
q 1 0 0 -1 0 0 cm
159.07 -5.859 m 159.07 -3.008 l S Q
0.567041 w
q 1 0 0 -1 0 0 cm
177.496 -187.27 m 177.496 -184.441 l S Q
0.567045 w
q 1 0 0 -1 0 0 cm
177.531 -5.859 m 177.531 -3.008 l S Q
0.567041 w
q 1 0 0 -1 0 0 cm
195.906 -187.27 m 195.906 -184.441 l S Q
0.567045 w
q 1 0 0 -1 0 0 cm
195.922 -5.859 m 195.922 -3.008 l S Q
1 g
37.238 138.043 m 37.238 137.18 36.539 136.48 35.676 136.48 c 34.812 136.48
 34.113 137.18 34.113 138.043 c 34.113 138.906 34.812 139.605 35.676 139.605
 c 36.539 139.605 37.238 138.906 37.238 138.043 c f
0 g
37.238 138.043 m 37.238 137.18 36.539 136.48 35.676 136.48 c 34.812 136.48
 34.113 137.18 34.113 138.043 c 34.113 138.906 34.812 139.605 35.676 139.605
 c 36.539 139.605 37.238 138.906 37.238 138.043 c h
37.238 138.043 m 37.082 138.043 l 37.082 137.266 36.453 136.637 35.676 
136.637 c 34.898 136.637 34.27 137.266 34.27 138.043 c 34.27 138.82 34.898
 139.449 35.676 139.449 c 36.453 139.449 37.082 138.82 37.082 138.043 c f
1 g
41.836 108.344 m 41.836 107.48 41.137 106.781 40.273 106.781 c 39.41 106.781
 38.711 107.48 38.711 108.344 c 38.711 109.207 39.41 109.906 40.273 109.906
 c 41.137 109.906 41.836 109.207 41.836 108.344 c f
0 g
41.836 108.344 m 41.836 107.48 41.137 106.781 40.273 106.781 c 39.41 106.781
 38.711 107.48 38.711 108.344 c 38.711 109.207 39.41 109.906 40.273 109.906
 c 41.137 109.906 41.836 109.207 41.836 108.344 c h
41.836 108.344 m 41.68 108.344 l 41.68 107.566 41.051 106.938 40.273 106.938
 c 39.496 106.938 38.867 107.566 38.867 108.344 c 38.867 109.121 39.496 
109.75 40.273 109.75 c 41.051 109.75 41.68 109.121 41.68 108.344 c f
1 g
46.438 95.145 m 46.438 94.281 45.738 93.582 44.875 93.582 c 44.012 93.582
 43.312 94.281 43.312 95.145 c 43.312 96.008 44.012 96.707 44.875 96.707
 c 45.738 96.707 46.438 96.008 46.438 95.145 c f
0 g
46.438 95.145 m 46.438 94.281 45.738 93.582 44.875 93.582 c 44.012 93.582
 43.312 94.281 43.312 95.145 c 43.312 96.008 44.012 96.707 44.875 96.707
 c 45.738 96.707 46.438 96.008 46.438 95.145 c h
46.438 95.145 m 46.281 95.145 l 46.281 94.367 45.652 93.738 44.875 93.738
 c 44.098 93.738 43.469 94.367 43.469 95.145 c 43.469 95.922 44.098 96.551
 44.875 96.551 c 45.652 96.551 46.281 95.922 46.281 95.145 c f
1 g
53.738 81.941 m 53.738 81.078 53.039 80.379 52.176 80.379 c 51.312 80.379
 50.613 81.078 50.613 81.941 c 50.613 82.805 51.312 83.504 52.176 83.504
 c 53.039 83.504 53.738 82.805 53.738 81.941 c f
0 g
53.738 81.941 m 53.738 81.078 53.039 80.379 52.176 80.379 c 51.312 80.379
 50.613 81.078 50.613 81.941 c 50.613 82.805 51.312 83.504 52.176 83.504
 c 53.039 83.504 53.738 82.805 53.738 81.941 c h
53.738 81.941 m 53.582 81.941 l 53.582 81.164 52.953 80.535 52.176 80.535
 c 51.398 80.535 50.77 81.164 50.77 81.941 c 50.77 82.719 51.398 83.348 
52.176 83.348 c 52.953 83.348 53.582 82.719 53.582 81.941 c f
1 g
62.938 68.844 m 62.938 67.98 62.238 67.281 61.375 67.281 c 60.512 67.281
 59.812 67.98 59.812 68.844 c 59.812 69.707 60.512 70.406 61.375 70.406 
c 62.238 70.406 62.938 69.707 62.938 68.844 c f
0 g
62.938 68.844 m 62.938 67.98 62.238 67.281 61.375 67.281 c 60.512 67.281
 59.812 67.98 59.812 68.844 c 59.812 69.707 60.512 70.406 61.375 70.406 
c 62.238 70.406 62.938 69.707 62.938 68.844 c h
62.938 68.844 m 62.781 68.844 l 62.781 68.066 62.152 67.438 61.375 67.438
 c 60.598 67.438 59.969 68.066 59.969 68.844 c 59.969 69.621 60.598 70.25
 61.375 70.25 c 62.152 70.25 62.781 69.621 62.781 68.844 c f
1 g
75.938 55.645 m 75.938 54.781 75.238 54.082 74.375 54.082 c 73.512 54.082
 72.812 54.781 72.812 55.645 c 72.812 56.508 73.512 57.207 74.375 57.207
 c 75.238 57.207 75.938 56.508 75.938 55.645 c f
0 g
75.938 55.645 m 75.938 54.781 75.238 54.082 74.375 54.082 c 73.512 54.082
 72.812 54.781 72.812 55.645 c 72.812 56.508 73.512 57.207 74.375 57.207
 c 75.238 57.207 75.938 56.508 75.938 55.645 c h
75.938 55.645 m 75.781 55.645 l 75.781 54.867 75.152 54.238 74.375 54.238
 c 73.598 54.238 72.969 54.867 72.969 55.645 c 72.969 56.422 73.598 57.051
 74.375 57.051 c 75.152 57.051 75.781 56.422 75.781 55.645 c f
1 g
86.035 49.344 m 86.035 48.48 85.336 47.781 84.473 47.781 c 83.609 47.781
 82.91 48.48 82.91 49.344 c 82.91 50.207 83.609 50.906 84.473 50.906 c 85.336
 50.906 86.035 50.207 86.035 49.344 c f
0 g
86.035 49.344 m 86.035 48.48 85.336 47.781 84.473 47.781 c 83.609 47.781
 82.91 48.48 82.91 49.344 c 82.91 50.207 83.609 50.906 84.473 50.906 c 85.336
 50.906 86.035 50.207 86.035 49.344 c h
86.035 49.344 m 85.879 49.344 l 85.879 48.566 85.25 47.938 84.473 47.938
 c 83.695 47.938 83.066 48.566 83.066 49.344 c 83.066 50.121 83.695 50.75
 84.473 50.75 c 85.25 50.75 85.879 50.121 85.879 49.344 c f
1 g
85.137 29.344 m 85.137 28.48 84.438 27.781 83.574 27.781 c 82.711 27.781
 82.012 28.48 82.012 29.344 c 82.012 30.207 82.711 30.906 83.574 30.906 
c 84.438 30.906 85.137 30.207 85.137 29.344 c f
0 g
85.137 29.344 m 85.137 28.48 84.438 27.781 83.574 27.781 c 82.711 27.781
 82.012 28.48 82.012 29.344 c 82.012 30.207 82.711 30.906 83.574 30.906 
c 84.438 30.906 85.137 30.207 85.137 29.344 c h
85.137 29.344 m 84.98 29.344 l 84.98 28.566 84.352 27.938 83.574 27.938
 c 82.797 27.938 82.168 28.566 82.168 29.344 c 82.168 30.121 82.797 30.75
 83.574 30.75 c 84.352 30.75 84.98 30.121 84.98 29.344 c f
1 g
83.238 3.043 m 83.238 2.18 82.539 1.48 81.676 1.48 c 80.812 1.48 80.113
 2.18 80.113 3.043 c 80.113 3.906 80.812 4.605 81.676 4.605 c 82.539 4.605
 83.238 3.906 83.238 3.043 c f
0 g
83.238 3.043 m 83.238 2.18 82.539 1.48 81.676 1.48 c 80.812 1.48 80.113
 2.18 80.113 3.043 c 80.113 3.906 80.812 4.605 81.676 4.605 c 82.539 4.605
 83.238 3.906 83.238 3.043 c h
83.238 3.043 m 83.082 3.043 l 83.082 2.266 82.453 1.637 81.676 1.637 c 
80.898 1.637 80.27 2.266 80.27 3.043 c 80.27 3.82 80.898 4.449 81.676 4.449
 c 82.453 4.449 83.082 3.82 83.082 3.043 c f
26.426 140.316 m 29.176 137.531 l 25.273 137.938 l 27.172 138.48 l f
0.567041 w
q 1 0 0 -1 0 0 cm
20.898 -141.465 m 27.176 -138.477 l S Q
0 145.172 m 1.891 145.172 l 1.891 145.047 l 1.359 145.016 1.312 144.938
 1.297 144.359 c 1.297 141.531 l 1.266 141.5 l 0.031 141.938 l 0.031 142.062
 l 0.094 142.062 l 0.188 142.047 0.297 142.031 0.375 142.031 c 0.562 142.031
 0.625 142.156 0.625 142.516 c 0.625 144.359 l 0.609 144.953 0.547 145.031
 0 145.047 c h
0.891 139.734 m 0.688 139.734 0.5 139.906 0.5 140.141 c 0.5 140.359 0.672
 140.547 0.891 140.547 c 1.141 140.547 1.312 140.359 1.312 140.141 c 1.312
 139.906 1.125 139.734 0.891 139.734 c h
0.891 139.734 m f
5.207 143.922 m 4.816 144.484 4.535 144.672 4.082 144.672 c 3.348 144.672
 2.848 144.047 2.848 143.125 c 2.848 142.297 3.285 141.734 3.926 141.734
 c 4.223 141.734 4.316 141.812 4.395 142.125 c 4.457 142.297 l 4.52 142.531
 4.66 142.656 4.832 142.656 c 5.035 142.656 5.207 142.516 5.207 142.328 
c 5.207 141.875 4.645 141.5 3.973 141.5 c 3.582 141.5 3.176 141.672 2.863
 141.953 c 2.457 142.297 2.238 142.844 2.238 143.484 c 2.238 144.516 2.863
 145.25 3.754 145.25 c 4.113 145.25 4.426 145.125 4.707 144.875 c 4.926 
144.688 5.082 144.469 5.316 144 c h
5.207 143.922 m f
8.766 143.859 m 8.391 144.469 8.047 144.703 7.531 144.703 c 7.078 144.703
 6.734 144.469 6.5 144.016 c 6.359 143.719 6.297 143.453 6.281 142.969 c
 8.75 142.969 l 8.672 142.453 8.594 142.219 8.406 141.953 c 8.156 141.672
 7.797 141.5 7.375 141.5 c 6.984 141.5 6.609 141.656 6.297 141.922 c 5.938
 142.25 5.719 142.812 5.719 143.469 c 5.719 144.562 6.281 145.25 7.203 145.25
 c 7.969 145.25 8.562 144.781 8.891 143.922 c h
6.297 142.703 m 6.391 142.094 6.656 141.797 7.156 141.797 c 7.641 141.797
 7.828 142.016 7.938 142.703 c h
6.297 142.703 m f
13.141 142.891 m 11.391 142.891 l 11.391 143.422 l 13.141 143.422 l 13.141
 145.172 l 13.672 145.172 l 13.672 143.422 l 15.406 143.422 l 15.406 142.891
 l 13.672 142.891 l 13.672 141.141 l 13.141 141.141 l h
13.141 142.891 m f
17.809 145.172 m 19.684 145.172 l 19.684 145.047 l 19.184 145.031 19.09
 144.953 19.09 144.5 c 19.09 139.75 l 19.059 139.734 l 18.652 139.859 18.355
 139.938 17.793 140.078 c 17.793 140.203 l 17.84 140.203 l 17.918 140.203
 18.012 140.188 18.09 140.188 c 18.34 140.188 18.418 140.297 18.418 140.672
 c 18.418 144.484 l 18.402 144.906 18.293 145.016 17.809 145.047 c h
17.809 145.172 m f
49.469 39.879 m 51.344 39.879 l 51.344 39.754 l 50.844 39.738 50.75 39.66
 50.75 39.207 c 50.75 34.457 l 50.719 34.441 l 50.312 34.566 50.016 34.645
 49.453 34.785 c 49.453 34.91 l 49.5 34.91 l 49.578 34.91 49.672 34.895 
49.75 34.895 c 50 34.895 50.078 35.004 50.078 35.379 c 50.078 39.191 l 50.062
 39.613 49.953 39.723 49.469 39.754 c h
49.469 39.879 m f
122.223 25.754 m 124.098 25.754 l 124.098 25.629 l 123.598 25.613 123.504
 25.535 123.504 25.082 c 123.504 20.332 l 123.473 20.316 l 123.066 20.441
 122.77 20.52 122.207 20.66 c 122.207 20.785 l 122.254 20.785 l 122.332 
20.785 122.426 20.77 122.504 20.77 c 122.754 20.77 122.832 20.879 122.832
 21.254 c 122.832 25.066 l 122.816 25.488 122.707 25.598 122.223 25.629 
c h
122.223 25.754 m f
128.355 23.473 m 126.605 23.473 l 126.605 24.004 l 128.355 24.004 l 128.355
 25.754 l 128.887 25.754 l 128.887 24.004 l 130.621 24.004 l 130.621 23.473
 l 128.887 23.473 l 128.887 21.723 l 128.355 21.723 l h
128.355 23.473 m f
138.492 20.473 m 136.617 20.473 l 136.617 20.629 l 137.258 20.676 137.352
 20.801 137.383 21.645 c 137.383 24.332 l 134.305 20.473 l 132.945 20.473
 l 132.945 20.629 l 133.289 20.629 133.398 20.691 133.727 21.066 c 133.727
 24.582 l 133.711 25.426 133.602 25.566 132.945 25.598 c 132.945 25.754 
l 134.82 25.754 l 134.82 25.598 l 134.211 25.566 134.086 25.41 134.07 24.582
 c 134.07 21.457 l 137.586 25.848 l 137.727 25.848 l 137.727 21.645 l 137.758
 20.816 137.852 20.691 138.492 20.629 c h
138.492 20.473 m f
142.129 25.223 m 142.004 25.332 141.91 25.379 141.785 25.379 c 141.598 
25.379 141.551 25.27 141.551 24.91 c 141.551 23.363 l 141.551 22.941 141.504
 22.723 141.379 22.52 c 141.207 22.238 140.863 22.082 140.395 22.082 c 139.645
 22.082 139.066 22.473 139.066 22.988 c 139.066 23.16 139.207 23.316 139.395
 23.316 c 139.598 23.316 139.754 23.16 139.754 22.988 c 139.754 22.957 139.754
 22.91 139.738 22.863 c 139.723 22.785 139.723 22.723 139.723 22.676 c 139.723
 22.457 139.973 22.285 140.301 22.285 c 140.691 22.285 140.895 22.504 140.895
 22.941 c 140.895 23.426 l 139.676 23.91 139.535 23.988 139.191 24.285 c
 139.02 24.441 138.91 24.723 138.91 24.988 c 138.91 25.488 139.254 25.832
 139.738 25.832 c 140.098 25.832 140.426 25.66 140.91 25.254 c 140.941 25.676
 141.098 25.832 141.426 25.832 c 141.691 25.832 141.863 25.738 142.129 25.441
 c h
140.895 24.77 m 140.895 25.02 140.863 25.098 140.691 25.191 c 140.488 25.301
 140.285 25.379 140.113 25.379 c 139.832 25.379 139.613 25.098 139.613 24.754
 c 139.613 24.723 l 139.613 24.254 139.973 23.941 140.895 23.613 c h
140.895 24.77 m f
144.938 26.984 m 144.859 26.953 l 144.641 27.297 144.578 27.344 144.297
 27.344 c 142.859 27.344 l 143.859 26.281 l 144.391 25.734 144.625 25.281
 144.625 24.812 c 144.625 24.219 144.141 23.75 143.531 23.75 c 143.188 23.75
 142.891 23.891 142.656 24.125 c 142.469 24.328 142.375 24.516 142.281 24.938
 c 142.406 24.969 l 142.641 24.391 142.859 24.188 143.266 24.188 c 143.781
 24.188 144.109 24.531 144.109 25.031 c 144.109 25.516 143.844 26.062 143.344
 26.594 c 142.266 27.719 l 142.266 27.797 l 144.609 27.797 l h
144.938 26.984 m f
149.133 20.363 m 148.961 20.363 l 148.93 20.535 148.852 20.645 148.711 
20.645 c 148.633 20.645 148.492 20.613 148.352 20.535 c 148.07 20.426 147.773
 20.363 147.508 20.363 c 147.18 20.363 146.82 20.504 146.555 20.738 c 146.273
 20.988 146.133 21.316 146.133 21.723 c 146.133 22.363 146.492 22.816 147.383
 23.285 c 147.945 23.598 148.367 23.91 148.57 24.223 c 148.633 24.316 148.68
 24.488 148.68 24.691 c 148.68 25.207 148.273 25.582 147.695 25.582 c 146.977
 25.582 146.492 25.145 146.086 24.176 c 145.898 24.176 l 146.148 25.863 
l 146.32 25.863 l 146.32 25.707 146.43 25.598 146.539 25.598 c 146.633 25.598
 146.758 25.629 146.914 25.676 c 147.227 25.801 147.539 25.863 147.852 25.863
 c 148.789 25.863 149.477 25.238 149.477 24.41 c 149.477 23.754 149.039 
23.238 147.992 22.676 c 147.148 22.223 146.82 21.863 146.82 21.426 c 146.82
 20.988 147.148 20.691 147.648 20.691 c 148.008 20.691 148.336 20.848 148.617
 21.129 c 148.867 21.395 148.977 21.598 149.102 22.066 c 149.305 22.066 
l h
149.133 20.363 m f
152.887 20.363 m 151.371 20.363 150.277 21.504 150.277 23.113 c 150.277
 23.863 150.543 24.598 150.965 25.051 c 151.434 25.551 152.137 25.863 152.84
 25.863 c 154.418 25.863 155.496 24.754 155.496 23.145 c 155.496 22.363 
155.262 21.676 154.824 21.207 c 154.324 20.66 153.652 20.363 152.887 20.363
 c h
152.887 20.66 m 153.262 20.66 153.621 20.801 153.902 21.051 c 154.34 21.441
 154.59 22.191 154.59 23.145 c 154.59 23.613 154.496 24.16 154.324 24.582
 c 154.246 24.77 154.121 24.973 153.934 25.16 c 153.652 25.441 153.293 25.582
 152.871 25.582 c 152.512 25.582 152.152 25.441 151.855 25.191 c 151.449
 24.816 151.184 24.02 151.184 23.129 c 151.184 22.316 151.418 21.551 151.746
 21.176 c 152.059 20.832 152.449 20.66 152.887 20.66 c h
152.887 20.66 m f
158.602 26.422 m 157.992 26.422 l 157.992 23.75 l 157.727 23.75 l 155.852
 26.422 l 155.852 26.797 l 157.523 26.797 l 157.523 27.797 l 157.992 27.797
 l 157.992 26.797 l 158.602 26.797 l h
157.523 26.422 m 156.086 26.422 l 157.523 24.359 l h
157.523 26.422 m f
46.746 104.727 m 48.621 104.727 l 48.621 104.602 l 48.121 104.586 48.027
 104.508 48.027 104.055 c 48.027 99.305 l 47.996 99.289 l 47.59 99.414 47.293
 99.492 46.73 99.633 c 46.73 99.758 l 46.777 99.758 l 46.855 99.758 46.949
 99.742 47.027 99.742 c 47.277 99.742 47.355 99.852 47.355 100.227 c 47.355
 104.039 l 47.34 104.461 47.23 104.57 46.746 104.602 c h
46.746 104.727 m f
52.758 102.445 m 51.008 102.445 l 51.008 102.977 l 52.758 102.977 l 52.758
 104.727 l 53.289 104.727 l 53.289 102.977 l 55.023 102.977 l 55.023 102.445
 l 53.289 102.445 l 53.289 100.695 l 52.758 100.695 l h
52.758 102.445 m f
62.895 99.445 m 61.02 99.445 l 61.02 99.602 l 61.66 99.648 61.754 99.773
 61.785 100.617 c 61.785 103.305 l 58.707 99.445 l 57.348 99.445 l 57.348
 99.602 l 57.691 99.602 57.801 99.664 58.129 100.039 c 58.129 103.555 l 
58.113 104.398 58.004 104.539 57.348 104.57 c 57.348 104.727 l 59.223 104.727
 l 59.223 104.57 l 58.613 104.539 58.488 104.383 58.473 103.555 c 58.473
 100.43 l 61.988 104.82 l 62.129 104.82 l 62.129 100.617 l 62.16 99.789 
62.254 99.664 62.895 99.602 c h
62.895 99.445 m f
66.527 104.195 m 66.402 104.305 66.309 104.352 66.184 104.352 c 65.996 
104.352 65.949 104.242 65.949 103.883 c 65.949 102.336 l 65.949 101.914 
65.902 101.695 65.777 101.492 c 65.605 101.211 65.262 101.055 64.793 101.055
 c 64.043 101.055 63.465 101.445 63.465 101.961 c 63.465 102.133 63.605 
102.289 63.793 102.289 c 63.996 102.289 64.152 102.133 64.152 101.961 c 
64.152 101.93 64.152 101.883 64.137 101.836 c 64.121 101.758 64.121 101.695
 64.121 101.648 c 64.121 101.43 64.371 101.258 64.699 101.258 c 65.09 101.258
 65.293 101.477 65.293 101.914 c 65.293 102.398 l 64.074 102.883 63.934 
102.961 63.59 103.258 c 63.418 103.414 63.309 103.695 63.309 103.961 c 63.309
 104.461 63.652 104.805 64.137 104.805 c 64.496 104.805 64.824 104.633 65.309
 104.227 c 65.34 104.648 65.496 104.805 65.824 104.805 c 66.09 104.805 66.262
 104.711 66.527 104.414 c h
65.293 103.742 m 65.293 103.992 65.262 104.07 65.09 104.164 c 64.887 104.273
 64.684 104.352 64.512 104.352 c 64.23 104.352 64.012 104.07 64.012 103.727
 c 64.012 103.695 l 64.012 103.227 64.371 102.914 65.293 102.586 c h
65.293 103.742 m f
69.336 105.953 m 69.258 105.922 l 69.039 106.266 68.977 106.312 68.695 
106.312 c 67.258 106.312 l 68.258 105.25 l 68.789 104.703 69.023 104.25 
69.023 103.781 c 69.023 103.188 68.539 102.719 67.93 102.719 c 67.586 102.719
 67.289 102.859 67.055 103.094 c 66.867 103.297 66.773 103.484 66.68 103.906
 c 66.805 103.938 l 67.039 103.359 67.258 103.156 67.664 103.156 c 68.18
 103.156 68.508 103.5 68.508 104 c 68.508 104.484 68.242 105.031 67.742 
105.562 c 66.664 106.688 l 66.664 106.766 l 69.008 106.766 l h
69.336 105.953 m f
73.535 99.336 m 73.363 99.336 l 73.332 99.508 73.254 99.617 73.113 99.617
 c 73.035 99.617 72.895 99.586 72.754 99.508 c 72.473 99.398 72.176 99.336
 71.91 99.336 c 71.582 99.336 71.223 99.477 70.957 99.711 c 70.676 99.961
 70.535 100.289 70.535 100.695 c 70.535 101.336 70.895 101.789 71.785 102.258
 c 72.348 102.57 72.77 102.883 72.973 103.195 c 73.035 103.289 73.082 103.461
 73.082 103.664 c 73.082 104.18 72.676 104.555 72.098 104.555 c 71.379 104.555
 70.895 104.117 70.488 103.148 c 70.301 103.148 l 70.551 104.836 l 70.723
 104.836 l 70.723 104.68 70.832 104.57 70.941 104.57 c 71.035 104.57 71.16
 104.602 71.316 104.648 c 71.629 104.773 71.941 104.836 72.254 104.836 c
 73.191 104.836 73.879 104.211 73.879 103.383 c 73.879 102.727 73.441 102.211
 72.395 101.648 c 71.551 101.195 71.223 100.836 71.223 100.398 c 71.223 
99.961 71.551 99.664 72.051 99.664 c 72.41 99.664 72.738 99.82 73.02 100.102
 c 73.27 100.367 73.379 100.57 73.504 101.039 c 73.707 101.039 l h
73.535 99.336 m f
77.289 99.336 m 75.773 99.336 74.68 100.477 74.68 102.086 c 74.68 102.836
 74.945 103.57 75.367 104.023 c 75.836 104.523 76.539 104.836 77.242 104.836
 c 78.82 104.836 79.898 103.727 79.898 102.117 c 79.898 101.336 79.664 100.648
 79.227 100.18 c 78.727 99.633 78.055 99.336 77.289 99.336 c h
77.289 99.633 m 77.664 99.633 78.023 99.773 78.305 100.023 c 78.742 100.414
 78.992 101.164 78.992 102.117 c 78.992 102.586 78.898 103.133 78.727 103.555
 c 78.648 103.742 78.523 103.945 78.336 104.133 c 78.055 104.414 77.695 
104.555 77.273 104.555 c 76.914 104.555 76.555 104.414 76.258 104.164 c 
75.852 103.789 75.586 102.992 75.586 102.102 c 75.586 101.289 75.82 100.523
 76.148 100.148 c 76.461 99.805 76.852 99.633 77.289 99.633 c h
77.289 99.633 m f
83 105.391 m 82.391 105.391 l 82.391 102.719 l 82.125 102.719 l 80.25 105.391
 l 80.25 105.766 l 81.922 105.766 l 81.922 106.766 l 82.391 106.766 l 82.391
 105.766 l 83 105.766 l h
81.922 105.391 m 80.484 105.391 l 81.922 103.328 l h
81.922 105.391 m f
85.695 102.43 m 85.695 102.148 85.477 101.883 85.148 101.883 c 84.883 101.883
 84.617 102.117 84.617 102.43 c 84.617 102.727 84.852 102.961 85.164 102.961
 c 85.461 102.961 85.695 102.727 85.695 102.43 c h
85.695 102.43 m f
87.59 104.727 m 89.793 104.727 l 89.793 104.602 l 89.184 104.602 89.043
 104.523 89.027 104.133 c 89.027 99.352 l 88.965 99.336 l 87.543 100.07 
l 87.543 100.18 l 87.84 100.055 88.043 100.008 88.105 100.008 c 88.277 100.008
 88.355 100.117 88.355 100.383 c 88.355 103.992 l 88.34 104.492 88.199 104.602
 87.59 104.602 c h
87.59 104.727 m f
92.645 99.336 m 92.191 99.336 91.863 99.461 91.566 99.758 c 91.113 100.195
 90.801 101.117 90.801 102.055 c 90.801 102.93 91.066 103.852 91.441 104.289
 c 91.738 104.648 92.145 104.836 92.598 104.836 c 93.02 104.836 93.348 104.695
 93.645 104.43 c 94.098 103.992 94.41 103.055 94.41 102.102 c 94.41 100.461
 93.676 99.336 92.645 99.336 c h
92.613 99.555 m 93.285 99.555 93.645 100.445 93.645 102.117 c 93.645 103.773
 93.285 104.633 92.598 104.633 c 91.926 104.633 91.566 103.773 91.566 102.117
 c 91.566 100.43 91.926 99.555 92.613 99.555 c h
92.613 99.555 m f
94.73 104.727 m 96.934 104.727 l 96.934 104.57 l 96.34 104.523 96.246 104.43
 96.246 103.852 c 96.246 102.211 l 98.652 102.211 l 98.652 103.773 l 98.652
 104.445 98.574 104.539 97.949 104.57 c 97.949 104.727 l 100.168 104.727
 l 100.168 104.57 l 99.574 104.523 99.48 104.43 99.465 103.852 c 99.465 
100.32 l 99.48 99.742 99.559 99.664 100.168 99.602 c 100.168 99.445 l 97.949
 99.445 l 97.949 99.602 l 98.574 99.648 98.652 99.727 98.652 100.32 c 98.652
 101.867 l 96.246 101.867 l 96.246 100.32 l 96.246 99.742 96.324 99.664 
96.934 99.602 c 96.934 99.445 l 94.73 99.445 l 94.73 99.602 l 95.34 99.648
 95.418 99.727 95.434 100.32 c 95.434 103.773 l 95.418 104.445 95.34 104.539
 94.73 104.57 c h
94.73 104.727 m f
103.176 105.953 m 103.098 105.922 l 102.879 106.266 102.816 106.312 102.535
 106.312 c 101.098 106.312 l 102.098 105.25 l 102.629 104.703 102.863 104.25
 102.863 103.781 c 102.863 103.188 102.379 102.719 101.77 102.719 c 101.426
 102.719 101.129 102.859 100.895 103.094 c 100.707 103.297 100.613 103.484
 100.52 103.906 c 100.645 103.938 l 100.879 103.359 101.098 103.156 101.504
 103.156 c 102.02 103.156 102.348 103.5 102.348 104 c 102.348 104.484 102.082
 105.031 101.582 105.562 c 100.504 106.688 l 100.504 106.766 l 102.848 106.766
 l h
103.176 105.953 m f
106.688 99.336 m 105.172 99.336 104.078 100.477 104.078 102.086 c 104.078
 102.836 104.344 103.57 104.766 104.023 c 105.234 104.523 105.938 104.836
 106.641 104.836 c 108.219 104.836 109.297 103.727 109.297 102.117 c 109.297
 101.336 109.062 100.648 108.625 100.18 c 108.125 99.633 107.453 99.336 
106.688 99.336 c h
106.688 99.633 m 107.062 99.633 107.422 99.773 107.703 100.023 c 108.141
 100.414 108.391 101.164 108.391 102.117 c 108.391 102.586 108.297 103.133
 108.125 103.555 c 108.047 103.742 107.922 103.945 107.734 104.133 c 107.453
 104.414 107.094 104.555 106.672 104.555 c 106.312 104.555 105.953 104.414
 105.656 104.164 c 105.25 103.789 104.984 102.992 104.984 102.102 c 104.984
 101.289 105.219 100.523 105.547 100.148 c 105.859 99.805 106.25 99.633 
106.688 99.633 c h
106.688 99.633 m f
126.688 120.504 m 124.812 120.504 l 124.812 120.66 l 125.453 120.707 125.547
 120.832 125.578 121.676 c 125.578 124.363 l 122.5 120.504 l 121.141 120.504
 l 121.141 120.66 l 121.484 120.66 121.594 120.723 121.922 121.098 c 121.922
 124.613 l 121.906 125.457 121.797 125.598 121.141 125.629 c 121.141 125.785
 l 123.016 125.785 l 123.016 125.629 l 122.406 125.598 122.281 125.441 122.266
 124.613 c 122.266 121.488 l 125.781 125.879 l 125.922 125.879 l 125.922
 121.676 l 125.953 120.848 126.047 120.723 126.688 120.66 c h
126.688 120.504 m f
130.32 125.254 m 130.195 125.363 130.102 125.41 129.977 125.41 c 129.789
 125.41 129.742 125.301 129.742 124.941 c 129.742 123.395 l 129.742 122.973
 129.695 122.754 129.57 122.551 c 129.398 122.27 129.055 122.113 128.586
 122.113 c 127.836 122.113 127.258 122.504 127.258 123.02 c 127.258 123.191
 127.398 123.348 127.586 123.348 c 127.789 123.348 127.945 123.191 127.945
 123.02 c 127.945 122.988 127.945 122.941 127.93 122.895 c 127.914 122.816
 127.914 122.754 127.914 122.707 c 127.914 122.488 128.164 122.316 128.492
 122.316 c 128.883 122.316 129.086 122.535 129.086 122.973 c 129.086 123.457
 l 127.867 123.941 127.727 124.02 127.383 124.316 c 127.211 124.473 127.102
 124.754 127.102 125.02 c 127.102 125.52 127.445 125.863 127.93 125.863 
c 128.289 125.863 128.617 125.691 129.102 125.285 c 129.133 125.707 129.289
 125.863 129.617 125.863 c 129.883 125.863 130.055 125.77 130.32 125.473
 c h
129.086 124.801 m 129.086 125.051 129.055 125.129 128.883 125.223 c 128.68
 125.332 128.477 125.41 128.305 125.41 c 128.023 125.41 127.805 125.129 
127.805 124.785 c 127.805 124.754 l 127.805 124.285 128.164 123.973 129.086
 123.645 c h
129.086 124.801 m f
133.129 127.016 m 133.051 126.984 l 132.832 127.328 132.77 127.375 132.488
 127.375 c 131.051 127.375 l 132.051 126.312 l 132.582 125.766 132.816 125.312
 132.816 124.844 c 132.816 124.25 132.332 123.781 131.723 123.781 c 131.379
 123.781 131.082 123.922 130.848 124.156 c 130.66 124.359 130.566 124.547
 130.473 124.969 c 130.598 125 l 130.832 124.422 131.051 124.219 131.457
 124.219 c 131.973 124.219 132.301 124.562 132.301 125.062 c 132.301 125.547
 132.035 126.094 131.535 126.625 c 130.457 127.75 l 130.457 127.828 l 132.801
 127.828 l h
133.129 127.016 m f
137.328 120.395 m 137.156 120.395 l 137.125 120.566 137.047 120.676 136.906
 120.676 c 136.828 120.676 136.688 120.645 136.547 120.566 c 136.266 120.457
 135.969 120.395 135.703 120.395 c 135.375 120.395 135.016 120.535 134.75
 120.77 c 134.469 121.02 134.328 121.348 134.328 121.754 c 134.328 122.395
 134.688 122.848 135.578 123.316 c 136.141 123.629 136.562 123.941 136.766
 124.254 c 136.828 124.348 136.875 124.52 136.875 124.723 c 136.875 125.238
 136.469 125.613 135.891 125.613 c 135.172 125.613 134.688 125.176 134.281
 124.207 c 134.094 124.207 l 134.344 125.895 l 134.516 125.895 l 134.516
 125.738 134.625 125.629 134.734 125.629 c 134.828 125.629 134.953 125.66
 135.109 125.707 c 135.422 125.832 135.734 125.895 136.047 125.895 c 136.984
 125.895 137.672 125.27 137.672 124.441 c 137.672 123.785 137.234 123.27
 136.188 122.707 c 135.344 122.254 135.016 121.895 135.016 121.457 c 135.016
 121.02 135.344 120.723 135.844 120.723 c 136.203 120.723 136.531 120.879
 136.812 121.16 c 137.062 121.426 137.172 121.629 137.297 122.098 c 137.5
 122.098 l h
137.328 120.395 m f
141.082 120.395 m 139.566 120.395 138.473 121.535 138.473 123.145 c 138.473
 123.895 138.738 124.629 139.16 125.082 c 139.629 125.582 140.332 125.895
 141.035 125.895 c 142.613 125.895 143.691 124.785 143.691 123.176 c 143.691
 122.395 143.457 121.707 143.02 121.238 c 142.52 120.691 141.848 120.395
 141.082 120.395 c h
141.082 120.691 m 141.457 120.691 141.816 120.832 142.098 121.082 c 142.535
 121.473 142.785 122.223 142.785 123.176 c 142.785 123.645 142.691 124.191
 142.52 124.613 c 142.441 124.801 142.316 125.004 142.129 125.191 c 141.848
 125.473 141.488 125.613 141.066 125.613 c 140.707 125.613 140.348 125.473
 140.051 125.223 c 139.645 124.848 139.379 124.051 139.379 123.16 c 139.379
 122.348 139.613 121.582 139.941 121.207 c 140.254 120.863 140.645 120.691
 141.082 120.691 c h
141.082 120.691 m f
146.793 126.453 m 146.184 126.453 l 146.184 123.781 l 145.918 123.781 l
 144.043 126.453 l 144.043 126.828 l 145.715 126.828 l 145.715 127.828 l
 146.184 127.828 l 146.184 126.828 l 146.793 126.828 l h
145.715 126.453 m 144.277 126.453 l 145.715 124.391 l h
145.715 126.453 m f
149.488 123.488 m 149.488 123.207 149.27 122.941 148.941 122.941 c 148.676
 122.941 148.41 123.176 148.41 123.488 c 148.41 123.785 148.645 124.02 148.957
 124.02 c 149.254 124.02 149.488 123.785 149.488 123.488 c h
149.488 123.488 m f
151.383 125.785 m 153.586 125.785 l 153.586 125.66 l 152.977 125.66 152.836
 125.582 152.82 125.191 c 152.82 120.41 l 152.758 120.395 l 151.336 121.129
 l 151.336 121.238 l 151.633 121.113 151.836 121.066 151.898 121.066 c 152.07
 121.066 152.148 121.176 152.148 121.441 c 152.148 125.051 l 152.133 125.551
 151.992 125.66 151.383 125.66 c h
151.383 125.785 m f
156.438 120.395 m 155.984 120.395 155.656 120.52 155.359 120.816 c 154.906
 121.254 154.594 122.176 154.594 123.113 c 154.594 123.988 154.859 124.91
 155.234 125.348 c 155.531 125.707 155.938 125.895 156.391 125.895 c 156.812
 125.895 157.141 125.754 157.438 125.488 c 157.891 125.051 158.203 124.113
 158.203 123.16 c 158.203 121.52 157.469 120.395 156.438 120.395 c h
156.406 120.613 m 157.078 120.613 157.438 121.504 157.438 123.176 c 157.438
 124.832 157.078 125.691 156.391 125.691 c 155.719 125.691 155.359 124.832
 155.359 123.176 c 155.359 121.488 155.719 120.613 156.406 120.613 c h
156.406 120.613 m f
158.523 125.785 m 160.727 125.785 l 160.727 125.629 l 160.133 125.582 160.039
 125.488 160.039 124.91 c 160.039 123.27 l 162.445 123.27 l 162.445 124.832
 l 162.445 125.504 162.367 125.598 161.742 125.629 c 161.742 125.785 l 163.961
 125.785 l 163.961 125.629 l 163.367 125.582 163.273 125.488 163.258 124.91
 c 163.258 121.379 l 163.273 120.801 163.352 120.723 163.961 120.66 c 163.961
 120.504 l 161.742 120.504 l 161.742 120.66 l 162.367 120.707 162.445 120.785
 162.445 121.379 c 162.445 122.926 l 160.039 122.926 l 160.039 121.379 l
 160.039 120.801 160.117 120.723 160.727 120.66 c 160.727 120.504 l 158.523
 120.504 l 158.523 120.66 l 159.133 120.707 159.211 120.785 159.227 121.379
 c 159.227 124.832 l 159.211 125.504 159.133 125.598 158.523 125.629 c h
158.523 125.785 m f
166.969 127.016 m 166.891 126.984 l 166.672 127.328 166.609 127.375 166.328
 127.375 c 164.891 127.375 l 165.891 126.312 l 166.422 125.766 166.656 125.312
 166.656 124.844 c 166.656 124.25 166.172 123.781 165.562 123.781 c 165.219
 123.781 164.922 123.922 164.688 124.156 c 164.5 124.359 164.406 124.547
 164.312 124.969 c 164.438 125 l 164.672 124.422 164.891 124.219 165.297
 124.219 c 165.812 124.219 166.141 124.562 166.141 125.062 c 166.141 125.547
 165.875 126.094 165.375 126.625 c 164.297 127.75 l 164.297 127.828 l 166.641
 127.828 l h
166.969 127.016 m f
170.48 120.395 m 168.965 120.395 167.871 121.535 167.871 123.145 c 167.871
 123.895 168.137 124.629 168.559 125.082 c 169.027 125.582 169.73 125.895
 170.434 125.895 c 172.012 125.895 173.09 124.785 173.09 123.176 c 173.09
 122.395 172.855 121.707 172.418 121.238 c 171.918 120.691 171.246 120.395
 170.48 120.395 c h
170.48 120.691 m 170.855 120.691 171.215 120.832 171.496 121.082 c 171.934
 121.473 172.184 122.223 172.184 123.176 c 172.184 123.645 172.09 124.191
 171.918 124.613 c 171.84 124.801 171.715 125.004 171.527 125.191 c 171.246
 125.473 170.887 125.613 170.465 125.613 c 170.105 125.613 169.746 125.473
 169.449 125.223 c 169.043 124.848 168.777 124.051 168.777 123.16 c 168.777
 122.348 169.012 121.582 169.34 121.207 c 169.652 120.863 170.043 120.691
 170.48 120.691 c h
170.48 120.691 m f
177.27 123.504 m 175.52 123.504 l 175.52 124.035 l 177.27 124.035 l 177.27
 125.785 l 177.801 125.785 l 177.801 124.035 l 179.535 124.035 l 179.535
 123.504 l 177.801 123.504 l 177.801 121.754 l 177.27 121.754 l h
177.27 123.504 m f
187.527 120.504 m 185.652 120.504 l 185.652 120.66 l 186.293 120.707 186.387
 120.832 186.418 121.676 c 186.418 124.363 l 183.34 120.504 l 181.98 120.504
 l 181.98 120.66 l 182.324 120.66 182.434 120.723 182.762 121.098 c 182.762
 124.613 l 182.746 125.457 182.637 125.598 181.98 125.629 c 181.98 125.785
 l 183.855 125.785 l 183.855 125.629 l 183.246 125.598 183.121 125.441 183.105
 124.613 c 183.105 121.488 l 186.621 125.879 l 186.762 125.879 l 186.762
 121.676 l 186.793 120.848 186.887 120.723 187.527 120.66 c h
187.527 120.504 m f
191.16 125.254 m 191.035 125.363 190.941 125.41 190.816 125.41 c 190.629
 125.41 190.582 125.301 190.582 124.941 c 190.582 123.395 l 190.582 122.973
 190.535 122.754 190.41 122.551 c 190.238 122.27 189.895 122.113 189.426
 122.113 c 188.676 122.113 188.098 122.504 188.098 123.02 c 188.098 123.191
 188.238 123.348 188.426 123.348 c 188.629 123.348 188.785 123.191 188.785
 123.02 c 188.785 122.988 188.785 122.941 188.77 122.895 c 188.754 122.816
 188.754 122.754 188.754 122.707 c 188.754 122.488 189.004 122.316 189.332
 122.316 c 189.723 122.316 189.926 122.535 189.926 122.973 c 189.926 123.457
 l 188.707 123.941 188.566 124.02 188.223 124.316 c 188.051 124.473 187.941
 124.754 187.941 125.02 c 187.941 125.52 188.285 125.863 188.77 125.863 
c 189.129 125.863 189.457 125.691 189.941 125.285 c 189.973 125.707 190.129
 125.863 190.457 125.863 c 190.723 125.863 190.895 125.77 191.16 125.473
 c h
189.926 124.801 m 189.926 125.051 189.895 125.129 189.723 125.223 c 189.52
 125.332 189.316 125.41 189.145 125.41 c 188.863 125.41 188.645 125.129 
188.645 124.785 c 188.645 124.754 l 188.645 124.285 189.004 123.973 189.926
 123.645 c h
189.926 124.801 m f
193.969 127.016 m 193.891 126.984 l 193.672 127.328 193.609 127.375 193.328
 127.375 c 191.891 127.375 l 192.891 126.312 l 193.422 125.766 193.656 125.312
 193.656 124.844 c 193.656 124.25 193.172 123.781 192.562 123.781 c 192.219
 123.781 191.922 123.922 191.688 124.156 c 191.5 124.359 191.406 124.547
 191.312 124.969 c 191.438 125 l 191.672 124.422 191.891 124.219 192.297
 124.219 c 192.812 124.219 193.141 124.562 193.141 125.062 c 193.141 125.547
 192.875 126.094 192.375 126.625 c 191.297 127.75 l 191.297 127.828 l 193.641
 127.828 l h
193.969 127.016 m f
198.168 120.395 m 197.996 120.395 l 197.965 120.566 197.887 120.676 197.746
 120.676 c 197.668 120.676 197.527 120.645 197.387 120.566 c 197.105 120.457
 196.809 120.395 196.543 120.395 c 196.215 120.395 195.855 120.535 195.59
 120.77 c 195.309 121.02 195.168 121.348 195.168 121.754 c 195.168 122.395
 195.527 122.848 196.418 123.316 c 196.98 123.629 197.402 123.941 197.605
 124.254 c 197.668 124.348 197.715 124.52 197.715 124.723 c 197.715 125.238
 197.309 125.613 196.73 125.613 c 196.012 125.613 195.527 125.176 195.121
 124.207 c 194.934 124.207 l 195.184 125.895 l 195.355 125.895 l 195.355
 125.738 195.465 125.629 195.574 125.629 c 195.668 125.629 195.793 125.66
 195.949 125.707 c 196.262 125.832 196.574 125.895 196.887 125.895 c 197.824
 125.895 198.512 125.27 198.512 124.441 c 198.512 123.785 198.074 123.27
 197.027 122.707 c 196.184 122.254 195.855 121.895 195.855 121.457 c 195.855
 121.02 196.184 120.723 196.684 120.723 c 197.043 120.723 197.371 120.879
 197.652 121.16 c 197.902 121.426 198.012 121.629 198.137 122.098 c 198.34
 122.098 l h
198.168 120.395 m f
201.922 120.395 m 200.406 120.395 199.312 121.535 199.312 123.145 c 199.312
 123.895 199.578 124.629 200 125.082 c 200.469 125.582 201.172 125.895 201.875
 125.895 c 203.453 125.895 204.531 124.785 204.531 123.176 c 204.531 122.395
 204.297 121.707 203.859 121.238 c 203.359 120.691 202.688 120.395 201.922
 120.395 c h
201.922 120.691 m 202.297 120.691 202.656 120.832 202.938 121.082 c 203.375
 121.473 203.625 122.223 203.625 123.176 c 203.625 123.645 203.531 124.191
 203.359 124.613 c 203.281 124.801 203.156 125.004 202.969 125.191 c 202.688
 125.473 202.328 125.613 201.906 125.613 c 201.547 125.613 201.188 125.473
 200.891 125.223 c 200.484 124.848 200.219 124.051 200.219 123.16 c 200.219
 122.348 200.453 121.582 200.781 121.207 c 201.094 120.863 201.484 120.691
 201.922 120.691 c h
201.922 120.691 m f
207.633 126.453 m 207.023 126.453 l 207.023 123.781 l 206.758 123.781 l
 204.883 126.453 l 204.883 126.828 l 206.555 126.828 l 206.555 127.828 l
 207.023 127.828 l 207.023 126.828 l 207.633 126.828 l h
206.555 126.453 m 205.117 126.453 l 206.555 124.391 l h
206.555 126.453 m f
36.645 157.375 m 38.535 157.375 l 38.535 157.25 l 38.004 157.219 37.957
 157.141 37.941 156.562 c 37.941 153.734 l 37.91 153.703 l 36.676 154.141
 l 36.676 154.266 l 36.738 154.266 l 36.832 154.25 36.941 154.234 37.02 
154.234 c 37.207 154.234 37.27 154.359 37.27 154.719 c 37.27 156.562 l 37.254
 157.156 37.191 157.234 36.645 157.25 c h
37.535 151.938 m 37.332 151.938 37.145 152.109 37.145 152.344 c 37.145 
152.562 37.316 152.75 37.535 152.75 c 37.785 152.75 37.957 152.562 37.957
 152.344 c 37.957 152.109 37.77 151.938 37.535 151.938 c h
37.535 151.938 m f
41.852 156.125 m 41.461 156.688 41.18 156.875 40.727 156.875 c 39.992 156.875
 39.492 156.25 39.492 155.328 c 39.492 154.5 39.93 153.938 40.57 153.938
 c 40.867 153.938 40.961 154.016 41.039 154.328 c 41.102 154.5 l 41.164 
154.734 41.305 154.859 41.477 154.859 c 41.68 154.859 41.852 154.719 41.852
 154.531 c 41.852 154.078 41.289 153.703 40.617 153.703 c 40.227 153.703
 39.82 153.875 39.508 154.156 c 39.102 154.5 38.883 155.047 38.883 155.688
 c 38.883 156.719 39.508 157.453 40.398 157.453 c 40.758 157.453 41.07 157.328
 41.352 157.078 c 41.57 156.891 41.727 156.672 41.961 156.203 c h
41.852 156.125 m f
45.41 156.062 m 45.035 156.672 44.691 156.906 44.176 156.906 c 43.723 156.906
 43.379 156.672 43.145 156.219 c 43.004 155.922 42.941 155.656 42.926 155.172
 c 45.395 155.172 l 45.316 154.656 45.238 154.422 45.051 154.156 c 44.801
 153.875 44.441 153.703 44.02 153.703 c 43.629 153.703 43.254 153.859 42.941
 154.125 c 42.582 154.453 42.363 155.016 42.363 155.672 c 42.363 156.766
 42.926 157.453 43.848 157.453 c 44.613 157.453 45.207 156.984 45.535 156.125
 c h
42.941 154.906 m 43.035 154.297 43.301 154 43.801 154 c 44.285 154 44.473
 154.219 44.582 154.906 c h
42.941 154.906 m f
49.785 155.094 m 48.035 155.094 l 48.035 155.625 l 49.785 155.625 l 49.785
 157.375 l 50.316 157.375 l 50.316 155.625 l 52.051 155.625 l 52.051 155.094
 l 50.316 155.094 l 50.316 153.344 l 49.785 153.344 l h
49.785 155.094 m f
59.922 152.094 m 58.047 152.094 l 58.047 152.25 l 58.688 152.297 58.781
 152.422 58.812 153.266 c 58.812 155.953 l 55.734 152.094 l 54.375 152.094
 l 54.375 152.25 l 54.719 152.25 54.828 152.312 55.156 152.688 c 55.156 
156.203 l 55.141 157.047 55.031 157.188 54.375 157.219 c 54.375 157.375 
l 56.25 157.375 l 56.25 157.219 l 55.641 157.188 55.516 157.031 55.5 156.203
 c 55.5 153.078 l 59.016 157.469 l 59.156 157.469 l 59.156 153.266 l 59.188
 152.438 59.281 152.312 59.922 152.25 c h
59.922 152.094 m f
63.559 156.844 m 63.434 156.953 63.34 157 63.215 157 c 63.027 157 62.98
 156.891 62.98 156.531 c 62.98 154.984 l 62.98 154.562 62.934 154.344 62.809
 154.141 c 62.637 153.859 62.293 153.703 61.824 153.703 c 61.074 153.703
 60.496 154.094 60.496 154.609 c 60.496 154.781 60.637 154.938 60.824 154.938
 c 61.027 154.938 61.184 154.781 61.184 154.609 c 61.184 154.578 61.184 
154.531 61.168 154.484 c 61.152 154.406 61.152 154.344 61.152 154.297 c 
61.152 154.078 61.402 153.906 61.73 153.906 c 62.121 153.906 62.324 154.125
 62.324 154.562 c 62.324 155.047 l 61.105 155.531 60.965 155.609 60.621 
155.906 c 60.449 156.062 60.34 156.344 60.34 156.609 c 60.34 157.109 60.684
 157.453 61.168 157.453 c 61.527 157.453 61.855 157.281 62.34 156.875 c 
62.371 157.297 62.527 157.453 62.855 157.453 c 63.121 157.453 63.293 157.359
 63.559 157.062 c h
62.324 156.391 m 62.324 156.641 62.293 156.719 62.121 156.812 c 61.918 
156.922 61.715 157 61.543 157 c 61.262 157 61.043 156.719 61.043 156.375
 c 61.043 156.344 l 61.043 155.875 61.402 155.562 62.324 155.234 c h
62.324 156.391 m f
66.363 158.602 m 66.285 158.57 l 66.066 158.914 66.004 158.961 65.723 158.961
 c 64.285 158.961 l 65.285 157.898 l 65.816 157.352 66.051 156.898 66.051
 156.43 c 66.051 155.836 65.566 155.367 64.957 155.367 c 64.613 155.367 
64.316 155.508 64.082 155.742 c 63.895 155.945 63.801 156.133 63.707 156.555
 c 63.832 156.586 l 64.066 156.008 64.285 155.805 64.691 155.805 c 65.207
 155.805 65.535 156.148 65.535 156.648 c 65.535 157.133 65.27 157.68 64.77
 158.211 c 63.691 159.336 l 63.691 159.414 l 66.035 159.414 l h
66.363 158.602 m f
70.684 151.984 m 70.512 151.984 l 70.48 152.156 70.402 152.266 70.262 152.266
 c 70.184 152.266 70.043 152.234 69.902 152.156 c 69.621 152.047 69.324 
151.984 69.059 151.984 c 68.73 151.984 68.371 152.125 68.105 152.359 c 67.824
 152.609 67.684 152.938 67.684 153.344 c 67.684 153.984 68.043 154.438 68.934
 154.906 c 69.496 155.219 69.918 155.531 70.121 155.844 c 70.184 155.938
 70.23 156.109 70.23 156.312 c 70.23 156.828 69.824 157.203 69.246 157.203
 c 68.527 157.203 68.043 156.766 67.637 155.797 c 67.449 155.797 l 67.699
 157.484 l 67.871 157.484 l 67.871 157.328 67.98 157.219 68.09 157.219 c
 68.184 157.219 68.309 157.25 68.465 157.297 c 68.777 157.422 69.09 157.484
 69.402 157.484 c 70.34 157.484 71.027 156.859 71.027 156.031 c 71.027 155.375
 70.59 154.859 69.543 154.297 c 68.699 153.844 68.371 153.484 68.371 153.047
 c 68.371 152.609 68.699 152.312 69.199 152.312 c 69.559 152.312 69.887 
152.469 70.168 152.75 c 70.418 153.016 70.527 153.219 70.652 153.688 c 70.855
 153.688 l h
70.684 151.984 m f
74.438 151.984 m 72.922 151.984 71.828 153.125 71.828 154.734 c 71.828 
155.484 72.094 156.219 72.516 156.672 c 72.984 157.172 73.688 157.484 74.391
 157.484 c 75.969 157.484 77.047 156.375 77.047 154.766 c 77.047 153.984
 76.812 153.297 76.375 152.828 c 75.875 152.281 75.203 151.984 74.438 151.984
 c h
74.438 152.281 m 74.812 152.281 75.172 152.422 75.453 152.672 c 75.891 
153.062 76.141 153.812 76.141 154.766 c 76.141 155.234 76.047 155.781 75.875
 156.203 c 75.797 156.391 75.672 156.594 75.484 156.781 c 75.203 157.062
 74.844 157.203 74.422 157.203 c 74.062 157.203 73.703 157.062 73.406 156.812
 c 73 156.438 72.734 155.641 72.734 154.75 c 72.734 153.938 72.969 153.172
 73.297 152.797 c 73.609 152.453 74 152.281 74.438 152.281 c h
74.438 152.281 m f
80.148 158.039 m 79.539 158.039 l 79.539 155.367 l 79.273 155.367 l 77.398
 158.039 l 77.398 158.414 l 79.07 158.414 l 79.07 159.414 l 79.539 159.414
 l 79.539 158.414 l 80.148 158.414 l h
79.07 158.039 m 77.633 158.039 l 79.07 155.977 l h
79.07 158.039 m f
82.723 155.078 m 82.723 154.797 82.504 154.531 82.176 154.531 c 81.91 154.531
 81.645 154.766 81.645 155.078 c 81.645 155.375 81.879 155.609 82.191 155.609
 c 82.488 155.609 82.723 155.375 82.723 155.078 c h
82.723 155.078 m f
84.617 157.375 m 86.82 157.375 l 86.82 157.25 l 86.211 157.25 86.07 157.172
 86.055 156.781 c 86.055 152 l 85.992 151.984 l 84.57 152.719 l 84.57 152.828
 l 84.867 152.703 85.07 152.656 85.133 152.656 c 85.305 152.656 85.383 152.766
 85.383 153.031 c 85.383 156.641 l 85.367 157.141 85.227 157.25 84.617 157.25
 c h
84.617 157.375 m f
89.672 151.984 m 89.219 151.984 88.891 152.109 88.594 152.406 c 88.141 
152.844 87.828 153.766 87.828 154.703 c 87.828 155.578 88.094 156.5 88.469
 156.938 c 88.766 157.297 89.172 157.484 89.625 157.484 c 90.047 157.484
 90.375 157.344 90.672 157.078 c 91.125 156.641 91.438 155.703 91.438 154.75
 c 91.438 153.109 90.703 151.984 89.672 151.984 c h
89.641 152.203 m 90.312 152.203 90.672 153.094 90.672 154.766 c 90.672 
156.422 90.312 157.281 89.625 157.281 c 88.953 157.281 88.594 156.422 88.594
 154.766 c 88.594 153.078 88.953 152.203 89.641 152.203 c h
89.641 152.203 m f
91.758 157.375 m 93.961 157.375 l 93.961 157.219 l 93.367 157.172 93.273
 157.078 93.273 156.5 c 93.273 154.859 l 95.68 154.859 l 95.68 156.422 l
 95.68 157.094 95.602 157.188 94.977 157.219 c 94.977 157.375 l 97.195 157.375
 l 97.195 157.219 l 96.602 157.172 96.508 157.078 96.492 156.5 c 96.492 
152.969 l 96.508 152.391 96.586 152.312 97.195 152.25 c 97.195 152.094 l
 94.977 152.094 l 94.977 152.25 l 95.602 152.297 95.68 152.375 95.68 152.969
 c 95.68 154.516 l 93.273 154.516 l 93.273 152.969 l 93.273 152.391 93.352
 152.312 93.961 152.25 c 93.961 152.094 l 91.758 152.094 l 91.758 152.25
 l 92.367 152.297 92.445 152.375 92.461 152.969 c 92.461 156.422 l 92.445
 157.094 92.367 157.188 91.758 157.219 c h
91.758 157.375 m f
100.203 158.602 m 100.125 158.57 l 99.906 158.914 99.844 158.961 99.562
 158.961 c 98.125 158.961 l 99.125 157.898 l 99.656 157.352 99.891 156.898
 99.891 156.43 c 99.891 155.836 99.406 155.367 98.797 155.367 c 98.453 155.367
 98.156 155.508 97.922 155.742 c 97.734 155.945 97.641 156.133 97.547 156.555
 c 97.672 156.586 l 97.906 156.008 98.125 155.805 98.531 155.805 c 99.047
 155.805 99.375 156.148 99.375 156.648 c 99.375 157.133 99.109 157.68 98.609
 158.211 c 97.531 159.336 l 97.531 159.414 l 99.875 159.414 l h
100.203 158.602 m f
103.836 151.984 m 102.32 151.984 101.227 153.125 101.227 154.734 c 101.227
 155.484 101.492 156.219 101.914 156.672 c 102.383 157.172 103.086 157.484
 103.789 157.484 c 105.367 157.484 106.445 156.375 106.445 154.766 c 106.445
 153.984 106.211 153.297 105.773 152.828 c 105.273 152.281 104.602 151.984
 103.836 151.984 c h
103.836 152.281 m 104.211 152.281 104.57 152.422 104.852 152.672 c 105.289
 153.062 105.539 153.812 105.539 154.766 c 105.539 155.234 105.445 155.781
 105.273 156.203 c 105.195 156.391 105.07 156.594 104.883 156.781 c 104.602
 157.062 104.242 157.203 103.82 157.203 c 103.461 157.203 103.102 157.062
 102.805 156.812 c 102.398 156.438 102.133 155.641 102.133 154.75 c 102.133
 153.938 102.367 153.172 102.695 152.797 c 103.008 152.453 103.398 152.281
 103.836 152.281 c h
103.836 152.281 m f
Q Q
showpage
%%Trailer
end
%%EOF
