%!PS-Adobe-3.0 EPSF-3.0
%%Creator: cairo 1.17.4 (https://cairographics.org)
%%CreationDate: Thu Feb 24 10:49:45 2022
%%Pages: 1
%%DocumentData: Clean7Bit
%%LanguageLevel: 2
%%BoundingBox: 0 0 214 138
%%EndComments
%%BeginProlog
50 dict begin
/q { gsave } bind def
/Q { grestore } bind def
/cm { 6 array astore concat } bind def
/w { setlinewidth } bind def
/J { setlinecap } bind def
/j { setlinejoin } bind def
/M { setmiterlimit } bind def
/d { setdash } bind def
/m { moveto } bind def
/l { lineto } bind def
/c { curveto } bind def
/h { closepath } bind def
/re { exch dup neg 3 1 roll 5 3 roll moveto 0 rlineto
      0 exch rlineto 0 rlineto closepath } bind def
/S { stroke } bind def
/f { fill } bind def
/f* { eofill } bind def
/n { newpath } bind def
/W { clip } bind def
/W* { eoclip } bind def
/BT { } bind def
/ET { } bind def
/BDC { mark 3 1 roll /BDC pdfmark } bind def
/EMC { mark /EMC pdfmark } bind def
/cairo_store_point { /cairo_point_y exch def /cairo_point_x exch def } def
/Tj { show currentpoint cairo_store_point } bind def
/TJ {
  {
    dup
    type /stringtype eq
    { show } { -0.001 mul 0 cairo_font_matrix dtransform rmoveto } ifelse
  } forall
  currentpoint cairo_store_point
} bind def
/cairo_selectfont { cairo_font_matrix aload pop pop pop 0 0 6 array astore
    cairo_font exch selectfont cairo_point_x cairo_point_y moveto } bind def
/Tf { pop /cairo_font exch def /cairo_font_matrix where
      { pop cairo_selectfont } if } bind def
/Td { matrix translate cairo_font_matrix matrix concatmatrix dup
      /cairo_font_matrix exch def dup 4 get exch 5 get cairo_store_point
      /cairo_font where { pop cairo_selectfont } if } bind def
/Tm { 2 copy 8 2 roll 6 array astore /cairo_font_matrix exch def
      cairo_store_point /cairo_font where { pop cairo_selectfont } if } bind def
/g { setgray } bind def
/rg { setrgbcolor } bind def
/d1 { setcachedevice } bind def
/cairo_data_source {
  CairoDataIndex CairoData length lt
    { CairoData CairoDataIndex get /CairoDataIndex CairoDataIndex 1 add def }
    { () } ifelse
} def
/cairo_flush_ascii85_file { cairo_ascii85_file status { cairo_ascii85_file flushfile } if } def
/cairo_image { image cairo_flush_ascii85_file } def
/cairo_imagemask { imagemask cairo_flush_ascii85_file } def
%%EndProlog
%%BeginSetup
%%EndSetup
%%Page: 1 1
%%BeginPageSetup
%%PageBoundingBox: 0 0 214 138
%%EndPageSetup
q 0 0 214 138 rectclip
1 0 0 -1 0 138 cm q
0 g
1.13366 w
0 J
0 j
[] 0.0 d
10 M q 1 0 0 -1 0 0 cm
34.051 -116.422 m 34.051 -116.422 34.191 -108.996 34.355 -105.082 c 34.676
 -97.254 34.992 -90.219 35.621 -82.406 c 37.027 -64.914 36.547 -48.805 40.941
 -31.836 c 42.098 -27.363 42.992 -22.805 46.184 -19.5 c 50.07 -15.473 55.461
 -13.664 60.973 -12.582 c 69.348 -10.938 77.348 -12.23 85.75 -13.828 c 92.211
 -15.059 98.09 -16.727 103.828 -19.93 c 112.074 -24.531 118.453 -30.543 
124.918 -37.438 c 141.332 -54.945 152.785 -73.586 165.836 -93.746 c 168.289
 -97.531 170.406 -101.008 172.34 -105.082 c 174.133 -108.867 176.672 -116.422
 176.672 -116.422 c S Q
0.567043 w
q 1 0 0 -1 0 0 cm
26.27 -3.027 181.41 -113.391 re S Q
28.223 122.941 m 28.223 121.332 27.488 119.879 26.238 119.879 c 24.973 
119.879 24.238 121.332 24.238 122.941 c 24.238 124.566 24.926 126.004 26.238
 126.004 c 27.441 126.004 28.223 124.566 28.223 122.941 c h
27.363 122.941 m 27.363 124.238 27.238 125.754 26.238 125.754 c 25.285 
125.754 25.098 124.238 25.098 122.941 c 25.098 121.863 25.223 120.113 26.238
 120.113 c 27.238 120.113 27.363 121.863 27.363 122.941 c h
27.363 122.941 m f
70.223 122.941 m 70.223 121.332 69.488 119.879 68.238 119.879 c 66.973 
119.879 66.238 121.332 66.238 122.941 c 66.238 124.566 66.926 126.004 68.238
 126.004 c 69.441 126.004 70.223 124.566 70.223 122.941 c h
69.363 122.941 m 69.363 124.238 69.238 125.754 68.238 125.754 c 67.285 
125.754 67.098 124.238 67.098 122.941 c 67.098 121.863 67.223 120.113 68.238
 120.113 c 69.238 120.113 69.363 121.863 69.363 122.941 c h
69.363 122.941 m f
72.145 125.52 m 72.145 125.238 71.926 125.02 71.645 125.02 c 71.363 125.02
 71.145 125.238 71.145 125.52 c 71.145 125.801 71.363 126.02 71.645 126.02
 c 71.926 126.02 72.145 125.801 72.145 125.52 c h
72.145 125.52 m f
76.312 125.895 m 76.312 125.754 l 75.719 125.754 75.5 125.77 75.5 124.598
 c 75.5 124.582 75.5 119.848 75.5 119.848 c 75.375 119.848 l 73.844 120.582
 l 73.891 120.723 l 74.219 120.582 74.297 120.551 74.422 120.551 c 74.688
 120.551 74.734 120.785 74.734 121.098 c 74.734 124.598 l 74.734 125.77 
74.516 125.738 73.922 125.754 c 73.922 125.895 l h
76.312 125.895 m f
115.582 122.941 m 115.582 121.332 114.848 119.879 113.598 119.879 c 112.332
 119.879 111.598 121.332 111.598 122.941 c 111.598 124.566 112.285 126.004
 113.598 126.004 c 114.801 126.004 115.582 124.566 115.582 122.941 c h
114.723 122.941 m 114.723 124.238 114.598 125.754 113.598 125.754 c 112.645
 125.754 112.457 124.238 112.457 122.941 c 112.457 121.863 112.582 120.113
 113.598 120.113 c 114.598 120.113 114.723 121.863 114.723 122.941 c h
114.723 122.941 m f
117.508 125.52 m 117.508 125.238 117.289 125.02 117.008 125.02 c 116.727
 125.02 116.508 125.238 116.508 125.52 c 116.508 125.801 116.727 126.02 
117.008 126.02 c 117.289 126.02 117.508 125.801 117.508 125.52 c h
117.508 125.52 m f
122.453 124.738 m 122.297 124.707 l 122.031 125.16 121.812 125.238 121.375
 125.238 c 119.312 125.238 l 120.734 123.941 122.031 122.77 122.031 121.457
 c 122.031 120.535 121.234 119.879 120.359 119.879 c 119.5 119.879 118.812
 120.348 118.547 121.566 c 118.75 121.566 l 119 121.066 119.344 120.551 
120.031 120.551 c 120.812 120.551 121.25 121.145 121.25 121.816 c 121.25
 122.785 120.219 124.207 118.453 125.754 c 118.453 125.895 l 121.984 125.895
 l h
122.453 124.738 m f
160.941 122.941 m 160.941 121.332 160.207 119.879 158.957 119.879 c 157.691
 119.879 156.957 121.332 156.957 122.941 c 156.957 124.566 157.645 126.004
 158.957 126.004 c 160.16 126.004 160.941 124.566 160.941 122.941 c h
160.082 122.941 m 160.082 124.238 159.957 125.754 158.957 125.754 c 158.004
 125.754 157.816 124.238 157.816 122.941 c 157.816 121.863 157.941 120.113
 158.957 120.113 c 159.957 120.113 160.082 121.863 160.082 122.941 c h
160.082 122.941 m f
162.867 125.52 m 162.867 125.238 162.648 125.02 162.367 125.02 c 162.086
 125.02 161.867 125.238 161.867 125.52 c 161.867 125.801 162.086 126.02 
162.367 126.02 c 162.648 126.02 162.867 125.801 162.867 125.52 c h
162.867 125.52 m f
167.438 123.957 m 167.438 123.02 166.891 122.613 166.359 122.395 c 166.938
 121.957 167.125 121.551 167.125 121.066 c 167.125 120.551 166.703 119.879
 165.734 119.879 c 165.031 119.879 164.359 120.27 164.062 121.238 c 164.203
 121.27 l 164.391 120.91 164.75 120.457 165.406 120.457 c 166.047 120.457
 166.422 120.895 166.422 121.395 c 166.422 122.098 165.875 122.598 165.062
 122.785 c 165.047 122.973 l 166.438 122.91 166.781 123.816 166.781 124.379
 c 166.781 125.051 166.297 125.66 165.656 125.66 c 165.078 125.66 164.828
 125.16 164.344 125.16 c 164.188 125.16 164 125.316 164 125.52 c 164 125.895
 164.562 126.004 164.969 126.004 c 166.391 126.004 167.438 125.191 167.438
 123.957 c h
167.438 123.957 m f
18.172 118.262 m 18.016 118.23 l 17.75 118.684 17.531 118.762 17.094 118.762
 c 15.031 118.762 l 16.453 117.465 17.75 116.293 17.75 114.98 c 17.75 114.059
 16.953 113.402 16.078 113.402 c 15.219 113.402 14.531 113.871 14.266 115.09
 c 14.469 115.09 l 14.719 114.59 15.062 114.074 15.75 114.074 c 16.531 114.074
 16.969 114.668 16.969 115.34 c 16.969 116.309 15.938 117.73 14.172 119.277
 c 14.172 119.418 l 17.703 119.418 l h
18.172 118.262 m f
22.582 116.465 m 22.582 114.855 21.848 113.402 20.598 113.402 c 19.332 
113.402 18.598 114.855 18.598 116.465 c 18.598 118.09 19.285 119.527 20.598
 119.527 c 21.801 119.527 22.582 118.09 22.582 116.465 c h
21.723 116.465 m 21.723 117.762 21.598 119.277 20.598 119.277 c 19.645 
119.277 19.457 117.762 19.457 116.465 c 19.457 115.387 19.582 113.637 20.598
 113.637 c 21.598 113.637 21.723 115.387 21.723 116.465 c h
21.723 116.465 m f
17.797 94.797 m 17.797 93.859 17.25 93.453 16.719 93.234 c 17.297 92.797
 17.484 92.391 17.484 91.906 c 17.484 91.391 17.062 90.719 16.094 90.719
 c 15.391 90.719 14.719 91.109 14.422 92.078 c 14.562 92.109 l 14.75 91.75
 15.109 91.297 15.766 91.297 c 16.406 91.297 16.781 91.734 16.781 92.234
 c 16.781 92.938 16.234 93.438 15.422 93.625 c 15.406 93.812 l 16.797 93.75
 17.141 94.656 17.141 95.219 c 17.141 95.891 16.656 96.5 16.016 96.5 c 15.438
 96.5 15.188 96 14.703 96 c 14.547 96 14.359 96.156 14.359 96.359 c 14.359
 96.734 14.922 96.844 15.328 96.844 c 16.75 96.844 17.797 96.031 17.797 
94.797 c h
17.797 94.797 m f
22.582 93.781 m 22.582 92.172 21.848 90.719 20.598 90.719 c 19.332 90.719
 18.598 92.172 18.598 93.781 c 18.598 95.406 19.285 96.844 20.598 96.844
 c 21.801 96.844 22.582 95.406 22.582 93.781 c h
21.723 93.781 m 21.723 95.078 21.598 96.594 20.598 96.594 c 19.645 96.594
 19.457 95.078 19.457 93.781 c 19.457 92.703 19.582 90.953 20.598 90.953
 c 21.598 90.953 21.723 92.703 21.723 93.781 c h
21.723 93.781 m f
18.156 72.57 m 18.156 71.961 l 17.281 71.961 l 17.281 68.039 l 16.844 68.039
 l 14.25 71.945 l 14.25 72.57 l 16.547 72.57 l 16.547 74.055 l 17.281 74.055
 l 17.281 72.57 l h
16.547 71.961 m 14.609 71.961 l 16.531 68.977 l 16.547 68.977 l h
16.547 71.961 m f
22.582 71.102 m 22.582 69.492 21.848 68.039 20.598 68.039 c 19.332 68.039
 18.598 69.492 18.598 71.102 c 18.598 72.727 19.285 74.164 20.598 74.164
 c 21.801 74.164 22.582 72.727 22.582 71.102 c h
21.723 71.102 m 21.723 72.398 21.598 73.914 20.598 73.914 c 19.645 73.914
 19.457 72.398 19.457 71.102 c 19.457 70.023 19.582 68.273 20.598 68.273
 c 21.598 68.273 21.723 70.023 21.723 71.102 c h
21.723 71.102 m f
18.078 45.453 m 15.609 45.453 l 14.5 48 l 14.641 47.969 14.781 47.938 14.953
 47.938 c 15.906 47.938 17.203 48.438 17.203 49.609 c 17.203 50.516 16.547
 51.094 15.922 51.094 c 15.375 51.094 15.172 50.594 14.656 50.594 c 14.406
 50.594 14.328 50.812 14.328 50.922 c 14.328 51.234 14.766 51.484 15.391
 51.484 c 16.734 51.484 17.797 50.5 17.797 49.297 c 17.797 47.875 16.672
 47.391 15.453 47.359 c 15.344 47.359 15.219 47.375 15.109 47.391 c 15.672
 46.125 l 17.766 46.109 l h
18.078 45.453 m f
22.582 48.422 m 22.582 46.812 21.848 45.359 20.598 45.359 c 19.332 45.359
 18.598 46.812 18.598 48.422 c 18.598 50.047 19.285 51.484 20.598 51.484
 c 21.801 51.484 22.582 50.047 22.582 48.422 c h
21.723 48.422 m 21.723 49.719 21.598 51.234 20.598 51.234 c 19.645 51.234
 19.457 49.719 19.457 48.422 c 19.457 47.344 19.582 45.594 20.598 45.594
 c 21.598 45.594 21.723 47.344 21.723 48.422 c h
21.723 48.422 m f
18.094 26.68 m 18.094 25.695 17.391 24.961 16.5 24.961 c 16.047 24.961 
15.672 25.102 15.281 25.414 c 15.672 23.82 16.844 22.82 17.969 22.805 c 
17.969 22.648 l 15.203 22.648 14.328 24.992 14.328 26.32 c 14.328 27.742
 15.156 28.805 16.266 28.805 c 17.281 28.805 18.094 27.852 18.094 26.68 
c h
17.328 27.133 m 17.328 27.961 16.953 28.539 16.359 28.539 c 15.438 28.539
 15.156 27.195 15.156 26.477 c 15.156 26.242 15.188 25.992 15.234 25.695
 c 15.625 25.445 15.938 25.336 16.25 25.336 c 17.156 25.336 17.328 26.383
 17.328 27.133 c h
17.328 27.133 m f
22.582 25.742 m 22.582 24.133 21.848 22.68 20.598 22.68 c 19.332 22.68 
18.598 24.133 18.598 25.742 c 18.598 27.367 19.285 28.805 20.598 28.805 
c 21.801 28.805 22.582 27.367 22.582 25.742 c h
21.723 25.742 m 21.723 27.039 21.598 28.555 20.598 28.555 c 19.645 28.555
 19.457 27.039 19.457 25.742 c 19.457 24.664 19.582 22.914 20.598 22.914
 c 21.598 22.914 21.723 24.664 21.723 25.742 c h
21.723 25.742 m f
18.016 0.094 m 14.734 0.094 l 14.188 1.422 l 14.344 1.422 l 14.656 0.938
 14.891 0.766 15.406 0.766 c 17.297 0.766 l 15.5 6.125 l 16.047 6.125 l 
h
18.016 0.094 m f
22.582 3.062 m 22.582 1.453 21.848 0 20.598 0 c 19.332 0 18.598 1.453 18.598
 3.062 c 18.598 4.688 19.285 6.125 20.598 6.125 c 21.801 6.125 22.582 4.688
 22.582 3.062 c h
21.723 3.062 m 21.723 4.359 21.598 5.875 20.598 5.875 c 19.645 5.875 19.457
 4.359 19.457 3.062 c 19.457 1.984 19.582 0.234 20.598 0.234 c 21.598 0.234
 21.723 1.984 21.723 3.062 c h
21.723 3.062 m f
206.277 122.949 m 206.277 121.34 205.543 119.887 204.293 119.887 c 203.027
 119.887 202.293 121.34 202.293 122.949 c 202.293 124.574 202.98 126.012
 204.293 126.012 c 205.496 126.012 206.277 124.574 206.277 122.949 c h
205.418 122.949 m 205.418 124.246 205.293 125.762 204.293 125.762 c 203.34
 125.762 203.152 124.246 203.152 122.949 c 203.152 121.871 203.277 120.121
 204.293 120.121 c 205.293 120.121 205.418 121.871 205.418 122.949 c h
205.418 122.949 m f
208.199 125.527 m 208.199 125.246 207.98 125.027 207.699 125.027 c 207.418
 125.027 207.199 125.246 207.199 125.527 c 207.199 125.809 207.418 126.027
 207.699 126.027 c 207.98 126.027 208.199 125.809 208.199 125.527 c h
208.199 125.527 m f
213.133 124.418 m 213.133 123.809 l 212.258 123.809 l 212.258 119.887 l
 211.82 119.887 l 209.227 123.793 l 209.227 124.418 l 211.523 124.418 l 
211.523 125.902 l 212.258 125.902 l 212.258 124.418 l h
211.523 123.809 m 209.586 123.809 l 211.508 120.824 l 211.523 120.824 l
 h
211.523 123.809 m f
138.988 131.406 m 136.191 131.406 l 135.801 132.562 l 135.988 132.562 l
 136.207 132.016 136.426 132 136.754 132 c 138.207 132 l 135.113 135.5 l
 137.957 135.5 l 138.348 134.312 l 138.176 134.312 l 137.973 134.922 137.629
 134.922 137.301 134.922 c 135.879 134.922 l h
138.988 131.406 m f
139.297 133.297 m 139.875 133.328 139.953 133.406 139.953 133.922 c 139.953
 137.016 l 139.953 137.547 139.859 137.625 139.297 137.656 c 139.297 137.781
 l 141.625 137.781 l 142.156 137.781 142.656 137.641 142.922 137.391 c 143.172
 137.172 143.297 136.859 143.297 136.531 c 143.297 136.219 143.188 135.938
 142.969 135.734 c 142.75 135.547 142.562 135.469 142.109 135.359 c 142.469
 135.266 142.625 135.203 142.781 135.047 c 142.969 134.891 143.062 134.641
 143.062 134.359 c 143.062 133.578 142.438 133.172 141.234 133.172 c 139.297
 133.172 l h
140.672 135.516 m 141.344 135.516 141.672 135.547 141.922 135.656 c 142.312
 135.812 142.5 136.109 142.5 136.531 c 142.5 136.906 142.359 137.188 142.078
 137.344 c 141.859 137.469 141.562 137.516 141.109 137.516 c 140.766 137.516
 140.672 137.453 140.672 137.234 c h
140.672 135.234 m 140.672 133.641 l 140.672 133.484 140.703 133.438 140.828
 133.438 c 141.125 133.422 l 141.906 133.406 142.359 133.766 142.359 134.375
 c 142.359 134.938 142 135.219 141.328 135.234 c h
140.672 135.234 m f
2.691 66.223 m 2.691 66.895 l 1.613 66.598 l 1.613 66.738 l 2.238 67.16
 2.66 67.66 2.801 68.27 c 2.988 68.316 l 2.988 67.645 l 5.691 68.379 l 5.879
 68.41 6.238 68.52 6.379 68.52 c 6.723 68.52 6.816 68.27 6.816 68.098 c 
6.816 67.707 6.52 67.285 5.77 66.816 c 5.707 66.941 l 5.973 67.176 6.379
 67.457 6.379 67.676 c 6.379 67.801 6.301 67.832 6.238 67.832 c 6.176 67.832
 6.129 67.816 5.988 67.785 c 2.988 66.973 l 2.988 66.27 l h
2.691 66.223 m f
0.27 61.461 m 0.27 61.898 l 8.629 65.008 l 8.629 64.555 l h
0.27 61.461 m f
1.453 57.535 m 0.656 57.535 0 58.191 0 59.02 c 0 59.848 0.656 60.504 1.453
 60.504 c 2.234 60.504 2.891 59.848 2.891 59.02 c 2.891 58.191 2.234 57.535
 1.453 57.535 c h
1.453 58.004 m 1.984 58.004 2.438 58.473 2.438 59.02 c 2.438 59.566 1.984
 60.02 1.453 60.02 c 0.922 60.02 0.469 59.566 0.469 59.02 c 0.469 58.473
 0.922 58.004 1.453 58.004 c h
1.453 58.004 m f
2.66 50.926 m 0.645 51.004 l 0.645 51.191 l 0.832 51.254 0.941 51.395 0.941
 51.566 c 0.941 51.66 0.91 51.785 0.863 51.926 c 0.723 52.363 0.645 52.816
 0.645 53.238 c 0.645 53.973 0.926 54.707 1.41 55.27 c 1.973 55.895 2.801
 56.238 3.785 56.238 c 5.613 56.238 6.832 55.051 6.832 53.254 c 6.832 52.238
 6.426 51.348 5.691 50.816 c 5.535 50.973 l 6.176 51.629 6.441 52.223 6.441
 52.973 c 6.441 53.535 6.254 54.035 5.91 54.426 c 5.473 54.926 4.676 55.191
 3.66 55.191 c 2.051 55.191 1.004 54.363 1.004 53.066 c 1.004 52.551 1.191
 52.082 1.535 51.723 c 1.832 51.441 2.082 51.301 2.66 51.129 c h
2.66 50.926 m f
0.283298 w
q 1 0 0 -1 0 0 cm
26.27 -93.746 m 207.684 -93.746 l S Q
q 1 0 0 -1 0 0 cm
26.27 -71.066 m 207.684 -71.066 l S Q
q 1 0 0 -1 0 0 cm
26.27 -48.391 m 207.684 -48.391 l S Q
q 1 0 0 -1 0 0 cm
26.27 -25.711 m 207.684 -25.711 l S Q
q 1 0 0 -1 0 0 cm
48.945 -116.422 m 48.945 -3.035 l S Q
q 1 0 0 -1 0 0 cm
71.625 -116.422 m 71.625 -3.035 l S Q
q 1 0 0 -1 0 0 cm
94.297 -116.422 m 94.297 -3.035 l S Q
q 1 0 0 -1 0 0 cm
116.973 -116.422 m 116.973 -3.035 l S Q
q 1 0 0 -1 0 0 cm
139.652 -116.422 m 139.652 -3.035 l S Q
q 1 0 0 -1 0 0 cm
162.332 -116.422 m 162.332 -3.035 l S Q
q 1 0 0 -1 0 0 cm
185.012 -116.422 m 185.012 -3.035 l S Q
1 g
77.176 59.73 m 77.176 53.863 l 102.441 53.863 l 102.441 65.598 l 77.176
 65.598 l f
0 g
86.508 58.23 m 86.508 57.574 86.07 56.855 84.43 56.855 c 82.367 56.855 
l 82.336 57.09 l 82.648 57.105 83.008 57.105 83.008 57.449 c 83.008 57.559
 82.961 57.684 82.867 57.98 c 81.836 61.543 l 81.602 62.355 81.352 62.324
 80.93 62.355 c 80.898 62.605 l 83.383 62.605 l 83.414 62.355 l 83.148 62.355
 82.758 62.34 82.758 61.965 c 82.758 61.902 82.758 61.793 82.789 61.699 
c 83.289 59.934 l 83.617 59.934 83.945 59.934 83.945 59.934 c 85.867 59.934
 86.508 58.996 86.508 58.23 c h
85.508 58.152 m 85.508 59.137 84.742 59.559 83.867 59.559 c 83.414 59.559
 l 84.086 57.199 l 84.352 57.199 l 85.164 57.199 85.508 57.512 85.508 58.152
 c h
85.508 58.152 m f
94.137 59.762 m 94.137 59.199 l 88.309 59.199 l 88.309 59.762 l h
94.137 61.402 m 94.137 60.84 l 88.309 60.84 l 88.309 61.402 l h
94.137 61.402 m f
99.148 61.512 m 98.914 61.465 l 98.633 61.871 98.445 61.934 98.039 61.934
 c 96.148 61.934 l 97.508 60.824 98.711 59.793 98.711 58.684 c 98.711 57.855
 97.914 57.262 97.039 57.262 c 96.164 57.262 95.477 57.668 95.195 58.84 
c 95.477 58.84 l 95.742 58.387 96.07 57.949 96.711 57.949 c 97.445 57.949
 97.852 58.434 97.852 58.996 c 97.852 59.84 96.852 61.059 95.117 62.402 
c 95.117 62.605 l 98.648 62.605 l h
99.148 61.512 m f
1 g
172.422 59.73 m 172.422 53.863 l 197.688 53.863 l 197.688 65.598 l 172.422
 65.598 l f
0 g
181.754 58.23 m 181.754 57.574 181.316 56.855 179.676 56.855 c 177.613 
56.855 l 177.582 57.09 l 177.895 57.105 178.254 57.105 178.254 57.449 c 
178.254 57.559 178.207 57.684 178.113 57.98 c 177.082 61.543 l 176.848 62.355
 176.598 62.324 176.176 62.355 c 176.145 62.605 l 178.629 62.605 l 178.66
 62.355 l 178.395 62.355 178.004 62.34 178.004 61.965 c 178.004 61.902 178.004
 61.793 178.035 61.699 c 178.535 59.934 l 178.863 59.934 179.191 59.934 
179.191 59.934 c 181.113 59.934 181.754 58.996 181.754 58.23 c h
180.754 58.152 m 180.754 59.137 179.988 59.559 179.113 59.559 c 178.66 
59.559 l 179.332 57.199 l 179.598 57.199 l 180.41 57.199 180.754 57.512 
180.754 58.152 c h
180.754 58.152 m f
189.383 59.762 m 189.383 59.199 l 183.555 59.199 l 183.555 59.762 l h
189.383 61.402 m 189.383 60.84 l 183.555 60.84 l 183.555 61.402 l h
189.383 61.402 m f
193.66 62.605 m 193.66 62.387 l 193.051 62.387 192.863 62.387 192.863 61.418
 c 192.863 61.418 192.863 57.23 192.863 57.23 c 192.66 57.23 l 191.113 57.887
 l 191.207 58.105 l 191.566 57.965 191.629 57.949 191.754 57.949 c 191.988
 57.949 192.004 58.137 192.004 58.371 c 192.004 61.418 l 192.004 62.387 
191.816 62.371 191.207 62.387 c 191.207 62.605 l h
193.66 62.605 m f
Q Q
showpage
%%Trailer
end
%%EOF
