%!PS-Adobe-3.0 EPSF-3.0
%%Creator: cairo 1.17.4 (https://cairographics.org)
%%CreationDate: Thu Feb 24 10:49:46 2022
%%Pages: 1
%%DocumentData: Clean7Bit
%%LanguageLevel: 2
%%BoundingBox: 0 0 152 144
%%EndComments
%%BeginProlog
50 dict begin
/q { gsave } bind def
/Q { grestore } bind def
/cm { 6 array astore concat } bind def
/w { setlinewidth } bind def
/J { setlinecap } bind def
/j { setlinejoin } bind def
/M { setmiterlimit } bind def
/d { setdash } bind def
/m { moveto } bind def
/l { lineto } bind def
/c { curveto } bind def
/h { closepath } bind def
/re { exch dup neg 3 1 roll 5 3 roll moveto 0 rlineto
      0 exch rlineto 0 rlineto closepath } bind def
/S { stroke } bind def
/f { fill } bind def
/f* { eofill } bind def
/n { newpath } bind def
/W { clip } bind def
/W* { eoclip } bind def
/BT { } bind def
/ET { } bind def
/BDC { mark 3 1 roll /BDC pdfmark } bind def
/EMC { mark /EMC pdfmark } bind def
/cairo_store_point { /cairo_point_y exch def /cairo_point_x exch def } def
/Tj { show currentpoint cairo_store_point } bind def
/TJ {
  {
    dup
    type /stringtype eq
    { show } { -0.001 mul 0 cairo_font_matrix dtransform rmoveto } ifelse
  } forall
  currentpoint cairo_store_point
} bind def
/cairo_selectfont { cairo_font_matrix aload pop pop pop 0 0 6 array astore
    cairo_font exch selectfont cairo_point_x cairo_point_y moveto } bind def
/Tf { pop /cairo_font exch def /cairo_font_matrix where
      { pop cairo_selectfont } if } bind def
/Td { matrix translate cairo_font_matrix matrix concatmatrix dup
      /cairo_font_matrix exch def dup 4 get exch 5 get cairo_store_point
      /cairo_font where { pop cairo_selectfont } if } bind def
/Tm { 2 copy 8 2 roll 6 array astore /cairo_font_matrix exch def
      cairo_store_point /cairo_font where { pop cairo_selectfont } if } bind def
/g { setgray } bind def
/rg { setrgbcolor } bind def
/d1 { setcachedevice } bind def
/cairo_data_source {
  CairoDataIndex CairoData length lt
    { CairoData CairoDataIndex get /CairoDataIndex CairoDataIndex 1 add def }
    { () } ifelse
} def
/cairo_flush_ascii85_file { cairo_ascii85_file status { cairo_ascii85_file flushfile } if } def
/cairo_image { image cairo_flush_ascii85_file } def
/cairo_imagemask { imagemask cairo_flush_ascii85_file } def
%%EndProlog
%%BeginSetup
%%EndSetup
%%Page: 1 1
%%BeginPageSetup
%%PageBoundingBox: 0 0 152 144
%%EndPageSetup
q 0 0 152 144 rectclip
1 0 0 -1 0 144 cm q
0 g
0.567044 w
0 J
0 j
[] 0.0 d
10 M q 1 0 0 -1 0 0 cm
33.07 -3.035 113.383 -119.066 re S Q
0.398507 w
q 1 0 0 -1 0 0 cm
33.07 -122.09 m 33.07 -117.844 l S Q
0.398506 w
q 1 0 0 -1 0 0 cm
55.746 -122.086 m 55.746 -117.824 l S Q
0.398504 w
q 1 0 0 -1 0 0 cm
78.418 -122.105 m 78.418 -117.828 l S Q
0.398506 w
q 1 0 0 -1 0 0 cm
101.105 -122.09 m 101.105 -117.832 l S Q
q 1 0 0 -1 0 0 cm
123.781 -122.07 m 123.781 -117.832 l S Q
0.398505 w
q 1 0 0 -1 0 0 cm
146.453 -122.102 m 146.453 -117.848 l S Q
0.398507 w
q 1 0 0 -1 0 0 cm
33.07 -122.09 m 33.07 -117.844 l S Q
0.398505 w
q 1 0 0 -1 0 0 cm
33.078 -122.098 m 37.324 -122.098 l S Q
q 1 0 0 -1 0 0 cm
33.078 -102.223 m 37.324 -102.223 l S Q
q 1 0 0 -1 0 0 cm
33.078 -82.387 m 37.324 -82.387 l S Q
q 1 0 0 -1 0 0 cm
33.078 -62.551 m 37.324 -62.551 l S Q
q 1 0 0 -1 0 0 cm
33.078 -42.715 m 37.324 -42.715 l S Q
q 1 0 0 -1 0 0 cm
33.078 -22.844 m 37.324 -22.844 l S Q
q 1 0 0 -1 0 0 cm
33.078 -3.008 m 37.324 -3.008 l S Q
q 1 0 0 -1 0 0 cm
33.078 -122.098 m 37.324 -122.098 l S Q
0.398507 w
q 1 0 0 -1 0 0 cm
33.07 -3.016 m 33.07 -7.262 l S Q
0.398506 w
q 1 0 0 -1 0 0 cm
55.746 -3.023 m 55.746 -7.285 l S Q
0.398504 w
q 1 0 0 -1 0 0 cm
78.418 -3.02 m 78.418 -7.297 l S Q
0.398506 w
q 1 0 0 -1 0 0 cm
101.105 -3.02 m 101.105 -7.277 l S Q
q 1 0 0 -1 0 0 cm
123.781 -3.02 m 123.781 -7.258 l S Q
0.398505 w
q 1 0 0 -1 0 0 cm
146.453 -3.035 m 146.453 -7.254 l S Q
0.398507 w
q 1 0 0 -1 0 0 cm
33.07 -3.016 m 33.07 -7.262 l S Q
0.398505 w
q 1 0 0 -1 0 0 cm
146.453 -122.102 m 142.199 -122.102 l S Q
q 1 0 0 -1 0 0 cm
146.453 -102.227 m 142.199 -102.227 l S Q
q 1 0 0 -1 0 0 cm
146.453 -82.387 m 142.199 -82.387 l S Q
q 1 0 0 -1 0 0 cm
146.453 -62.551 m 142.199 -62.551 l S Q
q 1 0 0 -1 0 0 cm
146.453 -42.711 m 142.199 -42.711 l S Q
q 1 0 0 -1 0 0 cm
146.453 -22.875 m 142.199 -22.875 l S Q
q 1 0 0 -1 0 0 cm
146.453 -3.035 m 142.199 -3.035 l S Q
q 1 0 0 -1 0 0 cm
146.453 -122.102 m 142.199 -122.102 l S Q
35.023 128.613 m 35.023 127.004 34.289 125.551 33.039 125.551 c 31.773 
125.551 31.039 127.004 31.039 128.613 c 31.039 130.238 31.727 131.676 33.039
 131.676 c 34.242 131.676 35.023 130.238 35.023 128.613 c h
34.164 128.613 m 34.164 129.91 34.039 131.426 33.039 131.426 c 32.086 131.426
 31.898 129.91 31.898 128.613 c 31.898 127.535 32.023 125.785 33.039 125.785
 c 34.039 125.785 34.164 127.535 34.164 128.613 c h
34.164 128.613 m f
54.344 128.613 m 54.344 127.004 53.609 125.551 52.359 125.551 c 51.094 
125.551 50.359 127.004 50.359 128.613 c 50.359 130.238 51.047 131.676 52.359
 131.676 c 53.562 131.676 54.344 130.238 54.344 128.613 c h
53.484 128.613 m 53.484 129.91 53.359 131.426 52.359 131.426 c 51.406 131.426
 51.219 129.91 51.219 128.613 c 51.219 127.535 51.344 125.785 52.359 125.785
 c 53.359 125.785 53.484 127.535 53.484 128.613 c h
53.484 128.613 m f
56.266 131.191 m 56.266 130.91 56.047 130.691 55.766 130.691 c 55.484 130.691
 55.266 130.91 55.266 131.191 c 55.266 131.473 55.484 131.691 55.766 131.691
 c 56.047 131.691 56.266 131.473 56.266 131.191 c h
56.266 131.191 m f
61.215 130.41 m 61.059 130.379 l 60.793 130.832 60.574 130.91 60.137 130.91
 c 58.074 130.91 l 59.496 129.613 60.793 128.441 60.793 127.129 c 60.793
 126.207 59.996 125.551 59.121 125.551 c 58.262 125.551 57.574 126.02 57.309
 127.238 c 57.512 127.238 l 57.762 126.738 58.105 126.223 58.793 126.223
 c 59.574 126.223 60.012 126.816 60.012 127.488 c 60.012 128.457 58.98 129.879
 57.215 131.426 c 57.215 131.566 l 60.746 131.566 l h
61.215 130.41 m f
77.023 128.613 m 77.023 127.004 76.289 125.551 75.039 125.551 c 73.773 
125.551 73.039 127.004 73.039 128.613 c 73.039 130.238 73.727 131.676 75.039
 131.676 c 76.242 131.676 77.023 130.238 77.023 128.613 c h
76.164 128.613 m 76.164 129.91 76.039 131.426 75.039 131.426 c 74.086 131.426
 73.898 129.91 73.898 128.613 c 73.898 127.535 74.023 125.785 75.039 125.785
 c 76.039 125.785 76.164 127.535 76.164 128.613 c h
76.164 128.613 m f
78.949 131.191 m 78.949 130.91 78.73 130.691 78.449 130.691 c 78.168 130.691
 77.949 130.91 77.949 131.191 c 77.949 131.473 78.168 131.691 78.449 131.691
 c 78.73 131.691 78.949 131.473 78.949 131.191 c h
78.949 131.191 m f
83.879 130.082 m 83.879 129.473 l 83.004 129.473 l 83.004 125.551 l 82.566
 125.551 l 79.973 129.457 l 79.973 130.082 l 82.27 130.082 l 82.27 131.566
 l 83.004 131.566 l 83.004 130.082 l h
82.27 129.473 m 80.332 129.473 l 82.254 126.488 l 82.27 126.488 l h
82.27 129.473 m f
99.703 128.613 m 99.703 127.004 98.969 125.551 97.719 125.551 c 96.453 
125.551 95.719 127.004 95.719 128.613 c 95.719 130.238 96.406 131.676 97.719
 131.676 c 98.922 131.676 99.703 130.238 99.703 128.613 c h
98.844 128.613 m 98.844 129.91 98.719 131.426 97.719 131.426 c 96.766 131.426
 96.578 129.91 96.578 128.613 c 96.578 127.535 96.703 125.785 97.719 125.785
 c 98.719 125.785 98.844 127.535 98.844 128.613 c h
98.844 128.613 m f
101.629 131.191 m 101.629 130.91 101.41 130.691 101.129 130.691 c 100.848
 130.691 100.629 130.91 100.629 131.191 c 100.629 131.473 100.848 131.691
 101.129 131.691 c 101.41 131.691 101.629 131.473 101.629 131.191 c h
101.629 131.191 m f
106.496 129.551 m 106.496 128.566 105.793 127.832 104.902 127.832 c 104.449
 127.832 104.074 127.973 103.684 128.285 c 104.074 126.691 105.246 125.691
 106.371 125.676 c 106.371 125.52 l 103.605 125.52 102.73 127.863 102.73
 129.191 c 102.73 130.613 103.559 131.676 104.668 131.676 c 105.684 131.676
 106.496 130.723 106.496 129.551 c h
105.73 130.004 m 105.73 130.832 105.355 131.41 104.762 131.41 c 103.84 
131.41 103.559 130.066 103.559 129.348 c 103.559 129.113 103.59 128.863 
103.637 128.566 c 104.027 128.316 104.34 128.207 104.652 128.207 c 105.559
 128.207 105.73 129.254 105.73 130.004 c h
105.73 130.004 m f
122.383 128.613 m 122.383 127.004 121.648 125.551 120.398 125.551 c 119.133
 125.551 118.398 127.004 118.398 128.613 c 118.398 130.238 119.086 131.676
 120.398 131.676 c 121.602 131.676 122.383 130.238 122.383 128.613 c h
121.523 128.613 m 121.523 129.91 121.398 131.426 120.398 131.426 c 119.445
 131.426 119.258 129.91 119.258 128.613 c 119.258 127.535 119.383 125.785
 120.398 125.785 c 121.398 125.785 121.523 127.535 121.523 128.613 c h
121.523 128.613 m f
124.309 131.191 m 124.309 130.91 124.09 130.691 123.809 130.691 c 123.527
 130.691 123.309 130.91 123.309 131.191 c 123.309 131.473 123.527 131.691
 123.809 131.691 c 124.09 131.691 124.309 131.473 124.309 131.191 c h
124.309 131.191 m f
128.957 130.191 m 128.957 129.551 128.676 129.066 127.582 128.254 c 128.27
 127.879 128.801 127.457 128.801 126.801 c 128.801 126.113 128.16 125.52
 127.207 125.52 c 126.363 125.52 125.566 126.066 125.566 126.91 c 125.566
 127.566 125.91 127.957 126.676 128.566 c 125.816 129.223 125.504 129.551
 125.504 130.223 c 125.504 130.973 126.176 131.676 127.223 131.676 c 128.441
 131.676 128.957 130.848 128.957 130.191 c h
128.191 126.785 m 128.191 127.426 127.816 127.77 127.332 128.098 c 126.738
 127.676 126.223 127.207 126.223 126.691 c 126.223 126.207 126.566 125.785
 127.176 125.785 c 127.848 125.785 128.191 126.207 128.191 126.785 c h
128.316 130.441 m 128.316 131.02 127.879 131.41 127.301 131.41 c 126.613
 131.41 126.176 130.863 126.176 130.129 c 126.176 129.457 126.504 129.066
 126.91 128.723 c 127.895 129.473 128.316 129.848 128.316 130.441 c h
128.316 130.441 m f
144.312 131.566 m 144.312 131.426 l 143.719 131.426 143.5 131.441 143.5
 130.27 c 143.5 130.254 143.5 125.52 143.5 125.52 c 143.375 125.52 l 141.844
 126.254 l 141.891 126.395 l 142.219 126.254 142.297 126.223 142.422 126.223
 c 142.688 126.223 142.734 126.457 142.734 126.77 c 142.734 130.27 l 142.734
 131.441 142.516 131.41 141.922 131.426 c 141.922 131.566 l h
144.312 131.566 m f
146.988 131.191 m 146.988 130.91 146.77 130.691 146.488 130.691 c 146.207
 130.691 145.988 130.91 145.988 131.191 c 145.988 131.473 146.207 131.691
 146.488 131.691 c 146.77 131.691 146.988 131.473 146.988 131.191 c h
146.988 131.191 m f
151.902 128.613 m 151.902 127.004 151.168 125.551 149.918 125.551 c 148.652
 125.551 147.918 127.004 147.918 128.613 c 147.918 130.238 148.605 131.676
 149.918 131.676 c 151.121 131.676 151.902 130.238 151.902 128.613 c h
151.043 128.613 m 151.043 129.91 150.918 131.426 149.918 131.426 c 148.965
 131.426 148.777 129.91 148.777 128.613 c 148.777 127.535 148.902 125.785
 149.918 125.785 c 150.918 125.785 151.043 127.535 151.043 128.613 c h
151.043 128.613 m f
14.73 122.602 5.484 0.453 re f
24.879 119.164 m 22.41 119.164 l 21.301 121.711 l 21.441 121.68 21.582 
121.648 21.754 121.648 c 22.707 121.648 24.004 122.148 24.004 123.32 c 24.004
 124.227 23.348 124.805 22.723 124.805 c 22.176 124.805 21.973 124.305 21.457
 124.305 c 21.207 124.305 21.129 124.523 21.129 124.633 c 21.129 124.945
 21.566 125.195 22.191 125.195 c 23.535 125.195 24.598 124.211 24.598 123.008
 c 24.598 121.586 23.473 121.102 22.254 121.07 c 22.145 121.07 22.02 121.086
 21.91 121.102 c 22.473 119.836 l 24.566 119.82 l h
24.879 119.164 m f
29.383 122.133 m 29.383 120.523 28.648 119.07 27.398 119.07 c 26.133 119.07
 25.398 120.523 25.398 122.133 c 25.398 123.758 26.086 125.195 27.398 125.195
 c 28.602 125.195 29.383 123.758 29.383 122.133 c h
28.523 122.133 m 28.523 123.43 28.398 124.945 27.398 124.945 c 26.445 124.945
 26.258 123.43 26.258 122.133 c 26.258 121.055 26.383 119.305 27.398 119.305
 c 28.398 119.305 28.523 121.055 28.523 122.133 c h
28.523 122.133 m f
14.73 102.801 5.484 0.453 re f
24.957 103.801 m 24.957 103.191 l 24.082 103.191 l 24.082 99.27 l 23.645
 99.27 l 21.051 103.176 l 21.051 103.801 l 23.348 103.801 l 23.348 105.285
 l 24.082 105.285 l 24.082 103.801 l h
23.348 103.191 m 21.41 103.191 l 23.332 100.207 l 23.348 100.207 l h
23.348 103.191 m f
29.383 102.332 m 29.383 100.723 28.648 99.27 27.398 99.27 c 26.133 99.27
 25.398 100.723 25.398 102.332 c 25.398 103.957 26.086 105.395 27.398 105.395
 c 28.602 105.395 29.383 103.957 29.383 102.332 c h
28.523 102.332 m 28.523 103.629 28.398 105.145 27.398 105.145 c 26.445 
105.145 26.258 103.629 26.258 102.332 c 26.258 101.254 26.383 99.504 27.398
 99.504 c 28.398 99.504 28.523 101.254 28.523 102.332 c h
28.523 102.332 m f
14.73 83.004 5.484 0.453 re f
24.598 83.551 m 24.598 82.613 24.051 82.207 23.52 81.988 c 24.098 81.551
 24.285 81.145 24.285 80.66 c 24.285 80.145 23.863 79.473 22.895 79.473 
c 22.191 79.473 21.52 79.863 21.223 80.832 c 21.363 80.863 l 21.551 80.504
 21.91 80.051 22.566 80.051 c 23.207 80.051 23.582 80.488 23.582 80.988 
c 23.582 81.691 23.035 82.191 22.223 82.379 c 22.207 82.566 l 23.598 82.504
 23.941 83.41 23.941 83.973 c 23.941 84.645 23.457 85.254 22.816 85.254 
c 22.238 85.254 21.988 84.754 21.504 84.754 c 21.348 84.754 21.16 84.91 
21.16 85.113 c 21.16 85.488 21.723 85.598 22.129 85.598 c 23.551 85.598 
24.598 84.785 24.598 83.551 c h
24.598 83.551 m f
29.383 82.535 m 29.383 80.926 28.648 79.473 27.398 79.473 c 26.133 79.473
 25.398 80.926 25.398 82.535 c 25.398 84.16 26.086 85.598 27.398 85.598 
c 28.602 85.598 29.383 84.16 29.383 82.535 c h
28.523 82.535 m 28.523 83.832 28.398 85.348 27.398 85.348 c 26.445 85.348
 26.258 83.832 26.258 82.535 c 26.258 81.457 26.383 79.707 27.398 79.707
 c 28.398 79.707 28.523 81.457 28.523 82.535 c h
28.523 82.535 m f
14.73 63.082 5.484 0.453 re f
24.973 64.41 m 24.816 64.379 l 24.551 64.832 24.332 64.91 23.895 64.91 
c 21.832 64.91 l 23.254 63.613 24.551 62.441 24.551 61.129 c 24.551 60.207
 23.754 59.551 22.879 59.551 c 22.02 59.551 21.332 60.02 21.066 61.238 c
 21.27 61.238 l 21.52 60.738 21.863 60.223 22.551 60.223 c 23.332 60.223
 23.77 60.816 23.77 61.488 c 23.77 62.457 22.738 63.879 20.973 65.426 c 
20.973 65.566 l 24.504 65.566 l h
24.973 64.41 m f
29.383 62.613 m 29.383 61.004 28.648 59.551 27.398 59.551 c 26.133 59.551
 25.398 61.004 25.398 62.613 c 25.398 64.238 26.086 65.676 27.398 65.676
 c 28.602 65.676 29.383 64.238 29.383 62.613 c h
28.523 62.613 m 28.523 63.91 28.398 65.426 27.398 65.426 c 26.445 65.426
 26.258 63.91 26.258 62.613 c 26.258 61.535 26.383 59.785 27.398 59.785 
c 28.398 59.785 28.523 61.535 28.523 62.613 c h
28.523 62.613 m f
14.73 43.281 5.484 0.453 re f
24.191 45.766 m 24.191 45.625 l 23.598 45.625 23.379 45.641 23.379 44.469
 c 23.379 44.453 23.379 39.719 23.379 39.719 c 23.254 39.719 l 21.723 40.453
 l 21.77 40.594 l 22.098 40.453 22.176 40.422 22.301 40.422 c 22.566 40.422
 22.613 40.656 22.613 40.969 c 22.613 44.469 l 22.613 45.641 22.395 45.609
 21.801 45.625 c 21.801 45.766 l h
24.191 45.766 m f
29.383 42.812 m 29.383 41.203 28.648 39.75 27.398 39.75 c 26.133 39.75 
25.398 41.203 25.398 42.812 c 25.398 44.438 26.086 45.875 27.398 45.875 
c 28.602 45.875 29.383 44.438 29.383 42.812 c h
28.523 42.812 m 28.523 44.109 28.398 45.625 27.398 45.625 c 26.445 45.625
 26.258 44.109 26.258 42.812 c 26.258 41.734 26.383 39.984 27.398 39.984
 c 28.398 39.984 28.523 41.734 28.523 42.812 c h
28.523 42.812 m f
29.383 23.016 m 29.383 21.406 28.648 19.953 27.398 19.953 c 26.133 19.953
 25.398 21.406 25.398 23.016 c 25.398 24.641 26.086 26.078 27.398 26.078
 c 28.602 26.078 29.383 24.641 29.383 23.016 c h
28.523 23.016 m 28.523 24.312 28.398 25.828 27.398 25.828 c 26.445 25.828
 26.258 24.312 26.258 23.016 c 26.258 21.938 26.383 20.188 27.398 20.188
 c 28.398 20.188 28.523 21.938 28.523 23.016 c h
28.523 23.016 m f
24.191 6.047 m 24.191 5.906 l 23.598 5.906 23.379 5.922 23.379 4.75 c 23.379
 4.734 23.379 0 23.379 0 c 23.254 0 l 21.723 0.734 l 21.77 0.875 l 22.098
 0.734 22.176 0.703 22.301 0.703 c 22.566 0.703 22.613 0.938 22.613 1.25
 c 22.613 4.75 l 22.613 5.922 22.395 5.891 21.801 5.906 c 21.801 6.047 l
 h
24.191 6.047 m f
29.383 3.094 m 29.383 1.484 28.648 0.031 27.398 0.031 c 26.133 0.031 25.398
 1.484 25.398 3.094 c 25.398 4.719 26.086 6.156 27.398 6.156 c 28.602 6.156
 29.383 4.719 29.383 3.094 c h
28.523 3.094 m 28.523 4.391 28.398 5.906 27.398 5.906 c 26.445 5.906 26.258
 4.391 26.258 3.094 c 26.258 2.016 26.383 0.266 27.398 0.266 c 28.398 0.266
 28.523 2.016 28.523 3.094 c h
28.523 3.094 m f
88.977 137.176 m 86.18 137.176 l 85.789 138.332 l 85.977 138.332 l 86.195
 137.785 86.414 137.77 86.742 137.77 c 88.195 137.77 l 85.102 141.27 l 87.945
 141.27 l 88.336 140.082 l 88.164 140.082 l 87.961 140.691 87.617 140.691
 87.289 140.691 c 85.867 140.691 l h
88.977 137.176 m f
94.082 143.426 m 93.77 143.395 93.691 143.332 93.457 142.816 c 91.723 138.848
 l 91.582 138.848 l 90.129 142.27 l 89.676 143.285 89.598 143.41 89.27 143.426
 c 89.27 143.551 l 90.645 143.551 l 90.645 143.426 l 90.316 143.426 90.176
 143.332 90.176 143.129 c 90.176 143.051 90.191 142.957 90.223 142.863 c
 90.551 142.051 l 92.379 142.051 l 92.66 142.707 l 92.738 142.91 92.785 
143.082 92.785 143.176 c 92.785 143.363 92.676 143.41 92.301 143.426 c 92.301
 143.551 l 94.082 143.551 l h
90.66 141.754 m 91.473 139.848 l 92.27 141.754 l h
90.66 141.754 m f
2.691 69.031 m 2.691 69.703 l 1.613 69.406 l 1.613 69.547 l 2.238 69.969
 2.66 70.469 2.801 71.078 c 2.988 71.125 l 2.988 70.453 l 5.691 71.188 l
 5.879 71.219 6.238 71.328 6.379 71.328 c 6.723 71.328 6.816 71.078 6.816
 70.906 c 6.816 70.516 6.52 70.094 5.77 69.625 c 5.707 69.75 l 5.973 69.984
 6.379 70.266 6.379 70.484 c 6.379 70.609 6.301 70.641 6.238 70.641 c 6.176
 70.641 6.129 70.625 5.988 70.594 c 2.988 69.781 l 2.988 69.078 l h
2.691 69.031 m f
0.27 64.27 m 0.27 64.707 l 8.629 67.816 l 8.629 67.363 l h
0.27 64.27 m f
1.453 60.348 m 0.656 60.348 0 61.004 0 61.832 c 0 62.66 0.656 63.316 1.453
 63.316 c 2.234 63.316 2.891 62.66 2.891 61.832 c 2.891 61.004 2.234 60.348
 1.453 60.348 c h
1.453 60.816 m 1.984 60.816 2.438 61.285 2.438 61.832 c 2.438 62.379 1.984
 62.832 1.453 62.832 c 0.922 62.832 0.469 62.379 0.469 61.832 c 0.469 61.285
 0.922 60.816 1.453 60.816 c h
1.453 60.816 m f
2.66 53.734 m 0.645 53.812 l 0.645 54 l 0.832 54.062 0.941 54.203 0.941
 54.375 c 0.941 54.469 0.91 54.594 0.863 54.734 c 0.723 55.172 0.645 55.625
 0.645 56.047 c 0.645 56.781 0.926 57.516 1.41 58.078 c 1.973 58.703 2.801
 59.047 3.785 59.047 c 5.613 59.047 6.832 57.859 6.832 56.062 c 6.832 55.047
 6.426 54.156 5.691 53.625 c 5.535 53.781 l 6.176 54.438 6.441 55.031 6.441
 55.781 c 6.441 56.344 6.254 56.844 5.91 57.234 c 5.473 57.734 4.676 58 
3.66 58 c 2.051 58 1.004 57.172 1.004 55.875 c 1.004 55.359 1.191 54.891
 1.535 54.531 c 1.832 54.25 2.082 54.109 2.66 53.938 c h
2.66 53.734 m f
1.13366 w
q 1 0 0 -1 0 0 cm
33.07 -23.242 m 33.07 -23.242 41.469 -36.367 46.676 -42.676 c 52.691 -50.012
 58.555 -56.355 65.707 -62.551 c 74.652 -70.25 83.344 -76.523 93.613 -82.387
 c 110.922 -92.254 146.453 -105.785 146.453 -105.785 c S Q
1 g
35.199 23.246 m 35.199 22.07 34.246 21.117 33.07 21.117 c 31.895 21.117
 30.941 22.07 30.941 23.246 c 30.941 24.422 31.895 25.375 33.07 25.375 c
 34.246 25.375 35.199 24.422 35.199 23.246 c f
0 g
35.199 23.246 m 35.199 22.07 34.246 21.117 33.07 21.117 c 31.895 21.117
 30.941 22.07 30.941 23.246 c 30.941 24.422 31.895 25.375 33.07 25.375 c
 34.246 25.375 35.199 24.422 35.199 23.246 c h
35.199 23.246 m 34.988 23.246 l 34.988 22.188 34.129 21.328 33.07 21.328
 c 32.012 21.328 31.152 22.188 31.152 23.246 c 31.152 24.305 32.012 25.164
 33.07 25.164 c 34.129 25.164 34.988 24.305 34.988 23.246 c f
1 g
48.809 42.688 m 48.809 41.512 47.855 40.559 46.68 40.559 c 45.504 40.559
 44.551 41.512 44.551 42.688 c 44.551 43.863 45.504 44.816 46.68 44.816 
c 47.855 44.816 48.809 43.863 48.809 42.688 c f
0 g
48.809 42.688 m 48.809 41.512 47.855 40.559 46.68 40.559 c 45.504 40.559
 44.551 41.512 44.551 42.688 c 44.551 43.863 45.504 44.816 46.68 44.816 
c 47.855 44.816 48.809 43.863 48.809 42.688 c h
48.809 42.688 m 48.598 42.688 l 48.598 41.629 47.738 40.77 46.68 40.77 
c 45.621 40.77 44.762 41.629 44.762 42.688 c 44.762 43.746 45.621 44.605
 46.68 44.605 c 47.738 44.605 48.598 43.746 48.598 42.688 c f
1 g
67.859 62.535 m 67.859 61.359 66.906 60.406 65.73 60.406 c 64.555 60.406
 63.602 61.359 63.602 62.535 c 63.602 63.711 64.555 64.664 65.73 64.664 
c 66.906 64.664 67.859 63.711 67.859 62.535 c f
0 g
67.859 62.535 m 67.859 61.359 66.906 60.406 65.73 60.406 c 64.555 60.406
 63.602 61.359 63.602 62.535 c 63.602 63.711 64.555 64.664 65.73 64.664 
c 66.906 64.664 67.859 63.711 67.859 62.535 c h
67.859 62.535 m 67.648 62.535 l 67.648 61.477 66.789 60.617 65.73 60.617
 c 64.672 60.617 63.812 61.477 63.812 62.535 c 63.812 63.594 64.672 64.453
 65.73 64.453 c 66.789 64.453 67.648 63.594 67.648 62.535 c f
1 g
95.746 82.375 m 95.746 81.199 94.793 80.246 93.617 80.246 c 92.441 80.246
 91.488 81.199 91.488 82.375 c 91.488 83.551 92.441 84.504 93.617 84.504
 c 94.793 84.504 95.746 83.551 95.746 82.375 c f
0 g
95.746 82.375 m 95.746 81.199 94.793 80.246 93.617 80.246 c 92.441 80.246
 91.488 81.199 91.488 82.375 c 91.488 83.551 92.441 84.504 93.617 84.504
 c 94.793 84.504 95.746 83.551 95.746 82.375 c h
95.746 82.375 m 95.535 82.375 l 95.535 81.316 94.676 80.457 93.617 80.457
 c 92.559 80.457 91.699 81.316 91.699 82.375 c 91.699 83.434 92.559 84.293
 93.617 84.293 c 94.676 84.293 95.535 83.434 95.535 82.375 c f
1 g
148.586 105.797 m 148.586 104.621 147.633 103.668 146.457 103.668 c 145.281
 103.668 144.328 104.621 144.328 105.797 c 144.328 106.973 145.281 107.926
 146.457 107.926 c 147.633 107.926 148.586 106.973 148.586 105.797 c f
0 g
148.586 105.797 m 148.586 104.621 147.633 103.668 146.457 103.668 c 145.281
 103.668 144.328 104.621 144.328 105.797 c 144.328 106.973 145.281 107.926
 146.457 107.926 c 147.633 107.926 148.586 106.973 148.586 105.797 c h
148.586 105.797 m 148.375 105.797 l 148.375 104.738 147.516 103.879 146.457
 103.879 c 145.398 103.879 144.539 104.738 144.539 105.797 c 144.539 106.855
 145.398 107.715 146.457 107.715 c 147.516 107.715 148.375 106.855 148.375
 105.797 c f
q 1 0 0 -1 0 0 cm
33.07 -23.242 m 33.07 -23.242 63.547 -34.828 78.758 -42.676 c 90.309 -48.691
 100.543 -54.629 110.844 -62.551 c 118.766 -68.602 125.625 -74.652 131.934
 -82.387 c 137.941 -89.723 146.453 -105.785 146.453 -105.785 c S Q
1 g
35.199 23.246 m 35.199 22.07 34.246 21.117 33.07 21.117 c 31.895 21.117
 30.941 22.07 30.941 23.246 c 30.941 24.422 31.895 25.375 33.07 25.375 c
 34.246 25.375 35.199 24.422 35.199 23.246 c f
0 g
35.199 23.246 m 35.199 22.07 34.246 21.117 33.07 21.117 c 31.895 21.117
 30.941 22.07 30.941 23.246 c 30.941 24.422 31.895 25.375 33.07 25.375 c
 34.246 25.375 35.199 24.422 35.199 23.246 c h
35.199 23.246 m 34.988 23.246 l 34.988 22.188 34.129 21.328 33.07 21.328
 c 32.012 21.328 31.152 22.188 31.152 23.246 c 31.152 24.305 32.012 25.164
 33.07 25.164 c 34.129 25.164 34.988 24.305 34.988 23.246 c f
1 g
80.898 42.688 m 80.898 41.512 79.945 40.559 78.77 40.559 c 77.594 40.559
 76.641 41.512 76.641 42.688 c 76.641 43.863 77.594 44.816 78.77 44.816 
c 79.945 44.816 80.898 43.863 80.898 42.688 c f
0 g
80.898 42.688 m 80.898 41.512 79.945 40.559 78.77 40.559 c 77.594 40.559
 76.641 41.512 76.641 42.688 c 76.641 43.863 77.594 44.816 78.77 44.816 
c 79.945 44.816 80.898 43.863 80.898 42.688 c h
80.898 42.688 m 80.688 42.688 l 80.688 41.629 79.828 40.77 78.77 40.77 
c 77.711 40.77 76.852 41.629 76.852 42.688 c 76.852 43.746 77.711 44.605
 78.77 44.605 c 79.828 44.605 80.688 43.746 80.688 42.688 c f
1 g
112.977 62.535 m 112.977 61.359 112.023 60.406 110.848 60.406 c 109.672
 60.406 108.719 61.359 108.719 62.535 c 108.719 63.711 109.672 64.664 110.848
 64.664 c 112.023 64.664 112.977 63.711 112.977 62.535 c f
0 g
112.977 62.535 m 112.977 61.359 112.023 60.406 110.848 60.406 c 109.672
 60.406 108.719 61.359 108.719 62.535 c 108.719 63.711 109.672 64.664 110.848
 64.664 c 112.023 64.664 112.977 63.711 112.977 62.535 c h
112.977 62.535 m 112.766 62.535 l 112.766 61.477 111.906 60.617 110.848
 60.617 c 109.789 60.617 108.93 61.477 108.93 62.535 c 108.93 63.594 109.789
 64.453 110.848 64.453 c 111.906 64.453 112.766 63.594 112.766 62.535 c f
1 g
134.066 82.375 m 134.066 81.199 133.113 80.246 131.938 80.246 c 130.762
 80.246 129.809 81.199 129.809 82.375 c 129.809 83.551 130.762 84.504 131.938
 84.504 c 133.113 84.504 134.066 83.551 134.066 82.375 c f
0 g
134.066 82.375 m 134.066 81.199 133.113 80.246 131.938 80.246 c 130.762
 80.246 129.809 81.199 129.809 82.375 c 129.809 83.551 130.762 84.504 131.938
 84.504 c 133.113 84.504 134.066 83.551 134.066 82.375 c h
134.066 82.375 m 133.855 82.375 l 133.855 81.316 132.996 80.457 131.938
 80.457 c 130.879 80.457 130.02 81.316 130.02 82.375 c 130.02 83.434 130.879
 84.293 131.938 84.293 c 132.996 84.293 133.855 83.434 133.855 82.375 c f
1 g
148.586 105.797 m 148.586 104.621 147.633 103.668 146.457 103.668 c 145.281
 103.668 144.328 104.621 144.328 105.797 c 144.328 106.973 145.281 107.926
 146.457 107.926 c 147.633 107.926 148.586 106.973 148.586 105.797 c f
0 g
148.586 105.797 m 148.586 104.621 147.633 103.668 146.457 103.668 c 145.281
 103.668 144.328 104.621 144.328 105.797 c 144.328 106.973 145.281 107.926
 146.457 107.926 c 147.633 107.926 148.586 106.973 148.586 105.797 c h
148.586 105.797 m 148.375 105.797 l 148.375 104.738 147.516 103.879 146.457
 103.879 c 145.398 103.879 144.539 104.738 144.539 105.797 c 144.539 106.855
 145.398 107.715 146.457 107.715 c 147.516 107.715 148.375 106.855 148.375
 105.797 c f
56.836 104.383 m 58.961 104.383 l 58.961 104.242 l 58.383 104.227 58.289
 104.133 58.273 103.633 c 58.273 98.273 l 58.242 98.258 l 57.789 98.398 
57.461 98.492 56.82 98.648 c 56.82 98.789 l 56.867 98.789 l 56.977 98.789
 57.086 98.773 57.148 98.773 c 57.445 98.773 57.523 98.898 57.523 99.32 
c 57.523 103.602 l 57.523 104.086 57.398 104.211 56.836 104.242 c h
56.836 104.383 m f
59.309 104.383 m 61.434 104.383 l 61.434 104.242 l 60.84 104.211 60.777
 104.117 60.777 103.461 c 60.777 100.289 l 60.73 100.258 l 59.34 100.758
 l 59.34 100.883 l 59.418 100.883 l 59.527 100.852 59.637 100.852 59.73 
100.852 c 59.934 100.852 60.027 100.992 60.027 101.383 c 60.027 103.461 
l 59.996 104.133 59.918 104.227 59.309 104.242 c h
60.309 98.258 m 60.074 98.258 59.871 98.461 59.871 98.711 c 59.871 98.977
 60.059 99.18 60.309 99.18 c 60.59 99.18 60.777 98.977 60.777 98.711 c 60.777
 98.461 60.574 98.258 60.309 98.258 c h
60.309 98.258 m f
64.926 100.57 m 64.52 100.336 64.254 100.258 63.895 100.258 c 62.754 100.258
 61.91 101.258 61.91 102.555 c 61.91 103.68 62.504 104.477 63.348 104.477
 c 63.863 104.477 64.348 104.242 64.754 103.805 c 64.754 105.492 l 64.738
 105.992 64.582 106.148 63.957 106.18 c 63.957 106.336 l 66.066 106.336 
l 66.066 106.211 l 65.582 106.102 65.52 106.039 65.504 105.648 c 65.504 
100.289 l 65.41 100.289 l h
64.754 103.242 m 64.754 103.461 64.707 103.57 64.629 103.664 c 64.426 103.82
 64.129 103.93 63.848 103.93 c 63.582 103.93 63.332 103.836 63.16 103.664
 c 62.863 103.398 62.676 102.82 62.676 102.227 c 62.676 101.164 63.16 100.508
 63.91 100.508 c 64.473 100.508 64.754 100.805 64.754 101.398 c h
64.754 103.242 m f
70.426 103.93 m 70.379 103.93 l 69.941 103.914 69.879 103.852 69.863 103.43
 c 69.863 100.352 l 68.457 100.352 l 68.457 100.492 l 69.004 100.523 69.113
 100.617 69.113 101.07 c 69.113 103.18 l 69.113 103.43 69.066 103.555 68.941
 103.648 c 68.707 103.852 68.426 103.945 68.16 103.945 c 67.801 103.945 
67.52 103.648 67.52 103.273 c 67.52 100.352 l 66.207 100.352 l 66.207 100.477
 l 66.629 100.492 66.754 100.617 66.77 101.039 c 66.77 103.305 l 66.77 104.008
 67.191 104.477 67.848 104.477 c 68.176 104.477 68.535 104.336 68.77 104.086
 c 69.16 103.695 l 69.16 104.445 l 69.191 104.461 l 69.645 104.289 69.973
 104.18 70.426 104.055 c h
70.426 103.93 m f
70.711 104.383 m 72.836 104.383 l 72.836 104.242 l 72.242 104.211 72.18
 104.117 72.18 103.461 c 72.18 100.289 l 72.133 100.258 l 70.742 100.758
 l 70.742 100.883 l 70.82 100.883 l 70.93 100.852 71.039 100.852 71.133 
100.852 c 71.336 100.852 71.43 100.992 71.43 101.383 c 71.43 103.461 l 71.398
 104.133 71.32 104.227 70.711 104.242 c h
71.711 98.258 m 71.477 98.258 71.273 98.461 71.273 98.711 c 71.273 98.977
 71.461 99.18 71.711 99.18 c 71.992 99.18 72.18 98.977 72.18 98.711 c 72.18
 98.461 71.977 98.258 71.711 98.258 c h
71.711 98.258 m f
77.496 103.867 m 77.371 103.867 77.324 103.867 77.293 103.867 c 76.98 103.867
 76.887 103.773 76.887 103.367 c 76.887 98.273 l 76.855 98.258 l 76.434 
98.398 76.121 98.492 75.527 98.648 c 75.527 98.789 l 75.605 98.789 75.652
 98.789 75.73 98.789 c 76.059 98.789 76.137 98.883 76.137 99.242 c 76.137
 100.648 l 75.793 100.352 75.559 100.258 75.199 100.258 c 74.168 100.258
 73.324 101.273 73.324 102.539 c 73.324 103.695 73.996 104.477 74.996 104.477
 c 75.496 104.477 75.84 104.289 76.137 103.867 c 76.137 104.445 l 76.168
 104.477 l 77.496 104.008 l h
76.137 103.461 m 76.137 103.523 76.074 103.633 75.98 103.742 c 75.84 103.914
 75.605 104.008 75.34 104.008 c 74.59 104.008 74.105 103.289 74.105 102.18
 c 74.105 101.18 74.543 100.508 75.23 100.508 c 75.715 100.508 76.137 100.93
 76.137 101.398 c h
76.137 103.461 m f
110.66 30.363 m 110.66 30.02 l 109.973 30.02 l 109.785 30.02 109.645 29.988
 109.473 29.926 c 109.27 29.863 l 109.035 29.77 108.785 29.723 108.551 29.723
 c 107.723 29.723 107.066 30.363 107.066 31.191 c 107.066 31.754 107.301
 32.082 107.895 32.379 c 107.66 32.598 l 107.473 32.785 107.363 32.879 107.332
 32.91 c 107.145 33.113 107.098 33.207 107.098 33.363 c 107.098 33.566 107.191
 33.66 107.566 33.832 c 106.926 34.301 106.691 34.598 106.691 34.926 c 106.691
 35.41 107.379 35.801 108.238 35.801 c 108.91 35.801 109.613 35.566 110.082
 35.191 c 110.426 34.91 110.582 34.629 110.582 34.285 c 110.582 33.738 110.16
 33.363 109.488 33.332 c 108.332 33.27 l 107.848 33.254 107.629 33.176 107.629
 33.035 c 107.629 32.848 107.926 32.535 108.176 32.473 c 108.488 32.488 
108.66 32.504 108.691 32.504 c 109.02 32.504 109.379 32.379 109.645 32.129
 c 109.941 31.879 110.082 31.566 110.082 31.129 c 110.082 30.863 110.035
 30.66 109.91 30.363 c h
107.754 33.863 m 108.066 33.926 108.77 33.988 109.223 33.988 c 110.035 
33.988 110.332 34.098 110.332 34.426 c 110.332 34.941 109.645 35.285 108.629
 35.285 c 107.832 35.285 107.316 35.035 107.316 34.645 c 107.316 34.426 
107.395 34.301 107.754 33.863 c h
107.801 30.816 m 107.801 30.285 108.051 29.973 108.473 29.973 c 108.754
 29.973 108.973 30.129 109.129 30.395 c 109.301 30.707 109.395 31.113 109.395
 31.473 c 109.395 31.973 109.145 32.285 108.723 32.285 c 108.176 32.285 
107.801 31.707 107.801 30.848 c h
107.801 30.816 m f
114.852 33.254 m 114.695 33.379 114.586 33.426 114.445 33.426 c 114.242
 33.426 114.18 33.301 114.18 32.91 c 114.18 31.16 l 114.18 30.691 114.133
 30.426 114.008 30.223 c 113.805 29.895 113.414 29.723 112.898 29.723 c 
112.055 29.723 111.383 30.16 111.383 30.723 c 111.383 30.926 111.555 31.113
 111.773 31.113 c 111.992 31.113 112.18 30.926 112.18 30.738 c 112.18 30.707
 112.164 30.66 112.164 30.598 c 112.133 30.504 112.133 30.441 112.133 30.379
 c 112.133 30.129 112.414 29.941 112.773 29.941 c 113.211 29.941 113.461
 30.191 113.461 30.676 c 113.461 31.223 l 112.086 31.77 111.93 31.863 111.539
 32.191 c 111.336 32.379 111.211 32.676 111.211 32.973 c 111.211 33.535 
111.602 33.941 112.164 33.941 c 112.555 33.941 112.914 33.754 113.461 33.285
 c 113.508 33.754 113.68 33.941 114.039 33.941 c 114.352 33.941 114.539 
33.832 114.852 33.488 c h
113.461 32.738 m 113.461 33.02 113.414 33.113 113.227 33.223 c 112.992 
33.348 112.758 33.41 112.57 33.41 c 112.258 33.41 112.008 33.113 112.008
 32.723 c 112.008 32.691 l 112.008 32.16 112.414 31.816 113.461 31.441 c
 h
113.461 32.738 m f
117.672 31.035 m 117.641 29.801 l 117.531 29.801 l 117.484 29.879 117.438
 29.895 117.391 29.895 c 117.344 29.895 117.25 29.879 117.156 29.832 c 116.938
 29.77 116.734 29.723 116.516 29.723 c 115.812 29.723 115.297 30.191 115.297
 30.832 c 115.297 31.332 115.594 31.691 116.344 32.129 c 116.875 32.426 
l 117.188 32.598 117.344 32.816 117.344 33.098 c 117.344 33.488 117.047 
33.738 116.594 33.738 c 115.969 33.738 115.656 33.395 115.453 32.488 c 115.312
 32.488 l 115.312 33.879 l 115.422 33.879 l 115.484 33.801 115.531 33.77
 115.641 33.77 c 115.734 33.77 115.844 33.801 116.047 33.848 c 116.281 33.895
 116.516 33.941 116.703 33.941 c 117.406 33.941 117.969 33.41 117.969 32.785
 c 117.969 32.348 117.75 32.051 117.219 31.723 c 116.25 31.145 l 115.984
 30.988 115.859 30.785 115.859 30.535 c 115.859 30.176 116.141 29.926 116.547
 29.926 c 117.062 29.926 117.328 30.223 117.531 31.035 c h
117.672 31.035 m f
66.945 54.773 m 69.07 54.773 l 69.07 54.633 l 68.492 54.617 68.398 54.523
 68.383 54.023 c 68.383 48.664 l 68.352 48.648 l 67.898 48.789 67.57 48.883
 66.93 49.039 c 66.93 49.18 l 66.977 49.18 l 67.086 49.18 67.195 49.164 
67.258 49.164 c 67.555 49.164 67.633 49.289 67.633 49.711 c 67.633 53.992
 l 67.633 54.477 67.508 54.602 66.945 54.633 c h
66.945 54.773 m f
71.512 52.211 m 69.543 52.211 l 69.543 52.805 l 71.512 52.805 l 71.512 
54.773 l 72.105 54.773 l 72.105 52.805 l 74.074 52.805 l 74.074 52.211 l
 72.105 52.211 l 72.105 50.242 l 71.512 50.242 l h
71.512 52.211 m f
78.539 51.289 m 78.539 50.945 l 77.852 50.945 l 77.664 50.945 77.523 50.914
 77.352 50.852 c 77.148 50.789 l 76.914 50.695 76.664 50.648 76.43 50.648
 c 75.602 50.648 74.945 51.289 74.945 52.117 c 74.945 52.68 75.18 53.008
 75.773 53.305 c 75.539 53.523 l 75.352 53.711 75.242 53.805 75.211 53.836
 c 75.023 54.039 74.977 54.133 74.977 54.289 c 74.977 54.492 75.07 54.586
 75.445 54.758 c 74.805 55.227 74.57 55.523 74.57 55.852 c 74.57 56.336 
75.258 56.727 76.117 56.727 c 76.789 56.727 77.492 56.492 77.961 56.117 
c 78.305 55.836 78.461 55.555 78.461 55.211 c 78.461 54.664 78.039 54.289
 77.367 54.258 c 76.211 54.195 l 75.727 54.18 75.508 54.102 75.508 53.961
 c 75.508 53.773 75.805 53.461 76.055 53.398 c 76.367 53.414 76.539 53.43
 76.57 53.43 c 76.898 53.43 77.258 53.305 77.523 53.055 c 77.82 52.805 77.961
 52.492 77.961 52.055 c 77.961 51.789 77.914 51.586 77.789 51.289 c h
75.633 54.789 m 75.945 54.852 76.648 54.914 77.102 54.914 c 77.914 54.914
 78.211 55.023 78.211 55.352 c 78.211 55.867 77.523 56.211 76.508 56.211
 c 75.711 56.211 75.195 55.961 75.195 55.57 c 75.195 55.352 75.273 55.227
 75.633 54.789 c h
75.68 51.742 m 75.68 51.211 75.93 50.898 76.352 50.898 c 76.633 50.898 
76.852 51.055 77.008 51.32 c 77.18 51.633 77.273 52.039 77.273 52.398 c 
77.273 52.898 77.023 53.211 76.602 53.211 c 76.055 53.211 75.68 52.633 75.68
 51.773 c h
75.68 51.742 m f
0.850361 w
q 1 0 0 -1 0 0 cm
77.277 -72.477 m 81.398 -72.477 l 84.148 -72.477 m 88.273 -72.477 l 91.02
 -72.477 m 95.145 -72.477 l 97.891 -72.477 m 102.016 -72.477 l 104.766 -72.477
 m 108.887 -72.477 l 111.637 -72.477 m 115.758 -72.477 l 118.508 -72.477
 m 122.633 -72.477 l S Q
1 g
77.34 70.059 m 75.23 73.715 l 79.449 73.715 l f
0 g
77.34 70.059 m 75.23 73.715 l 79.449 73.715 l h
77.34 70.426 m 75.547 73.531 l 79.133 73.531 l f
1 g
89.738 70.059 m 87.629 73.715 l 91.848 73.715 l f
0 g
89.738 70.059 m 87.629 73.715 l 91.848 73.715 l h
89.738 70.426 m 87.945 73.531 l 91.531 73.531 l f
1 g
122.641 70.059 m 120.531 73.715 l 124.75 73.715 l f
0 g
122.641 70.059 m 120.531 73.715 l 124.75 73.715 l h
122.641 70.426 m 120.848 73.531 l 124.434 73.531 l f
Q Q
showpage
%%Trailer
end
%%EOF
