%!PS-Adobe-3.0 EPSF-3.0
%%Creator: cairo 1.17.4 (https://cairographics.org)
%%CreationDate: Thu Feb 24 10:49:50 2022
%%Pages: 1
%%DocumentData: Clean7Bit
%%LanguageLevel: 2
%%BoundingBox: 0 0 168 134
%%EndComments
%%BeginProlog
50 dict begin
/q { gsave } bind def
/Q { grestore } bind def
/cm { 6 array astore concat } bind def
/w { setlinewidth } bind def
/J { setlinecap } bind def
/j { setlinejoin } bind def
/M { setmiterlimit } bind def
/d { setdash } bind def
/m { moveto } bind def
/l { lineto } bind def
/c { curveto } bind def
/h { closepath } bind def
/re { exch dup neg 3 1 roll 5 3 roll moveto 0 rlineto
      0 exch rlineto 0 rlineto closepath } bind def
/S { stroke } bind def
/f { fill } bind def
/f* { eofill } bind def
/n { newpath } bind def
/W { clip } bind def
/W* { eoclip } bind def
/BT { } bind def
/ET { } bind def
/BDC { mark 3 1 roll /BDC pdfmark } bind def
/EMC { mark /EMC pdfmark } bind def
/cairo_store_point { /cairo_point_y exch def /cairo_point_x exch def } def
/Tj { show currentpoint cairo_store_point } bind def
/TJ {
  {
    dup
    type /stringtype eq
    { show } { -0.001 mul 0 cairo_font_matrix dtransform rmoveto } ifelse
  } forall
  currentpoint cairo_store_point
} bind def
/cairo_selectfont { cairo_font_matrix aload pop pop pop 0 0 6 array astore
    cairo_font exch selectfont cairo_point_x cairo_point_y moveto } bind def
/Tf { pop /cairo_font exch def /cairo_font_matrix where
      { pop cairo_selectfont } if } bind def
/Td { matrix translate cairo_font_matrix matrix concatmatrix dup
      /cairo_font_matrix exch def dup 4 get exch 5 get cairo_store_point
      /cairo_font where { pop cairo_selectfont } if } bind def
/Tm { 2 copy 8 2 roll 6 array astore /cairo_font_matrix exch def
      cairo_store_point /cairo_font where { pop cairo_selectfont } if } bind def
/g { setgray } bind def
/rg { setrgbcolor } bind def
/d1 { setcachedevice } bind def
/cairo_data_source {
  CairoDataIndex CairoData length lt
    { CairoData CairoDataIndex get /CairoDataIndex CairoDataIndex 1 add def }
    { () } ifelse
} def
/cairo_flush_ascii85_file { cairo_ascii85_file status { cairo_ascii85_file flushfile } if } def
/cairo_image { image cairo_flush_ascii85_file } def
/cairo_imagemask { imagemask cairo_flush_ascii85_file } def
%%EndProlog
%%BeginSetup
%%EndSetup
%%Page: 1 1
%%BeginPageSetup
%%PageBoundingBox: 0 0 168 134
%%EndPageSetup
q 0 0 168 134 rectclip
1 0 0 -1 0 134 cm q
Q q
0 0 156.363 134 re W n
q
0 0 157 134 re W n
  q
0 g
0.992219 w
0 J
0 j
[] 0.0 d
10 M q 1 0 0 -1 0 0 cm
109.395 -68.383 m 76.664 -11.688 l 11.199 -125.074 l 142.125 -125.074 l
 h
109.395 -68.383 m S Q
  Q
Q
0 g
0.283298 w
0 J
0 j
[] 0.0 d
10 M q 1 0 0 -1 0 0 cm
89.754 -102.398 m 89.754 -105.355 l 89.754 -107.328 m 89.754 -110.285 l
 89.754 -112.258 m 89.754 -115.215 l 89.754 -117.188 m 89.754 -120.145 l
 89.754 -122.117 m 89.754 -125.074 l S Q
96.719 117.152 m 96.594 117.059 l 96.281 117.48 96.062 117.684 95.922 117.684
 c 95.844 117.684 95.812 117.605 95.812 117.48 c 95.812 117.387 95.828 117.246
 95.875 117.09 c 96.688 113.949 l 96.062 114.043 l 95.938 114.512 l 95.859
 114.184 95.547 113.949 95.203 113.949 c 94.047 113.949 92.641 115.699 92.641
 117.09 c 92.641 117.48 92.781 118.152 93.5 118.152 c 94.141 118.152 94.859
 117.574 95.312 116.777 c 95.172 117.09 95.094 117.574 95.094 117.715 c 
95.094 117.918 95.203 118.152 95.484 118.152 c 95.859 118.152 96.281 117.824
 96.719 117.152 c h
95.781 114.793 m 95.781 115.59 94.953 117.652 93.922 117.652 c 93.703 117.652
 93.375 117.527 93.375 116.996 c 93.375 116.152 94.25 114.137 95.234 114.137
 c 95.469 114.137 95.781 114.277 95.781 114.793 c h
95.781 114.793 m f
q 1 0 0 -1 0 0 cm
89.754 -102.398 m 92.43 -100.852 l 94.215 -99.82 m 96.895 -98.273 l 98.68
 -97.242 m 101.355 -95.695 l 103.145 -94.664 m 105.82 -93.117 l 107.605 
-92.086 m 110.285 -90.543 l 112.07 -89.512 m 114.746 -87.965 l 116.531 -86.934
 m 119.211 -85.387 l S Q
103.297 88.203 m 103.297 87.375 102.766 87.047 102.203 87.047 c 101.469
 87.047 100.906 87.734 100.656 88.109 c 101.578 84.703 l 101.578 84.703 
100.375 84.922 100.125 84.938 c 100.125 85.109 l 100.484 85.109 100.719 
85.141 100.719 85.422 c 100.719 85.594 100.625 85.938 100.562 86.156 c 99.281
 90.734 l 99.375 90.906 99.969 91.25 100.547 91.25 c 102.234 91.25 103.297
 89.578 103.297 88.203 c h
102.547 88.422 m 102.547 90.016 101.531 91.047 100.594 91.047 c 100.312
 91.047 100.062 90.953 99.922 90.781 c 100.125 89.984 100.734 87.469 101.891
 87.469 c 102.5 87.469 102.547 87.969 102.547 88.422 c h
102.547 88.422 m f
q 1 0 0 -1 0 0 cm
89.754 -102.398 m 87.215 -100.93 l 85.52 -99.953 m 82.98 -98.488 l 81.289
 -97.508 m 78.75 -96.043 l 77.055 -95.066 m 74.516 -93.598 l 72.824 -92.621
 m 70.285 -91.156 l 68.59 -90.18 m 66.051 -88.711 l 64.359 -87.734 m 61.82
 -86.27 l 60.125 -85.289 m 57.586 -83.824 l 55.895 -82.848 m 53.355 -81.379
 l 51.66 -80.402 m 49.121 -78.938 l 47.43 -77.957 m 44.891 -76.492 l 43.199
 -75.516 m 40.66 -74.051 l S Q
64.656 79.242 m 64.656 78.898 64.391 78.523 63.766 78.523 c 62.453 78.523
 61.188 80.023 61.188 81.336 c 61.188 82.289 61.781 82.727 62.453 82.727
 c 63.297 82.727 63.859 82.133 64.188 81.711 c 64.047 81.617 l 63.812 81.914
 63.359 82.383 62.781 82.383 c 62.266 82.383 61.953 81.961 61.953 81.273
 c 61.953 80.43 62.625 78.695 63.766 78.695 c 63.938 78.695 64.109 78.773
 64.109 78.93 c 64.109 79.086 63.891 79.195 63.891 79.43 c 63.891 79.633
 64.016 79.758 64.219 79.758 c 64.5 79.758 64.656 79.508 64.656 79.242 c
 h
64.656 79.242 m f
0.850361 w
q 1 0 0 -1 0 0 cm
24.293 -102.398 m 129.035 -102.398 l S Q
q 1 0 0 -1 0 0 cm
89.754 -102.398 m 57.023 -45.703 l S Q
79.75 5.875 m 79.344 5.844 79.266 5.766 78.953 5.094 c 76.719 0 l 76.531
 0 l 74.672 4.406 l 74.094 5.719 73.984 5.859 73.562 5.875 c 73.562 6.047
 l 75.328 6.047 l 75.328 5.875 l 74.906 5.875 74.719 5.766 74.719 5.516 
c 74.719 5.406 74.75 5.281 74.797 5.156 c 75.203 4.109 l 77.562 4.109 l 
77.922 4.969 l 78.031 5.219 78.094 5.453 78.094 5.578 c 78.094 5.797 77.938
 5.875 77.469 5.875 c 77.469 6.047 l 79.75 6.047 l h
75.359 3.734 m 76.391 1.281 l 77.438 3.734 l h
75.359 3.734 m f
0 127.133 m 0.75 127.18 0.844 127.273 0.859 127.945 c 0.859 131.914 l 0.844
 132.586 0.734 132.695 0 132.727 c 0 132.898 l 2.984 132.898 l 3.688 132.898
 4.328 132.711 4.656 132.398 c 4.984 132.117 5.156 131.711 5.156 131.289
 c 5.156 130.883 5.016 130.523 4.719 130.273 c 4.453 130.023 4.219 129.914
 3.625 129.773 c 4.094 129.664 4.281 129.57 4.5 129.383 c 4.719 129.18 4.859
 128.867 4.859 128.492 c 4.859 127.477 4.047 126.961 2.5 126.961 c 0 126.961
 l h
1.766 129.977 m 2.641 129.977 3.047 130.023 3.375 130.164 c 3.891 130.367
 4.125 130.742 4.125 131.289 c 4.125 131.773 3.938 132.133 3.578 132.336
 c 3.297 132.492 2.922 132.57 2.344 132.57 c 1.891 132.57 1.766 132.492 
1.766 132.195 c h
1.766 129.617 m 1.766 127.555 l 1.781 127.367 1.812 127.305 1.969 127.305
 c 2.359 127.289 l 3.359 127.273 3.938 127.727 3.938 128.523 c 3.938 129.227
 3.484 129.602 2.625 129.617 c h
1.766 129.617 m f
153.059 128.934 m 152.98 126.918 l 152.793 126.918 l 152.73 127.105 152.59
 127.215 152.418 127.215 c 152.324 127.215 152.199 127.184 152.059 127.137
 c 151.621 126.996 151.168 126.918 150.746 126.918 c 150.012 126.918 149.277
 127.199 148.715 127.684 c 148.09 128.246 147.746 129.074 147.746 130.059
 c 147.746 131.887 148.934 133.105 150.73 133.105 c 151.746 133.105 152.637
 132.699 153.168 131.965 c 153.012 131.809 l 152.355 132.449 151.762 132.715
 151.012 132.715 c 150.449 132.715 149.949 132.527 149.559 132.184 c 149.059
 131.746 148.793 130.949 148.793 129.934 c 148.793 128.324 149.621 127.277
 150.918 127.277 c 151.434 127.277 151.902 127.465 152.262 127.809 c 152.543
 128.105 152.684 128.355 152.855 128.934 c h
153.059 128.934 m f
12.312 105.395 m 14.859 105.395 l 15.906 105.395 16.844 105.098 17.406 
104.598 c 17.984 104.066 18.312 103.27 18.312 102.395 c 18.312 101.598 18.062
 100.895 17.547 100.395 c 16.938 99.785 15.969 99.457 14.734 99.457 c 12.312
 99.457 l 12.312 99.629 l 13.031 99.691 13.094 99.77 13.109 100.441 c 13.109
 104.41 l 13.094 105.066 12.984 105.176 12.312 105.223 c h
14.016 100.145 m 14.016 99.863 14.109 99.785 14.484 99.785 c 15.266 99.785
 15.844 99.926 16.266 100.238 c 16.969 100.723 17.344 101.488 17.344 102.457
 c 17.344 103.52 16.969 104.27 16.25 104.691 c 15.781 104.957 15.266 105.066
 14.484 105.066 c 14.125 105.066 14.016 104.988 14.016 104.691 c h
14.016 100.145 m f
140.035 103.879 m 139.785 103.879 l 139.348 104.832 138.941 105.051 137.66
 105.066 c 137.426 105.066 l 136.488 105.035 136.473 105.02 136.473 104.676
 c 136.473 102.457 l 137.863 102.457 l 138.613 102.473 138.723 102.582 138.848
 103.316 c 139.051 103.316 l 139.051 101.238 l 138.848 101.238 l 138.738
 101.973 138.613 102.082 137.863 102.098 c 136.473 102.098 l 136.473 100.098
 l 136.488 99.832 136.52 99.801 136.77 99.801 c 137.988 99.801 l 139.02 
99.816 139.207 99.941 139.348 100.738 c 139.566 100.738 l 139.551 99.457
 l 134.785 99.457 l 134.785 99.629 l 135.441 99.676 135.551 99.785 135.566
 100.441 c 135.566 104.41 l 135.551 105.066 135.426 105.191 134.785 105.223
 c 134.785 105.395 l 139.629 105.395 l h
140.035 103.879 m f
52.715 42.82 m 52.715 40.742 l 52.512 40.742 l 52.402 41.461 52.262 41.586
 51.527 41.602 c 50.215 41.602 l 50.215 39.602 l 50.23 39.336 50.262 39.305
 50.512 39.305 c 51.73 39.305 l 52.762 39.32 52.949 39.445 53.09 40.242 
c 53.309 40.242 l 53.293 38.961 l 48.527 38.961 l 48.527 39.133 l 49.184
 39.18 49.293 39.289 49.309 39.945 c 49.309 43.82 l 49.293 44.586 49.215
 44.68 48.527 44.727 c 48.527 44.898 l 51.043 44.898 l 51.043 44.727 l 50.355
 44.695 50.23 44.57 50.215 43.914 c 50.215 41.961 l 51.527 41.961 l 52.262
 41.977 52.402 42.102 52.512 42.82 c h
52.715 42.82 m f
81.875 105.629 m 82.547 105.707 82.625 105.785 82.625 106.441 c 82.625 
110.316 l 82.625 111.082 82.562 111.16 81.875 111.223 c 81.875 111.395 l
 84.391 111.395 l 84.391 111.223 l 83.688 111.207 83.562 111.082 83.547 
110.41 c 83.547 108.785 l 83.781 108.801 83.938 108.816 84.172 108.816 c
 84.875 108.816 85.344 108.723 85.734 108.504 c 86.266 108.223 86.594 107.676
 86.594 107.082 c 86.594 106.707 86.469 106.363 86.234 106.098 c 85.875 
105.707 85.094 105.457 84.25 105.457 c 81.875 105.457 l h
83.547 106.098 m 83.547 105.848 83.609 105.785 83.844 105.785 c 85.062 
105.785 85.625 106.207 85.625 107.129 c 85.625 108.004 85.094 108.457 84.062
 108.457 c 83.875 108.457 83.75 108.441 83.547 108.426 c h
83.547 106.098 m f
Q q
0 g
160.531 121.793 m 161.703 125.074 l 162.875 121.793 l 161.703 123.105 l
 f
162.875 14.973 m 161.703 11.688 l 160.531 14.973 l 161.703 13.66 l f
0.425176 w
0 J
0 j
[] 0.0 d
10 M q 1 0 0 -1 0 0 cm
161.703 -123.105 m 161.703 -13.66 l S Q
1 g
156.191 68.406 m 156.191 62.203 l 167.148 62.203 l 167.148 74.609 l 156.191
 74.609 l f
0 g
163.496 70.699 m 163.371 70.59 l 163.152 70.887 162.84 71.277 162.668 71.277
 c 162.605 71.277 162.559 71.215 162.559 71.121 c 162.559 70.762 163.293
 68.668 163.293 68.137 c 163.293 67.668 162.965 67.527 162.746 67.527 c 
161.965 67.527 161.043 68.809 160.621 69.512 c 161.762 65.184 l 161.762 
65.184 160.559 65.402 160.309 65.418 c 160.309 65.59 l 160.668 65.59 160.902
 65.621 160.902 65.902 c 160.902 66.074 160.793 66.496 160.73 66.715 c 159.402
 71.621 l 160.074 71.621 l 160.105 71.512 160.23 71.027 160.23 71.027 c 
160.793 68.918 161.996 68.027 162.355 68.027 c 162.48 68.027 162.605 68.121
 162.605 68.293 c 162.605 68.668 161.84 70.855 161.84 71.309 c 161.855 71.527
 161.949 71.73 162.23 71.73 c 162.73 71.73 163.215 71.121 163.496 70.699
 c h
163.496 70.699 m f
Q q
155.363 124.574 12.637 1 re W n
q
155 124 13 2 re W n
  q
0 g
0.425176 w
0 J
0 j
[] 0.0 d
10 M q 1 0 0 -1 0 0 cm
156.035 -125.074 m 167.371 -125.074 l S Q
  Q
Q
Q q
155.363 10.574 12.637 2 re W n
q
155 10 13 3 re W n
  q
0 g
0.425176 w
0 J
0 j
[] 0.0 d
10 M q 1 0 0 -1 0 0 cm
156.035 -11.688 m 167.371 -11.688 l S Q
  Q
Q
Q Q
showpage
%%Trailer
end
%%EOF
