%!PS-Adobe-3.0 EPSF-3.0
%%Creator: cairo 1.17.4 (https://cairographics.org)
%%CreationDate: Thu Feb 24 10:49:58 2022
%%Pages: 1
%%DocumentData: Clean7Bit
%%LanguageLevel: 2
%%BoundingBox: 0 0 106 114
%%EndComments
%%BeginProlog
50 dict begin
/q { gsave } bind def
/Q { grestore } bind def
/cm { 6 array astore concat } bind def
/w { setlinewidth } bind def
/J { setlinecap } bind def
/j { setlinejoin } bind def
/M { setmiterlimit } bind def
/d { setdash } bind def
/m { moveto } bind def
/l { lineto } bind def
/c { curveto } bind def
/h { closepath } bind def
/re { exch dup neg 3 1 roll 5 3 roll moveto 0 rlineto
      0 exch rlineto 0 rlineto closepath } bind def
/S { stroke } bind def
/f { fill } bind def
/f* { eofill } bind def
/n { newpath } bind def
/W { clip } bind def
/W* { eoclip } bind def
/BT { } bind def
/ET { } bind def
/BDC { mark 3 1 roll /BDC pdfmark } bind def
/EMC { mark /EMC pdfmark } bind def
/cairo_store_point { /cairo_point_y exch def /cairo_point_x exch def } def
/Tj { show currentpoint cairo_store_point } bind def
/TJ {
  {
    dup
    type /stringtype eq
    { show } { -0.001 mul 0 cairo_font_matrix dtransform rmoveto } ifelse
  } forall
  currentpoint cairo_store_point
} bind def
/cairo_selectfont { cairo_font_matrix aload pop pop pop 0 0 6 array astore
    cairo_font exch selectfont cairo_point_x cairo_point_y moveto } bind def
/Tf { pop /cairo_font exch def /cairo_font_matrix where
      { pop cairo_selectfont } if } bind def
/Td { matrix translate cairo_font_matrix matrix concatmatrix dup
      /cairo_font_matrix exch def dup 4 get exch 5 get cairo_store_point
      /cairo_font where { pop cairo_selectfont } if } bind def
/Tm { 2 copy 8 2 roll 6 array astore /cairo_font_matrix exch def
      cairo_store_point /cairo_font where { pop cairo_selectfont } if } bind def
/g { setgray } bind def
/rg { setrgbcolor } bind def
/d1 { setcachedevice } bind def
/cairo_data_source {
  CairoDataIndex CairoData length lt
    { CairoData CairoDataIndex get /CairoDataIndex CairoDataIndex 1 add def }
    { () } ifelse
} def
/cairo_flush_ascii85_file { cairo_ascii85_file status { cairo_ascii85_file flushfile } if } def
/cairo_image { image cairo_flush_ascii85_file } def
/cairo_imagemask { imagemask cairo_flush_ascii85_file } def
%%EndProlog
%%BeginSetup
%%EndSetup
%%Page: 1 1
%%BeginPageSetup
%%PageBoundingBox: 0 0 106 114
%%EndPageSetup
q 0 0 106 114 rectclip
1 0 0 -1 0 114 cm q
0 g
1.13366 w
0 J
0 j
[] 0.0 d
10 M q 1 0 0 -1 0 0 cm
0.387 -54.41 m 0.387 -54.41 12.902 -42.66 20.238 -37.41 c 29.484 -30.734
 38.387 -25.555 48.574 -20.41 c 59.91 -14.672 70.512 -10.223 82.578 -6.223
 c 90.262 -3.684 105.281 -0.555 105.281 -0.555 c S Q
0.567044 w
q 1 0 0 -1 0 0 cm
37.234 -60.09 m 37.406 -59.988 l 37.891 -59.641 l 38.617 -59.156 l 39.621
 -58.5 l 39.652 -58.48 l 41.266 -57.406 m 42.281 -56.738 l 43.703 -55.824
 l 45.324 -54.766 m 45.531 -54.629 l 47.297 -53.488 l 47.766 -53.191 l 49.406
 -52.164 m 51.066 -51.137 l 51.875 -50.629 l 53.523 -49.613 m 54.801 -48.852
 l 56.02 -48.125 l 57.691 -47.148 m 58.324 -46.777 l 59.5 -46.121 l 59.918
 -45.914 l 60.234 -45.746 l 61.957 -44.863 m 61.992 -44.844 l 64.238 -43.699
 l 64.551 -43.551 l 66.293 -42.707 m 66.66 -42.527 l 68.926 -41.473 l 70.676
 -40.645 m 71.742 -40.141 l 73.312 -39.43 l 75.082 -38.637 m 76.93 -37.824
 l 77.738 -37.465 l 79.508 -36.676 m 81.77 -35.715 l 82.18 -35.535 l 83.953
 -34.758 m 83.98 -34.746 l 85.953 -33.914 l 86.625 -33.621 l 88.406 -32.855
 m 89.102 -32.566 l 90.172 -32.117 l 90.863 -31.84 l 91.09 -31.746 l S Q
0.567043 w
q 1 0 0 -1 0 0 cm
20.234 -37.41 m 22.055 -39.84 l 23.27 -41.461 m 25.09 -43.895 l 26.305 
-45.516 m 28.125 -47.945 l 29.34 -49.566 m 31.16 -51.996 l 32.371 -53.617
 m 34.191 -56.047 l 35.406 -57.668 m 37.227 -60.102 l S Q
q 1 0 0 -1 0 0 cm
82.586 -6.227 m 83.5 -8.961 l 84.109 -10.781 m 85.02 -13.516 l 85.629 -15.336
 m 86.539 -18.07 l 87.148 -19.891 m 88.062 -22.625 l 88.668 -24.445 m 89.582
 -27.18 l 90.191 -29 m 91.098 -31.723 l S Q
52.582 24.598 m 49.152 21.305 l 49.707 26.016 l 50.332 23.695 l f
0.85036 w
q 1 0 0 -1 0 0 cm
93.922 -111.113 m 50.324 -23.719 l S Q
69.125 71.492 m 69.125 70.398 67.969 70.148 67.188 70.148 c 64.516 70.148
 l 64.484 70.336 l 65.062 70.336 65.188 70.414 65.188 70.711 c 65.188 70.836
 65.125 71.102 65.094 71.195 c 63.953 75.367 l 63.797 75.914 63.656 76.117
 63.156 76.117 c 63.141 76.305 l 65.891 76.305 l 65.906 76.117 l 65.406 
76.117 65.219 76.008 65.219 75.711 c 65.219 75.602 65.25 75.398 65.328 75.18
 c 65.859 73.289 l 66.125 73.289 l 67.109 76.305 l 68.875 76.305 l 68.906
 76.117 l 68.438 76.117 68.297 75.992 68.094 75.367 c 67.375 73.195 l 68.562
 72.992 69.125 72.195 69.125 71.492 c h
67.734 71.43 m 67.734 72.242 67.391 72.992 65.938 72.992 c 66.578 70.445
 l 67.266 70.445 67.734 70.695 67.734 71.43 c h
67.734 71.43 m f
70.953 77.371 m 70.922 77.527 70.906 77.684 70.906 77.793 c 70.906 78.34
 71.266 78.543 71.562 78.543 c 71.891 78.543 72.516 78.309 72.719 77.574
 c 72.531 77.574 l 72.344 77.887 72.062 78.059 71.828 78.059 c 71.734 78.059
 71.531 77.949 71.531 77.668 c 71.531 77.605 71.547 77.543 71.562 77.48 
c 71.969 75.824 l 72.359 75.824 l 72.781 75.824 73.188 75.559 73.281 75.09
 c 73.156 75.043 l 72.984 75.168 72.75 75.215 72.5 75.215 c 71.125 75.215
 l 70.609 75.215 70.25 75.621 70.172 75.934 c 70.297 75.996 l 70.422 75.902
 70.547 75.824 70.844 75.824 c 71.344 75.824 l h
70.953 77.371 m f
67.895 28.621 m 72.672 28.52 l 68.934 25.574 l 70.109 27.652 l f
0.850359 w
q 1 0 0 -1 0 0 cm
48.559 -20.41 m 70.109 -27.648 l S Q
63.582 18.652 m 63.582 18.199 63.238 18.105 63.098 18.105 c 62.629 18.105
 62.113 18.887 61.566 20.34 c 62.035 18.105 l 61.738 18.184 60.957 18.324
 60.52 18.355 c 60.488 18.559 l 60.754 18.559 60.832 18.668 60.832 18.902
 c 60.832 19.449 60.082 22.215 60.082 22.215 c 61.16 22.215 l 61.566 20.809
 62.207 19.074 62.551 19.074 c 62.691 19.074 62.738 19.449 63.051 19.449
 c 63.316 19.449 63.582 19.105 63.582 18.652 c h
63.582 18.652 m f
66.059 19.98 m 66.059 19.793 65.902 19.59 65.668 19.59 c 65.48 19.59 65.309
 19.746 65.309 19.98 c 65.309 20.199 65.48 20.355 65.684 20.355 c 65.902
 20.355 66.059 20.152 66.059 19.98 c h
65.887 23.652 m 65.715 23.512 l 65.465 23.887 65.199 24.121 65.09 24.121
 c 65.027 24.121 65.027 24.074 65.027 24.027 c 65.027 23.934 65.043 23.855
 65.09 23.699 c 65.824 21.074 l 65.824 21.074 64.684 21.262 64.465 21.277
 c 64.465 21.512 l 64.777 21.512 64.965 21.512 64.965 21.715 c 64.965 22.09
 64.34 23.793 64.34 24.152 c 64.34 24.449 64.512 24.574 64.699 24.574 c 
65.246 24.574 65.762 23.871 65.887 23.652 c h
65.887 23.652 m f
68.352 23.402 m 68.32 23.559 68.305 23.715 68.305 23.824 c 68.305 24.371
 68.664 24.574 68.961 24.574 c 69.289 24.574 69.914 24.34 70.117 23.605 
c 69.93 23.605 l 69.742 23.918 69.461 24.09 69.227 24.09 c 69.133 24.09 
68.93 23.98 68.93 23.699 c 68.93 23.637 68.945 23.574 68.961 23.512 c 69.367
 21.855 l 69.758 21.855 l 70.18 21.855 70.586 21.59 70.68 21.121 c 70.555
 21.074 l 70.383 21.199 70.148 21.246 69.898 21.246 c 68.523 21.246 l 68.008
 21.246 67.648 21.652 67.57 21.965 c 67.695 22.027 l 67.82 21.934 67.945
 21.855 68.242 21.855 c 68.742 21.855 l h
68.352 23.402 m f
77.031 34.297 m 74.438 30.32 l 73.922 35.059 l 75.062 32.914 l f
q 1 0 0 -1 0 0 cm
93.926 -111.105 m 75.051 -32.945 l S Q
89.035 63.164 m 89.035 62.711 88.691 62.617 88.551 62.617 c 88.082 62.617
 87.566 63.398 87.02 64.852 c 87.488 62.617 l 87.191 62.695 86.41 62.836
 85.973 62.867 c 85.941 63.07 l 86.207 63.07 86.285 63.18 86.285 63.414 
c 86.285 63.961 85.535 66.727 85.535 66.727 c 86.613 66.727 l 87.02 65.32
 87.66 63.586 88.004 63.586 c 88.145 63.586 88.191 63.961 88.504 63.961 
c 88.77 63.961 89.035 63.617 89.035 63.164 c h
89.035 63.164 m f
91.512 64.488 m 91.512 64.301 91.355 64.098 91.121 64.098 c 90.934 64.098
 90.762 64.254 90.762 64.488 c 90.762 64.707 90.934 64.863 91.137 64.863
 c 91.355 64.863 91.512 64.66 91.512 64.488 c h
91.34 68.16 m 91.168 68.02 l 90.918 68.395 90.652 68.629 90.543 68.629 
c 90.48 68.629 90.48 68.582 90.48 68.535 c 90.48 68.441 90.496 68.363 90.543
 68.207 c 91.277 65.582 l 91.277 65.582 90.137 65.77 89.918 65.785 c 89.918
 66.02 l 90.23 66.02 90.418 66.02 90.418 66.223 c 90.418 66.598 89.793 68.301
 89.793 68.66 c 89.793 68.957 89.965 69.082 90.152 69.082 c 90.699 69.082
 91.215 68.379 91.34 68.16 c h
91.34 68.16 m f
1 g
96.051 111.156 m 96.051 109.98 95.098 109.027 93.922 109.027 c 92.746 109.027
 91.793 109.98 91.793 111.156 c 91.793 112.332 92.746 113.285 93.922 113.285
 c 95.098 113.285 96.051 112.332 96.051 111.156 c f
0 g
96.051 111.156 m 96.051 109.98 95.098 109.027 93.922 109.027 c 92.746 109.027
 91.793 109.98 91.793 111.156 c 91.793 112.332 92.746 113.285 93.922 113.285
 c 95.098 113.285 96.051 112.332 96.051 111.156 c h
96.051 111.156 m 95.84 111.156 l 95.84 110.098 94.98 109.238 93.922 109.238
 c 92.863 109.238 92.004 110.098 92.004 111.156 c 92.004 112.215 92.863 
113.074 93.922 113.074 c 94.98 113.074 95.84 112.215 95.84 111.156 c f
1 g
46.605 18.535 3.836 3.836 re f
0 g
46.605 18.535 m 50.441 18.535 l 50.441 22.371 l 46.605 22.371 l h
46.816 18.746 m 50.23 18.746 l 50.23 22.16 l 46.816 22.16 l f
76.254 28.953 m 76.254 27.777 75.301 26.824 74.125 26.824 c 72.949 26.824
 71.996 27.777 71.996 28.953 c 71.996 30.129 72.949 31.082 74.125 31.082
 c 75.301 31.082 76.254 30.129 76.254 28.953 c f
41.82 35.375 m 41.758 35.359 l 41.57 35.5 41.273 35.578 40.945 35.578 c
 40.398 35.578 39.633 35.547 39.57 35.547 c 38.68 35.547 38.273 36.031 38.18
 36.344 c 38.258 36.391 l 38.695 36.016 39.633 36.109 39.648 36.109 c 39.086
 38.391 l 39.07 38.453 39.055 38.641 39.055 38.703 c 39.055 39.234 39.383
 39.562 39.82 39.562 c 40.195 39.562 40.805 39.156 41.055 38.469 c 40.945
 38.469 l 40.836 38.656 40.32 39.062 39.992 39.062 c 39.836 39.062 39.648
 38.969 39.648 38.703 c 39.648 38.625 39.664 38.516 39.695 38.406 c 40.227
 36.141 l 41.117 36.141 41.727 35.891 41.82 35.375 c h
41.82 35.375 m f
Q Q
showpage
%%Trailer
end
%%EOF
