%!PS-Adobe-3.0 EPSF-3.0
%%Creator: cairo 1.17.4 (https://cairographics.org)
%%CreationDate: Thu Feb 24 10:49:59 2022
%%Pages: 1
%%DocumentData: Clean7Bit
%%LanguageLevel: 2
%%BoundingBox: 0 0 142 114
%%EndComments
%%BeginProlog
50 dict begin
/q { gsave } bind def
/Q { grestore } bind def
/cm { 6 array astore concat } bind def
/w { setlinewidth } bind def
/J { setlinecap } bind def
/j { setlinejoin } bind def
/M { setmiterlimit } bind def
/d { setdash } bind def
/m { moveto } bind def
/l { lineto } bind def
/c { curveto } bind def
/h { closepath } bind def
/re { exch dup neg 3 1 roll 5 3 roll moveto 0 rlineto
      0 exch rlineto 0 rlineto closepath } bind def
/S { stroke } bind def
/f { fill } bind def
/f* { eofill } bind def
/n { newpath } bind def
/W { clip } bind def
/W* { eoclip } bind def
/BT { } bind def
/ET { } bind def
/BDC { mark 3 1 roll /BDC pdfmark } bind def
/EMC { mark /EMC pdfmark } bind def
/cairo_store_point { /cairo_point_y exch def /cairo_point_x exch def } def
/Tj { show currentpoint cairo_store_point } bind def
/TJ {
  {
    dup
    type /stringtype eq
    { show } { -0.001 mul 0 cairo_font_matrix dtransform rmoveto } ifelse
  } forall
  currentpoint cairo_store_point
} bind def
/cairo_selectfont { cairo_font_matrix aload pop pop pop 0 0 6 array astore
    cairo_font exch selectfont cairo_point_x cairo_point_y moveto } bind def
/Tf { pop /cairo_font exch def /cairo_font_matrix where
      { pop cairo_selectfont } if } bind def
/Td { matrix translate cairo_font_matrix matrix concatmatrix dup
      /cairo_font_matrix exch def dup 4 get exch 5 get cairo_store_point
      /cairo_font where { pop cairo_selectfont } if } bind def
/Tm { 2 copy 8 2 roll 6 array astore /cairo_font_matrix exch def
      cairo_store_point /cairo_font where { pop cairo_selectfont } if } bind def
/g { setgray } bind def
/rg { setrgbcolor } bind def
/d1 { setcachedevice } bind def
/cairo_data_source {
  CairoDataIndex CairoData length lt
    { CairoData CairoDataIndex get /CairoDataIndex CairoDataIndex 1 add def }
    { () } ifelse
} def
/cairo_flush_ascii85_file { cairo_ascii85_file status { cairo_ascii85_file flushfile } if } def
/cairo_image { image cairo_flush_ascii85_file } def
/cairo_imagemask { imagemask cairo_flush_ascii85_file } def
%%EndProlog
%%BeginSetup
%%EndSetup
%%Page: 1 1
%%BeginPageSetup
%%PageBoundingBox: 0 0 142 114
%%EndPageSetup
q 0 0 142 114 rectclip
1 0 0 -1 0 114 cm q
0 g
0.283298 w
0 J
0 j
[] 0.0 d
10 M q 1 0 0 -1 0 0 cm
28.441 -42.508 m 0.102 -70.848 l S Q
q 1 0 0 -1 0 0 cm
28.441 -42.508 m 28.441 0 l S Q
q 1 0 0 -1 0 0 cm
28.426 -42.523 m 70.953 -42.523 l S Q
47.035 32.801 m 49.973 29.062 l 45.332 30.082 l 47.688 30.48 l f
0.85036 w
q 1 0 0 -1 0 0 cm
28.449 -42.504 m 47.707 -30.461 l S Q
39.703 25.281 m 39.703 24.828 39.359 24.734 39.219 24.734 c 38.75 24.734
 38.234 25.516 37.688 26.969 c 38.156 24.734 l 37.859 24.812 37.078 24.953
 36.641 24.984 c 36.609 25.188 l 36.875 25.188 36.953 25.297 36.953 25.531
 c 36.953 26.078 36.203 28.844 36.203 28.844 c 37.281 28.844 l 37.688 27.438
 38.328 25.703 38.672 25.703 c 38.812 25.703 38.859 26.078 39.172 26.078
 c 39.438 26.078 39.703 25.734 39.703 25.281 c h
39.703 25.281 m f
42.82 22.121 m 42.82 21.902 42.586 21.746 42.367 21.746 c 42.211 21.746
 42.07 21.824 42.008 22.043 c 41.07 25.23 l 41.273 25.309 l 42.773 22.293
 l 42.789 22.23 42.82 22.184 42.82 22.121 c h
42.82 22.121 m f
42.18 27.566 m 42.18 27.379 42.023 27.176 41.789 27.176 c 41.602 27.176
 41.43 27.332 41.43 27.566 c 41.43 27.785 41.602 27.941 41.805 27.941 c 
42.023 27.941 42.18 27.738 42.18 27.566 c h
42.008 31.238 m 41.836 31.098 l 41.586 31.473 41.32 31.707 41.211 31.707
 c 41.148 31.707 41.148 31.66 41.148 31.613 c 41.148 31.52 41.164 31.441
 41.211 31.285 c 41.945 28.66 l 41.945 28.66 40.805 28.848 40.586 28.863
 c 40.586 29.098 l 40.898 29.098 41.086 29.098 41.086 29.301 c 41.086 29.676
 40.461 31.379 40.461 31.738 c 40.461 32.035 40.633 32.16 40.82 32.16 c 
41.367 32.16 41.883 31.457 42.008 31.238 c h
42.008 31.238 m f
56.07 31.715 m 51.965 29.352 l 53.637 33.785 l 53.711 31.387 l f
1 g
3.83913 w
q 1 0 0 -1 0 0 cm
99.297 -85.055 m 53.68 -31.387 l S Q
0 g
0.850359 w
q 1 0 0 -1 0 0 cm
99.297 -85.055 m 53.68 -31.387 l S Q
56.07 31.715 m 51.965 29.352 l 53.637 33.785 l 53.711 31.387 l f
77.973 48.422 m 77.973 47.969 77.629 47.875 77.488 47.875 c 77.02 47.875
 76.504 48.656 75.957 50.109 c 76.426 47.875 l 76.129 47.953 75.348 48.094
 74.91 48.125 c 74.879 48.328 l 75.145 48.328 75.223 48.438 75.223 48.672
 c 75.223 49.219 74.473 51.984 74.473 51.984 c 75.551 51.984 l 75.957 50.578
 76.598 48.844 76.941 48.844 c 77.082 48.844 77.129 49.219 77.441 49.219
 c 77.707 49.219 77.973 48.875 77.973 48.422 c h
77.973 48.422 m f
80.449 49.629 m 80.449 49.441 80.293 49.238 80.059 49.238 c 79.871 49.238
 79.699 49.395 79.699 49.629 c 79.699 49.848 79.871 50.004 80.074 50.004
 c 80.293 50.004 80.449 49.801 80.449 49.629 c h
80.277 53.301 m 80.105 53.16 l 79.855 53.535 79.59 53.77 79.48 53.77 c 
79.418 53.77 79.418 53.723 79.418 53.676 c 79.418 53.582 79.434 53.504 79.48
 53.348 c 80.215 50.723 l 80.215 50.723 79.074 50.91 78.855 50.926 c 78.855
 51.16 l 79.168 51.16 79.355 51.16 79.355 51.363 c 79.355 51.738 78.73 53.441
 78.73 53.801 c 78.73 54.098 78.902 54.223 79.09 54.223 c 79.637 54.223 
80.152 53.52 80.277 53.301 c h
80.277 53.301 m f
34.504 44.32 m 29.836 43.379 l 32.875 47.031 l 32.152 44.754 l f
q 1 0 0 -1 0 0 cm
99.297 -85.055 m 32.133 -44.738 l S Q
55.215 65.141 m 55.215 64.047 54.059 63.797 53.277 63.797 c 50.605 63.797
 l 50.574 63.984 l 51.152 63.984 51.277 64.062 51.277 64.359 c 51.277 64.484
 51.215 64.75 51.184 64.844 c 50.043 69.016 l 49.887 69.562 49.746 69.766
 49.246 69.766 c 49.23 69.953 l 51.98 69.953 l 51.996 69.766 l 51.496 69.766
 51.309 69.656 51.309 69.359 c 51.309 69.25 51.34 69.047 51.418 68.828 c
 51.949 66.938 l 52.215 66.938 l 53.199 69.953 l 54.965 69.953 l 54.996 
69.766 l 54.527 69.766 54.387 69.641 54.184 69.016 c 53.465 66.844 l 54.652
 66.641 55.215 65.844 55.215 65.141 c h
53.824 65.078 m 53.824 65.891 53.48 66.641 52.027 66.641 c 52.668 64.094
 l 53.355 64.094 53.824 64.344 53.824 65.078 c h
53.824 65.078 m f
58.602 71.141 m 58.258 71.641 58.008 71.797 57.617 71.797 c 56.977 71.797
 56.523 71.25 56.523 70.438 c 56.523 69.719 56.914 69.234 57.477 69.234 
c 57.727 69.234 57.82 69.297 57.883 69.562 c 57.93 69.719 l 57.992 69.922
 58.117 70.047 58.273 70.047 c 58.445 70.047 58.602 69.906 58.602 69.75 
c 58.602 69.359 58.102 69.031 57.523 69.031 c 57.18 69.031 56.82 69.172 
56.539 69.422 c 56.195 69.719 55.992 70.203 55.992 70.75 c 55.992 71.656
 56.539 72.297 57.32 72.297 c 57.633 72.297 57.914 72.188 58.164 71.969 
c 58.352 71.812 58.477 71.625 58.695 71.203 c h
58.602 71.141 m f
59.051 72.234 m 60.598 72.234 l 60.598 72.125 l 60.238 72.125 60.129 72.047
 60.129 71.766 c 60.129 69.797 l 60.129 69.781 60.176 69.719 60.238 69.672
 c 60.41 69.516 60.707 69.391 60.941 69.391 c 61.254 69.391 61.41 69.641
 61.41 70.125 c 61.41 71.641 l 61.395 72.031 61.332 72.109 60.941 72.125
 c 60.941 72.234 l 62.488 72.234 l 62.488 72.125 l 62.098 72.125 62.004 
72.016 61.988 71.578 c 61.988 69.812 l 62.207 69.516 62.426 69.391 62.754
 69.391 c 63.145 69.391 63.27 69.578 63.27 70.156 c 63.27 71.625 l 63.27
 72.047 63.223 72.094 62.816 72.125 c 62.816 72.234 l 64.348 72.234 l 64.348
 72.125 l 64.16 72.109 l 63.941 72.078 63.863 71.969 63.863 71.703 c 63.863
 70.266 l 63.863 69.453 63.582 69.031 63.051 69.031 c 62.645 69.031 62.301
 69.203 61.91 69.609 c 61.785 69.219 61.551 69.031 61.176 69.031 c 60.863
 69.031 60.676 69.125 60.098 69.562 c 60.098 69.047 l 60.051 69.031 l 59.676
 69.156 59.441 69.234 59.066 69.344 c 59.066 69.453 l 59.16 69.438 59.223
 69.438 59.301 69.438 c 59.473 69.438 59.535 69.547 59.535 69.875 c 59.535
 71.641 l 59.52 72.031 59.441 72.125 59.051 72.125 c h
59.051 72.234 m f
0.283298 w
q 1 0 0 -1 0 0 cm
99.297 -85.055 m 70.945 -113.406 l S Q
q 1 0 0 -1 0 0 cm
99.297 -85.055 m 99.297 -42.508 l S Q
q 1 0 0 -1 0 0 cm
99.309 -85.035 m 141.824 -85.035 l S Q
53.262 28.332 m 53.262 27.156 52.309 26.203 51.133 26.203 c 49.957 26.203
 49.004 27.156 49.004 28.332 c 49.004 29.508 49.957 30.461 51.133 30.461
 c 52.309 30.461 53.262 29.508 53.262 28.332 c f
1 g
101.461 85.035 m 101.461 83.859 100.508 82.906 99.332 82.906 c 98.156 82.906
 97.203 83.859 97.203 85.035 c 97.203 86.211 98.156 87.164 99.332 87.164
 c 100.508 87.164 101.461 86.211 101.461 85.035 c f
0 g
101.461 85.035 m 101.461 83.859 100.508 82.906 99.332 82.906 c 98.156 82.906
 97.203 83.859 97.203 85.035 c 97.203 86.211 98.156 87.164 99.332 87.164
 c 100.508 87.164 101.461 86.211 101.461 85.035 c h
101.461 85.035 m 101.25 85.035 l 101.25 83.977 100.391 83.117 99.332 83.117
 c 98.273 83.117 97.414 83.977 97.414 85.035 c 97.414 86.094 98.273 86.953
 99.332 86.953 c 100.391 86.953 101.25 86.094 101.25 85.035 c f
1 g
28.43 39.723 m 25.996 43.941 l 30.863 43.941 l f
0 g
28.43 39.723 m 25.996 43.941 l 30.863 43.941 l h
28.43 40.145 m 26.359 43.73 l 30.5 43.73 l f
Q Q
showpage
%%Trailer
end
%%EOF
