%!PS-Adobe-3.0 EPSF-3.0
%%Creator: cairo 1.17.4 (https://cairographics.org)
%%CreationDate: Thu Feb 24 10:50:01 2022
%%Pages: 1
%%DocumentData: Clean7Bit
%%LanguageLevel: 2
%%BoundingBox: 0 0 229 104
%%EndComments
%%BeginProlog
50 dict begin
/q { gsave } bind def
/Q { grestore } bind def
/cm { 6 array astore concat } bind def
/w { setlinewidth } bind def
/J { setlinecap } bind def
/j { setlinejoin } bind def
/M { setmiterlimit } bind def
/d { setdash } bind def
/m { moveto } bind def
/l { lineto } bind def
/c { curveto } bind def
/h { closepath } bind def
/re { exch dup neg 3 1 roll 5 3 roll moveto 0 rlineto
      0 exch rlineto 0 rlineto closepath } bind def
/S { stroke } bind def
/f { fill } bind def
/f* { eofill } bind def
/n { newpath } bind def
/W { clip } bind def
/W* { eoclip } bind def
/BT { } bind def
/ET { } bind def
/BDC { mark 3 1 roll /BDC pdfmark } bind def
/EMC { mark /EMC pdfmark } bind def
/cairo_store_point { /cairo_point_y exch def /cairo_point_x exch def } def
/Tj { show currentpoint cairo_store_point } bind def
/TJ {
  {
    dup
    type /stringtype eq
    { show } { -0.001 mul 0 cairo_font_matrix dtransform rmoveto } ifelse
  } forall
  currentpoint cairo_store_point
} bind def
/cairo_selectfont { cairo_font_matrix aload pop pop pop 0 0 6 array astore
    cairo_font exch selectfont cairo_point_x cairo_point_y moveto } bind def
/Tf { pop /cairo_font exch def /cairo_font_matrix where
      { pop cairo_selectfont } if } bind def
/Td { matrix translate cairo_font_matrix matrix concatmatrix dup
      /cairo_font_matrix exch def dup 4 get exch 5 get cairo_store_point
      /cairo_font where { pop cairo_selectfont } if } bind def
/Tm { 2 copy 8 2 roll 6 array astore /cairo_font_matrix exch def
      cairo_store_point /cairo_font where { pop cairo_selectfont } if } bind def
/g { setgray } bind def
/rg { setrgbcolor } bind def
/d1 { setcachedevice } bind def
/cairo_data_source {
  CairoDataIndex CairoData length lt
    { CairoData CairoDataIndex get /CairoDataIndex CairoDataIndex 1 add def }
    { () } ifelse
} def
/cairo_flush_ascii85_file { cairo_ascii85_file status { cairo_ascii85_file flushfile } if } def
/cairo_image { image cairo_flush_ascii85_file } def
/cairo_imagemask { imagemask cairo_flush_ascii85_file } def
%%EndProlog
%%BeginSetup
%%EndSetup
%%Page: 1 1
%%BeginPageSetup
%%PageBoundingBox: 0 0 229 104
%%EndPageSetup
q 0 0 229 104 rectclip
1 0 0 -1 0 104 cm q
0 g
40.234 95.418 m 39.578 95.855 39.312 96.074 38.969 96.496 c 38.344 97.277
 38.031 98.168 38.031 99.215 c 38.031 100.371 38.359 101.246 39.141 102.152
 c 39.516 102.59 39.75 102.777 40.219 103.074 c 40.312 102.918 l 39.609 
102.355 39.359 102.043 39.109 101.371 c 38.891 100.777 38.797 100.105 38.797
 99.199 c 38.797 98.246 38.906 97.512 39.156 96.965 c 39.406 96.402 39.672
 96.074 40.312 95.559 c h
40.234 95.418 m f
44.562 100.887 m 44.406 101.012 44.297 101.059 44.156 101.059 c 43.953 
101.059 43.891 100.934 43.891 100.543 c 43.891 98.793 l 43.891 98.324 43.844
 98.059 43.719 97.855 c 43.516 97.527 43.125 97.355 42.609 97.355 c 41.766
 97.355 41.094 97.793 41.094 98.355 c 41.094 98.559 41.266 98.746 41.484
 98.746 c 41.703 98.746 41.891 98.559 41.891 98.371 c 41.891 98.34 41.875
 98.293 41.875 98.23 c 41.844 98.137 41.844 98.074 41.844 98.012 c 41.844
 97.762 42.125 97.574 42.484 97.574 c 42.922 97.574 43.172 97.824 43.172
 98.309 c 43.172 98.855 l 41.797 99.402 41.641 99.496 41.25 99.824 c 41.047
 100.012 40.922 100.309 40.922 100.605 c 40.922 101.168 41.312 101.574 41.875
 101.574 c 42.266 101.574 42.625 101.387 43.172 100.918 c 43.219 101.387
 43.391 101.574 43.75 101.574 c 44.062 101.574 44.25 101.465 44.562 101.121
 c h
43.172 100.371 m 43.172 100.652 43.125 100.746 42.938 100.855 c 42.703 
100.98 42.469 101.043 42.281 101.043 c 41.969 101.043 41.719 100.746 41.719
 100.355 c 41.719 100.324 l 41.719 99.793 42.125 99.449 43.172 99.074 c 
h
43.172 100.371 m f
44.898 103.074 m 45.555 102.621 45.836 102.402 46.164 101.996 c 46.805 
101.215 47.117 100.309 47.117 99.262 c 47.117 98.121 46.773 97.246 45.992
 96.34 c 45.617 95.902 45.383 95.699 44.93 95.418 c 44.82 95.559 l 45.539
 96.121 45.773 96.434 46.023 97.105 c 46.242 97.715 46.336 98.387 46.336
 99.293 c 46.336 100.23 46.227 100.965 45.977 101.512 c 45.742 102.074 45.461
 102.402 44.82 102.918 c h
44.898 103.074 m f
0.425176 w
0 J
0 j
[] 0.0 d
10 M q 1 0 0 -1 0 0 cm
56.473 -19.824 m 56.473 -19.316 l 56.426 -18.832 l 56.266 -17.547 m 55.891
 -15.867 l 55.801 -15.613 l 55.355 -14.398 m 55.203 -13.977 l 54.48 -12.613
 l 53.785 -11.523 m 53.059 -10.488 l 52.59 -9.93 l 51.754 -8.941 m 51.68
 -8.855 l 50.305 -7.574 l 49.297 -6.766 m 48.227 -5.949 l 47.68 -5.602 l
 46.586 -4.906 m 46.23 -4.68 l 44.836 -3.961 l 43.672 -3.395 m 41.84 -2.609
 l 40.617 -2.188 m 39.293 -1.738 l 38.715 -1.594 l 37.461 -1.273 m 36.715
 -1.082 l 35.512 -0.875 l 34.234 -0.652 m 33.992 -0.609 l 32.258 -0.43 l
 30.969 -0.309 m 29.051 -0.211 l 28.977 -0.211 l 27.684 -0.211 m 27.633 
-0.211 l 25.691 -0.312 l 24.402 -0.43 m 22.66 -0.609 l 22.426 -0.652 l 21.148
 -0.879 m 19.973 -1.082 l 19.199 -1.281 l 17.945 -1.598 m 17.391 -1.738 
l 16.043 -2.195 l 14.82 -2.621 m 12.984 -3.395 l 11.824 -3.965 m 10.453 
-4.68 l 10.078 -4.922 l 8.984 -5.617 m 8.457 -5.949 l 7.371 -6.781 l 6.363
 -7.594 m 5.008 -8.855 l 4.918 -8.961 l 4.07 -9.941 m 3.59 -10.488 l 2.879
 -11.535 l 2.199 -12.637 m 1.484 -13.977 l 1.324 -14.422 l 0.879 -15.637
 m 0.793 -15.867 l 0.418 -17.574 l 0.258 -18.855 m 0.211 -19.316 l 0.211
 -20.332 l 0.262 -20.844 l 0.43 -22.129 m 0.793 -23.781 l 0.898 -24.062 
l 1.34 -25.277 m 1.484 -25.672 l 2.211 -27.066 l 2.891 -28.168 m 3.59 -29.195
 l 4.086 -29.754 l 4.945 -30.723 m 5.008 -30.793 l 6.398 -32.09 l 7.406 
-32.898 m 8.457 -33.699 l 9.023 -34.059 l 10.117 -34.754 m 10.453 -34.969
 l 11.863 -35.711 l 13.027 -36.277 m 14.859 -37.055 l 16.086 -37.473 m 17.391
 -37.91 l 17.988 -38.062 l 19.242 -38.383 m 19.973 -38.566 l 21.191 -38.797
 l 22.461 -39.039 m 22.66 -39.074 l 24.441 -39.262 l 25.73 -39.379 m 27.633
 -39.473 l 27.723 -39.473 l 29.016 -39.473 m 29.051 -39.473 l 31.004 -39.375
 l 32.293 -39.254 m 33.992 -39.074 l 34.273 -39.023 l 35.547 -38.785 m 36.715
 -38.566 l 37.492 -38.371 l 38.75 -38.051 m 39.293 -37.91 l 40.648 -37.457
 l 41.871 -37.031 m 43.703 -36.246 l 44.863 -35.676 m 46.23 -34.969 l 46.613
 -34.727 l 47.707 -34.031 m 48.227 -33.699 l 49.32 -32.867 l 50.328 -32.055
 m 51.68 -30.793 l 51.773 -30.688 l 52.621 -29.707 m 53.059 -29.195 l 53.82
 -28.117 l 54.504 -27.02 m 55.203 -25.672 l 55.367 -25.227 l 55.809 -24.012
 m 55.891 -23.781 l 56.273 -22.074 l 56.43 -20.793 m 56.473 -20.332 l 56.473
 -19.824 l S Q
0.85036 w
q 1 0 0 -1 0 0 cm
22.645 -33.996 m 25.887 -33.594 l 27.504 -33.391 m 30.746 -32.988 l 32.367
 -32.785 m 35.605 -32.383 l 37.227 -32.18 m 40.465 -31.777 l 42.086 -31.574
 m 45.324 -31.172 l S Q
33.777 24.051 m 33.777 22.738 32.34 22.473 31.762 22.457 c 31.824 21.941
 32.184 21.707 32.59 21.691 c 32.637 21.504 l 30.496 21.504 l 30.465 21.691
 l 30.73 21.707 30.996 21.832 30.996 22.191 c 30.996 22.254 30.98 22.363
 30.949 22.457 c 28.996 22.52 27.887 23.832 27.887 24.988 c 27.918 26.051
 28.777 26.457 29.918 26.566 c 29.871 27.035 29.496 27.332 29.074 27.363
 c 29.027 27.551 l 31.168 27.551 l 31.199 27.363 l 30.934 27.348 30.668 
27.207 30.668 26.863 c 30.668 26.785 30.699 26.691 30.73 26.582 c 32.73 
26.441 33.777 25.223 33.777 24.051 c h
33.012 24.066 m 33.012 25.598 31.387 26.16 30.84 26.191 c 31.652 22.863
 l 32.355 22.879 33.012 23.379 33.012 24.066 c h
30.84 22.848 m 30.012 26.191 l 29.371 26.129 28.652 25.723 28.652 24.91
 c 28.652 23.363 30.277 22.863 30.84 22.848 c h
30.84 22.848 m f
35.82 25.316 m 35.82 25.129 35.664 24.926 35.43 24.926 c 35.242 24.926 
35.07 25.082 35.07 25.316 c 35.07 25.535 35.242 25.691 35.445 25.691 c 35.664
 25.691 35.82 25.488 35.82 25.316 c h
35.648 28.988 m 35.477 28.848 l 35.227 29.223 34.961 29.457 34.852 29.457
 c 34.789 29.457 34.789 29.41 34.789 29.363 c 34.789 29.27 34.805 29.191
 34.852 29.035 c 35.586 26.41 l 35.586 26.41 34.445 26.598 34.227 26.613
 c 34.227 26.848 l 34.539 26.848 34.727 26.848 34.727 27.051 c 34.727 27.426
 34.102 29.129 34.102 29.488 c 34.102 29.785 34.273 29.91 34.461 29.91 c
 35.008 29.91 35.523 29.207 35.648 28.988 c h
35.648 28.988 m f
39.168 25.316 m 39.168 25.129 39.012 24.926 38.777 24.926 c 38.59 24.926
 38.418 25.082 38.418 25.316 c 38.418 25.535 38.59 25.691 38.793 25.691 
c 39.012 25.691 39.168 25.488 39.168 25.316 c h
38.871 26.41 m 38.871 26.41 37.762 26.598 37.512 26.613 c 37.512 26.848
 l 37.824 26.848 38.012 26.848 38.012 27.035 c 38.012 27.176 37.918 27.52
 37.871 27.691 c 37.34 29.598 l 37.246 29.926 36.996 30.988 36.496 30.988
 c 36.418 30.988 36.355 30.973 36.355 30.91 c 36.355 30.832 36.48 30.816
 36.48 30.676 c 36.48 30.535 36.34 30.457 36.199 30.457 c 35.98 30.457 35.887
 30.629 35.887 30.754 c 35.887 31.004 36.152 31.145 36.48 31.145 c 37.418
 31.145 37.793 30.301 38.027 29.426 c h
38.871 26.41 m f
0.850362 w
q 1 0 0 -1 0 0 cm
22.68 -34.012 m 25.23 -35.434 l 26.508 -36.141 m 29.059 -37.559 l 30.332
 -38.27 m 32.883 -39.688 l 34.156 -40.398 m 36.707 -41.816 l 37.984 -42.527
 m 40.535 -43.945 l 41.809 -44.652 m 44.359 -46.074 l 45.633 -46.781 m 48.176
 -48.195 l S Q
33.738 45.871 m 33.738 44.559 32.301 44.293 31.723 44.277 c 31.785 43.762
 32.145 43.527 32.551 43.512 c 32.598 43.324 l 30.457 43.324 l 30.426 43.512
 l 30.691 43.527 30.957 43.652 30.957 44.012 c 30.957 44.074 30.941 44.184
 30.91 44.277 c 28.957 44.34 27.848 45.652 27.848 46.809 c 27.879 47.871
 28.738 48.277 29.879 48.387 c 29.832 48.855 29.457 49.152 29.035 49.184
 c 28.988 49.371 l 31.129 49.371 l 31.16 49.184 l 30.895 49.168 30.629 49.027
 30.629 48.684 c 30.629 48.605 30.66 48.512 30.691 48.402 c 32.691 48.262
 33.738 47.043 33.738 45.871 c h
32.973 45.887 m 32.973 47.418 31.348 47.98 30.801 48.012 c 31.613 44.684
 l 32.316 44.699 32.973 45.199 32.973 45.887 c h
30.801 44.668 m 29.973 48.012 l 29.332 47.949 28.613 47.543 28.613 46.73
 c 28.613 45.184 30.238 44.684 30.801 44.668 c h
30.801 44.668 m f
35.781 47.133 m 35.781 46.945 35.625 46.742 35.391 46.742 c 35.203 46.742
 35.031 46.898 35.031 47.133 c 35.031 47.352 35.203 47.508 35.406 47.508
 c 35.625 47.508 35.781 47.305 35.781 47.133 c h
35.609 50.805 m 35.438 50.664 l 35.188 51.039 34.922 51.273 34.812 51.273
 c 34.75 51.273 34.75 51.227 34.75 51.18 c 34.75 51.086 34.766 51.008 34.812
 50.852 c 35.547 48.227 l 35.547 48.227 34.406 48.414 34.188 48.43 c 34.188
 48.664 l 34.5 48.664 34.688 48.664 34.688 48.867 c 34.688 49.242 34.062
 50.945 34.062 51.305 c 34.062 51.602 34.234 51.727 34.422 51.727 c 34.969
 51.727 35.484 51.023 35.609 50.805 c h
35.609 50.805 m f
40.871 48.289 m 39.309 48.289 l 39.277 48.508 l 39.434 48.508 39.652 48.492
 39.652 48.602 c 39.652 48.711 39.371 48.945 39.184 49.07 c 39.184 49.07
 38.465 49.617 38.168 49.836 c 39.152 46.305 l 39.152 46.305 38.043 46.492
 37.809 46.508 c 37.809 46.742 l 38.105 46.742 38.293 46.742 38.293 46.945
 c 38.293 47.07 38.215 47.414 38.152 47.586 c 36.996 51.648 l 37.684 51.648
 l 38.059 50.273 l 38.449 49.977 l 38.684 50.57 38.918 51.133 38.918 51.133
 c 39.105 51.586 39.355 51.727 39.512 51.727 c 39.902 51.727 40.355 51.18
 40.574 50.836 c 40.387 50.695 l 40.121 51.07 39.965 51.242 39.809 51.242
 c 39.699 51.242 39.621 51.133 39.527 50.93 c 39.527 50.93 39.246 50.148
 38.98 49.586 c 39.324 49.32 l 39.918 48.836 40.387 48.539 40.84 48.539 
c h
40.871 48.289 m f
0.850363 w
q 1 0 0 -1 0 0 cm
48.184 -48.184 m 50.852 -47.516 l 52.188 -47.184 m 54.855 -46.516 l 56.188
 -46.18 m 58.855 -45.512 l 60.191 -45.18 m 62.859 -44.512 l 64.191 -44.176
 m 66.859 -43.508 l 68.191 -43.176 m 70.859 -42.508 l S Q
57.27 37.289 m 57.27 35.977 55.832 35.711 55.254 35.695 c 55.316 35.18 
55.676 34.945 56.082 34.93 c 56.129 34.742 l 53.988 34.742 l 53.957 34.93
 l 54.223 34.945 54.488 35.07 54.488 35.43 c 54.488 35.492 54.473 35.602
 54.441 35.695 c 52.488 35.758 51.379 37.07 51.379 38.227 c 51.41 39.289
 52.27 39.695 53.41 39.805 c 53.363 40.273 52.988 40.57 52.566 40.602 c 
52.52 40.789 l 54.66 40.789 l 54.691 40.602 l 54.426 40.586 54.16 40.445
 54.16 40.102 c 54.16 40.023 54.191 39.93 54.223 39.82 c 56.223 39.68 57.27
 38.461 57.27 37.289 c h
56.504 37.305 m 56.504 38.836 54.879 39.398 54.332 39.43 c 55.145 36.102
 l 55.848 36.117 56.504 36.617 56.504 37.305 c h
54.332 36.086 m 53.504 39.43 l 52.863 39.367 52.145 38.961 52.145 38.148
 c 52.145 36.602 53.77 36.102 54.332 36.086 c h
54.332 36.086 m f
61.281 39.711 m 59.719 39.711 l 59.688 39.93 l 59.844 39.93 60.062 39.914
 60.062 40.023 c 60.062 40.133 59.781 40.367 59.594 40.492 c 59.594 40.492
 58.875 41.039 58.578 41.258 c 59.562 37.727 l 59.562 37.727 58.453 37.914
 58.219 37.93 c 58.219 38.164 l 58.516 38.164 58.703 38.164 58.703 38.367
 c 58.703 38.492 58.625 38.836 58.562 39.008 c 57.406 43.07 l 58.094 43.07
 l 58.469 41.695 l 58.859 41.398 l 59.094 41.992 59.328 42.555 59.328 42.555
 c 59.516 43.008 59.766 43.148 59.922 43.148 c 60.312 43.148 60.766 42.602
 60.984 42.258 c 60.797 42.117 l 60.531 42.492 60.375 42.664 60.219 42.664
 c 60.109 42.664 60.031 42.555 59.938 42.352 c 59.938 42.352 59.656 41.57
 59.391 41.008 c 59.734 40.742 l 60.328 40.258 60.797 39.961 61.25 39.961
 c h
61.281 39.711 m f
64.168 37.727 m 64.168 37.727 63.059 37.914 62.824 37.93 c 62.824 38.164
 l 63.121 38.164 63.309 38.164 63.309 38.367 c 63.309 38.492 63.23 38.852
 63.184 39.008 c 62.293 42.023 l 62.262 42.195 62.152 42.57 62.152 42.727
 c 62.152 42.898 62.215 43.148 62.512 43.148 c 63.059 43.148 63.574 42.445
 63.699 42.227 c 63.527 42.086 l 63.277 42.461 63.012 42.695 62.902 42.695
 c 62.84 42.695 62.84 42.648 62.84 42.602 c 62.84 42.508 62.855 42.445 62.902
 42.273 c h
64.168 37.727 m f
1 g
24.793 34 m 24.793 32.824 23.84 31.871 22.664 31.871 c 21.488 31.871 20.535
 32.824 20.535 34 c 20.535 35.176 21.488 36.129 22.664 36.129 c 23.84 36.129
 24.793 35.176 24.793 34 c f
0 g
24.793 34 m 24.793 32.824 23.84 31.871 22.664 31.871 c 21.488 31.871 20.535
 32.824 20.535 34 c 20.535 35.176 21.488 36.129 22.664 36.129 c 23.84 36.129
 24.793 35.176 24.793 34 c h
24.793 34 m 24.582 34 l 24.582 32.941 23.723 32.082 22.664 32.082 c 21.605
 32.082 20.746 32.941 20.746 34 c 20.746 35.059 21.605 35.918 22.664 35.918
 c 23.723 35.918 24.582 35.059 24.582 34 c f
1 g
47.492 31.199 m 47.492 30.023 46.539 29.07 45.363 29.07 c 44.188 29.07 
43.234 30.023 43.234 31.199 c 43.234 32.375 44.188 33.328 45.363 33.328 
c 46.539 33.328 47.492 32.375 47.492 31.199 c f
0 g
47.492 31.199 m 47.492 30.023 46.539 29.07 45.363 29.07 c 44.188 29.07 
43.234 30.023 43.234 31.199 c 43.234 32.375 44.188 33.328 45.363 33.328 
c 46.539 33.328 47.492 32.375 47.492 31.199 c h
47.492 31.199 m 47.281 31.199 l 47.281 30.141 46.422 29.281 45.363 29.281
 c 44.305 29.281 43.445 30.141 43.445 31.199 c 43.445 32.258 44.305 33.117
 45.363 33.117 c 46.422 33.117 47.281 32.258 47.281 31.199 c f
1 g
7.793 25.5 m 7.793 24.324 6.84 23.371 5.664 23.371 c 4.488 23.371 3.535
 24.324 3.535 25.5 c 3.535 26.676 4.488 27.629 5.664 27.629 c 6.84 27.629
 7.793 26.676 7.793 25.5 c f
0 g
7.793 25.5 m 7.793 24.324 6.84 23.371 5.664 23.371 c 4.488 23.371 3.535
 24.324 3.535 25.5 c 3.535 26.676 4.488 27.629 5.664 27.629 c 6.84 27.629
 7.793 26.676 7.793 25.5 c h
7.793 25.5 m 7.582 25.5 l 7.582 24.441 6.723 23.582 5.664 23.582 c 4.605
 23.582 3.746 24.441 3.746 25.5 c 3.746 26.559 4.605 27.418 5.664 27.418
 c 6.723 27.418 7.582 26.559 7.582 25.5 c f
1 g
13.492 11.301 m 13.492 10.125 12.539 9.172 11.363 9.172 c 10.188 9.172 
9.234 10.125 9.234 11.301 c 9.234 12.477 10.188 13.43 11.363 13.43 c 12.539
 13.43 13.492 12.477 13.492 11.301 c f
0 g
13.492 11.301 m 13.492 10.125 12.539 9.172 11.363 9.172 c 10.188 9.172 
9.234 10.125 9.234 11.301 c 9.234 12.477 10.188 13.43 11.363 13.43 c 12.539
 13.43 13.492 12.477 13.492 11.301 c h
13.492 11.301 m 13.281 11.301 l 13.281 10.242 12.422 9.383 11.363 9.383
 c 10.305 9.383 9.445 10.242 9.445 11.301 c 9.445 12.359 10.305 13.219 11.363
 13.219 c 12.422 13.219 13.281 12.359 13.281 11.301 c f
1 g
21.992 22.699 m 21.992 21.523 21.039 20.57 19.863 20.57 c 18.688 20.57 
17.734 21.523 17.734 22.699 c 17.734 23.875 18.688 24.828 19.863 24.828 
c 21.039 24.828 21.992 23.875 21.992 22.699 c f
0 g
21.992 22.699 m 21.992 21.523 21.039 20.57 19.863 20.57 c 18.688 20.57 
17.734 21.523 17.734 22.699 c 17.734 23.875 18.688 24.828 19.863 24.828 
c 21.039 24.828 21.992 23.875 21.992 22.699 c h
21.992 22.699 m 21.781 22.699 l 21.781 21.641 20.922 20.781 19.863 20.781
 c 18.805 20.781 17.945 21.641 17.945 22.699 c 17.945 23.758 18.805 24.617
 19.863 24.617 c 20.922 24.617 21.781 23.758 21.781 22.699 c f
1 g
33.293 14.199 m 33.293 13.023 32.34 12.07 31.164 12.07 c 29.988 12.07 29.035
 13.023 29.035 14.199 c 29.035 15.375 29.988 16.328 31.164 16.328 c 32.34
 16.328 33.293 15.375 33.293 14.199 c f
0 g
33.293 14.199 m 33.293 13.023 32.34 12.07 31.164 12.07 c 29.988 12.07 29.035
 13.023 29.035 14.199 c 29.035 15.375 29.988 16.328 31.164 16.328 c 32.34
 16.328 33.293 15.375 33.293 14.199 c h
33.293 14.199 m 33.082 14.199 l 33.082 13.141 32.223 12.281 31.164 12.281
 c 30.105 12.281 29.246 13.141 29.246 14.199 c 29.246 15.258 30.105 16.117
 31.164 16.117 c 32.223 16.117 33.082 15.258 33.082 14.199 c f
1 g
36.094 4.199 m 36.094 3.023 35.141 2.07 33.965 2.07 c 32.789 2.07 31.836
 3.023 31.836 4.199 c 31.836 5.375 32.789 6.328 33.965 6.328 c 35.141 6.328
 36.094 5.375 36.094 4.199 c f
0 g
36.094 4.199 m 36.094 3.023 35.141 2.07 33.965 2.07 c 32.789 2.07 31.836
 3.023 31.836 4.199 c 31.836 5.375 32.789 6.328 33.965 6.328 c 35.141 6.328
 36.094 5.375 36.094 4.199 c h
36.094 4.199 m 35.883 4.199 l 35.883 3.141 35.023 2.281 33.965 2.281 c 
32.906 2.281 32.047 3.141 32.047 4.199 c 32.047 5.258 32.906 6.117 33.965
 6.117 c 35.023 6.117 35.883 5.258 35.883 4.199 c f
1 g
50.293 17 m 50.293 15.824 49.34 14.871 48.164 14.871 c 46.988 14.871 46.035
 15.824 46.035 17 c 46.035 18.176 46.988 19.129 48.164 19.129 c 49.34 19.129
 50.293 18.176 50.293 17 c f
0 g
50.293 17 m 50.293 15.824 49.34 14.871 48.164 14.871 c 46.988 14.871 46.035
 15.824 46.035 17 c 46.035 18.176 46.988 19.129 48.164 19.129 c 49.34 19.129
 50.293 18.176 50.293 17 c h
50.293 17 m 50.082 17 l 50.082 15.941 49.223 15.082 48.164 15.082 c 47.105
 15.082 46.246 15.941 46.246 17 c 46.246 18.059 47.105 18.918 48.164 18.918
 c 49.223 18.918 50.082 18.059 50.082 17 c f
50.293 48.199 m 50.293 47.023 49.34 46.07 48.164 46.07 c 46.988 46.07 46.035
 47.023 46.035 48.199 c 46.035 49.375 46.988 50.328 48.164 50.328 c 49.34
 50.328 50.293 49.375 50.293 48.199 c f
72.992 42.5 m 72.992 41.324 72.039 40.371 70.863 40.371 c 69.688 40.371
 68.734 41.324 68.734 42.5 c 68.734 43.676 69.688 44.629 70.863 44.629 c
 72.039 44.629 72.992 43.676 72.992 42.5 c f
61.691 59.5 m 61.691 58.324 60.738 57.371 59.562 57.371 c 58.387 57.371
 57.434 58.324 57.434 59.5 c 57.434 60.676 58.387 61.629 59.562 61.629 c
 60.738 61.629 61.691 60.676 61.691 59.5 c f
75.793 59.5 m 75.793 58.324 74.84 57.371 73.664 57.371 c 72.488 57.371 
71.535 58.324 71.535 59.5 c 71.535 60.676 72.488 61.629 73.664 61.629 c 
74.84 61.629 75.793 60.676 75.793 59.5 c f
70.191 51 m 70.191 49.824 69.238 48.871 68.062 48.871 c 66.887 48.871 65.934
 49.824 65.934 51 c 65.934 52.176 66.887 53.129 68.062 53.129 c 69.238 53.129
 70.191 52.176 70.191 51 c f
87.191 48.199 m 87.191 47.023 86.238 46.07 85.062 46.07 c 83.887 46.07 
82.934 47.023 82.934 48.199 c 82.934 49.375 83.887 50.328 85.062 50.328 
c 86.238 50.328 87.191 49.375 87.191 48.199 c f
81.492 36.801 m 81.492 35.625 80.539 34.672 79.363 34.672 c 78.188 34.672
 77.234 35.625 77.234 36.801 c 77.234 37.977 78.188 38.93 79.363 38.93 c
 80.539 38.93 81.492 37.977 81.492 36.801 c f
70.191 34 m 70.191 32.824 69.238 31.871 68.062 31.871 c 66.887 31.871 65.934
 32.824 65.934 34 c 65.934 35.176 66.887 36.129 68.062 36.129 c 69.238 36.129
 70.191 35.176 70.191 34 c f
84.293 28.301 m 84.293 27.125 83.34 26.172 82.164 26.172 c 80.988 26.172
 80.035 27.125 80.035 28.301 c 80.035 29.477 80.988 30.43 82.164 30.43 c
 83.34 30.43 84.293 29.477 84.293 28.301 c f
67.293 22.699 m 67.293 21.523 66.34 20.57 65.164 20.57 c 63.988 20.57 63.035
 21.523 63.035 22.699 c 63.035 23.875 63.988 24.828 65.164 24.828 c 66.34
 24.828 67.293 23.875 67.293 22.699 c f
81.492 14.199 m 81.492 13.023 80.539 12.07 79.363 12.07 c 78.188 12.07 
77.234 13.023 77.234 14.199 c 77.234 15.375 78.188 16.328 79.363 16.328 
c 80.539 16.328 81.492 15.375 81.492 14.199 c f
21.992 65.199 m 21.992 64.023 21.039 63.07 19.863 63.07 c 18.688 63.07 
17.734 64.023 17.734 65.199 c 17.734 66.375 18.688 67.328 19.863 67.328 
c 21.039 67.328 21.992 66.375 21.992 65.199 c f
4.992 70.898 m 4.992 69.723 4.039 68.77 2.863 68.77 c 1.688 68.77 0.734
 69.723 0.734 70.898 c 0.734 72.074 1.688 73.027 2.863 73.027 c 4.039 73.027
 4.992 72.074 4.992 70.898 c f
7.793 79.398 m 7.793 78.223 6.84 77.27 5.664 77.27 c 4.488 77.27 3.535 
78.223 3.535 79.398 c 3.535 80.574 4.488 81.527 5.664 81.527 c 6.84 81.527
 7.793 80.574 7.793 79.398 c f
10.594 68 m 10.594 66.824 9.641 65.871 8.465 65.871 c 7.289 65.871 6.336
 66.824 6.336 68 c 6.336 69.176 7.289 70.129 8.465 70.129 c 9.641 70.129
 10.594 69.176 10.594 68 c f
13.492 79.398 m 13.492 78.223 12.539 77.27 11.363 77.27 c 10.188 77.27 
9.234 78.223 9.234 79.398 c 9.234 80.574 10.188 81.527 11.363 81.527 c 12.539
 81.527 13.492 80.574 13.492 79.398 c f
13.492 73.699 m 13.492 72.523 12.539 71.57 11.363 71.57 c 10.188 71.57 
9.234 72.523 9.234 73.699 c 9.234 74.875 10.188 75.828 11.363 75.828 c 12.539
 75.828 13.492 74.875 13.492 73.699 c f
13.492 62.398 m 13.492 61.223 12.539 60.27 11.363 60.27 c 10.188 60.27 
9.234 61.223 9.234 62.398 c 9.234 63.574 10.188 64.527 11.363 64.527 c 12.539
 64.527 13.492 63.574 13.492 62.398 c f
16.293 68 m 16.293 66.824 15.34 65.871 14.164 65.871 c 12.988 65.871 12.035
 66.824 12.035 68 c 12.035 69.176 12.988 70.129 14.164 70.129 c 15.34 70.129
 16.293 69.176 16.293 68 c f
19.094 85 m 19.094 83.824 18.141 82.871 16.965 82.871 c 15.789 82.871 14.836
 83.824 14.836 85 c 14.836 86.176 15.789 87.129 16.965 87.129 c 18.141 87.129
 19.094 86.176 19.094 85 c f
19.094 76.5 m 19.094 75.324 18.141 74.371 16.965 74.371 c 15.789 74.371
 14.836 75.324 14.836 76.5 c 14.836 77.676 15.789 78.629 16.965 78.629 c
 18.141 78.629 19.094 77.676 19.094 76.5 c f
21.992 70.898 m 21.992 69.723 21.039 68.77 19.863 68.77 c 18.688 68.77 
17.734 69.723 17.734 70.898 c 17.734 72.074 18.688 73.027 19.863 73.027 
c 21.039 73.027 21.992 72.074 21.992 70.898 c f
24.793 82.199 m 24.793 81.023 23.84 80.07 22.664 80.07 c 21.488 80.07 20.535
 81.023 20.535 82.199 c 20.535 83.375 21.488 84.328 22.664 84.328 c 23.84
 84.328 24.793 83.375 24.793 82.199 c f
27.594 76.5 m 27.594 75.324 26.641 74.371 25.465 74.371 c 24.289 74.371
 23.336 75.324 23.336 76.5 c 23.336 77.676 24.289 78.629 25.465 78.629 c
 26.641 78.629 27.594 77.676 27.594 76.5 c f
27.594 70.898 m 27.594 69.723 26.641 68.77 25.465 68.77 c 24.289 68.77 
23.336 69.723 23.336 70.898 c 23.336 72.074 24.289 73.027 25.465 73.027 
c 26.641 73.027 27.594 72.074 27.594 70.898 c f
33.293 82.199 m 33.293 81.023 32.34 80.07 31.164 80.07 c 29.988 80.07 29.035
 81.023 29.035 82.199 c 29.035 83.375 29.988 84.328 31.164 84.328 c 32.34
 84.328 33.293 83.375 33.293 82.199 c f
33.293 68 m 33.293 66.824 32.34 65.871 31.164 65.871 c 29.988 65.871 29.035
 66.824 29.035 68 c 29.035 69.176 29.988 70.129 31.164 70.129 c 32.34 70.129
 33.293 69.176 33.293 68 c f
36.094 76.5 m 36.094 75.324 35.141 74.371 33.965 74.371 c 32.789 74.371
 31.836 75.324 31.836 76.5 c 31.836 77.676 32.789 78.629 33.965 78.629 c
 35.141 78.629 36.094 77.676 36.094 76.5 c f
181.605 95.422 m 180.949 95.859 180.684 96.078 180.34 96.5 c 179.715 97.281
 179.402 98.172 179.402 99.219 c 179.402 100.375 179.73 101.25 180.512 102.156
 c 180.887 102.594 181.121 102.781 181.59 103.078 c 181.684 102.922 l 180.98
 102.359 180.73 102.047 180.48 101.375 c 180.262 100.781 180.168 100.109
 180.168 99.203 c 180.168 98.25 180.277 97.516 180.527 96.969 c 180.777 
96.406 181.043 96.078 181.684 95.562 c h
181.605 95.422 m f
183.34 95.375 m 183.293 95.359 l 182.918 95.484 182.684 95.562 182.246 
95.688 c 181.996 95.75 l 181.996 95.891 l 182.043 95.891 182.074 95.891 
182.137 95.891 c 182.496 95.891 182.59 95.969 182.59 96.344 c 182.59 101
 l 182.59 101.281 183.34 101.578 184.059 101.578 c 185.246 101.578 186.168
 100.594 186.168 99.312 c 186.168 98.188 185.48 97.359 184.59 97.359 c 184.043
 97.359 183.512 97.672 183.34 98.125 c h
183.34 98.594 m 183.34 98.25 183.762 97.922 184.23 97.922 c 184.48 97.922
 184.699 98.016 184.887 98.188 c 185.168 98.469 185.371 99.078 185.371 99.719
 c 185.371 100.719 184.949 101.281 184.215 101.281 c 183.746 101.281 183.34
 101.094 183.34 100.859 c h
183.34 98.594 m f
186.75 103.078 m 187.406 102.625 187.688 102.406 188.016 102 c 188.656 
101.219 188.969 100.312 188.969 99.266 c 188.969 98.125 188.625 97.25 187.844
 96.344 c 187.469 95.906 187.234 95.703 186.781 95.422 c 186.672 95.562 
l 187.391 96.125 187.625 96.438 187.875 97.109 c 188.094 97.719 188.188 
98.391 188.188 99.297 c 188.188 100.234 188.078 100.969 187.828 101.516 
c 187.594 102.078 187.312 102.406 186.672 102.922 c h
186.75 103.078 m f
0.425176 w
q 1 0 0 -1 0 0 cm
198.199 -19.848 m 198.199 -19.328 l 198.152 -18.855 l 197.996 -17.57 m 
197.648 -15.871 l 197.555 -15.633 l 197.094 -14.422 m 196.941 -14.008 l 
196.234 -12.629 l 195.551 -11.531 m 194.816 -10.477 l 194.348 -9.945 l 193.488
 -8.977 m 193.402 -8.879 l 192.039 -7.609 l 191.039 -6.789 m 189.945 -5.941
 l 189.434 -5.613 l 188.344 -4.914 m 187.977 -4.676 l 186.59 -3.973 l 185.422
 -3.41 m 183.586 -2.641 l 182.367 -2.207 m 181.023 -1.738 l 180.469 -1.605
 l 179.211 -1.301 m 178.418 -1.105 l 177.258 -0.898 l 175.984 -0.668 m 175.738
 -0.621 l 174.008 -0.438 l 172.719 -0.312 m 170.793 -0.211 l 170.73 -0.211
 l 169.434 -0.211 m 169.344 -0.211 l 167.445 -0.312 l 166.156 -0.438 m 164.398
 -0.621 l 164.176 -0.664 l 162.902 -0.895 m 161.719 -1.105 l 160.953 -1.293
 l 159.691 -1.598 m 159.113 -1.738 l 157.797 -2.199 l 156.574 -2.633 m 154.738
 -3.402 l 153.57 -3.961 m 152.16 -4.676 l 151.816 -4.898 l 150.727 -5.598
 m 150.191 -5.941 l 149.117 -6.773 l 148.113 -7.59 m 146.73 -8.879 l 146.664
 -8.957 l 145.809 -9.926 m 145.316 -10.477 l 144.602 -11.508 l 143.918 -12.605
 m 143.199 -14.008 l 143.055 -14.398 l 142.594 -15.609 m 142.492 -15.871
 l 142.145 -17.547 l 141.984 -18.832 m 141.938 -19.328 l 141.938 -20.332
 l 141.984 -20.82 l 142.137 -22.102 m 142.492 -23.789 l 142.586 -24.039 
l 143.039 -25.254 m 143.199 -25.688 l 143.906 -27.043 l 144.594 -28.141 
m 145.316 -29.184 l 145.789 -29.73 l 146.637 -30.711 m 146.73 -30.82 l 148.098
 -32.062 l 149.102 -32.879 m 150.191 -33.719 l 150.707 -34.055 l 151.797
 -34.754 m 152.16 -34.984 l 153.551 -35.695 l 154.715 -36.262 m 156.543 
-37.055 l 157.77 -37.477 m 159.113 -37.922 l 159.668 -38.066 l 160.922 -38.391
 m 161.719 -38.594 l 162.871 -38.801 l 164.145 -39.031 m 164.398 -39.074
 l 166.125 -39.262 l 167.414 -39.383 m 169.344 -39.449 l 169.406 -39.449
 l 170.699 -39.449 m 170.793 -39.449 l 172.691 -39.383 l 173.98 -39.262 
m 175.738 -39.074 l 175.957 -39.035 l 177.234 -38.809 m 178.418 -38.594 
l 179.184 -38.398 l 180.438 -38.074 m 181.023 -37.922 l 182.336 -37.484 
l 183.562 -37.07 m 185.391 -36.273 l 186.555 -35.711 m 187.977 -34.984 l
 188.312 -34.77 l 189.398 -34.07 m 189.945 -33.719 l 191.008 -32.898 l 192.016
 -32.086 m 193.402 -30.82 l 193.48 -30.734 l 194.324 -29.754 m 194.816 -29.184
 l 195.527 -28.168 l 196.215 -27.074 m 196.941 -25.688 l 197.09 -25.285 
l 197.539 -24.074 m 197.648 -23.789 l 197.992 -22.137 l 198.152 -20.852 
m 198.199 -20.332 l 198.199 -19.848 l S Q
0.85036 w
q 1 0 0 -1 0 0 cm
164.402 -33.992 m 167.645 -33.59 l 169.262 -33.391 m 172.504 -32.988 l 
174.125 -32.785 m 177.363 -32.383 l 178.984 -32.18 m 182.223 -31.777 l 183.844
 -31.578 m 187.082 -31.176 l S Q
175.508 24.051 m 175.508 22.738 174.07 22.473 173.492 22.457 c 173.555 
21.941 173.914 21.707 174.32 21.691 c 174.367 21.504 l 172.227 21.504 l 
172.195 21.691 l 172.461 21.707 172.727 21.832 172.727 22.191 c 172.727 
22.254 172.711 22.363 172.68 22.457 c 170.727 22.52 169.617 23.832 169.617
 24.988 c 169.648 26.051 170.508 26.457 171.648 26.566 c 171.602 27.035 
171.227 27.332 170.805 27.363 c 170.758 27.551 l 172.898 27.551 l 172.93
 27.363 l 172.664 27.348 172.398 27.207 172.398 26.863 c 172.398 26.785 
172.43 26.691 172.461 26.582 c 174.461 26.441 175.508 25.223 175.508 24.051
 c h
174.742 24.066 m 174.742 25.598 173.117 26.16 172.57 26.191 c 173.383 22.863
 l 174.086 22.879 174.742 23.379 174.742 24.066 c h
172.57 22.848 m 171.742 26.191 l 171.102 26.129 170.383 25.723 170.383 
24.91 c 170.383 23.363 172.008 22.863 172.57 22.848 c h
172.57 22.848 m f
177.551 25.316 m 177.551 25.129 177.395 24.926 177.16 24.926 c 176.973 
24.926 176.801 25.082 176.801 25.316 c 176.801 25.535 176.973 25.691 177.176
 25.691 c 177.395 25.691 177.551 25.488 177.551 25.316 c h
177.379 28.988 m 177.207 28.848 l 176.957 29.223 176.691 29.457 176.582
 29.457 c 176.52 29.457 176.52 29.41 176.52 29.363 c 176.52 29.27 176.535
 29.191 176.582 29.035 c 177.316 26.41 l 177.316 26.41 176.176 26.598 175.957
 26.613 c 175.957 26.848 l 176.27 26.848 176.457 26.848 176.457 27.051 c
 176.457 27.426 175.832 29.129 175.832 29.488 c 175.832 29.785 176.004 29.91
 176.191 29.91 c 176.738 29.91 177.254 29.207 177.379 28.988 c h
177.379 28.988 m f
180.898 25.316 m 180.898 25.129 180.742 24.926 180.508 24.926 c 180.32 
24.926 180.148 25.082 180.148 25.316 c 180.148 25.535 180.32 25.691 180.523
 25.691 c 180.742 25.691 180.898 25.488 180.898 25.316 c h
180.602 26.41 m 180.602 26.41 179.492 26.598 179.242 26.613 c 179.242 26.848
 l 179.555 26.848 179.742 26.848 179.742 27.035 c 179.742 27.176 179.648
 27.52 179.602 27.691 c 179.07 29.598 l 178.977 29.926 178.727 30.988 178.227
 30.988 c 178.148 30.988 178.086 30.973 178.086 30.91 c 178.086 30.832 178.211
 30.816 178.211 30.676 c 178.211 30.535 178.07 30.457 177.93 30.457 c 177.711
 30.457 177.617 30.629 177.617 30.754 c 177.617 31.004 177.883 31.145 178.211
 31.145 c 179.148 31.145 179.523 30.301 179.758 29.426 c h
180.602 26.41 m f
0.850361 w
q 1 0 0 -1 0 0 cm
164.406 -33.988 m 166.957 -35.406 l 168.234 -36.117 m 170.785 -37.535 l
 172.059 -38.246 m 174.609 -39.664 l 175.887 -40.371 m 178.438 -41.789 l
 179.711 -42.5 m 182.262 -43.918 l 183.539 -44.625 m 186.09 -46.047 l 187.363
 -46.754 m 189.914 -48.172 l S Q
174.277 45.871 m 174.277 44.559 172.84 44.293 172.262 44.277 c 172.324 
43.762 172.684 43.527 173.09 43.512 c 173.137 43.324 l 170.996 43.324 l 
170.965 43.512 l 171.23 43.527 171.496 43.652 171.496 44.012 c 171.496 44.074
 171.48 44.184 171.449 44.277 c 169.496 44.34 168.387 45.652 168.387 46.809
 c 168.418 47.871 169.277 48.277 170.418 48.387 c 170.371 48.855 169.996
 49.152 169.574 49.184 c 169.527 49.371 l 171.668 49.371 l 171.699 49.184
 l 171.434 49.168 171.168 49.027 171.168 48.684 c 171.168 48.605 171.199
 48.512 171.23 48.402 c 173.23 48.262 174.277 47.043 174.277 45.871 c h
173.512 45.887 m 173.512 47.418 171.887 47.98 171.34 48.012 c 172.152 44.684
 l 172.855 44.699 173.512 45.199 173.512 45.887 c h
171.34 44.668 m 170.512 48.012 l 169.871 47.949 169.152 47.543 169.152 
46.73 c 169.152 45.184 170.777 44.684 171.34 44.668 c h
171.34 44.668 m f
176.32 47.133 m 176.32 46.945 176.164 46.742 175.93 46.742 c 175.742 46.742
 175.57 46.898 175.57 47.133 c 175.57 47.352 175.742 47.508 175.945 47.508
 c 176.164 47.508 176.32 47.305 176.32 47.133 c h
176.148 50.805 m 175.977 50.664 l 175.727 51.039 175.461 51.273 175.352
 51.273 c 175.289 51.273 175.289 51.227 175.289 51.18 c 175.289 51.086 175.305
 51.008 175.352 50.852 c 176.086 48.227 l 176.086 48.227 174.945 48.414 
174.727 48.43 c 174.727 48.664 l 175.039 48.664 175.227 48.664 175.227 48.867
 c 175.227 49.242 174.602 50.945 174.602 51.305 c 174.602 51.602 174.773
 51.727 174.961 51.727 c 175.508 51.727 176.023 51.023 176.148 50.805 c 
h
176.148 50.805 m f
181.41 48.289 m 179.848 48.289 l 179.816 48.508 l 179.973 48.508 180.191
 48.492 180.191 48.602 c 180.191 48.711 179.91 48.945 179.723 49.07 c 179.723
 49.07 179.004 49.617 178.707 49.836 c 179.691 46.305 l 179.691 46.305 178.582
 46.492 178.348 46.508 c 178.348 46.742 l 178.645 46.742 178.832 46.742 
178.832 46.945 c 178.832 47.07 178.754 47.414 178.691 47.586 c 177.535 51.648
 l 178.223 51.648 l 178.598 50.273 l 178.988 49.977 l 179.223 50.57 179.457
 51.133 179.457 51.133 c 179.645 51.586 179.895 51.727 180.051 51.727 c 
180.441 51.727 180.895 51.18 181.113 50.836 c 180.926 50.695 l 180.66 51.07
 180.504 51.242 180.348 51.242 c 180.238 51.242 180.16 51.133 180.066 50.93
 c 180.066 50.93 179.785 50.148 179.52 49.586 c 179.863 49.32 l 180.457 
48.836 180.926 48.539 181.379 48.539 c h
181.41 48.289 m f
183.781 46.766 m 183.781 46.609 183.594 46.484 183.391 46.484 c 183.266
 46.484 183.125 46.547 183.078 46.703 c 182.156 49.328 l 182.281 49.375 
l 183.734 46.891 l 183.766 46.844 183.781 46.797 183.781 46.766 c h
183.781 46.766 m f
0.850359 w
q 1 0 0 -1 0 0 cm
164.398 -33.996 m 164.113 -37.117 l 163.969 -38.676 m 163.684 -41.793 l
 163.543 -43.352 m 163.258 -46.469 l 163.113 -48.027 m 162.828 -51.148 l
 162.688 -52.707 m 162.402 -55.824 l 162.262 -57.383 m 161.977 -60.5 l 161.832
 -62.059 m 161.547 -65.176 l S Q
150.027 48.02 m 150.027 46.707 148.59 46.441 148.012 46.426 c 148.074 45.91
 148.434 45.676 148.84 45.66 c 148.887 45.473 l 146.746 45.473 l 146.715
 45.66 l 146.98 45.676 147.246 45.801 147.246 46.16 c 147.246 46.223 147.23
 46.332 147.199 46.426 c 145.246 46.488 144.137 47.801 144.137 48.957 c 
144.168 50.02 145.027 50.426 146.168 50.535 c 146.121 51.004 145.746 51.301
 145.324 51.332 c 145.277 51.52 l 147.418 51.52 l 147.449 51.332 l 147.184
 51.316 146.918 51.176 146.918 50.832 c 146.918 50.754 146.949 50.66 146.98
 50.551 c 148.98 50.41 150.027 49.191 150.027 48.02 c h
149.262 48.035 m 149.262 49.566 147.637 50.129 147.09 50.16 c 147.902 46.832
 l 148.605 46.848 149.262 47.348 149.262 48.035 c h
147.09 46.816 m 146.262 50.16 l 145.621 50.098 144.902 49.691 144.902 48.879
 c 144.902 47.332 146.527 46.832 147.09 46.816 c h
147.09 46.816 m f
152.07 49.164 m 152.07 48.977 151.914 48.773 151.68 48.773 c 151.492 48.773
 151.32 48.93 151.32 49.164 c 151.32 49.383 151.492 49.539 151.695 49.539
 c 151.914 49.539 152.07 49.336 152.07 49.164 c h
151.898 52.836 m 151.727 52.695 l 151.477 53.07 151.211 53.305 151.102 
53.305 c 151.039 53.305 151.039 53.258 151.039 53.211 c 151.039 53.117 151.055
 53.039 151.102 52.883 c 151.836 50.258 l 151.836 50.258 150.695 50.445 
150.477 50.461 c 150.477 50.695 l 150.789 50.695 150.977 50.695 150.977 
50.898 c 150.977 51.273 150.352 52.977 150.352 53.336 c 150.352 53.633 150.523
 53.758 150.711 53.758 c 151.258 53.758 151.773 53.055 151.898 52.836 c 
h
151.898 52.836 m f
157.16 50.32 m 155.598 50.32 l 155.566 50.539 l 155.723 50.539 155.941 
50.523 155.941 50.633 c 155.941 50.742 155.66 50.977 155.473 51.102 c 155.473
 51.102 154.754 51.648 154.457 51.867 c 155.441 48.336 l 155.441 48.336 
154.332 48.523 154.098 48.539 c 154.098 48.773 l 154.395 48.773 154.582 
48.773 154.582 48.977 c 154.582 49.102 154.504 49.445 154.441 49.617 c 153.285
 53.68 l 153.973 53.68 l 154.348 52.305 l 154.738 52.008 l 154.973 52.602
 155.207 53.164 155.207 53.164 c 155.395 53.617 155.645 53.758 155.801 53.758
 c 156.191 53.758 156.645 53.211 156.863 52.867 c 156.676 52.727 l 156.41
 53.102 156.254 53.273 156.098 53.273 c 155.988 53.273 155.91 53.164 155.816
 52.961 c 155.816 52.961 155.535 52.18 155.27 51.617 c 155.613 51.352 l 
156.207 50.867 156.676 50.57 157.129 50.57 c h
157.16 50.32 m f
159.531 48.797 m 159.531 48.641 159.344 48.516 159.141 48.516 c 159.016
 48.516 158.875 48.578 158.828 48.734 c 157.906 51.359 l 158.031 51.406 
l 159.484 48.922 l 159.516 48.875 159.531 48.828 159.531 48.797 c h
159.531 48.797 m f
161.453 48.797 m 161.453 48.641 161.266 48.516 161.062 48.516 c 160.938
 48.516 160.797 48.578 160.75 48.734 c 159.828 51.359 l 159.953 51.406 l
 161.406 48.922 l 161.438 48.875 161.453 48.828 161.453 48.797 c h
161.453 48.797 m f
1 g
166.492 34 m 166.492 32.824 165.539 31.871 164.363 31.871 c 163.188 31.871
 162.234 32.824 162.234 34 c 162.234 35.176 163.188 36.129 164.363 36.129
 c 165.539 36.129 166.492 35.176 166.492 34 c f
0 g
166.492 34 m 166.492 32.824 165.539 31.871 164.363 31.871 c 163.188 31.871
 162.234 32.824 162.234 34 c 162.234 35.176 163.188 36.129 164.363 36.129
 c 165.539 36.129 166.492 35.176 166.492 34 c h
166.492 34 m 166.281 34 l 166.281 32.941 165.422 32.082 164.363 32.082 
c 163.305 32.082 162.445 32.941 162.445 34 c 162.445 35.059 163.305 35.918
 164.363 35.918 c 165.422 35.918 166.281 35.059 166.281 34 c f
1 g
189.191 31.199 m 189.191 30.023 188.238 29.07 187.062 29.07 c 185.887 29.07
 184.934 30.023 184.934 31.199 c 184.934 32.375 185.887 33.328 187.062 33.328
 c 188.238 33.328 189.191 32.375 189.191 31.199 c f
0 g
189.191 31.199 m 189.191 30.023 188.238 29.07 187.062 29.07 c 185.887 29.07
 184.934 30.023 184.934 31.199 c 184.934 32.375 185.887 33.328 187.062 33.328
 c 188.238 33.328 189.191 32.375 189.191 31.199 c h
189.191 31.199 m 188.98 31.199 l 188.98 30.141 188.121 29.281 187.062 29.281
 c 186.004 29.281 185.145 30.141 185.145 31.199 c 185.145 32.258 186.004
 33.117 187.062 33.117 c 188.121 33.117 188.98 32.258 188.98 31.199 c f
1 g
149.492 25.5 m 149.492 24.324 148.539 23.371 147.363 23.371 c 146.188 23.371
 145.234 24.324 145.234 25.5 c 145.234 26.676 146.188 27.629 147.363 27.629
 c 148.539 27.629 149.492 26.676 149.492 25.5 c f
0 g
149.492 25.5 m 149.492 24.324 148.539 23.371 147.363 23.371 c 146.188 23.371
 145.234 24.324 145.234 25.5 c 145.234 26.676 146.188 27.629 147.363 27.629
 c 148.539 27.629 149.492 26.676 149.492 25.5 c h
149.492 25.5 m 149.281 25.5 l 149.281 24.441 148.422 23.582 147.363 23.582
 c 146.305 23.582 145.445 24.441 145.445 25.5 c 145.445 26.559 146.305 27.418
 147.363 27.418 c 148.422 27.418 149.281 26.559 149.281 25.5 c f
1 g
155.191 11.301 m 155.191 10.125 154.238 9.172 153.062 9.172 c 151.887 9.172
 150.934 10.125 150.934 11.301 c 150.934 12.477 151.887 13.43 153.062 13.43
 c 154.238 13.43 155.191 12.477 155.191 11.301 c f
0 g
155.191 11.301 m 155.191 10.125 154.238 9.172 153.062 9.172 c 151.887 9.172
 150.934 10.125 150.934 11.301 c 150.934 12.477 151.887 13.43 153.062 13.43
 c 154.238 13.43 155.191 12.477 155.191 11.301 c h
155.191 11.301 m 154.98 11.301 l 154.98 10.242 154.121 9.383 153.062 9.383
 c 152.004 9.383 151.145 10.242 151.145 11.301 c 151.145 12.359 152.004 
13.219 153.062 13.219 c 154.121 13.219 154.98 12.359 154.98 11.301 c f
1 g
163.691 22.699 m 163.691 21.523 162.738 20.57 161.562 20.57 c 160.387 20.57
 159.434 21.523 159.434 22.699 c 159.434 23.875 160.387 24.828 161.562 24.828
 c 162.738 24.828 163.691 23.875 163.691 22.699 c f
0 g
163.691 22.699 m 163.691 21.523 162.738 20.57 161.562 20.57 c 160.387 20.57
 159.434 21.523 159.434 22.699 c 159.434 23.875 160.387 24.828 161.562 24.828
 c 162.738 24.828 163.691 23.875 163.691 22.699 c h
163.691 22.699 m 163.48 22.699 l 163.48 21.641 162.621 20.781 161.562 20.781
 c 160.504 20.781 159.645 21.641 159.645 22.699 c 159.645 23.758 160.504
 24.617 161.562 24.617 c 162.621 24.617 163.48 23.758 163.48 22.699 c f
1 g
174.992 14.199 m 174.992 13.023 174.039 12.07 172.863 12.07 c 171.688 12.07
 170.734 13.023 170.734 14.199 c 170.734 15.375 171.688 16.328 172.863 16.328
 c 174.039 16.328 174.992 15.375 174.992 14.199 c f
0 g
174.992 14.199 m 174.992 13.023 174.039 12.07 172.863 12.07 c 171.688 12.07
 170.734 13.023 170.734 14.199 c 170.734 15.375 171.688 16.328 172.863 16.328
 c 174.039 16.328 174.992 15.375 174.992 14.199 c h
174.992 14.199 m 174.781 14.199 l 174.781 13.141 173.922 12.281 172.863
 12.281 c 171.805 12.281 170.945 13.141 170.945 14.199 c 170.945 15.258 
171.805 16.117 172.863 16.117 c 173.922 16.117 174.781 15.258 174.781 14.199
 c f
1 g
177.895 4.199 m 177.895 3.023 176.941 2.07 175.766 2.07 c 174.59 2.07 173.637
 3.023 173.637 4.199 c 173.637 5.375 174.59 6.328 175.766 6.328 c 176.941
 6.328 177.895 5.375 177.895 4.199 c f
0 g
177.895 4.199 m 177.895 3.023 176.941 2.07 175.766 2.07 c 174.59 2.07 173.637
 3.023 173.637 4.199 c 173.637 5.375 174.59 6.328 175.766 6.328 c 176.941
 6.328 177.895 5.375 177.895 4.199 c h
177.895 4.199 m 177.684 4.199 l 177.684 3.141 176.824 2.281 175.766 2.281
 c 174.707 2.281 173.848 3.141 173.848 4.199 c 173.848 5.258 174.707 6.117
 175.766 6.117 c 176.824 6.117 177.684 5.258 177.684 4.199 c f
1 g
192.094 17 m 192.094 15.824 191.141 14.871 189.965 14.871 c 188.789 14.871
 187.836 15.824 187.836 17 c 187.836 18.176 188.789 19.129 189.965 19.129
 c 191.141 19.129 192.094 18.176 192.094 17 c f
0 g
192.094 17 m 192.094 15.824 191.141 14.871 189.965 14.871 c 188.789 14.871
 187.836 15.824 187.836 17 c 187.836 18.176 188.789 19.129 189.965 19.129
 c 191.141 19.129 192.094 18.176 192.094 17 c h
192.094 17 m 191.883 17 l 191.883 15.941 191.023 15.082 189.965 15.082 
c 188.906 15.082 188.047 15.941 188.047 17 c 188.047 18.059 188.906 18.918
 189.965 18.918 c 191.023 18.918 191.883 18.059 191.883 17 c f
192.094 48.199 m 192.094 47.023 191.141 46.07 189.965 46.07 c 188.789 46.07
 187.836 47.023 187.836 48.199 c 187.836 49.375 188.789 50.328 189.965 50.328
 c 191.141 50.328 192.094 49.375 192.094 48.199 c f
214.691 42.5 m 214.691 41.324 213.738 40.371 212.562 40.371 c 211.387 40.371
 210.434 41.324 210.434 42.5 c 210.434 43.676 211.387 44.629 212.562 44.629
 c 213.738 44.629 214.691 43.676 214.691 42.5 c f
203.395 59.5 m 203.395 58.324 202.441 57.371 201.266 57.371 c 200.09 57.371
 199.137 58.324 199.137 59.5 c 199.137 60.676 200.09 61.629 201.266 61.629
 c 202.441 61.629 203.395 60.676 203.395 59.5 c f
217.594 59.5 m 217.594 58.324 216.641 57.371 215.465 57.371 c 214.289 57.371
 213.336 58.324 213.336 59.5 c 213.336 60.676 214.289 61.629 215.465 61.629
 c 216.641 61.629 217.594 60.676 217.594 59.5 c f
211.895 51 m 211.895 49.824 210.941 48.871 209.766 48.871 c 208.59 48.871
 207.637 49.824 207.637 51 c 207.637 52.176 208.59 53.129 209.766 53.129
 c 210.941 53.129 211.895 52.176 211.895 51 c f
228.895 48.199 m 228.895 47.023 227.941 46.07 226.766 46.07 c 225.59 46.07
 224.637 47.023 224.637 48.199 c 224.637 49.375 225.59 50.328 226.766 50.328
 c 227.941 50.328 228.895 49.375 228.895 48.199 c f
223.191 36.801 m 223.191 35.625 222.238 34.672 221.062 34.672 c 219.887
 34.672 218.934 35.625 218.934 36.801 c 218.934 37.977 219.887 38.93 221.062
 38.93 c 222.238 38.93 223.191 37.977 223.191 36.801 c f
211.895 34 m 211.895 32.824 210.941 31.871 209.766 31.871 c 208.59 31.871
 207.637 32.824 207.637 34 c 207.637 35.176 208.59 36.129 209.766 36.129
 c 210.941 36.129 211.895 35.176 211.895 34 c f
226.094 28.301 m 226.094 27.125 225.141 26.172 223.965 26.172 c 222.789
 26.172 221.836 27.125 221.836 28.301 c 221.836 29.477 222.789 30.43 223.965
 30.43 c 225.141 30.43 226.094 29.477 226.094 28.301 c f
209.094 22.699 m 209.094 21.523 208.141 20.57 206.965 20.57 c 205.789 20.57
 204.836 21.523 204.836 22.699 c 204.836 23.875 205.789 24.828 206.965 24.828
 c 208.141 24.828 209.094 23.875 209.094 22.699 c f
223.191 14.199 m 223.191 13.023 222.238 12.07 221.062 12.07 c 219.887 12.07
 218.934 13.023 218.934 14.199 c 218.934 15.375 219.887 16.328 221.062 16.328
 c 222.238 16.328 223.191 15.375 223.191 14.199 c f
161.562 62.387 m 159.129 66.605 l 163.996 66.605 l f
144.562 68.086 m 142.129 72.305 l 146.996 72.305 l f
147.363 76.586 m 144.93 80.805 l 149.797 80.805 l f
150.266 65.188 m 147.832 69.406 l 152.699 69.406 l f
153.062 76.586 m 150.629 80.805 l 155.496 80.805 l f
153.062 70.887 m 150.629 75.105 l 155.496 75.105 l f
153.062 59.586 m 150.629 63.805 l 155.496 63.805 l f
155.863 65.188 m 153.43 69.406 l 158.297 69.406 l f
158.766 82.188 m 156.332 86.406 l 161.199 86.406 l f
158.766 73.688 m 156.332 77.906 l 161.199 77.906 l f
161.562 68.086 m 159.129 72.305 l 163.996 72.305 l f
164.363 79.387 m 161.93 83.605 l 166.797 83.605 l f
167.266 73.688 m 164.832 77.906 l 169.699 77.906 l f
167.266 68.086 m 164.832 72.305 l 169.699 72.305 l f
172.863 79.387 m 170.43 83.605 l 175.297 83.605 l f
172.863 65.188 m 170.43 69.406 l 175.297 69.406 l f
175.766 73.688 m 173.332 77.906 l 178.199 77.906 l f
Q Q
showpage
%%Trailer
end
%%EOF
