%!PS-Adobe-3.0 EPSF-3.0
%%Creator: cairo 1.17.4 (https://cairographics.org)
%%CreationDate: Thu Feb 24 10:50:02 2022
%%Pages: 1
%%DocumentData: Clean7Bit
%%LanguageLevel: 2
%%BoundingBox: 0 0 132 114
%%EndComments
%%BeginProlog
50 dict begin
/q { gsave } bind def
/Q { grestore } bind def
/cm { 6 array astore concat } bind def
/w { setlinewidth } bind def
/J { setlinecap } bind def
/j { setlinejoin } bind def
/M { setmiterlimit } bind def
/d { setdash } bind def
/m { moveto } bind def
/l { lineto } bind def
/c { curveto } bind def
/h { closepath } bind def
/re { exch dup neg 3 1 roll 5 3 roll moveto 0 rlineto
      0 exch rlineto 0 rlineto closepath } bind def
/S { stroke } bind def
/f { fill } bind def
/f* { eofill } bind def
/n { newpath } bind def
/W { clip } bind def
/W* { eoclip } bind def
/BT { } bind def
/ET { } bind def
/BDC { mark 3 1 roll /BDC pdfmark } bind def
/EMC { mark /EMC pdfmark } bind def
/cairo_store_point { /cairo_point_y exch def /cairo_point_x exch def } def
/Tj { show currentpoint cairo_store_point } bind def
/TJ {
  {
    dup
    type /stringtype eq
    { show } { -0.001 mul 0 cairo_font_matrix dtransform rmoveto } ifelse
  } forall
  currentpoint cairo_store_point
} bind def
/cairo_selectfont { cairo_font_matrix aload pop pop pop 0 0 6 array astore
    cairo_font exch selectfont cairo_point_x cairo_point_y moveto } bind def
/Tf { pop /cairo_font exch def /cairo_font_matrix where
      { pop cairo_selectfont } if } bind def
/Td { matrix translate cairo_font_matrix matrix concatmatrix dup
      /cairo_font_matrix exch def dup 4 get exch 5 get cairo_store_point
      /cairo_font where { pop cairo_selectfont } if } bind def
/Tm { 2 copy 8 2 roll 6 array astore /cairo_font_matrix exch def
      cairo_store_point /cairo_font where { pop cairo_selectfont } if } bind def
/g { setgray } bind def
/rg { setrgbcolor } bind def
/d1 { setcachedevice } bind def
/cairo_data_source {
  CairoDataIndex CairoData length lt
    { CairoData CairoDataIndex get /CairoDataIndex CairoDataIndex 1 add def }
    { () } ifelse
} def
/cairo_flush_ascii85_file { cairo_ascii85_file status { cairo_ascii85_file flushfile } if } def
/cairo_image { image cairo_flush_ascii85_file } def
/cairo_imagemask { imagemask cairo_flush_ascii85_file } def
%%EndProlog
%%BeginSetup
%%EndSetup
%%Page: 1 1
%%BeginPageSetup
%%PageBoundingBox: 0 0 132 114
%%EndPageSetup
q 0 0 132 114 rectclip
1 0 0 -1 0 114 cm q
0 g
72.73 10.496 m 77.465 10.426 l 73.75 7.477 l 74.914 9.551 l f
0.850361 w
0 J
0 j
[] 0.0 d
10 M q 1 0 0 -1 0 0 cm
53.371 -2.289 m 74.922 -9.535 l S Q
68.387 0.547 m 68.387 0.094 68.043 0 67.902 0 c 67.434 0 66.918 0.781 66.371
 2.234 c 66.84 0 l 66.543 0.078 65.762 0.219 65.324 0.25 c 65.293 0.453 
l 65.559 0.453 65.637 0.562 65.637 0.797 c 65.637 1.344 64.887 4.109 64.887
 4.109 c 65.965 4.109 l 66.371 2.703 67.012 0.969 67.355 0.969 c 67.496 
0.969 67.543 1.344 67.855 1.344 c 68.121 1.344 68.387 1 68.387 0.547 c h
68.387 0.547 m f
70.863 1.754 m 70.863 1.566 70.707 1.363 70.473 1.363 c 70.285 1.363 70.113
 1.52 70.113 1.754 c 70.113 1.973 70.285 2.129 70.488 2.129 c 70.707 2.129
 70.863 1.926 70.863 1.754 c h
70.691 5.426 m 70.52 5.285 l 70.27 5.66 70.004 5.895 69.895 5.895 c 69.832
 5.895 69.832 5.848 69.832 5.801 c 69.832 5.707 69.848 5.629 69.895 5.473
 c 70.629 2.848 l 70.629 2.848 69.488 3.035 69.27 3.051 c 69.27 3.285 l 
69.582 3.285 69.77 3.285 69.77 3.488 c 69.77 3.863 69.145 5.566 69.145 5.926
 c 69.145 6.223 69.316 6.348 69.504 6.348 c 70.051 6.348 70.566 5.645 70.691
 5.426 c h
70.691 5.426 m f
73.156 5.176 m 73.125 5.332 73.109 5.488 73.109 5.598 c 73.109 6.145 73.469
 6.348 73.766 6.348 c 74.094 6.348 74.719 6.113 74.922 5.379 c 74.734 5.379
 l 74.547 5.691 74.266 5.863 74.031 5.863 c 73.938 5.863 73.734 5.754 73.734
 5.473 c 73.734 5.41 73.75 5.348 73.766 5.285 c 74.172 3.629 l 74.562 3.629
 l 74.984 3.629 75.391 3.363 75.484 2.895 c 75.359 2.848 l 75.188 2.973 
74.953 3.02 74.703 3.02 c 73.328 3.02 l 72.812 3.02 72.453 3.426 72.375 
3.738 c 72.5 3.801 l 72.625 3.707 72.75 3.629 73.047 3.629 c 73.547 3.629
 l h
73.156 5.176 m f
75.387 16.113 m 77.645 11.926 l 73.238 13.746 l 75.641 13.715 l f
0.850362 w
q 1 0 0 -1 0 0 cm
22.195 -61.824 m 75.637 -13.73 l S Q
53.309 40.348 m 53.309 39.895 52.965 39.801 52.824 39.801 c 52.355 39.801
 51.84 40.582 51.293 42.035 c 51.762 39.801 l 51.465 39.879 50.684 40.02
 50.246 40.051 c 50.215 40.254 l 50.48 40.254 50.559 40.363 50.559 40.598
 c 50.559 41.145 49.809 43.91 49.809 43.91 c 50.887 43.91 l 51.293 42.504
 51.934 40.77 52.277 40.77 c 52.418 40.77 52.465 41.145 52.777 41.145 c 
53.043 41.145 53.309 40.801 53.309 40.348 c h
53.309 40.348 m f
56.426 37.062 m 56.426 36.844 56.191 36.688 55.973 36.688 c 55.816 36.688
 55.676 36.766 55.613 36.984 c 54.676 40.172 l 54.879 40.25 l 56.379 37.234
 l 56.395 37.172 56.426 37.125 56.426 37.062 c h
56.426 37.062 m f
55.785 42.633 m 55.785 42.445 55.629 42.242 55.395 42.242 c 55.207 42.242
 55.035 42.398 55.035 42.633 c 55.035 42.852 55.207 43.008 55.41 43.008 
c 55.629 43.008 55.785 42.805 55.785 42.633 c h
55.613 46.305 m 55.441 46.164 l 55.191 46.539 54.926 46.773 54.816 46.773
 c 54.754 46.773 54.754 46.727 54.754 46.68 c 54.754 46.586 54.77 46.508
 54.816 46.352 c 55.551 43.727 l 55.551 43.727 54.41 43.914 54.191 43.93
 c 54.191 44.164 l 54.504 44.164 54.691 44.164 54.691 44.367 c 54.691 44.742
 54.066 46.445 54.066 46.805 c 54.066 47.102 54.238 47.227 54.426 47.227
 c 54.973 47.227 55.488 46.523 55.613 46.305 c h
55.613 46.305 m f
57.707 7.398 m 54.262 4.129 l 54.84 8.812 l 55.496 6.531 l f
1 g
2.84289 w
q 1 0 0 -1 0 0 cm
98.719 -93.016 m 55.484 -6.508 l S Q
0 g
0.850362 w
q 1 0 0 -1 0 0 cm
98.719 -93.016 m 55.484 -6.508 l S Q
57.707 7.398 m 54.262 4.129 l 54.84 8.812 l 55.496 6.531 l f
73.93 53.266 m 73.93 52.172 72.773 51.922 71.992 51.922 c 69.32 51.922 
l 69.289 52.109 l 69.867 52.109 69.992 52.188 69.992 52.484 c 69.992 52.609
 69.93 52.875 69.898 52.969 c 68.758 57.141 l 68.602 57.688 68.461 57.891
 67.961 57.891 c 67.945 58.078 l 70.695 58.078 l 70.711 57.891 l 70.211 
57.891 70.023 57.781 70.023 57.484 c 70.023 57.375 70.055 57.172 70.133 
56.953 c 70.664 55.062 l 70.93 55.062 l 71.914 58.078 l 73.68 58.078 l 73.711
 57.891 l 73.242 57.891 73.102 57.766 72.898 57.141 c 72.18 54.969 l 73.367
 54.766 73.93 53.969 73.93 53.266 c h
72.539 53.203 m 72.539 54.016 72.195 54.766 70.742 54.766 c 71.383 52.219
 l 72.07 52.219 72.539 52.469 72.539 53.203 c h
72.539 53.203 m f
75.758 59.266 m 75.727 59.422 75.711 59.578 75.711 59.688 c 75.711 60.234
 76.07 60.438 76.367 60.438 c 76.695 60.438 77.32 60.203 77.523 59.469 c
 77.336 59.469 l 77.148 59.781 76.867 59.953 76.633 59.953 c 76.539 59.953
 76.336 59.844 76.336 59.562 c 76.336 59.5 76.352 59.438 76.367 59.375 c
 76.773 57.719 l 77.164 57.719 l 77.586 57.719 77.992 57.453 78.086 56.984
 c 77.961 56.938 l 77.789 57.062 77.555 57.109 77.305 57.109 c 75.93 57.109
 l 75.414 57.109 75.055 57.516 74.977 57.828 c 75.102 57.891 l 75.227 57.797
 75.352 57.719 75.648 57.719 c 76.148 57.719 l h
75.758 59.266 m f
81.832 16.172 m 79.246 12.199 l 78.734 16.938 l 79.863 14.824 l f
q 1 0 0 -1 0 0 cm
98.719 -93.016 m 79.859 -14.84 l S Q
92.418 39.387 m 92.418 38.934 92.074 38.84 91.934 38.84 c 91.465 38.84 
90.949 39.621 90.402 41.074 c 90.871 38.84 l 90.574 38.918 89.793 39.059
 89.355 39.09 c 89.324 39.293 l 89.59 39.293 89.668 39.402 89.668 39.637
 c 89.668 40.184 88.918 42.949 88.918 42.949 c 89.996 42.949 l 90.402 41.543
 91.043 39.809 91.387 39.809 c 91.527 39.809 91.574 40.184 91.887 40.184
 c 92.152 40.184 92.418 39.84 92.418 39.387 c h
92.418 39.387 m f
94.895 40.594 m 94.895 40.406 94.738 40.203 94.504 40.203 c 94.316 40.203
 94.145 40.359 94.145 40.594 c 94.145 40.812 94.316 40.969 94.52 40.969 
c 94.738 40.969 94.895 40.766 94.895 40.594 c h
94.723 44.266 m 94.551 44.125 l 94.301 44.5 94.035 44.734 93.926 44.734
 c 93.863 44.734 93.863 44.688 93.863 44.641 c 93.863 44.547 93.879 44.469
 93.926 44.312 c 94.66 41.688 l 94.66 41.688 93.52 41.875 93.301 41.891 
c 93.301 42.125 l 93.613 42.125 93.801 42.125 93.801 42.328 c 93.801 42.703
 93.176 44.406 93.176 44.766 c 93.176 45.062 93.348 45.188 93.535 45.188
 c 94.082 45.188 94.598 44.484 94.723 44.266 c h
94.723 44.266 m f
28.922 62.887 m 24.191 62.672 l 27.73 65.852 l 26.648 63.684 l f
q 1 0 0 -1 0 0 cm
98.719 -93.016 m 26.648 -63.703 l S Q
48.973 75.945 m 48.973 74.852 47.816 74.602 47.035 74.602 c 44.363 74.602
 l 44.332 74.789 l 44.91 74.789 45.035 74.867 45.035 75.164 c 45.035 75.289
 44.973 75.555 44.941 75.648 c 43.801 79.82 l 43.645 80.367 43.504 80.57
 43.004 80.57 c 42.988 80.758 l 45.738 80.758 l 45.754 80.57 l 45.254 80.57
 45.066 80.461 45.066 80.164 c 45.066 80.055 45.098 79.852 45.176 79.633
 c 45.707 77.742 l 45.973 77.742 l 46.957 80.758 l 48.723 80.758 l 48.754
 80.57 l 48.285 80.57 48.145 80.445 47.941 79.82 c 47.223 77.648 l 48.41
 77.445 48.973 76.648 48.973 75.945 c h
47.582 75.883 m 47.582 76.695 47.238 77.445 45.785 77.445 c 46.426 74.898
 l 47.113 74.898 47.582 75.148 47.582 75.883 c h
47.582 75.883 m f
49.719 82.918 m 51.375 82.918 l 51.375 82.809 l 50.938 82.793 50.859 82.73
 50.844 82.34 c 50.844 78.168 l 50.812 78.152 l 50.469 78.277 50.203 78.34
 49.703 78.465 c 49.703 78.574 l 49.75 78.574 l 49.828 78.574 49.906 78.559
 49.969 78.559 c 50.188 78.559 50.266 78.652 50.266 78.98 c 50.266 82.309
 l 50.25 82.684 50.156 82.793 49.719 82.809 c h
49.719 82.918 m f
53.23 79.715 m 52.324 79.715 51.699 80.387 51.699 81.34 c 51.699 82.293
 52.34 82.98 53.23 82.98 c 54.105 82.98 54.777 82.262 54.777 81.293 c 54.777
 80.371 54.137 79.715 53.23 79.715 c h
53.152 79.902 m 53.73 79.902 54.137 80.574 54.137 81.527 c 54.137 82.324
 53.824 82.793 53.309 82.793 c 53.043 82.793 52.777 82.621 52.637 82.34 
c 52.434 81.98 52.324 81.496 52.324 80.996 c 52.324 80.34 52.652 79.902 
53.152 79.902 c h
53.152 79.902 m f
57.758 81.824 m 57.414 82.324 57.164 82.48 56.773 82.48 c 56.133 82.48 
55.68 81.934 55.68 81.121 c 55.68 80.402 56.07 79.918 56.633 79.918 c 56.883
 79.918 56.977 79.98 57.039 80.246 c 57.086 80.402 l 57.148 80.605 57.273
 80.73 57.43 80.73 c 57.602 80.73 57.758 80.59 57.758 80.434 c 57.758 80.043
 57.258 79.715 56.68 79.715 c 56.336 79.715 55.977 79.855 55.695 80.105 
c 55.352 80.402 55.148 80.887 55.148 81.434 c 55.148 82.34 55.695 82.98 
56.477 82.98 c 56.789 82.98 57.07 82.871 57.32 82.652 c 57.508 82.496 57.633
 82.309 57.852 81.887 c h
57.758 81.824 m f
51.938 8.484 m 52.59 3.809 l 49.109 6.996 l 51.355 6.164 l f
q 1 0 0 -1 0 0 cm
22.199 -61.812 m 51.352 -6.152 l S Q
37.082 16.895 m 37.082 15.801 35.926 15.551 35.145 15.551 c 32.473 15.551
 l 32.441 15.738 l 33.02 15.738 33.145 15.816 33.145 16.113 c 33.145 16.238
 33.082 16.504 33.051 16.598 c 31.91 20.77 l 31.754 21.316 31.613 21.52 
31.113 21.52 c 31.098 21.707 l 33.848 21.707 l 33.863 21.52 l 33.363 21.52
 33.176 21.41 33.176 21.113 c 33.176 21.004 33.207 20.801 33.285 20.582 
c 33.816 18.691 l 34.082 18.691 l 35.066 21.707 l 36.832 21.707 l 36.863
 21.52 l 36.395 21.52 36.254 21.395 36.051 20.77 c 35.332 18.598 l 36.52
 18.395 37.082 17.598 37.082 16.895 c h
35.691 16.832 m 35.691 17.645 35.348 18.395 33.895 18.395 c 34.535 15.848
 l 35.223 15.848 35.691 16.098 35.691 16.832 c h
35.691 16.832 m f
40.016 14.984 m 40.016 14.766 39.781 14.609 39.562 14.609 c 39.406 14.609
 39.266 14.688 39.203 14.906 c 38.266 18.094 l 38.469 18.172 l 39.969 15.156
 l 39.984 15.094 40.016 15.047 40.016 14.984 c h
40.016 14.984 m f
38.906 22.895 m 38.875 23.051 38.859 23.207 38.859 23.316 c 38.859 23.863
 39.219 24.066 39.516 24.066 c 39.844 24.066 40.469 23.832 40.672 23.098
 c 40.484 23.098 l 40.297 23.41 40.016 23.582 39.781 23.582 c 39.688 23.582
 39.484 23.473 39.484 23.191 c 39.484 23.129 39.5 23.066 39.516 23.004 c
 39.922 21.348 l 40.312 21.348 l 40.734 21.348 41.141 21.082 41.234 20.613
 c 41.109 20.566 l 40.938 20.691 40.703 20.738 40.453 20.738 c 39.078 20.738
 l 38.562 20.738 38.203 21.145 38.125 21.457 c 38.25 21.52 l 38.375 21.426
 38.5 21.348 38.797 21.348 c 39.297 21.348 l h
38.906 22.895 m f
0.283298 w
q 1 0 0 -1 0 0 cm
98.719 -93.016 m 81.723 -110.008 l S Q
q 1 0 0 -1 0 0 cm
98.715 -93.008 m 127.066 -93.008 l S Q
q 1 0 0 -1 0 0 cm
98.719 -93.016 m 98.719 -64.652 l S Q
81.238 110.93 m 81.238 110.773 81.082 110.711 80.973 110.711 c 80.645 110.711
 80.223 111.133 79.895 111.586 c 79.848 111.398 l 79.738 111.023 79.613 
110.805 79.395 110.711 c 79.395 110.711 78.66 110.836 78.582 110.867 c 78.582
 110.961 l 78.707 110.945 78.801 110.93 78.879 110.93 c 79.238 110.93 79.301
 111.227 79.551 112.055 c 79.254 112.43 78.801 113.07 78.613 113.07 c 78.457
 113.07 78.457 112.93 78.254 112.93 c 78.113 112.93 78.02 113.023 78.02 
113.133 c 78.02 113.289 78.145 113.383 78.316 113.383 c 78.77 113.383 79.191
 112.68 79.598 112.227 c 79.613 112.273 79.754 112.773 79.754 112.773 c 
79.926 113.305 80.035 113.383 80.207 113.383 c 80.395 113.383 80.707 113.211
 81.02 112.711 c 80.91 112.664 l 80.816 112.789 80.629 113.055 80.457 113.055
 c 80.238 113.055 80.113 112.242 79.941 111.742 c 79.988 111.695 80.426 
111.055 80.676 111.055 c 80.801 111.055 80.91 111.148 81.02 111.148 c 81.191
 111.148 81.238 111.039 81.238 110.93 c h
81.238 110.93 m f
131.293 91.688 m 131.293 91.469 131.121 91.359 130.934 91.359 c 130.777
 91.359 130.684 91.453 130.684 91.562 c 130.684 91.812 131.043 91.734 131.043
 91.906 c 131.043 92.234 130.168 93.312 129.965 93.516 c 129.902 92.516 
129.793 91.578 129.559 91.359 c 128.621 91.484 l 128.621 91.578 l 128.684
 91.562 128.762 91.562 128.855 91.562 c 129.34 91.562 129.387 92.375 129.496
 93.969 c 129.371 94.172 128.949 94.438 128.793 94.438 c 128.668 94.438 
128.668 94.266 128.465 94.266 c 128.309 94.266 128.168 94.375 128.168 94.5
 c 128.168 94.656 128.371 94.703 128.465 94.703 c 129.199 94.703 130.262
 93.547 130.84 92.641 c 131.121 92.219 131.293 91.891 131.293 91.688 c h
131.293 91.688 m f
99.957 60.535 m 97.941 60.535 l 97.66 61.27 l 97.785 61.27 l 97.941 60.926
 98.113 60.91 98.332 60.91 c 99.395 60.91 l 97.16 63.145 l 99.207 63.145
 l 99.504 62.395 l 99.379 62.395 l 99.223 62.785 98.973 62.785 98.738 62.785
 c 97.707 62.785 l h
99.957 60.535 m f
q 1 0 0 -1 0 0 cm
22.191 -61.828 m 5.199 -78.824 l S Q
q 1 0 0 -1 0 0 cm
22.188 -61.824 m 50.535 -61.824 l S Q
q 1 0 0 -1 0 0 cm
22.191 -61.828 m 22.191 -33.469 l S Q
3.219 82.977 m 3.219 82.82 3.062 82.758 2.953 82.758 c 2.625 82.758 2.203
 83.18 1.875 83.633 c 1.828 83.445 l 1.719 83.07 1.594 82.852 1.375 82.758
 c 1.375 82.758 0.641 82.883 0.562 82.914 c 0.562 83.008 l 0.688 82.992 
0.781 82.977 0.859 82.977 c 1.219 82.977 1.281 83.273 1.531 84.102 c 1.234
 84.477 0.781 85.117 0.594 85.117 c 0.438 85.117 0.438 84.977 0.234 84.977
 c 0.094 84.977 0 85.07 0 85.18 c 0 85.336 0.125 85.43 0.297 85.43 c 0.75
 85.43 1.172 84.727 1.578 84.273 c 1.594 84.32 1.734 84.82 1.734 84.82 c
 1.906 85.352 2.016 85.43 2.188 85.43 c 2.375 85.43 2.688 85.258 3 84.758
 c 2.891 84.711 l 2.797 84.836 2.609 85.102 2.438 85.102 c 2.219 85.102 
2.094 84.289 1.922 83.789 c 1.969 83.742 2.406 83.102 2.656 83.102 c 2.781
 83.102 2.891 83.195 3 83.195 c 3.172 83.195 3.219 83.086 3.219 82.977 c
 h
3.219 82.977 m f
5.414 80.977 m 5.414 80.836 5.242 80.727 5.07 80.727 c 4.945 80.727 4.836
 80.789 4.773 80.93 c 3.93 83.32 l 4.055 83.352 l 5.383 81.086 l 5.398 81.055
 5.414 81.023 5.414 80.977 c h
5.414 80.977 m f
54.527 60.617 m 54.527 60.398 54.355 60.289 54.168 60.289 c 54.012 60.289
 53.918 60.383 53.918 60.492 c 53.918 60.742 54.277 60.664 54.277 60.836
 c 54.277 61.164 53.402 62.242 53.199 62.445 c 53.137 61.445 53.027 60.508
 52.793 60.289 c 51.855 60.414 l 51.855 60.508 l 51.918 60.492 51.996 60.492
 52.09 60.492 c 52.574 60.492 52.621 61.305 52.73 62.898 c 52.605 63.102
 52.184 63.367 52.027 63.367 c 51.902 63.367 51.902 63.195 51.699 63.195
 c 51.543 63.195 51.402 63.305 51.402 63.43 c 51.402 63.586 51.605 63.633
 51.699 63.633 c 52.434 63.633 53.496 62.477 54.074 61.57 c 54.355 61.148
 54.527 60.82 54.527 60.617 c h
54.527 60.617 m f
56.719 58.504 m 56.719 58.363 56.547 58.254 56.375 58.254 c 56.25 58.254
 56.141 58.316 56.078 58.457 c 55.234 60.848 l 55.359 60.879 l 56.688 58.613
 l 56.703 58.582 56.719 58.551 56.719 58.504 c h
56.719 58.504 m f
23.758 29.469 m 21.742 29.469 l 21.461 30.203 l 21.586 30.203 l 21.742 
29.859 21.914 29.844 22.133 29.844 c 23.195 29.844 l 20.961 32.078 l 23.008
 32.078 l 23.305 31.328 l 23.18 31.328 l 23.023 31.719 22.773 31.719 22.539
 31.719 c 21.508 31.719 l h
23.758 29.469 m f
25.867 27.684 m 25.867 27.543 25.695 27.434 25.523 27.434 c 25.398 27.434
 25.289 27.496 25.227 27.637 c 24.383 30.027 l 24.508 30.059 l 25.836 27.793
 l 25.852 27.762 25.867 27.73 25.867 27.684 c h
25.867 27.684 m f
1 g
100.855 92.969 m 100.855 91.793 99.902 90.84 98.727 90.84 c 97.551 90.84
 96.598 91.793 96.598 92.969 c 96.598 94.145 97.551 95.098 98.727 95.098
 c 99.902 95.098 100.855 94.145 100.855 92.969 c f
0 g
100.855 92.969 m 100.855 91.793 99.902 90.84 98.727 90.84 c 97.551 90.84
 96.598 91.793 96.598 92.969 c 96.598 94.145 97.551 95.098 98.727 95.098
 c 99.902 95.098 100.855 94.145 100.855 92.969 c h
100.855 92.969 m 100.645 92.969 l 100.645 91.91 99.785 91.051 98.727 91.051
 c 97.668 91.051 96.809 91.91 96.809 92.969 c 96.809 94.027 97.668 94.887
 98.727 94.887 c 99.785 94.887 100.645 94.027 100.645 92.969 c f
1 g
51.41 0.352 3.836 3.836 re f
0 g
51.41 0.352 m 55.246 0.352 l 55.246 4.188 l 51.41 4.188 l h
51.621 0.562 m 55.035 0.562 l 55.035 3.977 l 51.621 3.977 l f
81.055 10.77 m 81.055 9.594 80.102 8.641 78.926 8.641 c 77.75 8.641 76.797
 9.594 76.797 10.77 c 76.797 11.945 77.75 12.898 78.926 12.898 c 80.102 
12.898 81.055 11.945 81.055 10.77 c f
1 g
22.227 59.055 m 19.793 63.273 l 24.66 63.273 l f
0 g
22.227 59.055 m 19.793 63.273 l 24.66 63.273 l h
22.227 59.477 m 20.156 63.062 l 24.297 63.062 l f
Q Q
showpage
%%Trailer
end
%%EOF
