<?xml version="1.0" encoding="UTF-8" standalone="no"?>
<svg
   width="363.7pt"
   height="186.8pt"
   viewBox="0 0 363.7 186.8"
   version="1.2"
   id="svg581"
   xmlns:xlink="http://www.w3.org/1999/xlink"
   xmlns="http://www.w3.org/2000/svg"
   xmlns:svg="http://www.w3.org/2000/svg">
  <defs
     id="defs124">
    <g
       id="g119">
      <symbol
         overflow="visible"
         id="glyph0-0">
        <path
           style="stroke:none;"
           d=""
           id="path2" />
      </symbol>
      <symbol
         overflow="visible"
         id="glyph0-1">
        <path
           style="stroke:none;"
           d="M 3.328125 7.75 L 3.328125 7.59375 C 2.765625 7.4375 2.171875 6.625 2.171875 5.734375 C 2.171875 5.3125 2.234375 4.890625 2.28125 4.453125 C 2.34375 4.015625 2.375 3.53125 2.375 2.984375 C 2.375 1.296875 1.609375 -0.15625 0.671875 -0.40625 L 0.671875 -0.25 C 1.34375 0.046875 1.46875 1.109375 1.46875 1.9375 C 1.46875 2.328125 1.421875 2.796875 1.375 3.28125 C 1.34375 3.765625 1.28125 4.25 1.28125 4.71875 C 1.28125 6.03125 2.125 7.140625 2.921875 7.671875 L 2.921875 7.6875 C 2.125 8.203125 1.28125 9.328125 1.28125 10.625 C 1.28125 11.078125 1.34375 11.59375 1.375 12.078125 C 1.421875 12.53125 1.46875 13 1.46875 13.421875 C 1.46875 14.21875 1.34375 15.265625 0.671875 15.5625 L 0.671875 15.734375 C 1.609375 15.484375 2.375 14.0625 2.375 12.359375 C 2.375 11.828125 2.34375 11.34375 2.28125 10.890625 C 2.234375 10.4375 2.171875 10.046875 2.171875 9.609375 C 2.171875 8.71875 2.765625 7.890625 3.328125 7.75 Z M 3.328125 7.75 "
           id="path5" />
      </symbol>
      <symbol
         overflow="visible"
         id="glyph0-2">
        <path
           style="stroke:none;"
           d="M 5.859375 21.109375 L 5.859375 20.96875 C 3.25 18.953125 2.5 14.578125 2.5 10.34375 C 2.5 6.109375 3.25 1.734375 5.859375 -0.265625 L 5.859375 -0.40625 C 2.859375 1.203125 1.375 5.546875 1.375 10.34375 C 1.375 15.15625 2.859375 19.5 5.859375 21.109375 Z M 5.859375 21.109375 "
           id="path8" />
      </symbol>
      <symbol
         overflow="visible"
         id="glyph0-3">
        <path
           style="stroke:none;"
           d="M 4.671875 10.34375 C 4.671875 5.546875 3.203125 1.203125 0.1875 -0.40625 L 0.1875 -0.265625 C 2.8125 1.734375 3.5625 6.109375 3.5625 10.34375 C 3.5625 14.578125 2.8125 18.953125 0.1875 20.96875 L 0.1875 21.109375 C 3.203125 19.5 4.671875 15.15625 4.671875 10.34375 Z M 4.671875 10.34375 "
           id="path11" />
      </symbol>
      <symbol
         overflow="visible"
         id="glyph0-4">
        <path
           style="stroke:none;"
           d="M 3.734375 13.078125 C 2.984375 12.40625 2.328125 11.15625 2.328125 9.671875 C 2.328125 8.265625 3.125 5.3125 3.125 3.671875 C 3.125 0.859375 1.796875 -0.125 0.9375 -0.40625 L 0.9375 -0.34375 C 1.84375 0.234375 2.28125 1.71875 2.28125 2.921875 C 2.28125 4.578125 1.359375 7.359375 1.359375 9.578125 C 1.359375 11.59375 2.15625 12.28125 3.375 13.078125 C 2.15625 13.796875 1.359375 14.515625 1.359375 16.5 C 1.359375 18.75 2.28125 21.5 2.28125 23.171875 C 2.28125 24.359375 1.84375 25.84375 0.9375 26.421875 L 0.9375 26.5 C 1.78125 26.21875 3.125 25.234375 3.125 22.4375 C 3.125 20.796875 2.328125 17.828125 2.328125 16.4375 C 2.328125 14.9375 2.984375 13.65625 3.734375 13.078125 Z M 3.734375 13.078125 "
           id="path14" />
      </symbol>
      <symbol
         overflow="visible"
         id="glyph0-5">
        <path
           style="stroke:none;"
           d="M 3.796875 8.171875 L 3.796875 4.890625 C 3.796875 0.984375 2.015625 0.328125 1.078125 0 L 1.078125 0.15625 C 2.03125 0.53125 2.765625 1.515625 2.765625 5.609375 L 2.765625 8.171875 Z M 3.796875 8.171875 "
           id="path17" />
      </symbol>
      <symbol
         overflow="visible"
         id="glyph0-6">
        <path
           style="stroke:none;"
           d="M 3.796875 2.796875 L 3.796875 -0.109375 L 2.765625 -0.109375 L 2.765625 2.796875 Z M 3.796875 2.796875 "
           id="path20" />
      </symbol>
      <symbol
         overflow="visible"
         id="glyph0-7">
        <path
           style="stroke:none;"
           d="M 5.484375 8.078125 C 4.59375 7.515625 3.796875 7 3.796875 5.1875 L 3.796875 -0.109375 L 2.765625 -0.109375 L 2.765625 4.265625 C 2.765625 7.59375 4.46875 7.828125 5.09375 8.0625 L 5.09375 8.078125 C 4.46875 8.328125 2.765625 8.546875 2.765625 11.890625 L 2.765625 16.25 L 3.796875 16.25 L 3.796875 10.953125 C 3.796875 9.140625 4.578125 8.625 5.484375 8.078125 Z M 5.484375 8.078125 "
           id="path23" />
      </symbol>
      <symbol
         overflow="visible"
         id="glyph0-8">
        <path
           style="stroke:none;"
           d="M 3.796875 3.171875 L 3.796875 -0.109375 L 2.765625 -0.109375 L 2.765625 2.453125 C 2.765625 6.5625 2.03125 7.53125 1.078125 7.921875 L 1.078125 8.078125 C 2.015625 7.734375 3.796875 7.09375 3.796875 3.171875 Z M 3.796875 3.171875 "
           id="path26" />
      </symbol>
      <symbol
         overflow="visible"
         id="glyph1-0">
        <path
           style="stroke:none;"
           d=""
           id="path29" />
      </symbol>
      <symbol
         overflow="visible"
         id="glyph1-1">
        <path
           style="stroke:none;"
           d="M 4 -3.546875 C 4 -5.234375 3.5 -6.4375 2.46875 -6.4375 C 1.765625 -6.4375 1.109375 -5.84375 1.109375 -5.328125 C 1.109375 -5.078125 1.25 -4.84375 1.484375 -4.84375 C 1.671875 -4.84375 1.890625 -4.984375 1.890625 -5.28125 C 1.890625 -5.484375 1.796875 -5.671875 1.546875 -5.734375 C 1.78125 -6.078125 2.140625 -6.1875 2.40625 -6.1875 C 3.21875 -6.1875 3.375 -5.09375 3.375 -4.171875 C 3.375 -3.703125 3.34375 -3.296875 3.3125 -3.078125 C 3.203125 -3.40625 2.921875 -3.71875 2.4375 -3.71875 C 1.4375 -3.71875 0.625 -2.75 0.625 -1.515625 C 0.625 -0.71875 1.046875 0.109375 1.90625 0.109375 C 3.34375 0.109375 4 -1.6875 4 -3.546875 Z M 3.109375 -2.203125 C 3.109375 -1.046875 2.578125 -0.109375 1.96875 -0.109375 C 1.375 -0.109375 1.25 -0.75 1.25 -1.28125 C 1.25 -2.421875 1.8125 -3.484375 2.40625 -3.484375 C 2.890625 -3.484375 3.109375 -2.984375 3.109375 -2.203125 Z M 3.109375 -2.203125 "
           id="path32" />
      </symbol>
      <symbol
         overflow="visible"
         id="glyph1-2">
        <path
           style="stroke:none;"
           d="M 6.328125 -5.890625 C 6.328125 -6.25 5.9375 -6.4375 5.59375 -6.4375 C 4.34375 -6.4375 3.734375 -4.640625 3.546875 -4 C 3.546875 -4 2.96875 -4 2.734375 -4 L 2.640625 -3.65625 L 3.453125 -3.65625 C 3.171875 -2.546875 2.640625 0.28125 2.09375 1.234375 C 1.84375 1.671875 1.453125 1.734375 1.28125 1.734375 C 1.21875 1.734375 1.140625 1.703125 1.140625 1.65625 C 1.140625 1.53125 1.328125 1.53125 1.328125 1.34375 C 1.328125 1.234375 1.234375 1.109375 1.046875 1.109375 C 0.8125 1.109375 0.640625 1.296875 0.640625 1.484375 C 0.640625 1.734375 0.90625 1.921875 1.28125 1.921875 C 3.03125 1.921875 3.6875 -1.84375 4.140625 -3.65625 L 4.875 -3.65625 L 4.953125 -4 L 4.234375 -4 C 4.53125 -4.953125 4.828125 -6.25 5.609375 -6.25 C 5.71875 -6.25 5.828125 -6.171875 5.828125 -6.09375 C 5.828125 -6 5.6875 -5.9375 5.6875 -5.765625 C 5.6875 -5.609375 5.796875 -5.484375 5.953125 -5.484375 C 6.15625 -5.484375 6.328125 -5.671875 6.328125 -5.890625 Z M 6.328125 -5.890625 "
           id="path35" />
      </symbol>
      <symbol
         overflow="visible"
         id="glyph1-3">
        <path
           style="stroke:none;"
           d="M 4.671875 -3.5 C 4.671875 -3.890625 4.453125 -4.09375 4.171875 -4.09375 C 3.96875 -4.09375 3.828125 -3.921875 3.828125 -3.734375 C 3.828125 -3.28125 4.328125 -3.40625 4.328125 -3.109375 C 4.328125 -2.53125 3.203125 -0.953125 2.953125 -0.5625 C 2.859375 -2.375 2.59375 -3.71875 2.28125 -4.09375 L 0.984375 -3.859375 L 0.984375 -3.703125 C 1.0625 -3.71875 1.1875 -3.734375 1.3125 -3.734375 C 1.984375 -3.734375 2.03125 -3.0625 2.375 0.140625 C 2.25 0.515625 1.4375 1.4375 1.203125 1.4375 C 1.046875 1.4375 1.046875 1.140625 0.765625 1.140625 C 0.546875 1.140625 0.359375 1.34375 0.359375 1.546875 C 0.359375 1.828125 0.640625 1.921875 0.765625 1.921875 C 1.375 1.921875 2.46875 0.5625 3.375 -0.8125 C 4.203125 -2.046875 4.671875 -2.984375 4.671875 -3.5 Z M 4.671875 -3.5 "
           id="path38" />
      </symbol>
      <symbol
         overflow="visible"
         id="glyph1-4">
        <path
           style="stroke:none;"
           d="M 4.640625 -3.765625 C 4.640625 -3.984375 4.4375 -4.09375 4.265625 -4.09375 C 3.8125 -4.09375 3.234375 -3.421875 2.796875 -2.71875 C 2.78125 -2.71875 2.71875 -3.015625 2.71875 -3.015625 C 2.578125 -3.609375 2.40625 -3.953125 2.09375 -4.09375 C 2.09375 -4.09375 1.078125 -3.890625 0.953125 -3.84375 L 0.953125 -3.6875 C 1.140625 -3.734375 1.28125 -3.765625 1.375 -3.765625 C 1.875 -3.765625 1.953125 -3.28125 2.296875 -1.984375 C 1.890625 -1.390625 1.25 -0.390625 1 -0.390625 C 0.796875 -0.390625 0.78125 -0.609375 0.5 -0.609375 C 0.3125 -0.609375 0.171875 -0.46875 0.171875 -0.28125 C 0.171875 -0.046875 0.34375 0.109375 0.59375 0.109375 C 1.234375 0.109375 1.8125 -1.015625 2.359375 -1.71875 C 2.390625 -1.65625 2.59375 -0.859375 2.59375 -0.859375 C 2.8125 -0.03125 2.984375 0.109375 3.203125 0.109375 C 3.484375 0.109375 3.90625 -0.171875 4.328125 -0.953125 L 4.203125 -1.03125 C 4.046875 -0.828125 3.796875 -0.40625 3.5625 -0.40625 C 3.25 -0.40625 3.078125 -1.671875 2.859375 -2.46875 C 2.90625 -2.546875 3.53125 -3.546875 3.859375 -3.546875 C 4.03125 -3.546875 4.1875 -3.40625 4.34375 -3.40625 C 4.5625 -3.40625 4.640625 -3.59375 4.640625 -3.765625 Z M 4.640625 -3.765625 "
           id="path41" />
      </symbol>
      <symbol
         overflow="visible"
         id="glyph2-0">
        <path
           style="stroke:none;"
           d=""
           id="path44" />
      </symbol>
      <symbol
         overflow="visible"
         id="glyph2-1">
        <path
           style="stroke:none;"
           d="M 4.078125 -3.09375 C 4.078125 -3.3125 3.875 -3.421875 3.703125 -3.421875 C 3.328125 -3.421875 2.84375 -2.921875 2.453125 -2.359375 C 2.453125 -2.421875 2.421875 -2.515625 2.421875 -2.515625 C 2.3125 -3.015625 2.125 -3.296875 1.859375 -3.421875 C 1.859375 -3.421875 0.96875 -3.25 0.84375 -3.21875 L 0.84375 -3 C 1.046875 -3.03125 1.15625 -3.046875 1.234375 -3.046875 C 1.65625 -3.046875 1.703125 -2.6875 1.984375 -1.671875 C 1.625 -1.203125 1.125 -0.421875 0.921875 -0.421875 C 0.734375 -0.421875 0.734375 -0.59375 0.5 -0.59375 C 0.296875 -0.59375 0.171875 -0.453125 0.171875 -0.296875 C 0.171875 -0.078125 0.328125 0.078125 0.578125 0.078125 C 1.09375 0.078125 1.609375 -0.765625 2.0625 -1.359375 C 2.125 -1.171875 2.234375 -0.734375 2.234375 -0.734375 C 2.4375 -0.03125 2.59375 0.078125 2.8125 0.078125 C 3.046875 0.078125 3.421875 -0.140625 3.828125 -0.84375 L 3.640625 -0.953125 C 3.5 -0.765625 3.296875 -0.421875 3.109375 -0.421875 C 2.84375 -0.421875 2.734375 -1.421875 2.546875 -2.0625 C 2.640625 -2.1875 3.09375 -2.890625 3.359375 -2.890625 C 3.515625 -2.890625 3.640625 -2.765625 3.765625 -2.765625 C 4 -2.765625 4.078125 -2.9375 4.078125 -3.09375 Z M 4.078125 -3.09375 "
           id="path47" />
      </symbol>
      <symbol
         overflow="visible"
         id="glyph2-2">
        <path
           style="stroke:none;"
           d="M 4.09375 -2.90625 C 4.09375 -3.25 3.875 -3.421875 3.625 -3.421875 C 3.40625 -3.421875 3.28125 -3.265625 3.28125 -3.09375 C 3.28125 -2.734375 3.703125 -2.84375 3.703125 -2.609375 C 3.703125 -2.203125 2.875 -1.0625 2.578125 -0.65625 C 2.515625 -2 2.296875 -3.109375 2.03125 -3.421875 L 0.84375 -3.21875 L 0.84375 -3.015625 C 0.96875 -3.03125 1.0625 -3.046875 1.171875 -3.046875 C 1.734375 -3.046875 1.796875 -2.40625 2.015625 -0.03125 C 1.890625 0.25 1.28125 0.84375 1.09375 0.84375 C 0.9375 0.84375 0.953125 0.625 0.703125 0.625 C 0.484375 0.625 0.3125 0.796875 0.3125 0.984375 C 0.3125 1.21875 0.578125 1.3125 0.703125 1.3125 C 1.21875 1.3125 2.171875 0.34375 2.96875 -0.734375 C 3.671875 -1.6875 4.09375 -2.5 4.09375 -2.90625 Z M 4.09375 -2.90625 "
           id="path50" />
      </symbol>
      <symbol
         overflow="visible"
         id="glyph3-0">
        <path
           style="stroke:none;"
           d=""
           id="path53" />
      </symbol>
      <symbol
         overflow="visible"
         id="glyph3-1">
        <path
           style="stroke:none;"
           d="M 4.40625 -0.515625 C 4.28125 -0.515625 4.234375 -0.515625 4.203125 -0.515625 C 3.890625 -0.515625 3.796875 -0.609375 3.796875 -1.015625 L 3.796875 -6.109375 L 3.765625 -6.125 C 3.34375 -5.984375 3.03125 -5.890625 2.4375 -5.734375 L 2.4375 -5.59375 C 2.515625 -5.59375 2.5625 -5.59375 2.640625 -5.59375 C 2.96875 -5.59375 3.046875 -5.5 3.046875 -5.140625 L 3.046875 -3.734375 C 2.703125 -4.03125 2.46875 -4.125 2.109375 -4.125 C 1.078125 -4.125 0.234375 -3.109375 0.234375 -1.84375 C 0.234375 -0.6875 0.90625 0.09375 1.90625 0.09375 C 2.40625 0.09375 2.75 -0.09375 3.046875 -0.515625 L 3.046875 0.0625 L 3.078125 0.09375 L 4.40625 -0.375 Z M 3.046875 -0.921875 C 3.046875 -0.859375 2.984375 -0.75 2.890625 -0.640625 C 2.75 -0.46875 2.515625 -0.375 2.25 -0.375 C 1.5 -0.375 1.015625 -1.09375 1.015625 -2.203125 C 1.015625 -3.203125 1.453125 -3.875 2.140625 -3.875 C 2.625 -3.875 3.046875 -3.453125 3.046875 -2.984375 Z M 3.046875 -0.921875 "
           id="path56" />
      </symbol>
      <symbol
         overflow="visible"
         id="glyph3-2">
        <path
           style="stroke:none;"
           d="M 2.828125 -2.8125 L 2.796875 -4.046875 L 2.6875 -4.046875 C 2.640625 -3.96875 2.59375 -3.953125 2.546875 -3.953125 C 2.5 -3.953125 2.40625 -3.96875 2.3125 -4.015625 C 2.09375 -4.078125 1.890625 -4.125 1.671875 -4.125 C 0.96875 -4.125 0.453125 -3.65625 0.453125 -3.015625 C 0.453125 -2.515625 0.75 -2.15625 1.5 -1.71875 L 2.03125 -1.421875 C 2.34375 -1.25 2.5 -1.03125 2.5 -0.75 C 2.5 -0.359375 2.203125 -0.109375 1.75 -0.109375 C 1.125 -0.109375 0.8125 -0.453125 0.609375 -1.359375 L 0.46875 -1.359375 L 0.46875 0.03125 L 0.578125 0.03125 C 0.640625 -0.046875 0.6875 -0.078125 0.796875 -0.078125 C 0.890625 -0.078125 1 -0.046875 1.203125 0 C 1.4375 0.046875 1.671875 0.09375 1.859375 0.09375 C 2.5625 0.09375 3.125 -0.4375 3.125 -1.0625 C 3.125 -1.5 2.90625 -1.796875 2.375 -2.125 L 1.40625 -2.703125 C 1.140625 -2.859375 1.015625 -3.0625 1.015625 -3.3125 C 1.015625 -3.671875 1.296875 -3.921875 1.703125 -3.921875 C 2.21875 -3.921875 2.484375 -3.625 2.6875 -2.8125 Z M 2.828125 -2.8125 "
           id="path59" />
      </symbol>
      <symbol
         overflow="visible"
         id="glyph3-3">
        <path
           style="stroke:none;"
           d="M 0.1875 0 L 2.3125 0 L 2.3125 -0.140625 C 1.734375 -0.15625 1.640625 -0.25 1.625 -0.75 L 1.625 -6.109375 L 1.59375 -6.125 C 1.140625 -5.984375 0.8125 -5.890625 0.171875 -5.734375 L 0.171875 -5.59375 L 0.21875 -5.59375 C 0.328125 -5.59375 0.4375 -5.609375 0.5 -5.609375 C 0.796875 -5.609375 0.875 -5.484375 0.875 -5.0625 L 0.875 -0.78125 C 0.875 -0.296875 0.75 -0.171875 0.1875 -0.140625 Z M 0.1875 0 "
           id="path62" />
      </symbol>
      <symbol
         overflow="visible"
         id="glyph3-4">
        <path
           style="stroke:none;"
           d="M 2.25 -4.125 C 1.0625 -4.125 0.265625 -3.265625 0.265625 -2.03125 C 0.265625 -0.8125 1.09375 0.09375 2.21875 0.09375 C 3.359375 0.09375 4.21875 -0.859375 4.21875 -2.09375 C 4.21875 -3.28125 3.390625 -4.125 2.25 -4.125 Z M 2.125 -3.875 C 2.875 -3.875 3.40625 -3.015625 3.40625 -1.78125 C 3.40625 -0.765625 3 -0.15625 2.328125 -0.15625 C 1.984375 -0.15625 1.65625 -0.375 1.46875 -0.734375 C 1.203125 -1.203125 1.0625 -1.828125 1.0625 -2.46875 C 1.0625 -3.3125 1.484375 -3.875 2.125 -3.875 Z M 2.125 -3.875 "
           id="path65" />
      </symbol>
      <symbol
         overflow="visible"
         id="glyph3-5">
        <path
           style="stroke:none;"
           d="M 0.046875 1.953125 L 2.21875 1.953125 L 2.21875 1.78125 C 1.546875 1.78125 1.4375 1.6875 1.421875 1.109375 L 1.421875 -0.296875 C 1.75 0 1.953125 0.09375 2.328125 0.09375 C 3.40625 0.09375 4.21875 -0.921875 4.21875 -2.21875 C 4.21875 -3.328125 3.59375 -4.125 2.71875 -4.125 C 2.21875 -4.125 1.828125 -3.90625 1.421875 -3.421875 L 1.421875 -4.109375 L 1.375 -4.125 C 0.890625 -3.9375 0.578125 -3.828125 0.078125 -3.671875 L 0.078125 -3.53125 C 0.15625 -3.53125 0.21875 -3.53125 0.3125 -3.53125 C 0.609375 -3.53125 0.671875 -3.4375 0.671875 -3.015625 L 0.671875 1.171875 C 0.671875 1.65625 0.578125 1.734375 0.046875 1.796875 Z M 1.421875 -3 C 1.421875 -3.265625 1.921875 -3.59375 2.34375 -3.59375 C 3 -3.59375 3.4375 -2.90625 3.4375 -1.859375 C 3.4375 -0.875 3 -0.203125 2.359375 -0.203125 C 1.9375 -0.203125 1.421875 -0.515625 1.421875 -0.796875 Z M 1.421875 -3 "
           id="path68" />
      </symbol>
      <symbol
         overflow="visible"
         id="glyph3-6">
        <path
           style="stroke:none;"
           d="M 3.65625 -1.46875 C 3.234375 -0.796875 2.84375 -0.53125 2.265625 -0.53125 C 1.765625 -0.53125 1.375 -0.796875 1.109375 -1.296875 C 0.953125 -1.640625 0.890625 -1.921875 0.875 -2.484375 L 3.625 -2.484375 C 3.5625 -3.0625 3.46875 -3.328125 3.25 -3.609375 C 2.984375 -3.9375 2.5625 -4.125 2.09375 -4.125 C 1.65625 -4.125 1.234375 -3.96875 0.890625 -3.65625 C 0.46875 -3.296875 0.21875 -2.65625 0.21875 -1.921875 C 0.21875 -0.6875 0.875 0.09375 1.90625 0.09375 C 2.75 0.09375 3.421875 -0.4375 3.796875 -1.40625 Z M 0.890625 -2.765625 C 0.984375 -3.46875 1.296875 -3.796875 1.84375 -3.796875 C 2.390625 -3.796875 2.59375 -3.546875 2.71875 -2.765625 Z M 0.890625 -2.765625 "
           id="path71" />
      </symbol>
      <symbol
         overflow="visible"
         id="glyph3-7">
        <path
           style="stroke:none;"
           d="M 0.140625 0 L 2.265625 0 L 2.265625 -0.140625 C 1.671875 -0.171875 1.609375 -0.265625 1.609375 -0.921875 L 1.609375 -4.09375 L 1.5625 -4.125 L 0.171875 -3.625 L 0.171875 -3.5 L 0.25 -3.5 C 0.359375 -3.53125 0.46875 -3.53125 0.5625 -3.53125 C 0.765625 -3.53125 0.859375 -3.390625 0.859375 -3 L 0.859375 -0.921875 C 0.828125 -0.25 0.75 -0.15625 0.140625 -0.140625 Z M 1.140625 -6.125 C 0.90625 -6.125 0.703125 -5.921875 0.703125 -5.671875 C 0.703125 -5.40625 0.890625 -5.203125 1.140625 -5.203125 C 1.421875 -5.203125 1.609375 -5.40625 1.609375 -5.671875 C 1.609375 -5.921875 1.40625 -6.125 1.140625 -6.125 Z M 1.140625 -6.125 "
           id="path74" />
      </symbol>
      <symbol
         overflow="visible"
         id="glyph3-8">
        <path
           style="stroke:none;"
           d="M 0.15625 0 L 2.0625 0 L 2.0625 -0.140625 C 1.609375 -0.15625 1.46875 -0.28125 1.46875 -0.59375 L 1.46875 -3.125 C 1.90625 -3.53125 2.09375 -3.625 2.390625 -3.625 C 2.828125 -3.625 3.046875 -3.359375 3.046875 -2.765625 L 3.046875 -0.890625 C 3.03125 -0.3125 2.921875 -0.15625 2.484375 -0.140625 L 2.484375 0 L 4.34375 0 L 4.34375 -0.140625 C 3.90625 -0.171875 3.8125 -0.28125 3.796875 -0.71875 L 3.796875 -2.78125 C 3.796875 -3.625 3.40625 -4.125 2.75 -4.125 C 2.328125 -4.125 2.046875 -3.96875 1.4375 -3.40625 L 1.4375 -4.109375 L 1.375 -4.125 C 0.921875 -3.953125 0.609375 -3.859375 0.140625 -3.71875 L 0.140625 -3.5625 C 0.203125 -3.59375 0.28125 -3.609375 0.390625 -3.609375 C 0.640625 -3.609375 0.71875 -3.46875 0.71875 -3.03125 L 0.71875 -0.8125 C 0.703125 -0.28125 0.609375 -0.15625 0.15625 -0.140625 Z M 0.15625 0 "
           id="path77" />
      </symbol>
      <symbol
         overflow="visible"
         id="glyph3-9">
        <path
           style="stroke:none;"
           d="M 0.34375 -2.3125 L 0.34375 -1.734375 L 2.5625 -1.734375 L 2.5625 -2.3125 Z M 0.34375 -2.3125 "
           id="path80" />
      </symbol>
      <symbol
         overflow="visible"
         id="glyph3-10">
        <path
           style="stroke:none;"
           d="M 3.96875 -0.59375 C 3.8125 -0.46875 3.703125 -0.421875 3.5625 -0.421875 C 3.359375 -0.421875 3.296875 -0.546875 3.296875 -0.9375 L 3.296875 -2.6875 C 3.296875 -3.15625 3.25 -3.421875 3.125 -3.625 C 2.921875 -3.953125 2.53125 -4.125 2.015625 -4.125 C 1.171875 -4.125 0.5 -3.6875 0.5 -3.125 C 0.5 -2.921875 0.671875 -2.734375 0.890625 -2.734375 C 1.109375 -2.734375 1.296875 -2.921875 1.296875 -3.109375 C 1.296875 -3.140625 1.28125 -3.1875 1.28125 -3.25 C 1.25 -3.34375 1.25 -3.40625 1.25 -3.46875 C 1.25 -3.71875 1.53125 -3.90625 1.890625 -3.90625 C 2.328125 -3.90625 2.578125 -3.65625 2.578125 -3.171875 L 2.578125 -2.625 C 1.203125 -2.078125 1.046875 -1.984375 0.65625 -1.65625 C 0.453125 -1.46875 0.328125 -1.171875 0.328125 -0.875 C 0.328125 -0.3125 0.71875 0.09375 1.28125 0.09375 C 1.671875 0.09375 2.03125 -0.09375 2.578125 -0.5625 C 2.625 -0.09375 2.796875 0.09375 3.15625 0.09375 C 3.46875 0.09375 3.65625 -0.015625 3.96875 -0.359375 Z M 2.578125 -1.109375 C 2.578125 -0.828125 2.53125 -0.734375 2.34375 -0.625 C 2.109375 -0.5 1.875 -0.4375 1.6875 -0.4375 C 1.375 -0.4375 1.125 -0.734375 1.125 -1.125 L 1.125 -1.15625 C 1.125 -1.6875 1.53125 -2.03125 2.578125 -2.40625 Z M 2.578125 -1.109375 "
           id="path83" />
      </symbol>
      <symbol
         overflow="visible"
         id="glyph4-0">
        <path
           style="stroke:none;"
           d=""
           id="path86" />
      </symbol>
      <symbol
         overflow="visible"
         id="glyph4-1">
        <path
           style="stroke:none;"
           d="M 6.75 -2.921875 L 6.75 -3.421875 L 0.75 -3.421875 L 0.75 -2.921875 Z M 6.75 -1.109375 L 6.75 -1.609375 L 0.75 -1.609375 L 0.75 -1.109375 Z M 6.75 -1.109375 "
           id="path89" />
      </symbol>
      <symbol
         overflow="visible"
         id="glyph4-2">
        <path
           style="stroke:none;"
           d="M 6.75 -2.03125 L 6.75 -2.484375 L 3.96875 -2.484375 L 3.96875 -5.25 L 3.53125 -5.25 L 3.53125 -2.484375 L 0.75 -2.484375 L 0.75 -2.03125 L 3.53125 -2.03125 L 3.53125 0.734375 L 3.96875 0.734375 L 3.96875 -2.03125 Z M 6.75 -2.03125 "
           id="path92" />
      </symbol>
      <symbol
         overflow="visible"
         id="glyph5-0">
        <path
           style="stroke:none;"
           d=""
           id="path95" />
      </symbol>
      <symbol
         overflow="visible"
         id="glyph5-1">
        <path
           style="stroke:none;"
           d="M 4.390625 0.640625 C 4.28125 0.609375 4.234375 0.59375 4.203125 0.59375 C 3.90625 0.5 3.828125 0.390625 3.9375 0 L 5.25 -4.921875 L 5.21875 -4.953125 C 4.78125 -4.921875 4.4375 -4.90625 3.84375 -4.921875 L 3.8125 -4.78125 C 3.890625 -4.75 3.921875 -4.75 4 -4.71875 C 4.328125 -4.640625 4.359375 -4.53125 4.265625 -4.1875 L 3.90625 -2.828125 C 3.65625 -3.1875 3.453125 -3.34375 3.09375 -3.4375 C 2.109375 -3.703125 1.015625 -2.9375 0.703125 -1.71875 C 0.390625 -0.609375 0.84375 0.328125 1.8125 0.59375 C 2.296875 0.71875 2.6875 0.625 3.078125 0.28125 L 2.921875 0.84375 L 2.9375 0.890625 L 4.34375 0.78125 Z M 3.171875 -0.109375 C 3.15625 -0.046875 3.078125 0.046875 2.96875 0.125 C 2.78125 0.265625 2.53125 0.296875 2.265625 0.21875 C 1.546875 0.03125 1.265625 -0.796875 1.546875 -1.859375 C 1.8125 -2.828125 2.40625 -3.375 3.0625 -3.203125 C 3.53125 -3.078125 3.828125 -2.546875 3.703125 -2.109375 Z M 3.171875 -0.109375 "
           id="path98" />
      </symbol>
      <symbol
         overflow="visible"
         id="glyph6-0">
        <path
           style="stroke:none;"
           d=""
           id="path101" />
      </symbol>
      <symbol
         overflow="visible"
         id="glyph6-1">
        <path
           style="stroke:none;"
           d="M 5.453125 -2.4375 C 5.515625 -2.640625 5.34375 -2.8125 5.1875 -2.84375 C 4.75 -2.96875 4.015625 -2.46875 3.40625 -1.90625 C 3.390625 -1.90625 3.40625 -2.203125 3.40625 -2.203125 C 3.421875 -2.8125 3.34375 -3.1875 3.078125 -3.40625 C 3.078125 -3.40625 2.046875 -3.484375 1.921875 -3.46875 L 1.875 -3.3125 C 2.078125 -3.3125 2.203125 -3.3125 2.296875 -3.28125 C 2.78125 -3.15625 2.734375 -2.671875 2.734375 -1.328125 C 2.1875 -0.859375 1.296875 -0.046875 1.0625 -0.109375 C 0.859375 -0.171875 0.90625 -0.390625 0.640625 -0.46875 C 0.453125 -0.515625 0.296875 -0.40625 0.25 -0.21875 C 0.1875 0 0.296875 0.203125 0.546875 0.265625 C 1.15625 0.421875 2.015625 -0.515625 2.71875 -1.046875 C 2.734375 -0.96875 2.71875 -0.15625 2.71875 -0.15625 C 2.734375 0.703125 2.859375 0.875 3.0625 0.9375 C 3.328125 1.015625 3.8125 0.84375 4.4375 0.203125 L 4.328125 0.09375 C 4.125 0.25 3.78125 0.59375 3.546875 0.53125 C 3.25 0.453125 3.40625 -0.8125 3.40625 -1.65625 C 3.46875 -1.703125 4.328125 -2.515625 4.65625 -2.421875 C 4.8125 -2.375 4.921875 -2.21875 5.078125 -2.171875 C 5.28125 -2.109375 5.40625 -2.265625 5.453125 -2.4375 Z M 5.453125 -2.4375 "
           id="path104" />
      </symbol>
      <symbol
         overflow="visible"
         id="glyph7-0">
        <path
           style="stroke:none;"
           d=""
           id="path107" />
      </symbol>
      <symbol
         overflow="visible"
         id="glyph7-1">
        <path
           style="stroke:none;"
           d="M 3.546875 -2.65625 C 3.4375 -2.59375 3.390625 -2.578125 3.375 -2.5625 C 3.09375 -2.40625 2.96875 -2.4375 2.765625 -2.78125 L 0.21875 -7.1875 L 0.171875 -7.1875 C -0.109375 -6.84375 -0.328125 -6.609375 -0.765625 -6.171875 L -0.703125 -6.0625 C -0.640625 -6.109375 -0.59375 -6.125 -0.53125 -6.171875 C -0.25 -6.328125 -0.125 -6.28125 0.0625 -5.984375 L 0.765625 -4.765625 C 0.328125 -4.84375 0.078125 -4.796875 -0.234375 -4.625 C -1.125 -4.109375 -1.359375 -2.8125 -0.71875 -1.71875 C -0.140625 -0.71875 0.828125 -0.375 1.703125 -0.875 C 2.125 -1.125 2.328125 -1.453125 2.375 -1.984375 L 2.671875 -1.484375 L 2.703125 -1.46875 L 3.625 -2.53125 Z M 2.171875 -2.328125 C 2.203125 -2.28125 2.203125 -2.15625 2.171875 -2 C 2.140625 -1.78125 1.984375 -1.59375 1.765625 -1.453125 C 1.109375 -1.078125 0.328125 -1.46875 -0.234375 -2.421875 C -0.734375 -3.28125 -0.6875 -4.09375 -0.078125 -4.4375 C 0.328125 -4.671875 0.90625 -4.515625 1.140625 -4.109375 Z M 2.171875 -2.328125 "
           id="path110" />
      </symbol>
      <symbol
         overflow="visible"
         id="glyph8-0">
        <path
           style="stroke:none;"
           d=""
           id="path113" />
      </symbol>
      <symbol
         overflow="visible"
         id="glyph8-1">
        <path
           style="stroke:none;"
           d="M 2.296875 -5.375 C 2.09375 -5.703125 1.8125 -5.78125 1.5625 -5.640625 C 1.390625 -5.53125 1.34375 -5.3125 1.4375 -5.15625 C 1.671875 -4.765625 2.046875 -5.125 2.1875 -4.859375 C 2.484375 -4.359375 2.28125 -2.4375 2.265625 -1.96875 C 1.28125 -3.484375 0.390625 -4.515625 -0.078125 -4.6875 L -1.09375 -3.84375 L -1.015625 -3.703125 C -0.9375 -3.75 -0.84375 -3.828125 -0.734375 -3.890625 C -0.15625 -4.234375 0.21875 -3.671875 2.125 -1.0625 C 2.21875 -0.671875 1.96875 0.53125 1.765625 0.640625 C 1.625 0.71875 1.484375 0.453125 1.234375 0.59375 C 1.046875 0.703125 0.984375 0.96875 1.09375 1.15625 C 1.234375 1.390625 1.515625 1.328125 1.625 1.265625 C 2.15625 0.96875 2.421875 -0.75 2.515625 -2.390625 C 2.609375 -3.875 2.546875 -4.921875 2.296875 -5.375 Z M 2.296875 -5.375 "
           id="path116" />
      </symbol>
    </g>
    <clipPath
       id="clip1">
      <path
         d="M 0 125 L 191 125 L 191 186.800781 L 0 186.800781 Z M 0 125 "
         id="path121" />
    </clipPath>
  </defs>
  <g
     id="surface1">
    <path
       style=" stroke:none;fill-rule:nonzero;fill:rgb(0%,0%,0%);fill-opacity:1;"
       d="M 180.832031 181.8125 L 184.726562 181.496094 L 181.511719 179.273438 L 182.59375 180.925781 "
       id="path126" />
    <g
       clip-path="url(#clip1)"
       clip-rule="nonzero"
       id="g130">
      <path
         style="fill:none;stroke-width:5.67043;stroke-linecap:butt;stroke-linejoin:miter;stroke:rgb(0%,0%,0%);stroke-opacity:1;stroke-miterlimit:10;"
         d="M 37.617188 537.765625 L 1825.9375 58.742188 "
         transform="matrix(0.1,0,0,-0.1,0,186.8)"
         id="path128" />
    </g>
    <path
       style=" stroke:none;fill-rule:nonzero;fill:rgb(0%,0%,0%);fill-opacity:1;"
       d="M 54.128906 105.390625 L 56.65625 102.40625 L 52.8125 103.113281 L 54.746094 103.515625 "
       id="path132" />
    <path
       style="fill:none;stroke-width:5.67043;stroke-linecap:butt;stroke-linejoin:miter;stroke:rgb(0%,0%,0%);stroke-opacity:1;stroke-miterlimit:10;"
       d="M 37.617188 537.765625 L 547.460938 832.84375 "
       transform="matrix(0.1,0,0,-0.1,0,186.8)"
       id="path134" />
    <path
       style=" stroke:none;fill-rule:nonzero;fill:rgb(0%,0%,0%);fill-opacity:1;"
       d="M 5.074219 55.742188 L 3.761719 52.0625 L 2.445312 55.742188 L 3.761719 54.273438 "
       id="path136" />
    <path
       style="fill:none;stroke-width:5.67043;stroke-linecap:butt;stroke-linejoin:miter;stroke:rgb(0%,0%,0%);stroke-opacity:1;stroke-miterlimit:10;"
       d="M 37.617188 537.765625 L 37.617188 1325.265625 "
       transform="matrix(0.1,0,0,-0.1,0,186.8)"
       id="path138" />
    <path
       style=" stroke:none;fill-rule:nonzero;fill:rgb(75%,75%,75%);fill-opacity:1;"
       d="M 87.867188 91.777344 L 55.464844 120.097656 L 120.265625 111.761719 L 185.066406 54.957031 L 120.265625 63.460938 "
       id="path140" />
    <path
       style="fill:none;stroke-width:5.67043;stroke-linecap:butt;stroke-linejoin:miter;stroke:rgb(0%,0%,0%);stroke-opacity:1;stroke-miterlimit:10;"
       d="M 878.671875 950.226562 L 554.648438 667.023438 L 1202.65625 750.382812 L 1850.664062 1318.429688 L 1202.65625 1233.390625 Z M 878.671875 950.226562 "
       transform="matrix(0.1,0,0,-0.1,0,186.8)"
       id="path142" />
    <path
       style="fill:none;stroke-width:5.67043;stroke-linecap:butt;stroke-linejoin:miter;stroke:rgb(0%,0%,0%);stroke-opacity:1;stroke-miterlimit:10;"
       d="M 554.648438 667.023438 L 554.648438 537.765625 L 1202.65625 364.289062 L 1850.664062 740.1875 L 1850.664062 1318.429688 "
       transform="matrix(0.1,0,0,-0.1,0,186.8)"
       id="path144" />
    <path
       style="fill:none;stroke-width:5.67043;stroke-linecap:butt;stroke-linejoin:miter;stroke:rgb(0%,0%,0%);stroke-opacity:1;stroke-miterlimit:10;"
       d="M 554.648438 667.023438 L 1202.65625 493.546875 L 1850.664062 869.445312 "
       transform="matrix(0.1,0,0,-0.1,0,186.8)"
       id="path146" />
    <path
       style="fill:none;stroke-width:5.67043;stroke-linecap:butt;stroke-linejoin:miter;stroke:rgb(0%,0%,0%);stroke-opacity:1;stroke-miterlimit:10;"
       d="M 1202.65625 750.382812 L 1850.664062 1126.242188 "
       transform="matrix(0.1,0,0,-0.1,0,186.8)"
       id="path148" />
    <path
       style="fill:none;stroke-width:5.67043;stroke-linecap:butt;stroke-linejoin:miter;stroke:rgb(0%,0%,0%);stroke-opacity:1;stroke-miterlimit:10;"
       d="M 1202.65625 364.289062 L 1202.65625 750.382812 "
       transform="matrix(0.1,0,0,-0.1,0,186.8)"
       id="path150" />
    <g
       style="fill:rgb(0%,0%,0%);fill-opacity:1;"
       id="g154">
      <use
         xlink:href="#glyph0-1"
         x="185.587"
         y="56.765"
         id="use152" />
    </g>
    <g
       style="fill:rgb(0%,0%,0%);fill-opacity:1;"
       id="g158">
      <use
         xlink:href="#glyph0-2"
         x="191.46669"
         y="54.12516"
         id="use156" />
    </g>
    <g
       style="fill:rgb(0%,0%,0%);fill-opacity:1;"
       id="g162">
      <use
         xlink:href="#glyph1-1"
         x="198.787"
         y="60.365"
         id="use160" />
    </g>
    <g
       style="fill:rgb(0%,0%,0%);fill-opacity:1;"
       id="g166">
      <use
         xlink:href="#glyph1-2"
         x="202.02684"
         y="60.365"
         id="use164" />
    </g>
    <path
       style=" stroke:none;fill-rule:nonzero;fill:rgb(0%,0%,0%);fill-opacity:1;"
       d="M 198.773438 64.097656 L 209.214844 64.097656 L 209.214844 64.578125 L 198.773438 64.578125 Z M 198.773438 64.097656 "
       id="path168" />
    <g
       style="fill:rgb(0%,0%,0%);fill-opacity:1;"
       id="g172">
      <use
         xlink:href="#glyph1-1"
         x="199.147"
         y="73.085"
         id="use170" />
    </g>
    <g
       style="fill:rgb(0%,0%,0%);fill-opacity:1;"
       id="g176">
      <use
         xlink:href="#glyph1-3"
         x="203.227077"
         y="73.085"
         id="use174" />
    </g>
    <g
       style="fill:rgb(0%,0%,0%);fill-opacity:1;"
       id="g180">
      <use
         xlink:href="#glyph0-3"
         x="210.3072"
         y="54.1252"
         id="use178" />
    </g>
    <g
       style="fill:rgb(0%,0%,0%);fill-opacity:1;"
       id="g184">
      <use
         xlink:href="#glyph2-1"
         x="216.3072"
         y="75.485"
         id="use182" />
    </g>
    <g
       style="fill:rgb(0%,0%,0%);fill-opacity:1;"
       id="g188">
      <use
         xlink:href="#glyph3-1"
         x="223.02712"
         y="66.60492"
         id="use186" />
    </g>
    <g
       style="fill:rgb(0%,0%,0%);fill-opacity:1;"
       id="g192">
      <use
         xlink:href="#glyph1-3"
         x="227.46696"
         y="66.60492"
         id="use190" />
    </g>
    <g
       style="fill:rgb(0%,0%,0%);fill-opacity:1;"
       id="g196">
      <use
         xlink:href="#glyph0-4"
         x="185.58726"
         y="73.93578"
         id="use194" />
    </g>
    <g
       style="fill:rgb(0%,0%,0%);fill-opacity:1;"
       id="g200">
      <use
         xlink:href="#glyph0-2"
         x="192.18726"
         y="76.69555"
         id="use198" />
    </g>
    <g
       style="fill:rgb(0%,0%,0%);fill-opacity:1;"
       id="g204">
      <use
         xlink:href="#glyph1-1"
         x="199.50718"
         y="83.05571"
         id="use202" />
    </g>
    <g
       style="fill:rgb(0%,0%,0%);fill-opacity:1;"
       id="g208">
      <use
         xlink:href="#glyph1-2"
         x="202.74702"
         y="83.05571"
         id="use206" />
    </g>
    <path
       style=" stroke:none;fill-rule:nonzero;fill:rgb(0%,0%,0%);fill-opacity:1;"
       d="M 199.496094 86.789062 L 209.9375 86.789062 L 209.9375 87.269531 L 199.496094 87.269531 Z M 199.496094 86.789062 "
       id="path210" />
    <g
       style="fill:rgb(0%,0%,0%);fill-opacity:1;"
       id="g214">
      <use
         xlink:href="#glyph1-1"
         x="199.747"
         y="95.6559"
         id="use212" />
    </g>
    <g
       style="fill:rgb(0%,0%,0%);fill-opacity:1;"
       id="g218">
      <use
         xlink:href="#glyph1-4"
         x="204.186842"
         y="95.6559"
         id="use216" />
    </g>
    <g
       style="fill:rgb(0%,0%,0%);fill-opacity:1;"
       id="g222">
      <use
         xlink:href="#glyph0-3"
         x="211.0271"
         y="76.6957"
         id="use220" />
    </g>
    <g
       style="fill:rgb(0%,0%,0%);fill-opacity:1;"
       id="g226">
      <use
         xlink:href="#glyph2-2"
         x="216.66694"
         y="98.0559"
         id="use224" />
    </g>
    <g
       style="fill:rgb(0%,0%,0%);fill-opacity:1;"
       id="g230">
      <use
         xlink:href="#glyph3-1"
         x="223.50717"
         y="89.29574"
         id="use228" />
    </g>
    <g
       style="fill:rgb(0%,0%,0%);fill-opacity:1;"
       id="g234">
      <use
         xlink:href="#glyph1-4"
         x="227.94701"
         y="89.29574"
         id="use232" />
    </g>
    <g
       style="fill:rgb(0%,0%,0%);fill-opacity:1;"
       id="g238">
      <use
         xlink:href="#glyph0-5"
         x="234.00092"
         y="54.31054"
         id="use236" />
    </g>
    <g
       style="fill:rgb(0%,0%,0%);fill-opacity:1;"
       id="g242">
      <use
         xlink:href="#glyph0-6"
         x="234.00092"
         y="62.35077"
         id="use240" />
    </g>
    <g
       style="fill:rgb(0%,0%,0%);fill-opacity:1;"
       id="g246">
      <use
         xlink:href="#glyph0-6"
         x="234.00092"
         y="65.11054"
         id="use244" />
    </g>
    <g
       style="fill:rgb(0%,0%,0%);fill-opacity:1;"
       id="g250">
      <use
         xlink:href="#glyph0-7"
         x="234.00092"
         y="67.75077"
         id="use248" />
    </g>
    <g
       style="fill:rgb(0%,0%,0%);fill-opacity:1;"
       id="g254">
      <use
         xlink:href="#glyph0-6"
         x="234.00092"
         y="83.95077"
         id="use252" />
    </g>
    <g
       style="fill:rgb(0%,0%,0%);fill-opacity:1;"
       id="g258">
      <use
         xlink:href="#glyph0-6"
         x="234.00092"
         y="86.59061"
         id="use256" />
    </g>
    <g
       style="fill:rgb(0%,0%,0%);fill-opacity:1;"
       id="g262">
      <use
         xlink:href="#glyph0-8"
         x="234.00092"
         y="89.23045"
         id="use260" />
    </g>
    <g
       style="fill:rgb(0%,0%,0%);fill-opacity:1;"
       id="g266">
      <use
         xlink:href="#glyph3-1"
         x="242.52084"
         y="78.07065"
         id="use264" />
    </g>
    <g
       style="fill:rgb(0%,0%,0%);fill-opacity:1;"
       id="g270">
      <use
         xlink:href="#glyph1-2"
         x="245.881"
         y="78.07065"
         id="use268" />
    </g>
    <g
       style="fill:rgb(0%,0%,0%);fill-opacity:1;"
       id="g274">
      <use
         xlink:href="#glyph4-1"
         x="255.481"
         y="78.07065"
         id="use272" />
    </g>
    <g
       style="fill:rgb(0%,0%,0%);fill-opacity:1;"
       id="g278">
      <use
         xlink:href="#glyph0-2"
         x="265.44116"
         y="65.59055"
         id="use276" />
    </g>
    <g
       style="fill:rgb(0%,0%,0%);fill-opacity:1;"
       id="g282">
      <use
         xlink:href="#glyph1-1"
         x="272.64116"
         y="71.83039"
         id="use280" />
    </g>
    <g
       style="fill:rgb(0%,0%,0%);fill-opacity:1;"
       id="g286">
      <use
         xlink:href="#glyph1-2"
         x="275.881"
         y="71.83039"
         id="use284" />
    </g>
    <path
       style=" stroke:none;fill-rule:nonzero;fill:rgb(0%,0%,0%);fill-opacity:1;"
       d="M 272.628906 75.5625 L 283.070312 75.5625 L 283.070312 76.042969 L 272.628906 76.042969 Z M 272.628906 75.5625 "
       id="path288" />
    <g
       style="fill:rgb(0%,0%,0%);fill-opacity:1;"
       id="g292">
      <use
         xlink:href="#glyph1-1"
         x="272.881"
         y="84.43"
         id="use290" />
    </g>
    <g
       style="fill:rgb(0%,0%,0%);fill-opacity:1;"
       id="g296">
      <use
         xlink:href="#glyph1-4"
         x="277.320842"
         y="84.43"
         id="use294" />
    </g>
    <g
       style="fill:rgb(0%,0%,0%);fill-opacity:1;"
       id="g300">
      <use
         xlink:href="#glyph0-3"
         x="284.1611"
         y="65.5902"
         id="use298" />
    </g>
    <g
       style="fill:rgb(0%,0%,0%);fill-opacity:1;"
       id="g304">
      <use
         xlink:href="#glyph2-2"
         x="289.92087"
         y="86.83"
         id="use302" />
    </g>
    <g
       style="fill:rgb(0%,0%,0%);fill-opacity:1;"
       id="g308">
      <use
         xlink:href="#glyph3-1"
         x="296.64118"
         y="78.07023"
         id="use306" />
    </g>
    <g
       style="fill:rgb(0%,0%,0%);fill-opacity:1;"
       id="g312">
      <use
         xlink:href="#glyph1-4"
         x="301.08102"
         y="78.07023"
         id="use310" />
    </g>
    <g
       style="fill:rgb(0%,0%,0%);fill-opacity:1;"
       id="g316">
      <use
         xlink:href="#glyph4-2"
         x="308.52086"
         y="78.07023"
         id="use314" />
    </g>
    <g
       style="fill:rgb(0%,0%,0%);fill-opacity:1;"
       id="g320">
      <use
         xlink:href="#glyph0-2"
         x="318.00094"
         y="65.59013"
         id="use318" />
    </g>
    <g
       style="fill:rgb(0%,0%,0%);fill-opacity:1;"
       id="g324">
      <use
         xlink:href="#glyph1-1"
         x="325.20094"
         y="71.82997"
         id="use322" />
    </g>
    <g
       style="fill:rgb(0%,0%,0%);fill-opacity:1;"
       id="g328">
      <use
         xlink:href="#glyph1-2"
         x="328.44078"
         y="71.82997"
         id="use326" />
    </g>
    <path
       style=" stroke:none;fill-rule:nonzero;fill:rgb(0%,0%,0%);fill-opacity:1;"
       d="M 325.1875 75.5625 L 335.628906 75.5625 L 335.628906 76.042969 L 325.1875 76.042969 Z M 325.1875 75.5625 "
       id="path330" />
    <g
       style="fill:rgb(0%,0%,0%);fill-opacity:1;"
       id="g334">
      <use
         xlink:href="#glyph1-1"
         x="325.561"
         y="84.43"
         id="use332" />
    </g>
    <g
       style="fill:rgb(0%,0%,0%);fill-opacity:1;"
       id="g338">
      <use
         xlink:href="#glyph1-3"
         x="329.641077"
         y="84.43"
         id="use336" />
    </g>
    <g
       style="fill:rgb(0%,0%,0%);fill-opacity:1;"
       id="g342">
      <use
         xlink:href="#glyph0-3"
         x="336.8411"
         y="65.5902"
         id="use340" />
    </g>
    <g
       style="fill:rgb(0%,0%,0%);fill-opacity:1;"
       id="g346">
      <use
         xlink:href="#glyph2-1"
         x="342.8411"
         y="86.83"
         id="use344" />
    </g>
    <g
       style="fill:rgb(0%,0%,0%);fill-opacity:1;"
       id="g350">
      <use
         xlink:href="#glyph3-1"
         x="349.4411"
         y="78.07023"
         id="use348" />
    </g>
    <g
       style="fill:rgb(0%,0%,0%);fill-opacity:1;"
       id="g354">
      <use
         xlink:href="#glyph1-3"
         x="353.88094"
         y="78.07023"
         id="use352" />
    </g>
    <g
       style="fill:rgb(0%,0%,0%);fill-opacity:1;"
       id="g358">
      <use
         xlink:href="#glyph1-4"
         x="187.18994"
         y="184.89523"
         id="use356" />
    </g>
    <g
       style="fill:rgb(0%,0%,0%);fill-opacity:1;"
       id="g362">
      <use
         xlink:href="#glyph1-3"
         x="57.12894"
         y="103.99753"
         id="use360" />
    </g>
    <g
       style="fill:rgb(0%,0%,0%);fill-opacity:1;"
       id="g366">
      <use
         xlink:href="#glyph1-2"
         x="0.16254"
         y="49.24093"
         id="use364" />
    </g>
    <g
       style="fill:rgb(0%,0%,0%);fill-opacity:1;"
       id="g370">
      <use
         xlink:href="#glyph5-1"
         x="81.0211"
         y="148.243"
         id="use368" />
    </g>
    <g
       style="fill:rgb(0%,0%,0%);fill-opacity:1;"
       id="g374">
      <use
         xlink:href="#glyph6-1"
         x="85.310205"
         y="149.391267"
         id="use372" />
    </g>
    <g
       style="fill:rgb(0%,0%,0%);fill-opacity:1;"
       id="g378">
      <use
         xlink:href="#glyph7-1"
         x="152.402"
         y="141.1648"
         id="use376" />
    </g>
    <g
       style="fill:rgb(0%,0%,0%);fill-opacity:1;"
       id="g382">
      <use
         xlink:href="#glyph8-1"
         x="156.242606"
         y="138.937042"
         id="use380" />
    </g>
    <g
       style="fill:rgb(0%,0%,0%);fill-opacity:1;"
       id="g386">
      <use
         xlink:href="#glyph3-2"
         x="106.389"
         y="22.38"
         id="use384" />
    </g>
    <g
       style="fill:rgb(0%,0%,0%);fill-opacity:1;"
       id="g390">
      <use
         xlink:href="#glyph3-3"
         x="109.869073"
         y="22.38"
         id="use388" />
    </g>
    <g
       style="fill:rgb(0%,0%,0%);fill-opacity:1;"
       id="g394">
      <use
         xlink:href="#glyph3-4"
         x="112.388997"
         y="22.38"
         id="use392" />
    </g>
    <g
       style="fill:rgb(0%,0%,0%);fill-opacity:1;"
       id="g398">
      <use
         xlink:href="#glyph3-5"
         x="116.82884"
         y="22.38"
         id="use396" />
    </g>
    <g
       style="fill:rgb(0%,0%,0%);fill-opacity:1;"
       id="g402">
      <use
         xlink:href="#glyph3-6"
         x="121.268683"
         y="22.38"
         id="use400" />
    </g>
    <g
       style="fill:rgb(0%,0%,0%);fill-opacity:1;"
       id="g406">
      <use
         xlink:href="#glyph3-7"
         x="127.50853"
         y="22.38"
         id="use404" />
    </g>
    <g
       style="fill:rgb(0%,0%,0%);fill-opacity:1;"
       id="g410">
      <use
         xlink:href="#glyph3-8"
         x="130.028454"
         y="22.38"
         id="use408" />
    </g>
    <g
       style="fill:rgb(0%,0%,0%);fill-opacity:1;"
       id="g414">
      <use
         xlink:href="#glyph1-2"
         x="136.7488"
         y="22.38"
         id="use412" />
    </g>
    <g
       style="fill:rgb(0%,0%,0%);fill-opacity:1;"
       id="g418">
      <use
         xlink:href="#glyph3-9"
         x="143.82888"
         y="22.38"
         id="use416" />
    </g>
    <g
       style="fill:rgb(0%,0%,0%);fill-opacity:1;"
       id="g422">
      <use
         xlink:href="#glyph1-4"
         x="146.82888"
         y="22.38"
         id="use420" />
    </g>
    <g
       style="fill:rgb(0%,0%,0%);fill-opacity:1;"
       id="g426">
      <use
         xlink:href="#glyph3-5"
         x="154.50896"
         y="22.38"
         id="use424" />
    </g>
    <g
       style="fill:rgb(0%,0%,0%);fill-opacity:1;"
       id="g430">
      <use
         xlink:href="#glyph3-3"
         x="158.948803"
         y="22.38"
         id="use428" />
    </g>
    <g
       style="fill:rgb(0%,0%,0%);fill-opacity:1;"
       id="g434">
      <use
         xlink:href="#glyph3-10"
         x="161.468727"
         y="22.38"
         id="use432" />
    </g>
    <g
       style="fill:rgb(0%,0%,0%);fill-opacity:1;"
       id="g438">
      <use
         xlink:href="#glyph3-8"
         x="165.428889"
         y="22.38"
         id="use436" />
    </g>
    <g
       style="fill:rgb(0%,0%,0%);fill-opacity:1;"
       id="g442">
      <use
         xlink:href="#glyph3-6"
         x="169.868732"
         y="22.38"
         id="use440" />
    </g>
    <g
       style="fill:rgb(0%,0%,0%);fill-opacity:1;"
       id="g446">
      <use
         xlink:href="#glyph4-1"
         x="176.10896"
         y="22.38"
         id="use444" />
    </g>
    <g
       style="fill:rgb(0%,0%,0%);fill-opacity:1;"
       id="g450">
      <use
         xlink:href="#glyph0-2"
         x="186.06912"
         y="9.8999"
         id="use448" />
    </g>
    <g
       style="fill:rgb(0%,0%,0%);fill-opacity:1;"
       id="g454">
      <use
         xlink:href="#glyph1-1"
         x="193.38904"
         y="16.14013"
         id="use452" />
    </g>
    <g
       style="fill:rgb(0%,0%,0%);fill-opacity:1;"
       id="g458">
      <use
         xlink:href="#glyph1-2"
         x="196.62888"
         y="16.14013"
         id="use456" />
    </g>
    <path
       style=" stroke:none;fill-rule:nonzero;fill:rgb(0%,0%,0%);fill-opacity:1;"
       d="M 193.378906 19.871094 L 203.820312 19.871094 L 203.820312 20.351562 L 193.378906 20.351562 Z M 193.378906 19.871094 "
       id="path460" />
    <g
       style="fill:rgb(0%,0%,0%);fill-opacity:1;"
       id="g464">
      <use
         xlink:href="#glyph1-1"
         x="193.629"
         y="28.74"
         id="use462" />
    </g>
    <g
       style="fill:rgb(0%,0%,0%);fill-opacity:1;"
       id="g468">
      <use
         xlink:href="#glyph1-4"
         x="198.068842"
         y="28.74"
         id="use466" />
    </g>
    <g
       style="fill:rgb(0%,0%,0%);fill-opacity:1;"
       id="g472">
      <use
         xlink:href="#glyph0-3"
         x="204.9091"
         y="9.8998"
         id="use470" />
    </g>
    <g
       style="fill:rgb(0%,0%,0%);fill-opacity:1;"
       id="g476">
      <use
         xlink:href="#glyph2-2"
         x="210.54933"
         y="31.14"
         id="use474" />
    </g>
    <path
       style=" stroke:none;fill-rule:nonzero;fill:rgb(0%,0%,0%);fill-opacity:1;"
       d="M 86.695312 112.648438 L 87.867188 115.929688 L 89.039062 112.648438 L 87.867188 113.960938 "
       id="path478" />
    <path
       style="fill:none;stroke-width:4.25176;stroke-linecap:butt;stroke-linejoin:miter;stroke:rgb(0%,0%,0%);stroke-opacity:1;stroke-miterlimit:10;"
       d="M 1041.09375 1658.46875 C 718.320312 1658.46875 878.671875 1031.476562 878.671875 728.390625 "
       transform="matrix(0.1,0,0,-0.1,0,186.8)"
       id="path480" />
    <g
       style="fill:rgb(0%,0%,0%);fill-opacity:1;"
       id="g484">
      <use
         xlink:href="#glyph3-2"
         x="164.216"
         y="39.987"
         id="use482" />
    </g>
    <g
       style="fill:rgb(0%,0%,0%);fill-opacity:1;"
       id="g488">
      <use
         xlink:href="#glyph3-3"
         x="167.696073"
         y="39.987"
         id="use486" />
    </g>
    <g
       style="fill:rgb(0%,0%,0%);fill-opacity:1;"
       id="g492">
      <use
         xlink:href="#glyph3-4"
         x="170.215997"
         y="39.987"
         id="use490" />
    </g>
    <g
       style="fill:rgb(0%,0%,0%);fill-opacity:1;"
       id="g496">
      <use
         xlink:href="#glyph3-5"
         x="174.65584"
         y="39.987"
         id="use494" />
    </g>
    <g
       style="fill:rgb(0%,0%,0%);fill-opacity:1;"
       id="g500">
      <use
         xlink:href="#glyph3-6"
         x="179.095683"
         y="39.987"
         id="use498" />
    </g>
    <g
       style="fill:rgb(0%,0%,0%);fill-opacity:1;"
       id="g504">
      <use
         xlink:href="#glyph3-7"
         x="185.33553"
         y="39.987"
         id="use502" />
    </g>
    <g
       style="fill:rgb(0%,0%,0%);fill-opacity:1;"
       id="g508">
      <use
         xlink:href="#glyph3-8"
         x="187.855454"
         y="39.987"
         id="use506" />
    </g>
    <g
       style="fill:rgb(0%,0%,0%);fill-opacity:1;"
       id="g512">
      <use
         xlink:href="#glyph1-2"
         x="194.5758"
         y="39.987"
         id="use510" />
    </g>
    <g
       style="fill:rgb(0%,0%,0%);fill-opacity:1;"
       id="g516">
      <use
         xlink:href="#glyph3-9"
         x="201.65588"
         y="39.987"
         id="use514" />
    </g>
    <g
       style="fill:rgb(0%,0%,0%);fill-opacity:1;"
       id="g520">
      <use
         xlink:href="#glyph1-3"
         x="204.65588"
         y="39.987"
         id="use518" />
    </g>
    <g
       style="fill:rgb(0%,0%,0%);fill-opacity:1;"
       id="g524">
      <use
         xlink:href="#glyph3-5"
         x="212.45588"
         y="39.987"
         id="use522" />
    </g>
    <g
       style="fill:rgb(0%,0%,0%);fill-opacity:1;"
       id="g528">
      <use
         xlink:href="#glyph3-3"
         x="216.895735"
         y="39.987"
         id="use526" />
    </g>
    <g
       style="fill:rgb(0%,0%,0%);fill-opacity:1;"
       id="g532">
      <use
         xlink:href="#glyph3-10"
         x="219.415659"
         y="39.987"
         id="use530" />
    </g>
    <g
       style="fill:rgb(0%,0%,0%);fill-opacity:1;"
       id="g536">
      <use
         xlink:href="#glyph3-8"
         x="223.375809"
         y="39.987"
         id="use534" />
    </g>
    <g
       style="fill:rgb(0%,0%,0%);fill-opacity:1;"
       id="g540">
      <use
         xlink:href="#glyph3-6"
         x="227.815664"
         y="39.987"
         id="use538" />
    </g>
    <g
       style="fill:rgb(0%,0%,0%);fill-opacity:1;"
       id="g544">
      <use
         xlink:href="#glyph4-1"
         x="234.17578"
         y="39.987"
         id="use542" />
    </g>
    <g
       style="fill:rgb(0%,0%,0%);fill-opacity:1;"
       id="g548">
      <use
         xlink:href="#glyph0-2"
         x="244.13594"
         y="27.5073"
         id="use546" />
    </g>
    <g
       style="fill:rgb(0%,0%,0%);fill-opacity:1;"
       id="g552">
      <use
         xlink:href="#glyph1-1"
         x="251.33594"
         y="33.74714"
         id="use550" />
    </g>
    <g
       style="fill:rgb(0%,0%,0%);fill-opacity:1;"
       id="g556">
      <use
         xlink:href="#glyph1-2"
         x="254.57578"
         y="33.74714"
         id="use554" />
    </g>
    <path
       style=" stroke:none;fill-rule:nonzero;fill:rgb(0%,0%,0%);fill-opacity:1;"
       d="M 251.324219 37.480469 L 261.765625 37.480469 L 261.765625 37.960938 L 251.324219 37.960938 Z M 251.324219 37.480469 "
       id="path558" />
    <g
       style="fill:rgb(0%,0%,0%);fill-opacity:1;"
       id="g562">
      <use
         xlink:href="#glyph1-1"
         x="251.696"
         y="46.468"
         id="use560" />
    </g>
    <g
       style="fill:rgb(0%,0%,0%);fill-opacity:1;"
       id="g566">
      <use
         xlink:href="#glyph1-3"
         x="255.776077"
         y="46.468"
         id="use564" />
    </g>
    <g
       style="fill:rgb(0%,0%,0%);fill-opacity:1;"
       id="g570">
      <use
         xlink:href="#glyph0-3"
         x="262.8562"
         y="27.5082"
         id="use568" />
    </g>
    <g
       style="fill:rgb(0%,0%,0%);fill-opacity:1;"
       id="g574">
      <use
         xlink:href="#glyph2-1"
         x="268.97612"
         y="48.868"
         id="use572" />
    </g>
    <path
       style=" stroke:none;fill-rule:nonzero;fill:rgb(0%,0%,0%);fill-opacity:1;"
       d="M 151.496094 80.078125 L 152.667969 83.359375 L 153.839844 80.078125 L 152.667969 81.390625 "
       id="path576" />
    <path
       style="fill:none;stroke-width:4.25176;stroke-linecap:butt;stroke-linejoin:miter;stroke:rgb(0%,0%,0%);stroke-opacity:1;stroke-miterlimit:10;"
       d="M 1619.375 1488.976562 C 1463.945312 1488.976562 1526.679688 1189.835938 1526.679688 1054.09375 "
       transform="matrix(0.1,0,0,-0.1,0,186.8)"
       id="path578" />
  </g>
</svg>
