%!PS-Adobe-3.0 EPSF-3.0
%%Creator: cairo 1.17.4 (https://cairographics.org)
%%CreationDate: Thu Feb 24 10:48:20 2022
%%Pages: 1
%%DocumentData: Clean7Bit
%%LanguageLevel: 2
%%BoundingBox: 0 0 204 195
%%EndComments
%%BeginProlog
50 dict begin
/q { gsave } bind def
/Q { grestore } bind def
/cm { 6 array astore concat } bind def
/w { setlinewidth } bind def
/J { setlinecap } bind def
/j { setlinejoin } bind def
/M { setmiterlimit } bind def
/d { setdash } bind def
/m { moveto } bind def
/l { lineto } bind def
/c { curveto } bind def
/h { closepath } bind def
/re { exch dup neg 3 1 roll 5 3 roll moveto 0 rlineto
      0 exch rlineto 0 rlineto closepath } bind def
/S { stroke } bind def
/f { fill } bind def
/f* { eofill } bind def
/n { newpath } bind def
/W { clip } bind def
/W* { eoclip } bind def
/BT { } bind def
/ET { } bind def
/BDC { mark 3 1 roll /BDC pdfmark } bind def
/EMC { mark /EMC pdfmark } bind def
/cairo_store_point { /cairo_point_y exch def /cairo_point_x exch def } def
/Tj { show currentpoint cairo_store_point } bind def
/TJ {
  {
    dup
    type /stringtype eq
    { show } { -0.001 mul 0 cairo_font_matrix dtransform rmoveto } ifelse
  } forall
  currentpoint cairo_store_point
} bind def
/cairo_selectfont { cairo_font_matrix aload pop pop pop 0 0 6 array astore
    cairo_font exch selectfont cairo_point_x cairo_point_y moveto } bind def
/Tf { pop /cairo_font exch def /cairo_font_matrix where
      { pop cairo_selectfont } if } bind def
/Td { matrix translate cairo_font_matrix matrix concatmatrix dup
      /cairo_font_matrix exch def dup 4 get exch 5 get cairo_store_point
      /cairo_font where { pop cairo_selectfont } if } bind def
/Tm { 2 copy 8 2 roll 6 array astore /cairo_font_matrix exch def
      cairo_store_point /cairo_font where { pop cairo_selectfont } if } bind def
/g { setgray } bind def
/rg { setrgbcolor } bind def
/d1 { setcachedevice } bind def
/cairo_data_source {
  CairoDataIndex CairoData length lt
    { CairoData CairoDataIndex get /CairoDataIndex CairoDataIndex 1 add def }
    { () } ifelse
} def
/cairo_flush_ascii85_file { cairo_ascii85_file status { cairo_ascii85_file flushfile } if } def
/cairo_image { image cairo_flush_ascii85_file } def
/cairo_imagemask { imagemask cairo_flush_ascii85_file } def
%%EndProlog
%%BeginSetup
%%EndSetup
%%Page: 1 1
%%BeginPageSetup
%%PageBoundingBox: 0 0 204 195
%%EndPageSetup
q 0 0 204 195 rectclip
1 0 0 -1 0 195 cm q
0 g
0.567043 w
0 J
0 j
[] 0.0 d
10 M q 1 0 0 -1 0 0 cm
28.215 -2.996 170.094 -170.094 re S Q
0.398507 w
q 1 0 0 -1 0 0 cm
28.234 -173.098 m 28.234 -168.82 l S Q
0.398507 w
q 1 0 0 -1 0 0 cm
62.254 -173.086 m 62.254 -168.816 l S Q
0.398506 w
q 1 0 0 -1 0 0 cm
96.27 -173.074 m 96.27 -168.816 l S Q
0.398506 w
q 1 0 0 -1 0 0 cm
130.273 -173.109 m 130.273 -168.828 l S Q
0.398504 w
q 1 0 0 -1 0 0 cm
164.293 -173.09 m 164.293 -168.855 l S Q
0.398505 w
q 1 0 0 -1 0 0 cm
198.309 -173.09 m 198.309 -168.832 l S Q
0.398507 w
q 1 0 0 -1 0 0 cm
28.234 -173.098 m 28.234 -168.82 l S Q
0.398505 w
q 1 0 0 -1 0 0 cm
28.242 -173.07 m 32.488 -173.07 l S Q
q 1 0 0 -1 0 0 cm
28.242 -139.051 m 32.488 -139.051 l S Q
q 1 0 0 -1 0 0 cm
28.242 -105.066 m 32.488 -105.066 l S Q
q 1 0 0 -1 0 0 cm
28.242 -71.047 m 32.488 -71.047 l S Q
q 1 0 0 -1 0 0 cm
28.242 -37.027 m 32.488 -37.027 l S Q
q 1 0 0 -1 0 0 cm
28.242 -3.008 m 32.488 -3.008 l S Q
q 1 0 0 -1 0 0 cm
28.242 -173.07 m 32.488 -173.07 l S Q
0.398507 w
q 1 0 0 -1 0 0 cm
28.234 -3.016 m 28.234 -7.262 l S Q
0.398507 w
q 1 0 0 -1 0 0 cm
62.254 -2.992 m 62.254 -7.262 l S Q
0.398506 w
q 1 0 0 -1 0 0 cm
96.27 -3.02 m 96.27 -7.238 l S Q
0.398506 w
q 1 0 0 -1 0 0 cm
130.273 -2.996 m 130.273 -7.277 l S Q
0.398504 w
q 1 0 0 -1 0 0 cm
164.293 -2.996 m 164.293 -7.27 l S Q
0.398505 w
q 1 0 0 -1 0 0 cm
198.309 -2.996 m 198.309 -7.254 l S Q
0.398507 w
q 1 0 0 -1 0 0 cm
28.234 -3.016 m 28.234 -7.262 l S Q
0.398505 w
q 1 0 0 -1 0 0 cm
198.309 -173.09 m 194.051 -173.09 l S Q
q 1 0 0 -1 0 0 cm
198.309 -139.07 m 194.051 -139.07 l S Q
q 1 0 0 -1 0 0 cm
198.309 -105.051 m 194.051 -105.051 l S Q
q 1 0 0 -1 0 0 cm
198.309 -71.031 m 194.051 -71.031 l S Q
q 1 0 0 -1 0 0 cm
198.309 -37.016 m 194.051 -37.016 l S Q
q 1 0 0 -1 0 0 cm
198.309 -2.996 m 194.051 -2.996 l S Q
q 1 0 0 -1 0 0 cm
198.309 -173.09 m 194.051 -173.09 l S Q
30.188 179.613 m 30.188 178.004 29.453 176.551 28.203 176.551 c 26.938 
176.551 26.203 178.004 26.203 179.613 c 26.203 181.238 26.891 182.676 28.203
 182.676 c 29.406 182.676 30.188 181.238 30.188 179.613 c h
29.328 179.613 m 29.328 180.91 29.203 182.426 28.203 182.426 c 27.25 182.426
 27.062 180.91 27.062 179.613 c 27.062 178.535 27.188 176.785 28.203 176.785
 c 29.203 176.785 29.328 178.535 29.328 179.613 c h
29.328 179.613 m f
60.789 179.613 m 60.789 178.004 60.055 176.551 58.805 176.551 c 57.539 
176.551 56.805 178.004 56.805 179.613 c 56.805 181.238 57.492 182.676 58.805
 182.676 c 60.008 182.676 60.789 181.238 60.789 179.613 c h
59.93 179.613 m 59.93 180.91 59.805 182.426 58.805 182.426 c 57.852 182.426
 57.664 180.91 57.664 179.613 c 57.664 178.535 57.789 176.785 58.805 176.785
 c 59.805 176.785 59.93 178.535 59.93 179.613 c h
59.93 179.613 m f
62.715 182.191 m 62.715 181.91 62.496 181.691 62.215 181.691 c 61.934 181.691
 61.715 181.91 61.715 182.191 c 61.715 182.473 61.934 182.691 62.215 182.691
 c 62.496 182.691 62.715 182.473 62.715 182.191 c h
62.715 182.191 m f
67.66 181.41 m 67.504 181.379 l 67.238 181.832 67.02 181.91 66.582 181.91
 c 64.52 181.91 l 65.941 180.613 67.238 179.441 67.238 178.129 c 67.238 
177.207 66.441 176.551 65.566 176.551 c 64.707 176.551 64.02 177.02 63.754
 178.238 c 63.957 178.238 l 64.207 177.738 64.551 177.223 65.238 177.223
 c 66.02 177.223 66.457 177.816 66.457 178.488 c 66.457 179.457 65.426 180.879
 63.66 182.426 c 63.66 182.566 l 67.191 182.566 l h
67.66 181.41 m f
94.871 179.613 m 94.871 178.004 94.137 176.551 92.887 176.551 c 91.621 
176.551 90.887 178.004 90.887 179.613 c 90.887 181.238 91.574 182.676 92.887
 182.676 c 94.09 182.676 94.871 181.238 94.871 179.613 c h
94.012 179.613 m 94.012 180.91 93.887 182.426 92.887 182.426 c 91.934 182.426
 91.746 180.91 91.746 179.613 c 91.746 178.535 91.871 176.785 92.887 176.785
 c 93.887 176.785 94.012 178.535 94.012 179.613 c h
94.012 179.613 m f
96.793 182.191 m 96.793 181.91 96.574 181.691 96.293 181.691 c 96.012 181.691
 95.793 181.91 95.793 182.191 c 95.793 182.473 96.012 182.691 96.293 182.691
 c 96.574 182.691 96.793 182.473 96.793 182.191 c h
96.793 182.191 m f
101.727 181.082 m 101.727 180.473 l 100.852 180.473 l 100.852 176.551 l
 100.414 176.551 l 97.82 180.457 l 97.82 181.082 l 100.117 181.082 l 100.117
 182.566 l 100.852 182.566 l 100.852 181.082 l h
100.117 180.473 m 98.18 180.473 l 100.102 177.488 l 100.117 177.488 l h
100.117 180.473 m f
128.828 179.613 m 128.828 178.004 128.094 176.551 126.844 176.551 c 125.578
 176.551 124.844 178.004 124.844 179.613 c 124.844 181.238 125.531 182.676
 126.844 182.676 c 128.047 182.676 128.828 181.238 128.828 179.613 c h
127.969 179.613 m 127.969 180.91 127.844 182.426 126.844 182.426 c 125.891
 182.426 125.703 180.91 125.703 179.613 c 125.703 178.535 125.828 176.785
 126.844 176.785 c 127.844 176.785 127.969 178.535 127.969 179.613 c h
127.969 179.613 m f
130.754 182.191 m 130.754 181.91 130.535 181.691 130.254 181.691 c 129.973
 181.691 129.754 181.91 129.754 182.191 c 129.754 182.473 129.973 182.691
 130.254 182.691 c 130.535 182.691 130.754 182.473 130.754 182.191 c h
130.754 182.191 m f
135.621 180.551 m 135.621 179.566 134.918 178.832 134.027 178.832 c 133.574
 178.832 133.199 178.973 132.809 179.285 c 133.199 177.691 134.371 176.691
 135.496 176.676 c 135.496 176.52 l 132.73 176.52 131.855 178.863 131.855
 180.191 c 131.855 181.613 132.684 182.676 133.793 182.676 c 134.809 182.676
 135.621 181.723 135.621 180.551 c h
134.855 181.004 m 134.855 181.832 134.48 182.41 133.887 182.41 c 132.965
 182.41 132.684 181.066 132.684 180.348 c 132.684 180.113 132.715 179.863
 132.762 179.566 c 133.152 179.316 133.465 179.207 133.777 179.207 c 134.684
 179.207 134.855 180.254 134.855 181.004 c h
134.855 181.004 m f
162.91 179.613 m 162.91 178.004 162.176 176.551 160.926 176.551 c 159.66
 176.551 158.926 178.004 158.926 179.613 c 158.926 181.238 159.613 182.676
 160.926 182.676 c 162.129 182.676 162.91 181.238 162.91 179.613 c h
162.051 179.613 m 162.051 180.91 161.926 182.426 160.926 182.426 c 159.973
 182.426 159.785 180.91 159.785 179.613 c 159.785 178.535 159.91 176.785
 160.926 176.785 c 161.926 176.785 162.051 178.535 162.051 179.613 c h
162.051 179.613 m f
164.832 182.191 m 164.832 181.91 164.613 181.691 164.332 181.691 c 164.051
 181.691 163.832 181.91 163.832 182.191 c 163.832 182.473 164.051 182.691
 164.332 182.691 c 164.613 182.691 164.832 182.473 164.832 182.191 c h
164.832 182.191 m f
169.484 181.191 m 169.484 180.551 169.203 180.066 168.109 179.254 c 168.797
 178.879 169.328 178.457 169.328 177.801 c 169.328 177.113 168.688 176.52
 167.734 176.52 c 166.891 176.52 166.094 177.066 166.094 177.91 c 166.094
 178.566 166.438 178.957 167.203 179.566 c 166.344 180.223 166.031 180.551
 166.031 181.223 c 166.031 181.973 166.703 182.676 167.75 182.676 c 168.969
 182.676 169.484 181.848 169.484 181.191 c h
168.719 177.785 m 168.719 178.426 168.344 178.77 167.859 179.098 c 167.266
 178.676 166.75 178.207 166.75 177.691 c 166.75 177.207 167.094 176.785 
167.703 176.785 c 168.375 176.785 168.719 177.207 168.719 177.785 c h
168.844 181.441 m 168.844 182.02 168.406 182.41 167.828 182.41 c 167.141
 182.41 166.703 181.863 166.703 181.129 c 166.703 180.457 167.031 180.066
 167.438 179.723 c 168.422 180.473 168.844 180.848 168.844 181.441 c h
168.844 181.441 m f
196.117 182.566 m 196.117 182.426 l 195.523 182.426 195.305 182.441 195.305
 181.27 c 195.305 181.254 195.305 176.52 195.305 176.52 c 195.18 176.52 
l 193.648 177.254 l 193.695 177.395 l 194.023 177.254 194.102 177.223 194.227
 177.223 c 194.492 177.223 194.539 177.457 194.539 177.77 c 194.539 181.27
 l 194.539 182.441 194.32 182.41 193.727 182.426 c 193.727 182.566 l h
196.117 182.566 m f
198.793 182.191 m 198.793 181.91 198.574 181.691 198.293 181.691 c 198.012
 181.691 197.793 181.91 197.793 182.191 c 197.793 182.473 198.012 182.691
 198.293 182.691 c 198.574 182.691 198.793 182.473 198.793 182.191 c h
198.793 182.191 m f
203.711 179.613 m 203.711 178.004 202.977 176.551 201.727 176.551 c 200.461
 176.551 199.727 178.004 199.727 179.613 c 199.727 181.238 200.414 182.676
 201.727 182.676 c 202.93 182.676 203.711 181.238 203.711 179.613 c h
202.852 179.613 m 202.852 180.91 202.727 182.426 201.727 182.426 c 200.773
 182.426 200.586 180.91 200.586 179.613 c 200.586 178.535 200.711 176.785
 201.727 176.785 c 202.727 176.785 202.852 178.535 202.852 179.613 c h
202.852 179.613 m f
24.551 173.254 m 24.551 171.645 23.816 170.191 22.566 170.191 c 21.301 
170.191 20.566 171.645 20.566 173.254 c 20.566 174.879 21.254 176.316 22.566
 176.316 c 23.77 176.316 24.551 174.879 24.551 173.254 c h
23.691 173.254 m 23.691 174.551 23.566 176.066 22.566 176.066 c 21.613 
176.066 21.426 174.551 21.426 173.254 c 21.426 172.176 21.551 170.426 22.566
 170.426 c 23.566 170.426 23.691 172.176 23.691 173.254 c h
23.691 173.254 m f
17.711 139.176 m 17.711 137.566 16.977 136.113 15.727 136.113 c 14.461 
136.113 13.727 137.566 13.727 139.176 c 13.727 140.801 14.414 142.238 15.727
 142.238 c 16.93 142.238 17.711 140.801 17.711 139.176 c h
16.852 139.176 m 16.852 140.473 16.727 141.988 15.727 141.988 c 14.773 
141.988 14.586 140.473 14.586 139.176 c 14.586 138.098 14.711 136.348 15.727
 136.348 c 16.727 136.348 16.852 138.098 16.852 139.176 c h
16.852 139.176 m f
19.633 141.754 m 19.633 141.473 19.414 141.254 19.133 141.254 c 18.852 
141.254 18.633 141.473 18.633 141.754 c 18.633 142.035 18.852 142.254 19.133
 142.254 c 19.414 142.254 19.633 142.035 19.633 141.754 c h
19.633 141.754 m f
24.582 140.973 m 24.426 140.941 l 24.16 141.395 23.941 141.473 23.504 141.473
 c 21.441 141.473 l 22.863 140.176 24.16 139.004 24.16 137.691 c 24.16 136.77
 23.363 136.113 22.488 136.113 c 21.629 136.113 20.941 136.582 20.676 137.801
 c 20.879 137.801 l 21.129 137.301 21.473 136.785 22.16 136.785 c 22.941
 136.785 23.379 137.379 23.379 138.051 c 23.379 139.02 22.348 140.441 20.582
 141.988 c 20.582 142.129 l 24.113 142.129 l h
24.582 140.973 m f
17.711 105.215 m 17.711 103.605 16.977 102.152 15.727 102.152 c 14.461 
102.152 13.727 103.605 13.727 105.215 c 13.727 106.84 14.414 108.277 15.727
 108.277 c 16.93 108.277 17.711 106.84 17.711 105.215 c h
16.852 105.215 m 16.852 106.512 16.727 108.027 15.727 108.027 c 14.773 
108.027 14.586 106.512 14.586 105.215 c 14.586 104.137 14.711 102.387 15.727
 102.387 c 16.727 102.387 16.852 104.137 16.852 105.215 c h
16.852 105.215 m f
19.633 107.793 m 19.633 107.512 19.414 107.293 19.133 107.293 c 18.852 
107.293 18.633 107.512 18.633 107.793 c 18.633 108.074 18.852 108.293 19.133
 108.293 c 19.414 108.293 19.633 108.074 19.633 107.793 c h
19.633 107.793 m f
24.566 106.684 m 24.566 106.074 l 23.691 106.074 l 23.691 102.152 l 23.254
 102.152 l 20.66 106.059 l 20.66 106.684 l 22.957 106.684 l 22.957 108.168
 l 23.691 108.168 l 23.691 106.684 l h
22.957 106.074 m 21.02 106.074 l 22.941 103.09 l 22.957 103.09 l h
22.957 106.074 m f
17.711 71.133 m 17.711 69.523 16.977 68.07 15.727 68.07 c 14.461 68.07 
13.727 69.523 13.727 71.133 c 13.727 72.758 14.414 74.195 15.727 74.195 
c 16.93 74.195 17.711 72.758 17.711 71.133 c h
16.852 71.133 m 16.852 72.43 16.727 73.945 15.727 73.945 c 14.773 73.945
 14.586 72.43 14.586 71.133 c 14.586 70.055 14.711 68.305 15.727 68.305 
c 16.727 68.305 16.852 70.055 16.852 71.133 c h
16.852 71.133 m f
19.633 73.711 m 19.633 73.43 19.414 73.211 19.133 73.211 c 18.852 73.211
 18.633 73.43 18.633 73.711 c 18.633 73.992 18.852 74.211 19.133 74.211 
c 19.414 74.211 19.633 73.992 19.633 73.711 c h
19.633 73.711 m f
24.504 72.07 m 24.504 71.086 23.801 70.352 22.91 70.352 c 22.457 70.352
 22.082 70.492 21.691 70.805 c 22.082 69.211 23.254 68.211 24.379 68.195
 c 24.379 68.039 l 21.613 68.039 20.738 70.383 20.738 71.711 c 20.738 73.133
 21.566 74.195 22.676 74.195 c 23.691 74.195 24.504 73.242 24.504 72.07 
c h
23.738 72.523 m 23.738 73.352 23.363 73.93 22.77 73.93 c 21.848 73.93 21.566
 72.586 21.566 71.867 c 21.566 71.633 21.598 71.383 21.645 71.086 c 22.035
 70.836 22.348 70.727 22.66 70.727 c 23.566 70.727 23.738 71.773 23.738 
72.523 c h
23.738 72.523 m f
17.711 37.172 m 17.711 35.562 16.977 34.109 15.727 34.109 c 14.461 34.109
 13.727 35.562 13.727 37.172 c 13.727 38.797 14.414 40.234 15.727 40.234
 c 16.93 40.234 17.711 38.797 17.711 37.172 c h
16.852 37.172 m 16.852 38.469 16.727 39.984 15.727 39.984 c 14.773 39.984
 14.586 38.469 14.586 37.172 c 14.586 36.094 14.711 34.344 15.727 34.344
 c 16.727 34.344 16.852 36.094 16.852 37.172 c h
16.852 37.172 m f
19.633 39.75 m 19.633 39.469 19.414 39.25 19.133 39.25 c 18.852 39.25 18.633
 39.469 18.633 39.75 c 18.633 40.031 18.852 40.25 19.133 40.25 c 19.414 
40.25 19.633 40.031 19.633 39.75 c h
19.633 39.75 m f
24.285 38.75 m 24.285 38.109 24.004 37.625 22.91 36.812 c 23.598 36.438
 24.129 36.016 24.129 35.359 c 24.129 34.672 23.488 34.078 22.535 34.078
 c 21.691 34.078 20.895 34.625 20.895 35.469 c 20.895 36.125 21.238 36.516
 22.004 37.125 c 21.145 37.781 20.832 38.109 20.832 38.781 c 20.832 39.531
 21.504 40.234 22.551 40.234 c 23.77 40.234 24.285 39.406 24.285 38.75 c
 h
23.52 35.344 m 23.52 35.984 23.145 36.328 22.66 36.656 c 22.066 36.234 
21.551 35.766 21.551 35.25 c 21.551 34.766 21.895 34.344 22.504 34.344 c
 23.176 34.344 23.52 34.766 23.52 35.344 c h
23.645 39 m 23.645 39.578 23.207 39.969 22.629 39.969 c 21.941 39.969 21.504
 39.422 21.504 38.688 c 21.504 38.016 21.832 37.625 22.238 37.281 c 23.223
 38.031 23.645 38.406 23.645 39 c h
23.645 39 m f
16.961 6.047 m 16.961 5.906 l 16.367 5.906 16.148 5.922 16.148 4.75 c 16.148
 4.734 16.148 0 16.148 0 c 16.023 0 l 14.492 0.734 l 14.539 0.875 l 14.867
 0.734 14.945 0.703 15.07 0.703 c 15.336 0.703 15.383 0.938 15.383 1.25 
c 15.383 4.75 l 15.383 5.922 15.164 5.891 14.57 5.906 c 14.57 6.047 l h
16.961 6.047 m f
19.633 5.672 m 19.633 5.391 19.414 5.172 19.133 5.172 c 18.852 5.172 18.633
 5.391 18.633 5.672 c 18.633 5.953 18.852 6.172 19.133 6.172 c 19.414 6.172
 19.633 5.953 19.633 5.672 c h
19.633 5.672 m f
24.551 3.094 m 24.551 1.484 23.816 0.031 22.566 0.031 c 21.301 0.031 20.566
 1.484 20.566 3.094 c 20.566 4.719 21.254 6.156 22.566 6.156 c 23.77 6.156
 24.551 4.719 24.551 3.094 c h
23.691 3.094 m 23.691 4.391 23.566 5.906 22.566 5.906 c 21.613 5.906 21.426
 4.391 21.426 3.094 c 21.426 2.016 21.551 0.266 22.566 0.266 c 23.566 0.266
 23.691 2.016 23.691 3.094 c h
23.691 3.094 m f
1.133661 w
q 1 0 0 -1 0 0 cm
28.215 -173.09 m 28.215 -173.09 42.691 -144.473 50.906 -129.703 c 56.793
 -119.23 61.977 -109.715 68.715 -99.793 c 78.191 -85.875 86.816 -73.254 
98.477 -61.188 c 107.32 -52.043 116.539 -45.012 126.977 -37.719 c 137.156
 -30.609 146.746 -24.762 158.035 -19.504 c 162.773 -17.285 167.438 -16.246
 172.359 -14.398 c 176.469 -12.879 180.133 -11.398 184.242 -9.809 c 187.832
 -8.438 191.277 -7.77 194.609 -5.922 c 196.016 -5.105 198.309 -2.996 198.309
 -2.996 c S Q
1 g
30.363 173.086 m 30.363 171.91 29.41 170.957 28.234 170.957 c 27.059 170.957
 26.105 171.91 26.105 173.086 c 26.105 174.262 27.059 175.215 28.234 175.215
 c 29.41 175.215 30.363 174.262 30.363 173.086 c f
0 g
30.363 173.086 m 30.363 171.91 29.41 170.957 28.234 170.957 c 27.059 170.957
 26.105 171.91 26.105 173.086 c 26.105 174.262 27.059 175.215 28.234 175.215
 c 29.41 175.215 30.363 174.262 30.363 173.086 c h
30.363 173.086 m 30.152 173.086 l 30.152 172.027 29.293 171.168 28.234 
171.168 c 27.176 171.168 26.316 172.027 26.316 173.086 c 26.316 174.145 
27.176 175.004 28.234 175.004 c 29.293 175.004 30.152 174.145 30.152 173.086
 c f
1 g
53.055 129.719 m 53.055 128.543 52.102 127.59 50.926 127.59 c 49.75 127.59
 48.797 128.543 48.797 129.719 c 48.797 130.895 49.75 131.848 50.926 131.848
 c 52.102 131.848 53.055 130.895 53.055 129.719 c f
0 g
53.055 129.719 m 53.055 128.543 52.102 127.59 50.926 127.59 c 49.75 127.59
 48.797 128.543 48.797 129.719 c 48.797 130.895 49.75 131.848 50.926 131.848
 c 52.102 131.848 53.055 130.895 53.055 129.719 c h
53.055 129.719 m 52.844 129.719 l 52.844 128.66 51.984 127.801 50.926 127.801
 c 49.867 127.801 49.008 128.66 49.008 129.719 c 49.008 130.777 49.867 131.637
 50.926 131.637 c 51.984 131.637 52.844 130.777 52.844 129.719 c f
1 g
70.863 99.789 m 70.863 98.613 69.91 97.66 68.734 97.66 c 67.559 97.66 66.605
 98.613 66.605 99.789 c 66.605 100.961 67.559 101.914 68.734 101.914 c 69.91
 101.914 70.863 100.961 70.863 99.789 c f
0 g
70.863 99.789 m 70.863 98.613 69.91 97.66 68.734 97.66 c 67.559 97.66 66.605
 98.613 66.605 99.789 c 66.605 100.961 67.559 101.914 68.734 101.914 c 69.91
 101.914 70.863 100.961 70.863 99.789 c h
70.863 99.789 m 70.652 99.789 l 70.652 98.727 69.793 97.867 68.734 97.867
 c 67.676 97.867 66.816 98.727 66.816 99.789 c 66.816 100.848 67.676 101.707
 68.734 101.707 c 69.793 101.707 70.652 100.848 70.652 99.789 c f
1 g
100.625 61.176 m 100.625 60 99.672 59.047 98.496 59.047 c 97.32 59.047 
96.367 60 96.367 61.176 c 96.367 62.352 97.32 63.305 98.496 63.305 c 99.672
 63.305 100.625 62.352 100.625 61.176 c f
0 g
100.625 61.176 m 100.625 60 99.672 59.047 98.496 59.047 c 97.32 59.047 
96.367 60 96.367 61.176 c 96.367 62.352 97.32 63.305 98.496 63.305 c 99.672
 63.305 100.625 62.352 100.625 61.176 c h
100.625 61.176 m 100.414 61.176 l 100.414 60.117 99.555 59.258 98.496 59.258
 c 97.438 59.258 96.578 60.117 96.578 61.176 c 96.578 62.234 97.438 63.094
 98.496 63.094 c 99.555 63.094 100.414 62.234 100.414 61.176 c f
1 g
129.094 37.707 m 129.094 36.531 128.141 35.578 126.965 35.578 c 125.789
 35.578 124.836 36.531 124.836 37.707 c 124.836 38.883 125.789 39.836 126.965
 39.836 c 128.141 39.836 129.094 38.883 129.094 37.707 c f
0 g
129.094 37.707 m 129.094 36.531 128.141 35.578 126.965 35.578 c 125.789
 35.578 124.836 36.531 124.836 37.707 c 124.836 38.883 125.789 39.836 126.965
 39.836 c 128.141 39.836 129.094 38.883 129.094 37.707 c h
129.094 37.707 m 128.883 37.707 l 128.883 36.648 128.023 35.789 126.965
 35.789 c 125.906 35.789 125.047 36.648 125.047 37.707 c 125.047 38.766 
125.906 39.625 126.965 39.625 c 128.023 39.625 128.883 38.766 128.883 37.707
 c f
1 g
160.152 19.508 m 160.152 18.332 159.199 17.379 158.023 17.379 c 156.852
 17.379 155.898 18.332 155.898 19.508 c 155.898 20.684 156.852 21.637 158.023
 21.637 c 159.199 21.637 160.152 20.684 160.152 19.508 c f
0 g
160.152 19.508 m 160.152 18.332 159.199 17.379 158.023 17.379 c 156.852
 17.379 155.898 18.332 155.898 19.508 c 155.898 20.684 156.852 21.637 158.023
 21.637 c 159.199 21.637 160.152 20.684 160.152 19.508 c h
160.152 19.508 m 159.945 19.508 l 159.945 18.449 159.086 17.59 158.023 
17.59 c 156.965 17.59 156.105 18.449 156.105 19.508 c 156.105 20.566 156.965
 21.426 158.023 21.426 c 159.086 21.426 159.945 20.566 159.945 19.508 c f
1 g
174.492 14.406 m 174.492 13.23 173.539 12.277 172.367 12.277 c 171.191 
12.277 170.238 13.23 170.238 14.406 c 170.238 15.582 171.191 16.535 172.367
 16.535 c 173.539 16.535 174.492 15.582 174.492 14.406 c f
0 g
174.492 14.406 m 174.492 13.23 173.539 12.277 172.367 12.277 c 171.191 
12.277 170.238 13.23 170.238 14.406 c 170.238 15.582 171.191 16.535 172.367
 16.535 c 173.539 16.535 174.492 15.582 174.492 14.406 c h
174.492 14.406 m 174.285 14.406 l 174.285 13.348 173.426 12.488 172.367
 12.488 c 171.305 12.488 170.445 13.348 170.445 14.406 c 170.445 15.465 
171.305 16.324 172.367 16.324 c 173.426 16.324 174.285 15.465 174.285 14.406
 c f
1 g
186.395 9.809 m 186.395 8.633 185.441 7.68 184.266 7.68 c 183.09 7.68 182.137
 8.633 182.137 9.809 c 182.137 10.984 183.09 11.938 184.266 11.938 c 185.441
 11.938 186.395 10.984 186.395 9.809 c f
0 g
186.395 9.809 m 186.395 8.633 185.441 7.68 184.266 7.68 c 183.09 7.68 182.137
 8.633 182.137 9.809 c 182.137 10.984 183.09 11.938 184.266 11.938 c 185.441
 11.938 186.395 10.984 186.395 9.809 c h
186.395 9.809 m 186.184 9.809 l 186.184 8.75 185.324 7.891 184.266 7.891
 c 183.207 7.891 182.348 8.75 182.348 9.809 c 182.348 10.867 183.207 11.727
 184.266 11.727 c 185.324 11.727 186.184 10.867 186.184 9.809 c f
1 g
196.734 5.898 m 196.734 4.723 195.781 3.77 194.605 3.77 c 193.43 3.77 192.477
 4.723 192.477 5.898 c 192.477 7.074 193.43 8.027 194.605 8.027 c 195.781
 8.027 196.734 7.074 196.734 5.898 c f
0 g
196.734 5.898 m 196.734 4.723 195.781 3.77 194.605 3.77 c 193.43 3.77 192.477
 4.723 192.477 5.898 c 192.477 7.074 193.43 8.027 194.605 8.027 c 195.781
 8.027 196.734 7.074 196.734 5.898 c h
196.734 5.898 m 196.523 5.898 l 196.523 4.84 195.664 3.98 194.605 3.98 
c 193.547 3.98 192.688 4.84 192.688 5.898 c 192.688 6.957 193.547 7.816 
194.605 7.816 c 195.664 7.816 196.523 6.957 196.523 5.898 c f
1 g
200.445 3.008 m 200.445 1.832 199.492 0.879 198.316 0.879 c 197.141 0.879
 196.188 1.832 196.188 3.008 c 196.188 4.184 197.141 5.137 198.316 5.137
 c 199.492 5.137 200.445 4.184 200.445 3.008 c f
0 g
200.445 3.008 m 200.445 1.832 199.492 0.879 198.316 0.879 c 197.141 0.879
 196.188 1.832 196.188 3.008 c 196.188 4.184 197.141 5.137 198.316 5.137
 c 199.492 5.137 200.445 4.184 200.445 3.008 c h
200.445 3.008 m 200.234 3.008 l 200.234 1.949 199.375 1.09 198.316 1.09
 c 197.258 1.09 196.398 1.949 196.398 3.008 c 196.398 4.066 197.258 4.926
 198.316 4.926 c 199.375 4.926 200.234 4.066 200.234 3.008 c f
1.13366 w
q 1 0 0 -1 0 0 cm
28.238 -3.02 m 28.238 -3.02 42.902 -17.797 50.902 -25.277 c 56.938 -30.945
 62.418 -35.941 68.715 -41.277 c 78.75 -49.758 87.75 -57.387 98.488 -64.902
 c 107.934 -71.531 117.117 -76.418 126.969 -82.418 c 137.672 -88.973 147.262
 -94.863 158 -101.305 c 162.965 -104.27 167.742 -106.418 172.371 -109.824
 c 176.812 -113.082 180.219 -116.75 184.258 -120.527 c 187.887 -123.934 
192.477 -126.117 194.59 -130.562 c 200.887 -143.781 198.328 -173.074 198.328
 -173.074 c S Q
1 g
28.234 0.195 m 25.801 4.414 l 30.668 4.414 l f
0 g
28.234 0.195 m 25.801 4.414 l 30.668 4.414 l h
28.234 0.617 m 26.164 4.203 l 30.305 4.203 l f
1 g
50.926 22.477 m 48.492 26.695 l 53.359 26.695 l f
0 g
50.926 22.477 m 48.492 26.695 l 53.359 26.695 l h
50.926 22.898 m 48.855 26.48 l 52.996 26.48 l f
1 g
68.734 38.465 m 66.301 42.684 l 71.168 42.684 l f
0 g
68.734 38.465 m 66.301 42.684 l 71.168 42.684 l h
68.734 38.887 m 66.664 42.473 l 70.805 42.473 l f
1 g
98.496 62.105 m 96.062 66.324 l 100.93 66.324 l f
0 g
98.496 62.105 m 96.062 66.324 l 100.93 66.324 l h
98.496 62.527 m 96.426 66.113 l 100.566 66.113 l f
1 g
126.965 79.625 m 124.531 83.844 l 129.398 83.844 l f
0 g
126.965 79.625 m 124.531 83.844 l 129.398 83.844 l h
126.965 80.047 m 124.895 83.633 l 129.035 83.633 l f
1 g
158.023 98.504 m 155.59 102.723 l 160.461 102.723 l f
0 g
158.023 98.504 m 155.59 102.723 l 160.461 102.723 l h
158.023 98.926 m 155.957 102.512 l 160.094 102.512 l f
1 g
172.367 107.004 m 169.93 111.223 l 174.801 111.223 l f
0 g
172.367 107.004 m 169.93 111.223 l 174.801 111.223 l h
172.367 107.426 m 170.297 111.012 l 174.434 111.012 l f
1 g
184.266 117.727 m 181.832 121.945 l 186.699 121.945 l f
0 g
184.266 117.727 m 181.832 121.945 l 186.699 121.945 l h
184.266 118.148 m 182.195 121.73 l 186.336 121.73 l f
1 g
194.605 127.754 m 192.172 131.973 l 197.039 131.973 l f
0 g
194.605 127.754 m 192.172 131.973 l 197.039 131.973 l h
194.605 128.176 m 192.535 131.762 l 196.676 131.762 l f
1 g
198.316 170.273 m 195.883 174.492 l 200.75 174.492 l f
0 g
198.316 170.273 m 195.883 174.492 l 200.75 174.492 l h
198.316 170.695 m 196.246 174.281 l 200.387 174.281 l f
112.758 188.523 m 112.758 188.305 112.555 188.195 112.383 188.195 c 111.93
 188.195 111.352 188.867 110.914 189.57 c 110.898 189.57 110.836 189.273
 110.836 189.273 c 110.695 188.68 110.523 188.336 110.211 188.195 c 110.211
 188.195 109.195 188.398 109.07 188.445 c 109.07 188.602 l 109.258 188.555
 109.398 188.523 109.492 188.523 c 109.992 188.523 110.07 189.008 110.414
 190.305 c 110.008 190.898 109.367 191.898 109.117 191.898 c 108.914 191.898
 108.898 191.68 108.617 191.68 c 108.43 191.68 108.289 191.82 108.289 192.008
 c 108.289 192.242 108.461 192.398 108.711 192.398 c 109.352 192.398 109.93
 191.273 110.477 190.57 c 110.508 190.633 110.711 191.43 110.711 191.43 
c 110.93 192.258 111.102 192.398 111.32 192.398 c 111.602 192.398 112.023
 192.117 112.445 191.336 c 112.32 191.258 l 112.164 191.461 111.914 191.883
 111.68 191.883 c 111.367 191.883 111.195 190.617 110.977 189.82 c 111.023
 189.742 111.648 188.742 111.977 188.742 c 112.148 188.742 112.305 188.883
 112.461 188.883 c 112.68 188.883 112.758 188.695 112.758 188.523 c h
112.758 188.523 m f
117.957 194.32 m 117.645 194.289 117.566 194.227 117.332 193.711 c 115.598
 189.742 l 115.457 189.742 l 114.004 193.164 l 113.551 194.18 113.473 194.305
 113.145 194.32 c 113.145 194.445 l 114.52 194.445 l 114.52 194.32 l 114.191
 194.32 114.051 194.227 114.051 194.023 c 114.051 193.945 114.066 193.852
 114.098 193.758 c 114.426 192.945 l 116.254 192.945 l 116.535 193.602 l
 116.613 193.805 116.66 193.977 116.66 194.07 c 116.66 194.258 116.551 194.305
 116.176 194.32 c 116.176 194.445 l 117.957 194.445 l h
114.535 192.648 m 115.348 190.742 l 116.145 192.648 l h
114.535 192.648 m f
2.391 112.207 m 2.156 112.207 2.031 112.395 2.031 112.566 c 2.031 112.676
 2.078 112.785 2.188 112.863 c 2.359 112.957 2.531 112.91 2.828 112.988 
c 3.562 113.16 4.344 113.738 5.656 114.738 c 5.422 114.723 4.656 114.629
 3.891 114.629 c 2.969 114.629 2.031 114.77 2.031 115.41 c 2.031 116.051
 2.625 116.254 2.906 116.254 c 3 116.254 3.094 116.223 3.141 116.191 c 3.141
 116.113 l 2.984 116.066 2.594 115.926 2.594 115.613 c 2.594 115.285 3.359
 115.066 4.141 115.066 c 5.266 115.082 5.719 115.129 6.078 115.16 c 6.438
 115.426 7.109 115.988 7.672 115.988 c 7.906 115.988 8.047 115.895 8.047
 115.676 c 8.047 114.988 6.594 114.832 6.078 114.801 c 5.703 114.441 3.953
 112.863 2.953 112.348 c 2.719 112.223 2.562 112.207 2.391 112.207 c h
2.391 112.207 m f
8.281 107.367 m 8.25 107.68 8.188 107.758 7.672 107.992 c 3.703 109.727
 l 3.703 109.867 l 7.125 111.32 l 8.141 111.773 8.266 111.852 8.281 112.18
 c 8.406 112.18 l 8.406 110.805 l 8.281 110.805 l 8.281 111.133 8.188 111.273
 7.984 111.273 c 7.906 111.273 7.812 111.258 7.719 111.227 c 6.906 110.898
 l 6.906 109.07 l 7.562 108.789 l 7.766 108.711 7.938 108.664 8.031 108.664
 c 8.219 108.664 8.266 108.773 8.281 109.148 c 8.406 109.148 l 8.406 107.367
 l h
6.609 110.789 m 4.703 109.977 l 6.609 109.18 l h
6.609 110.789 m f
2.359 102.125 m 2.141 102.125 2.031 102.328 2.031 102.5 c 2.031 102.953
 2.703 103.531 3.406 103.969 c 3.406 103.984 3.109 104.047 3.109 104.047
 c 2.516 104.188 2.172 104.359 2.031 104.672 c 2.031 104.672 2.234 105.688
 2.281 105.812 c 2.438 105.812 l 2.391 105.625 2.359 105.484 2.359 105.391
 c 2.359 104.891 2.844 104.812 4.141 104.469 c 4.734 104.875 5.734 105.516
 5.734 105.766 c 5.734 105.969 5.516 105.984 5.516 106.266 c 5.516 106.453
 5.656 106.594 5.844 106.594 c 6.078 106.594 6.234 106.422 6.234 106.172
 c 6.234 105.531 5.109 104.953 4.406 104.406 c 4.469 104.375 5.266 104.172
 5.266 104.172 c 6.094 103.953 6.234 103.781 6.234 103.562 c 6.234 103.281
 5.953 102.859 5.172 102.438 c 5.094 102.562 l 5.297 102.719 5.719 102.969
 5.719 103.203 c 5.719 103.516 4.453 103.688 3.656 103.906 c 3.578 103.859
 2.578 103.234 2.578 102.906 c 2.578 102.734 2.719 102.578 2.719 102.422
 c 2.719 102.203 2.531 102.125 2.359 102.125 c h
2.359 102.125 m f
8.281 96.926 m 8.25 97.238 8.188 97.316 7.672 97.551 c 3.703 99.285 l 3.703
 99.426 l 7.125 100.879 l 8.141 101.332 8.266 101.41 8.281 101.738 c 8.406
 101.738 l 8.406 100.363 l 8.281 100.363 l 8.281 100.691 8.188 100.832 7.984
 100.832 c 7.906 100.832 7.812 100.816 7.719 100.785 c 6.906 100.457 l 6.906
 98.629 l 7.562 98.348 l 7.766 98.27 7.938 98.223 8.031 98.223 c 8.219 98.223
 8.266 98.332 8.281 98.707 c 8.406 98.707 l 8.406 96.926 l h
6.609 100.348 m 4.703 99.535 l 6.609 98.738 l h
6.609 100.348 m f
5.531 90.078 m 5.656 90.234 5.703 90.344 5.703 90.484 c 5.703 90.688 5.578
 90.75 5.188 90.75 c 3.438 90.75 l 2.969 90.75 2.703 90.797 2.5 90.922 c
 2.172 91.125 2 91.516 2 92.031 c 2 92.875 2.438 93.547 3 93.547 c 3.203
 93.547 3.391 93.375 3.391 93.156 c 3.391 92.938 3.203 92.75 3.016 92.75
 c 2.984 92.75 2.938 92.766 2.875 92.766 c 2.781 92.797 2.719 92.797 2.656
 92.797 c 2.406 92.797 2.219 92.516 2.219 92.156 c 2.219 91.719 2.469 91.469
 2.953 91.469 c 3.5 91.469 l 4.047 92.844 4.141 93 4.469 93.391 c 4.656 
93.594 4.953 93.719 5.25 93.719 c 5.812 93.719 6.219 93.328 6.219 92.766
 c 6.219 92.375 6.031 92.016 5.562 91.469 c 6.031 91.422 6.219 91.25 6.219
 90.891 c 6.219 90.578 6.109 90.391 5.766 90.078 c h
5.016 91.469 m 5.297 91.469 5.391 91.516 5.5 91.703 c 5.625 91.938 5.688
 92.172 5.688 92.359 c 5.688 92.672 5.391 92.922 5 92.922 c 4.969 92.922
 l 4.438 92.922 4.094 92.516 3.719 91.469 c h
5.016 91.469 m f
6.125 89.93 m 6.125 88.023 l 5.984 88.023 l 5.969 88.477 5.844 88.617 5.531
 88.617 c 3 88.617 l 2.594 88.18 2.5 87.992 2.5 87.695 c 2.5 87.258 2.766
 87.039 3.359 87.039 c 5.234 87.039 l 5.812 87.055 5.969 87.164 5.984 87.602
 c 6.125 87.602 l 6.125 85.742 l 5.984 85.742 l 5.953 86.18 5.844 86.273
 5.406 86.289 c 3.344 86.289 l 2.5 86.289 2 86.68 2 87.336 c 2 87.758 2.156
 88.039 2.719 88.648 c 2.016 88.648 l 2 88.711 l 2.172 89.164 2.266 89.477
 2.406 89.945 c 2.562 89.945 l 2.531 89.883 2.516 89.805 2.516 89.695 c 
2.516 89.445 2.656 89.367 3.094 89.367 c 5.312 89.367 l 5.844 89.383 5.969
 89.477 5.984 89.93 c h
6.125 89.93 m f
5.609 81.242 m 5.609 81.367 5.609 81.414 5.609 81.445 c 5.609 81.758 5.516
 81.852 5.109 81.852 c 0.016 81.852 l 0 81.883 l 0.141 82.305 0.234 82.617
 0.391 83.211 c 0.531 83.211 l 0.531 83.133 0.531 83.086 0.531 83.008 c 
0.531 82.68 0.625 82.602 0.984 82.602 c 2.391 82.602 l 2.094 82.945 2 83.18
 2 83.539 c 2 84.57 3.016 85.414 4.281 85.414 c 5.438 85.414 6.219 84.742
 6.219 83.742 c 6.219 83.242 6.031 82.898 5.609 82.602 c 6.188 82.602 l 
6.219 82.57 l 5.75 81.242 l h
5.203 82.602 m 5.266 82.602 5.375 82.664 5.484 82.758 c 5.656 82.898 5.75
 83.133 5.75 83.398 c 5.75 84.148 5.031 84.633 3.922 84.633 c 2.922 84.633
 2.25 84.195 2.25 83.508 c 2.25 83.023 2.672 82.602 3.141 82.602 c h
5.203 82.602 m f
2.391 74.285 m 2.156 74.285 2.031 74.473 2.031 74.645 c 2.031 74.754 2.078
 74.863 2.188 74.941 c 2.359 75.035 2.531 74.988 2.828 75.066 c 3.562 75.238
 4.344 75.816 5.656 76.816 c 5.422 76.801 4.656 76.707 3.891 76.707 c 2.969
 76.707 2.031 76.848 2.031 77.488 c 2.031 78.129 2.625 78.332 2.906 78.332
 c 3 78.332 3.094 78.301 3.141 78.27 c 3.141 78.191 l 2.984 78.145 2.594
 78.004 2.594 77.691 c 2.594 77.363 3.359 77.145 4.141 77.145 c 5.266 77.16
 5.719 77.207 6.078 77.238 c 6.438 77.504 7.109 78.066 7.672 78.066 c 7.906
 78.066 8.047 77.973 8.047 77.754 c 8.047 77.066 6.594 76.91 6.078 76.879
 c 5.703 76.52 3.953 74.941 2.953 74.426 c 2.719 74.301 2.562 74.285 2.391
 74.285 c h
2.391 74.285 m f
3.922 74.242 m 3.953 73.664 4.031 73.586 4.547 73.586 c 7.641 73.586 l 
8.172 73.586 8.25 73.68 8.281 74.242 c 8.406 74.242 l 8.406 71.914 l 8.406
 71.383 8.266 70.883 8.016 70.617 c 7.797 70.367 7.484 70.242 7.156 70.242
 c 6.844 70.242 6.562 70.352 6.359 70.57 c 6.172 70.789 6.094 70.977 5.984
 71.43 c 5.891 71.07 5.828 70.914 5.672 70.758 c 5.516 70.57 5.266 70.477
 4.984 70.477 c 4.203 70.477 3.797 71.102 3.797 72.305 c 3.797 74.242 l 
h
6.141 72.867 m 6.141 72.195 6.172 71.867 6.281 71.617 c 6.438 71.227 6.734
 71.039 7.156 71.039 c 7.531 71.039 7.812 71.18 7.969 71.461 c 8.094 71.68
 8.141 71.977 8.141 72.43 c 8.141 72.773 8.078 72.867 7.859 72.867 c h
5.859 72.867 m 4.266 72.867 l 4.109 72.867 4.062 72.836 4.062 72.711 c 
4.047 72.414 l 4.031 71.633 4.391 71.18 5 71.18 c 5.562 71.18 5.844 71.539
 5.859 72.211 c h
5.859 72.867 m f
2.359 64.566 m 2.141 64.566 2.031 64.77 2.031 64.941 c 2.031 65.395 2.703
 65.973 3.406 66.41 c 3.406 66.426 3.109 66.488 3.109 66.488 c 2.516 66.629
 2.172 66.801 2.031 67.113 c 2.031 67.113 2.234 68.129 2.281 68.254 c 2.438
 68.254 l 2.391 68.066 2.359 67.926 2.359 67.832 c 2.359 67.332 2.844 67.254
 4.141 66.91 c 4.734 67.316 5.734 67.957 5.734 68.207 c 5.734 68.41 5.516
 68.426 5.516 68.707 c 5.516 68.895 5.656 69.035 5.844 69.035 c 6.078 69.035
 6.234 68.863 6.234 68.613 c 6.234 67.973 5.109 67.395 4.406 66.848 c 4.469
 66.816 5.266 66.613 5.266 66.613 c 6.094 66.395 6.234 66.223 6.234 66.004
 c 6.234 65.723 5.953 65.301 5.172 64.879 c 5.094 65.004 l 5.297 65.16 5.719
 65.41 5.719 65.645 c 5.719 65.957 4.453 66.129 3.656 66.348 c 3.578 66.301
 2.578 65.676 2.578 65.348 c 2.578 65.176 2.719 65.02 2.719 64.863 c 2.719
 64.645 2.531 64.566 2.359 64.566 c h
2.359 64.566 m f
3.922 64.164 m 3.953 63.586 4.031 63.508 4.547 63.508 c 7.641 63.508 l 
8.172 63.508 8.25 63.602 8.281 64.164 c 8.406 64.164 l 8.406 61.836 l 8.406
 61.305 8.266 60.805 8.016 60.539 c 7.797 60.289 7.484 60.164 7.156 60.164
 c 6.844 60.164 6.562 60.273 6.359 60.492 c 6.172 60.711 6.094 60.898 5.984
 61.352 c 5.891 60.992 5.828 60.836 5.672 60.68 c 5.516 60.492 5.266 60.398
 4.984 60.398 c 4.203 60.398 3.797 61.023 3.797 62.227 c 3.797 64.164 l 
h
6.141 62.789 m 6.141 62.117 6.172 61.789 6.281 61.539 c 6.438 61.148 6.734
 60.961 7.156 60.961 c 7.531 60.961 7.812 61.102 7.969 61.383 c 8.094 61.602
 8.141 61.898 8.141 62.352 c 8.141 62.695 8.078 62.789 7.859 62.789 c h
5.859 62.789 m 4.266 62.789 l 4.109 62.789 4.062 62.758 4.062 62.633 c 
4.047 62.336 l 4.031 61.555 4.391 61.102 5 61.102 c 5.562 61.102 5.844 61.461
 5.859 62.133 c h
5.859 62.789 m f
78.805 102.281 m 78.805 102.047 78.617 101.922 78.445 101.922 c 78.336 
101.922 78.227 101.969 78.148 102.078 c 78.055 102.25 78.102 102.422 78.023
 102.719 c 77.852 103.453 77.273 104.234 76.273 105.547 c 76.289 105.312
 76.383 104.547 76.383 103.781 c 76.383 102.859 76.242 101.922 75.602 101.922
 c 74.961 101.922 74.758 102.516 74.758 102.797 c 74.758 102.891 74.789 
102.984 74.82 103.031 c 74.898 103.031 l 74.945 102.875 75.086 102.484 75.398
 102.484 c 75.727 102.484 75.945 103.25 75.945 104.031 c 75.93 105.156 75.883
 105.609 75.852 105.969 c 75.586 106.328 75.023 107 75.023 107.562 c 75.023
 107.797 75.117 107.938 75.336 107.938 c 76.023 107.938 76.18 106.484 76.211
 105.969 c 76.57 105.594 78.148 103.844 78.664 102.844 c 78.789 102.609 
78.805 102.453 78.805 102.281 c h
78.805 102.281 m f
83.648 108.172 m 83.336 108.141 83.258 108.078 83.023 107.562 c 81.289 
103.594 l 81.148 103.594 l 79.695 107.016 l 79.242 108.031 79.164 108.156
 78.836 108.172 c 78.836 108.297 l 80.211 108.297 l 80.211 108.172 l 79.883
 108.172 79.742 108.078 79.742 107.875 c 79.742 107.797 79.758 107.703 79.789
 107.609 c 80.117 106.797 l 81.945 106.797 l 82.227 107.453 l 82.305 107.656
 82.352 107.828 82.352 107.922 c 82.352 108.109 82.242 108.156 81.867 108.172
 c 81.867 108.297 l 83.648 108.297 l h
80.227 106.5 m 81.039 104.594 l 81.836 106.5 l h
80.227 106.5 m f
88.887 102.25 m 88.887 102.031 88.684 101.922 88.512 101.922 c 88.059 101.922
 87.48 102.594 87.043 103.297 c 87.027 103.297 86.965 103 86.965 103 c 86.824
 102.406 86.652 102.062 86.34 101.922 c 86.34 101.922 85.324 102.125 85.199
 102.172 c 85.199 102.328 l 85.387 102.281 85.527 102.25 85.621 102.25 c
 86.121 102.25 86.199 102.734 86.543 104.031 c 86.137 104.625 85.496 105.625
 85.246 105.625 c 85.043 105.625 85.027 105.406 84.746 105.406 c 84.559 
105.406 84.418 105.547 84.418 105.734 c 84.418 105.969 84.59 106.125 84.84
 106.125 c 85.48 106.125 86.059 105 86.605 104.297 c 86.637 104.359 86.84
 105.156 86.84 105.156 c 87.059 105.984 87.23 106.125 87.449 106.125 c 87.73
 106.125 88.152 105.844 88.574 105.062 c 88.449 104.984 l 88.293 105.188
 88.043 105.609 87.809 105.609 c 87.496 105.609 87.324 104.344 87.105 103.547
 c 87.152 103.469 87.777 102.469 88.105 102.469 c 88.277 102.469 88.434 
102.609 88.59 102.609 c 88.809 102.609 88.887 102.422 88.887 102.25 c h
88.887 102.25 m f
94.086 108.172 m 93.773 108.141 93.695 108.078 93.461 107.562 c 91.727 
103.594 l 91.586 103.594 l 90.133 107.016 l 89.68 108.031 89.602 108.156
 89.273 108.172 c 89.273 108.297 l 90.648 108.297 l 90.648 108.172 l 90.32
 108.172 90.18 108.078 90.18 107.875 c 90.18 107.797 90.195 107.703 90.227
 107.609 c 90.555 106.797 l 92.383 106.797 l 92.664 107.453 l 92.742 107.656
 92.789 107.828 92.789 107.922 c 92.789 108.109 92.68 108.156 92.305 108.172
 c 92.305 108.297 l 94.086 108.297 l h
90.664 106.5 m 91.477 104.594 l 92.273 106.5 l h
90.664 106.5 m f
135.293 102.281 m 135.293 102.047 135.105 101.922 134.934 101.922 c 134.824
 101.922 134.715 101.969 134.637 102.078 c 134.543 102.25 134.59 102.422
 134.512 102.719 c 134.34 103.453 133.762 104.234 132.762 105.547 c 132.777
 105.312 132.871 104.547 132.871 103.781 c 132.871 102.859 132.73 101.922
 132.09 101.922 c 131.449 101.922 131.246 102.516 131.246 102.797 c 131.246
 102.891 131.277 102.984 131.309 103.031 c 131.387 103.031 l 131.434 102.875
 131.574 102.484 131.887 102.484 c 132.215 102.484 132.434 103.25 132.434
 104.031 c 132.418 105.156 132.371 105.609 132.34 105.969 c 132.074 106.328
 131.512 107 131.512 107.562 c 131.512 107.797 131.605 107.938 131.824 107.938
 c 132.512 107.938 132.668 106.484 132.699 105.969 c 133.059 105.594 134.637
 103.844 135.152 102.844 c 135.277 102.609 135.293 102.453 135.293 102.281
 c h
135.293 102.281 m f
135.336 103.812 m 135.914 103.844 135.992 103.922 135.992 104.438 c 135.992
 107.531 l 135.992 108.062 135.898 108.141 135.336 108.172 c 135.336 108.297
 l 137.664 108.297 l 138.195 108.297 138.695 108.156 138.961 107.906 c 139.211
 107.688 139.336 107.375 139.336 107.047 c 139.336 106.734 139.227 106.453
 139.008 106.25 c 138.789 106.062 138.602 105.984 138.148 105.875 c 138.508
 105.781 138.664 105.719 138.82 105.562 c 139.008 105.406 139.102 105.156
 139.102 104.875 c 139.102 104.094 138.477 103.688 137.273 103.688 c 135.336
 103.688 l h
136.711 106.031 m 137.383 106.031 137.711 106.062 137.961 106.172 c 138.352
 106.328 138.539 106.625 138.539 107.047 c 138.539 107.422 138.398 107.703
 138.117 107.859 c 137.898 107.984 137.602 108.031 137.148 108.031 c 136.805
 108.031 136.711 107.969 136.711 107.75 c h
136.711 105.75 m 136.711 104.156 l 136.711 104 136.742 103.953 136.867 
103.953 c 137.164 103.938 l 137.945 103.922 138.398 104.281 138.398 104.891
 c 138.398 105.453 138.039 105.734 137.367 105.75 c h
136.711 105.75 m f
145.012 102.25 m 145.012 102.031 144.809 101.922 144.637 101.922 c 144.184
 101.922 143.605 102.594 143.168 103.297 c 143.152 103.297 143.09 103 143.09
 103 c 142.949 102.406 142.777 102.062 142.465 101.922 c 142.465 101.922
 141.449 102.125 141.324 102.172 c 141.324 102.328 l 141.512 102.281 141.652
 102.25 141.746 102.25 c 142.246 102.25 142.324 102.734 142.668 104.031 
c 142.262 104.625 141.621 105.625 141.371 105.625 c 141.168 105.625 141.152
 105.406 140.871 105.406 c 140.684 105.406 140.543 105.547 140.543 105.734
 c 140.543 105.969 140.715 106.125 140.965 106.125 c 141.605 106.125 142.184
 105 142.73 104.297 c 142.762 104.359 142.965 105.156 142.965 105.156 c 
143.184 105.984 143.355 106.125 143.574 106.125 c 143.855 106.125 144.277
 105.844 144.699 105.062 c 144.574 104.984 l 144.418 105.188 144.168 105.609
 143.934 105.609 c 143.621 105.609 143.449 104.344 143.23 103.547 c 143.277
 103.469 143.902 102.469 144.23 102.469 c 144.402 102.469 144.559 102.609
 144.715 102.609 c 144.934 102.609 145.012 102.422 145.012 102.25 c h
145.012 102.25 m f
145.418 103.812 m 145.996 103.844 146.074 103.922 146.074 104.438 c 146.074
 107.531 l 146.074 108.062 145.98 108.141 145.418 108.172 c 145.418 108.297
 l 147.746 108.297 l 148.277 108.297 148.777 108.156 149.043 107.906 c 149.293
 107.688 149.418 107.375 149.418 107.047 c 149.418 106.734 149.309 106.453
 149.09 106.25 c 148.871 106.062 148.684 105.984 148.23 105.875 c 148.59
 105.781 148.746 105.719 148.902 105.562 c 149.09 105.406 149.184 105.156
 149.184 104.875 c 149.184 104.094 148.559 103.688 147.355 103.688 c 145.418
 103.688 l h
146.793 106.031 m 147.465 106.031 147.793 106.062 148.043 106.172 c 148.434
 106.328 148.621 106.625 148.621 107.047 c 148.621 107.422 148.48 107.703
 148.199 107.859 c 147.98 107.984 147.684 108.031 147.23 108.031 c 146.887
 108.031 146.793 107.969 146.793 107.75 c h
146.793 105.75 m 146.793 104.156 l 146.793 104 146.824 103.953 146.949 
103.953 c 147.246 103.938 l 148.027 103.922 148.48 104.281 148.48 104.891
 c 148.48 105.453 148.121 105.734 147.449 105.75 c h
146.793 105.75 m f
Q Q
showpage
%%Trailer
end
%%EOF
