<?xml version="1.0" encoding="UTF-8" standalone="no"?>
<svg
   width="167pt"
   height="161pt"
   viewBox="0 0 167 161"
   version="1.2"
   id="svg183"
   xmlns="http://www.w3.org/2000/svg"
   xmlns:svg="http://www.w3.org/2000/svg">
  <defs
     id="defs187" />
  <g
     id="surface1">
    <path
       style="fill:none;stroke-width:5.67042;stroke-linecap:butt;stroke-linejoin:miter;stroke:rgb(0%,0%,0%);stroke-opacity:1;stroke-miterlimit:10;"
       d="M 191.210938 218.90625 L 1608.359375 218.90625 L 1608.359375 1579.375 L 191.210938 1579.375 Z M 191.210938 218.90625 "
       transform="matrix(0.1,0,0,-0.1,0,161)"
       id="path2" />
    <path
       style="fill:none;stroke-width:3.98506;stroke-linecap:butt;stroke-linejoin:miter;stroke:rgb(0%,0%,0%);stroke-opacity:1;stroke-miterlimit:10;"
       d="M 191.054688 218.75 L 191.054688 261.210938 "
       transform="matrix(0.1,0,0,-0.1,0,161)"
       id="path4" />
    <path
       style="fill:none;stroke-width:3.98506;stroke-linecap:butt;stroke-linejoin:miter;stroke:rgb(0%,0%,0%);stroke-opacity:1;stroke-miterlimit:10;"
       d="M 474.609375 218.75 L 474.609375 261.210938 "
       transform="matrix(0.1,0,0,-0.1,0,161)"
       id="path6" />
    <path
       style="fill:none;stroke-width:3.98506;stroke-linecap:butt;stroke-linejoin:miter;stroke:rgb(0%,0%,0%);stroke-opacity:1;stroke-miterlimit:10;"
       d="M 757.8125 218.75 L 757.8125 261.210938 "
       transform="matrix(0.1,0,0,-0.1,0,161)"
       id="path8" />
    <path
       style="fill:none;stroke-width:3.98506;stroke-linecap:butt;stroke-linejoin:miter;stroke:rgb(0%,0%,0%);stroke-opacity:1;stroke-miterlimit:10;"
       d="M 1041.40625 218.75 L 1041.40625 261.210938 "
       transform="matrix(0.1,0,0,-0.1,0,161)"
       id="path10" />
    <path
       style="fill:none;stroke-width:3.98506;stroke-linecap:butt;stroke-linejoin:miter;stroke:rgb(0%,0%,0%);stroke-opacity:1;stroke-miterlimit:10;"
       d="M 1324.960938 218.75 L 1324.960938 261.210938 "
       transform="matrix(0.1,0,0,-0.1,0,161)"
       id="path12" />
    <path
       style="fill:none;stroke-width:3.98506;stroke-linecap:butt;stroke-linejoin:miter;stroke:rgb(0%,0%,0%);stroke-opacity:1;stroke-miterlimit:10;"
       d="M 1608.515625 218.75 L 1608.515625 261.210938 "
       transform="matrix(0.1,0,0,-0.1,0,161)"
       id="path14" />
    <path
       style="fill:none;stroke-width:3.98506;stroke-linecap:butt;stroke-linejoin:miter;stroke:rgb(0%,0%,0%);stroke-opacity:1;stroke-miterlimit:10;"
       d="M 191.054688 218.75 L 191.054688 261.210938 "
       transform="matrix(0.1,0,0,-0.1,0,161)"
       id="path16" />
    <path
       style="fill:none;stroke-width:3.98506;stroke-linecap:butt;stroke-linejoin:miter;stroke:rgb(0%,0%,0%);stroke-opacity:1;stroke-miterlimit:10;"
       d="M 191.328125 218.828125 L 233.75 218.828125 "
       transform="matrix(0.1,0,0,-0.1,0,161)"
       id="path18" />
    <path
       style="fill:none;stroke-width:3.98507;stroke-linecap:butt;stroke-linejoin:miter;stroke:rgb(0%,0%,0%);stroke-opacity:1;stroke-miterlimit:10;"
       d="M 191.132812 445.546875 L 233.710938 445.546875 "
       transform="matrix(0.1,0,0,-0.1,0,161)"
       id="path20" />
    <path
       style="fill:none;stroke-width:3.98506;stroke-linecap:butt;stroke-linejoin:miter;stroke:rgb(0%,0%,0%);stroke-opacity:1;stroke-miterlimit:10;"
       d="M 191.289062 672.265625 L 233.710938 672.265625 "
       transform="matrix(0.1,0,0,-0.1,0,161)"
       id="path22" />
    <path
       style="fill:none;stroke-width:3.98505;stroke-linecap:butt;stroke-linejoin:miter;stroke:rgb(0%,0%,0%);stroke-opacity:1;stroke-miterlimit:10;"
       d="M 191.09375 899.023438 L 233.671875 899.023438 "
       transform="matrix(0.1,0,0,-0.1,0,161)"
       id="path24" />
    <path
       style="fill:none;stroke-width:3.98504;stroke-linecap:butt;stroke-linejoin:miter;stroke:rgb(0%,0%,0%);stroke-opacity:1;stroke-miterlimit:10;"
       d="M 190.898438 1125.742188 L 233.671875 1125.742188 "
       transform="matrix(0.1,0,0,-0.1,0,161)"
       id="path26" />
    <path
       style="fill:none;stroke-width:3.98506;stroke-linecap:butt;stroke-linejoin:miter;stroke:rgb(0%,0%,0%);stroke-opacity:1;stroke-miterlimit:10;"
       d="M 191.289062 1352.65625 L 233.867188 1352.65625 "
       transform="matrix(0.1,0,0,-0.1,0,161)"
       id="path28" />
    <path
       style="fill:none;stroke-width:3.98507;stroke-linecap:butt;stroke-linejoin:miter;stroke:rgb(0%,0%,0%);stroke-opacity:1;stroke-miterlimit:10;"
       d="M 191.210938 1579.375 L 233.632812 1579.375 "
       transform="matrix(0.1,0,0,-0.1,0,161)"
       id="path30" />
    <path
       style="fill:none;stroke-width:3.98506;stroke-linecap:butt;stroke-linejoin:miter;stroke:rgb(0%,0%,0%);stroke-opacity:1;stroke-miterlimit:10;"
       d="M 191.328125 218.828125 L 233.75 218.828125 "
       transform="matrix(0.1,0,0,-0.1,0,161)"
       id="path32" />
    <path
       style="fill:none;stroke-width:3.98507;stroke-linecap:butt;stroke-linejoin:miter;stroke:rgb(0%,0%,0%);stroke-opacity:1;stroke-miterlimit:10;"
       d="M 191.210938 1579.375 L 191.210938 1536.953125 "
       transform="matrix(0.1,0,0,-0.1,0,161)"
       id="path34" />
    <path
       style="fill:none;stroke-width:3.98507;stroke-linecap:butt;stroke-linejoin:miter;stroke:rgb(0%,0%,0%);stroke-opacity:1;stroke-miterlimit:10;"
       d="M 474.570312 1579.375 L 474.570312 1536.953125 "
       transform="matrix(0.1,0,0,-0.1,0,161)"
       id="path36" />
    <path
       style="fill:none;stroke-width:3.98507;stroke-linecap:butt;stroke-linejoin:miter;stroke:rgb(0%,0%,0%);stroke-opacity:1;stroke-miterlimit:10;"
       d="M 757.929688 1579.375 L 757.929688 1536.953125 "
       transform="matrix(0.1,0,0,-0.1,0,161)"
       id="path38" />
    <path
       style="fill:none;stroke-width:3.98507;stroke-linecap:butt;stroke-linejoin:miter;stroke:rgb(0%,0%,0%);stroke-opacity:1;stroke-miterlimit:10;"
       d="M 1041.640625 1579.375 L 1041.640625 1536.953125 "
       transform="matrix(0.1,0,0,-0.1,0,161)"
       id="path40" />
    <path
       style="fill:none;stroke-width:3.98507;stroke-linecap:butt;stroke-linejoin:miter;stroke:rgb(0%,0%,0%);stroke-opacity:1;stroke-miterlimit:10;"
       d="M 1325 1579.375 L 1325 1536.953125 "
       transform="matrix(0.1,0,0,-0.1,0,161)"
       id="path42" />
    <path
       style="fill:none;stroke-width:3.98507;stroke-linecap:butt;stroke-linejoin:miter;stroke:rgb(0%,0%,0%);stroke-opacity:1;stroke-miterlimit:10;"
       d="M 1608.359375 1579.375 L 1608.359375 1536.953125 "
       transform="matrix(0.1,0,0,-0.1,0,161)"
       id="path44" />
    <path
       style="fill:none;stroke-width:3.98507;stroke-linecap:butt;stroke-linejoin:miter;stroke:rgb(0%,0%,0%);stroke-opacity:1;stroke-miterlimit:10;"
       d="M 191.210938 1579.375 L 191.210938 1536.953125 "
       transform="matrix(0.1,0,0,-0.1,0,161)"
       id="path46" />
    <path
       style="fill:none;stroke-width:3.98506;stroke-linecap:butt;stroke-linejoin:miter;stroke:rgb(0%,0%,0%);stroke-opacity:1;stroke-miterlimit:10;"
       d="M 1608.398438 218.828125 L 1565.976562 218.828125 "
       transform="matrix(0.1,0,0,-0.1,0,161)"
       id="path48" />
    <path
       style="fill:none;stroke-width:3.98507;stroke-linecap:butt;stroke-linejoin:miter;stroke:rgb(0%,0%,0%);stroke-opacity:1;stroke-miterlimit:10;"
       d="M 1608.554688 445.546875 L 1565.976562 445.546875 "
       transform="matrix(0.1,0,0,-0.1,0,161)"
       id="path50" />
    <path
       style="fill:none;stroke-width:3.98506;stroke-linecap:butt;stroke-linejoin:miter;stroke:rgb(0%,0%,0%);stroke-opacity:1;stroke-miterlimit:10;"
       d="M 1608.320312 672.265625 L 1565.898438 672.265625 "
       transform="matrix(0.1,0,0,-0.1,0,161)"
       id="path52" />
    <path
       style="fill:none;stroke-width:3.98505;stroke-linecap:butt;stroke-linejoin:miter;stroke:rgb(0%,0%,0%);stroke-opacity:1;stroke-miterlimit:10;"
       d="M 1608.398438 899.023438 L 1565.78125 899.023438 "
       transform="matrix(0.1,0,0,-0.1,0,161)"
       id="path54" />
    <path
       style="fill:none;stroke-width:3.98504;stroke-linecap:butt;stroke-linejoin:miter;stroke:rgb(0%,0%,0%);stroke-opacity:1;stroke-miterlimit:10;"
       d="M 1608.4375 1125.742188 L 1566.015625 1125.742188 "
       transform="matrix(0.1,0,0,-0.1,0,161)"
       id="path56" />
    <path
       style="fill:none;stroke-width:3.98506;stroke-linecap:butt;stroke-linejoin:miter;stroke:rgb(0%,0%,0%);stroke-opacity:1;stroke-miterlimit:10;"
       d="M 1608.632812 1352.65625 L 1566.054688 1352.65625 "
       transform="matrix(0.1,0,0,-0.1,0,161)"
       id="path58" />
    <path
       style="fill:none;stroke-width:3.98507;stroke-linecap:butt;stroke-linejoin:miter;stroke:rgb(0%,0%,0%);stroke-opacity:1;stroke-miterlimit:10;"
       d="M 1608.359375 1579.375 L 1565.9375 1579.375 "
       transform="matrix(0.1,0,0,-0.1,0,161)"
       id="path60" />
    <path
       style="fill:none;stroke-width:3.98506;stroke-linecap:butt;stroke-linejoin:miter;stroke:rgb(0%,0%,0%);stroke-opacity:1;stroke-miterlimit:10;"
       d="M 1608.398438 218.828125 L 1565.976562 218.828125 "
       transform="matrix(0.1,0,0,-0.1,0,161)"
       id="path62" />
    <path
       style=" stroke:none;fill-rule:nonzero;fill:rgb(0%,0%,0%);fill-opacity:1;"
       d="M 21.066406 145.652344 C 21.066406 144.042969 20.332031 142.589844 19.082031 142.589844 C 17.816406 142.589844 17.082031 144.042969 17.082031 145.652344 C 17.082031 147.277344 17.769531 148.714844 19.082031 148.714844 C 20.285156 148.714844 21.066406 147.277344 21.066406 145.652344 Z M 20.207031 145.652344 C 20.207031 146.949219 20.082031 148.464844 19.082031 148.464844 C 18.128906 148.464844 17.941406 146.949219 17.941406 145.652344 C 17.941406 144.574219 18.066406 142.824219 19.082031 142.824219 C 20.082031 142.824219 20.207031 144.574219 20.207031 145.652344 Z M 20.207031 145.652344 "
       id="path64" />
    <path
       style=" stroke:none;fill-rule:nonzero;fill:rgb(0%,0%,0%);fill-opacity:1;"
       d="M 46.027344 145.652344 C 46.027344 144.042969 45.292969 142.589844 44.042969 142.589844 C 42.777344 142.589844 42.042969 144.042969 42.042969 145.652344 C 42.042969 147.277344 42.730469 148.714844 44.042969 148.714844 C 45.246094 148.714844 46.027344 147.277344 46.027344 145.652344 Z M 45.167969 145.652344 C 45.167969 146.949219 45.042969 148.464844 44.042969 148.464844 C 43.089844 148.464844 42.902344 146.949219 42.902344 145.652344 C 42.902344 144.574219 43.027344 142.824219 44.042969 142.824219 C 45.042969 142.824219 45.167969 144.574219 45.167969 145.652344 Z M 45.167969 145.652344 "
       id="path66" />
    <path
       style=" stroke:none;fill-rule:nonzero;fill:rgb(0%,0%,0%);fill-opacity:1;"
       d="M 47.953125 148.230469 C 47.953125 147.949219 47.734375 147.730469 47.453125 147.730469 C 47.171875 147.730469 46.953125 147.949219 46.953125 148.230469 C 46.953125 148.511719 47.171875 148.730469 47.453125 148.730469 C 47.734375 148.730469 47.953125 148.511719 47.953125 148.230469 Z M 47.953125 148.230469 "
       id="path68" />
    <path
       style=" stroke:none;fill-rule:nonzero;fill:rgb(0%,0%,0%);fill-opacity:1;"
       d="M 52.898438 147.449219 L 52.742188 147.417969 C 52.476562 147.871094 52.257812 147.949219 51.820312 147.949219 L 49.757812 147.949219 C 51.179688 146.652344 52.476562 145.480469 52.476562 144.167969 C 52.476562 143.246094 51.679688 142.589844 50.804688 142.589844 C 49.945312 142.589844 49.257812 143.058594 48.992188 144.277344 L 49.195312 144.277344 C 49.445312 143.777344 49.789062 143.261719 50.476562 143.261719 C 51.257812 143.261719 51.695312 143.855469 51.695312 144.527344 C 51.695312 145.496094 50.664062 146.917969 48.898438 148.464844 L 48.898438 148.605469 L 52.429688 148.605469 Z M 52.898438 147.449219 "
       id="path70" />
    <path
       style=" stroke:none;fill-rule:nonzero;fill:rgb(0%,0%,0%);fill-opacity:1;"
       d="M 74.347656 145.652344 C 74.347656 144.042969 73.613281 142.589844 72.363281 142.589844 C 71.097656 142.589844 70.363281 144.042969 70.363281 145.652344 C 70.363281 147.277344 71.050781 148.714844 72.363281 148.714844 C 73.566406 148.714844 74.347656 147.277344 74.347656 145.652344 Z M 73.488281 145.652344 C 73.488281 146.949219 73.363281 148.464844 72.363281 148.464844 C 71.410156 148.464844 71.222656 146.949219 71.222656 145.652344 C 71.222656 144.574219 71.347656 142.824219 72.363281 142.824219 C 73.363281 142.824219 73.488281 144.574219 73.488281 145.652344 Z M 73.488281 145.652344 "
       id="path72" />
    <path
       style=" stroke:none;fill-rule:nonzero;fill:rgb(0%,0%,0%);fill-opacity:1;"
       d="M 76.273438 148.230469 C 76.273438 147.949219 76.054688 147.730469 75.773438 147.730469 C 75.492188 147.730469 75.273438 147.949219 75.273438 148.230469 C 75.273438 148.511719 75.492188 148.730469 75.773438 148.730469 C 76.054688 148.730469 76.273438 148.511719 76.273438 148.230469 Z M 76.273438 148.230469 "
       id="path74" />
    <path
       style=" stroke:none;fill-rule:nonzero;fill:rgb(0%,0%,0%);fill-opacity:1;"
       d="M 81.203125 147.121094 L 81.203125 146.511719 L 80.328125 146.511719 L 80.328125 142.589844 L 79.890625 142.589844 L 77.296875 146.496094 L 77.296875 147.121094 L 79.59375 147.121094 L 79.59375 148.605469 L 80.328125 148.605469 L 80.328125 147.121094 Z M 79.59375 146.511719 L 77.65625 146.511719 L 79.578125 143.527344 L 79.59375 143.527344 Z M 79.59375 146.511719 "
       id="path76" />
    <path
       style=" stroke:none;fill-rule:nonzero;fill:rgb(0%,0%,0%);fill-opacity:1;"
       d="M 102.667969 145.652344 C 102.667969 144.042969 101.933594 142.589844 100.683594 142.589844 C 99.417969 142.589844 98.683594 144.042969 98.683594 145.652344 C 98.683594 147.277344 99.371094 148.714844 100.683594 148.714844 C 101.886719 148.714844 102.667969 147.277344 102.667969 145.652344 Z M 101.808594 145.652344 C 101.808594 146.949219 101.683594 148.464844 100.683594 148.464844 C 99.730469 148.464844 99.542969 146.949219 99.542969 145.652344 C 99.542969 144.574219 99.667969 142.824219 100.683594 142.824219 C 101.683594 142.824219 101.808594 144.574219 101.808594 145.652344 Z M 101.808594 145.652344 "
       id="path78" />
    <path
       style=" stroke:none;fill-rule:nonzero;fill:rgb(0%,0%,0%);fill-opacity:1;"
       d="M 104.59375 148.230469 C 104.59375 147.949219 104.375 147.730469 104.09375 147.730469 C 103.8125 147.730469 103.59375 147.949219 103.59375 148.230469 C 103.59375 148.511719 103.8125 148.730469 104.09375 148.730469 C 104.375 148.730469 104.59375 148.511719 104.59375 148.230469 Z M 104.59375 148.230469 "
       id="path80" />
    <path
       style=" stroke:none;fill-rule:nonzero;fill:rgb(0%,0%,0%);fill-opacity:1;"
       d="M 109.460938 146.589844 C 109.460938 145.605469 108.757812 144.871094 107.867188 144.871094 C 107.414062 144.871094 107.039062 145.011719 106.648438 145.324219 C 107.039062 143.730469 108.210938 142.730469 109.335938 142.714844 L 109.335938 142.558594 C 106.570312 142.558594 105.695312 144.902344 105.695312 146.230469 C 105.695312 147.652344 106.523438 148.714844 107.632812 148.714844 C 108.648438 148.714844 109.460938 147.761719 109.460938 146.589844 Z M 108.695312 147.042969 C 108.695312 147.871094 108.320312 148.449219 107.726562 148.449219 C 106.804688 148.449219 106.523438 147.105469 106.523438 146.386719 C 106.523438 146.152344 106.554688 145.902344 106.601562 145.605469 C 106.992188 145.355469 107.304688 145.246094 107.617188 145.246094 C 108.523438 145.246094 108.695312 146.292969 108.695312 147.042969 Z M 108.695312 147.042969 "
       id="path82" />
    <path
       style=" stroke:none;fill-rule:nonzero;fill:rgb(0%,0%,0%);fill-opacity:1;"
       d="M 131.105469 145.652344 C 131.105469 144.042969 130.371094 142.589844 129.121094 142.589844 C 127.855469 142.589844 127.121094 144.042969 127.121094 145.652344 C 127.121094 147.277344 127.808594 148.714844 129.121094 148.714844 C 130.324219 148.714844 131.105469 147.277344 131.105469 145.652344 Z M 130.246094 145.652344 C 130.246094 146.949219 130.121094 148.464844 129.121094 148.464844 C 128.167969 148.464844 127.980469 146.949219 127.980469 145.652344 C 127.980469 144.574219 128.105469 142.824219 129.121094 142.824219 C 130.121094 142.824219 130.246094 144.574219 130.246094 145.652344 Z M 130.246094 145.652344 "
       id="path84" />
    <path
       style=" stroke:none;fill-rule:nonzero;fill:rgb(0%,0%,0%);fill-opacity:1;"
       d="M 133.03125 148.230469 C 133.03125 147.949219 132.8125 147.730469 132.53125 147.730469 C 132.25 147.730469 132.03125 147.949219 132.03125 148.230469 C 132.03125 148.511719 132.25 148.730469 132.53125 148.730469 C 132.8125 148.730469 133.03125 148.511719 133.03125 148.230469 Z M 133.03125 148.230469 "
       id="path86" />
    <path
       style=" stroke:none;fill-rule:nonzero;fill:rgb(0%,0%,0%);fill-opacity:1;"
       d="M 137.679688 147.230469 C 137.679688 146.589844 137.398438 146.105469 136.304688 145.292969 C 136.992188 144.917969 137.523438 144.496094 137.523438 143.839844 C 137.523438 143.152344 136.882812 142.558594 135.929688 142.558594 C 135.085938 142.558594 134.289062 143.105469 134.289062 143.949219 C 134.289062 144.605469 134.632812 144.996094 135.398438 145.605469 C 134.539062 146.261719 134.226562 146.589844 134.226562 147.261719 C 134.226562 148.011719 134.898438 148.714844 135.945312 148.714844 C 137.164062 148.714844 137.679688 147.886719 137.679688 147.230469 Z M 136.914062 143.824219 C 136.914062 144.464844 136.539062 144.808594 136.054688 145.136719 C 135.460938 144.714844 134.945312 144.246094 134.945312 143.730469 C 134.945312 143.246094 135.289062 142.824219 135.898438 142.824219 C 136.570312 142.824219 136.914062 143.246094 136.914062 143.824219 Z M 137.039062 147.480469 C 137.039062 148.058594 136.601562 148.449219 136.023438 148.449219 C 135.335938 148.449219 134.898438 147.902344 134.898438 147.167969 C 134.898438 146.496094 135.226562 146.105469 135.632812 145.761719 C 136.617188 146.511719 137.039062 146.886719 137.039062 147.480469 Z M 137.039062 147.480469 "
       id="path88" />
    <path
       style=" stroke:none;fill-rule:nonzero;fill:rgb(0%,0%,0%);fill-opacity:1;"
       d="M 158.675781 148.605469 L 158.675781 148.464844 C 158.082031 148.464844 157.863281 148.480469 157.863281 147.308594 C 157.863281 147.292969 157.863281 142.558594 157.863281 142.558594 L 157.738281 142.558594 L 156.207031 143.292969 L 156.253906 143.433594 C 156.582031 143.292969 156.660156 143.261719 156.785156 143.261719 C 157.050781 143.261719 157.097656 143.496094 157.097656 143.808594 L 157.097656 147.308594 C 157.097656 148.480469 156.878906 148.449219 156.285156 148.464844 L 156.285156 148.605469 Z M 158.675781 148.605469 "
       id="path90" />
    <path
       style=" stroke:none;fill-rule:nonzero;fill:rgb(0%,0%,0%);fill-opacity:1;"
       d="M 161.351562 148.230469 C 161.351562 147.949219 161.132812 147.730469 160.851562 147.730469 C 160.570312 147.730469 160.351562 147.949219 160.351562 148.230469 C 160.351562 148.511719 160.570312 148.730469 160.851562 148.730469 C 161.132812 148.730469 161.351562 148.511719 161.351562 148.230469 Z M 161.351562 148.230469 "
       id="path92" />
    <path
       style=" stroke:none;fill-rule:nonzero;fill:rgb(0%,0%,0%);fill-opacity:1;"
       d="M 166.265625 145.652344 C 166.265625 144.042969 165.53125 142.589844 164.28125 142.589844 C 163.015625 142.589844 162.28125 144.042969 162.28125 145.652344 C 162.28125 147.277344 162.96875 148.714844 164.28125 148.714844 C 165.484375 148.714844 166.265625 147.277344 166.265625 145.652344 Z M 165.40625 145.652344 C 165.40625 146.949219 165.28125 148.464844 164.28125 148.464844 C 163.328125 148.464844 163.140625 146.949219 163.140625 145.652344 C 163.140625 144.574219 163.265625 142.824219 164.28125 142.824219 C 165.28125 142.824219 165.40625 144.574219 165.40625 145.652344 Z M 165.40625 145.652344 "
       id="path94" />
    <path
       style=" stroke:none;fill-rule:nonzero;fill:rgb(0%,0%,0%);fill-opacity:1;"
       d="M 15.429688 139.175781 C 15.429688 137.566406 14.695312 136.113281 13.445312 136.113281 C 12.179688 136.113281 11.445312 137.566406 11.445312 139.175781 C 11.445312 140.800781 12.132812 142.238281 13.445312 142.238281 C 14.648438 142.238281 15.429688 140.800781 15.429688 139.175781 Z M 14.570312 139.175781 C 14.570312 140.472656 14.445312 141.988281 13.445312 141.988281 C 12.492188 141.988281 12.304688 140.472656 12.304688 139.175781 C 12.304688 138.097656 12.429688 136.347656 13.445312 136.347656 C 14.445312 136.347656 14.570312 138.097656 14.570312 139.175781 Z M 14.570312 139.175781 "
       id="path96" />
    <path
       style=" stroke:none;fill-rule:nonzero;fill:rgb(0%,0%,0%);fill-opacity:1;"
       d="M 14.679688 119.445312 L 14.679688 119.304688 C 14.085938 119.304688 13.867188 119.320312 13.867188 118.148438 C 13.867188 118.132812 13.867188 113.398438 13.867188 113.398438 L 13.742188 113.398438 L 12.210938 114.132812 L 12.257812 114.273438 C 12.585938 114.132812 12.664062 114.101562 12.789062 114.101562 C 13.054688 114.101562 13.101562 114.335938 13.101562 114.648438 L 13.101562 118.148438 C 13.101562 119.320312 12.882812 119.289062 12.289062 119.304688 L 12.289062 119.445312 Z M 14.679688 119.445312 "
       id="path98" />
    <path
       style=" stroke:none;fill-rule:nonzero;fill:rgb(0%,0%,0%);fill-opacity:1;"
       d="M 15.460938 95.609375 L 15.304688 95.578125 C 15.039062 96.03125 14.820312 96.109375 14.382812 96.109375 L 12.320312 96.109375 C 13.742188 94.8125 15.039062 93.640625 15.039062 92.328125 C 15.039062 91.40625 14.242188 90.75 13.367188 90.75 C 12.507812 90.75 11.820312 91.21875 11.554688 92.4375 L 11.757812 92.4375 C 12.007812 91.9375 12.351562 91.421875 13.039062 91.421875 C 13.820312 91.421875 14.257812 92.015625 14.257812 92.6875 C 14.257812 93.65625 13.226562 95.078125 11.460938 96.625 L 11.460938 96.765625 L 14.992188 96.765625 Z M 15.460938 95.609375 "
       id="path100" />
    <path
       style=" stroke:none;fill-rule:nonzero;fill:rgb(0%,0%,0%);fill-opacity:1;"
       d="M 15.085938 72.148438 C 15.085938 71.210938 14.539062 70.804688 14.007812 70.585938 C 14.585938 70.148438 14.773438 69.742188 14.773438 69.257812 C 14.773438 68.742188 14.351562 68.070312 13.382812 68.070312 C 12.679688 68.070312 12.007812 68.460938 11.710938 69.429688 L 11.851562 69.460938 C 12.039062 69.101562 12.398438 68.648438 13.054688 68.648438 C 13.695312 68.648438 14.070312 69.085938 14.070312 69.585938 C 14.070312 70.289062 13.523438 70.789062 12.710938 70.976562 L 12.695312 71.164062 C 14.085938 71.101562 14.429688 72.007812 14.429688 72.570312 C 14.429688 73.242188 13.945312 73.851562 13.304688 73.851562 C 12.726562 73.851562 12.476562 73.351562 11.992188 73.351562 C 11.835938 73.351562 11.648438 73.507812 11.648438 73.710938 C 11.648438 74.085938 12.210938 74.195312 12.617188 74.195312 C 14.039062 74.195312 15.085938 73.382812 15.085938 72.148438 Z M 15.085938 72.148438 "
       id="path102" />
    <path
       style=" stroke:none;fill-rule:nonzero;fill:rgb(0%,0%,0%);fill-opacity:1;"
       d="M 15.445312 49.921875 L 15.445312 49.3125 L 14.570312 49.3125 L 14.570312 45.390625 L 14.132812 45.390625 L 11.539062 49.296875 L 11.539062 49.921875 L 13.835938 49.921875 L 13.835938 51.40625 L 14.570312 51.40625 L 14.570312 49.921875 Z M 13.835938 49.3125 L 11.898438 49.3125 L 13.820312 46.328125 L 13.835938 46.328125 Z M 13.835938 49.3125 "
       id="path104" />
    <path
       style=" stroke:none;fill-rule:nonzero;fill:rgb(0%,0%,0%);fill-opacity:1;"
       d="M 15.367188 22.804688 L 12.898438 22.804688 L 11.789062 25.351562 C 11.929688 25.320312 12.070312 25.289062 12.242188 25.289062 C 13.195312 25.289062 14.492188 25.789062 14.492188 26.960938 C 14.492188 27.867188 13.835938 28.445312 13.210938 28.445312 C 12.664062 28.445312 12.460938 27.945312 11.945312 27.945312 C 11.695312 27.945312 11.617188 28.164062 11.617188 28.273438 C 11.617188 28.585938 12.054688 28.835938 12.679688 28.835938 C 14.023438 28.835938 15.085938 27.851562 15.085938 26.648438 C 15.085938 25.226562 13.960938 24.742188 12.742188 24.710938 C 12.632812 24.710938 12.507812 24.726562 12.398438 24.742188 L 12.960938 23.476562 L 15.054688 23.460938 Z M 15.367188 22.804688 "
       id="path106" />
    <path
       style=" stroke:none;fill-rule:nonzero;fill:rgb(0%,0%,0%);fill-opacity:1;"
       d="M 15.382812 4.03125 C 15.382812 3.046875 14.679688 2.3125 13.789062 2.3125 C 13.335938 2.3125 12.960938 2.453125 12.570312 2.765625 C 12.960938 1.171875 14.132812 0.171875 15.257812 0.15625 L 15.257812 0 C 12.492188 0 11.617188 2.34375 11.617188 3.671875 C 11.617188 5.09375 12.445312 6.15625 13.554688 6.15625 C 14.570312 6.15625 15.382812 5.203125 15.382812 4.03125 Z M 14.617188 4.484375 C 14.617188 5.3125 14.242188 5.890625 13.648438 5.890625 C 12.726562 5.890625 12.445312 4.546875 12.445312 3.828125 C 12.445312 3.59375 12.476562 3.34375 12.523438 3.046875 C 12.914062 2.796875 13.226562 2.6875 13.539062 2.6875 C 14.445312 2.6875 14.617188 3.734375 14.617188 4.484375 Z M 14.617188 4.484375 "
       id="path108" />
    <path
       style="fill:none;stroke-width:4.25176;stroke-linecap:butt;stroke-linejoin:miter;stroke:rgb(0%,0%,0%);stroke-opacity:1;stroke-miterlimit:10"
       d="M 191.133 445.547 L 219.199 445.547 M 233.232 445.547 L 261.298 445.547 M 275.331 445.547 L 303.397 445.547 M 317.43 445.547 L 345.495 445.547 M 359.528 445.547 L 387.594 445.547 M 401.627 445.547 L 429.692 445.547 M 443.726 445.547 L 471.791 445.547 M 485.823 445.547 L 513.889 445.547 M 527.922 445.547 L 555.987 445.547 M 570.019 445.547 L 598.086 445.547 M 612.119 445.547 L 640.184 445.547 M 654.217 445.547 L 682.282 445.547 M 696.316 445.547 L 724.382 445.547 M 738.415 445.547 L 766.481 445.547 M 780.515 445.547 L 808.58 445.547 M 822.613 445.547 L 850.678 445.547 M 864.711 445.547 L 892.777 445.547 M 906.81 445.547 L 934.875 445.547 M 948.908 445.547 L 976.973 445.547 M 991.007 445.547 L 1019.07 445.547 M 1033.11 445.547 L 1061.17 445.547 M 1075.2 445.547 L 1103.27 445.547 M 1117.3 445.547 L 1145.37 445.547 M 1159.4 445.547 L 1187.46 445.547 M 1201.5 445.547 L 1229.56 445.547 M 1243.6 445.547 L 1271.66 445.547 M 1285.69 445.547 L 1313.76 445.547 M 1327.79 445.547 L 1355.86 445.547 M 1369.89 445.547 L 1397.96 445.547 M 1411.99 445.547 L 1440.06 445.547 M 1454.09 445.547 L 1482.16 445.547 M 1496.19 445.547 L 1524.25 445.547 M 1538.29 445.547 L 1566.35 445.547 M 1580.39 445.547 L 1608.45 445.547 M 1608.55 445.547"
       transform="matrix(0.1,0,0,-0.1,0,161)"
       id="path110" />
    <path
       style=" stroke:none;fill-rule:nonzero;fill:rgb(0%,0%,0%);fill-opacity:1;"
       d="M 89.464844 154.441406 C 89.464844 154.222656 89.261719 154.113281 89.089844 154.113281 C 88.636719 154.113281 88.058594 154.785156 87.621094 155.488281 C 87.605469 155.488281 87.542969 155.191406 87.542969 155.191406 C 87.402344 154.597656 87.230469 154.253906 86.917969 154.113281 C 86.917969 154.113281 85.902344 154.316406 85.777344 154.363281 L 85.777344 154.519531 C 85.964844 154.472656 86.105469 154.441406 86.199219 154.441406 C 86.699219 154.441406 86.777344 154.925781 87.121094 156.222656 C 86.714844 156.816406 86.074219 157.816406 85.824219 157.816406 C 85.621094 157.816406 85.605469 157.597656 85.324219 157.597656 C 85.136719 157.597656 84.996094 157.738281 84.996094 157.925781 C 84.996094 158.160156 85.167969 158.316406 85.417969 158.316406 C 86.058594 158.316406 86.636719 157.191406 87.183594 156.488281 C 87.214844 156.550781 87.417969 157.347656 87.417969 157.347656 C 87.636719 158.175781 87.808594 158.316406 88.027344 158.316406 C 88.308594 158.316406 88.730469 158.035156 89.152344 157.253906 L 89.027344 157.175781 C 88.871094 157.378906 88.621094 157.800781 88.386719 157.800781 C 88.074219 157.800781 87.902344 156.535156 87.683594 155.738281 C 87.730469 155.660156 88.355469 154.660156 88.683594 154.660156 C 88.855469 154.660156 89.011719 154.800781 89.167969 154.800781 C 89.386719 154.800781 89.464844 154.613281 89.464844 154.441406 Z M 89.464844 154.441406 "
       id="path112" />
    <path
       style=" stroke:none;fill-rule:nonzero;fill:rgb(0%,0%,0%);fill-opacity:1;"
       d="M 94.667969 160.363281 C 94.355469 160.332031 94.277344 160.269531 94.042969 159.753906 L 92.308594 155.785156 L 92.167969 155.785156 L 90.714844 159.207031 C 90.261719 160.222656 90.183594 160.347656 89.855469 160.363281 L 89.855469 160.488281 L 91.230469 160.488281 L 91.230469 160.363281 C 90.902344 160.363281 90.761719 160.269531 90.761719 160.066406 C 90.761719 159.988281 90.777344 159.894531 90.808594 159.800781 L 91.136719 158.988281 L 92.964844 158.988281 L 93.246094 159.644531 C 93.324219 159.847656 93.371094 160.019531 93.371094 160.113281 C 93.371094 160.300781 93.261719 160.347656 92.886719 160.363281 L 92.886719 160.488281 L 94.667969 160.488281 Z M 91.246094 158.691406 L 92.058594 156.785156 L 92.855469 158.691406 Z M 91.246094 158.691406 "
       id="path114" />
    <path
       style=" stroke:none;fill-rule:nonzero;fill:rgb(0%,0%,0%);fill-opacity:1;"
       d="M 0.359375 71.257812 C 0.125 71.257812 0 71.445312 0 71.617188 C 0 71.726562 0.046875 71.835938 0.15625 71.914062 C 0.328125 72.007812 0.5 71.960938 0.796875 72.039062 C 1.53125 72.210938 2.3125 72.789062 3.625 73.789062 C 3.390625 73.773438 2.625 73.679688 1.859375 73.679688 C 0.9375 73.679688 0 73.820312 0 74.460938 C 0 75.101562 0.59375 75.304688 0.875 75.304688 C 0.96875 75.304688 1.0625 75.273438 1.109375 75.242188 L 1.109375 75.164062 C 0.953125 75.117188 0.5625 74.976562 0.5625 74.664062 C 0.5625 74.335938 1.328125 74.117188 2.109375 74.117188 C 3.234375 74.132812 3.6875 74.179688 4.046875 74.210938 C 4.40625 74.476562 5.078125 75.039062 5.640625 75.039062 C 5.875 75.039062 6.015625 74.945312 6.015625 74.726562 C 6.015625 74.039062 4.5625 73.882812 4.046875 73.851562 C 3.671875 73.492188 1.921875 71.914062 0.921875 71.398438 C 0.6875 71.273438 0.53125 71.257812 0.359375 71.257812 Z M 0.359375 71.257812 "
       id="path116" />
    <path
       style=" stroke:none;fill-rule:nonzero;fill:rgb(0%,0%,0%);fill-opacity:1;"
       d="M 1.890625 71.210938 C 1.921875 70.632812 2 70.554688 2.515625 70.554688 L 5.609375 70.554688 C 6.140625 70.554688 6.21875 70.648438 6.25 71.210938 L 6.375 71.210938 L 6.375 68.882812 C 6.375 68.351562 6.234375 67.851562 5.984375 67.585938 C 5.765625 67.335938 5.453125 67.210938 5.125 67.210938 C 4.8125 67.210938 4.53125 67.320312 4.328125 67.539062 C 4.140625 67.757812 4.0625 67.945312 3.953125 68.398438 C 3.859375 68.039062 3.796875 67.882812 3.640625 67.726562 C 3.484375 67.539062 3.234375 67.445312 2.953125 67.445312 C 2.171875 67.445312 1.765625 68.070312 1.765625 69.273438 L 1.765625 71.210938 Z M 4.109375 69.835938 C 4.109375 69.164062 4.140625 68.835938 4.25 68.585938 C 4.40625 68.195312 4.703125 68.007812 5.125 68.007812 C 5.5 68.007812 5.78125 68.148438 5.9375 68.429688 C 6.0625 68.648438 6.109375 68.945312 6.109375 69.398438 C 6.109375 69.742188 6.046875 69.835938 5.828125 69.835938 Z M 3.828125 69.835938 L 2.234375 69.835938 C 2.078125 69.835938 2.03125 69.804688 2.03125 69.679688 L 2.015625 69.382812 C 2 68.601562 2.359375 68.148438 2.96875 68.148438 C 3.53125 68.148438 3.8125 68.507812 3.828125 69.179688 Z M 3.828125 69.835938 "
       id="path118" />
    <path
       style="fill:none;stroke-width:11.3366;stroke-linecap:butt;stroke-linejoin:miter;stroke:rgb(0%,0%,0%);stroke-opacity:1;stroke-miterlimit:10;"
       d="M 191.171875 445.390625 C 191.171875 445.390625 210.273438 446.796875 220.351562 447.460938 C 225.546875 447.460938 230.390625 447.109375 235.625 447.460938 C 241.523438 447.8125 246.367188 448.515625 252.265625 449.21875 C 261.289062 449.921875 269.257812 450.234375 277.96875 451.289062 C 289.765625 452.34375 300.507812 453.710938 312.304688 455.117188 C 359.140625 461.71875 401.132812 466.914062 447.65625 475.585938 C 517.070312 488.789062 579.179688 502.65625 647.1875 521.054688 C 695.78125 534.21875 739.179688 547.421875 786.71875 565.117188 C 847.460938 588.007812 901.914062 610.234375 959.179688 640.78125 C 997.382812 660.898438 1030.351562 682.070312 1064.6875 707.734375 C 1121.953125 751.132812 1171.5625 792.773438 1219.804688 845.859375 C 1270.820312 901.40625 1310.742188 956.914062 1349.257812 1021.835938 C 1399.570312 1106.484375 1434.648438 1188.75 1471.40625 1280.039062 C 1498.125 1345.976562 1536.992188 1475.078125 1536.992188 1475.078125 "
       transform="matrix(0.1,0,0,-0.1,0,161)"
       id="path120" />
    <path
       style=" stroke:none;fill-rule:nonzero;fill:rgb(100%,100%,100%);fill-opacity:1;"
       d="M 21.242188 116.445312 C 21.242188 115.269531 20.289062 114.316406 19.113281 114.316406 C 17.9375 114.316406 16.984375 115.269531 16.984375 116.445312 C 16.984375 117.621094 17.9375 118.574219 19.113281 118.574219 C 20.289062 118.574219 21.242188 117.621094 21.242188 116.445312 "
       id="path122" />
    <path
       style=" stroke:none;fill-rule:nonzero;fill:rgb(0%,0%,0%);fill-opacity:1;"
       d="M 21.242188 116.445312 C 21.242188 115.269531 20.289062 114.316406 19.113281 114.316406 C 17.9375 114.316406 16.984375 115.269531 16.984375 116.445312 C 16.984375 117.621094 17.9375 118.574219 19.113281 118.574219 C 20.289062 118.574219 21.242188 117.621094 21.242188 116.445312 Z M 21.242188 116.445312 L 21.03125 116.445312 C 21.03125 115.386719 20.171875 114.527344 19.113281 114.527344 C 18.054688 114.527344 17.195312 115.386719 17.195312 116.445312 C 17.195312 117.503906 18.054688 118.363281 19.113281 118.363281 C 20.171875 118.363281 21.03125 117.503906 21.03125 116.445312 "
       id="path124" />
    <path
       style=" stroke:none;fill-rule:nonzero;fill:rgb(100%,100%,100%);fill-opacity:1;"
       d="M 24.171875 116.265625 C 24.171875 115.089844 23.21875 114.136719 22.042969 114.136719 C 20.867188 114.136719 19.914062 115.089844 19.914062 116.265625 C 19.914062 117.441406 20.867188 118.394531 22.042969 118.394531 C 23.21875 118.394531 24.171875 117.441406 24.171875 116.265625 "
       id="path126" />
    <path
       style=" stroke:none;fill-rule:nonzero;fill:rgb(0%,0%,0%);fill-opacity:1;"
       d="M 24.171875 116.265625 C 24.171875 115.089844 23.21875 114.136719 22.042969 114.136719 C 20.867188 114.136719 19.914062 115.089844 19.914062 116.265625 C 19.914062 117.441406 20.867188 118.394531 22.042969 118.394531 C 23.21875 118.394531 24.171875 117.441406 24.171875 116.265625 Z M 24.171875 116.265625 L 23.960938 116.265625 C 23.960938 115.207031 23.101562 114.347656 22.042969 114.347656 C 20.984375 114.347656 20.125 115.207031 20.125 116.265625 C 20.125 117.324219 20.984375 118.183594 22.042969 118.183594 C 23.101562 118.183594 23.960938 117.324219 23.960938 116.265625 "
       id="path128" />
    <path
       style=" stroke:none;fill-rule:nonzero;fill:rgb(100%,100%,100%);fill-opacity:1;"
       d="M 25.691406 116.246094 C 25.691406 115.070312 24.738281 114.117188 23.5625 114.117188 C 22.386719 114.117188 21.433594 115.070312 21.433594 116.246094 C 21.433594 117.421875 22.386719 118.375 23.5625 118.375 C 24.738281 118.375 25.691406 117.421875 25.691406 116.246094 "
       id="path130" />
    <path
       style=" stroke:none;fill-rule:nonzero;fill:rgb(0%,0%,0%);fill-opacity:1;"
       d="M 25.691406 116.246094 C 25.691406 115.070312 24.738281 114.117188 23.5625 114.117188 C 22.386719 114.117188 21.433594 115.070312 21.433594 116.246094 C 21.433594 117.421875 22.386719 118.375 23.5625 118.375 C 24.738281 118.375 25.691406 117.421875 25.691406 116.246094 Z M 25.691406 116.246094 L 25.480469 116.246094 C 25.480469 115.1875 24.621094 114.328125 23.5625 114.328125 C 22.503906 114.328125 21.644531 115.1875 21.644531 116.246094 C 21.644531 117.304688 22.503906 118.164062 23.5625 118.164062 C 24.621094 118.164062 25.480469 117.304688 25.480469 116.246094 "
       id="path132" />
    <path
       style=" stroke:none;fill-rule:nonzero;fill:rgb(100%,100%,100%);fill-opacity:1;"
       d="M 27.351562 116.085938 C 27.351562 114.910156 26.398438 113.957031 25.222656 113.957031 C 24.046875 113.957031 23.09375 114.910156 23.09375 116.085938 C 23.09375 117.261719 24.046875 118.214844 25.222656 118.214844 C 26.398438 118.214844 27.351562 117.261719 27.351562 116.085938 "
       id="path134" />
    <path
       style=" stroke:none;fill-rule:nonzero;fill:rgb(0%,0%,0%);fill-opacity:1;"
       d="M 27.351562 116.085938 C 27.351562 114.910156 26.398438 113.957031 25.222656 113.957031 C 24.046875 113.957031 23.09375 114.910156 23.09375 116.085938 C 23.09375 117.261719 24.046875 118.214844 25.222656 118.214844 C 26.398438 118.214844 27.351562 117.261719 27.351562 116.085938 Z M 27.351562 116.085938 L 27.140625 116.085938 C 27.140625 115.027344 26.28125 114.167969 25.222656 114.167969 C 24.164062 114.167969 23.304688 115.027344 23.304688 116.085938 C 23.304688 117.144531 24.164062 118.003906 25.222656 118.003906 C 26.28125 118.003906 27.140625 117.144531 27.140625 116.085938 "
       id="path136" />
    <path
       style=" stroke:none;fill-rule:nonzero;fill:rgb(100%,100%,100%);fill-opacity:1;"
       d="M 29.933594 115.886719 C 29.933594 114.710938 28.980469 113.757812 27.804688 113.757812 C 26.628906 113.757812 25.675781 114.710938 25.675781 115.886719 C 25.675781 117.0625 26.628906 118.015625 27.804688 118.015625 C 28.980469 118.015625 29.933594 117.0625 29.933594 115.886719 "
       id="path138" />
    <path
       style=" stroke:none;fill-rule:nonzero;fill:rgb(0%,0%,0%);fill-opacity:1;"
       d="M 29.933594 115.886719 C 29.933594 114.710938 28.980469 113.757812 27.804688 113.757812 C 26.628906 113.757812 25.675781 114.710938 25.675781 115.886719 C 25.675781 117.0625 26.628906 118.015625 27.804688 118.015625 C 28.980469 118.015625 29.933594 117.0625 29.933594 115.886719 Z M 29.933594 115.886719 L 29.722656 115.886719 C 29.722656 114.828125 28.863281 113.96875 27.804688 113.96875 C 26.746094 113.96875 25.886719 114.828125 25.886719 115.886719 C 25.886719 116.945312 26.746094 117.804688 27.804688 117.804688 C 28.863281 117.804688 29.722656 116.945312 29.722656 115.886719 "
       id="path140" />
    <path
       style=" stroke:none;fill-rule:nonzero;fill:rgb(100%,100%,100%);fill-opacity:1;"
       d="M 33.34375 115.476562 C 33.34375 114.300781 32.390625 113.347656 31.214844 113.347656 C 30.039062 113.347656 29.085938 114.300781 29.085938 115.476562 C 29.085938 116.652344 30.039062 117.605469 31.214844 117.605469 C 32.390625 117.605469 33.34375 116.652344 33.34375 115.476562 "
       id="path142" />
    <path
       style=" stroke:none;fill-rule:nonzero;fill:rgb(0%,0%,0%);fill-opacity:1;"
       d="M 33.34375 115.476562 C 33.34375 114.300781 32.390625 113.347656 31.214844 113.347656 C 30.039062 113.347656 29.085938 114.300781 29.085938 115.476562 C 29.085938 116.652344 30.039062 117.605469 31.214844 117.605469 C 32.390625 117.605469 33.34375 116.652344 33.34375 115.476562 Z M 33.34375 115.476562 L 33.132812 115.476562 C 33.132812 114.417969 32.273438 113.558594 31.214844 113.558594 C 30.15625 113.558594 29.296875 114.417969 29.296875 115.476562 C 29.296875 116.535156 30.15625 117.394531 31.214844 117.394531 C 32.273438 117.394531 33.132812 116.535156 33.132812 115.476562 "
       id="path144" />
    <path
       style=" stroke:none;fill-rule:nonzero;fill:rgb(100%,100%,100%);fill-opacity:1;"
       d="M 46.914062 113.4375 C 46.914062 112.261719 45.960938 111.308594 44.785156 111.308594 C 43.609375 111.308594 42.65625 112.261719 42.65625 113.4375 C 42.65625 114.613281 43.609375 115.566406 44.785156 115.566406 C 45.960938 115.566406 46.914062 114.613281 46.914062 113.4375 "
       id="path146" />
    <path
       style=" stroke:none;fill-rule:nonzero;fill:rgb(0%,0%,0%);fill-opacity:1;"
       d="M 46.914062 113.4375 C 46.914062 112.261719 45.960938 111.308594 44.785156 111.308594 C 43.609375 111.308594 42.65625 112.261719 42.65625 113.4375 C 42.65625 114.613281 43.609375 115.566406 44.785156 115.566406 C 45.960938 115.566406 46.914062 114.613281 46.914062 113.4375 Z M 46.914062 113.4375 L 46.703125 113.4375 C 46.703125 112.378906 45.84375 111.519531 44.785156 111.519531 C 43.726562 111.519531 42.867188 112.378906 42.867188 113.4375 C 42.867188 114.496094 43.726562 115.355469 44.785156 115.355469 C 45.84375 115.355469 46.703125 114.496094 46.703125 113.4375 "
       id="path148" />
    <path
       style=" stroke:none;fill-rule:nonzero;fill:rgb(100%,100%,100%);fill-opacity:1;"
       d="M 66.84375 108.898438 C 66.84375 107.722656 65.890625 106.769531 64.714844 106.769531 C 63.539062 106.769531 62.585938 107.722656 62.585938 108.898438 C 62.585938 110.074219 63.539062 111.027344 64.714844 111.027344 C 65.890625 111.027344 66.84375 110.074219 66.84375 108.898438 "
       id="path150" />
    <path
       style=" stroke:none;fill-rule:nonzero;fill:rgb(0%,0%,0%);fill-opacity:1;"
       d="M 66.84375 108.898438 C 66.84375 107.722656 65.890625 106.769531 64.714844 106.769531 C 63.539062 106.769531 62.585938 107.722656 62.585938 108.898438 C 62.585938 110.074219 63.539062 111.027344 64.714844 111.027344 C 65.890625 111.027344 66.84375 110.074219 66.84375 108.898438 Z M 66.84375 108.898438 L 66.632812 108.898438 C 66.632812 107.839844 65.773438 106.980469 64.714844 106.980469 C 63.65625 106.980469 62.796875 107.839844 62.796875 108.898438 C 62.796875 109.957031 63.65625 110.816406 64.714844 110.816406 C 65.773438 110.816406 66.632812 109.957031 66.632812 108.898438 "
       id="path152" />
    <path
       style=" stroke:none;fill-rule:nonzero;fill:rgb(100%,100%,100%);fill-opacity:1;"
       d="M 80.78125 104.496094 C 80.78125 103.320312 79.828125 102.367188 78.652344 102.367188 C 77.476562 102.367188 76.523438 103.320312 76.523438 104.496094 C 76.523438 105.671875 77.476562 106.625 78.652344 106.625 C 79.828125 106.625 80.78125 105.671875 80.78125 104.496094 "
       id="path154" />
    <path
       style=" stroke:none;fill-rule:nonzero;fill:rgb(0%,0%,0%);fill-opacity:1;"
       d="M 80.78125 104.496094 C 80.78125 103.320312 79.828125 102.367188 78.652344 102.367188 C 77.476562 102.367188 76.523438 103.320312 76.523438 104.496094 C 76.523438 105.671875 77.476562 106.625 78.652344 106.625 C 79.828125 106.625 80.78125 105.671875 80.78125 104.496094 Z M 80.78125 104.496094 L 80.570312 104.496094 C 80.570312 103.4375 79.710938 102.578125 78.652344 102.578125 C 77.59375 102.578125 76.734375 103.4375 76.734375 104.496094 C 76.734375 105.554688 77.59375 106.414062 78.652344 106.414062 C 79.710938 106.414062 80.570312 105.554688 80.570312 104.496094 "
       id="path156" />
    <path
       style=" stroke:none;fill-rule:nonzero;fill:rgb(100%,100%,100%);fill-opacity:1;"
       d="M 98.0625 96.925781 C 98.0625 95.75 97.109375 94.796875 95.933594 94.796875 C 94.757812 94.796875 93.804688 95.75 93.804688 96.925781 C 93.804688 98.101562 94.757812 99.054688 95.933594 99.054688 C 97.109375 99.054688 98.0625 98.101562 98.0625 96.925781 "
       id="path158" />
    <path
       style=" stroke:none;fill-rule:nonzero;fill:rgb(0%,0%,0%);fill-opacity:1;"
       d="M 98.0625 96.925781 C 98.0625 95.75 97.109375 94.796875 95.933594 94.796875 C 94.757812 94.796875 93.804688 95.75 93.804688 96.925781 C 93.804688 98.101562 94.757812 99.054688 95.933594 99.054688 C 97.109375 99.054688 98.0625 98.101562 98.0625 96.925781 Z M 98.0625 96.925781 L 97.851562 96.925781 C 97.851562 95.867188 96.992188 95.007812 95.933594 95.007812 C 94.875 95.007812 94.015625 95.867188 94.015625 96.925781 C 94.015625 97.984375 94.875 98.84375 95.933594 98.84375 C 96.992188 98.84375 97.851562 97.984375 97.851562 96.925781 "
       id="path160" />
    <path
       style=" stroke:none;fill-rule:nonzero;fill:rgb(100%,100%,100%);fill-opacity:1;"
       d="M 108.601562 90.207031 C 108.601562 89.03125 107.648438 88.078125 106.472656 88.078125 C 105.296875 88.078125 104.34375 89.03125 104.34375 90.207031 C 104.34375 91.382812 105.296875 92.335938 106.472656 92.335938 C 107.648438 92.335938 108.601562 91.382812 108.601562 90.207031 "
       id="path162" />
    <path
       style=" stroke:none;fill-rule:nonzero;fill:rgb(0%,0%,0%);fill-opacity:1;"
       d="M 108.601562 90.207031 C 108.601562 89.03125 107.648438 88.078125 106.472656 88.078125 C 105.296875 88.078125 104.34375 89.03125 104.34375 90.207031 C 104.34375 91.382812 105.296875 92.335938 106.472656 92.335938 C 107.648438 92.335938 108.601562 91.382812 108.601562 90.207031 Z M 108.601562 90.207031 L 108.390625 90.207031 C 108.390625 89.148438 107.53125 88.289062 106.472656 88.289062 C 105.414062 88.289062 104.554688 89.148438 104.554688 90.207031 C 104.554688 91.265625 105.414062 92.125 106.472656 92.125 C 107.53125 92.125 108.390625 91.265625 108.390625 90.207031 "
       id="path164" />
    <path
       style=" stroke:none;fill-rule:nonzero;fill:rgb(100%,100%,100%);fill-opacity:1;"
       d="M 124.121094 76.425781 C 124.121094 75.25 123.167969 74.296875 121.992188 74.296875 C 120.816406 74.296875 119.863281 75.25 119.863281 76.425781 C 119.863281 77.601562 120.816406 78.554688 121.992188 78.554688 C 123.167969 78.554688 124.121094 77.601562 124.121094 76.425781 "
       id="path166" />
    <path
       style=" stroke:none;fill-rule:nonzero;fill:rgb(0%,0%,0%);fill-opacity:1;"
       d="M 124.121094 76.425781 C 124.121094 75.25 123.167969 74.296875 121.992188 74.296875 C 120.816406 74.296875 119.863281 75.25 119.863281 76.425781 C 119.863281 77.601562 120.816406 78.554688 121.992188 78.554688 C 123.167969 78.554688 124.121094 77.601562 124.121094 76.425781 Z M 124.121094 76.425781 L 123.910156 76.425781 C 123.910156 75.367188 123.050781 74.507812 121.992188 74.507812 C 120.933594 74.507812 120.074219 75.367188 120.074219 76.425781 C 120.074219 77.484375 120.933594 78.34375 121.992188 78.34375 C 123.050781 78.34375 123.910156 77.484375 123.910156 76.425781 "
       id="path168" />
    <path
       style=" stroke:none;fill-rule:nonzero;fill:rgb(100%,100%,100%);fill-opacity:1;"
       d="M 137.054688 58.828125 C 137.054688 57.652344 136.101562 56.699219 134.925781 56.699219 C 133.75 56.699219 132.796875 57.652344 132.796875 58.828125 C 132.796875 60.003906 133.75 60.957031 134.925781 60.957031 C 136.101562 60.957031 137.054688 60.003906 137.054688 58.828125 "
       id="path170" />
    <path
       style=" stroke:none;fill-rule:nonzero;fill:rgb(0%,0%,0%);fill-opacity:1;"
       d="M 137.054688 58.828125 C 137.054688 57.652344 136.101562 56.699219 134.925781 56.699219 C 133.75 56.699219 132.796875 57.652344 132.796875 58.828125 C 132.796875 60.003906 133.75 60.957031 134.925781 60.957031 C 136.101562 60.957031 137.054688 60.003906 137.054688 58.828125 Z M 137.054688 58.828125 L 136.84375 58.828125 C 136.84375 57.769531 135.984375 56.910156 134.925781 56.910156 C 133.867188 56.910156 133.007812 57.769531 133.007812 58.828125 C 133.007812 59.886719 133.867188 60.746094 134.925781 60.746094 C 135.984375 60.746094 136.84375 59.886719 136.84375 58.828125 "
       id="path172" />
    <path
       style=" stroke:none;fill-rule:nonzero;fill:rgb(100%,100%,100%);fill-opacity:1;"
       d="M 149.273438 32.996094 C 149.273438 31.820312 148.320312 30.867188 147.144531 30.867188 C 145.96875 30.867188 145.015625 31.820312 145.015625 32.996094 C 145.015625 34.171875 145.96875 35.125 147.144531 35.125 C 148.320312 35.125 149.273438 34.171875 149.273438 32.996094 "
       id="path174" />
    <path
       style=" stroke:none;fill-rule:nonzero;fill:rgb(0%,0%,0%);fill-opacity:1;"
       d="M 149.273438 32.996094 C 149.273438 31.820312 148.320312 30.867188 147.144531 30.867188 C 145.96875 30.867188 145.015625 31.820312 145.015625 32.996094 C 145.015625 34.171875 145.96875 35.125 147.144531 35.125 C 148.320312 35.125 149.273438 34.171875 149.273438 32.996094 Z M 149.273438 32.996094 L 149.0625 32.996094 C 149.0625 31.9375 148.203125 31.078125 147.144531 31.078125 C 146.085938 31.078125 145.226562 31.9375 145.226562 32.996094 C 145.226562 34.054688 146.085938 34.914062 147.144531 34.914062 C 148.203125 34.914062 149.0625 34.054688 149.0625 32.996094 "
       id="path176" />
    <path
       style=" stroke:none;fill-rule:nonzero;fill:rgb(100%,100%,100%);fill-opacity:1;"
       d="M 155.84375 13.496094 C 155.84375 12.320312 154.890625 11.367188 153.714844 11.367188 C 152.539062 11.367188 151.585938 12.320312 151.585938 13.496094 C 151.585938 14.671875 152.539062 15.625 153.714844 15.625 C 154.890625 15.625 155.84375 14.671875 155.84375 13.496094 "
       id="path178" />
    <path
       style=" stroke:none;fill-rule:nonzero;fill:rgb(0%,0%,0%);fill-opacity:1;"
       d="M 155.84375 13.496094 C 155.84375 12.320312 154.890625 11.367188 153.714844 11.367188 C 152.539062 11.367188 151.585938 12.320312 151.585938 13.496094 C 151.585938 14.671875 152.539062 15.625 153.714844 15.625 C 154.890625 15.625 155.84375 14.671875 155.84375 13.496094 Z M 155.84375 13.496094 L 155.632812 13.496094 C 155.632812 12.4375 154.773438 11.578125 153.714844 11.578125 C 152.65625 11.578125 151.796875 12.4375 151.796875 13.496094 C 151.796875 14.554688 152.65625 15.414062 153.714844 15.414062 C 154.773438 15.414062 155.632812 14.554688 155.632812 13.496094 "
       id="path180" />
    <path
       style="display:none;fill:none;stroke:#000000;stroke-width:4.25176;stroke-linecap:butt;stroke-linejoin:miter;stroke-miterlimit:10;stroke-dasharray:28.0658, 14.0328;stroke-opacity:1"
       d="M 191.13281,445.54687 H 1608.5547"
       transform="matrix(0.1,0,0,-0.1,0,161)"
       id="path818" />
  </g>
</svg>
