%!PS-Adobe-3.0 EPSF-3.0
%%Creator: cairo 1.17.4 (https://cairographics.org)
%%CreationDate: Thu Feb 24 10:48:22 2022
%%Pages: 1
%%DocumentData: Clean7Bit
%%LanguageLevel: 2
%%BoundingBox: 0 0 182 168
%%EndComments
%%BeginProlog
50 dict begin
/q { gsave } bind def
/Q { grestore } bind def
/cm { 6 array astore concat } bind def
/w { setlinewidth } bind def
/J { setlinecap } bind def
/j { setlinejoin } bind def
/M { setmiterlimit } bind def
/d { setdash } bind def
/m { moveto } bind def
/l { lineto } bind def
/c { curveto } bind def
/h { closepath } bind def
/re { exch dup neg 3 1 roll 5 3 roll moveto 0 rlineto
      0 exch rlineto 0 rlineto closepath } bind def
/S { stroke } bind def
/f { fill } bind def
/f* { eofill } bind def
/n { newpath } bind def
/W { clip } bind def
/W* { eoclip } bind def
/BT { } bind def
/ET { } bind def
/BDC { mark 3 1 roll /BDC pdfmark } bind def
/EMC { mark /EMC pdfmark } bind def
/cairo_store_point { /cairo_point_y exch def /cairo_point_x exch def } def
/Tj { show currentpoint cairo_store_point } bind def
/TJ {
  {
    dup
    type /stringtype eq
    { show } { -0.001 mul 0 cairo_font_matrix dtransform rmoveto } ifelse
  } forall
  currentpoint cairo_store_point
} bind def
/cairo_selectfont { cairo_font_matrix aload pop pop pop 0 0 6 array astore
    cairo_font exch selectfont cairo_point_x cairo_point_y moveto } bind def
/Tf { pop /cairo_font exch def /cairo_font_matrix where
      { pop cairo_selectfont } if } bind def
/Td { matrix translate cairo_font_matrix matrix concatmatrix dup
      /cairo_font_matrix exch def dup 4 get exch 5 get cairo_store_point
      /cairo_font where { pop cairo_selectfont } if } bind def
/Tm { 2 copy 8 2 roll 6 array astore /cairo_font_matrix exch def
      cairo_store_point /cairo_font where { pop cairo_selectfont } if } bind def
/g { setgray } bind def
/rg { setrgbcolor } bind def
/d1 { setcachedevice } bind def
/cairo_data_source {
  CairoDataIndex CairoData length lt
    { CairoData CairoDataIndex get /CairoDataIndex CairoDataIndex 1 add def }
    { () } ifelse
} def
/cairo_flush_ascii85_file { cairo_ascii85_file status { cairo_ascii85_file flushfile } if } def
/cairo_image { image cairo_flush_ascii85_file } def
/cairo_imagemask { imagemask cairo_flush_ascii85_file } def
%%EndProlog
%%BeginSetup
%%EndSetup
%%Page: 1 1
%%BeginPageSetup
%%PageBoundingBox: 0 0 182 168
%%EndPageSetup
q 0 0 182 168 rectclip
1 0 0 -1 0 168 cm q
0 g
0.567043 w
0 J
0 j
[] 0.0 d
10 M q 1 0 0 -1 0 0 cm
35.074 -2.973 141.73 -141.762 re S Q
0.398506 w
q 1 0 0 -1 0 0 cm
35.074 -144.734 m 35.074 -140.48 l S Q
q 1 0 0 -1 0 0 cm
70.508 -144.734 m 70.508 -140.48 l S Q
q 1 0 0 -1 0 0 cm
105.938 -144.734 m 105.938 -140.48 l S Q
q 1 0 0 -1 0 0 cm
141.371 -144.734 m 141.371 -140.48 l S Q
q 1 0 0 -1 0 0 cm
176.805 -144.734 m 176.805 -140.48 l S Q
q 1 0 0 -1 0 0 cm
35.074 -144.734 m 35.074 -140.48 l S Q
q 1 0 0 -1 0 0 cm
35.074 -144.734 m 39.324 -144.734 l S Q
q 1 0 0 -1 0 0 cm
35.074 -121.105 m 39.324 -121.105 l S Q
q 1 0 0 -1 0 0 cm
35.074 -97.48 m 39.324 -97.48 l S Q
q 1 0 0 -1 0 0 cm
35.074 -73.852 m 39.324 -73.852 l S Q
q 1 0 0 -1 0 0 cm
35.074 -50.227 m 39.324 -50.227 l S Q
q 1 0 0 -1 0 0 cm
35.074 -26.598 m 39.324 -26.598 l S Q
q 1 0 0 -1 0 0 cm
35.074 -2.973 m 39.324 -2.973 l S Q
q 1 0 0 -1 0 0 cm
35.074 -144.734 m 39.324 -144.734 l S Q
q 1 0 0 -1 0 0 cm
35.074 -2.973 m 35.074 -7.223 l S Q
q 1 0 0 -1 0 0 cm
70.508 -2.973 m 70.508 -7.223 l S Q
q 1 0 0 -1 0 0 cm
105.938 -2.973 m 105.938 -7.223 l S Q
q 1 0 0 -1 0 0 cm
141.371 -2.973 m 141.371 -7.223 l S Q
q 1 0 0 -1 0 0 cm
176.805 -2.973 m 176.805 -7.223 l S Q
q 1 0 0 -1 0 0 cm
35.074 -2.973 m 35.074 -7.223 l S Q
q 1 0 0 -1 0 0 cm
176.805 -144.734 m 172.555 -144.734 l S Q
q 1 0 0 -1 0 0 cm
176.805 -121.105 m 172.555 -121.105 l S Q
q 1 0 0 -1 0 0 cm
176.805 -97.48 m 172.555 -97.48 l S Q
q 1 0 0 -1 0 0 cm
176.805 -73.852 m 172.555 -73.852 l S Q
q 1 0 0 -1 0 0 cm
176.805 -50.227 m 172.555 -50.227 l S Q
q 1 0 0 -1 0 0 cm
176.805 -26.598 m 172.555 -26.598 l S Q
q 1 0 0 -1 0 0 cm
176.805 -2.973 m 172.555 -2.973 l S Q
q 1 0 0 -1 0 0 cm
176.805 -144.734 m 172.555 -144.734 l S Q
34.883 152.73 m 34.883 152.121 l 34.008 152.121 l 34.008 148.199 l 33.57
 148.199 l 30.977 152.105 l 30.977 152.73 l 33.273 152.73 l 33.273 154.215
 l 34.008 154.215 l 34.008 152.73 l h
33.273 152.121 m 31.336 152.121 l 33.258 149.137 l 33.273 149.137 l h
33.273 152.121 m f
39.043 152.84 m 39.043 152.199 38.762 151.715 37.668 150.902 c 38.355 150.527
 38.887 150.105 38.887 149.449 c 38.887 148.762 38.246 148.168 37.293 148.168
 c 36.449 148.168 35.652 148.715 35.652 149.559 c 35.652 150.215 35.996 
150.605 36.762 151.215 c 35.902 151.871 35.59 152.199 35.59 152.871 c 35.59
 153.621 36.262 154.324 37.309 154.324 c 38.527 154.324 39.043 153.496 39.043
 152.84 c h
38.277 149.434 m 38.277 150.074 37.902 150.418 37.418 150.746 c 36.824 
150.324 36.309 149.855 36.309 149.34 c 36.309 148.855 36.652 148.434 37.262
 148.434 c 37.934 148.434 38.277 148.855 38.277 149.434 c h
38.402 153.09 m 38.402 153.668 37.965 154.059 37.387 154.059 c 36.699 154.059
 36.262 153.512 36.262 152.777 c 36.262 152.105 36.59 151.715 36.996 151.371
 c 37.98 152.121 38.402 152.496 38.402 153.09 c h
38.402 153.09 m f
70.281 152.73 m 70.281 152.121 l 69.406 152.121 l 69.406 148.199 l 68.969
 148.199 l 66.375 152.105 l 66.375 152.73 l 68.672 152.73 l 68.672 154.215
 l 69.406 154.215 l 69.406 152.73 l h
68.672 152.121 m 66.734 152.121 l 68.656 149.137 l 68.672 149.137 l h
68.672 152.121 m f
74.816 150.637 m 74.816 149.23 73.973 148.168 72.879 148.168 c 71.863 148.168
 71.051 149.105 71.051 150.277 c 71.051 151.277 71.754 151.996 72.629 151.996
 c 73.098 151.996 73.473 151.855 73.848 151.543 c 73.582 153.199 72.301 
154.137 71.176 154.152 c 71.176 154.324 l 73.941 154.324 74.816 151.965 
74.816 150.637 c h
73.973 150.496 m 73.973 150.73 73.957 150.965 73.91 151.262 c 73.52 151.527
 73.207 151.621 72.895 151.621 c 71.973 151.621 71.816 150.59 71.816 149.824
 c 71.816 149.012 72.191 148.434 72.785 148.434 c 73.707 148.434 73.973 
149.777 73.973 150.496 c h
73.973 150.496 m f
105.605 148.293 m 103.137 148.293 l 102.027 150.84 l 102.168 150.809 102.309
 150.777 102.48 150.777 c 103.434 150.777 104.73 151.277 104.73 152.449 
c 104.73 153.355 104.074 153.934 103.449 153.934 c 102.902 153.934 102.699
 153.434 102.184 153.434 c 101.934 153.434 101.855 153.652 101.855 153.762
 c 101.855 154.074 102.293 154.324 102.918 154.324 c 104.262 154.324 105.324
 153.34 105.324 152.137 c 105.324 150.715 104.199 150.23 102.98 150.199 
c 102.871 150.199 102.746 150.215 102.637 150.23 c 103.199 148.965 l 105.293
 148.949 l h
105.605 148.293 m f
110.109 151.262 m 110.109 149.652 109.375 148.199 108.125 148.199 c 106.859
 148.199 106.125 149.652 106.125 151.262 c 106.125 152.887 106.812 154.324
 108.125 154.324 c 109.328 154.324 110.109 152.887 110.109 151.262 c h
109.25 151.262 m 109.25 152.559 109.125 154.074 108.125 154.074 c 107.172
 154.074 106.984 152.559 106.984 151.262 c 106.984 150.184 107.109 148.434
 108.125 148.434 c 109.125 148.434 109.25 150.184 109.25 151.262 c h
109.25 151.262 m f
141.125 148.293 m 138.656 148.293 l 137.547 150.84 l 137.688 150.809 137.828
 150.777 138 150.777 c 138.953 150.777 140.25 151.277 140.25 152.449 c 140.25
 153.355 139.594 153.934 138.969 153.934 c 138.422 153.934 138.219 153.434
 137.703 153.434 c 137.453 153.434 137.375 153.652 137.375 153.762 c 137.375
 154.074 137.812 154.324 138.438 154.324 c 139.781 154.324 140.844 153.34
 140.844 152.137 c 140.844 150.715 139.719 150.23 138.5 150.199 c 138.391
 150.199 138.266 150.215 138.156 150.23 c 138.719 148.965 l 140.812 148.949
 l h
141.125 148.293 m f
144.879 154.215 m 144.879 154.074 l 144.285 154.074 144.066 154.09 144.066
 152.918 c 144.066 152.902 144.066 148.168 144.066 148.168 c 143.941 148.168
 l 142.41 148.902 l 142.457 149.043 l 142.785 148.902 142.863 148.871 142.988
 148.871 c 143.254 148.871 143.301 149.105 143.301 149.418 c 143.301 152.918
 l 143.301 154.09 143.082 154.059 142.488 154.074 c 142.488 154.215 l h
144.879 154.215 m f
176.523 148.293 m 174.055 148.293 l 172.945 150.84 l 173.086 150.809 173.227
 150.777 173.398 150.777 c 174.352 150.777 175.648 151.277 175.648 152.449
 c 175.648 153.355 174.992 153.934 174.367 153.934 c 173.82 153.934 173.617
 153.434 173.102 153.434 c 172.852 153.434 172.773 153.652 172.773 153.762
 c 172.773 154.074 173.211 154.324 173.836 154.324 c 175.18 154.324 176.242
 153.34 176.242 152.137 c 176.242 150.715 175.117 150.23 173.898 150.199
 c 173.789 150.199 173.664 150.215 173.555 150.23 c 174.117 148.965 l 176.211
 148.949 l h
176.523 148.293 m f
181.059 153.059 m 180.902 153.027 l 180.637 153.48 180.418 153.559 179.98
 153.559 c 177.918 153.559 l 179.34 152.262 180.637 151.09 180.637 149.777
 c 180.637 148.855 179.84 148.199 178.965 148.199 c 178.105 148.199 177.418
 148.668 177.152 149.887 c 177.355 149.887 l 177.605 149.387 177.949 148.871
 178.637 148.871 c 179.418 148.871 179.855 149.465 179.855 150.137 c 179.855
 151.105 178.824 152.527 177.059 154.074 c 177.059 154.215 l 180.59 154.215
 l h
181.059 153.059 m f
13.973 145.371 5.484 0.453 re f
24.219 146.699 m 24.062 146.668 l 23.797 147.121 23.578 147.199 23.141 
147.199 c 21.078 147.199 l 22.5 145.902 23.797 144.73 23.797 143.418 c 23.797
 142.496 23 141.84 22.125 141.84 c 21.266 141.84 20.578 142.309 20.312 143.527
 c 20.516 143.527 l 20.766 143.027 21.109 142.512 21.797 142.512 c 22.578
 142.512 23.016 143.105 23.016 143.777 c 23.016 144.746 21.984 146.168 20.219
 147.715 c 20.219 147.855 l 23.75 147.855 l h
24.219 146.699 m f
26.473 147.48 m 26.473 147.199 26.254 146.98 25.973 146.98 c 25.691 146.98
 25.473 147.199 25.473 147.48 c 25.473 147.762 25.691 147.98 25.973 147.98
 c 26.254 147.98 26.473 147.762 26.473 147.48 c h
26.473 147.48 m f
31.324 141.934 m 28.855 141.934 l 27.746 144.48 l 27.887 144.449 28.027
 144.418 28.199 144.418 c 29.152 144.418 30.449 144.918 30.449 146.09 c 
30.449 146.996 29.793 147.574 29.168 147.574 c 28.621 147.574 28.418 147.074
 27.902 147.074 c 27.652 147.074 27.574 147.293 27.574 147.402 c 27.574 
147.715 28.012 147.965 28.637 147.965 c 29.98 147.965 31.043 146.98 31.043
 145.777 c 31.043 144.355 29.918 143.871 28.699 143.84 c 28.59 143.84 28.465
 143.855 28.355 143.871 c 28.918 142.605 l 31.012 142.59 l h
31.324 141.934 m f
13.973 121.73 5.484 0.453 re f
24.219 123.059 m 24.062 123.027 l 23.797 123.48 23.578 123.559 23.141 123.559
 c 21.078 123.559 l 22.5 122.262 23.797 121.09 23.797 119.777 c 23.797 118.855
 23 118.199 22.125 118.199 c 21.266 118.199 20.578 118.668 20.312 119.887
 c 20.516 119.887 l 20.766 119.387 21.109 118.871 21.797 118.871 c 22.578
 118.871 23.016 119.465 23.016 120.137 c 23.016 121.105 21.984 122.527 20.219
 124.074 c 20.219 124.215 l 23.75 124.215 l h
24.219 123.059 m f
26.473 123.84 m 26.473 123.559 26.254 123.34 25.973 123.34 c 25.691 123.34
 25.473 123.559 25.473 123.84 c 25.473 124.121 25.691 124.34 25.973 124.34
 c 26.254 124.34 26.473 124.121 26.473 123.84 c h
26.473 123.84 m f
31.387 121.262 m 31.387 119.652 30.652 118.199 29.402 118.199 c 28.137 
118.199 27.402 119.652 27.402 121.262 c 27.402 122.887 28.09 124.324 29.402
 124.324 c 30.605 124.324 31.387 122.887 31.387 121.262 c h
30.527 121.262 m 30.527 122.559 30.402 124.074 29.402 124.074 c 28.449 
124.074 28.262 122.559 28.262 121.262 c 28.262 120.184 28.387 118.434 29.402
 118.434 c 30.402 118.434 30.527 120.184 30.527 121.262 c h
30.527 121.262 m f
14.332 98.09 5.484 0.453 re f
23.797 100.574 m 23.797 100.434 l 23.203 100.434 22.984 100.449 22.984 
99.277 c 22.984 99.262 22.984 94.527 22.984 94.527 c 22.859 94.527 l 21.328
 95.262 l 21.375 95.402 l 21.703 95.262 21.781 95.23 21.906 95.23 c 22.172
 95.23 22.219 95.465 22.219 95.777 c 22.219 99.277 l 22.219 100.449 22 100.418
 21.406 100.434 c 21.406 100.574 l h
23.797 100.574 m f
26.473 100.199 m 26.473 99.918 26.254 99.699 25.973 99.699 c 25.691 99.699
 25.473 99.918 25.473 100.199 c 25.473 100.48 25.691 100.699 25.973 100.699
 c 26.254 100.699 26.473 100.48 26.473 100.199 c h
26.473 100.199 m f
31.324 94.652 m 28.855 94.652 l 27.746 97.199 l 27.887 97.168 28.027 97.137
 28.199 97.137 c 29.152 97.137 30.449 97.637 30.449 98.809 c 30.449 99.715
 29.793 100.293 29.168 100.293 c 28.621 100.293 28.418 99.793 27.902 99.793
 c 27.652 99.793 27.574 100.012 27.574 100.121 c 27.574 100.434 28.012 100.684
 28.637 100.684 c 29.98 100.684 31.043 99.699 31.043 98.496 c 31.043 97.074
 29.918 96.59 28.699 96.559 c 28.59 96.559 28.465 96.574 28.355 96.59 c 
28.918 95.324 l 31.012 95.309 l h
31.324 94.652 m f
14.332 74.449 5.484 0.453 re f
23.797 76.934 m 23.797 76.793 l 23.203 76.793 22.984 76.809 22.984 75.637
 c 22.984 75.621 22.984 70.887 22.984 70.887 c 22.859 70.887 l 21.328 71.621
 l 21.375 71.762 l 21.703 71.621 21.781 71.59 21.906 71.59 c 22.172 71.59
 22.219 71.824 22.219 72.137 c 22.219 75.637 l 22.219 76.809 22 76.777 21.406
 76.793 c 21.406 76.934 l h
23.797 76.934 m f
26.473 76.559 m 26.473 76.277 26.254 76.059 25.973 76.059 c 25.691 76.059
 25.473 76.277 25.473 76.559 c 25.473 76.84 25.691 77.059 25.973 77.059 
c 26.254 77.059 26.473 76.84 26.473 76.559 c h
26.473 76.559 m f
31.387 73.98 m 31.387 72.371 30.652 70.918 29.402 70.918 c 28.137 70.918
 27.402 72.371 27.402 73.98 c 27.402 75.605 28.09 77.043 29.402 77.043 c
 30.605 77.043 31.387 75.605 31.387 73.98 c h
30.527 73.98 m 30.527 75.277 30.402 76.793 29.402 76.793 c 28.449 76.793
 28.262 75.277 28.262 73.98 c 28.262 72.902 28.387 71.152 29.402 71.152 
c 30.402 71.152 30.527 72.902 30.527 73.98 c h
30.527 73.98 m f
14.332 50.812 5.484 0.453 re f
24.547 50.344 m 24.547 48.734 23.812 47.281 22.562 47.281 c 21.297 47.281
 20.562 48.734 20.562 50.344 c 20.562 51.969 21.25 53.406 22.562 53.406 
c 23.766 53.406 24.547 51.969 24.547 50.344 c h
23.688 50.344 m 23.688 51.641 23.562 53.156 22.562 53.156 c 21.609 53.156
 21.422 51.641 21.422 50.344 c 21.422 49.266 21.547 47.516 22.562 47.516
 c 23.562 47.516 23.688 49.266 23.688 50.344 c h
23.688 50.344 m f
26.473 52.922 m 26.473 52.641 26.254 52.422 25.973 52.422 c 25.691 52.422
 25.473 52.641 25.473 52.922 c 25.473 53.203 25.691 53.422 25.973 53.422
 c 26.254 53.422 26.473 53.203 26.473 52.922 c h
26.473 52.922 m f
31.324 47.375 m 28.855 47.375 l 27.746 49.922 l 27.887 49.891 28.027 49.859
 28.199 49.859 c 29.152 49.859 30.449 50.359 30.449 51.531 c 30.449 52.438
 29.793 53.016 29.168 53.016 c 28.621 53.016 28.418 52.516 27.902 52.516
 c 27.652 52.516 27.574 52.734 27.574 52.844 c 27.574 53.156 28.012 53.406
 28.637 53.406 c 29.98 53.406 31.043 52.422 31.043 51.219 c 31.043 49.797
 29.918 49.312 28.699 49.281 c 28.59 49.281 28.465 49.297 28.355 49.312 
c 28.918 48.047 l 31.012 48.031 l h
31.324 47.375 m f
31.387 26.703 m 31.387 25.094 30.652 23.641 29.402 23.641 c 28.137 23.641
 27.402 25.094 27.402 26.703 c 27.402 28.328 28.09 29.766 29.402 29.766 
c 30.605 29.766 31.387 28.328 31.387 26.703 c h
30.527 26.703 m 30.527 28 30.402 29.516 29.402 29.516 c 28.449 29.516 28.262
 28 28.262 26.703 c 28.262 25.625 28.387 23.875 29.402 23.875 c 30.402 23.875
 30.527 25.625 30.527 26.703 c h
30.527 26.703 m f
24.547 3.062 m 24.547 1.453 23.812 0 22.562 0 c 21.297 0 20.562 1.453 20.562
 3.062 c 20.562 4.688 21.25 6.125 22.562 6.125 c 23.766 6.125 24.547 4.688
 24.547 3.062 c h
23.688 3.062 m 23.688 4.359 23.562 5.875 22.562 5.875 c 21.609 5.875 21.422
 4.359 21.422 3.062 c 21.422 1.984 21.547 0.234 22.562 0.234 c 23.562 0.234
 23.688 1.984 23.688 3.062 c h
23.688 3.062 m f
26.473 5.641 m 26.473 5.359 26.254 5.141 25.973 5.141 c 25.691 5.141 25.473
 5.359 25.473 5.641 c 25.473 5.922 25.691 6.141 25.973 6.141 c 26.254 6.141
 26.473 5.922 26.473 5.641 c h
26.473 5.641 m f
31.324 0.094 m 28.855 0.094 l 27.746 2.641 l 27.887 2.609 28.027 2.578 
28.199 2.578 c 29.152 2.578 30.449 3.078 30.449 4.25 c 30.449 5.156 29.793
 5.734 29.168 5.734 c 28.621 5.734 28.418 5.234 27.902 5.234 c 27.652 5.234
 27.574 5.453 27.574 5.562 c 27.574 5.875 28.012 6.125 28.637 6.125 c 29.98
 6.125 31.043 5.141 31.043 3.938 c 31.043 2.516 29.918 2.031 28.699 2 c 
28.59 2 28.465 2.016 28.355 2.031 c 28.918 0.766 l 31.012 0.75 l h
31.324 0.094 m f
96.047 164.07 m 96.047 163.789 95.828 163.617 95.641 163.617 c 94.938 163.617
 94.234 165.086 93.953 165.711 c 93.953 165.727 94.531 163.617 94.531 163.617
 c 94.531 163.617 93.297 163.852 93.047 163.867 c 93.047 164.023 l 93.375
 164.023 93.641 163.992 93.641 164.352 c 93.641 164.523 93.531 164.852 93.469
 165.086 c 92.797 167.711 l 93.469 167.711 l 93.688 166.789 94.688 164.242
 95.156 164.242 c 95.391 164.242 95.234 164.617 95.594 164.617 c 95.844 
164.617 96.047 164.398 96.047 164.07 c h
96.047 164.07 m f
100.656 163.5 m 100.438 163.469 l 100.203 163.828 100.016 163.891 99.672
 163.891 c 98.016 163.891 l 99.203 162.906 100.266 162.016 100.266 161.047
 c 100.266 160.312 99.562 159.797 98.797 159.797 c 98.031 159.797 97.422
 160.156 97.188 161.172 c 97.438 161.172 l 97.656 160.781 97.938 160.391
 98.516 160.391 c 99.156 160.391 99.516 160.812 99.516 161.312 c 99.516 
162.047 98.625 163.109 97.109 164.297 c 97.109 164.469 l 100.203 164.469
 l h
100.656 163.5 m f
104.102 161.648 m 103.492 161.648 l 101.445 167.836 l 102.055 167.836 l
 h
104.102 161.648 m f
107.609 166.305 m 107.188 166.945 106.859 167.148 106.359 167.148 c 105.531
 167.148 104.969 166.43 104.969 165.398 c 104.969 164.477 105.453 163.852
 106.188 163.852 c 106.5 163.852 106.625 163.93 106.703 164.273 c 106.766
 164.477 l 106.844 164.727 107 164.883 107.188 164.883 c 107.422 164.883
 107.609 164.711 107.609 164.508 c 107.609 164.008 106.984 163.586 106.234
 163.586 c 105.797 163.586 105.344 163.758 104.969 164.086 c 104.516 164.477
 104.266 165.086 104.266 165.805 c 104.266 166.961 104.984 167.805 105.969
 167.805 c 106.375 167.805 106.734 167.664 107.062 167.383 c 107.297 167.18
 107.469 166.914 107.734 166.398 c h
107.609 166.305 m f
108.145 167.711 m 110.145 167.711 l 110.145 167.57 l 109.676 167.57 109.535
 167.477 109.535 167.117 c 109.535 164.586 l 109.535 164.57 109.598 164.477
 109.66 164.414 c 109.895 164.211 110.27 164.055 110.582 164.055 c 110.988
 164.055 111.176 164.367 111.176 164.992 c 111.176 166.945 l 111.16 167.445
 111.066 167.555 110.566 167.57 c 110.566 167.711 l 112.582 167.711 l 112.582
 167.57 l 112.082 167.57 111.957 167.43 111.926 166.852 c 111.926 164.602
 l 112.207 164.211 112.488 164.055 112.91 164.055 c 113.426 164.055 113.582
 164.289 113.582 165.039 c 113.582 166.93 l 113.566 167.461 113.504 167.523
 112.988 167.57 c 112.988 167.711 l 114.957 167.711 l 114.957 167.57 l 114.723
 167.555 l 114.441 167.508 114.332 167.383 114.332 167.023 c 114.332 165.18
 l 114.332 164.117 113.988 163.586 113.301 163.586 c 112.77 163.586 112.316
 163.82 111.832 164.336 c 111.676 163.82 111.363 163.586 110.879 163.586
 c 110.473 163.586 110.238 163.695 109.488 164.273 c 109.488 163.602 l 109.426
 163.586 l 108.957 163.758 108.645 163.852 108.176 163.992 c 108.176 164.148
 l 108.285 164.117 108.363 164.102 108.457 164.102 c 108.691 164.102 108.77
 164.242 108.77 164.68 c 108.77 166.945 l 108.754 167.445 108.645 167.57
 108.145 167.57 c h
108.145 167.711 m f
118.777 163.5 m 118.559 163.469 l 118.324 163.828 118.137 163.891 117.793
 163.891 c 116.137 163.891 l 117.324 162.906 118.387 162.016 118.387 161.047
 c 118.387 160.312 117.684 159.797 116.918 159.797 c 116.152 159.797 115.543
 160.156 115.309 161.172 c 115.559 161.172 l 115.777 160.781 116.059 160.391
 116.637 160.391 c 117.277 160.391 117.637 160.812 117.637 161.312 c 117.637
 162.047 116.746 163.109 115.23 164.297 c 115.23 164.469 l 118.324 164.469
 l h
118.777 163.5 m f
Q q
24.793 4.613 157.207 139 re W n
q
24 4 158 140 re W n
  q
0 g
1.41739 w
0 J
0 j
[] 0.0 d
10 M q 1 0 0 -1 0 0 cm
45.02 -123.051 m 169.035 -24.762 l S Q
  Q
Q
Q q
0 g
6.188 81.16 m 6.188 79.035 l 6.047 79.035 l 6.031 79.613 5.938 79.707 5.438
 79.723 c 0.078 79.723 l 0.062 79.754 l 0.203 80.207 0.297 80.535 0.453 
81.176 c 0.594 81.176 l 0.594 81.129 l 0.594 81.02 0.578 80.91 0.578 80.848
 c 0.578 80.551 0.703 80.473 1.125 80.473 c 5.406 80.473 l 5.891 80.473 
6.016 80.598 6.047 81.16 c h
6.188 81.16 m f
6.188 78.672 m 6.188 76.766 l 6.047 76.766 l 6.031 77.219 5.906 77.359 
5.594 77.359 c 3.062 77.359 l 2.656 76.922 2.562 76.734 2.562 76.438 c 2.562
 76 2.828 75.781 3.422 75.781 c 5.297 75.781 l 5.875 75.797 6.031 75.906
 6.047 76.344 c 6.188 76.344 l 6.188 74.484 l 6.047 74.484 l 6.016 74.922
 5.906 75.016 5.469 75.031 c 3.406 75.031 l 2.562 75.031 2.062 75.422 2.062
 76.078 c 2.062 76.5 2.219 76.781 2.781 77.391 c 2.078 77.391 l 2.062 77.453
 l 2.234 77.906 2.328 78.219 2.469 78.688 c 2.625 78.688 l 2.594 78.625 
2.578 78.547 2.578 78.438 c 2.578 78.188 2.719 78.109 3.156 78.109 c 5.375
 78.109 l 5.906 78.125 6.031 78.219 6.047 78.672 c h
6.188 78.672 m f
6.031 67.059 m 6.031 67.637 5.766 67.699 5.141 67.715 c 0 67.934 l 0 68.121
 l 5.312 71.605 l 5.953 72.027 6.031 72.262 6.031 72.512 c 6.188 72.543 
l 6.188 70.871 l 6.031 70.855 l 6.031 71.152 5.953 71.355 5.688 71.355 c
 5.547 71.355 5.359 71.293 5.094 71.121 c 4.156 70.512 l 4.156 68.621 l 
5.297 68.574 l 5.969 68.559 6.031 68.855 6.031 69.324 c 6.188 69.355 l 6.188
 67.09 l h
3.844 68.637 m 3.844 70.293 l 1.469 68.746 l h
3.844 68.637 m f
Q Q
showpage
%%Trailer
end
%%EOF
