%!PS-Adobe-3.0 EPSF-3.0
%%Creator: cairo 1.17.4 (https://cairographics.org)
%%CreationDate: Thu Feb 24 10:48:25 2022
%%Pages: 1
%%DocumentData: Clean7Bit
%%LanguageLevel: 2
%%BoundingBox: 0 0 197 161
%%EndComments
%%BeginProlog
50 dict begin
/q { gsave } bind def
/Q { grestore } bind def
/cm { 6 array astore concat } bind def
/w { setlinewidth } bind def
/J { setlinecap } bind def
/j { setlinejoin } bind def
/M { setmiterlimit } bind def
/d { setdash } bind def
/m { moveto } bind def
/l { lineto } bind def
/c { curveto } bind def
/h { closepath } bind def
/re { exch dup neg 3 1 roll 5 3 roll moveto 0 rlineto
      0 exch rlineto 0 rlineto closepath } bind def
/S { stroke } bind def
/f { fill } bind def
/f* { eofill } bind def
/n { newpath } bind def
/W { clip } bind def
/W* { eoclip } bind def
/BT { } bind def
/ET { } bind def
/BDC { mark 3 1 roll /BDC pdfmark } bind def
/EMC { mark /EMC pdfmark } bind def
/cairo_store_point { /cairo_point_y exch def /cairo_point_x exch def } def
/Tj { show currentpoint cairo_store_point } bind def
/TJ {
  {
    dup
    type /stringtype eq
    { show } { -0.001 mul 0 cairo_font_matrix dtransform rmoveto } ifelse
  } forall
  currentpoint cairo_store_point
} bind def
/cairo_selectfont { cairo_font_matrix aload pop pop pop 0 0 6 array astore
    cairo_font exch selectfont cairo_point_x cairo_point_y moveto } bind def
/Tf { pop /cairo_font exch def /cairo_font_matrix where
      { pop cairo_selectfont } if } bind def
/Td { matrix translate cairo_font_matrix matrix concatmatrix dup
      /cairo_font_matrix exch def dup 4 get exch 5 get cairo_store_point
      /cairo_font where { pop cairo_selectfont } if } bind def
/Tm { 2 copy 8 2 roll 6 array astore /cairo_font_matrix exch def
      cairo_store_point /cairo_font where { pop cairo_selectfont } if } bind def
/g { setgray } bind def
/rg { setrgbcolor } bind def
/d1 { setcachedevice } bind def
/cairo_data_source {
  CairoDataIndex CairoData length lt
    { CairoData CairoDataIndex get /CairoDataIndex CairoDataIndex 1 add def }
    { () } ifelse
} def
/cairo_flush_ascii85_file { cairo_ascii85_file status { cairo_ascii85_file flushfile } if } def
/cairo_image { image cairo_flush_ascii85_file } def
/cairo_imagemask { imagemask cairo_flush_ascii85_file } def
%%EndProlog
%%BeginSetup
%%EndSetup
%%Page: 1 1
%%BeginPageSetup
%%PageBoundingBox: 0 0 197 161
%%EndPageSetup
q 0 0 197 161 rectclip
1 0 0 -1 0 161 cm q
0 g
1.13366 w
0 J
0 j
[] 0.0 d
10 M q 1 0 0 -1 0 0 cm
21.441 -139.117 m 21.441 -139.117 23.598 -132.758 24.848 -129.422 c 26.516
 -124.938 28.078 -120.941 29.957 -116.562 c 31.625 -112.668 33.188 -109.262
 35.066 -105.473 c 36.18 -103.25 37.082 -101.199 38.473 -99.113 c 43.617
 -91.258 48.309 -83.926 55.469 -77.844 c 60.578 -73.496 66.348 -71.098 72.465
 -68.32 c 78.164 -65.711 83.656 -64.391 89.496 -62.203 c 95.367 -59.977 
100.688 -57.996 106.492 -55.562 c 112.434 -53.062 117.684 -50.664 123.488
 -47.918 c 129.43 -45.137 134.715 -42.598 140.52 -39.504 c 146.461 -36.309
 151.777 -33.352 157.516 -29.738 c 163.562 -25.914 168.742 -22.129 174.512
 -17.922 c 176.316 -16.637 177.883 -15.418 179.621 -14.098 c 181.391 -12.742
 182.957 -11.527 184.73 -10.172 c 185.91 -9.266 186.953 -8.469 188.137 -7.562
 c 189.316 -6.625 191.539 -4.887 191.539 -4.887 c S Q
0.567043 w
q 1 0 0 -1 0 0 cm
21.441 -139.117 m 23.672 -137.355 l 25.012 -136.297 m 27.246 -134.539 l
 28.586 -133.48 m 30.816 -131.719 l 32.156 -130.66 m 34.387 -128.902 l 35.727
 -127.844 m 37.961 -126.082 l 39.301 -125.023 m 41.531 -123.262 l 42.871
 -122.207 m 45.102 -120.445 l 46.441 -119.387 m 48.676 -117.625 l 50.012
 -116.57 m 52.246 -114.809 l 53.586 -113.75 m 55.816 -111.988 l 57.156 -110.934
 m 59.391 -109.172 l 60.727 -108.113 m 62.961 -106.352 l 64.301 -105.297
 m 66.531 -103.535 l 67.871 -102.477 m 70.102 -100.715 l 71.441 -99.66 m
 73.676 -97.898 l 75.016 -96.84 m 77.246 -95.078 l 78.586 -94.023 m 80.816
 -92.262 l 82.156 -91.203 m 84.391 -89.441 l 85.727 -88.387 m 87.961 -86.625
 l 89.301 -85.566 m 91.531 -83.805 l 92.871 -82.75 m 95.105 -80.988 l 96.441
 -79.93 m 98.676 -78.168 l 100.016 -77.113 m 102.246 -75.352 l 103.586 -74.293
 m 105.816 -72.531 l 107.156 -71.477 m 109.391 -69.715 l 110.73 -68.656 
m 112.961 -66.895 l 114.301 -65.84 m 116.531 -64.078 l 117.871 -63.02 m 
120.105 -61.258 l 121.441 -60.203 m 123.676 -58.441 l 125.016 -57.383 m 
127.246 -55.621 l 128.586 -54.566 m 130.82 -52.805 l 132.156 -51.746 m 134.391
 -49.984 l 135.73 -48.93 m 137.961 -47.168 l 139.301 -46.109 m 141.531 -44.348
 l 142.871 -43.289 m 145.105 -41.531 l 146.445 -40.473 m 148.676 -38.711
 l 150.016 -37.656 m 152.246 -35.895 l 153.586 -34.836 m 155.82 -33.074 
l 157.156 -32.02 m 159.391 -30.258 l 160.73 -29.199 m 162.961 -27.438 l 
164.301 -26.383 m 166.535 -24.617 l 167.871 -23.562 m 170.105 -21.801 l 
171.445 -20.742 m 173.676 -18.984 l 175.016 -17.926 m 177.246 -16.164 l 
178.586 -15.105 m 180.82 -13.348 l 182.16 -12.289 m 184.391 -10.527 l 185.73
 -9.473 m 187.965 -7.711 l 189.301 -6.652 m 191.535 -4.891 l S Q
78.566 104 m 78.316 104.172 78.145 104.203 77.785 104.125 c 75.254 103.562
 l 75.926 102.797 76.004 102.203 75.551 101.625 c 75.348 101.359 75.082 
101.188 74.77 101.156 c 74.332 101.078 73.691 101.328 73.098 101.797 c 71.379
 103.141 l 71.473 103.266 l 71.957 102.969 72.082 102.969 72.441 103.422
 c 74.582 106.125 l 75.004 106.656 74.988 106.766 74.551 107.156 c 74.645
 107.281 l 76.379 105.922 l 76.285 105.797 l 75.785 106.156 75.645 106.141
 75.27 105.688 c 74.301 104.469 l 74.645 104.172 l 77.645 104.922 l 78.66
 104.125 l h
72.91 102.703 m 72.77 102.516 72.785 102.406 73.035 102.203 c 73.816 101.594
 74.395 101.578 74.863 102.172 c 75.113 102.484 75.191 102.828 75.051 103.141
 c 74.895 103.516 74.707 103.734 74.129 104.234 c h
72.91 102.703 m f
81.117 101.512 m 81.07 101.684 81.039 101.762 80.93 101.84 c 80.789 101.965
 80.695 101.918 80.477 101.637 c 79.508 100.418 l 79.242 100.09 79.07 99.934
 78.852 99.855 c 78.539 99.73 78.164 99.84 77.789 100.121 c 77.211 100.59
 77.008 101.246 77.32 101.652 c 77.43 101.793 77.633 101.824 77.773 101.715
 c 77.93 101.59 77.961 101.371 77.852 101.23 c 77.836 101.199 77.805 101.168
 77.773 101.137 c 77.711 101.09 77.68 101.043 77.648 100.996 c 77.508 100.824
 77.586 100.543 77.852 100.34 c 78.148 100.105 78.461 100.152 78.727 100.496
 c 79.039 100.871 l 78.367 101.996 78.305 102.137 78.227 102.59 c 78.18 
102.824 78.273 103.105 78.445 103.324 c 78.742 103.715 79.227 103.777 79.617
 103.465 c 79.898 103.246 80.039 102.902 80.164 102.293 c 80.461 102.605
 80.68 102.621 80.93 102.418 c 81.148 102.262 81.211 102.074 81.258 101.684
 c h
79.867 101.934 m 80.023 102.121 80.039 102.199 79.961 102.387 c 79.867 
102.59 79.758 102.777 79.617 102.887 c 79.398 103.059 79.055 102.965 78.836
 102.699 c 78.82 102.668 l 78.539 102.309 78.617 101.84 79.148 101.012 c
 h
79.867 101.934 m f
80.695 97.84 m 79.883 98.48 79.805 99.527 80.492 100.402 c 81.164 101.246
 82.227 101.418 83.008 100.793 c 83.805 100.168 83.883 99.027 83.195 98.168
 c 82.539 97.324 81.492 97.199 80.695 97.84 c h
80.773 98.074 m 81.305 97.652 82.133 97.98 82.805 98.84 c 83.367 99.543
 83.414 100.184 82.945 100.559 c 82.711 100.746 82.367 100.793 82.023 100.637
 c 81.602 100.449 81.164 100.074 80.805 99.637 c 80.336 99.043 80.32 98.434
 80.773 98.074 c h
80.773 98.074 m f
87.285 96.824 m 87.254 96.84 l 86.91 97.074 86.832 97.059 86.598 96.762
 c 84.91 94.621 l 83.926 95.402 l 84.004 95.512 l 84.41 95.215 84.52 95.23
 84.77 95.543 c 85.926 97.012 l 86.066 97.184 86.113 97.309 86.082 97.434
 c 86.02 97.715 85.895 97.934 85.691 98.09 c 85.457 98.277 85.082 98.215
 84.879 97.965 c 83.27 95.918 l 82.363 96.637 l 82.426 96.73 l 82.738 96.512
 82.879 96.527 83.113 96.824 c 84.363 98.402 l 84.754 98.902 85.316 98.965
 85.77 98.605 c 86.004 98.434 86.176 98.137 86.191 97.84 c 86.254 97.34 
l 86.66 97.871 l 86.707 97.871 l 86.91 97.48 87.082 97.246 87.348 96.918
 c h
87.285 96.824 m f
87.77 96.934 m 89.238 95.777 l 89.16 95.684 l 88.754 95.98 88.629 95.965
 88.348 95.605 c 85.41 91.887 l 85.363 91.902 l 85.129 92.246 84.941 92.496
 84.598 92.949 c 84.676 93.043 l 84.707 93.012 l 84.77 92.965 84.832 92.902
 84.895 92.855 c 85.082 92.699 85.223 92.73 85.457 93.027 c 87.816 96.012
 l 88.051 96.371 88.051 96.512 87.691 96.84 c h
87.77 96.934 m f
88.699 91.625 m 88.074 92.125 l 87.496 91.391 l 87.449 91.328 87.418 91.328
 87.387 91.359 c 87.434 92.172 87.418 92.531 87.324 92.797 c 87.293 92.875
 87.277 92.938 87.309 92.984 c 87.324 93 87.324 93.016 87.371 93 c 87.699
 92.75 l 89.184 94.625 l 89.59 95.156 89.996 95.266 90.371 94.984 c 90.668
 94.734 90.793 94.422 90.73 93.906 c 90.621 93.906 l 90.59 94.188 90.543
 94.328 90.402 94.438 c 90.184 94.625 89.949 94.516 89.637 94.109 c 88.23
 92.328 l 88.855 91.828 l h
88.699 91.625 m f
89.535 91.148 m 89.801 90.586 89.77 89.992 89.488 89.617 c 89.238 89.305
 88.816 89.227 88.535 89.461 c 88.332 89.617 88.285 89.898 88.441 90.102
 c 88.613 90.305 88.848 90.305 89.082 90.117 c 89.113 90.086 89.16 90.055
 89.207 90.023 c 89.207 89.992 89.207 89.992 89.223 89.977 c 89.27 89.93
 89.332 89.945 89.363 89.992 c 89.535 90.211 89.551 90.57 89.379 91.07 c
 h
89.535 91.148 m f
93.137 89.496 m 92.449 88.652 l 92.371 88.715 l 92.371 88.809 92.355 88.84
 92.324 88.871 c 92.277 88.902 92.23 88.934 92.121 88.965 c 91.918 89.027
 91.762 89.105 91.605 89.23 c 91.105 89.621 91.012 90.23 91.371 90.684 c
 91.637 91.027 92.043 91.121 92.824 90.996 c 93.34 90.918 l 93.652 90.871
 93.871 90.934 94.027 91.121 c 94.262 91.402 94.184 91.746 93.871 91.996
 c 93.434 92.324 93.043 92.277 92.387 91.73 c 92.293 91.809 l 93.059 92.793
 l 93.137 92.746 l 93.137 92.637 93.168 92.605 93.23 92.543 c 93.293 92.496
 93.387 92.449 93.543 92.371 c 93.746 92.262 93.934 92.168 94.059 92.059
 c 94.543 91.684 94.652 91.012 94.309 90.574 c 94.059 90.246 93.746 90.168
 93.199 90.23 c 92.215 90.355 l 91.949 90.418 91.746 90.324 91.621 90.152
 c 91.418 89.902 91.449 89.59 91.746 89.355 c 92.105 89.074 92.449 89.137
 93.043 89.574 c h
93.137 89.496 m f
97.094 89.574 m 98.562 88.418 l 98.484 88.324 l 98.078 88.621 97.953 88.605
 97.672 88.246 c 94.734 84.527 l 94.688 84.543 l 94.453 84.887 94.266 85.137
 93.922 85.59 c 94 85.684 l 94.031 85.652 l 94.094 85.605 94.156 85.543 
94.219 85.496 c 94.406 85.34 94.547 85.371 94.781 85.668 c 97.141 88.652
 l 97.375 89.012 97.375 89.152 97.016 89.48 c h
97.094 89.574 m f
101.09 85.75 m 101.043 85.922 101.012 86 100.902 86.078 c 100.762 86.203
 100.668 86.156 100.449 85.875 c 99.48 84.656 l 99.215 84.328 99.043 84.172
 98.824 84.094 c 98.512 83.969 98.137 84.078 97.762 84.359 c 97.184 84.828
 96.98 85.484 97.293 85.891 c 97.402 86.031 97.605 86.062 97.746 85.953 
c 97.902 85.828 97.934 85.609 97.824 85.469 c 97.809 85.438 97.777 85.406
 97.746 85.375 c 97.684 85.328 97.652 85.281 97.621 85.234 c 97.48 85.062
 97.559 84.781 97.824 84.578 c 98.121 84.344 98.434 84.391 98.699 84.734
 c 99.012 85.109 l 98.34 86.234 98.277 86.375 98.199 86.828 c 98.152 87.062
 98.246 87.344 98.418 87.562 c 98.715 87.953 99.199 88.016 99.59 87.703 
c 99.871 87.484 100.012 87.141 100.137 86.531 c 100.434 86.844 100.652 86.859
 100.902 86.656 c 101.121 86.5 101.184 86.312 101.23 85.922 c h
99.84 86.172 m 99.996 86.359 100.012 86.438 99.934 86.625 c 99.84 86.828
 99.73 87.016 99.59 87.125 c 99.371 87.297 99.027 87.203 98.809 86.938 c
 98.793 86.906 l 98.512 86.547 98.59 86.078 99.121 85.25 c h
99.84 86.172 m f
102.633 80.637 m 102.695 80.73 l 102.977 80.605 103.055 80.574 103.133 
80.684 c 103.211 80.793 103.305 80.965 103.352 81.199 c 103.883 83.043 l
 102.273 82.043 l 101.93 81.824 101.93 81.824 101.867 81.762 c 101.758 81.605
 101.789 81.527 102.039 81.246 c 101.977 81.152 l 100.711 82.152 l 100.773
 82.246 l 101.023 82.09 101.164 82.09 101.555 82.324 c 101.633 82.402 101.836
 82.512 101.961 82.59 c 102.367 84.277 l 100.445 83.137 l 100.383 83.09 
100.32 83.043 100.273 82.98 c 100.164 82.84 100.211 82.73 100.398 82.543
 c 100.336 82.449 l 99.211 83.34 l 99.273 83.434 l 99.414 83.34 99.523 83.34
 99.914 83.559 c 102.461 85.043 l 102.695 85.184 102.789 85.215 102.82 85.184
 c 102.852 85.152 102.852 85.059 102.789 84.824 c 102.305 82.762 l 104.039
 83.793 l 104.336 83.965 104.352 83.965 104.398 83.934 c 104.445 83.902 
104.43 83.84 104.336 83.496 c 103.492 80.668 l 103.383 80.293 103.398 80.262
 103.477 80.121 c 103.414 80.027 l h
102.633 80.637 m f
0.567042 w
q 1 0 0 -1 0 0 cm
21.465 -139.109 m 22.359 -136.422 l 22.898 -134.809 m 23.793 -132.117 l
 24.332 -130.504 m 25.23 -127.816 l 25.766 -126.203 m 26.664 -123.512 l 
27.199 -121.898 m 28.098 -119.211 l 28.633 -117.598 m 29.531 -114.906 l 
30.066 -113.293 m 30.965 -110.605 l 31.504 -108.992 m 32.398 -106.301 l 
32.938 -104.688 m 33.832 -102 l 34.371 -100.387 m 35.266 -97.699 l 35.805
 -96.086 m 36.699 -93.395 l 37.238 -91.781 m 38.133 -89.094 l 38.672 -87.48
 m 39.566 -84.789 l 40.105 -83.176 m 41 -80.488 l 41.539 -78.875 m 42.434
 -76.184 l 42.973 -74.57 m 43.871 -71.883 l 44.406 -70.27 m 45.305 -67.578
 l 45.84 -65.965 m 46.738 -63.277 l 47.273 -61.664 m 48.172 -58.973 l 48.707
 -57.359 m 49.605 -54.672 l 50.145 -53.059 m 51.039 -50.367 l 51.578 -48.758
 m 52.473 -46.066 l 53.012 -44.453 m 53.906 -41.766 l 54.445 -40.152 m 55.34
 -37.461 l 55.879 -35.848 m 56.773 -33.16 l 57.312 -31.547 m 58.207 -28.855
 l 58.746 -27.242 m 59.641 -24.555 l 60.18 -22.941 m 61.078 -20.25 l 61.613
 -18.637 m 62.512 -15.949 l 63.047 -14.336 m 63.945 -11.645 l 64.48 -10.031
 m 65.379 -7.344 l 65.914 -5.73 m 66.805 -3.062 l S Q
39.633 70.906 m 40.336 68.812 l 40.195 68.766 l 39.961 69.312 39.836 69.359
 39.289 69.172 c 37.727 68.656 l 38.492 66.375 l 39.977 66.875 l 40.617 
67.078 40.68 67.188 40.508 67.797 c 40.648 67.844 l 41.352 65.734 l 41.211
 65.688 l 40.977 66.234 40.852 66.297 40.305 66.125 c 36.945 65.016 l 36.398
 64.812 36.367 64.719 36.492 64.109 c 36.336 64.062 l 35.633 66.172 l 35.789
 66.219 l 36.039 65.641 36.133 65.594 36.695 65.781 c 38.164 66.266 l 37.398
 68.547 l 35.93 68.062 l 35.383 67.875 35.336 67.797 35.477 67.188 c 35.32
 67.141 l 34.617 69.234 l 34.773 69.281 l 35.008 68.719 35.102 68.672 35.664
 68.844 c 38.945 69.938 l 39.586 70.156 39.648 70.266 39.492 70.859 c h
39.633 70.906 m f
41.191 62.082 m 41.645 62.629 41.77 63.035 41.613 63.535 c 41.473 63.957
 41.129 64.207 40.629 64.285 c 40.301 64.332 40.035 64.301 39.551 64.16 
c 40.332 61.816 l 39.832 61.723 39.582 61.723 39.285 61.816 c 38.926 61.973
 38.645 62.254 38.52 62.66 c 38.395 63.035 38.426 63.441 38.582 63.816 c
 38.785 64.254 39.238 64.645 39.863 64.863 c 40.895 65.207 41.723 64.895
 42.02 64.02 c 42.27 63.285 42.004 62.566 41.285 61.988 c h
39.316 64.066 m 38.77 63.785 38.566 63.441 38.723 62.957 c 38.879 62.504
 39.145 62.395 39.832 62.504 c h
39.316 64.066 m f
42.555 62.141 m 43.086 60.547 l 42.961 60.5 l 42.82 60.875 42.695 60.953
 42.43 60.859 c 40.305 60.156 l 40.07 59.703 40.039 59.5 40.117 59.25 c 
40.242 58.875 40.539 58.781 41.039 58.938 c 42.633 59.469 l 43.102 59.656
 43.195 59.781 43.086 60.141 c 43.211 60.188 l 43.727 58.625 l 43.602 58.578
 l 43.461 58.938 43.352 58.984 42.961 58.875 c 41.227 58.297 l 40.523 58.062
 39.977 58.25 39.789 58.812 c 39.68 59.156 39.742 59.438 40.055 60.109 c
 39.445 59.906 l 39.414 59.953 l 39.43 60.406 39.43 60.688 39.414 61.109
 c 39.539 61.156 l 39.539 61.094 39.555 61.031 39.586 60.938 c 39.648 60.734
 39.789 60.703 40.164 60.828 c 42.023 61.438 l 42.477 61.609 42.539 61.719
 42.43 62.094 c h
42.555 62.141 m f
43.777 58.477 m 44.387 56.664 l 44.262 56.617 l 44.074 57.133 43.934 57.211
 43.48 57.07 c 41.777 56.508 l 41.543 56.43 41.277 55.992 41.34 55.789 c
 41.355 55.742 41.418 55.68 41.512 55.617 c 41.684 55.555 41.73 55.461 41.762
 55.367 c 41.824 55.18 41.746 55.039 41.527 54.961 c 41.293 54.883 41.074
 54.992 40.98 55.242 c 40.871 55.57 40.98 55.82 41.402 56.383 c 40.699 56.148
 l 40.668 56.195 l 40.699 56.68 40.715 56.992 40.715 57.445 c 40.824 57.477
 l 40.84 57.383 40.855 57.305 40.887 57.211 c 40.949 57.023 41.09 56.992
 41.434 57.102 c 43.309 57.727 l 43.715 57.883 43.746 57.945 43.652 58.43
 c h
43.777 58.477 m f
42.41 51.301 m 42.066 52.332 l 42.16 52.363 l 42.238 52.113 42.363 52.004
 42.488 52.051 c 42.52 52.066 42.535 52.082 42.598 52.129 c 44.426 53.551
 l 42.238 53.785 l 42.113 53.785 41.988 53.785 41.926 53.754 c 41.785 53.707
 41.754 53.598 41.848 53.27 c 41.754 53.238 l 41.238 54.785 l 41.332 54.816
 l 41.426 54.629 41.551 54.52 41.707 54.52 c 43.848 54.27 l 44.082 54.254
 44.098 54.238 44.191 54.238 c 44.629 54.145 44.957 54.113 45.066 54.145
 c 45.191 54.191 45.582 54.52 45.801 54.723 c 45.941 54.91 46.035 55.113
 45.988 55.223 c 45.973 55.27 45.941 55.332 45.879 55.395 c 45.77 55.504
 45.691 55.645 45.66 55.77 c 45.598 55.941 45.691 56.145 45.895 56.207 c
 46.129 56.285 46.395 56.113 46.504 55.785 c 46.676 55.27 46.379 54.785 
45.426 54.004 c 42.723 51.801 l 42.52 51.645 42.473 51.52 42.504 51.332 
c h
42.41 51.301 m f
42.832 50.375 m 42.754 49.797 42.41 49.297 41.957 49.141 c 41.582 49.016
 41.191 49.188 41.082 49.531 c 41.004 49.781 41.113 50.031 41.363 50.109
 c 41.613 50.188 41.801 50.062 41.895 49.781 c 41.91 49.734 41.941 49.672
 41.941 49.625 c 41.926 49.594 41.926 49.594 41.941 49.578 c 41.957 49.531
 42.02 49.5 42.082 49.516 c 42.332 49.594 42.535 49.891 42.66 50.406 c h
42.832 50.375 m f
44.953 47.027 m 43.906 46.715 l 43.875 46.809 l 43.922 46.887 43.953 46.918
 43.938 46.949 c 43.922 46.996 43.875 47.074 43.797 47.152 c 43.688 47.309
 43.578 47.465 43.516 47.652 c 43.312 48.246 43.578 48.793 44.125 48.98 
c 44.531 49.121 44.922 48.98 45.5 48.449 c 45.891 48.105 l 46.141 47.902
 46.359 47.809 46.594 47.887 c 46.938 48.012 47.062 48.324 46.922 48.715
 c 46.75 49.23 46.391 49.402 45.547 49.309 c 45.516 49.418 l 46.703 49.824
 l 46.719 49.746 l 46.672 49.652 46.656 49.621 46.688 49.527 c 46.719 49.465
 46.766 49.355 46.875 49.199 c 46.984 49.012 47.078 48.84 47.141 48.668 
c 47.328 48.09 47.047 47.465 46.516 47.293 c 46.125 47.168 45.812 47.246
 45.406 47.621 c 44.641 48.262 l 44.453 48.449 44.234 48.496 44.031 48.434
 c 43.719 48.324 43.578 48.027 43.703 47.668 c 43.844 47.23 44.188 47.105
 44.906 47.152 c h
44.953 47.027 m f
48.25 45.051 m 48.844 43.27 l 48.719 43.223 l 48.547 43.691 48.453 43.77
 48.016 43.613 c 43.516 42.113 l 43.5 42.145 l 43.484 42.551 43.469 42.863
 43.422 43.457 c 43.531 43.488 l 43.547 43.441 l 43.578 43.363 43.594 43.27
 43.609 43.191 c 43.688 42.957 43.828 42.926 44.188 43.051 c 47.797 44.254
 l 48.188 44.41 48.266 44.535 48.125 45.004 c h
48.25 45.051 m f
49.496 39.656 m 49.559 39.797 49.574 39.906 49.527 40.016 c 49.465 40.203
 49.355 40.219 49.012 40.109 c 47.543 39.625 l 47.137 39.484 46.934 39.453
 46.699 39.516 c 46.387 39.594 46.121 39.859 45.965 40.312 c 45.73 41.016
 45.918 41.688 46.402 41.844 c 46.574 41.891 46.762 41.828 46.824 41.656
 c 46.887 41.453 46.793 41.25 46.621 41.203 c 46.59 41.188 46.543 41.172
 46.496 41.172 c 46.418 41.172 46.355 41.156 46.309 41.141 c 46.105 41.062
 46.027 40.766 46.121 40.469 c 46.246 40.094 46.527 39.953 46.934 40.094
 c 47.402 40.25 l 47.48 41.562 47.512 41.719 47.684 42.141 c 47.762 42.344
 47.996 42.547 48.262 42.641 c 48.73 42.797 49.168 42.578 49.324 42.125 
c 49.434 41.781 49.371 41.406 49.137 40.828 c 49.543 40.922 49.746 40.828
 49.855 40.516 c 49.934 40.266 49.902 40.078 49.699 39.734 c h
48.668 40.672 m 48.902 40.75 48.98 40.812 49.012 41.016 c 49.043 41.234
 49.059 41.438 48.996 41.609 c 48.918 41.875 48.574 42 48.246 41.891 c 48.215
 41.875 l 47.777 41.734 47.605 41.281 47.574 40.312 c h
48.668 40.672 m f
47.996 34.531 m 48.09 34.562 l 48.246 34.312 48.309 34.25 48.449 34.297
 c 48.559 34.328 48.73 34.438 48.902 34.609 c 50.355 35.828 l 48.449 35.906
 l 48.059 35.922 48.059 35.922 47.965 35.891 c 47.793 35.828 47.762 35.734
 47.824 35.359 c 47.73 35.328 l 47.215 36.859 l 47.309 36.891 l 47.434 36.625
 47.559 36.547 48.012 36.547 c 48.121 36.547 48.355 36.531 48.496 36.531
 c 49.762 37.719 l 47.543 37.812 l 47.449 37.812 47.371 37.812 47.309 37.781
 c 47.137 37.734 47.105 37.609 47.168 37.344 c 47.074 37.312 l 46.605 38.688
 l 46.699 38.719 l 46.777 38.547 46.887 38.5 47.324 38.469 c 50.262 38.297
 l 50.527 38.297 50.637 38.266 50.652 38.219 c 50.668 38.188 50.59 38.094
 50.418 37.938 c 48.887 36.484 l 50.902 36.391 l 51.23 36.391 51.262 36.375
 51.277 36.328 c 51.309 36.266 51.246 36.219 50.98 35.984 c 48.715 34.078
 l 48.434 33.844 48.418 33.797 48.402 33.625 c 48.309 33.594 l h
47.996 34.531 m f
q 1 0 0 -1 0 0 cm
21.465 -3.062 170.086 -136.047 re S Q
0.398506 w
q 1 0 0 -1 0 0 cm
21.449 -139.125 m 21.449 -134.879 l S Q
q 1 0 0 -1 0 0 cm
55.477 -139.125 m 55.477 -134.879 l S Q
q 1 0 0 -1 0 0 cm
89.469 -139.125 m 89.469 -134.879 l S Q
q 1 0 0 -1 0 0 cm
123.496 -139.125 m 123.496 -134.879 l S Q
q 1 0 0 -1 0 0 cm
157.523 -139.125 m 157.523 -134.879 l S Q
q 1 0 0 -1 0 0 cm
191.516 -139.125 m 191.516 -134.879 l S Q
q 1 0 0 -1 0 0 cm
21.449 -139.125 m 21.449 -134.879 l S Q
q 1 0 0 -1 0 0 cm
21.477 -139.117 m 25.719 -139.117 l S Q
0.398504 w
q 1 0 0 -1 0 0 cm
21.445 -105.117 m 25.711 -105.117 l S Q
0.398505 w
q 1 0 0 -1 0 0 cm
21.453 -71.098 m 25.711 -71.098 l S Q
0.398507 w
q 1 0 0 -1 0 0 cm
21.457 -37.082 m 25.707 -37.082 l S Q
q 1 0 0 -1 0 0 cm
21.465 -3.062 m 25.707 -3.062 l S Q
0.398506 w
q 1 0 0 -1 0 0 cm
21.477 -139.117 m 25.719 -139.117 l S Q
0.398507 w
q 1 0 0 -1 0 0 cm
21.465 -3.062 m 21.465 -7.305 l S Q
q 1 0 0 -1 0 0 cm
55.469 -3.062 m 55.469 -7.305 l S Q
q 1 0 0 -1 0 0 cm
89.473 -3.062 m 89.473 -7.305 l S Q
q 1 0 0 -1 0 0 cm
123.512 -3.062 m 123.512 -7.305 l S Q
q 1 0 0 -1 0 0 cm
157.512 -3.062 m 157.512 -7.305 l S Q
q 1 0 0 -1 0 0 cm
191.516 -3.062 m 191.516 -7.305 l S Q
q 1 0 0 -1 0 0 cm
21.465 -3.062 m 21.465 -7.305 l S Q
0.398506 w
q 1 0 0 -1 0 0 cm
191.551 -139.117 m 187.309 -139.117 l S Q
0.398504 w
q 1 0 0 -1 0 0 cm
191.539 -105.117 m 187.27 -105.117 l S Q
0.398505 w
q 1 0 0 -1 0 0 cm
191.52 -71.098 m 187.297 -71.098 l S Q
0.398507 w
q 1 0 0 -1 0 0 cm
191.523 -37.082 m 187.273 -37.082 l S Q
q 1 0 0 -1 0 0 cm
191.551 -3.062 m 187.273 -3.062 l S Q
0.398506 w
q 1 0 0 -1 0 0 cm
191.551 -139.117 m 187.309 -139.117 l S Q
23.41 145.652 m 23.41 144.043 22.676 142.59 21.426 142.59 c 20.16 142.59
 19.426 144.043 19.426 145.652 c 19.426 147.277 20.113 148.715 21.426 148.715
 c 22.629 148.715 23.41 147.277 23.41 145.652 c h
22.551 145.652 m 22.551 146.949 22.426 148.465 21.426 148.465 c 20.473 
148.465 20.285 146.949 20.285 145.652 c 20.285 144.574 20.41 142.824 21.426
 142.824 c 22.426 142.824 22.551 144.574 22.551 145.652 c h
22.551 145.652 m f
54.012 145.652 m 54.012 144.043 53.277 142.59 52.027 142.59 c 50.762 142.59
 50.027 144.043 50.027 145.652 c 50.027 147.277 50.715 148.715 52.027 148.715
 c 53.23 148.715 54.012 147.277 54.012 145.652 c h
53.152 145.652 m 53.152 146.949 53.027 148.465 52.027 148.465 c 51.074 
148.465 50.887 146.949 50.887 145.652 c 50.887 144.574 51.012 142.824 52.027
 142.824 c 53.027 142.824 53.152 144.574 53.152 145.652 c h
53.152 145.652 m f
55.938 148.23 m 55.938 147.949 55.719 147.73 55.438 147.73 c 55.156 147.73
 54.938 147.949 54.938 148.23 c 54.938 148.512 55.156 148.73 55.438 148.73
 c 55.719 148.73 55.938 148.512 55.938 148.23 c h
55.938 148.23 m f
60.883 147.449 m 60.727 147.418 l 60.461 147.871 60.242 147.949 59.805 
147.949 c 57.742 147.949 l 59.164 146.652 60.461 145.48 60.461 144.168 c
 60.461 143.246 59.664 142.59 58.789 142.59 c 57.93 142.59 57.242 143.059
 56.977 144.277 c 57.18 144.277 l 57.43 143.777 57.773 143.262 58.461 143.262
 c 59.242 143.262 59.68 143.855 59.68 144.527 c 59.68 145.496 58.648 146.918
 56.883 148.465 c 56.883 148.605 l 60.414 148.605 l h
60.883 147.449 m f
88.09 145.652 m 88.09 144.043 87.355 142.59 86.105 142.59 c 84.84 142.59
 84.105 144.043 84.105 145.652 c 84.105 147.277 84.793 148.715 86.105 148.715
 c 87.309 148.715 88.09 147.277 88.09 145.652 c h
87.23 145.652 m 87.23 146.949 87.105 148.465 86.105 148.465 c 85.152 148.465
 84.965 146.949 84.965 145.652 c 84.965 144.574 85.09 142.824 86.105 142.824
 c 87.105 142.824 87.23 144.574 87.23 145.652 c h
87.23 145.652 m f
90.016 148.23 m 90.016 147.949 89.797 147.73 89.516 147.73 c 89.234 147.73
 89.016 147.949 89.016 148.23 c 89.016 148.512 89.234 148.73 89.516 148.73
 c 89.797 148.73 90.016 148.512 90.016 148.23 c h
90.016 148.23 m f
94.945 147.121 m 94.945 146.512 l 94.07 146.512 l 94.07 142.59 l 93.633
 142.59 l 91.039 146.496 l 91.039 147.121 l 93.336 147.121 l 93.336 148.605
 l 94.07 148.605 l 94.07 147.121 l h
93.336 146.512 m 91.398 146.512 l 93.32 143.527 l 93.336 143.527 l h
93.336 146.512 m f
122.051 145.652 m 122.051 144.043 121.316 142.59 120.066 142.59 c 118.801
 142.59 118.066 144.043 118.066 145.652 c 118.066 147.277 118.754 148.715
 120.066 148.715 c 121.27 148.715 122.051 147.277 122.051 145.652 c h
121.191 145.652 m 121.191 146.949 121.066 148.465 120.066 148.465 c 119.113
 148.465 118.926 146.949 118.926 145.652 c 118.926 144.574 119.051 142.824
 120.066 142.824 c 121.066 142.824 121.191 144.574 121.191 145.652 c h
121.191 145.652 m f
123.977 148.23 m 123.977 147.949 123.758 147.73 123.477 147.73 c 123.195
 147.73 122.977 147.949 122.977 148.23 c 122.977 148.512 123.195 148.73 
123.477 148.73 c 123.758 148.73 123.977 148.512 123.977 148.23 c h
123.977 148.23 m f
128.844 146.59 m 128.844 145.605 128.141 144.871 127.25 144.871 c 126.797
 144.871 126.422 145.012 126.031 145.324 c 126.422 143.73 127.594 142.73
 128.719 142.715 c 128.719 142.559 l 125.953 142.559 125.078 144.902 125.078
 146.23 c 125.078 147.652 125.906 148.715 127.016 148.715 c 128.031 148.715
 128.844 147.762 128.844 146.59 c h
128.078 147.043 m 128.078 147.871 127.703 148.449 127.109 148.449 c 126.188
 148.449 125.906 147.105 125.906 146.387 c 125.906 146.152 125.938 145.902
 125.984 145.605 c 126.375 145.355 126.688 145.246 127 145.246 c 127.906
 145.246 128.078 146.293 128.078 147.043 c h
128.078 147.043 m f
156.133 145.652 m 156.133 144.043 155.398 142.59 154.148 142.59 c 152.883
 142.59 152.148 144.043 152.148 145.652 c 152.148 147.277 152.836 148.715
 154.148 148.715 c 155.352 148.715 156.133 147.277 156.133 145.652 c h
155.273 145.652 m 155.273 146.949 155.148 148.465 154.148 148.465 c 153.195
 148.465 153.008 146.949 153.008 145.652 c 153.008 144.574 153.133 142.824
 154.148 142.824 c 155.148 142.824 155.273 144.574 155.273 145.652 c h
155.273 145.652 m f
158.055 148.23 m 158.055 147.949 157.836 147.73 157.555 147.73 c 157.273
 147.73 157.055 147.949 157.055 148.23 c 157.055 148.512 157.273 148.73 
157.555 148.73 c 157.836 148.73 158.055 148.512 158.055 148.23 c h
158.055 148.23 m f
162.707 147.23 m 162.707 146.59 162.426 146.105 161.332 145.293 c 162.02
 144.918 162.551 144.496 162.551 143.84 c 162.551 143.152 161.91 142.559
 160.957 142.559 c 160.113 142.559 159.316 143.105 159.316 143.949 c 159.316
 144.605 159.66 144.996 160.426 145.605 c 159.566 146.262 159.254 146.59
 159.254 147.262 c 159.254 148.012 159.926 148.715 160.973 148.715 c 162.191
 148.715 162.707 147.887 162.707 147.23 c h
161.941 143.824 m 161.941 144.465 161.566 144.809 161.082 145.137 c 160.488
 144.715 159.973 144.246 159.973 143.73 c 159.973 143.246 160.316 142.824
 160.926 142.824 c 161.598 142.824 161.941 143.246 161.941 143.824 c h
162.066 147.48 m 162.066 148.059 161.629 148.449 161.051 148.449 c 160.363
 148.449 159.926 147.902 159.926 147.168 c 159.926 146.496 160.254 146.105
 160.66 145.762 c 161.645 146.512 162.066 146.887 162.066 147.48 c h
162.066 147.48 m f
189.34 148.605 m 189.34 148.465 l 188.746 148.465 188.527 148.48 188.527
 147.309 c 188.527 147.293 188.527 142.559 188.527 142.559 c 188.402 142.559
 l 186.871 143.293 l 186.918 143.434 l 187.246 143.293 187.324 143.262 187.449
 143.262 c 187.715 143.262 187.762 143.496 187.762 143.809 c 187.762 147.309
 l 187.762 148.48 187.543 148.449 186.949 148.465 c 186.949 148.605 l h
189.34 148.605 m f
192.016 148.23 m 192.016 147.949 191.797 147.73 191.516 147.73 c 191.234
 147.73 191.016 147.949 191.016 148.23 c 191.016 148.512 191.234 148.73 
191.516 148.73 c 191.797 148.73 192.016 148.512 192.016 148.23 c h
192.016 148.23 m f
196.93 145.652 m 196.93 144.043 196.195 142.59 194.945 142.59 c 193.68 
142.59 192.945 144.043 192.945 145.652 c 192.945 147.277 193.633 148.715
 194.945 148.715 c 196.148 148.715 196.93 147.277 196.93 145.652 c h
196.07 145.652 m 196.07 146.949 195.945 148.465 194.945 148.465 c 193.992
 148.465 193.805 146.949 193.805 145.652 c 193.805 144.574 193.93 142.824
 194.945 142.824 c 195.945 142.824 196.07 144.574 196.07 145.652 c h
196.07 145.652 m f
17.773 139.176 m 17.773 137.566 17.039 136.113 15.789 136.113 c 14.523 
136.113 13.789 137.566 13.789 139.176 c 13.789 140.801 14.477 142.238 15.789
 142.238 c 16.992 142.238 17.773 140.801 17.773 139.176 c h
16.914 139.176 m 16.914 140.473 16.789 141.988 15.789 141.988 c 14.836 
141.988 14.648 140.473 14.648 139.176 c 14.648 138.098 14.773 136.348 15.789
 136.348 c 16.789 136.348 16.914 138.098 16.914 139.176 c h
16.914 139.176 m f
17.805 107.012 m 17.648 106.98 l 17.383 107.434 17.164 107.512 16.727 107.512
 c 14.664 107.512 l 16.086 106.215 17.383 105.043 17.383 103.73 c 17.383
 102.809 16.586 102.152 15.711 102.152 c 14.852 102.152 14.164 102.621 13.898
 103.84 c 14.102 103.84 l 14.352 103.34 14.695 102.824 15.383 102.824 c 
16.164 102.824 16.602 103.418 16.602 104.09 c 16.602 105.059 15.57 106.48
 13.805 108.027 c 13.805 108.168 l 17.336 108.168 l h
17.805 107.012 m f
17.789 72.602 m 17.789 71.992 l 16.914 71.992 l 16.914 68.07 l 16.477 68.07
 l 13.883 71.977 l 13.883 72.602 l 16.18 72.602 l 16.18 74.086 l 16.914 
74.086 l 16.914 72.602 l h
16.18 71.992 m 14.242 71.992 l 16.164 69.008 l 16.18 69.008 l h
16.18 71.992 m f
17.727 38.113 m 17.727 37.129 17.023 36.395 16.133 36.395 c 15.68 36.395
 15.305 36.535 14.914 36.848 c 15.305 35.254 16.477 34.254 17.602 34.238
 c 17.602 34.082 l 14.836 34.082 13.961 36.426 13.961 37.754 c 13.961 39.176
 14.789 40.238 15.898 40.238 c 16.914 40.238 17.727 39.285 17.727 38.113
 c h
16.961 38.566 m 16.961 39.395 16.586 39.973 15.992 39.973 c 15.07 39.973
 14.789 38.629 14.789 37.91 c 14.789 37.676 14.82 37.426 14.867 37.129 c
 15.258 36.879 15.57 36.77 15.883 36.77 c 16.789 36.77 16.961 37.816 16.961
 38.566 c h
16.961 38.566 m f
17.508 4.672 m 17.508 4.031 17.227 3.547 16.133 2.734 c 16.82 2.359 17.352
 1.938 17.352 1.281 c 17.352 0.594 16.711 0 15.758 0 c 14.914 0 14.117 0.547
 14.117 1.391 c 14.117 2.047 14.461 2.438 15.227 3.047 c 14.367 3.703 14.055
 4.031 14.055 4.703 c 14.055 5.453 14.727 6.156 15.773 6.156 c 16.992 6.156
 17.508 5.328 17.508 4.672 c h
16.742 1.266 m 16.742 1.906 16.367 2.25 15.883 2.578 c 15.289 2.156 14.773
 1.688 14.773 1.172 c 14.773 0.688 15.117 0.266 15.727 0.266 c 16.398 0.266
 16.742 0.688 16.742 1.266 c h
16.867 4.922 m 16.867 5.5 16.43 5.891 15.852 5.891 c 15.164 5.891 14.727
 5.344 14.727 4.609 c 14.727 3.938 15.055 3.547 15.461 3.203 c 16.445 3.953
 16.867 4.328 16.867 4.922 c h
16.867 4.922 m f
1 g
32.457 115.297 m 32.457 114.121 31.504 113.168 30.328 113.168 c 29.152 
113.168 28.199 114.121 28.199 115.297 c 28.199 116.473 29.152 117.426 30.328
 117.426 c 31.504 117.426 32.457 116.473 32.457 115.297 c f
0 g
32.457 115.297 m 32.457 114.121 31.504 113.168 30.328 113.168 c 29.152 
113.168 28.199 114.121 28.199 115.297 c 28.199 116.473 29.152 117.426 30.328
 117.426 c 31.504 117.426 32.457 116.473 32.457 115.297 c h
32.457 115.297 m 32.246 115.297 l 32.246 114.238 31.387 113.379 30.328 
113.379 c 29.27 113.379 28.41 114.238 28.41 115.297 c 28.41 116.355 29.27
 117.215 30.328 117.215 c 31.387 117.215 32.246 116.355 32.246 115.297 c
 f
1 g
39.156 101.398 m 39.156 100.223 38.203 99.27 37.027 99.27 c 35.852 99.27
 34.898 100.223 34.898 101.398 c 34.898 102.574 35.852 103.527 37.027 103.527
 c 38.203 103.527 39.156 102.574 39.156 101.398 c f
0 g
39.156 101.398 m 39.156 100.223 38.203 99.27 37.027 99.27 c 35.852 99.27
 34.898 100.223 34.898 101.398 c 34.898 102.574 35.852 103.527 37.027 103.527
 c 38.203 103.527 39.156 102.574 39.156 101.398 c h
39.156 101.398 m 38.945 101.398 l 38.945 100.34 38.086 99.48 37.027 99.48
 c 35.969 99.48 35.109 100.34 35.109 101.398 c 35.109 102.457 35.969 103.316
 37.027 103.316 c 38.086 103.316 38.945 102.457 38.945 101.398 c f
1 g
46.457 88.598 m 46.457 87.422 45.504 86.469 44.328 86.469 c 43.152 86.469
 42.199 87.422 42.199 88.598 c 42.199 89.773 43.152 90.727 44.328 90.727
 c 45.504 90.727 46.457 89.773 46.457 88.598 c f
0 g
46.457 88.598 m 46.457 87.422 45.504 86.469 44.328 86.469 c 43.152 86.469
 42.199 87.422 42.199 88.598 c 42.199 89.773 43.152 90.727 44.328 90.727
 c 45.504 90.727 46.457 89.773 46.457 88.598 c h
46.457 88.598 m 46.246 88.598 l 46.246 87.539 45.387 86.68 44.328 86.68
 c 43.27 86.68 42.41 87.539 42.41 88.598 c 42.41 89.656 43.27 90.516 44.328
 90.516 c 45.387 90.516 46.246 89.656 46.246 88.598 c f
1 g
51.957 82.695 m 51.957 81.52 51.004 80.566 49.828 80.566 c 48.652 80.566
 47.699 81.52 47.699 82.695 c 47.699 83.871 48.652 84.824 49.828 84.824 
c 51.004 84.824 51.957 83.871 51.957 82.695 c f
0 g
51.957 82.695 m 51.957 81.52 51.004 80.566 49.828 80.566 c 48.652 80.566
 47.699 81.52 47.699 82.695 c 47.699 83.871 48.652 84.824 49.828 84.824 
c 51.004 84.824 51.957 83.871 51.957 82.695 c h
51.957 82.695 m 51.746 82.695 l 51.746 81.637 50.887 80.777 49.828 80.777
 c 48.77 80.777 47.91 81.637 47.91 82.695 c 47.91 83.754 48.77 84.613 49.828
 84.613 c 50.887 84.613 51.746 83.754 51.746 82.695 c f
1 g
57.957 78.195 m 57.957 77.02 57.004 76.066 55.828 76.066 c 54.652 76.066
 53.699 77.02 53.699 78.195 c 53.699 79.371 54.652 80.324 55.828 80.324 
c 57.004 80.324 57.957 79.371 57.957 78.195 c f
0 g
57.957 78.195 m 57.957 77.02 57.004 76.066 55.828 76.066 c 54.652 76.066
 53.699 77.02 53.699 78.195 c 53.699 79.371 54.652 80.324 55.828 80.324 
c 57.004 80.324 57.957 79.371 57.957 78.195 c h
57.957 78.195 m 57.746 78.195 l 57.746 77.137 56.887 76.277 55.828 76.277
 c 54.77 76.277 53.91 77.137 53.91 78.195 c 53.91 79.254 54.77 80.113 55.828
 80.113 c 56.887 80.113 57.746 79.254 57.746 78.195 c f
1 g
72.055 69.398 m 72.055 68.223 71.102 67.27 69.926 67.27 c 68.75 67.27 67.797
 68.223 67.797 69.398 c 67.797 70.574 68.75 71.527 69.926 71.527 c 71.102
 71.527 72.055 70.574 72.055 69.398 c f
0 g
72.055 69.398 m 72.055 68.223 71.102 67.27 69.926 67.27 c 68.75 67.27 67.797
 68.223 67.797 69.398 c 67.797 70.574 68.75 71.527 69.926 71.527 c 71.102
 71.527 72.055 70.574 72.055 69.398 c h
72.055 69.398 m 71.844 69.398 l 71.844 68.34 70.984 67.48 69.926 67.48 
c 68.867 67.48 68.008 68.34 68.008 69.398 c 68.008 70.457 68.867 71.316 
69.926 71.316 c 70.984 71.316 71.844 70.457 71.844 69.398 c f
1 g
80.855 66.195 m 80.855 65.02 79.902 64.066 78.727 64.066 c 77.551 64.066
 76.598 65.02 76.598 66.195 c 76.598 67.371 77.551 68.324 78.727 68.324 
c 79.902 68.324 80.855 67.371 80.855 66.195 c f
0 g
80.855 66.195 m 80.855 65.02 79.902 64.066 78.727 64.066 c 77.551 64.066
 76.598 65.02 76.598 66.195 c 76.598 67.371 77.551 68.324 78.727 68.324 
c 79.902 68.324 80.855 67.371 80.855 66.195 c h
80.855 66.195 m 80.645 66.195 l 80.645 65.137 79.785 64.277 78.727 64.277
 c 77.668 64.277 76.809 65.137 76.809 66.195 c 76.809 67.254 77.668 68.113
 78.727 68.113 c 79.785 68.113 80.645 67.254 80.645 66.195 c f
1 g
106.957 56.098 m 106.957 54.922 106.004 53.969 104.828 53.969 c 103.652
 53.969 102.699 54.922 102.699 56.098 c 102.699 57.273 103.652 58.227 104.828
 58.227 c 106.004 58.227 106.957 57.273 106.957 56.098 c f
0 g
106.957 56.098 m 106.957 54.922 106.004 53.969 104.828 53.969 c 103.652
 53.969 102.699 54.922 102.699 56.098 c 102.699 57.273 103.652 58.227 104.828
 58.227 c 106.004 58.227 106.957 57.273 106.957 56.098 c h
106.957 56.098 m 106.746 56.098 l 106.746 55.039 105.887 54.18 104.828 
54.18 c 103.77 54.18 102.91 55.039 102.91 56.098 c 102.91 57.156 103.77 
58.016 104.828 58.016 c 105.887 58.016 106.746 57.156 106.746 56.098 c f
1 g
122.555 49.496 m 122.555 48.32 121.602 47.367 120.426 47.367 c 119.25 47.367
 118.297 48.32 118.297 49.496 c 118.297 50.672 119.25 51.625 120.426 51.625
 c 121.602 51.625 122.555 50.672 122.555 49.496 c f
0 g
122.555 49.496 m 122.555 48.32 121.602 47.367 120.426 47.367 c 119.25 47.367
 118.297 48.32 118.297 49.496 c 118.297 50.672 119.25 51.625 120.426 51.625
 c 121.602 51.625 122.555 50.672 122.555 49.496 c h
122.555 49.496 m 122.344 49.496 l 122.344 48.438 121.484 47.578 120.426
 47.578 c 119.367 47.578 118.508 48.438 118.508 49.496 c 118.508 50.555 
119.367 51.414 120.426 51.414 c 121.484 51.414 122.344 50.555 122.344 49.496
 c f
1 g
156.457 31.598 m 156.457 30.422 155.504 29.469 154.328 29.469 c 153.152
 29.469 152.199 30.422 152.199 31.598 c 152.199 32.773 153.152 33.727 154.328
 33.727 c 155.504 33.727 156.457 32.773 156.457 31.598 c f
0 g
156.457 31.598 m 156.457 30.422 155.504 29.469 154.328 29.469 c 153.152
 29.469 152.199 30.422 152.199 31.598 c 152.199 32.773 153.152 33.727 154.328
 33.727 c 155.504 33.727 156.457 32.773 156.457 31.598 c h
156.457 31.598 m 156.246 31.598 l 156.246 30.539 155.387 29.68 154.328 
29.68 c 153.27 29.68 152.41 30.539 152.41 31.598 c 152.41 32.656 153.27 
33.516 154.328 33.516 c 155.387 33.516 156.246 32.656 156.246 31.598 c f
1 g
193.656 5.297 m 193.656 4.121 192.703 3.168 191.527 3.168 c 190.352 3.168
 189.398 4.121 189.398 5.297 c 189.398 6.473 190.352 7.426 191.527 7.426
 c 192.703 7.426 193.656 6.473 193.656 5.297 c f
0 g
193.656 5.297 m 193.656 4.121 192.703 3.168 191.527 3.168 c 190.352 3.168
 189.398 4.121 189.398 5.297 c 189.398 6.473 190.352 7.426 191.527 7.426
 c 192.703 7.426 193.656 6.473 193.656 5.297 c h
193.656 5.297 m 193.445 5.297 l 193.445 4.238 192.586 3.379 191.527 3.379
 c 190.469 3.379 189.609 4.238 189.609 5.297 c 189.609 6.355 190.469 7.215
 191.527 7.215 c 192.586 7.215 193.445 6.355 193.445 5.297 c f
105.977 154.441 m 105.977 154.223 105.773 154.113 105.602 154.113 c 105.148
 154.113 104.57 154.785 104.133 155.488 c 104.117 155.488 104.055 155.191
 104.055 155.191 c 103.914 154.598 103.742 154.254 103.43 154.113 c 103.43
 154.113 102.414 154.316 102.289 154.363 c 102.289 154.52 l 102.477 154.473
 102.617 154.441 102.711 154.441 c 103.211 154.441 103.289 154.926 103.633
 156.223 c 103.227 156.816 102.586 157.816 102.336 157.816 c 102.133 157.816
 102.117 157.598 101.836 157.598 c 101.648 157.598 101.508 157.738 101.508
 157.926 c 101.508 158.16 101.68 158.316 101.93 158.316 c 102.57 158.316
 103.148 157.191 103.695 156.488 c 103.727 156.551 103.93 157.348 103.93
 157.348 c 104.148 158.176 104.32 158.316 104.539 158.316 c 104.82 158.316
 105.242 158.035 105.664 157.254 c 105.539 157.176 l 105.383 157.379 105.133
 157.801 104.898 157.801 c 104.586 157.801 104.414 156.535 104.195 155.738
 c 104.242 155.66 104.867 154.66 105.195 154.66 c 105.367 154.66 105.523
 154.801 105.68 154.801 c 105.898 154.801 105.977 154.613 105.977 154.441
 c h
105.977 154.441 m f
111.18 160.363 m 110.867 160.332 110.789 160.27 110.555 159.754 c 108.82
 155.785 l 108.68 155.785 l 107.227 159.207 l 106.773 160.223 106.695 160.348
 106.367 160.363 c 106.367 160.488 l 107.742 160.488 l 107.742 160.363 l
 107.414 160.363 107.273 160.27 107.273 160.066 c 107.273 159.988 107.289
 159.895 107.32 159.801 c 107.648 158.988 l 109.477 158.988 l 109.758 159.645
 l 109.836 159.848 109.883 160.02 109.883 160.113 c 109.883 160.301 109.773
 160.348 109.398 160.363 c 109.398 160.488 l 111.18 160.488 l h
107.758 158.691 m 108.57 156.785 l 109.367 158.691 l h
107.758 158.691 m f
0.547 78.93 m 0.188 78.93 0 79.32 0 79.664 c 0 80.914 1.797 81.523 2.438
 81.711 c 2.438 81.711 2.438 82.289 2.438 82.523 c 2.781 82.617 l 2.781 
81.805 l 3.891 82.086 6.719 82.617 7.672 83.164 c 8.109 83.414 8.172 83.805
 8.172 83.977 c 8.172 84.039 8.141 84.117 8.094 84.117 c 7.969 84.117 7.969
 83.93 7.781 83.93 c 7.672 83.93 7.547 84.023 7.547 84.211 c 7.547 84.445
 7.734 84.617 7.922 84.617 c 8.172 84.617 8.359 84.352 8.359 83.977 c 8.359
 82.227 4.594 81.57 2.781 81.117 c 2.781 80.383 l 2.438 80.305 l 2.438 81.023
 l 1.484 80.727 0.188 80.43 0.188 79.648 c 0.188 79.539 0.266 79.43 0.344
 79.43 c 0.438 79.43 0.5 79.57 0.672 79.57 c 0.828 79.57 0.953 79.461 0.953
 79.305 c 0.953 79.102 0.766 78.93 0.547 78.93 c h
0.547 78.93 m f
8.594 75.297 m 8.562 75.609 8.5 75.688 7.984 75.922 c 4.016 77.656 l 4.016
 77.797 l 7.438 79.25 l 8.453 79.703 8.578 79.781 8.594 80.109 c 8.719 80.109
 l 8.719 78.734 l 8.594 78.734 l 8.594 79.062 8.5 79.203 8.297 79.203 c 
8.219 79.203 8.125 79.188 8.031 79.156 c 7.219 78.828 l 7.219 77 l 7.875
 76.719 l 8.078 76.641 8.25 76.594 8.344 76.594 c 8.531 76.594 8.578 76.703
 8.594 77.078 c 8.719 77.078 l 8.719 75.297 l h
6.922 78.719 m 5.016 77.906 l 6.922 77.109 l h
6.922 78.719 m f
0 70.789 m 0 71.227 l 8.359 74.336 l 8.359 73.883 l h
0 70.789 m f
6.438 70.195 m 6.438 68.102 l 6.297 68.102 l 6.297 68.273 l 6.266 68.648
 6.172 68.758 5.844 68.773 c 4.188 68.773 l 5.859 67.508 l 5.906 67.477 
5.953 67.445 5.984 67.43 c 6.062 67.352 6.125 67.32 6.172 67.32 c 6.25 67.32
 6.297 67.398 6.297 67.508 c 6.297 67.68 l 6.438 67.68 l 6.438 65.727 l 
6.297 65.727 l 6.281 66.117 6.109 66.398 5.641 66.773 c 3.906 68.148 l 3.672
 67.883 l 2.656 66.773 2.516 66.523 2.531 65.945 c 2.406 65.945 l 2.406 
67.789 l 2.531 67.789 l 2.531 67.43 2.578 67.336 2.688 67.336 c 2.766 67.336
 2.891 67.414 3 67.539 c 4.094 68.773 l 0.328 68.773 l 0.312 68.805 l 0.422
 69.148 0.5 69.414 0.641 69.93 c 0.703 70.195 l 0.844 70.195 l 0.844 70.086
 0.828 69.992 0.828 69.914 c 0.828 69.602 0.953 69.523 1.375 69.523 c 5.703
 69.523 l 6.172 69.539 6.203 69.555 6.297 70.195 c h
6.438 70.195 m f
0.672 65.676 m 0.75 65.004 0.828 64.926 1.484 64.926 c 5.359 64.926 l 6.125
 64.926 6.203 64.988 6.266 65.676 c 6.438 65.676 l 6.438 63.16 l 6.266 63.16
 l 6.25 63.863 6.125 63.988 5.453 64.004 c 3.828 64.004 l 3.844 63.77 3.859
 63.613 3.859 63.379 c 3.859 62.676 3.766 62.207 3.547 61.816 c 3.266 61.285
 2.719 60.957 2.125 60.957 c 1.75 60.957 1.406 61.082 1.141 61.316 c 0.75
 61.676 0.5 62.457 0.5 63.301 c 0.5 65.676 l h
1.141 64.004 m 0.891 64.004 0.828 63.941 0.828 63.707 c 0.828 62.488 1.25
 61.926 2.172 61.926 c 3.047 61.926 3.5 62.457 3.5 63.488 c 3.5 63.676 3.484
 63.801 3.469 64.004 c h
1.141 64.004 m f
5.844 56.93 m 5.969 57.086 6.016 57.195 6.016 57.336 c 6.016 57.539 5.891
 57.602 5.5 57.602 c 3.75 57.602 l 3.281 57.602 3.016 57.648 2.812 57.773
 c 2.484 57.977 2.312 58.367 2.312 58.883 c 2.312 59.727 2.75 60.398 3.312
 60.398 c 3.516 60.398 3.703 60.227 3.703 60.008 c 3.703 59.789 3.516 59.602
 3.328 59.602 c 3.297 59.602 3.25 59.617 3.188 59.617 c 3.094 59.648 3.031
 59.648 2.969 59.648 c 2.719 59.648 2.531 59.367 2.531 59.008 c 2.531 58.57
 2.781 58.32 3.266 58.32 c 3.812 58.32 l 4.359 59.695 4.453 59.852 4.781
 60.242 c 4.969 60.445 5.266 60.57 5.562 60.57 c 6.125 60.57 6.531 60.18
 6.531 59.617 c 6.531 59.227 6.344 58.867 5.875 58.32 c 6.344 58.273 6.531
 58.102 6.531 57.742 c 6.531 57.43 6.422 57.242 6.078 56.93 c h
5.328 58.32 m 5.609 58.32 5.703 58.367 5.812 58.555 c 5.938 58.789 6 59.023
 6 59.211 c 6 59.523 5.703 59.773 5.312 59.773 c 5.281 59.773 l 4.75 59.773
 4.406 59.367 4.031 58.32 c h
5.328 58.32 m f
Q Q
showpage
%%Trailer
end
%%EOF
