%!PS-Adobe-3.0 EPSF-3.0
%%Creator: cairo 1.17.4 (https://cairographics.org)
%%CreationDate: Thu Feb 24 10:48:27 2022
%%Pages: 1
%%DocumentData: Clean7Bit
%%LanguageLevel: 2
%%BoundingBox: 0 0 115 58
%%EndComments
%%BeginProlog
50 dict begin
/q { gsave } bind def
/Q { grestore } bind def
/cm { 6 array astore concat } bind def
/w { setlinewidth } bind def
/J { setlinecap } bind def
/j { setlinejoin } bind def
/M { setmiterlimit } bind def
/d { setdash } bind def
/m { moveto } bind def
/l { lineto } bind def
/c { curveto } bind def
/h { closepath } bind def
/re { exch dup neg 3 1 roll 5 3 roll moveto 0 rlineto
      0 exch rlineto 0 rlineto closepath } bind def
/S { stroke } bind def
/f { fill } bind def
/f* { eofill } bind def
/n { newpath } bind def
/W { clip } bind def
/W* { eoclip } bind def
/BT { } bind def
/ET { } bind def
/BDC { mark 3 1 roll /BDC pdfmark } bind def
/EMC { mark /EMC pdfmark } bind def
/cairo_store_point { /cairo_point_y exch def /cairo_point_x exch def } def
/Tj { show currentpoint cairo_store_point } bind def
/TJ {
  {
    dup
    type /stringtype eq
    { show } { -0.001 mul 0 cairo_font_matrix dtransform rmoveto } ifelse
  } forall
  currentpoint cairo_store_point
} bind def
/cairo_selectfont { cairo_font_matrix aload pop pop pop 0 0 6 array astore
    cairo_font exch selectfont cairo_point_x cairo_point_y moveto } bind def
/Tf { pop /cairo_font exch def /cairo_font_matrix where
      { pop cairo_selectfont } if } bind def
/Td { matrix translate cairo_font_matrix matrix concatmatrix dup
      /cairo_font_matrix exch def dup 4 get exch 5 get cairo_store_point
      /cairo_font where { pop cairo_selectfont } if } bind def
/Tm { 2 copy 8 2 roll 6 array astore /cairo_font_matrix exch def
      cairo_store_point /cairo_font where { pop cairo_selectfont } if } bind def
/g { setgray } bind def
/rg { setrgbcolor } bind def
/d1 { setcachedevice } bind def
/cairo_data_source {
  CairoDataIndex CairoData length lt
    { CairoData CairoDataIndex get /CairoDataIndex CairoDataIndex 1 add def }
    { () } ifelse
} def
/cairo_flush_ascii85_file { cairo_ascii85_file status { cairo_ascii85_file flushfile } if } def
/cairo_image { image cairo_flush_ascii85_file } def
/cairo_imagemask { imagemask cairo_flush_ascii85_file } def
%%EndProlog
%%BeginSetup
%%EndSetup
%%Page: 1 1
%%BeginPageSetup
%%PageBoundingBox: 0 0 115 58
%%EndPageSetup
q 0 0 115 58 rectclip
1 0 0 -1 0 58 cm q
Q q
q
0 0 115 58 re W n
  q
0 g
0.850361 w
0 J
0 j
[] 0.0 d
10 M q 1 0 0 -1 0 0 cm
0.426 -28.691 m 0.426 -0.348 l 113.812 -0.348 l 113.812 -57.039 l 0.426
 -57.039 l h
0.426 -28.691 m S Q
  Q
Q
Q q
55.945 0 2 57.5 re W n
q
55 0 3 58 re W n
  q
0 g
0.567043 w
0 J
0 j
[] 0.0 d
10 M q 1 0 0 -1 0 0 cm
57.117 -57.039 m 57.117 -54.77 l 57.117 -52.504 m 57.117 -50.234 l 57.117
 -47.969 m 57.117 -45.699 l 57.117 -43.434 m 57.117 -41.164 l 57.117 -38.898
 m 57.117 -36.629 l 57.117 -34.363 m 57.117 -32.094 l 57.117 -29.828 m 57.117
 -27.559 l 57.117 -25.293 m 57.117 -23.023 l 57.117 -20.754 m 57.117 -18.488
 l 57.117 -16.219 m 57.117 -13.953 l 57.117 -11.684 m 57.117 -9.418 l 57.117
 -7.148 m 57.117 -4.883 l 57.117 -2.613 m 57.117 -0.348 l S Q
  Q
Q
Q q
0 g
26.578 16.508 m 26.172 16.477 26.094 16.398 25.781 15.727 c 23.547 10.633
 l 23.359 10.633 l 21.5 15.039 l 20.922 16.352 20.812 16.492 20.391 16.508
 c 20.391 16.68 l 22.156 16.68 l 22.156 16.508 l 21.734 16.508 21.547 16.398
 21.547 16.148 c 21.547 16.039 21.578 15.914 21.625 15.789 c 22.031 14.742
 l 24.391 14.742 l 24.75 15.602 l 24.859 15.852 24.922 16.086 24.922 16.211
 c 24.922 16.43 24.766 16.508 24.297 16.508 c 24.297 16.68 l 26.578 16.68
 l h
22.188 14.367 m 23.219 11.914 l 24.266 14.367 l h
22.188 14.367 m f
29.371 10.617 m 28.715 11.055 28.449 11.273 28.105 11.695 c 27.48 12.477
 27.168 13.367 27.168 14.414 c 27.168 15.57 27.496 16.445 28.277 17.352 
c 28.652 17.789 28.887 17.977 29.355 18.273 c 29.449 18.117 l 28.746 17.555
 28.496 17.242 28.246 16.57 c 28.027 15.977 27.934 15.305 27.934 14.398 
c 27.934 13.445 28.043 12.711 28.293 12.164 c 28.543 11.602 28.809 11.273
 29.449 10.758 c h
29.371 10.617 m f
33.949 13.195 m 33.949 12.852 l 33.262 12.852 l 33.074 12.852 32.934 12.82
 32.762 12.758 c 32.559 12.695 l 32.324 12.602 32.074 12.555 31.84 12.555
 c 31.012 12.555 30.355 13.195 30.355 14.023 c 30.355 14.586 30.59 14.914
 31.184 15.211 c 30.949 15.43 l 30.762 15.617 30.652 15.711 30.621 15.742
 c 30.434 15.945 30.387 16.039 30.387 16.195 c 30.387 16.398 30.48 16.492
 30.855 16.664 c 30.215 17.133 29.98 17.43 29.98 17.758 c 29.98 18.242 30.668
 18.633 31.527 18.633 c 32.199 18.633 32.902 18.398 33.371 18.023 c 33.715
 17.742 33.871 17.461 33.871 17.117 c 33.871 16.57 33.449 16.195 32.777 
16.164 c 31.621 16.102 l 31.137 16.086 30.918 16.008 30.918 15.867 c 30.918
 15.68 31.215 15.367 31.465 15.305 c 31.777 15.32 31.949 15.336 31.98 15.336
 c 32.309 15.336 32.668 15.211 32.934 14.961 c 33.23 14.711 33.371 14.398
 33.371 13.961 c 33.371 13.695 33.324 13.492 33.199 13.195 c h
31.043 16.695 m 31.355 16.758 32.059 16.82 32.512 16.82 c 33.324 16.82 
33.621 16.93 33.621 17.258 c 33.621 17.773 32.934 18.117 31.918 18.117 c
 31.121 18.117 30.605 17.867 30.605 17.477 c 30.605 17.258 30.684 17.133
 31.043 16.695 c h
31.09 13.648 m 31.09 13.117 31.34 12.805 31.762 12.805 c 32.043 12.805 
32.262 12.961 32.418 13.227 c 32.59 13.539 32.684 13.945 32.684 14.305 c
 32.684 14.805 32.434 15.117 32.012 15.117 c 31.465 15.117 31.09 14.539 
31.09 13.68 c h
31.09 13.648 m f
34.516 18.273 m 35.172 17.82 35.453 17.602 35.781 17.195 c 36.422 16.414
 36.734 15.508 36.734 14.461 c 36.734 13.32 36.391 12.445 35.609 11.539 
c 35.234 11.102 35 10.898 34.547 10.617 c 34.438 10.758 l 35.156 11.32 35.391
 11.633 35.641 12.305 c 35.859 12.914 35.953 13.586 35.953 14.492 c 35.953
 15.43 35.844 16.164 35.594 16.711 c 35.359 17.273 35.078 17.602 34.438 
18.117 c h
34.516 18.273 m f
20.645 28.41 m 20.645 27.707 20.332 27.238 19.66 27.238 c 19.066 27.238
 18.613 27.66 18.207 28.223 c 18.52 27.238 l 18.52 27.238 17.316 27.473 
17.051 27.488 c 17.051 27.645 l 17.379 27.645 17.645 27.613 17.645 27.973
 c 17.645 28.145 17.535 28.535 17.473 28.754 c 16.41 32.488 l 16.316 32.832
 16.16 33.082 15.723 33.082 c 15.691 33.238 l 17.66 33.238 l 17.691 33.082
 l 17.348 33.082 17.051 33.066 17.051 32.816 c 17.051 32.738 17.066 32.645
 17.113 32.473 c 17.426 31.223 l 17.598 31.363 17.863 31.441 18.082 31.441
 c 19.16 31.441 20.645 29.91 20.645 28.41 c h
19.879 28.504 m 19.879 29.676 18.895 31.238 18.051 31.238 c 17.848 31.238
 17.66 31.16 17.488 30.988 c 17.691 30.191 18.238 27.66 19.395 27.66 c 19.879
 27.66 19.879 28.301 19.879 28.504 c h
19.879 28.504 m f
30.48 28.41 m 30.48 27.91 l 24.48 27.91 l 24.48 28.41 l h
30.48 30.223 m 30.48 29.723 l 24.48 29.723 l 24.48 30.223 l h
30.48 30.223 m f
39.125 28.41 m 39.125 27.707 38.812 27.238 38.141 27.238 c 37.547 27.238
 37.094 27.66 36.688 28.223 c 37 27.238 l 37 27.238 35.797 27.473 35.531
 27.488 c 35.531 27.645 l 35.859 27.645 36.125 27.613 36.125 27.973 c 36.125
 28.145 36.016 28.535 35.953 28.754 c 34.891 32.488 l 34.797 32.832 34.641
 33.082 34.203 33.082 c 34.172 33.238 l 36.141 33.238 l 36.172 33.082 l 
35.828 33.082 35.531 33.066 35.531 32.816 c 35.531 32.738 35.547 32.645 
35.594 32.473 c 35.906 31.223 l 36.078 31.363 36.344 31.441 36.562 31.441
 c 37.641 31.441 39.125 29.91 39.125 28.41 c h
38.359 28.504 m 38.359 29.676 37.375 31.238 36.531 31.238 c 36.328 31.238
 36.141 31.16 35.969 30.988 c 36.172 30.191 36.719 27.66 37.875 27.66 c 
38.359 27.66 38.359 28.301 38.359 28.504 c h
38.359 28.504 m f
41.781 24.609 m 41.781 24.391 41.547 24.234 41.328 24.234 c 41.172 24.234
 41.031 24.312 40.969 24.531 c 40.031 27.719 l 40.234 27.797 l 41.734 24.781
 l 41.75 24.719 41.781 24.672 41.781 24.609 c h
41.781 24.609 m f
68.902 10.617 m 68.246 11.055 67.98 11.273 67.637 11.695 c 67.012 12.477
 66.699 13.367 66.699 14.414 c 66.699 15.57 67.027 16.445 67.809 17.352 
c 68.184 17.789 68.418 17.977 68.887 18.273 c 68.98 18.117 l 68.277 17.555
 68.027 17.242 67.777 16.57 c 67.559 15.977 67.465 15.305 67.465 14.398 
c 67.465 13.445 67.574 12.711 67.824 12.164 c 68.074 11.602 68.34 11.273
 68.98 10.758 c h
68.902 10.617 m f
75.59 16.508 m 75.184 16.477 75.105 16.398 74.793 15.727 c 72.559 10.633
 l 72.371 10.633 l 70.512 15.039 l 69.934 16.352 69.824 16.492 69.402 16.508
 c 69.402 16.68 l 71.168 16.68 l 71.168 16.508 l 70.746 16.508 70.559 16.398
 70.559 16.148 c 70.559 16.039 70.59 15.914 70.637 15.789 c 71.043 14.742
 l 73.402 14.742 l 73.762 15.602 l 73.871 15.852 73.934 16.086 73.934 16.211
 c 73.934 16.43 73.777 16.508 73.309 16.508 c 73.309 16.68 l 75.59 16.68
 l h
71.199 14.367 m 72.23 11.914 l 73.277 14.367 l h
71.199 14.367 m f
80.258 14.117 m 78.289 14.117 l 78.289 14.711 l 80.258 14.711 l 80.258 
16.68 l 80.852 16.68 l 80.852 14.711 l 82.82 14.711 l 82.82 14.117 l 80.852
 14.117 l 80.852 12.148 l 80.258 12.148 l h
80.258 14.117 m f
85.5 10.914 m 86.25 10.961 86.344 11.055 86.359 11.727 c 86.359 15.695 
l 86.344 16.367 86.234 16.477 85.5 16.508 c 85.5 16.68 l 88.484 16.68 l 
89.188 16.68 89.828 16.492 90.156 16.18 c 90.484 15.898 90.656 15.492 90.656
 15.07 c 90.656 14.664 90.516 14.305 90.219 14.055 c 89.953 13.805 89.719
 13.695 89.125 13.555 c 89.594 13.445 89.781 13.352 90 13.164 c 90.219 12.961
 90.359 12.648 90.359 12.273 c 90.359 11.258 89.547 10.742 88 10.742 c 85.5
 10.742 l h
87.266 13.758 m 88.141 13.758 88.547 13.805 88.875 13.945 c 89.391 14.148
 89.625 14.523 89.625 15.07 c 89.625 15.555 89.438 15.914 89.078 16.117 
c 88.797 16.273 88.422 16.352 87.844 16.352 c 87.391 16.352 87.266 16.273
 87.266 15.977 c h
87.266 13.398 m 87.266 11.336 l 87.281 11.148 87.312 11.086 87.469 11.086
 c 87.859 11.07 l 88.859 11.055 89.438 11.508 89.438 12.305 c 89.438 13.008
 88.984 13.383 88.125 13.398 c h
87.266 13.398 m f
91.688 18.273 m 92.344 17.82 92.625 17.602 92.953 17.195 c 93.594 16.414
 93.906 15.508 93.906 14.461 c 93.906 13.32 93.562 12.445 92.781 11.539 
c 92.406 11.102 92.172 10.898 91.719 10.617 c 91.609 10.758 l 92.328 11.32
 92.562 11.633 92.812 12.305 c 93.031 12.914 93.125 13.586 93.125 14.492
 c 93.125 15.43 93.016 16.164 92.766 16.711 c 92.531 17.273 92.25 17.602
 91.609 18.117 c h
91.688 18.273 m f
96.984 10.617 m 96.328 11.055 96.062 11.273 95.719 11.695 c 95.094 12.477
 94.781 13.367 94.781 14.414 c 94.781 15.57 95.109 16.445 95.891 17.352 
c 96.266 17.789 96.5 17.977 96.969 18.273 c 97.062 18.117 l 96.359 17.555
 96.109 17.242 95.859 16.57 c 95.641 15.977 95.547 15.305 95.547 14.398 
c 95.547 13.445 95.656 12.711 95.906 12.164 c 96.156 11.602 96.422 11.273
 97.062 10.758 c h
96.984 10.617 m f
101.562 13.195 m 101.562 12.852 l 100.875 12.852 l 100.688 12.852 100.547
 12.82 100.375 12.758 c 100.172 12.695 l 99.938 12.602 99.688 12.555 99.453
 12.555 c 98.625 12.555 97.969 13.195 97.969 14.023 c 97.969 14.586 98.203
 14.914 98.797 15.211 c 98.562 15.43 l 98.375 15.617 98.266 15.711 98.234
 15.742 c 98.047 15.945 98 16.039 98 16.195 c 98 16.398 98.094 16.492 98.469
 16.664 c 97.828 17.133 97.594 17.43 97.594 17.758 c 97.594 18.242 98.281
 18.633 99.141 18.633 c 99.812 18.633 100.516 18.398 100.984 18.023 c 101.328
 17.742 101.484 17.461 101.484 17.117 c 101.484 16.57 101.062 16.195 100.391
 16.164 c 99.234 16.102 l 98.75 16.086 98.531 16.008 98.531 15.867 c 98.531
 15.68 98.828 15.367 99.078 15.305 c 99.391 15.32 99.562 15.336 99.594 15.336
 c 99.922 15.336 100.281 15.211 100.547 14.961 c 100.844 14.711 100.984 
14.398 100.984 13.961 c 100.984 13.695 100.938 13.492 100.812 13.195 c h
98.656 16.695 m 98.969 16.758 99.672 16.82 100.125 16.82 c 100.938 16.82
 101.234 16.93 101.234 17.258 c 101.234 17.773 100.547 18.117 99.531 18.117
 c 98.734 18.117 98.219 17.867 98.219 17.477 c 98.219 17.258 98.297 17.133
 98.656 16.695 c h
98.703 13.648 m 98.703 13.117 98.953 12.805 99.375 12.805 c 99.656 12.805
 99.875 12.961 100.031 13.227 c 100.203 13.539 100.297 13.945 100.297 14.305
 c 100.297 14.805 100.047 15.117 99.625 15.117 c 99.078 15.117 98.703 14.539
 98.703 13.68 c h
98.703 13.648 m f
102.129 18.273 m 102.785 17.82 103.066 17.602 103.395 17.195 c 104.035 
16.414 104.348 15.508 104.348 14.461 c 104.348 13.32 104.004 12.445 103.223
 11.539 c 102.848 11.102 102.613 10.898 102.16 10.617 c 102.051 10.758 l
 102.77 11.32 103.004 11.633 103.254 12.305 c 103.473 12.914 103.566 13.586
 103.566 14.492 c 103.566 15.43 103.457 16.164 103.207 16.711 c 102.973 
17.273 102.691 17.602 102.051 18.117 c h
102.129 18.273 m f
74.695 28.293 m 74.695 27.59 74.383 27.121 73.711 27.121 c 73.117 27.121
 72.664 27.543 72.258 28.105 c 72.57 27.121 l 72.57 27.121 71.367 27.355
 71.102 27.371 c 71.102 27.527 l 71.43 27.527 71.695 27.496 71.695 27.855
 c 71.695 28.027 71.586 28.418 71.523 28.637 c 70.461 32.371 l 70.367 32.715
 70.211 32.965 69.773 32.965 c 69.742 33.121 l 71.711 33.121 l 71.742 32.965
 l 71.398 32.965 71.102 32.949 71.102 32.699 c 71.102 32.621 71.117 32.527
 71.164 32.355 c 71.477 31.105 l 71.648 31.246 71.914 31.324 72.133 31.324
 c 73.211 31.324 74.695 29.793 74.695 28.293 c h
73.93 28.387 m 73.93 29.559 72.945 31.121 72.102 31.121 c 71.898 31.121
 71.711 31.043 71.539 30.871 c 71.742 30.074 72.289 27.543 73.445 27.543
 c 73.93 27.543 73.93 28.184 73.93 28.387 c h
73.93 28.387 m f
79.945 33.246 m 79.633 33.215 79.555 33.152 79.32 32.637 c 77.586 28.668
 l 77.445 28.668 l 75.992 32.09 l 75.539 33.105 75.461 33.23 75.133 33.246
 c 75.133 33.371 l 76.508 33.371 l 76.508 33.246 l 76.18 33.246 76.039 33.152
 76.039 32.949 c 76.039 32.871 76.055 32.777 76.086 32.684 c 76.414 31.871
 l 78.242 31.871 l 78.523 32.527 l 78.602 32.73 78.648 32.902 78.648 32.996
 c 78.648 33.184 78.539 33.23 78.164 33.246 c 78.164 33.371 l 79.945 33.371
 l h
76.523 31.574 m 77.336 29.668 l 78.133 31.574 l h
76.523 31.574 m f
89.812 28.293 m 89.812 27.793 l 83.812 27.793 l 83.812 28.293 l h
89.812 30.105 m 89.812 29.605 l 83.812 29.605 l 83.812 30.105 l h
89.812 30.105 m f
98.336 28.293 m 98.336 27.59 98.023 27.121 97.352 27.121 c 96.758 27.121
 96.305 27.543 95.898 28.105 c 96.211 27.121 l 96.211 27.121 95.008 27.355
 94.742 27.371 c 94.742 27.527 l 95.07 27.527 95.336 27.496 95.336 27.855
 c 95.336 28.027 95.227 28.418 95.164 28.637 c 94.102 32.371 l 94.008 32.715
 93.852 32.965 93.414 32.965 c 93.383 33.121 l 95.352 33.121 l 95.383 32.965
 l 95.039 32.965 94.742 32.949 94.742 32.699 c 94.742 32.621 94.758 32.527
 94.805 32.355 c 95.117 31.105 l 95.289 31.246 95.555 31.324 95.773 31.324
 c 96.852 31.324 98.336 29.793 98.336 28.293 c h
97.57 28.387 m 97.57 29.559 96.586 31.121 95.742 31.121 c 95.539 31.121
 95.352 31.043 95.18 30.871 c 95.383 30.074 95.93 27.543 97.086 27.543 c
 97.57 27.543 97.57 28.184 97.57 28.387 c h
97.57 28.387 m f
100.992 24.367 m 100.992 24.148 100.758 23.992 100.539 23.992 c 100.383
 23.992 100.242 24.07 100.18 24.289 c 99.242 27.477 l 99.445 27.555 l 100.945
 24.539 l 100.961 24.477 100.992 24.43 100.992 24.367 c h
100.992 24.367 m f
64.855 41.383 m 64.855 40.68 64.543 40.211 63.871 40.211 c 63.277 40.211
 62.824 40.633 62.418 41.195 c 62.73 40.211 l 62.73 40.211 61.527 40.445
 61.262 40.461 c 61.262 40.617 l 61.59 40.617 61.855 40.586 61.855 40.945
 c 61.855 41.117 61.746 41.508 61.684 41.727 c 60.621 45.461 l 60.527 45.805
 60.371 46.055 59.934 46.055 c 59.902 46.211 l 61.871 46.211 l 61.902 46.055
 l 61.559 46.055 61.262 46.039 61.262 45.789 c 61.262 45.711 61.277 45.617
 61.324 45.445 c 61.637 44.195 l 61.809 44.336 62.074 44.414 62.293 44.414
 c 63.371 44.414 64.855 42.883 64.855 41.383 c h
64.09 41.477 m 64.09 42.648 63.105 44.211 62.262 44.211 c 62.059 44.211
 61.871 44.133 61.699 43.961 c 61.902 43.164 62.449 40.633 63.605 40.633
 c 64.09 40.633 64.09 41.273 64.09 41.477 c h
64.09 41.477 m f
74.812 41.383 m 74.812 40.883 l 68.812 40.883 l 68.812 41.383 l h
74.812 43.195 m 74.812 42.695 l 68.812 42.695 l 68.812 43.195 l h
74.812 43.195 m f
83.336 41.383 m 83.336 40.68 83.023 40.211 82.352 40.211 c 81.758 40.211
 81.305 40.633 80.898 41.195 c 81.211 40.211 l 81.211 40.211 80.008 40.445
 79.742 40.461 c 79.742 40.617 l 80.07 40.617 80.336 40.586 80.336 40.945
 c 80.336 41.117 80.227 41.508 80.164 41.727 c 79.102 45.461 l 79.008 45.805
 78.852 46.055 78.414 46.055 c 78.383 46.211 l 80.352 46.211 l 80.383 46.055
 l 80.039 46.055 79.742 46.039 79.742 45.789 c 79.742 45.711 79.758 45.617
 79.805 45.445 c 80.117 44.195 l 80.289 44.336 80.555 44.414 80.773 44.414
 c 81.852 44.414 83.336 42.883 83.336 41.383 c h
82.57 41.477 m 82.57 42.648 81.586 44.211 80.742 44.211 c 80.539 44.211
 80.352 44.133 80.18 43.961 c 80.383 43.164 80.93 40.633 82.086 40.633 c
 82.57 40.633 82.57 41.273 82.57 41.477 c h
82.57 41.477 m f
88.586 46.582 m 88.273 46.551 88.195 46.488 87.961 45.973 c 86.227 42.004
 l 86.086 42.004 l 84.633 45.426 l 84.18 46.441 84.102 46.566 83.773 46.582
 c 83.773 46.707 l 85.148 46.707 l 85.148 46.582 l 84.82 46.582 84.68 46.488
 84.68 46.285 c 84.68 46.207 84.695 46.113 84.727 46.02 c 85.055 45.207 
l 86.883 45.207 l 87.164 45.863 l 87.242 46.066 87.289 46.238 87.289 46.332
 c 87.289 46.52 87.18 46.566 86.805 46.582 c 86.805 46.707 l 88.586 46.707
 l h
85.164 44.91 m 85.977 43.004 l 86.773 44.91 l h
85.164 44.91 m f
97.855 42.273 m 97.855 41.82 l 95.074 41.82 l 95.074 39.055 l 94.637 39.055
 l 94.637 41.82 l 91.855 41.82 l 91.855 42.273 l 94.637 42.273 l 94.637 
45.039 l 95.074 45.039 l 95.074 42.273 l h
97.855 42.273 m f
106.016 41.383 m 106.016 40.68 105.703 40.211 105.031 40.211 c 104.438 
40.211 103.984 40.633 103.578 41.195 c 103.891 40.211 l 103.891 40.211 102.688
 40.445 102.422 40.461 c 102.422 40.617 l 102.75 40.617 103.016 40.586 103.016
 40.945 c 103.016 41.117 102.906 41.508 102.844 41.727 c 101.781 45.461 
l 101.688 45.805 101.531 46.055 101.094 46.055 c 101.062 46.211 l 103.031
 46.211 l 103.062 46.055 l 102.719 46.055 102.422 46.039 102.422 45.789 
c 102.422 45.711 102.438 45.617 102.484 45.445 c 102.797 44.195 l 102.969
 44.336 103.234 44.414 103.453 44.414 c 104.531 44.414 106.016 42.883 106.016
 41.383 c h
105.25 41.477 m 105.25 42.648 104.266 44.211 103.422 44.211 c 103.219 44.211
 103.031 44.133 102.859 43.961 c 103.062 43.164 103.609 40.633 104.766 40.633
 c 105.25 40.633 105.25 41.273 105.25 41.477 c h
105.25 41.477 m f
106.469 42.223 m 107.047 42.254 107.125 42.332 107.125 42.848 c 107.125
 45.941 l 107.125 46.473 107.031 46.551 106.469 46.582 c 106.469 46.707 
l 108.797 46.707 l 109.328 46.707 109.828 46.566 110.094 46.316 c 110.344
 46.098 110.469 45.785 110.469 45.457 c 110.469 45.145 110.359 44.863 110.141
 44.66 c 109.922 44.473 109.734 44.395 109.281 44.285 c 109.641 44.191 109.797
 44.129 109.953 43.973 c 110.141 43.816 110.234 43.566 110.234 43.285 c 
110.234 42.504 109.609 42.098 108.406 42.098 c 106.469 42.098 l h
107.844 44.441 m 108.516 44.441 108.844 44.473 109.094 44.582 c 109.484
 44.738 109.672 45.035 109.672 45.457 c 109.672 45.832 109.531 46.113 109.25
 46.27 c 109.031 46.395 108.734 46.441 108.281 46.441 c 107.938 46.441 107.844
 46.379 107.844 46.16 c h
107.844 44.16 m 107.844 42.566 l 107.844 42.41 107.875 42.363 108 42.363
 c 108.297 42.348 l 109.078 42.332 109.531 42.691 109.531 43.301 c 109.531
 43.863 109.172 44.145 108.5 44.16 c h
107.844 44.16 m f
Q Q
showpage
%%Trailer
end
%%EOF
