%!PS-Adobe-3.0 EPSF-3.0
%%Creator: cairo 1.17.4 (https://cairographics.org)
%%CreationDate: Thu Feb 24 10:48:28 2022
%%Pages: 1
%%DocumentData: Clean7Bit
%%LanguageLevel: 2
%%BoundingBox: 0 0 278 271
%%EndComments
%%BeginProlog
50 dict begin
/q { gsave } bind def
/Q { grestore } bind def
/cm { 6 array astore concat } bind def
/w { setlinewidth } bind def
/J { setlinecap } bind def
/j { setlinejoin } bind def
/M { setmiterlimit } bind def
/d { setdash } bind def
/m { moveto } bind def
/l { lineto } bind def
/c { curveto } bind def
/h { closepath } bind def
/re { exch dup neg 3 1 roll 5 3 roll moveto 0 rlineto
      0 exch rlineto 0 rlineto closepath } bind def
/S { stroke } bind def
/f { fill } bind def
/f* { eofill } bind def
/n { newpath } bind def
/W { clip } bind def
/W* { eoclip } bind def
/BT { } bind def
/ET { } bind def
/BDC { mark 3 1 roll /BDC pdfmark } bind def
/EMC { mark /EMC pdfmark } bind def
/cairo_store_point { /cairo_point_y exch def /cairo_point_x exch def } def
/Tj { show currentpoint cairo_store_point } bind def
/TJ {
  {
    dup
    type /stringtype eq
    { show } { -0.001 mul 0 cairo_font_matrix dtransform rmoveto } ifelse
  } forall
  currentpoint cairo_store_point
} bind def
/cairo_selectfont { cairo_font_matrix aload pop pop pop 0 0 6 array astore
    cairo_font exch selectfont cairo_point_x cairo_point_y moveto } bind def
/Tf { pop /cairo_font exch def /cairo_font_matrix where
      { pop cairo_selectfont } if } bind def
/Td { matrix translate cairo_font_matrix matrix concatmatrix dup
      /cairo_font_matrix exch def dup 4 get exch 5 get cairo_store_point
      /cairo_font where { pop cairo_selectfont } if } bind def
/Tm { 2 copy 8 2 roll 6 array astore /cairo_font_matrix exch def
      cairo_store_point /cairo_font where { pop cairo_selectfont } if } bind def
/g { setgray } bind def
/rg { setrgbcolor } bind def
/d1 { setcachedevice } bind def
/cairo_data_source {
  CairoDataIndex CairoData length lt
    { CairoData CairoDataIndex get /CairoDataIndex CairoDataIndex 1 add def }
    { () } ifelse
} def
/cairo_flush_ascii85_file { cairo_ascii85_file status { cairo_ascii85_file flushfile } if } def
/cairo_image { image cairo_flush_ascii85_file } def
/cairo_imagemask { imagemask cairo_flush_ascii85_file } def
%%EndProlog
%%BeginSetup
%%EndSetup
%%Page: 1 1
%%BeginPageSetup
%%PageBoundingBox: 0 0 278 271
%%EndPageSetup
q 0 0 278 271 rectclip
1 0 0 -1 0 271 cm q
0 g
0.567045 w
0 J
0 j
[] 0.0 d
10 M q 1 0 0 -1 0 0 cm
31.223 -45.566 m 31.223 -3.289 l 115.668 -3.289 l 115.668 -87.844 l 31.223
 -87.844 l h
31.223 -45.566 m S Q
0.567044 w
q 1 0 0 -1 0 0 cm
73.434 -3.094 m 73.434 -7.34 l S Q
0.567042 w
q 1 0 0 -1 0 0 cm
73.43 -83.879 m 73.43 -88.125 l S Q
0.567041 w
q 1 0 0 -1 0 0 cm
115.961 -45.574 m 111.715 -45.574 l S Q
q 1 0 0 -1 0 0 cm
35.18 -45.574 m 30.898 -45.574 l S Q
117.16 97.613 m 117.16 97.473 l 116.566 97.473 116.348 97.488 116.348 96.316
 c 116.348 96.301 116.348 91.566 116.348 91.566 c 116.223 91.566 l 114.691
 92.301 l 114.738 92.441 l 115.066 92.301 115.145 92.27 115.27 92.27 c 115.535
 92.27 115.582 92.504 115.582 92.816 c 115.582 96.316 l 115.582 97.488 115.363
 97.457 114.77 97.473 c 114.77 97.613 l h
117.16 97.613 m f
72.031 94.66 m 72.031 93.051 71.297 91.598 70.047 91.598 c 68.781 91.598
 68.047 93.051 68.047 94.66 c 68.047 96.285 68.734 97.723 70.047 97.723 
c 71.25 97.723 72.031 96.285 72.031 94.66 c h
71.172 94.66 m 71.172 95.957 71.047 97.473 70.047 97.473 c 69.094 97.473
 68.906 95.957 68.906 94.66 c 68.906 93.582 69.031 91.832 70.047 91.832 
c 71.047 91.832 71.172 93.582 71.172 94.66 c h
71.172 94.66 m f
73.957 97.238 m 73.957 96.957 73.738 96.738 73.457 96.738 c 73.176 96.738
 72.957 96.957 72.957 97.238 c 72.957 97.52 73.176 97.738 73.457 97.738 
c 73.738 97.738 73.957 97.52 73.957 97.238 c h
73.957 97.238 m f
78.809 91.691 m 76.34 91.691 l 75.23 94.238 l 75.371 94.207 75.512 94.176
 75.684 94.176 c 76.637 94.176 77.934 94.676 77.934 95.848 c 77.934 96.754
 77.277 97.332 76.652 97.332 c 76.105 97.332 75.902 96.832 75.387 96.832
 c 75.137 96.832 75.059 97.051 75.059 97.16 c 75.059 97.473 75.496 97.723
 76.121 97.723 c 77.465 97.723 78.527 96.738 78.527 95.535 c 78.527 94.113
 77.402 93.629 76.184 93.598 c 76.074 93.598 75.949 93.613 75.84 93.629 
c 76.402 92.363 l 78.496 92.348 l h
78.809 91.691 m f
81.543 103.449 m 81.543 103.23 81.34 103.121 81.168 103.121 c 80.715 103.121
 80.137 103.793 79.699 104.496 c 79.684 104.496 79.621 104.199 79.621 104.199
 c 79.48 103.605 79.309 103.262 78.996 103.121 c 78.996 103.121 77.98 103.324
 77.855 103.371 c 77.855 103.527 l 78.043 103.48 78.184 103.449 78.277 103.449
 c 78.777 103.449 78.855 103.934 79.199 105.23 c 78.793 105.824 78.152 106.824
 77.902 106.824 c 77.699 106.824 77.684 106.605 77.402 106.605 c 77.215 
106.605 77.074 106.746 77.074 106.934 c 77.074 107.168 77.246 107.324 77.496
 107.324 c 78.137 107.324 78.715 106.199 79.262 105.496 c 79.293 105.559
 79.496 106.355 79.496 106.355 c 79.715 107.184 79.887 107.324 80.105 107.324
 c 80.387 107.324 80.809 107.043 81.23 106.262 c 81.105 106.184 l 80.949
 106.387 80.699 106.809 80.465 106.809 c 80.152 106.809 79.98 105.543 79.762
 104.746 c 79.809 104.668 80.434 103.668 80.762 103.668 c 80.934 103.668
 81.09 103.809 81.246 103.809 c 81.465 103.809 81.543 103.621 81.543 103.449
 c h
81.543 103.449 m f
81.945 105.008 m 82.523 105.039 82.602 105.117 82.602 105.633 c 82.602 
108.727 l 82.602 109.258 82.508 109.336 81.945 109.367 c 81.945 109.492 
l 84.273 109.492 l 84.805 109.492 85.305 109.352 85.57 109.102 c 85.82 108.883
 85.945 108.57 85.945 108.242 c 85.945 107.93 85.836 107.648 85.617 107.445
 c 85.398 107.258 85.211 107.18 84.758 107.07 c 85.117 106.977 85.273 106.914
 85.43 106.758 c 85.617 106.602 85.711 106.352 85.711 106.07 c 85.711 105.289
 85.086 104.883 83.883 104.883 c 81.945 104.883 l h
83.32 107.227 m 83.992 107.227 84.32 107.258 84.57 107.367 c 84.961 107.523
 85.148 107.82 85.148 108.242 c 85.148 108.617 85.008 108.898 84.727 109.055
 c 84.508 109.18 84.211 109.227 83.758 109.227 c 83.414 109.227 83.32 109.164
 83.32 108.945 c h
83.32 106.945 m 83.32 105.352 l 83.32 105.195 83.352 105.148 83.477 105.148
 c 83.773 105.133 l 84.555 105.117 85.008 105.477 85.008 106.086 c 85.008
 106.648 84.648 106.93 83.977 106.945 c h
83.32 106.945 m f
18.367 4.531 m 18.367 3.922 l 17.492 3.922 l 17.492 0 l 17.055 0 l 14.461
 3.906 l 14.461 4.531 l 16.758 4.531 l 16.758 6.016 l 17.492 6.016 l 17.492
 4.531 l h
16.758 3.922 m 14.82 3.922 l 16.742 0.938 l 16.758 0.938 l h
16.758 3.922 m f
22.793 3.062 m 22.793 1.453 22.059 0 20.809 0 c 19.543 0 18.809 1.453 18.809
 3.062 c 18.809 4.688 19.496 6.125 20.809 6.125 c 22.012 6.125 22.793 4.688
 22.793 3.062 c h
21.934 3.062 m 21.934 4.359 21.809 5.875 20.809 5.875 c 19.855 5.875 19.668
 4.359 19.668 3.062 c 19.668 1.984 19.793 0.234 20.809 0.234 c 21.809 0.234
 21.934 1.984 21.934 3.062 c h
21.934 3.062 m f
27.23 3.062 m 27.23 1.453 26.496 0 25.246 0 c 23.98 0 23.246 1.453 23.246
 3.062 c 23.246 4.688 23.934 6.125 25.246 6.125 c 26.449 6.125 27.23 4.688
 27.23 3.062 c h
26.371 3.062 m 26.371 4.359 26.246 5.875 25.246 5.875 c 24.293 5.875 24.105
 4.359 24.105 3.062 c 24.105 1.984 24.23 0.234 25.246 0.234 c 26.246 0.234
 26.371 1.984 26.371 3.062 c h
26.371 3.062 m f
q 1 0 0 -1 0 0 cm
30.898 -45.574 m 35.18 -45.574 l S Q
18.383 47.418 m 18.227 47.387 l 17.961 47.84 17.742 47.918 17.305 47.918
 c 15.242 47.918 l 16.664 46.621 17.961 45.449 17.961 44.137 c 17.961 43.215
 17.164 42.559 16.289 42.559 c 15.43 42.559 14.742 43.027 14.477 44.246 
c 14.68 44.246 l 14.93 43.746 15.273 43.23 15.961 43.23 c 16.742 43.23 17.18
 43.824 17.18 44.496 c 17.18 45.465 16.148 46.887 14.383 48.434 c 14.383
 48.574 l 17.914 48.574 l h
18.383 47.418 m f
22.793 45.621 m 22.793 44.012 22.059 42.559 20.809 42.559 c 19.543 42.559
 18.809 44.012 18.809 45.621 c 18.809 47.246 19.496 48.684 20.809 48.684
 c 22.012 48.684 22.793 47.246 22.793 45.621 c h
21.934 45.621 m 21.934 46.918 21.809 48.434 20.809 48.434 c 19.855 48.434
 19.668 46.918 19.668 45.621 c 19.668 44.543 19.793 42.793 20.809 42.793
 c 21.809 42.793 21.934 44.543 21.934 45.621 c h
21.934 45.621 m f
27.23 45.621 m 27.23 44.012 26.496 42.559 25.246 42.559 c 23.98 42.559 
23.246 44.012 23.246 45.621 c 23.246 47.246 23.934 48.684 25.246 48.684 
c 26.449 48.684 27.23 47.246 27.23 45.621 c h
26.371 45.621 m 26.371 46.918 26.246 48.434 25.246 48.434 c 24.293 48.434
 24.105 46.918 24.105 45.621 c 24.105 44.543 24.23 42.793 25.246 42.793 
c 26.246 42.793 26.371 44.543 26.371 45.621 c h
26.371 45.621 m f
0.938 36.145 m 0.578 36.145 0.391 36.535 0.391 36.879 c 0.391 38.129 2.188
 38.738 2.828 38.926 c 2.828 38.926 2.828 39.504 2.828 39.738 c 3.172 39.832
 l 3.172 39.02 l 4.281 39.301 7.109 39.832 8.062 40.379 c 8.5 40.629 8.562
 41.02 8.562 41.191 c 8.562 41.254 8.531 41.332 8.484 41.332 c 8.359 41.332
 8.359 41.145 8.172 41.145 c 8.062 41.145 7.938 41.238 7.938 41.426 c 7.938
 41.66 8.125 41.832 8.312 41.832 c 8.562 41.832 8.75 41.566 8.75 41.191 
c 8.75 39.441 4.984 38.785 3.172 38.332 c 3.172 37.598 l 2.828 37.52 l 2.828
 38.238 l 1.875 37.941 0.578 37.645 0.578 36.863 c 0.578 36.754 0.656 36.645
 0.734 36.645 c 0.828 36.645 0.891 36.785 1.062 36.785 c 1.219 36.785 1.344
 36.676 1.344 36.52 c 1.344 36.316 1.156 36.145 0.938 36.145 c h
0.938 36.145 m f
4.625 37.309 m 4.656 36.73 4.734 36.652 5.25 36.652 c 8.344 36.652 l 8.875
 36.652 8.953 36.746 8.984 37.309 c 9.109 37.309 l 9.109 34.98 l 9.109 34.449
 8.969 33.949 8.719 33.684 c 8.5 33.434 8.188 33.309 7.859 33.309 c 7.547
 33.309 7.266 33.418 7.062 33.637 c 6.875 33.855 6.797 34.043 6.688 34.496
 c 6.594 34.137 6.531 33.98 6.375 33.824 c 6.219 33.637 5.969 33.543 5.688
 33.543 c 4.906 33.543 4.5 34.168 4.5 35.371 c 4.5 37.309 l h
6.844 35.934 m 6.844 35.262 6.875 34.934 6.984 34.684 c 7.141 34.293 7.438
 34.105 7.859 34.105 c 8.234 34.105 8.516 34.246 8.672 34.527 c 8.797 34.746
 8.844 35.043 8.844 35.496 c 8.844 35.84 8.781 35.934 8.562 35.934 c h
6.562 35.934 m 4.969 35.934 l 4.812 35.934 4.766 35.902 4.766 35.777 c 
4.75 35.48 l 4.734 34.699 5.094 34.246 5.703 34.246 c 6.266 34.246 6.547
 34.605 6.562 35.277 c h
6.562 35.934 m f
0.391 28.488 m 0.391 28.926 l 8.75 32.035 l 8.75 31.582 l h
0.391 28.488 m f
6.828 27.891 m 6.828 25.797 l 6.688 25.797 l 6.688 25.969 l 6.656 26.344
 6.562 26.453 6.234 26.469 c 4.578 26.469 l 6.25 25.203 l 6.297 25.172 6.344
 25.141 6.375 25.125 c 6.453 25.047 6.516 25.016 6.562 25.016 c 6.641 25.016
 6.688 25.094 6.688 25.203 c 6.688 25.375 l 6.828 25.375 l 6.828 23.422 
l 6.688 23.422 l 6.672 23.812 6.5 24.094 6.031 24.469 c 4.297 25.844 l 4.062
 25.578 l 3.047 24.469 2.906 24.219 2.922 23.641 c 2.797 23.641 l 2.797 
25.484 l 2.922 25.484 l 2.922 25.125 2.969 25.031 3.078 25.031 c 3.156 25.031
 3.281 25.109 3.391 25.234 c 4.484 26.469 l 0.719 26.469 l 0.703 26.5 l 
0.812 26.844 0.891 27.109 1.031 27.625 c 1.094 27.891 l 1.234 27.891 l 1.234
 27.781 1.219 27.688 1.219 27.609 c 1.219 27.297 1.344 27.219 1.766 27.219
 c 6.094 27.219 l 6.562 27.234 6.594 27.25 6.688 27.891 c h
6.828 27.891 m f
1.062 23.375 m 1.141 22.703 1.219 22.625 1.875 22.625 c 5.75 22.625 l 6.516
 22.625 6.594 22.688 6.656 23.375 c 6.828 23.375 l 6.828 20.859 l 6.656 
20.859 l 6.641 21.562 6.516 21.688 5.844 21.703 c 4.219 21.703 l 4.234 21.469
 4.25 21.312 4.25 21.078 c 4.25 20.375 4.156 19.906 3.938 19.516 c 3.656
 18.984 3.109 18.656 2.516 18.656 c 2.141 18.656 1.797 18.781 1.531 19.016
 c 1.141 19.375 0.891 20.156 0.891 21 c 0.891 23.375 l h
1.531 21.703 m 1.281 21.703 1.219 21.641 1.219 21.406 c 1.219 20.188 1.641
 19.625 2.562 19.625 c 3.438 19.625 3.891 20.156 3.891 21.188 c 3.891 21.375
 3.875 21.5 3.859 21.703 c h
1.531 21.703 m f
6.234 14.625 m 6.359 14.781 6.406 14.891 6.406 15.031 c 6.406 15.234 6.281
 15.297 5.891 15.297 c 4.141 15.297 l 3.672 15.297 3.406 15.344 3.203 15.469
 c 2.875 15.672 2.703 16.062 2.703 16.578 c 2.703 17.422 3.141 18.094 3.703
 18.094 c 3.906 18.094 4.094 17.922 4.094 17.703 c 4.094 17.484 3.906 17.297
 3.719 17.297 c 3.688 17.297 3.641 17.312 3.578 17.312 c 3.484 17.344 3.422
 17.344 3.359 17.344 c 3.109 17.344 2.922 17.062 2.922 16.703 c 2.922 16.266
 3.172 16.016 3.656 16.016 c 4.203 16.016 l 4.75 17.391 4.844 17.547 5.172
 17.938 c 5.359 18.141 5.656 18.266 5.953 18.266 c 6.516 18.266 6.922 17.875
 6.922 17.312 c 6.922 16.922 6.734 16.562 6.266 16.016 c 6.734 15.969 6.922
 15.797 6.922 15.438 c 6.922 15.125 6.812 14.938 6.469 14.625 c h
5.719 16.016 m 6 16.016 6.094 16.062 6.203 16.25 c 6.328 16.484 6.391 16.719
 6.391 16.906 c 6.391 17.219 6.094 17.469 5.703 17.469 c 5.672 17.469 l 
5.141 17.469 4.797 17.062 4.422 16.016 c h
5.719 16.016 m f
0.567043 w
q 1 0 0 -1 0 0 cm
30.902 -88.117 m 32.793 -86.461 l 34.684 -84.805 m 36.57 -83.148 l 38.461
 -81.496 m 40.352 -79.84 l 42.242 -78.184 m 44.133 -76.527 l 46.023 -74.871
 m 47.914 -73.215 l 49.801 -71.562 m 51.691 -69.906 l 53.582 -68.25 m 55.473
 -66.594 l 57.363 -64.938 m 59.254 -63.281 l 61.145 -61.629 m 63.031 -59.973
 l 64.922 -58.316 m 66.812 -56.66 l 68.703 -55.004 m 70.594 -53.348 l 72.484
 -51.691 m 74.375 -50.039 l 76.266 -48.383 m 78.152 -46.727 l 80.043 -45.07
 m 81.934 -43.414 l 83.824 -41.758 m 85.715 -40.105 l 87.605 -38.449 m 89.496
 -36.793 l 91.383 -35.137 m 93.273 -33.48 l 95.164 -31.824 m 97.055 -30.172
 l 98.945 -28.516 m 100.836 -26.859 l 102.727 -25.203 m 104.617 -23.547 
l 106.504 -21.891 m 108.395 -20.234 l 110.285 -18.578 m 112.176 -16.926 
l 114.066 -15.27 m 115.957 -13.613 l S Q
117.551 13.613 m 117.551 12.75 116.852 12.051 115.988 12.051 c 115.125 
12.051 114.426 12.75 114.426 13.613 c 114.426 14.477 115.125 15.176 115.988
 15.176 c 116.852 15.176 117.551 14.477 117.551 13.613 c f
71.156 120.711 m 70.5 121.148 70.234 121.367 69.891 121.789 c 69.266 122.57
 68.953 123.461 68.953 124.508 c 68.953 125.664 69.281 126.539 70.062 127.445
 c 70.438 127.883 70.672 128.07 71.141 128.367 c 71.234 128.211 l 70.531
 127.648 70.281 127.336 70.031 126.664 c 69.812 126.07 69.719 125.398 69.719
 124.492 c 69.719 123.539 69.828 122.805 70.078 122.258 c 70.328 121.695
 70.594 121.367 71.234 120.852 c h
71.156 120.711 m f
75.484 126.18 m 75.328 126.305 75.219 126.352 75.078 126.352 c 74.875 126.352
 74.812 126.227 74.812 125.836 c 74.812 124.086 l 74.812 123.617 74.766 
123.352 74.641 123.148 c 74.438 122.82 74.047 122.648 73.531 122.648 c 72.688
 122.648 72.016 123.086 72.016 123.648 c 72.016 123.852 72.188 124.039 72.406
 124.039 c 72.625 124.039 72.812 123.852 72.812 123.664 c 72.812 123.633
 72.797 123.586 72.797 123.523 c 72.766 123.43 72.766 123.367 72.766 123.305
 c 72.766 123.055 73.047 122.867 73.406 122.867 c 73.844 122.867 74.094 
123.117 74.094 123.602 c 74.094 124.148 l 72.719 124.695 72.562 124.789 
72.172 125.117 c 71.969 125.305 71.844 125.602 71.844 125.898 c 71.844 126.461
 72.234 126.867 72.797 126.867 c 73.188 126.867 73.547 126.68 74.094 126.211
 c 74.141 126.68 74.312 126.867 74.672 126.867 c 74.984 126.867 75.172 126.758
 75.484 126.414 c h
74.094 125.664 m 74.094 125.945 74.047 126.039 73.859 126.148 c 73.625 
126.273 73.391 126.336 73.203 126.336 c 72.891 126.336 72.641 126.039 72.641
 125.648 c 72.641 125.617 l 72.641 125.086 73.047 124.742 74.094 124.367
 c h
74.094 125.664 m f
75.82 128.367 m 76.477 127.914 76.758 127.695 77.086 127.289 c 77.727 126.508
 78.039 125.602 78.039 124.555 c 78.039 123.414 77.695 122.539 76.914 121.633
 c 76.539 121.195 76.305 120.992 75.852 120.711 c 75.742 120.852 l 76.461
 121.414 76.695 121.727 76.945 122.398 c 77.164 123.008 77.258 123.68 77.258
 124.586 c 77.258 125.523 77.148 126.258 76.898 126.805 c 76.664 127.367
 76.383 127.695 75.742 128.211 c h
75.82 128.367 m f
1 g
68.047 86.969 m 68.047 68.191 52.812 52.961 34.031 52.961 c 15.215 52.961
 0.02 68.191 0.02 86.969 c 0.02 105.754 15.215 120.988 34.031 120.988 c 
52.812 120.988 68.047 105.754 68.047 86.969 c f
0 g
0.567042 w
q 1 0 0 -1 0 0 cm
28.359 -53.434 m 28.359 -92.648 l 67.574 -92.648 l S Q
0.567044 w
q 1 0 0 -1 0 0 cm
28.371 -71.379 m 32.598 -71.379 l S Q
24.598 68.453 m 22.129 68.453 l 21.02 71 l 21.16 70.969 21.301 70.938 21.473
 70.938 c 22.426 70.938 23.723 71.438 23.723 72.609 c 23.723 73.516 23.066
 74.094 22.441 74.094 c 21.895 74.094 21.691 73.594 21.176 73.594 c 20.926
 73.594 20.848 73.812 20.848 73.922 c 20.848 74.234 21.285 74.484 21.91 
74.484 c 23.254 74.484 24.316 73.5 24.316 72.297 c 24.316 70.875 23.191 
70.391 21.973 70.359 c 21.863 70.359 21.738 70.375 21.629 70.391 c 22.191
 69.125 l 24.285 69.109 l h
24.598 68.453 m f
24.66 92.68 m 24.66 91.07 23.926 89.617 22.676 89.617 c 21.41 89.617 20.676
 91.07 20.676 92.68 c 20.676 94.305 21.363 95.742 22.676 95.742 c 23.879
 95.742 24.66 94.305 24.66 92.68 c h
23.801 92.68 m 23.801 93.977 23.676 95.492 22.676 95.492 c 21.723 95.492
 21.535 93.977 21.535 92.68 c 21.535 91.602 21.66 89.852 22.676 89.852 c
 23.676 89.852 23.801 91.602 23.801 92.68 c h
23.801 92.68 m f
q 1 0 0 -1 0 0 cm
45.348 -92.621 m 45.348 -88.375 l S Q
41.66 99.16 m 41.66 97.551 40.926 96.098 39.676 96.098 c 38.41 96.098 37.676
 97.551 37.676 99.16 c 37.676 100.785 38.363 102.223 39.676 102.223 c 40.879
 102.223 41.66 100.785 41.66 99.16 c h
40.801 99.16 m 40.801 100.457 40.676 101.973 39.676 101.973 c 38.723 101.973
 38.535 100.457 38.535 99.16 c 38.535 98.082 38.66 96.332 39.676 96.332 
c 40.676 96.332 40.801 98.082 40.801 99.16 c h
40.801 99.16 m f
43.586 101.738 m 43.586 101.457 43.367 101.238 43.086 101.238 c 42.805 
101.238 42.586 101.457 42.586 101.738 c 42.586 102.02 42.805 102.238 43.086
 102.238 c 43.367 102.238 43.586 102.02 43.586 101.738 c h
43.586 101.738 m f
48.5 99.16 m 48.5 97.551 47.766 96.098 46.516 96.098 c 45.25 96.098 44.516
 97.551 44.516 99.16 c 44.516 100.785 45.203 102.223 46.516 102.223 c 47.719
 102.223 48.5 100.785 48.5 99.16 c h
47.641 99.16 m 47.641 100.457 47.516 101.973 46.516 101.973 c 45.562 101.973
 45.375 100.457 45.375 99.16 c 45.375 98.082 45.5 96.332 46.516 96.332 c
 47.516 96.332 47.641 98.082 47.641 99.16 c h
47.641 99.16 m f
52.191 102.113 m 52.191 101.973 l 51.598 101.973 51.379 101.988 51.379 
100.816 c 51.379 100.801 51.379 96.066 51.379 96.066 c 51.254 96.066 l 49.723
 96.801 l 49.77 96.941 l 50.098 96.801 50.176 96.77 50.301 96.77 c 50.566
 96.77 50.613 97.004 50.613 97.316 c 50.613 100.816 l 50.613 101.988 50.395
 101.957 49.801 101.973 c 49.801 102.113 l h
52.191 102.113 m f
30.305 99.16 m 30.305 97.551 29.57 96.098 28.32 96.098 c 27.055 96.098 
26.32 97.551 26.32 99.16 c 26.32 100.785 27.008 102.223 28.32 102.223 c 
29.523 102.223 30.305 100.785 30.305 99.16 c h
29.445 99.16 m 29.445 100.457 29.32 101.973 28.32 101.973 c 27.367 101.973
 27.18 100.457 27.18 99.16 c 27.18 98.082 27.305 96.332 28.32 96.332 c 29.32
 96.332 29.445 98.082 29.445 99.16 c h
29.445 99.16 m f
q 1 0 0 -1 0 0 cm
28.344 -92.617 m 30.387 -90.832 l 32.43 -89.047 m 34.469 -87.262 l 36.512
 -85.473 m 38.555 -83.688 l 40.598 -81.902 m 42.641 -80.117 l 44.684 -78.332
 m 46.727 -76.547 l 48.77 -74.762 m 50.812 -72.977 l 52.852 -71.188 m 54.895
 -69.402 l 56.938 -67.617 m 58.977 -65.836 l S Q
1.13366 w
q 1 0 0 -1 0 0 cm
28.363 -92.645 m 28.531 -92.508 l 28.703 -92.336 l 29.047 -92.055 l 29.355
 -91.75 l 30.559 -90.793 l 30.727 -90.617 l 30.898 -90.477 l 31.07 -90.375
 l 31.93 -89.691 l 32.102 -89.551 l 32.273 -89.418 l 32.441 -89.316 l 32.957
 -88.906 l 33.129 -88.801 l 33.266 -88.664 l 33.438 -88.523 l 33.609 -88.422
 l 33.781 -88.289 l 33.953 -88.148 l 34.125 -88.047 l 34.297 -87.91 l 34.469
 -87.809 l 34.637 -87.668 l 34.809 -87.566 l 34.98 -87.426 l 35.324 -87.223
 l 35.496 -87.086 l 35.668 -86.984 l 35.84 -86.875 l 36.012 -86.742 l 36.355
 -86.539 l 36.523 -86.43 l 36.695 -86.297 l 37.039 -86.09 l 37.211 -85.988
 l 37.348 -85.887 l 37.52 -85.777 l 37.691 -85.645 l 38.035 -85.441 l 38.207
 -85.336 l 38.379 -85.234 l 38.547 -85.133 l 38.719 -85.062 l 38.891 -84.961
 l 39.062 -84.852 l 39.578 -84.547 l 39.75 -84.48 l 39.922 -84.375 l 40.266
 -84.168 l 40.434 -84.066 l 40.605 -83.996 l 40.777 -83.895 l 40.949 -83.824
 l 41.121 -83.727 l 41.293 -83.621 l 41.43 -83.555 l 41.602 -83.445 l 41.773
 -83.383 l 41.945 -83.273 l 42.117 -83.211 l 42.289 -83.109 l 42.461 -83.039
 l 42.629 -82.969 l 42.801 -82.867 l 42.973 -82.801 l 43.145 -82.73 l 43.316
 -82.629 l 43.66 -82.488 l 43.832 -82.387 l 44.176 -82.246 l 44.344 -82.184
 l 44.688 -82.043 l 44.859 -81.977 l 45.031 -81.871 l 45.203 -81.805 l 45.375
 -81.734 l 45.512 -81.664 l 45.684 -81.594 l 45.855 -81.531 l 46.027 -81.492
 l 46.199 -81.422 l 46.371 -81.359 l 46.539 -81.289 l 46.883 -81.148 l 47.055
 -81.086 l 47.227 -81.051 l 47.57 -80.91 l 47.742 -80.879 l 48.086 -80.738
 l 48.254 -80.707 l 48.598 -80.566 l 48.77 -80.535 l 48.941 -80.465 l 49.113
 -80.434 l 49.285 -80.363 l 49.457 -80.328 l 49.594 -80.262 l 49.938 -80.191
 l 50.109 -80.125 l 50.281 -80.09 l 50.449 -80.055 l 50.621 -79.988 l 51.137
 -79.883 l 51.309 -79.816 l 51.996 -79.676 l 52.168 -79.645 l 52.336 -79.609
 l 52.508 -79.574 l 52.68 -79.508 l 53.023 -79.438 l 53.195 -79.438 l 53.539
 -79.367 l 53.711 -79.336 l 53.848 -79.301 l S Q
0.850362 w
q 1 0 0 -1 0 0 cm
67.621 -86.977 m 67.621 -68.406 52.562 -53.379 34.023 -53.379 c 15.484 
-53.379 0.426 -68.406 0.426 -86.977 c 0.426 -105.516 15.484 -120.578 34.023
 -120.578 c 52.562 -120.578 67.621 -105.516 67.621 -86.977 c h
67.621 -86.977 m S Q
0.567044 w
q 1 0 0 -1 0 0 cm
186.812 -3.094 85.043 -85.043 re S Q
0.398505 w
q 1 0 0 -1 0 0 cm
186.836 -88.125 m 186.836 -83.879 l S Q
q 1 0 0 -1 0 0 cm
229.332 -88.125 m 229.332 -83.879 l S Q
q 1 0 0 -1 0 0 cm
271.867 -88.125 m 271.867 -83.879 l S Q
q 1 0 0 -1 0 0 cm
186.836 -88.125 m 186.836 -83.879 l S Q
0.398506 w
q 1 0 0 -1 0 0 cm
186.836 -88.137 m 191.086 -88.137 l S Q
0.398504 w
q 1 0 0 -1 0 0 cm
186.824 -66.875 m 191.086 -66.875 l S Q
0.398505 w
q 1 0 0 -1 0 0 cm
186.844 -45.609 m 191.086 -45.609 l S Q
0.398504 w
q 1 0 0 -1 0 0 cm
186.832 -24.348 m 191.059 -24.348 l S Q
0.398506 w
q 1 0 0 -1 0 0 cm
186.812 -3.094 m 191.09 -3.094 l S Q
q 1 0 0 -1 0 0 cm
186.836 -88.137 m 191.086 -88.137 l S Q
q 1 0 0 -1 0 0 cm
186.812 -3.094 m 186.812 -7.34 l S Q
q 1 0 0 -1 0 0 cm
229.332 -3.094 m 229.332 -7.34 l S Q
q 1 0 0 -1 0 0 cm
271.855 -3.094 m 271.855 -7.34 l S Q
q 1 0 0 -1 0 0 cm
186.812 -3.094 m 186.812 -7.34 l S Q
q 1 0 0 -1 0 0 cm
271.871 -88.137 m 267.625 -88.137 l S Q
0.398504 w
q 1 0 0 -1 0 0 cm
271.871 -66.875 m 267.609 -66.875 l S Q
0.398505 w
q 1 0 0 -1 0 0 cm
271.867 -45.609 m 267.625 -45.609 l S Q
0.398504 w
q 1 0 0 -1 0 0 cm
271.867 -24.348 m 267.609 -24.348 l S Q
0.398506 w
q 1 0 0 -1 0 0 cm
271.855 -3.094 m 267.613 -3.094 l S Q
q 1 0 0 -1 0 0 cm
271.871 -88.137 m 267.625 -88.137 l S Q
188.781 94.66 m 188.781 93.051 188.047 91.598 186.797 91.598 c 185.531 
91.598 184.797 93.051 184.797 94.66 c 184.797 96.285 185.484 97.723 186.797
 97.723 c 188 97.723 188.781 96.285 188.781 94.66 c h
187.922 94.66 m 187.922 95.957 187.797 97.473 186.797 97.473 c 185.844 
97.473 185.656 95.957 185.656 94.66 c 185.656 93.582 185.781 91.832 186.797
 91.832 c 187.797 91.832 187.922 93.582 187.922 94.66 c h
187.922 94.66 m f
227.902 94.66 m 227.902 93.051 227.168 91.598 225.918 91.598 c 224.652 
91.598 223.918 93.051 223.918 94.66 c 223.918 96.285 224.605 97.723 225.918
 97.723 c 227.121 97.723 227.902 96.285 227.902 94.66 c h
227.043 94.66 m 227.043 95.957 226.918 97.473 225.918 97.473 c 224.965 
97.473 224.777 95.957 224.777 94.66 c 224.777 93.582 224.902 91.832 225.918
 91.832 c 226.918 91.832 227.043 93.582 227.043 94.66 c h
227.043 94.66 m f
229.824 97.238 m 229.824 96.957 229.605 96.738 229.324 96.738 c 229.043
 96.738 228.824 96.957 228.824 97.238 c 228.824 97.52 229.043 97.738 229.324
 97.738 c 229.605 97.738 229.824 97.52 229.824 97.238 c h
229.824 97.238 m f
234.68 91.691 m 232.211 91.691 l 231.102 94.238 l 231.242 94.207 231.383
 94.176 231.555 94.176 c 232.508 94.176 233.805 94.676 233.805 95.848 c 
233.805 96.754 233.148 97.332 232.523 97.332 c 231.977 97.332 231.773 96.832
 231.258 96.832 c 231.008 96.832 230.93 97.051 230.93 97.16 c 230.93 97.473
 231.367 97.723 231.992 97.723 c 233.336 97.723 234.398 96.738 234.398 95.535
 c 234.398 94.113 233.273 93.629 232.055 93.598 c 231.945 93.598 231.82 
93.613 231.711 93.629 c 232.273 92.363 l 234.367 92.348 l h
234.68 91.691 m f
269.633 97.613 m 269.633 97.473 l 269.039 97.473 268.82 97.488 268.82 96.316
 c 268.82 96.301 268.82 91.566 268.82 91.566 c 268.695 91.566 l 267.164 
92.301 l 267.211 92.441 l 267.539 92.301 267.617 92.27 267.742 92.27 c 268.008
 92.27 268.055 92.504 268.055 92.816 c 268.055 96.316 l 268.055 97.488 267.836
 97.457 267.242 97.473 c 267.242 97.613 l h
269.633 97.613 m f
272.305 97.238 m 272.305 96.957 272.086 96.738 271.805 96.738 c 271.523
 96.738 271.305 96.957 271.305 97.238 c 271.305 97.52 271.523 97.738 271.805
 97.738 c 272.086 97.738 272.305 97.52 272.305 97.238 c h
272.305 97.238 m f
277.223 94.66 m 277.223 93.051 276.488 91.598 275.238 91.598 c 273.973 
91.598 273.238 93.051 273.238 94.66 c 273.238 96.285 273.926 97.723 275.238
 97.723 c 276.441 97.723 277.223 96.285 277.223 94.66 c h
276.363 94.66 m 276.363 95.957 276.238 97.473 275.238 97.473 c 274.285 
97.473 274.098 95.957 274.098 94.66 c 274.098 93.582 274.223 91.832 275.238
 91.832 c 276.238 91.832 276.363 93.582 276.363 94.66 c h
276.363 94.66 m f
183.141 88.18 m 183.141 86.57 182.406 85.117 181.156 85.117 c 179.891 85.117
 179.156 86.57 179.156 88.18 c 179.156 89.805 179.844 91.242 181.156 91.242
 c 182.359 91.242 183.141 89.805 183.141 88.18 c h
182.281 88.18 m 182.281 89.477 182.156 90.992 181.156 90.992 c 180.203 
90.992 180.016 89.477 180.016 88.18 c 180.016 87.102 180.141 85.352 181.156
 85.352 c 182.156 85.352 182.281 87.102 182.281 88.18 c h
182.281 88.18 m f
183.172 68.738 m 183.016 68.707 l 182.75 69.16 182.531 69.238 182.094 69.238
 c 180.031 69.238 l 181.453 67.941 182.75 66.77 182.75 65.457 c 182.75 64.535
 181.953 63.879 181.078 63.879 c 180.219 63.879 179.531 64.348 179.266 65.566
 c 179.469 65.566 l 179.719 65.066 180.062 64.551 180.75 64.551 c 181.531
 64.551 181.969 65.145 181.969 65.816 c 181.969 66.785 180.938 68.207 179.172
 69.754 c 179.172 69.895 l 182.703 69.895 l h
183.172 68.738 m f
183.156 47.168 m 183.156 46.559 l 182.281 46.559 l 182.281 42.637 l 181.844
 42.637 l 179.25 46.543 l 179.25 47.168 l 181.547 47.168 l 181.547 48.652
 l 182.281 48.652 l 182.281 47.168 l h
181.547 46.559 m 179.609 46.559 l 181.531 43.574 l 181.547 43.574 l h
181.547 46.559 m f
183.094 25.398 m 183.094 24.414 182.391 23.68 181.5 23.68 c 181.047 23.68
 180.672 23.82 180.281 24.133 c 180.672 22.539 181.844 21.539 182.969 21.523
 c 182.969 21.367 l 180.203 21.367 179.328 23.711 179.328 25.039 c 179.328
 26.461 180.156 27.523 181.266 27.523 c 182.281 27.523 183.094 26.57 183.094
 25.398 c h
182.328 25.852 m 182.328 26.68 181.953 27.258 181.359 27.258 c 180.438 
27.258 180.156 25.914 180.156 25.195 c 180.156 24.961 180.188 24.711 180.234
 24.414 c 180.625 24.164 180.938 24.055 181.25 24.055 c 182.156 24.055 182.328
 25.102 182.328 25.852 c h
182.328 25.852 m f
182.875 4.68 m 182.875 4.039 182.594 3.555 181.5 2.742 c 182.188 2.367 
182.719 1.945 182.719 1.289 c 182.719 0.602 182.078 0.008 181.125 0.008 
c 180.281 0.008 179.484 0.555 179.484 1.398 c 179.484 2.055 179.828 2.445
 180.594 3.055 c 179.734 3.711 179.422 4.039 179.422 4.711 c 179.422 5.461
 180.094 6.164 181.141 6.164 c 182.359 6.164 182.875 5.336 182.875 4.68 
c h
182.109 1.273 m 182.109 1.914 181.734 2.258 181.25 2.586 c 180.656 2.164
 180.141 1.695 180.141 1.18 c 180.141 0.695 180.484 0.273 181.094 0.273 
c 181.766 0.273 182.109 0.695 182.109 1.273 c h
182.234 4.93 m 182.234 5.508 181.797 5.898 181.219 5.898 c 180.531 5.898
 180.094 5.352 180.094 4.617 c 180.094 3.945 180.422 3.555 180.828 3.211
 c 181.812 3.961 182.234 4.336 182.234 4.93 c h
182.234 4.93 m f
210.168 110.133 m 210.043 110.039 l 209.855 110.273 209.527 110.711 209.34
 110.711 c 209.262 110.711 209.215 110.664 209.215 110.555 c 209.215 110.461
 209.293 110.242 209.34 110.07 c 209.34 110.07 209.871 108.117 209.871 108.07
 c 209.934 107.883 209.965 107.695 209.965 107.57 c 209.965 107.117 209.684
 106.961 209.465 106.961 c 208.73 106.961 207.902 107.93 207.324 108.961
 c 207.324 108.961 207.652 107.914 207.652 107.555 c 207.652 107.32 207.559
 106.961 207.137 106.961 c 206.309 106.961 205.277 108.555 205.059 108.961
 c 205.59 106.961 l 205.59 106.961 204.371 107.195 204.105 107.211 c 204.105
 107.367 l 204.434 107.367 204.699 107.336 204.699 107.695 c 204.699 107.867
 204.621 108.148 204.543 108.43 c 204.543 108.43 203.824 110.82 203.777 
111.055 c 204.465 111.055 l 204.621 110.461 l 205.137 108.523 206.387 107.461
 206.73 107.461 c 206.871 107.461 206.965 107.508 206.965 107.711 c 206.965
 107.852 206.855 108.258 206.793 108.523 c 206.793 108.523 206.168 110.742
 206.09 111.055 c 206.762 111.055 l 206.918 110.461 l 207.465 108.445 208.684
 107.461 209.043 107.461 c 209.168 107.461 209.262 107.555 209.262 107.695
 c 209.262 107.789 209.168 108.195 209.074 108.523 c 208.715 109.867 l 208.621
 110.195 208.543 110.602 208.543 110.742 c 208.543 110.977 208.668 111.164
 208.871 111.164 c 209.324 111.164 209.809 110.648 210.168 110.133 c h
210.168 110.133 m f
210.992 108.848 m 211.57 108.879 211.648 108.957 211.648 109.473 c 211.648
 112.566 l 211.648 113.098 211.555 113.176 210.992 113.207 c 210.992 113.332
 l 213.32 113.332 l 213.852 113.332 214.352 113.191 214.617 112.941 c 214.867
 112.723 214.992 112.41 214.992 112.082 c 214.992 111.77 214.883 111.488
 214.664 111.285 c 214.445 111.098 214.258 111.02 213.805 110.91 c 214.164
 110.816 214.32 110.754 214.477 110.598 c 214.664 110.441 214.758 110.191
 214.758 109.91 c 214.758 109.129 214.133 108.723 212.93 108.723 c 210.992
 108.723 l h
212.367 111.066 m 213.039 111.066 213.367 111.098 213.617 111.207 c 214.008
 111.363 214.195 111.66 214.195 112.082 c 214.195 112.457 214.055 112.738
 213.773 112.895 c 213.555 113.02 213.258 113.066 212.805 113.066 c 212.461
 113.066 212.367 113.004 212.367 112.785 c h
212.367 110.785 m 212.367 109.191 l 212.367 109.035 212.398 108.988 212.523
 108.988 c 212.82 108.973 l 213.602 108.957 214.055 109.316 214.055 109.926
 c 214.055 110.488 213.695 110.77 213.023 110.785 c h
212.367 110.785 m f
219.934 104.617 m 219.496 104.617 l 216.387 112.977 l 216.84 112.977 l 
h
219.934 104.617 m f
220.609 111.055 m 222.609 111.055 l 222.609 110.914 l 222.141 110.914 222
 110.82 222 110.461 c 222 107.93 l 222 107.914 222.062 107.82 222.125 107.758
 c 222.359 107.555 222.734 107.398 223.047 107.398 c 223.453 107.398 223.641
 107.711 223.641 108.336 c 223.641 110.289 l 223.625 110.789 223.531 110.898
 223.031 110.914 c 223.031 111.055 l 225.047 111.055 l 225.047 110.914 l
 224.547 110.914 224.422 110.773 224.391 110.195 c 224.391 107.945 l 224.672
 107.555 224.953 107.398 225.375 107.398 c 225.891 107.398 226.047 107.633
 226.047 108.383 c 226.047 110.273 l 226.031 110.805 225.969 110.867 225.453
 110.914 c 225.453 111.055 l 227.422 111.055 l 227.422 110.914 l 227.188
 110.898 l 226.906 110.852 226.797 110.727 226.797 110.367 c 226.797 108.523
 l 226.797 107.461 226.453 106.93 225.766 106.93 c 225.234 106.93 224.781
 107.164 224.297 107.68 c 224.141 107.164 223.828 106.93 223.344 106.93 
c 222.938 106.93 222.703 107.039 221.953 107.617 c 221.953 106.945 l 221.891
 106.93 l 221.422 107.102 221.109 107.195 220.641 107.336 c 220.641 107.492
 l 220.75 107.461 220.828 107.445 220.922 107.445 c 221.156 107.445 221.234
 107.586 221.234 108.023 c 221.234 110.289 l 221.219 110.789 221.109 110.914
 220.609 110.914 c h
220.609 111.055 m f
229.676 106.93 m 228.488 106.93 227.691 107.789 227.691 109.023 c 227.691
 110.242 228.52 111.148 229.645 111.148 c 230.785 111.148 231.645 110.195
 231.645 108.961 c 231.645 107.773 230.816 106.93 229.676 106.93 c h
229.551 107.18 m 230.301 107.18 230.832 108.039 230.832 109.273 c 230.832
 110.289 230.426 110.898 229.754 110.898 c 229.41 110.898 229.082 110.68
 228.895 110.32 c 228.629 109.852 228.488 109.227 228.488 108.586 c 228.488
 107.742 228.91 107.18 229.551 107.18 c h
229.551 107.18 m f
232.055 111.055 m 234.18 111.055 l 234.18 110.914 l 233.602 110.898 233.508
 110.805 233.492 110.305 c 233.492 104.945 l 233.461 104.93 l 233.008 105.07
 232.68 105.164 232.039 105.32 c 232.039 105.461 l 232.086 105.461 l 232.195
 105.461 232.305 105.445 232.367 105.445 c 232.664 105.445 232.742 105.57
 232.742 105.992 c 232.742 110.273 l 232.742 110.758 232.617 110.883 232.055
 110.914 c h
232.055 111.055 m f
236.012 111.055 m 238.105 111.055 l 238.105 110.914 l 237.934 110.914 l
 237.559 110.883 237.449 110.789 237.434 110.461 c 237.434 108.805 l 238.699
 110.477 l 238.73 110.523 238.762 110.57 238.777 110.602 c 238.855 110.68
 238.887 110.742 238.887 110.789 c 238.887 110.867 238.809 110.914 238.699
 110.914 c 238.527 110.914 l 238.527 111.055 l 240.48 111.055 l 240.48 110.914
 l 240.09 110.898 239.809 110.727 239.434 110.258 c 238.059 108.523 l 238.324
 108.289 l 239.434 107.273 239.684 107.133 240.262 107.148 c 240.262 107.023
 l 238.418 107.023 l 238.418 107.148 l 238.777 107.148 238.871 107.195 238.871
 107.305 c 238.871 107.383 238.793 107.508 238.668 107.617 c 237.434 108.711
 l 237.434 104.945 l 237.402 104.93 l 237.059 105.039 236.793 105.117 236.277
 105.258 c 236.012 105.32 l 236.012 105.461 l 236.121 105.461 236.215 105.445
 236.293 105.445 c 236.605 105.445 236.684 105.57 236.684 105.992 c 236.684
 110.32 l 236.668 110.789 236.652 110.82 236.012 110.914 c h
236.012 111.055 m f
244.605 107.57 m 244.605 107.227 l 243.918 107.227 l 243.73 107.227 243.59
 107.195 243.418 107.133 c 243.215 107.07 l 242.98 106.977 242.73 106.93
 242.496 106.93 c 241.668 106.93 241.012 107.57 241.012 108.398 c 241.012
 108.961 241.246 109.289 241.84 109.586 c 241.605 109.805 l 241.418 109.992
 241.309 110.086 241.277 110.117 c 241.09 110.32 241.043 110.414 241.043
 110.57 c 241.043 110.773 241.137 110.867 241.512 111.039 c 240.871 111.508
 240.637 111.805 240.637 112.133 c 240.637 112.617 241.324 113.008 242.184
 113.008 c 242.855 113.008 243.559 112.773 244.027 112.398 c 244.371 112.117
 244.527 111.836 244.527 111.492 c 244.527 110.945 244.105 110.57 243.434
 110.539 c 242.277 110.477 l 241.793 110.461 241.574 110.383 241.574 110.242
 c 241.574 110.055 241.871 109.742 242.121 109.68 c 242.434 109.695 242.605
 109.711 242.637 109.711 c 242.965 109.711 243.324 109.586 243.59 109.336
 c 243.887 109.086 244.027 108.773 244.027 108.336 c 244.027 108.07 243.98
 107.867 243.855 107.57 c h
241.699 111.07 m 242.012 111.133 242.715 111.195 243.168 111.195 c 243.98
 111.195 244.277 111.305 244.277 111.633 c 244.277 112.148 243.59 112.492
 242.574 112.492 c 241.777 112.492 241.262 112.242 241.262 111.852 c 241.262
 111.633 241.34 111.508 241.699 111.07 c h
241.746 108.023 m 241.746 107.492 241.996 107.18 242.418 107.18 c 242.699
 107.18 242.918 107.336 243.074 107.602 c 243.246 107.914 243.34 108.32 
243.34 108.68 c 243.34 109.18 243.09 109.492 242.668 109.492 c 242.121 109.492
 241.746 108.914 241.746 108.055 c h
241.746 108.023 m f
245.25 105.578 4.703 0.438 re f
253.504 107.812 m 253.504 107.625 l 252.973 107.625 252.801 107.625 252.801
 106.781 c 252.801 106.766 252.801 103.109 252.801 103.109 c 252.629 103.109
 l 251.285 103.688 l 251.363 103.875 l 251.676 103.75 251.738 103.734 251.832
 103.734 c 252.035 103.734 252.051 103.906 252.051 104.109 c 252.051 106.781
 l 252.051 107.625 251.895 107.609 251.363 107.625 c 251.363 107.812 l h
253.504 107.812 m f
165.906 53.207 m 165.547 53.207 165.359 53.598 165.359 53.941 c 165.359
 55.191 167.156 55.801 167.797 55.988 c 167.797 55.988 167.797 56.566 167.797
 56.801 c 168.141 56.895 l 168.141 56.082 l 169.25 56.363 172.078 56.895
 173.031 57.441 c 173.469 57.691 173.531 58.082 173.531 58.254 c 173.531
 58.316 173.5 58.395 173.453 58.395 c 173.328 58.395 173.328 58.207 173.141
 58.207 c 173.031 58.207 172.906 58.301 172.906 58.488 c 172.906 58.723 
173.094 58.895 173.281 58.895 c 173.531 58.895 173.719 58.629 173.719 58.254
 c 173.719 56.504 169.953 55.848 168.141 55.395 c 168.141 54.66 l 167.797
 54.582 l 167.797 55.301 l 166.844 55.004 165.547 54.707 165.547 53.926 
c 165.547 53.816 165.625 53.707 165.703 53.707 c 165.797 53.707 165.859 
53.848 166.031 53.848 c 166.188 53.848 166.312 53.738 166.312 53.582 c 166.312
 53.379 166.125 53.207 165.906 53.207 c h
165.906 53.207 m f
169.594 54.367 m 169.625 53.789 169.703 53.711 170.219 53.711 c 173.312
 53.711 l 173.844 53.711 173.922 53.805 173.953 54.367 c 174.078 54.367 
l 174.078 52.039 l 174.078 51.508 173.938 51.008 173.688 50.742 c 173.469
 50.492 173.156 50.367 172.828 50.367 c 172.516 50.367 172.234 50.477 172.031
 50.695 c 171.844 50.914 171.766 51.102 171.656 51.555 c 171.562 51.195 
171.5 51.039 171.344 50.883 c 171.188 50.695 170.938 50.602 170.656 50.602
 c 169.875 50.602 169.469 51.227 169.469 52.43 c 169.469 54.367 l h
171.812 52.992 m 171.812 52.32 171.844 51.992 171.953 51.742 c 172.109 
51.352 172.406 51.164 172.828 51.164 c 173.203 51.164 173.484 51.305 173.641
 51.586 c 173.766 51.805 173.812 52.102 173.812 52.555 c 173.812 52.898 
173.75 52.992 173.531 52.992 c h
171.531 52.992 m 169.938 52.992 l 169.781 52.992 169.734 52.961 169.734
 52.836 c 169.719 52.539 l 169.703 51.758 170.062 51.305 170.672 51.305 
c 171.234 51.305 171.516 51.664 171.531 52.336 c h
171.531 52.992 m f
165.359 45.547 m 165.359 45.984 l 173.719 49.094 l 173.719 48.641 l h
165.359 45.547 m f
171.797 44.953 m 171.797 42.859 l 171.656 42.859 l 171.656 43.031 l 171.625
 43.406 171.531 43.516 171.203 43.531 c 169.547 43.531 l 171.219 42.266 
l 171.266 42.234 171.312 42.203 171.344 42.188 c 171.422 42.109 171.484 
42.078 171.531 42.078 c 171.609 42.078 171.656 42.156 171.656 42.266 c 171.656
 42.438 l 171.797 42.438 l 171.797 40.484 l 171.656 40.484 l 171.641 40.875
 171.469 41.156 171 41.531 c 169.266 42.906 l 169.031 42.641 l 168.016 41.531
 167.875 41.281 167.891 40.703 c 167.766 40.703 l 167.766 42.547 l 167.891
 42.547 l 167.891 42.188 167.938 42.094 168.047 42.094 c 168.125 42.094 
168.25 42.172 168.359 42.297 c 169.453 43.531 l 165.688 43.531 l 165.672
 43.562 l 165.781 43.906 165.859 44.172 166 44.688 c 166.062 44.953 l 166.203
 44.953 l 166.203 44.844 166.188 44.75 166.188 44.672 c 166.188 44.359 166.312
 44.281 166.734 44.281 c 171.062 44.281 l 171.531 44.297 171.562 44.312 
171.656 44.953 c h
171.797 44.953 m f
166.031 40.434 m 166.109 39.762 166.188 39.684 166.844 39.684 c 170.719
 39.684 l 171.484 39.684 171.562 39.746 171.625 40.434 c 171.797 40.434 
l 171.797 37.918 l 171.625 37.918 l 171.609 38.621 171.484 38.746 170.812
 38.762 c 169.188 38.762 l 169.203 38.527 169.219 38.371 169.219 38.137 
c 169.219 37.434 169.125 36.965 168.906 36.574 c 168.625 36.043 168.078 
35.715 167.484 35.715 c 167.109 35.715 166.766 35.84 166.5 36.074 c 166.109
 36.434 165.859 37.215 165.859 38.059 c 165.859 40.434 l h
166.5 38.762 m 166.25 38.762 166.188 38.699 166.188 38.465 c 166.188 37.246
 166.609 36.684 167.531 36.684 c 168.406 36.684 168.859 37.215 168.859 38.246
 c 168.859 38.434 168.844 38.559 168.828 38.762 c h
166.5 38.762 m f
171.203 31.684 m 171.328 31.84 171.375 31.949 171.375 32.09 c 171.375 32.293
 171.25 32.355 170.859 32.355 c 169.109 32.355 l 168.641 32.355 168.375 
32.402 168.172 32.527 c 167.844 32.73 167.672 33.121 167.672 33.637 c 167.672
 34.48 168.109 35.152 168.672 35.152 c 168.875 35.152 169.062 34.98 169.062
 34.762 c 169.062 34.543 168.875 34.355 168.688 34.355 c 168.656 34.355 
168.609 34.371 168.547 34.371 c 168.453 34.402 168.391 34.402 168.328 34.402
 c 168.078 34.402 167.891 34.121 167.891 33.762 c 167.891 33.324 168.141
 33.074 168.625 33.074 c 169.172 33.074 l 169.719 34.449 169.812 34.605 
170.141 34.996 c 170.328 35.199 170.625 35.324 170.922 35.324 c 171.484 
35.324 171.891 34.934 171.891 34.371 c 171.891 33.98 171.703 33.621 171.234
 33.074 c 171.703 33.027 171.891 32.855 171.891 32.496 c 171.891 32.184 
171.781 31.996 171.438 31.684 c h
170.688 33.074 m 170.969 33.074 171.062 33.121 171.172 33.309 c 171.297
 33.543 171.359 33.777 171.359 33.965 c 171.359 34.277 171.062 34.527 170.672
 34.527 c 170.641 34.527 l 170.109 34.527 169.766 34.121 169.391 33.074 
c h
170.688 33.074 m f
1.13366 w
q 1 0 0 -1 0 0 cm
186.816 -88.113 m 187.297 -87.738 l 187.781 -87.395 l 188.262 -87.016 l
 188.711 -86.637 l 189.191 -86.289 l 189.676 -85.91 l 190.121 -85.562 l 
190.605 -85.219 l 191.086 -84.844 l 191.57 -84.5 l 192.02 -84.156 l 192.98
 -83.461 l 193.465 -83.117 l 193.914 -82.777 l 194.395 -82.434 l 194.879
 -82.09 l 195.359 -81.742 l 195.809 -81.434 l 196.289 -81.086 l 196.773 
-80.742 l 197.254 -80.43 l 197.703 -80.09 l 198.184 -79.781 l 198.668 -79.438
 l 199.148 -79.125 l 199.598 -78.812 l 200.078 -78.469 l 200.562 -78.156
 l 201.043 -77.852 l 201.492 -77.535 l 201.973 -77.23 l 202.457 -76.922 
l 202.938 -76.609 l 203.422 -76.297 l 203.902 -76.02 l 204.352 -75.711 l
 204.832 -75.441 l 205.316 -75.129 l 205.797 -74.855 l 206.246 -74.543 l
 206.727 -74.27 l 207.211 -73.957 l 207.691 -73.68 l 208.176 -73.402 l 208.656
 -73.133 l 209.105 -72.852 l 209.586 -72.574 l 210.07 -72.27 l 210.551 -71.996
 l 211.035 -71.719 l 211.516 -71.477 l 212 -71.199 l 212.445 -70.922 l 212.93
 -70.68 l 213.41 -70.41 l 213.895 -70.129 l 214.375 -69.895 l 214.859 -69.652
 l 215.34 -69.375 l 215.789 -69.133 l 216.27 -68.891 l 216.754 -68.648 l
 217.234 -68.406 l 217.719 -68.133 l 218.199 -67.891 l 218.684 -67.688 l
 219.129 -67.414 l 219.648 -67.207 l 220.094 -66.965 l 220.578 -66.723 l
 221.059 -66.516 l 221.543 -66.273 l 222.023 -66.031 l 222.508 -65.824 l
 222.988 -65.582 l 223.473 -65.375 l 223.953 -65.168 l 224.402 -64.965 l
 224.883 -64.727 l 225.367 -64.52 l 225.848 -64.312 l 226.332 -64.105 l 
226.812 -63.898 l 227.297 -63.688 l 227.777 -63.516 l 228.262 -63.309 l 
228.742 -63.102 l 229.227 -62.895 l 229.707 -62.723 l 230.188 -62.52 l 230.672
 -62.348 l 231.152 -62.141 l 231.637 -61.969 l 232.117 -61.762 l 232.566
 -61.59 l 233.082 -61.418 l 233.566 -61.242 l 234.012 -61.07 l 234.496 -60.898
 l 235.012 -60.727 l 235.461 -60.559 l 235.941 -60.379 l 236.461 -60.207
 l 236.906 -60.039 l 237.391 -59.902 l 237.871 -59.73 l 238.355 -59.559 
l 238.836 -59.418 l 239.32 -59.281 l 239.836 -59.109 l 240.285 -58.969 l
 240.766 -58.832 l 241.246 -58.66 l 241.766 -58.52 l 242.246 -58.383 l 242.695
 -58.246 l 243.211 -58.105 l 243.695 -57.969 l 244.176 -57.836 l 244.66 
-57.691 l 245.141 -57.594 l 245.625 -57.457 l 246.105 -57.316 l 246.59 -57.215
 l 247.07 -57.078 l 247.551 -56.973 l 248.035 -56.836 l 248.516 -56.734 
l 249 -56.629 l 249.48 -56.523 l 249.965 -56.387 l 250.445 -56.281 l 250.93
 -56.18 l 251.41 -56.074 l 251.93 -55.973 l 252.41 -55.867 l 252.891 -55.766
 l 253.375 -55.695 l 253.855 -55.598 l 254.34 -55.488 l 254.82 -55.418 l
 255.305 -55.32 l 255.785 -55.246 l 256.27 -55.148 l 256.75 -55.078 l 257.27
 -54.977 l 258.23 -54.836 l 258.715 -54.77 l S Q
0.567043 w
q 1 0 0 -1 0 0 cm
186.828 -88.141 m 188.805 -86.582 l 190.781 -85.02 m 192.758 -83.461 l 
194.738 -81.902 m 196.715 -80.34 l 198.691 -78.781 m 200.668 -77.223 l 202.648
 -75.66 m 204.625 -74.102 l 206.602 -72.543 m 208.578 -70.98 l 210.555 -69.422
 m 212.535 -67.863 l 214.512 -66.301 m 216.488 -64.742 l 218.465 -63.184
 m 220.445 -61.621 l 222.422 -60.062 m 224.398 -58.504 l 226.375 -56.941
 m 228.352 -55.383 l 230.332 -53.82 m 232.309 -52.262 l 234.285 -50.703 
m 236.262 -49.145 l 238.242 -47.582 m 240.219 -46.023 l 242.195 -44.465 
m 244.172 -42.902 l 246.152 -41.344 m 248.129 -39.781 l 250.105 -38.223 
m 252.082 -36.664 l 254.059 -35.102 m 256.039 -33.543 l 258.016 -31.984 
m 259.992 -30.426 l 261.969 -28.863 m 263.949 -27.305 l 265.926 -25.742 
m 267.902 -24.184 l 269.879 -22.625 m 271.84 -21.078 l S Q
273.449 21.113 m 273.449 20.25 272.75 19.551 271.887 19.551 c 271.023 19.551
 270.324 20.25 270.324 21.113 c 270.324 21.977 271.023 22.676 271.887 22.676
 c 272.75 22.676 273.449 21.977 273.449 21.113 c f
235.207 120.711 m 234.551 121.148 234.285 121.367 233.941 121.789 c 233.316
 122.57 233.004 123.461 233.004 124.508 c 233.004 125.664 233.332 126.539
 234.113 127.445 c 234.488 127.883 234.723 128.07 235.191 128.367 c 235.285
 128.211 l 234.582 127.648 234.332 127.336 234.082 126.664 c 233.863 126.07
 233.77 125.398 233.77 124.492 c 233.77 123.539 233.879 122.805 234.129 
122.258 c 234.379 121.695 234.645 121.367 235.285 120.852 c h
235.207 120.711 m f
236.941 120.664 m 236.895 120.648 l 236.52 120.773 236.285 120.852 235.848
 120.977 c 235.598 121.039 l 235.598 121.18 l 235.645 121.18 235.676 121.18
 235.738 121.18 c 236.098 121.18 236.191 121.258 236.191 121.633 c 236.191
 126.289 l 236.191 126.57 236.941 126.867 237.66 126.867 c 238.848 126.867
 239.77 125.883 239.77 124.602 c 239.77 123.477 239.082 122.648 238.191 
122.648 c 237.645 122.648 237.113 122.961 236.941 123.414 c h
236.941 123.883 m 236.941 123.539 237.363 123.211 237.832 123.211 c 238.082
 123.211 238.301 123.305 238.488 123.477 c 238.77 123.758 238.973 124.367
 238.973 125.008 c 238.973 126.008 238.551 126.57 237.816 126.57 c 237.348
 126.57 236.941 126.383 236.941 126.148 c h
236.941 123.883 m f
240.352 128.367 m 241.008 127.914 241.289 127.695 241.617 127.289 c 242.258
 126.508 242.57 125.602 242.57 124.555 c 242.57 123.414 242.227 122.539 
241.445 121.633 c 241.07 121.195 240.836 120.992 240.383 120.711 c 240.273
 120.852 l 240.992 121.414 241.227 121.727 241.477 122.398 c 241.695 123.008
 241.789 123.68 241.789 124.586 c 241.789 125.523 241.68 126.258 241.43 
126.805 c 241.195 127.367 240.914 127.695 240.273 128.211 c h
240.352 128.367 m f
0.567042 w
q 1 0 0 -1 0 0 cm
30.93 -144.828 85.051 -85.047 re S Q
0.398505 w
q 1 0 0 -1 0 0 cm
30.914 -229.852 m 30.914 -225.605 l S Q
q 1 0 0 -1 0 0 cm
73.434 -229.852 m 73.434 -225.605 l S Q
q 1 0 0 -1 0 0 cm
115.922 -229.852 m 115.922 -225.605 l S Q
q 1 0 0 -1 0 0 cm
30.914 -229.852 m 30.914 -225.605 l S Q
0.398508 w
q 1 0 0 -1 0 0 cm
30.93 -229.859 m 35.168 -229.859 l S Q
0.398507 w
q 1 0 0 -1 0 0 cm
30.938 -194.422 m 35.172 -194.422 l S Q
0.398505 w
q 1 0 0 -1 0 0 cm
30.902 -159.004 m 35.164 -159.004 l S Q
0.398508 w
q 1 0 0 -1 0 0 cm
30.93 -229.859 m 35.168 -229.859 l S Q
0.398506 w
q 1 0 0 -1 0 0 cm
30.93 -144.828 m 30.93 -149.059 l S Q
q 1 0 0 -1 0 0 cm
73.406 -144.828 m 73.406 -149.059 l S Q
q 1 0 0 -1 0 0 cm
115.914 -144.828 m 115.914 -149.059 l S Q
q 1 0 0 -1 0 0 cm
30.93 -144.828 m 30.93 -149.059 l S Q
0.398508 w
q 1 0 0 -1 0 0 cm
115.973 -229.859 m 111.734 -229.859 l S Q
0.398507 w
q 1 0 0 -1 0 0 cm
115.996 -194.422 m 111.73 -194.422 l S Q
0.398505 w
q 1 0 0 -1 0 0 cm
115.973 -159.004 m 111.711 -159.004 l S Q
0.398508 w
q 1 0 0 -1 0 0 cm
115.973 -229.859 m 111.734 -229.859 l S Q
32.871 236.391 m 32.871 234.781 32.137 233.328 30.887 233.328 c 29.621 
233.328 28.887 234.781 28.887 236.391 c 28.887 238.016 29.574 239.453 30.887
 239.453 c 32.09 239.453 32.871 238.016 32.871 236.391 c h
32.012 236.391 m 32.012 237.688 31.887 239.203 30.887 239.203 c 29.934 
239.203 29.746 237.688 29.746 236.391 c 29.746 235.312 29.871 233.562 30.887
 233.562 c 31.887 233.562 32.012 235.312 32.012 236.391 c h
32.012 236.391 m f
69.711 236.391 m 69.711 234.781 68.977 233.328 67.727 233.328 c 66.461 
233.328 65.727 234.781 65.727 236.391 c 65.727 238.016 66.414 239.453 67.727
 239.453 c 68.93 239.453 69.711 238.016 69.711 236.391 c h
68.852 236.391 m 68.852 237.688 68.727 239.203 67.727 239.203 c 66.773 
239.203 66.586 237.688 66.586 236.391 c 66.586 235.312 66.711 233.562 67.727
 233.562 c 68.727 233.562 68.852 235.312 68.852 236.391 c h
68.852 236.391 m f
71.637 238.969 m 71.637 238.688 71.418 238.469 71.137 238.469 c 70.855 
238.469 70.637 238.688 70.637 238.969 c 70.637 239.25 70.855 239.469 71.137
 239.469 c 71.418 239.469 71.637 239.25 71.637 238.969 c h
71.637 238.969 m f
76.551 236.391 m 76.551 234.781 75.816 233.328 74.566 233.328 c 73.301 
233.328 72.566 234.781 72.566 236.391 c 72.566 238.016 73.254 239.453 74.566
 239.453 c 75.77 239.453 76.551 238.016 76.551 236.391 c h
75.691 236.391 m 75.691 237.688 75.566 239.203 74.566 239.203 c 73.613 
239.203 73.426 237.688 73.426 236.391 c 73.426 235.312 73.551 233.562 74.566
 233.562 c 75.566 233.562 75.691 235.312 75.691 236.391 c h
75.691 236.391 m f
80.242 239.344 m 80.242 239.203 l 79.648 239.203 79.43 239.219 79.43 238.047
 c 79.43 238.031 79.43 233.297 79.43 233.297 c 79.305 233.297 l 77.773 234.031
 l 77.82 234.172 l 78.148 234.031 78.227 234 78.352 234 c 78.617 234 78.664
 234.234 78.664 234.547 c 78.664 238.047 l 78.664 239.219 78.445 239.188
 77.852 239.203 c 77.852 239.344 l h
80.242 239.344 m f
112.191 236.391 m 112.191 234.781 111.457 233.328 110.207 233.328 c 108.941
 233.328 108.207 234.781 108.207 236.391 c 108.207 238.016 108.895 239.453
 110.207 239.453 c 111.41 239.453 112.191 238.016 112.191 236.391 c h
111.332 236.391 m 111.332 237.688 111.207 239.203 110.207 239.203 c 109.254
 239.203 109.066 237.688 109.066 236.391 c 109.066 235.312 109.191 233.562
 110.207 233.562 c 111.207 233.562 111.332 235.312 111.332 236.391 c h
111.332 236.391 m f
114.117 238.969 m 114.117 238.688 113.898 238.469 113.617 238.469 c 113.336
 238.469 113.117 238.688 113.117 238.969 c 113.117 239.25 113.336 239.469
 113.617 239.469 c 113.898 239.469 114.117 239.25 114.117 238.969 c h
114.117 238.969 m f
119.031 236.391 m 119.031 234.781 118.297 233.328 117.047 233.328 c 115.781
 233.328 115.047 234.781 115.047 236.391 c 115.047 238.016 115.734 239.453
 117.047 239.453 c 118.25 239.453 119.031 238.016 119.031 236.391 c h
118.172 236.391 m 118.172 237.688 118.047 239.203 117.047 239.203 c 116.094
 239.203 115.906 237.688 115.906 236.391 c 115.906 235.312 116.031 233.562
 117.047 233.562 c 118.047 233.562 118.172 235.312 118.172 236.391 c h
118.172 236.391 m f
123.5 238.188 m 123.344 238.156 l 123.078 238.609 122.859 238.688 122.422
 238.688 c 120.359 238.688 l 121.781 237.391 123.078 236.219 123.078 234.906
 c 123.078 233.984 122.281 233.328 121.406 233.328 c 120.547 233.328 119.859
 233.797 119.594 235.016 c 119.797 235.016 l 120.047 234.516 120.391 234
 121.078 234 c 121.859 234 122.297 234.594 122.297 235.266 c 122.297 236.234
 121.266 237.656 119.5 239.203 c 119.5 239.344 l 123.031 239.344 l h
123.5 238.188 m f
27.23 229.91 m 27.23 228.301 26.496 226.848 25.246 226.848 c 23.98 226.848
 23.246 228.301 23.246 229.91 c 23.246 231.535 23.934 232.973 25.246 232.973
 c 26.449 232.973 27.23 231.535 27.23 229.91 c h
26.371 229.91 m 26.371 231.207 26.246 232.723 25.246 232.723 c 24.293 232.723
 24.105 231.207 24.105 229.91 c 24.105 228.832 24.23 227.082 25.246 227.082
 c 26.246 227.082 26.371 228.832 26.371 229.91 c h
26.371 229.91 m f
20.391 194.512 m 20.391 192.902 19.656 191.449 18.406 191.449 c 17.141 
191.449 16.406 192.902 16.406 194.512 c 16.406 196.137 17.094 197.574 18.406
 197.574 c 19.609 197.574 20.391 196.137 20.391 194.512 c h
19.531 194.512 m 19.531 195.809 19.406 197.324 18.406 197.324 c 17.453 
197.324 17.266 195.809 17.266 194.512 c 17.266 193.434 17.391 191.684 18.406
 191.684 c 19.406 191.684 19.531 193.434 19.531 194.512 c h
19.531 194.512 m f
22.316 197.09 m 22.316 196.809 22.098 196.59 21.816 196.59 c 21.535 196.59
 21.316 196.809 21.316 197.09 c 21.316 197.371 21.535 197.59 21.816 197.59
 c 22.098 197.59 22.316 197.371 22.316 197.09 c h
22.316 197.09 m f
27.168 191.543 m 24.699 191.543 l 23.59 194.09 l 23.73 194.059 23.871 194.027
 24.043 194.027 c 24.996 194.027 26.293 194.527 26.293 195.699 c 26.293 
196.605 25.637 197.184 25.012 197.184 c 24.465 197.184 24.262 196.684 23.746
 196.684 c 23.496 196.684 23.418 196.902 23.418 197.012 c 23.418 197.324
 23.855 197.574 24.48 197.574 c 25.824 197.574 26.887 196.59 26.887 195.387
 c 26.887 193.965 25.762 193.48 24.543 193.449 c 24.434 193.449 24.309 193.465
 24.199 193.48 c 24.762 192.215 l 26.855 192.199 l h
27.168 191.543 m f
19.641 161.945 m 19.641 161.805 l 19.047 161.805 18.828 161.82 18.828 160.648
 c 18.828 160.633 18.828 155.898 18.828 155.898 c 18.703 155.898 l 17.172
 156.633 l 17.219 156.773 l 17.547 156.633 17.625 156.602 17.75 156.602 
c 18.016 156.602 18.062 156.836 18.062 157.148 c 18.062 160.648 l 18.062
 161.82 17.844 161.789 17.25 161.805 c 17.25 161.945 l h
19.641 161.945 m f
22.316 161.57 m 22.316 161.289 22.098 161.07 21.816 161.07 c 21.535 161.07
 21.316 161.289 21.316 161.57 c 21.316 161.852 21.535 162.07 21.816 162.07
 c 22.098 162.07 22.316 161.852 22.316 161.57 c h
22.316 161.57 m f
27.23 158.992 m 27.23 157.383 26.496 155.93 25.246 155.93 c 23.98 155.93
 23.246 157.383 23.246 158.992 c 23.246 160.617 23.934 162.055 25.246 162.055
 c 26.449 162.055 27.23 160.617 27.23 158.992 c h
26.371 158.992 m 26.371 160.289 26.246 161.805 25.246 161.805 c 24.293 
161.805 24.105 160.289 24.105 158.992 c 24.105 157.914 24.23 156.164 25.246
 156.164 c 26.246 156.164 26.371 157.914 26.371 158.992 c h
26.371 158.992 m f
73.016 245.18 m 73.016 244.961 72.812 244.852 72.641 244.852 c 72.188 244.852
 71.609 245.523 71.172 246.227 c 71.156 246.227 71.094 245.93 71.094 245.93
 c 70.953 245.336 70.781 244.992 70.469 244.852 c 70.469 244.852 69.453 
245.055 69.328 245.102 c 69.328 245.258 l 69.516 245.211 69.656 245.18 69.75
 245.18 c 70.25 245.18 70.328 245.664 70.672 246.961 c 70.266 247.555 69.625
 248.555 69.375 248.555 c 69.172 248.555 69.156 248.336 68.875 248.336 c
 68.688 248.336 68.547 248.477 68.547 248.664 c 68.547 248.898 68.719 249.055
 68.969 249.055 c 69.609 249.055 70.188 247.93 70.734 247.227 c 70.766 247.289
 70.969 248.086 70.969 248.086 c 71.188 248.914 71.359 249.055 71.578 249.055
 c 71.859 249.055 72.281 248.773 72.703 247.992 c 72.578 247.914 l 72.422
 248.117 72.172 248.539 71.938 248.539 c 71.625 248.539 71.453 247.273 71.234
 246.477 c 71.281 246.398 71.906 245.398 72.234 245.398 c 72.406 245.398
 72.562 245.539 72.719 245.539 c 72.938 245.539 73.016 245.352 73.016 245.18
 c h
73.016 245.18 m f
73.418 246.738 m 73.996 246.77 74.074 246.848 74.074 247.363 c 74.074 250.457
 l 74.074 250.988 73.98 251.066 73.418 251.098 c 73.418 251.223 l 75.746
 251.223 l 76.277 251.223 76.777 251.082 77.043 250.832 c 77.293 250.613
 77.418 250.301 77.418 249.973 c 77.418 249.66 77.309 249.379 77.09 249.176
 c 76.871 248.988 76.684 248.91 76.23 248.801 c 76.59 248.707 76.746 248.645
 76.902 248.488 c 77.09 248.332 77.184 248.082 77.184 247.801 c 77.184 247.02
 76.559 246.613 75.355 246.613 c 73.418 246.613 l h
74.793 248.957 m 75.465 248.957 75.793 248.988 76.043 249.098 c 76.434 
249.254 76.621 249.551 76.621 249.973 c 76.621 250.348 76.48 250.629 76.199
 250.785 c 75.98 250.91 75.684 250.957 75.23 250.957 c 74.887 250.957 74.793
 250.895 74.793 250.676 c h
74.793 248.676 m 74.793 247.082 l 74.793 246.926 74.824 246.879 74.949 
246.879 c 75.246 246.863 l 76.027 246.848 76.48 247.207 76.48 247.816 c 
76.48 248.379 76.121 248.66 75.449 248.676 c h
74.793 248.676 m f
5.074 190.984 m 4.84 190.984 4.715 191.172 4.715 191.344 c 4.715 191.453
 4.762 191.562 4.871 191.641 c 5.043 191.734 5.215 191.688 5.512 191.766
 c 6.246 191.938 7.027 192.516 8.34 193.516 c 8.105 193.5 7.34 193.406 6.574
 193.406 c 5.652 193.406 4.715 193.547 4.715 194.188 c 4.715 194.828 5.309
 195.031 5.59 195.031 c 5.684 195.031 5.777 195 5.824 194.969 c 5.824 194.891
 l 5.668 194.844 5.277 194.703 5.277 194.391 c 5.277 194.062 6.043 193.844
 6.824 193.844 c 7.949 193.859 8.402 193.906 8.762 193.938 c 9.121 194.203
 9.793 194.766 10.355 194.766 c 10.59 194.766 10.73 194.672 10.73 194.453
 c 10.73 193.766 9.277 193.609 8.762 193.578 c 8.387 193.219 6.637 191.641
 5.637 191.125 c 5.402 191 5.246 190.984 5.074 190.984 c h
5.074 190.984 m f
7.992 186.984 m 7.773 186.984 7.664 187.188 7.664 187.359 c 7.664 187.734
 8.164 188.219 8.727 188.609 c 8.664 188.609 8.57 188.641 8.57 188.641 c
 8.07 188.75 7.789 188.938 7.664 189.203 c 7.664 189.203 7.836 190.094 7.867
 190.219 c 8.086 190.219 l 8.055 190.016 8.039 189.906 8.039 189.828 c 8.039
 189.406 8.398 189.359 9.414 189.078 c 9.883 189.438 10.664 189.938 10.664
 190.141 c 10.664 190.328 10.492 190.328 10.492 190.562 c 10.492 190.766
 10.633 190.891 10.789 190.891 c 11.008 190.891 11.164 190.734 11.164 190.484
 c 11.164 189.969 10.32 189.453 9.727 189 c 9.914 188.938 10.352 188.828
 10.352 188.828 c 11.055 188.625 11.164 188.469 11.164 188.25 c 11.164 188.016
 10.945 187.641 10.242 187.234 c 10.133 187.422 l 10.32 187.562 10.664 187.766
 10.664 187.953 c 10.664 188.219 9.664 188.328 9.023 188.516 c 8.898 188.422
 8.195 187.969 8.195 187.703 c 8.195 187.547 8.32 187.422 8.32 187.297 c
 8.32 187.062 8.148 186.984 7.992 186.984 c h
7.992 186.984 m f
12.227 185.773 m 12.18 185.57 12.133 185.477 12.023 185.289 c 11.805 184.961
 11.492 184.727 10.945 184.727 c 10.414 184.727 10.18 184.977 10.18 185.305
 c 10.18 185.602 10.367 185.789 10.648 185.789 c 10.914 185.789 11.086 185.602
 11.086 185.352 c 11.086 185.273 11.07 185.195 11.023 185.117 c 11.008 185.086
 11.008 185.086 11.008 185.07 c 11.008 185.039 11.07 185.023 11.148 185.023
 c 11.227 185.023 11.727 185.023 12.008 185.773 c h
12.227 185.773 m f
6.602 183.98 m 6.633 183.402 6.711 183.324 7.227 183.324 c 10.32 183.324
 l 10.852 183.324 10.93 183.418 10.961 183.98 c 11.086 183.98 l 11.086 181.652
 l 11.086 181.121 10.945 180.621 10.695 180.355 c 10.477 180.105 10.164 
179.98 9.836 179.98 c 9.523 179.98 9.242 180.09 9.039 180.309 c 8.852 180.527
 8.773 180.715 8.664 181.168 c 8.57 180.809 8.508 180.652 8.352 180.496 
c 8.195 180.309 7.945 180.215 7.664 180.215 c 6.883 180.215 6.477 180.84
 6.477 182.043 c 6.477 183.98 l h
8.82 182.605 m 8.82 181.934 8.852 181.605 8.961 181.355 c 9.117 180.965
 9.414 180.777 9.836 180.777 c 10.211 180.777 10.492 180.918 10.648 181.199
 c 10.773 181.418 10.82 181.715 10.82 182.168 c 10.82 182.512 10.758 182.605
 10.539 182.605 c h
8.539 182.605 m 6.945 182.605 l 6.789 182.605 6.742 182.574 6.742 182.449
 c 6.727 182.152 l 6.711 181.371 7.07 180.918 7.68 180.918 c 8.242 180.918
 8.523 181.277 8.539 181.949 c h
8.539 182.605 m f
1.13366 w
q 1 0 0 -1 0 0 cm
30.902 -159.004 m 31.344 -159.211 l 31.75 -159.379 l 32.188 -159.578 l 
32.629 -159.746 l 33.031 -159.953 l 33.473 -160.156 l 33.879 -160.324 l 
34.316 -160.523 l 34.723 -160.73 l 35.164 -160.898 l 35.602 -161.102 l 36.008
 -161.273 l 36.449 -161.477 l 36.855 -161.676 l 37.293 -161.844 l 37.699
 -162.051 l 38.137 -162.254 l 38.578 -162.422 l 38.984 -162.621 l 39.422
 -162.828 l 39.828 -162.996 l 40.27 -163.199 l 40.676 -163.363 l 41.113 
-163.566 l 41.555 -163.773 l 41.961 -163.941 l 42.398 -164.148 l 42.805 
-164.352 l 43.246 -164.52 l 43.684 -164.719 l 44.09 -164.891 l 44.527 -165.094
 l 44.934 -165.297 l 45.375 -165.461 l 45.781 -165.664 l 46.219 -165.836
 l 46.66 -166.039 l 47.066 -166.238 l 47.504 -166.414 l 47.91 -166.613 l
 48.352 -166.816 l 48.754 -166.988 l 49.195 -167.191 l 49.633 -167.395 l
 50.039 -167.559 l 50.48 -167.762 l 50.887 -167.934 l 51.324 -168.137 l 
51.73 -168.336 l 52.172 -168.504 l 52.609 -168.711 l 53.016 -168.914 l 53.457
 -169.078 l 53.859 -169.281 l 54.301 -169.457 l 54.707 -169.656 l 55.145
 -169.859 l 55.586 -170.031 l 55.992 -170.234 l 56.43 -170.434 l 56.836 
-170.602 l 57.277 -170.809 l 57.715 -170.977 l 58.121 -171.176 l 58.562 
-171.379 l 58.965 -171.551 l 59.406 -171.754 l 59.812 -171.957 l 60.25 -172.121
 l 60.691 -172.328 l 61.098 -172.496 l 61.535 -172.699 l 61.941 -172.898
 l 62.383 -173.074 l 62.789 -173.273 l 63.227 -173.477 l 63.668 -173.648
 l 64.07 -173.852 l 64.512 -174.055 l 64.918 -174.219 l 65.355 -174.426 
l 65.762 -174.594 l 66.203 -174.797 l 66.641 -174.996 l 67.047 -175.164 
l 67.488 -175.371 l 67.895 -175.539 l 68.332 -175.738 l 68.738 -175.941 
l 69.176 -176.117 l 69.617 -176.316 l 70.023 -176.488 l 70.461 -176.691 
l 70.867 -176.895 l 71.309 -177.059 l 71.715 -177.262 l 72.152 -177.469 
l 72.594 -177.637 l 73 -177.836 l 73.438 -178.039 l 73.844 -178.211 l 74.281
 -178.414 l 74.723 -178.613 l 75.129 -178.781 l 75.566 -178.988 l 75.973
 -179.156 l 76.414 -179.359 l 76.82 -179.566 l 77.258 -179.734 l 77.699 
-179.934 l 78.105 -180.102 l 78.543 -180.309 l 78.949 -180.512 l 79.387 
-180.68 l 79.793 -180.879 l 80.234 -181.086 l 80.672 -181.254 l 81.078 -181.457
 l 81.52 -181.629 l 81.926 -181.832 l 82.363 -182.031 l 82.77 -182.199 l
 83.211 -182.406 l 83.648 -182.609 l 84.055 -182.773 l 84.492 -182.977 l
 84.898 -183.148 l 85.34 -183.352 l 85.746 -183.555 l 86.184 -183.719 l 
86.625 -183.922 l 87.031 -184.129 l 87.469 -184.297 l 87.875 -184.496 l 
88.316 -184.699 l 88.754 -184.871 l 89.16 -185.074 l 89.602 -185.246 l 90.004
 -185.449 l 90.445 -185.652 l 90.852 -185.816 l 91.289 -186.02 l 91.73 -186.191
 l 92.137 -186.395 l 92.574 -186.594 l 92.98 -186.762 l 93.422 -186.969 
l 93.824 -187.172 l 94.266 -187.336 l 94.707 -187.539 l S Q
0.567041 w
q 1 0 0 -1 0 0 cm
30.902 -159.004 m 33.48 -159.004 l 36.059 -159.004 m 38.633 -159.004 l 
41.211 -159.004 m 43.789 -159.004 l 46.367 -159.004 m 48.945 -159.004 l 
51.523 -159.004 m 54.098 -159.004 l 56.676 -159.004 m 59.254 -159.004 l 
61.832 -159.004 m 64.41 -159.004 l 66.988 -159.004 m 69.566 -159.004 l 72.141
 -159.004 m 74.719 -159.004 l 77.297 -159.004 m 79.875 -159.004 l 82.453
 -159.004 m 85.031 -159.004 l 87.605 -159.004 m 90.184 -159.004 l 92.762
 -159.004 m 95.34 -159.004 l 97.918 -159.004 m 100.496 -159.004 l 103.07
 -159.004 m 105.648 -159.004 l 108.227 -159.004 m 110.805 -159.004 l 113.383
 -159.004 m 115.961 -159.004 l S Q
71.137 262.441 m 70.48 262.879 70.215 263.098 69.871 263.52 c 69.246 264.301
 68.934 265.191 68.934 266.238 c 68.934 267.395 69.262 268.27 70.043 269.176
 c 70.418 269.613 70.652 269.801 71.121 270.098 c 71.215 269.941 l 70.512
 269.379 70.262 269.066 70.012 268.395 c 69.793 267.801 69.699 267.129 69.699
 266.223 c 69.699 265.27 69.809 264.535 70.059 263.988 c 70.309 263.426 
70.574 263.098 71.215 262.582 c h
71.137 262.441 m f
75.059 267.098 m 74.637 267.738 74.309 267.941 73.809 267.941 c 72.98 267.941
 72.418 267.223 72.418 266.191 c 72.418 265.27 72.902 264.645 73.637 264.645
 c 73.949 264.645 74.074 264.723 74.152 265.066 c 74.215 265.27 l 74.293
 265.52 74.449 265.676 74.637 265.676 c 74.871 265.676 75.059 265.504 75.059
 265.301 c 75.059 264.801 74.434 264.379 73.684 264.379 c 73.246 264.379
 72.793 264.551 72.418 264.879 c 71.965 265.27 71.715 265.879 71.715 266.598
 c 71.715 267.754 72.434 268.598 73.418 268.598 c 73.824 268.598 74.184 
268.457 74.512 268.176 c 74.746 267.973 74.918 267.707 75.184 267.191 c 
h
75.059 267.098 m f
75.801 270.098 m 76.457 269.645 76.738 269.426 77.066 269.02 c 77.707 268.238
 78.02 267.332 78.02 266.285 c 78.02 265.145 77.676 264.27 76.895 263.363
 c 76.52 262.926 76.285 262.723 75.832 262.441 c 75.723 262.582 l 76.441
 263.145 76.676 263.457 76.926 264.129 c 77.145 264.738 77.238 265.41 77.238
 266.316 c 77.238 267.254 77.129 267.988 76.879 268.535 c 76.645 269.098
 76.363 269.426 75.723 269.941 c h
75.801 270.098 m f
0.567042 w
q 1 0 0 -1 0 0 cm
186.828 -144.828 85.02 -85.047 re S Q
0.398505 w
q 1 0 0 -1 0 0 cm
186.836 -229.852 m 186.836 -225.605 l S Q
q 1 0 0 -1 0 0 cm
229.359 -229.852 m 229.359 -225.605 l S Q
q 1 0 0 -1 0 0 cm
271.879 -229.852 m 271.879 -225.605 l S Q
q 1 0 0 -1 0 0 cm
186.836 -229.852 m 186.836 -225.605 l S Q
0.398508 w
q 1 0 0 -1 0 0 cm
186.832 -229.859 m 191.07 -229.859 l S Q
0.398507 w
q 1 0 0 -1 0 0 cm
186.812 -194.422 m 191.082 -194.422 l S Q
0.398505 w
q 1 0 0 -1 0 0 cm
186.809 -159.004 m 191.066 -159.004 l S Q
0.398508 w
q 1 0 0 -1 0 0 cm
186.832 -229.859 m 191.07 -229.859 l S Q
0.398506 w
q 1 0 0 -1 0 0 cm
186.828 -144.828 m 186.828 -149.059 l S Q
q 1 0 0 -1 0 0 cm
229.34 -144.828 m 229.34 -149.059 l S Q
q 1 0 0 -1 0 0 cm
271.848 -144.828 m 271.848 -149.059 l S Q
q 1 0 0 -1 0 0 cm
186.828 -144.828 m 186.828 -149.059 l S Q
0.398508 w
q 1 0 0 -1 0 0 cm
271.875 -229.859 m 267.602 -229.859 l S Q
0.398507 w
q 1 0 0 -1 0 0 cm
271.875 -194.422 m 267.609 -194.422 l S Q
0.398505 w
q 1 0 0 -1 0 0 cm
271.844 -159.004 m 267.617 -159.004 l S Q
0.398508 w
q 1 0 0 -1 0 0 cm
271.875 -229.859 m 267.602 -229.859 l S Q
188.781 236.391 m 188.781 234.781 188.047 233.328 186.797 233.328 c 185.531
 233.328 184.797 234.781 184.797 236.391 c 184.797 238.016 185.484 239.453
 186.797 239.453 c 188 239.453 188.781 238.016 188.781 236.391 c h
187.922 236.391 m 187.922 237.688 187.797 239.203 186.797 239.203 c 185.844
 239.203 185.656 237.688 185.656 236.391 c 185.656 235.312 185.781 233.562
 186.797 233.562 c 187.797 233.562 187.922 235.312 187.922 236.391 c h
187.922 236.391 m f
227.902 236.391 m 227.902 234.781 227.168 233.328 225.918 233.328 c 224.652
 233.328 223.918 234.781 223.918 236.391 c 223.918 238.016 224.605 239.453
 225.918 239.453 c 227.121 239.453 227.902 238.016 227.902 236.391 c h
227.043 236.391 m 227.043 237.688 226.918 239.203 225.918 239.203 c 224.965
 239.203 224.777 237.688 224.777 236.391 c 224.777 235.312 224.902 233.562
 225.918 233.562 c 226.918 233.562 227.043 235.312 227.043 236.391 c h
227.043 236.391 m f
229.824 238.969 m 229.824 238.688 229.605 238.469 229.324 238.469 c 229.043
 238.469 228.824 238.688 228.824 238.969 c 228.824 239.25 229.043 239.469
 229.324 239.469 c 229.605 239.469 229.824 239.25 229.824 238.969 c h
229.824 238.969 m f
234.68 233.422 m 232.211 233.422 l 231.102 235.969 l 231.242 235.938 231.383
 235.906 231.555 235.906 c 232.508 235.906 233.805 236.406 233.805 237.578
 c 233.805 238.484 233.148 239.062 232.523 239.062 c 231.977 239.062 231.773
 238.562 231.258 238.562 c 231.008 238.562 230.93 238.781 230.93 238.891
 c 230.93 239.203 231.367 239.453 231.992 239.453 c 233.336 239.453 234.398
 238.469 234.398 237.266 c 234.398 235.844 233.273 235.359 232.055 235.328
 c 231.945 235.328 231.82 235.344 231.711 235.359 c 232.273 234.094 l 234.367
 234.078 l h
234.68 233.422 m f
269.633 239.344 m 269.633 239.203 l 269.039 239.203 268.82 239.219 268.82
 238.047 c 268.82 238.031 268.82 233.297 268.82 233.297 c 268.695 233.297
 l 267.164 234.031 l 267.211 234.172 l 267.539 234.031 267.617 234 267.742
 234 c 268.008 234 268.055 234.234 268.055 234.547 c 268.055 238.047 l 268.055
 239.219 267.836 239.188 267.242 239.203 c 267.242 239.344 l h
269.633 239.344 m f
272.305 238.969 m 272.305 238.688 272.086 238.469 271.805 238.469 c 271.523
 238.469 271.305 238.688 271.305 238.969 c 271.305 239.25 271.523 239.469
 271.805 239.469 c 272.086 239.469 272.305 239.25 272.305 238.969 c h
272.305 238.969 m f
277.223 236.391 m 277.223 234.781 276.488 233.328 275.238 233.328 c 273.973
 233.328 273.238 234.781 273.238 236.391 c 273.238 238.016 273.926 239.453
 275.238 239.453 c 276.441 239.453 277.223 238.016 277.223 236.391 c h
276.363 236.391 m 276.363 237.688 276.238 239.203 275.238 239.203 c 274.285
 239.203 274.098 237.688 274.098 236.391 c 274.098 235.312 274.223 233.562
 275.238 233.562 c 276.238 233.562 276.363 235.312 276.363 236.391 c h
276.363 236.391 m f
183.141 229.91 m 183.141 228.301 182.406 226.848 181.156 226.848 c 179.891
 226.848 179.156 228.301 179.156 229.91 c 179.156 231.535 179.844 232.973
 181.156 232.973 c 182.359 232.973 183.141 231.535 183.141 229.91 c h
182.281 229.91 m 182.281 231.207 182.156 232.723 181.156 232.723 c 180.203
 232.723 180.016 231.207 180.016 229.91 c 180.016 228.832 180.141 227.082
 181.156 227.082 c 182.156 227.082 182.281 228.832 182.281 229.91 c h
182.281 229.91 m f
176.301 194.512 m 176.301 192.902 175.566 191.449 174.316 191.449 c 173.051
 191.449 172.316 192.902 172.316 194.512 c 172.316 196.137 173.004 197.574
 174.316 197.574 c 175.52 197.574 176.301 196.137 176.301 194.512 c h
175.441 194.512 m 175.441 195.809 175.316 197.324 174.316 197.324 c 173.363
 197.324 173.176 195.809 173.176 194.512 c 173.176 193.434 173.301 191.684
 174.316 191.684 c 175.316 191.684 175.441 193.434 175.441 194.512 c h
175.441 194.512 m f
178.227 197.09 m 178.227 196.809 178.008 196.59 177.727 196.59 c 177.445
 196.59 177.227 196.809 177.227 197.09 c 177.227 197.371 177.445 197.59 
177.727 197.59 c 178.008 197.59 178.227 197.371 178.227 197.09 c h
178.227 197.09 m f
183.078 191.543 m 180.609 191.543 l 179.5 194.09 l 179.641 194.059 179.781
 194.027 179.953 194.027 c 180.906 194.027 182.203 194.527 182.203 195.699
 c 182.203 196.605 181.547 197.184 180.922 197.184 c 180.375 197.184 180.172
 196.684 179.656 196.684 c 179.406 196.684 179.328 196.902 179.328 197.012
 c 179.328 197.324 179.766 197.574 180.391 197.574 c 181.734 197.574 182.797
 196.59 182.797 195.387 c 182.797 193.965 181.672 193.48 180.453 193.449
 c 180.344 193.449 180.219 193.465 180.109 193.48 c 180.672 192.215 l 182.766
 192.199 l h
183.078 191.543 m f
175.551 161.945 m 175.551 161.805 l 174.957 161.805 174.738 161.82 174.738
 160.648 c 174.738 160.633 174.738 155.898 174.738 155.898 c 174.613 155.898
 l 173.082 156.633 l 173.129 156.773 l 173.457 156.633 173.535 156.602 173.66
 156.602 c 173.926 156.602 173.973 156.836 173.973 157.148 c 173.973 160.648
 l 173.973 161.82 173.754 161.789 173.16 161.805 c 173.16 161.945 l h
175.551 161.945 m f
178.227 161.57 m 178.227 161.289 178.008 161.07 177.727 161.07 c 177.445
 161.07 177.227 161.289 177.227 161.57 c 177.227 161.852 177.445 162.07 
177.727 162.07 c 178.008 162.07 178.227 161.852 178.227 161.57 c h
178.227 161.57 m f
183.141 158.992 m 183.141 157.383 182.406 155.93 181.156 155.93 c 179.891
 155.93 179.156 157.383 179.156 158.992 c 179.156 160.617 179.844 162.055
 181.156 162.055 c 182.359 162.055 183.141 160.617 183.141 158.992 c h
182.281 158.992 m 182.281 160.289 182.156 161.805 181.156 161.805 c 180.203
 161.805 180.016 160.289 180.016 158.992 c 180.016 157.914 180.141 156.164
 181.156 156.164 c 182.156 156.164 182.281 157.914 182.281 158.992 c h
182.281 158.992 m f
210.168 251.863 m 210.043 251.77 l 209.855 252.004 209.527 252.441 209.34
 252.441 c 209.262 252.441 209.215 252.395 209.215 252.285 c 209.215 252.191
 209.293 251.973 209.34 251.801 c 209.34 251.801 209.871 249.848 209.871
 249.801 c 209.934 249.613 209.965 249.426 209.965 249.301 c 209.965 248.848
 209.684 248.691 209.465 248.691 c 208.73 248.691 207.902 249.66 207.324
 250.691 c 207.324 250.691 207.652 249.645 207.652 249.285 c 207.652 249.051
 207.559 248.691 207.137 248.691 c 206.309 248.691 205.277 250.285 205.059
 250.691 c 205.59 248.691 l 205.59 248.691 204.371 248.926 204.105 248.941
 c 204.105 249.098 l 204.434 249.098 204.699 249.066 204.699 249.426 c 204.699
 249.598 204.621 249.879 204.543 250.16 c 204.543 250.16 203.824 252.551
 203.777 252.785 c 204.465 252.785 l 204.621 252.191 l 205.137 250.254 206.387
 249.191 206.73 249.191 c 206.871 249.191 206.965 249.238 206.965 249.441
 c 206.965 249.582 206.855 249.988 206.793 250.254 c 206.793 250.254 206.168
 252.473 206.09 252.785 c 206.762 252.785 l 206.918 252.191 l 207.465 250.176
 208.684 249.191 209.043 249.191 c 209.168 249.191 209.262 249.285 209.262
 249.426 c 209.262 249.52 209.168 249.926 209.074 250.254 c 208.715 251.598
 l 208.621 251.926 208.543 252.332 208.543 252.473 c 208.543 252.707 208.668
 252.895 208.871 252.895 c 209.324 252.895 209.809 252.379 210.168 251.863
 c h
210.168 251.863 m f
210.992 250.578 m 211.57 250.609 211.648 250.688 211.648 251.203 c 211.648
 254.297 l 211.648 254.828 211.555 254.906 210.992 254.938 c 210.992 255.062
 l 213.32 255.062 l 213.852 255.062 214.352 254.922 214.617 254.672 c 214.867
 254.453 214.992 254.141 214.992 253.812 c 214.992 253.5 214.883 253.219
 214.664 253.016 c 214.445 252.828 214.258 252.75 213.805 252.641 c 214.164
 252.547 214.32 252.484 214.477 252.328 c 214.664 252.172 214.758 251.922
 214.758 251.641 c 214.758 250.859 214.133 250.453 212.93 250.453 c 210.992
 250.453 l h
212.367 252.797 m 213.039 252.797 213.367 252.828 213.617 252.938 c 214.008
 253.094 214.195 253.391 214.195 253.812 c 214.195 254.188 214.055 254.469
 213.773 254.625 c 213.555 254.75 213.258 254.797 212.805 254.797 c 212.461
 254.797 212.367 254.734 212.367 254.516 c h
212.367 252.516 m 212.367 250.922 l 212.367 250.766 212.398 250.719 212.523
 250.719 c 212.82 250.703 l 213.602 250.688 214.055 251.047 214.055 251.656
 c 214.055 252.219 213.695 252.5 213.023 252.516 c h
212.367 252.516 m f
219.934 246.348 m 219.496 246.348 l 216.387 254.707 l 216.84 254.707 l 
h
219.934 246.348 m f
220.609 252.785 m 222.609 252.785 l 222.609 252.645 l 222.141 252.645 222
 252.551 222 252.191 c 222 249.66 l 222 249.645 222.062 249.551 222.125 
249.488 c 222.359 249.285 222.734 249.129 223.047 249.129 c 223.453 249.129
 223.641 249.441 223.641 250.066 c 223.641 252.02 l 223.625 252.52 223.531
 252.629 223.031 252.645 c 223.031 252.785 l 225.047 252.785 l 225.047 252.645
 l 224.547 252.645 224.422 252.504 224.391 251.926 c 224.391 249.676 l 224.672
 249.285 224.953 249.129 225.375 249.129 c 225.891 249.129 226.047 249.363
 226.047 250.113 c 226.047 252.004 l 226.031 252.535 225.969 252.598 225.453
 252.645 c 225.453 252.785 l 227.422 252.785 l 227.422 252.645 l 227.188
 252.629 l 226.906 252.582 226.797 252.457 226.797 252.098 c 226.797 250.254
 l 226.797 249.191 226.453 248.66 225.766 248.66 c 225.234 248.66 224.781
 248.895 224.297 249.41 c 224.141 248.895 223.828 248.66 223.344 248.66 
c 222.938 248.66 222.703 248.77 221.953 249.348 c 221.953 248.676 l 221.891
 248.66 l 221.422 248.832 221.109 248.926 220.641 249.066 c 220.641 249.223
 l 220.75 249.191 220.828 249.176 220.922 249.176 c 221.156 249.176 221.234
 249.316 221.234 249.754 c 221.234 252.02 l 221.219 252.52 221.109 252.645
 220.609 252.645 c h
220.609 252.785 m f
229.676 248.66 m 228.488 248.66 227.691 249.52 227.691 250.754 c 227.691
 251.973 228.52 252.879 229.645 252.879 c 230.785 252.879 231.645 251.926
 231.645 250.691 c 231.645 249.504 230.816 248.66 229.676 248.66 c h
229.551 248.91 m 230.301 248.91 230.832 249.77 230.832 251.004 c 230.832
 252.02 230.426 252.629 229.754 252.629 c 229.41 252.629 229.082 252.41 
228.895 252.051 c 228.629 251.582 228.488 250.957 228.488 250.316 c 228.488
 249.473 228.91 248.91 229.551 248.91 c h
229.551 248.91 m f
232.055 252.785 m 234.18 252.785 l 234.18 252.645 l 233.602 252.629 233.508
 252.535 233.492 252.035 c 233.492 246.676 l 233.461 246.66 l 233.008 246.801
 232.68 246.895 232.039 247.051 c 232.039 247.191 l 232.086 247.191 l 232.195
 247.191 232.305 247.176 232.367 247.176 c 232.664 247.176 232.742 247.301
 232.742 247.723 c 232.742 252.004 l 232.742 252.488 232.617 252.613 232.055
 252.645 c h
232.055 252.785 m f
236.012 252.785 m 238.105 252.785 l 238.105 252.645 l 237.934 252.645 l
 237.559 252.613 237.449 252.52 237.434 252.191 c 237.434 250.535 l 238.699
 252.207 l 238.73 252.254 238.762 252.301 238.777 252.332 c 238.855 252.41
 238.887 252.473 238.887 252.52 c 238.887 252.598 238.809 252.645 238.699
 252.645 c 238.527 252.645 l 238.527 252.785 l 240.48 252.785 l 240.48 252.645
 l 240.09 252.629 239.809 252.457 239.434 251.988 c 238.059 250.254 l 238.324
 250.02 l 239.434 249.004 239.684 248.863 240.262 248.879 c 240.262 248.754
 l 238.418 248.754 l 238.418 248.879 l 238.777 248.879 238.871 248.926 238.871
 249.035 c 238.871 249.113 238.793 249.238 238.668 249.348 c 237.434 250.441
 l 237.434 246.676 l 237.402 246.66 l 237.059 246.77 236.793 246.848 236.277
 246.988 c 236.012 247.051 l 236.012 247.191 l 236.121 247.191 236.215 247.176
 236.293 247.176 c 236.605 247.176 236.684 247.301 236.684 247.723 c 236.684
 252.051 l 236.668 252.52 236.652 252.551 236.012 252.645 c h
236.012 252.785 m f
244.605 249.301 m 244.605 248.957 l 243.918 248.957 l 243.73 248.957 243.59
 248.926 243.418 248.863 c 243.215 248.801 l 242.98 248.707 242.73 248.66
 242.496 248.66 c 241.668 248.66 241.012 249.301 241.012 250.129 c 241.012
 250.691 241.246 251.02 241.84 251.316 c 241.605 251.535 l 241.418 251.723
 241.309 251.816 241.277 251.848 c 241.09 252.051 241.043 252.145 241.043
 252.301 c 241.043 252.504 241.137 252.598 241.512 252.77 c 240.871 253.238
 240.637 253.535 240.637 253.863 c 240.637 254.348 241.324 254.738 242.184
 254.738 c 242.855 254.738 243.559 254.504 244.027 254.129 c 244.371 253.848
 244.527 253.566 244.527 253.223 c 244.527 252.676 244.105 252.301 243.434
 252.27 c 242.277 252.207 l 241.793 252.191 241.574 252.113 241.574 251.973
 c 241.574 251.785 241.871 251.473 242.121 251.41 c 242.434 251.426 242.605
 251.441 242.637 251.441 c 242.965 251.441 243.324 251.316 243.59 251.066
 c 243.887 250.816 244.027 250.504 244.027 250.066 c 244.027 249.801 243.98
 249.598 243.855 249.301 c h
241.699 252.801 m 242.012 252.863 242.715 252.926 243.168 252.926 c 243.98
 252.926 244.277 253.035 244.277 253.363 c 244.277 253.879 243.59 254.223
 242.574 254.223 c 241.777 254.223 241.262 253.973 241.262 253.582 c 241.262
 253.363 241.34 253.238 241.699 252.801 c h
241.746 249.754 m 241.746 249.223 241.996 248.91 242.418 248.91 c 242.699
 248.91 242.918 249.066 243.074 249.332 c 243.246 249.645 243.34 250.051
 243.34 250.41 c 243.34 250.91 243.09 251.223 242.668 251.223 c 242.121 
251.223 241.746 250.645 241.746 249.785 c h
241.746 249.754 m f
245.25 247.309 4.703 0.438 re f
253.504 249.543 m 253.504 249.355 l 252.973 249.355 252.801 249.355 252.801
 248.512 c 252.801 248.496 252.801 244.84 252.801 244.84 c 252.629 244.84
 l 251.285 245.418 l 251.363 245.605 l 251.676 245.48 251.738 245.465 251.832
 245.465 c 252.035 245.465 252.051 245.637 252.051 245.84 c 252.051 248.512
 l 252.051 249.355 251.895 249.34 251.363 249.355 c 251.363 249.543 l h
253.504 249.543 m f
160.984 191.824 m 160.75 191.824 160.625 192.012 160.625 192.184 c 160.625
 192.293 160.672 192.402 160.781 192.48 c 160.953 192.574 161.125 192.527
 161.422 192.605 c 162.156 192.777 162.938 193.355 164.25 194.355 c 164.016
 194.34 163.25 194.246 162.484 194.246 c 161.562 194.246 160.625 194.387
 160.625 195.027 c 160.625 195.668 161.219 195.871 161.5 195.871 c 161.594
 195.871 161.688 195.84 161.734 195.809 c 161.734 195.73 l 161.578 195.684
 161.188 195.543 161.188 195.23 c 161.188 194.902 161.953 194.684 162.734
 194.684 c 163.859 194.699 164.312 194.746 164.672 194.777 c 165.031 195.043
 165.703 195.605 166.266 195.605 c 166.5 195.605 166.641 195.512 166.641
 195.293 c 166.641 194.605 165.188 194.449 164.672 194.418 c 164.297 194.059
 162.547 192.48 161.547 191.965 c 161.312 191.84 161.156 191.824 160.984
 191.824 c h
160.984 191.824 m f
166.199 186.215 m 166.043 186.371 l 166.277 186.559 166.605 186.824 166.605
 186.98 c 166.605 187.012 166.59 187.027 166.543 187.027 c 166.465 187.027
 166.293 186.965 166.152 186.934 c 166.152 186.934 164.59 186.48 164.543
 186.48 c 164.387 186.418 164.23 186.387 164.121 186.387 c 163.715 186.387
 163.59 186.668 163.59 186.871 c 163.59 187.434 164.199 188.059 164.934 
188.543 c 164.652 188.465 164.293 188.371 164.121 188.371 c 163.902 188.371
 163.59 188.465 163.59 188.855 c 163.59 189.449 164.465 190.168 164.965 
190.496 c 163.574 190.105 l 163.574 190.105 163.777 191.23 163.793 191.48
 c 164.012 191.48 l 164.012 191.184 163.965 190.98 164.215 190.98 c 164.371
 190.98 164.59 191.043 164.809 191.121 c 164.809 191.121 166.746 191.715
 166.996 191.777 c 166.996 191.105 l 166.48 190.965 l 164.934 190.527 164.09
 189.496 164.09 189.199 c 164.09 189.105 164.105 189.043 164.23 189.043 
c 164.355 189.043 164.684 189.121 164.887 189.199 c 164.887 189.199 166.684
 189.715 166.996 189.809 c 166.996 189.137 l 166.48 188.996 l 164.871 188.543
 164.09 187.512 164.09 187.23 c 164.09 187.137 164.137 187.09 164.215 187.09
 c 164.309 187.09 164.621 187.168 164.887 187.246 c 165.965 187.559 l 166.246
 187.637 166.574 187.699 166.684 187.699 c 166.902 187.699 167.074 187.574
 167.074 187.371 c 167.074 186.965 166.652 186.543 166.199 186.215 c h
166.199 186.215 m f
168.137 184.934 m 168.09 184.73 168.043 184.637 167.934 184.449 c 167.715
 184.121 167.402 183.887 166.855 183.887 c 166.324 183.887 166.09 184.137
 166.09 184.465 c 166.09 184.762 166.277 184.949 166.559 184.949 c 166.824
 184.949 166.996 184.762 166.996 184.512 c 166.996 184.434 166.98 184.355
 166.934 184.277 c 166.918 184.246 166.918 184.246 166.918 184.23 c 166.918
 184.199 166.98 184.184 167.059 184.184 c 167.137 184.184 167.637 184.184
 167.918 184.934 c h
168.137 184.934 m f
162.512 183.137 m 162.543 182.559 162.621 182.48 163.137 182.48 c 166.23
 182.48 l 166.762 182.48 166.84 182.574 166.871 183.137 c 166.996 183.137
 l 166.996 180.809 l 166.996 180.277 166.855 179.777 166.605 179.512 c 166.387
 179.262 166.074 179.137 165.746 179.137 c 165.434 179.137 165.152 179.246
 164.949 179.465 c 164.762 179.684 164.684 179.871 164.574 180.324 c 164.48
 179.965 164.418 179.809 164.262 179.652 c 164.105 179.465 163.855 179.371
 163.574 179.371 c 162.793 179.371 162.387 179.996 162.387 181.199 c 162.387
 183.137 l h
164.73 181.762 m 164.73 181.09 164.762 180.762 164.871 180.512 c 165.027
 180.121 165.324 179.934 165.746 179.934 c 166.121 179.934 166.402 180.074
 166.559 180.355 c 166.684 180.574 166.73 180.871 166.73 181.324 c 166.73
 181.668 166.668 181.762 166.449 181.762 c h
164.449 181.762 m 162.855 181.762 l 162.699 181.762 162.652 181.73 162.652
 181.605 c 162.637 181.309 l 162.621 180.527 162.98 180.074 163.59 180.074
 c 164.152 180.074 164.434 180.434 164.449 181.105 c h
164.449 181.762 m f
1.13366 w
q 1 0 0 -1 0 0 cm
186.809 -159.004 m 188.227 -159.613 l 188.699 -159.781 l 189.176 -159.988
 l 190.594 -160.594 l 191.066 -160.766 l 191.539 -160.969 l 192.016 -161.172
 l 193.434 -161.781 l 193.906 -161.949 l 194.383 -162.148 l 196.273 -162.961
 l 196.746 -163.129 l 197.223 -163.336 l 198.168 -163.738 l 198.641 -163.906
 l 199.113 -164.113 l 199.59 -164.316 l 201.008 -164.926 l 201.48 -165.094
 l 201.953 -165.297 l 202.461 -165.496 l 202.934 -165.699 l 203.41 -165.906
 l 203.883 -166.074 l 205.301 -166.684 l 205.777 -166.852 l 208.141 -167.863
 l 208.617 -168.031 l 209.09 -168.238 l 209.598 -168.441 l 210.07 -168.645
 l 210.543 -168.809 l 211.488 -169.219 l 211.965 -169.422 l 212.438 -169.621
 l 212.91 -169.789 l 213.383 -169.996 l 213.891 -170.199 l 214.363 -170.398
 l 214.836 -170.566 l 215.309 -170.773 l 215.785 -170.977 l 216.258 -171.176
 l 216.73 -171.344 l 217.203 -171.551 l 217.711 -171.754 l 218.184 -171.957
 l 218.656 -172.121 l 219.133 -172.328 l 220.078 -172.734 l 220.586 -172.898
 l 222.004 -173.512 l 222.477 -173.676 l 222.953 -173.879 l 223.457 -174.086
 l 223.934 -174.289 l 224.406 -174.488 l 224.879 -174.656 l 225.824 -175.066
 l 226.332 -175.234 l 226.805 -175.441 l 227.281 -175.645 l 227.754 -175.844
 l 228.262 -176.012 l 229.68 -176.621 l 230.152 -176.789 l 230.66 -176.996
 l 231.133 -177.199 l 231.609 -177.367 l 232.555 -177.773 l 233.062 -177.977
 l 233.535 -178.18 l 234.008 -178.344 l 234.48 -178.547 l 234.988 -178.754
 l 235.461 -178.922 l 235.934 -179.121 l 236.441 -179.324 l 236.914 -179.531
 l 237.391 -179.699 l 238.336 -180.102 l 238.844 -180.273 l 239.789 -180.68
 l 240.297 -180.879 l 240.77 -181.051 l 241.242 -181.254 l 241.75 -181.457
 l 242.223 -181.629 l 242.699 -181.832 l 243.172 -182.031 l 243.68 -182.199
 l 244.625 -182.609 l 245.133 -182.809 l 245.605 -182.977 l 246.551 -183.387
 l 247.059 -183.555 l 247.531 -183.754 l 248.008 -183.961 l 248.512 -184.129
 l 248.988 -184.332 l 249.461 -184.531 l 249.969 -184.699 l 250.914 -185.109
 l 251.422 -185.309 l 251.895 -185.477 l 252.367 -185.684 l 252.875 -185.887
 l 253.348 -186.055 l 253.855 -186.254 l 254.328 -186.461 l 254.801 -186.629
 l 255.309 -186.832 l 255.781 -187.031 l 256.258 -187.207 l 256.762 -187.406
 l 257.238 -187.609 l 257.742 -187.781 l 258.219 -187.984 l 258.691 -188.184
 l S Q
0.567041 w
q 1 0 0 -1 0 0 cm
186.809 -159.004 m 189.387 -159.004 l 191.961 -159.004 m 194.539 -159.004
 l 197.117 -159.004 m 199.691 -159.004 l 202.27 -159.004 m 204.848 -159.004
 l 207.422 -159.004 m 210 -159.004 l 212.578 -159.004 m 215.156 -159.004
 l 217.73 -159.004 m 220.309 -159.004 l 222.887 -159.004 m 225.461 -159.004
 l 228.039 -159.004 m 230.617 -159.004 l 233.191 -159.004 m 235.77 -159.004
 l 238.348 -159.004 m 240.922 -159.004 l 243.5 -159.004 m 246.078 -159.004
 l 248.656 -159.004 m 251.23 -159.004 l 253.809 -159.004 m 256.387 -159.004
 l 258.961 -159.004 m 261.539 -159.004 l 264.117 -159.004 m 266.695 -159.004
 l 269.27 -159.004 m 271.844 -159.004 l S Q
235.207 262.441 m 234.551 262.879 234.285 263.098 233.941 263.52 c 233.316
 264.301 233.004 265.191 233.004 266.238 c 233.004 267.395 233.332 268.27
 234.113 269.176 c 234.488 269.613 234.723 269.801 235.191 270.098 c 235.285
 269.941 l 234.582 269.379 234.332 269.066 234.082 268.395 c 233.863 267.801
 233.77 267.129 233.77 266.223 c 233.77 265.27 233.879 264.535 234.129 263.988
 c 234.379 263.426 234.645 263.098 235.285 262.582 c h
235.207 262.441 m f
239.973 267.988 m 239.848 267.988 239.801 267.988 239.77 267.988 c 239.457
 267.988 239.363 267.895 239.363 267.488 c 239.363 262.395 l 239.332 262.379
 l 238.91 262.52 238.598 262.613 238.004 262.77 c 238.004 262.91 l 238.082
 262.91 238.129 262.91 238.207 262.91 c 238.535 262.91 238.613 263.004 238.613
 263.363 c 238.613 264.77 l 238.27 264.473 238.035 264.379 237.676 264.379
 c 236.645 264.379 235.801 265.395 235.801 266.66 c 235.801 267.816 236.473
 268.598 237.473 268.598 c 237.973 268.598 238.316 268.41 238.613 267.988
 c 238.613 268.566 l 238.645 268.598 l 239.973 268.129 l h
238.613 267.582 m 238.613 267.645 238.551 267.754 238.457 267.863 c 238.316
 268.035 238.082 268.129 237.816 268.129 c 237.066 268.129 236.582 267.41
 236.582 266.301 c 236.582 265.301 237.02 264.629 237.707 264.629 c 238.191
 264.629 238.613 265.051 238.613 265.52 c h
238.613 267.582 m f
240.352 270.098 m 241.008 269.645 241.289 269.426 241.617 269.02 c 242.258
 268.238 242.57 267.332 242.57 266.285 c 242.57 265.145 242.227 264.27 241.445
 263.363 c 241.07 262.926 240.836 262.723 240.383 262.441 c 240.273 262.582
 l 240.992 263.145 241.227 263.457 241.477 264.129 c 241.695 264.738 241.789
 265.41 241.789 266.316 c 241.789 267.254 241.68 267.988 241.43 268.535 
c 241.195 269.098 240.914 269.426 240.273 269.941 c h
240.352 270.098 m f
Q Q
showpage
%%Trailer
end
%%EOF
