%!PS-Adobe-3.0 EPSF-3.0
%%Creator: cairo 1.17.4 (https://cairographics.org)
%%CreationDate: Thu Feb 24 10:48:30 2022
%%Pages: 1
%%DocumentData: Clean7Bit
%%LanguageLevel: 2
%%BoundingBox: 0 0 185 167
%%EndComments
%%BeginProlog
50 dict begin
/q { gsave } bind def
/Q { grestore } bind def
/cm { 6 array astore concat } bind def
/w { setlinewidth } bind def
/J { setlinecap } bind def
/j { setlinejoin } bind def
/M { setmiterlimit } bind def
/d { setdash } bind def
/m { moveto } bind def
/l { lineto } bind def
/c { curveto } bind def
/h { closepath } bind def
/re { exch dup neg 3 1 roll 5 3 roll moveto 0 rlineto
      0 exch rlineto 0 rlineto closepath } bind def
/S { stroke } bind def
/f { fill } bind def
/f* { eofill } bind def
/n { newpath } bind def
/W { clip } bind def
/W* { eoclip } bind def
/BT { } bind def
/ET { } bind def
/BDC { mark 3 1 roll /BDC pdfmark } bind def
/EMC { mark /EMC pdfmark } bind def
/cairo_store_point { /cairo_point_y exch def /cairo_point_x exch def } def
/Tj { show currentpoint cairo_store_point } bind def
/TJ {
  {
    dup
    type /stringtype eq
    { show } { -0.001 mul 0 cairo_font_matrix dtransform rmoveto } ifelse
  } forall
  currentpoint cairo_store_point
} bind def
/cairo_selectfont { cairo_font_matrix aload pop pop pop 0 0 6 array astore
    cairo_font exch selectfont cairo_point_x cairo_point_y moveto } bind def
/Tf { pop /cairo_font exch def /cairo_font_matrix where
      { pop cairo_selectfont } if } bind def
/Td { matrix translate cairo_font_matrix matrix concatmatrix dup
      /cairo_font_matrix exch def dup 4 get exch 5 get cairo_store_point
      /cairo_font where { pop cairo_selectfont } if } bind def
/Tm { 2 copy 8 2 roll 6 array astore /cairo_font_matrix exch def
      cairo_store_point /cairo_font where { pop cairo_selectfont } if } bind def
/g { setgray } bind def
/rg { setrgbcolor } bind def
/d1 { setcachedevice } bind def
/cairo_data_source {
  CairoDataIndex CairoData length lt
    { CairoData CairoDataIndex get /CairoDataIndex CairoDataIndex 1 add def }
    { () } ifelse
} def
/cairo_flush_ascii85_file { cairo_ascii85_file status { cairo_ascii85_file flushfile } if } def
/cairo_image { image cairo_flush_ascii85_file } def
/cairo_imagemask { imagemask cairo_flush_ascii85_file } def
%%EndProlog
%%BeginSetup
%%EndSetup
%%Page: 1 1
%%BeginPageSetup
%%PageBoundingBox: 0 0 185 167
%%EndPageSetup
q 0 0 185 167 rectclip
1 0 0 -1 0 167 cm q
0 g
0.567042 w
0 J
0 j
[] 0.0 d
10 M q 1 0 0 -1 0 0 cm
36.977 -3.031 141.715 -141.75 re S Q
0.398507 w
q 1 0 0 -1 0 0 cm
36.977 -144.762 m 36.977 -140.52 l S Q
q 1 0 0 -1 0 0 cm
65.305 -144.762 m 65.305 -140.52 l S Q
q 1 0 0 -1 0 0 cm
93.664 -144.762 m 93.664 -140.52 l S Q
q 1 0 0 -1 0 0 cm
121.992 -144.762 m 121.992 -140.52 l S Q
q 1 0 0 -1 0 0 cm
150.352 -144.762 m 150.352 -140.52 l S Q
q 1 0 0 -1 0 0 cm
178.715 -144.762 m 178.715 -140.52 l S Q
q 1 0 0 -1 0 0 cm
36.977 -144.762 m 36.977 -140.52 l S Q
0.398506 w
q 1 0 0 -1 0 0 cm
36.996 -144.758 m 41.234 -144.758 l S Q
q 1 0 0 -1 0 0 cm
36.977 -109.34 m 41.207 -109.34 l S Q
0.398504 w
q 1 0 0 -1 0 0 cm
36.965 -73.902 m 41.223 -73.902 l S Q
0.398505 w
q 1 0 0 -1 0 0 cm
36.984 -38.465 m 41.234 -38.465 l S Q
0.398506 w
q 1 0 0 -1 0 0 cm
36.977 -3.031 m 41.219 -3.031 l S Q
q 1 0 0 -1 0 0 cm
36.996 -144.758 m 41.234 -144.758 l S Q
q 1 0 0 -1 0 0 cm
36.977 -3.031 m 36.977 -7.27 l S Q
q 1 0 0 -1 0 0 cm
65.312 -3.031 m 65.312 -7.27 l S Q
q 1 0 0 -1 0 0 cm
93.648 -3.031 m 93.648 -7.27 l S Q
q 1 0 0 -1 0 0 cm
122.02 -3.031 m 122.02 -7.27 l S Q
q 1 0 0 -1 0 0 cm
150.355 -3.031 m 150.355 -7.27 l S Q
q 1 0 0 -1 0 0 cm
178.691 -3.031 m 178.691 -7.27 l S Q
q 1 0 0 -1 0 0 cm
36.977 -3.031 m 36.977 -7.27 l S Q
q 1 0 0 -1 0 0 cm
178.727 -144.758 m 174.457 -144.758 l S Q
q 1 0 0 -1 0 0 cm
178.695 -109.34 m 174.43 -109.34 l S Q
0.398504 w
q 1 0 0 -1 0 0 cm
178.691 -73.902 m 174.434 -73.902 l S Q
0.398505 w
q 1 0 0 -1 0 0 cm
178.711 -38.465 m 174.461 -38.465 l S Q
0.398506 w
q 1 0 0 -1 0 0 cm
178.691 -3.031 m 174.449 -3.031 l S Q
q 1 0 0 -1 0 0 cm
178.727 -144.758 m 174.457 -144.758 l S Q
38.926 151.293 m 38.926 149.684 38.191 148.23 36.941 148.23 c 35.676 148.23
 34.941 149.684 34.941 151.293 c 34.941 152.918 35.629 154.355 36.941 154.355
 c 38.145 154.355 38.926 152.918 38.926 151.293 c h
38.066 151.293 m 38.066 152.59 37.941 154.105 36.941 154.105 c 35.988 154.105
 35.801 152.59 35.801 151.293 c 35.801 150.215 35.926 148.465 36.941 148.465
 c 37.941 148.465 38.066 150.215 38.066 151.293 c h
38.066 151.293 m f
63.887 151.293 m 63.887 149.684 63.152 148.23 61.902 148.23 c 60.637 148.23
 59.902 149.684 59.902 151.293 c 59.902 152.918 60.59 154.355 61.902 154.355
 c 63.105 154.355 63.887 152.918 63.887 151.293 c h
63.027 151.293 m 63.027 152.59 62.902 154.105 61.902 154.105 c 60.949 154.105
 60.762 152.59 60.762 151.293 c 60.762 150.215 60.887 148.465 61.902 148.465
 c 62.902 148.465 63.027 150.215 63.027 151.293 c h
63.027 151.293 m f
65.812 153.871 m 65.812 153.59 65.594 153.371 65.312 153.371 c 65.031 153.371
 64.812 153.59 64.812 153.871 c 64.812 154.152 65.031 154.371 65.312 154.371
 c 65.594 154.371 65.812 154.152 65.812 153.871 c h
65.812 153.871 m f
70.758 153.09 m 70.602 153.059 l 70.336 153.512 70.117 153.59 69.68 153.59
 c 67.617 153.59 l 69.039 152.293 70.336 151.121 70.336 149.809 c 70.336
 148.887 69.539 148.23 68.664 148.23 c 67.805 148.23 67.117 148.699 66.852
 149.918 c 67.055 149.918 l 67.305 149.418 67.648 148.902 68.336 148.902
 c 69.117 148.902 69.555 149.496 69.555 150.168 c 69.555 151.137 68.523 
152.559 66.758 154.105 c 66.758 154.246 l 70.289 154.246 l h
70.758 153.09 m f
92.207 151.293 m 92.207 149.684 91.473 148.23 90.223 148.23 c 88.957 148.23
 88.223 149.684 88.223 151.293 c 88.223 152.918 88.91 154.355 90.223 154.355
 c 91.426 154.355 92.207 152.918 92.207 151.293 c h
91.348 151.293 m 91.348 152.59 91.223 154.105 90.223 154.105 c 89.27 154.105
 89.082 152.59 89.082 151.293 c 89.082 150.215 89.207 148.465 90.223 148.465
 c 91.223 148.465 91.348 150.215 91.348 151.293 c h
91.348 151.293 m f
94.133 153.871 m 94.133 153.59 93.914 153.371 93.633 153.371 c 93.352 153.371
 93.133 153.59 93.133 153.871 c 93.133 154.152 93.352 154.371 93.633 154.371
 c 93.914 154.371 94.133 154.152 94.133 153.871 c h
94.133 153.871 m f
99.062 152.762 m 99.062 152.152 l 98.188 152.152 l 98.188 148.23 l 97.75
 148.23 l 95.156 152.137 l 95.156 152.762 l 97.453 152.762 l 97.453 154.246
 l 98.188 154.246 l 98.188 152.762 l h
97.453 152.152 m 95.516 152.152 l 97.438 149.168 l 97.453 149.168 l h
97.453 152.152 m f
120.527 151.293 m 120.527 149.684 119.793 148.23 118.543 148.23 c 117.277
 148.23 116.543 149.684 116.543 151.293 c 116.543 152.918 117.23 154.355
 118.543 154.355 c 119.746 154.355 120.527 152.918 120.527 151.293 c h
119.668 151.293 m 119.668 152.59 119.543 154.105 118.543 154.105 c 117.59
 154.105 117.402 152.59 117.402 151.293 c 117.402 150.215 117.527 148.465
 118.543 148.465 c 119.543 148.465 119.668 150.215 119.668 151.293 c h
119.668 151.293 m f
122.453 153.871 m 122.453 153.59 122.234 153.371 121.953 153.371 c 121.672
 153.371 121.453 153.59 121.453 153.871 c 121.453 154.152 121.672 154.371
 121.953 154.371 c 122.234 154.371 122.453 154.152 122.453 153.871 c h
122.453 153.871 m f
127.32 152.23 m 127.32 151.246 126.617 150.512 125.727 150.512 c 125.273
 150.512 124.898 150.652 124.508 150.965 c 124.898 149.371 126.07 148.371
 127.195 148.355 c 127.195 148.199 l 124.43 148.199 123.555 150.543 123.555
 151.871 c 123.555 153.293 124.383 154.355 125.492 154.355 c 126.508 154.355
 127.32 153.402 127.32 152.23 c h
126.555 152.684 m 126.555 153.512 126.18 154.09 125.586 154.09 c 124.664
 154.09 124.383 152.746 124.383 152.027 c 124.383 151.793 124.414 151.543
 124.461 151.246 c 124.852 150.996 125.164 150.887 125.477 150.887 c 126.383
 150.887 126.555 151.934 126.555 152.684 c h
126.555 152.684 m f
148.965 151.293 m 148.965 149.684 148.23 148.23 146.98 148.23 c 145.715
 148.23 144.98 149.684 144.98 151.293 c 144.98 152.918 145.668 154.355 146.98
 154.355 c 148.184 154.355 148.965 152.918 148.965 151.293 c h
148.105 151.293 m 148.105 152.59 147.98 154.105 146.98 154.105 c 146.027
 154.105 145.84 152.59 145.84 151.293 c 145.84 150.215 145.965 148.465 146.98
 148.465 c 147.98 148.465 148.105 150.215 148.105 151.293 c h
148.105 151.293 m f
150.891 153.871 m 150.891 153.59 150.672 153.371 150.391 153.371 c 150.109
 153.371 149.891 153.59 149.891 153.871 c 149.891 154.152 150.109 154.371
 150.391 154.371 c 150.672 154.371 150.891 154.152 150.891 153.871 c h
150.891 153.871 m f
155.539 152.871 m 155.539 152.23 155.258 151.746 154.164 150.934 c 154.852
 150.559 155.383 150.137 155.383 149.48 c 155.383 148.793 154.742 148.199
 153.789 148.199 c 152.945 148.199 152.148 148.746 152.148 149.59 c 152.148
 150.246 152.492 150.637 153.258 151.246 c 152.398 151.902 152.086 152.23
 152.086 152.902 c 152.086 153.652 152.758 154.355 153.805 154.355 c 155.023
 154.355 155.539 153.527 155.539 152.871 c h
154.773 149.465 m 154.773 150.105 154.398 150.449 153.914 150.777 c 153.32
 150.355 152.805 149.887 152.805 149.371 c 152.805 148.887 153.148 148.465
 153.758 148.465 c 154.43 148.465 154.773 148.887 154.773 149.465 c h
154.898 153.121 m 154.898 153.699 154.461 154.09 153.883 154.09 c 153.195
 154.09 152.758 153.543 152.758 152.809 c 152.758 152.137 153.086 151.746
 153.492 151.402 c 154.477 152.152 154.898 152.527 154.898 153.121 c h
154.898 153.121 m f
176.535 154.246 m 176.535 154.105 l 175.941 154.105 175.723 154.121 175.723
 152.949 c 175.723 152.934 175.723 148.199 175.723 148.199 c 175.598 148.199
 l 174.066 148.934 l 174.113 149.074 l 174.441 148.934 174.52 148.902 174.645
 148.902 c 174.91 148.902 174.957 149.137 174.957 149.449 c 174.957 152.949
 l 174.957 154.121 174.738 154.09 174.145 154.105 c 174.145 154.246 l h
176.535 154.246 m f
179.211 153.871 m 179.211 153.59 178.992 153.371 178.711 153.371 c 178.43
 153.371 178.211 153.59 178.211 153.871 c 178.211 154.152 178.43 154.371
 178.711 154.371 c 178.992 154.371 179.211 154.152 179.211 153.871 c h
179.211 153.871 m f
184.125 151.293 m 184.125 149.684 183.391 148.23 182.141 148.23 c 180.875
 148.23 180.141 149.684 180.141 151.293 c 180.141 152.918 180.828 154.355
 182.141 154.355 c 183.344 154.355 184.125 152.918 184.125 151.293 c h
183.266 151.293 m 183.266 152.59 183.141 154.105 182.141 154.105 c 181.188
 154.105 181 152.59 181 151.293 c 181 150.215 181.125 148.465 182.141 148.465
 c 183.141 148.465 183.266 150.215 183.266 151.293 c h
183.266 151.293 m f
11.672 145.281 5.484 0.453 re f
21.887 144.812 m 21.887 143.203 21.152 141.75 19.902 141.75 c 18.637 141.75
 17.902 143.203 17.902 144.812 c 17.902 146.438 18.59 147.875 19.902 147.875
 c 21.105 147.875 21.887 146.438 21.887 144.812 c h
21.027 144.812 m 21.027 146.109 20.902 147.625 19.902 147.625 c 18.949 
147.625 18.762 146.109 18.762 144.812 c 18.762 143.734 18.887 141.984 19.902
 141.984 c 20.902 141.984 21.027 143.734 21.027 144.812 c h
21.027 144.812 m f
23.812 147.391 m 23.812 147.109 23.594 146.891 23.312 146.891 c 23.031 
146.891 22.812 147.109 22.812 147.391 c 22.812 147.672 23.031 147.891 23.312
 147.891 c 23.594 147.891 23.812 147.672 23.812 147.391 c h
23.812 147.391 m f
27.977 147.766 m 27.977 147.625 l 27.383 147.625 27.164 147.641 27.164 
146.469 c 27.164 146.453 27.164 141.719 27.164 141.719 c 27.039 141.719 
l 25.508 142.453 l 25.555 142.594 l 25.883 142.453 25.961 142.422 26.086
 142.422 c 26.352 142.422 26.398 142.656 26.398 142.969 c 26.398 146.469
 l 26.398 147.641 26.18 147.609 25.586 147.625 c 25.586 147.766 l h
27.977 147.766 m f
33.168 144.812 m 33.168 143.203 32.434 141.75 31.184 141.75 c 29.918 141.75
 29.184 143.203 29.184 144.812 c 29.184 146.438 29.871 147.875 31.184 147.875
 c 32.387 147.875 33.168 146.438 33.168 144.812 c h
32.309 144.812 m 32.309 146.109 32.184 147.625 31.184 147.625 c 30.23 147.625
 30.043 146.109 30.043 144.812 c 30.043 143.734 30.168 141.984 31.184 141.984
 c 32.184 141.984 32.309 143.734 32.309 144.812 c h
32.309 144.812 m f
11.672 109.883 5.484 0.453 re f
21.887 109.414 m 21.887 107.805 21.152 106.352 19.902 106.352 c 18.637 
106.352 17.902 107.805 17.902 109.414 c 17.902 111.039 18.59 112.477 19.902
 112.477 c 21.105 112.477 21.887 111.039 21.887 109.414 c h
21.027 109.414 m 21.027 110.711 20.902 112.227 19.902 112.227 c 18.949 
112.227 18.762 110.711 18.762 109.414 c 18.762 108.336 18.887 106.586 19.902
 106.586 c 20.902 106.586 21.027 108.336 21.027 109.414 c h
21.027 109.414 m f
23.812 111.992 m 23.812 111.711 23.594 111.492 23.312 111.492 c 23.031 
111.492 22.812 111.711 22.812 111.992 c 22.812 112.273 23.031 112.492 23.312
 112.492 c 23.594 112.492 23.812 112.273 23.812 111.992 c h
23.812 111.992 m f
28.727 109.414 m 28.727 107.805 27.992 106.352 26.742 106.352 c 25.477 
106.352 24.742 107.805 24.742 109.414 c 24.742 111.039 25.43 112.477 26.742
 112.477 c 27.945 112.477 28.727 111.039 28.727 109.414 c h
27.867 109.414 m 27.867 110.711 27.742 112.227 26.742 112.227 c 25.789 
112.227 25.602 110.711 25.602 109.414 c 25.602 108.336 25.727 106.586 26.742
 106.586 c 27.742 106.586 27.867 108.336 27.867 109.414 c h
27.867 109.414 m f
33.105 106.445 m 30.637 106.445 l 29.527 108.992 l 29.668 108.961 29.809
 108.93 29.98 108.93 c 30.934 108.93 32.23 109.43 32.23 110.602 c 32.23 
111.508 31.574 112.086 30.949 112.086 c 30.402 112.086 30.199 111.586 29.684
 111.586 c 29.434 111.586 29.355 111.805 29.355 111.914 c 29.355 112.227
 29.793 112.477 30.418 112.477 c 31.762 112.477 32.824 111.492 32.824 110.289
 c 32.824 108.867 31.699 108.383 30.48 108.352 c 30.371 108.352 30.246 108.367
 30.137 108.383 c 30.699 107.117 l 32.793 107.102 l h
33.105 106.445 m f
33.289 74.016 m 33.289 72.406 32.555 70.953 31.305 70.953 c 30.039 70.953
 29.305 72.406 29.305 74.016 c 29.305 75.641 29.992 77.078 31.305 77.078
 c 32.508 77.078 33.289 75.641 33.289 74.016 c h
32.43 74.016 m 32.43 75.312 32.305 76.828 31.305 76.828 c 30.352 76.828
 30.164 75.312 30.164 74.016 c 30.164 72.938 30.289 71.188 31.305 71.188
 c 32.305 71.188 32.43 72.938 32.43 74.016 c h
32.43 74.016 m f
22.008 38.613 m 22.008 37.004 21.273 35.551 20.023 35.551 c 18.758 35.551
 18.023 37.004 18.023 38.613 c 18.023 40.238 18.711 41.676 20.023 41.676
 c 21.227 41.676 22.008 40.238 22.008 38.613 c h
21.148 38.613 m 21.148 39.91 21.023 41.426 20.023 41.426 c 19.07 41.426
 18.883 39.91 18.883 38.613 c 18.883 37.535 19.008 35.785 20.023 35.785 
c 21.023 35.785 21.148 37.535 21.148 38.613 c h
21.148 38.613 m f
23.934 41.191 m 23.934 40.91 23.715 40.691 23.434 40.691 c 23.152 40.691
 22.934 40.91 22.934 41.191 c 22.934 41.473 23.152 41.691 23.434 41.691 
c 23.715 41.691 23.934 41.473 23.934 41.191 c h
23.934 41.191 m f
28.848 38.613 m 28.848 37.004 28.113 35.551 26.863 35.551 c 25.598 35.551
 24.863 37.004 24.863 38.613 c 24.863 40.238 25.551 41.676 26.863 41.676
 c 28.066 41.676 28.848 40.238 28.848 38.613 c h
27.988 38.613 m 27.988 39.91 27.863 41.426 26.863 41.426 c 25.91 41.426
 25.723 39.91 25.723 38.613 c 25.723 37.535 25.848 35.785 26.863 35.785 
c 27.863 35.785 27.988 37.535 27.988 38.613 c h
27.988 38.613 m f
33.227 35.645 m 30.758 35.645 l 29.648 38.191 l 29.789 38.16 29.93 38.129
 30.102 38.129 c 31.055 38.129 32.352 38.629 32.352 39.801 c 32.352 40.707
 31.695 41.285 31.07 41.285 c 30.523 41.285 30.32 40.785 29.805 40.785 c
 29.555 40.785 29.477 41.004 29.477 41.113 c 29.477 41.426 29.914 41.676
 30.539 41.676 c 31.883 41.676 32.945 40.691 32.945 39.488 c 32.945 38.066
 31.82 37.582 30.602 37.551 c 30.492 37.551 30.367 37.566 30.258 37.582 
c 30.82 36.316 l 32.914 36.301 l h
33.227 35.645 m f
22.008 3.094 m 22.008 1.484 21.273 0.031 20.023 0.031 c 18.758 0.031 18.023
 1.484 18.023 3.094 c 18.023 4.719 18.711 6.156 20.023 6.156 c 21.227 6.156
 22.008 4.719 22.008 3.094 c h
21.148 3.094 m 21.148 4.391 21.023 5.906 20.023 5.906 c 19.07 5.906 18.883
 4.391 18.883 3.094 c 18.883 2.016 19.008 0.266 20.023 0.266 c 21.023 0.266
 21.148 2.016 21.148 3.094 c h
21.148 3.094 m f
23.934 5.672 m 23.934 5.391 23.715 5.172 23.434 5.172 c 23.152 5.172 22.934
 5.391 22.934 5.672 c 22.934 5.953 23.152 6.172 23.434 6.172 c 23.715 6.172
 23.934 5.953 23.934 5.672 c h
23.934 5.672 m f
28.098 6.047 m 28.098 5.906 l 27.504 5.906 27.285 5.922 27.285 4.75 c 27.285
 4.734 27.285 0 27.285 0 c 27.16 0 l 25.629 0.734 l 25.676 0.875 l 26.004
 0.734 26.082 0.703 26.207 0.703 c 26.473 0.703 26.52 0.938 26.52 1.25 c
 26.52 4.75 l 26.52 5.922 26.301 5.891 25.707 5.906 c 25.707 6.047 l h
28.098 6.047 m f
33.289 3.094 m 33.289 1.484 32.555 0.031 31.305 0.031 c 30.039 0.031 29.305
 1.484 29.305 3.094 c 29.305 4.719 29.992 6.156 31.305 6.156 c 32.508 6.156
 33.289 4.719 33.289 3.094 c h
32.43 3.094 m 32.43 4.391 32.305 5.906 31.305 5.906 c 30.352 5.906 30.164
 4.391 30.164 3.094 c 30.164 2.016 30.289 0.266 31.305 0.266 c 32.305 0.266
 32.43 2.016 32.43 3.094 c h
32.43 3.094 m f
107.441 160.152 m 107.441 159.934 107.238 159.824 107.066 159.824 c 106.613
 159.824 106.035 160.496 105.598 161.199 c 105.582 161.199 105.52 160.902
 105.52 160.902 c 105.379 160.309 105.207 159.965 104.895 159.824 c 104.895
 159.824 103.879 160.027 103.754 160.074 c 103.754 160.23 l 103.941 160.184
 104.082 160.152 104.176 160.152 c 104.676 160.152 104.754 160.637 105.098
 161.934 c 104.691 162.527 104.051 163.527 103.801 163.527 c 103.598 163.527
 103.582 163.309 103.301 163.309 c 103.113 163.309 102.973 163.449 102.973
 163.637 c 102.973 163.871 103.145 164.027 103.395 164.027 c 104.035 164.027
 104.613 162.902 105.16 162.199 c 105.191 162.262 105.395 163.059 105.395
 163.059 c 105.613 163.887 105.785 164.027 106.004 164.027 c 106.285 164.027
 106.707 163.746 107.129 162.965 c 107.004 162.887 l 106.848 163.09 106.598
 163.512 106.363 163.512 c 106.051 163.512 105.879 162.246 105.66 161.449
 c 105.707 161.371 106.332 160.371 106.66 160.371 c 106.832 160.371 106.988
 160.512 107.145 160.512 c 107.363 160.512 107.441 160.324 107.441 160.152
 c h
107.441 160.152 m f
107.844 161.715 m 108.422 161.746 108.5 161.824 108.5 162.34 c 108.5 165.434
 l 108.5 165.965 108.406 166.043 107.844 166.074 c 107.844 166.199 l 110.172
 166.199 l 110.703 166.199 111.203 166.059 111.469 165.809 c 111.719 165.59
 111.844 165.277 111.844 164.949 c 111.844 164.637 111.734 164.355 111.516
 164.152 c 111.297 163.965 111.109 163.887 110.656 163.777 c 111.016 163.684
 111.172 163.621 111.328 163.465 c 111.516 163.309 111.609 163.059 111.609
 162.777 c 111.609 161.996 110.984 161.59 109.781 161.59 c 107.844 161.59
 l h
109.219 163.934 m 109.891 163.934 110.219 163.965 110.469 164.074 c 110.859
 164.23 111.047 164.527 111.047 164.949 c 111.047 165.324 110.906 165.605
 110.625 165.762 c 110.406 165.887 110.109 165.934 109.656 165.934 c 109.312
 165.934 109.219 165.871 109.219 165.652 c h
109.219 163.652 m 109.219 162.059 l 109.219 161.902 109.25 161.855 109.375
 161.855 c 109.672 161.84 l 110.453 161.824 110.906 162.184 110.906 162.793
 c 110.906 163.355 110.547 163.637 109.875 163.652 c h
109.219 163.652 m f
39.07 73.996 m 39.07 72.82 38.117 71.867 36.941 71.867 c 35.766 71.867 
34.812 72.82 34.812 73.996 c 34.812 75.172 35.766 76.125 36.941 76.125 c
 38.117 76.125 39.07 75.172 39.07 73.996 c f
46.07 93.098 m 46.07 91.922 45.117 90.969 43.941 90.969 c 42.766 90.969
 41.812 91.922 41.812 93.098 c 41.812 94.273 42.766 95.227 43.941 95.227
 c 45.117 95.227 46.07 94.273 46.07 93.098 c f
52.871 109.398 m 52.871 108.223 51.918 107.27 50.742 107.27 c 49.566 107.27
 48.613 108.223 48.613 109.398 c 48.613 110.574 49.566 111.527 50.742 111.527
 c 51.918 111.527 52.871 110.574 52.871 109.398 c f
59.773 118.598 m 59.773 117.422 58.82 116.469 57.645 116.469 c 56.469 116.469
 55.516 117.422 55.516 118.598 c 55.516 119.773 56.469 120.727 57.645 120.727
 c 58.82 120.727 59.773 119.773 59.773 118.598 c f
67.273 128.496 m 67.273 127.32 66.32 126.367 65.145 126.367 c 63.969 126.367
 63.016 127.32 63.016 128.496 c 63.016 129.672 63.969 130.625 65.145 130.625
 c 66.32 130.625 67.273 129.672 67.273 128.496 c f
72.371 125.695 m 72.371 124.52 71.418 123.566 70.242 123.566 c 69.066 123.566
 68.113 124.52 68.113 125.695 c 68.113 126.871 69.066 127.824 70.242 127.824
 c 71.418 127.824 72.371 126.871 72.371 125.695 c f
79.371 126.398 m 79.371 125.223 78.418 124.27 77.242 124.27 c 76.066 124.27
 75.113 125.223 75.113 126.398 c 75.113 127.574 76.066 128.527 77.242 128.527
 c 78.418 128.527 79.371 127.574 79.371 126.398 c f
87.672 119.996 m 87.672 118.82 86.719 117.867 85.543 117.867 c 84.367 117.867
 83.414 118.82 83.414 119.996 c 83.414 121.172 84.367 122.125 85.543 122.125
 c 86.719 122.125 87.672 121.172 87.672 119.996 c f
94.07 111.496 m 94.07 110.32 93.117 109.367 91.941 109.367 c 90.766 109.367
 89.812 110.32 89.812 111.496 c 89.812 112.672 90.766 113.625 91.941 113.625
 c 93.117 113.625 94.07 112.672 94.07 111.496 c f
102.57 96.598 m 102.57 95.422 101.617 94.469 100.441 94.469 c 99.266 94.469
 98.312 95.422 98.312 96.598 c 98.312 97.773 99.266 98.727 100.441 98.727
 c 101.617 98.727 102.57 97.773 102.57 96.598 c f
108.672 85.297 m 108.672 84.121 107.719 83.168 106.543 83.168 c 105.367
 83.168 104.414 84.121 104.414 85.297 c 104.414 86.473 105.367 87.426 106.543
 87.426 c 107.719 87.426 108.672 86.473 108.672 85.297 c f
117.773 70.398 m 117.773 69.223 116.82 68.27 115.645 68.27 c 114.469 68.27
 113.516 69.223 113.516 70.398 c 113.516 71.574 114.469 72.527 115.645 72.527
 c 116.82 72.527 117.773 71.574 117.773 70.398 c f
123.672 66.195 m 123.672 65.02 122.719 64.066 121.543 64.066 c 120.367 
64.066 119.414 65.02 119.414 66.195 c 119.414 67.371 120.367 68.324 121.543
 68.324 c 122.719 68.324 123.672 67.371 123.672 66.195 c f
132.672 53.398 m 132.672 52.223 131.719 51.27 130.543 51.27 c 129.367 51.27
 128.414 52.223 128.414 53.398 c 128.414 54.574 129.367 55.527 130.543 55.527
 c 131.719 55.527 132.672 54.574 132.672 53.398 c f
138.57 49.195 m 138.57 48.02 137.617 47.066 136.441 47.066 c 135.266 47.066
 134.312 48.02 134.312 49.195 c 134.312 50.371 135.266 51.324 136.441 51.324
 c 137.617 51.324 138.57 50.371 138.57 49.195 c f
145.57 39.996 m 145.57 38.82 144.617 37.867 143.441 37.867 c 142.266 37.867
 141.312 38.82 141.312 39.996 c 141.312 41.172 142.266 42.125 143.441 42.125
 c 144.617 42.125 145.57 41.172 145.57 39.996 c f
152.871 34.297 m 152.871 33.121 151.918 32.168 150.742 32.168 c 149.566
 32.168 148.613 33.121 148.613 34.297 c 148.613 35.473 149.566 36.426 150.742
 36.426 c 151.918 36.426 152.871 35.473 152.871 34.297 c f
158.973 32.898 m 158.973 31.723 158.02 30.77 156.844 30.77 c 155.668 30.77
 154.715 31.723 154.715 32.898 c 154.715 34.074 155.668 35.027 156.844 35.027
 c 158.02 35.027 158.973 34.074 158.973 32.898 c f
166.273 33.598 m 166.273 32.422 165.32 31.469 164.145 31.469 c 162.969 
31.469 162.016 32.422 162.016 33.598 c 162.016 34.773 162.969 35.727 164.145
 35.727 c 165.32 35.727 166.273 34.773 166.273 33.598 c f
172.871 39.195 m 172.871 38.02 171.918 37.066 170.742 37.066 c 169.566 
37.066 168.613 38.02 168.613 39.195 c 168.613 40.371 169.566 41.324 170.742
 41.324 c 171.918 41.324 172.871 40.371 172.871 39.195 c f
180.871 73.996 m 180.871 72.82 179.918 71.867 178.742 71.867 c 177.566 
71.867 176.613 72.82 176.613 73.996 c 176.613 75.172 177.566 76.125 178.742
 76.125 c 179.918 76.125 180.871 75.172 180.871 73.996 c f
0.425175 w
q 1 0 0 -1 0 0 cm
154.605 -3.094 m 153.188 -5.539 l 152.48 -6.762 m 151.062 -9.203 l 150.355
 -10.426 m 148.938 -12.871 l 148.23 -14.094 m 146.812 -16.535 l 146.102 
-17.758 m 144.688 -20.199 l 143.977 -21.426 m 142.559 -23.867 l 141.852 
-25.09 m 140.434 -27.531 l 139.727 -28.754 m 138.309 -31.199 l 137.602 -32.422
 m 136.184 -34.863 l 135.477 -36.086 m 134.059 -38.531 l 133.348 -39.754
 m 131.934 -42.195 l 131.223 -43.418 m 129.805 -45.863 l 129.098 -47.086
 m 127.68 -49.527 l 126.973 -50.75 m 125.555 -53.195 l 124.848 -54.418 m
 123.43 -56.859 l 122.723 -58.082 m 121.305 -60.527 l 120.594 -61.75 m 119.18
 -64.191 l 118.469 -65.414 m 117.055 -67.859 l 116.344 -69.082 m 114.926
 -71.523 l 114.219 -72.746 m 112.801 -75.191 l 112.094 -76.414 m 110.676
 -78.855 l 109.969 -80.078 m 108.551 -82.523 l 107.844 -83.742 m 106.426
 -86.188 l 105.715 -87.41 m 104.301 -89.855 l 103.59 -91.074 m 102.172 -93.52
 l 101.465 -94.742 m 100.047 -97.188 l 99.34 -98.406 m 97.922 -100.852 l
 97.215 -102.074 m 95.797 -104.52 l 95.09 -105.738 m 93.672 -108.184 l 92.961
 -109.406 m 91.547 -111.848 l 90.836 -113.07 m 89.418 -115.516 l 88.711 
-116.738 m 87.293 -119.18 l 86.586 -120.402 m 85.168 -122.848 l 84.461 -124.07
 m 83.043 -126.512 l 82.336 -127.734 m 80.918 -130.18 l 80.207 -131.402 
m 78.793 -133.844 l 78.082 -135.066 m 76.664 -137.512 l 75.957 -138.734 
m 74.539 -141.176 l 73.832 -142.398 m 72.414 -144.844 l S Q
0.85036 w
1 J
q 1 0 0 -1 0 0 cm
37.098 -74.406 m 37.105 -74.43 l 37.875 -77.125 m 37.883 -77.152 l 38.652
 -79.848 m 38.66 -79.875 l 39.43 -82.57 m 39.438 -82.594 l 40.211 -85.289
 m 40.219 -85.316 l 40.988 -88.012 m 40.996 -88.039 l 41.766 -90.734 m 41.773
 -90.758 l 42.543 -93.453 m 42.551 -93.48 l 43.32 -96.176 m 43.328 -96.203
 l 44.098 -98.898 m 44.105 -98.922 l 44.875 -101.617 m 44.883 -101.645 l
 45.656 -104.34 m 45.664 -104.367 l 46.434 -107.062 m 46.441 -107.086 l 
47.211 -109.781 m 47.219 -109.809 l 47.988 -112.504 m 47.996 -112.531 l 
48.766 -115.227 m 48.773 -115.25 l 49.543 -117.945 m 49.551 -117.973 l 50.324
 -120.668 m 50.332 -120.695 l 51.102 -123.391 m 51.109 -123.414 l 51.879
 -126.109 m 51.887 -126.137 l 52.656 -128.832 m 52.664 -128.859 l 53.434
 -131.555 m 53.441 -131.578 l 54.211 -134.273 m 54.219 -134.301 l 54.992
 -136.996 m 54.996 -137.023 l 55.77 -139.719 m 55.777 -139.742 l 56.547 
-142.438 m 56.555 -142.465 l S Q
1 g
109.973 83.199 m 109.973 82.023 109.02 81.07 107.844 81.07 c 106.668 81.07
 105.715 82.023 105.715 83.199 c 105.715 84.375 106.668 85.328 107.844 85.328
 c 109.02 85.328 109.973 84.375 109.973 83.199 c f
0 g
109.973 83.199 m 109.973 82.023 109.02 81.07 107.844 81.07 c 106.668 81.07
 105.715 82.023 105.715 83.199 c 105.715 84.375 106.668 85.328 107.844 85.328
 c 109.02 85.328 109.973 84.375 109.973 83.199 c h
109.973 83.199 m 109.762 83.199 l 109.762 82.141 108.902 81.281 107.844
 81.281 c 106.785 81.281 105.926 82.141 105.926 83.199 c 105.926 84.258 
106.785 85.117 107.844 85.117 c 108.902 85.117 109.762 84.258 109.762 83.199
 c f
9.984 118.723 m 9.594 118.723 l 9.594 119.629 l 2.016 119.629 l 2.016 118.723
 l 1.625 118.723 l 1.625 120.238 l 9.984 120.238 l h
9.984 118.723 m f
8.062 112.012 m 1.875 114.887 l 1.875 115.059 l 8.062 117.918 l h
7.594 113.105 m 7.594 117.277 l 3.109 115.199 l h
7.594 113.105 m f
2.156 105.277 m 2.016 105.277 l 2.016 106.996 l 2.156 106.996 l 2.156 106.809
 2.234 106.496 2.484 106.496 c 2.703 106.496 3.062 106.715 3.25 106.84 c
 6.766 109.23 l 2.844 109.402 l 2.281 109.434 2.156 109.121 2.156 108.637
 c 2.016 108.637 l 2.016 110.949 l 2.156 110.949 l 2.156 110.34 2.438 110.293
 3.172 110.215 c 8.203 110.012 l 8.203 109.855 l 2.875 106.23 l 2.656 106.059
 2.156 105.668 2.156 105.277 c h
2.156 105.277 m f
9.984 102.203 m 9.828 102.203 l 9.188 103.297 7.922 103.797 5.797 103.797
 c 3.688 103.797 2.453 103.297 1.781 102.203 c 1.625 102.203 l 2.422 103.75
 3.953 104.656 5.797 104.656 c 7.672 104.656 9.125 103.781 9.984 102.203
 c h
9.984 102.203 m f
8.062 101.906 m 8.062 99.906 l 7.922 99.906 l 7.922 100.375 7.828 100.516
 7.469 100.516 c 4.938 100.516 l 4.922 100.516 4.828 100.453 4.766 100.391
 c 4.562 100.156 4.406 99.781 4.406 99.469 c 4.406 99.062 4.719 98.875 5.344
 98.875 c 7.297 98.875 l 7.797 98.891 7.906 98.984 7.922 99.484 c 8.062 
99.484 l 8.062 97.469 l 7.922 97.469 l 7.922 97.969 7.781 98.094 7.203 98.125
 c 4.953 98.125 l 4.562 97.844 4.406 97.562 4.406 97.141 c 4.406 96.625 
4.641 96.469 5.391 96.469 c 7.281 96.469 l 7.812 96.484 7.875 96.547 7.922
 97.062 c 8.062 97.062 l 8.062 95.094 l 7.922 95.094 l 7.906 95.328 l 7.859
 95.609 7.734 95.719 7.375 95.719 c 5.531 95.719 l 4.469 95.719 3.938 96.062
 3.938 96.75 c 3.938 97.281 4.172 97.734 4.688 98.219 c 4.172 98.375 3.938
 98.688 3.938 99.172 c 3.938 99.578 4.047 99.812 4.625 100.562 c 3.953 100.562
 l 3.938 100.625 l 4.109 101.094 4.203 101.406 4.344 101.875 c 4.5 101.875
 l 4.469 101.766 4.453 101.688 4.453 101.594 c 4.453 101.359 4.594 101.281
 5.031 101.281 c 7.297 101.281 l 7.797 101.297 7.922 101.406 7.922 101.906
 c h
8.062 101.906 m f
8.062 94.945 m 8.062 92.82 l 7.922 92.82 l 7.891 93.414 7.797 93.477 7.141
 93.477 c 3.969 93.477 l 3.938 93.523 l 4.438 94.914 l 4.562 94.914 l 4.562
 94.836 l 4.531 94.727 4.531 94.617 4.531 94.523 c 4.531 94.32 4.672 94.227
 5.062 94.227 c 7.141 94.227 l 7.812 94.258 7.906 94.336 7.922 94.945 c 
h
1.938 93.945 m 1.938 94.18 2.141 94.383 2.391 94.383 c 2.656 94.383 2.859
 94.195 2.859 93.945 c 2.859 93.664 2.656 93.477 2.391 93.477 c 2.141 93.477
 1.938 93.68 1.938 93.945 c h
1.938 93.945 m f
8.062 90.066 m 8.062 88.27 l 7.922 88.27 l 7.922 88.551 7.781 88.723 7.391
 89.004 c 5.625 90.16 l 4.562 89.41 l 4.312 89.238 4.172 88.973 4.156 88.676
 c 4.031 88.676 l 4.031 90.098 l 4.156 90.098 l 4.172 89.832 4.234 89.738
 4.359 89.738 c 4.469 89.738 4.656 89.848 4.938 90.066 c 5 90.113 5.156 
90.223 5.344 90.348 c 5.234 90.41 l 5.016 90.551 4.906 90.629 4.875 90.645
 c 4.594 90.816 4.453 90.879 4.359 90.879 c 4.219 90.879 4.172 90.77 4.156
 90.488 c 4.031 90.488 l 4.031 92.348 l 4.156 92.348 l 4.156 92.27 l 4.156
 92.004 4.281 91.863 4.703 91.582 c 5.984 90.738 l 7.469 91.754 l 7.844 
92.035 7.906 92.113 7.922 92.41 c 8.062 92.41 l 8.062 91.113 l 7.922 91.113
 l 7.922 91.379 7.891 91.473 7.766 91.473 c 7.703 91.473 7.594 91.426 7.406
 91.285 c 6.297 90.582 l 7.547 89.77 l 7.609 89.738 7.656 89.707 7.719 89.707
 c 7.875 89.707 7.906 89.77 7.922 90.066 c h
8.062 90.066 m f
5.812 85.535 m 3.953 85.535 2.5 86.41 1.625 87.988 c 1.797 87.988 l 2.438
 86.895 3.688 86.395 5.812 86.395 c 7.922 86.395 9.172 86.895 9.828 87.988
 c 9.984 87.988 l 9.203 86.441 7.672 85.535 5.812 85.535 c h
5.812 85.535 m f
1.625 80.859 m 1.625 81.297 l 9.984 84.406 l 9.984 83.953 l h
1.625 80.859 m f
7.141 75.66 m 7.047 75.785 l 7.281 75.957 7.719 76.301 7.719 76.488 c 7.719
 76.551 7.672 76.598 7.562 76.598 c 7.469 76.598 7.25 76.535 7.078 76.488
 c 7.078 76.488 5.125 75.957 5.078 75.941 c 4.891 75.895 4.703 75.863 4.578
 75.863 c 4.125 75.863 3.969 76.145 3.969 76.363 c 3.969 77.207 5.562 78.238
 5.969 78.457 c 3.969 77.926 l 3.969 77.926 4.203 79.145 4.219 79.41 c 4.375
 79.41 l 4.375 79.082 4.344 78.816 4.703 78.816 c 4.875 78.816 5.156 78.895
 5.438 78.973 c 5.438 78.973 7.828 79.691 8.062 79.738 c 8.062 79.051 l 
7.469 78.895 l 5.531 78.379 4.469 77.129 4.469 76.785 c 4.469 76.645 4.562
 76.566 4.703 76.566 c 4.797 76.566 5.203 76.66 5.531 76.738 c 6.875 77.113
 l 7.203 77.207 7.609 77.285 7.75 77.285 c 7.984 77.285 8.172 77.16 8.172
 76.941 c 8.172 76.488 7.656 76.02 7.141 75.66 c h
7.141 75.66 m f
9.984 73.152 m 1.625 73.152 l 1.625 74.668 l 2.016 74.668 l 2.016 73.762
 l 9.594 73.762 l 9.594 74.668 l 9.984 74.668 l h
9.984 73.152 m f
1.625 68.383 m 1.625 68.82 l 9.984 71.93 l 9.984 71.477 l h
1.625 68.383 m f
6.656 64.285 m 7.297 64.707 7.5 65.035 7.5 65.535 c 7.5 66.363 6.781 66.926
 5.75 66.926 c 4.828 66.926 4.203 66.441 4.203 65.707 c 4.203 65.395 4.281
 65.27 4.625 65.191 c 4.828 65.129 l 5.078 65.051 5.234 64.895 5.234 64.707
 c 5.234 64.473 5.062 64.285 4.859 64.285 c 4.359 64.285 3.938 64.91 3.938
 65.66 c 3.938 66.098 4.109 66.551 4.438 66.926 c 4.828 67.379 5.438 67.629
 6.156 67.629 c 7.312 67.629 8.156 66.91 8.156 65.926 c 8.156 65.52 8.016
 65.16 7.734 64.832 c 7.531 64.598 7.266 64.426 6.75 64.16 c h
6.656 64.285 m f
8.062 63.746 m 8.062 61.746 l 7.922 61.746 l 7.922 62.215 7.828 62.355 
7.469 62.355 c 4.938 62.355 l 4.922 62.355 4.828 62.293 4.766 62.23 c 4.562
 61.996 4.406 61.621 4.406 61.309 c 4.406 60.902 4.719 60.715 5.344 60.715
 c 7.297 60.715 l 7.797 60.73 7.906 60.824 7.922 61.324 c 8.062 61.324 l
 8.062 59.309 l 7.922 59.309 l 7.922 59.809 7.781 59.934 7.203 59.965 c 
4.953 59.965 l 4.562 59.684 4.406 59.402 4.406 58.98 c 4.406 58.465 4.641
 58.309 5.391 58.309 c 7.281 58.309 l 7.812 58.324 7.875 58.387 7.922 58.902
 c 8.062 58.902 l 8.062 56.934 l 7.922 56.934 l 7.906 57.168 l 7.859 57.449
 7.734 57.559 7.375 57.559 c 5.531 57.559 l 4.469 57.559 3.938 57.902 3.938
 58.59 c 3.938 59.121 4.172 59.574 4.688 60.059 c 4.172 60.215 3.938 60.527
 3.938 61.012 c 3.938 61.418 4.047 61.652 4.625 62.402 c 3.953 62.402 l 
3.938 62.465 l 4.109 62.934 4.203 63.246 4.344 63.715 c 4.5 63.715 l 4.469
 63.605 4.453 63.527 4.453 63.434 c 4.453 63.199 4.594 63.121 5.031 63.121
 c 7.297 63.121 l 7.797 63.137 7.922 63.246 7.922 63.746 c h
8.062 63.746 m f
3.172 53.379 m 2.453 53.379 2.141 53.801 1.969 54.254 c 1.641 53.785 1.328
 53.629 0.953 53.629 c 0.547 53.629 0 54.004 0 54.863 c 0 55.488 0.297 56.082
 1.109 56.348 c 1.156 56.145 l 0.875 55.988 0.531 55.676 0.531 55.145 c 
0.531 54.629 0.844 54.332 1.203 54.332 c 1.719 54.332 2.094 54.785 2.25 
55.473 c 2.453 55.504 l 2.406 54.301 3.094 54.02 3.5 54.02 c 3.984 54.02
 4.438 54.41 4.438 54.926 c 4.438 55.426 4.047 55.645 4.047 56.051 c 4.047
 56.223 4.188 56.395 4.375 56.395 c 4.672 56.395 4.781 55.895 4.781 55.52
 c 4.781 54.285 4.125 53.379 3.172 53.379 c h
3.172 53.379 m f
8.062 50.668 m 8.062 48.668 l 7.922 48.668 l 7.922 49.137 7.828 49.277 
7.469 49.277 c 4.938 49.277 l 4.922 49.277 4.828 49.215 4.766 49.152 c 4.562
 48.918 4.406 48.543 4.406 48.23 c 4.406 47.824 4.719 47.637 5.344 47.637
 c 7.297 47.637 l 7.797 47.652 7.906 47.746 7.922 48.246 c 8.062 48.246 
l 8.062 46.23 l 7.922 46.23 l 7.922 46.73 7.781 46.855 7.203 46.887 c 4.953
 46.887 l 4.562 46.605 4.406 46.324 4.406 45.902 c 4.406 45.387 4.641 45.23
 5.391 45.23 c 7.281 45.23 l 7.812 45.246 7.875 45.309 7.922 45.824 c 8.062
 45.824 l 8.062 43.855 l 7.922 43.855 l 7.906 44.09 l 7.859 44.371 7.734
 44.48 7.375 44.48 c 5.531 44.48 l 4.469 44.48 3.938 44.824 3.938 45.512
 c 3.938 46.043 4.172 46.496 4.688 46.98 c 4.172 47.137 3.938 47.449 3.938
 47.934 c 3.938 48.34 4.047 48.574 4.625 49.324 c 3.953 49.324 l 3.938 49.387
 l 4.109 49.855 4.203 50.168 4.344 50.637 c 4.5 50.637 l 4.469 50.527 4.453
 50.449 4.453 50.355 c 4.453 50.121 4.594 50.043 5.031 50.043 c 7.297 50.043
 l 7.797 50.059 7.922 50.168 7.922 50.668 c h
8.062 50.668 m f
3.938 41.598 m 3.938 42.785 4.797 43.582 6.031 43.582 c 7.25 43.582 8.156
 42.754 8.156 41.629 c 8.156 40.488 7.203 39.629 5.969 39.629 c 4.781 39.629
 3.938 40.457 3.938 41.598 c h
4.188 41.723 m 4.188 40.973 5.047 40.441 6.281 40.441 c 7.297 40.441 7.906
 40.848 7.906 41.52 c 7.906 41.863 7.688 42.191 7.328 42.379 c 6.859 42.645
 6.234 42.785 5.594 42.785 c 4.75 42.785 4.188 42.363 4.188 41.723 c h
4.188 41.723 m f
8.062 39.219 m 8.062 37.094 l 7.922 37.094 l 7.906 37.672 7.812 37.766 
7.312 37.781 c 1.953 37.781 l 1.938 37.812 l 2.078 38.266 2.172 38.594 2.328
 39.234 c 2.469 39.234 l 2.469 39.188 l 2.469 39.078 2.453 38.969 2.453 
38.906 c 2.453 38.609 2.578 38.531 3 38.531 c 7.281 38.531 l 7.766 38.531
 7.891 38.656 7.922 39.219 c h
8.062 39.219 m f
2.469 31.762 0.438 4.703 re f
4.703 28.211 m 4.516 28.211 l 4.516 28.742 4.516 28.914 3.672 28.914 c 
3.656 28.914 0 28.914 0 28.914 c 0 29.086 l 0.578 30.43 l 0.766 30.352 l
 0.641 30.039 0.625 29.977 0.625 29.883 c 0.625 29.68 0.797 29.664 1 29.664
 c 3.672 29.664 l 4.516 29.664 4.5 29.82 4.516 30.352 c 4.703 30.352 l h
4.703 28.211 m f
Q Q
showpage
%%Trailer
end
%%EOF
