%!PS-Adobe-3.0 EPSF-3.0
%%Creator: cairo 1.17.4 (https://cairographics.org)
%%CreationDate: Thu Feb 24 10:48:34 2022
%%Pages: 1
%%DocumentData: Clean7Bit
%%LanguageLevel: 2
%%BoundingBox: 0 0 200 121
%%EndComments
%%BeginProlog
50 dict begin
/q { gsave } bind def
/Q { grestore } bind def
/cm { 6 array astore concat } bind def
/w { setlinewidth } bind def
/J { setlinecap } bind def
/j { setlinejoin } bind def
/M { setmiterlimit } bind def
/d { setdash } bind def
/m { moveto } bind def
/l { lineto } bind def
/c { curveto } bind def
/h { closepath } bind def
/re { exch dup neg 3 1 roll 5 3 roll moveto 0 rlineto
      0 exch rlineto 0 rlineto closepath } bind def
/S { stroke } bind def
/f { fill } bind def
/f* { eofill } bind def
/n { newpath } bind def
/W { clip } bind def
/W* { eoclip } bind def
/BT { } bind def
/ET { } bind def
/BDC { mark 3 1 roll /BDC pdfmark } bind def
/EMC { mark /EMC pdfmark } bind def
/cairo_store_point { /cairo_point_y exch def /cairo_point_x exch def } def
/Tj { show currentpoint cairo_store_point } bind def
/TJ {
  {
    dup
    type /stringtype eq
    { show } { -0.001 mul 0 cairo_font_matrix dtransform rmoveto } ifelse
  } forall
  currentpoint cairo_store_point
} bind def
/cairo_selectfont { cairo_font_matrix aload pop pop pop 0 0 6 array astore
    cairo_font exch selectfont cairo_point_x cairo_point_y moveto } bind def
/Tf { pop /cairo_font exch def /cairo_font_matrix where
      { pop cairo_selectfont } if } bind def
/Td { matrix translate cairo_font_matrix matrix concatmatrix dup
      /cairo_font_matrix exch def dup 4 get exch 5 get cairo_store_point
      /cairo_font where { pop cairo_selectfont } if } bind def
/Tm { 2 copy 8 2 roll 6 array astore /cairo_font_matrix exch def
      cairo_store_point /cairo_font where { pop cairo_selectfont } if } bind def
/g { setgray } bind def
/rg { setrgbcolor } bind def
/d1 { setcachedevice } bind def
/cairo_data_source {
  CairoDataIndex CairoData length lt
    { CairoData CairoDataIndex get /CairoDataIndex CairoDataIndex 1 add def }
    { () } ifelse
} def
/cairo_flush_ascii85_file { cairo_ascii85_file status { cairo_ascii85_file flushfile } if } def
/cairo_image { image cairo_flush_ascii85_file } def
/cairo_imagemask { imagemask cairo_flush_ascii85_file } def
%%EndProlog
%%BeginSetup
%%EndSetup
%%Page: 1 1
%%BeginPageSetup
%%PageBoundingBox: 0 0 200 121
%%EndPageSetup
q 0 0 200 121 rectclip
1 0 0 -1 0 121 cm q
0.901961 g
0.426 78.379 m 0.426 99.641 l 85.465 99.641 l 85.465 57.117 l 0.426 57.117
 l f
0 g
0.850361 w
0 J
0 j
[] 0.0 d
10 M q 1 0 0 -1 0 0 cm
0.426 -50.031 m 0.426 -99.641 l 85.465 -99.641 l 85.465 -0.426 l 0.426 
-0.426 l h
0.426 -50.031 m S Q
29.934 115.875 m 29.902 114.641 l 29.793 114.641 l 29.746 114.719 29.699
 114.734 29.652 114.734 c 29.605 114.734 29.512 114.719 29.418 114.672 c
 29.199 114.609 28.996 114.562 28.777 114.562 c 28.074 114.562 27.559 115.031
 27.559 115.672 c 27.559 116.172 27.855 116.531 28.605 116.969 c 29.137 
117.266 l 29.449 117.438 29.605 117.656 29.605 117.938 c 29.605 118.328 
29.309 118.578 28.855 118.578 c 28.23 118.578 27.918 118.234 27.715 117.328
 c 27.574 117.328 l 27.574 118.719 l 27.684 118.719 l 27.746 118.641 27.793
 118.609 27.902 118.609 c 27.996 118.609 28.105 118.641 28.309 118.688 c
 28.543 118.734 28.777 118.781 28.965 118.781 c 29.668 118.781 30.23 118.25
 30.23 117.625 c 30.23 117.188 30.012 116.891 29.48 116.562 c 28.512 115.984
 l 28.246 115.828 28.121 115.625 28.121 115.375 c 28.121 115.016 28.402 
114.766 28.809 114.766 c 29.324 114.766 29.59 115.062 29.793 115.875 c h
29.934 115.875 m f
34.852 114.656 m 33.633 114.656 l 33.633 114.781 l 33.93 114.781 34.07 
114.859 34.07 115.016 c 34.07 115.047 34.055 115.094 34.023 115.156 c 33.164
 117.641 l 32.133 115.375 l 32.07 115.25 32.039 115.125 32.039 115.031 c
 32.039 114.859 32.18 114.797 32.555 114.781 c 32.555 114.656 l 30.711 114.656
 l 30.711 114.781 l 30.945 114.812 31.102 114.906 31.164 115.062 c 32.195
 117.266 l 32.305 117.516 32.305 117.516 32.352 117.609 c 32.602 118.062
 32.742 118.391 32.742 118.531 c 32.742 118.672 32.539 119.219 32.383 119.5
 c 32.258 119.719 32.07 119.891 31.945 119.891 c 31.883 119.891 31.805 119.875
 31.711 119.828 c 31.539 119.766 31.383 119.734 31.242 119.734 c 31.023 
119.734 30.852 119.891 30.852 120.125 c 30.852 120.422 31.133 120.641 31.523
 120.641 c 32.133 120.641 32.539 120.156 33.039 118.844 c 34.414 115.188
 l 34.539 114.906 34.633 114.812 34.852 114.781 c h
34.852 114.656 m f
37.852 115.875 m 37.82 114.641 l 37.711 114.641 l 37.664 114.719 37.617
 114.734 37.57 114.734 c 37.523 114.734 37.43 114.719 37.336 114.672 c 37.117
 114.609 36.914 114.562 36.695 114.562 c 35.992 114.562 35.477 115.031 35.477
 115.672 c 35.477 116.172 35.773 116.531 36.523 116.969 c 37.055 117.266
 l 37.367 117.438 37.523 117.656 37.523 117.938 c 37.523 118.328 37.227 
118.578 36.773 118.578 c 36.148 118.578 35.836 118.234 35.633 117.328 c 
35.492 117.328 l 35.492 118.719 l 35.602 118.719 l 35.664 118.641 35.711
 118.609 35.82 118.609 c 35.914 118.609 36.023 118.641 36.227 118.688 c 
36.461 118.734 36.695 118.781 36.883 118.781 c 37.586 118.781 38.148 118.25
 38.148 117.625 c 38.148 117.188 37.93 116.891 37.398 116.562 c 36.43 115.984
 l 36.164 115.828 36.039 115.625 36.039 115.375 c 36.039 115.016 36.32 114.766
 36.727 114.766 c 37.242 114.766 37.508 115.062 37.711 115.875 c h
37.852 115.875 m f
40.785 114.656 m 39.879 114.656 l 39.879 113.609 l 39.879 113.516 39.863
 113.5 39.816 113.5 c 39.301 114.25 39.035 114.547 38.77 114.703 c 38.676
 114.766 38.613 114.828 38.613 114.875 c 38.613 114.906 38.629 114.922 38.66
 114.938 c 39.129 114.938 l 39.129 117.641 l 39.129 118.391 39.395 118.781
 39.926 118.781 c 40.363 118.781 40.707 118.562 41.004 118.094 c 40.895 
118 l 40.691 118.234 40.551 118.312 40.348 118.312 c 40.02 118.312 39.879
 118.062 39.879 117.5 c 39.879 114.938 l 40.785 114.938 l h
40.785 114.656 m f
44.68 117.219 m 44.258 117.891 43.867 118.156 43.289 118.156 c 42.789 118.156
 42.398 117.891 42.133 117.391 c 41.977 117.047 41.914 116.766 41.898 116.203
 c 44.648 116.203 l 44.586 115.625 44.492 115.359 44.273 115.078 c 44.008
 114.75 43.586 114.562 43.117 114.562 c 42.68 114.562 42.258 114.719 41.914
 115.031 c 41.492 115.391 41.242 116.031 41.242 116.766 c 41.242 118 41.898
 118.781 42.93 118.781 c 43.773 118.781 44.445 118.25 44.82 117.281 c h
41.914 115.922 m 42.008 115.219 42.32 114.891 42.867 114.891 c 43.414 114.891
 43.617 115.141 43.742 115.922 c h
41.914 115.922 m f
45.125 118.688 m 47.125 118.688 l 47.125 118.547 l 46.656 118.547 46.516
 118.453 46.516 118.094 c 46.516 115.562 l 46.516 115.547 46.578 115.453
 46.641 115.391 c 46.875 115.188 47.25 115.031 47.562 115.031 c 47.969 115.031
 48.156 115.344 48.156 115.969 c 48.156 117.922 l 48.141 118.422 48.047 
118.531 47.547 118.547 c 47.547 118.688 l 49.562 118.688 l 49.562 118.547
 l 49.062 118.547 48.938 118.406 48.906 117.828 c 48.906 115.578 l 49.188
 115.188 49.469 115.031 49.891 115.031 c 50.406 115.031 50.562 115.266 50.562
 116.016 c 50.562 117.906 l 50.547 118.438 50.484 118.5 49.969 118.547 c
 49.969 118.688 l 51.938 118.688 l 51.938 118.547 l 51.703 118.531 l 51.422
 118.484 51.312 118.359 51.312 118 c 51.312 116.156 l 51.312 115.094 50.969
 114.562 50.281 114.562 c 49.75 114.562 49.297 114.797 48.812 115.312 c 
48.656 114.797 48.344 114.562 47.859 114.562 c 47.453 114.562 47.219 114.672
 46.469 115.25 c 46.469 114.578 l 46.406 114.562 l 45.938 114.734 45.625
 114.828 45.156 114.969 c 45.156 115.125 l 45.266 115.094 45.344 115.078
 45.438 115.078 c 45.672 115.078 45.75 115.219 45.75 115.656 c 45.75 117.922
 l 45.734 118.422 45.625 118.547 45.125 118.547 c h
45.125 118.688 m f
55.406 118.688 m 57.875 118.688 l 57.875 118.547 l 57.188 118.547 57.031
 118.453 57.031 118.031 c 57.031 112.641 l 56.953 112.625 l 55.344 113.438
 l 55.344 113.562 l 55.688 113.438 55.906 113.375 55.984 113.375 c 56.172
 113.375 56.25 113.5 56.25 113.797 c 56.25 117.859 l 56.234 118.422 56.078
 118.547 55.406 118.547 c h
55.406 118.688 m f
0.567043 w
q 1 0 0 -1 0 0 cm
0.426 -57.117 m 0.426 -56.906 l 0.66 -56.91 l 0.898 -56.918 l 1.133 -56.934
 l 1.371 -56.957 l 1.605 -56.98 l 1.844 -57.012 l 2.078 -57.047 l 2.316 
-57.082 l 2.551 -57.117 l 2.789 -57.156 l 3.023 -57.191 l 3.258 -57.223 
l 3.496 -57.254 l 3.734 -57.281 l 3.969 -57.305 l 4.203 -57.32 l 4.441 -57.328
 l 4.676 -57.332 l 4.914 -57.328 l 5.148 -57.32 l 5.387 -57.305 l 5.621 
-57.281 l 5.859 -57.254 l 6.094 -57.223 l 6.332 -57.191 l 6.566 -57.156 
l 6.805 -57.117 l 7.039 -57.082 l 7.277 -57.047 l 7.512 -57.012 l 7.746 
-56.98 l 7.984 -56.957 l 8.219 -56.934 l 8.457 -56.918 l 8.691 -56.91 l 
8.93 -56.906 l 9.164 -56.91 l 9.402 -56.918 l 9.637 -56.934 l 9.875 -56.957
 l 10.109 -56.98 l 10.348 -57.012 l 10.816 -57.082 l 11.055 -57.117 l 11.293
 -57.156 l 11.527 -57.191 l 11.762 -57.223 l 12 -57.254 l 12.234 -57.281
 l 12.473 -57.305 l 12.707 -57.32 l 12.945 -57.328 l 13.18 -57.332 l 13.418
 -57.328 l 13.652 -57.32 l 13.891 -57.305 l 14.125 -57.281 l 14.359 -57.254
 l 14.836 -57.191 l 15.07 -57.156 l 15.305 -57.117 l 15.781 -57.047 l 16.016
 -57.012 l 16.25 -56.98 l 16.488 -56.957 l 16.723 -56.934 l 16.961 -56.918
 l 17.195 -56.91 l 17.434 -56.906 l 17.668 -56.91 l 17.906 -56.918 l 18.141
 -56.934 l 18.379 -56.957 l 18.613 -56.98 l 18.848 -57.012 l 19.324 -57.082
 l 19.559 -57.117 l 19.793 -57.156 l 20.031 -57.191 l 20.266 -57.223 l 20.504
 -57.254 l 20.738 -57.281 l 20.977 -57.305 l 21.211 -57.32 l 21.449 -57.328
 l 21.684 -57.332 l 21.922 -57.328 l 22.156 -57.32 l 22.391 -57.305 l 22.629
 -57.281 l 22.863 -57.254 l 23.102 -57.223 l 23.336 -57.191 l 23.574 -57.156
 l 23.809 -57.117 l 24.047 -57.082 l 24.281 -57.047 l 24.52 -57.012 l 24.754
 -56.98 l 24.992 -56.957 l 25.227 -56.934 l 25.465 -56.918 l 25.699 -56.91
 l 25.938 -56.906 l 26.172 -56.91 l 26.41 -56.918 l 26.645 -56.934 l 26.883
 -56.957 l 27.117 -56.98 l 27.352 -57.012 l 27.59 -57.047 l 27.824 -57.082
 l 28.062 -57.117 l 28.297 -57.156 l 28.535 -57.191 l 28.77 -57.223 l 29.008
 -57.254 l 29.242 -57.281 l 29.48 -57.305 l 29.715 -57.32 l 29.953 -57.328
 l 30.188 -57.332 l 30.426 -57.328 l 30.66 -57.32 l 30.898 -57.305 l 31.133
 -57.281 l 31.367 -57.254 l 31.605 -57.223 l 31.84 -57.191 l 32.078 -57.156
 l 32.312 -57.117 l 32.551 -57.082 l 32.785 -57.047 l 33.023 -57.012 l 33.258
 -56.98 l 33.492 -56.957 l 33.73 -56.934 l 33.965 -56.918 l 34.203 -56.91
 l 34.438 -56.906 l 34.676 -56.91 l 34.91 -56.918 l 35.148 -56.934 l 35.383
 -56.957 l 35.621 -56.98 l 35.855 -57.012 l 36.094 -57.047 l 36.328 -57.082
 l 36.566 -57.117 l 36.801 -57.156 l 37.039 -57.191 l 37.273 -57.223 l 37.512
 -57.254 l 37.746 -57.281 l 37.98 -57.305 l 38.219 -57.32 l 38.457 -57.328
 l 38.691 -57.332 l 38.926 -57.328 l 39.164 -57.32 l 39.398 -57.305 l 39.637
 -57.281 l 39.871 -57.254 l 40.109 -57.223 l 40.344 -57.191 l 40.582 -57.156
 l 40.816 -57.117 l 41.055 -57.082 l 41.289 -57.047 l 41.527 -57.012 l 41.762
 -56.98 l 42 -56.957 l 42.234 -56.934 l 42.469 -56.918 l 42.707 -56.91 l
 42.941 -56.906 l 43.18 -56.91 l 43.414 -56.918 l 43.652 -56.934 l 43.887
 -56.957 l 44.125 -56.98 l 44.359 -57.012 l 44.598 -57.047 l 45.066 -57.117
 l 45.305 -57.156 l 45.543 -57.191 l 46.012 -57.254 l 46.25 -57.281 l 46.484
 -57.305 l 46.723 -57.32 l 46.957 -57.328 l 47.195 -57.332 l 47.43 -57.328
 l 47.668 -57.32 l 47.902 -57.305 l 48.141 -57.281 l 48.375 -57.254 l 48.609
 -57.223 l 48.848 -57.191 l 49.086 -57.156 l 49.32 -57.117 l 49.555 -57.082
 l 50.031 -57.012 l 50.266 -56.98 l 50.5 -56.957 l 50.738 -56.934 l 50.973
 -56.918 l 51.211 -56.91 l 51.445 -56.906 l 51.684 -56.91 l 51.918 -56.918
 l 52.156 -56.934 l 52.391 -56.957 l 52.629 -56.98 l 52.863 -57.012 l 53.102
 -57.047 l 53.336 -57.082 l 53.574 -57.117 l 53.809 -57.156 l 54.043 -57.191
 l 54.281 -57.223 l 54.516 -57.254 l 54.754 -57.281 l 54.988 -57.305 l 55.227
 -57.32 l 55.461 -57.328 l 55.699 -57.332 l 55.934 -57.328 l 56.172 -57.32
 l 56.406 -57.305 l 56.645 -57.281 l 56.879 -57.254 l 57.113 -57.223 l 57.352
 -57.191 l 57.59 -57.156 l 57.824 -57.117 l 58.059 -57.082 l 58.535 -57.012
 l 58.77 -56.98 l 59.004 -56.957 l 59.242 -56.934 l 59.477 -56.918 l 59.715
 -56.91 l 59.949 -56.906 l 60.188 -56.91 l 60.422 -56.918 l 60.66 -56.934
 l 60.895 -56.957 l 61.133 -56.98 l 61.367 -57.012 l 61.602 -57.047 l 61.84
 -57.082 l 62.074 -57.117 l 62.312 -57.156 l 62.547 -57.191 l 62.785 -57.223
 l 63.02 -57.254 l 63.258 -57.281 l 63.492 -57.305 l 63.73 -57.32 l 63.965
 -57.328 l 64.203 -57.332 l 64.438 -57.328 l 64.676 -57.32 l 64.91 -57.305
 l 65.148 -57.281 l 65.383 -57.254 l 65.617 -57.223 l 65.855 -57.191 l 66.09
 -57.156 l 66.328 -57.117 l 66.562 -57.082 l 66.801 -57.047 l 67.035 -57.012
 l 67.273 -56.98 l 67.508 -56.957 l 67.746 -56.934 l 67.98 -56.918 l 68.219
 -56.91 l 68.453 -56.906 l 68.688 -56.91 l 68.926 -56.918 l 69.164 -56.934
 l 69.633 -56.98 l 69.871 -57.012 l 70.105 -57.047 l 70.344 -57.082 l 70.578
 -57.117 l 70.816 -57.156 l 71.051 -57.191 l 71.289 -57.223 l 71.523 -57.254
 l 71.762 -57.281 l 71.996 -57.305 l 72.234 -57.32 l 72.469 -57.328 l 72.707
 -57.332 l 72.941 -57.328 l 73.176 -57.32 l 73.414 -57.305 l 73.652 -57.281
 l 73.887 -57.254 l 74.121 -57.223 l 74.359 -57.191 l 74.594 -57.156 l 74.832
 -57.117 l 75.066 -57.082 l 75.305 -57.047 l 75.539 -57.012 l 75.777 -56.98
 l 76.012 -56.957 l 76.25 -56.934 l 76.484 -56.918 l 76.719 -56.91 l 76.957
 -56.906 l 77.191 -56.91 l 77.43 -56.918 l 77.664 -56.934 l 77.902 -56.957
 l 78.137 -56.98 l 78.375 -57.012 l 78.609 -57.047 l 78.848 -57.082 l 79.082
 -57.117 l 79.32 -57.156 l 79.555 -57.191 l 79.793 -57.223 l 80.027 -57.254
 l 80.262 -57.281 l 80.5 -57.305 l 80.734 -57.32 l 80.973 -57.328 l 81.207
 -57.332 l 81.445 -57.328 l 81.68 -57.32 l 81.918 -57.305 l 82.152 -57.281
 l 82.391 -57.254 l 82.625 -57.223 l 82.863 -57.191 l 83.098 -57.156 l 83.336
 -57.117 l 83.57 -57.082 l 83.809 -57.047 l 84.043 -57.012 l 84.281 -56.98
 l 84.516 -56.957 l 84.754 -56.934 l 84.988 -56.918 l 85.223 -56.91 l 85.461
 -56.906 l 85.465 -56.906 l 85.465 -57.117 l S Q
23.145 10.574 m 22.488 11.012 22.223 11.23 21.879 11.652 c 21.254 12.434
 20.941 13.324 20.941 14.371 c 20.941 15.527 21.27 16.402 22.051 17.309 
c 22.426 17.746 22.66 17.934 23.129 18.23 c 23.223 18.074 l 22.52 17.512
 22.27 17.199 22.02 16.527 c 21.801 15.934 21.707 15.262 21.707 14.355 c
 21.707 13.402 21.816 12.668 22.066 12.121 c 22.316 11.559 22.582 11.23 
23.223 10.715 c h
23.145 10.574 m f
29.832 16.465 m 29.426 16.434 29.348 16.355 29.035 15.684 c 26.801 10.59
 l 26.613 10.59 l 24.754 14.996 l 24.176 16.309 24.066 16.449 23.645 16.465
 c 23.645 16.637 l 25.41 16.637 l 25.41 16.465 l 24.988 16.465 24.801 16.355
 24.801 16.105 c 24.801 15.996 24.832 15.871 24.879 15.746 c 25.285 14.699
 l 27.645 14.699 l 28.004 15.559 l 28.113 15.809 28.176 16.043 28.176 16.168
 c 28.176 16.387 28.02 16.465 27.551 16.465 c 27.551 16.637 l 29.832 16.637
 l h
25.441 14.324 m 26.473 11.871 l 27.52 14.324 l h
25.441 14.324 m f
32.219 14.074 m 30.25 14.074 l 30.25 14.668 l 32.219 14.668 l 32.219 16.637
 l 32.812 16.637 l 32.812 14.668 l 34.781 14.668 l 34.781 14.074 l 32.812
 14.074 l 32.812 12.105 l 32.219 12.105 l h
32.219 14.074 m f
35.18 10.871 m 35.93 10.918 36.023 11.012 36.039 11.684 c 36.039 15.652
 l 36.023 16.324 35.914 16.434 35.18 16.465 c 35.18 16.637 l 38.164 16.637
 l 38.867 16.637 39.508 16.449 39.836 16.137 c 40.164 15.855 40.336 15.449
 40.336 15.027 c 40.336 14.621 40.195 14.262 39.898 14.012 c 39.633 13.762
 39.398 13.652 38.805 13.512 c 39.273 13.402 39.461 13.309 39.68 13.121 
c 39.898 12.918 40.039 12.605 40.039 12.23 c 40.039 11.215 39.227 10.699
 37.68 10.699 c 35.18 10.699 l h
36.945 13.715 m 37.82 13.715 38.227 13.762 38.555 13.902 c 39.07 14.105
 39.305 14.48 39.305 15.027 c 39.305 15.512 39.117 15.871 38.758 16.074 
c 38.477 16.23 38.102 16.309 37.523 16.309 c 37.07 16.309 36.945 16.23 36.945
 15.934 c h
36.945 13.355 m 36.945 11.293 l 36.961 11.105 36.992 11.043 37.148 11.043
 c 37.539 11.027 l 38.539 11.012 39.117 11.465 39.117 12.262 c 39.117 12.965
 38.664 13.34 37.805 13.355 c h
36.945 13.355 m f
43.258 14.074 m 41.289 14.074 l 41.289 14.668 l 43.258 14.668 l 43.258 
16.637 l 43.852 16.637 l 43.852 14.668 l 45.82 14.668 l 45.82 14.074 l 43.852
 14.074 l 43.852 12.105 l 43.258 12.105 l h
43.258 14.074 m f
51.629 12.59 m 51.551 10.574 l 51.363 10.574 l 51.301 10.762 51.16 10.871
 50.988 10.871 c 50.895 10.871 50.77 10.84 50.629 10.793 c 50.191 10.652
 49.738 10.574 49.316 10.574 c 48.582 10.574 47.848 10.855 47.285 11.34 
c 46.66 11.902 46.316 12.73 46.316 13.715 c 46.316 15.543 47.504 16.762 
49.301 16.762 c 50.316 16.762 51.207 16.355 51.738 15.621 c 51.582 15.465
 l 50.926 16.105 50.332 16.371 49.582 16.371 c 49.02 16.371 48.52 16.184
 48.129 15.84 c 47.629 15.402 47.363 14.605 47.363 13.59 c 47.363 11.98 
48.191 10.934 49.488 10.934 c 50.004 10.934 50.473 11.121 50.832 11.465 
c 51.113 11.762 51.254 12.012 51.426 12.59 c h
51.629 12.59 m f
52.41 18.23 m 53.066 17.777 53.348 17.559 53.676 17.152 c 54.316 16.371
 54.629 15.465 54.629 14.418 c 54.629 13.277 54.285 12.402 53.504 11.496
 c 53.129 11.059 52.895 10.855 52.441 10.574 c 52.332 10.715 l 53.051 11.277
 53.285 11.59 53.535 12.262 c 53.754 12.871 53.848 13.543 53.848 14.449 
c 53.848 15.387 53.738 16.121 53.488 16.668 c 53.254 17.23 52.973 17.559
 52.332 18.074 c h
52.41 18.23 m f
57.707 10.574 m 57.051 11.012 56.785 11.23 56.441 11.652 c 55.816 12.434
 55.504 13.324 55.504 14.371 c 55.504 15.527 55.832 16.402 56.613 17.309
 c 56.988 17.746 57.223 17.934 57.691 18.23 c 57.785 18.074 l 57.082 17.512
 56.832 17.199 56.582 16.527 c 56.363 15.934 56.27 15.262 56.27 14.355 c
 56.27 13.402 56.379 12.668 56.629 12.121 c 56.879 11.559 57.145 11.23 57.785
 10.715 c h
57.707 10.574 m f
62.285 13.152 m 62.285 12.809 l 61.598 12.809 l 61.41 12.809 61.27 12.777
 61.098 12.715 c 60.895 12.652 l 60.66 12.559 60.41 12.512 60.176 12.512
 c 59.348 12.512 58.691 13.152 58.691 13.98 c 58.691 14.543 58.926 14.871
 59.52 15.168 c 59.285 15.387 l 59.098 15.574 58.988 15.668 58.957 15.699
 c 58.77 15.902 58.723 15.996 58.723 16.152 c 58.723 16.355 58.816 16.449
 59.191 16.621 c 58.551 17.09 58.316 17.387 58.316 17.715 c 58.316 18.199
 59.004 18.59 59.863 18.59 c 60.535 18.59 61.238 18.355 61.707 17.98 c 62.051
 17.699 62.207 17.418 62.207 17.074 c 62.207 16.527 61.785 16.152 61.113
 16.121 c 59.957 16.059 l 59.473 16.043 59.254 15.965 59.254 15.824 c 59.254
 15.637 59.551 15.324 59.801 15.262 c 60.113 15.277 60.285 15.293 60.316
 15.293 c 60.645 15.293 61.004 15.168 61.27 14.918 c 61.566 14.668 61.707
 14.355 61.707 13.918 c 61.707 13.652 61.66 13.449 61.535 13.152 c h
59.379 16.652 m 59.691 16.715 60.395 16.777 60.848 16.777 c 61.66 16.777
 61.957 16.887 61.957 17.215 c 61.957 17.73 61.27 18.074 60.254 18.074 c
 59.457 18.074 58.941 17.824 58.941 17.434 c 58.941 17.215 59.02 17.09 59.379
 16.652 c h
59.426 13.605 m 59.426 13.074 59.676 12.762 60.098 12.762 c 60.379 12.762
 60.598 12.918 60.754 13.184 c 60.926 13.496 61.02 13.902 61.02 14.262 c
 61.02 14.762 60.77 15.074 60.348 15.074 c 59.801 15.074 59.426 14.496 59.426
 13.637 c h
59.426 13.605 m f
62.848 18.23 m 63.504 17.777 63.785 17.559 64.113 17.152 c 64.754 16.371
 65.066 15.465 65.066 14.418 c 65.066 13.277 64.723 12.402 63.941 11.496
 c 63.566 11.059 63.332 10.855 62.879 10.574 c 62.77 10.715 l 63.488 11.277
 63.723 11.59 63.973 12.262 c 64.191 12.871 64.285 13.543 64.285 14.449 
c 64.285 15.387 64.176 16.121 63.926 16.668 c 63.691 17.23 63.41 17.559 
62.77 18.074 c h
62.848 18.23 m f
11.297 41.461 m 11.297 40.758 10.984 40.289 10.312 40.289 c 9.719 40.289
 9.266 40.711 8.859 41.273 c 9.172 40.289 l 9.172 40.289 7.969 40.523 7.703
 40.539 c 7.703 40.695 l 8.031 40.695 8.297 40.664 8.297 41.023 c 8.297 
41.195 8.188 41.586 8.125 41.805 c 7.062 45.539 l 6.969 45.883 6.812 46.133
 6.375 46.133 c 6.344 46.289 l 8.312 46.289 l 8.344 46.133 l 8 46.133 7.703
 46.117 7.703 45.867 c 7.703 45.789 7.719 45.695 7.766 45.523 c 8.078 44.273
 l 8.25 44.414 8.516 44.492 8.734 44.492 c 9.812 44.492 11.297 42.961 11.297
 41.461 c h
10.531 41.555 m 10.531 42.727 9.547 44.289 8.703 44.289 c 8.5 44.289 8.312
 44.211 8.141 44.039 c 8.344 43.242 8.891 40.711 10.047 40.711 c 10.531 
40.711 10.531 41.352 10.531 41.555 c h
10.531 41.555 m f
21.137 41.461 m 21.137 40.961 l 15.137 40.961 l 15.137 41.461 l h
21.137 43.273 m 21.137 42.773 l 15.137 42.773 l 15.137 43.273 l h
21.137 43.273 m f
29.656 41.461 m 29.656 40.758 29.344 40.289 28.672 40.289 c 28.078 40.289
 27.625 40.711 27.219 41.273 c 27.531 40.289 l 27.531 40.289 26.328 40.523
 26.062 40.539 c 26.062 40.695 l 26.391 40.695 26.656 40.664 26.656 41.023
 c 26.656 41.195 26.547 41.586 26.484 41.805 c 25.422 45.539 l 25.328 45.883
 25.172 46.133 24.734 46.133 c 24.703 46.289 l 26.672 46.289 l 26.703 46.133
 l 26.359 46.133 26.062 46.117 26.062 45.867 c 26.062 45.789 26.078 45.695
 26.125 45.523 c 26.438 44.273 l 26.609 44.414 26.875 44.492 27.094 44.492
 c 28.172 44.492 29.656 42.961 29.656 41.461 c h
28.891 41.555 m 28.891 42.727 27.906 44.289 27.062 44.289 c 26.859 44.289
 26.672 44.211 26.5 44.039 c 26.703 43.242 27.25 40.711 28.406 40.711 c 
28.891 40.711 28.891 41.352 28.891 41.555 c h
28.891 41.555 m f
34.906 46.418 m 34.594 46.387 34.516 46.324 34.281 45.809 c 32.547 41.84
 l 32.406 41.84 l 30.953 45.262 l 30.5 46.277 30.422 46.402 30.094 46.418
 c 30.094 46.543 l 31.469 46.543 l 31.469 46.418 l 31.141 46.418 31 46.324
 31 46.121 c 31 46.043 31.016 45.949 31.047 45.855 c 31.375 45.043 l 33.203
 45.043 l 33.484 45.699 l 33.562 45.902 33.609 46.074 33.609 46.168 c 33.609
 46.355 33.5 46.402 33.125 46.418 c 33.125 46.543 l 34.906 46.543 l h
31.484 44.746 m 32.297 42.84 l 33.094 44.746 l h
31.484 44.746 m f
44.293 42.352 m 44.293 41.898 l 41.512 41.898 l 41.512 39.133 l 41.074 
39.133 l 41.074 41.898 l 38.293 41.898 l 38.293 42.352 l 41.074 42.352 l
 41.074 45.117 l 41.512 45.117 l 41.512 42.352 l h
44.293 42.352 m f
52.336 41.461 m 52.336 40.758 52.023 40.289 51.352 40.289 c 50.758 40.289
 50.305 40.711 49.898 41.273 c 50.211 40.289 l 50.211 40.289 49.008 40.523
 48.742 40.539 c 48.742 40.695 l 49.07 40.695 49.336 40.664 49.336 41.023
 c 49.336 41.195 49.227 41.586 49.164 41.805 c 48.102 45.539 l 48.008 45.883
 47.852 46.133 47.414 46.133 c 47.383 46.289 l 49.352 46.289 l 49.383 46.133
 l 49.039 46.133 48.742 46.117 48.742 45.867 c 48.742 45.789 48.758 45.695
 48.805 45.523 c 49.117 44.273 l 49.289 44.414 49.555 44.492 49.773 44.492
 c 50.852 44.492 52.336 42.961 52.336 41.461 c h
51.57 41.555 m 51.57 42.727 50.586 44.289 49.742 44.289 c 49.539 44.289
 49.352 44.211 49.18 44.039 c 49.383 43.242 49.93 40.711 51.086 40.711 c
 51.57 40.711 51.57 41.352 51.57 41.555 c h
51.57 41.555 m f
52.789 42.059 m 53.367 42.09 53.445 42.168 53.445 42.684 c 53.445 45.777
 l 53.445 46.309 53.352 46.387 52.789 46.418 c 52.789 46.543 l 55.117 46.543
 l 55.648 46.543 56.148 46.402 56.414 46.152 c 56.664 45.934 56.789 45.621
 56.789 45.293 c 56.789 44.98 56.68 44.699 56.461 44.496 c 56.242 44.309
 56.055 44.23 55.602 44.121 c 55.961 44.027 56.117 43.965 56.273 43.809 
c 56.461 43.652 56.555 43.402 56.555 43.121 c 56.555 42.34 55.93 41.934 
54.727 41.934 c 52.789 41.934 l h
54.164 44.277 m 54.836 44.277 55.164 44.309 55.414 44.418 c 55.805 44.574
 55.992 44.871 55.992 45.293 c 55.992 45.668 55.852 45.949 55.57 46.105 
c 55.352 46.23 55.055 46.277 54.602 46.277 c 54.258 46.277 54.164 46.215
 54.164 45.996 c h
54.164 43.996 m 54.164 42.402 l 54.164 42.246 54.195 42.199 54.32 42.199
 c 54.617 42.184 l 55.398 42.168 55.852 42.527 55.852 43.137 c 55.852 43.699
 55.492 43.98 54.82 43.996 c h
54.164 43.996 m f
66.496 42.352 m 66.496 41.898 l 63.715 41.898 l 63.715 39.133 l 63.277 
39.133 l 63.277 41.898 l 60.496 41.898 l 60.496 42.352 l 63.277 42.352 l
 63.277 45.117 l 63.715 45.117 l 63.715 42.352 l h
66.496 42.352 m f
74.539 41.461 m 74.539 40.758 74.227 40.289 73.555 40.289 c 72.961 40.289
 72.508 40.711 72.102 41.273 c 72.414 40.289 l 72.414 40.289 71.211 40.523
 70.945 40.539 c 70.945 40.695 l 71.273 40.695 71.539 40.664 71.539 41.023
 c 71.539 41.195 71.43 41.586 71.367 41.805 c 70.305 45.539 l 70.211 45.883
 70.055 46.133 69.617 46.133 c 69.586 46.289 l 71.555 46.289 l 71.586 46.133
 l 71.242 46.133 70.945 46.117 70.945 45.867 c 70.945 45.789 70.961 45.695
 71.008 45.523 c 71.32 44.273 l 71.492 44.414 71.758 44.492 71.977 44.492
 c 73.055 44.492 74.539 42.961 74.539 41.461 c h
73.773 41.555 m 73.773 42.727 72.789 44.289 71.945 44.289 c 71.742 44.289
 71.555 44.211 71.383 44.039 c 71.586 43.242 72.133 40.711 73.289 40.711
 c 73.773 40.711 73.773 41.352 73.773 41.555 c h
73.773 41.555 m f
79.191 43.402 m 79.129 41.84 l 78.973 41.84 l 78.926 41.98 78.816 42.059
 78.676 42.059 c 78.613 42.059 78.52 42.043 78.41 42.012 c 78.066 41.887
 77.723 41.84 77.395 41.84 c 76.816 41.84 76.238 42.043 75.816 42.434 c 
75.316 42.871 75.051 43.512 75.051 44.277 c 75.051 45.699 75.988 46.637 
77.379 46.637 c 78.16 46.637 78.863 46.324 79.27 45.762 c 79.145 45.637 
l 78.645 46.121 78.176 46.34 77.598 46.34 c 77.16 46.34 76.77 46.199 76.473
 45.934 c 76.082 45.59 75.863 44.965 75.863 44.184 c 75.863 42.918 76.52
 42.105 77.52 42.105 c 77.926 42.105 78.285 42.262 78.566 42.527 c 78.785
 42.746 78.895 42.949 79.02 43.402 c h
79.191 43.402 m f
35.418 27.891 m 35.418 27.188 35.105 26.719 34.434 26.719 c 33.84 26.719
 33.387 27.141 32.98 27.703 c 33.293 26.719 l 33.293 26.719 32.09 26.953
 31.824 26.969 c 31.824 27.125 l 32.152 27.125 32.418 27.094 32.418 27.453
 c 32.418 27.625 32.309 28.016 32.246 28.234 c 31.184 31.969 l 31.09 32.312
 30.934 32.562 30.496 32.562 c 30.465 32.719 l 32.434 32.719 l 32.465 32.562
 l 32.121 32.562 31.824 32.547 31.824 32.297 c 31.824 32.219 31.84 32.125
 31.887 31.953 c 32.199 30.703 l 32.371 30.844 32.637 30.922 32.855 30.922
 c 33.934 30.922 35.418 29.391 35.418 27.891 c h
34.652 27.984 m 34.652 29.156 33.668 30.719 32.824 30.719 c 32.621 30.719
 32.434 30.641 32.262 30.469 c 32.465 29.672 33.012 27.141 34.168 27.141
 c 34.652 27.141 34.652 27.781 34.652 27.984 c h
34.652 27.984 m f
40.668 32.965 m 40.355 32.934 40.277 32.871 40.043 32.355 c 38.309 28.387
 l 38.168 28.387 l 36.715 31.809 l 36.262 32.824 36.184 32.949 35.855 32.965
 c 35.855 33.09 l 37.23 33.09 l 37.23 32.965 l 36.902 32.965 36.762 32.871
 36.762 32.668 c 36.762 32.59 36.777 32.496 36.809 32.402 c 37.137 31.59
 l 38.965 31.59 l 39.246 32.246 l 39.324 32.449 39.371 32.621 39.371 32.715
 c 39.371 32.902 39.262 32.949 38.887 32.965 c 38.887 33.09 l 40.668 33.09
 l h
37.246 31.293 m 38.059 29.387 l 38.855 31.293 l h
37.246 31.293 m f
43.062 30.703 m 43.062 30.125 42.703 29.938 42.5 29.938 c 42.359 29.938
 41.984 30.016 41.984 30.438 c 41.984 30.781 42.266 30.891 42.422 30.891
 c 42.5 30.891 42.516 30.844 42.594 30.844 c 42.641 30.844 42.734 30.906
 42.734 31.062 c 42.734 31.188 42.703 31.516 42.141 31.922 c 42.141 32.109
 l 42.609 31.797 43.062 31.312 43.062 30.703 c h
43.062 30.703 m f
51.672 24.922 m 51.672 24.562 51.281 24.375 50.938 24.375 c 49.688 24.375
 49.078 26.172 48.891 26.812 c 48.891 26.812 48.312 26.812 48.078 26.812
 c 47.984 27.156 l 48.797 27.156 l 48.516 28.266 47.984 31.094 47.438 32.047
 c 47.188 32.484 46.797 32.547 46.625 32.547 c 46.562 32.547 46.484 32.516
 46.484 32.469 c 46.484 32.344 46.672 32.344 46.672 32.156 c 46.672 32.047
 46.578 31.922 46.391 31.922 c 46.156 31.922 45.984 32.109 45.984 32.297
 c 45.984 32.547 46.25 32.734 46.625 32.734 c 48.375 32.734 49.031 28.969
 49.484 27.156 c 50.219 27.156 l 50.297 26.812 l 49.578 26.812 l 49.875 
25.859 50.172 24.562 50.953 24.562 c 51.062 24.562 51.172 24.641 51.172 
24.719 c 51.172 24.812 51.031 24.875 51.031 25.047 c 51.031 25.203 51.141
 25.328 51.297 25.328 c 51.5 25.328 51.672 25.141 51.672 24.922 c h
51.672 24.922 m f
55.309 32.965 m 54.996 32.934 54.918 32.871 54.684 32.355 c 52.949 28.387
 l 52.809 28.387 l 51.355 31.809 l 50.902 32.824 50.824 32.949 50.496 32.965
 c 50.496 33.09 l 51.871 33.09 l 51.871 32.965 l 51.543 32.965 51.402 32.871
 51.402 32.668 c 51.402 32.59 51.418 32.496 51.449 32.402 c 51.777 31.59
 l 53.605 31.59 l 53.887 32.246 l 53.965 32.449 54.012 32.621 54.012 32.715
 c 54.012 32.902 53.902 32.949 53.527 32.965 c 53.527 33.09 l 55.309 33.09
 l h
51.887 31.293 m 52.699 29.387 l 53.496 31.293 l h
51.887 31.293 m f
29.625 67.508 m 28.969 67.945 28.703 68.164 28.359 68.586 c 27.734 69.367
 27.422 70.258 27.422 71.305 c 27.422 72.461 27.75 73.336 28.531 74.242 
c 28.906 74.68 29.141 74.867 29.609 75.164 c 29.703 75.008 l 29 74.445 28.75
 74.133 28.5 73.461 c 28.281 72.867 28.188 72.195 28.188 71.289 c 28.188
 70.336 28.297 69.602 28.547 69.055 c 28.797 68.492 29.062 68.164 29.703
 67.648 c h
29.625 67.508 m f
36.312 73.398 m 35.906 73.367 35.828 73.289 35.516 72.617 c 33.281 67.523
 l 33.094 67.523 l 31.234 71.93 l 30.656 73.242 30.547 73.383 30.125 73.398
 c 30.125 73.57 l 31.891 73.57 l 31.891 73.398 l 31.469 73.398 31.281 73.289
 31.281 73.039 c 31.281 72.93 31.312 72.805 31.359 72.68 c 31.766 71.633
 l 34.125 71.633 l 34.484 72.492 l 34.594 72.742 34.656 72.977 34.656 73.102
 c 34.656 73.32 34.5 73.398 34.031 73.398 c 34.031 73.57 l 36.312 73.57 
l h
31.922 71.258 m 32.953 68.805 l 34 71.258 l h
31.922 71.258 m f
38.699 71.008 m 36.73 71.008 l 36.73 71.602 l 38.699 71.602 l 38.699 73.57
 l 39.293 73.57 l 39.293 71.602 l 41.262 71.602 l 41.262 71.008 l 39.293
 71.008 l 39.293 69.039 l 38.699 69.039 l h
38.699 71.008 m f
41.66 67.805 m 42.41 67.852 42.504 67.945 42.52 68.617 c 42.52 72.586 l
 42.504 73.258 42.395 73.367 41.66 73.398 c 41.66 73.57 l 44.645 73.57 l
 45.348 73.57 45.988 73.383 46.316 73.07 c 46.645 72.789 46.816 72.383 46.816
 71.961 c 46.816 71.555 46.676 71.195 46.379 70.945 c 46.113 70.695 45.879
 70.586 45.285 70.445 c 45.754 70.336 45.941 70.242 46.16 70.055 c 46.379
 69.852 46.52 69.539 46.52 69.164 c 46.52 68.148 45.707 67.633 44.16 67.633
 c 41.66 67.633 l h
43.426 70.648 m 44.301 70.648 44.707 70.695 45.035 70.836 c 45.551 71.039
 45.785 71.414 45.785 71.961 c 45.785 72.445 45.598 72.805 45.238 73.008
 c 44.957 73.164 44.582 73.242 44.004 73.242 c 43.551 73.242 43.426 73.164
 43.426 72.867 c h
43.426 70.289 m 43.426 68.227 l 43.441 68.039 43.473 67.977 43.629 67.977
 c 44.02 67.961 l 45.02 67.945 45.598 68.398 45.598 69.195 c 45.598 69.898
 45.145 70.273 44.285 70.289 c h
43.426 70.289 m f
47.848 75.164 m 48.504 74.711 48.785 74.492 49.113 74.086 c 49.754 73.305
 50.066 72.398 50.066 71.352 c 50.066 70.211 49.723 69.336 48.941 68.43 
c 48.566 67.992 48.332 67.789 47.879 67.508 c 47.77 67.648 l 48.488 68.211
 48.723 68.523 48.973 69.195 c 49.191 69.805 49.285 70.477 49.285 71.383
 c 49.285 72.32 49.176 73.055 48.926 73.602 c 48.691 74.164 48.41 74.492
 47.77 75.008 c h
47.848 75.164 m f
53.145 67.508 m 52.488 67.945 52.223 68.164 51.879 68.586 c 51.254 69.367
 50.941 70.258 50.941 71.305 c 50.941 72.461 51.27 73.336 52.051 74.242 
c 52.426 74.68 52.66 74.867 53.129 75.164 c 53.223 75.008 l 52.52 74.445
 52.27 74.133 52.02 73.461 c 51.801 72.867 51.707 72.195 51.707 71.289 c
 51.707 70.336 51.816 69.602 52.066 69.055 c 52.316 68.492 52.582 68.164
 53.223 67.648 c h
53.145 67.508 m f
53.691 73.57 m 55.816 73.57 l 55.816 73.43 l 55.238 73.414 55.145 73.32
 55.129 72.82 c 55.129 67.461 l 55.098 67.445 l 54.645 67.586 54.316 67.68
 53.676 67.836 c 53.676 67.977 l 53.723 67.977 l 53.832 67.977 53.941 67.961
 54.004 67.961 c 54.301 67.961 54.379 68.086 54.379 68.508 c 54.379 72.789
 l 54.379 73.273 54.254 73.398 53.691 73.43 c h
53.691 73.57 m f
56.367 75.164 m 57.023 74.711 57.305 74.492 57.633 74.086 c 58.273 73.305
 58.586 72.398 58.586 71.352 c 58.586 70.211 58.242 69.336 57.461 68.43 
c 57.086 67.992 56.852 67.789 56.398 67.508 c 56.289 67.648 l 57.008 68.211
 57.242 68.523 57.492 69.195 c 57.711 69.805 57.805 70.477 57.805 71.383
 c 57.805 72.32 57.695 73.055 57.445 73.602 c 57.211 74.164 56.93 74.492
 56.289 75.008 c h
56.367 75.164 m f
42.426 82.66 m 42.426 82.441 42.223 82.332 42.051 82.332 c 41.598 82.332
 41.02 83.004 40.582 83.707 c 40.566 83.707 40.504 83.41 40.504 83.41 c 
40.363 82.816 40.191 82.473 39.879 82.332 c 39.879 82.332 38.863 82.535 
38.738 82.582 c 38.738 82.738 l 38.926 82.691 39.066 82.66 39.16 82.66 c
 39.66 82.66 39.738 83.145 40.082 84.441 c 39.676 85.035 39.035 86.035 38.785
 86.035 c 38.582 86.035 38.566 85.816 38.285 85.816 c 38.098 85.816 37.957
 85.957 37.957 86.145 c 37.957 86.379 38.129 86.535 38.379 86.535 c 39.02
 86.535 39.598 85.41 40.145 84.707 c 40.176 84.77 40.379 85.566 40.379 85.566
 c 40.598 86.395 40.77 86.535 40.988 86.535 c 41.27 86.535 41.691 86.254
 42.113 85.473 c 41.988 85.395 l 41.832 85.598 41.582 86.02 41.348 86.02
 c 41.035 86.02 40.863 84.754 40.645 83.957 c 40.691 83.879 41.316 82.879
 41.645 82.879 c 41.816 82.879 41.973 83.02 42.129 83.02 c 42.348 83.02 
42.426 82.832 42.426 82.66 c h
42.426 82.66 m f
47.625 88.461 m 47.312 88.43 47.234 88.367 47 87.852 c 45.266 83.883 l 
45.125 83.883 l 43.672 87.305 l 43.219 88.32 43.141 88.445 42.812 88.461
 c 42.812 88.586 l 44.188 88.586 l 44.188 88.461 l 43.859 88.461 43.719 
88.367 43.719 88.164 c 43.719 88.086 43.734 87.992 43.766 87.898 c 44.094
 87.086 l 45.922 87.086 l 46.203 87.742 l 46.281 87.945 46.328 88.117 46.328
 88.211 c 46.328 88.398 46.219 88.445 45.844 88.461 c 45.844 88.586 l 47.625
 88.586 l h
44.203 86.789 m 45.016 84.883 l 45.812 86.789 l h
44.203 86.789 m f
0.901961 g
113.812 78.379 m 113.812 99.641 l 198.852 99.641 l 198.852 57.117 l 113.812
 57.117 l f
Q q
112.945 0.059 86.301 101 re W n
q
112 0 88 102 re W n
  q
0 g
0.850361 w
0 J
0 j
[] 0.0 d
10 M q 1 0 0 -1 0 0 cm
113.812 -50.031 m 113.812 -99.641 l 198.852 -99.641 l 198.852 -0.426 l 
113.812 -0.426 l h
113.812 -50.031 m S Q
  Q
Q
Q q
0 g
143.316 115.875 m 143.285 114.641 l 143.176 114.641 l 143.129 114.719 143.082
 114.734 143.035 114.734 c 142.988 114.734 142.895 114.719 142.801 114.672
 c 142.582 114.609 142.379 114.562 142.16 114.562 c 141.457 114.562 140.941
 115.031 140.941 115.672 c 140.941 116.172 141.238 116.531 141.988 116.969
 c 142.52 117.266 l 142.832 117.438 142.988 117.656 142.988 117.938 c 142.988
 118.328 142.691 118.578 142.238 118.578 c 141.613 118.578 141.301 118.234
 141.098 117.328 c 140.957 117.328 l 140.957 118.719 l 141.066 118.719 l
 141.129 118.641 141.176 118.609 141.285 118.609 c 141.379 118.609 141.488
 118.641 141.691 118.688 c 141.926 118.734 142.16 118.781 142.348 118.781
 c 143.051 118.781 143.613 118.25 143.613 117.625 c 143.613 117.188 143.395
 116.891 142.863 116.562 c 141.895 115.984 l 141.629 115.828 141.504 115.625
 141.504 115.375 c 141.504 115.016 141.785 114.766 142.191 114.766 c 142.707
 114.766 142.973 115.062 143.176 115.875 c h
143.316 115.875 m f
148.234 114.656 m 147.016 114.656 l 147.016 114.781 l 147.312 114.781 147.453
 114.859 147.453 115.016 c 147.453 115.047 147.438 115.094 147.406 115.156
 c 146.547 117.641 l 145.516 115.375 l 145.453 115.25 145.422 115.125 145.422
 115.031 c 145.422 114.859 145.562 114.797 145.938 114.781 c 145.938 114.656
 l 144.094 114.656 l 144.094 114.781 l 144.328 114.812 144.484 114.906 144.547
 115.062 c 145.578 117.266 l 145.688 117.516 145.688 117.516 145.734 117.609
 c 145.984 118.062 146.125 118.391 146.125 118.531 c 146.125 118.672 145.922
 119.219 145.766 119.5 c 145.641 119.719 145.453 119.891 145.328 119.891
 c 145.266 119.891 145.188 119.875 145.094 119.828 c 144.922 119.766 144.766
 119.734 144.625 119.734 c 144.406 119.734 144.234 119.891 144.234 120.125
 c 144.234 120.422 144.516 120.641 144.906 120.641 c 145.516 120.641 145.922
 120.156 146.422 118.844 c 147.797 115.188 l 147.922 114.906 148.016 114.812
 148.234 114.781 c h
148.234 114.656 m f
151.238 115.875 m 151.207 114.641 l 151.098 114.641 l 151.051 114.719 151.004
 114.734 150.957 114.734 c 150.91 114.734 150.816 114.719 150.723 114.672
 c 150.504 114.609 150.301 114.562 150.082 114.562 c 149.379 114.562 148.863
 115.031 148.863 115.672 c 148.863 116.172 149.16 116.531 149.91 116.969
 c 150.441 117.266 l 150.754 117.438 150.91 117.656 150.91 117.938 c 150.91
 118.328 150.613 118.578 150.16 118.578 c 149.535 118.578 149.223 118.234
 149.02 117.328 c 148.879 117.328 l 148.879 118.719 l 148.988 118.719 l 
149.051 118.641 149.098 118.609 149.207 118.609 c 149.301 118.609 149.41
 118.641 149.613 118.688 c 149.848 118.734 150.082 118.781 150.27 118.781
 c 150.973 118.781 151.535 118.25 151.535 117.625 c 151.535 117.188 151.316
 116.891 150.785 116.562 c 149.816 115.984 l 149.551 115.828 149.426 115.625
 149.426 115.375 c 149.426 115.016 149.707 114.766 150.113 114.766 c 150.629
 114.766 150.895 115.062 151.098 115.875 c h
151.238 115.875 m f
154.172 114.656 m 153.266 114.656 l 153.266 113.609 l 153.266 113.516 153.25
 113.5 153.203 113.5 c 152.688 114.25 152.422 114.547 152.156 114.703 c 
152.062 114.766 152 114.828 152 114.875 c 152 114.906 152.016 114.922 152.047
 114.938 c 152.516 114.938 l 152.516 117.641 l 152.516 118.391 152.781 118.781
 153.312 118.781 c 153.75 118.781 154.094 118.562 154.391 118.094 c 154.281
 118 l 154.078 118.234 153.938 118.312 153.734 118.312 c 153.406 118.312
 153.266 118.062 153.266 117.5 c 153.266 114.938 l 154.172 114.938 l h
154.172 114.656 m f
158.066 117.219 m 157.645 117.891 157.254 118.156 156.676 118.156 c 156.176
 118.156 155.785 117.891 155.52 117.391 c 155.363 117.047 155.301 116.766
 155.285 116.203 c 158.035 116.203 l 157.973 115.625 157.879 115.359 157.66
 115.078 c 157.395 114.75 156.973 114.562 156.504 114.562 c 156.066 114.562
 155.645 114.719 155.301 115.031 c 154.879 115.391 154.629 116.031 154.629
 116.766 c 154.629 118 155.285 118.781 156.316 118.781 c 157.16 118.781 
157.832 118.25 158.207 117.281 c h
155.301 115.922 m 155.395 115.219 155.707 114.891 156.254 114.891 c 156.801
 114.891 157.004 115.141 157.129 115.922 c h
155.301 115.922 m f
158.512 118.688 m 160.512 118.688 l 160.512 118.547 l 160.043 118.547 159.902
 118.453 159.902 118.094 c 159.902 115.562 l 159.902 115.547 159.965 115.453
 160.027 115.391 c 160.262 115.188 160.637 115.031 160.949 115.031 c 161.355
 115.031 161.543 115.344 161.543 115.969 c 161.543 117.922 l 161.527 118.422
 161.434 118.531 160.934 118.547 c 160.934 118.688 l 162.949 118.688 l 162.949
 118.547 l 162.449 118.547 162.324 118.406 162.293 117.828 c 162.293 115.578
 l 162.574 115.188 162.855 115.031 163.277 115.031 c 163.793 115.031 163.949
 115.266 163.949 116.016 c 163.949 117.906 l 163.934 118.438 163.871 118.5
 163.355 118.547 c 163.355 118.688 l 165.324 118.688 l 165.324 118.547 l
 165.09 118.531 l 164.809 118.484 164.699 118.359 164.699 118 c 164.699 
116.156 l 164.699 115.094 164.355 114.562 163.668 114.562 c 163.137 114.562
 162.684 114.797 162.199 115.312 c 162.043 114.797 161.73 114.562 161.246
 114.562 c 160.84 114.562 160.605 114.672 159.855 115.25 c 159.855 114.578
 l 159.793 114.562 l 159.324 114.734 159.012 114.828 158.543 114.969 c 158.543
 115.125 l 158.652 115.094 158.73 115.078 158.824 115.078 c 159.059 115.078
 159.137 115.219 159.137 115.656 c 159.137 117.922 l 159.121 118.422 159.012
 118.547 158.512 118.547 c h
158.512 118.688 m f
171.996 117.453 m 171.871 117.406 l 171.543 117.938 171.449 118 171.027
 118 c 168.871 118 l 170.387 116.422 l 171.184 115.594 171.527 114.906 171.527
 114.219 c 171.527 113.312 170.809 112.625 169.871 112.625 c 169.387 112.625
 168.918 112.828 168.59 113.188 c 168.293 113.484 168.168 113.766 168.012
 114.406 c 168.199 114.453 l 168.559 113.578 168.871 113.281 169.496 113.281
 c 170.262 113.281 170.762 113.797 170.762 114.547 c 170.762 115.266 170.355
 116.094 169.59 116.891 c 167.996 118.578 l 167.996 118.688 l 171.496 118.688
 l h
171.996 117.453 m f
Q q
104.945 48.059 94.301 18 re W n
q
104 48 96 19 re W n
  q
0 g
0.567043 w
0 J
0 j
[] 0.0 d
10 M q 1 0 0 -1 0 0 cm
113.812 -57.117 m 113.812 -56.906 l 114.047 -56.91 l 114.285 -56.918 l 
114.52 -56.934 l 114.758 -56.957 l 114.992 -56.98 l 115.227 -57.012 l 115.465
 -57.047 l 115.699 -57.082 l 115.938 -57.117 l 116.172 -57.156 l 116.41 
-57.191 l 116.645 -57.223 l 116.883 -57.254 l 117.117 -57.281 l 117.355 
-57.305 l 117.59 -57.32 l 117.828 -57.328 l 118.062 -57.332 l 118.301 -57.328
 l 118.535 -57.32 l 118.77 -57.305 l 119.008 -57.281 l 119.242 -57.254 l
 119.48 -57.223 l 119.715 -57.191 l 119.953 -57.156 l 120.188 -57.117 l 
120.426 -57.082 l 120.66 -57.047 l 120.898 -57.012 l 121.133 -56.98 l 121.371
 -56.957 l 121.605 -56.934 l 121.844 -56.918 l 122.078 -56.91 l 122.312 
-56.906 l 122.551 -56.91 l 122.789 -56.918 l 123.023 -56.934 l 123.258 -56.957
 l 123.496 -56.98 l 123.73 -57.012 l 123.969 -57.047 l 124.203 -57.082 l
 124.441 -57.117 l 124.676 -57.156 l 124.914 -57.191 l 125.148 -57.223 l
 125.387 -57.254 l 125.621 -57.281 l 125.859 -57.305 l 126.094 -57.32 l 
126.332 -57.328 l 126.566 -57.332 l 126.801 -57.328 l 127.039 -57.32 l 127.273
 -57.305 l 127.512 -57.281 l 127.746 -57.254 l 127.984 -57.223 l 128.219
 -57.191 l 128.457 -57.156 l 128.691 -57.117 l 128.93 -57.082 l 129.398 
-57.012 l 129.637 -56.98 l 129.875 -56.957 l 130.109 -56.934 l 130.344 -56.918
 l 130.582 -56.91 l 130.816 -56.906 l 131.055 -56.91 l 131.289 -56.918 l
 131.527 -56.934 l 131.762 -56.957 l 132 -56.98 l 132.234 -57.012 l 132.473
 -57.047 l 132.707 -57.082 l 132.945 -57.117 l 133.18 -57.156 l 133.418 
-57.191 l 133.887 -57.254 l 134.125 -57.281 l 134.359 -57.305 l 134.598 
-57.32 l 134.832 -57.328 l 135.07 -57.332 l 135.305 -57.328 l 135.543 -57.32
 l 135.777 -57.305 l 136.016 -57.281 l 136.25 -57.254 l 136.488 -57.223 
l 136.723 -57.191 l 136.961 -57.156 l 137.195 -57.117 l 137.434 -57.082 
l 137.668 -57.047 l 137.906 -57.012 l 138.141 -56.98 l 138.379 -56.957 l
 138.613 -56.934 l 138.848 -56.918 l 139.086 -56.91 l 139.32 -56.906 l 139.559
 -56.91 l 139.793 -56.918 l 140.031 -56.934 l 140.266 -56.957 l 140.504 
-56.98 l 140.738 -57.012 l 140.977 -57.047 l 141.211 -57.082 l 141.449 -57.117
 l 141.684 -57.156 l 141.922 -57.191 l 142.391 -57.254 l 142.629 -57.281
 l 142.867 -57.305 l 143.102 -57.32 l 143.336 -57.328 l 143.574 -57.332 
l 143.809 -57.328 l 144.047 -57.32 l 144.281 -57.305 l 144.52 -57.281 l 
144.754 -57.254 l 144.992 -57.223 l 145.227 -57.191 l 145.465 -57.156 l 
145.699 -57.117 l 145.934 -57.082 l 146.41 -57.012 l 146.645 -56.98 l 146.879
 -56.957 l 147.117 -56.934 l 147.352 -56.918 l 147.59 -56.91 l 147.824 -56.906
 l 148.062 -56.91 l 148.297 -56.918 l 148.535 -56.934 l 148.77 -56.957 l
 149.008 -56.98 l 149.242 -57.012 l 149.477 -57.047 l 149.953 -57.117 l 
150.188 -57.156 l 150.422 -57.191 l 150.66 -57.223 l 150.895 -57.254 l 151.133
 -57.281 l 151.367 -57.305 l 151.605 -57.32 l 151.84 -57.328 l 152.078 -57.332
 l 152.312 -57.328 l 152.551 -57.32 l 152.785 -57.305 l 153.023 -57.281 
l 153.258 -57.254 l 153.496 -57.223 l 153.73 -57.191 l 153.965 -57.156 l
 154.203 -57.117 l 154.438 -57.082 l 154.676 -57.047 l 154.91 -57.012 l 
155.148 -56.98 l 155.383 -56.957 l 155.621 -56.934 l 155.855 -56.918 l 156.094
 -56.91 l 156.328 -56.906 l 156.566 -56.91 l 156.801 -56.918 l 157.039 -56.934
 l 157.508 -56.98 l 157.746 -57.012 l 157.98 -57.047 l 158.219 -57.082 l
 158.453 -57.117 l 158.691 -57.156 l 158.926 -57.191 l 159.164 -57.223 l
 159.398 -57.254 l 159.637 -57.281 l 159.871 -57.305 l 160.109 -57.32 l 
160.344 -57.328 l 160.582 -57.332 l 160.816 -57.328 l 161.051 -57.32 l 161.289
 -57.305 l 161.523 -57.281 l 161.762 -57.254 l 161.996 -57.223 l 162.234
 -57.191 l 162.469 -57.156 l 162.707 -57.117 l 162.941 -57.082 l 163.18 
-57.047 l 163.414 -57.012 l 163.652 -56.98 l 163.887 -56.957 l 164.125 -56.934
 l 164.359 -56.918 l 164.598 -56.91 l 164.832 -56.906 l 165.066 -56.91 l
 165.305 -56.918 l 165.539 -56.934 l 165.777 -56.957 l 166.012 -56.98 l 
166.25 -57.012 l 166.484 -57.047 l 166.723 -57.082 l 166.957 -57.117 l 167.195
 -57.156 l 167.43 -57.191 l 167.668 -57.223 l 167.902 -57.254 l 168.141 
-57.281 l 168.375 -57.305 l 168.609 -57.32 l 168.848 -57.328 l 169.086 -57.332
 l 169.32 -57.328 l 169.555 -57.32 l 169.793 -57.305 l 170.031 -57.281 l
 170.266 -57.254 l 170.5 -57.223 l 170.738 -57.191 l 170.973 -57.156 l 171.211
 -57.117 l 171.445 -57.082 l 171.684 -57.047 l 171.918 -57.012 l 172.156
 -56.98 l 172.391 -56.957 l 172.629 -56.934 l 172.863 -56.918 l 173.098 
-56.91 l 173.336 -56.906 l 173.574 -56.91 l 173.809 -56.918 l 174.043 -56.934
 l 174.281 -56.957 l 174.516 -56.98 l 174.754 -57.012 l 174.988 -57.047 
l 175.227 -57.082 l 175.461 -57.117 l 175.699 -57.156 l 175.934 -57.191 
l 176.172 -57.223 l 176.406 -57.254 l 176.641 -57.281 l 176.879 -57.305 
l 177.117 -57.32 l 177.352 -57.328 l 177.586 -57.332 l 177.824 -57.328 l
 178.059 -57.32 l 178.297 -57.305 l 178.531 -57.281 l 178.77 -57.254 l 179.004
 -57.223 l 179.242 -57.191 l 179.477 -57.156 l 179.715 -57.117 l 180.184
 -57.047 l 180.422 -57.012 l 180.66 -56.98 l 181.129 -56.934 l 181.367 -56.918
 l 181.602 -56.91 l 181.84 -56.906 l 182.074 -56.91 l 182.312 -56.918 l 
182.547 -56.934 l 182.785 -56.957 l 183.02 -56.98 l 183.258 -57.012 l 183.492
 -57.047 l 183.73 -57.082 l 183.965 -57.117 l 184.203 -57.156 l 184.438 
-57.191 l 184.676 -57.223 l 184.91 -57.254 l 185.145 -57.281 l 185.383 -57.305
 l 185.617 -57.32 l 185.855 -57.328 l 186.09 -57.332 l 186.328 -57.328 l
 186.562 -57.32 l 186.801 -57.305 l 187.035 -57.281 l 187.273 -57.254 l 
187.508 -57.223 l 187.746 -57.191 l 187.98 -57.156 l 188.215 -57.117 l 188.453
 -57.082 l 188.688 -57.047 l 188.926 -57.012 l 189.16 -56.98 l 189.398 -56.957
 l 189.633 -56.934 l 189.871 -56.918 l 190.105 -56.91 l 190.344 -56.906 
l 190.578 -56.91 l 190.816 -56.918 l 191.051 -56.934 l 191.289 -56.957 l
 191.523 -56.98 l 191.758 -57.012 l 191.996 -57.047 l 192.23 -57.082 l 192.469
 -57.117 l 192.703 -57.156 l 192.941 -57.191 l 193.176 -57.223 l 193.414
 -57.254 l 193.648 -57.281 l 193.887 -57.305 l 194.121 -57.32 l 194.359 
-57.328 l 194.594 -57.332 l 194.832 -57.328 l 195.066 -57.32 l 195.305 -57.305
 l 195.539 -57.281 l 195.773 -57.254 l 196.25 -57.191 l 196.484 -57.156 
l 196.719 -57.117 l 196.957 -57.082 l 197.191 -57.047 l 197.43 -57.012 l
 197.664 -56.98 l 197.902 -56.957 l 198.137 -56.934 l 198.375 -56.918 l 
198.609 -56.91 l 198.848 -56.906 l 198.852 -56.906 l 198.852 -57.117 l S Q
  Q
Q
Q q
0 g
142.051 10.574 m 141.395 11.012 141.129 11.23 140.785 11.652 c 140.16 12.434
 139.848 13.324 139.848 14.371 c 139.848 15.527 140.176 16.402 140.957 17.309
 c 141.332 17.746 141.566 17.934 142.035 18.23 c 142.129 18.074 l 141.426
 17.512 141.176 17.199 140.926 16.527 c 140.707 15.934 140.613 15.262 140.613
 14.355 c 140.613 13.402 140.723 12.668 140.973 12.121 c 141.223 11.559 
141.488 11.23 142.129 10.715 c h
142.051 10.574 m f
148.738 16.465 m 148.332 16.434 148.254 16.355 147.941 15.684 c 145.707
 10.59 l 145.52 10.59 l 143.66 14.996 l 143.082 16.309 142.973 16.449 142.551
 16.465 c 142.551 16.637 l 144.316 16.637 l 144.316 16.465 l 143.895 16.465
 143.707 16.355 143.707 16.105 c 143.707 15.996 143.738 15.871 143.785 15.746
 c 144.191 14.699 l 146.551 14.699 l 146.91 15.559 l 147.02 15.809 147.082
 16.043 147.082 16.168 c 147.082 16.387 146.926 16.465 146.457 16.465 c 
146.457 16.637 l 148.738 16.637 l h
144.348 14.324 m 145.379 11.871 l 146.426 14.324 l h
144.348 14.324 m f
151.125 14.074 m 149.156 14.074 l 149.156 14.668 l 151.125 14.668 l 151.125
 16.637 l 151.719 16.637 l 151.719 14.668 l 153.688 14.668 l 153.688 14.074
 l 151.719 14.074 l 151.719 12.105 l 151.125 12.105 l h
151.125 14.074 m f
159.492 12.59 m 159.414 10.574 l 159.227 10.574 l 159.164 10.762 159.023
 10.871 158.852 10.871 c 158.758 10.871 158.633 10.84 158.492 10.793 c 158.055
 10.652 157.602 10.574 157.18 10.574 c 156.445 10.574 155.711 10.855 155.148
 11.34 c 154.523 11.902 154.18 12.73 154.18 13.715 c 154.18 15.543 155.367
 16.762 157.164 16.762 c 158.18 16.762 159.07 16.355 159.602 15.621 c 159.445
 15.465 l 158.789 16.105 158.195 16.371 157.445 16.371 c 156.883 16.371 
156.383 16.184 155.992 15.84 c 155.492 15.402 155.227 14.605 155.227 13.59
 c 155.227 11.98 156.055 10.934 157.352 10.934 c 157.867 10.934 158.336 
11.121 158.695 11.465 c 158.977 11.762 159.117 12.012 159.289 12.59 c h
159.492 12.59 m f
160.273 18.23 m 160.93 17.777 161.211 17.559 161.539 17.152 c 162.18 16.371
 162.492 15.465 162.492 14.418 c 162.492 13.277 162.148 12.402 161.367 11.496
 c 160.992 11.059 160.758 10.855 160.305 10.574 c 160.195 10.715 l 160.914
 11.277 161.148 11.59 161.398 12.262 c 161.617 12.871 161.711 13.543 161.711
 14.449 c 161.711 15.387 161.602 16.121 161.352 16.668 c 161.117 17.23 160.836
 17.559 160.195 18.074 c h
160.273 18.23 m f
165.57 10.574 m 164.914 11.012 164.648 11.23 164.305 11.652 c 163.68 12.434
 163.367 13.324 163.367 14.371 c 163.367 15.527 163.695 16.402 164.477 17.309
 c 164.852 17.746 165.086 17.934 165.555 18.23 c 165.648 18.074 l 164.945
 17.512 164.695 17.199 164.445 16.527 c 164.227 15.934 164.133 15.262 164.133
 14.355 c 164.133 13.402 164.242 12.668 164.492 12.121 c 164.742 11.559 
165.008 11.23 165.648 10.715 c h
165.57 10.574 m f
170.148 13.152 m 170.148 12.809 l 169.461 12.809 l 169.273 12.809 169.133
 12.777 168.961 12.715 c 168.758 12.652 l 168.523 12.559 168.273 12.512 
168.039 12.512 c 167.211 12.512 166.555 13.152 166.555 13.98 c 166.555 14.543
 166.789 14.871 167.383 15.168 c 167.148 15.387 l 166.961 15.574 166.852
 15.668 166.82 15.699 c 166.633 15.902 166.586 15.996 166.586 16.152 c 166.586
 16.355 166.68 16.449 167.055 16.621 c 166.414 17.09 166.18 17.387 166.18
 17.715 c 166.18 18.199 166.867 18.59 167.727 18.59 c 168.398 18.59 169.102
 18.355 169.57 17.98 c 169.914 17.699 170.07 17.418 170.07 17.074 c 170.07
 16.527 169.648 16.152 168.977 16.121 c 167.82 16.059 l 167.336 16.043 167.117
 15.965 167.117 15.824 c 167.117 15.637 167.414 15.324 167.664 15.262 c 
167.977 15.277 168.148 15.293 168.18 15.293 c 168.508 15.293 168.867 15.168
 169.133 14.918 c 169.43 14.668 169.57 14.355 169.57 13.918 c 169.57 13.652
 169.523 13.449 169.398 13.152 c h
167.242 16.652 m 167.555 16.715 168.258 16.777 168.711 16.777 c 169.523
 16.777 169.82 16.887 169.82 17.215 c 169.82 17.73 169.133 18.074 168.117
 18.074 c 167.32 18.074 166.805 17.824 166.805 17.434 c 166.805 17.215 166.883
 17.09 167.242 16.652 c h
167.289 13.605 m 167.289 13.074 167.539 12.762 167.961 12.762 c 168.242
 12.762 168.461 12.918 168.617 13.184 c 168.789 13.496 168.883 13.902 168.883
 14.262 c 168.883 14.762 168.633 15.074 168.211 15.074 c 167.664 15.074 
167.289 14.496 167.289 13.637 c h
167.289 13.605 m f
170.715 18.23 m 171.371 17.777 171.652 17.559 171.98 17.152 c 172.621 16.371
 172.934 15.465 172.934 14.418 c 172.934 13.277 172.59 12.402 171.809 11.496
 c 171.434 11.059 171.199 10.855 170.746 10.574 c 170.637 10.715 l 171.355
 11.277 171.59 11.59 171.84 12.262 c 172.059 12.871 172.152 13.543 172.152
 14.449 c 172.152 15.387 172.043 16.121 171.793 16.668 c 171.559 17.23 171.277
 17.559 170.637 18.074 c h
170.715 18.23 m f
135.723 41.941 m 135.723 41.238 135.41 40.77 134.738 40.77 c 134.145 40.77
 133.691 41.191 133.285 41.754 c 133.598 40.77 l 133.598 40.77 132.395 41.004
 132.129 41.02 c 132.129 41.176 l 132.457 41.176 132.723 41.145 132.723 
41.504 c 132.723 41.676 132.613 42.066 132.551 42.285 c 131.488 46.02 l 
131.395 46.363 131.238 46.613 130.801 46.613 c 130.77 46.77 l 132.738 46.77
 l 132.77 46.613 l 132.426 46.613 132.129 46.598 132.129 46.348 c 132.129
 46.27 132.145 46.176 132.191 46.004 c 132.504 44.754 l 132.676 44.895 132.941
 44.973 133.16 44.973 c 134.238 44.973 135.723 43.441 135.723 41.941 c h
134.957 42.035 m 134.957 43.207 133.973 44.77 133.129 44.77 c 132.926 44.77
 132.738 44.691 132.566 44.52 c 132.77 43.723 133.316 41.191 134.473 41.191
 c 134.957 41.191 134.957 41.832 134.957 42.035 c h
134.957 42.035 m f
145.68 41.941 m 145.68 41.441 l 139.68 41.441 l 139.68 41.941 l h
145.68 43.754 m 145.68 43.254 l 139.68 43.254 l 139.68 43.754 l h
145.68 43.754 m f
154.203 41.941 m 154.203 41.238 153.891 40.77 153.219 40.77 c 152.625 40.77
 152.172 41.191 151.766 41.754 c 152.078 40.77 l 152.078 40.77 150.875 41.004
 150.609 41.02 c 150.609 41.176 l 150.938 41.176 151.203 41.145 151.203 
41.504 c 151.203 41.676 151.094 42.066 151.031 42.285 c 149.969 46.02 l 
149.875 46.363 149.719 46.613 149.281 46.613 c 149.25 46.77 l 151.219 46.77
 l 151.25 46.613 l 150.906 46.613 150.609 46.598 150.609 46.348 c 150.609
 46.27 150.625 46.176 150.672 46.004 c 150.984 44.754 l 151.156 44.895 151.422
 44.973 151.641 44.973 c 152.719 44.973 154.203 43.441 154.203 41.941 c 
h
153.438 42.035 m 153.438 43.207 152.453 44.77 151.609 44.77 c 151.406 44.77
 151.219 44.691 151.047 44.52 c 151.25 43.723 151.797 41.191 152.953 41.191
 c 153.438 41.191 153.438 41.832 153.438 42.035 c h
153.438 42.035 m f
158.703 40.176 m 158.703 40.082 158.641 39.988 158.484 39.895 c 158.312
 39.801 157.734 39.598 157.422 39.488 c 157.734 39.379 158.312 39.176 158.484
 39.082 c 158.641 38.988 158.703 38.895 158.703 38.801 c 158.703 38.66 158.578
 38.52 158.406 38.52 c 158.328 38.52 158.266 38.535 158.188 38.582 c 158.016
 38.66 157.516 39.035 157.266 39.238 c 157.328 38.926 157.406 38.363 157.406
 38.176 c 157.406 37.926 157.297 37.832 157.109 37.832 c 156.922 37.832 
156.812 37.926 156.812 38.176 c 156.812 38.363 156.891 38.926 156.953 39.238
 c 156.703 39.035 156.203 38.66 156.031 38.582 c 155.938 38.535 155.891 
38.52 155.797 38.52 c 155.641 38.52 155.516 38.66 155.516 38.801 c 155.516
 38.895 155.562 38.988 155.734 39.082 c 155.906 39.176 156.469 39.379 156.781
 39.488 c 156.469 39.598 155.906 39.801 155.734 39.895 c 155.562 39.988 
155.516 40.082 155.516 40.176 c 155.516 40.316 155.641 40.473 155.797 40.473
 c 155.891 40.473 155.938 40.441 156.031 40.395 c 156.203 40.301 156.703
 39.941 156.953 39.738 c 156.891 40.035 156.812 40.598 156.812 40.785 c 
156.812 41.035 156.922 41.145 157.109 41.145 c 157.297 41.145 157.406 41.035
 157.406 40.785 c 157.406 40.598 157.328 40.035 157.266 39.738 c 157.516
 39.941 158.016 40.301 158.188 40.395 c 158.266 40.441 158.328 40.473 158.406
 40.473 c 158.578 40.473 158.703 40.316 158.703 40.176 c h
158.703 40.176 m f
159.453 47.738 m 159.141 47.707 159.062 47.645 158.828 47.129 c 157.094
 43.16 l 156.953 43.16 l 155.5 46.582 l 155.047 47.598 154.969 47.723 154.641
 47.738 c 154.641 47.863 l 156.016 47.863 l 156.016 47.738 l 155.688 47.738
 155.547 47.645 155.547 47.441 c 155.547 47.363 155.562 47.27 155.594 47.176
 c 155.922 46.363 l 157.75 46.363 l 158.031 47.02 l 158.109 47.223 158.156
 47.395 158.156 47.488 c 158.156 47.676 158.047 47.723 157.672 47.738 c 
157.672 47.863 l 159.453 47.863 l h
156.031 46.066 m 156.844 44.16 l 157.641 46.066 l h
156.031 46.066 m f
168.723 42.832 m 168.723 42.379 l 165.941 42.379 l 165.941 39.613 l 165.504
 39.613 l 165.504 42.379 l 162.723 42.379 l 162.723 42.832 l 165.504 42.832
 l 165.504 45.598 l 165.941 45.598 l 165.941 42.832 l h
168.723 42.832 m f
176.883 41.941 m 176.883 41.238 176.57 40.77 175.898 40.77 c 175.305 40.77
 174.852 41.191 174.445 41.754 c 174.758 40.77 l 174.758 40.77 173.555 41.004
 173.289 41.02 c 173.289 41.176 l 173.617 41.176 173.883 41.145 173.883 
41.504 c 173.883 41.676 173.773 42.066 173.711 42.285 c 172.648 46.02 l 
172.555 46.363 172.398 46.613 171.961 46.613 c 171.93 46.77 l 173.898 46.77
 l 173.93 46.613 l 173.586 46.613 173.289 46.598 173.289 46.348 c 173.289
 46.27 173.305 46.176 173.352 46.004 c 173.664 44.754 l 173.836 44.895 174.102
 44.973 174.32 44.973 c 175.398 44.973 176.883 43.441 176.883 41.941 c h
176.117 42.035 m 176.117 43.207 175.133 44.77 174.289 44.77 c 174.086 44.77
 173.898 44.691 173.727 44.52 c 173.93 43.723 174.477 41.191 175.633 41.191
 c 176.117 41.191 176.117 41.832 176.117 42.035 c h
176.117 42.035 m f
181.539 43.883 m 181.477 42.32 l 181.32 42.32 l 181.273 42.461 181.164 
42.539 181.023 42.539 c 180.961 42.539 180.867 42.523 180.758 42.492 c 180.414
 42.367 180.07 42.32 179.742 42.32 c 179.164 42.32 178.586 42.523 178.164
 42.914 c 177.664 43.352 177.398 43.992 177.398 44.758 c 177.398 46.18 178.336
 47.117 179.727 47.117 c 180.508 47.117 181.211 46.805 181.617 46.242 c 
181.492 46.117 l 180.992 46.602 180.523 46.82 179.945 46.82 c 179.508 46.82
 179.117 46.68 178.82 46.414 c 178.43 46.07 178.211 45.445 178.211 44.664
 c 178.211 43.398 178.867 42.586 179.867 42.586 c 180.273 42.586 180.633
 42.742 180.914 43.008 c 181.133 43.227 181.242 43.43 181.367 43.883 c h
181.539 43.883 m f
148.082 27.77 m 148.082 27.066 147.77 26.598 147.098 26.598 c 146.504 26.598
 146.051 27.02 145.645 27.582 c 145.957 26.598 l 145.957 26.598 144.754 
26.832 144.488 26.848 c 144.488 27.004 l 144.816 27.004 145.082 26.973 145.082
 27.332 c 145.082 27.504 144.973 27.895 144.91 28.113 c 143.848 31.848 l
 143.754 32.191 143.598 32.441 143.16 32.441 c 143.129 32.598 l 145.098 
32.598 l 145.129 32.441 l 144.785 32.441 144.488 32.426 144.488 32.176 c
 144.488 32.098 144.504 32.004 144.551 31.832 c 144.863 30.582 l 145.035
 30.723 145.301 30.801 145.52 30.801 c 146.598 30.801 148.082 29.27 148.082
 27.77 c h
147.316 27.863 m 147.316 29.035 146.332 30.598 145.488 30.598 c 145.285
 30.598 145.098 30.52 144.926 30.348 c 145.129 29.551 145.676 27.02 146.832
 27.02 c 147.316 27.02 147.316 27.66 147.316 27.863 c h
147.316 27.863 m f
152.582 26.004 m 152.582 25.91 152.52 25.816 152.363 25.723 c 152.191 25.629
 151.613 25.426 151.301 25.316 c 151.613 25.207 152.191 25.004 152.363 24.91
 c 152.52 24.816 152.582 24.723 152.582 24.629 c 152.582 24.488 152.457 
24.348 152.285 24.348 c 152.207 24.348 152.145 24.363 152.066 24.41 c 151.895
 24.488 151.395 24.863 151.145 25.066 c 151.207 24.754 151.285 24.191 151.285
 24.004 c 151.285 23.754 151.176 23.66 150.988 23.66 c 150.801 23.66 150.691
 23.754 150.691 24.004 c 150.691 24.191 150.77 24.754 150.832 25.066 c 150.582
 24.863 150.082 24.488 149.91 24.41 c 149.816 24.363 149.77 24.348 149.676
 24.348 c 149.52 24.348 149.395 24.488 149.395 24.629 c 149.395 24.723 149.441
 24.816 149.613 24.91 c 149.785 25.004 150.348 25.207 150.66 25.316 c 150.348
 25.426 149.785 25.629 149.613 25.723 c 149.441 25.816 149.395 25.91 149.395
 26.004 c 149.395 26.145 149.52 26.301 149.676 26.301 c 149.77 26.301 149.816
 26.27 149.91 26.223 c 150.082 26.129 150.582 25.77 150.832 25.566 c 150.77
 25.863 150.691 26.426 150.691 26.613 c 150.691 26.863 150.801 26.973 150.988
 26.973 c 151.176 26.973 151.285 26.863 151.285 26.613 c 151.285 26.426 
151.207 25.863 151.145 25.566 c 151.395 25.77 151.895 26.129 152.066 26.223
 c 152.145 26.27 152.207 26.301 152.285 26.301 c 152.457 26.301 152.582 
26.145 152.582 26.004 c h
152.582 26.004 m f
153.332 33.566 m 153.02 33.535 152.941 33.473 152.707 32.957 c 150.973 
28.988 l 150.832 28.988 l 149.379 32.41 l 148.926 33.426 148.848 33.551 
148.52 33.566 c 148.52 33.691 l 149.895 33.691 l 149.895 33.566 l 149.566
 33.566 149.426 33.473 149.426 33.27 c 149.426 33.191 149.441 33.098 149.473
 33.004 c 149.801 32.191 l 151.629 32.191 l 151.91 32.848 l 151.988 33.051
 152.035 33.223 152.035 33.316 c 152.035 33.504 151.926 33.551 151.551 33.566
 c 151.551 33.691 l 153.332 33.691 l h
149.91 31.895 m 150.723 29.988 l 151.52 31.895 l h
149.91 31.895 m f
155.727 30.582 m 155.727 30.004 155.367 29.816 155.164 29.816 c 155.023
 29.816 154.648 29.895 154.648 30.316 c 154.648 30.66 154.93 30.77 155.086
 30.77 c 155.164 30.77 155.18 30.723 155.258 30.723 c 155.305 30.723 155.398
 30.785 155.398 30.941 c 155.398 31.066 155.367 31.395 154.805 31.801 c 
154.805 31.988 l 155.273 31.676 155.727 31.191 155.727 30.582 c h
155.727 30.582 m f
164.219 24.801 m 164.219 24.441 163.828 24.254 163.484 24.254 c 162.234
 24.254 161.625 26.051 161.438 26.691 c 161.438 26.691 160.859 26.691 160.625
 26.691 c 160.531 27.035 l 161.344 27.035 l 161.062 28.145 160.531 30.973
 159.984 31.926 c 159.734 32.363 159.344 32.426 159.172 32.426 c 159.109
 32.426 159.031 32.395 159.031 32.348 c 159.031 32.223 159.219 32.223 159.219
 32.035 c 159.219 31.926 159.125 31.801 158.938 31.801 c 158.703 31.801 
158.531 31.988 158.531 32.176 c 158.531 32.426 158.797 32.613 159.172 32.613
 c 160.922 32.613 161.578 28.848 162.031 27.035 c 162.766 27.035 l 162.844
 26.691 l 162.125 26.691 l 162.422 25.738 162.719 24.441 163.5 24.441 c 
163.609 24.441 163.719 24.52 163.719 24.598 c 163.719 24.691 163.578 24.754
 163.578 24.926 c 163.578 25.082 163.688 25.207 163.844 25.207 c 164.047
 25.207 164.219 25.02 164.219 24.801 c h
164.219 24.801 m f
168.902 26.004 m 168.902 25.91 168.84 25.816 168.684 25.723 c 168.512 25.629
 167.934 25.426 167.621 25.316 c 167.934 25.207 168.512 25.004 168.684 24.91
 c 168.84 24.816 168.902 24.723 168.902 24.629 c 168.902 24.488 168.777 
24.348 168.605 24.348 c 168.527 24.348 168.465 24.363 168.387 24.41 c 168.215
 24.488 167.715 24.863 167.465 25.066 c 167.527 24.754 167.605 24.191 167.605
 24.004 c 167.605 23.754 167.496 23.66 167.309 23.66 c 167.121 23.66 167.012
 23.754 167.012 24.004 c 167.012 24.191 167.09 24.754 167.152 25.066 c 166.902
 24.863 166.402 24.488 166.23 24.41 c 166.137 24.363 166.09 24.348 165.996
 24.348 c 165.84 24.348 165.715 24.488 165.715 24.629 c 165.715 24.723 165.762
 24.816 165.934 24.91 c 166.105 25.004 166.668 25.207 166.98 25.316 c 166.668
 25.426 166.105 25.629 165.934 25.723 c 165.762 25.816 165.715 25.91 165.715
 26.004 c 165.715 26.145 165.84 26.301 165.996 26.301 c 166.09 26.301 166.137
 26.27 166.23 26.223 c 166.402 26.129 166.902 25.77 167.152 25.566 c 167.09
 25.863 167.012 26.426 167.012 26.613 c 167.012 26.863 167.121 26.973 167.309
 26.973 c 167.496 26.973 167.605 26.863 167.605 26.613 c 167.605 26.426 
167.527 25.863 167.465 25.566 c 167.715 25.77 168.215 26.129 168.387 26.223
 c 168.465 26.27 168.527 26.301 168.605 26.301 c 168.777 26.301 168.902 
26.145 168.902 26.004 c h
168.902 26.004 m f
167.852 33.566 m 167.539 33.535 167.461 33.473 167.227 32.957 c 165.492
 28.988 l 165.352 28.988 l 163.898 32.41 l 163.445 33.426 163.367 33.551
 163.039 33.566 c 163.039 33.691 l 164.414 33.691 l 164.414 33.566 l 164.086
 33.566 163.945 33.473 163.945 33.27 c 163.945 33.191 163.961 33.098 163.992
 33.004 c 164.32 32.191 l 166.148 32.191 l 166.43 32.848 l 166.508 33.051
 166.555 33.223 166.555 33.316 c 166.555 33.504 166.445 33.551 166.07 33.566
 c 166.07 33.691 l 167.852 33.691 l h
164.43 31.895 m 165.242 29.988 l 166.039 31.895 l h
164.43 31.895 m f
155.219 73.398 m 154.812 73.367 154.734 73.289 154.422 72.617 c 152.188
 67.523 l 152 67.523 l 150.141 71.93 l 149.562 73.242 149.453 73.383 149.031
 73.398 c 149.031 73.57 l 150.797 73.57 l 150.797 73.398 l 150.375 73.398
 150.188 73.289 150.188 73.039 c 150.188 72.93 150.219 72.805 150.266 72.68
 c 150.672 71.633 l 153.031 71.633 l 153.391 72.492 l 153.5 72.742 153.562
 72.977 153.562 73.102 c 153.562 73.32 153.406 73.398 152.938 73.398 c 152.938
 73.57 l 155.219 73.57 l h
150.828 71.258 m 151.859 68.805 l 152.906 71.258 l h
150.828 71.258 m f
158.012 67.508 m 157.355 67.945 157.09 68.164 156.746 68.586 c 156.121 
69.367 155.809 70.258 155.809 71.305 c 155.809 72.461 156.137 73.336 156.918
 74.242 c 157.293 74.68 157.527 74.867 157.996 75.164 c 158.09 75.008 l 
157.387 74.445 157.137 74.133 156.887 73.461 c 156.668 72.867 156.574 72.195
 156.574 71.289 c 156.574 70.336 156.684 69.602 156.934 69.055 c 157.184
 68.492 157.449 68.164 158.09 67.648 c h
158.012 67.508 m f
158.559 73.57 m 160.684 73.57 l 160.684 73.43 l 160.105 73.414 160.012 
73.32 159.996 72.82 c 159.996 67.461 l 159.965 67.445 l 159.512 67.586 159.184
 67.68 158.543 67.836 c 158.543 67.977 l 158.59 67.977 l 158.699 67.977 
158.809 67.961 158.871 67.961 c 159.168 67.961 159.246 68.086 159.246 68.508
 c 159.246 72.789 l 159.246 73.273 159.121 73.398 158.559 73.43 c h
158.559 73.57 m f
161.234 75.164 m 161.891 74.711 162.172 74.492 162.5 74.086 c 163.141 73.305
 163.453 72.398 163.453 71.352 c 163.453 70.211 163.109 69.336 162.328 68.43
 c 161.953 67.992 161.719 67.789 161.266 67.508 c 161.156 67.648 l 161.875
 68.211 162.109 68.523 162.359 69.195 c 162.578 69.805 162.672 70.477 162.672
 71.383 c 162.672 72.32 162.562 73.055 162.312 73.602 c 162.078 74.164 161.797
 74.492 161.156 75.008 c h
161.234 75.164 m f
Q Q
showpage
%%Trailer
end
%%EOF
