%!PS-Adobe-3.0 EPSF-3.0
%%Creator: cairo 1.17.4 (https://cairographics.org)
%%CreationDate: Thu Feb 24 10:48:32 2022
%%Pages: 1
%%DocumentData: Clean7Bit
%%LanguageLevel: 2
%%BoundingBox: 0 0 86 58
%%EndComments
%%BeginProlog
50 dict begin
/q { gsave } bind def
/Q { grestore } bind def
/cm { 6 array astore concat } bind def
/w { setlinewidth } bind def
/J { setlinecap } bind def
/j { setlinejoin } bind def
/M { setmiterlimit } bind def
/d { setdash } bind def
/m { moveto } bind def
/l { lineto } bind def
/c { curveto } bind def
/h { closepath } bind def
/re { exch dup neg 3 1 roll 5 3 roll moveto 0 rlineto
      0 exch rlineto 0 rlineto closepath } bind def
/S { stroke } bind def
/f { fill } bind def
/f* { eofill } bind def
/n { newpath } bind def
/W { clip } bind def
/W* { eoclip } bind def
/BT { } bind def
/ET { } bind def
/BDC { mark 3 1 roll /BDC pdfmark } bind def
/EMC { mark /EMC pdfmark } bind def
/cairo_store_point { /cairo_point_y exch def /cairo_point_x exch def } def
/Tj { show currentpoint cairo_store_point } bind def
/TJ {
  {
    dup
    type /stringtype eq
    { show } { -0.001 mul 0 cairo_font_matrix dtransform rmoveto } ifelse
  } forall
  currentpoint cairo_store_point
} bind def
/cairo_selectfont { cairo_font_matrix aload pop pop pop 0 0 6 array astore
    cairo_font exch selectfont cairo_point_x cairo_point_y moveto } bind def
/Tf { pop /cairo_font exch def /cairo_font_matrix where
      { pop cairo_selectfont } if } bind def
/Td { matrix translate cairo_font_matrix matrix concatmatrix dup
      /cairo_font_matrix exch def dup 4 get exch 5 get cairo_store_point
      /cairo_font where { pop cairo_selectfont } if } bind def
/Tm { 2 copy 8 2 roll 6 array astore /cairo_font_matrix exch def
      cairo_store_point /cairo_font where { pop cairo_selectfont } if } bind def
/g { setgray } bind def
/rg { setrgbcolor } bind def
/d1 { setcachedevice } bind def
/cairo_data_source {
  CairoDataIndex CairoData length lt
    { CairoData CairoDataIndex get /CairoDataIndex CairoDataIndex 1 add def }
    { () } ifelse
} def
/cairo_flush_ascii85_file { cairo_ascii85_file status { cairo_ascii85_file flushfile } if } def
/cairo_image { image cairo_flush_ascii85_file } def
/cairo_imagemask { imagemask cairo_flush_ascii85_file } def
%%EndProlog
%%BeginSetup
%%EndSetup
%%Page: 1 1
%%BeginPageSetup
%%PageBoundingBox: 0 0 86 58
%%EndPageSetup
q 0 0 86 58 rectclip
1 0 0 -1 0 58 cm q
Q q
0 28 85.844 29.5 re W n
q
0 28 86 30 re W n
  q
0.901961 g
0.426 42.867 m 0.426 57.039 l 85.465 57.039 l 85.465 28.691 l 0.426 28.691
 l f
  Q
Q
Q q
q
0 0 86 58 re W n
  q
0 g
0.850361 w
0 J
0 j
[] 0.0 d
10 M q 1 0 0 -1 0 0 cm
0.426 -28.691 m 0.426 -57.039 l 85.465 -57.039 l 85.465 -0.348 l 0.426 
-0.348 l h
0.426 -28.691 m S Q
  Q
Q
Q q
0 20 85.844 17 re W n
q
0 20 86 17 re W n
  q
0 g
0.567043 w
0 J
0 j
[] 0.0 d
10 M q 1 0 0 -1 0 0 cm
0.426 -28.691 m 0.426 -28.48 l 0.66 -28.484 l 0.898 -28.492 l 1.133 -28.508
 l 1.371 -28.531 l 1.605 -28.559 l 1.844 -28.586 l 2.078 -28.621 l 2.316
 -28.656 l 2.551 -28.691 l 2.789 -28.73 l 3.258 -28.801 l 3.496 -28.832 
l 3.734 -28.855 l 3.969 -28.879 l 4.203 -28.895 l 4.441 -28.902 l 4.676 
-28.906 l 4.914 -28.902 l 5.148 -28.895 l 5.387 -28.879 l 5.621 -28.855 
l 5.859 -28.832 l 6.094 -28.801 l 6.332 -28.766 l 6.566 -28.73 l 6.805 -28.691
 l 7.039 -28.656 l 7.277 -28.621 l 7.512 -28.586 l 7.746 -28.559 l 7.984
 -28.531 l 8.219 -28.508 l 8.457 -28.492 l 8.691 -28.484 l 8.93 -28.48 l
 9.164 -28.484 l 9.402 -28.492 l 9.637 -28.508 l 9.875 -28.531 l 10.109 
-28.559 l 10.348 -28.586 l 10.816 -28.656 l 11.055 -28.691 l 11.293 -28.73
 l 11.762 -28.801 l 12 -28.832 l 12.234 -28.855 l 12.473 -28.879 l 12.707
 -28.895 l 12.945 -28.902 l 13.18 -28.906 l 13.418 -28.902 l 13.652 -28.895
 l 13.891 -28.879 l 14.359 -28.832 l 14.598 -28.801 l 14.836 -28.766 l 15.07
 -28.73 l 15.305 -28.691 l 15.781 -28.621 l 16.016 -28.586 l 16.25 -28.559
 l 16.488 -28.531 l 16.723 -28.508 l 16.961 -28.492 l 17.195 -28.484 l 17.434
 -28.48 l 17.668 -28.484 l 17.906 -28.492 l 18.141 -28.508 l 18.379 -28.531
 l 18.848 -28.586 l 19.324 -28.656 l 19.559 -28.691 l 19.793 -28.73 l 20.031
 -28.766 l 20.266 -28.801 l 20.504 -28.832 l 20.738 -28.855 l 20.977 -28.879
 l 21.211 -28.895 l 21.449 -28.902 l 21.684 -28.906 l 21.922 -28.902 l 22.156
 -28.895 l 22.391 -28.879 l 22.629 -28.855 l 22.863 -28.832 l 23.102 -28.801
 l 23.336 -28.766 l 23.574 -28.73 l 23.809 -28.691 l 24.047 -28.656 l 24.281
 -28.621 l 24.52 -28.586 l 24.754 -28.559 l 24.992 -28.531 l 25.227 -28.508
 l 25.465 -28.492 l 25.699 -28.484 l 25.938 -28.48 l 26.172 -28.484 l 26.41
 -28.492 l 26.645 -28.508 l 26.883 -28.531 l 27.352 -28.586 l 27.59 -28.621
 l 27.824 -28.656 l 28.062 -28.691 l 28.297 -28.73 l 28.535 -28.766 l 28.77
 -28.801 l 29.008 -28.832 l 29.242 -28.855 l 29.48 -28.879 l 29.715 -28.895
 l 29.953 -28.902 l 30.188 -28.906 l 30.426 -28.902 l 30.66 -28.895 l 30.898
 -28.879 l 31.367 -28.832 l 31.605 -28.801 l 31.84 -28.766 l 32.078 -28.73
 l 32.312 -28.691 l 32.551 -28.656 l 32.785 -28.621 l 33.023 -28.586 l 33.492
 -28.531 l 33.73 -28.508 l 33.965 -28.492 l 34.203 -28.484 l 34.438 -28.48
 l 34.676 -28.484 l 34.91 -28.492 l 35.148 -28.508 l 35.383 -28.531 l 35.621
 -28.559 l 35.855 -28.586 l 36.094 -28.621 l 36.328 -28.656 l 36.566 -28.691
 l 36.801 -28.73 l 37.039 -28.766 l 37.273 -28.801 l 37.512 -28.832 l 37.98
 -28.879 l 38.219 -28.895 l 38.457 -28.902 l 38.691 -28.906 l 38.926 -28.902
 l 39.164 -28.895 l 39.398 -28.879 l 39.637 -28.855 l 39.871 -28.832 l 40.109
 -28.801 l 40.344 -28.766 l 40.582 -28.73 l 40.816 -28.691 l 41.055 -28.656
 l 41.289 -28.621 l 41.527 -28.586 l 41.762 -28.559 l 42 -28.531 l 42.234
 -28.508 l 42.469 -28.492 l 42.707 -28.484 l 42.941 -28.48 l 43.18 -28.484
 l 43.414 -28.492 l 43.652 -28.508 l 43.887 -28.531 l 44.125 -28.559 l 44.359
 -28.586 l 44.598 -28.621 l 45.066 -28.691 l 45.305 -28.73 l 45.543 -28.766
 l 45.777 -28.801 l 46.012 -28.832 l 46.25 -28.855 l 46.484 -28.879 l 46.723
 -28.895 l 46.957 -28.902 l 47.195 -28.906 l 47.43 -28.902 l 47.668 -28.895
 l 47.902 -28.879 l 48.141 -28.855 l 48.375 -28.832 l 48.609 -28.801 l 49.086
 -28.73 l 49.32 -28.691 l 49.555 -28.656 l 50.031 -28.586 l 50.5 -28.531
 l 50.738 -28.508 l 50.973 -28.492 l 51.211 -28.484 l 51.445 -28.48 l 51.684
 -28.484 l 51.918 -28.492 l 52.156 -28.508 l 52.391 -28.531 l 52.629 -28.559
 l 52.863 -28.586 l 53.102 -28.621 l 53.336 -28.656 l 53.574 -28.691 l 53.809
 -28.73 l 54.043 -28.766 l 54.281 -28.801 l 54.516 -28.832 l 54.754 -28.855
 l 54.988 -28.879 l 55.227 -28.895 l 55.461 -28.902 l 55.699 -28.906 l 55.934
 -28.902 l 56.172 -28.895 l 56.406 -28.879 l 56.645 -28.855 l 56.879 -28.832
 l 57.113 -28.801 l 57.59 -28.73 l 57.824 -28.691 l 58.059 -28.656 l 58.535
 -28.586 l 59.004 -28.531 l 59.242 -28.508 l 59.477 -28.492 l 59.715 -28.484
 l 59.949 -28.48 l 60.188 -28.484 l 60.422 -28.492 l 60.66 -28.508 l 60.895
 -28.531 l 61.133 -28.559 l 61.367 -28.586 l 61.602 -28.621 l 61.84 -28.656
 l 62.074 -28.691 l 62.312 -28.73 l 62.547 -28.766 l 62.785 -28.801 l 63.02
 -28.832 l 63.258 -28.855 l 63.492 -28.879 l 63.73 -28.895 l 63.965 -28.902
 l 64.203 -28.906 l 64.438 -28.902 l 64.676 -28.895 l 64.91 -28.879 l 65.148
 -28.855 l 65.383 -28.832 l 65.617 -28.801 l 65.855 -28.766 l 66.09 -28.73
 l 66.328 -28.691 l 66.562 -28.656 l 66.801 -28.621 l 67.035 -28.586 l 67.273
 -28.559 l 67.508 -28.531 l 67.746 -28.508 l 67.98 -28.492 l 68.219 -28.484
 l 68.453 -28.48 l 68.688 -28.484 l 68.926 -28.492 l 69.164 -28.508 l 69.398
 -28.531 l 69.633 -28.559 l 69.871 -28.586 l 70.105 -28.621 l 70.344 -28.656
 l 70.578 -28.691 l 70.816 -28.73 l 71.051 -28.766 l 71.289 -28.801 l 71.523
 -28.832 l 71.762 -28.855 l 71.996 -28.879 l 72.234 -28.895 l 72.469 -28.902
 l 72.707 -28.906 l 72.941 -28.902 l 73.176 -28.895 l 73.414 -28.879 l 73.652
 -28.855 l 73.887 -28.832 l 74.121 -28.801 l 74.359 -28.766 l 74.594 -28.73
 l 74.832 -28.691 l 75.066 -28.656 l 75.305 -28.621 l 75.539 -28.586 l 75.777
 -28.559 l 76.012 -28.531 l 76.25 -28.508 l 76.484 -28.492 l 76.719 -28.484
 l 76.957 -28.48 l 77.191 -28.484 l 77.43 -28.492 l 77.664 -28.508 l 77.902
 -28.531 l 78.137 -28.559 l 78.375 -28.586 l 78.609 -28.621 l 78.848 -28.656
 l 79.082 -28.691 l 79.32 -28.73 l 79.555 -28.766 l 79.793 -28.801 l 80.027
 -28.832 l 80.262 -28.855 l 80.5 -28.879 l 80.734 -28.895 l 80.973 -28.902
 l 81.207 -28.906 l 81.445 -28.902 l 81.68 -28.895 l 81.918 -28.879 l 82.152
 -28.855 l 82.391 -28.832 l 82.625 -28.801 l 82.863 -28.766 l 83.098 -28.73
 l 83.336 -28.691 l 83.57 -28.656 l 83.809 -28.621 l 84.043 -28.586 l 84.281
 -28.559 l 84.516 -28.531 l 84.754 -28.508 l 84.988 -28.492 l 85.223 -28.484
 l 85.461 -28.48 l 85.465 -28.48 l 85.465 -28.691 l S Q
  Q
Q
Q q
0 g
14.824 13.195 m 14.824 12.852 l 14.137 12.852 l 13.949 12.852 13.809 12.82
 13.637 12.758 c 13.434 12.695 l 13.199 12.602 12.949 12.555 12.715 12.555
 c 11.887 12.555 11.23 13.195 11.23 14.023 c 11.23 14.586 11.465 14.914 
12.059 15.211 c 11.824 15.43 l 11.637 15.617 11.527 15.711 11.496 15.742
 c 11.309 15.945 11.262 16.039 11.262 16.195 c 11.262 16.398 11.355 16.492
 11.73 16.664 c 11.09 17.133 10.855 17.43 10.855 17.758 c 10.855 18.242 
11.543 18.633 12.402 18.633 c 13.074 18.633 13.777 18.398 14.246 18.023 
c 14.59 17.742 14.746 17.461 14.746 17.117 c 14.746 16.57 14.324 16.195 
13.652 16.164 c 12.496 16.102 l 12.012 16.086 11.793 16.008 11.793 15.867
 c 11.793 15.68 12.09 15.367 12.34 15.305 c 12.652 15.32 12.824 15.336 12.855
 15.336 c 13.184 15.336 13.543 15.211 13.809 14.961 c 14.105 14.711 14.246
 14.398 14.246 13.961 c 14.246 13.695 14.199 13.492 14.074 13.195 c h
11.918 16.695 m 12.23 16.758 12.934 16.82 13.387 16.82 c 14.199 16.82 14.496
 16.93 14.496 17.258 c 14.496 17.773 13.809 18.117 12.793 18.117 c 11.996
 18.117 11.48 17.867 11.48 17.477 c 11.48 17.258 11.559 17.133 11.918 16.695
 c h
11.965 13.648 m 11.965 13.117 12.215 12.805 12.637 12.805 c 12.918 12.805
 13.137 12.961 13.293 13.227 c 13.465 13.539 13.559 13.945 13.559 14.305
 c 13.559 14.805 13.309 15.117 12.887 15.117 c 12.34 15.117 11.965 14.539
 11.965 13.68 c h
11.965 13.648 m f
19.016 16.086 m 18.859 16.211 18.75 16.258 18.609 16.258 c 18.406 16.258
 18.344 16.133 18.344 15.742 c 18.344 13.992 l 18.344 13.523 18.297 13.258
 18.172 13.055 c 17.969 12.727 17.578 12.555 17.062 12.555 c 16.219 12.555
 15.547 12.992 15.547 13.555 c 15.547 13.758 15.719 13.945 15.938 13.945
 c 16.156 13.945 16.344 13.758 16.344 13.57 c 16.344 13.539 16.328 13.492
 16.328 13.43 c 16.297 13.336 16.297 13.273 16.297 13.211 c 16.297 12.961
 16.578 12.773 16.938 12.773 c 17.375 12.773 17.625 13.023 17.625 13.508
 c 17.625 14.055 l 16.25 14.602 16.094 14.695 15.703 15.023 c 15.5 15.211
 15.375 15.508 15.375 15.805 c 15.375 16.367 15.766 16.773 16.328 16.773
 c 16.719 16.773 17.078 16.586 17.625 16.117 c 17.672 16.586 17.844 16.773
 18.203 16.773 c 18.516 16.773 18.703 16.664 19.016 16.32 c h
17.625 15.57 m 17.625 15.852 17.578 15.945 17.391 16.055 c 17.156 16.18
 16.922 16.242 16.734 16.242 c 16.422 16.242 16.172 15.945 16.172 15.555
 c 16.172 15.523 l 16.172 14.992 16.578 14.648 17.625 14.273 c h
17.625 15.57 m f
21.832 13.867 m 21.801 12.633 l 21.691 12.633 l 21.645 12.711 21.598 12.727
 21.551 12.727 c 21.504 12.727 21.41 12.711 21.316 12.664 c 21.098 12.602
 20.895 12.555 20.676 12.555 c 19.973 12.555 19.457 13.023 19.457 13.664
 c 19.457 14.164 19.754 14.523 20.504 14.961 c 21.035 15.258 l 21.348 15.43
 21.504 15.648 21.504 15.93 c 21.504 16.32 21.207 16.57 20.754 16.57 c 20.129
 16.57 19.816 16.227 19.613 15.32 c 19.473 15.32 l 19.473 16.711 l 19.582
 16.711 l 19.645 16.633 19.691 16.602 19.801 16.602 c 19.895 16.602 20.004
 16.633 20.207 16.68 c 20.441 16.727 20.676 16.773 20.863 16.773 c 21.566
 16.773 22.129 16.242 22.129 15.617 c 22.129 15.18 21.91 14.883 21.379 14.555
 c 20.41 13.977 l 20.145 13.82 20.02 13.617 20.02 13.367 c 20.02 13.008 
20.301 12.758 20.707 12.758 c 21.223 12.758 21.488 13.055 21.691 13.867 
c h
21.832 13.867 m f
24.906 16.68 m 26.906 16.68 l 26.906 16.539 l 26.438 16.539 26.297 16.445
 26.297 16.086 c 26.297 13.555 l 26.297 13.539 26.359 13.445 26.422 13.383
 c 26.656 13.18 27.031 13.023 27.344 13.023 c 27.75 13.023 27.938 13.336
 27.938 13.961 c 27.938 15.914 l 27.922 16.414 27.828 16.523 27.328 16.539
 c 27.328 16.68 l 29.344 16.68 l 29.344 16.539 l 28.844 16.539 28.719 16.398
 28.688 15.82 c 28.688 13.57 l 28.969 13.18 29.25 13.023 29.672 13.023 c
 30.188 13.023 30.344 13.258 30.344 14.008 c 30.344 15.898 l 30.328 16.43
 30.266 16.492 29.75 16.539 c 29.75 16.68 l 31.719 16.68 l 31.719 16.539
 l 31.484 16.523 l 31.203 16.477 31.094 16.352 31.094 15.992 c 31.094 14.148
 l 31.094 13.086 30.75 12.555 30.062 12.555 c 29.531 12.555 29.078 12.789
 28.594 13.305 c 28.438 12.789 28.125 12.555 27.641 12.555 c 27.234 12.555
 27 12.664 26.25 13.242 c 26.25 12.57 l 26.188 12.555 l 25.719 12.727 25.406
 12.82 24.938 12.961 c 24.938 13.117 l 25.047 13.086 25.125 13.07 25.219
 13.07 c 25.453 13.07 25.531 13.211 25.531 13.648 c 25.531 15.914 l 25.516
 16.414 25.406 16.539 24.906 16.539 c h
24.906 16.68 m f
31.867 16.68 m 33.992 16.68 l 33.992 16.539 l 33.398 16.508 33.336 16.414
 33.336 15.758 c 33.336 12.586 l 33.289 12.555 l 31.898 13.055 l 31.898 
13.18 l 31.977 13.18 l 32.086 13.148 32.195 13.148 32.289 13.148 c 32.492
 13.148 32.586 13.289 32.586 13.68 c 32.586 15.758 l 32.555 16.43 32.477
 16.523 31.867 16.539 c h
32.867 10.555 m 32.633 10.555 32.43 10.758 32.43 11.008 c 32.43 11.273 
32.617 11.477 32.867 11.477 c 33.148 11.477 33.336 11.273 33.336 11.008 
c 33.336 10.758 33.133 10.555 32.867 10.555 c h
32.867 10.555 m f
36.746 16.68 m 38.543 16.68 l 38.543 16.539 l 38.262 16.539 38.09 16.398
 37.809 16.008 c 36.652 14.242 l 37.402 13.18 l 37.574 12.93 37.84 12.789
 38.137 12.773 c 38.137 12.648 l 36.715 12.648 l 36.715 12.773 l 36.98 12.789
 37.074 12.852 37.074 12.977 c 37.074 13.086 36.965 13.273 36.746 13.555
 c 36.699 13.617 36.59 13.773 36.465 13.961 c 36.402 13.852 l 36.262 13.633
 36.184 13.523 36.168 13.492 c 35.996 13.211 35.934 13.07 35.934 12.977 
c 35.934 12.836 36.043 12.789 36.324 12.773 c 36.324 12.648 l 34.465 12.648
 l 34.465 12.773 l 34.543 12.773 l 34.809 12.773 34.949 12.898 35.23 13.32
 c 36.074 14.602 l 35.059 16.086 l 34.777 16.461 34.699 16.523 34.402 16.539
 c 34.402 16.68 l 35.699 16.68 l 35.699 16.539 l 35.434 16.539 35.34 16.508
 35.34 16.383 c 35.34 16.32 35.387 16.211 35.527 16.023 c 36.23 14.914 l
 37.043 16.164 l 37.074 16.227 37.105 16.273 37.105 16.336 c 37.105 16.492
 37.043 16.523 36.746 16.539 c h
36.746 16.68 m f
40.969 12.648 m 40.062 12.648 l 40.062 11.602 l 40.062 11.508 40.047 11.492
 40 11.492 c 39.484 12.242 39.219 12.539 38.953 12.695 c 38.859 12.758 38.797
 12.82 38.797 12.867 c 38.797 12.898 38.812 12.914 38.844 12.93 c 39.312
 12.93 l 39.312 15.633 l 39.312 16.383 39.578 16.773 40.109 16.773 c 40.547
 16.773 40.891 16.555 41.188 16.086 c 41.078 15.992 l 40.875 16.227 40.734
 16.305 40.531 16.305 c 40.203 16.305 40.062 16.055 40.062 15.492 c 40.062
 12.93 l 40.969 12.93 l h
40.969 12.648 m f
45.504 16.227 m 45.457 16.227 l 45.02 16.211 44.957 16.148 44.941 15.727
 c 44.941 12.648 l 43.535 12.648 l 43.535 12.789 l 44.082 12.82 44.191 12.914
 44.191 13.367 c 44.191 15.477 l 44.191 15.727 44.145 15.852 44.02 15.945
 c 43.785 16.148 43.504 16.242 43.238 16.242 c 42.879 16.242 42.598 15.945
 42.598 15.57 c 42.598 12.648 l 41.285 12.648 l 41.285 12.773 l 41.707 12.789
 41.832 12.914 41.848 13.336 c 41.848 15.602 l 41.848 16.305 42.27 16.773
 42.926 16.773 c 43.254 16.773 43.613 16.633 43.848 16.383 c 44.238 15.992
 l 44.238 16.742 l 44.27 16.758 l 44.723 16.586 45.051 16.477 45.504 16.352
 c h
45.504 16.227 m f
45.691 16.68 m 47.848 16.68 l 47.848 16.539 l 47.238 16.523 47.098 16.398
 47.082 15.867 c 47.082 13.852 l 47.082 13.57 47.457 13.117 47.707 13.117
 c 47.754 13.117 47.848 13.164 47.941 13.258 c 48.082 13.383 48.176 13.43
 48.301 13.43 c 48.52 13.43 48.645 13.273 48.645 13.023 c 48.645 12.727 
48.457 12.555 48.16 12.555 c 47.785 12.555 47.535 12.758 47.082 13.398 c
 47.082 12.57 l 47.035 12.555 l 46.535 12.758 46.207 12.883 45.707 13.039
 c 45.707 13.18 l 45.832 13.148 45.91 13.148 46.02 13.148 c 46.238 13.148
 46.332 13.289 46.332 13.68 c 46.332 15.93 l 46.301 16.398 46.254 16.445
 45.691 16.539 c h
45.691 16.68 m f
52.301 15.211 m 51.879 15.883 51.488 16.148 50.91 16.148 c 50.41 16.148
 50.02 15.883 49.754 15.383 c 49.598 15.039 49.535 14.758 49.52 14.195 c
 52.27 14.195 l 52.207 13.617 52.113 13.352 51.895 13.07 c 51.629 12.742
 51.207 12.555 50.738 12.555 c 50.301 12.555 49.879 12.711 49.535 13.023
 c 49.113 13.383 48.863 14.023 48.863 14.758 c 48.863 15.992 49.52 16.773
 50.551 16.773 c 51.395 16.773 52.066 16.242 52.441 15.273 c h
49.535 13.914 m 49.629 13.211 49.941 12.883 50.488 12.883 c 51.035 12.883
 51.238 13.133 51.363 13.914 c h
49.535 13.914 m f
73.297 10.789 m 73.297 10.43 72.906 10.242 72.562 10.242 c 71.312 10.242
 70.703 12.039 70.516 12.68 c 70.516 12.68 69.938 12.68 69.703 12.68 c 69.609
 13.023 l 70.422 13.023 l 70.141 14.133 69.609 16.961 69.062 17.914 c 68.812
 18.352 68.422 18.414 68.25 18.414 c 68.188 18.414 68.109 18.383 68.109 
18.336 c 68.109 18.211 68.297 18.211 68.297 18.023 c 68.297 17.914 68.203
 17.789 68.016 17.789 c 67.781 17.789 67.609 17.977 67.609 18.164 c 67.609
 18.414 67.875 18.602 68.25 18.602 c 70 18.602 70.656 14.836 71.109 13.023
 c 71.844 13.023 l 71.922 12.68 l 71.203 12.68 l 71.5 11.727 71.797 10.43
 72.578 10.43 c 72.688 10.43 72.797 10.508 72.797 10.586 c 72.797 10.68 
72.656 10.742 72.656 10.914 c 72.656 11.07 72.766 11.195 72.922 11.195 c
 73.125 11.195 73.297 11.008 73.297 10.789 c h
73.297 10.789 m f
74.059 14.445 m 74.059 14.258 73.902 14.055 73.668 14.055 c 73.48 14.055
 73.309 14.211 73.309 14.445 c 73.309 14.664 73.48 14.82 73.684 14.82 c 
73.902 14.82 74.059 14.617 74.059 14.445 c h
73.887 18.117 m 73.715 17.977 l 73.465 18.352 73.199 18.586 73.09 18.586
 c 73.027 18.586 73.027 18.539 73.027 18.492 c 73.027 18.398 73.043 18.32
 73.09 18.164 c 73.824 15.539 l 73.824 15.539 72.684 15.727 72.465 15.742
 c 72.465 15.977 l 72.777 15.977 72.965 15.977 72.965 16.18 c 72.965 16.555
 72.34 18.258 72.34 18.617 c 72.34 18.914 72.512 19.039 72.699 19.039 c 
73.246 19.039 73.762 18.336 73.887 18.117 c h
73.887 18.117 m f
6.352 45.027 m 8.477 45.027 l 8.477 44.887 l 7.898 44.871 7.805 44.777 
7.789 44.277 c 7.789 38.918 l 7.758 38.902 l 7.305 39.043 6.977 39.137 6.336
 39.293 c 6.336 39.434 l 6.383 39.434 l 6.492 39.434 6.602 39.418 6.664 
39.418 c 6.961 39.418 7.039 39.543 7.039 39.965 c 7.039 44.246 l 7.039 44.73
 6.914 44.855 6.352 44.887 c h
6.352 45.027 m f
8.824 45.027 m 10.949 45.027 l 10.949 44.887 l 10.355 44.855 10.293 44.762
 10.293 44.105 c 10.293 40.934 l 10.246 40.902 l 8.855 41.402 l 8.855 41.527
 l 8.934 41.527 l 9.043 41.496 9.152 41.496 9.246 41.496 c 9.449 41.496 
9.543 41.637 9.543 42.027 c 9.543 44.105 l 9.512 44.777 9.434 44.871 8.824
 44.887 c h
9.824 38.902 m 9.59 38.902 9.387 39.105 9.387 39.355 c 9.387 39.621 9.574
 39.824 9.824 39.824 c 10.105 39.824 10.293 39.621 10.293 39.355 c 10.293
 39.105 10.09 38.902 9.824 38.902 c h
9.824 38.902 m f
14.441 41.215 m 14.035 40.98 13.77 40.902 13.41 40.902 c 12.27 40.902 11.426
 41.902 11.426 43.199 c 11.426 44.324 12.02 45.121 12.863 45.121 c 13.379
 45.121 13.863 44.887 14.27 44.449 c 14.27 46.137 l 14.254 46.637 14.098
 46.793 13.473 46.824 c 13.473 46.98 l 15.582 46.98 l 15.582 46.855 l 15.098
 46.746 15.035 46.684 15.02 46.293 c 15.02 40.934 l 14.926 40.934 l h
14.27 43.887 m 14.27 44.105 14.223 44.215 14.145 44.309 c 13.941 44.465
 13.645 44.574 13.363 44.574 c 13.098 44.574 12.848 44.48 12.676 44.309 
c 12.379 44.043 12.191 43.465 12.191 42.871 c 12.191 41.809 12.676 41.152
 13.426 41.152 c 13.988 41.152 14.27 41.449 14.27 42.043 c h
14.27 43.887 m f
19.941 44.574 m 19.895 44.574 l 19.457 44.559 19.395 44.496 19.379 44.074
 c 19.379 40.996 l 17.973 40.996 l 17.973 41.137 l 18.52 41.168 18.629 41.262
 18.629 41.715 c 18.629 43.824 l 18.629 44.074 18.582 44.199 18.457 44.293
 c 18.223 44.496 17.941 44.59 17.676 44.59 c 17.316 44.59 17.035 44.293 
17.035 43.918 c 17.035 40.996 l 15.723 40.996 l 15.723 41.121 l 16.145 41.137
 16.27 41.262 16.285 41.684 c 16.285 43.949 l 16.285 44.652 16.707 45.121
 17.363 45.121 c 17.691 45.121 18.051 44.98 18.285 44.73 c 18.676 44.34 
l 18.676 45.09 l 18.707 45.105 l 19.16 44.934 19.488 44.824 19.941 44.699
 c h
19.941 44.574 m f
20.227 45.027 m 22.352 45.027 l 22.352 44.887 l 21.758 44.855 21.695 44.762
 21.695 44.105 c 21.695 40.934 l 21.648 40.902 l 20.258 41.402 l 20.258 
41.527 l 20.336 41.527 l 20.445 41.496 20.555 41.496 20.648 41.496 c 20.852
 41.496 20.945 41.637 20.945 42.027 c 20.945 44.105 l 20.914 44.777 20.836
 44.871 20.227 44.887 c h
21.227 38.902 m 20.992 38.902 20.789 39.105 20.789 39.355 c 20.789 39.621
 20.977 39.824 21.227 39.824 c 21.508 39.824 21.695 39.621 21.695 39.355
 c 21.695 39.105 21.492 38.902 21.227 38.902 c h
21.227 38.902 m f
27.012 44.512 m 26.887 44.512 26.84 44.512 26.809 44.512 c 26.496 44.512
 26.402 44.418 26.402 44.012 c 26.402 38.918 l 26.371 38.902 l 25.949 39.043
 25.637 39.137 25.043 39.293 c 25.043 39.434 l 25.121 39.434 25.168 39.434
 25.246 39.434 c 25.574 39.434 25.652 39.527 25.652 39.887 c 25.652 41.293
 l 25.309 40.996 25.074 40.902 24.715 40.902 c 23.684 40.902 22.84 41.918
 22.84 43.184 c 22.84 44.34 23.512 45.121 24.512 45.121 c 25.012 45.121 
25.355 44.934 25.652 44.512 c 25.652 45.09 l 25.684 45.121 l 27.012 44.652
 l h
25.652 44.105 m 25.652 44.168 25.59 44.277 25.496 44.387 c 25.355 44.559
 25.121 44.652 24.855 44.652 c 24.105 44.652 23.621 43.934 23.621 42.824
 c 23.621 41.824 24.059 41.152 24.746 41.152 c 25.23 41.152 25.652 41.574
 25.652 42.043 c h
25.652 44.105 m f
29.465 45.027 m 31.465 45.027 l 31.465 44.887 l 30.996 44.887 30.855 44.793
 30.855 44.434 c 30.855 41.902 l 30.855 41.887 30.918 41.793 30.98 41.73
 c 31.215 41.527 31.59 41.371 31.902 41.371 c 32.309 41.371 32.496 41.684
 32.496 42.309 c 32.496 44.262 l 32.48 44.762 32.387 44.871 31.887 44.887
 c 31.887 45.027 l 33.902 45.027 l 33.902 44.887 l 33.402 44.887 33.277 
44.746 33.246 44.168 c 33.246 41.918 l 33.527 41.527 33.809 41.371 34.23
 41.371 c 34.746 41.371 34.902 41.605 34.902 42.355 c 34.902 44.246 l 34.887
 44.777 34.824 44.84 34.309 44.887 c 34.309 45.027 l 36.277 45.027 l 36.277
 44.887 l 36.043 44.871 l 35.762 44.824 35.652 44.699 35.652 44.34 c 35.652
 42.496 l 35.652 41.434 35.309 40.902 34.621 40.902 c 34.09 40.902 33.637
 41.137 33.152 41.652 c 32.996 41.137 32.684 40.902 32.199 40.902 c 31.793
 40.902 31.559 41.012 30.809 41.59 c 30.809 40.918 l 30.746 40.902 l 30.277
 41.074 29.965 41.168 29.496 41.309 c 29.496 41.465 l 29.605 41.434 29.684
 41.418 29.777 41.418 c 30.012 41.418 30.09 41.559 30.09 41.996 c 30.09 
44.262 l 30.074 44.762 29.965 44.887 29.465 44.887 c h
29.465 45.027 m f
36.426 45.027 m 38.551 45.027 l 38.551 44.887 l 37.957 44.855 37.895 44.762
 37.895 44.105 c 37.895 40.934 l 37.848 40.902 l 36.457 41.402 l 36.457 
41.527 l 36.535 41.527 l 36.645 41.496 36.754 41.496 36.848 41.496 c 37.051
 41.496 37.145 41.637 37.145 42.027 c 37.145 44.105 l 37.113 44.777 37.035
 44.871 36.426 44.887 c h
37.426 38.902 m 37.191 38.902 36.988 39.105 36.988 39.355 c 36.988 39.621
 37.176 39.824 37.426 39.824 c 37.707 39.824 37.895 39.621 37.895 39.355
 c 37.895 39.105 37.691 38.902 37.426 38.902 c h
37.426 38.902 m f
41.305 45.027 m 43.102 45.027 l 43.102 44.887 l 42.82 44.887 42.648 44.746
 42.367 44.355 c 41.211 42.59 l 41.961 41.527 l 42.133 41.277 42.398 41.137
 42.695 41.121 c 42.695 40.996 l 41.273 40.996 l 41.273 41.121 l 41.539 
41.137 41.633 41.199 41.633 41.324 c 41.633 41.434 41.523 41.621 41.305 
41.902 c 41.258 41.965 41.148 42.121 41.023 42.309 c 40.961 42.199 l 40.82
 41.98 40.742 41.871 40.727 41.84 c 40.555 41.559 40.492 41.418 40.492 41.324
 c 40.492 41.184 40.602 41.137 40.883 41.121 c 40.883 40.996 l 39.023 40.996
 l 39.023 41.121 l 39.102 41.121 l 39.367 41.121 39.508 41.246 39.789 41.668
 c 40.633 42.949 l 39.617 44.434 l 39.336 44.809 39.258 44.871 38.961 44.887
 c 38.961 45.027 l 40.258 45.027 l 40.258 44.887 l 39.992 44.887 39.898 
44.855 39.898 44.73 c 39.898 44.668 39.945 44.559 40.086 44.371 c 40.789
 43.262 l 41.602 44.512 l 41.633 44.574 41.664 44.621 41.664 44.684 c 41.664
 44.84 41.602 44.871 41.305 44.887 c h
41.305 45.027 m f
45.527 40.996 m 44.621 40.996 l 44.621 39.949 l 44.621 39.855 44.605 39.84
 44.559 39.84 c 44.043 40.59 43.777 40.887 43.512 41.043 c 43.418 41.105
 43.355 41.168 43.355 41.215 c 43.355 41.246 43.371 41.262 43.402 41.277
 c 43.871 41.277 l 43.871 43.98 l 43.871 44.73 44.137 45.121 44.668 45.121
 c 45.105 45.121 45.449 44.902 45.746 44.434 c 45.637 44.34 l 45.434 44.574
 45.293 44.652 45.09 44.652 c 44.762 44.652 44.621 44.402 44.621 43.84 c
 44.621 41.277 l 45.527 41.277 l h
45.527 40.996 m f
50.062 44.574 m 50.016 44.574 l 49.578 44.559 49.516 44.496 49.5 44.074
 c 49.5 40.996 l 48.094 40.996 l 48.094 41.137 l 48.641 41.168 48.75 41.262
 48.75 41.715 c 48.75 43.824 l 48.75 44.074 48.703 44.199 48.578 44.293 
c 48.344 44.496 48.062 44.59 47.797 44.59 c 47.438 44.59 47.156 44.293 47.156
 43.918 c 47.156 40.996 l 45.844 40.996 l 45.844 41.121 l 46.266 41.137 
46.391 41.262 46.406 41.684 c 46.406 43.949 l 46.406 44.652 46.828 45.121
 47.484 45.121 c 47.812 45.121 48.172 44.98 48.406 44.73 c 48.797 44.34 
l 48.797 45.09 l 48.828 45.105 l 49.281 44.934 49.609 44.824 50.062 44.699
 c h
50.062 44.574 m f
50.25 45.027 m 52.406 45.027 l 52.406 44.887 l 51.797 44.871 51.656 44.746
 51.641 44.215 c 51.641 42.199 l 51.641 41.918 52.016 41.465 52.266 41.465
 c 52.312 41.465 52.406 41.512 52.5 41.605 c 52.641 41.73 52.734 41.777 
52.859 41.777 c 53.078 41.777 53.203 41.621 53.203 41.371 c 53.203 41.074
 53.016 40.902 52.719 40.902 c 52.344 40.902 52.094 41.105 51.641 41.746
 c 51.641 40.918 l 51.594 40.902 l 51.094 41.105 50.766 41.23 50.266 41.387
 c 50.266 41.527 l 50.391 41.496 50.469 41.496 50.578 41.496 c 50.797 41.496
 50.891 41.637 50.891 42.027 c 50.891 44.277 l 50.859 44.746 50.812 44.793
 50.25 44.887 c h
50.25 45.027 m f
56.859 43.559 m 56.438 44.23 56.047 44.496 55.469 44.496 c 54.969 44.496
 54.578 44.23 54.312 43.73 c 54.156 43.387 54.094 43.105 54.078 42.543 c
 56.828 42.543 l 56.766 41.965 56.672 41.699 56.453 41.418 c 56.188 41.09
 55.766 40.902 55.297 40.902 c 54.859 40.902 54.438 41.059 54.094 41.371
 c 53.672 41.73 53.422 42.371 53.422 43.105 c 53.422 44.34 54.078 45.121
 55.109 45.121 c 55.953 45.121 56.625 44.59 57 43.621 c h
54.094 42.262 m 54.188 41.559 54.5 41.23 55.047 41.23 c 55.594 41.23 55.797
 41.48 55.922 42.262 c h
54.094 42.262 m f
71.73 40.062 m 71.73 39.844 71.527 39.734 71.355 39.734 c 70.902 39.734
 70.324 40.406 69.887 41.109 c 69.871 41.109 69.809 40.812 69.809 40.812
 c 69.668 40.219 69.496 39.875 69.184 39.734 c 69.184 39.734 68.168 39.938
 68.043 39.984 c 68.043 40.141 l 68.23 40.094 68.371 40.062 68.465 40.062
 c 68.965 40.062 69.043 40.547 69.387 41.844 c 68.98 42.438 68.34 43.438
 68.09 43.438 c 67.887 43.438 67.871 43.219 67.59 43.219 c 67.402 43.219
 67.262 43.359 67.262 43.547 c 67.262 43.781 67.434 43.938 67.684 43.938
 c 68.324 43.938 68.902 42.812 69.449 42.109 c 69.48 42.172 69.684 42.969
 69.684 42.969 c 69.902 43.797 70.074 43.938 70.293 43.938 c 70.574 43.938
 70.996 43.656 71.418 42.875 c 71.293 42.797 l 71.137 43 70.887 43.422 70.652
 43.422 c 70.34 43.422 70.168 42.156 69.949 41.359 c 69.996 41.281 70.621
 40.281 70.949 40.281 c 71.121 40.281 71.277 40.422 71.434 40.422 c 71.652
 40.422 71.73 40.234 71.73 40.062 c h
71.73 40.062 m f
74.059 41.59 m 74.059 41.402 73.902 41.199 73.668 41.199 c 73.48 41.199
 73.309 41.355 73.309 41.59 c 73.309 41.809 73.48 41.965 73.684 41.965 c
 73.902 41.965 74.059 41.762 74.059 41.59 c h
73.887 45.262 m 73.715 45.121 l 73.465 45.496 73.199 45.73 73.09 45.73 
c 73.027 45.73 73.027 45.684 73.027 45.637 c 73.027 45.543 73.043 45.465
 73.09 45.309 c 73.824 42.684 l 73.824 42.684 72.684 42.871 72.465 42.887
 c 72.465 43.121 l 72.777 43.121 72.965 43.121 72.965 43.324 c 72.965 43.699
 72.34 45.402 72.34 45.762 c 72.34 46.059 72.512 46.184 72.699 46.184 c 
73.246 46.184 73.762 45.48 73.887 45.262 c h
73.887 45.262 m f
Q Q
showpage
%%Trailer
end
%%EOF
