%!PS-Adobe-3.0 EPSF-3.0
%%Creator: cairo 1.17.4 (https://cairographics.org)
%%CreationDate: Thu Feb 24 10:48:35 2022
%%Pages: 1
%%DocumentData: Clean7Bit
%%LanguageLevel: 2
%%BoundingBox: 0 0 202 195
%%EndComments
%%BeginProlog
50 dict begin
/q { gsave } bind def
/Q { grestore } bind def
/cm { 6 array astore concat } bind def
/w { setlinewidth } bind def
/J { setlinecap } bind def
/j { setlinejoin } bind def
/M { setmiterlimit } bind def
/d { setdash } bind def
/m { moveto } bind def
/l { lineto } bind def
/c { curveto } bind def
/h { closepath } bind def
/re { exch dup neg 3 1 roll 5 3 roll moveto 0 rlineto
      0 exch rlineto 0 rlineto closepath } bind def
/S { stroke } bind def
/f { fill } bind def
/f* { eofill } bind def
/n { newpath } bind def
/W { clip } bind def
/W* { eoclip } bind def
/BT { } bind def
/ET { } bind def
/BDC { mark 3 1 roll /BDC pdfmark } bind def
/EMC { mark /EMC pdfmark } bind def
/cairo_store_point { /cairo_point_y exch def /cairo_point_x exch def } def
/Tj { show currentpoint cairo_store_point } bind def
/TJ {
  {
    dup
    type /stringtype eq
    { show } { -0.001 mul 0 cairo_font_matrix dtransform rmoveto } ifelse
  } forall
  currentpoint cairo_store_point
} bind def
/cairo_selectfont { cairo_font_matrix aload pop pop pop 0 0 6 array astore
    cairo_font exch selectfont cairo_point_x cairo_point_y moveto } bind def
/Tf { pop /cairo_font exch def /cairo_font_matrix where
      { pop cairo_selectfont } if } bind def
/Td { matrix translate cairo_font_matrix matrix concatmatrix dup
      /cairo_font_matrix exch def dup 4 get exch 5 get cairo_store_point
      /cairo_font where { pop cairo_selectfont } if } bind def
/Tm { 2 copy 8 2 roll 6 array astore /cairo_font_matrix exch def
      cairo_store_point /cairo_font where { pop cairo_selectfont } if } bind def
/g { setgray } bind def
/rg { setrgbcolor } bind def
/d1 { setcachedevice } bind def
/cairo_data_source {
  CairoDataIndex CairoData length lt
    { CairoData CairoDataIndex get /CairoDataIndex CairoDataIndex 1 add def }
    { () } ifelse
} def
/cairo_flush_ascii85_file { cairo_ascii85_file status { cairo_ascii85_file flushfile } if } def
/cairo_image { image cairo_flush_ascii85_file } def
/cairo_imagemask { imagemask cairo_flush_ascii85_file } def
%%EndProlog
%%BeginSetup
%%EndSetup
%%Page: 1 1
%%BeginPageSetup
%%PageBoundingBox: 0 0 202 195
%%EndPageSetup
q 0 0 202 195 rectclip
1 0 0 -1 0 195 cm q
0 g
0.567043 w
0 J
0 j
[] 0.0 d
10 M q 1 0 0 -1 0 0 cm
25.977 -3 170.094 -170.059 re S Q
0.398507 w
q 1 0 0 -1 0 0 cm
25.996 -173.066 m 25.996 -168.789 l S Q
0.398507 w
q 1 0 0 -1 0 0 cm
60.016 -173.055 m 60.016 -168.785 l S Q
0.398506 w
q 1 0 0 -1 0 0 cm
94.031 -173.043 m 94.031 -168.785 l S Q
0.398506 w
q 1 0 0 -1 0 0 cm
128.035 -173.078 m 128.035 -168.797 l S Q
0.398504 w
q 1 0 0 -1 0 0 cm
162.055 -173.059 m 162.055 -168.824 l S Q
0.398505 w
q 1 0 0 -1 0 0 cm
196.07 -173.059 m 196.07 -168.801 l S Q
0.398507 w
q 1 0 0 -1 0 0 cm
25.996 -173.066 m 25.996 -168.789 l S Q
0.398505 w
q 1 0 0 -1 0 0 cm
26.004 -173.039 m 30.25 -173.039 l S Q
q 1 0 0 -1 0 0 cm
26.004 -139.02 m 30.25 -139.02 l S Q
q 1 0 0 -1 0 0 cm
26.004 -105.035 m 30.25 -105.035 l S Q
q 1 0 0 -1 0 0 cm
26.004 -71.016 m 30.25 -71.016 l S Q
q 1 0 0 -1 0 0 cm
26.004 -36.996 m 30.25 -36.996 l S Q
q 1 0 0 -1 0 0 cm
26.004 -2.977 m 30.25 -2.977 l S Q
q 1 0 0 -1 0 0 cm
26.004 -173.039 m 30.25 -173.039 l S Q
0.398507 w
q 1 0 0 -1 0 0 cm
25.996 -2.984 m 25.996 -7.23 l S Q
0.398507 w
q 1 0 0 -1 0 0 cm
60.016 -2.996 m 60.016 -7.23 l S Q
0.398506 w
q 1 0 0 -1 0 0 cm
94.031 -2.988 m 94.031 -7.246 l S Q
0.398506 w
q 1 0 0 -1 0 0 cm
128.035 -3 m 128.035 -7.246 l S Q
0.398504 w
q 1 0 0 -1 0 0 cm
162.055 -3.004 m 162.055 -7.238 l S Q
0.398505 w
q 1 0 0 -1 0 0 cm
196.07 -3 m 196.07 -7.223 l S Q
0.398507 w
q 1 0 0 -1 0 0 cm
25.996 -2.984 m 25.996 -7.23 l S Q
0.398505 w
q 1 0 0 -1 0 0 cm
196.07 -173.059 m 191.812 -173.059 l S Q
q 1 0 0 -1 0 0 cm
196.07 -139.039 m 191.812 -139.039 l S Q
q 1 0 0 -1 0 0 cm
196.07 -105.02 m 191.812 -105.02 l S Q
q 1 0 0 -1 0 0 cm
196.07 -71 m 191.812 -71 l S Q
q 1 0 0 -1 0 0 cm
196.07 -37.02 m 191.812 -37.02 l S Q
q 1 0 0 -1 0 0 cm
196.07 -3 m 191.812 -3 l S Q
q 1 0 0 -1 0 0 cm
196.07 -173.059 m 191.812 -173.059 l S Q
27.953 179.582 m 27.953 177.973 27.219 176.52 25.969 176.52 c 24.703 176.52
 23.969 177.973 23.969 179.582 c 23.969 181.207 24.656 182.645 25.969 182.645
 c 27.172 182.645 27.953 181.207 27.953 179.582 c h
27.094 179.582 m 27.094 180.879 26.969 182.395 25.969 182.395 c 25.016 
182.395 24.828 180.879 24.828 179.582 c 24.828 178.504 24.953 176.754 25.969
 176.754 c 26.969 176.754 27.094 178.504 27.094 179.582 c h
27.094 179.582 m f
58.551 179.582 m 58.551 177.973 57.816 176.52 56.566 176.52 c 55.301 176.52
 54.566 177.973 54.566 179.582 c 54.566 181.207 55.254 182.645 56.566 182.645
 c 57.77 182.645 58.551 181.207 58.551 179.582 c h
57.691 179.582 m 57.691 180.879 57.566 182.395 56.566 182.395 c 55.613 
182.395 55.426 180.879 55.426 179.582 c 55.426 178.504 55.551 176.754 56.566
 176.754 c 57.566 176.754 57.691 178.504 57.691 179.582 c h
57.691 179.582 m f
60.477 182.16 m 60.477 181.879 60.258 181.66 59.977 181.66 c 59.695 181.66
 59.477 181.879 59.477 182.16 c 59.477 182.441 59.695 182.66 59.977 182.66
 c 60.258 182.66 60.477 182.441 60.477 182.16 c h
60.477 182.16 m f
65.422 181.379 m 65.266 181.348 l 65 181.801 64.781 181.879 64.344 181.879
 c 62.281 181.879 l 63.703 180.582 65 179.41 65 178.098 c 65 177.176 64.203
 176.52 63.328 176.52 c 62.469 176.52 61.781 176.988 61.516 178.207 c 61.719
 178.207 l 61.969 177.707 62.312 177.191 63 177.191 c 63.781 177.191 64.219
 177.785 64.219 178.457 c 64.219 179.426 63.188 180.848 61.422 182.395 c
 61.422 182.535 l 64.953 182.535 l h
65.422 181.379 m f
92.633 179.582 m 92.633 177.973 91.898 176.52 90.648 176.52 c 89.383 176.52
 88.648 177.973 88.648 179.582 c 88.648 181.207 89.336 182.645 90.648 182.645
 c 91.852 182.645 92.633 181.207 92.633 179.582 c h
91.773 179.582 m 91.773 180.879 91.648 182.395 90.648 182.395 c 89.695 
182.395 89.508 180.879 89.508 179.582 c 89.508 178.504 89.633 176.754 90.648
 176.754 c 91.648 176.754 91.773 178.504 91.773 179.582 c h
91.773 179.582 m f
94.555 182.16 m 94.555 181.879 94.336 181.66 94.055 181.66 c 93.773 181.66
 93.555 181.879 93.555 182.16 c 93.555 182.441 93.773 182.66 94.055 182.66
 c 94.336 182.66 94.555 182.441 94.555 182.16 c h
94.555 182.16 m f
99.488 181.051 m 99.488 180.441 l 98.613 180.441 l 98.613 176.52 l 98.176
 176.52 l 95.582 180.426 l 95.582 181.051 l 97.879 181.051 l 97.879 182.535
 l 98.613 182.535 l 98.613 181.051 l h
97.879 180.441 m 95.941 180.441 l 97.863 177.457 l 97.879 177.457 l h
97.879 180.441 m f
126.59 179.582 m 126.59 177.973 125.855 176.52 124.605 176.52 c 123.34 
176.52 122.605 177.973 122.605 179.582 c 122.605 181.207 123.293 182.645
 124.605 182.645 c 125.809 182.645 126.59 181.207 126.59 179.582 c h
125.73 179.582 m 125.73 180.879 125.605 182.395 124.605 182.395 c 123.652
 182.395 123.465 180.879 123.465 179.582 c 123.465 178.504 123.59 176.754
 124.605 176.754 c 125.605 176.754 125.73 178.504 125.73 179.582 c h
125.73 179.582 m f
128.516 182.16 m 128.516 181.879 128.297 181.66 128.016 181.66 c 127.734
 181.66 127.516 181.879 127.516 182.16 c 127.516 182.441 127.734 182.66 
128.016 182.66 c 128.297 182.66 128.516 182.441 128.516 182.16 c h
128.516 182.16 m f
133.383 180.52 m 133.383 179.535 132.68 178.801 131.789 178.801 c 131.336
 178.801 130.961 178.941 130.57 179.254 c 130.961 177.66 132.133 176.66 
133.258 176.645 c 133.258 176.488 l 130.492 176.488 129.617 178.832 129.617
 180.16 c 129.617 181.582 130.445 182.645 131.555 182.645 c 132.57 182.645
 133.383 181.691 133.383 180.52 c h
132.617 180.973 m 132.617 181.801 132.242 182.379 131.648 182.379 c 130.727
 182.379 130.445 181.035 130.445 180.316 c 130.445 180.082 130.477 179.832
 130.523 179.535 c 130.914 179.285 131.227 179.176 131.539 179.176 c 132.445
 179.176 132.617 180.223 132.617 180.973 c h
132.617 180.973 m f
160.672 179.582 m 160.672 177.973 159.938 176.52 158.688 176.52 c 157.422
 176.52 156.688 177.973 156.688 179.582 c 156.688 181.207 157.375 182.645
 158.688 182.645 c 159.891 182.645 160.672 181.207 160.672 179.582 c h
159.812 179.582 m 159.812 180.879 159.688 182.395 158.688 182.395 c 157.734
 182.395 157.547 180.879 157.547 179.582 c 157.547 178.504 157.672 176.754
 158.688 176.754 c 159.688 176.754 159.812 178.504 159.812 179.582 c h
159.812 179.582 m f
162.594 182.16 m 162.594 181.879 162.375 181.66 162.094 181.66 c 161.812
 181.66 161.594 181.879 161.594 182.16 c 161.594 182.441 161.812 182.66 
162.094 182.66 c 162.375 182.66 162.594 182.441 162.594 182.16 c h
162.594 182.16 m f
167.246 181.16 m 167.246 180.52 166.965 180.035 165.871 179.223 c 166.559
 178.848 167.09 178.426 167.09 177.77 c 167.09 177.082 166.449 176.488 165.496
 176.488 c 164.652 176.488 163.855 177.035 163.855 177.879 c 163.855 178.535
 164.199 178.926 164.965 179.535 c 164.105 180.191 163.793 180.52 163.793
 181.191 c 163.793 181.941 164.465 182.645 165.512 182.645 c 166.73 182.645
 167.246 181.816 167.246 181.16 c h
166.48 177.754 m 166.48 178.395 166.105 178.738 165.621 179.066 c 165.027
 178.645 164.512 178.176 164.512 177.66 c 164.512 177.176 164.855 176.754
 165.465 176.754 c 166.137 176.754 166.48 177.176 166.48 177.754 c h
166.605 181.41 m 166.605 181.988 166.168 182.379 165.59 182.379 c 164.902
 182.379 164.465 181.832 164.465 181.098 c 164.465 180.426 164.793 180.035
 165.199 179.691 c 166.184 180.441 166.605 180.816 166.605 181.41 c h
166.605 181.41 m f
193.883 182.535 m 193.883 182.395 l 193.289 182.395 193.07 182.41 193.07
 181.238 c 193.07 181.223 193.07 176.488 193.07 176.488 c 192.945 176.488
 l 191.414 177.223 l 191.461 177.363 l 191.789 177.223 191.867 177.191 191.992
 177.191 c 192.258 177.191 192.305 177.426 192.305 177.738 c 192.305 181.238
 l 192.305 182.41 192.086 182.379 191.492 182.395 c 191.492 182.535 l h
193.883 182.535 m f
196.555 182.16 m 196.555 181.879 196.336 181.66 196.055 181.66 c 195.773
 181.66 195.555 181.879 195.555 182.16 c 195.555 182.441 195.773 182.66 
196.055 182.66 c 196.336 182.66 196.555 182.441 196.555 182.16 c h
196.555 182.16 m f
201.473 179.582 m 201.473 177.973 200.738 176.52 199.488 176.52 c 198.223
 176.52 197.488 177.973 197.488 179.582 c 197.488 181.207 198.176 182.645
 199.488 182.645 c 200.691 182.645 201.473 181.207 201.473 179.582 c h
200.613 179.582 m 200.613 180.879 200.488 182.395 199.488 182.395 c 198.535
 182.395 198.348 180.879 198.348 179.582 c 198.348 178.504 198.473 176.754
 199.488 176.754 c 200.488 176.754 200.613 178.504 200.613 179.582 c h
200.613 179.582 m f
22.312 173.102 m 22.312 171.492 21.578 170.039 20.328 170.039 c 19.062 
170.039 18.328 171.492 18.328 173.102 c 18.328 174.727 19.016 176.164 20.328
 176.164 c 21.531 176.164 22.312 174.727 22.312 173.102 c h
21.453 173.102 m 21.453 174.398 21.328 175.914 20.328 175.914 c 19.375 
175.914 19.188 174.398 19.188 173.102 c 19.188 172.023 19.312 170.273 20.328
 170.273 c 21.328 170.273 21.453 172.023 21.453 173.102 c h
21.453 173.102 m f
17.121 142.094 m 17.121 141.953 l 16.527 141.953 16.309 141.969 16.309 
140.797 c 16.309 140.781 16.309 136.047 16.309 136.047 c 16.184 136.047 
l 14.652 136.781 l 14.699 136.922 l 15.027 136.781 15.105 136.75 15.23 136.75
 c 15.496 136.75 15.543 136.984 15.543 137.297 c 15.543 140.797 l 15.543
 141.969 15.324 141.938 14.73 141.953 c 14.73 142.094 l h
17.121 142.094 m f
22.312 139.141 m 22.312 137.531 21.578 136.078 20.328 136.078 c 19.062 
136.078 18.328 137.531 18.328 139.141 c 18.328 140.766 19.016 142.203 20.328
 142.203 c 21.531 142.203 22.312 140.766 22.312 139.141 c h
21.453 139.141 m 21.453 140.438 21.328 141.953 20.328 141.953 c 19.375 
141.953 19.188 140.438 19.188 139.141 c 19.188 138.062 19.312 136.312 20.328
 136.312 c 21.328 136.312 21.453 138.062 21.453 139.141 c h
21.453 139.141 m f
17.902 106.98 m 17.746 106.949 l 17.48 107.402 17.262 107.48 16.824 107.48
 c 14.762 107.48 l 16.184 106.184 17.48 105.012 17.48 103.699 c 17.48 102.777
 16.684 102.121 15.809 102.121 c 14.949 102.121 14.262 102.59 13.996 103.809
 c 14.199 103.809 l 14.449 103.309 14.793 102.793 15.48 102.793 c 16.262
 102.793 16.699 103.387 16.699 104.059 c 16.699 105.027 15.668 106.449 13.902
 107.996 c 13.902 108.137 l 17.434 108.137 l h
17.902 106.98 m f
22.312 105.184 m 22.312 103.574 21.578 102.121 20.328 102.121 c 19.062 
102.121 18.328 103.574 18.328 105.184 c 18.328 106.809 19.016 108.246 20.328
 108.246 c 21.531 108.246 22.312 106.809 22.312 105.184 c h
21.453 105.184 m 21.453 106.48 21.328 107.996 20.328 107.996 c 19.375 107.996
 19.188 106.48 19.188 105.184 c 19.188 104.105 19.312 102.355 20.328 102.355
 c 21.328 102.355 21.453 104.105 21.453 105.184 c h
21.453 105.184 m f
17.527 72.117 m 17.527 71.18 16.98 70.773 16.449 70.555 c 17.027 70.117
 17.215 69.711 17.215 69.227 c 17.215 68.711 16.793 68.039 15.824 68.039
 c 15.121 68.039 14.449 68.43 14.152 69.398 c 14.293 69.43 l 14.48 69.07
 14.84 68.617 15.496 68.617 c 16.137 68.617 16.512 69.055 16.512 69.555 
c 16.512 70.258 15.965 70.758 15.152 70.945 c 15.137 71.133 l 16.527 71.07
 16.871 71.977 16.871 72.539 c 16.871 73.211 16.387 73.82 15.746 73.82 c
 15.168 73.82 14.918 73.32 14.434 73.32 c 14.277 73.32 14.09 73.477 14.09
 73.68 c 14.09 74.055 14.652 74.164 15.059 74.164 c 16.48 74.164 17.527 
73.352 17.527 72.117 c h
17.527 72.117 m f
22.312 71.102 m 22.312 69.492 21.578 68.039 20.328 68.039 c 19.062 68.039
 18.328 69.492 18.328 71.102 c 18.328 72.727 19.016 74.164 20.328 74.164
 c 21.531 74.164 22.312 72.727 22.312 71.102 c h
21.453 71.102 m 21.453 72.398 21.328 73.914 20.328 73.914 c 19.375 73.914
 19.188 72.398 19.188 71.102 c 19.188 70.023 19.312 68.273 20.328 68.273
 c 21.328 68.273 21.453 70.023 21.453 71.102 c h
21.453 71.102 m f
17.887 38.609 m 17.887 38 l 17.012 38 l 17.012 34.078 l 16.574 34.078 l
 13.98 37.984 l 13.98 38.609 l 16.277 38.609 l 16.277 40.094 l 17.012 40.094
 l 17.012 38.609 l h
16.277 38 m 14.34 38 l 16.262 35.016 l 16.277 35.016 l h
16.277 38 m f
22.312 37.141 m 22.312 35.531 21.578 34.078 20.328 34.078 c 19.062 34.078
 18.328 35.531 18.328 37.141 c 18.328 38.766 19.016 40.203 20.328 40.203
 c 21.531 40.203 22.312 38.766 22.312 37.141 c h
21.453 37.141 m 21.453 38.438 21.328 39.953 20.328 39.953 c 19.375 39.953
 19.188 38.438 19.188 37.141 c 19.188 36.062 19.312 34.312 20.328 34.312
 c 21.328 34.312 21.453 36.062 21.453 37.141 c h
21.453 37.141 m f
17.809 0.094 m 15.34 0.094 l 14.23 2.641 l 14.371 2.609 14.512 2.578 14.684
 2.578 c 15.637 2.578 16.934 3.078 16.934 4.25 c 16.934 5.156 16.277 5.734
 15.652 5.734 c 15.105 5.734 14.902 5.234 14.387 5.234 c 14.137 5.234 14.059
 5.453 14.059 5.562 c 14.059 5.875 14.496 6.125 15.121 6.125 c 16.465 6.125
 17.527 5.141 17.527 3.938 c 17.527 2.516 16.402 2.031 15.184 2 c 15.074
 2 14.949 2.016 14.84 2.031 c 15.402 0.766 l 17.496 0.75 l h
17.809 0.094 m f
22.312 3.062 m 22.312 1.453 21.578 0 20.328 0 c 19.062 0 18.328 1.453 18.328
 3.062 c 18.328 4.688 19.016 6.125 20.328 6.125 c 21.531 6.125 22.312 4.688
 22.312 3.062 c h
21.453 3.062 m 21.453 4.359 21.328 5.875 20.328 5.875 c 19.375 5.875 19.188
 4.359 19.188 3.062 c 19.188 1.984 19.312 0.234 20.328 0.234 c 21.328 0.234
 21.453 1.984 21.453 3.062 c h
21.453 3.062 m f
1.133661 w
q 1 0 0 -1 0 0 cm
25.977 -173.059 m 25.977 -173.059 27.902 -147.516 29.496 -134.152 c 30.012
 -129.934 30.57 -126.195 31.348 -122.047 c 31.938 -118.754 32.605 -115.867
 33.309 -112.609 c 34.344 -107.945 34.973 -103.688 36.418 -99.098 c 37.566
 -95.508 38.488 -92.176 40.527 -88.992 c 44.93 -82.219 50.039 -76.48 56.777
 -72 c 64.145 -67.152 72.285 -65.559 80.688 -62.969 c 86.391 -61.191 91.645
 -60.305 97.457 -58.934 c 104.602 -57.27 111.008 -55.75 118.188 -54.195 
c 122.52 -53.27 126.48 -52.715 130.809 -51.68 c 137.324 -50.125 143.137 
-48.57 149.469 -46.496 c 154.91 -44.684 159.719 -42.867 164.977 -40.535 
c 170.16 -38.242 174.711 -35.945 179.637 -33.098 c 182.449 -31.469 184.855
 -29.766 187.52 -27.875 c 190.555 -25.73 196.07 -21.324 196.07 -21.324 c
 S Q
1 g
28.125 173.055 m 28.125 171.879 27.172 170.926 25.996 170.926 c 24.82 170.926
 23.867 171.879 23.867 173.055 c 23.867 174.23 24.82 175.184 25.996 175.184
 c 27.172 175.184 28.125 174.23 28.125 173.055 c f
0 g
28.125 173.055 m 28.125 171.879 27.172 170.926 25.996 170.926 c 24.82 170.926
 23.867 171.879 23.867 173.055 c 23.867 174.23 24.82 175.184 25.996 175.184
 c 27.172 175.184 28.125 174.23 28.125 173.055 c h
28.125 173.055 m 27.914 173.055 l 27.914 171.996 27.055 171.137 25.996 
171.137 c 24.938 171.137 24.078 171.996 24.078 173.055 c 24.078 174.113 
24.938 174.973 25.996 174.973 c 27.055 174.973 27.914 174.113 27.914 173.055
 c f
1 g
31.645 134.145 m 31.645 132.969 30.691 132.016 29.516 132.016 c 28.344 
132.016 27.391 132.969 27.391 134.145 c 27.391 135.32 28.344 136.273 29.516
 136.273 c 30.691 136.273 31.645 135.32 31.645 134.145 c f
0 g
31.645 134.145 m 31.645 132.969 30.691 132.016 29.516 132.016 c 28.344 
132.016 27.391 132.969 27.391 134.145 c 27.391 135.32 28.344 136.273 29.516
 136.273 c 30.691 136.273 31.645 135.32 31.645 134.145 c h
31.645 134.145 m 31.438 134.145 l 31.438 133.086 30.578 132.227 29.516 
132.227 c 28.457 132.227 27.598 133.086 27.598 134.145 c 27.598 135.203 
28.457 136.062 29.516 136.062 c 30.578 136.062 31.438 135.203 31.438 134.145
 c f
1 g
33.465 122.035 m 33.465 120.859 32.512 119.906 31.336 119.906 c 30.16 119.906
 29.207 120.859 29.207 122.035 c 29.207 123.211 30.16 124.164 31.336 124.164
 c 32.512 124.164 33.465 123.211 33.465 122.035 c f
0 g
33.465 122.035 m 33.465 120.859 32.512 119.906 31.336 119.906 c 30.16 119.906
 29.207 120.859 29.207 122.035 c 29.207 123.211 30.16 124.164 31.336 124.164
 c 32.512 124.164 33.465 123.211 33.465 122.035 c h
33.465 122.035 m 33.254 122.035 l 33.254 120.977 32.395 120.117 31.336 
120.117 c 30.277 120.117 29.418 120.977 29.418 122.035 c 29.418 123.094 
30.277 123.953 31.336 123.953 c 32.395 123.953 33.254 123.094 33.254 122.035
 c f
1 g
35.457 112.617 m 35.457 111.441 34.504 110.488 33.328 110.488 c 32.152 
110.488 31.199 111.441 31.199 112.617 c 31.199 113.793 32.152 114.746 33.328
 114.746 c 34.504 114.746 35.457 113.793 35.457 112.617 c f
0 g
35.457 112.617 m 35.457 111.441 34.504 110.488 33.328 110.488 c 32.152 
110.488 31.199 111.441 31.199 112.617 c 31.199 113.793 32.152 114.746 33.328
 114.746 c 34.504 114.746 35.457 113.793 35.457 112.617 c h
35.457 112.617 m 35.246 112.617 l 35.246 111.559 34.387 110.699 33.328 
110.699 c 32.27 110.699 31.41 111.559 31.41 112.617 c 31.41 113.676 32.27
 114.535 33.328 114.535 c 34.387 114.535 35.246 113.676 35.246 112.617 c
 f
1 g
38.555 99.105 m 38.555 97.93 37.602 96.977 36.426 96.977 c 35.25 96.977
 34.297 97.93 34.297 99.105 c 34.297 100.281 35.25 101.234 36.426 101.234
 c 37.602 101.234 38.555 100.281 38.555 99.105 c f
0 g
38.555 99.105 m 38.555 97.93 37.602 96.977 36.426 96.977 c 35.25 96.977
 34.297 97.93 34.297 99.105 c 34.297 100.281 35.25 101.234 36.426 101.234
 c 37.602 101.234 38.555 100.281 38.555 99.105 c h
38.555 99.105 m 38.344 99.105 l 38.344 98.047 37.484 97.188 36.426 97.188
 c 35.367 97.188 34.508 98.047 34.508 99.105 c 34.508 100.164 35.367 101.023
 36.426 101.023 c 37.484 101.023 38.344 100.164 38.344 99.105 c f
1 g
42.656 89.008 m 42.656 87.832 41.703 86.879 40.527 86.879 c 39.352 86.879
 38.398 87.832 38.398 89.008 c 38.398 90.18 39.352 91.133 40.527 91.133 
c 41.703 91.133 42.656 90.18 42.656 89.008 c f
0 g
42.656 89.008 m 42.656 87.832 41.703 86.879 40.527 86.879 c 39.352 86.879
 38.398 87.832 38.398 89.008 c 38.398 90.18 39.352 91.133 40.527 91.133 
c 41.703 91.133 42.656 90.18 42.656 89.008 c h
42.656 89.008 m 42.445 89.008 l 42.445 87.945 41.586 87.086 40.527 87.086
 c 39.469 87.086 38.609 87.945 38.609 89.008 c 38.609 90.066 39.469 90.926
 40.527 90.926 c 41.586 90.926 42.445 90.066 42.445 89.008 c f
1 g
58.926 71.996 m 58.926 70.82 57.973 69.867 56.797 69.867 c 55.621 69.867
 54.668 70.82 54.668 71.996 c 54.668 73.172 55.621 74.125 56.797 74.125 
c 57.973 74.125 58.926 73.172 58.926 71.996 c f
0 g
58.926 71.996 m 58.926 70.82 57.973 69.867 56.797 69.867 c 55.621 69.867
 54.668 70.82 54.668 71.996 c 54.668 73.172 55.621 74.125 56.797 74.125 
c 57.973 74.125 58.926 73.172 58.926 71.996 c h
58.926 71.996 m 58.715 71.996 l 58.715 70.938 57.855 70.078 56.797 70.078
 c 55.738 70.078 54.879 70.938 54.879 71.996 c 54.879 73.055 55.738 73.914
 56.797 73.914 c 57.855 73.914 58.715 73.055 58.715 71.996 c f
1 g
82.836 62.957 m 82.836 61.781 81.883 60.828 80.707 60.828 c 79.531 60.828
 78.578 61.781 78.578 62.957 c 78.578 64.133 79.531 65.086 80.707 65.086
 c 81.883 65.086 82.836 64.133 82.836 62.957 c f
0 g
82.836 62.957 m 82.836 61.781 81.883 60.828 80.707 60.828 c 79.531 60.828
 78.578 61.781 78.578 62.957 c 78.578 64.133 79.531 65.086 80.707 65.086
 c 81.883 65.086 82.836 64.133 82.836 62.957 c h
82.836 62.957 m 82.625 62.957 l 82.625 61.898 81.766 61.039 80.707 61.039
 c 79.648 61.039 78.789 61.898 78.789 62.957 c 78.789 64.016 79.648 64.875
 80.707 64.875 c 81.766 64.875 82.625 64.016 82.625 62.957 c f
1 g
99.574 58.938 m 99.574 57.762 98.621 56.809 97.445 56.809 c 96.273 56.809
 95.32 57.762 95.32 58.938 c 95.32 60.113 96.273 61.066 97.445 61.066 c 
98.621 61.066 99.574 60.113 99.574 58.938 c f
0 g
99.574 58.938 m 99.574 57.762 98.621 56.809 97.445 56.809 c 96.273 56.809
 95.32 57.762 95.32 58.938 c 95.32 60.113 96.273 61.066 97.445 61.066 c 
98.621 61.066 99.574 60.113 99.574 58.938 c h
99.574 58.938 m 99.367 58.938 l 99.367 57.879 98.508 57.02 97.445 57.02
 c 96.387 57.02 95.527 57.879 95.527 58.938 c 95.527 59.996 96.387 60.855
 97.445 60.855 c 98.508 60.855 99.367 59.996 99.367 58.938 c f
1 g
120.305 54.207 m 120.305 53.031 119.352 52.078 118.176 52.078 c 117 52.078
 116.047 53.031 116.047 54.207 c 116.047 55.383 117 56.336 118.176 56.336
 c 119.352 56.336 120.305 55.383 120.305 54.207 c f
0 g
120.305 54.207 m 120.305 53.031 119.352 52.078 118.176 52.078 c 117 52.078
 116.047 53.031 116.047 54.207 c 116.047 55.383 117 56.336 118.176 56.336
 c 119.352 56.336 120.305 55.383 120.305 54.207 c h
120.305 54.207 m 120.094 54.207 l 120.094 53.148 119.234 52.289 118.176
 52.289 c 117.117 52.289 116.258 53.148 116.258 54.207 c 116.258 55.266 
117.117 56.125 118.176 56.125 c 119.234 56.125 120.094 55.266 120.094 54.207
 c f
1 g
132.965 51.656 m 132.965 50.48 132.012 49.527 130.836 49.527 c 129.66 49.527
 128.707 50.48 128.707 51.656 c 128.707 52.832 129.66 53.785 130.836 53.785
 c 132.012 53.785 132.965 52.832 132.965 51.656 c f
0 g
132.965 51.656 m 132.965 50.48 132.012 49.527 130.836 49.527 c 129.66 49.527
 128.707 50.48 128.707 51.656 c 128.707 52.832 129.66 53.785 130.836 53.785
 c 132.012 53.785 132.965 52.832 132.965 51.656 c h
132.965 51.656 m 132.754 51.656 l 132.754 50.598 131.895 49.738 130.836
 49.738 c 129.777 49.738 128.918 50.598 128.918 51.656 c 128.918 52.715 
129.777 53.574 130.836 53.574 c 131.895 53.574 132.754 52.715 132.754 51.656
 c f
1 g
151.586 46.484 m 151.586 45.309 150.633 44.355 149.457 44.355 c 148.281
 44.355 147.328 45.309 147.328 46.484 c 147.328 47.66 148.281 48.613 149.457
 48.613 c 150.633 48.613 151.586 47.66 151.586 46.484 c f
0 g
151.586 46.484 m 151.586 45.309 150.633 44.355 149.457 44.355 c 148.281
 44.355 147.328 45.309 147.328 46.484 c 147.328 47.66 148.281 48.613 149.457
 48.613 c 150.633 48.613 151.586 47.66 151.586 46.484 c h
151.586 46.484 m 151.375 46.484 l 151.375 45.426 150.516 44.566 149.457
 44.566 c 148.398 44.566 147.539 45.426 147.539 46.484 c 147.539 47.543 
148.398 48.402 149.457 48.402 c 150.516 48.402 151.375 47.543 151.375 46.484
 c f
1 g
167.098 40.535 m 167.098 39.359 166.145 38.406 164.969 38.406 c 163.793
 38.406 162.84 39.359 162.84 40.535 c 162.84 41.711 163.793 42.664 164.969
 42.664 c 166.145 42.664 167.098 41.711 167.098 40.535 c f
0 g
167.098 40.535 m 167.098 39.359 166.145 38.406 164.969 38.406 c 163.793
 38.406 162.84 39.359 162.84 40.535 c 162.84 41.711 163.793 42.664 164.969
 42.664 c 166.145 42.664 167.098 41.711 167.098 40.535 c h
167.098 40.535 m 166.887 40.535 l 166.887 39.477 166.027 38.617 164.969
 38.617 c 163.91 38.617 163.051 39.477 163.051 40.535 c 163.051 41.594 163.91
 42.453 164.969 42.453 c 166.027 42.453 166.887 41.594 166.887 40.535 c f
1 g
181.758 33.086 m 181.758 31.91 180.805 30.957 179.629 30.957 c 178.453 
30.957 177.5 31.91 177.5 33.086 c 177.5 34.262 178.453 35.215 179.629 35.215
 c 180.805 35.215 181.758 34.262 181.758 33.086 c f
0 g
181.758 33.086 m 181.758 31.91 180.805 30.957 179.629 30.957 c 178.453 
30.957 177.5 31.91 177.5 33.086 c 177.5 34.262 178.453 35.215 179.629 35.215
 c 180.805 35.215 181.758 34.262 181.758 33.086 c h
181.758 33.086 m 181.547 33.086 l 181.547 32.027 180.688 31.168 179.629
 31.168 c 178.57 31.168 177.711 32.027 177.711 33.086 c 177.711 34.145 178.57
 35.004 179.629 35.004 c 180.688 35.004 181.547 34.145 181.547 33.086 c f
1 g
189.645 27.887 m 189.645 26.711 188.691 25.758 187.516 25.758 c 186.344
 25.758 185.391 26.711 185.391 27.887 c 185.391 29.062 186.344 30.016 187.516
 30.016 c 188.691 30.016 189.645 29.062 189.645 27.887 c f
0 g
189.645 27.887 m 189.645 26.711 188.691 25.758 187.516 25.758 c 186.344
 25.758 185.391 26.711 185.391 27.887 c 185.391 29.062 186.344 30.016 187.516
 30.016 c 188.691 30.016 189.645 29.062 189.645 27.887 c h
189.645 27.887 m 189.438 27.887 l 189.438 26.828 188.578 25.969 187.516
 25.969 c 186.457 25.969 185.598 26.828 185.598 27.887 c 185.598 28.945 
186.457 29.805 187.516 29.805 c 188.578 29.805 189.438 28.945 189.438 27.887
 c f
1 g
198.207 21.324 m 198.207 20.148 197.254 19.195 196.078 19.195 c 194.902
 19.195 193.949 20.148 193.949 21.324 c 193.949 22.5 194.902 23.453 196.078
 23.453 c 197.254 23.453 198.207 22.5 198.207 21.324 c f
0 g
198.207 21.324 m 198.207 20.148 197.254 19.195 196.078 19.195 c 194.902
 19.195 193.949 20.148 193.949 21.324 c 193.949 22.5 194.902 23.453 196.078
 23.453 c 197.254 23.453 198.207 22.5 198.207 21.324 c h
198.207 21.324 m 197.996 21.324 l 197.996 20.266 197.137 19.406 196.078
 19.406 c 195.02 19.406 194.16 20.266 194.16 21.324 c 194.16 22.383 195.02
 23.242 196.078 23.242 c 197.137 23.242 197.996 22.383 197.996 21.324 c f
q 1 0 0 -1 0 0 cm
25.977 -71.371 m 25.977 -71.371 28.348 -72.113 29.496 -72.668 c 30.16 -72.926
 30.68 -73.371 31.348 -73.629 c 32.012 -73.891 32.641 -74 33.309 -74.223
 c 34.383 -74.555 35.344 -74.961 36.418 -75.258 c 37.824 -75.629 39.082 
-75.812 40.527 -76.074 c 46.117 -77.109 51.148 -77.961 56.777 -78.699 c 
65.031 -79.773 72.473 -80.219 80.688 -81.105 c 86.5 -81.738 91.684 -82.219
 97.457 -83.031 c 104.641 -84.031 111.043 -85.105 118.188 -86.402 c 122.555
 -87.18 126.555 -87.695 130.809 -88.953 c 137.438 -90.844 143.395 -92.73
 149.469 -95.988 c 155.277 -99.098 160.277 -102.578 164.977 -107.203 c 171.012
 -113.164 175.34 -119.68 179.637 -127.008 c 183.004 -132.781 185.188 -138.445
 187.52 -144.738 c 191.074 -154.289 196.07 -173.059 196.07 -173.059 c S Q
1 g
25.996 68.562 m 23.562 72.781 l 28.43 72.781 l f
0 g
25.996 68.562 m 23.562 72.781 l 28.43 72.781 l h
25.996 68.984 m 23.926 72.57 l 28.066 72.57 l f
1 g
29.516 69.832 m 27.082 74.051 l 31.953 74.051 l f
0 g
29.516 69.832 m 27.082 74.051 l 31.953 74.051 l h
29.516 70.254 m 27.449 73.84 l 31.586 73.84 l f
1 g
31.336 70.824 m 28.902 75.043 l 33.77 75.043 l f
0 g
31.336 70.824 m 28.902 75.043 l 33.77 75.043 l h
31.336 71.246 m 29.266 74.832 l 33.406 74.832 l f
1 g
33.328 71.395 m 30.895 75.613 l 35.762 75.613 l f
0 g
33.328 71.395 m 30.895 75.613 l 35.762 75.613 l h
33.328 71.816 m 31.258 75.402 l 35.398 75.402 l f
1 g
36.426 72.453 m 33.992 76.672 l 38.859 76.672 l f
0 g
36.426 72.453 m 33.992 76.672 l 38.859 76.672 l h
36.426 72.875 m 34.355 76.461 l 38.496 76.461 l f
1 g
40.527 73.262 m 38.094 77.48 l 42.961 77.48 l f
0 g
40.527 73.262 m 38.094 77.48 l 42.961 77.48 l h
40.527 73.684 m 38.457 77.27 l 42.598 77.27 l f
1 g
56.797 75.883 m 54.363 80.102 l 59.23 80.102 l f
0 g
56.797 75.883 m 54.363 80.102 l 59.23 80.102 l h
56.797 76.305 m 54.727 79.891 l 58.867 79.891 l f
1 g
80.707 78.305 m 78.273 82.523 l 83.141 82.523 l f
0 g
80.707 78.305 m 78.273 82.523 l 83.141 82.523 l h
80.707 78.727 m 78.637 82.312 l 82.777 82.312 l f
1 g
97.445 80.203 m 95.012 84.422 l 99.883 84.422 l f
0 g
97.445 80.203 m 95.012 84.422 l 99.883 84.422 l h
97.445 80.625 m 95.379 84.211 l 99.516 84.211 l f
1 g
118.176 83.574 m 115.742 87.793 l 120.609 87.793 l f
0 g
118.176 83.574 m 115.742 87.793 l 120.609 87.793 l h
118.176 83.996 m 116.105 87.582 l 120.246 87.582 l f
1 g
130.836 86.125 m 128.402 90.344 l 133.27 90.344 l f
0 g
130.836 86.125 m 128.402 90.344 l 133.27 90.344 l h
130.836 86.547 m 128.766 90.133 l 132.906 90.133 l f
1 g
149.457 93.164 m 147.023 97.383 l 151.891 97.383 l f
0 g
149.457 93.164 m 147.023 97.383 l 151.891 97.383 l h
149.457 93.586 m 147.387 97.172 l 151.527 97.172 l f
1 g
164.969 104.395 m 162.535 108.613 l 167.402 108.613 l f
0 g
164.969 104.395 m 162.535 108.613 l 167.402 108.613 l h
164.969 104.816 m 162.898 108.402 l 167.039 108.402 l f
1 g
179.629 124.195 m 177.195 128.414 l 182.062 128.414 l f
0 g
179.629 124.195 m 177.195 128.414 l 182.062 128.414 l h
179.629 124.617 m 177.559 128.199 l 181.699 128.199 l f
1 g
187.516 141.914 m 185.082 146.133 l 189.953 146.133 l f
0 g
187.516 141.914 m 185.082 146.133 l 189.953 146.133 l h
187.516 142.336 m 185.449 145.922 l 189.586 145.922 l f
1 g
196.078 170.242 m 193.645 174.461 l 198.512 174.461 l f
0 g
196.078 170.242 m 193.645 174.461 l 198.512 174.461 l h
196.078 170.664 m 194.008 174.25 l 198.148 174.25 l f
110.52 188.492 m 110.52 188.273 110.316 188.164 110.145 188.164 c 109.691
 188.164 109.113 188.836 108.676 189.539 c 108.66 189.539 108.598 189.242
 108.598 189.242 c 108.457 188.648 108.285 188.305 107.973 188.164 c 107.973
 188.164 106.957 188.367 106.832 188.414 c 106.832 188.57 l 107.02 188.523
 107.16 188.492 107.254 188.492 c 107.754 188.492 107.832 188.977 108.176
 190.273 c 107.77 190.867 107.129 191.867 106.879 191.867 c 106.676 191.867
 106.66 191.648 106.379 191.648 c 106.191 191.648 106.051 191.789 106.051
 191.977 c 106.051 192.211 106.223 192.367 106.473 192.367 c 107.113 192.367
 107.691 191.242 108.238 190.539 c 108.27 190.602 108.473 191.398 108.473
 191.398 c 108.691 192.227 108.863 192.367 109.082 192.367 c 109.363 192.367
 109.785 192.086 110.207 191.305 c 110.082 191.227 l 109.926 191.43 109.676
 191.852 109.441 191.852 c 109.129 191.852 108.957 190.586 108.738 189.789
 c 108.785 189.711 109.41 188.711 109.738 188.711 c 109.91 188.711 110.066
 188.852 110.223 188.852 c 110.441 188.852 110.52 188.664 110.52 188.492
 c h
110.52 188.492 m f
115.719 194.289 m 115.406 194.258 115.328 194.195 115.094 193.68 c 113.359
 189.711 l 113.219 189.711 l 111.766 193.133 l 111.312 194.148 111.234 194.273
 110.906 194.289 c 110.906 194.414 l 112.281 194.414 l 112.281 194.289 l
 111.953 194.289 111.812 194.195 111.812 193.992 c 111.812 193.914 111.828
 193.82 111.859 193.727 c 112.188 192.914 l 114.016 192.914 l 114.297 193.57
 l 114.375 193.773 114.422 193.945 114.422 194.039 c 114.422 194.227 114.312
 194.273 113.938 194.289 c 113.938 194.414 l 115.719 194.414 l h
112.297 192.617 m 113.109 190.711 l 113.906 192.617 l h
112.297 192.617 m f
3.516 120.145 m 2.812 120.145 2.344 120.457 2.344 121.129 c 2.344 121.723
 2.766 122.176 3.328 122.582 c 2.344 122.27 l 2.344 122.27 2.578 123.473
 2.594 123.738 c 2.75 123.738 l 2.75 123.41 2.719 123.145 3.078 123.145 
c 3.25 123.145 3.641 123.254 3.859 123.316 c 7.594 124.379 l 7.938 124.473
 8.188 124.629 8.188 125.066 c 8.344 125.098 l 8.344 123.129 l 8.188 123.098
 l 8.188 123.441 8.172 123.738 7.922 123.738 c 7.844 123.738 7.75 123.723
 7.578 123.676 c 6.328 123.363 l 6.469 123.191 6.547 122.926 6.547 122.707
 c 6.547 121.629 5.016 120.145 3.516 120.145 c h
3.609 120.91 m 4.781 120.91 6.344 121.895 6.344 122.738 c 6.344 122.941
 6.266 123.129 6.094 123.301 c 5.297 123.098 2.766 122.551 2.766 121.395
 c 2.766 120.91 3.406 120.91 3.609 120.91 c h
3.609 120.91 m f
8.594 114.895 m 8.562 115.207 8.5 115.285 7.984 115.52 c 4.016 117.254 
l 4.016 117.395 l 7.438 118.848 l 8.453 119.301 8.578 119.379 8.594 119.707
 c 8.719 119.707 l 8.719 118.332 l 8.594 118.332 l 8.594 118.66 8.5 118.801
 8.297 118.801 c 8.219 118.801 8.125 118.785 8.031 118.754 c 7.219 118.426
 l 7.219 116.598 l 7.875 116.316 l 8.078 116.238 8.25 116.191 8.344 116.191
 c 8.531 116.191 8.578 116.301 8.594 116.676 c 8.719 116.676 l 8.719 114.895
 l h
6.922 118.316 m 5.016 117.504 l 6.922 116.707 l h
6.922 118.316 m f
0 110.391 m 0 110.828 l 8.359 113.938 l 8.359 113.484 l h
0 110.391 m f
6.438 109.793 m 6.438 107.699 l 6.297 107.699 l 6.297 107.871 l 6.266 108.246
 6.172 108.355 5.844 108.371 c 4.188 108.371 l 5.859 107.105 l 5.906 107.074
 5.953 107.043 5.984 107.027 c 6.062 106.949 6.125 106.918 6.172 106.918
 c 6.25 106.918 6.297 106.996 6.297 107.105 c 6.297 107.277 l 6.438 107.277
 l 6.438 105.324 l 6.297 105.324 l 6.281 105.715 6.109 105.996 5.641 106.371
 c 3.906 107.746 l 3.672 107.48 l 2.656 106.371 2.516 106.121 2.531 105.543
 c 2.406 105.543 l 2.406 107.387 l 2.531 107.387 l 2.531 107.027 2.578 106.934
 2.688 106.934 c 2.766 106.934 2.891 107.012 3 107.137 c 4.094 108.371 l
 0.328 108.371 l 0.312 108.402 l 0.422 108.746 0.5 109.012 0.641 109.527
 c 0.703 109.793 l 0.844 109.793 l 0.844 109.684 0.828 109.59 0.828 109.512
 c 0.828 109.199 0.953 109.121 1.375 109.121 c 5.703 109.121 l 6.172 109.137
 6.203 109.152 6.297 109.793 c h
6.438 109.793 m f
0.672 105.277 m 0.75 104.605 0.828 104.527 1.484 104.527 c 5.359 104.527
 l 6.125 104.527 6.203 104.59 6.266 105.277 c 6.438 105.277 l 6.438 102.762
 l 6.266 102.762 l 6.25 103.465 6.125 103.59 5.453 103.605 c 3.828 103.605
 l 3.844 103.371 3.859 103.215 3.859 102.98 c 3.859 102.277 3.766 101.809
 3.547 101.418 c 3.266 100.887 2.719 100.559 2.125 100.559 c 1.75 100.559
 1.406 100.684 1.141 100.918 c 0.75 101.277 0.5 102.059 0.5 102.902 c 0.5
 105.277 l h
1.141 103.605 m 0.891 103.605 0.828 103.543 0.828 103.309 c 0.828 102.09
 1.25 101.527 2.172 101.527 c 3.047 101.527 3.5 102.059 3.5 103.09 c 3.5
 103.277 3.484 103.402 3.469 103.605 c h
1.141 103.605 m f
5.844 96.527 m 5.969 96.684 6.016 96.793 6.016 96.934 c 6.016 97.137 5.891
 97.199 5.5 97.199 c 3.75 97.199 l 3.281 97.199 3.016 97.246 2.812 97.371
 c 2.484 97.574 2.312 97.965 2.312 98.48 c 2.312 99.324 2.75 99.996 3.312
 99.996 c 3.516 99.996 3.703 99.824 3.703 99.605 c 3.703 99.387 3.516 99.199
 3.328 99.199 c 3.297 99.199 3.25 99.215 3.188 99.215 c 3.094 99.246 3.031
 99.246 2.969 99.246 c 2.719 99.246 2.531 98.965 2.531 98.605 c 2.531 98.168
 2.781 97.918 3.266 97.918 c 3.812 97.918 l 4.359 99.293 4.453 99.449 4.781
 99.84 c 4.969 100.043 5.266 100.168 5.562 100.168 c 6.125 100.168 6.531
 99.777 6.531 99.215 c 6.531 98.824 6.344 98.465 5.875 97.918 c 6.344 97.871
 6.531 97.699 6.531 97.34 c 6.531 97.027 6.422 96.84 6.078 96.527 c h
5.328 97.918 m 5.609 97.918 5.703 97.965 5.812 98.152 c 5.938 98.387 6 
98.621 6 98.809 c 6 99.121 5.703 99.371 5.312 99.371 c 5.281 99.371 l 4.75
 99.371 4.406 98.965 4.031 97.918 c h
5.328 97.918 m f
5.844 90.289 m 5.969 90.445 6.016 90.555 6.016 90.695 c 6.016 90.898 5.891
 90.961 5.5 90.961 c 3.75 90.961 l 3.281 90.961 3.016 91.008 2.812 91.133
 c 2.484 91.336 2.312 91.727 2.312 92.242 c 2.312 93.086 2.75 93.758 3.312
 93.758 c 3.516 93.758 3.703 93.586 3.703 93.367 c 3.703 93.148 3.516 92.961
 3.328 92.961 c 3.297 92.961 3.25 92.977 3.188 92.977 c 3.094 93.008 3.031
 93.008 2.969 93.008 c 2.719 93.008 2.531 92.727 2.531 92.367 c 2.531 91.93
 2.781 91.68 3.266 91.68 c 3.812 91.68 l 4.359 93.055 4.453 93.211 4.781
 93.602 c 4.969 93.805 5.266 93.93 5.562 93.93 c 6.125 93.93 6.531 93.539
 6.531 92.977 c 6.531 92.586 6.344 92.227 5.875 91.68 c 6.344 91.633 6.531
 91.461 6.531 91.102 c 6.531 90.789 6.422 90.602 6.078 90.289 c h
5.328 91.68 m 5.609 91.68 5.703 91.727 5.812 91.914 c 5.938 92.148 6 92.383
 6 92.57 c 6 92.883 5.703 93.133 5.312 93.133 c 5.281 93.133 l 4.75 93.133
 4.406 92.727 4.031 91.68 c h
5.328 91.68 m f
6.438 90.141 m 6.438 88.234 l 6.297 88.234 l 6.281 88.688 6.156 88.828 
5.844 88.828 c 3.312 88.828 l 2.906 88.391 2.812 88.203 2.812 87.906 c 2.812
 87.469 3.078 87.25 3.672 87.25 c 5.547 87.25 l 6.125 87.266 6.281 87.375
 6.297 87.812 c 6.438 87.812 l 6.438 85.953 l 6.297 85.953 l 6.266 86.391
 6.156 86.484 5.719 86.5 c 3.656 86.5 l 2.812 86.5 2.312 86.891 2.312 87.547
 c 2.312 87.969 2.469 88.25 3.031 88.859 c 2.328 88.859 l 2.312 88.922 l
 2.484 89.375 2.578 89.688 2.719 90.156 c 2.875 90.156 l 2.844 90.094 2.828
 90.016 2.828 89.906 c 2.828 89.656 2.969 89.578 3.406 89.578 c 5.625 89.578
 l 6.156 89.594 6.281 89.688 6.297 90.141 c h
6.438 90.141 m f
5.922 81.449 m 5.922 81.574 5.922 81.621 5.922 81.652 c 5.922 81.965 5.828
 82.059 5.422 82.059 c 0.328 82.059 l 0.312 82.09 l 0.453 82.512 0.547 82.824
 0.703 83.418 c 0.844 83.418 l 0.844 83.34 0.844 83.293 0.844 83.215 c 0.844
 82.887 0.938 82.809 1.297 82.809 c 2.703 82.809 l 2.406 83.152 2.312 83.387
 2.312 83.746 c 2.312 84.777 3.328 85.621 4.594 85.621 c 5.75 85.621 6.531
 84.949 6.531 83.949 c 6.531 83.449 6.344 83.105 5.922 82.809 c 6.5 82.809
 l 6.531 82.777 l 6.062 81.449 l h
5.516 82.809 m 5.578 82.809 5.688 82.871 5.797 82.965 c 5.969 83.105 6.062
 83.34 6.062 83.605 c 6.062 84.355 5.344 84.84 4.234 84.84 c 3.234 84.84
 2.562 84.402 2.562 83.715 c 2.562 83.23 2.984 82.809 3.453 82.809 c h
5.516 82.809 m f
3.516 73.824 m 2.812 73.824 2.344 74.137 2.344 74.809 c 2.344 75.402 2.766
 75.855 3.328 76.262 c 2.344 75.949 l 2.344 75.949 2.578 77.152 2.594 77.418
 c 2.75 77.418 l 2.75 77.09 2.719 76.824 3.078 76.824 c 3.25 76.824 3.641
 76.934 3.859 76.996 c 7.594 78.059 l 7.938 78.152 8.188 78.309 8.188 78.746
 c 8.344 78.777 l 8.344 76.809 l 8.188 76.777 l 8.188 77.121 8.172 77.418
 7.922 77.418 c 7.844 77.418 7.75 77.402 7.578 77.355 c 6.328 77.043 l 6.469
 76.871 6.547 76.605 6.547 76.387 c 6.547 75.309 5.016 73.824 3.516 73.824
 c h
3.609 74.59 m 4.781 74.59 6.344 75.574 6.344 76.418 c 6.344 76.621 6.266
 76.809 6.094 76.98 c 5.297 76.777 2.766 76.23 2.766 75.074 c 2.766 74.59
 3.406 74.59 3.609 74.59 c h
3.609 74.59 m f
4.234 73.371 m 4.266 72.793 4.344 72.715 4.859 72.715 c 7.953 72.715 l 
8.484 72.715 8.562 72.809 8.594 73.371 c 8.719 73.371 l 8.719 71.043 l 8.719
 70.512 8.578 70.012 8.328 69.746 c 8.109 69.496 7.797 69.371 7.469 69.371
 c 7.156 69.371 6.875 69.48 6.672 69.699 c 6.484 69.918 6.406 70.105 6.297
 70.559 c 6.203 70.199 6.141 70.043 5.984 69.887 c 5.828 69.699 5.578 69.605
 5.297 69.605 c 4.516 69.605 4.109 70.23 4.109 71.434 c 4.109 73.371 l h
6.453 71.996 m 6.453 71.324 6.484 70.996 6.594 70.746 c 6.75 70.355 7.047
 70.168 7.469 70.168 c 7.844 70.168 8.125 70.309 8.281 70.59 c 8.406 70.809
 8.453 71.105 8.453 71.559 c 8.453 71.902 8.391 71.996 8.172 71.996 c h
6.172 71.996 m 4.578 71.996 l 4.422 71.996 4.375 71.965 4.375 71.84 c 4.359
 71.543 l 4.344 70.762 4.703 70.309 5.312 70.309 c 5.875 70.309 6.156 70.668
 6.172 71.34 c h
6.172 71.996 m f
0 64.43 m 0 64.867 l 8.359 67.977 l 8.359 67.523 l h
0 64.43 m f
6.438 63.832 m 6.438 61.738 l 6.297 61.738 l 6.297 61.91 l 6.266 62.285
 6.172 62.395 5.844 62.41 c 4.188 62.41 l 5.859 61.145 l 5.906 61.113 5.953
 61.082 5.984 61.066 c 6.062 60.988 6.125 60.957 6.172 60.957 c 6.25 60.957
 6.297 61.035 6.297 61.145 c 6.297 61.316 l 6.438 61.316 l 6.438 59.363 
l 6.297 59.363 l 6.281 59.754 6.109 60.035 5.641 60.41 c 3.906 61.785 l 
3.672 61.52 l 2.656 60.41 2.516 60.16 2.531 59.582 c 2.406 59.582 l 2.406
 61.426 l 2.531 61.426 l 2.531 61.066 2.578 60.973 2.688 60.973 c 2.766 
60.973 2.891 61.051 3 61.176 c 4.094 62.41 l 0.328 62.41 l 0.312 62.441 
l 0.422 62.785 0.5 63.051 0.641 63.566 c 0.703 63.832 l 0.844 63.832 l 0.844
 63.723 0.828 63.629 0.828 63.551 c 0.828 63.238 0.953 63.16 1.375 63.16
 c 5.703 63.16 l 6.172 63.176 6.203 63.191 6.297 63.832 c h
6.438 63.832 m f
0.672 59.316 m 0.75 58.645 0.828 58.566 1.484 58.566 c 5.359 58.566 l 6.125
 58.566 6.203 58.629 6.266 59.316 c 6.438 59.316 l 6.438 56.801 l 6.266 
56.801 l 6.25 57.504 6.125 57.629 5.453 57.645 c 3.828 57.645 l 3.844 57.41
 3.859 57.254 3.859 57.02 c 3.859 56.316 3.766 55.848 3.547 55.457 c 3.266
 54.926 2.719 54.598 2.125 54.598 c 1.75 54.598 1.406 54.723 1.141 54.957
 c 0.75 55.316 0.5 56.098 0.5 56.941 c 0.5 59.316 l h
1.141 57.645 m 0.891 57.645 0.828 57.582 0.828 57.348 c 0.828 56.129 1.25
 55.566 2.172 55.566 c 3.047 55.566 3.5 56.098 3.5 57.129 c 3.5 57.316 3.484
 57.441 3.469 57.645 c h
1.141 57.645 m f
5.844 50.566 m 5.969 50.723 6.016 50.832 6.016 50.973 c 6.016 51.176 5.891
 51.238 5.5 51.238 c 3.75 51.238 l 3.281 51.238 3.016 51.285 2.812 51.41
 c 2.484 51.613 2.312 52.004 2.312 52.52 c 2.312 53.363 2.75 54.035 3.312
 54.035 c 3.516 54.035 3.703 53.863 3.703 53.645 c 3.703 53.426 3.516 53.238
 3.328 53.238 c 3.297 53.238 3.25 53.254 3.188 53.254 c 3.094 53.285 3.031
 53.285 2.969 53.285 c 2.719 53.285 2.531 53.004 2.531 52.645 c 2.531 52.207
 2.781 51.957 3.266 51.957 c 3.812 51.957 l 4.359 53.332 4.453 53.488 4.781
 53.879 c 4.969 54.082 5.266 54.207 5.562 54.207 c 6.125 54.207 6.531 53.816
 6.531 53.254 c 6.531 52.863 6.344 52.504 5.875 51.957 c 6.344 51.91 6.531
 51.738 6.531 51.379 c 6.531 51.066 6.422 50.879 6.078 50.566 c h
5.328 51.957 m 5.609 51.957 5.703 52.004 5.812 52.191 c 5.938 52.426 6 
52.66 6 52.848 c 6 53.16 5.703 53.41 5.312 53.41 c 5.281 53.41 l 4.75 53.41
 4.406 53.004 4.031 51.957 c h
5.328 51.957 m f
41.102 120.074 m 41.102 119.371 40.789 118.902 40.117 118.902 c 39.523 
118.902 39.07 119.324 38.664 119.887 c 38.977 118.902 l 38.977 118.902 37.773
 119.137 37.508 119.152 c 37.508 119.309 l 37.836 119.309 38.102 119.277
 38.102 119.637 c 38.102 119.809 37.992 120.199 37.93 120.418 c 36.867 124.152
 l 36.773 124.496 36.617 124.746 36.18 124.746 c 36.148 124.902 l 38.117
 124.902 l 38.148 124.746 l 37.805 124.746 37.508 124.73 37.508 124.48 c
 37.508 124.402 37.523 124.309 37.57 124.137 c 37.883 122.887 l 38.055 123.027
 38.32 123.105 38.539 123.105 c 39.617 123.105 41.102 121.574 41.102 120.074
 c h
40.336 120.168 m 40.336 121.34 39.352 122.902 38.508 122.902 c 38.305 122.902
 38.117 122.824 37.945 122.652 c 38.148 121.855 38.695 119.324 39.852 119.324
 c 40.336 119.324 40.336 119.965 40.336 120.168 c h
40.336 120.168 m f
46.348 125.152 m 46.035 125.121 45.957 125.059 45.723 124.543 c 43.988 
120.574 l 43.848 120.574 l 42.395 123.996 l 41.941 125.012 41.863 125.137
 41.535 125.152 c 41.535 125.277 l 42.91 125.277 l 42.91 125.152 l 42.582
 125.152 42.441 125.059 42.441 124.855 c 42.441 124.777 42.457 124.684 42.488
 124.59 c 42.816 123.777 l 44.645 123.777 l 44.926 124.434 l 45.004 124.637
 45.051 124.809 45.051 124.902 c 45.051 125.09 44.941 125.137 44.566 125.152
 c 44.566 125.277 l 46.348 125.277 l h
42.926 123.48 m 43.738 121.574 l 44.535 123.48 l h
42.926 123.48 m f
165.379 120.074 m 165.379 119.371 165.066 118.902 164.395 118.902 c 163.801
 118.902 163.348 119.324 162.941 119.887 c 163.254 118.902 l 163.254 118.902
 162.051 119.137 161.785 119.152 c 161.785 119.309 l 162.113 119.309 162.379
 119.277 162.379 119.637 c 162.379 119.809 162.27 120.199 162.207 120.418
 c 161.145 124.152 l 161.051 124.496 160.895 124.746 160.457 124.746 c 160.426
 124.902 l 162.395 124.902 l 162.426 124.746 l 162.082 124.746 161.785 124.73
 161.785 124.48 c 161.785 124.402 161.801 124.309 161.848 124.137 c 162.16
 122.887 l 162.332 123.027 162.598 123.105 162.816 123.105 c 163.895 123.105
 165.379 121.574 165.379 120.074 c h
164.613 120.168 m 164.613 121.34 163.629 122.902 162.785 122.902 c 162.582
 122.902 162.395 122.824 162.223 122.652 c 162.426 121.855 162.973 119.324
 164.129 119.324 c 164.613 119.324 164.613 119.965 164.613 120.168 c h
164.613 120.168 m f
165.832 120.793 m 166.41 120.824 166.488 120.902 166.488 121.418 c 166.488
 124.512 l 166.488 125.043 166.395 125.121 165.832 125.152 c 165.832 125.277
 l 168.16 125.277 l 168.691 125.277 169.191 125.137 169.457 124.887 c 169.707
 124.668 169.832 124.355 169.832 124.027 c 169.832 123.715 169.723 123.434
 169.504 123.23 c 169.285 123.043 169.098 122.965 168.645 122.855 c 169.004
 122.762 169.16 122.699 169.316 122.543 c 169.504 122.387 169.598 122.137
 169.598 121.855 c 169.598 121.074 168.973 120.668 167.77 120.668 c 165.832
 120.668 l h
167.207 123.012 m 167.879 123.012 168.207 123.043 168.457 123.152 c 168.848
 123.309 169.035 123.605 169.035 124.027 c 169.035 124.402 168.895 124.684
 168.613 124.84 c 168.395 124.965 168.098 125.012 167.645 125.012 c 167.301
 125.012 167.207 124.949 167.207 124.73 c h
167.207 122.73 m 167.207 121.137 l 167.207 120.98 167.238 120.934 167.363
 120.934 c 167.66 120.918 l 168.441 120.902 168.895 121.262 168.895 121.871
 c 168.895 122.434 168.535 122.715 167.863 122.73 c h
167.207 122.73 m f
Q Q
showpage
%%Trailer
end
%%EOF
