%!PS-Adobe-3.0 EPSF-3.0
%%Creator: cairo 1.17.4 (https://cairographics.org)
%%CreationDate: Thu Feb 24 10:48:38 2022
%%Pages: 1
%%DocumentData: Clean7Bit
%%LanguageLevel: 2
%%BoundingBox: 0 0 317 157
%%EndComments
%%BeginProlog
50 dict begin
/q { gsave } bind def
/Q { grestore } bind def
/cm { 6 array astore concat } bind def
/w { setlinewidth } bind def
/J { setlinecap } bind def
/j { setlinejoin } bind def
/M { setmiterlimit } bind def
/d { setdash } bind def
/m { moveto } bind def
/l { lineto } bind def
/c { curveto } bind def
/h { closepath } bind def
/re { exch dup neg 3 1 roll 5 3 roll moveto 0 rlineto
      0 exch rlineto 0 rlineto closepath } bind def
/S { stroke } bind def
/f { fill } bind def
/f* { eofill } bind def
/n { newpath } bind def
/W { clip } bind def
/W* { eoclip } bind def
/BT { } bind def
/ET { } bind def
/BDC { mark 3 1 roll /BDC pdfmark } bind def
/EMC { mark /EMC pdfmark } bind def
/cairo_store_point { /cairo_point_y exch def /cairo_point_x exch def } def
/Tj { show currentpoint cairo_store_point } bind def
/TJ {
  {
    dup
    type /stringtype eq
    { show } { -0.001 mul 0 cairo_font_matrix dtransform rmoveto } ifelse
  } forall
  currentpoint cairo_store_point
} bind def
/cairo_selectfont { cairo_font_matrix aload pop pop pop 0 0 6 array astore
    cairo_font exch selectfont cairo_point_x cairo_point_y moveto } bind def
/Tf { pop /cairo_font exch def /cairo_font_matrix where
      { pop cairo_selectfont } if } bind def
/Td { matrix translate cairo_font_matrix matrix concatmatrix dup
      /cairo_font_matrix exch def dup 4 get exch 5 get cairo_store_point
      /cairo_font where { pop cairo_selectfont } if } bind def
/Tm { 2 copy 8 2 roll 6 array astore /cairo_font_matrix exch def
      cairo_store_point /cairo_font where { pop cairo_selectfont } if } bind def
/g { setgray } bind def
/rg { setrgbcolor } bind def
/d1 { setcachedevice } bind def
/cairo_data_source {
  CairoDataIndex CairoData length lt
    { CairoData CairoDataIndex get /CairoDataIndex CairoDataIndex 1 add def }
    { () } ifelse
} def
/cairo_flush_ascii85_file { cairo_ascii85_file status { cairo_ascii85_file flushfile } if } def
/cairo_image { image cairo_flush_ascii85_file } def
/cairo_imagemask { imagemask cairo_flush_ascii85_file } def
%%EndProlog
%%BeginSetup
%%EndSetup
%%Page: 1 1
%%BeginPageSetup
%%PageBoundingBox: 0 0 317 157
%%EndPageSetup
q 0 0 317 157 rectclip
1 0 0 -1 0 157 cm q
0 g
1.13366 w
0 J
0 j
[] 0.0 d
10 M q 1 0 0 -1 0 0 cm
29.07 -88 m 31.906 -87.434 l 34.738 -86.301 l 37.574 -84.598 l 40.41 -82.332
 l 43.242 -79.781 l 46.078 -76.945 l 48.914 -74.113 l 51.746 -71.277 l 54.582
 -68.16 l 57.418 -65.039 l 60.25 -61.922 l 63.086 -59.086 l 65.922 -55.969
 l 74.426 -47.465 l 77.258 -44.629 l 80.094 -42.082 l 82.93 -39.527 l 85.762
 -37.262 l 88.598 -34.992 l 91.43 -32.727 l 94.266 -30.457 l 97.102 -28.473
 l 99.938 -26.773 l 102.77 -25.07 l 105.605 -23.371 l 108.441 -21.953 l 
111.273 -20.535 l 114.109 -19.121 l 116.945 -17.984 l 119.777 -17.137 l 
122.613 -16.285 l 125.445 -15.434 l 128.281 -14.582 l 131.117 -14.301 l 
133.949 -13.734 l 136.785 -13.449 l 139.621 -13.168 l 142.453 -13.168 l S Q
0.567043 w
q 1 0 0 -1 0 0 cm
29.07 -2.957 113.383 -113.367 re S Q
0.398506 w
q 1 0 0 -1 0 0 cm
29.07 -116.324 m 29.07 -112.074 l S Q
q 1 0 0 -1 0 0 cm
57.418 -116.324 m 57.418 -112.074 l S Q
q 1 0 0 -1 0 0 cm
85.762 -116.324 m 85.762 -112.074 l S Q
q 1 0 0 -1 0 0 cm
114.109 -116.324 m 114.109 -112.074 l S Q
q 1 0 0 -1 0 0 cm
142.453 -116.324 m 142.453 -112.074 l S Q
q 1 0 0 -1 0 0 cm
29.07 -116.324 m 29.07 -112.074 l S Q
q 1 0 0 -1 0 0 cm
29.07 -116.324 m 33.324 -116.324 l S Q
q 1 0 0 -1 0 0 cm
29.07 -87.996 m 33.324 -87.996 l S Q
q 1 0 0 -1 0 0 cm
29.07 -59.664 m 33.324 -59.664 l S Q
q 1 0 0 -1 0 0 cm
29.07 -31.332 m 33.324 -31.332 l S Q
q 1 0 0 -1 0 0 cm
29.07 -3 m 33.324 -3 l S Q
q 1 0 0 -1 0 0 cm
29.07 -116.324 m 33.324 -116.324 l S Q
q 1 0 0 -1 0 0 cm
29.07 -2.957 m 29.07 -7.211 l S Q
q 1 0 0 -1 0 0 cm
57.418 -2.957 m 57.418 -7.211 l S Q
q 1 0 0 -1 0 0 cm
85.762 -2.957 m 85.762 -7.211 l S Q
q 1 0 0 -1 0 0 cm
114.109 -2.957 m 114.109 -7.211 l S Q
q 1 0 0 -1 0 0 cm
142.453 -2.957 m 142.453 -7.211 l S Q
q 1 0 0 -1 0 0 cm
29.07 -2.957 m 29.07 -7.211 l S Q
q 1 0 0 -1 0 0 cm
142.453 -116.324 m 138.203 -116.324 l S Q
q 1 0 0 -1 0 0 cm
142.453 -87.996 m 138.203 -87.996 l S Q
q 1 0 0 -1 0 0 cm
142.453 -59.664 m 138.203 -59.664 l S Q
q 1 0 0 -1 0 0 cm
142.453 -31.332 m 138.203 -31.332 l S Q
q 1 0 0 -1 0 0 cm
142.453 -3 m 138.203 -3 l S Q
q 1 0 0 -1 0 0 cm
142.453 -116.324 m 138.203 -116.324 l S Q
31.023 122.855 m 31.023 121.246 30.289 119.793 29.039 119.793 c 27.773 
119.793 27.039 121.246 27.039 122.855 c 27.039 124.48 27.727 125.918 29.039
 125.918 c 30.242 125.918 31.023 124.48 31.023 122.855 c h
30.164 122.855 m 30.164 124.152 30.039 125.668 29.039 125.668 c 28.086 
125.668 27.898 124.152 27.898 122.855 c 27.898 121.777 28.023 120.027 29.039
 120.027 c 30.039 120.027 30.164 121.777 30.164 122.855 c h
30.164 122.855 m f
59.402 119.887 m 56.934 119.887 l 55.824 122.434 l 55.965 122.402 56.105
 122.371 56.277 122.371 c 57.23 122.371 58.527 122.871 58.527 124.043 c 
58.527 124.949 57.871 125.527 57.246 125.527 c 56.699 125.527 56.496 125.027
 55.98 125.027 c 55.73 125.027 55.652 125.246 55.652 125.355 c 55.652 125.668
 56.09 125.918 56.715 125.918 c 58.059 125.918 59.121 124.934 59.121 123.73
 c 59.121 122.309 57.996 121.824 56.777 121.793 c 56.668 121.793 56.543 
121.809 56.434 121.824 c 56.996 120.559 l 59.09 120.543 l h
59.402 119.887 m f
84.754 125.809 m 84.754 125.668 l 84.16 125.668 83.941 125.684 83.941 124.512
 c 83.941 124.496 83.941 119.762 83.941 119.762 c 83.816 119.762 l 82.285
 120.496 l 82.332 120.637 l 82.66 120.496 82.738 120.465 82.863 120.465 
c 83.129 120.465 83.176 120.699 83.176 121.012 c 83.176 124.512 l 83.176
 125.684 82.957 125.652 82.363 125.668 c 82.363 125.809 l h
84.754 125.809 m f
89.941 122.855 m 89.941 121.246 89.207 119.793 87.957 119.793 c 86.691 
119.793 85.957 121.246 85.957 122.855 c 85.957 124.48 86.645 125.918 87.957
 125.918 c 89.16 125.918 89.941 124.48 89.941 122.855 c h
89.082 122.855 m 89.082 124.152 88.957 125.668 87.957 125.668 c 87.004 
125.668 86.816 124.152 86.816 122.855 c 86.816 121.777 86.941 120.027 87.957
 120.027 c 88.957 120.027 89.082 121.777 89.082 122.855 c h
89.082 122.855 m f
113.191 125.809 m 113.191 125.668 l 112.598 125.668 112.379 125.684 112.379
 124.512 c 112.379 124.496 112.379 119.762 112.379 119.762 c 112.254 119.762
 l 110.723 120.496 l 110.77 120.637 l 111.098 120.496 111.176 120.465 111.301
 120.465 c 111.566 120.465 111.613 120.699 111.613 121.012 c 111.613 124.512
 l 111.613 125.684 111.395 125.652 110.801 125.668 c 110.801 125.809 l h
113.191 125.809 m f
118.32 119.887 m 115.852 119.887 l 114.742 122.434 l 114.883 122.402 115.023
 122.371 115.195 122.371 c 116.148 122.371 117.445 122.871 117.445 124.043
 c 117.445 124.949 116.789 125.527 116.164 125.527 c 115.617 125.527 115.414
 125.027 114.898 125.027 c 114.648 125.027 114.57 125.246 114.57 125.355
 c 114.57 125.668 115.008 125.918 115.633 125.918 c 116.977 125.918 118.039
 124.934 118.039 123.73 c 118.039 122.309 116.914 121.824 115.695 121.793
 c 115.586 121.793 115.461 121.809 115.352 121.824 c 115.914 120.559 l 118.008
 120.543 l h
118.32 119.887 m f
142.293 124.652 m 142.137 124.621 l 141.871 125.074 141.652 125.152 141.215
 125.152 c 139.152 125.152 l 140.574 123.855 141.871 122.684 141.871 121.371
 c 141.871 120.449 141.074 119.793 140.199 119.793 c 139.34 119.793 138.652
 120.262 138.387 121.48 c 138.59 121.48 l 138.84 120.98 139.184 120.465 
139.871 120.465 c 140.652 120.465 141.09 121.059 141.09 121.73 c 141.09 
122.699 140.059 124.121 138.293 125.668 c 138.293 125.809 l 141.824 125.809
 l h
142.293 124.652 m f
146.703 122.855 m 146.703 121.246 145.969 119.793 144.719 119.793 c 143.453
 119.793 142.719 121.246 142.719 122.855 c 142.719 124.48 143.406 125.918
 144.719 125.918 c 145.922 125.918 146.703 124.48 146.703 122.855 c h
145.844 122.855 m 145.844 124.152 145.719 125.668 144.719 125.668 c 143.766
 125.668 143.578 124.152 143.578 122.855 c 143.578 121.777 143.703 120.027
 144.719 120.027 c 145.719 120.027 145.844 121.777 145.844 122.855 c h
145.844 122.855 m f
14.105 116.375 m 14.105 114.766 13.371 113.312 12.121 113.312 c 10.855 
113.312 10.121 114.766 10.121 116.375 c 10.121 118 10.809 119.438 12.121
 119.438 c 13.324 119.438 14.105 118 14.105 116.375 c h
13.246 116.375 m 13.246 117.672 13.121 119.188 12.121 119.188 c 11.168 
119.188 10.98 117.672 10.98 116.375 c 10.98 115.297 11.105 113.547 12.121
 113.547 c 13.121 113.547 13.246 115.297 13.246 116.375 c h
13.246 116.375 m f
16.027 118.953 m 16.027 118.672 15.809 118.453 15.527 118.453 c 15.246 
118.453 15.027 118.672 15.027 118.953 c 15.027 119.234 15.246 119.453 15.527
 119.453 c 15.809 119.453 16.027 119.234 16.027 118.953 c h
16.027 118.953 m f
21.055 115.75 m 21.055 114.344 20.211 113.281 19.117 113.281 c 18.102 113.281
 17.289 114.219 17.289 115.391 c 17.289 116.391 17.992 117.109 18.867 117.109
 c 19.336 117.109 19.711 116.969 20.086 116.656 c 19.82 118.312 18.539 119.25
 17.414 119.266 c 17.414 119.438 l 20.18 119.438 21.055 117.078 21.055 115.75
 c h
20.211 115.609 m 20.211 115.844 20.195 116.078 20.148 116.375 c 19.758 
116.641 19.445 116.734 19.133 116.734 c 18.211 116.734 18.055 115.703 18.055
 114.938 c 18.055 114.125 18.43 113.547 19.023 113.547 c 19.945 113.547 
20.211 114.891 20.211 115.609 c h
20.211 115.609 m f
25.492 115.75 m 25.492 114.344 24.648 113.281 23.555 113.281 c 22.539 113.281
 21.727 114.219 21.727 115.391 c 21.727 116.391 22.43 117.109 23.305 117.109
 c 23.773 117.109 24.148 116.969 24.523 116.656 c 24.258 118.312 22.977 
119.25 21.852 119.266 c 21.852 119.438 l 24.617 119.438 25.492 117.078 25.492
 115.75 c h
24.648 115.609 m 24.648 115.844 24.633 116.078 24.586 116.375 c 24.195 
116.641 23.883 116.734 23.57 116.734 c 22.648 116.734 22.492 115.703 22.492
 114.938 c 22.492 114.125 22.867 113.547 23.461 113.547 c 24.383 113.547
 24.648 114.891 24.648 115.609 c h
24.648 115.609 m f
13.355 91.008 m 13.355 90.867 l 12.762 90.867 12.543 90.883 12.543 89.711
 c 12.543 89.695 12.543 84.961 12.543 84.961 c 12.418 84.961 l 10.887 85.695
 l 10.934 85.836 l 11.262 85.695 11.34 85.664 11.465 85.664 c 11.73 85.664
 11.777 85.898 11.777 86.211 c 11.777 89.711 l 11.777 90.883 11.559 90.852
 10.965 90.867 c 10.965 91.008 l h
13.355 91.008 m f
16.027 90.633 m 16.027 90.352 15.809 90.133 15.527 90.133 c 15.246 90.133
 15.027 90.352 15.027 90.633 c 15.027 90.914 15.246 91.133 15.527 91.133
 c 15.809 91.133 16.027 90.914 16.027 90.633 c h
16.027 90.633 m f
20.945 88.055 m 20.945 86.445 20.211 84.992 18.961 84.992 c 17.695 84.992
 16.961 86.445 16.961 88.055 c 16.961 89.68 17.648 91.117 18.961 91.117 
c 20.164 91.117 20.945 89.68 20.945 88.055 c h
20.086 88.055 m 20.086 89.352 19.961 90.867 18.961 90.867 c 18.008 90.867
 17.82 89.352 17.82 88.055 c 17.82 86.977 17.945 85.227 18.961 85.227 c 
19.961 85.227 20.086 86.977 20.086 88.055 c h
20.086 88.055 m f
25.383 88.055 m 25.383 86.445 24.648 84.992 23.398 84.992 c 22.133 84.992
 21.398 86.445 21.398 88.055 c 21.398 89.68 22.086 91.117 23.398 91.117 
c 24.602 91.117 25.383 89.68 25.383 88.055 c h
24.523 88.055 m 24.523 89.352 24.398 90.867 23.398 90.867 c 22.445 90.867
 22.258 89.352 22.258 88.055 c 22.258 86.977 22.383 85.227 23.398 85.227
 c 24.398 85.227 24.523 86.977 24.523 88.055 c h
24.523 88.055 m f
13.355 62.688 m 13.355 62.547 l 12.762 62.547 12.543 62.562 12.543 61.391
 c 12.543 61.375 12.543 56.641 12.543 56.641 c 12.418 56.641 l 10.887 57.375
 l 10.934 57.516 l 11.262 57.375 11.34 57.344 11.465 57.344 c 11.73 57.344
 11.777 57.578 11.777 57.891 c 11.777 61.391 l 11.777 62.562 11.559 62.531
 10.965 62.547 c 10.965 62.688 l h
13.355 62.688 m f
16.027 62.312 m 16.027 62.031 15.809 61.812 15.527 61.812 c 15.246 61.812
 15.027 62.031 15.027 62.312 c 15.027 62.594 15.246 62.812 15.527 62.812
 c 15.809 62.812 16.027 62.594 16.027 62.312 c h
16.027 62.312 m f
20.945 59.734 m 20.945 58.125 20.211 56.672 18.961 56.672 c 17.695 56.672
 16.961 58.125 16.961 59.734 c 16.961 61.359 17.648 62.797 18.961 62.797
 c 20.164 62.797 20.945 61.359 20.945 59.734 c h
20.086 59.734 m 20.086 61.031 19.961 62.547 18.961 62.547 c 18.008 62.547
 17.82 61.031 17.82 59.734 c 17.82 58.656 17.945 56.906 18.961 56.906 c 
19.961 56.906 20.086 58.656 20.086 59.734 c h
20.086 59.734 m f
24.633 62.688 m 24.633 62.547 l 24.039 62.547 23.82 62.562 23.82 61.391
 c 23.82 61.375 23.82 56.641 23.82 56.641 c 23.695 56.641 l 22.164 57.375
 l 22.211 57.516 l 22.539 57.375 22.617 57.344 22.742 57.344 c 23.008 57.344
 23.055 57.578 23.055 57.891 c 23.055 61.391 l 23.055 62.562 22.836 62.531
 22.242 62.547 c 22.242 62.688 l h
24.633 62.688 m f
13.355 34.367 m 13.355 34.227 l 12.762 34.227 12.543 34.242 12.543 33.07
 c 12.543 33.055 12.543 28.32 12.543 28.32 c 12.418 28.32 l 10.887 29.055
 l 10.934 29.195 l 11.262 29.055 11.34 29.023 11.465 29.023 c 11.73 29.023
 11.777 29.258 11.777 29.57 c 11.777 33.07 l 11.777 34.242 11.559 34.211
 10.965 34.227 c 10.965 34.367 l h
13.355 34.367 m f
16.027 33.992 m 16.027 33.711 15.809 33.492 15.527 33.492 c 15.246 33.492
 15.027 33.711 15.027 33.992 c 15.027 34.273 15.246 34.492 15.527 34.492
 c 15.809 34.492 16.027 34.273 16.027 33.992 c h
16.027 33.992 m f
20.945 31.414 m 20.945 29.805 20.211 28.352 18.961 28.352 c 17.695 28.352
 16.961 29.805 16.961 31.414 c 16.961 33.039 17.648 34.477 18.961 34.477
 c 20.164 34.477 20.945 33.039 20.945 31.414 c h
20.086 31.414 m 20.086 32.711 19.961 34.227 18.961 34.227 c 18.008 34.227
 17.82 32.711 17.82 31.414 c 17.82 30.336 17.945 28.586 18.961 28.586 c 
19.961 28.586 20.086 30.336 20.086 31.414 c h
20.086 31.414 m f
25.414 33.211 m 25.258 33.18 l 24.992 33.633 24.773 33.711 24.336 33.711
 c 22.273 33.711 l 23.695 32.414 24.992 31.242 24.992 29.93 c 24.992 29.008
 24.195 28.352 23.32 28.352 c 22.461 28.352 21.773 28.82 21.508 30.039 c
 21.711 30.039 l 21.961 29.539 22.305 29.023 22.992 29.023 c 23.773 29.023
 24.211 29.617 24.211 30.289 c 24.211 31.258 23.18 32.68 21.414 34.227 c
 21.414 34.367 l 24.945 34.367 l h
25.414 33.211 m f
13.355 6.047 m 13.355 5.906 l 12.762 5.906 12.543 5.922 12.543 4.75 c 12.543
 4.734 12.543 0 12.543 0 c 12.418 0 l 10.887 0.734 l 10.934 0.875 l 11.262
 0.734 11.34 0.703 11.465 0.703 c 11.73 0.703 11.777 0.938 11.777 1.25 c
 11.777 4.75 l 11.777 5.922 11.559 5.891 10.965 5.906 c 10.965 6.047 l h
13.355 6.047 m f
16.027 5.672 m 16.027 5.391 15.809 5.172 15.527 5.172 c 15.246 5.172 15.027
 5.391 15.027 5.672 c 15.027 5.953 15.246 6.172 15.527 6.172 c 15.809 6.172
 16.027 5.953 16.027 5.672 c h
16.027 5.672 m f
20.945 3.094 m 20.945 1.484 20.211 0.031 18.961 0.031 c 17.695 0.031 16.961
 1.484 16.961 3.094 c 16.961 4.719 17.648 6.156 18.961 6.156 c 20.164 6.156
 20.945 4.719 20.945 3.094 c h
20.086 3.094 m 20.086 4.391 19.961 5.906 18.961 5.906 c 18.008 5.906 17.82
 4.391 17.82 3.094 c 17.82 2.016 17.945 0.266 18.961 0.266 c 19.961 0.266
 20.086 2.016 20.086 3.094 c h
20.086 3.094 m f
25.039 4.109 m 25.039 3.172 24.492 2.766 23.961 2.547 c 24.539 2.109 24.727
 1.703 24.727 1.219 c 24.727 0.703 24.305 0.031 23.336 0.031 c 22.633 0.031
 21.961 0.422 21.664 1.391 c 21.805 1.422 l 21.992 1.062 22.352 0.609 23.008
 0.609 c 23.648 0.609 24.023 1.047 24.023 1.547 c 24.023 2.25 23.477 2.75
 22.664 2.938 c 22.648 3.125 l 24.039 3.062 24.383 3.969 24.383 4.531 c 
24.383 5.203 23.898 5.812 23.258 5.812 c 22.68 5.812 22.43 5.312 21.945 
5.312 c 21.789 5.312 21.602 5.469 21.602 5.672 c 21.602 6.047 22.164 6.156
 22.57 6.156 c 23.992 6.156 25.039 5.344 25.039 4.109 c h
25.039 4.109 m f
77.859 137.254 m 77.734 137.16 l 77.547 137.395 77.219 137.832 77.031 137.832
 c 76.953 137.832 76.906 137.785 76.906 137.676 c 76.906 137.582 76.984 
137.363 77.031 137.191 c 77.031 137.191 77.562 135.238 77.562 135.191 c 
77.625 135.004 77.656 134.816 77.656 134.691 c 77.656 134.238 77.375 134.082
 77.156 134.082 c 76.422 134.082 75.594 135.051 75.016 136.082 c 75.016 
136.082 75.344 135.035 75.344 134.676 c 75.344 134.441 75.25 134.082 74.828
 134.082 c 74 134.082 72.969 135.676 72.75 136.082 c 73.281 134.082 l 73.281
 134.082 72.062 134.316 71.797 134.332 c 71.797 134.488 l 72.125 134.488
 72.391 134.457 72.391 134.816 c 72.391 134.988 72.312 135.27 72.234 135.551
 c 72.234 135.551 71.516 137.941 71.469 138.176 c 72.156 138.176 l 72.312
 137.582 l 72.828 135.645 74.078 134.582 74.422 134.582 c 74.562 134.582
 74.656 134.629 74.656 134.832 c 74.656 134.973 74.547 135.379 74.484 135.645
 c 74.484 135.645 73.859 137.863 73.781 138.176 c 74.453 138.176 l 74.609
 137.582 l 75.156 135.566 76.375 134.582 76.734 134.582 c 76.859 134.582
 76.953 134.676 76.953 134.816 c 76.953 134.91 76.859 135.316 76.766 135.645
 c 76.406 136.988 l 76.312 137.316 76.234 137.723 76.234 137.863 c 76.234
 138.098 76.359 138.285 76.562 138.285 c 77.016 138.285 77.5 137.77 77.859
 137.254 c h
77.859 137.254 m f
78.688 135.969 m 79.266 136 79.344 136.078 79.344 136.594 c 79.344 139.688
 l 79.344 140.219 79.25 140.297 78.688 140.328 c 78.688 140.453 l 81.016
 140.453 l 81.547 140.453 82.047 140.312 82.312 140.062 c 82.562 139.844
 82.688 139.531 82.688 139.203 c 82.688 138.891 82.578 138.609 82.359 138.406
 c 82.141 138.219 81.953 138.141 81.5 138.031 c 81.859 137.938 82.016 137.875
 82.172 137.719 c 82.359 137.562 82.453 137.312 82.453 137.031 c 82.453 
136.25 81.828 135.844 80.625 135.844 c 78.688 135.844 l h
80.062 138.188 m 80.734 138.188 81.062 138.219 81.312 138.328 c 81.703 
138.484 81.891 138.781 81.891 139.203 c 81.891 139.578 81.75 139.859 81.469
 140.016 c 81.25 140.141 80.953 140.188 80.5 140.188 c 80.156 140.188 80.062
 140.125 80.062 139.906 c h
80.062 137.906 m 80.062 136.312 l 80.062 136.156 80.094 136.109 80.219 
136.109 c 80.516 136.094 l 81.297 136.078 81.75 136.438 81.75 137.047 c 
81.75 137.609 81.391 137.891 80.719 137.906 c h
80.062 137.906 m f
87.629 131.738 m 87.191 131.738 l 84.082 140.098 l 84.535 140.098 l h
87.629 131.738 m f
95.141 137.254 m 95.016 137.16 l 94.828 137.395 94.5 137.832 94.312 137.832
 c 94.234 137.832 94.188 137.785 94.188 137.676 c 94.188 137.582 94.266 
137.363 94.312 137.191 c 94.312 137.191 94.844 135.238 94.844 135.191 c 
94.906 135.004 94.938 134.816 94.938 134.691 c 94.938 134.238 94.656 134.082
 94.438 134.082 c 93.703 134.082 92.875 135.051 92.297 136.082 c 92.297 
136.082 92.625 135.035 92.625 134.676 c 92.625 134.441 92.531 134.082 92.109
 134.082 c 91.281 134.082 90.25 135.676 90.031 136.082 c 90.562 134.082 
l 90.562 134.082 89.344 134.316 89.078 134.332 c 89.078 134.488 l 89.406
 134.488 89.672 134.457 89.672 134.816 c 89.672 134.988 89.594 135.27 89.516
 135.551 c 89.516 135.551 88.797 137.941 88.75 138.176 c 89.438 138.176 
l 89.594 137.582 l 90.109 135.645 91.359 134.582 91.703 134.582 c 91.844
 134.582 91.938 134.629 91.938 134.832 c 91.938 134.973 91.828 135.379 91.766
 135.645 c 91.766 135.645 91.141 137.863 91.062 138.176 c 91.734 138.176
 l 91.891 137.582 l 92.438 135.566 93.656 134.582 94.016 134.582 c 94.141
 134.582 94.234 134.676 94.234 134.816 c 94.234 134.91 94.141 135.316 94.047
 135.645 c 93.688 136.988 l 93.594 137.316 93.516 137.723 93.516 137.863
 c 93.516 138.098 93.641 138.285 93.844 138.285 c 94.297 138.285 94.781 
137.77 95.141 137.254 c h
95.141 137.254 m f
99.23 132.918 m 99.23 132.121 98.574 131.465 97.746 131.465 c 96.918 131.465
 96.262 132.121 96.262 132.918 c 96.262 133.699 96.918 134.355 97.746 134.355
 c 98.574 134.355 99.23 133.699 99.23 132.918 c h
98.762 132.918 m 98.762 133.449 98.293 133.902 97.746 133.902 c 97.199 
133.902 96.746 133.449 96.746 132.918 c 96.746 132.387 97.199 131.934 97.746
 131.934 c 98.293 131.934 98.762 132.387 98.762 132.918 c h
98.762 132.918 m f
83.48 149.031 m 82.824 149.469 82.559 149.688 82.215 150.109 c 81.59 150.891
 81.277 151.781 81.277 152.828 c 81.277 153.984 81.605 154.859 82.387 155.766
 c 82.762 156.203 82.996 156.391 83.465 156.688 c 83.559 156.531 l 82.855
 155.969 82.605 155.656 82.355 154.984 c 82.137 154.391 82.043 153.719 82.043
 152.812 c 82.043 151.859 82.152 151.125 82.402 150.578 c 82.652 150.016
 82.918 149.688 83.559 149.172 c h
83.48 149.031 m f
87.809 154.5 m 87.652 154.625 87.543 154.672 87.402 154.672 c 87.199 154.672
 87.137 154.547 87.137 154.156 c 87.137 152.406 l 87.137 151.938 87.09 151.672
 86.965 151.469 c 86.762 151.141 86.371 150.969 85.855 150.969 c 85.012 
150.969 84.34 151.406 84.34 151.969 c 84.34 152.172 84.512 152.359 84.73
 152.359 c 84.949 152.359 85.137 152.172 85.137 151.984 c 85.137 151.953
 85.121 151.906 85.121 151.844 c 85.09 151.75 85.09 151.688 85.09 151.625
 c 85.09 151.375 85.371 151.188 85.73 151.188 c 86.168 151.188 86.418 151.438
 86.418 151.922 c 86.418 152.469 l 85.043 153.016 84.887 153.109 84.496 
153.438 c 84.293 153.625 84.168 153.922 84.168 154.219 c 84.168 154.781 
84.559 155.188 85.121 155.188 c 85.512 155.188 85.871 155 86.418 154.531
 c 86.465 155 86.637 155.188 86.996 155.188 c 87.309 155.188 87.496 155.078
 87.809 154.734 c h
86.418 153.984 m 86.418 154.266 86.371 154.359 86.184 154.469 c 85.949 
154.594 85.715 154.656 85.527 154.656 c 85.215 154.656 84.965 154.359 84.965
 153.969 c 84.965 153.938 l 84.965 153.406 85.371 153.062 86.418 152.688
 c h
86.418 153.984 m f
88.145 156.688 m 88.801 156.234 89.082 156.016 89.41 155.609 c 90.051 154.828
 90.363 153.922 90.363 152.875 c 90.363 151.734 90.02 150.859 89.238 149.953
 c 88.863 149.516 88.629 149.312 88.176 149.031 c 88.066 149.172 l 88.785
 149.734 89.02 150.047 89.27 150.719 c 89.488 151.328 89.582 152 89.582 
152.906 c 89.582 153.844 89.473 154.578 89.223 155.125 c 88.988 155.688 
88.707 156.016 88.066 156.531 c h
88.145 156.688 m f
4.578 57.512 m 4.547 57.824 4.484 57.902 3.969 58.137 c 0 59.871 l 0 60.012
 l 3.422 61.465 l 4.438 61.918 4.562 61.996 4.578 62.324 c 4.703 62.324 
l 4.703 60.949 l 4.578 60.949 l 4.578 61.277 4.484 61.418 4.281 61.418 c
 4.203 61.418 4.109 61.402 4.016 61.371 c 3.203 61.043 l 3.203 59.215 l 
3.859 58.934 l 4.062 58.855 4.234 58.809 4.328 58.809 c 4.516 58.809 4.562
 58.918 4.578 59.293 c 4.703 59.293 l 4.703 57.512 l h
2.906 60.934 m 1 60.121 l 2.906 59.324 l h
2.906 60.934 m f
Q q
182.391 14.605 134.609 101 re W n
q
182 14 135 102 re W n
  q
0 g
1.13366 w
0 J
0 j
[] 0.0 d
10 M q 1 0 0 -1 0 0 cm
199.148 -31.352 m 201.984 -37.844 l 204.82 -43.344 l 207.652 -48.078 l 
210.488 -52.203 l 213.324 -55.844 l 216.156 -59.078 l 218.992 -61.98 l 221.828
 -64.602 l 224.66 -67 l 227.496 -69.18 l 230.328 -71.195 l 233.164 -73.051
 l 236 -74.766 l 238.832 -76.383 l 241.668 -77.871 l 244.504 -79.289 l 247.336
 -80.605 l 250.172 -81.84 l 253.008 -83.016 l 255.84 -84.133 l 258.676 -85.184
 l 261.512 -86.191 l 264.344 -87.141 l 267.18 -88.062 l 270.016 -88.926 
l 272.848 -89.762 l 275.684 -90.555 l 278.52 -91.32 l 281.352 -92.059 l 
284.188 -92.766 l 287.023 -93.445 l 289.855 -94.098 l 292.691 -94.723 l 
295.527 -95.332 l 298.359 -95.926 l 301.195 -96.492 l 304.031 -97.047 l 
306.863 -97.586 l 309.699 -98.094 l 312.535 -98.605 l S Q
  Q
Q
Q q
0 g
0.567043 w
0 J
0 j
[] 0.0 d
10 M q 1 0 0 -1 0 0 cm
199.148 -2.938 113.387 -113.387 re S Q
0.398506 w
q 1 0 0 -1 0 0 cm
199.148 -116.324 m 199.148 -112.074 l S Q
q 1 0 0 -1 0 0 cm
227.496 -116.324 m 227.496 -112.074 l S Q
q 1 0 0 -1 0 0 cm
255.84 -116.324 m 255.84 -112.074 l S Q
q 1 0 0 -1 0 0 cm
284.188 -116.324 m 284.188 -112.074 l S Q
q 1 0 0 -1 0 0 cm
312.535 -116.324 m 312.535 -112.074 l S Q
q 1 0 0 -1 0 0 cm
199.148 -116.324 m 199.148 -112.074 l S Q
q 1 0 0 -1 0 0 cm
199.148 -116.324 m 203.402 -116.324 l S Q
q 1 0 0 -1 0 0 cm
199.148 -87.98 m 203.402 -87.98 l S Q
q 1 0 0 -1 0 0 cm
199.148 -59.633 m 203.402 -59.633 l S Q
q 1 0 0 -1 0 0 cm
199.148 -31.289 m 203.402 -31.289 l S Q
q 1 0 0 -1 0 0 cm
199.148 -2.941 m 203.402 -2.941 l S Q
q 1 0 0 -1 0 0 cm
199.148 -116.324 m 203.402 -116.324 l S Q
q 1 0 0 -1 0 0 cm
199.148 -2.941 m 199.148 -7.191 l S Q
q 1 0 0 -1 0 0 cm
227.496 -2.941 m 227.496 -7.191 l S Q
q 1 0 0 -1 0 0 cm
255.84 -2.941 m 255.84 -7.191 l S Q
q 1 0 0 -1 0 0 cm
284.188 -2.941 m 284.188 -7.191 l S Q
q 1 0 0 -1 0 0 cm
312.535 -2.941 m 312.535 -7.191 l S Q
q 1 0 0 -1 0 0 cm
199.148 -2.941 m 199.148 -7.191 l S Q
q 1 0 0 -1 0 0 cm
312.535 -116.324 m 308.281 -116.324 l S Q
q 1 0 0 -1 0 0 cm
312.535 -87.98 m 308.281 -87.98 l S Q
q 1 0 0 -1 0 0 cm
312.535 -59.633 m 308.281 -59.633 l S Q
q 1 0 0 -1 0 0 cm
312.535 -31.289 m 308.281 -31.289 l S Q
q 1 0 0 -1 0 0 cm
312.535 -2.941 m 308.281 -2.941 l S Q
q 1 0 0 -1 0 0 cm
312.535 -116.324 m 308.281 -116.324 l S Q
201.102 122.855 m 201.102 121.246 200.367 119.793 199.117 119.793 c 197.852
 119.793 197.117 121.246 197.117 122.855 c 197.117 124.48 197.805 125.918
 199.117 125.918 c 200.32 125.918 201.102 124.48 201.102 122.855 c h
200.242 122.855 m 200.242 124.152 200.117 125.668 199.117 125.668 c 198.164
 125.668 197.977 124.152 197.977 122.855 c 197.977 121.777 198.102 120.027
 199.117 120.027 c 200.117 120.027 200.242 121.777 200.242 122.855 c h
200.242 122.855 m f
229.48 119.887 m 227.012 119.887 l 225.902 122.434 l 226.043 122.402 226.184
 122.371 226.355 122.371 c 227.309 122.371 228.605 122.871 228.605 124.043
 c 228.605 124.949 227.949 125.527 227.324 125.527 c 226.777 125.527 226.574
 125.027 226.059 125.027 c 225.809 125.027 225.73 125.246 225.73 125.355
 c 225.73 125.668 226.168 125.918 226.793 125.918 c 228.137 125.918 229.199
 124.934 229.199 123.73 c 229.199 122.309 228.074 121.824 226.855 121.793
 c 226.746 121.793 226.621 121.809 226.512 121.824 c 227.074 120.559 l 229.168
 120.543 l h
229.48 119.887 m f
254.832 125.809 m 254.832 125.668 l 254.238 125.668 254.02 125.684 254.02
 124.512 c 254.02 124.496 254.02 119.762 254.02 119.762 c 253.895 119.762
 l 252.363 120.496 l 252.41 120.637 l 252.738 120.496 252.816 120.465 252.941
 120.465 c 253.207 120.465 253.254 120.699 253.254 121.012 c 253.254 124.512
 l 253.254 125.684 253.035 125.652 252.441 125.668 c 252.441 125.809 l h
254.832 125.809 m f
260.023 122.855 m 260.023 121.246 259.289 119.793 258.039 119.793 c 256.773
 119.793 256.039 121.246 256.039 122.855 c 256.039 124.48 256.727 125.918
 258.039 125.918 c 259.242 125.918 260.023 124.48 260.023 122.855 c h
259.164 122.855 m 259.164 124.152 259.039 125.668 258.039 125.668 c 257.086
 125.668 256.898 124.152 256.898 122.855 c 256.898 121.777 257.023 120.027
 258.039 120.027 c 259.039 120.027 259.164 121.777 259.164 122.855 c h
259.164 122.855 m f
283.273 125.809 m 283.273 125.668 l 282.68 125.668 282.461 125.684 282.461
 124.512 c 282.461 124.496 282.461 119.762 282.461 119.762 c 282.336 119.762
 l 280.805 120.496 l 280.852 120.637 l 281.18 120.496 281.258 120.465 281.383
 120.465 c 281.648 120.465 281.695 120.699 281.695 121.012 c 281.695 124.512
 l 281.695 125.684 281.477 125.652 280.883 125.668 c 280.883 125.809 l h
283.273 125.809 m f
288.398 119.887 m 285.93 119.887 l 284.82 122.434 l 284.961 122.402 285.102
 122.371 285.273 122.371 c 286.227 122.371 287.523 122.871 287.523 124.043
 c 287.523 124.949 286.867 125.527 286.242 125.527 c 285.695 125.527 285.492
 125.027 284.977 125.027 c 284.727 125.027 284.648 125.246 284.648 125.355
 c 284.648 125.668 285.086 125.918 285.711 125.918 c 287.055 125.918 288.117
 124.934 288.117 123.73 c 288.117 122.309 286.992 121.824 285.773 121.793
 c 285.664 121.793 285.539 121.809 285.43 121.824 c 285.992 120.559 l 288.086
 120.543 l h
288.398 119.887 m f
312.375 124.652 m 312.219 124.621 l 311.953 125.074 311.734 125.152 311.297
 125.152 c 309.234 125.152 l 310.656 123.855 311.953 122.684 311.953 121.371
 c 311.953 120.449 311.156 119.793 310.281 119.793 c 309.422 119.793 308.734
 120.262 308.469 121.48 c 308.672 121.48 l 308.922 120.98 309.266 120.465
 309.953 120.465 c 310.734 120.465 311.172 121.059 311.172 121.73 c 311.172
 122.699 310.141 124.121 308.375 125.668 c 308.375 125.809 l 311.906 125.809
 l h
312.375 124.652 m f
316.781 122.855 m 316.781 121.246 316.047 119.793 314.797 119.793 c 313.531
 119.793 312.797 121.246 312.797 122.855 c 312.797 124.48 313.484 125.918
 314.797 125.918 c 316 125.918 316.781 124.48 316.781 122.855 c h
315.922 122.855 m 315.922 124.152 315.797 125.668 314.797 125.668 c 313.844
 125.668 313.656 124.152 313.656 122.855 c 313.656 121.777 313.781 120.027
 314.797 120.027 c 315.797 120.027 315.922 121.777 315.922 122.855 c h
315.922 122.855 m f
188.621 116.375 m 188.621 114.766 187.887 113.312 186.637 113.312 c 185.371
 113.312 184.637 114.766 184.637 116.375 c 184.637 118 185.324 119.438 186.637
 119.438 c 187.84 119.438 188.621 118 188.621 116.375 c h
187.762 116.375 m 187.762 117.672 187.637 119.188 186.637 119.188 c 185.684
 119.188 185.496 117.672 185.496 116.375 c 185.496 115.297 185.621 113.547
 186.637 113.547 c 187.637 113.547 187.762 115.297 187.762 116.375 c h
187.762 116.375 m f
190.547 118.953 m 190.547 118.672 190.328 118.453 190.047 118.453 c 189.766
 118.453 189.547 118.672 189.547 118.953 c 189.547 119.234 189.766 119.453
 190.047 119.453 c 190.328 119.453 190.547 119.234 190.547 118.953 c h
190.547 118.953 m f
195.477 117.844 m 195.477 117.234 l 194.602 117.234 l 194.602 113.312 l
 194.164 113.312 l 191.57 117.219 l 191.57 117.844 l 193.867 117.844 l 193.867
 119.328 l 194.602 119.328 l 194.602 117.844 l h
193.867 117.234 m 191.93 117.234 l 193.852 114.25 l 193.867 114.25 l h
193.867 117.234 m f
188.621 88.055 m 188.621 86.445 187.887 84.992 186.637 84.992 c 185.371
 84.992 184.637 86.445 184.637 88.055 c 184.637 89.68 185.324 91.117 186.637
 91.117 c 187.84 91.117 188.621 89.68 188.621 88.055 c h
187.762 88.055 m 187.762 89.352 187.637 90.867 186.637 90.867 c 185.684
 90.867 185.496 89.352 185.496 88.055 c 185.496 86.977 185.621 85.227 186.637
 85.227 c 187.637 85.227 187.762 86.977 187.762 88.055 c h
187.762 88.055 m f
190.547 90.633 m 190.547 90.352 190.328 90.133 190.047 90.133 c 189.766
 90.133 189.547 90.352 189.547 90.633 c 189.547 90.914 189.766 91.133 190.047
 91.133 c 190.328 91.133 190.547 90.914 190.547 90.633 c h
190.547 90.633 m f
195.414 88.992 m 195.414 88.008 194.711 87.273 193.82 87.273 c 193.367 
87.273 192.992 87.414 192.602 87.727 c 192.992 86.133 194.164 85.133 195.289
 85.117 c 195.289 84.961 l 192.523 84.961 191.648 87.305 191.648 88.633 
c 191.648 90.055 192.477 91.117 193.586 91.117 c 194.602 91.117 195.414 
90.164 195.414 88.992 c h
194.648 89.445 m 194.648 90.273 194.273 90.852 193.68 90.852 c 192.758 
90.852 192.477 89.508 192.477 88.789 c 192.477 88.555 192.508 88.305 192.555
 88.008 c 192.945 87.758 193.258 87.648 193.57 87.648 c 194.477 87.648 194.648
 88.695 194.648 89.445 c h
194.648 89.445 m f
188.621 59.734 m 188.621 58.125 187.887 56.672 186.637 56.672 c 185.371
 56.672 184.637 58.125 184.637 59.734 c 184.637 61.359 185.324 62.797 186.637
 62.797 c 187.84 62.797 188.621 61.359 188.621 59.734 c h
187.762 59.734 m 187.762 61.031 187.637 62.547 186.637 62.547 c 185.684
 62.547 185.496 61.031 185.496 59.734 c 185.496 58.656 185.621 56.906 186.637
 56.906 c 187.637 56.906 187.762 58.656 187.762 59.734 c h
187.762 59.734 m f
190.547 62.312 m 190.547 62.031 190.328 61.812 190.047 61.812 c 189.766
 61.812 189.547 62.031 189.547 62.312 c 189.547 62.594 189.766 62.812 190.047
 62.812 c 190.328 62.812 190.547 62.594 190.547 62.312 c h
190.547 62.312 m f
195.195 61.312 m 195.195 60.672 194.914 60.188 193.82 59.375 c 194.508 
59 195.039 58.578 195.039 57.922 c 195.039 57.234 194.398 56.641 193.445
 56.641 c 192.602 56.641 191.805 57.188 191.805 58.031 c 191.805 58.688 
192.148 59.078 192.914 59.688 c 192.055 60.344 191.742 60.672 191.742 61.344
 c 191.742 62.094 192.414 62.797 193.461 62.797 c 194.68 62.797 195.195 
61.969 195.195 61.312 c h
194.43 57.906 m 194.43 58.547 194.055 58.891 193.57 59.219 c 192.977 58.797
 192.461 58.328 192.461 57.812 c 192.461 57.328 192.805 56.906 193.414 56.906
 c 194.086 56.906 194.43 57.328 194.43 57.906 c h
194.555 61.562 m 194.555 62.141 194.117 62.531 193.539 62.531 c 192.852
 62.531 192.414 61.984 192.414 61.25 c 192.414 60.578 192.742 60.188 193.148
 59.844 c 194.133 60.594 194.555 60.969 194.555 61.562 c h
194.555 61.562 m f
187.871 34.367 m 187.871 34.227 l 187.277 34.227 187.059 34.242 187.059
 33.07 c 187.059 33.055 187.059 28.32 187.059 28.32 c 186.934 28.32 l 185.402
 29.055 l 185.449 29.195 l 185.777 29.055 185.855 29.023 185.98 29.023 c
 186.246 29.023 186.293 29.258 186.293 29.57 c 186.293 33.07 l 186.293 34.242
 186.074 34.211 185.48 34.227 c 185.48 34.367 l h
187.871 34.367 m f
190.547 33.992 m 190.547 33.711 190.328 33.492 190.047 33.492 c 189.766
 33.492 189.547 33.711 189.547 33.992 c 189.547 34.273 189.766 34.492 190.047
 34.492 c 190.328 34.492 190.547 34.273 190.547 33.992 c h
190.547 33.992 m f
195.461 31.414 m 195.461 29.805 194.727 28.352 193.477 28.352 c 192.211
 28.352 191.477 29.805 191.477 31.414 c 191.477 33.039 192.164 34.477 193.477
 34.477 c 194.68 34.477 195.461 33.039 195.461 31.414 c h
194.602 31.414 m 194.602 32.711 194.477 34.227 193.477 34.227 c 192.523
 34.227 192.336 32.711 192.336 31.414 c 192.336 30.336 192.461 28.586 193.477
 28.586 c 194.477 28.586 194.602 30.336 194.602 31.414 c h
194.602 31.414 m f
187.871 6.047 m 187.871 5.906 l 187.277 5.906 187.059 5.922 187.059 4.75
 c 187.059 4.734 187.059 0 187.059 0 c 186.934 0 l 185.402 0.734 l 185.449
 0.875 l 185.777 0.734 185.855 0.703 185.98 0.703 c 186.246 0.703 186.293
 0.938 186.293 1.25 c 186.293 4.75 l 186.293 5.922 186.074 5.891 185.48 
5.906 c 185.48 6.047 l h
187.871 6.047 m f
190.547 5.672 m 190.547 5.391 190.328 5.172 190.047 5.172 c 189.766 5.172
 189.547 5.391 189.547 5.672 c 189.547 5.953 189.766 6.172 190.047 6.172
 c 190.328 6.172 190.547 5.953 190.547 5.672 c h
190.547 5.672 m f
195.492 4.891 m 195.336 4.859 l 195.07 5.312 194.852 5.391 194.414 5.391
 c 192.352 5.391 l 193.773 4.094 195.07 2.922 195.07 1.609 c 195.07 0.688
 194.273 0.031 193.398 0.031 c 192.539 0.031 191.852 0.5 191.586 1.719 c
 191.789 1.719 l 192.039 1.219 192.383 0.703 193.07 0.703 c 193.852 0.703
 194.289 1.297 194.289 1.969 c 194.289 2.938 193.258 4.359 191.492 5.906
 c 191.492 6.047 l 195.023 6.047 l h
195.492 4.891 m f
247.941 137.312 m 247.816 137.219 l 247.629 137.453 247.301 137.891 247.113
 137.891 c 247.035 137.891 246.988 137.844 246.988 137.734 c 246.988 137.641
 247.066 137.422 247.113 137.25 c 247.113 137.25 247.645 135.297 247.645
 135.25 c 247.707 135.062 247.738 134.875 247.738 134.75 c 247.738 134.297
 247.457 134.141 247.238 134.141 c 246.504 134.141 245.676 135.109 245.098
 136.141 c 245.098 136.141 245.426 135.094 245.426 134.734 c 245.426 134.5
 245.332 134.141 244.91 134.141 c 244.082 134.141 243.051 135.734 242.832
 136.141 c 243.363 134.141 l 243.363 134.141 242.145 134.375 241.879 134.391
 c 241.879 134.547 l 242.207 134.547 242.473 134.516 242.473 134.875 c 242.473
 135.047 242.395 135.328 242.316 135.609 c 242.316 135.609 241.598 138 241.551
 138.234 c 242.238 138.234 l 242.395 137.641 l 242.91 135.703 244.16 134.641
 244.504 134.641 c 244.645 134.641 244.738 134.688 244.738 134.891 c 244.738
 135.031 244.629 135.438 244.566 135.703 c 244.566 135.703 243.941 137.922
 243.863 138.234 c 244.535 138.234 l 244.691 137.641 l 245.238 135.625 246.457
 134.641 246.816 134.641 c 246.941 134.641 247.035 134.734 247.035 134.875
 c 247.035 134.969 246.941 135.375 246.848 135.703 c 246.488 137.047 l 246.395
 137.375 246.316 137.781 246.316 137.922 c 246.316 138.156 246.441 138.344
 246.645 138.344 c 247.098 138.344 247.582 137.828 247.941 137.312 c h
247.941 137.312 m f
248.766 136.031 m 249.344 136.062 249.422 136.141 249.422 136.656 c 249.422
 139.75 l 249.422 140.281 249.328 140.359 248.766 140.391 c 248.766 140.516
 l 251.094 140.516 l 251.625 140.516 252.125 140.375 252.391 140.125 c 252.641
 139.906 252.766 139.594 252.766 139.266 c 252.766 138.953 252.656 138.672
 252.438 138.469 c 252.219 138.281 252.031 138.203 251.578 138.094 c 251.938
 138 252.094 137.938 252.25 137.781 c 252.438 137.625 252.531 137.375 252.531
 137.094 c 252.531 136.312 251.906 135.906 250.703 135.906 c 248.766 135.906
 l h
250.141 138.25 m 250.812 138.25 251.141 138.281 251.391 138.391 c 251.781
 138.547 251.969 138.844 251.969 139.266 c 251.969 139.641 251.828 139.922
 251.547 140.078 c 251.328 140.203 251.031 140.25 250.578 140.25 c 250.234
 140.25 250.141 140.188 250.141 139.969 c h
250.141 137.969 m 250.141 136.375 l 250.141 136.219 250.172 136.172 250.297
 136.172 c 250.594 136.156 l 251.375 136.141 251.828 136.5 251.828 137.109
 c 251.828 137.672 251.469 137.953 250.797 137.969 c h
250.141 137.969 m f
257.707 131.797 m 257.27 131.797 l 254.16 140.156 l 254.613 140.156 l h
257.707 131.797 m f
265.219 137.312 m 265.094 137.219 l 264.906 137.453 264.578 137.891 264.391
 137.891 c 264.312 137.891 264.266 137.844 264.266 137.734 c 264.266 137.641
 264.344 137.422 264.391 137.25 c 264.391 137.25 264.922 135.297 264.922
 135.25 c 264.984 135.062 265.016 134.875 265.016 134.75 c 265.016 134.297
 264.734 134.141 264.516 134.141 c 263.781 134.141 262.953 135.109 262.375
 136.141 c 262.375 136.141 262.703 135.094 262.703 134.734 c 262.703 134.5
 262.609 134.141 262.188 134.141 c 261.359 134.141 260.328 135.734 260.109
 136.141 c 260.641 134.141 l 260.641 134.141 259.422 134.375 259.156 134.391
 c 259.156 134.547 l 259.484 134.547 259.75 134.516 259.75 134.875 c 259.75
 135.047 259.672 135.328 259.594 135.609 c 259.594 135.609 258.875 138 258.828
 138.234 c 259.516 138.234 l 259.672 137.641 l 260.188 135.703 261.438 134.641
 261.781 134.641 c 261.922 134.641 262.016 134.688 262.016 134.891 c 262.016
 135.031 261.906 135.438 261.844 135.703 c 261.844 135.703 261.219 137.922
 261.141 138.234 c 261.812 138.234 l 261.969 137.641 l 262.516 135.625 263.734
 134.641 264.094 134.641 c 264.219 134.641 264.312 134.734 264.312 134.875
 c 264.312 134.969 264.219 135.375 264.125 135.703 c 263.766 137.047 l 263.672
 137.375 263.594 137.781 263.594 137.922 c 263.594 138.156 263.719 138.344
 263.922 138.344 c 264.375 138.344 264.859 137.828 265.219 137.312 c h
265.219 137.312 m f
269.312 132.98 m 269.312 132.184 268.656 131.527 267.828 131.527 c 267 
131.527 266.344 132.184 266.344 132.98 c 266.344 133.762 267 134.418 267.828
 134.418 c 268.656 134.418 269.312 133.762 269.312 132.98 c h
268.844 132.98 m 268.844 133.512 268.375 133.965 267.828 133.965 c 267.281
 133.965 266.828 133.512 266.828 132.98 c 266.828 132.449 267.281 131.996
 267.828 131.996 c 268.375 131.996 268.844 132.449 268.844 132.98 c h
268.844 132.98 m f
253.199 148.973 m 252.543 149.41 252.277 149.629 251.934 150.051 c 251.309
 150.832 250.996 151.723 250.996 152.77 c 250.996 153.926 251.324 154.801
 252.105 155.707 c 252.48 156.145 252.715 156.332 253.184 156.629 c 253.277
 156.473 l 252.574 155.91 252.324 155.598 252.074 154.926 c 251.855 154.332
 251.762 153.66 251.762 152.754 c 251.762 151.801 251.871 151.066 252.121
 150.52 c 252.371 149.957 252.637 149.629 253.277 149.113 c h
253.199 148.973 m f
254.934 148.926 m 254.887 148.91 l 254.512 149.035 254.277 149.113 253.84
 149.238 c 253.59 149.301 l 253.59 149.441 l 253.637 149.441 253.668 149.441
 253.73 149.441 c 254.09 149.441 254.184 149.52 254.184 149.895 c 254.184
 154.551 l 254.184 154.832 254.934 155.129 255.652 155.129 c 256.84 155.129
 257.762 154.145 257.762 152.863 c 257.762 151.738 257.074 150.91 256.184
 150.91 c 255.637 150.91 255.105 151.223 254.934 151.676 c h
254.934 152.145 m 254.934 151.801 255.355 151.473 255.824 151.473 c 256.074
 151.473 256.293 151.566 256.48 151.738 c 256.762 152.02 256.965 152.629
 256.965 153.27 c 256.965 154.27 256.543 154.832 255.809 154.832 c 255.34
 154.832 254.934 154.645 254.934 154.41 c h
254.934 152.145 m f
258.344 156.629 m 259 156.176 259.281 155.957 259.609 155.551 c 260.25 
154.77 260.562 153.863 260.562 152.816 c 260.562 151.676 260.219 150.801
 259.438 149.895 c 259.062 149.457 258.828 149.254 258.375 148.973 c 258.266
 149.113 l 258.984 149.676 259.219 149.988 259.469 150.66 c 259.688 151.27
 259.781 151.941 259.781 152.848 c 259.781 153.785 259.672 154.52 259.422
 155.066 c 259.188 155.629 258.906 155.957 258.266 156.473 c h
258.344 156.629 m f
173.301 64.18 m 173.066 64.18 172.941 64.367 172.941 64.539 c 172.941 64.648
 172.988 64.758 173.098 64.836 c 173.27 64.93 173.441 64.883 173.738 64.961
 c 174.473 65.133 175.254 65.711 176.566 66.711 c 176.332 66.695 175.566
 66.602 174.801 66.602 c 173.879 66.602 172.941 66.742 172.941 67.383 c 
172.941 68.023 173.535 68.227 173.816 68.227 c 173.91 68.227 174.004 68.195
 174.051 68.164 c 174.051 68.086 l 173.895 68.039 173.504 67.898 173.504
 67.586 c 173.504 67.258 174.27 67.039 175.051 67.039 c 176.176 67.055 176.629
 67.102 176.988 67.133 c 177.348 67.398 178.02 67.961 178.582 67.961 c 178.816
 67.961 178.957 67.867 178.957 67.648 c 178.957 66.961 177.504 66.805 176.988
 66.773 c 176.613 66.414 174.863 64.836 173.863 64.32 c 173.629 64.195 173.473
 64.18 173.301 64.18 c h
173.301 64.18 m f
178.398 58.574 m 178.242 58.73 l 178.477 58.918 178.805 59.184 178.805 
59.34 c 178.805 59.371 178.789 59.387 178.742 59.387 c 178.664 59.387 178.492
 59.324 178.352 59.293 c 178.352 59.293 176.789 58.84 176.742 58.84 c 176.586
 58.777 176.43 58.746 176.32 58.746 c 175.914 58.746 175.789 59.027 175.789
 59.23 c 175.789 59.793 176.398 60.418 177.133 60.902 c 176.852 60.824 176.492
 60.73 176.32 60.73 c 176.102 60.73 175.789 60.824 175.789 61.215 c 175.789
 61.809 176.664 62.527 177.164 62.855 c 175.773 62.465 l 175.773 62.465 
175.977 63.59 175.992 63.84 c 176.211 63.84 l 176.211 63.543 176.164 63.34
 176.414 63.34 c 176.57 63.34 176.789 63.402 177.008 63.48 c 177.008 63.48
 178.945 64.074 179.195 64.137 c 179.195 63.465 l 178.68 63.324 l 177.133
 62.887 176.289 61.855 176.289 61.559 c 176.289 61.465 176.305 61.402 176.43
 61.402 c 176.555 61.402 176.883 61.48 177.086 61.559 c 177.086 61.559 178.883
 62.074 179.195 62.168 c 179.195 61.496 l 178.68 61.355 l 177.07 60.902 
176.289 59.871 176.289 59.59 c 176.289 59.496 176.336 59.449 176.414 59.449
 c 176.508 59.449 176.82 59.527 177.086 59.605 c 178.164 59.918 l 178.445
 59.996 178.773 60.059 178.883 60.059 c 179.102 60.059 179.273 59.934 179.273
 59.73 c 179.273 59.324 178.852 58.902 178.398 58.574 c h
178.398 58.574 m f
180.336 57.293 m 180.289 57.09 180.242 56.996 180.133 56.809 c 179.914 
56.48 179.602 56.246 179.055 56.246 c 178.523 56.246 178.289 56.496 178.289
 56.824 c 178.289 57.121 178.477 57.309 178.758 57.309 c 179.023 57.309 
179.195 57.121 179.195 56.871 c 179.195 56.793 179.18 56.715 179.133 56.637
 c 179.117 56.605 179.117 56.605 179.117 56.59 c 179.117 56.559 179.18 56.543
 179.258 56.543 c 179.336 56.543 179.836 56.543 180.117 57.293 c h
180.336 57.293 m f
174.711 55.496 m 174.742 54.918 174.82 54.84 175.336 54.84 c 178.43 54.84
 l 178.961 54.84 179.039 54.934 179.07 55.496 c 179.195 55.496 l 179.195
 53.168 l 179.195 52.637 179.055 52.137 178.805 51.871 c 178.586 51.621 
178.273 51.496 177.945 51.496 c 177.633 51.496 177.352 51.605 177.148 51.824
 c 176.961 52.043 176.883 52.23 176.773 52.684 c 176.68 52.324 176.617 52.168
 176.461 52.012 c 176.305 51.824 176.055 51.73 175.773 51.73 c 174.992 51.73
 174.586 52.355 174.586 53.559 c 174.586 55.496 l h
176.93 54.121 m 176.93 53.449 176.961 53.121 177.07 52.871 c 177.227 52.48
 177.523 52.293 177.945 52.293 c 178.32 52.293 178.602 52.434 178.758 52.715
 c 178.883 52.934 178.93 53.23 178.93 53.684 c 178.93 54.027 178.867 54.121
 178.648 54.121 c h
176.648 54.121 m 175.055 54.121 l 174.898 54.121 174.852 54.09 174.852 
53.965 c 174.836 53.668 l 174.82 52.887 175.18 52.434 175.789 52.434 c 176.352
 52.434 176.633 52.793 176.648 53.465 c h
176.648 54.121 m f
Q Q
showpage
%%Trailer
end
%%EOF
