<?xml version="1.0" encoding="UTF-8" standalone="no"?>
<svg
   width="228.2pt"
   height="71.5pt"
   viewBox="0 0 228.2 71.5"
   version="1.2"
   id="svg255"
   xmlns:xlink="http://www.w3.org/1999/xlink"
   xmlns="http://www.w3.org/2000/svg"
   xmlns:svg="http://www.w3.org/2000/svg">
  <defs
     id="defs106">
    <g
       id="g47">
      <symbol
         overflow="visible"
         id="glyph0-0">
        <path
           style="stroke:none;"
           d=""
           id="path2" />
      </symbol>
      <symbol
         overflow="visible"
         id="glyph0-1">
        <path
           style="stroke:none;"
           d="M 6.328125 -0.171875 C 5.921875 -0.203125 5.84375 -0.28125 5.53125 -0.953125 L 3.296875 -6.046875 L 3.109375 -6.046875 L 1.25 -1.640625 C 0.671875 -0.328125 0.5625 -0.1875 0.140625 -0.171875 L 0.140625 0 L 1.90625 0 L 1.90625 -0.171875 C 1.484375 -0.171875 1.296875 -0.28125 1.296875 -0.53125 C 1.296875 -0.640625 1.328125 -0.765625 1.375 -0.890625 L 1.78125 -1.9375 L 4.140625 -1.9375 L 4.5 -1.078125 C 4.609375 -0.828125 4.671875 -0.59375 4.671875 -0.46875 C 4.671875 -0.25 4.515625 -0.171875 4.046875 -0.171875 L 4.046875 0 L 6.328125 0 Z M 1.9375 -2.3125 L 2.96875 -4.765625 L 4.015625 -2.3125 Z M 1.9375 -2.3125 "
           id="path5" />
      </symbol>
      <symbol
         overflow="visible"
         id="glyph0-2">
        <path
           style="stroke:none;"
           d="M 0.15625 -5.765625 C 0.90625 -5.71875 1 -5.625 1.015625 -4.953125 L 1.015625 -0.984375 C 1 -0.3125 0.890625 -0.203125 0.15625 -0.171875 L 0.15625 0 L 3.140625 0 C 3.84375 0 4.484375 -0.1875 4.8125 -0.5 C 5.140625 -0.78125 5.3125 -1.1875 5.3125 -1.609375 C 5.3125 -2.015625 5.171875 -2.375 4.875 -2.625 C 4.609375 -2.875 4.375 -2.984375 3.78125 -3.125 C 4.25 -3.234375 4.4375 -3.328125 4.65625 -3.515625 C 4.875 -3.71875 5.015625 -4.03125 5.015625 -4.40625 C 5.015625 -5.421875 4.203125 -5.9375 2.65625 -5.9375 L 0.15625 -5.9375 Z M 1.921875 -2.921875 C 2.796875 -2.921875 3.203125 -2.875 3.53125 -2.734375 C 4.046875 -2.53125 4.28125 -2.15625 4.28125 -1.609375 C 4.28125 -1.125 4.09375 -0.765625 3.734375 -0.5625 C 3.453125 -0.40625 3.078125 -0.328125 2.5 -0.328125 C 2.046875 -0.328125 1.921875 -0.40625 1.921875 -0.703125 Z M 1.921875 -3.28125 L 1.921875 -5.34375 C 1.9375 -5.53125 1.96875 -5.59375 2.125 -5.59375 L 2.515625 -5.609375 C 3.515625 -5.625 4.09375 -5.171875 4.09375 -4.375 C 4.09375 -3.671875 3.640625 -3.296875 2.78125 -3.28125 Z M 1.921875 -3.28125 "
           id="path8" />
      </symbol>
      <symbol
         overflow="visible"
         id="glyph0-3">
        <path
           style="stroke:none;"
           d="M 0.140625 0 L 2.140625 0 L 2.140625 -0.140625 C 1.671875 -0.140625 1.53125 -0.234375 1.53125 -0.59375 L 1.53125 -3.125 C 1.53125 -3.140625 1.59375 -3.234375 1.65625 -3.296875 C 1.890625 -3.5 2.265625 -3.65625 2.578125 -3.65625 C 2.984375 -3.65625 3.171875 -3.34375 3.171875 -2.71875 L 3.171875 -0.765625 C 3.15625 -0.265625 3.0625 -0.15625 2.5625 -0.140625 L 2.5625 0 L 4.578125 0 L 4.578125 -0.140625 C 4.078125 -0.140625 3.953125 -0.28125 3.921875 -0.859375 L 3.921875 -3.109375 C 4.203125 -3.5 4.484375 -3.65625 4.90625 -3.65625 C 5.421875 -3.65625 5.578125 -3.421875 5.578125 -2.671875 L 5.578125 -0.78125 C 5.5625 -0.25 5.5 -0.1875 4.984375 -0.140625 L 4.984375 0 L 6.953125 0 L 6.953125 -0.140625 L 6.71875 -0.15625 C 6.4375 -0.203125 6.328125 -0.328125 6.328125 -0.6875 L 6.328125 -2.53125 C 6.328125 -3.59375 5.984375 -4.125 5.296875 -4.125 C 4.765625 -4.125 4.3125 -3.890625 3.828125 -3.375 C 3.671875 -3.890625 3.359375 -4.125 2.875 -4.125 C 2.46875 -4.125 2.234375 -4.015625 1.484375 -3.4375 L 1.484375 -4.109375 L 1.421875 -4.125 C 0.953125 -3.953125 0.640625 -3.859375 0.171875 -3.71875 L 0.171875 -3.5625 C 0.28125 -3.59375 0.359375 -3.609375 0.453125 -3.609375 C 0.6875 -3.609375 0.765625 -3.46875 0.765625 -3.03125 L 0.765625 -0.765625 C 0.75 -0.265625 0.640625 -0.140625 0.140625 -0.140625 Z M 0.140625 0 "
           id="path11" />
      </symbol>
      <symbol
         overflow="visible"
         id="glyph0-4">
        <path
           style="stroke:none;"
           d="M 0.140625 0 L 2.265625 0 L 2.265625 -0.140625 C 1.671875 -0.171875 1.609375 -0.265625 1.609375 -0.921875 L 1.609375 -4.09375 L 1.5625 -4.125 L 0.171875 -3.625 L 0.171875 -3.5 L 0.25 -3.5 C 0.359375 -3.53125 0.46875 -3.53125 0.5625 -3.53125 C 0.765625 -3.53125 0.859375 -3.390625 0.859375 -3 L 0.859375 -0.921875 C 0.828125 -0.25 0.75 -0.15625 0.140625 -0.140625 Z M 1.140625 -6.125 C 0.90625 -6.125 0.703125 -5.921875 0.703125 -5.671875 C 0.703125 -5.40625 0.890625 -5.203125 1.140625 -5.203125 C 1.421875 -5.203125 1.609375 -5.40625 1.609375 -5.671875 C 1.609375 -5.921875 1.40625 -6.125 1.140625 -6.125 Z M 1.140625 -6.125 "
           id="path14" />
      </symbol>
      <symbol
         overflow="visible"
         id="glyph0-5">
        <path
           style="stroke:none;"
           d="M 2.5 0 L 4.296875 0 L 4.296875 -0.140625 C 4.015625 -0.140625 3.84375 -0.28125 3.5625 -0.671875 L 2.40625 -2.4375 L 3.15625 -3.5 C 3.328125 -3.75 3.59375 -3.890625 3.890625 -3.90625 L 3.890625 -4.03125 L 2.46875 -4.03125 L 2.46875 -3.90625 C 2.734375 -3.890625 2.828125 -3.828125 2.828125 -3.703125 C 2.828125 -3.59375 2.71875 -3.40625 2.5 -3.125 C 2.453125 -3.0625 2.34375 -2.90625 2.21875 -2.71875 L 2.15625 -2.828125 C 2.015625 -3.046875 1.9375 -3.15625 1.921875 -3.1875 C 1.75 -3.46875 1.6875 -3.609375 1.6875 -3.703125 C 1.6875 -3.84375 1.796875 -3.890625 2.078125 -3.90625 L 2.078125 -4.03125 L 0.21875 -4.03125 L 0.21875 -3.90625 L 0.296875 -3.90625 C 0.5625 -3.90625 0.703125 -3.78125 0.984375 -3.359375 L 1.828125 -2.078125 L 0.8125 -0.59375 C 0.53125 -0.21875 0.453125 -0.15625 0.15625 -0.140625 L 0.15625 0 L 1.453125 0 L 1.453125 -0.140625 C 1.1875 -0.140625 1.09375 -0.171875 1.09375 -0.296875 C 1.09375 -0.359375 1.140625 -0.46875 1.28125 -0.65625 L 1.984375 -1.765625 L 2.796875 -0.515625 C 2.828125 -0.453125 2.859375 -0.40625 2.859375 -0.34375 C 2.859375 -0.1875 2.796875 -0.15625 2.5 -0.140625 Z M 2.5 0 "
           id="path17" />
      </symbol>
      <symbol
         overflow="visible"
         id="glyph0-6">
        <path
           style="stroke:none;"
           d="M 2.28125 -4.03125 L 1.375 -4.03125 L 1.375 -5.078125 C 1.375 -5.171875 1.359375 -5.1875 1.3125 -5.1875 C 0.796875 -4.4375 0.53125 -4.140625 0.265625 -3.984375 C 0.171875 -3.921875 0.109375 -3.859375 0.109375 -3.8125 C 0.109375 -3.78125 0.125 -3.765625 0.15625 -3.75 L 0.625 -3.75 L 0.625 -1.046875 C 0.625 -0.296875 0.890625 0.09375 1.421875 0.09375 C 1.859375 0.09375 2.203125 -0.125 2.5 -0.59375 L 2.390625 -0.6875 C 2.1875 -0.453125 2.046875 -0.375 1.84375 -0.375 C 1.515625 -0.375 1.375 -0.625 1.375 -1.1875 L 1.375 -3.75 L 2.28125 -3.75 Z M 2.28125 -4.03125 "
           id="path20" />
      </symbol>
      <symbol
         overflow="visible"
         id="glyph0-7">
        <path
           style="stroke:none;"
           d="M 4.296875 -0.453125 L 4.25 -0.453125 C 3.8125 -0.46875 3.75 -0.53125 3.734375 -0.953125 L 3.734375 -4.03125 L 2.328125 -4.03125 L 2.328125 -3.890625 C 2.875 -3.859375 2.984375 -3.765625 2.984375 -3.3125 L 2.984375 -1.203125 C 2.984375 -0.953125 2.9375 -0.828125 2.8125 -0.734375 C 2.578125 -0.53125 2.296875 -0.4375 2.03125 -0.4375 C 1.671875 -0.4375 1.390625 -0.734375 1.390625 -1.109375 L 1.390625 -4.03125 L 0.078125 -4.03125 L 0.078125 -3.90625 C 0.5 -3.890625 0.625 -3.765625 0.640625 -3.34375 L 0.640625 -1.078125 C 0.640625 -0.375 1.0625 0.09375 1.71875 0.09375 C 2.046875 0.09375 2.40625 -0.046875 2.640625 -0.296875 L 3.03125 -0.6875 L 3.03125 0.0625 L 3.0625 0.078125 C 3.515625 -0.09375 3.84375 -0.203125 4.296875 -0.328125 Z M 4.296875 -0.453125 "
           id="path23" />
      </symbol>
      <symbol
         overflow="visible"
         id="glyph0-8">
        <path
           style="stroke:none;"
           d="M 0.046875 0 L 2.203125 0 L 2.203125 -0.140625 C 1.59375 -0.15625 1.453125 -0.28125 1.4375 -0.8125 L 1.4375 -2.828125 C 1.4375 -3.109375 1.8125 -3.5625 2.0625 -3.5625 C 2.109375 -3.5625 2.203125 -3.515625 2.296875 -3.421875 C 2.4375 -3.296875 2.53125 -3.25 2.65625 -3.25 C 2.875 -3.25 3 -3.40625 3 -3.65625 C 3 -3.953125 2.8125 -4.125 2.515625 -4.125 C 2.140625 -4.125 1.890625 -3.921875 1.4375 -3.28125 L 1.4375 -4.109375 L 1.390625 -4.125 C 0.890625 -3.921875 0.5625 -3.796875 0.0625 -3.640625 L 0.0625 -3.5 C 0.1875 -3.53125 0.265625 -3.53125 0.375 -3.53125 C 0.59375 -3.53125 0.6875 -3.390625 0.6875 -3 L 0.6875 -0.75 C 0.65625 -0.28125 0.609375 -0.234375 0.046875 -0.140625 Z M 0.046875 0 "
           id="path26" />
      </symbol>
      <symbol
         overflow="visible"
         id="glyph0-9">
        <path
           style="stroke:none;"
           d="M 3.65625 -1.46875 C 3.234375 -0.796875 2.84375 -0.53125 2.265625 -0.53125 C 1.765625 -0.53125 1.375 -0.796875 1.109375 -1.296875 C 0.953125 -1.640625 0.890625 -1.921875 0.875 -2.484375 L 3.625 -2.484375 C 3.5625 -3.0625 3.46875 -3.328125 3.25 -3.609375 C 2.984375 -3.9375 2.5625 -4.125 2.09375 -4.125 C 1.65625 -4.125 1.234375 -3.96875 0.890625 -3.65625 C 0.46875 -3.296875 0.21875 -2.65625 0.21875 -1.921875 C 0.21875 -0.6875 0.875 0.09375 1.90625 0.09375 C 2.75 0.09375 3.421875 -0.4375 3.796875 -1.40625 Z M 0.890625 -2.765625 C 0.984375 -3.46875 1.296875 -3.796875 1.84375 -3.796875 C 2.390625 -3.796875 2.59375 -3.546875 2.71875 -2.765625 Z M 0.890625 -2.765625 "
           id="path29" />
      </symbol>
      <symbol
         overflow="visible"
         id="glyph0-10">
        <path
           style="stroke:none;"
           d="M 2.25 -4.125 C 1.0625 -4.125 0.265625 -3.265625 0.265625 -2.03125 C 0.265625 -0.8125 1.09375 0.09375 2.21875 0.09375 C 3.359375 0.09375 4.21875 -0.859375 4.21875 -2.09375 C 4.21875 -3.28125 3.390625 -4.125 2.25 -4.125 Z M 2.125 -3.875 C 2.875 -3.875 3.40625 -3.015625 3.40625 -1.78125 C 3.40625 -0.765625 3 -0.15625 2.328125 -0.15625 C 1.984375 -0.15625 1.65625 -0.375 1.46875 -0.734375 C 1.203125 -1.203125 1.0625 -1.828125 1.0625 -2.46875 C 1.0625 -3.3125 1.484375 -3.875 2.125 -3.875 Z M 2.125 -3.875 "
           id="path32" />
      </symbol>
      <symbol
         overflow="visible"
         id="glyph0-11">
        <path
           style="stroke:none;"
           d="M 2.765625 -4.03125 L 1.671875 -4.03125 L 1.671875 -5.078125 C 1.671875 -5.609375 1.84375 -5.875 2.171875 -5.875 C 2.375 -5.875 2.5 -5.78125 2.65625 -5.53125 C 2.796875 -5.296875 2.90625 -5.203125 3.0625 -5.203125 C 3.28125 -5.203125 3.4375 -5.359375 3.4375 -5.5625 C 3.4375 -5.890625 3.046875 -6.125 2.5 -6.125 C 1.9375 -6.125 1.46875 -5.890625 1.234375 -5.484375 C 1 -5.078125 0.9375 -4.75 0.921875 -4.03125 L 0.1875 -4.03125 L 0.1875 -3.75 L 0.921875 -3.75 L 0.921875 -0.9375 C 0.90625 -0.265625 0.8125 -0.15625 0.171875 -0.140625 L 0.171875 0 L 2.515625 0 L 2.515625 -0.140625 C 1.78125 -0.15625 1.671875 -0.265625 1.671875 -0.9375 L 1.671875 -3.75 L 2.765625 -3.75 Z M 2.765625 -4.03125 "
           id="path35" />
      </symbol>
      <symbol
         overflow="visible"
         id="glyph0-12">
        <path
           style="stroke:none;"
           d="M 3.96875 -0.59375 C 3.8125 -0.46875 3.703125 -0.421875 3.5625 -0.421875 C 3.359375 -0.421875 3.296875 -0.546875 3.296875 -0.9375 L 3.296875 -2.6875 C 3.296875 -3.15625 3.25 -3.421875 3.125 -3.625 C 2.921875 -3.953125 2.53125 -4.125 2.015625 -4.125 C 1.171875 -4.125 0.5 -3.6875 0.5 -3.125 C 0.5 -2.921875 0.671875 -2.734375 0.890625 -2.734375 C 1.109375 -2.734375 1.296875 -2.921875 1.296875 -3.109375 C 1.296875 -3.140625 1.28125 -3.1875 1.28125 -3.25 C 1.25 -3.34375 1.25 -3.40625 1.25 -3.46875 C 1.25 -3.71875 1.53125 -3.90625 1.890625 -3.90625 C 2.328125 -3.90625 2.578125 -3.65625 2.578125 -3.171875 L 2.578125 -2.625 C 1.203125 -2.078125 1.046875 -1.984375 0.65625 -1.65625 C 0.453125 -1.46875 0.328125 -1.171875 0.328125 -0.875 C 0.328125 -0.3125 0.71875 0.09375 1.28125 0.09375 C 1.671875 0.09375 2.03125 -0.09375 2.578125 -0.5625 C 2.625 -0.09375 2.796875 0.09375 3.15625 0.09375 C 3.46875 0.09375 3.65625 -0.015625 3.96875 -0.359375 Z M 2.578125 -1.109375 C 2.578125 -0.828125 2.53125 -0.734375 2.34375 -0.625 C 2.109375 -0.5 1.875 -0.4375 1.6875 -0.4375 C 1.375 -0.4375 1.125 -0.734375 1.125 -1.125 L 1.125 -1.15625 C 1.125 -1.6875 1.53125 -2.03125 2.578125 -2.40625 Z M 2.578125 -1.109375 "
           id="path38" />
      </symbol>
      <symbol
         overflow="visible"
         id="glyph0-13">
        <path
           style="stroke:none;"
           d="M 0.15625 0 L 2.0625 0 L 2.0625 -0.140625 C 1.609375 -0.15625 1.46875 -0.28125 1.46875 -0.59375 L 1.46875 -3.125 C 1.90625 -3.53125 2.09375 -3.625 2.390625 -3.625 C 2.828125 -3.625 3.046875 -3.359375 3.046875 -2.765625 L 3.046875 -0.890625 C 3.03125 -0.3125 2.921875 -0.15625 2.484375 -0.140625 L 2.484375 0 L 4.34375 0 L 4.34375 -0.140625 C 3.90625 -0.171875 3.8125 -0.28125 3.796875 -0.71875 L 3.796875 -2.78125 C 3.796875 -3.625 3.40625 -4.125 2.75 -4.125 C 2.328125 -4.125 2.046875 -3.96875 1.4375 -3.40625 L 1.4375 -4.109375 L 1.375 -4.125 C 0.921875 -3.953125 0.609375 -3.859375 0.140625 -3.71875 L 0.140625 -3.5625 C 0.203125 -3.59375 0.28125 -3.609375 0.390625 -3.609375 C 0.640625 -3.609375 0.71875 -3.46875 0.71875 -3.03125 L 0.71875 -0.8125 C 0.703125 -0.28125 0.609375 -0.15625 0.15625 -0.140625 Z M 0.15625 0 "
           id="path41" />
      </symbol>
      <symbol
         overflow="visible"
         id="glyph0-14">
        <path
           style="stroke:none;"
           d="M 4.40625 -0.515625 C 4.28125 -0.515625 4.234375 -0.515625 4.203125 -0.515625 C 3.890625 -0.515625 3.796875 -0.609375 3.796875 -1.015625 L 3.796875 -6.109375 L 3.765625 -6.125 C 3.34375 -5.984375 3.03125 -5.890625 2.4375 -5.734375 L 2.4375 -5.59375 C 2.515625 -5.59375 2.5625 -5.59375 2.640625 -5.59375 C 2.96875 -5.59375 3.046875 -5.5 3.046875 -5.140625 L 3.046875 -3.734375 C 2.703125 -4.03125 2.46875 -4.125 2.109375 -4.125 C 1.078125 -4.125 0.234375 -3.109375 0.234375 -1.84375 C 0.234375 -0.6875 0.90625 0.09375 1.90625 0.09375 C 2.40625 0.09375 2.75 -0.09375 3.046875 -0.515625 L 3.046875 0.0625 L 3.078125 0.09375 L 4.40625 -0.375 Z M 3.046875 -0.921875 C 3.046875 -0.859375 2.984375 -0.75 2.890625 -0.640625 C 2.75 -0.46875 2.515625 -0.375 2.25 -0.375 C 1.5 -0.375 1.015625 -1.09375 1.015625 -2.203125 C 1.015625 -3.203125 1.453125 -3.875 2.140625 -3.875 C 2.625 -3.875 3.046875 -3.453125 3.046875 -2.984375 Z M 3.046875 -0.921875 "
           id="path44" />
      </symbol>
    </g>
    <clipPath
       id="clip1">
      <path
         d="M 0 0 L 87 0 L 87 71.5 L 0 71.5 Z M 0 0 "
         id="path49" />
    </clipPath>
    <clipPath
       id="clip2">
      <path
         d="M 27.992188 27 L 30.261719 27 L 30.261719 35.0625 L 27.992188 35.0625 Z M 27.992188 35.0625 L 30.261719 35.0625 L 30.261719 69.929688 L 27.992188 69.929688 Z M 27.992188 35.0625 "
         id="path52" />
    </clipPath>
    <clipPath
       id="clip3">
      <path
         d="M 27.992188 25 L 30.261719 25 L 30.261719 35.0625 L 27.992188 35.0625 Z M 27.992188 35.0625 L 30.261719 35.0625 L 30.261719 69.929688 L 27.992188 69.929688 Z M 27.992188 35.0625 "
         id="path55" />
    </clipPath>
    <clipPath
       id="clip4">
      <path
         d="M 27.992188 22 L 30.261719 22 L 30.261719 35.0625 L 27.992188 35.0625 Z M 27.992188 35.0625 L 30.261719 35.0625 L 30.261719 69.929688 L 27.992188 69.929688 Z M 27.992188 35.0625 "
         id="path58" />
    </clipPath>
    <clipPath
       id="clip5">
      <path
         d="M 27.992188 20 L 30.261719 20 L 30.261719 35.0625 L 27.992188 35.0625 Z M 27.992188 35.0625 L 30.261719 35.0625 L 30.261719 69.929688 L 27.992188 69.929688 Z M 27.992188 35.0625 "
         id="path61" />
    </clipPath>
    <clipPath
       id="clip6">
      <path
         d="M 27.992188 17 L 30.261719 17 L 30.261719 35.0625 L 27.992188 35.0625 Z M 27.992188 35.0625 L 30.261719 35.0625 L 30.261719 69 L 27.992188 69 Z M 27.992188 35.0625 "
         id="path64" />
    </clipPath>
    <clipPath
       id="clip7">
      <path
         d="M 27.992188 15 L 30.261719 15 L 30.261719 35.0625 L 27.992188 35.0625 Z M 27.992188 35.0625 L 30.261719 35.0625 L 30.261719 66 L 27.992188 66 Z M 27.992188 35.0625 "
         id="path67" />
    </clipPath>
    <clipPath
       id="clip8">
      <path
         d="M 27.992188 13 L 30.261719 13 L 30.261719 35.0625 L 27.992188 35.0625 Z M 27.992188 35.0625 L 30.261719 35.0625 L 30.261719 64 L 27.992188 64 Z M 27.992188 35.0625 "
         id="path70" />
    </clipPath>
    <clipPath
       id="clip9">
      <path
         d="M 27.992188 10 L 30.261719 10 L 30.261719 35.0625 L 27.992188 35.0625 Z M 27.992188 35.0625 L 30.261719 35.0625 L 30.261719 62 L 27.992188 62 Z M 27.992188 35.0625 "
         id="path73" />
    </clipPath>
    <clipPath
       id="clip10">
      <path
         d="M 27.992188 8 L 30.261719 8 L 30.261719 35.0625 L 27.992188 35.0625 Z M 27.992188 35.0625 L 30.261719 35.0625 L 30.261719 59 L 27.992188 59 Z M 27.992188 35.0625 "
         id="path76" />
    </clipPath>
    <clipPath
       id="clip11">
      <path
         d="M 27.992188 5 L 30.261719 5 L 30.261719 35.0625 L 27.992188 35.0625 Z M 27.992188 35.0625 L 30.261719 35.0625 L 30.261719 57 L 27.992188 57 Z M 27.992188 35.0625 "
         id="path79" />
    </clipPath>
    <clipPath
       id="clip12">
      <path
         d="M 27.992188 3 L 30.261719 3 L 30.261719 35.0625 L 27.992188 35.0625 Z M 27.992188 35.0625 L 30.261719 35.0625 L 30.261719 54 L 27.992188 54 Z M 27.992188 35.0625 "
         id="path82" />
    </clipPath>
    <clipPath
       id="clip13">
      <path
         d="M 27.992188 1 L 30.261719 1 L 30.261719 35.0625 L 27.992188 35.0625 Z M 27.992188 35.0625 L 30.261719 35.0625 L 30.261719 52 L 27.992188 52 Z M 27.992188 35.0625 "
         id="path85" />
    </clipPath>
    <clipPath
       id="clip14">
      <path
         d="M 27.992188 0.195312 L 30.261719 0.195312 L 30.261719 35.0625 L 27.992188 35.0625 Z M 27.992188 35.0625 L 30.261719 35.0625 L 30.261719 50 L 27.992188 50 Z M 27.992188 35.0625 "
         id="path88" />
    </clipPath>
    <clipPath
       id="clip15">
      <path
         d="M 27.992188 0.195312 L 30.261719 0.195312 L 30.261719 35.0625 L 27.992188 35.0625 Z M 27.992188 35.0625 L 30.261719 35.0625 L 30.261719 47 L 27.992188 47 Z M 27.992188 35.0625 "
         id="path91" />
    </clipPath>
    <clipPath
       id="clip16">
      <path
         d="M 27.992188 0.195312 L 30.261719 0.195312 L 30.261719 35.0625 L 27.992188 35.0625 Z M 27.992188 35.0625 L 30.261719 35.0625 L 30.261719 45 L 27.992188 45 Z M 27.992188 35.0625 "
         id="path94" />
    </clipPath>
    <clipPath
       id="clip17">
      <path
         d="M 27.992188 0.195312 L 30.261719 0.195312 L 30.261719 35.0625 L 27.992188 35.0625 Z M 27.992188 35.0625 L 30.261719 35.0625 L 30.261719 42 L 27.992188 42 Z M 27.992188 35.0625 "
         id="path97" />
    </clipPath>
    <clipPath
       id="clip18">
      <path
         d="M 141 0 L 228.199219 0 L 228.199219 71.5 L 141 71.5 Z M 141 0 "
         id="path100" />
    </clipPath>
    <clipPath
       id="clip19">
      <path
         d="M 134 5 L 228.199219 5 L 228.199219 23 L 134 23 Z M 134 5 "
         id="path103" />
    </clipPath>
  </defs>
  <g
     id="surface1">
    <g
       clip-path="url(#clip1)"
       clip-rule="nonzero"
       id="g110">
      <path
         style="fill:none;stroke-width:14.1739;stroke-linecap:butt;stroke-linejoin:miter;stroke:rgb(0%,0%,0%);stroke-opacity:1;stroke-miterlimit:10;"
         d="M 7.8125 715.859375 L 7.8125 7.1875 L 858.203125 7.1875 L 858.203125 715.859375 "
         transform="matrix(0.1,0,0,-0.1,0,71.5)"
         id="path108" />
    </g>
    <path
       style="fill:none;stroke-width:5.67043;stroke-linecap:butt;stroke-linejoin:miter;stroke:rgb(0%,0%,0%);stroke-opacity:1;stroke-miterlimit:10;"
       d="M 7.8125 574.140625 L 7.8125 576.25 L 10.15625 576.210938 L 12.5 576.132812 L 14.882812 575.976562 L 17.265625 575.78125 L 19.609375 575.507812 L 21.953125 575.195312 L 24.335938 574.84375 L 26.679688 574.492188 L 29.0625 574.140625 L 31.40625 573.75 L 33.789062 573.398438 L 36.132812 573.085938 L 38.515625 572.773438 L 40.859375 572.5 L 43.242188 572.304688 L 45.585938 572.148438 L 47.96875 572.03125 L 50.3125 571.992188 L 52.695312 572.03125 L 55.039062 572.148438 L 57.382812 572.304688 L 59.765625 572.5 L 62.109375 572.773438 L 64.492188 573.085938 L 66.835938 573.398438 L 69.21875 573.75 L 71.5625 574.140625 L 73.945312 574.492188 L 76.289062 574.84375 L 78.671875 575.195312 L 81.015625 575.507812 L 83.398438 575.78125 L 85.742188 575.976562 L 88.125 576.132812 L 90.46875 576.210938 L 92.851562 576.25 L 95.195312 576.210938 L 97.578125 576.132812 L 99.921875 575.976562 L 102.304688 575.78125 L 104.648438 575.507812 L 107.03125 575.195312 L 111.71875 574.492188 L 114.101562 574.140625 L 116.445312 573.75 L 118.828125 573.398438 L 121.171875 573.085938 L 123.554688 572.773438 L 125.898438 572.5 L 128.28125 572.304688 L 130.625 572.148438 L 132.96875 572.03125 L 135.351562 571.992188 L 137.695312 572.03125 L 140.078125 572.148438 L 142.421875 572.304688 L 144.804688 572.5 L 147.148438 572.773438 L 149.53125 573.085938 L 151.875 573.398438 L 154.257812 573.75 L 156.601562 574.140625 L 158.984375 574.492188 L 161.328125 574.84375 L 163.710938 575.195312 L 166.054688 575.507812 L 168.4375 575.78125 L 170.78125 575.976562 L 173.125 576.132812 L 175.507812 576.210938 L 177.851562 576.25 L 180.234375 576.210938 L 182.578125 576.132812 L 184.960938 575.976562 L 187.304688 575.78125 L 189.6875 575.507812 L 192.03125 575.195312 L 194.414062 574.84375 L 196.757812 574.492188 L 199.140625 574.140625 L 201.484375 573.75 L 203.867188 573.398438 L 206.210938 573.085938 L 208.59375 572.773438 L 210.9375 572.5 L 213.320312 572.304688 L 215.664062 572.148438 L 218.046875 572.03125 L 220.390625 571.992188 L 222.734375 572.03125 L 225.117188 572.148438 L 227.460938 572.304688 L 229.84375 572.5 L 232.1875 572.773438 L 234.570312 573.085938 L 236.914062 573.398438 L 239.296875 573.75 L 241.640625 574.140625 L 244.023438 574.492188 L 248.710938 575.195312 L 251.09375 575.507812 L 253.476562 575.78125 L 255.820312 575.976562 L 258.164062 576.132812 L 260.546875 576.210938 L 262.890625 576.25 L 265.273438 576.210938 L 267.617188 576.132812 L 270 575.976562 L 272.34375 575.78125 L 274.726562 575.507812 L 277.070312 575.195312 L 279.453125 574.84375 L 284.140625 574.140625 L 286.523438 573.75 L 288.90625 573.398438 L 293.59375 572.773438 L 295.976562 572.5 L 298.359375 572.304688 L 300.703125 572.148438 L 303.046875 572.03125 L 305.429688 571.992188 L 307.773438 572.03125 L 310.15625 572.148438 L 312.5 572.304688 L 314.882812 572.5 L 317.226562 572.773438 L 319.609375 573.085938 L 321.953125 573.398438 L 324.335938 573.75 L 326.679688 574.140625 L 329.023438 574.492188 L 333.789062 575.195312 L 336.132812 575.507812 L 338.476562 575.78125 L 340.859375 575.976562 L 343.203125 576.132812 L 345.585938 576.210938 L 347.929688 576.25 L 350.3125 576.210938 L 352.65625 576.132812 L 355.039062 575.976562 L 357.382812 575.78125 L 359.765625 575.507812 L 362.109375 575.195312 L 364.492188 574.84375 L 369.179688 574.140625 L 371.5625 573.75 L 373.90625 573.398438 L 376.289062 573.085938 L 378.632812 572.773438 L 381.015625 572.5 L 383.359375 572.304688 L 385.742188 572.148438 L 388.085938 572.03125 L 390.46875 571.992188 L 392.8125 572.03125 L 395.195312 572.148438 L 397.539062 572.304688 L 399.921875 572.5 L 402.265625 572.773438 L 404.648438 573.085938 L 406.992188 573.398438 L 409.375 573.75 L 411.71875 574.140625 L 414.0625 574.492188 L 416.445312 574.84375 L 418.789062 575.195312 L 421.171875 575.507812 L 423.515625 575.78125 L 425.898438 575.976562 L 428.242188 576.132812 L 430.625 576.210938 L 432.96875 576.25 L 435.351562 576.210938 L 437.695312 576.132812 L 440.078125 575.976562 L 442.421875 575.78125 L 444.804688 575.507812 L 447.148438 575.195312 L 449.53125 574.84375 L 454.21875 574.140625 L 456.601562 573.75 L 458.945312 573.398438 L 461.328125 573.085938 L 463.671875 572.773438 L 466.054688 572.5 L 468.398438 572.304688 L 470.78125 572.148438 L 473.125 572.03125 L 475.46875 571.992188 L 477.851562 572.03125 L 480.234375 572.148438 L 482.578125 572.304688 L 484.921875 572.5 L 487.304688 572.773438 L 489.648438 573.085938 L 492.03125 573.398438 L 494.375 573.75 L 496.757812 574.140625 L 499.101562 574.492188 L 501.484375 574.84375 L 503.828125 575.195312 L 506.210938 575.507812 L 508.554688 575.78125 L 510.9375 575.976562 L 513.28125 576.132812 L 515.664062 576.210938 L 518.007812 576.25 L 520.351562 576.210938 L 522.734375 576.132812 L 525.117188 575.976562 L 527.460938 575.78125 L 529.804688 575.507812 L 532.1875 575.195312 L 534.570312 574.84375 L 539.257812 574.140625 L 541.640625 573.75 L 543.984375 573.398438 L 546.367188 573.085938 L 548.710938 572.773438 L 551.09375 572.5 L 553.4375 572.304688 L 555.820312 572.148438 L 558.164062 572.03125 L 560.546875 571.992188 L 562.890625 572.03125 L 565.234375 572.148438 L 567.617188 572.304688 L 569.960938 572.5 L 572.34375 572.773438 L 574.6875 573.085938 L 577.070312 573.398438 L 579.414062 573.75 L 581.796875 574.140625 L 584.140625 574.492188 L 586.523438 574.84375 L 588.867188 575.195312 L 591.210938 575.507812 L 593.59375 575.78125 L 595.976562 575.976562 L 598.320312 576.132812 L 600.664062 576.210938 L 603.046875 576.25 L 605.390625 576.210938 L 607.773438 576.132812 L 610.117188 575.976562 L 612.5 575.78125 L 614.84375 575.507812 L 617.226562 575.195312 L 619.570312 574.84375 L 621.953125 574.492188 L 624.296875 574.140625 L 626.679688 573.75 L 629.023438 573.398438 L 631.40625 573.085938 L 633.75 572.773438 L 636.09375 572.5 L 638.476562 572.304688 L 640.859375 572.148438 L 643.203125 572.03125 L 645.546875 571.992188 L 647.929688 572.03125 L 650.273438 572.148438 L 652.65625 572.304688 L 655 572.5 L 657.382812 572.773438 L 659.726562 573.085938 L 662.109375 573.398438 L 664.453125 573.75 L 666.835938 574.140625 L 669.179688 574.492188 L 671.5625 574.84375 L 673.90625 575.195312 L 676.289062 575.507812 L 678.632812 575.78125 L 681.015625 575.976562 L 683.359375 576.132812 L 685.703125 576.210938 L 688.085938 576.25 L 690.429688 576.210938 L 692.8125 576.132812 L 695.15625 575.976562 L 697.539062 575.78125 L 699.882812 575.507812 L 702.265625 575.195312 L 704.609375 574.84375 L 706.992188 574.492188 L 709.335938 574.140625 L 711.679688 573.75 L 714.0625 573.398438 L 716.445312 573.085938 L 718.789062 572.773438 L 721.132812 572.5 L 723.515625 572.304688 L 725.898438 572.148438 L 728.242188 572.03125 L 730.585938 571.992188 L 732.96875 572.03125 L 735.3125 572.148438 L 737.695312 572.304688 L 740.039062 572.5 L 742.421875 572.773438 L 744.765625 573.085938 L 747.148438 573.398438 L 749.492188 573.75 L 751.875 574.140625 L 756.5625 574.84375 L 758.945312 575.195312 L 761.289062 575.507812 L 763.671875 575.78125 L 766.015625 575.976562 L 768.398438 576.132812 L 770.742188 576.210938 L 773.125 576.25 L 775.46875 576.210938 L 777.851562 576.132812 L 780.195312 575.976562 L 782.578125 575.78125 L 784.921875 575.507812 L 787.304688 575.195312 L 789.648438 574.84375 L 792.03125 574.492188 L 794.375 574.140625 L 796.71875 573.75 L 799.101562 573.398438 L 801.445312 573.085938 L 803.828125 572.773438 L 806.171875 572.5 L 808.554688 572.304688 L 810.898438 572.148438 L 813.28125 572.03125 L 815.625 571.992188 L 818.007812 572.03125 L 820.351562 572.148438 L 822.734375 572.304688 L 825.078125 572.5 L 827.460938 572.773438 L 829.804688 573.085938 L 832.1875 573.398438 L 834.53125 573.75 L 836.875 574.140625 L 839.257812 574.492188 L 841.601562 574.84375 L 843.984375 575.195312 L 846.328125 575.507812 L 848.710938 575.78125 L 851.054688 575.976562 L 853.4375 576.132812 L 855.78125 576.210938 L 858.164062 576.25 L 858.203125 576.25 L 858.203125 574.140625 "
       transform="matrix(0.1,0,0,-0.1,0,71.5)"
       id="path112" />
    <path
       style="fill:none;stroke-width:14.1739;stroke-linecap:butt;stroke-linejoin:miter;stroke:rgb(100%,100%,100%);stroke-opacity:1;stroke-miterlimit:10;"
       d="M 277.109375 574.140625 L 305.429688 574.140625 "
       transform="matrix(0.1,0,0,-0.1,0,71.5)"
       id="path114" />
    <g
       clip-path="url(#clip2)"
       clip-rule="nonzero"
       id="g118">
      <path
         style="fill:none;stroke-width:5.10386;stroke-linecap:square;stroke-linejoin:miter;stroke:rgb(0%,0%,0%);stroke-opacity:1;stroke-miterlimit:10;"
         d="M 294.960938 8.046875 L -65.039062 368.046875 "
         transform="matrix(0.1,0,0,-0.1,0,71.5)"
         id="path116" />
    </g>
    <g
       clip-path="url(#clip3)"
       clip-rule="nonzero"
       id="g122">
      <path
         style="fill:none;stroke-width:5.10386;stroke-linecap:square;stroke-linejoin:miter;stroke:rgb(0%,0%,0%);stroke-opacity:1;stroke-miterlimit:10;"
         d="M 318.945312 32.070312 L -41.054688 392.070312 "
         transform="matrix(0.1,0,0,-0.1,0,71.5)"
         id="path120" />
    </g>
    <g
       clip-path="url(#clip4)"
       clip-rule="nonzero"
       id="g126">
      <path
         style="fill:none;stroke-width:5.10386;stroke-linecap:square;stroke-linejoin:miter;stroke:rgb(0%,0%,0%);stroke-opacity:1;stroke-miterlimit:10;"
         d="M 342.929688 56.054688 L -17.070312 416.054688 "
         transform="matrix(0.1,0,0,-0.1,0,71.5)"
         id="path124" />
    </g>
    <g
       clip-path="url(#clip5)"
       clip-rule="nonzero"
       id="g130">
      <path
         style="fill:none;stroke-width:5.10386;stroke-linecap:square;stroke-linejoin:miter;stroke:rgb(0%,0%,0%);stroke-opacity:1;stroke-miterlimit:10;"
         d="M 366.953125 80.039062 L 6.953125 440.039062 "
         transform="matrix(0.1,0,0,-0.1,0,71.5)"
         id="path128" />
    </g>
    <g
       clip-path="url(#clip6)"
       clip-rule="nonzero"
       id="g134">
      <path
         style="fill:none;stroke-width:5.10386;stroke-linecap:square;stroke-linejoin:miter;stroke:rgb(0%,0%,0%);stroke-opacity:1;stroke-miterlimit:10;"
         d="M 390.9375 104.0625 L 30.9375 464.0625 "
         transform="matrix(0.1,0,0,-0.1,0,71.5)"
         id="path132" />
    </g>
    <g
       clip-path="url(#clip7)"
       clip-rule="nonzero"
       id="g138">
      <path
         style="fill:none;stroke-width:5.10386;stroke-linecap:square;stroke-linejoin:miter;stroke:rgb(0%,0%,0%);stroke-opacity:1;stroke-miterlimit:10;"
         d="M 414.960938 128.046875 L 54.960938 488.046875 "
         transform="matrix(0.1,0,0,-0.1,0,71.5)"
         id="path136" />
    </g>
    <g
       clip-path="url(#clip8)"
       clip-rule="nonzero"
       id="g142">
      <path
         style="fill:none;stroke-width:5.10386;stroke-linecap:square;stroke-linejoin:miter;stroke:rgb(0%,0%,0%);stroke-opacity:1;stroke-miterlimit:10;"
         d="M 438.945312 152.070312 L 78.945312 512.070312 "
         transform="matrix(0.1,0,0,-0.1,0,71.5)"
         id="path140" />
    </g>
    <g
       clip-path="url(#clip9)"
       clip-rule="nonzero"
       id="g146">
      <path
         style="fill:none;stroke-width:5.10386;stroke-linecap:square;stroke-linejoin:miter;stroke:rgb(0%,0%,0%);stroke-opacity:1;stroke-miterlimit:10;"
         d="M 462.929688 176.054688 L 102.929688 536.054688 "
         transform="matrix(0.1,0,0,-0.1,0,71.5)"
         id="path144" />
    </g>
    <g
       clip-path="url(#clip10)"
       clip-rule="nonzero"
       id="g150">
      <path
         style="fill:none;stroke-width:5.10386;stroke-linecap:square;stroke-linejoin:miter;stroke:rgb(0%,0%,0%);stroke-opacity:1;stroke-miterlimit:10;"
         d="M 486.953125 200.039062 L 126.953125 560.039062 "
         transform="matrix(0.1,0,0,-0.1,0,71.5)"
         id="path148" />
    </g>
    <g
       clip-path="url(#clip11)"
       clip-rule="nonzero"
       id="g154">
      <path
         style="fill:none;stroke-width:5.10386;stroke-linecap:square;stroke-linejoin:miter;stroke:rgb(0%,0%,0%);stroke-opacity:1;stroke-miterlimit:10;"
         d="M 510.9375 224.0625 L 150.9375 584.0625 "
         transform="matrix(0.1,0,0,-0.1,0,71.5)"
         id="path152" />
    </g>
    <g
       clip-path="url(#clip12)"
       clip-rule="nonzero"
       id="g158">
      <path
         style="fill:none;stroke-width:5.10386;stroke-linecap:square;stroke-linejoin:miter;stroke:rgb(0%,0%,0%);stroke-opacity:1;stroke-miterlimit:10;"
         d="M 534.960938 248.046875 L 174.960938 608.046875 "
         transform="matrix(0.1,0,0,-0.1,0,71.5)"
         id="path156" />
    </g>
    <g
       clip-path="url(#clip13)"
       clip-rule="nonzero"
       id="g162">
      <path
         style="fill:none;stroke-width:5.10386;stroke-linecap:square;stroke-linejoin:miter;stroke:rgb(0%,0%,0%);stroke-opacity:1;stroke-miterlimit:10;"
         d="M 558.945312 272.070312 L 198.945312 632.070312 "
         transform="matrix(0.1,0,0,-0.1,0,71.5)"
         id="path160" />
    </g>
    <g
       clip-path="url(#clip14)"
       clip-rule="nonzero"
       id="g166">
      <path
         style="fill:none;stroke-width:5.10386;stroke-linecap:square;stroke-linejoin:miter;stroke:rgb(0%,0%,0%);stroke-opacity:1;stroke-miterlimit:10;"
         d="M 582.929688 296.054688 L 222.929688 656.054688 "
         transform="matrix(0.1,0,0,-0.1,0,71.5)"
         id="path164" />
    </g>
    <g
       clip-path="url(#clip15)"
       clip-rule="nonzero"
       id="g170">
      <path
         style="fill:none;stroke-width:5.10386;stroke-linecap:square;stroke-linejoin:miter;stroke:rgb(0%,0%,0%);stroke-opacity:1;stroke-miterlimit:10;"
         d="M 606.953125 320.039062 L 246.953125 680.039062 "
         transform="matrix(0.1,0,0,-0.1,0,71.5)"
         id="path168" />
    </g>
    <g
       clip-path="url(#clip16)"
       clip-rule="nonzero"
       id="g174">
      <path
         style="fill:none;stroke-width:5.10386;stroke-linecap:square;stroke-linejoin:miter;stroke:rgb(0%,0%,0%);stroke-opacity:1;stroke-miterlimit:10;"
         d="M 630.9375 344.0625 L 270.9375 704.0625 "
         transform="matrix(0.1,0,0,-0.1,0,71.5)"
         id="path172" />
    </g>
    <g
       clip-path="url(#clip17)"
       clip-rule="nonzero"
       id="g178">
      <path
         style="fill:none;stroke-width:5.10386;stroke-linecap:square;stroke-linejoin:miter;stroke:rgb(0%,0%,0%);stroke-opacity:1;stroke-miterlimit:10;"
         d="M 654.960938 368.046875 L 294.960938 728.046875 "
         transform="matrix(0.1,0,0,-0.1,0,71.5)"
         id="path176" />
    </g>
    <path
       style="fill:none;stroke-width:5.67043;stroke-linecap:butt;stroke-linejoin:miter;stroke:rgb(0%,0%,0%);stroke-opacity:1;stroke-miterlimit:10;"
       d="M 279.921875 364.375 L 279.921875 713.046875 L 302.617188 713.046875 L 302.617188 15.703125 L 279.921875 15.703125 Z M 279.921875 364.375 "
       transform="matrix(0.1,0,0,-0.1,0,71.5)"
       id="path180" />
    <g
       style="fill:rgb(0%,0%,0%);fill-opacity:1;"
       id="g184">
      <use
         xlink:href="#glyph0-1"
         x="11.7129"
         y="45.434"
         id="use182" />
    </g>
    <g
       style="fill:rgb(0%,0%,0%);fill-opacity:1;"
       id="g188">
      <use
         xlink:href="#glyph0-2"
         x="54.47267"
         y="45.434"
         id="use186" />
    </g>
    <g
       clip-path="url(#clip18)"
       clip-rule="nonzero"
       id="g192">
      <path
         style="fill:none;stroke-width:14.1739;stroke-linecap:butt;stroke-linejoin:miter;stroke:rgb(0%,0%,0%);stroke-opacity:1;stroke-miterlimit:10;"
         d="M 1425.117188 715.859375 L 1425.117188 7.1875 L 2275.507812 7.1875 L 2275.507812 715.859375 "
         transform="matrix(0.1,0,0,-0.1,0,71.5)"
         id="path190" />
    </g>
    <g
       clip-path="url(#clip19)"
       clip-rule="nonzero"
       id="g196">
      <path
         style="fill:none;stroke-width:5.67043;stroke-linecap:butt;stroke-linejoin:miter;stroke:rgb(0%,0%,0%);stroke-opacity:1;stroke-miterlimit:10;"
         d="M 1425.117188 574.140625 L 1425.117188 576.25 L 1427.460938 576.210938 L 1429.84375 576.132812 L 1432.226562 575.976562 L 1434.570312 575.78125 L 1436.914062 575.507812 L 1439.296875 575.195312 L 1441.640625 574.84375 L 1444.023438 574.492188 L 1446.367188 574.140625 L 1448.75 573.75 L 1451.09375 573.398438 L 1453.476562 573.085938 L 1455.820312 572.773438 L 1458.203125 572.5 L 1460.546875 572.304688 L 1462.890625 572.148438 L 1465.273438 572.03125 L 1467.65625 571.992188 L 1470 572.03125 L 1472.34375 572.148438 L 1474.726562 572.304688 L 1477.109375 572.5 L 1479.453125 572.773438 L 1481.796875 573.085938 L 1484.179688 573.398438 L 1486.523438 573.75 L 1488.90625 574.140625 L 1491.25 574.492188 L 1493.632812 574.84375 L 1495.976562 575.195312 L 1498.359375 575.507812 L 1500.703125 575.78125 L 1503.085938 575.976562 L 1505.429688 576.132812 L 1507.8125 576.210938 L 1510.15625 576.25 L 1512.539062 576.210938 L 1514.882812 576.132812 L 1517.226562 575.976562 L 1519.609375 575.78125 L 1521.953125 575.507812 L 1524.335938 575.195312 L 1526.679688 574.84375 L 1529.0625 574.492188 L 1531.40625 574.140625 L 1533.789062 573.75 L 1536.132812 573.398438 L 1538.515625 573.085938 L 1540.859375 572.773438 L 1543.242188 572.5 L 1545.585938 572.304688 L 1547.96875 572.148438 L 1550.3125 572.03125 L 1552.695312 571.992188 L 1555.039062 572.03125 L 1557.382812 572.148438 L 1559.765625 572.304688 L 1562.148438 572.5 L 1564.492188 572.773438 L 1566.835938 573.085938 L 1569.21875 573.398438 L 1571.5625 573.75 L 1573.945312 574.140625 L 1576.289062 574.492188 L 1578.671875 574.84375 L 1581.015625 575.195312 L 1583.398438 575.507812 L 1585.742188 575.78125 L 1588.125 575.976562 L 1590.46875 576.132812 L 1592.8125 576.210938 L 1595.195312 576.25 L 1597.539062 576.210938 L 1599.921875 576.132812 L 1602.265625 575.976562 L 1604.648438 575.78125 L 1606.992188 575.507812 L 1609.375 575.195312 L 1611.71875 574.84375 L 1614.101562 574.492188 L 1616.445312 574.140625 L 1618.828125 573.75 L 1621.171875 573.398438 L 1623.554688 573.085938 L 1625.898438 572.773438 L 1628.242188 572.5 L 1630.625 572.304688 L 1632.96875 572.148438 L 1635.351562 572.03125 L 1637.695312 571.992188 L 1640.078125 572.03125 L 1642.421875 572.148438 L 1644.804688 572.304688 L 1647.148438 572.5 L 1649.53125 572.773438 L 1651.875 573.085938 L 1654.257812 573.398438 L 1656.601562 573.75 L 1658.984375 574.140625 L 1663.671875 574.84375 L 1666.054688 575.195312 L 1668.4375 575.507812 L 1670.78125 575.78125 L 1673.125 575.976562 L 1675.507812 576.132812 L 1677.851562 576.210938 L 1680.234375 576.25 L 1682.578125 576.210938 L 1684.960938 576.132812 L 1687.304688 575.976562 L 1689.6875 575.78125 L 1692.03125 575.507812 L 1694.414062 575.195312 L 1696.757812 574.84375 L 1699.140625 574.492188 L 1701.484375 574.140625 L 1703.867188 573.75 L 1706.210938 573.398438 L 1708.554688 573.085938 L 1710.9375 572.773438 L 1713.28125 572.5 L 1715.664062 572.304688 L 1718.007812 572.148438 L 1720.390625 572.03125 L 1722.734375 571.992188 L 1725.117188 572.03125 L 1727.460938 572.148438 L 1729.84375 572.304688 L 1732.1875 572.5 L 1734.53125 572.773438 L 1739.296875 573.398438 L 1741.640625 573.75 L 1743.984375 574.140625 L 1746.367188 574.492188 L 1748.710938 574.84375 L 1751.09375 575.195312 L 1753.4375 575.507812 L 1755.820312 575.78125 L 1758.164062 575.976562 L 1760.546875 576.132812 L 1762.890625 576.210938 L 1765.273438 576.25 L 1767.617188 576.210938 L 1770 576.132812 L 1772.34375 575.976562 L 1774.726562 575.78125 L 1777.070312 575.507812 L 1779.414062 575.195312 L 1781.796875 574.84375 L 1784.140625 574.492188 L 1786.523438 574.140625 L 1788.867188 573.75 L 1791.25 573.398438 L 1793.59375 573.085938 L 1795.976562 572.773438 L 1798.320312 572.5 L 1800.703125 572.304688 L 1803.046875 572.148438 L 1805.429688 572.03125 L 1807.773438 571.992188 L 1810.15625 572.03125 L 1812.5 572.148438 L 1814.882812 572.304688 L 1817.226562 572.5 L 1819.609375 572.773438 L 1821.953125 573.085938 L 1824.335938 573.398438 L 1826.679688 573.75 L 1829.023438 574.140625 L 1831.40625 574.492188 L 1833.75 574.84375 L 1836.132812 575.195312 L 1838.476562 575.507812 L 1840.859375 575.78125 L 1843.203125 575.976562 L 1845.585938 576.132812 L 1847.929688 576.210938 L 1850.3125 576.25 L 1852.65625 576.210938 L 1855.039062 576.132812 L 1857.382812 575.976562 L 1859.765625 575.78125 L 1862.109375 575.507812 L 1864.453125 575.195312 L 1869.21875 574.492188 L 1871.5625 574.140625 L 1873.90625 573.75 L 1876.289062 573.398438 L 1878.632812 573.085938 L 1881.015625 572.773438 L 1883.359375 572.5 L 1885.742188 572.304688 L 1888.085938 572.148438 L 1890.46875 572.03125 L 1892.8125 571.992188 L 1895.195312 572.03125 L 1897.539062 572.148438 L 1899.882812 572.304688 L 1902.265625 572.5 L 1904.648438 572.773438 L 1909.335938 573.398438 L 1911.71875 573.75 L 1914.0625 574.140625 L 1916.445312 574.492188 L 1918.789062 574.84375 L 1921.171875 575.195312 L 1923.515625 575.507812 L 1925.898438 575.78125 L 1928.242188 575.976562 L 1930.625 576.132812 L 1932.96875 576.210938 L 1935.3125 576.25 L 1937.695312 576.210938 L 1940.078125 576.132812 L 1942.421875 575.976562 L 1944.765625 575.78125 L 1947.148438 575.507812 L 1949.492188 575.195312 L 1951.875 574.84375 L 1954.21875 574.492188 L 1956.601562 574.140625 L 1958.945312 573.75 L 1961.328125 573.398438 L 1963.671875 573.085938 L 1966.054688 572.773438 L 1968.398438 572.5 L 1970.78125 572.304688 L 1973.125 572.148438 L 1975.507812 572.03125 L 1977.851562 571.992188 L 1980.195312 572.03125 L 1982.578125 572.148438 L 1984.921875 572.304688 L 1987.304688 572.5 L 1989.648438 572.773438 L 1992.03125 573.085938 L 1994.375 573.398438 L 1996.757812 573.75 L 1999.101562 574.140625 L 2001.484375 574.492188 L 2003.828125 574.84375 L 2006.210938 575.195312 L 2008.554688 575.507812 L 2010.9375 575.78125 L 2013.28125 575.976562 L 2015.625 576.132812 L 2018.007812 576.210938 L 2020.351562 576.25 L 2022.734375 576.210938 L 2025.078125 576.132812 L 2027.460938 575.976562 L 2029.804688 575.78125 L 2032.1875 575.507812 L 2034.53125 575.195312 L 2036.914062 574.84375 L 2039.257812 574.492188 L 2041.640625 574.140625 L 2043.984375 573.75 L 2046.367188 573.398438 L 2051.054688 572.773438 L 2053.4375 572.5 L 2055.78125 572.304688 L 2058.164062 572.148438 L 2060.507812 572.03125 L 2062.890625 571.992188 L 2065.234375 572.03125 L 2067.617188 572.148438 L 2069.960938 572.304688 L 2072.34375 572.5 L 2074.6875 572.773438 L 2077.070312 573.085938 L 2079.414062 573.398438 L 2081.796875 573.75 L 2084.140625 574.140625 L 2086.523438 574.492188 L 2091.210938 575.195312 L 2093.59375 575.507812 L 2095.9375 575.78125 L 2098.320312 575.976562 L 2100.664062 576.132812 L 2103.046875 576.210938 L 2105.390625 576.25 L 2107.773438 576.210938 L 2110.117188 576.132812 L 2112.5 575.976562 L 2114.84375 575.78125 L 2117.226562 575.507812 L 2119.570312 575.195312 L 2121.953125 574.84375 L 2126.640625 574.140625 L 2129.023438 573.75 L 2131.40625 573.398438 L 2136.09375 572.773438 L 2138.476562 572.5 L 2140.859375 572.304688 L 2143.203125 572.148438 L 2145.546875 572.03125 L 2147.929688 571.992188 L 2150.273438 572.03125 L 2152.65625 572.148438 L 2155 572.304688 L 2157.382812 572.5 L 2159.726562 572.773438 L 2162.109375 573.085938 L 2164.453125 573.398438 L 2166.835938 573.75 L 2169.179688 574.140625 L 2171.523438 574.492188 L 2176.289062 575.195312 L 2178.632812 575.507812 L 2180.976562 575.78125 L 2183.359375 575.976562 L 2185.703125 576.132812 L 2188.085938 576.210938 L 2190.429688 576.25 L 2192.8125 576.210938 L 2195.15625 576.132812 L 2197.539062 575.976562 L 2199.882812 575.78125 L 2202.265625 575.507812 L 2204.609375 575.195312 L 2206.953125 574.84375 L 2211.71875 574.140625 L 2214.0625 573.75 L 2216.40625 573.398438 L 2218.789062 573.085938 L 2221.132812 572.773438 L 2223.515625 572.5 L 2225.859375 572.304688 L 2228.242188 572.148438 L 2230.585938 572.03125 L 2232.96875 571.992188 L 2235.3125 572.03125 L 2237.695312 572.148438 L 2240.039062 572.304688 L 2242.382812 572.5 L 2244.765625 572.773438 L 2247.148438 573.085938 L 2249.492188 573.398438 L 2251.835938 573.75 L 2254.21875 574.140625 L 2256.5625 574.492188 L 2258.945312 574.84375 L 2261.289062 575.195312 L 2263.671875 575.507812 L 2266.015625 575.78125 L 2268.398438 575.976562 L 2270.742188 576.132812 L 2273.125 576.210938 L 2275.46875 576.25 L 2275.507812 576.25 L 2275.507812 574.140625 "
         transform="matrix(0.1,0,0,-0.1,0,71.5)"
         id="path194" />
    </g>
    <g
       style="fill:rgb(0%,0%,0%);fill-opacity:1;"
       id="g200">
      <use
         xlink:href="#glyph0-3"
         x="166.312"
         y="39.9141"
         id="use198" />
    </g>
    <g
       style="fill:rgb(0%,0%,0%);fill-opacity:1;"
       id="g204">
      <use
         xlink:href="#glyph0-4"
         x="173.272158"
         y="39.9141"
         id="use202" />
    </g>
    <g
       style="fill:rgb(0%,0%,0%);fill-opacity:1;"
       id="g208">
      <use
         xlink:href="#glyph0-5"
         x="175.792082"
         y="39.9141"
         id="use206" />
    </g>
    <g
       style="fill:rgb(0%,0%,0%);fill-opacity:1;"
       id="g212">
      <use
         xlink:href="#glyph0-6"
         x="180.231925"
         y="39.9141"
         id="use210" />
    </g>
    <g
       style="fill:rgb(0%,0%,0%);fill-opacity:1;"
       id="g216">
      <use
         xlink:href="#glyph0-7"
         x="182.751849"
         y="39.9141"
         id="use214" />
    </g>
    <g
       style="fill:rgb(0%,0%,0%);fill-opacity:1;"
       id="g220">
      <use
         xlink:href="#glyph0-8"
         x="187.191692"
         y="39.9141"
         id="use218" />
    </g>
    <g
       style="fill:rgb(0%,0%,0%);fill-opacity:1;"
       id="g224">
      <use
         xlink:href="#glyph0-9"
         x="190.191693"
         y="39.9141"
         id="use222" />
    </g>
    <g
       style="fill:rgb(0%,0%,0%);fill-opacity:1;"
       id="g228">
      <use
         xlink:href="#glyph0-10"
         x="196.43154"
         y="39.9141"
         id="use226" />
    </g>
    <g
       style="fill:rgb(0%,0%,0%);fill-opacity:1;"
       id="g232">
      <use
         xlink:href="#glyph0-11"
         x="200.871383"
         y="39.9141"
         id="use230" />
    </g>
    <g
       style="fill:rgb(0%,0%,0%);fill-opacity:1;"
       id="g236">
      <use
         xlink:href="#glyph0-1"
         x="170.15223"
         y="50.834"
         id="use234" />
    </g>
    <g
       style="fill:rgb(0%,0%,0%);fill-opacity:1;"
       id="g240">
      <use
         xlink:href="#glyph0-12"
         x="178.792072"
         y="50.834"
         id="use238" />
    </g>
    <g
       style="fill:rgb(0%,0%,0%);fill-opacity:1;"
       id="g244">
      <use
         xlink:href="#glyph0-13"
         x="182.752234"
         y="50.834"
         id="use242" />
    </g>
    <g
       style="fill:rgb(0%,0%,0%);fill-opacity:1;"
       id="g248">
      <use
         xlink:href="#glyph0-14"
         x="187.192077"
         y="50.834"
         id="use246" />
    </g>
    <g
       style="fill:rgb(0%,0%,0%);fill-opacity:1;"
       id="g252">
      <use
         xlink:href="#glyph0-2"
         x="194.031919"
         y="50.834"
         id="use250" />
    </g>
  </g>
</svg>
