%!PS-Adobe-3.0 EPSF-3.0
%%Creator: cairo 1.17.4 (https://cairographics.org)
%%CreationDate: Thu Feb 24 10:48:51 2022
%%Pages: 1
%%DocumentData: Clean7Bit
%%LanguageLevel: 2
%%BoundingBox: 0 0 126 147
%%EndComments
%%BeginProlog
50 dict begin
/q { gsave } bind def
/Q { grestore } bind def
/cm { 6 array astore concat } bind def
/w { setlinewidth } bind def
/J { setlinecap } bind def
/j { setlinejoin } bind def
/M { setmiterlimit } bind def
/d { setdash } bind def
/m { moveto } bind def
/l { lineto } bind def
/c { curveto } bind def
/h { closepath } bind def
/re { exch dup neg 3 1 roll 5 3 roll moveto 0 rlineto
      0 exch rlineto 0 rlineto closepath } bind def
/S { stroke } bind def
/f { fill } bind def
/f* { eofill } bind def
/n { newpath } bind def
/W { clip } bind def
/W* { eoclip } bind def
/BT { } bind def
/ET { } bind def
/BDC { mark 3 1 roll /BDC pdfmark } bind def
/EMC { mark /EMC pdfmark } bind def
/cairo_store_point { /cairo_point_y exch def /cairo_point_x exch def } def
/Tj { show currentpoint cairo_store_point } bind def
/TJ {
  {
    dup
    type /stringtype eq
    { show } { -0.001 mul 0 cairo_font_matrix dtransform rmoveto } ifelse
  } forall
  currentpoint cairo_store_point
} bind def
/cairo_selectfont { cairo_font_matrix aload pop pop pop 0 0 6 array astore
    cairo_font exch selectfont cairo_point_x cairo_point_y moveto } bind def
/Tf { pop /cairo_font exch def /cairo_font_matrix where
      { pop cairo_selectfont } if } bind def
/Td { matrix translate cairo_font_matrix matrix concatmatrix dup
      /cairo_font_matrix exch def dup 4 get exch 5 get cairo_store_point
      /cairo_font where { pop cairo_selectfont } if } bind def
/Tm { 2 copy 8 2 roll 6 array astore /cairo_font_matrix exch def
      cairo_store_point /cairo_font where { pop cairo_selectfont } if } bind def
/g { setgray } bind def
/rg { setrgbcolor } bind def
/d1 { setcachedevice } bind def
/cairo_data_source {
  CairoDataIndex CairoData length lt
    { CairoData CairoDataIndex get /CairoDataIndex CairoDataIndex 1 add def }
    { () } ifelse
} def
/cairo_flush_ascii85_file { cairo_ascii85_file status { cairo_ascii85_file flushfile } if } def
/cairo_image { image cairo_flush_ascii85_file } def
/cairo_imagemask { imagemask cairo_flush_ascii85_file } def
%%EndProlog
%%BeginSetup
%%EndSetup
%%Page: 1 1
%%BeginPageSetup
%%PageBoundingBox: 0 0 126 147
%%EndPageSetup
q 0 0 126 147 rectclip
1 0 0 -1 0 147 cm q
0 g
1.13366 w
0 J
0 j
[] 0.0 d
10 M q 1 0 0 -1 0 0 cm
11.125 -0.098 m 12.238 -6.355 l 13.379 -11.082 l 14.492 -15.254 l 15.645
 -19.078 l 16.789 -22.59 l 17.902 -25.93 l 19.051 -29.023 l 20.164 -32.016
 l 21.312 -34.828 l 22.457 -37.543 l 23.57 -40.148 l 24.719 -42.652 l 25.867
 -45.051 l 26.977 -47.383 l 28.125 -49.641 l 29.238 -51.797 l 30.383 -53.883
 l 31.531 -55.934 l 32.645 -57.883 l 33.789 -59.793 l 34.902 -61.672 l 36.051
 -63.48 l 37.195 -65.219 l 38.309 -66.922 l 39.457 -68.555 l 40.602 -70.152
 l 41.715 -71.719 l 42.863 -73.25 l 43.977 -74.707 l 45.129 -76.133 l 46.27
 -77.523 l 47.383 -78.883 l 48.535 -80.203 l 49.648 -81.488 l 50.793 -82.742
 l 51.941 -83.922 l 53.055 -85.105 l 54.203 -86.25 l 55.312 -87.328 l 56.461
 -88.406 l 57.609 -89.449 l 58.723 -90.457 l 59.867 -91.434 l 61.016 -92.371
 l 62.129 -93.309 l 63.273 -94.18 l 64.387 -95.047 l 66.68 -96.648 l 67.793
 -97.414 l 68.938 -98.145 l 70.051 -98.871 l 71.199 -99.535 l 72.348 -100.195
 l 73.461 -100.82 l 74.605 -101.41 l 75.719 -101.969 l 76.867 -102.488 l
 78.02 -103.012 l 79.125 -103.496 l 80.273 -103.949 l 81.426 -104.367 l 
82.539 -104.75 l 83.684 -105.133 l 84.797 -105.48 l 87.094 -106.035 l 88.203
 -106.312 l 89.352 -106.523 l 90.465 -106.695 l 91.613 -106.871 l 92.758
 -107.008 l 93.871 -107.078 l 95.02 -107.148 l 96.133 -107.184 l 97.277 
-107.184 l 98.426 -107.148 l 99.539 -107.078 l 100.684 -106.973 l 101.828
 -106.836 l 102.941 -106.66 l 104.09 -106.453 l 105.203 -106.176 l 106.352
 -105.895 l 107.496 -105.547 l 108.609 -105.133 l 109.758 -104.715 l 110.871
 -104.227 l 112.016 -103.672 l 113.164 -103.043 l 114.281 -102.383 l 115.43
 -101.652 l 116.574 -100.82 l 117.688 -99.914 l 118.836 -98.941 l 119.949
 -97.797 l 121.094 -96.543 l 122.242 -95.082 l 123.355 -93.309 l 124.504
 -90.805 l S Q
0.850362 w
1 J
q 1 0 0 -1 0 0 cm
96.16 -107.641 m 96.16 -107.668 l 96.16 -110.391 m 96.16 -110.418 l 96.16
 -113.141 m 96.16 -113.168 l 96.16 -115.887 m 96.16 -115.914 l 96.16 -118.637
 m 96.16 -118.664 l 96.16 -121.383 m 96.16 -121.41 l 96.16 -124.133 m 96.16
 -124.16 l 96.16 -126.883 m 96.16 -126.91 l S Q
1 g
98.246 107.148 m 98.246 105.973 97.293 105.02 96.117 105.02 c 94.941 105.02
 93.988 105.973 93.988 107.148 c 93.988 108.324 94.941 109.277 96.117 109.277
 c 97.293 109.277 98.246 108.324 98.246 107.148 c f
0 g
98.246 107.148 m 98.246 105.973 97.293 105.02 96.117 105.02 c 94.941 105.02
 93.988 105.973 93.988 107.148 c 93.988 108.324 94.941 109.277 96.117 109.277
 c 97.293 109.277 98.246 108.324 98.246 107.148 c h
98.246 107.148 m 98.035 107.148 l 98.035 106.09 97.176 105.23 96.117 105.23
 c 95.059 105.23 94.199 106.09 94.199 107.148 c 94.199 108.207 95.059 109.066
 96.117 109.066 c 97.176 109.066 98.035 108.207 98.035 107.148 c f
0.567043 w
0 J
q 1 0 0 -1 0 0 cm
11.395 -63.578 m 11.395 -0.375 l 124.207 -0.375 l 124.207 -126.785 l 11.395
 -126.785 l h
11.395 -63.578 m S Q
64.121 143.164 m 67.781 141.844 l 64.121 140.52 l 65.578 141.844 l f
0.567042 w
q 1 0 0 -1 0 0 cm
56.48 -141.824 m 65.602 -141.824 l S Q
53.023 139.391 m 53.023 139.219 52.867 139.031 52.586 139.031 c 52.258 
139.031 51.805 139.156 51.523 139.281 c 50.82 139.062 50.68 138.734 50.68
 138.578 c 50.68 138.328 51.07 138.094 51.398 137.984 c 51.258 137.672 l
 50.617 137.906 50.289 138.281 50.289 138.594 c 50.289 139.062 50.883 139.406
 51.023 139.469 c 50.805 139.547 49.883 139.891 49.883 140.594 c 49.883 
141.188 50.43 141.562 50.68 141.719 c 50.227 141.891 49.492 142.328 49.492
 143.297 c 49.492 144.828 51.555 144.078 51.555 144.953 c 51.555 145.234
 51.367 145.484 51.07 145.625 c 50.617 145.828 50.07 145.688 50.07 145.906
 c 50.07 145.984 50.211 146.031 50.383 146.031 c 50.648 146.031 51.055 145.938
 51.32 145.797 c 51.773 145.578 52.086 145.219 52.086 144.734 c 52.086 143.5
 50.023 144.141 50.023 143.062 c 50.023 142.453 50.555 142.078 51.023 141.922
 c 51.102 141.953 51.664 142.25 52.008 142.25 c 52.367 142.25 52.555 142.016
 52.555 141.797 c 52.555 141.609 52.383 141.406 52.023 141.406 c 51.773 
141.406 51.445 141.5 51.133 141.594 c 50.711 141.391 50.43 141.062 50.43
 140.609 c 50.43 140.016 51.211 139.734 51.523 139.641 c 51.805 139.734 
52.117 139.812 52.445 139.812 c 52.836 139.812 53.023 139.594 53.023 139.391
 c h
53.023 139.391 m f
13.066 135.18 m 13.066 133.57 12.332 132.117 11.082 132.117 c 9.816 132.117
 9.082 133.57 9.082 135.18 c 9.082 136.805 9.77 138.242 11.082 138.242 c
 12.285 138.242 13.066 136.805 13.066 135.18 c h
12.207 135.18 m 12.207 136.477 12.082 137.992 11.082 137.992 c 10.129 137.992
 9.941 136.477 9.941 135.18 c 9.941 134.102 10.066 132.352 11.082 132.352
 c 12.082 132.352 12.207 134.102 12.207 135.18 c h
12.207 135.18 m f
94.629 133.773 m 94.629 133.602 94.473 133.414 94.191 133.414 c 93.863 
133.414 93.41 133.539 93.129 133.664 c 92.426 133.445 92.285 133.117 92.285
 132.961 c 92.285 132.711 92.676 132.477 93.004 132.367 c 92.863 132.055
 l 92.223 132.289 91.895 132.664 91.895 132.977 c 91.895 133.445 92.488 
133.789 92.629 133.852 c 92.41 133.93 91.488 134.273 91.488 134.977 c 91.488
 135.57 92.035 135.945 92.285 136.102 c 91.832 136.273 91.098 136.711 91.098
 137.68 c 91.098 139.211 93.16 138.461 93.16 139.336 c 93.16 139.617 92.973
 139.867 92.676 140.008 c 92.223 140.211 91.676 140.07 91.676 140.289 c 
91.676 140.367 91.816 140.414 91.988 140.414 c 92.254 140.414 92.66 140.32
 92.926 140.18 c 93.379 139.961 93.691 139.602 93.691 139.117 c 93.691 137.883
 91.629 138.523 91.629 137.445 c 91.629 136.836 92.16 136.461 92.629 136.305
 c 92.707 136.336 93.27 136.633 93.613 136.633 c 93.973 136.633 94.16 136.398
 94.16 136.18 c 94.16 135.992 93.988 135.789 93.629 135.789 c 93.379 135.789
 93.051 135.883 92.738 135.977 c 92.316 135.773 92.035 135.445 92.035 134.992
 c 92.035 134.398 92.816 134.117 93.129 134.023 c 93.41 134.117 93.723 134.195
 94.051 134.195 c 94.441 134.195 94.629 133.977 94.629 133.773 c h
94.629 133.773 m f
97.438 139.629 m 97.109 140.16 96.797 140.363 96.359 140.363 c 95.953 140.363
 95.656 140.16 95.453 139.754 c 95.328 139.488 95.281 139.27 95.266 138.832
 c 97.422 138.832 l 97.359 138.379 97.297 138.191 97.109 137.957 c 96.906
 137.707 96.594 137.566 96.219 137.566 c 95.875 137.566 95.547 137.691 95.281
 137.926 c 94.953 138.207 94.766 138.707 94.766 139.285 c 94.766 140.238
 95.266 140.832 96.078 140.832 c 96.734 140.832 97.25 140.426 97.547 139.676
 c h
95.281 138.613 m 95.359 138.066 95.594 137.816 96.016 137.816 c 96.453 
137.816 96.609 138.004 96.703 138.613 c h
95.281 138.613 m f
100.227 137.801 m 99.898 137.629 99.695 137.566 99.414 137.566 c 98.539
 137.566 97.883 138.332 97.883 139.348 c 97.883 140.223 98.336 140.832 98.992
 140.832 c 99.398 140.832 99.773 140.66 100.086 140.316 c 100.086 141.629
 l 100.086 142.02 99.961 142.129 99.461 142.16 c 99.461 142.285 l 101.117
 142.285 l 101.117 142.191 l 100.742 142.098 100.68 142.051 100.68 141.754
 c 100.68 137.598 l 100.602 137.582 l h
100.086 139.879 m 100.086 140.051 100.055 140.145 99.992 140.207 c 99.836
 140.332 99.602 140.41 99.383 140.41 c 99.18 140.41 98.992 140.348 98.852
 140.207 c 98.617 140.004 98.477 139.551 98.477 139.098 c 98.477 138.27 
98.852 137.754 99.445 137.754 c 99.867 137.754 100.086 137.988 100.086 138.441
 c h
100.086 139.879 m f
3.172 66.859 m 3.172 69.359 l 3.328 69.391 l 3.328 68.875 3.562 68.625 
3.828 68.625 c 3.875 68.625 3.922 68.641 3.969 68.641 c 5.688 69.109 l 5.875
 69.391 6 69.719 6 70.125 c 6 71.328 5.078 71.812 4.094 71.812 c 2.453 71.812
 0.297 70.75 0.297 69.031 c 0.297 68.094 0.938 67.703 1.891 67.703 c 1.891
 67.547 l 0.016 67.156 l 0.016 67.344 l 0.109 67.406 0.25 67.484 0.25 67.703
 c 0.25 67.906 0 68.5 0 69.109 c 0 71.391 2.125 72.797 3.875 72.797 c 4.812
 72.797 6.328 72.141 6.328 70.234 c 6.328 69.656 6.172 68.875 5.828 68.266
 c 4 67.781 l 3.438 67.625 3.328 67.438 3.328 66.891 c h
3.172 66.859 m f
3.969 54.141 m 3.891 54.141 l 3.547 55.375 2.5 56.719 1.969 56.953 c 1.969
 57.188 l 2.859 56.844 3.438 56.047 3.703 55.641 c 3.703 62.5 l 4.156 62.5
 l 4.156 55.641 l 4.422 56.047 5 56.844 5.875 57.188 c 5.875 56.953 l 5.359
 56.719 4.297 55.375 3.969 54.141 c h
3.969 54.141 m f
Q Q
showpage
%%Trailer
end
%%EOF
