%!PS-Adobe-3.0 EPSF-3.0
%%Creator: cairo 1.17.4 (https://cairographics.org)
%%CreationDate: Thu Feb 24 10:48:54 2022
%%Pages: 1
%%DocumentData: Clean7Bit
%%LanguageLevel: 2
%%BoundingBox: 0 0 189 158
%%EndComments
%%BeginProlog
50 dict begin
/q { gsave } bind def
/Q { grestore } bind def
/cm { 6 array astore concat } bind def
/w { setlinewidth } bind def
/J { setlinecap } bind def
/j { setlinejoin } bind def
/M { setmiterlimit } bind def
/d { setdash } bind def
/m { moveto } bind def
/l { lineto } bind def
/c { curveto } bind def
/h { closepath } bind def
/re { exch dup neg 3 1 roll 5 3 roll moveto 0 rlineto
      0 exch rlineto 0 rlineto closepath } bind def
/S { stroke } bind def
/f { fill } bind def
/f* { eofill } bind def
/n { newpath } bind def
/W { clip } bind def
/W* { eoclip } bind def
/BT { } bind def
/ET { } bind def
/BDC { mark 3 1 roll /BDC pdfmark } bind def
/EMC { mark /EMC pdfmark } bind def
/cairo_store_point { /cairo_point_y exch def /cairo_point_x exch def } def
/Tj { show currentpoint cairo_store_point } bind def
/TJ {
  {
    dup
    type /stringtype eq
    { show } { -0.001 mul 0 cairo_font_matrix dtransform rmoveto } ifelse
  } forall
  currentpoint cairo_store_point
} bind def
/cairo_selectfont { cairo_font_matrix aload pop pop pop 0 0 6 array astore
    cairo_font exch selectfont cairo_point_x cairo_point_y moveto } bind def
/Tf { pop /cairo_font exch def /cairo_font_matrix where
      { pop cairo_selectfont } if } bind def
/Td { matrix translate cairo_font_matrix matrix concatmatrix dup
      /cairo_font_matrix exch def dup 4 get exch 5 get cairo_store_point
      /cairo_font where { pop cairo_selectfont } if } bind def
/Tm { 2 copy 8 2 roll 6 array astore /cairo_font_matrix exch def
      cairo_store_point /cairo_font where { pop cairo_selectfont } if } bind def
/g { setgray } bind def
/rg { setrgbcolor } bind def
/d1 { setcachedevice } bind def
/cairo_data_source {
  CairoDataIndex CairoData length lt
    { CairoData CairoDataIndex get /CairoDataIndex CairoDataIndex 1 add def }
    { () } ifelse
} def
/cairo_flush_ascii85_file { cairo_ascii85_file status { cairo_ascii85_file flushfile } if } def
/cairo_image { image cairo_flush_ascii85_file } def
/cairo_imagemask { imagemask cairo_flush_ascii85_file } def
%%EndProlog
%%BeginSetup
%%EndSetup
%%Page: 1 1
%%BeginPageSetup
%%PageBoundingBox: 0 0 189 158
%%EndPageSetup
q 0 0 189 158 rectclip
1 0 0 -1 0 158 cm q
0 g
0.567041 w
0 J
0 j
[] 0.0 d
10 M q 1 0 0 -1 0 0 cm
36.852 -2.996 122.453 -122.457 re S Q
0.398507 w
q 1 0 0 -1 0 0 cm
36.848 -125.445 m 36.848 -121.188 l S Q
q 1 0 0 -1 0 0 cm
57.273 -125.445 m 57.273 -121.188 l S Q
q 1 0 0 -1 0 0 cm
77.664 -125.445 m 77.664 -121.188 l S Q
q 1 0 0 -1 0 0 cm
98.09 -125.445 m 98.09 -121.188 l S Q
q 1 0 0 -1 0 0 cm
118.516 -125.445 m 118.516 -121.188 l S Q
q 1 0 0 -1 0 0 cm
138.91 -125.445 m 138.91 -121.188 l S Q
q 1 0 0 -1 0 0 cm
159.336 -125.445 m 159.336 -121.188 l S Q
q 1 0 0 -1 0 0 cm
36.848 -125.445 m 36.848 -121.188 l S Q
0.490196 g
0.199253 w
q 1 0 0 -1 0 0 cm
36.848 -115.238 m 40.051 -115.238 l S Q
0 g
0.398505 w
q 1 0 0 -1 0 0 cm
36.844 -125.441 m 41.098 -125.441 l S Q
0.490196 g
0.199253 w
q 1 0 0 -1 0 0 cm
36.844 -94.832 m 40.027 -94.832 l S Q
0 g
0.398507 w
q 1 0 0 -1 0 0 cm
36.848 -105.035 m 41.113 -105.035 l S Q
0.490196 g
0.199253 w
q 1 0 0 -1 0 0 cm
36.844 -74.422 m 40.035 -74.422 l S Q
0 g
0.398505 w
q 1 0 0 -1 0 0 cm
36.844 -84.629 m 41.094 -84.629 l S Q
0.490196 g
0.199253 w
q 1 0 0 -1 0 0 cm
36.844 -54.016 m 40.047 -54.016 l S Q
0 g
0.398506 w
q 1 0 0 -1 0 0 cm
36.844 -64.219 m 41.109 -64.219 l S Q
0.490196 g
0.199253 w
q 1 0 0 -1 0 0 cm
36.844 -33.609 m 40.023 -33.609 l S Q
0 g
0.398507 w
q 1 0 0 -1 0 0 cm
36.844 -43.812 m 41.09 -43.812 l S Q
0.490196 g
0.199253 w
q 1 0 0 -1 0 0 cm
36.848 -13.199 m 40.039 -13.199 l S Q
0 g
0.398504 w
q 1 0 0 -1 0 0 cm
36.844 -23.406 m 41.105 -23.406 l S Q
0.398505 w
q 1 0 0 -1 0 0 cm
36.852 -2.996 m 41.094 -2.996 l S Q
q 1 0 0 -1 0 0 cm
36.844 -125.441 m 41.098 -125.441 l S Q
q 1 0 0 -1 0 0 cm
36.852 -2.996 m 36.852 -7.238 l S Q
q 1 0 0 -1 0 0 cm
57.258 -2.996 m 57.258 -7.238 l S Q
q 1 0 0 -1 0 0 cm
77.668 -2.996 m 77.668 -7.238 l S Q
q 1 0 0 -1 0 0 cm
98.078 -2.996 m 98.078 -7.238 l S Q
q 1 0 0 -1 0 0 cm
118.488 -2.996 m 118.488 -7.238 l S Q
q 1 0 0 -1 0 0 cm
138.895 -2.996 m 138.895 -7.238 l S Q
q 1 0 0 -1 0 0 cm
159.305 -2.996 m 159.305 -7.238 l S Q
q 1 0 0 -1 0 0 cm
36.852 -2.996 m 36.852 -7.238 l S Q
0.490196 g
0.199253 w
q 1 0 0 -1 0 0 cm
159.328 -115.238 m 156.125 -115.238 l S Q
0 g
0.398505 w
q 1 0 0 -1 0 0 cm
159.309 -125.441 m 155.055 -125.441 l S Q
0.490196 g
0.199253 w
q 1 0 0 -1 0 0 cm
159.301 -94.832 m 156.117 -94.832 l S Q
0 g
0.398507 w
q 1 0 0 -1 0 0 cm
159.316 -105.035 m 155.047 -105.035 l S Q
0.490196 g
0.199253 w
q 1 0 0 -1 0 0 cm
159.301 -74.422 m 156.105 -74.422 l S Q
0 g
0.398505 w
q 1 0 0 -1 0 0 cm
159.316 -84.629 m 155.066 -84.629 l S Q
0.490196 g
0.199253 w
q 1 0 0 -1 0 0 cm
159.297 -54.016 m 156.125 -54.016 l S Q
0 g
0.398506 w
q 1 0 0 -1 0 0 cm
159.316 -64.219 m 155.051 -64.219 l S Q
0.490196 g
0.199253 w
q 1 0 0 -1 0 0 cm
159.293 -33.609 m 156.109 -33.609 l S Q
0 g
0.398507 w
q 1 0 0 -1 0 0 cm
159.312 -43.812 m 155.066 -43.812 l S Q
0.490196 g
0.199253 w
q 1 0 0 -1 0 0 cm
159.289 -13.199 m 156.129 -13.199 l S Q
0 g
0.398504 w
q 1 0 0 -1 0 0 cm
159.309 -23.406 m 155.047 -23.406 l S Q
0.398505 w
q 1 0 0 -1 0 0 cm
159.305 -2.996 m 155.062 -2.996 l S Q
q 1 0 0 -1 0 0 cm
159.309 -125.441 m 155.055 -125.441 l S Q
35.445 131.973 m 35.445 130.363 34.711 128.91 33.461 128.91 c 32.195 128.91
 31.461 130.363 31.461 131.973 c 31.461 133.598 32.148 135.035 33.461 135.035
 c 34.664 135.035 35.445 133.598 35.445 131.973 c h
34.586 131.973 m 34.586 133.27 34.461 134.785 33.461 134.785 c 32.508 134.785
 32.32 133.27 32.32 131.973 c 32.32 130.895 32.445 129.145 33.461 129.145
 c 34.461 129.145 34.586 130.895 34.586 131.973 c h
34.586 131.973 m f
37.371 134.551 m 37.371 134.27 37.152 134.051 36.871 134.051 c 36.59 134.051
 36.371 134.27 36.371 134.551 c 36.371 134.832 36.59 135.051 36.871 135.051
 c 37.152 135.051 37.371 134.832 37.371 134.551 c h
37.371 134.551 m f
42.285 131.973 m 42.285 130.363 41.551 128.91 40.301 128.91 c 39.035 128.91
 38.301 130.363 38.301 131.973 c 38.301 133.598 38.988 135.035 40.301 135.035
 c 41.504 135.035 42.285 133.598 42.285 131.973 c h
41.426 131.973 m 41.426 133.27 41.301 134.785 40.301 134.785 c 39.348 134.785
 39.16 133.27 39.16 131.973 c 39.16 130.895 39.285 129.145 40.301 129.145
 c 41.301 129.145 41.426 130.895 41.426 131.973 c h
41.426 131.973 m f
55.848 131.973 m 55.848 130.363 55.113 128.91 53.863 128.91 c 52.598 128.91
 51.863 130.363 51.863 131.973 c 51.863 133.598 52.551 135.035 53.863 135.035
 c 55.066 135.035 55.848 133.598 55.848 131.973 c h
54.988 131.973 m 54.988 133.27 54.863 134.785 53.863 134.785 c 52.91 134.785
 52.723 133.27 52.723 131.973 c 52.723 130.895 52.848 129.145 53.863 129.145
 c 54.863 129.145 54.988 130.895 54.988 131.973 c h
54.988 131.973 m f
57.77 134.551 m 57.77 134.27 57.551 134.051 57.27 134.051 c 56.988 134.051
 56.77 134.27 56.77 134.551 c 56.77 134.832 56.988 135.051 57.27 135.051
 c 57.551 135.051 57.77 134.832 57.77 134.551 c h
57.77 134.551 m f
61.938 134.926 m 61.938 134.785 l 61.344 134.785 61.125 134.801 61.125 
133.629 c 61.125 133.613 61.125 128.879 61.125 128.879 c 61 128.879 l 59.469
 129.613 l 59.516 129.754 l 59.844 129.613 59.922 129.582 60.047 129.582
 c 60.312 129.582 60.359 129.816 60.359 130.129 c 60.359 133.629 l 60.359
 134.801 60.141 134.77 59.547 134.785 c 59.547 134.926 l h
61.938 134.926 m f
76.246 131.973 m 76.246 130.363 75.512 128.91 74.262 128.91 c 72.996 128.91
 72.262 130.363 72.262 131.973 c 72.262 133.598 72.949 135.035 74.262 135.035
 c 75.465 135.035 76.246 133.598 76.246 131.973 c h
75.387 131.973 m 75.387 133.27 75.262 134.785 74.262 134.785 c 73.309 134.785
 73.121 133.27 73.121 131.973 c 73.121 130.895 73.246 129.145 74.262 129.145
 c 75.262 129.145 75.387 130.895 75.387 131.973 c h
75.387 131.973 m f
78.172 134.551 m 78.172 134.27 77.953 134.051 77.672 134.051 c 77.391 134.051
 77.172 134.27 77.172 134.551 c 77.172 134.832 77.391 135.051 77.672 135.051
 c 77.953 135.051 78.172 134.832 78.172 134.551 c h
78.172 134.551 m f
83.117 133.77 m 82.961 133.738 l 82.695 134.191 82.477 134.27 82.039 134.27
 c 79.977 134.27 l 81.398 132.973 82.695 131.801 82.695 130.488 c 82.695
 129.566 81.898 128.91 81.023 128.91 c 80.164 128.91 79.477 129.379 79.211
 130.598 c 79.414 130.598 l 79.664 130.098 80.008 129.582 80.695 129.582
 c 81.477 129.582 81.914 130.176 81.914 130.848 c 81.914 131.816 80.883 
133.238 79.117 134.785 c 79.117 134.926 l 82.648 134.926 l h
83.117 133.77 m f
96.645 131.973 m 96.645 130.363 95.91 128.91 94.66 128.91 c 93.395 128.91
 92.66 130.363 92.66 131.973 c 92.66 133.598 93.348 135.035 94.66 135.035
 c 95.863 135.035 96.645 133.598 96.645 131.973 c h
95.785 131.973 m 95.785 133.27 95.66 134.785 94.66 134.785 c 93.707 134.785
 93.52 133.27 93.52 131.973 c 93.52 130.895 93.645 129.145 94.66 129.145
 c 95.66 129.145 95.785 130.895 95.785 131.973 c h
95.785 131.973 m f
98.57 134.551 m 98.57 134.27 98.352 134.051 98.07 134.051 c 97.789 134.051
 97.57 134.27 97.57 134.551 c 97.57 134.832 97.789 135.051 98.07 135.051
 c 98.352 135.051 98.57 134.832 98.57 134.551 c h
98.57 134.551 m f
103.141 132.988 m 103.141 132.051 102.594 131.645 102.062 131.426 c 102.641
 130.988 102.828 130.582 102.828 130.098 c 102.828 129.582 102.406 128.91
 101.438 128.91 c 100.734 128.91 100.062 129.301 99.766 130.27 c 99.906 
130.301 l 100.094 129.941 100.453 129.488 101.109 129.488 c 101.75 129.488
 102.125 129.926 102.125 130.426 c 102.125 131.129 101.578 131.629 100.766
 131.816 c 100.75 132.004 l 102.141 131.941 102.484 132.848 102.484 133.41
 c 102.484 134.082 102 134.691 101.359 134.691 c 100.781 134.691 100.531
 134.191 100.047 134.191 c 99.891 134.191 99.703 134.348 99.703 134.551 
c 99.703 134.926 100.266 135.035 100.672 135.035 c 102.094 135.035 103.141
 134.223 103.141 132.988 c h
103.141 132.988 m f
117.047 131.973 m 117.047 130.363 116.312 128.91 115.062 128.91 c 113.797
 128.91 113.062 130.363 113.062 131.973 c 113.062 133.598 113.75 135.035
 115.062 135.035 c 116.266 135.035 117.047 133.598 117.047 131.973 c h
116.188 131.973 m 116.188 133.27 116.062 134.785 115.062 134.785 c 114.109
 134.785 113.922 133.27 113.922 131.973 c 113.922 130.895 114.047 129.145
 115.062 129.145 c 116.062 129.145 116.188 130.895 116.188 131.973 c h
116.188 131.973 m f
118.969 134.551 m 118.969 134.27 118.75 134.051 118.469 134.051 c 118.188
 134.051 117.969 134.27 117.969 134.551 c 117.969 134.832 118.188 135.051
 118.469 135.051 c 118.75 135.051 118.969 134.832 118.969 134.551 c h
118.969 134.551 m f
123.902 133.441 m 123.902 132.832 l 123.027 132.832 l 123.027 128.91 l 
122.59 128.91 l 119.996 132.816 l 119.996 133.441 l 122.293 133.441 l 122.293
 134.926 l 123.027 134.926 l 123.027 133.441 l h
122.293 132.832 m 120.355 132.832 l 122.277 129.848 l 122.293 129.848 l
 h
122.293 132.832 m f
137.445 131.973 m 137.445 130.363 136.711 128.91 135.461 128.91 c 134.195
 128.91 133.461 130.363 133.461 131.973 c 133.461 133.598 134.148 135.035
 135.461 135.035 c 136.664 135.035 137.445 133.598 137.445 131.973 c h
136.586 131.973 m 136.586 133.27 136.461 134.785 135.461 134.785 c 134.508
 134.785 134.32 133.27 134.32 131.973 c 134.32 130.895 134.445 129.145 135.461
 129.145 c 136.461 129.145 136.586 130.895 136.586 131.973 c h
136.586 131.973 m f
139.371 134.551 m 139.371 134.27 139.152 134.051 138.871 134.051 c 138.59
 134.051 138.371 134.27 138.371 134.551 c 138.371 134.832 138.59 135.051
 138.871 135.051 c 139.152 135.051 139.371 134.832 139.371 134.551 c h
139.371 134.551 m f
144.223 129.004 m 141.754 129.004 l 140.645 131.551 l 140.785 131.52 140.926
 131.488 141.098 131.488 c 142.051 131.488 143.348 131.988 143.348 133.16
 c 143.348 134.066 142.691 134.645 142.066 134.645 c 141.52 134.645 141.316
 134.145 140.801 134.145 c 140.551 134.145 140.473 134.363 140.473 134.473
 c 140.473 134.785 140.91 135.035 141.535 135.035 c 142.879 135.035 143.941
 134.051 143.941 132.848 c 143.941 131.426 142.816 130.941 141.598 130.91
 c 141.488 130.91 141.363 130.926 141.254 130.941 c 141.816 129.676 l 143.91
 129.66 l h
144.223 129.004 m f
15.754 126.082 5.484 0.453 re f
25.984 127.082 m 25.984 126.473 l 25.109 126.473 l 25.109 122.551 l 24.672
 122.551 l 22.078 126.457 l 22.078 127.082 l 24.375 127.082 l 24.375 128.566
 l 25.109 128.566 l 25.109 127.082 l h
24.375 126.473 m 22.438 126.473 l 24.359 123.488 l 24.375 123.488 l h
24.375 126.473 m f
28.25 128.191 m 28.25 127.91 28.031 127.691 27.75 127.691 c 27.469 127.691
 27.25 127.91 27.25 128.191 c 27.25 128.473 27.469 128.691 27.75 128.691
 c 28.031 128.691 28.25 128.473 28.25 128.191 c h
28.25 128.191 m f
33.168 125.613 m 33.168 124.004 32.434 122.551 31.184 122.551 c 29.918 
122.551 29.184 124.004 29.184 125.613 c 29.184 127.238 29.871 128.676 31.184
 128.676 c 32.387 128.676 33.168 127.238 33.168 125.613 c h
32.309 125.613 m 32.309 126.91 32.184 128.426 31.184 128.426 c 30.23 128.426
 30.043 126.91 30.043 125.613 c 30.043 124.535 30.168 122.785 31.184 122.785
 c 32.184 122.785 32.309 124.535 32.309 125.613 c h
32.309 125.613 m f
16.113 105.684 5.484 0.453 re f
25.984 106.23 m 25.984 105.293 25.438 104.887 24.906 104.668 c 25.484 104.23
 25.672 103.824 25.672 103.34 c 25.672 102.824 25.25 102.152 24.281 102.152
 c 23.578 102.152 22.906 102.543 22.609 103.512 c 22.75 103.543 l 22.938
 103.184 23.297 102.73 23.953 102.73 c 24.594 102.73 24.969 103.168 24.969
 103.668 c 24.969 104.371 24.422 104.871 23.609 105.059 c 23.594 105.246
 l 24.984 105.184 25.328 106.09 25.328 106.652 c 25.328 107.324 24.844 107.934
 24.203 107.934 c 23.625 107.934 23.375 107.434 22.891 107.434 c 22.734 
107.434 22.547 107.59 22.547 107.793 c 22.547 108.168 23.109 108.277 23.516
 108.277 c 24.938 108.277 25.984 107.465 25.984 106.23 c h
25.984 106.23 m f
28.25 107.793 m 28.25 107.512 28.031 107.293 27.75 107.293 c 27.469 107.293
 27.25 107.512 27.25 107.793 c 27.25 108.074 27.469 108.293 27.75 108.293
 c 28.031 108.293 28.25 108.074 28.25 107.793 c h
28.25 107.793 m f
32.902 106.793 m 32.902 106.152 32.621 105.668 31.527 104.855 c 32.215 
104.48 32.746 104.059 32.746 103.402 c 32.746 102.715 32.105 102.121 31.152
 102.121 c 30.309 102.121 29.512 102.668 29.512 103.512 c 29.512 104.168
 29.855 104.559 30.621 105.168 c 29.762 105.824 29.449 106.152 29.449 106.824
 c 29.449 107.574 30.121 108.277 31.168 108.277 c 32.387 108.277 32.902 
107.449 32.902 106.793 c h
32.137 103.387 m 32.137 104.027 31.762 104.371 31.277 104.699 c 30.684 
104.277 30.168 103.809 30.168 103.293 c 30.168 102.809 30.512 102.387 31.121
 102.387 c 31.793 102.387 32.137 102.809 32.137 103.387 c h
32.262 107.043 m 32.262 107.621 31.824 108.012 31.246 108.012 c 30.559 
108.012 30.121 107.465 30.121 106.73 c 30.121 106.059 30.449 105.668 30.855
 105.324 c 31.84 106.074 32.262 106.449 32.262 107.043 c h
32.262 107.043 m f
16.113 85.281 5.484 0.453 re f
25.984 85.828 m 25.984 84.891 25.438 84.484 24.906 84.266 c 25.484 83.828
 25.672 83.422 25.672 82.938 c 25.672 82.422 25.25 81.75 24.281 81.75 c 
23.578 81.75 22.906 82.141 22.609 83.109 c 22.75 83.141 l 22.938 82.781 
23.297 82.328 23.953 82.328 c 24.594 82.328 24.969 82.766 24.969 83.266 
c 24.969 83.969 24.422 84.469 23.609 84.656 c 23.594 84.844 l 24.984 84.781
 25.328 85.688 25.328 86.25 c 25.328 86.922 24.844 87.531 24.203 87.531 
c 23.625 87.531 23.375 87.031 22.891 87.031 c 22.734 87.031 22.547 87.188
 22.547 87.391 c 22.547 87.766 23.109 87.875 23.516 87.875 c 24.938 87.875
 25.984 87.062 25.984 85.828 c h
25.984 85.828 m f
28.25 87.391 m 28.25 87.109 28.031 86.891 27.75 86.891 c 27.469 86.891 
27.25 87.109 27.25 87.391 c 27.25 87.672 27.469 87.891 27.75 87.891 c 28.031
 87.891 28.25 87.672 28.25 87.391 c h
28.25 87.391 m f
33.121 85.75 m 33.121 84.766 32.418 84.031 31.527 84.031 c 31.074 84.031
 30.699 84.172 30.309 84.484 c 30.699 82.891 31.871 81.891 32.996 81.875
 c 32.996 81.719 l 30.23 81.719 29.355 84.062 29.355 85.391 c 29.355 86.812
 30.184 87.875 31.293 87.875 c 32.309 87.875 33.121 86.922 33.121 85.75 
c h
32.355 86.203 m 32.355 87.031 31.98 87.609 31.387 87.609 c 30.465 87.609
 30.184 86.266 30.184 85.547 c 30.184 85.312 30.215 85.062 30.262 84.766
 c 30.652 84.516 30.965 84.406 31.277 84.406 c 32.184 84.406 32.355 85.453
 32.355 86.203 c h
32.355 86.203 m f
16.113 64.762 5.484 0.453 re f
25.984 65.309 m 25.984 64.371 25.438 63.965 24.906 63.746 c 25.484 63.309
 25.672 62.902 25.672 62.418 c 25.672 61.902 25.25 61.23 24.281 61.23 c 
23.578 61.23 22.906 61.621 22.609 62.59 c 22.75 62.621 l 22.938 62.262 23.297
 61.809 23.953 61.809 c 24.594 61.809 24.969 62.246 24.969 62.746 c 24.969
 63.449 24.422 63.949 23.609 64.137 c 23.594 64.324 l 24.984 64.262 25.328
 65.168 25.328 65.73 c 25.328 66.402 24.844 67.012 24.203 67.012 c 23.625
 67.012 23.375 66.512 22.891 66.512 c 22.734 66.512 22.547 66.668 22.547
 66.871 c 22.547 67.246 23.109 67.355 23.516 67.355 c 24.938 67.355 25.984
 66.543 25.984 65.309 c h
25.984 65.309 m f
28.25 66.871 m 28.25 66.59 28.031 66.371 27.75 66.371 c 27.469 66.371 27.25
 66.59 27.25 66.871 c 27.25 67.152 27.469 67.371 27.75 67.371 c 28.031 67.371
 28.25 67.152 28.25 66.871 c h
28.25 66.871 m f
33.184 65.762 m 33.184 65.152 l 32.309 65.152 l 32.309 61.23 l 31.871 61.23
 l 29.277 65.137 l 29.277 65.762 l 31.574 65.762 l 31.574 67.246 l 32.309
 67.246 l 32.309 65.762 l h
31.574 65.152 m 29.637 65.152 l 31.559 62.168 l 31.574 62.168 l h
31.574 65.152 m f
16.113 44.363 5.484 0.453 re f
25.984 44.91 m 25.984 43.973 25.438 43.566 24.906 43.348 c 25.484 42.91
 25.672 42.504 25.672 42.02 c 25.672 41.504 25.25 40.832 24.281 40.832 c
 23.578 40.832 22.906 41.223 22.609 42.191 c 22.75 42.223 l 22.938 41.863
 23.297 41.41 23.953 41.41 c 24.594 41.41 24.969 41.848 24.969 42.348 c 
24.969 43.051 24.422 43.551 23.609 43.738 c 23.594 43.926 l 24.984 43.863
 25.328 44.77 25.328 45.332 c 25.328 46.004 24.844 46.613 24.203 46.613 
c 23.625 46.613 23.375 46.113 22.891 46.113 c 22.734 46.113 22.547 46.27
 22.547 46.473 c 22.547 46.848 23.109 46.957 23.516 46.957 c 24.938 46.957
 25.984 46.145 25.984 44.91 c h
25.984 44.91 m f
28.25 46.473 m 28.25 46.191 28.031 45.973 27.75 45.973 c 27.469 45.973 
27.25 46.191 27.25 46.473 c 27.25 46.754 27.469 46.973 27.75 46.973 c 28.031
 46.973 28.25 46.754 28.25 46.473 c h
28.25 46.473 m f
33.199 45.691 m 33.043 45.66 l 32.777 46.113 32.559 46.191 32.121 46.191
 c 30.059 46.191 l 31.48 44.895 32.777 43.723 32.777 42.41 c 32.777 41.488
 31.98 40.832 31.105 40.832 c 30.246 40.832 29.559 41.301 29.293 42.52 c
 29.496 42.52 l 29.746 42.02 30.09 41.504 30.777 41.504 c 31.559 41.504 
31.996 42.098 31.996 42.77 c 31.996 43.738 30.965 45.16 29.199 46.707 c 
29.199 46.848 l 32.73 46.848 l h
33.199 45.691 m f
16.113 23.961 5.484 0.453 re f
25.984 24.508 m 25.984 23.57 25.438 23.164 24.906 22.945 c 25.484 22.508
 25.672 22.102 25.672 21.617 c 25.672 21.102 25.25 20.43 24.281 20.43 c 
23.578 20.43 22.906 20.82 22.609 21.789 c 22.75 21.82 l 22.938 21.461 23.297
 21.008 23.953 21.008 c 24.594 21.008 24.969 21.445 24.969 21.945 c 24.969
 22.648 24.422 23.148 23.609 23.336 c 23.594 23.523 l 24.984 23.461 25.328
 24.367 25.328 24.93 c 25.328 25.602 24.844 26.211 24.203 26.211 c 23.625
 26.211 23.375 25.711 22.891 25.711 c 22.734 25.711 22.547 25.867 22.547
 26.07 c 22.547 26.445 23.109 26.555 23.516 26.555 c 24.938 26.555 25.984
 25.742 25.984 24.508 c h
25.984 24.508 m f
28.25 26.07 m 28.25 25.789 28.031 25.57 27.75 25.57 c 27.469 25.57 27.25
 25.789 27.25 26.07 c 27.25 26.352 27.469 26.57 27.75 26.57 c 28.031 26.57
 28.25 26.352 28.25 26.07 c h
28.25 26.07 m f
33.168 23.492 m 33.168 21.883 32.434 20.43 31.184 20.43 c 29.918 20.43 
29.184 21.883 29.184 23.492 c 29.184 25.117 29.871 26.555 31.184 26.555 
c 32.387 26.555 33.168 25.117 33.168 23.492 c h
32.309 23.492 m 32.309 24.789 32.184 26.305 31.184 26.305 c 30.23 26.305
 30.043 24.789 30.043 23.492 c 30.043 22.414 30.168 20.664 31.184 20.664
 c 32.184 20.664 32.309 22.414 32.309 23.492 c h
32.309 23.492 m f
15.754 3.562 5.484 0.453 re f
26 4.891 m 25.844 4.859 l 25.578 5.312 25.359 5.391 24.922 5.391 c 22.859
 5.391 l 24.281 4.094 25.578 2.922 25.578 1.609 c 25.578 0.688 24.781 0.031
 23.906 0.031 c 23.047 0.031 22.359 0.5 22.094 1.719 c 22.297 1.719 l 22.547
 1.219 22.891 0.703 23.578 0.703 c 24.359 0.703 24.797 1.297 24.797 1.969
 c 24.797 2.938 23.766 4.359 22 5.906 c 22 6.047 l 25.531 6.047 l h
26 4.891 m f
28.25 5.672 m 28.25 5.391 28.031 5.172 27.75 5.172 c 27.469 5.172 27.25
 5.391 27.25 5.672 c 27.25 5.953 27.469 6.172 27.75 6.172 c 28.031 6.172
 28.25 5.953 28.25 5.672 c h
28.25 5.672 m f
32.902 4.672 m 32.902 4.031 32.621 3.547 31.527 2.734 c 32.215 2.359 32.746
 1.938 32.746 1.281 c 32.746 0.594 32.105 0 31.152 0 c 30.309 0 29.512 0.547
 29.512 1.391 c 29.512 2.047 29.855 2.438 30.621 3.047 c 29.762 3.703 29.449
 4.031 29.449 4.703 c 29.449 5.453 30.121 6.156 31.168 6.156 c 32.387 6.156
 32.902 5.328 32.902 4.672 c h
32.137 1.266 m 32.137 1.906 31.762 2.25 31.277 2.578 c 30.684 2.156 30.168
 1.688 30.168 1.172 c 30.168 0.688 30.512 0.266 31.121 0.266 c 31.793 0.266
 32.137 0.688 32.137 1.266 c h
32.262 4.922 m 32.262 5.5 31.824 5.891 31.246 5.891 c 30.559 5.891 30.121
 5.344 30.121 4.609 c 30.121 3.938 30.449 3.547 30.855 3.203 c 31.84 3.953
 32.262 4.328 32.262 4.922 c h
32.262 4.922 m f
1 g
153.18 64.297 m 153.18 8.164 l 161.344 8.164 l 161.344 120.398 l 153.18
 120.398 l f
0 g
0.567044 w
q 1 0 0 -1 0 0 cm
159.309 -121.441 m 159.309 -7.137 l S Q
157.906 132.043 m 157.906 130.434 157.172 128.98 155.922 128.98 c 154.656
 128.98 153.922 130.434 153.922 132.043 c 153.922 133.668 154.609 135.105
 155.922 135.105 c 157.125 135.105 157.906 133.668 157.906 132.043 c h
157.047 132.043 m 157.047 133.34 156.922 134.855 155.922 134.855 c 154.969
 134.855 154.781 133.34 154.781 132.043 c 154.781 130.965 154.906 129.215
 155.922 129.215 c 156.922 129.215 157.047 130.965 157.047 132.043 c h
157.047 132.043 m f
159.832 134.621 m 159.832 134.34 159.613 134.121 159.332 134.121 c 159.051
 134.121 158.832 134.34 158.832 134.621 c 158.832 134.902 159.051 135.121
 159.332 135.121 c 159.613 135.121 159.832 134.902 159.832 134.621 c h
159.832 134.621 m f
164.699 132.98 m 164.699 131.996 163.996 131.262 163.105 131.262 c 162.652
 131.262 162.277 131.402 161.887 131.715 c 162.277 130.121 163.449 129.121
 164.574 129.105 c 164.574 128.949 l 161.809 128.949 160.934 131.293 160.934
 132.621 c 160.934 134.043 161.762 135.105 162.871 135.105 c 163.887 135.105
 164.699 134.152 164.699 132.98 c h
163.934 133.434 m 163.934 134.262 163.559 134.84 162.965 134.84 c 162.043
 134.84 161.762 133.496 161.762 132.777 c 161.762 132.543 161.793 132.293
 161.84 131.996 c 162.23 131.746 162.543 131.637 162.855 131.637 c 163.762
 131.637 163.934 132.684 163.934 133.434 c h
163.934 133.434 m f
76.828 140.953 m 76.422 140.953 l 72.469 154.875 l 70.906 149.969 l 69.516
 150.766 l 69.609 150.984 l 70.234 150.641 l 72.234 157.094 l 72.312 157.094
 l h
76.828 140.953 m f
76.594 140.887 51.48 0.48 re f
83.102 150.996 m 82.977 150.902 l 82.789 151.137 82.461 151.574 82.273 
151.574 c 82.195 151.574 82.148 151.527 82.148 151.418 c 82.148 151.324 
82.227 151.105 82.273 150.934 c 82.273 150.934 82.805 148.98 82.805 148.934
 c 82.867 148.746 82.898 148.559 82.898 148.434 c 82.898 147.98 82.617 147.824
 82.398 147.824 c 81.664 147.824 80.836 148.793 80.258 149.824 c 80.258 
149.824 80.586 148.777 80.586 148.418 c 80.586 148.184 80.492 147.824 80.07
 147.824 c 79.242 147.824 78.211 149.418 77.992 149.824 c 78.523 147.824
 l 78.523 147.824 77.305 148.059 77.039 148.074 c 77.039 148.23 l 77.367
 148.23 77.633 148.199 77.633 148.559 c 77.633 148.73 77.555 149.012 77.477
 149.293 c 77.477 149.293 76.758 151.684 76.711 151.918 c 77.398 151.918
 l 77.555 151.324 l 78.07 149.387 79.32 148.324 79.664 148.324 c 79.805 
148.324 79.898 148.371 79.898 148.574 c 79.898 148.715 79.789 149.121 79.727
 149.387 c 79.727 149.387 79.102 151.605 79.023 151.918 c 79.695 151.918
 l 79.852 151.324 l 80.398 149.309 81.617 148.324 81.977 148.324 c 82.102
 148.324 82.195 148.418 82.195 148.559 c 82.195 148.652 82.102 149.059 82.008
 149.387 c 81.648 150.73 l 81.555 151.059 81.477 151.465 81.477 151.605 
c 81.477 151.84 81.602 152.027 81.805 152.027 c 82.258 152.027 82.742 151.512
 83.102 150.996 c h
83.102 150.996 m f
85.77 145.191 m 85.77 144.973 85.535 144.816 85.316 144.816 c 85.16 144.816
 85.02 144.895 84.957 145.113 c 84.02 148.301 l 84.223 148.379 l 85.723 
145.363 l 85.738 145.301 85.77 145.254 85.77 145.191 c h
85.77 145.191 m f
87.812 145.191 m 87.812 144.973 87.578 144.816 87.359 144.816 c 87.203 
144.816 87.062 144.895 87 145.113 c 86.062 148.301 l 86.266 148.379 l 87.766
 145.363 l 87.781 145.301 87.812 145.254 87.812 145.191 c h
87.812 145.191 m f
83.926 150.434 m 84.504 150.465 84.582 150.543 84.582 151.059 c 84.582 
154.152 l 84.582 154.684 84.488 154.762 83.926 154.793 c 83.926 154.918 
l 86.254 154.918 l 86.785 154.918 87.285 154.777 87.551 154.527 c 87.801
 154.309 87.926 153.996 87.926 153.668 c 87.926 153.355 87.816 153.074 87.598
 152.871 c 87.379 152.684 87.191 152.605 86.738 152.496 c 87.098 152.402
 87.254 152.34 87.41 152.184 c 87.598 152.027 87.691 151.777 87.691 151.496
 c 87.691 150.715 87.066 150.309 85.863 150.309 c 83.926 150.309 l h
85.301 152.652 m 85.973 152.652 86.301 152.684 86.551 152.793 c 86.941 
152.949 87.129 153.246 87.129 153.668 c 87.129 154.043 86.988 154.324 86.707
 154.48 c 86.488 154.605 86.191 154.652 85.738 154.652 c 85.395 154.652 
85.301 154.59 85.301 154.371 c h
85.301 152.371 m 85.301 150.777 l 85.301 150.621 85.332 150.574 85.457 
150.574 c 85.754 150.559 l 86.535 150.543 86.988 150.902 86.988 151.512 
c 86.988 152.074 86.629 152.355 85.957 152.371 c h
85.301 152.371 m f
92.867 145.48 m 92.43 145.48 l 89.32 153.84 l 89.773 153.84 l h
92.867 145.48 m f
93.543 151.918 m 95.543 151.918 l 95.543 151.777 l 95.074 151.777 94.934
 151.684 94.934 151.324 c 94.934 148.793 l 94.934 148.777 94.996 148.684
 95.059 148.621 c 95.293 148.418 95.668 148.262 95.98 148.262 c 96.387 148.262
 96.574 148.574 96.574 149.199 c 96.574 151.152 l 96.559 151.652 96.465 
151.762 95.965 151.777 c 95.965 151.918 l 97.98 151.918 l 97.98 151.777 
l 97.48 151.777 97.355 151.637 97.324 151.059 c 97.324 148.809 l 97.605 
148.418 97.887 148.262 98.309 148.262 c 98.824 148.262 98.98 148.496 98.98
 149.246 c 98.98 151.137 l 98.965 151.668 98.902 151.73 98.387 151.777 c
 98.387 151.918 l 100.355 151.918 l 100.355 151.777 l 100.121 151.762 l 
99.84 151.715 99.73 151.59 99.73 151.23 c 99.73 149.387 l 99.73 148.324 
99.387 147.793 98.699 147.793 c 98.168 147.793 97.715 148.027 97.23 148.543
 c 97.074 148.027 96.762 147.793 96.277 147.793 c 95.871 147.793 95.637 
147.902 94.887 148.48 c 94.887 147.809 l 94.824 147.793 l 94.355 147.965
 94.043 148.059 93.574 148.199 c 93.574 148.355 l 93.684 148.324 93.762 
148.309 93.855 148.309 c 94.09 148.309 94.168 148.449 94.168 148.887 c 94.168
 151.152 l 94.152 151.652 94.043 151.777 93.543 151.777 c h
93.543 151.918 m f
102.613 147.793 m 101.426 147.793 100.629 148.652 100.629 149.887 c 100.629
 151.105 101.457 152.012 102.582 152.012 c 103.723 152.012 104.582 151.059
 104.582 149.824 c 104.582 148.637 103.754 147.793 102.613 147.793 c h
102.488 148.043 m 103.238 148.043 103.77 148.902 103.77 150.137 c 103.77
 151.152 103.363 151.762 102.691 151.762 c 102.348 151.762 102.02 151.543
 101.832 151.184 c 101.566 150.715 101.426 150.09 101.426 149.449 c 101.426
 148.605 101.848 148.043 102.488 148.043 c h
102.488 148.043 m f
104.988 151.918 m 107.113 151.918 l 107.113 151.777 l 106.535 151.762 106.441
 151.668 106.426 151.168 c 106.426 145.809 l 106.395 145.793 l 105.941 145.934
 105.613 146.027 104.973 146.184 c 104.973 146.324 l 105.02 146.324 l 105.129
 146.324 105.238 146.309 105.301 146.309 c 105.598 146.309 105.676 146.434
 105.676 146.855 c 105.676 151.137 l 105.676 151.621 105.551 151.746 104.988
 151.777 c h
104.988 151.918 m f
108.945 151.918 m 111.039 151.918 l 111.039 151.777 l 110.867 151.777 l
 110.492 151.746 110.383 151.652 110.367 151.324 c 110.367 149.668 l 111.633
 151.34 l 111.664 151.387 111.695 151.434 111.711 151.465 c 111.789 151.543
 111.82 151.605 111.82 151.652 c 111.82 151.73 111.742 151.777 111.633 151.777
 c 111.461 151.777 l 111.461 151.918 l 113.414 151.918 l 113.414 151.777
 l 113.023 151.762 112.742 151.59 112.367 151.121 c 110.992 149.387 l 111.258
 149.152 l 112.367 148.137 112.617 147.996 113.195 148.012 c 113.195 147.887
 l 111.352 147.887 l 111.352 148.012 l 111.711 148.012 111.805 148.059 111.805
 148.168 c 111.805 148.246 111.727 148.371 111.602 148.48 c 110.367 149.574
 l 110.367 145.809 l 110.336 145.793 l 109.992 145.902 109.727 145.98 109.211
 146.121 c 108.945 146.184 l 108.945 146.324 l 109.055 146.324 109.148 146.309
 109.227 146.309 c 109.539 146.309 109.617 146.434 109.617 146.855 c 109.617
 151.184 l 109.602 151.652 109.586 151.684 108.945 151.777 c h
108.945 151.918 m f
117.543 148.434 m 117.543 148.09 l 116.855 148.09 l 116.668 148.09 116.527
 148.059 116.355 147.996 c 116.152 147.934 l 115.918 147.84 115.668 147.793
 115.434 147.793 c 114.605 147.793 113.949 148.434 113.949 149.262 c 113.949
 149.824 114.184 150.152 114.777 150.449 c 114.543 150.668 l 114.355 150.855
 114.246 150.949 114.215 150.98 c 114.027 151.184 113.98 151.277 113.98 
151.434 c 113.98 151.637 114.074 151.73 114.449 151.902 c 113.809 152.371
 113.574 152.668 113.574 152.996 c 113.574 153.48 114.262 153.871 115.121
 153.871 c 115.793 153.871 116.496 153.637 116.965 153.262 c 117.309 152.98
 117.465 152.699 117.465 152.355 c 117.465 151.809 117.043 151.434 116.371
 151.402 c 115.215 151.34 l 114.73 151.324 114.512 151.246 114.512 151.105
 c 114.512 150.918 114.809 150.605 115.059 150.543 c 115.371 150.559 115.543
 150.574 115.574 150.574 c 115.902 150.574 116.262 150.449 116.527 150.199
 c 116.824 149.949 116.965 149.637 116.965 149.199 c 116.965 148.934 116.918
 148.73 116.793 148.434 c h
114.637 151.934 m 114.949 151.996 115.652 152.059 116.105 152.059 c 116.918
 152.059 117.215 152.168 117.215 152.496 c 117.215 153.012 116.527 153.355
 115.512 153.355 c 114.715 153.355 114.199 153.105 114.199 152.715 c 114.199
 152.496 114.277 152.371 114.637 151.934 c h
114.684 148.887 m 114.684 148.355 114.934 148.043 115.355 148.043 c 115.637
 148.043 115.855 148.199 116.012 148.465 c 116.184 148.777 116.277 149.184
 116.277 149.543 c 116.277 150.043 116.027 150.355 115.605 150.355 c 115.059
 150.355 114.684 149.777 114.684 148.918 c h
114.684 148.887 m f
118.184 146.441 4.703 0.438 re f
126.438 148.676 m 126.438 148.488 l 125.906 148.488 125.734 148.488 125.734
 147.645 c 125.734 147.629 125.734 143.973 125.734 143.973 c 125.562 143.973
 l 124.219 144.551 l 124.297 144.738 l 124.609 144.613 124.672 144.598 124.766
 144.598 c 124.969 144.598 124.984 144.77 124.984 144.973 c 124.984 147.645
 l 124.984 148.488 124.828 148.473 124.297 148.488 c 124.297 148.676 l h
126.438 148.676 m f
7.941 113.973 m 1.754 116.848 l 1.754 117.02 l 7.941 119.879 l h
7.473 115.066 m 7.473 119.238 l 2.988 117.16 l h
7.473 115.066 m f
1.895 105.414 m 1.895 107.758 l 2.035 107.773 l 2.035 107.477 2.066 107.117
 2.473 107.117 c 2.598 107.117 2.738 107.148 3.066 107.242 c 4.566 107.633
 l 4.566 110.289 l 2.941 109.836 l 2.285 109.664 2.035 109.383 2.035 108.852
 c 1.895 108.82 l 1.895 111.273 l 2.035 111.305 l 2.035 111.008 2.066 110.617
 2.473 110.617 c 2.598 110.617 2.738 110.648 3.066 110.742 c 6.895 111.805
 l 7.801 112.055 7.785 112.32 7.785 112.727 c 7.941 112.758 l 7.941 110.398
 l 7.785 110.383 l 7.785 110.617 7.754 111.008 7.316 111.008 c 7.238 111.008
 7.129 110.992 7.02 110.961 c 4.926 110.383 l 4.926 107.742 l 6.895 108.305
 l 7.785 108.555 7.785 108.898 7.785 109.273 c 7.941 109.305 l 7.941 106.805
 l 7.785 106.789 l 7.785 107.117 7.801 107.461 7.348 107.461 c 7.238 107.461
 7.082 107.445 6.895 107.383 c 2.941 106.289 l 2.285 106.117 2.035 105.852
 2.035 105.445 c h
1.895 105.414 m f
10.223 105.699 m 10.223 104.152 l 10.113 104.152 l 10.113 104.512 10.035
 104.621 9.754 104.621 c 7.785 104.621 l 7.77 104.621 7.707 104.574 7.66
 104.512 c 7.504 104.34 7.379 104.043 7.379 103.809 c 7.379 103.496 7.629
 103.34 8.113 103.34 c 9.629 103.34 l 10.02 103.355 10.098 103.418 10.113
 103.809 c 10.223 103.809 l 10.223 102.262 l 10.113 102.262 l 10.113 102.652
 10.004 102.746 9.566 102.762 c 7.801 102.762 l 7.504 102.543 7.379 102.324
 7.379 101.996 c 7.379 101.605 7.566 101.48 8.145 101.48 c 9.613 101.48 
l 10.035 101.48 10.082 101.527 10.113 101.934 c 10.223 101.934 l 10.223 
100.402 l 10.113 100.402 l 10.098 100.59 l 10.066 100.809 9.957 100.887 
9.691 100.887 c 8.254 100.887 l 7.441 100.887 7.02 101.168 7.02 101.699 
c 7.02 102.105 7.191 102.449 7.598 102.84 c 7.207 102.965 7.02 103.199 7.02
 103.574 c 7.02 103.887 7.113 104.074 7.551 104.652 c 7.035 104.652 l 7.02
 104.699 l 7.145 105.074 7.223 105.309 7.332 105.684 c 7.441 105.684 l 7.426
 105.59 7.426 105.527 7.426 105.449 c 7.426 105.277 7.535 105.215 7.863 
105.215 c 9.629 105.215 l 10.02 105.23 10.113 105.309 10.113 105.699 c h
10.223 105.699 m f
9.863 96.605 m 9.707 96.605 l 9.066 97.699 7.801 98.199 5.676 98.199 c 
3.566 98.199 2.332 97.699 1.66 96.605 c 1.504 96.605 l 2.301 98.152 3.832
 99.059 5.676 99.059 c 7.551 99.059 9.004 98.184 9.863 96.605 c h
9.863 96.605 m f
7.426 92.039 m 7.426 92.164 7.426 92.211 7.426 92.242 c 7.426 92.555 7.332
 92.648 6.926 92.648 c 1.832 92.648 l 1.816 92.68 l 1.957 93.102 2.051 93.414
 2.207 94.008 c 2.348 94.008 l 2.348 93.93 2.348 93.883 2.348 93.805 c 2.348
 93.477 2.441 93.398 2.801 93.398 c 4.207 93.398 l 3.91 93.742 3.816 93.977
 3.816 94.336 c 3.816 95.367 4.832 96.211 6.098 96.211 c 7.254 96.211 8.035
 95.539 8.035 94.539 c 8.035 94.039 7.848 93.695 7.426 93.398 c 8.004 93.398
 l 8.035 93.367 l 7.566 92.039 l h
7.02 93.398 m 7.082 93.398 7.191 93.461 7.301 93.555 c 7.473 93.695 7.566
 93.93 7.566 94.195 c 7.566 94.945 6.848 95.43 5.738 95.43 c 4.738 95.43
 4.066 94.992 4.066 94.305 c 4.066 93.82 4.488 93.398 4.957 93.398 c h
7.02 93.398 m f
7.941 91.867 m 7.941 89.742 l 7.801 89.742 l 7.77 90.336 7.676 90.398 7.02
 90.398 c 3.848 90.398 l 3.816 90.445 l 4.316 91.836 l 4.441 91.836 l 4.441
 91.758 l 4.41 91.648 4.41 91.539 4.41 91.445 c 4.41 91.242 4.551 91.148
 4.941 91.148 c 7.02 91.148 l 7.691 91.18 7.785 91.258 7.801 91.867 c h
1.816 90.867 m 1.816 91.102 2.02 91.305 2.27 91.305 c 2.535 91.305 2.738
 91.117 2.738 90.867 c 2.738 90.586 2.535 90.398 2.27 90.398 c 2.02 90.398
 1.816 90.602 1.816 90.867 c h
1.816 90.867 m f
7.941 89.301 m 7.941 87.176 l 7.801 87.176 l 7.785 87.754 7.691 87.848 
7.191 87.863 c 1.832 87.863 l 1.816 87.895 l 1.957 88.348 2.051 88.676 2.207
 89.316 c 2.348 89.316 l 2.348 89.27 l 2.348 89.16 2.332 89.051 2.332 88.988
 c 2.332 88.691 2.457 88.613 2.879 88.613 c 7.16 88.613 l 7.645 88.613 7.77
 88.738 7.801 89.301 c h
7.941 89.301 m f
9.207 86.219 m 8.91 85.625 8.363 85.219 7.832 85.219 c 7.379 85.219 7.02
 85.531 7.02 85.938 c 7.02 86.25 7.238 86.469 7.535 86.469 c 7.832 86.469
 7.988 86.266 7.988 85.938 c 7.988 85.875 7.988 85.812 7.973 85.766 c 7.957
 85.719 7.957 85.703 7.957 85.688 c 7.957 85.625 8.02 85.562 8.082 85.562
 c 8.379 85.562 8.707 85.828 9.035 86.312 c h
9.207 86.219 m f
7.02 76.867 m 6.926 76.992 l 7.16 77.18 7.598 77.508 7.598 77.695 c 7.598
 77.773 7.551 77.82 7.441 77.82 c 7.348 77.82 7.129 77.742 6.957 77.695 
c 6.957 77.695 5.004 77.164 4.957 77.164 c 4.77 77.102 4.582 77.07 4.457
 77.07 c 4.004 77.07 3.848 77.352 3.848 77.57 c 3.848 78.305 4.816 79.133
 5.848 79.711 c 5.848 79.711 4.801 79.383 4.441 79.383 c 4.207 79.383 3.848
 79.477 3.848 79.898 c 3.848 80.727 5.441 81.758 5.848 81.977 c 3.848 81.445
 l 3.848 81.445 4.082 82.664 4.098 82.93 c 4.254 82.93 l 4.254 82.602 4.223
 82.336 4.582 82.336 c 4.754 82.336 5.035 82.414 5.316 82.492 c 5.316 82.492
 7.707 83.211 7.941 83.258 c 7.941 82.57 l 7.348 82.414 l 5.41 81.898 4.348
 80.648 4.348 80.305 c 4.348 80.164 4.395 80.07 4.598 80.07 c 4.738 80.07
 5.145 80.18 5.41 80.242 c 5.41 80.242 7.629 80.867 7.941 80.945 c 7.941
 80.273 l 7.348 80.117 l 5.332 79.57 4.348 78.352 4.348 77.992 c 4.348 77.867
 4.441 77.773 4.582 77.773 c 4.676 77.773 5.082 77.867 5.41 77.961 c 6.754
 78.32 l 7.082 78.414 7.488 78.492 7.629 78.492 c 7.863 78.492 8.051 78.367
 8.051 78.164 c 8.051 77.711 7.535 77.227 7.02 76.867 c h
7.02 76.867 m f
1.219 74.199 m 1 74.199 0.844 74.434 0.844 74.652 c 0.844 74.809 0.922 
74.949 1.141 75.012 c 4.328 75.949 l 4.406 75.746 l 1.391 74.246 l 1.328
 74.23 1.281 74.199 1.219 74.199 c h
1.219 74.199 m f
6.457 76.043 m 6.488 75.465 6.566 75.387 7.082 75.387 c 10.176 75.387 l
 10.707 75.387 10.785 75.48 10.816 76.043 c 10.941 76.043 l 10.941 73.715
 l 10.941 73.184 10.801 72.684 10.551 72.418 c 10.332 72.168 10.02 72.043
 9.691 72.043 c 9.379 72.043 9.098 72.152 8.895 72.371 c 8.707 72.59 8.629
 72.777 8.52 73.23 c 8.426 72.871 8.363 72.715 8.207 72.559 c 8.051 72.371
 7.801 72.277 7.52 72.277 c 6.738 72.277 6.332 72.902 6.332 74.105 c 6.332
 76.043 l h
8.676 74.668 m 8.676 73.996 8.707 73.668 8.816 73.418 c 8.973 73.027 9.27
 72.84 9.691 72.84 c 10.066 72.84 10.348 72.98 10.504 73.262 c 10.629 73.48
 10.676 73.777 10.676 74.23 c 10.676 74.574 10.613 74.668 10.395 74.668 
c h
8.395 74.668 m 6.801 74.668 l 6.645 74.668 6.598 74.637 6.598 74.512 c 
6.582 74.215 l 6.566 73.434 6.926 72.98 7.535 72.98 c 8.098 72.98 8.379 
73.34 8.395 74.012 c h
8.395 74.668 m f
5.723 62.148 m 5.645 62.148 l 5.301 63.383 4.254 64.727 3.723 64.961 c 
3.723 65.195 l 4.613 64.852 5.191 64.055 5.457 63.648 c 5.457 70.508 l 5.91
 70.508 l 5.91 63.648 l 6.176 64.055 6.754 64.852 7.629 65.195 c 7.629 64.961
 l 7.113 64.727 6.051 63.383 5.723 62.148 c h
5.723 62.148 m f
7.02 55.148 m 6.926 55.273 l 7.16 55.461 7.598 55.789 7.598 55.977 c 7.598
 56.055 7.551 56.102 7.441 56.102 c 7.348 56.102 7.129 56.023 6.957 55.977
 c 6.957 55.977 5.004 55.445 4.957 55.445 c 4.77 55.383 4.582 55.352 4.457
 55.352 c 4.004 55.352 3.848 55.633 3.848 55.852 c 3.848 56.586 4.816 57.414
 5.848 57.992 c 5.848 57.992 4.801 57.664 4.441 57.664 c 4.207 57.664 3.848
 57.758 3.848 58.18 c 3.848 59.008 5.441 60.039 5.848 60.258 c 3.848 59.727
 l 3.848 59.727 4.082 60.945 4.098 61.211 c 4.254 61.211 l 4.254 60.883 
4.223 60.617 4.582 60.617 c 4.754 60.617 5.035 60.695 5.316 60.773 c 5.316
 60.773 7.707 61.492 7.941 61.539 c 7.941 60.852 l 7.348 60.695 l 5.41 60.18
 4.348 58.93 4.348 58.586 c 4.348 58.445 4.395 58.352 4.598 58.352 c 4.738
 58.352 5.145 58.461 5.41 58.523 c 5.41 58.523 7.629 59.148 7.941 59.227
 c 7.941 58.555 l 7.348 58.398 l 5.332 57.852 4.348 56.633 4.348 56.273 
c 4.348 56.148 4.441 56.055 4.582 56.055 c 4.676 56.055 5.082 56.148 5.41
 56.242 c 6.754 56.602 l 7.082 56.695 7.488 56.773 7.629 56.773 c 7.863 
56.773 8.051 56.648 8.051 56.445 c 8.051 55.992 7.535 55.508 7.02 55.148
 c h
7.02 55.148 m f
1.219 52.48 m 1 52.48 0.844 52.715 0.844 52.934 c 0.844 53.09 0.922 53.23
 1.141 53.293 c 4.328 54.23 l 4.406 54.027 l 1.391 52.527 l 1.328 52.512
 1.281 52.48 1.219 52.48 c h
1.219 52.48 m f
1.219 50.438 m 1 50.438 0.844 50.672 0.844 50.891 c 0.844 51.047 0.922 
51.188 1.141 51.25 c 4.328 52.188 l 4.406 51.984 l 1.391 50.484 l 1.328 
50.469 1.281 50.438 1.219 50.438 c h
1.219 50.438 m f
6.461 54.324 m 6.492 53.746 6.57 53.668 7.086 53.668 c 10.18 53.668 l 10.711
 53.668 10.789 53.762 10.82 54.324 c 10.945 54.324 l 10.945 51.996 l 10.945
 51.465 10.805 50.965 10.555 50.699 c 10.336 50.449 10.023 50.324 9.695 
50.324 c 9.383 50.324 9.102 50.434 8.898 50.652 c 8.711 50.871 8.633 51.059
 8.523 51.512 c 8.43 51.152 8.367 50.996 8.211 50.84 c 8.055 50.652 7.805
 50.559 7.523 50.559 c 6.742 50.559 6.336 51.184 6.336 52.387 c 6.336 54.324
 l h
8.68 52.949 m 8.68 52.277 8.711 51.949 8.82 51.699 c 8.977 51.309 9.273
 51.121 9.695 51.121 c 10.07 51.121 10.352 51.262 10.508 51.543 c 10.633
 51.762 10.68 52.059 10.68 52.512 c 10.68 52.855 10.617 52.949 10.398 52.949
 c h
8.398 52.949 m 6.805 52.949 l 6.648 52.949 6.602 52.918 6.602 52.793 c 
6.586 52.496 l 6.57 51.715 6.93 51.262 7.539 51.262 c 8.102 51.262 8.383
 51.621 8.398 52.293 c h
8.398 52.949 m f
5.695 46.695 m 3.836 46.695 2.383 47.57 1.508 49.148 c 1.68 49.148 l 2.32
 48.055 3.57 47.555 5.695 47.555 c 7.805 47.555 9.055 48.055 9.711 49.148
 c 9.867 49.148 l 9.086 47.602 7.555 46.695 5.695 46.695 c h
5.695 46.695 m f
1.508 42.02 m 1.508 42.457 l 9.867 45.566 l 9.867 45.113 l h
1.508 42.02 m f
7.945 41.426 m 7.945 39.332 l 7.805 39.332 l 7.805 39.504 l 7.773 39.879
 7.68 39.988 7.352 40.004 c 5.695 40.004 l 7.367 38.738 l 7.414 38.707 7.461
 38.676 7.492 38.66 c 7.57 38.582 7.633 38.551 7.68 38.551 c 7.758 38.551
 7.805 38.629 7.805 38.738 c 7.805 38.91 l 7.945 38.91 l 7.945 36.957 l 
7.805 36.957 l 7.789 37.348 7.617 37.629 7.148 38.004 c 5.414 39.379 l 5.18
 39.113 l 4.164 38.004 4.023 37.754 4.039 37.176 c 3.914 37.176 l 3.914 
39.02 l 4.039 39.02 l 4.039 38.66 4.086 38.566 4.195 38.566 c 4.273 38.566
 4.398 38.645 4.508 38.77 c 5.602 40.004 l 1.836 40.004 l 1.82 40.035 l 
1.93 40.379 2.008 40.645 2.148 41.16 c 2.211 41.426 l 2.352 41.426 l 2.352
 41.316 2.336 41.223 2.336 41.145 c 2.336 40.832 2.461 40.754 2.883 40.754
 c 7.211 40.754 l 7.68 40.77 7.711 40.785 7.805 41.426 c h
7.945 41.426 m f
2.008 33.734 m 2.008 36.297 l 2.18 36.297 l 2.227 35.578 2.32 35.484 2.992
 35.469 c 7.133 35.469 l 7.539 35.469 7.727 35.578 7.727 35.812 c 7.727 
35.938 7.664 35.984 7.43 36.047 c 7.117 36.141 6.977 36.281 6.977 36.516
 c 6.977 36.766 7.18 36.953 7.43 36.953 c 7.805 36.953 8.07 36.594 8.07 
36.062 c 8.07 35.094 7.43 34.547 6.305 34.547 c 2.992 34.547 l 2.32 34.531
 2.227 34.453 2.18 33.734 c h
2.008 33.734 m f
7.945 31.867 m 7.945 29.867 l 7.805 29.867 l 7.805 30.336 7.711 30.477 
7.352 30.477 c 4.82 30.477 l 4.805 30.477 4.711 30.414 4.648 30.352 c 4.445
 30.117 4.289 29.742 4.289 29.43 c 4.289 29.023 4.602 28.836 5.227 28.836
 c 7.18 28.836 l 7.68 28.852 7.789 28.945 7.805 29.445 c 7.945 29.445 l 
7.945 27.43 l 7.805 27.43 l 7.805 27.93 7.664 28.055 7.086 28.086 c 4.836
 28.086 l 4.445 27.805 4.289 27.523 4.289 27.102 c 4.289 26.586 4.523 26.43
 5.273 26.43 c 7.164 26.43 l 7.695 26.445 7.758 26.508 7.805 27.023 c 7.945
 27.023 l 7.945 25.055 l 7.805 25.055 l 7.789 25.289 l 7.742 25.57 7.617
 25.68 7.258 25.68 c 5.414 25.68 l 4.352 25.68 3.82 26.023 3.82 26.711 c
 3.82 27.242 4.055 27.695 4.57 28.18 c 4.055 28.336 3.82 28.648 3.82 29.133
 c 3.82 29.539 3.93 29.773 4.508 30.523 c 3.836 30.523 l 3.82 30.586 l 3.992
 31.055 4.086 31.367 4.227 31.836 c 4.383 31.836 l 4.352 31.727 4.336 31.648
 4.336 31.555 c 4.336 31.32 4.477 31.242 4.914 31.242 c 7.18 31.242 l 7.68
 31.258 7.805 31.367 7.805 31.867 c h
7.945 31.867 m f
3.82 22.797 m 3.82 23.984 4.68 24.781 5.914 24.781 c 7.133 24.781 8.039
 23.953 8.039 22.828 c 8.039 21.688 7.086 20.828 5.852 20.828 c 4.664 20.828
 3.82 21.656 3.82 22.797 c h
4.07 22.922 m 4.07 22.172 4.93 21.641 6.164 21.641 c 7.18 21.641 7.789 
22.047 7.789 22.719 c 7.789 23.062 7.57 23.391 7.211 23.578 c 6.742 23.844
 6.117 23.984 5.477 23.984 c 4.633 23.984 4.07 23.562 4.07 22.922 c h
4.07 22.922 m f
7.945 20.418 m 7.945 18.293 l 7.805 18.293 l 7.789 18.871 7.695 18.965 
7.195 18.98 c 1.836 18.98 l 1.82 19.012 l 1.961 19.465 2.055 19.793 2.211
 20.434 c 2.352 20.434 l 2.352 20.387 l 2.352 20.277 2.336 20.168 2.336 
20.105 c 2.336 19.809 2.461 19.73 2.883 19.73 c 7.164 19.73 l 7.648 19.73
 7.773 19.855 7.805 20.418 c h
7.945 20.418 m f
2.469 12.961 0.438 4.703 re f
4.703 9.41 m 4.516 9.41 l 4.516 9.941 4.516 10.113 3.672 10.113 c 3.656
 10.113 0 10.113 0 10.113 c 0 10.285 l 0.578 11.629 l 0.766 11.551 l 0.641
 11.238 0.625 11.176 0.625 11.082 c 0.625 10.879 0.797 10.863 1 10.863 c
 3.672 10.863 l 4.516 10.863 4.5 11.02 4.516 11.551 c 4.703 11.551 l h
4.703 9.41 m f
1 J
q 1 0 0 -1 0 0 cm
37.16 -108.785 m 37.18 -108.785 l 38.945 -108.785 m 38.961 -108.785 l 40.73
 -108.785 m 40.746 -108.785 l 42.512 -108.785 m 42.531 -108.785 l 44.297
 -108.785 m 44.316 -108.785 l 46.082 -108.785 m 46.098 -108.785 l 47.867
 -108.785 m 47.883 -108.785 l 49.648 -108.785 m 49.668 -108.785 l 51.434
 -108.785 m 51.453 -108.785 l 53.219 -108.785 m 53.234 -108.785 l 55.004
 -108.785 m 55.02 -108.785 l 56.785 -108.785 m 56.805 -108.785 l 58.57 -108.785
 m 58.59 -108.785 l 60.355 -108.785 m 60.371 -108.785 l 62.141 -108.785 
m 62.156 -108.785 l 63.922 -108.785 m 63.941 -108.785 l 65.707 -108.785 
m 65.727 -108.785 l 67.492 -108.785 m 67.512 -108.785 l 69.277 -108.785 
m 69.293 -108.785 l 71.059 -108.785 m 71.078 -108.785 l 72.844 -108.785 
m 72.863 -108.785 l 74.629 -108.785 m 74.645 -108.785 l 76.414 -108.785 
m 76.43 -108.785 l 78.195 -108.785 m 78.215 -108.785 l 79.98 -108.785 m 
80 -108.785 l 81.766 -108.785 m 81.785 -108.785 l 83.551 -108.785 m 83.566
 -108.785 l 85.336 -108.785 m 85.352 -108.785 l 87.117 -108.785 m 87.137
 -108.785 l 88.902 -108.785 m 88.918 -108.785 l 90.688 -108.785 m 90.703
 -108.785 l 92.469 -108.785 m 92.488 -108.785 l 94.254 -108.785 m 94.273
 -108.785 l 96.039 -108.785 m 96.055 -108.785 l 97.824 -108.785 m 97.84 
-108.785 l 99.605 -108.785 m 99.625 -108.785 l 101.391 -108.785 m 101.41
 -108.785 l 103.176 -108.785 m 103.191 -108.785 l 104.961 -108.785 m 104.977
 -108.785 l 106.742 -108.785 m 106.762 -108.785 l 108.527 -108.785 m 108.547
 -108.785 l 110.312 -108.785 m 110.328 -108.785 l 112.098 -108.785 m 112.113
 -108.785 l 113.883 -108.785 m 113.898 -108.785 l 115.664 -108.785 m 115.684
 -108.785 l 117.449 -108.785 m 117.469 -108.785 l 119.234 -108.785 m 119.25
 -108.785 l 121.02 -108.785 m 121.035 -108.785 l 122.801 -108.785 m 122.82
 -108.785 l 124.586 -108.785 m 124.605 -108.785 l 126.371 -108.785 m 126.387
 -108.785 l 128.152 -108.785 m 128.172 -108.785 l 129.938 -108.785 m 129.957
 -108.785 l 131.723 -108.785 m 131.738 -108.785 l 133.508 -108.785 m 133.523
 -108.785 l 135.289 -108.785 m 135.309 -108.785 l 137.074 -108.785 m 137.094
 -108.785 l 138.859 -108.785 m 138.879 -108.785 l 140.645 -108.785 m 140.66
 -108.785 l 142.43 -108.785 m 142.445 -108.785 l 144.211 -108.785 m 144.23
 -108.785 l 145.996 -108.785 m 146.016 -108.785 l 147.781 -108.785 m 147.797
 -108.785 l 149.566 -108.785 m 149.582 -108.785 l 151.348 -108.785 m 151.367
 -108.785 l 153.133 -108.785 m 153.152 -108.785 l 154.918 -108.785 m 154.934
 -108.785 l 156.703 -108.785 m 156.719 -108.785 l 158.484 -108.785 m 158.504
 -108.785 l S Q
0 J
q 1 0 0 -1 0 0 cm
155.012 -108.785 m 159.312 -108.785 l S Q
165.074 105.715 m 164.574 105.715 164.199 105.855 163.871 106.184 c 163.355
 106.684 163.012 107.715 163.012 108.762 c 163.012 109.746 163.309 110.793
 163.73 111.293 c 164.059 111.684 164.512 111.902 165.043 111.902 c 165.496
 111.902 165.871 111.746 166.199 111.434 c 166.715 110.949 167.059 109.902
 167.059 108.824 c 167.059 106.98 166.246 105.715 165.074 105.715 c h
165.043 105.949 m 165.793 105.949 166.199 106.965 166.199 108.84 c 166.199
 110.715 165.809 111.668 165.043 111.668 c 164.262 111.668 163.871 110.715
 163.871 108.84 c 163.871 106.934 164.277 105.949 165.043 105.949 c h
165.043 105.949 m f
0.567043 w
q 1 0 0 -1 0 0 cm
155.027 -88.375 m 159.305 -88.375 l S Q
165.074 85.305 m 164.574 85.305 164.199 85.445 163.871 85.773 c 163.355
 86.273 163.012 87.305 163.012 88.352 c 163.012 89.336 163.309 90.383 163.73
 90.883 c 164.059 91.273 164.512 91.492 165.043 91.492 c 165.496 91.492 
165.871 91.336 166.199 91.023 c 166.715 90.539 167.059 89.492 167.059 88.414
 c 167.059 86.57 166.246 85.305 165.074 85.305 c h
165.043 85.539 m 165.793 85.539 166.199 86.555 166.199 88.43 c 166.199 
90.305 165.809 91.258 165.043 91.258 c 164.262 91.258 163.871 90.305 163.871
 88.43 c 163.871 86.523 164.277 85.539 165.043 85.539 c h
165.043 85.539 m f
168.359 90.477 m 168.094 90.477 167.859 90.695 167.859 90.977 c 167.859
 91.242 168.094 91.461 168.344 91.461 c 168.625 91.461 168.859 91.258 168.859
 90.977 c 168.859 90.711 168.625 90.477 168.359 90.477 c h
168.359 90.477 m f
173.777 90.133 m 173.652 90.086 l 173.324 90.617 173.23 90.68 172.809 90.68
 c 170.652 90.68 l 172.168 89.102 l 172.965 88.273 173.309 87.586 173.309
 86.898 c 173.309 85.992 172.59 85.305 171.652 85.305 c 171.168 85.305 170.699
 85.508 170.371 85.867 c 170.074 86.164 169.949 86.445 169.793 87.086 c 
169.98 87.133 l 170.34 86.258 170.652 85.961 171.277 85.961 c 172.043 85.961
 172.543 86.477 172.543 87.227 c 172.543 87.945 172.137 88.773 171.371 89.57
 c 169.777 91.258 l 169.777 91.367 l 173.277 91.367 l h
173.777 90.133 m f
q 1 0 0 -1 0 0 cm
155 -67.969 m 159.297 -67.969 l S Q
165.074 64.895 m 164.574 64.895 164.199 65.035 163.871 65.363 c 163.355
 65.863 163.012 66.895 163.012 67.941 c 163.012 68.926 163.309 69.973 163.73
 70.473 c 164.059 70.863 164.512 71.082 165.043 71.082 c 165.496 71.082 
165.871 70.926 166.199 70.613 c 166.715 70.129 167.059 69.082 167.059 68.004
 c 167.059 66.16 166.246 64.895 165.074 64.895 c h
165.043 65.129 m 165.793 65.129 166.199 66.145 166.199 68.02 c 166.199 
69.895 165.809 70.848 165.043 70.848 c 164.262 70.848 163.871 69.895 163.871
 68.02 c 163.871 66.113 164.277 65.129 165.043 65.129 c h
165.043 65.129 m f
168.359 70.066 m 168.094 70.066 167.859 70.285 167.859 70.566 c 167.859
 70.832 168.094 71.051 168.344 71.051 c 168.625 71.051 168.859 70.848 168.859
 70.566 c 168.859 70.301 168.625 70.066 168.359 70.066 c h
168.359 70.066 m f
173.746 68.879 m 172.824 68.879 l 172.824 64.895 l 172.434 64.895 l 169.621
 68.879 l 169.621 69.457 l 172.137 69.457 l 172.137 70.957 l 172.824 70.957
 l 172.824 69.457 l 173.746 69.457 l h
172.137 68.879 m 169.98 68.879 l 172.137 65.816 l h
172.137 68.879 m f
0.567044 w
q 1 0 0 -1 0 0 cm
155.023 -47.543 m 159.301 -47.543 l S Q
165.074 44.484 m 164.574 44.484 164.199 44.625 163.871 44.953 c 163.355
 45.453 163.012 46.484 163.012 47.531 c 163.012 48.516 163.309 49.562 163.73
 50.062 c 164.059 50.453 164.512 50.672 165.043 50.672 c 165.496 50.672 
165.871 50.516 166.199 50.203 c 166.715 49.719 167.059 48.672 167.059 47.594
 c 167.059 45.75 166.246 44.484 165.074 44.484 c h
165.043 44.719 m 165.793 44.719 166.199 45.734 166.199 47.609 c 166.199
 49.484 165.809 50.438 165.043 50.438 c 164.262 50.438 163.871 49.484 163.871
 47.609 c 163.871 45.703 164.277 44.719 165.043 44.719 c h
165.043 44.719 m f
168.359 49.656 m 168.094 49.656 167.859 49.875 167.859 50.156 c 167.859
 50.422 168.094 50.641 168.344 50.641 c 168.625 50.641 168.859 50.438 168.859
 50.156 c 168.859 49.891 168.625 49.656 168.359 49.656 c h
168.359 49.656 m f
173.512 44.406 m 172.496 44.5 171.965 44.672 171.309 45.125 c 170.34 45.812
 169.824 46.844 169.824 48.047 c 169.824 48.828 170.059 49.609 170.449 50.062
 c 170.793 50.453 171.277 50.672 171.824 50.672 c 172.934 50.672 173.715
 49.828 173.715 48.578 c 173.715 47.422 173.059 46.703 172.012 46.703 c 
171.621 46.703 171.434 46.766 170.871 47.109 c 171.121 45.75 172.121 44.781
 173.527 44.562 c h
171.684 47.125 m 172.465 47.125 172.902 47.766 172.902 48.891 c 172.902
 49.875 172.559 50.422 171.918 50.422 c 171.137 50.422 170.652 49.578 170.652
 48.188 c 170.652 47.734 170.715 47.484 170.902 47.344 c 171.09 47.203 171.371
 47.125 171.684 47.125 c h
171.684 47.125 m f
0.567042 w
q 1 0 0 -1 0 0 cm
155.027 -27.137 m 159.32 -27.137 l S Q
165.074 24.074 m 164.574 24.074 164.199 24.215 163.871 24.543 c 163.355
 25.043 163.012 26.074 163.012 27.121 c 163.012 28.105 163.309 29.152 163.73
 29.652 c 164.059 30.043 164.512 30.262 165.043 30.262 c 165.496 30.262 
165.871 30.105 166.199 29.793 c 166.715 29.309 167.059 28.262 167.059 27.184
 c 167.059 25.34 166.246 24.074 165.074 24.074 c h
165.043 24.309 m 165.793 24.309 166.199 25.324 166.199 27.199 c 166.199
 29.074 165.809 30.027 165.043 30.027 c 164.262 30.027 163.871 29.074 163.871
 27.199 c 163.871 25.293 164.277 24.309 165.043 24.309 c h
165.043 24.309 m f
168.359 29.246 m 168.094 29.246 167.859 29.465 167.859 29.746 c 167.859
 30.012 168.094 30.23 168.344 30.23 c 168.625 30.23 168.859 30.027 168.859
 29.746 c 168.859 29.48 168.625 29.246 168.359 29.246 c h
168.359 29.246 m f
172.105 26.809 m 173.012 26.324 173.309 25.965 173.309 25.34 c 173.309 
24.605 172.684 24.074 171.777 24.074 c 170.793 24.074 170.074 24.668 170.074
 25.496 c 170.074 26.074 170.23 26.34 171.184 27.152 c 170.199 27.902 170.012
 28.168 170.012 28.777 c 170.012 29.668 170.715 30.262 171.73 30.262 c 172.809
 30.262 173.496 29.668 173.496 28.746 c 173.496 28.059 173.199 27.621 172.105
 26.809 c h
171.949 27.73 m 172.605 28.199 172.824 28.527 172.824 29.027 c 172.824 
29.605 172.418 30.012 171.84 30.012 c 171.152 30.012 170.699 29.496 170.699
 28.715 c 170.699 28.137 170.887 27.762 171.418 27.34 c h
171.855 26.652 m 171.059 26.121 170.73 25.715 170.73 25.215 c 170.73 24.699
 171.137 24.324 171.699 24.324 c 172.309 24.324 172.699 24.715 172.699 25.34
 c 172.699 25.887 172.465 26.246 171.855 26.652 c h
171.855 26.652 m f
0.567043 w
q 1 0 0 -1 0 0 cm
155.035 -6.73 m 159.309 -6.73 l S Q
163.855 9.738 m 166.324 9.738 l 166.324 9.598 l 165.637 9.598 165.48 9.504
 165.48 9.082 c 165.48 3.691 l 165.402 3.676 l 163.793 4.488 l 163.793 4.613
 l 164.137 4.488 164.355 4.426 164.434 4.426 c 164.621 4.426 164.699 4.551
 164.699 4.848 c 164.699 8.91 l 164.684 9.473 164.527 9.598 163.855 9.598
 c h
163.855 9.738 m f
168.359 8.848 m 168.094 8.848 167.859 9.066 167.859 9.348 c 167.859 9.613
 168.094 9.832 168.344 9.832 c 168.625 9.832 168.859 9.629 168.859 9.348
 c 168.859 9.082 168.625 8.848 168.359 8.848 c h
168.359 8.848 m f
171.793 3.676 m 171.293 3.676 170.918 3.816 170.59 4.145 c 170.074 4.645
 169.73 5.676 169.73 6.723 c 169.73 7.707 170.027 8.754 170.449 9.254 c 
170.777 9.645 171.23 9.863 171.762 9.863 c 172.215 9.863 172.59 9.707 172.918
 9.395 c 173.434 8.91 173.777 7.863 173.777 6.785 c 173.777 4.941 172.965
 3.676 171.793 3.676 c h
171.762 3.91 m 172.512 3.91 172.918 4.926 172.918 6.801 c 172.918 8.676
 172.527 9.629 171.762 9.629 c 170.98 9.629 170.59 8.676 170.59 6.801 c 
170.59 4.895 170.996 3.91 171.762 3.91 c h
171.762 3.91 m f
182.504 82.883 m 181.191 82.883 180.926 84.32 180.91 84.898 c 180.395 84.836
 180.16 84.477 180.145 84.07 c 179.957 84.023 l 179.957 86.164 l 180.145
 86.195 l 180.16 85.93 180.285 85.664 180.645 85.664 c 180.707 85.664 180.816
 85.68 180.91 85.711 c 180.973 87.664 182.285 88.773 183.441 88.773 c 184.504
 88.742 184.91 87.883 185.02 86.742 c 185.488 86.789 185.785 87.164 185.816
 87.586 c 186.004 87.633 l 186.004 85.492 l 185.816 85.461 l 185.801 85.727
 185.66 85.992 185.316 85.992 c 185.238 85.992 185.145 85.961 185.035 85.93
 c 184.895 83.93 183.676 82.883 182.504 82.883 c h
182.52 83.648 m 184.051 83.648 184.613 85.273 184.645 85.82 c 181.316 85.008
 l 181.332 84.305 181.832 83.648 182.52 83.648 c h
181.301 85.82 m 184.645 86.648 l 184.582 87.289 184.176 88.008 183.363 
88.008 c 181.816 88.008 181.316 86.383 181.301 85.82 c h
181.301 85.82 m f
186.68 78.137 m 186.68 78.402 l 187.57 78.793 187.805 79.246 187.805 80.043
 c 187.805 80.793 l 187.805 80.98 187.836 81.309 187.523 81.309 c 187.461
 81.309 187.195 81.246 187.117 81.215 c 184.055 80.324 l 183.555 80.184 
183.352 79.965 183.352 79.59 c 183.133 79.559 l 183.133 81.605 l 183.352
 81.637 l 183.352 81.355 183.352 81.043 183.648 81.043 c 183.758 81.043 
183.867 81.074 184.117 81.152 c 187.242 82.059 l 187.945 82.262 187.945 
82.543 187.945 82.84 c 188.164 82.871 l 188.164 78.668 l h
186.68 78.137 m f
179.566 73.223 m 179.566 73.66 l 187.926 76.77 l 187.926 76.316 l h
179.566 73.223 m f
186.004 72.625 m 186.004 70.531 l 185.863 70.531 l 185.863 70.703 l 185.832
 71.078 185.738 71.188 185.41 71.203 c 183.754 71.203 l 185.426 69.938 l
 185.473 69.906 185.52 69.875 185.551 69.859 c 185.629 69.781 185.691 69.75
 185.738 69.75 c 185.816 69.75 185.863 69.828 185.863 69.938 c 185.863 70.109
 l 186.004 70.109 l 186.004 68.156 l 185.863 68.156 l 185.848 68.547 185.676
 68.828 185.207 69.203 c 183.473 70.578 l 183.238 70.312 l 182.223 69.203
 182.082 68.953 182.098 68.375 c 181.973 68.375 l 181.973 70.219 l 182.098
 70.219 l 182.098 69.859 182.145 69.766 182.254 69.766 c 182.332 69.766 
182.457 69.844 182.566 69.969 c 183.66 71.203 l 179.895 71.203 l 179.879
 71.234 l 179.988 71.578 180.066 71.844 180.207 72.359 c 180.27 72.625 l
 180.41 72.625 l 180.41 72.516 180.395 72.422 180.395 72.344 c 180.395 72.031
 180.52 71.953 180.941 71.953 c 185.27 71.953 l 185.738 71.969 185.77 71.984
 185.863 72.625 c h
186.004 72.625 m f
180.066 64.934 m 180.066 67.496 l 180.238 67.496 l 180.285 66.777 180.379
 66.684 181.051 66.668 c 185.191 66.668 l 185.598 66.668 185.785 66.777 
185.785 67.012 c 185.785 67.137 185.723 67.184 185.488 67.246 c 185.176 
67.34 185.035 67.48 185.035 67.715 c 185.035 67.965 185.238 68.152 185.488
 68.152 c 185.863 68.152 186.129 67.793 186.129 67.262 c 186.129 66.293 
185.488 65.746 184.363 65.746 c 181.051 65.746 l 180.379 65.73 180.285 65.652
 180.238 64.934 c h
180.066 64.934 m f
186.004 63.066 m 186.004 61.066 l 185.863 61.066 l 185.863 61.535 185.77
 61.676 185.41 61.676 c 182.879 61.676 l 182.863 61.676 182.77 61.613 182.707
 61.551 c 182.504 61.316 182.348 60.941 182.348 60.629 c 182.348 60.223 
182.66 60.035 183.285 60.035 c 185.238 60.035 l 185.738 60.051 185.848 60.145
 185.863 60.645 c 186.004 60.645 l 186.004 58.629 l 185.863 58.629 l 185.863
 59.129 185.723 59.254 185.145 59.285 c 182.895 59.285 l 182.504 59.004 
182.348 58.723 182.348 58.301 c 182.348 57.785 182.582 57.629 183.332 57.629
 c 185.223 57.629 l 185.754 57.645 185.816 57.707 185.863 58.223 c 186.004
 58.223 l 186.004 56.254 l 185.863 56.254 l 185.848 56.488 l 185.801 56.77
 185.676 56.879 185.316 56.879 c 183.473 56.879 l 182.41 56.879 181.879 
57.223 181.879 57.91 c 181.879 58.441 182.113 58.895 182.629 59.379 c 182.113
 59.535 181.879 59.848 181.879 60.332 c 181.879 60.738 181.988 60.973 182.566
 61.723 c 181.895 61.723 l 181.879 61.785 l 182.051 62.254 182.145 62.566
 182.285 63.035 c 182.441 63.035 l 182.41 62.926 182.395 62.848 182.395 
62.754 c 182.395 62.52 182.535 62.441 182.973 62.441 c 185.238 62.441 l 
185.738 62.457 185.863 62.566 185.863 63.066 c h
186.004 63.066 m f
181.879 53.996 m 181.879 55.184 182.738 55.98 183.973 55.98 c 185.191 55.98
 186.098 55.152 186.098 54.027 c 186.098 52.887 185.145 52.027 183.91 52.027
 c 182.723 52.027 181.879 52.855 181.879 53.996 c h
182.129 54.121 m 182.129 53.371 182.988 52.84 184.223 52.84 c 185.238 52.84
 185.848 53.246 185.848 53.918 c 185.848 54.262 185.629 54.59 185.27 54.777
 c 184.801 55.043 184.176 55.184 183.535 55.184 c 182.691 55.184 182.129
 54.762 182.129 54.121 c h
182.129 54.121 m f
186.004 51.621 m 186.004 49.496 l 185.863 49.496 l 185.848 50.074 185.754
 50.168 185.254 50.184 c 179.895 50.184 l 179.879 50.215 l 180.02 50.668
 180.113 50.996 180.27 51.637 c 180.41 51.637 l 180.41 51.59 l 180.41 51.48
 180.395 51.371 180.395 51.309 c 180.395 51.012 180.52 50.934 180.941 50.934
 c 185.223 50.934 l 185.707 50.934 185.832 51.059 185.863 51.621 c h
186.004 51.621 m f
180.527 44.164 0.438 4.703 re f
182.762 40.609 m 182.574 40.609 l 182.574 41.141 182.574 41.312 181.73 
41.312 c 181.715 41.312 178.059 41.312 178.059 41.312 c 178.059 41.484 l
 178.637 42.828 l 178.824 42.75 l 178.699 42.438 178.684 42.375 178.684 
42.281 c 178.684 42.078 178.855 42.062 179.059 42.062 c 181.73 42.062 l 
182.574 42.062 182.559 42.219 182.574 42.75 c 182.762 42.75 l h
182.762 40.609 m f
0.85036 w
q 1 0 0 -1 0 0 cm
57.273 -88.461 m 57.273 -88.461 63.914 -82.027 67.461 -78.691 c 70.973 
-75.387 74.102 -72.398 77.684 -69.199 c 81.125 -66.07 84.324 -63.355 87.871
 -60.297 c 91.383 -57.305 94.547 -54.594 98.094 -51.641 c 101.57 -48.719
 104.734 -46.145 108.281 -43.258 c 111.793 -40.441 114.957 -37.906 118.504
 -35.09 c 122.016 -32.309 125.18 -29.84 128.691 -27.055 c 132.203 -24.273
 135.367 -21.773 138.914 -18.988 c 142.426 -16.207 145.59 -13.703 149.102
 -10.922 c 152.648 -8.105 159.324 -2.754 159.324 -2.754 c S Q
0.425175 w
q 1 0 0 -1 0 0 cm
36.852 -108.785 m 38.895 -106.746 l 39.914 -105.73 m 41.953 -103.691 l 
42.977 -102.672 m 45.016 -100.633 l 46.035 -99.617 m 48.078 -97.578 l 49.098
 -96.559 m 51.141 -94.523 l 52.16 -93.504 m 54.203 -91.465 l 55.223 -90.445
 m 57.262 -88.41 l S Q
1 g
61.77 86.797 m 61.77 85.777 60.941 84.949 59.922 84.949 c 58.902 84.949
 58.074 85.777 58.074 86.797 c 58.074 87.816 58.902 88.645 59.922 88.645
 c 60.941 88.645 61.77 87.816 61.77 86.797 c f
0 g
61.77 86.797 m 61.77 85.777 60.941 84.949 59.922 84.949 c 58.902 84.949
 58.074 85.777 58.074 86.797 c 58.074 87.816 58.902 88.645 59.922 88.645
 c 60.941 88.645 61.77 87.816 61.77 86.797 c h
61.77 86.797 m 61.582 86.797 l 61.582 85.879 60.84 85.137 59.922 85.137
 c 59.004 85.137 58.262 85.879 58.262 86.797 c 58.262 87.715 59.004 88.457
 59.922 88.457 c 60.84 88.457 61.582 87.715 61.582 86.797 c f
1 g
66.07 81.996 m 66.07 80.977 65.242 80.148 64.223 80.148 c 63.203 80.148
 62.375 80.977 62.375 81.996 c 62.375 83.016 63.203 83.844 64.223 83.844
 c 65.242 83.844 66.07 83.016 66.07 81.996 c f
0 g
66.07 81.996 m 66.07 80.977 65.242 80.148 64.223 80.148 c 63.203 80.148
 62.375 80.977 62.375 81.996 c 62.375 83.016 63.203 83.844 64.223 83.844
 c 65.242 83.844 66.07 83.016 66.07 81.996 c h
66.07 81.996 m 65.883 81.996 l 65.883 81.078 65.141 80.336 64.223 80.336
 c 63.305 80.336 62.562 81.078 62.562 81.996 c 62.562 82.914 63.305 83.656
 64.223 83.656 c 65.141 83.656 65.883 82.914 65.883 81.996 c f
1 g
77.871 70.996 m 77.871 69.977 77.043 69.148 76.023 69.148 c 75.004 69.148
 74.176 69.977 74.176 70.996 c 74.176 72.016 75.004 72.844 76.023 72.844
 c 77.043 72.844 77.871 72.016 77.871 70.996 c f
0 g
77.871 70.996 m 77.871 69.977 77.043 69.148 76.023 69.148 c 75.004 69.148
 74.176 69.977 74.176 70.996 c 74.176 72.016 75.004 72.844 76.023 72.844
 c 77.043 72.844 77.871 72.016 77.871 70.996 c h
77.871 70.996 m 77.684 70.996 l 77.684 70.078 76.941 69.336 76.023 69.336
 c 75.105 69.336 74.363 70.078 74.363 70.996 c 74.363 71.914 75.105 72.656
 76.023 72.656 c 76.941 72.656 77.684 71.914 77.684 70.996 c f
1 g
84.172 65.496 m 84.172 64.477 83.344 63.648 82.324 63.648 c 81.305 63.648
 80.477 64.477 80.477 65.496 c 80.477 66.516 81.305 67.344 82.324 67.344
 c 83.344 67.344 84.172 66.516 84.172 65.496 c f
0 g
84.172 65.496 m 84.172 64.477 83.344 63.648 82.324 63.648 c 81.305 63.648
 80.477 64.477 80.477 65.496 c 80.477 66.516 81.305 67.344 82.324 67.344
 c 83.344 67.344 84.172 66.516 84.172 65.496 c h
84.172 65.496 m 83.984 65.496 l 83.984 64.578 83.242 63.836 82.324 63.836
 c 81.406 63.836 80.664 64.578 80.664 65.496 c 80.664 66.414 81.406 67.156
 82.324 67.156 c 83.242 67.156 83.984 66.414 83.984 65.496 c f
1 g
86.27 62.398 m 86.27 61.379 85.441 60.551 84.422 60.551 c 83.402 60.551
 82.574 61.379 82.574 62.398 c 82.574 63.418 83.402 64.246 84.422 64.246
 c 85.441 64.246 86.27 63.418 86.27 62.398 c f
0 g
86.27 62.398 m 86.27 61.379 85.441 60.551 84.422 60.551 c 83.402 60.551
 82.574 61.379 82.574 62.398 c 82.574 63.418 83.402 64.246 84.422 64.246
 c 85.441 64.246 86.27 63.418 86.27 62.398 c h
86.27 62.398 m 86.082 62.398 l 86.082 61.48 85.34 60.738 84.422 60.738 
c 83.504 60.738 82.762 61.48 82.762 62.398 c 82.762 63.316 83.504 64.059
 84.422 64.059 c 85.34 64.059 86.082 63.316 86.082 62.398 c f
1 g
93.27 56.598 m 93.27 55.578 92.441 54.75 91.422 54.75 c 90.402 54.75 89.574
 55.578 89.574 56.598 c 89.574 57.617 90.402 58.445 91.422 58.445 c 92.441
 58.445 93.27 57.617 93.27 56.598 c f
0 g
93.27 56.598 m 93.27 55.578 92.441 54.75 91.422 54.75 c 90.402 54.75 89.574
 55.578 89.574 56.598 c 89.574 57.617 90.402 58.445 91.422 58.445 c 92.441
 58.445 93.27 57.617 93.27 56.598 c h
93.27 56.598 m 93.082 56.598 l 93.082 55.68 92.34 54.938 91.422 54.938 
c 90.504 54.938 89.762 55.68 89.762 56.598 c 89.762 57.516 90.504 58.258
 91.422 58.258 c 92.34 58.258 93.082 57.516 93.082 56.598 c f
1 g
107.371 45.598 m 107.371 44.578 106.543 43.75 105.523 43.75 c 104.504 43.75
 103.676 44.578 103.676 45.598 c 103.676 46.617 104.504 47.445 105.523 47.445
 c 106.543 47.445 107.371 46.617 107.371 45.598 c f
0 g
107.371 45.598 m 107.371 44.578 106.543 43.75 105.523 43.75 c 104.504 43.75
 103.676 44.578 103.676 45.598 c 103.676 46.617 104.504 47.445 105.523 47.445
 c 106.543 47.445 107.371 46.617 107.371 45.598 c h
107.371 45.598 m 107.184 45.598 l 107.184 44.68 106.441 43.938 105.523 
43.938 c 104.605 43.938 103.863 44.68 103.863 45.598 c 103.863 46.516 104.605
 47.258 105.523 47.258 c 106.441 47.258 107.184 46.516 107.184 45.598 c f
1 g
116.969 38.098 m 116.969 37.078 116.141 36.25 115.121 36.25 c 114.102 36.25
 113.273 37.078 113.273 38.098 c 113.273 39.117 114.102 39.945 115.121 39.945
 c 116.141 39.945 116.969 39.117 116.969 38.098 c f
0 g
116.969 38.098 m 116.969 37.078 116.141 36.25 115.121 36.25 c 114.102 36.25
 113.273 37.078 113.273 38.098 c 113.273 39.117 114.102 39.945 115.121 39.945
 c 116.141 39.945 116.969 39.117 116.969 38.098 c h
116.969 38.098 m 116.781 38.098 l 116.781 37.18 116.039 36.438 115.121 
36.438 c 114.203 36.438 113.461 37.18 113.461 38.098 c 113.461 39.016 114.203
 39.758 115.121 39.758 c 116.039 39.758 116.781 39.016 116.781 38.098 c f
1 g
129.77 27.699 m 129.77 26.68 128.941 25.852 127.922 25.852 c 126.902 25.852
 126.074 26.68 126.074 27.699 c 126.074 28.719 126.902 29.547 127.922 29.547
 c 128.941 29.547 129.77 28.719 129.77 27.699 c f
0 g
129.77 27.699 m 129.77 26.68 128.941 25.852 127.922 25.852 c 126.902 25.852
 126.074 26.68 126.074 27.699 c 126.074 28.719 126.902 29.547 127.922 29.547
 c 128.941 29.547 129.77 28.719 129.77 27.699 c h
129.77 27.699 m 129.582 27.699 l 129.582 26.781 128.84 26.039 127.922 26.039
 c 127.004 26.039 126.262 26.781 126.262 27.699 c 126.262 28.617 127.004
 29.359 127.922 29.359 c 128.84 29.359 129.582 28.617 129.582 27.699 c f
1 g
135.57 23.398 m 135.57 22.379 134.742 21.551 133.723 21.551 c 132.703 21.551
 131.875 22.379 131.875 23.398 c 131.875 24.418 132.703 25.246 133.723 25.246
 c 134.742 25.246 135.57 24.418 135.57 23.398 c f
0 g
135.57 23.398 m 135.57 22.379 134.742 21.551 133.723 21.551 c 132.703 21.551
 131.875 22.379 131.875 23.398 c 131.875 24.418 132.703 25.246 133.723 25.246
 c 134.742 25.246 135.57 24.418 135.57 23.398 c h
135.57 23.398 m 135.383 23.398 l 135.383 22.48 134.641 21.738 133.723 21.738
 c 132.805 21.738 132.062 22.48 132.062 23.398 c 132.062 24.316 132.805 
25.059 133.723 25.059 c 134.641 25.059 135.383 24.316 135.383 23.398 c f
1 g
149.57 11.496 m 149.57 10.477 148.742 9.648 147.723 9.648 c 146.703 9.648
 145.875 10.477 145.875 11.496 c 145.875 12.516 146.703 13.344 147.723 13.344
 c 148.742 13.344 149.57 12.516 149.57 11.496 c f
0 g
149.57 11.496 m 149.57 10.477 148.742 9.648 147.723 9.648 c 146.703 9.648
 145.875 10.477 145.875 11.496 c 145.875 12.516 146.703 13.344 147.723 13.344
 c 148.742 13.344 149.57 12.516 149.57 11.496 c h
149.57 11.496 m 149.383 11.496 l 149.383 10.578 148.641 9.836 147.723 9.836
 c 146.805 9.836 146.062 10.578 146.062 11.496 c 146.062 12.414 146.805 
13.156 147.723 13.156 c 148.641 13.156 149.383 12.414 149.383 11.496 c f
Q Q
showpage
%%Trailer
end
%%EOF
