%!PS-Adobe-3.0 EPSF-3.0
%%Creator: cairo 1.17.4 (https://cairographics.org)
%%CreationDate: Thu Feb 24 10:48:55 2022
%%Pages: 1
%%DocumentData: Clean7Bit
%%LanguageLevel: 2
%%BoundingBox: 0 0 361 80
%%EndComments
%%BeginProlog
50 dict begin
/q { gsave } bind def
/Q { grestore } bind def
/cm { 6 array astore concat } bind def
/w { setlinewidth } bind def
/J { setlinecap } bind def
/j { setlinejoin } bind def
/M { setmiterlimit } bind def
/d { setdash } bind def
/m { moveto } bind def
/l { lineto } bind def
/c { curveto } bind def
/h { closepath } bind def
/re { exch dup neg 3 1 roll 5 3 roll moveto 0 rlineto
      0 exch rlineto 0 rlineto closepath } bind def
/S { stroke } bind def
/f { fill } bind def
/f* { eofill } bind def
/n { newpath } bind def
/W { clip } bind def
/W* { eoclip } bind def
/BT { } bind def
/ET { } bind def
/BDC { mark 3 1 roll /BDC pdfmark } bind def
/EMC { mark /EMC pdfmark } bind def
/cairo_store_point { /cairo_point_y exch def /cairo_point_x exch def } def
/Tj { show currentpoint cairo_store_point } bind def
/TJ {
  {
    dup
    type /stringtype eq
    { show } { -0.001 mul 0 cairo_font_matrix dtransform rmoveto } ifelse
  } forall
  currentpoint cairo_store_point
} bind def
/cairo_selectfont { cairo_font_matrix aload pop pop pop 0 0 6 array astore
    cairo_font exch selectfont cairo_point_x cairo_point_y moveto } bind def
/Tf { pop /cairo_font exch def /cairo_font_matrix where
      { pop cairo_selectfont } if } bind def
/Td { matrix translate cairo_font_matrix matrix concatmatrix dup
      /cairo_font_matrix exch def dup 4 get exch 5 get cairo_store_point
      /cairo_font where { pop cairo_selectfont } if } bind def
/Tm { 2 copy 8 2 roll 6 array astore /cairo_font_matrix exch def
      cairo_store_point /cairo_font where { pop cairo_selectfont } if } bind def
/g { setgray } bind def
/rg { setrgbcolor } bind def
/d1 { setcachedevice } bind def
/cairo_data_source {
  CairoDataIndex CairoData length lt
    { CairoData CairoDataIndex get /CairoDataIndex CairoDataIndex 1 add def }
    { () } ifelse
} def
/cairo_flush_ascii85_file { cairo_ascii85_file status { cairo_ascii85_file flushfile } if } def
/cairo_image { image cairo_flush_ascii85_file } def
/cairo_imagemask { imagemask cairo_flush_ascii85_file } def
%%EndProlog
%%BeginSetup
%%EndSetup
%%Page: 1 1
%%BeginPageSetup
%%PageBoundingBox: 0 0 361 80
%%EndPageSetup
q 0 0 361 80 rectclip
1 0 0 -1 0 80 cm q
0 g
0.850361 w
0 J
0 j
[] 0.0 d
10 M q 1 0 0 -1 0 0 cm
1.277 -25.938 m 1.277 -24.098 l 37.562 -24.098 l 37.562 -27.781 l 1.277
 -27.781 l h
1.277 -25.938 m S Q
1 g
1.13366 w
q 1 0 0 -1 0 0 cm
1.277 -27.355 m 1.277 -24.52 l S Q
0 g
0.850361 w
q 1 0 0 -1 0 0 cm
1.277 -27.781 m 1.277 -27.781 0.371 -27.117 0.43 -26.648 c 0.473 -26.277
 0.984 -26.184 1.277 -25.938 c 1.57 -25.695 2.086 -25.598 2.129 -25.23 c
 2.184 -24.758 1.742 -24.098 1.277 -24.098 c 0.812 -24.098 0.371 -24.758
 0.43 -25.23 c 0.473 -25.598 1.277 -25.938 1.277 -25.938 c S Q
q 1 0 0 -1 0 0 cm
48.051 -25.938 m 48.051 -24.098 l 104.176 -24.098 l 104.176 -27.781 l 48.051
 -27.781 l h
48.051 -25.938 m S Q
1 g
1.13366 w
q 1 0 0 -1 0 0 cm
104.176 -27.355 m 104.176 -24.52 l S Q
0 g
0.850361 w
q 1 0 0 -1 0 0 cm
104.176 -27.781 m 104.176 -27.781 105.082 -27.117 105.027 -26.648 c 104.984
 -26.277 104.469 -26.184 104.176 -25.938 c 103.883 -25.695 103.367 -25.598
 103.324 -25.23 c 103.27 -24.758 103.711 -24.098 104.176 -24.098 c 104.641
 -24.098 105.082 -24.758 105.027 -25.23 c 104.984 -25.598 104.176 -25.938
 104.176 -25.938 c S Q
Q q
13.043 30.078 m 17.293 30.078 l 17.293 47.199 l 13.043 47.199 l h
13.043 47.199 m 61.914 47.199 l 61.914 51.449 l 13.043 51.449 l h
13.043 47.199 m W n
q
13 30 49 22 re W n
  q
0 g
0.510386 w
2 J
0 j
[] 0.0 d
10 M q 1 0 0 -1 0 0 cm
54.578 -89.285 m 3.273 -37.977 l S Q
  Q
Q
Q q
13.043 28.207 m 17.293 28.207 l 17.293 47.199 l 13.043 47.199 l h
13.043 47.199 m 64.914 47.199 l 64.914 51.449 l 13.043 51.449 l h
13.043 47.199 m W n
q
13 28 52 24 re W n
  q
0 g
0.510386 w
2 J
0 j
[] 0.0 d
10 M q 1 0 0 -1 0 0 cm
56.98 -86.883 m 5.672 -35.574 l S Q
  Q
Q
Q q
13.043 28.207 m 17.293 28.207 l 17.293 47.199 l 13.043 47.199 l h
13.043 47.199 m 66.914 47.199 l 66.914 51.449 l 13.043 51.449 l h
13.043 47.199 m W n
q
13 28 54 24 re W n
  q
0 g
0.510386 w
2 J
0 j
[] 0.0 d
10 M q 1 0 0 -1 0 0 cm
59.379 -84.484 m 8.07 -33.176 l S Q
  Q
Q
Q q
13.043 28.207 m 17.293 28.207 l 17.293 47.199 l 13.043 47.199 l h
13.043 47.199 m 69.914 47.199 l 69.914 51.449 l 13.043 51.449 l h
13.043 47.199 m W n
q
13 28 57 24 re W n
  q
0 g
0.510386 w
2 J
0 j
[] 0.0 d
10 M q 1 0 0 -1 0 0 cm
61.777 -82.082 m 10.473 -30.777 l S Q
  Q
Q
Q q
13.043 28.207 m 17.293 28.207 l 17.293 47.199 l 13.043 47.199 l h
13.043 47.199 m 71.914 47.199 l 71.914 51.449 l 13.043 51.449 l h
13.043 47.199 m W n
q
13 28 59 24 re W n
  q
0 g
0.510386 w
2 J
0 j
[] 0.0 d
10 M q 1 0 0 -1 0 0 cm
64.18 -79.684 m 12.871 -28.375 l S Q
  Q
Q
Q q
13.043 28.207 m 17.293 28.207 l 17.293 47.199 l 13.043 47.199 l h
13.043 47.199 m 73.914 47.199 l 73.914 51.449 l 13.043 51.449 l h
13.043 47.199 m W n
q
13 28 61 24 re W n
  q
0 g
0.510386 w
2 J
0 j
[] 0.0 d
10 M q 1 0 0 -1 0 0 cm
66.578 -77.285 m 15.273 -25.977 l S Q
  Q
Q
Q q
13.043 28.207 m 17.293 28.207 l 17.293 47.199 l 13.043 47.199 l h
13.043 47.199 m 76.914 47.199 l 76.914 51.449 l 13.043 51.449 l h
13.043 47.199 m W n
q
13 28 64 24 re W n
  q
0 g
0.510386 w
2 J
0 j
[] 0.0 d
10 M q 1 0 0 -1 0 0 cm
68.98 -74.883 m 17.672 -23.574 l S Q
  Q
Q
Q q
13.043 28.207 m 17.293 28.207 l 17.293 47.199 l 13.043 47.199 l h
13.043 47.199 m 78.914 47.199 l 78.914 51.449 l 13.043 51.449 l h
13.043 47.199 m W n
q
13 28 66 24 re W n
  q
0 g
0.510386 w
2 J
0 j
[] 0.0 d
10 M q 1 0 0 -1 0 0 cm
71.379 -72.484 m 20.07 -21.176 l S Q
  Q
Q
Q q
14.914 28.207 m 17.293 28.207 l 17.293 47.199 l 14.914 47.199 l h
14.914 47.199 m 81.914 47.199 l 81.914 51.449 l 14.914 51.449 l h
14.914 47.199 m W n
q
14 28 68 24 re W n
  q
0 g
0.510386 w
2 J
0 j
[] 0.0 d
10 M q 1 0 0 -1 0 0 cm
73.777 -70.082 m 22.473 -18.777 l S Q
  Q
Q
Q q
16.914 28.207 m 17.293 28.207 l 17.293 47.199 l 16.914 47.199 l h
16.914 47.199 m 83.914 47.199 l 83.914 51.449 l 16.914 51.449 l h
16.914 47.199 m W n
q
16 28 68 24 re W n
  q
0 g
0.510386 w
2 J
0 j
[] 0.0 d
10 M q 1 0 0 -1 0 0 cm
76.18 -67.684 m 24.871 -16.375 l S Q
  Q
Q
Q q
19.914 47.199 66 4.25 re W n
q
19 47 67 5 re W n
  q
0 g
0.510386 w
2 J
0 j
[] 0.0 d
10 M q 1 0 0 -1 0 0 cm
78.578 -65.285 m 27.273 -13.977 l S Q
  Q
Q
Q q
88.16 28.207 m 88.914 28.207 l 88.914 47.199 l 88.16 47.199 l h
21.914 47.199 m 88.914 47.199 l 88.914 51.449 l 21.914 51.449 l h
21.914 47.199 m W n
q
21 28 68 24 re W n
  q
0 g
0.510386 w
2 J
0 j
[] 0.0 d
10 M q 1 0 0 -1 0 0 cm
80.98 -62.883 m 29.672 -11.574 l S Q
  Q
Q
Q q
88.16 28.207 m 90.914 28.207 l 90.914 47.199 l 88.16 47.199 l h
23.914 47.199 m 90.914 47.199 l 90.914 51.449 l 23.914 51.449 l h
23.914 47.199 m W n
q
23 28 68 24 re W n
  q
0 g
0.510386 w
2 J
0 j
[] 0.0 d
10 M q 1 0 0 -1 0 0 cm
83.379 -60.484 m 32.07 -9.176 l S Q
  Q
Q
Q q
88.16 28.207 m 92.41 28.207 l 92.41 47.199 l 88.16 47.199 l h
26.914 47.199 m 92.41 47.199 l 92.41 51.449 l 26.914 51.449 l h
26.914 47.199 m W n
q
26 28 67 24 re W n
  q
0 g
0.510386 w
2 J
0 j
[] 0.0 d
10 M q 1 0 0 -1 0 0 cm
85.777 -58.082 m 34.473 -6.777 l S Q
  Q
Q
Q q
88.16 28.207 m 92.41 28.207 l 92.41 47.199 l 88.16 47.199 l h
28.914 47.199 m 92.41 47.199 l 92.41 51.449 l 28.914 51.449 l h
28.914 47.199 m W n
q
28 28 65 24 re W n
  q
0 g
0.510386 w
2 J
0 j
[] 0.0 d
10 M q 1 0 0 -1 0 0 cm
88.18 -55.684 m 36.871 -4.375 l S Q
  Q
Q
Q q
88.16 28.207 m 92.41 28.207 l 92.41 47.199 l 88.16 47.199 l h
31.914 47.199 m 92.41 47.199 l 92.41 51.449 l 31.914 51.449 l h
31.914 47.199 m W n
q
31 28 62 24 re W n
  q
0 g
0.510386 w
2 J
0 j
[] 0.0 d
10 M q 1 0 0 -1 0 0 cm
90.578 -53.285 m 39.273 -1.977 l S Q
  Q
Q
Q q
88.16 28.207 m 92.41 28.207 l 92.41 47.199 l 88.16 47.199 l h
33.914 47.199 m 92.41 47.199 l 92.41 51.449 l 33.914 51.449 l h
33.914 47.199 m W n
q
33 28 60 24 re W n
  q
0 g
0.510386 w
2 J
0 j
[] 0.0 d
10 M q 1 0 0 -1 0 0 cm
92.98 -50.883 m 41.672 0.426 l S Q
  Q
Q
Q q
88.16 28.207 m 92.41 28.207 l 92.41 47.199 l 88.16 47.199 l h
35.914 47.199 m 92.41 47.199 l 92.41 51.449 l 35.914 51.449 l h
35.914 47.199 m W n
q
35 28 58 24 re W n
  q
0 g
0.510386 w
2 J
0 j
[] 0.0 d
10 M q 1 0 0 -1 0 0 cm
95.379 -48.484 m 44.07 2.824 l S Q
  Q
Q
Q q
88.16 28.207 m 92.41 28.207 l 92.41 47.199 l 88.16 47.199 l h
38.914 47.199 m 92.41 47.199 l 92.41 51.449 l 38.914 51.449 l h
38.914 47.199 m W n
q
38 28 55 24 re W n
  q
0 g
0.510386 w
2 J
0 j
[] 0.0 d
10 M q 1 0 0 -1 0 0 cm
97.777 -46.082 m 46.473 5.223 l S Q
  Q
Q
Q q
88.16 28.207 m 92.41 28.207 l 92.41 47.199 l 88.16 47.199 l h
40.914 47.199 m 92.41 47.199 l 92.41 51.078 l 40.914 51.078 l h
40.914 47.199 m W n
q
40 28 53 24 re W n
  q
0 g
0.510386 w
2 J
0 j
[] 0.0 d
10 M q 1 0 0 -1 0 0 cm
100.18 -43.684 m 48.871 7.625 l S Q
  Q
Q
Q q
88.16 28.207 m 92.41 28.207 l 92.41 47.199 l 88.16 47.199 l h
43.914 47.199 m 92.41 47.199 l 92.41 49.078 l 43.914 49.078 l h
43.914 47.199 m W n
q
43 28 50 22 re W n
  q
0 g
0.510386 w
2 J
0 j
[] 0.0 d
10 M q 1 0 0 -1 0 0 cm
102.578 -41.285 m 51.273 10.023 l S Q
  Q
Q
Q q
88.16 28.207 4.25 18.871 re W n
q
88 28 5 20 re W n
  q
0 g
0.510386 w
2 J
0 j
[] 0.0 d
10 M q 1 0 0 -1 0 0 cm
104.98 -38.883 m 53.672 12.426 l S Q
  Q
Q
Q q
0 g
0.850361 w
0 J
0 j
[] 0.0 d
10 M q 1 0 0 -1 0 0 cm
15.168 -28.207 m 13.043 -28.207 l 13.043 -51.449 l 92.41 -51.449 l 92.41
 -28.207 l 88.16 -28.207 l 88.16 -47.199 l 17.293 -47.199 l 17.293 -28.207
 l h
15.168 -28.207 m S Q
Q q
13.043 4.078 m 59.914 4.078 l 59.914 4.68 l 13.043 4.68 l h
13.043 4.68 m 17.293 4.68 l 17.293 23.672 l 13.043 23.672 l h
13.043 4.68 m W n
q
13 4 47 20 re W n
  q
0 g
0.510386 w
2 J
0 j
[] 0.0 d
10 M q 1 0 0 -1 0 0 cm
52.688 -63.395 m 1.383 -12.086 l S Q
  Q
Q
Q q
13.043 2.078 m 62.914 2.078 l 62.914 4.68 l 13.043 4.68 l h
13.043 4.68 m 17.293 4.68 l 17.293 23.672 l 13.043 23.672 l h
13.043 4.68 m W n
q
13 2 50 22 re W n
  q
0 g
0.510386 w
2 J
0 j
[] 0.0 d
10 M q 1 0 0 -1 0 0 cm
55.09 -60.992 m 3.781 -9.688 l S Q
  Q
Q
Q q
13.043 0.426 m 64.914 0.426 l 64.914 4.68 l 13.043 4.68 l h
13.043 4.68 m 17.293 4.68 l 17.293 23.672 l 13.043 23.672 l h
13.043 4.68 m W n
q
13 0 52 24 re W n
  q
0 g
0.510386 w
2 J
0 j
[] 0.0 d
10 M q 1 0 0 -1 0 0 cm
57.488 -58.594 m 6.184 -7.285 l S Q
  Q
Q
Q q
13.043 0.426 m 67.914 0.426 l 67.914 4.68 l 13.043 4.68 l h
13.043 4.68 m 17.293 4.68 l 17.293 23.672 l 13.043 23.672 l h
13.043 4.68 m W n
q
13 0 55 24 re W n
  q
0 g
0.510386 w
2 J
0 j
[] 0.0 d
10 M q 1 0 0 -1 0 0 cm
59.891 -56.191 m 8.582 -4.887 l S Q
  Q
Q
Q q
13.043 0.426 m 69.914 0.426 l 69.914 4.68 l 13.043 4.68 l h
13.043 4.68 m 17.293 4.68 l 17.293 23.672 l 13.043 23.672 l h
13.043 4.68 m W n
q
13 0 57 24 re W n
  q
0 g
0.510386 w
2 J
0 j
[] 0.0 d
10 M q 1 0 0 -1 0 0 cm
62.289 -53.793 m 10.98 -2.484 l S Q
  Q
Q
Q q
13.043 0.426 m 71.914 0.426 l 71.914 4.68 l 13.043 4.68 l h
13.043 4.68 m 17.293 4.68 l 17.293 23.672 l 13.043 23.672 l h
13.043 4.68 m W n
q
13 0 59 24 re W n
  q
0 g
0.510386 w
2 J
0 j
[] 0.0 d
10 M q 1 0 0 -1 0 0 cm
64.688 -51.395 m 13.383 -0.086 l S Q
  Q
Q
Q q
13.043 0.426 m 74.914 0.426 l 74.914 4.68 l 13.043 4.68 l h
13.043 4.68 m 17.293 4.68 l 17.293 23.672 l 13.043 23.672 l h
13.043 4.68 m W n
q
13 0 62 24 re W n
  q
0 g
0.510386 w
2 J
0 j
[] 0.0 d
10 M q 1 0 0 -1 0 0 cm
67.09 -48.992 m 15.781 2.312 l S Q
  Q
Q
Q q
13.043 0.426 m 76.914 0.426 l 76.914 4.68 l 13.043 4.68 l h
13.043 4.68 m 17.293 4.68 l 17.293 23.672 l 13.043 23.672 l h
13.043 4.68 m W n
q
13 0 64 24 re W n
  q
0 g
0.510386 w
2 J
0 j
[] 0.0 d
10 M q 1 0 0 -1 0 0 cm
69.488 -46.594 m 18.184 4.715 l S Q
  Q
Q
Q q
13.043 0.426 m 79.914 0.426 l 79.914 4.68 l 13.043 4.68 l h
13.043 4.68 m 17.293 4.68 l 17.293 23.672 l 13.043 23.672 l h
13.043 4.68 m W n
q
13 0 67 24 re W n
  q
0 g
0.510386 w
2 J
0 j
[] 0.0 d
10 M q 1 0 0 -1 0 0 cm
71.891 -44.191 m 20.582 7.113 l S Q
  Q
Q
Q q
14.914 0.426 m 81.914 0.426 l 81.914 4.68 l 14.914 4.68 l h
14.914 4.68 m 17.293 4.68 l 17.293 23.672 l 14.914 23.672 l h
14.914 4.68 m W n
q
14 0 68 24 re W n
  q
0 g
0.510386 w
2 J
0 j
[] 0.0 d
10 M q 1 0 0 -1 0 0 cm
74.289 -41.793 m 22.98 9.516 l S Q
  Q
Q
Q q
17.914 0.426 66 4.254 re W n
q
17 0 67 5 re W n
  q
0 g
0.510386 w
2 J
0 j
[] 0.0 d
10 M q 1 0 0 -1 0 0 cm
76.688 -39.395 m 25.383 11.914 l S Q
  Q
Q
Q q
19.914 0.426 67 4.254 re W n
q
19 0 68 5 re W n
  q
0 g
0.510386 w
2 J
0 j
[] 0.0 d
10 M q 1 0 0 -1 0 0 cm
79.09 -36.992 m 27.781 14.312 l S Q
  Q
Q
Q q
22.914 0.426 m 88.914 0.426 l 88.914 4.68 l 22.914 4.68 l h
88.16 4.68 m 88.914 4.68 l 88.914 23.672 l 88.16 23.672 l h
88.16 4.68 m W n
q
22 0 67 24 re W n
  q
0 g
0.510386 w
2 J
0 j
[] 0.0 d
10 M q 1 0 0 -1 0 0 cm
81.488 -34.594 m 30.184 16.715 l S Q
  Q
Q
Q q
24.914 0.426 m 91.914 0.426 l 91.914 4.68 l 24.914 4.68 l h
88.16 4.68 m 91.914 4.68 l 91.914 23.672 l 88.16 23.672 l h
88.16 4.68 m W n
q
24 0 68 24 re W n
  q
0 g
0.510386 w
2 J
0 j
[] 0.0 d
10 M q 1 0 0 -1 0 0 cm
83.891 -32.191 m 32.582 19.113 l S Q
  Q
Q
Q q
26.914 0.426 m 92.41 0.426 l 92.41 4.68 l 26.914 4.68 l h
88.16 4.68 m 92.41 4.68 l 92.41 23.672 l 88.16 23.672 l h
88.16 4.68 m W n
q
26 0 67 24 re W n
  q
0 g
0.510386 w
2 J
0 j
[] 0.0 d
10 M q 1 0 0 -1 0 0 cm
86.289 -29.793 m 34.98 21.516 l S Q
  Q
Q
Q q
29.914 0.426 m 92.41 0.426 l 92.41 4.68 l 29.914 4.68 l h
88.16 4.68 m 92.41 4.68 l 92.41 23.672 l 88.16 23.672 l h
88.16 4.68 m W n
q
29 0 64 24 re W n
  q
0 g
0.510386 w
2 J
0 j
[] 0.0 d
10 M q 1 0 0 -1 0 0 cm
88.688 -27.395 m 37.383 23.914 l S Q
  Q
Q
Q q
31.914 0.426 m 92.41 0.426 l 92.41 4.68 l 31.914 4.68 l h
88.16 4.68 m 92.41 4.68 l 92.41 23.672 l 88.16 23.672 l h
88.16 4.68 m W n
q
31 0 62 24 re W n
  q
0 g
0.510386 w
2 J
0 j
[] 0.0 d
10 M q 1 0 0 -1 0 0 cm
91.09 -24.992 m 39.781 26.312 l S Q
  Q
Q
Q q
34.914 0.426 m 92.41 0.426 l 92.41 4.68 l 34.914 4.68 l h
88.16 4.68 m 92.41 4.68 l 92.41 23.672 l 88.16 23.672 l h
88.16 4.68 m W n
q
34 0 59 24 re W n
  q
0 g
0.510386 w
2 J
0 j
[] 0.0 d
10 M q 1 0 0 -1 0 0 cm
93.488 -22.594 m 42.184 28.715 l S Q
  Q
Q
Q q
36.914 0.426 m 92.41 0.426 l 92.41 4.68 l 36.914 4.68 l h
88.16 4.68 m 92.41 4.68 l 92.41 23.672 l 88.16 23.672 l h
88.16 4.68 m W n
q
36 0 57 24 re W n
  q
0 g
0.510386 w
2 J
0 j
[] 0.0 d
10 M q 1 0 0 -1 0 0 cm
95.891 -20.191 m 44.582 31.113 l S Q
  Q
Q
Q q
38.914 0.426 m 92.41 0.426 l 92.41 4.68 l 38.914 4.68 l h
88.16 4.68 m 92.41 4.68 l 92.41 23.672 l 88.16 23.672 l h
88.16 4.68 m W n
q
38 0 55 24 re W n
  q
0 g
0.510386 w
2 J
0 j
[] 0.0 d
10 M q 1 0 0 -1 0 0 cm
98.289 -17.793 m 46.98 33.516 l S Q
  Q
Q
Q q
41.914 0.426 m 92.41 0.426 l 92.41 4.68 l 41.914 4.68 l h
88.16 4.68 m 92.41 4.68 l 92.41 23.078 l 88.16 23.078 l h
88.16 4.68 m W n
q
41 0 52 24 re W n
  q
0 g
0.510386 w
2 J
0 j
[] 0.0 d
10 M q 1 0 0 -1 0 0 cm
100.688 -15.395 m 49.383 35.914 l S Q
  Q
Q
Q q
43.914 0.426 m 92.41 0.426 l 92.41 4.68 l 43.914 4.68 l h
88.16 4.68 m 92.41 4.68 l 92.41 21.078 l 88.16 21.078 l h
88.16 4.68 m W n
q
43 0 50 22 re W n
  q
0 g
0.510386 w
2 J
0 j
[] 0.0 d
10 M q 1 0 0 -1 0 0 cm
103.09 -12.992 m 51.781 38.312 l S Q
  Q
Q
Q q
46.914 0.426 m 92.41 0.426 l 92.41 4.68 l 46.914 4.68 l h
88.16 4.68 m 92.41 4.68 l 92.41 18.078 l 88.16 18.078 l h
88.16 4.68 m W n
q
46 0 47 19 re W n
  q
0 g
0.510386 w
2 J
0 j
[] 0.0 d
10 M q 1 0 0 -1 0 0 cm
105.488 -10.594 m 54.184 40.715 l S Q
  Q
Q
Q q
0 g
0.850361 w
0 J
0 j
[] 0.0 d
10 M q 1 0 0 -1 0 0 cm
15.168 -23.672 m 13.043 -23.672 l 13.043 -0.426 l 92.41 -0.426 l 92.41 
-23.672 l 88.16 -23.672 l 88.16 -4.68 l 17.293 -4.68 l 17.293 -23.672 l 
h
15.168 -23.672 m S Q
Q q
37.562 23.078 m 42.379 23.078 l 42.379 25.938 l 37.562 25.938 l h
37.562 25.938 m 42.379 25.938 l 42.379 46.773 l 37.562 46.773 l h
37.562 25.938 m W n
q
37 23 6 24 re W n
  q
0 g
0.169973 w
2 J
0 j
[] 0.0 d
10 M q 1 0 0 -1 0 0 cm
39.547 -49.605 m 16.301 -26.363 l S Q
  Q
Q
Q q
37.562 22.078 m 42.379 22.078 l 42.379 25.938 l 37.562 25.938 l h
37.562 25.938 m 42.379 25.938 l 42.379 46.773 l 37.562 46.773 l h
37.562 25.938 m W n
q
37 22 6 25 re W n
  q
0 g
0.169973 w
2 J
0 j
[] 0.0 d
10 M q 1 0 0 -1 0 0 cm
40.848 -48.309 m 17.602 -25.062 l S Q
  Q
Q
Q q
37.562 21.078 m 42.379 21.078 l 42.379 25.938 l 37.562 25.938 l h
37.562 25.938 m 42.379 25.938 l 42.379 46.773 l 37.562 46.773 l h
37.562 25.938 m W n
q
37 21 6 26 re W n
  q
0 g
0.169973 w
2 J
0 j
[] 0.0 d
10 M q 1 0 0 -1 0 0 cm
42.145 -47.008 m 18.902 -23.762 l S Q
  Q
Q
Q q
37.562 19.078 m 42.379 19.078 l 42.379 25.938 l 37.562 25.938 l h
37.562 25.938 m 42.379 25.938 l 42.379 46.773 l 37.562 46.773 l h
37.562 25.938 m W n
q
37 19 6 28 re W n
  q
0 g
0.169973 w
2 J
0 j
[] 0.0 d
10 M q 1 0 0 -1 0 0 cm
43.445 -45.707 m 20.203 -22.465 l S Q
  Q
Q
Q q
37.562 18.078 m 42.379 18.078 l 42.379 25.938 l 37.562 25.938 l h
37.562 25.938 m 42.379 25.938 l 42.379 46.773 l 37.562 46.773 l h
37.562 25.938 m W n
q
37 18 6 29 re W n
  q
0 g
0.169973 w
2 J
0 j
[] 0.0 d
10 M q 1 0 0 -1 0 0 cm
44.746 -44.406 m 21.504 -21.164 l S Q
  Q
Q
Q q
37.562 17.078 m 42.379 17.078 l 42.379 25.938 l 37.562 25.938 l h
37.562 25.938 m 42.379 25.938 l 42.379 46.078 l 37.562 46.078 l h
37.562 25.938 m W n
q
37 17 6 30 re W n
  q
0 g
0.169973 w
2 J
0 j
[] 0.0 d
10 M q 1 0 0 -1 0 0 cm
46.047 -43.105 m 22.801 -19.863 l S Q
  Q
Q
Q q
37.562 16.078 m 42.379 16.078 l 42.379 25.938 l 37.562 25.938 l h
37.562 25.938 m 42.379 25.938 l 42.379 45.078 l 37.562 45.078 l h
37.562 25.938 m W n
q
37 16 6 30 re W n
  q
0 g
0.169973 w
2 J
0 j
[] 0.0 d
10 M q 1 0 0 -1 0 0 cm
47.348 -41.809 m 24.102 -18.562 l S Q
  Q
Q
Q q
37.562 14.078 m 42.379 14.078 l 42.379 25.938 l 37.562 25.938 l h
37.562 25.938 m 42.379 25.938 l 42.379 43.078 l 37.562 43.078 l h
37.562 25.938 m W n
q
37 14 6 30 re W n
  q
0 g
0.169973 w
2 J
0 j
[] 0.0 d
10 M q 1 0 0 -1 0 0 cm
48.645 -40.508 m 25.402 -17.262 l S Q
  Q
Q
Q q
37.562 13.078 m 42.379 13.078 l 42.379 25.938 l 37.562 25.938 l h
37.562 25.938 m 42.379 25.938 l 42.379 42.078 l 37.562 42.078 l h
37.562 25.938 m W n
q
37 13 6 30 re W n
  q
0 g
0.169973 w
2 J
0 j
[] 0.0 d
10 M q 1 0 0 -1 0 0 cm
49.945 -39.207 m 26.703 -15.965 l S Q
  Q
Q
Q q
37.562 12.078 m 42.379 12.078 l 42.379 25.938 l 37.562 25.938 l h
37.562 25.938 m 42.379 25.938 l 42.379 41.078 l 37.562 41.078 l h
37.562 25.938 m W n
q
37 12 6 30 re W n
  q
0 g
0.169973 w
2 J
0 j
[] 0.0 d
10 M q 1 0 0 -1 0 0 cm
51.246 -37.906 m 28.004 -14.664 l S Q
  Q
Q
Q q
37.562 10.078 m 42.379 10.078 l 42.379 25.938 l 37.562 25.938 l h
37.562 25.938 m 42.379 25.938 l 42.379 39.078 l 37.562 39.078 l h
37.562 25.938 m W n
q
37 10 6 30 re W n
  q
0 g
0.169973 w
2 J
0 j
[] 0.0 d
10 M q 1 0 0 -1 0 0 cm
52.547 -36.605 m 29.301 -13.363 l S Q
  Q
Q
Q q
37.562 9.078 m 42.379 9.078 l 42.379 25.938 l 37.562 25.938 l h
37.562 25.938 m 42.379 25.938 l 42.379 38.078 l 37.562 38.078 l h
37.562 25.938 m W n
q
37 9 6 30 re W n
  q
0 g
0.169973 w
2 J
0 j
[] 0.0 d
10 M q 1 0 0 -1 0 0 cm
53.848 -35.309 m 30.602 -12.062 l S Q
  Q
Q
Q q
37.562 8.078 m 42.379 8.078 l 42.379 25.938 l 37.562 25.938 l h
37.562 25.938 m 42.379 25.938 l 42.379 37.078 l 37.562 37.078 l h
37.562 25.938 m W n
q
37 8 6 30 re W n
  q
0 g
0.169973 w
2 J
0 j
[] 0.0 d
10 M q 1 0 0 -1 0 0 cm
55.145 -34.008 m 31.902 -10.762 l S Q
  Q
Q
Q q
37.562 6.078 m 42.379 6.078 l 42.379 25.938 l 37.562 25.938 l h
37.562 25.938 m 42.379 25.938 l 42.379 36.078 l 37.562 36.078 l h
37.562 25.938 m W n
q
37 6 6 31 re W n
  q
0 g
0.169973 w
2 J
0 j
[] 0.0 d
10 M q 1 0 0 -1 0 0 cm
56.445 -32.707 m 33.203 -9.465 l S Q
  Q
Q
Q q
37.562 5.102 m 42.379 5.102 l 42.379 25.938 l 37.562 25.938 l h
37.562 25.938 m 42.379 25.938 l 42.379 34.078 l 37.562 34.078 l h
37.562 25.938 m W n
q
37 5 6 30 re W n
  q
0 g
0.169973 w
2 J
0 j
[] 0.0 d
10 M q 1 0 0 -1 0 0 cm
57.746 -31.406 m 34.504 -8.164 l S Q
  Q
Q
Q q
37.562 5.102 m 42.379 5.102 l 42.379 25.938 l 37.562 25.938 l h
37.562 25.938 m 42.379 25.938 l 42.379 33.078 l 37.562 33.078 l h
37.562 25.938 m W n
q
37 5 6 29 re W n
  q
0 g
0.169973 w
2 J
0 j
[] 0.0 d
10 M q 1 0 0 -1 0 0 cm
59.047 -30.105 m 35.801 -6.863 l S Q
  Q
Q
Q q
37.562 5.102 m 42.379 5.102 l 42.379 25.938 l 37.562 25.938 l h
37.562 25.938 m 42.379 25.938 l 42.379 32.078 l 37.562 32.078 l h
37.562 25.938 m W n
q
37 5 6 28 re W n
  q
0 g
0.169973 w
2 J
0 j
[] 0.0 d
10 M q 1 0 0 -1 0 0 cm
60.348 -28.809 m 37.102 -5.562 l S Q
  Q
Q
Q q
37.562 5.102 m 42.379 5.102 l 42.379 25.938 l 37.562 25.938 l h
37.562 25.938 m 42.379 25.938 l 42.379 30.078 l 37.562 30.078 l h
37.562 25.938 m W n
q
37 5 6 26 re W n
  q
0 g
0.169973 w
2 J
0 j
[] 0.0 d
10 M q 1 0 0 -1 0 0 cm
61.645 -27.508 m 38.402 -4.262 l S Q
  Q
Q
Q q
37.562 5.102 m 42.379 5.102 l 42.379 25.938 l 37.562 25.938 l h
37.562 25.938 m 42.379 25.938 l 42.379 29.078 l 37.562 29.078 l h
37.562 25.938 m W n
q
37 5 6 25 re W n
  q
0 g
0.169973 w
2 J
0 j
[] 0.0 d
10 M q 1 0 0 -1 0 0 cm
62.945 -26.207 m 39.703 -2.965 l S Q
  Q
Q
Q q
37.914 5.102 m 42.379 5.102 l 42.379 25.938 l 37.914 25.938 l h
37.914 25.938 m 42.379 25.938 l 42.379 28.078 l 37.914 28.078 l h
37.914 25.938 m W n
q
37 5 6 24 re W n
  q
0 g
0.169973 w
2 J
0 j
[] 0.0 d
10 M q 1 0 0 -1 0 0 cm
64.246 -24.906 m 41.004 -1.664 l S Q
  Q
Q
Q q
0 g
0.850361 w
0 J
0 j
[] 0.0 d
10 M q 1 0 0 -1 0 0 cm
37.562 -25.938 m 37.562 -24.746 l 37.562 -22.422 m 37.562 -20.098 l 37.562
 -17.773 m 37.562 -15.449 l 37.562 -13.125 m 37.562 -10.801 l 37.562 -8.477
 m 37.562 -6.152 l 38.84 -5.102 m 41.164 -5.102 l 42.379 -6.207 m 42.379
 -8.531 l 42.379 -10.855 m 42.379 -13.18 l 42.379 -15.504 m 42.379 -17.828
 l 42.379 -20.156 m 42.379 -22.48 l 42.379 -24.805 m 42.379 -27.129 l 42.379
 -29.453 m 42.379 -31.777 l 42.379 -34.102 m 42.379 -36.426 l 42.379 -38.75
 m 42.379 -41.074 l 42.379 -43.398 m 42.379 -45.723 l 41.105 -46.773 m 38.781
 -46.773 l 37.562 -45.668 m 37.562 -43.34 l 37.562 -41.016 m 37.562 -38.691
 l 37.562 -36.367 m 37.562 -34.043 l 37.562 -31.719 m 37.562 -29.395 l 37.562
 -27.07 m 37.562 -25.938 l S Q
q 1 0 0 -1 0 0 cm
37.562 -44.363 m 37.562 -46.773 l 42.379 -46.773 l 42.379 -44.363 l S Q
q 1 0 0 -1 0 0 cm
37.562 -7.512 m 37.562 -5.102 l 42.379 -5.102 l 42.379 -7.512 l S Q
38.871 61.176 m 41.074 61.176 l 41.074 61.051 l 40.465 61.051 40.324 60.973
 40.309 60.582 c 40.309 55.801 l 40.246 55.785 l 38.824 56.52 l 38.824 56.629
 l 39.121 56.504 39.324 56.457 39.387 56.457 c 39.559 56.457 39.637 56.566
 39.637 56.832 c 39.637 60.441 l 39.621 60.941 39.48 61.051 38.871 61.051
 c h
38.871 61.176 m f
Q q
43.23 23.078 m 48.051 23.078 l 48.051 25.938 l 43.23 25.938 l h
43.23 25.938 m 48.051 25.938 l 48.051 46.773 l 43.23 46.773 l h
43.23 25.938 m W n
q
43 23 6 24 re W n
  q
0 g
0.169973 w
2 J
0 j
[] 0.0 d
10 M q 1 0 0 -1 0 0 cm
69.309 -26.363 m 46.066 -49.605 l S Q
  Q
Q
Q q
43.23 22.078 m 48.051 22.078 l 48.051 25.938 l 43.23 25.938 l h
43.23 25.938 m 48.051 25.938 l 48.051 46.773 l 43.23 46.773 l h
43.23 25.938 m W n
q
43 22 6 25 re W n
  q
0 g
0.169973 w
2 J
0 j
[] 0.0 d
10 M q 1 0 0 -1 0 0 cm
68.012 -25.062 m 44.766 -48.309 l S Q
  Q
Q
Q q
43.23 21.078 m 48.051 21.078 l 48.051 25.938 l 43.23 25.938 l h
43.23 25.938 m 48.051 25.938 l 48.051 46.773 l 43.23 46.773 l h
43.23 25.938 m W n
q
43 21 6 26 re W n
  q
0 g
0.169973 w
2 J
0 j
[] 0.0 d
10 M q 1 0 0 -1 0 0 cm
66.711 -23.762 m 43.465 -47.008 l S Q
  Q
Q
Q q
43.23 19.078 m 48.051 19.078 l 48.051 25.938 l 43.23 25.938 l h
43.23 25.938 m 48.051 25.938 l 48.051 46.773 l 43.23 46.773 l h
43.23 25.938 m W n
q
43 19 6 28 re W n
  q
0 g
0.169973 w
2 J
0 j
[] 0.0 d
10 M q 1 0 0 -1 0 0 cm
65.41 -22.465 m 42.168 -45.707 l S Q
  Q
Q
Q q
43.23 18.078 m 48.051 18.078 l 48.051 25.938 l 43.23 25.938 l h
43.23 25.938 m 48.051 25.938 l 48.051 46.773 l 43.23 46.773 l h
43.23 25.938 m W n
q
43 18 6 29 re W n
  q
0 g
0.169973 w
2 J
0 j
[] 0.0 d
10 M q 1 0 0 -1 0 0 cm
64.109 -21.164 m 40.867 -44.406 l S Q
  Q
Q
Q q
43.23 17.078 m 48.051 17.078 l 48.051 25.938 l 43.23 25.938 l h
43.23 25.938 m 48.051 25.938 l 48.051 46.078 l 43.23 46.078 l h
43.23 25.938 m W n
q
43 17 6 30 re W n
  q
0 g
0.169973 w
2 J
0 j
[] 0.0 d
10 M q 1 0 0 -1 0 0 cm
62.809 -19.863 m 39.566 -43.105 l S Q
  Q
Q
Q q
43.23 16.078 m 48.051 16.078 l 48.051 25.938 l 43.23 25.938 l h
43.23 25.938 m 48.051 25.938 l 48.051 45.078 l 43.23 45.078 l h
43.23 25.938 m W n
q
43 16 6 30 re W n
  q
0 g
0.169973 w
2 J
0 j
[] 0.0 d
10 M q 1 0 0 -1 0 0 cm
61.512 -18.562 m 38.266 -41.809 l S Q
  Q
Q
Q q
43.23 14.078 m 48.051 14.078 l 48.051 25.938 l 43.23 25.938 l h
43.23 25.938 m 48.051 25.938 l 48.051 43.078 l 43.23 43.078 l h
43.23 25.938 m W n
q
43 14 6 30 re W n
  q
0 g
0.169973 w
2 J
0 j
[] 0.0 d
10 M q 1 0 0 -1 0 0 cm
60.211 -17.262 m 36.965 -40.508 l S Q
  Q
Q
Q q
43.23 13.078 m 48.051 13.078 l 48.051 25.938 l 43.23 25.938 l h
43.23 25.938 m 48.051 25.938 l 48.051 42.078 l 43.23 42.078 l h
43.23 25.938 m W n
q
43 13 6 30 re W n
  q
0 g
0.169973 w
2 J
0 j
[] 0.0 d
10 M q 1 0 0 -1 0 0 cm
58.91 -15.965 m 35.668 -39.207 l S Q
  Q
Q
Q q
43.23 12.078 m 48.051 12.078 l 48.051 25.938 l 43.23 25.938 l h
43.23 25.938 m 48.051 25.938 l 48.051 41.078 l 43.23 41.078 l h
43.23 25.938 m W n
q
43 12 6 30 re W n
  q
0 g
0.169973 w
2 J
0 j
[] 0.0 d
10 M q 1 0 0 -1 0 0 cm
57.609 -14.664 m 34.367 -37.906 l S Q
  Q
Q
Q q
43.23 10.078 m 48.051 10.078 l 48.051 25.938 l 43.23 25.938 l h
43.23 25.938 m 48.051 25.938 l 48.051 39.078 l 43.23 39.078 l h
43.23 25.938 m W n
q
43 10 6 30 re W n
  q
0 g
0.169973 w
2 J
0 j
[] 0.0 d
10 M q 1 0 0 -1 0 0 cm
56.309 -13.363 m 33.066 -36.605 l S Q
  Q
Q
Q q
43.23 9.078 m 48.051 9.078 l 48.051 25.938 l 43.23 25.938 l h
43.23 25.938 m 48.051 25.938 l 48.051 38.078 l 43.23 38.078 l h
43.23 25.938 m W n
q
43 9 6 30 re W n
  q
0 g
0.169973 w
2 J
0 j
[] 0.0 d
10 M q 1 0 0 -1 0 0 cm
55.012 -12.062 m 31.766 -35.309 l S Q
  Q
Q
Q q
43.23 8.078 m 48.051 8.078 l 48.051 25.938 l 43.23 25.938 l h
43.23 25.938 m 48.051 25.938 l 48.051 37.078 l 43.23 37.078 l h
43.23 25.938 m W n
q
43 8 6 30 re W n
  q
0 g
0.169973 w
2 J
0 j
[] 0.0 d
10 M q 1 0 0 -1 0 0 cm
53.711 -10.762 m 30.465 -34.008 l S Q
  Q
Q
Q q
43.23 6.078 m 48.051 6.078 l 48.051 25.938 l 43.23 25.938 l h
43.23 25.938 m 48.051 25.938 l 48.051 36.078 l 43.23 36.078 l h
43.23 25.938 m W n
q
43 6 6 31 re W n
  q
0 g
0.169973 w
2 J
0 j
[] 0.0 d
10 M q 1 0 0 -1 0 0 cm
52.41 -9.465 m 29.168 -32.707 l S Q
  Q
Q
Q q
43.23 5.102 m 48.051 5.102 l 48.051 25.938 l 43.23 25.938 l h
43.23 25.938 m 48.051 25.938 l 48.051 34.078 l 43.23 34.078 l h
43.23 25.938 m W n
q
43 5 6 30 re W n
  q
0 g
0.169973 w
2 J
0 j
[] 0.0 d
10 M q 1 0 0 -1 0 0 cm
51.109 -8.164 m 27.867 -31.406 l S Q
  Q
Q
Q q
43.23 5.102 m 48.051 5.102 l 48.051 25.938 l 43.23 25.938 l h
43.23 25.938 m 48.051 25.938 l 48.051 33.078 l 43.23 33.078 l h
43.23 25.938 m W n
q
43 5 6 29 re W n
  q
0 g
0.169973 w
2 J
0 j
[] 0.0 d
10 M q 1 0 0 -1 0 0 cm
49.809 -6.863 m 26.566 -30.105 l S Q
  Q
Q
Q q
43.23 5.102 m 48.051 5.102 l 48.051 25.938 l 43.23 25.938 l h
43.23 25.938 m 48.051 25.938 l 48.051 32.078 l 43.23 32.078 l h
43.23 25.938 m W n
q
43 5 6 28 re W n
  q
0 g
0.169973 w
2 J
0 j
[] 0.0 d
10 M q 1 0 0 -1 0 0 cm
48.512 -5.562 m 25.266 -28.809 l S Q
  Q
Q
Q q
43.23 5.102 m 48.051 5.102 l 48.051 25.938 l 43.23 25.938 l h
43.23 25.938 m 48.051 25.938 l 48.051 30.078 l 43.23 30.078 l h
43.23 25.938 m W n
q
43 5 6 26 re W n
  q
0 g
0.169973 w
2 J
0 j
[] 0.0 d
10 M q 1 0 0 -1 0 0 cm
47.211 -4.262 m 23.965 -27.508 l S Q
  Q
Q
Q q
43.23 5.102 m 48.051 5.102 l 48.051 25.938 l 43.23 25.938 l h
43.23 25.938 m 48.051 25.938 l 48.051 29.078 l 43.23 29.078 l h
43.23 25.938 m W n
q
43 5 6 25 re W n
  q
0 g
0.169973 w
2 J
0 j
[] 0.0 d
10 M q 1 0 0 -1 0 0 cm
45.91 -2.965 m 22.668 -26.207 l S Q
  Q
Q
Q q
43.23 5.102 m 47.914 5.102 l 47.914 25.938 l 43.23 25.938 l h
43.23 25.938 m 47.914 25.938 l 47.914 28.078 l 43.23 28.078 l h
43.23 25.938 m W n
q
43 5 5 24 re W n
  q
0 g
0.169973 w
2 J
0 j
[] 0.0 d
10 M q 1 0 0 -1 0 0 cm
44.609 -1.664 m 21.367 -24.906 l S Q
  Q
Q
Q q
0 g
0.850361 w
0 J
0 j
[] 0.0 d
10 M q 1 0 0 -1 0 0 cm
43.23 -25.938 m 43.23 -24.746 l 43.23 -22.422 m 43.23 -20.098 l 43.23 -17.773
 m 43.23 -15.449 l 43.23 -13.125 m 43.23 -10.801 l 43.23 -8.477 m 43.23 
-6.152 l 44.508 -5.102 m 46.832 -5.102 l 48.051 -6.203 m 48.051 -8.527 l
 48.051 -10.852 m 48.051 -13.176 l 48.051 -15.5 m 48.051 -17.824 l 48.051
 -20.148 m 48.051 -22.473 l 48.051 -24.801 m 48.051 -27.125 l 48.051 -29.449
 m 48.051 -31.773 l 48.051 -34.098 m 48.051 -36.422 l 48.051 -38.746 m 48.051
 -41.07 l 48.051 -43.395 m 48.051 -45.719 l 46.781 -46.773 m 44.457 -46.773
 l 43.23 -45.676 m 43.23 -43.348 l 43.23 -41.023 m 43.23 -38.699 l 43.23
 -36.375 m 43.23 -34.051 l 43.23 -31.727 m 43.23 -29.402 l 43.23 -27.078
 m 43.23 -25.938 l S Q
q 1 0 0 -1 0 0 cm
43.23 -44.363 m 43.23 -46.773 l 48.051 -46.773 l 48.051 -44.363 l S Q
q 1 0 0 -1 0 0 cm
43.23 -7.512 m 43.23 -5.102 l 48.051 -5.102 l 48.051 -7.512 l S Q
47.383 60.082 m 47.289 60.051 l 46.992 60.504 46.898 60.566 46.523 60.566
 c 44.617 60.566 l 45.961 59.16 l 46.664 58.426 46.977 57.816 46.977 57.207
 c 46.977 56.41 46.336 55.785 45.508 55.785 c 45.07 55.785 44.648 55.957
 44.352 56.285 c 44.102 56.551 43.977 56.816 43.852 57.379 c 44.023 57.41
 l 44.336 56.629 44.617 56.379 45.164 56.379 c 45.852 56.379 46.289 56.832
 46.289 57.504 c 46.289 58.129 45.93 58.863 45.258 59.566 c 43.836 61.082
 l 43.836 61.176 l 46.945 61.176 l h
47.383 60.082 m f
50.449 71.641 m 49.793 72.078 49.527 72.297 49.184 72.719 c 48.559 73.5
 48.246 74.391 48.246 75.438 c 48.246 76.594 48.574 77.469 49.355 78.375
 c 49.73 78.812 49.965 79 50.434 79.297 c 50.527 79.141 l 49.824 78.578 
49.574 78.266 49.324 77.594 c 49.105 77 49.012 76.328 49.012 75.422 c 49.012
 74.469 49.121 73.734 49.371 73.188 c 49.621 72.625 49.887 72.297 50.527
 71.781 c h
50.449 71.641 m f
54.777 77.109 m 54.621 77.234 54.512 77.281 54.371 77.281 c 54.168 77.281
 54.105 77.156 54.105 76.766 c 54.105 75.016 l 54.105 74.547 54.059 74.281
 53.934 74.078 c 53.73 73.75 53.34 73.578 52.824 73.578 c 51.98 73.578 51.309
 74.016 51.309 74.578 c 51.309 74.781 51.48 74.969 51.699 74.969 c 51.918
 74.969 52.105 74.781 52.105 74.594 c 52.105 74.562 52.09 74.516 52.09 74.453
 c 52.059 74.359 52.059 74.297 52.059 74.234 c 52.059 73.984 52.34 73.797
 52.699 73.797 c 53.137 73.797 53.387 74.047 53.387 74.531 c 53.387 75.078
 l 52.012 75.625 51.855 75.719 51.465 76.047 c 51.262 76.234 51.137 76.531
 51.137 76.828 c 51.137 77.391 51.527 77.797 52.09 77.797 c 52.48 77.797
 52.84 77.609 53.387 77.141 c 53.434 77.609 53.605 77.797 53.965 77.797 
c 54.277 77.797 54.465 77.688 54.777 77.344 c h
53.387 76.594 m 53.387 76.875 53.34 76.969 53.152 77.078 c 52.918 77.203
 52.684 77.266 52.496 77.266 c 52.184 77.266 51.934 76.969 51.934 76.578
 c 51.934 76.547 l 51.934 76.016 52.34 75.672 53.387 75.297 c h
53.387 76.594 m f
55.113 79.297 m 55.77 78.844 56.051 78.625 56.379 78.219 c 57.02 77.438
 57.332 76.531 57.332 75.484 c 57.332 74.344 56.988 73.469 56.207 72.562
 c 55.832 72.125 55.598 71.922 55.145 71.641 c 55.035 71.781 l 55.754 72.344
 55.988 72.656 56.238 73.328 c 56.457 73.938 56.551 74.609 56.551 75.516
 c 56.551 76.453 56.441 77.188 56.191 77.734 c 55.957 78.297 55.676 78.625
 55.035 79.141 c h
55.113 79.297 m f
29.961 18.5 m 29.602 18.484 29.523 18.406 29.242 17.812 c 27.258 13.281
 l 27.102 13.281 l 25.445 17.203 l 24.93 18.359 24.836 18.484 24.461 18.5
 c 24.461 18.656 l 26.039 18.656 l 26.039 18.5 l 25.648 18.5 25.492 18.406
 25.492 18.172 c 25.492 18.078 25.508 17.969 25.555 17.875 c 25.914 16.938
 l 28.008 16.938 l 28.336 17.703 l 28.43 17.922 28.492 18.125 28.492 18.234
 c 28.492 18.438 28.352 18.5 27.93 18.5 c 27.93 18.656 l 29.961 18.656 l
 h
26.055 16.609 m 26.977 14.422 l 27.898 16.609 l h
26.055 16.609 m f
65.82 13.531 m 66.492 13.578 66.57 13.656 66.586 14.25 c 66.586 17.781 
l 66.57 18.391 66.461 18.484 65.82 18.5 c 65.82 18.656 l 68.477 18.656 l
 69.086 18.656 69.664 18.484 69.961 18.219 c 70.242 17.969 70.398 17.609
 70.398 17.219 c 70.398 16.875 70.273 16.547 70.008 16.328 c 69.773 16.109
 69.555 16.016 69.039 15.891 c 69.461 15.781 69.617 15.703 69.82 15.531 
c 70.008 15.359 70.133 15.078 70.133 14.734 c 70.133 13.844 69.414 13.375
 68.039 13.375 c 65.82 13.375 l h
67.398 16.062 m 68.164 16.062 68.539 16.109 68.82 16.219 c 69.273 16.406
 69.492 16.734 69.492 17.234 c 69.492 17.656 69.32 17.969 69.008 18.156 
c 68.742 18.297 68.414 18.359 67.898 18.359 c 67.508 18.359 67.398 18.297
 67.398 18.031 c h
67.398 15.75 m 67.398 13.922 l 67.398 13.734 67.43 13.688 67.57 13.688 
c 67.914 13.672 l 68.805 13.656 69.32 14.062 69.32 14.766 c 69.32 15.391
 68.914 15.734 68.148 15.734 c h
67.398 15.75 m f
q 1 0 0 -1 0 0 cm
128.836 -25.938 m 128.836 -24.098 l 156.617 -24.098 l 156.617 -27.781 l
 128.836 -27.781 l h
128.836 -25.938 m S Q
1 g
1.13366 w
q 1 0 0 -1 0 0 cm
128.836 -27.355 m 128.836 -24.52 l S Q
0 g
0.850361 w
q 1 0 0 -1 0 0 cm
128.836 -27.781 m 128.836 -27.781 127.934 -27.117 127.988 -26.648 c 128.031
 -26.277 128.543 -26.184 128.836 -25.938 c 129.133 -25.695 129.645 -25.598
 129.688 -25.23 c 129.742 -24.758 129.301 -24.098 128.836 -24.098 c 128.371
 -24.098 127.934 -24.758 127.988 -25.23 c 128.031 -25.598 128.836 -25.938
 128.836 -25.938 c S Q
q 1 0 0 -1 0 0 cm
195.453 -25.938 m 195.453 -24.098 l 231.734 -24.098 l 231.734 -27.781 l
 195.453 -27.781 l h
195.453 -25.938 m S Q
1 g
1.13366 w
q 1 0 0 -1 0 0 cm
231.734 -27.355 m 231.734 -24.52 l S Q
0 g
0.850361 w
q 1 0 0 -1 0 0 cm
231.734 -27.781 m 231.734 -27.781 232.641 -27.117 232.586 -26.648 c 232.543
 -26.277 232.027 -26.184 231.734 -25.938 c 231.441 -25.695 230.926 -25.598
 230.887 -25.23 c 230.828 -24.758 231.27 -24.098 231.734 -24.098 c 232.199
 -24.098 232.641 -24.758 232.586 -25.23 c 232.543 -25.598 231.734 -25.938
 231.734 -25.938 c S Q
Q q
140.602 30.078 m 144.852 30.078 l 144.852 47.199 l 140.602 47.199 l h
140.602 47.199 m 189.914 47.199 l 189.914 51.449 l 140.602 51.449 l h
140.602 47.199 m W n
q
140 30 50 22 re W n
  q
0 g
0.510386 w
2 J
0 j
[] 0.0 d
10 M q 1 0 0 -1 0 0 cm
182.137 -89.285 m 130.832 -37.977 l S Q
  Q
Q
Q q
140.602 28.207 m 144.852 28.207 l 144.852 47.199 l 140.602 47.199 l h
140.602 47.199 m 191.914 47.199 l 191.914 51.449 l 140.602 51.449 l h
140.602 47.199 m W n
q
140 28 52 24 re W n
  q
0 g
0.510386 w
2 J
0 j
[] 0.0 d
10 M q 1 0 0 -1 0 0 cm
184.539 -86.883 m 133.23 -35.574 l S Q
  Q
Q
Q q
140.602 28.207 m 144.852 28.207 l 144.852 47.199 l 140.602 47.199 l h
140.602 47.199 m 194.914 47.199 l 194.914 51.449 l 140.602 51.449 l h
140.602 47.199 m W n
q
140 28 55 24 re W n
  q
0 g
0.510386 w
2 J
0 j
[] 0.0 d
10 M q 1 0 0 -1 0 0 cm
186.938 -84.484 m 135.633 -33.176 l S Q
  Q
Q
Q q
140.602 28.207 m 144.852 28.207 l 144.852 47.199 l 140.602 47.199 l h
140.602 47.199 m 196.914 47.199 l 196.914 51.449 l 140.602 51.449 l h
140.602 47.199 m W n
q
140 28 57 24 re W n
  q
0 g
0.510386 w
2 J
0 j
[] 0.0 d
10 M q 1 0 0 -1 0 0 cm
189.34 -82.082 m 138.031 -30.777 l S Q
  Q
Q
Q q
140.602 28.207 m 144.852 28.207 l 144.852 47.199 l 140.602 47.199 l h
140.602 47.199 m 199.914 47.199 l 199.914 51.449 l 140.602 51.449 l h
140.602 47.199 m W n
q
140 28 60 24 re W n
  q
0 g
0.510386 w
2 J
0 j
[] 0.0 d
10 M q 1 0 0 -1 0 0 cm
191.738 -79.684 m 140.43 -28.375 l S Q
  Q
Q
Q q
140.602 28.207 m 144.852 28.207 l 144.852 47.199 l 140.602 47.199 l h
140.602 47.199 m 201.914 47.199 l 201.914 51.449 l 140.602 51.449 l h
140.602 47.199 m W n
q
140 28 62 24 re W n
  q
0 g
0.510386 w
2 J
0 j
[] 0.0 d
10 M q 1 0 0 -1 0 0 cm
194.137 -77.285 m 142.832 -25.977 l S Q
  Q
Q
Q q
140.602 28.207 m 144.852 28.207 l 144.852 47.199 l 140.602 47.199 l h
140.602 47.199 m 203.914 47.199 l 203.914 51.449 l 140.602 51.449 l h
140.602 47.199 m W n
q
140 28 64 24 re W n
  q
0 g
0.510386 w
2 J
0 j
[] 0.0 d
10 M q 1 0 0 -1 0 0 cm
196.539 -74.883 m 145.23 -23.574 l S Q
  Q
Q
Q q
140.602 28.207 m 144.852 28.207 l 144.852 47.199 l 140.602 47.199 l h
140.602 47.199 m 206.914 47.199 l 206.914 51.449 l 140.602 51.449 l h
140.602 47.199 m W n
q
140 28 67 24 re W n
  q
0 g
0.510386 w
2 J
0 j
[] 0.0 d
10 M q 1 0 0 -1 0 0 cm
198.938 -72.484 m 147.633 -21.176 l S Q
  Q
Q
Q q
141.914 28.207 m 144.852 28.207 l 144.852 47.199 l 141.914 47.199 l h
141.914 47.199 m 208.914 47.199 l 208.914 51.449 l 141.914 51.449 l h
141.914 47.199 m W n
q
141 28 68 24 re W n
  q
0 g
0.510386 w
2 J
0 j
[] 0.0 d
10 M q 1 0 0 -1 0 0 cm
201.34 -70.082 m 150.031 -18.777 l S Q
  Q
Q
Q q
144.914 47.199 67 4.25 re W n
q
144 47 68 5 re W n
  q
0 g
0.510386 w
2 J
0 j
[] 0.0 d
10 M q 1 0 0 -1 0 0 cm
203.738 -67.684 m 152.43 -16.375 l S Q
  Q
Q
Q q
146.914 47.199 67 4.25 re W n
q
146 47 68 5 re W n
  q
0 g
0.510386 w
2 J
0 j
[] 0.0 d
10 M q 1 0 0 -1 0 0 cm
206.137 -65.285 m 154.832 -13.977 l S Q
  Q
Q
Q q
215.719 28.207 m 215.914 28.207 l 215.914 47.199 l 215.719 47.199 l h
149.914 47.199 m 215.914 47.199 l 215.914 51.449 l 149.914 51.449 l h
149.914 47.199 m W n
q
149 28 67 24 re W n
  q
0 g
0.510386 w
2 J
0 j
[] 0.0 d
10 M q 1 0 0 -1 0 0 cm
208.539 -62.883 m 157.23 -11.574 l S Q
  Q
Q
Q q
215.719 28.207 m 218.914 28.207 l 218.914 47.199 l 215.719 47.199 l h
151.914 47.199 m 218.914 47.199 l 218.914 51.449 l 151.914 51.449 l h
151.914 47.199 m W n
q
151 28 68 24 re W n
  q
0 g
0.510386 w
2 J
0 j
[] 0.0 d
10 M q 1 0 0 -1 0 0 cm
210.938 -60.484 m 159.633 -9.176 l S Q
  Q
Q
Q q
215.719 28.207 m 219.973 28.207 l 219.973 47.199 l 215.719 47.199 l h
153.914 47.199 m 219.973 47.199 l 219.973 51.449 l 153.914 51.449 l h
153.914 47.199 m W n
q
153 28 67 24 re W n
  q
0 g
0.510386 w
2 J
0 j
[] 0.0 d
10 M q 1 0 0 -1 0 0 cm
213.34 -58.082 m 162.031 -6.777 l S Q
  Q
Q
Q q
215.719 28.207 m 219.973 28.207 l 219.973 47.199 l 215.719 47.199 l h
156.914 47.199 m 219.973 47.199 l 219.973 51.449 l 156.914 51.449 l h
156.914 47.199 m W n
q
156 28 64 24 re W n
  q
0 g
0.510386 w
2 J
0 j
[] 0.0 d
10 M q 1 0 0 -1 0 0 cm
215.738 -55.684 m 164.43 -4.375 l S Q
  Q
Q
Q q
215.719 28.207 m 219.973 28.207 l 219.973 47.199 l 215.719 47.199 l h
158.914 47.199 m 219.973 47.199 l 219.973 51.449 l 158.914 51.449 l h
158.914 47.199 m W n
q
158 28 62 24 re W n
  q
0 g
0.510386 w
2 J
0 j
[] 0.0 d
10 M q 1 0 0 -1 0 0 cm
218.137 -53.285 m 166.832 -1.977 l S Q
  Q
Q
Q q
215.719 28.207 m 219.973 28.207 l 219.973 47.199 l 215.719 47.199 l h
161.914 47.199 m 219.973 47.199 l 219.973 51.449 l 161.914 51.449 l h
161.914 47.199 m W n
q
161 28 59 24 re W n
  q
0 g
0.510386 w
2 J
0 j
[] 0.0 d
10 M q 1 0 0 -1 0 0 cm
220.539 -50.883 m 169.23 0.426 l S Q
  Q
Q
Q q
215.719 28.207 m 219.973 28.207 l 219.973 47.199 l 215.719 47.199 l h
163.914 47.199 m 219.973 47.199 l 219.973 51.449 l 163.914 51.449 l h
163.914 47.199 m W n
q
163 28 57 24 re W n
  q
0 g
0.510386 w
2 J
0 j
[] 0.0 d
10 M q 1 0 0 -1 0 0 cm
222.938 -48.484 m 171.633 2.824 l S Q
  Q
Q
Q q
215.719 28.207 m 219.973 28.207 l 219.973 47.199 l 215.719 47.199 l h
165.914 47.199 m 219.973 47.199 l 219.973 51.449 l 165.914 51.449 l h
165.914 47.199 m W n
q
165 28 55 24 re W n
  q
0 g
0.510386 w
2 J
0 j
[] 0.0 d
10 M q 1 0 0 -1 0 0 cm
225.34 -46.082 m 174.031 5.223 l S Q
  Q
Q
Q q
215.719 28.207 m 219.973 28.207 l 219.973 47.199 l 215.719 47.199 l h
168.914 47.199 m 219.973 47.199 l 219.973 51.078 l 168.914 51.078 l h
168.914 47.199 m W n
q
168 28 52 24 re W n
  q
0 g
0.510386 w
2 J
0 j
[] 0.0 d
10 M q 1 0 0 -1 0 0 cm
227.738 -43.684 m 176.43 7.625 l S Q
  Q
Q
Q q
215.719 28.207 m 219.973 28.207 l 219.973 47.199 l 215.719 47.199 l h
170.914 47.199 m 219.973 47.199 l 219.973 49.078 l 170.914 49.078 l h
170.914 47.199 m W n
q
170 28 50 22 re W n
  q
0 g
0.510386 w
2 J
0 j
[] 0.0 d
10 M q 1 0 0 -1 0 0 cm
230.137 -41.285 m 178.832 10.023 l S Q
  Q
Q
Q q
215.719 28.207 4.254 18.871 re W n
q
215 28 5 20 re W n
  q
0 g
0.510386 w
2 J
0 j
[] 0.0 d
10 M q 1 0 0 -1 0 0 cm
232.539 -38.883 m 181.23 12.426 l S Q
  Q
Q
Q q
0 g
0.850361 w
0 J
0 j
[] 0.0 d
10 M q 1 0 0 -1 0 0 cm
142.727 -28.207 m 140.602 -28.207 l 140.602 -51.449 l 219.973 -51.449 l
 219.973 -28.207 l 215.719 -28.207 l 215.719 -47.199 l 144.852 -47.199 l
 144.852 -28.207 l h
142.727 -28.207 m S Q
Q q
140.602 4.078 m 187.914 4.078 l 187.914 4.68 l 140.602 4.68 l h
140.602 4.68 m 144.852 4.68 l 144.852 23.672 l 140.602 23.672 l h
140.602 4.68 m W n
q
140 4 48 20 re W n
  q
0 g
0.510386 w
2 J
0 j
[] 0.0 d
10 M q 1 0 0 -1 0 0 cm
180.25 -63.395 m 128.941 -12.086 l S Q
  Q
Q
Q q
140.602 2.078 m 189.914 2.078 l 189.914 4.68 l 140.602 4.68 l h
140.602 4.68 m 144.852 4.68 l 144.852 23.672 l 140.602 23.672 l h
140.602 4.68 m W n
q
140 2 50 22 re W n
  q
0 g
0.510386 w
2 J
0 j
[] 0.0 d
10 M q 1 0 0 -1 0 0 cm
182.648 -60.992 m 131.34 -9.688 l S Q
  Q
Q
Q q
140.602 0.426 m 192.914 0.426 l 192.914 4.68 l 140.602 4.68 l h
140.602 4.68 m 144.852 4.68 l 144.852 23.672 l 140.602 23.672 l h
140.602 4.68 m W n
q
140 0 53 24 re W n
  q
0 g
0.510386 w
2 J
0 j
[] 0.0 d
10 M q 1 0 0 -1 0 0 cm
185.047 -58.594 m 133.742 -7.285 l S Q
  Q
Q
Q q
140.602 0.426 m 194.914 0.426 l 194.914 4.68 l 140.602 4.68 l h
140.602 4.68 m 144.852 4.68 l 144.852 23.672 l 140.602 23.672 l h
140.602 4.68 m W n
q
140 0 55 24 re W n
  q
0 g
0.510386 w
2 J
0 j
[] 0.0 d
10 M q 1 0 0 -1 0 0 cm
187.449 -56.191 m 136.141 -4.887 l S Q
  Q
Q
Q q
140.602 0.426 m 197.914 0.426 l 197.914 4.68 l 140.602 4.68 l h
140.602 4.68 m 144.852 4.68 l 144.852 23.672 l 140.602 23.672 l h
140.602 4.68 m W n
q
140 0 58 24 re W n
  q
0 g
0.510386 w
2 J
0 j
[] 0.0 d
10 M q 1 0 0 -1 0 0 cm
189.848 -53.793 m 138.543 -2.484 l S Q
  Q
Q
Q q
140.602 0.426 m 199.914 0.426 l 199.914 4.68 l 140.602 4.68 l h
140.602 4.68 m 144.852 4.68 l 144.852 23.672 l 140.602 23.672 l h
140.602 4.68 m W n
q
140 0 60 24 re W n
  q
0 g
0.510386 w
2 J
0 j
[] 0.0 d
10 M q 1 0 0 -1 0 0 cm
192.25 -51.395 m 140.941 -0.086 l S Q
  Q
Q
Q q
140.602 0.426 m 201.914 0.426 l 201.914 4.68 l 140.602 4.68 l h
140.602 4.68 m 144.852 4.68 l 144.852 23.672 l 140.602 23.672 l h
140.602 4.68 m W n
q
140 0 62 24 re W n
  q
0 g
0.510386 w
2 J
0 j
[] 0.0 d
10 M q 1 0 0 -1 0 0 cm
194.648 -48.992 m 143.34 2.312 l S Q
  Q
Q
Q q
140.602 0.426 m 204.914 0.426 l 204.914 4.68 l 140.602 4.68 l h
140.602 4.68 m 144.852 4.68 l 144.852 23.672 l 140.602 23.672 l h
140.602 4.68 m W n
q
140 0 65 24 re W n
  q
0 g
0.510386 w
2 J
0 j
[] 0.0 d
10 M q 1 0 0 -1 0 0 cm
197.047 -46.594 m 145.742 4.715 l S Q
  Q
Q
Q q
140.914 0.426 m 206.914 0.426 l 206.914 4.68 l 140.914 4.68 l h
140.914 4.68 m 144.852 4.68 l 144.852 23.672 l 140.914 23.672 l h
140.914 4.68 m W n
q
140 0 67 24 re W n
  q
0 g
0.510386 w
2 J
0 j
[] 0.0 d
10 M q 1 0 0 -1 0 0 cm
199.449 -44.191 m 148.141 7.113 l S Q
  Q
Q
Q q
142.914 0.426 m 209.914 0.426 l 209.914 4.68 l 142.914 4.68 l h
142.914 4.68 m 144.852 4.68 l 144.852 23.672 l 142.914 23.672 l h
142.914 4.68 m W n
q
142 0 68 24 re W n
  q
0 g
0.510386 w
2 J
0 j
[] 0.0 d
10 M q 1 0 0 -1 0 0 cm
201.848 -41.793 m 150.543 9.516 l S Q
  Q
Q
Q q
144.914 0.426 67 4.254 re W n
q
144 0 68 5 re W n
  q
0 g
0.510386 w
2 J
0 j
[] 0.0 d
10 M q 1 0 0 -1 0 0 cm
204.25 -39.395 m 152.941 11.914 l S Q
  Q
Q
Q q
147.914 0.426 66 4.254 re W n
q
147 0 67 5 re W n
  q
0 g
0.510386 w
2 J
0 j
[] 0.0 d
10 M q 1 0 0 -1 0 0 cm
206.648 -36.992 m 155.34 14.312 l S Q
  Q
Q
Q q
149.914 0.426 m 216.914 0.426 l 216.914 4.68 l 149.914 4.68 l h
215.719 4.68 m 216.914 4.68 l 216.914 23.672 l 215.719 23.672 l h
215.719 4.68 m W n
q
149 0 68 24 re W n
  q
0 g
0.510386 w
2 J
0 j
[] 0.0 d
10 M q 1 0 0 -1 0 0 cm
209.047 -34.594 m 157.742 16.715 l S Q
  Q
Q
Q q
152.914 0.426 m 218.914 0.426 l 218.914 4.68 l 152.914 4.68 l h
215.719 4.68 m 218.914 4.68 l 218.914 23.672 l 215.719 23.672 l h
215.719 4.68 m W n
q
152 0 67 24 re W n
  q
0 g
0.510386 w
2 J
0 j
[] 0.0 d
10 M q 1 0 0 -1 0 0 cm
211.449 -32.191 m 160.141 19.113 l S Q
  Q
Q
Q q
154.914 0.426 m 219.973 0.426 l 219.973 4.68 l 154.914 4.68 l h
215.719 4.68 m 219.973 4.68 l 219.973 23.672 l 215.719 23.672 l h
215.719 4.68 m W n
q
154 0 66 24 re W n
  q
0 g
0.510386 w
2 J
0 j
[] 0.0 d
10 M q 1 0 0 -1 0 0 cm
213.848 -29.793 m 162.543 21.516 l S Q
  Q
Q
Q q
156.914 0.426 m 219.973 0.426 l 219.973 4.68 l 156.914 4.68 l h
215.719 4.68 m 219.973 4.68 l 219.973 23.672 l 215.719 23.672 l h
215.719 4.68 m W n
q
156 0 64 24 re W n
  q
0 g
0.510386 w
2 J
0 j
[] 0.0 d
10 M q 1 0 0 -1 0 0 cm
216.25 -27.395 m 164.941 23.914 l S Q
  Q
Q
Q q
159.914 0.426 m 219.973 0.426 l 219.973 4.68 l 159.914 4.68 l h
215.719 4.68 m 219.973 4.68 l 219.973 23.672 l 215.719 23.672 l h
215.719 4.68 m W n
q
159 0 61 24 re W n
  q
0 g
0.510386 w
2 J
0 j
[] 0.0 d
10 M q 1 0 0 -1 0 0 cm
218.648 -24.992 m 167.34 26.312 l S Q
  Q
Q
Q q
161.914 0.426 m 219.973 0.426 l 219.973 4.68 l 161.914 4.68 l h
215.719 4.68 m 219.973 4.68 l 219.973 23.672 l 215.719 23.672 l h
215.719 4.68 m W n
q
161 0 59 24 re W n
  q
0 g
0.510386 w
2 J
0 j
[] 0.0 d
10 M q 1 0 0 -1 0 0 cm
221.047 -22.594 m 169.742 28.715 l S Q
  Q
Q
Q q
164.914 0.426 m 219.973 0.426 l 219.973 4.68 l 164.914 4.68 l h
215.719 4.68 m 219.973 4.68 l 219.973 23.672 l 215.719 23.672 l h
215.719 4.68 m W n
q
164 0 56 24 re W n
  q
0 g
0.510386 w
2 J
0 j
[] 0.0 d
10 M q 1 0 0 -1 0 0 cm
223.449 -20.191 m 172.141 31.113 l S Q
  Q
Q
Q q
166.914 0.426 m 219.973 0.426 l 219.973 4.68 l 166.914 4.68 l h
215.719 4.68 m 219.973 4.68 l 219.973 23.672 l 215.719 23.672 l h
215.719 4.68 m W n
q
166 0 54 24 re W n
  q
0 g
0.510386 w
2 J
0 j
[] 0.0 d
10 M q 1 0 0 -1 0 0 cm
225.848 -17.793 m 174.543 33.516 l S Q
  Q
Q
Q q
168.914 0.426 m 219.973 0.426 l 219.973 4.68 l 168.914 4.68 l h
215.719 4.68 m 219.973 4.68 l 219.973 23.078 l 215.719 23.078 l h
215.719 4.68 m W n
q
168 0 52 24 re W n
  q
0 g
0.510386 w
2 J
0 j
[] 0.0 d
10 M q 1 0 0 -1 0 0 cm
228.25 -15.395 m 176.941 35.914 l S Q
  Q
Q
Q q
171.914 0.426 m 219.973 0.426 l 219.973 4.68 l 171.914 4.68 l h
215.719 4.68 m 219.973 4.68 l 219.973 21.078 l 215.719 21.078 l h
215.719 4.68 m W n
q
171 0 49 22 re W n
  q
0 g
0.510386 w
2 J
0 j
[] 0.0 d
10 M q 1 0 0 -1 0 0 cm
230.648 -12.992 m 179.34 38.312 l S Q
  Q
Q
Q q
173.914 0.426 m 219.973 0.426 l 219.973 4.68 l 173.914 4.68 l h
215.719 4.68 m 219.973 4.68 l 219.973 18.078 l 215.719 18.078 l h
215.719 4.68 m W n
q
173 0 47 19 re W n
  q
0 g
0.510386 w
2 J
0 j
[] 0.0 d
10 M q 1 0 0 -1 0 0 cm
233.047 -10.594 m 181.742 40.715 l S Q
  Q
Q
Q q
0 g
0.850361 w
0 J
0 j
[] 0.0 d
10 M q 1 0 0 -1 0 0 cm
142.727 -23.672 m 140.602 -23.672 l 140.602 -0.426 l 219.973 -0.426 l 219.973
 -23.672 l 215.719 -23.672 l 215.719 -4.68 l 144.852 -4.68 l 144.852 -23.672
 l h
142.727 -23.672 m S Q
Q q
156.617 23.078 m 161.434 23.078 l 161.434 25.938 l 156.617 25.938 l h
156.617 25.938 m 161.434 25.938 l 161.434 46.773 l 156.617 46.773 l h
156.617 25.938 m W n
q
156 23 6 24 re W n
  q
0 g
0.169973 w
2 J
0 j
[] 0.0 d
10 M q 1 0 0 -1 0 0 cm
158.602 -49.609 m 135.355 -26.363 l S Q
  Q
Q
Q q
156.617 22.078 m 161.434 22.078 l 161.434 25.938 l 156.617 25.938 l h
156.617 25.938 m 161.434 25.938 l 161.434 46.773 l 156.617 46.773 l h
156.617 25.938 m W n
q
156 22 6 25 re W n
  q
0 g
0.169973 w
2 J
0 j
[] 0.0 d
10 M q 1 0 0 -1 0 0 cm
159.902 -48.309 m 136.656 -25.062 l S Q
  Q
Q
Q q
156.617 21.078 m 161.434 21.078 l 161.434 25.938 l 156.617 25.938 l h
156.617 25.938 m 161.434 25.938 l 161.434 46.773 l 156.617 46.773 l h
156.617 25.938 m W n
q
156 21 6 26 re W n
  q
0 g
0.169973 w
2 J
0 j
[] 0.0 d
10 M q 1 0 0 -1 0 0 cm
161.199 -47.008 m 137.957 -23.762 l S Q
  Q
Q
Q q
156.617 19.078 m 161.434 19.078 l 161.434 25.938 l 156.617 25.938 l h
156.617 25.938 m 161.434 25.938 l 161.434 46.773 l 156.617 46.773 l h
156.617 25.938 m W n
q
156 19 6 28 re W n
  q
0 g
0.169973 w
2 J
0 j
[] 0.0 d
10 M q 1 0 0 -1 0 0 cm
162.5 -45.707 m 139.258 -22.465 l S Q
  Q
Q
Q q
156.617 18.078 m 161.434 18.078 l 161.434 25.938 l 156.617 25.938 l h
156.617 25.938 m 161.434 25.938 l 161.434 46.773 l 156.617 46.773 l h
156.617 25.938 m W n
q
156 18 6 29 re W n
  q
0 g
0.169973 w
2 J
0 j
[] 0.0 d
10 M q 1 0 0 -1 0 0 cm
163.801 -44.41 m 140.559 -21.164 l S Q
  Q
Q
Q q
156.617 17.078 m 161.434 17.078 l 161.434 25.938 l 156.617 25.938 l h
156.617 25.938 m 161.434 25.938 l 161.434 46.078 l 156.617 46.078 l h
156.617 25.938 m W n
q
156 17 6 30 re W n
  q
0 g
0.169973 w
2 J
0 j
[] 0.0 d
10 M q 1 0 0 -1 0 0 cm
165.102 -43.109 m 141.855 -19.863 l S Q
  Q
Q
Q q
156.617 16.078 m 161.434 16.078 l 161.434 25.938 l 156.617 25.938 l h
156.617 25.938 m 161.434 25.938 l 161.434 45.078 l 156.617 45.078 l h
156.617 25.938 m W n
q
156 16 6 30 re W n
  q
0 g
0.169973 w
2 J
0 j
[] 0.0 d
10 M q 1 0 0 -1 0 0 cm
166.402 -41.809 m 143.156 -18.562 l S Q
  Q
Q
Q q
156.617 14.078 m 161.434 14.078 l 161.434 25.938 l 156.617 25.938 l h
156.617 25.938 m 161.434 25.938 l 161.434 43.078 l 156.617 43.078 l h
156.617 25.938 m W n
q
156 14 6 30 re W n
  q
0 g
0.169973 w
2 J
0 j
[] 0.0 d
10 M q 1 0 0 -1 0 0 cm
167.699 -40.508 m 144.457 -17.262 l S Q
  Q
Q
Q q
156.617 13.078 m 161.434 13.078 l 161.434 25.938 l 156.617 25.938 l h
156.617 25.938 m 161.434 25.938 l 161.434 42.078 l 156.617 42.078 l h
156.617 25.938 m W n
q
156 13 6 30 re W n
  q
0 g
0.169973 w
2 J
0 j
[] 0.0 d
10 M q 1 0 0 -1 0 0 cm
169 -39.207 m 145.758 -15.965 l S Q
  Q
Q
Q q
156.617 12.078 m 161.434 12.078 l 161.434 25.938 l 156.617 25.938 l h
156.617 25.938 m 161.434 25.938 l 161.434 41.078 l 156.617 41.078 l h
156.617 25.938 m W n
q
156 12 6 30 re W n
  q
0 g
0.169973 w
2 J
0 j
[] 0.0 d
10 M q 1 0 0 -1 0 0 cm
170.301 -37.91 m 147.059 -14.664 l S Q
  Q
Q
Q q
156.617 10.078 m 161.434 10.078 l 161.434 25.938 l 156.617 25.938 l h
156.617 25.938 m 161.434 25.938 l 161.434 39.078 l 156.617 39.078 l h
156.617 25.938 m W n
q
156 10 6 30 re W n
  q
0 g
0.169973 w
2 J
0 j
[] 0.0 d
10 M q 1 0 0 -1 0 0 cm
171.602 -36.609 m 148.355 -13.363 l S Q
  Q
Q
Q q
156.617 9.078 m 161.434 9.078 l 161.434 25.938 l 156.617 25.938 l h
156.617 25.938 m 161.434 25.938 l 161.434 38.078 l 156.617 38.078 l h
156.617 25.938 m W n
q
156 9 6 30 re W n
  q
0 g
0.169973 w
2 J
0 j
[] 0.0 d
10 M q 1 0 0 -1 0 0 cm
172.902 -35.309 m 149.656 -12.062 l S Q
  Q
Q
Q q
156.617 8.078 m 161.434 8.078 l 161.434 25.938 l 156.617 25.938 l h
156.617 25.938 m 161.434 25.938 l 161.434 37.078 l 156.617 37.078 l h
156.617 25.938 m W n
q
156 8 6 30 re W n
  q
0 g
0.169973 w
2 J
0 j
[] 0.0 d
10 M q 1 0 0 -1 0 0 cm
174.199 -34.008 m 150.957 -10.762 l S Q
  Q
Q
Q q
156.617 6.078 m 161.434 6.078 l 161.434 25.938 l 156.617 25.938 l h
156.617 25.938 m 161.434 25.938 l 161.434 36.078 l 156.617 36.078 l h
156.617 25.938 m W n
q
156 6 6 31 re W n
  q
0 g
0.169973 w
2 J
0 j
[] 0.0 d
10 M q 1 0 0 -1 0 0 cm
175.5 -32.707 m 152.258 -9.465 l S Q
  Q
Q
Q q
156.617 5.102 m 161.434 5.102 l 161.434 25.938 l 156.617 25.938 l h
156.617 25.938 m 161.434 25.938 l 161.434 34.078 l 156.617 34.078 l h
156.617 25.938 m W n
q
156 5 6 30 re W n
  q
0 g
0.169973 w
2 J
0 j
[] 0.0 d
10 M q 1 0 0 -1 0 0 cm
176.801 -31.41 m 153.559 -8.164 l S Q
  Q
Q
Q q
156.617 5.102 m 161.434 5.102 l 161.434 25.938 l 156.617 25.938 l h
156.617 25.938 m 161.434 25.938 l 161.434 33.078 l 156.617 33.078 l h
156.617 25.938 m W n
q
156 5 6 29 re W n
  q
0 g
0.169973 w
2 J
0 j
[] 0.0 d
10 M q 1 0 0 -1 0 0 cm
178.102 -30.109 m 154.855 -6.863 l S Q
  Q
Q
Q q
156.617 5.102 m 161.434 5.102 l 161.434 25.938 l 156.617 25.938 l h
156.617 25.938 m 161.434 25.938 l 161.434 32.078 l 156.617 32.078 l h
156.617 25.938 m W n
q
156 5 6 28 re W n
  q
0 g
0.169973 w
2 J
0 j
[] 0.0 d
10 M q 1 0 0 -1 0 0 cm
179.402 -28.809 m 156.156 -5.562 l S Q
  Q
Q
Q q
156.617 5.102 m 161.434 5.102 l 161.434 25.938 l 156.617 25.938 l h
156.617 25.938 m 161.434 25.938 l 161.434 30.078 l 156.617 30.078 l h
156.617 25.938 m W n
q
156 5 6 26 re W n
  q
0 g
0.169973 w
2 J
0 j
[] 0.0 d
10 M q 1 0 0 -1 0 0 cm
180.699 -27.508 m 157.457 -4.262 l S Q
  Q
Q
Q q
156.617 5.102 m 161.434 5.102 l 161.434 25.938 l 156.617 25.938 l h
156.617 25.938 m 161.434 25.938 l 161.434 29.078 l 156.617 29.078 l h
156.617 25.938 m W n
q
156 5 6 25 re W n
  q
0 g
0.169973 w
2 J
0 j
[] 0.0 d
10 M q 1 0 0 -1 0 0 cm
182 -26.207 m 158.758 -2.965 l S Q
  Q
Q
Q q
156.914 5.102 m 161.434 5.102 l 161.434 25.938 l 156.914 25.938 l h
156.914 25.938 m 161.434 25.938 l 161.434 28.078 l 156.914 28.078 l h
156.914 25.938 m W n
q
156 5 6 24 re W n
  q
0 g
0.169973 w
2 J
0 j
[] 0.0 d
10 M q 1 0 0 -1 0 0 cm
183.301 -24.91 m 160.059 -1.664 l S Q
  Q
Q
Q q
0 g
0.850361 w
0 J
0 j
[] 0.0 d
10 M q 1 0 0 -1 0 0 cm
156.617 -25.938 m 156.617 -24.746 l 156.617 -22.422 m 156.617 -20.098 l
 156.617 -17.773 m 156.617 -15.449 l 156.617 -13.125 m 156.617 -10.801 l
 156.617 -8.477 m 156.617 -6.152 l 157.895 -5.102 m 160.219 -5.102 l 161.438
 -6.207 m 161.438 -8.531 l 161.438 -10.855 m 161.438 -13.18 l 161.438 -15.504
 m 161.438 -17.832 l 161.438 -20.156 m 161.438 -22.48 l 161.438 -24.805 
m 161.438 -27.129 l 161.438 -29.453 m 161.438 -31.777 l 161.438 -34.102 
m 161.438 -36.426 l 161.438 -38.75 m 161.438 -41.074 l 161.438 -43.398 m
 161.438 -45.723 l 160.16 -46.773 m 157.836 -46.773 l 156.617 -45.664 m 
156.617 -43.34 l 156.617 -41.016 m 156.617 -38.691 l 156.617 -36.367 m 156.617
 -34.043 l 156.617 -31.719 m 156.617 -29.395 l 156.617 -27.07 m 156.617 
-25.938 l S Q
q 1 0 0 -1 0 0 cm
156.617 -44.363 m 156.617 -46.773 l 161.434 -46.773 l 161.434 -44.363 l
 S Q
q 1 0 0 -1 0 0 cm
156.617 -7.512 m 156.617 -5.102 l 161.434 -5.102 l 161.434 -7.512 l S Q
157.926 61.176 m 160.129 61.176 l 160.129 61.051 l 159.52 61.051 159.379
 60.973 159.363 60.582 c 159.363 55.801 l 159.301 55.785 l 157.879 56.52
 l 157.879 56.629 l 158.176 56.504 158.379 56.457 158.441 56.457 c 158.613
 56.457 158.691 56.566 158.691 56.832 c 158.691 60.441 l 158.676 60.941 
158.535 61.051 157.926 61.051 c h
157.926 61.176 m f
Q q
190.914 23.078 m 195.453 23.078 l 195.453 25.938 l 190.914 25.938 l h
190.914 25.938 m 195.453 25.938 l 195.453 46.773 l 190.914 46.773 l h
190.914 25.938 m W n
q
190 23 6 24 re W n
  q
0 g
0.169973 w
2 J
0 j
[] 0.0 d
10 M q 1 0 0 -1 0 0 cm
216.711 -26.363 m 193.469 -49.605 l S Q
  Q
Q
Q q
190.633 22.078 m 195.453 22.078 l 195.453 25.938 l 190.633 25.938 l h
190.633 25.938 m 195.453 25.938 l 195.453 46.773 l 190.633 46.773 l h
190.633 25.938 m W n
q
190 22 6 25 re W n
  q
0 g
0.169973 w
2 J
0 j
[] 0.0 d
10 M q 1 0 0 -1 0 0 cm
215.41 -25.062 m 192.168 -48.309 l S Q
  Q
Q
Q q
190.633 21.078 m 195.453 21.078 l 195.453 25.938 l 190.633 25.938 l h
190.633 25.938 m 195.453 25.938 l 195.453 46.773 l 190.633 46.773 l h
190.633 25.938 m W n
q
190 21 6 26 re W n
  q
0 g
0.169973 w
2 J
0 j
[] 0.0 d
10 M q 1 0 0 -1 0 0 cm
214.109 -23.762 m 190.867 -47.008 l S Q
  Q
Q
Q q
190.633 19.078 m 195.453 19.078 l 195.453 25.938 l 190.633 25.938 l h
190.633 25.938 m 195.453 25.938 l 195.453 46.773 l 190.633 46.773 l h
190.633 25.938 m W n
q
190 19 6 28 re W n
  q
0 g
0.169973 w
2 J
0 j
[] 0.0 d
10 M q 1 0 0 -1 0 0 cm
212.812 -22.465 m 189.566 -45.707 l S Q
  Q
Q
Q q
190.633 18.078 m 195.453 18.078 l 195.453 25.938 l 190.633 25.938 l h
190.633 25.938 m 195.453 25.938 l 195.453 46.773 l 190.633 46.773 l h
190.633 25.938 m W n
q
190 18 6 29 re W n
  q
0 g
0.169973 w
2 J
0 j
[] 0.0 d
10 M q 1 0 0 -1 0 0 cm
211.512 -21.164 m 188.266 -44.406 l S Q
  Q
Q
Q q
190.633 17.078 m 195.453 17.078 l 195.453 25.938 l 190.633 25.938 l h
190.633 25.938 m 195.453 25.938 l 195.453 46.078 l 190.633 46.078 l h
190.633 25.938 m W n
q
190 17 6 30 re W n
  q
0 g
0.169973 w
2 J
0 j
[] 0.0 d
10 M q 1 0 0 -1 0 0 cm
210.211 -19.863 m 186.969 -43.105 l S Q
  Q
Q
Q q
190.633 16.078 m 195.453 16.078 l 195.453 25.938 l 190.633 25.938 l h
190.633 25.938 m 195.453 25.938 l 195.453 45.078 l 190.633 45.078 l h
190.633 25.938 m W n
q
190 16 6 30 re W n
  q
0 g
0.169973 w
2 J
0 j
[] 0.0 d
10 M q 1 0 0 -1 0 0 cm
208.91 -18.562 m 185.668 -41.809 l S Q
  Q
Q
Q q
190.633 14.078 m 195.453 14.078 l 195.453 25.938 l 190.633 25.938 l h
190.633 25.938 m 195.453 25.938 l 195.453 43.078 l 190.633 43.078 l h
190.633 25.938 m W n
q
190 14 6 30 re W n
  q
0 g
0.169973 w
2 J
0 j
[] 0.0 d
10 M q 1 0 0 -1 0 0 cm
207.609 -17.262 m 184.367 -40.508 l S Q
  Q
Q
Q q
190.633 13.078 m 195.453 13.078 l 195.453 25.938 l 190.633 25.938 l h
190.633 25.938 m 195.453 25.938 l 195.453 42.078 l 190.633 42.078 l h
190.633 25.938 m W n
q
190 13 6 30 re W n
  q
0 g
0.169973 w
2 J
0 j
[] 0.0 d
10 M q 1 0 0 -1 0 0 cm
206.312 -15.965 m 183.066 -39.207 l S Q
  Q
Q
Q q
190.633 12.078 m 195.453 12.078 l 195.453 25.938 l 190.633 25.938 l h
190.633 25.938 m 195.453 25.938 l 195.453 41.078 l 190.633 41.078 l h
190.633 25.938 m W n
q
190 12 6 30 re W n
  q
0 g
0.169973 w
2 J
0 j
[] 0.0 d
10 M q 1 0 0 -1 0 0 cm
205.012 -14.664 m 181.766 -37.906 l S Q
  Q
Q
Q q
190.633 10.078 m 195.453 10.078 l 195.453 25.938 l 190.633 25.938 l h
190.633 25.938 m 195.453 25.938 l 195.453 39.078 l 190.633 39.078 l h
190.633 25.938 m W n
q
190 10 6 30 re W n
  q
0 g
0.169973 w
2 J
0 j
[] 0.0 d
10 M q 1 0 0 -1 0 0 cm
203.711 -13.363 m 180.469 -36.605 l S Q
  Q
Q
Q q
190.633 9.078 m 195.453 9.078 l 195.453 25.938 l 190.633 25.938 l h
190.633 25.938 m 195.453 25.938 l 195.453 38.078 l 190.633 38.078 l h
190.633 25.938 m W n
q
190 9 6 30 re W n
  q
0 g
0.169973 w
2 J
0 j
[] 0.0 d
10 M q 1 0 0 -1 0 0 cm
202.41 -12.062 m 179.168 -35.309 l S Q
  Q
Q
Q q
190.633 8.078 m 195.453 8.078 l 195.453 25.938 l 190.633 25.938 l h
190.633 25.938 m 195.453 25.938 l 195.453 37.078 l 190.633 37.078 l h
190.633 25.938 m W n
q
190 8 6 30 re W n
  q
0 g
0.169973 w
2 J
0 j
[] 0.0 d
10 M q 1 0 0 -1 0 0 cm
201.109 -10.762 m 177.867 -34.008 l S Q
  Q
Q
Q q
190.633 6.078 m 195.453 6.078 l 195.453 25.938 l 190.633 25.938 l h
190.633 25.938 m 195.453 25.938 l 195.453 36.078 l 190.633 36.078 l h
190.633 25.938 m W n
q
190 6 6 31 re W n
  q
0 g
0.169973 w
2 J
0 j
[] 0.0 d
10 M q 1 0 0 -1 0 0 cm
199.812 -9.465 m 176.566 -32.707 l S Q
  Q
Q
Q q
190.633 5.102 m 195.453 5.102 l 195.453 25.938 l 190.633 25.938 l h
190.633 25.938 m 195.453 25.938 l 195.453 34.078 l 190.633 34.078 l h
190.633 25.938 m W n
q
190 5 6 30 re W n
  q
0 g
0.169973 w
2 J
0 j
[] 0.0 d
10 M q 1 0 0 -1 0 0 cm
198.512 -8.164 m 175.266 -31.406 l S Q
  Q
Q
Q q
190.633 5.102 m 195.453 5.102 l 195.453 25.938 l 190.633 25.938 l h
190.633 25.938 m 195.453 25.938 l 195.453 33.078 l 190.633 33.078 l h
190.633 25.938 m W n
q
190 5 6 29 re W n
  q
0 g
0.169973 w
2 J
0 j
[] 0.0 d
10 M q 1 0 0 -1 0 0 cm
197.211 -6.863 m 173.969 -30.105 l S Q
  Q
Q
Q q
190.633 5.102 m 195.453 5.102 l 195.453 25.938 l 190.633 25.938 l h
190.633 25.938 m 195.453 25.938 l 195.453 32.078 l 190.633 32.078 l h
190.633 25.938 m W n
q
190 5 6 28 re W n
  q
0 g
0.169973 w
2 J
0 j
[] 0.0 d
10 M q 1 0 0 -1 0 0 cm
195.91 -5.562 m 172.668 -28.809 l S Q
  Q
Q
Q q
190.633 5.102 m 195.453 5.102 l 195.453 25.938 l 190.633 25.938 l h
190.633 25.938 m 195.453 25.938 l 195.453 30.078 l 190.633 30.078 l h
190.633 25.938 m W n
q
190 5 6 26 re W n
  q
0 g
0.169973 w
2 J
0 j
[] 0.0 d
10 M q 1 0 0 -1 0 0 cm
194.609 -4.262 m 171.367 -27.508 l S Q
  Q
Q
Q q
190.633 5.102 m 195.453 5.102 l 195.453 25.938 l 190.633 25.938 l h
190.633 25.938 m 195.453 25.938 l 195.453 29.078 l 190.633 29.078 l h
190.633 25.938 m W n
q
190 5 6 25 re W n
  q
0 g
0.169973 w
2 J
0 j
[] 0.0 d
10 M q 1 0 0 -1 0 0 cm
193.312 -2.965 m 170.066 -26.207 l S Q
  Q
Q
Q q
190.633 5.102 m 194.914 5.102 l 194.914 25.938 l 190.633 25.938 l h
190.633 25.938 m 194.914 25.938 l 194.914 28.078 l 190.633 28.078 l h
190.633 25.938 m W n
q
190 5 5 24 re W n
  q
0 g
0.169973 w
2 J
0 j
[] 0.0 d
10 M q 1 0 0 -1 0 0 cm
192.012 -1.664 m 168.766 -24.906 l S Q
  Q
Q
Q q
0 g
0.850361 w
0 J
0 j
[] 0.0 d
10 M q 1 0 0 -1 0 0 cm
190.637 -25.938 m 190.637 -24.746 l 190.637 -22.422 m 190.637 -20.098 l
 190.637 -17.773 m 190.637 -15.449 l 190.637 -13.125 m 190.637 -10.801 l
 190.637 -8.477 m 190.637 -6.152 l 191.91 -5.102 m 194.234 -5.102 l 195.453
 -6.203 m 195.453 -8.527 l 195.453 -10.852 m 195.453 -13.176 l 195.453 -15.5
 m 195.453 -17.824 l 195.453 -20.148 m 195.453 -22.473 l 195.453 -24.801
 m 195.453 -27.125 l 195.453 -29.449 m 195.453 -31.773 l 195.453 -34.098
 m 195.453 -36.422 l 195.453 -38.746 m 195.453 -41.07 l 195.453 -43.395 
m 195.453 -45.719 l 194.184 -46.773 m 191.859 -46.773 l 190.637 -45.676 
m 190.637 -43.348 l 190.637 -41.023 m 190.637 -38.699 l 190.637 -36.375 
m 190.637 -34.051 l 190.637 -31.727 m 190.637 -29.402 l 190.637 -27.078 
m 190.637 -25.938 l S Q
q 1 0 0 -1 0 0 cm
190.633 -44.363 m 190.633 -46.773 l 195.453 -46.773 l 195.453 -44.363 l
 S Q
q 1 0 0 -1 0 0 cm
190.633 -7.512 m 190.633 -5.102 l 195.453 -5.102 l 195.453 -7.512 l S Q
194.785 60.082 m 194.691 60.051 l 194.395 60.504 194.301 60.566 193.926
 60.566 c 192.02 60.566 l 193.363 59.16 l 194.066 58.426 194.379 57.816 
194.379 57.207 c 194.379 56.41 193.738 55.785 192.91 55.785 c 192.473 55.785
 192.051 55.957 191.754 56.285 c 191.504 56.551 191.379 56.816 191.254 57.379
 c 191.426 57.41 l 191.738 56.629 192.02 56.379 192.566 56.379 c 193.254
 56.379 193.691 56.832 193.691 57.504 c 193.691 58.129 193.332 58.863 192.66
 59.566 c 191.238 61.082 l 191.238 61.176 l 194.348 61.176 l h
194.785 60.082 m f
177.648 71.641 m 176.992 72.078 176.727 72.297 176.383 72.719 c 175.758
 73.5 175.445 74.391 175.445 75.438 c 175.445 76.594 175.773 77.469 176.555
 78.375 c 176.93 78.812 177.164 79 177.633 79.297 c 177.727 79.141 l 177.023
 78.578 176.773 78.266 176.523 77.594 c 176.305 77 176.211 76.328 176.211
 75.422 c 176.211 74.469 176.32 73.734 176.57 73.188 c 176.82 72.625 177.086
 72.297 177.727 71.781 c h
177.648 71.641 m f
179.383 71.594 m 179.336 71.578 l 178.961 71.703 178.727 71.781 178.289
 71.906 c 178.039 71.969 l 178.039 72.109 l 178.086 72.109 178.117 72.109
 178.18 72.109 c 178.539 72.109 178.633 72.188 178.633 72.562 c 178.633 
77.219 l 178.633 77.5 179.383 77.797 180.102 77.797 c 181.289 77.797 182.211
 76.812 182.211 75.531 c 182.211 74.406 181.523 73.578 180.633 73.578 c 
180.086 73.578 179.555 73.891 179.383 74.344 c h
179.383 74.812 m 179.383 74.469 179.805 74.141 180.273 74.141 c 180.523
 74.141 180.742 74.234 180.93 74.406 c 181.211 74.688 181.414 75.297 181.414
 75.938 c 181.414 76.938 180.992 77.5 180.258 77.5 c 179.789 77.5 179.383
 77.312 179.383 77.078 c h
179.383 74.812 m f
182.793 79.297 m 183.449 78.844 183.73 78.625 184.059 78.219 c 184.699 
77.438 185.012 76.531 185.012 75.484 c 185.012 74.344 184.668 73.469 183.887
 72.562 c 183.512 72.125 183.277 71.922 182.824 71.641 c 182.715 71.781 
l 183.434 72.344 183.668 72.656 183.918 73.328 c 184.137 73.938 184.23 74.609
 184.23 75.516 c 184.23 76.453 184.121 77.188 183.871 77.734 c 183.637 78.297
 183.355 78.625 182.715 79.141 c h
182.793 79.297 m f
153.27 18.5 m 152.91 18.484 152.832 18.406 152.551 17.812 c 150.566 13.281
 l 150.41 13.281 l 148.754 17.203 l 148.238 18.359 148.145 18.484 147.77
 18.5 c 147.77 18.656 l 149.348 18.656 l 149.348 18.5 l 148.957 18.5 148.801
 18.406 148.801 18.172 c 148.801 18.078 148.816 17.969 148.863 17.875 c 
149.223 16.938 l 151.316 16.938 l 151.645 17.703 l 151.738 17.922 151.801
 18.125 151.801 18.234 c 151.801 18.438 151.66 18.5 151.238 18.5 c 151.238
 18.656 l 153.27 18.656 l h
149.363 16.609 m 150.285 14.422 l 151.207 16.609 l h
149.363 16.609 m f
173.863 28.422 m 173.504 28.406 173.426 28.328 173.145 27.734 c 171.16 
23.203 l 171.004 23.203 l 169.348 27.125 l 168.832 28.281 168.738 28.406
 168.363 28.422 c 168.363 28.578 l 169.941 28.578 l 169.941 28.422 l 169.551
 28.422 169.395 28.328 169.395 28.094 c 169.395 28 169.41 27.891 169.457
 27.797 c 169.816 26.859 l 171.91 26.859 l 172.238 27.625 l 172.332 27.844
 172.395 28.047 172.395 28.156 c 172.395 28.359 172.254 28.422 171.832 28.422
 c 171.832 28.578 l 173.863 28.578 l h
169.957 26.531 m 170.879 24.344 l 171.801 26.531 l h
169.957 26.531 m f
175.98 26.297 m 174.23 26.297 l 174.23 26.828 l 175.98 26.828 l 175.98 
28.578 l 176.512 28.578 l 176.512 26.828 l 178.246 26.828 l 178.246 26.297
 l 176.512 26.297 l 176.512 24.547 l 175.98 24.547 l h
175.98 26.297 m f
178.578 23.453 m 179.25 23.5 179.328 23.578 179.344 24.172 c 179.344 27.703
 l 179.328 28.312 179.219 28.406 178.578 28.422 c 178.578 28.578 l 181.234
 28.578 l 181.844 28.578 182.422 28.406 182.719 28.141 c 183 27.891 183.156
 27.531 183.156 27.141 c 183.156 26.797 183.031 26.469 182.766 26.25 c 182.531
 26.031 182.312 25.938 181.797 25.812 c 182.219 25.703 182.375 25.625 182.578
 25.453 c 182.766 25.281 182.891 25 182.891 24.656 c 182.891 23.766 182.172
 23.297 180.797 23.297 c 178.578 23.297 l h
180.156 25.984 m 180.922 25.984 181.297 26.031 181.578 26.141 c 182.031
 26.328 182.25 26.656 182.25 27.156 c 182.25 27.578 182.078 27.891 181.766
 28.078 c 181.5 28.219 181.172 28.281 180.656 28.281 c 180.266 28.281 180.156
 28.219 180.156 27.953 c h
180.156 25.672 m 180.156 23.844 l 180.156 23.656 180.188 23.609 180.328
 23.609 c 180.672 23.594 l 181.562 23.578 182.078 23.984 182.078 24.688 
c 182.078 25.312 181.672 25.656 180.906 25.656 c h
180.156 25.672 m f
203.301 13.531 m 203.973 13.578 204.051 13.656 204.066 14.25 c 204.066 
17.781 l 204.051 18.391 203.941 18.484 203.301 18.5 c 203.301 18.656 l 205.957
 18.656 l 206.566 18.656 207.145 18.484 207.441 18.219 c 207.723 17.969 
207.879 17.609 207.879 17.219 c 207.879 16.875 207.754 16.547 207.488 16.328
 c 207.254 16.109 207.035 16.016 206.52 15.891 c 206.941 15.781 207.098 
15.703 207.301 15.531 c 207.488 15.359 207.613 15.078 207.613 14.734 c 207.613
 13.844 206.895 13.375 205.52 13.375 c 203.301 13.375 l h
204.879 16.062 m 205.645 16.062 206.02 16.109 206.301 16.219 c 206.754 
16.406 206.973 16.734 206.973 17.234 c 206.973 17.656 206.801 17.969 206.488
 18.156 c 206.223 18.297 205.895 18.359 205.379 18.359 c 204.988 18.359 
204.879 18.297 204.879 18.031 c h
204.879 15.75 m 204.879 13.922 l 204.879 13.734 204.91 13.688 205.051 13.688
 c 205.395 13.672 l 206.285 13.656 206.801 14.062 206.801 14.766 c 206.801
 15.391 206.395 15.734 205.629 15.734 c h
204.879 15.75 m f
133.734 20.09 m 129.262 21.688 l 133.734 23.285 l 131.945 21.688 l f
q 1 0 0 -1 0 0 cm
131.945 -21.688 m 137.766 -21.688 l S Q
226.836 23.285 m 231.309 21.688 l 226.836 20.09 l 228.625 21.688 l f
q 1 0 0 -1 0 0 cm
222.805 -21.688 m 228.625 -21.688 l S Q
q 1 0 0 -1 0 0 cm
256.395 -25.938 m 256.395 -24.098 l 272.836 -24.098 l 272.836 -27.781 l
 256.395 -27.781 l h
256.395 -25.938 m S Q
1 g
1.13366 w
q 1 0 0 -1 0 0 cm
256.395 -27.355 m 256.395 -24.52 l S Q
0 g
0.850361 w
q 1 0 0 -1 0 0 cm
256.395 -27.781 m 256.395 -27.781 255.492 -27.117 255.547 -26.648 c 255.59
 -26.277 256.102 -26.184 256.395 -25.938 c 256.691 -25.695 257.203 -25.598
 257.246 -25.23 c 257.301 -24.758 256.859 -24.098 256.395 -24.098 c 255.93
 -24.098 255.492 -24.758 255.547 -25.23 c 255.59 -25.598 256.395 -25.938
 256.395 -25.938 c S Q
q 1 0 0 -1 0 0 cm
342.852 -25.938 m 342.852 -24.098 l 359.293 -24.098 l 359.293 -27.781 l
 342.852 -27.781 l h
342.852 -25.938 m S Q
1 g
1.13366 w
q 1 0 0 -1 0 0 cm
359.293 -27.355 m 359.293 -24.52 l S Q
Q q
345.914 11.078 14.602 29 re W n
q
345 11 16 30 re W n
  q
0 g
0.850361 w
0 J
0 j
[] 0.0 d
10 M q 1 0 0 -1 0 0 cm
359.293 -27.781 m 359.293 -27.781 360.199 -27.117 360.145 -26.648 c 360.102
 -26.277 359.586 -26.184 359.293 -25.938 c 359 -25.695 358.488 -25.598 358.445
 -25.23 c 358.391 -24.758 358.828 -24.098 359.293 -24.098 c 359.758 -24.098
 360.199 -24.758 360.145 -25.23 c 360.102 -25.598 359.293 -25.938 359.293
 -25.938 c S Q
  Q
Q
Q q
268.16 30.078 m 272.41 30.078 l 272.41 47.199 l 268.16 47.199 l h
268.16 47.199 m 316.914 47.199 l 316.914 51.449 l 268.16 51.449 l h
268.16 47.199 m W n
q
268 30 49 22 re W n
  q
0 g
0.510386 w
2 J
0 j
[] 0.0 d
10 M q 1 0 0 -1 0 0 cm
309.695 -89.285 m 258.391 -37.977 l S Q
  Q
Q
Q q
268.16 28.207 m 272.41 28.207 l 272.41 47.199 l 268.16 47.199 l h
268.16 47.199 m 319.914 47.199 l 319.914 51.449 l 268.16 51.449 l h
268.16 47.199 m W n
q
268 28 52 24 re W n
  q
0 g
0.510386 w
2 J
0 j
[] 0.0 d
10 M q 1 0 0 -1 0 0 cm
312.098 -86.883 m 260.789 -35.574 l S Q
  Q
Q
Q q
268.16 28.207 m 272.41 28.207 l 272.41 47.199 l 268.16 47.199 l h
268.16 47.199 m 321.914 47.199 l 321.914 51.449 l 268.16 51.449 l h
268.16 47.199 m W n
q
268 28 54 24 re W n
  q
0 g
0.510386 w
2 J
0 j
[] 0.0 d
10 M q 1 0 0 -1 0 0 cm
314.496 -84.484 m 263.191 -33.176 l S Q
  Q
Q
Q q
268.16 28.207 m 272.41 28.207 l 272.41 47.199 l 268.16 47.199 l h
268.16 47.199 m 324.914 47.199 l 324.914 51.449 l 268.16 51.449 l h
268.16 47.199 m W n
q
268 28 57 24 re W n
  q
0 g
0.510386 w
2 J
0 j
[] 0.0 d
10 M q 1 0 0 -1 0 0 cm
316.898 -82.082 m 265.59 -30.777 l S Q
  Q
Q
Q q
268.16 28.207 m 272.41 28.207 l 272.41 47.199 l 268.16 47.199 l h
268.16 47.199 m 326.914 47.199 l 326.914 51.449 l 268.16 51.449 l h
268.16 47.199 m W n
q
268 28 59 24 re W n
  q
0 g
0.510386 w
2 J
0 j
[] 0.0 d
10 M q 1 0 0 -1 0 0 cm
319.297 -79.684 m 267.988 -28.375 l S Q
  Q
Q
Q q
268.16 28.207 m 272.41 28.207 l 272.41 47.199 l 268.16 47.199 l h
268.16 47.199 m 328.914 47.199 l 328.914 51.449 l 268.16 51.449 l h
268.16 47.199 m W n
q
268 28 61 24 re W n
  q
0 g
0.510386 w
2 J
0 j
[] 0.0 d
10 M q 1 0 0 -1 0 0 cm
321.695 -77.285 m 270.391 -25.977 l S Q
  Q
Q
Q q
268.16 28.207 m 272.41 28.207 l 272.41 47.199 l 268.16 47.199 l h
268.16 47.199 m 331.914 47.199 l 331.914 51.449 l 268.16 51.449 l h
268.16 47.199 m W n
q
268 28 64 24 re W n
  q
0 g
0.510386 w
2 J
0 j
[] 0.0 d
10 M q 1 0 0 -1 0 0 cm
324.098 -74.883 m 272.789 -23.574 l S Q
  Q
Q
Q q
268.16 28.207 m 272.41 28.207 l 272.41 47.199 l 268.16 47.199 l h
268.16 47.199 m 333.914 47.199 l 333.914 51.449 l 268.16 51.449 l h
268.16 47.199 m W n
q
268 28 66 24 re W n
  q
0 g
0.510386 w
2 J
0 j
[] 0.0 d
10 M q 1 0 0 -1 0 0 cm
326.496 -72.484 m 275.191 -21.176 l S Q
  Q
Q
Q q
269.914 28.207 m 272.41 28.207 l 272.41 47.199 l 269.914 47.199 l h
269.914 47.199 m 336.914 47.199 l 336.914 51.449 l 269.914 51.449 l h
269.914 47.199 m W n
q
269 28 68 24 re W n
  q
0 g
0.510386 w
2 J
0 j
[] 0.0 d
10 M q 1 0 0 -1 0 0 cm
328.898 -70.082 m 277.59 -18.777 l S Q
  Q
Q
Q q
271.914 28.207 m 272.41 28.207 l 272.41 47.199 l 271.914 47.199 l h
271.914 47.199 m 338.914 47.199 l 338.914 51.449 l 271.914 51.449 l h
271.914 47.199 m W n
q
271 28 68 24 re W n
  q
0 g
0.510386 w
2 J
0 j
[] 0.0 d
10 M q 1 0 0 -1 0 0 cm
331.297 -67.684 m 279.988 -16.375 l S Q
  Q
Q
Q q
274.914 47.199 66 4.25 re W n
q
274 47 67 5 re W n
  q
0 g
0.510386 w
2 J
0 j
[] 0.0 d
10 M q 1 0 0 -1 0 0 cm
333.695 -65.285 m 282.391 -13.977 l S Q
  Q
Q
Q q
343.277 28.207 m 343.914 28.207 l 343.914 47.199 l 343.277 47.199 l h
276.914 47.199 m 343.914 47.199 l 343.914 51.449 l 276.914 51.449 l h
276.914 47.199 m W n
q
276 28 68 24 re W n
  q
0 g
0.510386 w
2 J
0 j
[] 0.0 d
10 M q 1 0 0 -1 0 0 cm
336.098 -62.883 m 284.789 -11.574 l S Q
  Q
Q
Q q
343.277 28.207 m 345.914 28.207 l 345.914 47.199 l 343.277 47.199 l h
279.914 47.199 m 345.914 47.199 l 345.914 51.449 l 279.914 51.449 l h
279.914 47.199 m W n
q
279 28 67 24 re W n
  q
0 g
0.510386 w
2 J
0 j
[] 0.0 d
10 M q 1 0 0 -1 0 0 cm
338.496 -60.484 m 287.191 -9.176 l S Q
  Q
Q
Q q
343.277 28.207 m 347.531 28.207 l 347.531 47.199 l 343.277 47.199 l h
281.914 47.199 m 347.531 47.199 l 347.531 51.449 l 281.914 51.449 l h
281.914 47.199 m W n
q
281 28 67 24 re W n
  q
0 g
0.510386 w
2 J
0 j
[] 0.0 d
10 M q 1 0 0 -1 0 0 cm
340.898 -58.082 m 289.59 -6.777 l S Q
  Q
Q
Q q
343.277 28.207 m 347.531 28.207 l 347.531 47.199 l 343.277 47.199 l h
283.914 47.199 m 347.531 47.199 l 347.531 51.449 l 283.914 51.449 l h
283.914 47.199 m W n
q
283 28 65 24 re W n
  q
0 g
0.510386 w
2 J
0 j
[] 0.0 d
10 M q 1 0 0 -1 0 0 cm
343.297 -55.684 m 291.988 -4.375 l S Q
  Q
Q
Q q
343.277 28.207 m 347.531 28.207 l 347.531 47.199 l 343.277 47.199 l h
286.914 47.199 m 347.531 47.199 l 347.531 51.449 l 286.914 51.449 l h
286.914 47.199 m W n
q
286 28 62 24 re W n
  q
0 g
0.510386 w
2 J
0 j
[] 0.0 d
10 M q 1 0 0 -1 0 0 cm
345.695 -53.285 m 294.391 -1.977 l S Q
  Q
Q
Q q
343.277 28.207 m 347.531 28.207 l 347.531 47.199 l 343.277 47.199 l h
288.914 47.199 m 347.531 47.199 l 347.531 51.449 l 288.914 51.449 l h
288.914 47.199 m W n
q
288 28 60 24 re W n
  q
0 g
0.510386 w
2 J
0 j
[] 0.0 d
10 M q 1 0 0 -1 0 0 cm
348.098 -50.883 m 296.789 0.426 l S Q
  Q
Q
Q q
343.277 28.207 m 347.531 28.207 l 347.531 47.199 l 343.277 47.199 l h
291.914 47.199 m 347.531 47.199 l 347.531 51.449 l 291.914 51.449 l h
291.914 47.199 m W n
q
291 28 57 24 re W n
  q
0 g
0.510386 w
2 J
0 j
[] 0.0 d
10 M q 1 0 0 -1 0 0 cm
350.496 -48.484 m 299.191 2.824 l S Q
  Q
Q
Q q
343.277 28.207 m 347.531 28.207 l 347.531 47.199 l 343.277 47.199 l h
293.914 47.199 m 347.531 47.199 l 347.531 51.449 l 293.914 51.449 l h
293.914 47.199 m W n
q
293 28 55 24 re W n
  q
0 g
0.510386 w
2 J
0 j
[] 0.0 d
10 M q 1 0 0 -1 0 0 cm
352.898 -46.082 m 301.59 5.223 l S Q
  Q
Q
Q q
343.277 28.207 m 347.531 28.207 l 347.531 47.199 l 343.277 47.199 l h
295.914 47.199 m 347.531 47.199 l 347.531 51.078 l 295.914 51.078 l h
295.914 47.199 m W n
q
295 28 53 24 re W n
  q
0 g
0.510386 w
2 J
0 j
[] 0.0 d
10 M q 1 0 0 -1 0 0 cm
355.297 -43.684 m 303.988 7.625 l S Q
  Q
Q
Q q
343.277 28.207 m 347.531 28.207 l 347.531 47.199 l 343.277 47.199 l h
298.914 47.199 m 347.531 47.199 l 347.531 49.078 l 298.914 49.078 l h
298.914 47.199 m W n
q
298 28 50 22 re W n
  q
0 g
0.510386 w
2 J
0 j
[] 0.0 d
10 M q 1 0 0 -1 0 0 cm
357.695 -41.285 m 306.391 10.023 l S Q
  Q
Q
Q q
343.277 28.207 4.254 18.871 re W n
q
343 28 5 20 re W n
  q
0 g
0.510386 w
2 J
0 j
[] 0.0 d
10 M q 1 0 0 -1 0 0 cm
360.098 -38.883 m 308.789 12.426 l S Q
  Q
Q
Q q
0 g
0.850361 w
0 J
0 j
[] 0.0 d
10 M q 1 0 0 -1 0 0 cm
270.285 -28.207 m 268.16 -28.207 l 268.16 -51.449 l 347.531 -51.449 l 347.531
 -28.207 l 343.277 -28.207 l 343.277 -47.199 l 272.41 -47.199 l 272.41 -28.207
 l h
270.285 -28.207 m S Q
Q q
268.16 4.078 m 315.914 4.078 l 315.914 4.68 l 268.16 4.68 l h
268.16 4.68 m 272.41 4.68 l 272.41 23.672 l 268.16 23.672 l h
268.16 4.68 m W n
q
268 4 48 20 re W n
  q
0 g
0.510386 w
2 J
0 j
[] 0.0 d
10 M q 1 0 0 -1 0 0 cm
307.809 -63.395 m 256.5 -12.086 l S Q
  Q
Q
Q q
268.16 2.078 m 317.914 2.078 l 317.914 4.68 l 268.16 4.68 l h
268.16 4.68 m 272.41 4.68 l 272.41 23.672 l 268.16 23.672 l h
268.16 4.68 m W n
q
268 2 50 22 re W n
  q
0 g
0.510386 w
2 J
0 j
[] 0.0 d
10 M q 1 0 0 -1 0 0 cm
310.207 -60.992 m 258.898 -9.688 l S Q
  Q
Q
Q q
268.16 0.426 m 319.914 0.426 l 319.914 4.68 l 268.16 4.68 l h
268.16 4.68 m 272.41 4.68 l 272.41 23.672 l 268.16 23.672 l h
268.16 4.68 m W n
q
268 0 52 24 re W n
  q
0 g
0.510386 w
2 J
0 j
[] 0.0 d
10 M q 1 0 0 -1 0 0 cm
312.605 -58.594 m 261.301 -7.285 l S Q
  Q
Q
Q q
268.16 0.426 m 322.914 0.426 l 322.914 4.68 l 268.16 4.68 l h
268.16 4.68 m 272.41 4.68 l 272.41 23.672 l 268.16 23.672 l h
268.16 4.68 m W n
q
268 0 55 24 re W n
  q
0 g
0.510386 w
2 J
0 j
[] 0.0 d
10 M q 1 0 0 -1 0 0 cm
315.008 -56.191 m 263.699 -4.887 l S Q
  Q
Q
Q q
268.16 0.426 m 324.914 0.426 l 324.914 4.68 l 268.16 4.68 l h
268.16 4.68 m 272.41 4.68 l 272.41 23.672 l 268.16 23.672 l h
268.16 4.68 m W n
q
268 0 57 24 re W n
  q
0 g
0.510386 w
2 J
0 j
[] 0.0 d
10 M q 1 0 0 -1 0 0 cm
317.406 -53.793 m 266.102 -2.484 l S Q
  Q
Q
Q q
268.16 0.426 m 327.914 0.426 l 327.914 4.68 l 268.16 4.68 l h
268.16 4.68 m 272.41 4.68 l 272.41 23.672 l 268.16 23.672 l h
268.16 4.68 m W n
q
268 0 60 24 re W n
  q
0 g
0.510386 w
2 J
0 j
[] 0.0 d
10 M q 1 0 0 -1 0 0 cm
319.809 -51.395 m 268.5 -0.086 l S Q
  Q
Q
Q q
268.16 0.426 m 329.914 0.426 l 329.914 4.68 l 268.16 4.68 l h
268.16 4.68 m 272.41 4.68 l 272.41 23.672 l 268.16 23.672 l h
268.16 4.68 m W n
q
268 0 62 24 re W n
  q
0 g
0.510386 w
2 J
0 j
[] 0.0 d
10 M q 1 0 0 -1 0 0 cm
322.207 -48.992 m 270.898 2.312 l S Q
  Q
Q
Q q
268.16 0.426 m 331.914 0.426 l 331.914 4.68 l 268.16 4.68 l h
268.16 4.68 m 272.41 4.68 l 272.41 23.672 l 268.16 23.672 l h
268.16 4.68 m W n
q
268 0 64 24 re W n
  q
0 g
0.510386 w
2 J
0 j
[] 0.0 d
10 M q 1 0 0 -1 0 0 cm
324.605 -46.594 m 273.301 4.715 l S Q
  Q
Q
Q q
268.16 0.426 m 334.914 0.426 l 334.914 4.68 l 268.16 4.68 l h
268.16 4.68 m 272.41 4.68 l 272.41 23.672 l 268.16 23.672 l h
268.16 4.68 m W n
q
268 0 67 24 re W n
  q
0 g
0.510386 w
2 J
0 j
[] 0.0 d
10 M q 1 0 0 -1 0 0 cm
327.008 -44.191 m 275.699 7.113 l S Q
  Q
Q
Q q
269.914 0.426 m 336.914 0.426 l 336.914 4.68 l 269.914 4.68 l h
269.914 4.68 m 272.41 4.68 l 272.41 23.672 l 269.914 23.672 l h
269.914 4.68 m W n
q
269 0 68 24 re W n
  q
0 g
0.510386 w
2 J
0 j
[] 0.0 d
10 M q 1 0 0 -1 0 0 cm
329.406 -41.793 m 278.102 9.516 l S Q
  Q
Q
Q q
272.914 0.426 67 4.254 re W n
q
272 0 68 5 re W n
  q
0 g
0.510386 w
2 J
0 j
[] 0.0 d
10 M q 1 0 0 -1 0 0 cm
331.809 -39.395 m 280.5 11.914 l S Q
  Q
Q
Q q
274.914 0.426 67 4.254 re W n
q
274 0 68 5 re W n
  q
0 g
0.510386 w
2 J
0 j
[] 0.0 d
10 M q 1 0 0 -1 0 0 cm
334.207 -36.992 m 282.898 14.312 l S Q
  Q
Q
Q q
277.914 0.426 m 343.914 0.426 l 343.914 4.68 l 277.914 4.68 l h
343.277 4.68 m 343.914 4.68 l 343.914 23.672 l 343.277 23.672 l h
343.277 4.68 m W n
q
277 0 67 24 re W n
  q
0 g
0.510386 w
2 J
0 j
[] 0.0 d
10 M q 1 0 0 -1 0 0 cm
336.605 -34.594 m 285.301 16.715 l S Q
  Q
Q
Q q
279.914 0.426 m 346.914 0.426 l 346.914 4.68 l 279.914 4.68 l h
343.277 4.68 m 346.914 4.68 l 346.914 23.672 l 343.277 23.672 l h
343.277 4.68 m W n
q
279 0 68 24 re W n
  q
0 g
0.510386 w
2 J
0 j
[] 0.0 d
10 M q 1 0 0 -1 0 0 cm
339.008 -32.191 m 287.699 19.113 l S Q
  Q
Q
Q q
281.914 0.426 m 347.531 0.426 l 347.531 4.68 l 281.914 4.68 l h
343.277 4.68 m 347.531 4.68 l 347.531 23.672 l 343.277 23.672 l h
343.277 4.68 m W n
q
281 0 67 24 re W n
  q
0 g
0.510386 w
2 J
0 j
[] 0.0 d
10 M q 1 0 0 -1 0 0 cm
341.406 -29.793 m 290.102 21.516 l S Q
  Q
Q
Q q
284.914 0.426 m 347.531 0.426 l 347.531 4.68 l 284.914 4.68 l h
343.277 4.68 m 347.531 4.68 l 347.531 23.672 l 343.277 23.672 l h
343.277 4.68 m W n
q
284 0 64 24 re W n
  q
0 g
0.510386 w
2 J
0 j
[] 0.0 d
10 M q 1 0 0 -1 0 0 cm
343.809 -27.395 m 292.5 23.914 l S Q
  Q
Q
Q q
286.914 0.426 m 347.531 0.426 l 347.531 4.68 l 286.914 4.68 l h
343.277 4.68 m 347.531 4.68 l 347.531 23.672 l 343.277 23.672 l h
343.277 4.68 m W n
q
286 0 62 24 re W n
  q
0 g
0.510386 w
2 J
0 j
[] 0.0 d
10 M q 1 0 0 -1 0 0 cm
346.207 -24.992 m 294.898 26.312 l S Q
  Q
Q
Q q
289.914 0.426 m 347.531 0.426 l 347.531 4.68 l 289.914 4.68 l h
343.277 4.68 m 347.531 4.68 l 347.531 23.672 l 343.277 23.672 l h
343.277 4.68 m W n
q
289 0 59 24 re W n
  q
0 g
0.510386 w
2 J
0 j
[] 0.0 d
10 M q 1 0 0 -1 0 0 cm
348.605 -22.594 m 297.301 28.715 l S Q
  Q
Q
Q q
291.914 0.426 m 347.531 0.426 l 347.531 4.68 l 291.914 4.68 l h
343.277 4.68 m 347.531 4.68 l 347.531 23.672 l 343.277 23.672 l h
343.277 4.68 m W n
q
291 0 57 24 re W n
  q
0 g
0.510386 w
2 J
0 j
[] 0.0 d
10 M q 1 0 0 -1 0 0 cm
351.008 -20.191 m 299.699 31.113 l S Q
  Q
Q
Q q
293.914 0.426 m 347.531 0.426 l 347.531 4.68 l 293.914 4.68 l h
343.277 4.68 m 347.531 4.68 l 347.531 23.672 l 343.277 23.672 l h
343.277 4.68 m W n
q
293 0 55 24 re W n
  q
0 g
0.510386 w
2 J
0 j
[] 0.0 d
10 M q 1 0 0 -1 0 0 cm
353.406 -17.793 m 302.102 33.516 l S Q
  Q
Q
Q q
296.914 0.426 m 347.531 0.426 l 347.531 4.68 l 296.914 4.68 l h
343.277 4.68 m 347.531 4.68 l 347.531 23.078 l 343.277 23.078 l h
343.277 4.68 m W n
q
296 0 52 24 re W n
  q
0 g
0.510386 w
2 J
0 j
[] 0.0 d
10 M q 1 0 0 -1 0 0 cm
355.809 -15.395 m 304.5 35.914 l S Q
  Q
Q
Q q
298.914 0.426 m 347.531 0.426 l 347.531 4.68 l 298.914 4.68 l h
343.277 4.68 m 347.531 4.68 l 347.531 21.078 l 343.277 21.078 l h
343.277 4.68 m W n
q
298 0 50 22 re W n
  q
0 g
0.510386 w
2 J
0 j
[] 0.0 d
10 M q 1 0 0 -1 0 0 cm
358.207 -12.992 m 306.898 38.312 l S Q
  Q
Q
Q q
301.914 0.426 m 347.531 0.426 l 347.531 4.68 l 301.914 4.68 l h
343.277 4.68 m 347.531 4.68 l 347.531 18.078 l 343.277 18.078 l h
343.277 4.68 m W n
q
301 0 47 19 re W n
  q
0 g
0.510386 w
2 J
0 j
[] 0.0 d
10 M q 1 0 0 -1 0 0 cm
360.605 -10.594 m 309.301 40.715 l S Q
  Q
Q
Q q
0 g
0.850361 w
0 J
0 j
[] 0.0 d
10 M q 1 0 0 -1 0 0 cm
270.285 -23.672 m 268.16 -23.672 l 268.16 -0.426 l 347.531 -0.426 l 347.531
 -23.672 l 343.277 -23.672 l 343.277 -4.68 l 272.41 -4.68 l 272.41 -23.672
 l h
270.285 -23.672 m S Q
Q q
272.836 23.078 m 277.656 23.078 l 277.656 25.938 l 272.836 25.938 l h
272.836 25.938 m 277.656 25.938 l 277.656 46.773 l 272.836 46.773 l h
272.836 25.938 m W n
q
272 23 6 24 re W n
  q
0 g
0.169973 w
2 J
0 j
[] 0.0 d
10 M q 1 0 0 -1 0 0 cm
274.82 -49.605 m 251.578 -26.363 l S Q
  Q
Q
Q q
272.836 22.078 m 277.656 22.078 l 277.656 25.938 l 272.836 25.938 l h
272.836 25.938 m 277.656 25.938 l 277.656 46.773 l 272.836 46.773 l h
272.836 25.938 m W n
q
272 22 6 25 re W n
  q
0 g
0.169973 w
2 J
0 j
[] 0.0 d
10 M q 1 0 0 -1 0 0 cm
276.121 -48.309 m 252.879 -25.062 l S Q
  Q
Q
Q q
272.836 21.078 m 277.656 21.078 l 277.656 25.938 l 272.836 25.938 l h
272.836 25.938 m 277.656 25.938 l 277.656 46.773 l 272.836 46.773 l h
272.836 25.938 m W n
q
272 21 6 26 re W n
  q
0 g
0.169973 w
2 J
0 j
[] 0.0 d
10 M q 1 0 0 -1 0 0 cm
277.422 -47.008 m 254.176 -23.762 l S Q
  Q
Q
Q q
272.836 19.078 m 277.656 19.078 l 277.656 25.938 l 272.836 25.938 l h
272.836 25.938 m 277.656 25.938 l 277.656 46.773 l 272.836 46.773 l h
272.836 25.938 m W n
q
272 19 6 28 re W n
  q
0 g
0.169973 w
2 J
0 j
[] 0.0 d
10 M q 1 0 0 -1 0 0 cm
278.723 -45.707 m 255.477 -22.465 l S Q
  Q
Q
Q q
272.836 18.078 m 277.656 18.078 l 277.656 25.938 l 272.836 25.938 l h
272.836 25.938 m 277.656 25.938 l 277.656 46.773 l 272.836 46.773 l h
272.836 25.938 m W n
q
272 18 6 29 re W n
  q
0 g
0.169973 w
2 J
0 j
[] 0.0 d
10 M q 1 0 0 -1 0 0 cm
280.02 -44.406 m 256.777 -21.164 l S Q
  Q
Q
Q q
272.836 17.078 m 277.656 17.078 l 277.656 25.938 l 272.836 25.938 l h
272.836 25.938 m 277.656 25.938 l 277.656 46.078 l 272.836 46.078 l h
272.836 25.938 m W n
q
272 17 6 30 re W n
  q
0 g
0.169973 w
2 J
0 j
[] 0.0 d
10 M q 1 0 0 -1 0 0 cm
281.32 -43.105 m 258.078 -19.863 l S Q
  Q
Q
Q q
272.836 16.078 m 277.656 16.078 l 277.656 25.938 l 272.836 25.938 l h
272.836 25.938 m 277.656 25.938 l 277.656 45.078 l 272.836 45.078 l h
272.836 25.938 m W n
q
272 16 6 30 re W n
  q
0 g
0.169973 w
2 J
0 j
[] 0.0 d
10 M q 1 0 0 -1 0 0 cm
282.621 -41.809 m 259.379 -18.562 l S Q
  Q
Q
Q q
272.836 14.078 m 277.656 14.078 l 277.656 25.938 l 272.836 25.938 l h
272.836 25.938 m 277.656 25.938 l 277.656 43.078 l 272.836 43.078 l h
272.836 25.938 m W n
q
272 14 6 30 re W n
  q
0 g
0.169973 w
2 J
0 j
[] 0.0 d
10 M q 1 0 0 -1 0 0 cm
283.922 -40.508 m 260.676 -17.262 l S Q
  Q
Q
Q q
272.836 13.078 m 277.656 13.078 l 277.656 25.938 l 272.836 25.938 l h
272.836 25.938 m 277.656 25.938 l 277.656 42.078 l 272.836 42.078 l h
272.836 25.938 m W n
q
272 13 6 30 re W n
  q
0 g
0.169973 w
2 J
0 j
[] 0.0 d
10 M q 1 0 0 -1 0 0 cm
285.223 -39.207 m 261.977 -15.965 l S Q
  Q
Q
Q q
272.836 12.078 m 277.656 12.078 l 277.656 25.938 l 272.836 25.938 l h
272.836 25.938 m 277.656 25.938 l 277.656 41.078 l 272.836 41.078 l h
272.836 25.938 m W n
q
272 12 6 30 re W n
  q
0 g
0.169973 w
2 J
0 j
[] 0.0 d
10 M q 1 0 0 -1 0 0 cm
286.52 -37.906 m 263.277 -14.664 l S Q
  Q
Q
Q q
272.836 10.078 m 277.656 10.078 l 277.656 25.938 l 272.836 25.938 l h
272.836 25.938 m 277.656 25.938 l 277.656 39.078 l 272.836 39.078 l h
272.836 25.938 m W n
q
272 10 6 30 re W n
  q
0 g
0.169973 w
2 J
0 j
[] 0.0 d
10 M q 1 0 0 -1 0 0 cm
287.82 -36.605 m 264.578 -13.363 l S Q
  Q
Q
Q q
272.836 9.078 m 277.656 9.078 l 277.656 25.938 l 272.836 25.938 l h
272.836 25.938 m 277.656 25.938 l 277.656 38.078 l 272.836 38.078 l h
272.836 25.938 m W n
q
272 9 6 30 re W n
  q
0 g
0.169973 w
2 J
0 j
[] 0.0 d
10 M q 1 0 0 -1 0 0 cm
289.121 -35.309 m 265.879 -12.062 l S Q
  Q
Q
Q q
272.836 8.078 m 277.656 8.078 l 277.656 25.938 l 272.836 25.938 l h
272.836 25.938 m 277.656 25.938 l 277.656 37.078 l 272.836 37.078 l h
272.836 25.938 m W n
q
272 8 6 30 re W n
  q
0 g
0.169973 w
2 J
0 j
[] 0.0 d
10 M q 1 0 0 -1 0 0 cm
290.422 -34.008 m 267.176 -10.762 l S Q
  Q
Q
Q q
272.836 6.078 m 277.656 6.078 l 277.656 25.938 l 272.836 25.938 l h
272.836 25.938 m 277.656 25.938 l 277.656 36.078 l 272.836 36.078 l h
272.836 25.938 m W n
q
272 6 6 31 re W n
  q
0 g
0.169973 w
2 J
0 j
[] 0.0 d
10 M q 1 0 0 -1 0 0 cm
291.723 -32.707 m 268.477 -9.465 l S Q
  Q
Q
Q q
272.836 5.102 m 277.656 5.102 l 277.656 25.938 l 272.836 25.938 l h
272.836 25.938 m 277.656 25.938 l 277.656 34.078 l 272.836 34.078 l h
272.836 25.938 m W n
q
272 5 6 30 re W n
  q
0 g
0.169973 w
2 J
0 j
[] 0.0 d
10 M q 1 0 0 -1 0 0 cm
293.02 -31.406 m 269.777 -8.164 l S Q
  Q
Q
Q q
272.836 5.102 m 277.656 5.102 l 277.656 25.938 l 272.836 25.938 l h
272.836 25.938 m 277.656 25.938 l 277.656 33.078 l 272.836 33.078 l h
272.836 25.938 m W n
q
272 5 6 29 re W n
  q
0 g
0.169973 w
2 J
0 j
[] 0.0 d
10 M q 1 0 0 -1 0 0 cm
294.32 -30.105 m 271.078 -6.863 l S Q
  Q
Q
Q q
272.836 5.102 m 277.656 5.102 l 277.656 25.938 l 272.836 25.938 l h
272.836 25.938 m 277.656 25.938 l 277.656 32.078 l 272.836 32.078 l h
272.836 25.938 m W n
q
272 5 6 28 re W n
  q
0 g
0.169973 w
2 J
0 j
[] 0.0 d
10 M q 1 0 0 -1 0 0 cm
295.621 -28.809 m 272.379 -5.562 l S Q
  Q
Q
Q q
272.836 5.102 m 277.656 5.102 l 277.656 25.938 l 272.836 25.938 l h
272.836 25.938 m 277.656 25.938 l 277.656 30.078 l 272.836 30.078 l h
272.836 25.938 m W n
q
272 5 6 26 re W n
  q
0 g
0.169973 w
2 J
0 j
[] 0.0 d
10 M q 1 0 0 -1 0 0 cm
296.922 -27.508 m 273.676 -4.262 l S Q
  Q
Q
Q q
272.836 5.102 m 277.656 5.102 l 277.656 25.938 l 272.836 25.938 l h
272.836 25.938 m 277.656 25.938 l 277.656 29.078 l 272.836 29.078 l h
272.836 25.938 m W n
q
272 5 6 25 re W n
  q
0 g
0.169973 w
2 J
0 j
[] 0.0 d
10 M q 1 0 0 -1 0 0 cm
298.223 -26.207 m 274.977 -2.965 l S Q
  Q
Q
Q q
272.914 5.102 m 277.656 5.102 l 277.656 25.938 l 272.914 25.938 l h
272.914 25.938 m 277.656 25.938 l 277.656 28.078 l 272.914 28.078 l h
272.914 25.938 m W n
q
272 5 6 24 re W n
  q
0 g
0.169973 w
2 J
0 j
[] 0.0 d
10 M q 1 0 0 -1 0 0 cm
299.52 -24.906 m 276.277 -1.664 l S Q
  Q
Q
Q q
0 g
0.850361 w
0 J
0 j
[] 0.0 d
10 M q 1 0 0 -1 0 0 cm
272.84 -25.938 m 272.84 -24.746 l 272.84 -22.422 m 272.84 -20.098 l 272.84
 -17.773 m 272.84 -15.449 l 272.84 -13.125 m 272.84 -10.801 l 272.84 -8.477
 m 272.84 -6.152 l 274.113 -5.102 m 276.438 -5.102 l 277.656 -6.203 m 277.656
 -8.527 l 277.656 -10.852 m 277.656 -13.176 l 277.656 -15.5 m 277.656 -17.824
 l 277.656 -20.148 m 277.656 -22.473 l 277.656 -24.801 m 277.656 -27.125
 l 277.656 -29.449 m 277.656 -31.773 l 277.656 -34.098 m 277.656 -36.422
 l 277.656 -38.746 m 277.656 -41.07 l 277.656 -43.395 m 277.656 -45.719 
l 276.387 -46.773 m 274.062 -46.773 l 272.84 -45.676 m 272.84 -43.348 l 
272.84 -41.023 m 272.84 -38.699 l 272.84 -36.375 m 272.84 -34.051 l 272.84
 -31.727 m 272.84 -29.402 l 272.84 -27.078 m 272.84 -25.938 l S Q
q 1 0 0 -1 0 0 cm
272.836 -44.363 m 272.836 -46.773 l 277.656 -46.773 l 277.656 -44.363 l
 S Q
q 1 0 0 -1 0 0 cm
272.836 -7.512 m 272.836 -5.102 l 277.656 -5.102 l 277.656 -7.512 l S Q
274.145 61.176 m 276.348 61.176 l 276.348 61.051 l 275.738 61.051 275.598
 60.973 275.582 60.582 c 275.582 55.801 l 275.52 55.785 l 274.098 56.52 
l 274.098 56.629 l 274.395 56.504 274.598 56.457 274.66 56.457 c 274.832
 56.457 274.91 56.566 274.91 56.832 c 274.91 60.441 l 274.895 60.941 274.754
 61.051 274.145 61.051 c h
274.145 61.176 m f
Q q
338.035 23.078 m 342.852 23.078 l 342.852 25.938 l 338.035 25.938 l h
338.035 25.938 m 342.852 25.938 l 342.852 46.773 l 338.035 46.773 l h
338.035 25.938 m W n
q
338 23 5 24 re W n
  q
0 g
0.169973 w
2 J
0 j
[] 0.0 d
10 M q 1 0 0 -1 0 0 cm
364.113 -26.363 m 340.867 -49.609 l S Q
  Q
Q
Q q
338.035 22.078 m 342.852 22.078 l 342.852 25.938 l 338.035 25.938 l h
338.035 25.938 m 342.852 25.938 l 342.852 46.773 l 338.035 46.773 l h
338.035 25.938 m W n
q
338 22 5 25 re W n
  q
0 g
0.169973 w
2 J
0 j
[] 0.0 d
10 M q 1 0 0 -1 0 0 cm
362.812 -25.062 m 339.57 -48.309 l S Q
  Q
Q
Q q
338.035 21.078 m 342.852 21.078 l 342.852 25.938 l 338.035 25.938 l h
338.035 25.938 m 342.852 25.938 l 342.852 46.773 l 338.035 46.773 l h
338.035 25.938 m W n
q
338 21 5 26 re W n
  q
0 g
0.169973 w
2 J
0 j
[] 0.0 d
10 M q 1 0 0 -1 0 0 cm
361.512 -23.762 m 338.27 -47.008 l S Q
  Q
Q
Q q
338.035 19.078 m 342.852 19.078 l 342.852 25.938 l 338.035 25.938 l h
338.035 25.938 m 342.852 25.938 l 342.852 46.773 l 338.035 46.773 l h
338.035 25.938 m W n
q
338 19 5 28 re W n
  q
0 g
0.169973 w
2 J
0 j
[] 0.0 d
10 M q 1 0 0 -1 0 0 cm
360.215 -22.465 m 336.969 -45.707 l S Q
  Q
Q
Q q
338.035 18.078 m 342.852 18.078 l 342.852 25.938 l 338.035 25.938 l h
338.035 25.938 m 342.852 25.938 l 342.852 46.773 l 338.035 46.773 l h
338.035 25.938 m W n
q
338 18 5 29 re W n
  q
0 g
0.169973 w
2 J
0 j
[] 0.0 d
10 M q 1 0 0 -1 0 0 cm
358.914 -21.164 m 335.668 -44.41 l S Q
  Q
Q
Q q
338.035 17.078 m 342.852 17.078 l 342.852 25.938 l 338.035 25.938 l h
338.035 25.938 m 342.852 25.938 l 342.852 46.078 l 338.035 46.078 l h
338.035 25.938 m W n
q
338 17 5 30 re W n
  q
0 g
0.169973 w
2 J
0 j
[] 0.0 d
10 M q 1 0 0 -1 0 0 cm
357.613 -19.863 m 334.367 -43.109 l S Q
  Q
Q
Q q
338.035 16.078 m 342.852 16.078 l 342.852 25.938 l 338.035 25.938 l h
338.035 25.938 m 342.852 25.938 l 342.852 45.078 l 338.035 45.078 l h
338.035 25.938 m W n
q
338 16 5 30 re W n
  q
0 g
0.169973 w
2 J
0 j
[] 0.0 d
10 M q 1 0 0 -1 0 0 cm
356.312 -18.562 m 333.07 -41.809 l S Q
  Q
Q
Q q
338.035 14.078 m 342.852 14.078 l 342.852 25.938 l 338.035 25.938 l h
338.035 25.938 m 342.852 25.938 l 342.852 43.078 l 338.035 43.078 l h
338.035 25.938 m W n
q
338 14 5 30 re W n
  q
0 g
0.169973 w
2 J
0 j
[] 0.0 d
10 M q 1 0 0 -1 0 0 cm
355.012 -17.262 m 331.77 -40.508 l S Q
  Q
Q
Q q
338.035 13.078 m 342.852 13.078 l 342.852 25.938 l 338.035 25.938 l h
338.035 25.938 m 342.852 25.938 l 342.852 42.078 l 338.035 42.078 l h
338.035 25.938 m W n
q
338 13 5 30 re W n
  q
0 g
0.169973 w
2 J
0 j
[] 0.0 d
10 M q 1 0 0 -1 0 0 cm
353.715 -15.965 m 330.469 -39.207 l S Q
  Q
Q
Q q
338.035 12.078 m 342.852 12.078 l 342.852 25.938 l 338.035 25.938 l h
338.035 25.938 m 342.852 25.938 l 342.852 41.078 l 338.035 41.078 l h
338.035 25.938 m W n
q
338 12 5 30 re W n
  q
0 g
0.169973 w
2 J
0 j
[] 0.0 d
10 M q 1 0 0 -1 0 0 cm
352.414 -14.664 m 329.168 -37.91 l S Q
  Q
Q
Q q
338.035 10.078 m 342.852 10.078 l 342.852 25.938 l 338.035 25.938 l h
338.035 25.938 m 342.852 25.938 l 342.852 39.078 l 338.035 39.078 l h
338.035 25.938 m W n
q
338 10 5 30 re W n
  q
0 g
0.169973 w
2 J
0 j
[] 0.0 d
10 M q 1 0 0 -1 0 0 cm
351.113 -13.363 m 327.867 -36.609 l S Q
  Q
Q
Q q
338.035 9.078 m 342.852 9.078 l 342.852 25.938 l 338.035 25.938 l h
338.035 25.938 m 342.852 25.938 l 342.852 38.078 l 338.035 38.078 l h
338.035 25.938 m W n
q
338 9 5 30 re W n
  q
0 g
0.169973 w
2 J
0 j
[] 0.0 d
10 M q 1 0 0 -1 0 0 cm
349.812 -12.062 m 326.57 -35.309 l S Q
  Q
Q
Q q
338.035 8.078 m 342.852 8.078 l 342.852 25.938 l 338.035 25.938 l h
338.035 25.938 m 342.852 25.938 l 342.852 37.078 l 338.035 37.078 l h
338.035 25.938 m W n
q
338 8 5 30 re W n
  q
0 g
0.169973 w
2 J
0 j
[] 0.0 d
10 M q 1 0 0 -1 0 0 cm
348.512 -10.762 m 325.27 -34.008 l S Q
  Q
Q
Q q
338.035 6.078 m 342.852 6.078 l 342.852 25.938 l 338.035 25.938 l h
338.035 25.938 m 342.852 25.938 l 342.852 36.078 l 338.035 36.078 l h
338.035 25.938 m W n
q
338 6 5 31 re W n
  q
0 g
0.169973 w
2 J
0 j
[] 0.0 d
10 M q 1 0 0 -1 0 0 cm
347.215 -9.465 m 323.969 -32.707 l S Q
  Q
Q
Q q
338.035 5.102 m 342.852 5.102 l 342.852 25.938 l 338.035 25.938 l h
338.035 25.938 m 342.852 25.938 l 342.852 34.078 l 338.035 34.078 l h
338.035 25.938 m W n
q
338 5 5 30 re W n
  q
0 g
0.169973 w
2 J
0 j
[] 0.0 d
10 M q 1 0 0 -1 0 0 cm
345.914 -8.164 m 322.668 -31.41 l S Q
  Q
Q
Q q
338.035 5.102 m 342.852 5.102 l 342.852 25.938 l 338.035 25.938 l h
338.035 25.938 m 342.852 25.938 l 342.852 33.078 l 338.035 33.078 l h
338.035 25.938 m W n
q
338 5 5 29 re W n
  q
0 g
0.169973 w
2 J
0 j
[] 0.0 d
10 M q 1 0 0 -1 0 0 cm
344.613 -6.863 m 321.367 -30.109 l S Q
  Q
Q
Q q
338.035 5.102 m 342.852 5.102 l 342.852 25.938 l 338.035 25.938 l h
338.035 25.938 m 342.852 25.938 l 342.852 32.078 l 338.035 32.078 l h
338.035 25.938 m W n
q
338 5 5 28 re W n
  q
0 g
0.169973 w
2 J
0 j
[] 0.0 d
10 M q 1 0 0 -1 0 0 cm
343.312 -5.562 m 320.07 -28.809 l S Q
  Q
Q
Q q
338.035 5.102 m 342.852 5.102 l 342.852 25.938 l 338.035 25.938 l h
338.035 25.938 m 342.852 25.938 l 342.852 30.078 l 338.035 30.078 l h
338.035 25.938 m W n
q
338 5 5 26 re W n
  q
0 g
0.169973 w
2 J
0 j
[] 0.0 d
10 M q 1 0 0 -1 0 0 cm
342.012 -4.262 m 318.77 -27.508 l S Q
  Q
Q
Q q
338.035 5.102 m 342.852 5.102 l 342.852 25.938 l 338.035 25.938 l h
338.035 25.938 m 342.852 25.938 l 342.852 29.078 l 338.035 29.078 l h
338.035 25.938 m W n
q
338 5 5 25 re W n
  q
0 g
0.169973 w
2 J
0 j
[] 0.0 d
10 M q 1 0 0 -1 0 0 cm
340.715 -2.965 m 317.469 -26.207 l S Q
  Q
Q
Q q
338.035 5.102 m 341.914 5.102 l 341.914 25.938 l 338.035 25.938 l h
338.035 25.938 m 341.914 25.938 l 341.914 28.078 l 338.035 28.078 l h
338.035 25.938 m W n
q
338 5 4 24 re W n
  q
0 g
0.169973 w
2 J
0 j
[] 0.0 d
10 M q 1 0 0 -1 0 0 cm
339.414 -1.664 m 316.168 -24.91 l S Q
  Q
Q
Q q
0 g
0.850361 w
0 J
0 j
[] 0.0 d
10 M q 1 0 0 -1 0 0 cm
338.035 -25.938 m 338.035 -24.746 l 338.035 -22.422 m 338.035 -20.098 l
 338.035 -17.773 m 338.035 -15.449 l 338.035 -13.125 m 338.035 -10.801 l
 338.035 -8.477 m 338.035 -6.152 l 339.312 -5.102 m 341.637 -5.102 l 342.855
 -6.207 m 342.855 -8.531 l 342.855 -10.855 m 342.855 -13.18 l 342.855 -15.504
 m 342.855 -17.832 l 342.855 -20.156 m 342.855 -22.48 l 342.855 -24.805 
m 342.855 -27.129 l 342.855 -29.453 m 342.855 -31.777 l 342.855 -34.102 
m 342.855 -36.426 l 342.855 -38.75 m 342.855 -41.074 l 342.855 -43.398 m
 342.855 -45.723 l 341.578 -46.773 m 339.254 -46.773 l 338.035 -45.664 m
 338.035 -43.34 l 338.035 -41.016 m 338.035 -38.691 l 338.035 -36.367 m 
338.035 -34.043 l 338.035 -31.719 m 338.035 -29.395 l 338.035 -27.07 m 338.035
 -25.938 l S Q
q 1 0 0 -1 0 0 cm
338.035 -44.363 m 338.035 -46.773 l 342.852 -46.773 l 342.852 -44.363 l
 S Q
q 1 0 0 -1 0 0 cm
338.035 -7.512 m 338.035 -5.102 l 342.852 -5.102 l 342.852 -7.512 l S Q
342.188 60.082 m 342.094 60.051 l 341.797 60.504 341.703 60.566 341.328
 60.566 c 339.422 60.566 l 340.766 59.16 l 341.469 58.426 341.781 57.816
 341.781 57.207 c 341.781 56.41 341.141 55.785 340.312 55.785 c 339.875 
55.785 339.453 55.957 339.156 56.285 c 338.906 56.551 338.781 56.816 338.656
 57.379 c 338.828 57.41 l 339.141 56.629 339.422 56.379 339.969 56.379 c
 340.656 56.379 341.094 56.832 341.094 57.504 c 341.094 58.129 340.734 58.863
 340.062 59.566 c 338.641 61.082 l 338.641 61.176 l 341.75 61.176 l h
342.188 60.082 m f
305.566 71.641 m 304.91 72.078 304.645 72.297 304.301 72.719 c 303.676 
73.5 303.363 74.391 303.363 75.438 c 303.363 76.594 303.691 77.469 304.473
 78.375 c 304.848 78.812 305.082 79 305.551 79.297 c 305.645 79.141 l 304.941
 78.578 304.691 78.266 304.441 77.594 c 304.223 77 304.129 76.328 304.129
 75.422 c 304.129 74.469 304.238 73.734 304.488 73.188 c 304.738 72.625 
305.004 72.297 305.645 71.781 c h
305.566 71.641 m f
309.488 76.297 m 309.066 76.938 308.738 77.141 308.238 77.141 c 307.41 
77.141 306.848 76.422 306.848 75.391 c 306.848 74.469 307.332 73.844 308.066
 73.844 c 308.379 73.844 308.504 73.922 308.582 74.266 c 308.645 74.469 
l 308.723 74.719 308.879 74.875 309.066 74.875 c 309.301 74.875 309.488 
74.703 309.488 74.5 c 309.488 74 308.863 73.578 308.113 73.578 c 307.676
 73.578 307.223 73.75 306.848 74.078 c 306.395 74.469 306.145 75.078 306.145
 75.797 c 306.145 76.953 306.863 77.797 307.848 77.797 c 308.254 77.797 
308.613 77.656 308.941 77.375 c 309.176 77.172 309.348 76.906 309.613 76.391
 c h
309.488 76.297 m f
310.23 79.297 m 310.887 78.844 311.168 78.625 311.496 78.219 c 312.137 
77.438 312.449 76.531 312.449 75.484 c 312.449 74.344 312.105 73.469 311.324
 72.562 c 310.949 72.125 310.715 71.922 310.262 71.641 c 310.152 71.781 
l 310.871 72.344 311.105 72.656 311.355 73.328 c 311.574 73.938 311.668 
74.609 311.668 75.516 c 311.668 76.453 311.559 77.188 311.309 77.734 c 311.074
 78.297 310.793 78.625 310.152 79.141 c h
310.23 79.297 m f
305.672 28.422 m 305.312 28.406 305.234 28.328 304.953 27.734 c 302.969
 23.203 l 302.812 23.203 l 301.156 27.125 l 300.641 28.281 300.547 28.406
 300.172 28.422 c 300.172 28.578 l 301.75 28.578 l 301.75 28.422 l 301.359
 28.422 301.203 28.328 301.203 28.094 c 301.203 28 301.219 27.891 301.266
 27.797 c 301.625 26.859 l 303.719 26.859 l 304.047 27.625 l 304.141 27.844
 304.203 28.047 304.203 28.156 c 304.203 28.359 304.062 28.422 303.641 28.422
 c 303.641 28.578 l 305.672 28.578 l h
301.766 26.531 m 302.688 24.344 l 303.609 26.531 l h
301.766 26.531 m f
307.789 26.297 m 306.039 26.297 l 306.039 26.828 l 307.789 26.828 l 307.789
 28.578 l 308.32 28.578 l 308.32 26.828 l 310.055 26.828 l 310.055 26.297
 l 308.32 26.297 l 308.32 24.547 l 307.789 24.547 l h
307.789 26.297 m f
310.387 23.453 m 311.059 23.5 311.137 23.578 311.152 24.172 c 311.152 27.703
 l 311.137 28.312 311.027 28.406 310.387 28.422 c 310.387 28.578 l 313.043
 28.578 l 313.652 28.578 314.23 28.406 314.527 28.141 c 314.809 27.891 314.965
 27.531 314.965 27.141 c 314.965 26.797 314.84 26.469 314.574 26.25 c 314.34
 26.031 314.121 25.938 313.605 25.812 c 314.027 25.703 314.184 25.625 314.387
 25.453 c 314.574 25.281 314.699 25 314.699 24.656 c 314.699 23.766 313.98
 23.297 312.605 23.297 c 310.387 23.297 l h
311.965 25.984 m 312.73 25.984 313.105 26.031 313.387 26.141 c 313.84 26.328
 314.059 26.656 314.059 27.156 c 314.059 27.578 313.887 27.891 313.574 28.078
 c 313.309 28.219 312.98 28.281 312.465 28.281 c 312.074 28.281 311.965 
28.219 311.965 27.953 c h
311.965 25.672 m 311.965 23.844 l 311.965 23.656 311.996 23.609 312.137
 23.609 c 312.48 23.594 l 313.371 23.578 313.887 23.984 313.887 24.688 c
 313.887 25.312 313.48 25.656 312.715 25.656 c h
311.965 25.672 m f
Q Q
showpage
%%Trailer
end
%%EOF
