%!PS-Adobe-3.0 EPSF-3.0
%%Creator: cairo 1.17.4 (https://cairographics.org)
%%CreationDate: Thu Feb 24 10:48:56 2022
%%Pages: 1
%%DocumentData: Clean7Bit
%%LanguageLevel: 2
%%BoundingBox: 0 0 174 195
%%EndComments
%%BeginProlog
50 dict begin
/q { gsave } bind def
/Q { grestore } bind def
/cm { 6 array astore concat } bind def
/w { setlinewidth } bind def
/J { setlinecap } bind def
/j { setlinejoin } bind def
/M { setmiterlimit } bind def
/d { setdash } bind def
/m { moveto } bind def
/l { lineto } bind def
/c { curveto } bind def
/h { closepath } bind def
/re { exch dup neg 3 1 roll 5 3 roll moveto 0 rlineto
      0 exch rlineto 0 rlineto closepath } bind def
/S { stroke } bind def
/f { fill } bind def
/f* { eofill } bind def
/n { newpath } bind def
/W { clip } bind def
/W* { eoclip } bind def
/BT { } bind def
/ET { } bind def
/BDC { mark 3 1 roll /BDC pdfmark } bind def
/EMC { mark /EMC pdfmark } bind def
/cairo_store_point { /cairo_point_y exch def /cairo_point_x exch def } def
/Tj { show currentpoint cairo_store_point } bind def
/TJ {
  {
    dup
    type /stringtype eq
    { show } { -0.001 mul 0 cairo_font_matrix dtransform rmoveto } ifelse
  } forall
  currentpoint cairo_store_point
} bind def
/cairo_selectfont { cairo_font_matrix aload pop pop pop 0 0 6 array astore
    cairo_font exch selectfont cairo_point_x cairo_point_y moveto } bind def
/Tf { pop /cairo_font exch def /cairo_font_matrix where
      { pop cairo_selectfont } if } bind def
/Td { matrix translate cairo_font_matrix matrix concatmatrix dup
      /cairo_font_matrix exch def dup 4 get exch 5 get cairo_store_point
      /cairo_font where { pop cairo_selectfont } if } bind def
/Tm { 2 copy 8 2 roll 6 array astore /cairo_font_matrix exch def
      cairo_store_point /cairo_font where { pop cairo_selectfont } if } bind def
/g { setgray } bind def
/rg { setrgbcolor } bind def
/d1 { setcachedevice } bind def
/cairo_data_source {
  CairoDataIndex CairoData length lt
    { CairoData CairoDataIndex get /CairoDataIndex CairoDataIndex 1 add def }
    { () } ifelse
} def
/cairo_flush_ascii85_file { cairo_ascii85_file status { cairo_ascii85_file flushfile } if } def
/cairo_image { image cairo_flush_ascii85_file } def
/cairo_imagemask { imagemask cairo_flush_ascii85_file } def
%%EndProlog
%%BeginSetup
%%EndSetup
%%Page: 1 1
%%BeginPageSetup
%%PageBoundingBox: 0 0 174 195
%%EndPageSetup
q 0 0 174 195 rectclip
1 0 0 -1 0 195 cm q
Q q
9.988 71.617 164.012 106 re W n
q
9 71 165 107 re W n
  q
0 g
1.13366 w
0 J
0 j
[] 0.0 d
10 M q 1 0 0 -1 0 0 cm
26.367 -88.098 m 27.785 -94 l 29.203 -98.43 l 30.621 -102.301 l 32.035 
-105.797 l 33.457 -109.02 l 34.871 -112.02 l 36.289 -114.832 l 37.707 -117.48
 l 39.125 -119.988 l 40.543 -122.363 l 41.961 -124.621 l 43.375 -126.773
 l 44.793 -128.824 l 46.211 -130.781 l 47.629 -132.652 l 49.047 -134.438
 l 50.465 -136.148 l 51.879 -137.785 l 53.297 -139.348 l 54.715 -140.844
 l 56.133 -142.27 l 57.551 -143.637 l 58.969 -144.941 l 60.383 -146.184 
l 61.801 -147.371 l 63.219 -148.5 l 64.637 -149.578 l 66.055 -150.598 l 
67.469 -151.566 l 68.887 -152.484 l 70.305 -153.352 l 71.723 -154.172 l 
73.141 -154.941 l 74.559 -155.664 l 75.973 -156.34 l 77.391 -156.969 l 78.809
 -157.555 l 80.227 -158.094 l 81.645 -158.586 l 83.062 -159.035 l 84.477
 -159.441 l 85.895 -159.801 l 87.312 -160.121 l 88.73 -160.398 l 90.148 
-160.633 l 91.566 -160.824 l 92.98 -160.969 l 94.398 -161.074 l 95.816 -161.137
 l 97.234 -161.156 l 98.652 -161.137 l 100.07 -161.074 l 101.484 -160.969
 l 102.902 -160.824 l 104.32 -160.633 l 105.738 -160.398 l 107.156 -160.121
 l 108.574 -159.801 l 109.992 -159.441 l 111.406 -159.035 l 112.824 -158.586
 l 114.242 -158.094 l 115.66 -157.555 l 117.078 -156.969 l 118.496 -156.34
 l 119.91 -155.664 l 121.328 -154.941 l 122.746 -154.172 l 124.164 -153.352
 l 125.582 -152.484 l 127 -151.566 l 128.414 -150.598 l 129.832 -149.578
 l 131.25 -148.5 l 132.668 -147.371 l 134.086 -146.184 l 135.504 -144.941
 l 136.918 -143.637 l 138.336 -142.27 l 139.754 -140.844 l 141.172 -139.348
 l 142.59 -137.785 l 144.008 -136.148 l 145.422 -134.438 l 146.84 -132.652
 l 148.258 -130.781 l 149.676 -128.824 l 151.094 -126.773 l 152.508 -124.621
 l 153.926 -122.363 l 155.344 -119.988 l 156.762 -117.48 l 158.18 -114.832
 l 159.598 -112.02 l 161.016 -109.02 l 162.43 -105.797 l 163.848 -102.301
 l 165.266 -98.43 l 166.684 -94 l 168.102 -88.098 l S Q
  Q
Q
Q q
9.988 0 164.012 104.617 re W n
q
9 0 165 105 re W n
  q
0 g
1.13366 w
0 J
0 j
[] 0.0 d
10 M q 1 0 0 -1 0 0 cm
26.367 -88.098 m 27.785 -82.195 l 29.203 -77.766 l 30.621 -73.895 l 32.035
 -70.395 l 33.457 -67.172 l 34.871 -64.176 l 36.289 -61.359 l 37.707 -58.711
 l 39.125 -56.207 l 40.543 -53.832 l 41.961 -51.57 l 43.375 -49.422 l 44.793
 -47.371 l 46.211 -45.414 l 47.629 -43.539 l 49.047 -41.754 l 50.465 -40.047
 l 51.879 -38.406 l 53.297 -36.848 l 54.715 -35.352 l 56.133 -33.922 l 57.551
 -32.559 l 58.969 -31.254 l 60.383 -30.012 l 61.801 -28.824 l 63.219 -27.695
 l 64.637 -26.617 l 66.055 -25.598 l 67.469 -24.629 l 68.887 -23.711 l 70.305
 -22.844 l 71.723 -22.02 l 73.141 -21.254 l 74.559 -20.527 l 75.973 -19.852
 l 77.391 -19.223 l 78.809 -18.641 l 80.227 -18.102 l 81.645 -17.609 l 83.062
 -17.156 l 84.477 -16.754 l 85.895 -16.391 l 87.312 -16.074 l 88.73 -15.797
 l 90.148 -15.562 l 91.566 -15.371 l 92.98 -15.227 l 94.398 -15.121 l 95.816
 -15.059 l 97.234 -15.035 l 98.652 -15.059 l 100.07 -15.121 l 101.484 -15.227
 l 102.902 -15.371 l 104.32 -15.562 l 105.738 -15.797 l 107.156 -16.074 
l 108.574 -16.391 l 109.992 -16.754 l 111.406 -17.156 l 112.824 -17.609 
l 114.242 -18.102 l 115.66 -18.641 l 117.078 -19.223 l 118.496 -19.852 l
 119.91 -20.527 l 121.328 -21.254 l 122.746 -22.02 l 124.164 -22.844 l 125.582
 -23.711 l 127 -24.629 l 128.414 -25.598 l 129.832 -26.617 l 131.25 -27.695
 l 132.668 -28.824 l 134.086 -30.012 l 135.504 -31.254 l 136.918 -32.559
 l 138.336 -33.922 l 139.754 -35.352 l 141.172 -36.848 l 142.59 -38.406 
l 144.008 -40.047 l 145.422 -41.754 l 146.84 -43.539 l 148.258 -45.414 l
 149.676 -47.371 l 151.094 -49.422 l 152.508 -51.57 l 153.926 -53.832 l 
155.344 -56.207 l 156.762 -58.711 l 158.18 -61.359 l 159.598 -64.176 l 161.016
 -67.172 l 162.43 -70.395 l 163.848 -73.895 l 165.266 -77.766 l 166.684 
-82.195 l 168.102 -88.098 l S Q
  Q
Q
0 g
1.13366 w
0 J
0 j
[] 0.0 d
10 M q 1 0 0 -1 0 0 cm
26.367 -88.098 m 168.102 -88.098 l S Q
95.02 33.906 m 90.004 33.906 l 89.582 35.438 l 89.754 35.438 l 90.129 34.453
 90.598 34.234 91.379 34.234 c 91.379 34.234 91.895 34.234 92.004 34.234
 c 90.707 38.906 l 90.457 39.812 90.145 39.797 89.785 39.797 c 89.77 39.953
 l 92.129 39.953 l 92.16 39.797 l 91.816 39.797 91.473 39.812 91.473 39.359
 c 91.473 39.234 91.504 39.094 91.551 38.906 c 92.832 34.234 l 93.582 34.234
 l 94.02 34.234 94.488 34.297 94.488 34.922 c 94.488 35.062 94.473 35.219
 94.426 35.438 c 94.598 35.438 l h
95.02 33.906 m f
101.324 39.953 m 98.449 33.766 l 98.277 33.766 l 95.418 39.953 l h
100.23 39.484 m 96.059 39.484 l 98.137 35 l h
100.23 39.484 m f
107.352 33.766 m 107.164 33.766 l 107.055 33.969 106.93 34.062 106.742 
34.062 c 106.445 34.062 106.07 33.766 105.383 33.766 c 104.492 33.766 103.648
 34.344 103.648 35.312 c 103.648 36.672 105.742 37.328 105.742 38.578 c 
105.742 39.141 105.289 39.781 104.492 39.781 c 103.805 39.781 103.07 39.234
 103.07 38.266 c 103.07 38.109 103.086 38.016 103.102 37.922 c 102.93 37.922
 l 102.539 40.062 l 102.695 40.062 l 102.789 39.891 102.883 39.719 103.117
 39.719 c 103.398 39.719 103.945 40.094 104.633 40.094 c 105.945 40.094 
106.586 39.156 106.586 38.297 c 106.586 36.828 104.461 36.125 104.461 35
 c 104.461 34.453 104.898 34.078 105.492 34.078 c 106.227 34.078 106.789
 34.578 106.805 35.312 c 106.805 35.453 106.805 35.562 106.789 35.672 c 
106.945 35.672 l h
107.352 33.766 m f
108.277 36.711 m 109.934 36.711 l 109.934 36.602 l 109.465 36.57 109.418
 36.508 109.418 36.008 c 109.418 33.523 l 109.387 33.508 l 108.309 33.883
 l 108.309 33.992 l 108.355 33.992 l 108.449 33.977 108.527 33.961 108.605
 33.961 c 108.762 33.961 108.824 34.07 108.824 34.383 c 108.824 36.008 l
 108.809 36.523 108.746 36.586 108.277 36.602 c h
109.059 31.945 m 108.871 31.945 108.715 32.117 108.715 32.305 c 108.715
 32.508 108.871 32.664 109.059 32.664 c 109.262 32.664 109.418 32.508 109.418
 32.305 c 109.418 32.102 109.262 31.945 109.059 31.945 c h
109.059 31.945 m f
113.512 36.305 m 113.418 36.32 113.387 36.32 113.355 36.32 c 113.105 36.32
 113.043 36.242 113.043 35.914 c 113.043 31.961 l 113.012 31.945 l 112.684
 32.07 112.449 32.133 111.98 32.258 c 111.98 32.367 l 112.043 32.367 112.074
 32.367 112.137 32.367 c 112.402 32.367 112.465 32.43 112.465 32.711 c 112.465
 33.805 l 112.199 33.586 112.012 33.508 111.73 33.508 c 110.934 33.508 110.277
 34.289 110.277 35.289 c 110.277 36.18 110.793 36.773 111.574 36.773 c 111.965
 36.773 112.215 36.648 112.465 36.32 c 112.465 36.758 l 112.48 36.773 l 
113.512 36.414 l h
112.465 36.008 m 112.465 36.055 112.418 36.133 112.34 36.211 c 112.215 
36.352 112.043 36.414 111.84 36.414 c 111.246 36.414 110.871 35.867 110.871
 34.992 c 110.871 34.211 111.215 33.695 111.746 33.695 c 112.121 33.695 
112.465 34.023 112.465 34.398 c h
112.465 36.008 m f
107.438 42.113 m 108.984 42.113 l 108.984 42.004 l 108.625 42.004 108.516
 41.926 108.516 41.645 c 108.516 39.676 l 108.516 39.66 108.562 39.598 108.625
 39.551 c 108.797 39.395 109.094 39.27 109.328 39.27 c 109.641 39.27 109.797
 39.52 109.797 40.004 c 109.797 41.52 l 109.781 41.91 109.719 41.988 109.328
 42.004 c 109.328 42.113 l 110.875 42.113 l 110.875 42.004 l 110.484 42.004
 110.391 41.895 110.375 41.457 c 110.375 39.691 l 110.594 39.395 110.812
 39.27 111.141 39.27 c 111.531 39.27 111.656 39.457 111.656 40.035 c 111.656
 41.504 l 111.656 41.926 111.609 41.973 111.203 42.004 c 111.203 42.113 
l 112.734 42.113 l 112.734 42.004 l 112.547 41.988 l 112.328 41.957 112.25
 41.848 112.25 41.582 c 112.25 40.145 l 112.25 39.332 111.969 38.91 111.438
 38.91 c 111.031 38.91 110.688 39.082 110.297 39.488 c 110.172 39.098 109.938
 38.91 109.562 38.91 c 109.25 38.91 109.062 39.004 108.484 39.441 c 108.484
 38.926 l 108.438 38.91 l 108.062 39.035 107.828 39.113 107.453 39.223 c
 107.453 39.332 l 107.547 39.316 107.609 39.316 107.688 39.316 c 107.859
 39.316 107.922 39.426 107.922 39.754 c 107.922 41.52 l 107.906 41.91 107.828
 42.004 107.438 42.004 c h
107.438 42.113 m f
116.809 33.891 m 116.152 34.328 115.887 34.547 115.543 34.969 c 114.918
 35.75 114.605 36.641 114.605 37.688 c 114.605 38.844 114.934 39.719 115.715
 40.625 c 116.09 41.062 116.324 41.25 116.793 41.547 c 116.887 41.391 l 
116.184 40.828 115.934 40.516 115.684 39.844 c 115.465 39.25 115.371 38.578
 115.371 37.672 c 115.371 36.719 115.48 35.984 115.73 35.438 c 115.98 34.875
 116.246 34.547 116.887 34.031 c h
116.809 33.891 m f
117.309 39.953 m 119.309 39.953 l 119.309 39.812 l 118.84 39.812 118.699
 39.719 118.699 39.359 c 118.699 36.828 l 118.699 36.812 118.762 36.719 
118.824 36.656 c 119.059 36.453 119.434 36.297 119.746 36.297 c 120.152 
36.297 120.34 36.609 120.34 37.234 c 120.34 39.188 l 120.324 39.688 120.23
 39.797 119.73 39.812 c 119.73 39.953 l 121.746 39.953 l 121.746 39.812 
l 121.246 39.812 121.121 39.672 121.09 39.094 c 121.09 36.844 l 121.371 
36.453 121.652 36.297 122.074 36.297 c 122.59 36.297 122.746 36.531 122.746
 37.281 c 122.746 39.172 l 122.73 39.703 122.668 39.766 122.152 39.812 c
 122.152 39.953 l 124.121 39.953 l 124.121 39.812 l 123.887 39.797 l 123.605
 39.75 123.496 39.625 123.496 39.266 c 123.496 37.422 l 123.496 36.359 123.152
 35.828 122.465 35.828 c 121.934 35.828 121.48 36.062 120.996 36.578 c 120.84
 36.062 120.527 35.828 120.043 35.828 c 119.637 35.828 119.402 35.938 118.652
 36.516 c 118.652 35.844 l 118.59 35.828 l 118.121 36 117.809 36.094 117.34
 36.234 c 117.34 36.391 l 117.449 36.359 117.527 36.344 117.621 36.344 c
 117.855 36.344 117.934 36.484 117.934 36.922 c 117.934 39.188 l 117.918
 39.688 117.809 39.812 117.309 39.812 c h
117.309 39.953 m f
124.27 39.953 m 126.395 39.953 l 126.395 39.812 l 125.801 39.781 125.738
 39.688 125.738 39.031 c 125.738 35.859 l 125.691 35.828 l 124.301 36.328
 l 124.301 36.453 l 124.379 36.453 l 124.488 36.422 124.598 36.422 124.691
 36.422 c 124.895 36.422 124.988 36.562 124.988 36.953 c 124.988 39.031 
l 124.957 39.703 124.879 39.797 124.27 39.812 c h
125.27 33.828 m 125.035 33.828 124.832 34.031 124.832 34.281 c 124.832 
34.547 125.02 34.75 125.27 34.75 c 125.551 34.75 125.738 34.547 125.738 
34.281 c 125.738 34.031 125.535 33.828 125.27 33.828 c h
125.27 33.828 m f
129.148 39.953 m 130.945 39.953 l 130.945 39.812 l 130.664 39.812 130.492
 39.672 130.211 39.281 c 129.055 37.516 l 129.805 36.453 l 129.977 36.203
 130.242 36.062 130.539 36.047 c 130.539 35.922 l 129.117 35.922 l 129.117
 36.047 l 129.383 36.062 129.477 36.125 129.477 36.25 c 129.477 36.359 129.367
 36.547 129.148 36.828 c 129.102 36.891 128.992 37.047 128.867 37.234 c 
128.805 37.125 l 128.664 36.906 128.586 36.797 128.57 36.766 c 128.398 36.484
 128.336 36.344 128.336 36.25 c 128.336 36.109 128.445 36.062 128.727 36.047
 c 128.727 35.922 l 126.867 35.922 l 126.867 36.047 l 126.945 36.047 l 127.211
 36.047 127.352 36.172 127.633 36.594 c 128.477 37.875 l 127.461 39.359 
l 127.18 39.734 127.102 39.797 126.805 39.812 c 126.805 39.953 l 128.102
 39.953 l 128.102 39.812 l 127.836 39.812 127.742 39.781 127.742 39.656 
c 127.742 39.594 127.789 39.484 127.93 39.297 c 128.633 38.188 l 129.445
 39.438 l 129.477 39.5 129.508 39.547 129.508 39.609 c 129.508 39.766 129.445
 39.797 129.148 39.812 c h
129.148 39.953 m f
131.434 41.547 m 132.09 41.094 132.371 40.875 132.699 40.469 c 133.34 39.688
 133.652 38.781 133.652 37.734 c 133.652 36.594 133.309 35.719 132.527 34.812
 c 132.152 34.375 131.918 34.172 131.465 33.891 c 131.355 34.031 l 132.074
 34.594 132.309 34.906 132.559 35.578 c 132.777 36.188 132.871 36.859 132.871
 37.766 c 132.871 38.703 132.762 39.438 132.512 39.984 c 132.277 40.547 
131.996 40.875 131.355 41.391 c h
131.434 41.547 m f
97.121 82.473 m 94.246 76.285 l 94.074 76.285 l 91.215 82.473 l h
96.027 82.004 m 91.855 82.004 l 93.934 77.52 l h
96.027 82.004 m f
105.684 76.426 m 103.34 76.426 l 103.324 76.566 l 103.621 76.566 103.98
 76.598 103.98 77.004 c 103.98 77.129 103.949 77.27 103.855 77.598 c 103.465
 79.098 l 100.809 79.098 l 101.262 77.473 l 101.434 76.816 101.715 76.566
 102.246 76.566 c 102.277 76.426 l 99.824 76.426 l 99.793 76.566 l 100.09
 76.566 100.48 76.598 100.48 77.004 c 100.48 77.129 100.449 77.27 100.355
 77.598 c 99.293 81.426 l 99.043 82.332 98.777 82.316 98.371 82.316 c 98.34
 82.473 l 100.699 82.473 l 100.715 82.316 l 100.48 82.316 100.09 82.285 
100.09 81.848 c 100.09 81.77 100.105 81.66 100.137 81.551 c 100.715 79.457
 l 103.355 79.457 l 102.793 81.426 l 102.543 82.316 102.199 82.316 101.824
 82.316 c 101.793 82.473 l 104.293 82.473 l 104.309 82.316 l 103.98 82.316
 103.637 82.332 103.637 81.879 c 103.637 81.77 103.652 81.613 103.715 81.426
 c 104.809 77.473 l 104.98 76.816 105.246 76.566 105.652 76.566 c h
105.684 76.426 m f
106.598 79.23 m 108.254 79.23 l 108.254 79.121 l 107.785 79.09 107.738 
79.027 107.738 78.527 c 107.738 76.043 l 107.707 76.027 l 106.629 76.402
 l 106.629 76.512 l 106.676 76.512 l 106.77 76.496 106.848 76.48 106.926
 76.48 c 107.082 76.48 107.145 76.59 107.145 76.902 c 107.145 78.527 l 107.129
 79.043 107.066 79.105 106.598 79.121 c h
107.379 74.465 m 107.191 74.465 107.035 74.637 107.035 74.824 c 107.035
 75.027 107.191 75.184 107.379 75.184 c 107.582 75.184 107.738 75.027 107.738
 74.824 c 107.738 74.621 107.582 74.465 107.379 74.465 c h
107.379 74.465 m f
111.832 78.824 m 111.738 78.84 111.707 78.84 111.676 78.84 c 111.426 78.84
 111.363 78.762 111.363 78.434 c 111.363 74.48 l 111.332 74.465 l 111.004
 74.59 110.77 74.652 110.301 74.777 c 110.301 74.887 l 110.363 74.887 110.395
 74.887 110.457 74.887 c 110.723 74.887 110.785 74.949 110.785 75.23 c 110.785
 76.324 l 110.52 76.105 110.332 76.027 110.051 76.027 c 109.254 76.027 108.598
 76.809 108.598 77.809 c 108.598 78.699 109.113 79.293 109.895 79.293 c 
110.285 79.293 110.535 79.168 110.785 78.84 c 110.785 79.277 l 110.801 79.293
 l 111.832 78.934 l h
110.785 78.527 m 110.785 78.574 110.738 78.652 110.66 78.73 c 110.535 78.871
 110.363 78.934 110.16 78.934 c 109.566 78.934 109.191 78.387 109.191 77.512
 c 109.191 76.73 109.535 76.215 110.066 76.215 c 110.441 76.215 110.785 
76.543 110.785 76.918 c h
110.785 78.527 m f
105.398 84.633 m 106.945 84.633 l 106.945 84.523 l 106.586 84.523 106.477
 84.445 106.477 84.164 c 106.477 82.195 l 106.477 82.18 106.523 82.117 106.586
 82.07 c 106.758 81.914 107.055 81.789 107.289 81.789 c 107.602 81.789 107.758
 82.039 107.758 82.523 c 107.758 84.039 l 107.742 84.43 107.68 84.508 107.289
 84.523 c 107.289 84.633 l 108.836 84.633 l 108.836 84.523 l 108.445 84.523
 108.352 84.414 108.336 83.977 c 108.336 82.211 l 108.555 81.914 108.773
 81.789 109.102 81.789 c 109.492 81.789 109.617 81.977 109.617 82.555 c 
109.617 84.023 l 109.617 84.445 109.57 84.492 109.164 84.523 c 109.164 84.633
 l 110.695 84.633 l 110.695 84.523 l 110.508 84.508 l 110.289 84.477 110.211
 84.367 110.211 84.102 c 110.211 82.664 l 110.211 81.852 109.93 81.43 109.398
 81.43 c 108.992 81.43 108.648 81.602 108.258 82.008 c 108.133 81.617 107.898
 81.43 107.523 81.43 c 107.211 81.43 107.023 81.523 106.445 81.961 c 106.445
 81.445 l 106.398 81.43 l 106.023 81.555 105.789 81.633 105.414 81.742 c
 105.414 81.852 l 105.508 81.836 105.57 81.836 105.648 81.836 c 105.82 81.836
 105.883 81.945 105.883 82.273 c 105.883 84.039 l 105.867 84.43 105.789 
84.523 105.398 84.523 c h
105.398 84.633 m f
115.008 76.41 m 114.352 76.848 114.086 77.066 113.742 77.488 c 113.117 
78.27 112.805 79.16 112.805 80.207 c 112.805 81.363 113.133 82.238 113.914
 83.145 c 114.289 83.582 114.523 83.77 114.992 84.066 c 115.086 83.91 l 
114.383 83.348 114.133 83.035 113.883 82.363 c 113.664 81.77 113.57 81.098
 113.57 80.191 c 113.57 79.238 113.68 78.504 113.93 77.957 c 114.18 77.395
 114.445 77.066 115.086 76.551 c h
115.008 76.41 m f
115.508 82.473 m 117.508 82.473 l 117.508 82.332 l 117.039 82.332 116.898
 82.238 116.898 81.879 c 116.898 79.348 l 116.898 79.332 116.961 79.238 
117.023 79.176 c 117.258 78.973 117.633 78.816 117.945 78.816 c 118.352 
78.816 118.539 79.129 118.539 79.754 c 118.539 81.707 l 118.523 82.207 118.43
 82.316 117.93 82.332 c 117.93 82.473 l 119.945 82.473 l 119.945 82.332 
l 119.445 82.332 119.32 82.191 119.289 81.613 c 119.289 79.363 l 119.57 
78.973 119.852 78.816 120.273 78.816 c 120.789 78.816 120.945 79.051 120.945
 79.801 c 120.945 81.691 l 120.93 82.223 120.867 82.285 120.352 82.332 c
 120.352 82.473 l 122.32 82.473 l 122.32 82.332 l 122.086 82.316 l 121.805
 82.27 121.695 82.145 121.695 81.785 c 121.695 79.941 l 121.695 78.879 121.352
 78.348 120.664 78.348 c 120.133 78.348 119.68 78.582 119.195 79.098 c 119.039
 78.582 118.727 78.348 118.242 78.348 c 117.836 78.348 117.602 78.457 116.852
 79.035 c 116.852 78.363 l 116.789 78.348 l 116.32 78.52 116.008 78.613 
115.539 78.754 c 115.539 78.91 l 115.648 78.879 115.727 78.863 115.82 78.863
 c 116.055 78.863 116.133 79.004 116.133 79.441 c 116.133 81.707 l 116.117
 82.207 116.008 82.332 115.508 82.332 c h
115.508 82.473 m f
122.469 82.473 m 124.594 82.473 l 124.594 82.332 l 124 82.301 123.938 82.207
 123.938 81.551 c 123.938 78.379 l 123.891 78.348 l 122.5 78.848 l 122.5
 78.973 l 122.578 78.973 l 122.688 78.941 122.797 78.941 122.891 78.941 
c 123.094 78.941 123.188 79.082 123.188 79.473 c 123.188 81.551 l 123.156
 82.223 123.078 82.316 122.469 82.332 c h
123.469 76.348 m 123.234 76.348 123.031 76.551 123.031 76.801 c 123.031
 77.066 123.219 77.27 123.469 77.27 c 123.75 77.27 123.938 77.066 123.938
 76.801 c 123.938 76.551 123.734 76.348 123.469 76.348 c h
123.469 76.348 m f
127.348 82.473 m 129.145 82.473 l 129.145 82.332 l 128.863 82.332 128.691
 82.191 128.41 81.801 c 127.254 80.035 l 128.004 78.973 l 128.176 78.723
 128.441 78.582 128.738 78.566 c 128.738 78.441 l 127.316 78.441 l 127.316
 78.566 l 127.582 78.582 127.676 78.645 127.676 78.77 c 127.676 78.879 127.566
 79.066 127.348 79.348 c 127.301 79.41 127.191 79.566 127.066 79.754 c 127.004
 79.645 l 126.863 79.426 126.785 79.316 126.77 79.285 c 126.598 79.004 126.535
 78.863 126.535 78.77 c 126.535 78.629 126.645 78.582 126.926 78.566 c 126.926
 78.441 l 125.066 78.441 l 125.066 78.566 l 125.145 78.566 l 125.41 78.566
 125.551 78.691 125.832 79.113 c 126.676 80.395 l 125.66 81.879 l 125.379
 82.254 125.301 82.316 125.004 82.332 c 125.004 82.473 l 126.301 82.473 
l 126.301 82.332 l 126.035 82.332 125.941 82.301 125.941 82.176 c 125.941
 82.113 125.988 82.004 126.129 81.816 c 126.832 80.707 l 127.645 81.957 
l 127.676 82.02 127.707 82.066 127.707 82.129 c 127.707 82.285 127.645 82.316
 127.348 82.332 c h
127.348 82.473 m f
129.633 84.066 m 130.289 83.613 130.57 83.395 130.898 82.988 c 131.539 
82.207 131.852 81.301 131.852 80.254 c 131.852 79.113 131.508 78.238 130.727
 77.332 c 130.352 76.895 130.117 76.691 129.664 76.41 c 129.555 76.551 l
 130.273 77.113 130.508 77.426 130.758 78.098 c 130.977 78.707 131.07 79.379
 131.07 80.285 c 131.07 81.223 130.961 81.957 130.711 82.504 c 130.477 83.066
 130.195 83.395 129.555 83.91 c h
129.633 84.066 m f
Q q
0 g
100.676 142 m 97.801 135.812 l 97.629 135.812 l 94.77 142 l h
99.582 141.531 m 95.41 141.531 l 97.488 137.047 l h
99.582 141.531 m f
107.859 138.984 m 105.359 138.984 l 105.328 139.141 l 105.844 139.141 106.094
 139.375 106.094 139.641 c 106.094 139.688 106.078 139.734 106.078 139.781
 c 105.609 141.5 l 105.328 141.688 105 141.812 104.594 141.812 c 103.391
 141.812 102.906 140.891 102.906 139.906 c 102.906 138.266 103.969 136.109
 105.688 136.109 c 106.625 136.109 107.016 136.75 107.016 137.703 c 107.172
 137.703 l 107.562 135.828 l 107.375 135.828 l 107.312 135.922 107.234 136.062
 107.016 136.062 c 106.812 136.062 106.219 135.812 105.609 135.812 c 103.328
 135.812 101.922 137.938 101.922 139.688 c 101.922 140.625 102.578 142.141
 104.484 142.141 c 105.062 142.141 105.844 141.984 106.453 141.641 c 106.938
 139.812 l 107.094 139.25 107.281 139.141 107.828 139.141 c h
107.859 138.984 m f
108.711 138.758 m 110.367 138.758 l 110.367 138.648 l 109.898 138.617 109.852
 138.555 109.852 138.055 c 109.852 135.57 l 109.82 135.555 l 108.742 135.93
 l 108.742 136.039 l 108.789 136.039 l 108.883 136.023 108.961 136.008 109.039
 136.008 c 109.195 136.008 109.258 136.117 109.258 136.43 c 109.258 138.055
 l 109.242 138.57 109.18 138.633 108.711 138.648 c h
109.492 133.992 m 109.305 133.992 109.148 134.164 109.148 134.352 c 109.148
 134.555 109.305 134.711 109.492 134.711 c 109.695 134.711 109.852 134.555
 109.852 134.352 c 109.852 134.148 109.695 133.992 109.492 133.992 c h
109.492 133.992 m f
113.945 138.352 m 113.852 138.367 113.82 138.367 113.789 138.367 c 113.539
 138.367 113.477 138.289 113.477 137.961 c 113.477 134.008 l 113.445 133.992
 l 113.117 134.117 112.883 134.18 112.414 134.305 c 112.414 134.414 l 112.477
 134.414 112.508 134.414 112.57 134.414 c 112.836 134.414 112.898 134.477
 112.898 134.758 c 112.898 135.852 l 112.633 135.633 112.445 135.555 112.164
 135.555 c 111.367 135.555 110.711 136.336 110.711 137.336 c 110.711 138.227
 111.227 138.82 112.008 138.82 c 112.398 138.82 112.648 138.695 112.898 
138.367 c 112.898 138.805 l 112.914 138.82 l 113.945 138.461 l h
112.898 138.055 m 112.898 138.102 112.852 138.18 112.773 138.258 c 112.648
 138.398 112.477 138.461 112.273 138.461 c 111.68 138.461 111.305 137.914
 111.305 137.039 c 111.305 136.258 111.648 135.742 112.18 135.742 c 112.555
 135.742 112.898 136.07 112.898 136.445 c h
112.898 138.055 m f
108.23 144.16 m 109.777 144.16 l 109.777 144.051 l 109.418 144.051 109.309
 143.973 109.309 143.691 c 109.309 141.723 l 109.309 141.707 109.355 141.645
 109.418 141.598 c 109.59 141.441 109.887 141.316 110.121 141.316 c 110.434
 141.316 110.59 141.566 110.59 142.051 c 110.59 143.566 l 110.574 143.957
 110.512 144.035 110.121 144.051 c 110.121 144.16 l 111.668 144.16 l 111.668
 144.051 l 111.277 144.051 111.184 143.941 111.168 143.504 c 111.168 141.738
 l 111.387 141.441 111.605 141.316 111.934 141.316 c 112.324 141.316 112.449
 141.504 112.449 142.082 c 112.449 143.551 l 112.449 143.973 112.402 144.02
 111.996 144.051 c 111.996 144.16 l 113.527 144.16 l 113.527 144.051 l 113.34
 144.035 l 113.121 144.004 113.043 143.895 113.043 143.629 c 113.043 142.191
 l 113.043 141.379 112.762 140.957 112.23 140.957 c 111.824 140.957 111.48
 141.129 111.09 141.535 c 110.965 141.145 110.73 140.957 110.355 140.957
 c 110.043 140.957 109.855 141.051 109.277 141.488 c 109.277 140.973 l 109.23
 140.957 l 108.855 141.082 108.621 141.16 108.246 141.27 c 108.246 141.379
 l 108.34 141.363 108.402 141.363 108.48 141.363 c 108.652 141.363 108.715
 141.473 108.715 141.801 c 108.715 143.566 l 108.699 143.957 108.621 144.051
 108.23 144.051 c h
108.23 144.16 m f
117.242 135.938 m 116.586 136.375 116.32 136.594 115.977 137.016 c 115.352
 137.797 115.039 138.688 115.039 139.734 c 115.039 140.891 115.367 141.766
 116.148 142.672 c 116.523 143.109 116.758 143.297 117.227 143.594 c 117.32
 143.438 l 116.617 142.875 116.367 142.562 116.117 141.891 c 115.898 141.297
 115.805 140.625 115.805 139.719 c 115.805 138.766 115.914 138.031 116.164
 137.484 c 116.414 136.922 116.68 136.594 117.32 136.078 c h
117.242 135.938 m f
117.742 142 m 119.742 142 l 119.742 141.859 l 119.273 141.859 119.133 141.766
 119.133 141.406 c 119.133 138.875 l 119.133 138.859 119.195 138.766 119.258
 138.703 c 119.492 138.5 119.867 138.344 120.18 138.344 c 120.586 138.344
 120.773 138.656 120.773 139.281 c 120.773 141.234 l 120.758 141.734 120.664
 141.844 120.164 141.859 c 120.164 142 l 122.18 142 l 122.18 141.859 l 121.68
 141.859 121.555 141.719 121.523 141.141 c 121.523 138.891 l 121.805 138.5
 122.086 138.344 122.508 138.344 c 123.023 138.344 123.18 138.578 123.18
 139.328 c 123.18 141.219 l 123.164 141.75 123.102 141.812 122.586 141.859
 c 122.586 142 l 124.555 142 l 124.555 141.859 l 124.32 141.844 l 124.039
 141.797 123.93 141.672 123.93 141.312 c 123.93 139.469 l 123.93 138.406
 123.586 137.875 122.898 137.875 c 122.367 137.875 121.914 138.109 121.43
 138.625 c 121.273 138.109 120.961 137.875 120.477 137.875 c 120.07 137.875
 119.836 137.984 119.086 138.562 c 119.086 137.891 l 119.023 137.875 l 118.555
 138.047 118.242 138.141 117.773 138.281 c 117.773 138.438 l 117.883 138.406
 117.961 138.391 118.055 138.391 c 118.289 138.391 118.367 138.531 118.367
 138.969 c 118.367 141.234 l 118.352 141.734 118.242 141.859 117.742 141.859
 c h
117.742 142 m f
124.703 142 m 126.828 142 l 126.828 141.859 l 126.234 141.828 126.172 141.734
 126.172 141.078 c 126.172 137.906 l 126.125 137.875 l 124.734 138.375 l
 124.734 138.5 l 124.812 138.5 l 124.922 138.469 125.031 138.469 125.125
 138.469 c 125.328 138.469 125.422 138.609 125.422 139 c 125.422 141.078
 l 125.391 141.75 125.312 141.844 124.703 141.859 c h
125.703 135.875 m 125.469 135.875 125.266 136.078 125.266 136.328 c 125.266
 136.594 125.453 136.797 125.703 136.797 c 125.984 136.797 126.172 136.594
 126.172 136.328 c 126.172 136.078 125.969 135.875 125.703 135.875 c h
125.703 135.875 m f
129.582 142 m 131.379 142 l 131.379 141.859 l 131.098 141.859 130.926 141.719
 130.645 141.328 c 129.488 139.562 l 130.238 138.5 l 130.41 138.25 130.676
 138.109 130.973 138.094 c 130.973 137.969 l 129.551 137.969 l 129.551 138.094
 l 129.816 138.109 129.91 138.172 129.91 138.297 c 129.91 138.406 129.801
 138.594 129.582 138.875 c 129.535 138.938 129.426 139.094 129.301 139.281
 c 129.238 139.172 l 129.098 138.953 129.02 138.844 129.004 138.812 c 128.832
 138.531 128.77 138.391 128.77 138.297 c 128.77 138.156 128.879 138.109 
129.16 138.094 c 129.16 137.969 l 127.301 137.969 l 127.301 138.094 l 127.379
 138.094 l 127.645 138.094 127.785 138.219 128.066 138.641 c 128.91 139.922
 l 127.895 141.406 l 127.613 141.781 127.535 141.844 127.238 141.859 c 127.238
 142 l 128.535 142 l 128.535 141.859 l 128.27 141.859 128.176 141.828 128.176
 141.703 c 128.176 141.641 128.223 141.531 128.363 141.344 c 129.066 140.234
 l 129.879 141.484 l 129.91 141.547 129.941 141.594 129.941 141.656 c 129.941
 141.812 129.879 141.844 129.582 141.859 c h
129.582 142 m f
131.867 143.594 m 132.523 143.141 132.805 142.922 133.133 142.516 c 133.773
 141.734 134.086 140.828 134.086 139.781 c 134.086 138.641 133.742 137.766
 132.961 136.859 c 132.586 136.422 132.352 136.219 131.898 135.938 c 131.789
 136.078 l 132.508 136.641 132.742 136.953 132.992 137.625 c 133.211 138.234
 133.305 138.906 133.305 139.812 c 133.305 140.75 133.195 141.484 132.945
 142.031 c 132.711 142.594 132.43 142.922 131.789 143.438 c h
131.867 143.594 m f
0.567043 w
0 J
0 j
[] 0.0 d
10 M q 1 0 0 -1 0 0 cm
26.367 -2.977 141.734 -170.082 re S Q
0.398506 w
q 1 0 0 -1 0 0 cm
26.367 -173.059 m 26.367 -168.805 l S Q
q 1 0 0 -1 0 0 cm
54.715 -173.059 m 54.715 -168.805 l S Q
q 1 0 0 -1 0 0 cm
83.059 -173.059 m 83.059 -168.805 l S Q
q 1 0 0 -1 0 0 cm
111.406 -173.059 m 111.406 -168.805 l S Q
q 1 0 0 -1 0 0 cm
139.754 -173.059 m 139.754 -168.805 l S Q
q 1 0 0 -1 0 0 cm
168.098 -173.059 m 168.098 -168.805 l S Q
q 1 0 0 -1 0 0 cm
26.367 -173.059 m 26.367 -168.805 l S Q
q 1 0 0 -1 0 0 cm
26.367 -173.059 m 30.621 -173.059 l S Q
q 1 0 0 -1 0 0 cm
26.367 -130.535 m 30.621 -130.535 l S Q
q 1 0 0 -1 0 0 cm
26.367 -88.02 m 30.621 -88.02 l S Q
q 1 0 0 -1 0 0 cm
26.367 -45.5 m 30.621 -45.5 l S Q
q 1 0 0 -1 0 0 cm
26.367 -2.977 m 30.621 -2.977 l S Q
q 1 0 0 -1 0 0 cm
26.367 -173.059 m 30.621 -173.059 l S Q
q 1 0 0 -1 0 0 cm
26.367 -2.977 m 26.367 -7.23 l S Q
q 1 0 0 -1 0 0 cm
54.715 -2.977 m 54.715 -7.23 l S Q
q 1 0 0 -1 0 0 cm
83.059 -2.977 m 83.059 -7.23 l S Q
q 1 0 0 -1 0 0 cm
111.406 -2.977 m 111.406 -7.23 l S Q
q 1 0 0 -1 0 0 cm
139.754 -2.977 m 139.754 -7.23 l S Q
q 1 0 0 -1 0 0 cm
168.098 -2.977 m 168.098 -7.23 l S Q
q 1 0 0 -1 0 0 cm
26.367 -2.977 m 26.367 -7.23 l S Q
q 1 0 0 -1 0 0 cm
168.102 -173.059 m 163.848 -173.059 l S Q
q 1 0 0 -1 0 0 cm
168.102 -130.535 m 163.848 -130.535 l S Q
q 1 0 0 -1 0 0 cm
168.102 -88.02 m 163.848 -88.02 l S Q
q 1 0 0 -1 0 0 cm
168.102 -45.5 m 163.848 -45.5 l S Q
q 1 0 0 -1 0 0 cm
168.102 -2.977 m 163.848 -2.977 l S Q
q 1 0 0 -1 0 0 cm
168.102 -173.059 m 163.848 -173.059 l S Q
24.961 179.582 m 24.961 177.973 24.227 176.52 22.977 176.52 c 21.711 176.52
 20.977 177.973 20.977 179.582 c 20.977 181.207 21.664 182.645 22.977 182.645
 c 24.18 182.645 24.961 181.207 24.961 179.582 c h
24.102 179.582 m 24.102 180.879 23.977 182.395 22.977 182.395 c 22.023 
182.395 21.836 180.879 21.836 179.582 c 21.836 178.504 21.961 176.754 22.977
 176.754 c 23.977 176.754 24.102 178.504 24.102 179.582 c h
24.102 179.582 m f
26.887 182.16 m 26.887 181.879 26.668 181.66 26.387 181.66 c 26.105 181.66
 25.887 181.879 25.887 182.16 c 25.887 182.441 26.105 182.66 26.387 182.66
 c 26.668 182.66 26.887 182.441 26.887 182.16 c h
26.887 182.16 m f
31.801 179.582 m 31.801 177.973 31.066 176.52 29.816 176.52 c 28.551 176.52
 27.816 177.973 27.816 179.582 c 27.816 181.207 28.504 182.645 29.816 182.645
 c 31.02 182.645 31.801 181.207 31.801 179.582 c h
30.941 179.582 m 30.941 180.879 30.816 182.395 29.816 182.395 c 28.863 
182.395 28.676 180.879 28.676 179.582 c 28.676 178.504 28.801 176.754 29.816
 176.754 c 30.816 176.754 30.941 178.504 30.941 179.582 c h
30.941 179.582 m f
53.281 179.582 m 53.281 177.973 52.547 176.52 51.297 176.52 c 50.031 176.52
 49.297 177.973 49.297 179.582 c 49.297 181.207 49.984 182.645 51.297 182.645
 c 52.5 182.645 53.281 181.207 53.281 179.582 c h
52.422 179.582 m 52.422 180.879 52.297 182.395 51.297 182.395 c 50.344 
182.395 50.156 180.879 50.156 179.582 c 50.156 178.504 50.281 176.754 51.297
 176.754 c 52.297 176.754 52.422 178.504 52.422 179.582 c h
52.422 179.582 m f
55.207 182.16 m 55.207 181.879 54.988 181.66 54.707 181.66 c 54.426 181.66
 54.207 181.879 54.207 182.16 c 54.207 182.441 54.426 182.66 54.707 182.66
 c 54.988 182.66 55.207 182.441 55.207 182.16 c h
55.207 182.16 m f
60.152 181.379 m 59.996 181.348 l 59.73 181.801 59.512 181.879 59.074 181.879
 c 57.012 181.879 l 58.434 180.582 59.73 179.41 59.73 178.098 c 59.73 177.176
 58.934 176.52 58.059 176.52 c 57.199 176.52 56.512 176.988 56.246 178.207
 c 56.449 178.207 l 56.699 177.707 57.043 177.191 57.73 177.191 c 58.512
 177.191 58.949 177.785 58.949 178.457 c 58.949 179.426 57.918 180.848 56.152
 182.395 c 56.152 182.535 l 59.684 182.535 l h
60.152 181.379 m f
81.602 179.582 m 81.602 177.973 80.867 176.52 79.617 176.52 c 78.352 176.52
 77.617 177.973 77.617 179.582 c 77.617 181.207 78.305 182.645 79.617 182.645
 c 80.82 182.645 81.602 181.207 81.602 179.582 c h
80.742 179.582 m 80.742 180.879 80.617 182.395 79.617 182.395 c 78.664 
182.395 78.477 180.879 78.477 179.582 c 78.477 178.504 78.602 176.754 79.617
 176.754 c 80.617 176.754 80.742 178.504 80.742 179.582 c h
80.742 179.582 m f
83.527 182.16 m 83.527 181.879 83.309 181.66 83.027 181.66 c 82.746 181.66
 82.527 181.879 82.527 182.16 c 82.527 182.441 82.746 182.66 83.027 182.66
 c 83.309 182.66 83.527 182.441 83.527 182.16 c h
83.527 182.16 m f
88.457 181.051 m 88.457 180.441 l 87.582 180.441 l 87.582 176.52 l 87.145
 176.52 l 84.551 180.426 l 84.551 181.051 l 86.848 181.051 l 86.848 182.535
 l 87.582 182.535 l 87.582 181.051 l h
86.848 180.441 m 84.91 180.441 l 86.832 177.457 l 86.848 177.457 l h
86.848 180.441 m f
109.922 179.582 m 109.922 177.973 109.188 176.52 107.938 176.52 c 106.672
 176.52 105.938 177.973 105.938 179.582 c 105.938 181.207 106.625 182.645
 107.938 182.645 c 109.141 182.645 109.922 181.207 109.922 179.582 c h
109.062 179.582 m 109.062 180.879 108.938 182.395 107.938 182.395 c 106.984
 182.395 106.797 180.879 106.797 179.582 c 106.797 178.504 106.922 176.754
 107.938 176.754 c 108.938 176.754 109.062 178.504 109.062 179.582 c h
109.062 179.582 m f
111.848 182.16 m 111.848 181.879 111.629 181.66 111.348 181.66 c 111.066
 181.66 110.848 181.879 110.848 182.16 c 110.848 182.441 111.066 182.66 
111.348 182.66 c 111.629 182.66 111.848 182.441 111.848 182.16 c h
111.848 182.16 m f
116.715 180.52 m 116.715 179.535 116.012 178.801 115.121 178.801 c 114.668
 178.801 114.293 178.941 113.902 179.254 c 114.293 177.66 115.465 176.66
 116.59 176.645 c 116.59 176.488 l 113.824 176.488 112.949 178.832 112.949
 180.16 c 112.949 181.582 113.777 182.645 114.887 182.645 c 115.902 182.645
 116.715 181.691 116.715 180.52 c h
115.949 180.973 m 115.949 181.801 115.574 182.379 114.98 182.379 c 114.059
 182.379 113.777 181.035 113.777 180.316 c 113.777 180.082 113.809 179.832
 113.855 179.535 c 114.246 179.285 114.559 179.176 114.871 179.176 c 115.777
 179.176 115.949 180.223 115.949 180.973 c h
115.949 180.973 m f
138.363 179.582 m 138.363 177.973 137.629 176.52 136.379 176.52 c 135.113
 176.52 134.379 177.973 134.379 179.582 c 134.379 181.207 135.066 182.645
 136.379 182.645 c 137.582 182.645 138.363 181.207 138.363 179.582 c h
137.504 179.582 m 137.504 180.879 137.379 182.395 136.379 182.395 c 135.426
 182.395 135.238 180.879 135.238 179.582 c 135.238 178.504 135.363 176.754
 136.379 176.754 c 137.379 176.754 137.504 178.504 137.504 179.582 c h
137.504 179.582 m f
140.285 182.16 m 140.285 181.879 140.066 181.66 139.785 181.66 c 139.504
 181.66 139.285 181.879 139.285 182.16 c 139.285 182.441 139.504 182.66 
139.785 182.66 c 140.066 182.66 140.285 182.441 140.285 182.16 c h
140.285 182.16 m f
144.938 181.16 m 144.938 180.52 144.656 180.035 143.562 179.223 c 144.25
 178.848 144.781 178.426 144.781 177.77 c 144.781 177.082 144.141 176.488
 143.188 176.488 c 142.344 176.488 141.547 177.035 141.547 177.879 c 141.547
 178.535 141.891 178.926 142.656 179.535 c 141.797 180.191 141.484 180.52
 141.484 181.191 c 141.484 181.941 142.156 182.645 143.203 182.645 c 144.422
 182.645 144.938 181.816 144.938 181.16 c h
144.172 177.754 m 144.172 178.395 143.797 178.738 143.312 179.066 c 142.719
 178.645 142.203 178.176 142.203 177.66 c 142.203 177.176 142.547 176.754
 143.156 176.754 c 143.828 176.754 144.172 177.176 144.172 177.754 c h
144.297 181.41 m 144.297 181.988 143.859 182.379 143.281 182.379 c 142.594
 182.379 142.156 181.832 142.156 181.098 c 142.156 180.426 142.484 180.035
 142.891 179.691 c 143.875 180.441 144.297 180.816 144.297 181.41 c h
144.297 181.41 m f
165.934 182.535 m 165.934 182.395 l 165.34 182.395 165.121 182.41 165.121
 181.238 c 165.121 181.223 165.121 176.488 165.121 176.488 c 164.996 176.488
 l 163.465 177.223 l 163.512 177.363 l 163.84 177.223 163.918 177.191 164.043
 177.191 c 164.309 177.191 164.355 177.426 164.355 177.738 c 164.355 181.238
 l 164.355 182.41 164.137 182.379 163.543 182.395 c 163.543 182.535 l h
165.934 182.535 m f
168.605 182.16 m 168.605 181.879 168.387 181.66 168.105 181.66 c 167.824
 181.66 167.605 181.879 167.605 182.16 c 167.605 182.441 167.824 182.66 
168.105 182.66 c 168.387 182.66 168.605 182.441 168.605 182.16 c h
168.605 182.16 m f
173.523 179.582 m 173.523 177.973 172.789 176.52 171.539 176.52 c 170.273
 176.52 169.539 177.973 169.539 179.582 c 169.539 181.207 170.227 182.645
 171.539 182.645 c 172.742 182.645 173.523 181.207 173.523 179.582 c h
172.664 179.582 m 172.664 180.879 172.539 182.395 171.539 182.395 c 170.586
 182.395 170.398 180.879 170.398 179.582 c 170.398 178.504 170.523 176.754
 171.539 176.754 c 172.539 176.754 172.664 178.504 172.664 179.582 c h
172.664 179.582 m f
12.469 173.691 5.484 0.453 re f
22.715 175.02 m 22.559 174.988 l 22.293 175.441 22.074 175.52 21.637 175.52
 c 19.574 175.52 l 20.996 174.223 22.293 173.051 22.293 171.738 c 22.293
 170.816 21.496 170.16 20.621 170.16 c 19.762 170.16 19.074 170.629 18.809
 171.848 c 19.012 171.848 l 19.262 171.348 19.605 170.832 20.293 170.832
 c 21.074 170.832 21.512 171.426 21.512 172.098 c 21.512 173.066 20.48 174.488
 18.715 176.035 c 18.715 176.176 l 22.246 176.176 l h
22.715 175.02 m f
12.469 131.09 5.484 0.453 re f
21.934 133.574 m 21.934 133.434 l 21.34 133.434 21.121 133.449 21.121 132.277
 c 21.121 132.262 21.121 127.527 21.121 127.527 c 20.996 127.527 l 19.465
 128.262 l 19.512 128.402 l 19.84 128.262 19.918 128.23 20.043 128.23 c 
20.309 128.23 20.355 128.465 20.355 128.777 c 20.355 132.277 l 20.355 133.449
 20.137 133.418 19.543 133.434 c 19.543 133.574 l h
21.934 133.574 m f
22.684 88.145 m 22.684 86.535 21.949 85.082 20.699 85.082 c 19.434 85.082
 18.699 86.535 18.699 88.145 c 18.699 89.77 19.387 91.207 20.699 91.207 
c 21.902 91.207 22.684 89.77 22.684 88.145 c h
21.824 88.145 m 21.824 89.441 21.699 90.957 20.699 90.957 c 19.746 90.957
 19.559 89.441 19.559 88.145 c 19.559 87.066 19.684 85.316 20.699 85.316
 c 21.699 85.316 21.824 87.066 21.824 88.145 c h
21.824 88.145 m f
21.934 48.617 m 21.934 48.477 l 21.34 48.477 21.121 48.492 21.121 47.32
 c 21.121 47.305 21.121 42.57 21.121 42.57 c 20.996 42.57 l 19.465 43.305
 l 19.512 43.445 l 19.84 43.305 19.918 43.273 20.043 43.273 c 20.309 43.273
 20.355 43.508 20.355 43.82 c 20.355 47.32 l 20.355 48.492 20.137 48.461
 19.543 48.477 c 19.543 48.617 l h
21.934 48.617 m f
22.715 4.859 m 22.559 4.828 l 22.293 5.281 22.074 5.359 21.637 5.359 c 
19.574 5.359 l 20.996 4.062 22.293 2.891 22.293 1.578 c 22.293 0.656 21.496
 0 20.621 0 c 19.762 0 19.074 0.469 18.809 1.688 c 19.012 1.688 l 19.262
 1.188 19.605 0.672 20.293 0.672 c 21.074 0.672 21.512 1.266 21.512 1.938
 c 21.512 2.906 20.48 4.328 18.715 5.875 c 18.715 6.016 l 22.246 6.016 l
 h
22.715 4.859 m f
96.715 188.449 m 96.715 188.23 96.512 188.121 96.34 188.121 c 95.887 188.121
 95.309 188.793 94.871 189.496 c 94.855 189.496 94.793 189.199 94.793 189.199
 c 94.652 188.605 94.48 188.262 94.168 188.121 c 94.168 188.121 93.152 188.324
 93.027 188.371 c 93.027 188.527 l 93.215 188.48 93.355 188.449 93.449 188.449
 c 93.949 188.449 94.027 188.934 94.371 190.23 c 93.965 190.824 93.324 191.824
 93.074 191.824 c 92.871 191.824 92.855 191.605 92.574 191.605 c 92.387 
191.605 92.246 191.746 92.246 191.934 c 92.246 192.168 92.418 192.324 92.668
 192.324 c 93.309 192.324 93.887 191.199 94.434 190.496 c 94.465 190.559
 94.668 191.355 94.668 191.355 c 94.887 192.184 95.059 192.324 95.277 192.324
 c 95.559 192.324 95.98 192.043 96.402 191.262 c 96.277 191.184 l 96.121
 191.387 95.871 191.809 95.637 191.809 c 95.324 191.809 95.152 190.543 94.934
 189.746 c 94.98 189.668 95.605 188.668 95.934 188.668 c 96.105 188.668 
96.262 188.809 96.418 188.809 c 96.637 188.809 96.715 188.621 96.715 188.449
 c h
96.715 188.449 m f
101.918 194.371 m 101.605 194.34 101.527 194.277 101.293 193.762 c 99.559
 189.793 l 99.418 189.793 l 97.965 193.215 l 97.512 194.23 97.434 194.355
 97.105 194.371 c 97.105 194.496 l 98.48 194.496 l 98.48 194.371 l 98.152
 194.371 98.012 194.277 98.012 194.074 c 98.012 193.996 98.027 193.902 98.059
 193.809 c 98.387 192.996 l 100.215 192.996 l 100.496 193.652 l 100.574 
193.855 100.621 194.027 100.621 194.121 c 100.621 194.309 100.512 194.355
 100.137 194.371 c 100.137 194.496 l 101.918 194.496 l h
98.496 192.699 m 99.309 190.793 l 100.105 192.699 l h
98.496 192.699 m f
4.129 119.422 m 3.895 119.828 3.816 120.094 3.816 120.453 c 3.816 121.594
 4.816 122.438 6.113 122.438 c 7.238 122.438 8.035 121.844 8.035 121 c 8.035
 120.484 7.801 120 7.363 119.594 c 9.051 119.594 l 9.551 119.609 9.707 119.766
 9.738 120.391 c 9.895 120.391 l 9.895 118.281 l 9.77 118.281 l 9.66 118.766
 9.598 118.828 9.207 118.844 c 3.848 118.844 l 3.848 118.938 l h
6.801 119.594 m 7.02 119.594 7.129 119.641 7.223 119.719 c 7.379 119.922
 7.488 120.219 7.488 120.5 c 7.488 120.766 7.395 121.016 7.223 121.188 c
 6.957 121.484 6.379 121.672 5.785 121.672 c 4.723 121.672 4.066 121.188
 4.066 120.438 c 4.066 119.875 4.363 119.594 4.957 119.594 c h
6.801 119.594 m f
7.488 113.918 m 7.488 113.965 l 7.473 114.402 7.41 114.465 6.988 114.48
 c 3.91 114.48 l 3.91 115.887 l 4.051 115.887 l 4.082 115.34 4.176 115.23
 4.629 115.23 c 6.738 115.23 l 6.988 115.23 7.113 115.277 7.207 115.402 
c 7.41 115.637 7.504 115.918 7.504 116.184 c 7.504 116.543 7.207 116.824
 6.832 116.824 c 3.91 116.824 l 3.91 118.137 l 4.035 118.137 l 4.051 117.715
 4.176 117.59 4.598 117.574 c 6.863 117.574 l 7.566 117.574 8.035 117.152
 8.035 116.496 c 8.035 116.168 7.895 115.809 7.645 115.574 c 7.254 115.184
 l 8.004 115.184 l 8.02 115.152 l 7.848 114.699 7.738 114.371 7.613 113.918
 c h
7.488 113.918 m f
7.348 109.809 m 7.473 109.965 7.52 110.074 7.52 110.215 c 7.52 110.418 
7.395 110.48 7.004 110.48 c 5.254 110.48 l 4.785 110.48 4.52 110.527 4.316
 110.652 c 3.988 110.855 3.816 111.246 3.816 111.762 c 3.816 112.605 4.254
 113.277 4.816 113.277 c 5.02 113.277 5.207 113.105 5.207 112.887 c 5.207
 112.668 5.02 112.48 4.832 112.48 c 4.801 112.48 4.754 112.496 4.691 112.496
 c 4.598 112.527 4.535 112.527 4.473 112.527 c 4.223 112.527 4.035 112.246
 4.035 111.887 c 4.035 111.449 4.285 111.199 4.77 111.199 c 5.316 111.199
 l 5.863 112.574 5.957 112.73 6.285 113.121 c 6.473 113.324 6.77 113.449
 7.066 113.449 c 7.629 113.449 8.035 113.059 8.035 112.496 c 8.035 112.105
 7.848 111.746 7.379 111.199 c 7.848 111.152 8.035 110.98 8.035 110.621 
c 8.035 110.309 7.926 110.121 7.582 109.809 c h
6.832 111.199 m 7.113 111.199 7.207 111.246 7.316 111.434 c 7.441 111.668
 7.504 111.902 7.504 112.09 c 7.504 112.402 7.207 112.652 6.816 112.652 
c 6.785 112.652 l 6.254 112.652 5.91 112.246 5.535 111.199 c h
6.832 111.199 m f
7.941 109.66 m 7.941 107.754 l 7.801 107.754 l 7.785 108.207 7.66 108.348
 7.348 108.348 c 4.816 108.348 l 4.41 107.91 4.316 107.723 4.316 107.426
 c 4.316 106.988 4.582 106.77 5.176 106.77 c 7.051 106.77 l 7.629 106.785
 7.785 106.895 7.801 107.332 c 7.941 107.332 l 7.941 105.473 l 7.801 105.473
 l 7.77 105.91 7.66 106.004 7.223 106.02 c 5.16 106.02 l 4.316 106.02 3.816
 106.41 3.816 107.066 c 3.816 107.488 3.973 107.77 4.535 108.379 c 3.832
 108.379 l 3.816 108.441 l 3.988 108.895 4.082 109.207 4.223 109.676 c 4.379
 109.676 l 4.348 109.613 4.332 109.535 4.332 109.426 c 4.332 109.176 4.473
 109.098 4.91 109.098 c 7.129 109.098 l 7.66 109.113 7.785 109.207 7.801
 109.66 c h
7.941 109.66 m f
3.91 103.094 m 3.91 104 l 2.863 104 l 2.77 104 2.754 104.016 2.754 104.062
 c 3.504 104.578 3.801 104.844 3.957 105.109 c 4.02 105.203 4.082 105.266
 4.129 105.266 c 4.16 105.266 4.176 105.25 4.191 105.219 c 4.191 104.75 
l 6.895 104.75 l 7.645 104.75 8.035 104.484 8.035 103.953 c 8.035 103.516
 7.816 103.172 7.348 102.875 c 7.254 102.984 l 7.488 103.188 7.566 103.328
 7.566 103.531 c 7.566 103.859 7.316 104 6.754 104 c 4.191 104 l 4.191 103.094
 l h
3.91 103.094 m f
7.941 102.715 m 7.941 100.59 l 7.801 100.59 l 7.77 101.184 7.676 101.246
 7.02 101.246 c 3.848 101.246 l 3.816 101.293 l 4.316 102.684 l 4.441 102.684
 l 4.441 102.605 l 4.41 102.496 4.41 102.387 4.41 102.293 c 4.41 102.09 
4.551 101.996 4.941 101.996 c 7.02 101.996 l 7.691 102.027 7.785 102.105
 7.801 102.715 c h
1.816 101.715 m 1.816 101.949 2.02 102.152 2.27 102.152 c 2.535 102.152
 2.738 101.965 2.738 101.715 c 2.738 101.434 2.535 101.246 2.27 101.246 
c 2.02 101.246 1.816 101.449 1.816 101.715 c h
1.816 101.715 m f
3.91 98.055 m 3.91 98.961 l 2.863 98.961 l 2.77 98.961 2.754 98.977 2.754
 99.023 c 3.504 99.539 3.801 99.805 3.957 100.07 c 4.02 100.164 4.082 100.227
 4.129 100.227 c 4.16 100.227 4.176 100.211 4.191 100.18 c 4.191 99.711 
l 6.895 99.711 l 7.645 99.711 8.035 99.445 8.035 98.914 c 8.035 98.477 7.816
 98.133 7.348 97.836 c 7.254 97.945 l 7.488 98.148 7.566 98.289 7.566 98.492
 c 7.566 98.82 7.316 98.961 6.754 98.961 c 4.191 98.961 l 4.191 98.055 l
 h
3.91 98.055 m f
3.91 93.551 m 3.91 94.77 l 4.035 94.77 l 4.035 94.473 4.113 94.332 4.27
 94.332 c 4.301 94.332 4.348 94.348 4.41 94.379 c 6.895 95.238 l 4.629 96.27
 l 4.504 96.332 4.379 96.363 4.285 96.363 c 4.113 96.363 4.051 96.223 4.035
 95.848 c 3.91 95.848 l 3.91 97.691 l 4.035 97.691 l 4.066 97.457 4.16 97.301
 4.316 97.238 c 6.52 96.207 l 6.77 96.098 6.77 96.098 6.863 96.051 c 7.316
 95.801 7.645 95.66 7.785 95.66 c 7.926 95.66 8.473 95.863 8.754 96.02 c
 8.973 96.145 9.145 96.332 9.145 96.457 c 9.145 96.52 9.129 96.598 9.082
 96.691 c 9.02 96.863 8.988 97.02 8.988 97.16 c 8.988 97.379 9.145 97.551
 9.379 97.551 c 9.676 97.551 9.895 97.27 9.895 96.879 c 9.895 96.27 9.41
 95.863 8.098 95.363 c 4.441 93.988 l 4.16 93.863 4.066 93.77 4.035 93.551
 c h
3.91 93.551 m f
1.879 89.238 m 1.879 89.848 l 8.066 91.895 l 8.066 91.285 l h
1.879 89.238 m f
7.941 87.672 m 7.941 85.578 l 7.801 85.578 l 7.801 85.75 l 7.77 86.125 
7.676 86.234 7.348 86.25 c 5.691 86.25 l 7.363 84.984 l 7.41 84.953 7.457
 84.922 7.488 84.906 c 7.566 84.828 7.629 84.797 7.676 84.797 c 7.754 84.797
 7.801 84.875 7.801 84.984 c 7.801 85.156 l 7.941 85.156 l 7.941 83.203 
l 7.801 83.203 l 7.785 83.594 7.613 83.875 7.145 84.25 c 5.41 85.625 l 5.176
 85.359 l 4.16 84.25 4.02 84 4.035 83.422 c 3.91 83.422 l 3.91 85.266 l 
4.035 85.266 l 4.035 84.906 4.082 84.812 4.191 84.812 c 4.27 84.812 4.395
 84.891 4.504 85.016 c 5.598 86.25 l 1.832 86.25 l 1.816 86.281 l 1.926 
86.625 2.004 86.891 2.145 87.406 c 2.207 87.672 l 2.348 87.672 l 2.348 87.562
 2.332 87.469 2.332 87.391 c 2.332 87.078 2.457 87 2.879 87 c 7.207 87 l
 7.676 87.016 7.707 87.031 7.801 87.672 c h
7.941 87.672 m f
2.004 79.984 m 2.004 82.547 l 2.176 82.547 l 2.223 81.828 2.316 81.734 
2.988 81.719 c 7.129 81.719 l 7.535 81.719 7.723 81.828 7.723 82.062 c 7.723
 82.188 7.66 82.234 7.426 82.297 c 7.113 82.391 6.973 82.531 6.973 82.766
 c 6.973 83.016 7.176 83.203 7.426 83.203 c 7.801 83.203 8.066 82.844 8.066
 82.312 c 8.066 81.344 7.426 80.797 6.301 80.797 c 2.988 80.797 l 2.316 
80.781 2.223 80.703 2.176 79.984 c h
2.004 79.984 m f
7.941 77.395 m 7.941 75.395 l 7.801 75.395 l 7.801 75.863 7.707 76.004 
7.348 76.004 c 4.816 76.004 l 4.801 76.004 4.707 75.941 4.645 75.879 c 4.441
 75.645 4.285 75.27 4.285 74.957 c 4.285 74.551 4.598 74.363 5.223 74.363
 c 7.176 74.363 l 7.676 74.379 7.785 74.473 7.801 74.973 c 7.941 74.973 
l 7.941 72.957 l 7.801 72.957 l 7.801 73.457 7.66 73.582 7.082 73.613 c 
4.832 73.613 l 4.441 73.332 4.285 73.051 4.285 72.629 c 4.285 72.113 4.52
 71.957 5.27 71.957 c 7.16 71.957 l 7.691 71.973 7.754 72.035 7.801 72.551
 c 7.941 72.551 l 7.941 70.582 l 7.801 70.582 l 7.785 70.816 l 7.738 71.098
 7.613 71.207 7.254 71.207 c 5.41 71.207 l 4.348 71.207 3.816 71.551 3.816
 72.238 c 3.816 72.77 4.051 73.223 4.566 73.707 c 4.051 73.863 3.816 74.176
 3.816 74.66 c 3.816 75.066 3.926 75.301 4.504 76.051 c 3.832 76.051 l 3.816
 76.113 l 3.988 76.582 4.082 76.895 4.223 77.363 c 4.379 77.363 l 4.348 
77.254 4.332 77.176 4.332 77.082 c 4.332 76.848 4.473 76.77 4.91 76.77 c
 7.176 76.77 l 7.676 76.785 7.801 76.895 7.801 77.395 c h
7.941 77.395 m f
3.816 68.324 m 3.816 69.512 4.676 70.309 5.91 70.309 c 7.129 70.309 8.035
 69.48 8.035 68.355 c 8.035 67.215 7.082 66.355 5.848 66.355 c 4.66 66.355
 3.816 67.184 3.816 68.324 c h
4.066 68.449 m 4.066 67.699 4.926 67.168 6.16 67.168 c 7.176 67.168 7.785
 67.574 7.785 68.246 c 7.785 68.59 7.566 68.918 7.207 69.105 c 6.738 69.371
 6.113 69.512 5.473 69.512 c 4.629 69.512 4.066 69.09 4.066 68.449 c h
4.066 68.449 m f
7.941 65.949 m 7.941 63.824 l 7.801 63.824 l 7.785 64.402 7.691 64.496 
7.191 64.512 c 1.832 64.512 l 1.816 64.543 l 1.957 64.996 2.051 65.324 2.207
 65.965 c 2.348 65.965 l 2.348 65.918 l 2.348 65.809 2.332 65.699 2.332 
65.637 c 2.332 65.34 2.457 65.262 2.879 65.262 c 7.16 65.262 l 7.645 65.262
 7.77 65.387 7.801 65.949 c h
7.941 65.949 m f
2.469 58.492 0.438 4.703 re f
4.703 54.941 m 4.516 54.941 l 4.516 55.473 4.516 55.645 3.672 55.645 c 
3.656 55.645 0 55.645 0 55.645 c 0 55.816 l 0.578 57.16 l 0.766 57.082 l
 0.641 56.77 0.625 56.707 0.625 56.613 c 0.625 56.41 0.797 56.395 1 56.395
 c 3.672 56.395 l 4.516 56.395 4.5 56.551 4.516 57.082 c 4.703 57.082 l 
h
4.703 54.941 m f
Q Q
showpage
%%Trailer
end
%%EOF
