%!PS-Adobe-3.0 EPSF-3.0
%%Creator: cairo 1.17.4 (https://cairographics.org)
%%CreationDate: Thu Feb 24 10:48:57 2022
%%Pages: 1
%%DocumentData: Clean7Bit
%%LanguageLevel: 2
%%BoundingBox: 0 0 169 107
%%EndComments
%%BeginProlog
50 dict begin
/q { gsave } bind def
/Q { grestore } bind def
/cm { 6 array astore concat } bind def
/w { setlinewidth } bind def
/J { setlinecap } bind def
/j { setlinejoin } bind def
/M { setmiterlimit } bind def
/d { setdash } bind def
/m { moveto } bind def
/l { lineto } bind def
/c { curveto } bind def
/h { closepath } bind def
/re { exch dup neg 3 1 roll 5 3 roll moveto 0 rlineto
      0 exch rlineto 0 rlineto closepath } bind def
/S { stroke } bind def
/f { fill } bind def
/f* { eofill } bind def
/n { newpath } bind def
/W { clip } bind def
/W* { eoclip } bind def
/BT { } bind def
/ET { } bind def
/BDC { mark 3 1 roll /BDC pdfmark } bind def
/EMC { mark /EMC pdfmark } bind def
/cairo_store_point { /cairo_point_y exch def /cairo_point_x exch def } def
/Tj { show currentpoint cairo_store_point } bind def
/TJ {
  {
    dup
    type /stringtype eq
    { show } { -0.001 mul 0 cairo_font_matrix dtransform rmoveto } ifelse
  } forall
  currentpoint cairo_store_point
} bind def
/cairo_selectfont { cairo_font_matrix aload pop pop pop 0 0 6 array astore
    cairo_font exch selectfont cairo_point_x cairo_point_y moveto } bind def
/Tf { pop /cairo_font exch def /cairo_font_matrix where
      { pop cairo_selectfont } if } bind def
/Td { matrix translate cairo_font_matrix matrix concatmatrix dup
      /cairo_font_matrix exch def dup 4 get exch 5 get cairo_store_point
      /cairo_font where { pop cairo_selectfont } if } bind def
/Tm { 2 copy 8 2 roll 6 array astore /cairo_font_matrix exch def
      cairo_store_point /cairo_font where { pop cairo_selectfont } if } bind def
/g { setgray } bind def
/rg { setrgbcolor } bind def
/d1 { setcachedevice } bind def
/cairo_data_source {
  CairoDataIndex CairoData length lt
    { CairoData CairoDataIndex get /CairoDataIndex CairoDataIndex 1 add def }
    { () } ifelse
} def
/cairo_flush_ascii85_file { cairo_ascii85_file status { cairo_ascii85_file flushfile } if } def
/cairo_image { image cairo_flush_ascii85_file } def
/cairo_imagemask { imagemask cairo_flush_ascii85_file } def
%%EndProlog
%%BeginSetup
%%EndSetup
%%Page: 1 1
%%BeginPageSetup
%%PageBoundingBox: 0 0 169 107
%%EndPageSetup
q 0 0 169 107 rectclip
1 0 0 -1 0 107 cm q
0 g
0.850361 w
0 J
0 j
[] 0.0 d
10 M q 1 0 0 -1 0 0 cm
49.188 -40.133 m 51.891 -38.633 l 52.793 -38.133 m 55.5 -36.633 l 56.402
 -36.133 m 59.109 -34.633 l 60.012 -34.133 m 62.715 -32.637 l 63.617 -32.137
 m 66.324 -30.637 l 67.227 -30.137 m 69.93 -28.637 l 70.832 -28.137 m 73.539
 -26.637 l 74.441 -26.137 m 77.148 -24.637 l 78.047 -24.137 m 80.754 -22.637
 l 81.656 -22.137 m 84.363 -20.637 l 85.266 -20.137 m 87.969 -18.637 l 88.871
 -18.137 m 91.578 -16.637 l 92.48 -16.137 m 95.184 -14.637 l 96.086 -14.137
 m 98.793 -12.637 l S Q
q 1 0 0 -1 0 0 cm
52.02 -86.902 m 55.086 -86.309 l 56.105 -86.113 m 59.172 -85.52 l 60.191
 -85.32 m 63.258 -84.727 l 64.281 -84.531 m 67.344 -83.938 l 68.367 -83.738
 m 71.434 -83.145 l 72.453 -82.949 m 75.52 -82.355 l 76.543 -82.156 m 79.605
 -81.562 l 80.629 -81.367 m 83.695 -80.773 l 84.715 -80.574 m 87.781 -79.98
 l 88.805 -79.785 m 91.867 -79.191 l 92.891 -78.992 m 95.957 -78.398 l S Q
21.77 86.09 m 19.426 86.09 l 19.41 86.23 l 19.707 86.23 20.066 86.262 20.066
 86.668 c 20.066 86.793 20.035 86.934 19.941 87.262 c 19.551 88.762 l 16.895
 88.762 l 17.348 87.137 l 17.52 86.48 17.801 86.23 18.332 86.23 c 18.363
 86.09 l 15.91 86.09 l 15.879 86.23 l 16.176 86.23 16.566 86.262 16.566 
86.668 c 16.566 86.793 16.535 86.934 16.441 87.262 c 15.379 91.09 l 15.129
 91.996 14.863 91.98 14.457 91.98 c 14.426 92.137 l 16.785 92.137 l 16.801
 91.98 l 16.566 91.98 16.176 91.949 16.176 91.512 c 16.176 91.434 16.191
 91.324 16.223 91.215 c 16.801 89.121 l 19.441 89.121 l 18.879 91.09 l 18.629
 91.98 18.285 91.98 17.91 91.98 c 17.879 92.137 l 20.379 92.137 l 20.395
 91.98 l 20.066 91.98 19.723 91.996 19.723 91.543 c 19.723 91.434 19.738
 91.277 19.801 91.09 c 20.895 87.137 l 21.066 86.48 21.332 86.23 21.738 
86.23 c h
21.77 86.09 m f
25.18 94.059 m 25.18 93.902 l 24.086 93.262 23.586 91.996 23.586 89.871
 c 23.586 87.762 24.086 86.527 25.18 85.855 c 25.18 85.699 l 23.633 86.496
 22.727 88.027 22.727 89.871 c 22.727 91.746 23.602 93.199 25.18 94.059 
c h
25.18 94.059 m f
29.215 87.418 m 29.215 87.246 29.059 87.059 28.777 87.059 c 28.449 87.059
 27.996 87.184 27.715 87.309 c 27.012 87.09 26.871 86.762 26.871 86.605 
c 26.871 86.355 27.262 86.121 27.59 86.012 c 27.449 85.699 l 26.809 85.934
 26.48 86.309 26.48 86.621 c 26.48 87.09 27.074 87.434 27.215 87.496 c 26.996
 87.574 26.074 87.918 26.074 88.621 c 26.074 89.215 26.621 89.59 26.871 
89.746 c 26.418 89.918 25.684 90.355 25.684 91.324 c 25.684 92.855 27.746
 92.105 27.746 92.98 c 27.746 93.262 27.559 93.512 27.262 93.652 c 26.809
 93.855 26.262 93.715 26.262 93.934 c 26.262 94.012 26.402 94.059 26.574
 94.059 c 26.84 94.059 27.246 93.965 27.512 93.824 c 27.965 93.605 28.277
 93.246 28.277 92.762 c 28.277 91.527 26.215 92.168 26.215 91.09 c 26.215
 90.48 26.746 90.105 27.215 89.949 c 27.293 89.98 27.855 90.277 28.199 90.277
 c 28.559 90.277 28.746 90.043 28.746 89.824 c 28.746 89.637 28.574 89.434
 28.215 89.434 c 27.965 89.434 27.637 89.527 27.324 89.621 c 26.902 89.418
 26.621 89.09 26.621 88.637 c 26.621 88.043 27.402 87.762 27.715 87.668 
c 27.996 87.762 28.309 87.84 28.637 87.84 c 29.027 87.84 29.215 87.621 29.215
 87.418 c h
29.215 87.418 m f
32.992 93.449 m 32.773 93.418 l 32.539 93.777 32.352 93.84 32.008 93.84
 c 30.352 93.84 l 31.539 92.855 32.602 91.965 32.602 90.996 c 32.602 90.262
 31.898 89.746 31.133 89.746 c 30.367 89.746 29.758 90.105 29.523 91.121
 c 29.773 91.121 l 29.992 90.73 30.273 90.34 30.852 90.34 c 31.492 90.34
 31.852 90.762 31.852 91.262 c 31.852 91.996 30.961 93.059 29.445 94.246
 c 29.445 94.418 l 32.539 94.418 l h
32.992 93.449 m f
35.656 92.027 m 35.656 91.449 35.297 91.262 35.094 91.262 c 34.953 91.262
 34.578 91.34 34.578 91.762 c 34.578 92.105 34.859 92.215 35.016 92.215 
c 35.094 92.215 35.109 92.168 35.188 92.168 c 35.234 92.168 35.328 92.23
 35.328 92.387 c 35.328 92.512 35.297 92.84 34.734 93.246 c 34.734 93.434
 l 35.203 93.121 35.656 92.637 35.656 92.027 c h
35.656 92.027 m f
43.988 86.09 m 38.973 86.09 l 38.551 87.621 l 38.723 87.621 l 39.098 86.637
 39.566 86.418 40.348 86.418 c 40.348 86.418 40.863 86.418 40.973 86.418
 c 39.676 91.09 l 39.426 91.996 39.113 91.98 38.754 91.98 c 38.738 92.137
 l 41.098 92.137 l 41.129 91.98 l 40.785 91.98 40.441 91.996 40.441 91.543
 c 40.441 91.418 40.473 91.277 40.52 91.09 c 41.801 86.418 l 42.551 86.418
 l 42.988 86.418 43.457 86.48 43.457 87.105 c 43.457 87.246 43.441 87.402
 43.395 87.621 c 43.566 87.621 l h
43.988 86.09 m f
46.625 85.414 m 46.625 85.195 46.391 85.039 46.172 85.039 c 46.016 85.039
 45.875 85.117 45.812 85.336 c 44.875 88.523 l 45.078 88.602 l 46.578 85.586
 l 46.594 85.523 46.625 85.477 46.625 85.414 c h
46.625 85.414 m f
49.773 89.887 m 49.773 88.027 48.898 86.574 47.32 85.699 c 47.32 85.871
 l 48.414 86.512 48.914 87.762 48.914 89.887 c 48.914 91.996 48.414 93.246
 47.32 93.902 c 47.32 94.059 l 48.867 93.277 49.773 91.746 49.773 89.887
 c h
49.773 89.887 m f
105.852 71.918 m 103.508 71.918 l 103.492 72.059 l 103.789 72.059 104.148
 72.09 104.148 72.496 c 104.148 72.621 104.117 72.762 104.023 73.09 c 103.633
 74.59 l 100.977 74.59 l 101.43 72.965 l 101.602 72.309 101.883 72.059 102.414
 72.059 c 102.445 71.918 l 99.992 71.918 l 99.961 72.059 l 100.258 72.059
 100.648 72.09 100.648 72.496 c 100.648 72.621 100.617 72.762 100.523 73.09
 c 99.461 76.918 l 99.211 77.824 98.945 77.809 98.539 77.809 c 98.508 77.965
 l 100.867 77.965 l 100.883 77.809 l 100.648 77.809 100.258 77.777 100.258
 77.34 c 100.258 77.262 100.273 77.152 100.305 77.043 c 100.883 74.949 l
 103.523 74.949 l 102.961 76.918 l 102.711 77.809 102.367 77.809 101.992
 77.809 c 101.961 77.965 l 104.461 77.965 l 104.477 77.809 l 104.148 77.809
 103.805 77.824 103.805 77.371 c 103.805 77.262 103.82 77.105 103.883 76.918
 c 104.977 72.965 l 105.148 72.309 105.414 72.059 105.82 72.059 c h
105.852 71.918 m f
109.262 79.887 m 109.262 79.73 l 108.168 79.09 107.668 77.824 107.668 75.699
 c 107.668 73.59 108.168 72.355 109.262 71.684 c 109.262 71.527 l 107.715
 72.324 106.809 73.855 106.809 75.699 c 106.809 77.574 107.684 79.027 109.262
 79.887 c h
109.262 79.887 m f
113.293 73.246 m 113.293 73.074 113.137 72.887 112.855 72.887 c 112.527
 72.887 112.074 73.012 111.793 73.137 c 111.09 72.918 110.949 72.59 110.949
 72.434 c 110.949 72.184 111.34 71.949 111.668 71.84 c 111.527 71.527 l 
110.887 71.762 110.559 72.137 110.559 72.449 c 110.559 72.918 111.152 73.262
 111.293 73.324 c 111.074 73.402 110.152 73.746 110.152 74.449 c 110.152
 75.043 110.699 75.418 110.949 75.574 c 110.496 75.746 109.762 76.184 109.762
 77.152 c 109.762 78.684 111.824 77.934 111.824 78.809 c 111.824 79.09 111.637
 79.34 111.34 79.48 c 110.887 79.684 110.34 79.543 110.34 79.762 c 110.34
 79.84 110.48 79.887 110.652 79.887 c 110.918 79.887 111.324 79.793 111.59
 79.652 c 112.043 79.434 112.355 79.074 112.355 78.59 c 112.355 77.355 110.293
 77.996 110.293 76.918 c 110.293 76.309 110.824 75.934 111.293 75.777 c 
111.371 75.809 111.934 76.105 112.277 76.105 c 112.637 76.105 112.824 75.871
 112.824 75.652 c 112.824 75.465 112.652 75.262 112.293 75.262 c 112.043
 75.262 111.715 75.355 111.402 75.449 c 110.98 75.246 110.699 74.918 110.699
 74.465 c 110.699 73.871 111.48 73.59 111.793 73.496 c 112.074 73.59 112.387
 73.668 112.715 73.668 c 113.105 73.668 113.293 73.449 113.293 73.246 c 
h
113.293 73.246 m f
117.07 79.277 m 116.852 79.246 l 116.617 79.605 116.43 79.668 116.086 79.668
 c 114.43 79.668 l 115.617 78.684 116.68 77.793 116.68 76.824 c 116.68 76.09
 115.977 75.574 115.211 75.574 c 114.445 75.574 113.836 75.934 113.602 76.949
 c 113.852 76.949 l 114.07 76.559 114.352 76.168 114.93 76.168 c 115.57 
76.168 115.93 76.59 115.93 77.09 c 115.93 77.824 115.039 78.887 113.523 
80.074 c 113.523 80.246 l 116.617 80.246 l h
117.07 79.277 m f
119.613 77.855 m 119.613 77.277 119.254 77.09 119.051 77.09 c 118.91 77.09
 118.535 77.168 118.535 77.59 c 118.535 77.934 118.816 78.043 118.973 78.043
 c 119.051 78.043 119.066 77.996 119.145 77.996 c 119.191 77.996 119.285
 78.059 119.285 78.215 c 119.285 78.34 119.254 78.668 118.691 79.074 c 118.691
 79.262 l 119.16 78.949 119.613 78.465 119.613 77.855 c h
119.613 77.855 m f
127.949 71.918 m 122.934 71.918 l 122.512 73.449 l 122.684 73.449 l 123.059
 72.465 123.527 72.246 124.309 72.246 c 124.309 72.246 124.824 72.246 124.934
 72.246 c 123.637 76.918 l 123.387 77.824 123.074 77.809 122.715 77.809 
c 122.699 77.965 l 125.059 77.965 l 125.09 77.809 l 124.746 77.809 124.402
 77.824 124.402 77.371 c 124.402 77.246 124.434 77.105 124.48 76.918 c 125.762
 72.246 l 126.512 72.246 l 126.949 72.246 127.418 72.309 127.418 72.934 
c 127.418 73.074 127.402 73.23 127.355 73.449 c 127.527 73.449 l h
127.949 71.918 m f
130.586 71.242 m 130.586 71.023 130.352 70.867 130.133 70.867 c 129.977
 70.867 129.836 70.945 129.773 71.164 c 128.836 74.352 l 129.039 74.43 l
 130.539 71.414 l 130.555 71.352 130.586 71.305 130.586 71.242 c h
130.586 71.242 m f
132.625 71.242 m 132.625 71.023 132.391 70.867 132.172 70.867 c 132.016
 70.867 131.875 70.945 131.812 71.164 c 130.875 74.352 l 131.078 74.43 l
 132.578 71.414 l 132.594 71.352 132.625 71.305 132.625 71.242 c h
132.625 71.242 m f
135.891 75.715 m 135.891 73.855 135.016 72.402 133.438 71.527 c 133.438
 71.699 l 134.531 72.34 135.031 73.59 135.031 75.715 c 135.031 77.824 134.531
 79.074 133.438 79.73 c 133.438 79.887 l 134.984 79.105 135.891 77.574 135.891
 75.715 c h
135.891 75.715 m f
21.77 43.57 m 19.426 43.57 l 19.41 43.711 l 19.707 43.711 20.066 43.742
 20.066 44.148 c 20.066 44.273 20.035 44.414 19.941 44.742 c 19.551 46.242
 l 16.895 46.242 l 17.348 44.617 l 17.52 43.961 17.801 43.711 18.332 43.711
 c 18.363 43.57 l 15.91 43.57 l 15.879 43.711 l 16.176 43.711 16.566 43.742
 16.566 44.148 c 16.566 44.273 16.535 44.414 16.441 44.742 c 15.379 48.57
 l 15.129 49.477 14.863 49.461 14.457 49.461 c 14.426 49.617 l 16.785 49.617
 l 16.801 49.461 l 16.566 49.461 16.176 49.43 16.176 48.992 c 16.176 48.914
 16.191 48.805 16.223 48.695 c 16.801 46.602 l 19.441 46.602 l 18.879 48.57
 l 18.629 49.461 18.285 49.461 17.91 49.461 c 17.879 49.617 l 20.379 49.617
 l 20.395 49.461 l 20.066 49.461 19.723 49.477 19.723 49.023 c 19.723 48.914
 19.738 48.758 19.801 48.57 c 20.895 44.617 l 21.066 43.961 21.332 43.711
 21.738 43.711 c h
21.77 43.57 m f
25.18 51.539 m 25.18 51.383 l 24.086 50.742 23.586 49.477 23.586 47.352
 c 23.586 45.242 24.086 44.008 25.18 43.336 c 25.18 43.18 l 23.633 43.977
 22.727 45.508 22.727 47.352 c 22.727 49.227 23.602 50.68 25.18 51.539 c
 h
25.18 51.539 m f
29.215 44.898 m 29.215 44.727 29.059 44.539 28.777 44.539 c 28.449 44.539
 27.996 44.664 27.715 44.789 c 27.012 44.57 26.871 44.242 26.871 44.086 
c 26.871 43.836 27.262 43.602 27.59 43.492 c 27.449 43.18 l 26.809 43.414
 26.48 43.789 26.48 44.102 c 26.48 44.57 27.074 44.914 27.215 44.977 c 26.996
 45.055 26.074 45.398 26.074 46.102 c 26.074 46.695 26.621 47.07 26.871 
47.227 c 26.418 47.398 25.684 47.836 25.684 48.805 c 25.684 50.336 27.746
 49.586 27.746 50.461 c 27.746 50.742 27.559 50.992 27.262 51.133 c 26.809
 51.336 26.262 51.195 26.262 51.414 c 26.262 51.492 26.402 51.539 26.574
 51.539 c 26.84 51.539 27.246 51.445 27.512 51.305 c 27.965 51.086 28.277
 50.727 28.277 50.242 c 28.277 49.008 26.215 49.648 26.215 48.57 c 26.215
 47.961 26.746 47.586 27.215 47.43 c 27.293 47.461 27.855 47.758 28.199 
47.758 c 28.559 47.758 28.746 47.523 28.746 47.305 c 28.746 47.117 28.574
 46.914 28.215 46.914 c 27.965 46.914 27.637 47.008 27.324 47.102 c 26.902
 46.898 26.621 46.57 26.621 46.117 c 26.621 45.523 27.402 45.242 27.715 
45.148 c 27.996 45.242 28.309 45.32 28.637 45.32 c 29.027 45.32 29.215 45.102
 29.215 44.898 c h
29.215 44.898 m f
32.336 51.898 m 32.336 51.711 l 31.805 51.711 31.633 51.711 31.633 50.867
 c 31.633 50.852 31.633 47.195 31.633 47.195 c 31.461 47.195 l 30.117 47.773
 l 30.195 47.961 l 30.508 47.836 30.57 47.82 30.664 47.82 c 30.867 47.82
 30.883 47.992 30.883 48.195 c 30.883 50.867 l 30.883 51.711 30.727 51.695
 30.195 51.711 c 30.195 51.898 l h
32.336 51.898 m f
35.656 49.508 m 35.656 48.93 35.297 48.742 35.094 48.742 c 34.953 48.742
 34.578 48.82 34.578 49.242 c 34.578 49.586 34.859 49.695 35.016 49.695 
c 35.094 49.695 35.109 49.648 35.188 49.648 c 35.234 49.648 35.328 49.711
 35.328 49.867 c 35.328 49.992 35.297 50.32 34.734 50.727 c 34.734 50.914
 l 35.203 50.602 35.656 50.117 35.656 49.508 c h
35.656 49.508 m f
43.988 43.57 m 38.973 43.57 l 38.551 45.102 l 38.723 45.102 l 39.098 44.117
 39.566 43.898 40.348 43.898 c 40.348 43.898 40.863 43.898 40.973 43.898
 c 39.676 48.57 l 39.426 49.477 39.113 49.461 38.754 49.461 c 38.738 49.617
 l 41.098 49.617 l 41.129 49.461 l 40.785 49.461 40.441 49.477 40.441 49.023
 c 40.441 48.898 40.473 48.758 40.52 48.57 c 41.801 43.898 l 42.551 43.898
 l 42.988 43.898 43.457 43.961 43.457 44.586 c 43.457 44.727 43.441 44.883
 43.395 45.102 c 43.566 45.102 l h
43.988 43.57 m f
46.625 42.895 m 46.625 42.676 46.391 42.52 46.172 42.52 c 46.016 42.52 
45.875 42.598 45.812 42.816 c 44.875 46.004 l 45.078 46.082 l 46.578 43.066
 l 46.594 43.004 46.625 42.957 46.625 42.895 c h
46.625 42.895 m f
49.773 47.367 m 49.773 45.508 48.898 44.055 47.32 43.18 c 47.32 43.352 
l 48.414 43.992 48.914 45.242 48.914 47.367 c 48.914 49.477 48.414 50.727
 47.32 51.383 c 47.32 51.539 l 48.867 50.758 49.773 49.227 49.773 47.367
 c h
49.773 47.367 m f
105.852 1.051 m 103.508 1.051 l 103.492 1.191 l 103.789 1.191 104.148 1.223
 104.148 1.629 c 104.148 1.754 104.117 1.895 104.023 2.223 c 103.633 3.723
 l 100.977 3.723 l 101.43 2.098 l 101.602 1.441 101.883 1.191 102.414 1.191
 c 102.445 1.051 l 99.992 1.051 l 99.961 1.191 l 100.258 1.191 100.648 1.223
 100.648 1.629 c 100.648 1.754 100.617 1.895 100.523 2.223 c 99.461 6.051
 l 99.211 6.957 98.945 6.941 98.539 6.941 c 98.508 7.098 l 100.867 7.098
 l 100.883 6.941 l 100.648 6.941 100.258 6.91 100.258 6.473 c 100.258 6.395
 100.273 6.285 100.305 6.176 c 100.883 4.082 l 103.523 4.082 l 102.961 6.051
 l 102.711 6.941 102.367 6.941 101.992 6.941 c 101.961 7.098 l 104.461 7.098
 l 104.477 6.941 l 104.148 6.941 103.805 6.957 103.805 6.504 c 103.805 6.395
 103.82 6.238 103.883 6.051 c 104.977 2.098 l 105.148 1.441 105.414 1.191
 105.82 1.191 c h
105.852 1.051 m f
109.262 9.02 m 109.262 8.863 l 108.168 8.223 107.668 6.957 107.668 4.832
 c 107.668 2.723 108.168 1.488 109.262 0.816 c 109.262 0.66 l 107.715 1.457
 106.809 2.988 106.809 4.832 c 106.809 6.707 107.684 8.16 109.262 9.02 c
 h
109.262 9.02 m f
113.293 2.379 m 113.293 2.207 113.137 2.02 112.855 2.02 c 112.527 2.02 
112.074 2.145 111.793 2.27 c 111.09 2.051 110.949 1.723 110.949 1.566 c 
110.949 1.316 111.34 1.082 111.668 0.973 c 111.527 0.66 l 110.887 0.895 
110.559 1.27 110.559 1.582 c 110.559 2.051 111.152 2.395 111.293 2.457 c
 111.074 2.535 110.152 2.879 110.152 3.582 c 110.152 4.176 110.699 4.551
 110.949 4.707 c 110.496 4.879 109.762 5.316 109.762 6.285 c 109.762 7.816
 111.824 7.066 111.824 7.941 c 111.824 8.223 111.637 8.473 111.34 8.613 
c 110.887 8.816 110.34 8.676 110.34 8.895 c 110.34 8.973 110.48 9.02 110.652
 9.02 c 110.918 9.02 111.324 8.926 111.59 8.785 c 112.043 8.566 112.355 
8.207 112.355 7.723 c 112.355 6.488 110.293 7.129 110.293 6.051 c 110.293
 5.441 110.824 5.066 111.293 4.91 c 111.371 4.941 111.934 5.238 112.277 
5.238 c 112.637 5.238 112.824 5.004 112.824 4.785 c 112.824 4.598 112.652
 4.395 112.293 4.395 c 112.043 4.395 111.715 4.488 111.402 4.582 c 110.98
 4.379 110.699 4.051 110.699 3.598 c 110.699 3.004 111.48 2.723 111.793 
2.629 c 112.074 2.723 112.387 2.801 112.715 2.801 c 113.105 2.801 113.293
 2.582 113.293 2.379 c h
113.293 2.379 m f
116.414 9.379 m 116.414 9.191 l 115.883 9.191 115.711 9.191 115.711 8.348
 c 115.711 8.332 115.711 4.676 115.711 4.676 c 115.539 4.676 l 114.195 5.254
 l 114.273 5.441 l 114.586 5.316 114.648 5.301 114.742 5.301 c 114.945 5.301
 114.961 5.473 114.961 5.676 c 114.961 8.348 l 114.961 9.191 114.805 9.176
 114.273 9.191 c 114.273 9.379 l h
116.414 9.379 m f
119.613 6.988 m 119.613 6.41 119.254 6.223 119.051 6.223 c 118.91 6.223
 118.535 6.301 118.535 6.723 c 118.535 7.066 118.816 7.176 118.973 7.176
 c 119.051 7.176 119.066 7.129 119.145 7.129 c 119.191 7.129 119.285 7.191
 119.285 7.348 c 119.285 7.473 119.254 7.801 118.691 8.207 c 118.691 8.395
 l 119.16 8.082 119.613 7.598 119.613 6.988 c h
119.613 6.988 m f
127.949 1.051 m 122.934 1.051 l 122.512 2.582 l 122.684 2.582 l 123.059
 1.598 123.527 1.379 124.309 1.379 c 124.309 1.379 124.824 1.379 124.934
 1.379 c 123.637 6.051 l 123.387 6.957 123.074 6.941 122.715 6.941 c 122.699
 7.098 l 125.059 7.098 l 125.09 6.941 l 124.746 6.941 124.402 6.957 124.402
 6.504 c 124.402 6.379 124.434 6.238 124.48 6.051 c 125.762 1.379 l 126.512
 1.379 l 126.949 1.379 127.418 1.441 127.418 2.066 c 127.418 2.207 127.402
 2.363 127.355 2.582 c 127.527 2.582 l h
127.949 1.051 m f
130.586 0.375 m 130.586 0.156 130.352 0 130.133 0 c 129.977 0 129.836 0.078
 129.773 0.297 c 128.836 3.484 l 129.039 3.562 l 130.539 0.547 l 130.555
 0.484 130.586 0.438 130.586 0.375 c h
130.586 0.375 m f
132.625 0.375 m 132.625 0.156 132.391 0 132.172 0 c 132.016 0 131.875 0.078
 131.812 0.297 c 130.875 3.484 l 131.078 3.562 l 132.578 0.547 l 132.594
 0.484 132.625 0.438 132.625 0.375 c h
132.625 0.375 m f
135.891 4.848 m 135.891 2.988 135.016 1.535 133.438 0.66 c 133.438 0.832
 l 134.531 1.473 135.031 2.723 135.031 4.848 c 135.031 6.957 134.531 8.207
 133.438 8.863 c 133.438 9.02 l 134.984 8.238 135.891 6.707 135.891 4.848
 c h
135.891 4.848 m f
30.582 79.594 m 32.18 84.07 l 33.773 79.594 l 32.176 81.383 l f
q 1 0 0 -1 0 0 cm
32.18 -81.383 m 32.18 -52.887 l S Q
41.652 69.82 m 38.777 63.633 l 38.605 63.633 l 35.746 69.82 l h
40.559 69.352 m 36.387 69.352 l 38.465 64.867 l h
40.559 69.352 m f
50.211 63.773 m 47.867 63.773 l 47.852 63.914 l 48.148 63.914 48.508 63.945
 48.508 64.352 c 48.508 64.477 48.477 64.617 48.383 64.945 c 47.992 66.445
 l 45.336 66.445 l 45.789 64.82 l 45.961 64.164 46.242 63.914 46.773 63.914
 c 46.805 63.773 l 44.352 63.773 l 44.32 63.914 l 44.617 63.914 45.008 63.945
 45.008 64.352 c 45.008 64.477 44.977 64.617 44.883 64.945 c 43.82 68.773
 l 43.57 69.68 43.305 69.664 42.898 69.664 c 42.867 69.82 l 45.227 69.82
 l 45.242 69.664 l 45.008 69.664 44.617 69.633 44.617 69.195 c 44.617 69.117
 44.633 69.008 44.664 68.898 c 45.242 66.805 l 47.883 66.805 l 47.32 68.773
 l 47.07 69.664 46.727 69.664 46.352 69.664 c 46.32 69.82 l 48.82 69.82 
l 48.836 69.664 l 48.508 69.664 48.164 69.68 48.164 69.227 c 48.164 69.117
 48.18 68.961 48.242 68.773 c 49.336 64.82 l 49.508 64.164 49.773 63.914
 50.18 63.914 c h
50.211 63.773 m f
53.66 63.758 m 53.004 64.195 52.738 64.414 52.395 64.836 c 51.77 65.617
 51.457 66.508 51.457 67.555 c 51.457 68.711 51.785 69.586 52.566 70.492
 c 52.941 70.93 53.176 71.117 53.645 71.414 c 53.738 71.258 l 53.035 70.695
 52.785 70.383 52.535 69.711 c 52.316 69.117 52.223 68.445 52.223 67.539
 c 52.223 66.586 52.332 65.852 52.582 65.305 c 52.832 64.742 53.098 64.414
 53.738 63.898 c h
53.66 63.758 m f
54.066 69.82 m 56.223 69.82 l 56.223 69.68 l 55.613 69.664 55.473 69.539
 55.457 69.008 c 55.457 66.992 l 55.457 66.711 55.832 66.258 56.082 66.258
 c 56.129 66.258 56.223 66.305 56.316 66.398 c 56.457 66.523 56.551 66.57
 56.676 66.57 c 56.895 66.57 57.02 66.414 57.02 66.164 c 57.02 65.867 56.832
 65.695 56.535 65.695 c 56.16 65.695 55.91 65.898 55.457 66.539 c 55.457
 65.711 l 55.41 65.695 l 54.91 65.898 54.582 66.023 54.082 66.18 c 54.082
 66.32 l 54.207 66.289 54.285 66.289 54.395 66.289 c 54.613 66.289 54.707
 66.43 54.707 66.82 c 54.707 69.07 l 54.676 69.539 54.629 69.586 54.066 
69.68 c h
54.066 69.82 m f
59.52 69.82 m 61.316 69.82 l 61.316 69.68 l 61.035 69.68 60.863 69.539 
60.582 69.148 c 59.426 67.383 l 60.176 66.32 l 60.348 66.07 60.613 65.93
 60.91 65.914 c 60.91 65.789 l 59.488 65.789 l 59.488 65.914 l 59.754 65.93
 59.848 65.992 59.848 66.117 c 59.848 66.227 59.738 66.414 59.52 66.695 
c 59.473 66.758 59.363 66.914 59.238 67.102 c 59.176 66.992 l 59.035 66.773
 58.957 66.664 58.941 66.633 c 58.77 66.352 58.707 66.211 58.707 66.117 
c 58.707 65.977 58.816 65.93 59.098 65.914 c 59.098 65.789 l 57.238 65.789
 l 57.238 65.914 l 57.316 65.914 l 57.582 65.914 57.723 66.039 58.004 66.461
 c 58.848 67.742 l 57.832 69.227 l 57.551 69.602 57.473 69.664 57.176 69.68
 c 57.176 69.82 l 58.473 69.82 l 58.473 69.68 l 58.207 69.68 58.113 69.648
 58.113 69.523 c 58.113 69.461 58.16 69.352 58.301 69.164 c 59.004 68.055
 l 59.816 69.305 l 59.848 69.367 59.879 69.414 59.879 69.477 c 59.879 69.633
 59.816 69.664 59.52 69.68 c h
59.52 69.82 m f
61.613 69.82 m 63.52 69.82 l 63.52 69.68 l 63.066 69.664 62.926 69.539 
62.926 69.227 c 62.926 66.695 l 63.363 66.289 63.551 66.195 63.848 66.195
 c 64.285 66.195 64.504 66.461 64.504 67.055 c 64.504 68.93 l 64.488 69.508
 64.379 69.664 63.941 69.68 c 63.941 69.82 l 65.801 69.82 l 65.801 69.68
 l 65.363 69.648 65.27 69.539 65.254 69.102 c 65.254 67.039 l 65.254 66.195
 64.863 65.695 64.207 65.695 c 63.785 65.695 63.504 65.852 62.895 66.414
 c 62.895 65.711 l 62.832 65.695 l 62.379 65.867 62.066 65.961 61.598 66.102
 c 61.598 66.258 l 61.66 66.227 61.738 66.211 61.848 66.211 c 62.098 66.211
 62.176 66.352 62.176 66.789 c 62.176 69.008 l 62.16 69.539 62.066 69.664
 61.613 69.68 c h
61.613 69.82 m f
66.648 71.086 m 67.242 70.789 67.648 70.242 67.648 69.711 c 67.648 69.258
 67.336 68.898 66.93 68.898 c 66.617 68.898 66.398 69.117 66.398 69.414 
c 66.398 69.711 66.602 69.867 66.93 69.867 c 66.992 69.867 67.055 69.867
 67.102 69.852 c 67.148 69.836 67.164 69.836 67.18 69.836 c 67.242 69.836
 67.305 69.898 67.305 69.961 c 67.305 70.258 67.039 70.586 66.555 70.914
 c h
66.648 71.086 m f
75.789 63.773 m 70.773 63.773 l 70.352 65.305 l 70.523 65.305 l 70.898 
64.32 71.367 64.102 72.148 64.102 c 72.148 64.102 72.664 64.102 72.773 64.102
 c 71.477 68.773 l 71.227 69.68 70.914 69.664 70.555 69.664 c 70.539 69.82
 l 72.898 69.82 l 72.93 69.664 l 72.586 69.664 72.242 69.68 72.242 69.227
 c 72.242 69.102 72.273 68.961 72.32 68.773 c 73.602 64.102 l 74.352 64.102
 l 74.789 64.102 75.258 64.164 75.258 64.789 c 75.258 64.93 75.242 65.086
 75.195 65.305 c 75.367 65.305 l h
75.789 63.773 m f
78.426 63.098 m 78.426 62.879 78.191 62.723 77.973 62.723 c 77.816 62.723
 77.676 62.801 77.613 63.02 c 76.676 66.207 l 76.879 66.285 l 78.379 63.27
 l 78.395 63.207 78.426 63.16 78.426 63.098 c h
78.426 63.098 m f
79.441 71.414 m 80.098 70.961 80.379 70.742 80.707 70.336 c 81.348 69.555
 81.66 68.648 81.66 67.602 c 81.66 66.461 81.316 65.586 80.535 64.68 c 80.16
 64.242 79.926 64.039 79.473 63.758 c 79.363 63.898 l 80.082 64.461 80.316
 64.773 80.566 65.445 c 80.785 66.055 80.879 66.727 80.879 67.633 c 80.879
 68.57 80.77 69.305 80.52 69.852 c 80.285 70.414 80.004 70.742 79.363 71.258
 c h
79.441 71.414 m f
115.621 65.422 m 117.219 69.895 l 118.816 65.422 l 117.219 67.211 l f
q 1 0 0 -1 0 0 cm
117.219 -67.211 m 117.219 -10.367 l S Q
126.691 41.477 m 123.816 35.289 l 123.645 35.289 l 120.785 41.477 l h
125.598 41.008 m 121.426 41.008 l 123.504 36.523 l h
125.598 41.008 m f
135.25 35.43 m 132.906 35.43 l 132.891 35.57 l 133.188 35.57 133.547 35.602
 133.547 36.008 c 133.547 36.133 133.516 36.273 133.422 36.602 c 133.031
 38.102 l 130.375 38.102 l 130.828 36.477 l 131 35.82 131.281 35.57 131.812
 35.57 c 131.844 35.43 l 129.391 35.43 l 129.359 35.57 l 129.656 35.57 130.047
 35.602 130.047 36.008 c 130.047 36.133 130.016 36.273 129.922 36.602 c 
128.859 40.43 l 128.609 41.336 128.344 41.32 127.938 41.32 c 127.906 41.477
 l 130.266 41.477 l 130.281 41.32 l 130.047 41.32 129.656 41.289 129.656
 40.852 c 129.656 40.773 129.672 40.664 129.703 40.555 c 130.281 38.461 
l 132.922 38.461 l 132.359 40.43 l 132.109 41.32 131.766 41.32 131.391 41.32
 c 131.359 41.477 l 133.859 41.477 l 133.875 41.32 l 133.547 41.32 133.203
 41.336 133.203 40.883 c 133.203 40.773 133.219 40.617 133.281 40.43 c 134.375
 36.477 l 134.547 35.82 134.812 35.57 135.219 35.57 c h
135.25 35.43 m f
138.699 35.414 m 138.043 35.852 137.777 36.07 137.434 36.492 c 136.809 
37.273 136.496 38.164 136.496 39.211 c 136.496 40.367 136.824 41.242 137.605
 42.148 c 137.98 42.586 138.215 42.773 138.684 43.07 c 138.777 42.914 l 
138.074 42.352 137.824 42.039 137.574 41.367 c 137.355 40.773 137.262 40.102
 137.262 39.195 c 137.262 38.242 137.371 37.508 137.621 36.961 c 137.871
 36.398 138.137 36.07 138.777 35.555 c h
138.699 35.414 m f
139.105 41.477 m 141.262 41.477 l 141.262 41.336 l 140.652 41.32 140.512
 41.195 140.496 40.664 c 140.496 38.648 l 140.496 38.367 140.871 37.914 
141.121 37.914 c 141.168 37.914 141.262 37.961 141.355 38.055 c 141.496 
38.18 141.59 38.227 141.715 38.227 c 141.934 38.227 142.059 38.07 142.059
 37.82 c 142.059 37.523 141.871 37.352 141.574 37.352 c 141.199 37.352 140.949
 37.555 140.496 38.195 c 140.496 37.367 l 140.449 37.352 l 139.949 37.555
 139.621 37.68 139.121 37.836 c 139.121 37.977 l 139.246 37.945 139.324 
37.945 139.434 37.945 c 139.652 37.945 139.746 38.086 139.746 38.477 c 139.746
 40.727 l 139.715 41.195 139.668 41.242 139.105 41.336 c h
139.105 41.477 m f
144.559 41.477 m 146.355 41.477 l 146.355 41.336 l 146.074 41.336 145.902
 41.195 145.621 40.805 c 144.465 39.039 l 145.215 37.977 l 145.387 37.727
 145.652 37.586 145.949 37.57 c 145.949 37.445 l 144.527 37.445 l 144.527
 37.57 l 144.793 37.586 144.887 37.648 144.887 37.773 c 144.887 37.883 144.777
 38.07 144.559 38.352 c 144.512 38.414 144.402 38.57 144.277 38.758 c 144.215
 38.648 l 144.074 38.43 143.996 38.32 143.98 38.289 c 143.809 38.008 143.746
 37.867 143.746 37.773 c 143.746 37.633 143.855 37.586 144.137 37.57 c 144.137
 37.445 l 142.277 37.445 l 142.277 37.57 l 142.355 37.57 l 142.621 37.57
 142.762 37.695 143.043 38.117 c 143.887 39.398 l 142.871 40.883 l 142.59
 41.258 142.512 41.32 142.215 41.336 c 142.215 41.477 l 143.512 41.477 l
 143.512 41.336 l 143.246 41.336 143.152 41.305 143.152 41.18 c 143.152 
41.117 143.199 41.008 143.34 40.82 c 144.043 39.711 l 144.855 40.961 l 144.887
 41.023 144.918 41.07 144.918 41.133 c 144.918 41.289 144.855 41.32 144.559
 41.336 c h
144.559 41.477 m f
146.652 41.477 m 148.559 41.477 l 148.559 41.336 l 148.105 41.32 147.965
 41.195 147.965 40.883 c 147.965 38.352 l 148.402 37.945 148.59 37.852 148.887
 37.852 c 149.324 37.852 149.543 38.117 149.543 38.711 c 149.543 40.586 
l 149.527 41.164 149.418 41.32 148.98 41.336 c 148.98 41.477 l 150.84 41.477
 l 150.84 41.336 l 150.402 41.305 150.309 41.195 150.293 40.758 c 150.293
 38.695 l 150.293 37.852 149.902 37.352 149.246 37.352 c 148.824 37.352 
148.543 37.508 147.934 38.07 c 147.934 37.367 l 147.871 37.352 l 147.418
 37.523 147.105 37.617 146.637 37.758 c 146.637 37.914 l 146.699 37.883 
146.777 37.867 146.887 37.867 c 147.137 37.867 147.215 38.008 147.215 38.445
 c 147.215 40.664 l 147.199 41.195 147.105 41.32 146.652 41.336 c h
146.652 41.477 m f
151.688 42.742 m 152.281 42.445 152.688 41.898 152.688 41.367 c 152.688
 40.914 152.375 40.555 151.969 40.555 c 151.656 40.555 151.438 40.773 151.438
 41.07 c 151.438 41.367 151.641 41.523 151.969 41.523 c 152.031 41.523 152.094
 41.523 152.141 41.508 c 152.188 41.492 152.203 41.492 152.219 41.492 c 
152.281 41.492 152.344 41.555 152.344 41.617 c 152.344 41.914 152.078 42.242
 151.594 42.57 c h
151.688 42.742 m f
160.828 35.43 m 155.812 35.43 l 155.391 36.961 l 155.562 36.961 l 155.938
 35.977 156.406 35.758 157.188 35.758 c 157.188 35.758 157.703 35.758 157.812
 35.758 c 156.516 40.43 l 156.266 41.336 155.953 41.32 155.594 41.32 c 155.578
 41.477 l 157.938 41.477 l 157.969 41.32 l 157.625 41.32 157.281 41.336 
157.281 40.883 c 157.281 40.758 157.312 40.617 157.359 40.43 c 158.641 35.758
 l 159.391 35.758 l 159.828 35.758 160.297 35.82 160.297 36.445 c 160.297
 36.586 160.281 36.742 160.234 36.961 c 160.406 36.961 l h
160.828 35.43 m f
163.465 34.75 m 163.465 34.531 163.23 34.375 163.012 34.375 c 162.855 34.375
 162.715 34.453 162.652 34.672 c 161.715 37.859 l 161.918 37.938 l 163.418
 34.922 l 163.434 34.859 163.465 34.812 163.465 34.75 c h
163.465 34.75 m f
165.504 34.75 m 165.504 34.531 165.27 34.375 165.051 34.375 c 164.895 34.375
 164.754 34.453 164.691 34.672 c 163.754 37.859 l 163.957 37.938 l 165.457
 34.922 l 165.473 34.859 165.504 34.812 165.504 34.75 c h
165.504 34.75 m f
166.52 43.07 m 167.176 42.617 167.457 42.398 167.785 41.992 c 168.426 41.211
 168.738 40.305 168.738 39.258 c 168.738 38.117 168.395 37.242 167.613 36.336
 c 167.238 35.898 167.004 35.695 166.551 35.414 c 166.441 35.555 l 167.16
 36.117 167.395 36.43 167.645 37.102 c 167.863 37.711 167.957 38.383 167.957
 39.289 c 167.957 40.227 167.848 40.961 167.598 41.508 c 167.363 42.07 167.082
 42.398 166.441 42.914 c h
166.52 43.07 m f
85.191 105.227 m 88.871 103.91 l 85.191 102.598 l 86.664 103.91 l f
0.567043 w
q 1 0 0 -1 0 0 cm
69.027 -103.91 m 86.664 -103.91 l S Q
63.441 100.867 m 58.426 100.867 l 58.004 102.398 l 58.176 102.398 l 58.551
 101.414 59.02 101.195 59.801 101.195 c 59.801 101.195 60.316 101.195 60.426
 101.195 c 59.129 105.867 l 58.879 106.773 58.566 106.758 58.207 106.758
 c 58.191 106.914 l 60.551 106.914 l 60.582 106.758 l 60.238 106.758 59.895
 106.773 59.895 106.32 c 59.895 106.195 59.926 106.055 59.973 105.867 c 
61.254 101.195 l 62.004 101.195 l 62.441 101.195 62.91 101.258 62.91 101.883
 c 62.91 102.023 62.895 102.18 62.848 102.398 c 63.02 102.398 l h
63.441 100.867 m f
5.145 36.727 m 3.832 33.043 l 2.516 36.727 l 3.832 35.254 l f
q 1 0 0 -1 0 0 cm
3.832 -52.887 m 3.832 -35.254 l S Q
7.344 57.883 m 5 57.883 l 4.984 58.023 l 5.281 58.023 5.641 58.055 5.641
 58.461 c 5.641 58.586 5.609 58.727 5.516 59.055 c 5.125 60.555 l 2.469 
60.555 l 2.922 58.93 l 3.094 58.273 3.375 58.023 3.906 58.023 c 3.938 57.883
 l 1.484 57.883 l 1.453 58.023 l 1.75 58.023 2.141 58.055 2.141 58.461 c
 2.141 58.586 2.109 58.727 2.016 59.055 c 0.953 62.883 l 0.703 63.789 0.438
 63.773 0.031 63.773 c 0 63.93 l 2.359 63.93 l 2.375 63.773 l 2.141 63.773
 1.75 63.742 1.75 63.305 c 1.75 63.227 1.766 63.117 1.797 63.008 c 2.375
 60.914 l 5.016 60.914 l 4.453 62.883 l 4.203 63.773 3.859 63.773 3.484 
63.773 c 3.453 63.93 l 5.953 63.93 l 5.969 63.773 l 5.641 63.773 5.297 63.789
 5.297 63.336 c 5.297 63.227 5.312 63.07 5.375 62.883 c 6.469 58.93 l 6.641
 58.273 6.906 58.023 7.312 58.023 c h
7.344 57.883 m f
Q Q
showpage
%%Trailer
end
%%EOF
