%!PS-Adobe-3.0 EPSF-3.0
%%Creator: cairo 1.17.4 (https://cairographics.org)
%%CreationDate: Thu Feb 24 10:48:59 2022
%%Pages: 1
%%DocumentData: Clean7Bit
%%LanguageLevel: 2
%%BoundingBox: 0 0 371 161
%%EndComments
%%BeginProlog
50 dict begin
/q { gsave } bind def
/Q { grestore } bind def
/cm { 6 array astore concat } bind def
/w { setlinewidth } bind def
/J { setlinecap } bind def
/j { setlinejoin } bind def
/M { setmiterlimit } bind def
/d { setdash } bind def
/m { moveto } bind def
/l { lineto } bind def
/c { curveto } bind def
/h { closepath } bind def
/re { exch dup neg 3 1 roll 5 3 roll moveto 0 rlineto
      0 exch rlineto 0 rlineto closepath } bind def
/S { stroke } bind def
/f { fill } bind def
/f* { eofill } bind def
/n { newpath } bind def
/W { clip } bind def
/W* { eoclip } bind def
/BT { } bind def
/ET { } bind def
/BDC { mark 3 1 roll /BDC pdfmark } bind def
/EMC { mark /EMC pdfmark } bind def
/cairo_store_point { /cairo_point_y exch def /cairo_point_x exch def } def
/Tj { show currentpoint cairo_store_point } bind def
/TJ {
  {
    dup
    type /stringtype eq
    { show } { -0.001 mul 0 cairo_font_matrix dtransform rmoveto } ifelse
  } forall
  currentpoint cairo_store_point
} bind def
/cairo_selectfont { cairo_font_matrix aload pop pop pop 0 0 6 array astore
    cairo_font exch selectfont cairo_point_x cairo_point_y moveto } bind def
/Tf { pop /cairo_font exch def /cairo_font_matrix where
      { pop cairo_selectfont } if } bind def
/Td { matrix translate cairo_font_matrix matrix concatmatrix dup
      /cairo_font_matrix exch def dup 4 get exch 5 get cairo_store_point
      /cairo_font where { pop cairo_selectfont } if } bind def
/Tm { 2 copy 8 2 roll 6 array astore /cairo_font_matrix exch def
      cairo_store_point /cairo_font where { pop cairo_selectfont } if } bind def
/g { setgray } bind def
/rg { setrgbcolor } bind def
/d1 { setcachedevice } bind def
/cairo_data_source {
  CairoDataIndex CairoData length lt
    { CairoData CairoDataIndex get /CairoDataIndex CairoDataIndex 1 add def }
    { () } ifelse
} def
/cairo_flush_ascii85_file { cairo_ascii85_file status { cairo_ascii85_file flushfile } if } def
/cairo_image { image cairo_flush_ascii85_file } def
/cairo_imagemask { imagemask cairo_flush_ascii85_file } def
%%EndProlog
%%BeginSetup
%%EndSetup
%%Page: 1 1
%%BeginPageSetup
%%PageBoundingBox: 0 0 371 161
%%EndPageSetup
q 0 0 371 161 rectclip
1 0 0 -1 0 161 cm q
0 g
1.41739 w
0 J
0 j
[] 0.0 d
10 M q 1 0 0 -1 0 0 cm
30.055 -45.41 m 30.055 -45.41 30.867 -44.172 31.391 -43.594 c 31.562 -43.406
 31.762 -43.285 31.941 -43.105 c 32.344 -42.695 32.664 -42.289 33.039 -41.855
 c 33.469 -41.363 33.832 -40.898 34.277 -40.422 c 34.855 -39.797 35.398 
-39.254 36.027 -38.684 c 36.605 -38.16 37.148 -37.723 37.762 -37.246 c 38.348
 -36.797 38.871 -36.391 39.496 -36 c 39.984 -35.695 40.461 -35.488 40.961
 -35.207 c 41.812 -34.727 42.52 -34.18 43.41 -33.77 c 45.242 -32.93 46.98
 -32.344 48.941 -31.883 c 49.699 -31.703 50.398 -31.652 51.172 -31.578 c
 52.293 -31.473 53.309 -31.344 54.438 -31.391 c 56.344 -31.473 58.055 -31.762
 59.918 -32.184 c 61.547 -32.551 62.992 -32.988 64.539 -33.621 c 67.32 -34.754
 69.715 -36.039 72.289 -37.586 c 74.645 -39.008 76.66 -40.461 78.824 -42.16
 c 82.785 -45.27 86.102 -48.363 89.785 -51.797 c 92.285 -54.125 94.461 -56.289
 96.836 -58.746 c 100.492 -62.531 103.613 -66.086 107.168 -69.969 c 109.715
 -72.754 111.965 -75.285 114.531 -78.055 c 117.941 -81.734 121.012 -85.031
 124.504 -88.637 c 129.477 -93.773 133.754 -98.598 139.113 -103.336 c 143.32
 -107.055 151.98 -113.309 151.98 -113.309 c S Q
1 g
143.438 59.766 m 143.438 3.09 l 154.777 3.09 l 154.777 116.445 l 143.438
 116.445 l f
0 g
0.567043 w
q 1 0 0 -1 0 0 cm
30.336 -59.766 m 30.336 -3.371 l 143.156 -3.371 l 143.156 -116.16 l 30.336
 -116.16 l h
30.336 -59.766 m S Q
30.055 119.863 m 29.555 119.863 29.18 120.004 28.852 120.332 c 28.336 120.832
 27.992 121.863 27.992 122.91 c 27.992 123.895 28.289 124.941 28.711 125.441
 c 29.039 125.832 29.492 126.051 30.023 126.051 c 30.477 126.051 30.852 
125.895 31.18 125.582 c 31.695 125.098 32.039 124.051 32.039 122.973 c 32.039
 121.129 31.227 119.863 30.055 119.863 c h
30.023 120.098 m 30.773 120.098 31.18 121.113 31.18 122.988 c 31.18 124.863
 30.789 125.816 30.023 125.816 c 29.242 125.816 28.852 124.863 28.852 122.988
 c 28.852 121.082 29.258 120.098 30.023 120.098 c h
30.023 120.098 m f
q 1 0 0 -1 0 0 cm
58.398 -116.445 m 58.398 -112.195 l S Q
q 1 0 0 -1 0 0 cm
58.398 -3.09 m 58.398 -7.34 l S Q
55.039 119.863 m 54.539 119.863 54.164 120.004 53.836 120.332 c 53.32 120.832
 52.977 121.863 52.977 122.91 c 52.977 123.895 53.273 124.941 53.695 125.441
 c 54.023 125.832 54.477 126.051 55.008 126.051 c 55.461 126.051 55.836 
125.895 56.164 125.582 c 56.68 125.098 57.023 124.051 57.023 122.973 c 57.023
 121.129 56.211 119.863 55.039 119.863 c h
55.008 120.098 m 55.758 120.098 56.164 121.113 56.164 122.988 c 56.164 
124.863 55.773 125.816 55.008 125.816 c 54.227 125.816 53.836 124.863 53.836
 122.988 c 53.836 121.082 54.242 120.098 55.008 120.098 c h
55.008 120.098 m f
58.324 125.035 m 58.059 125.035 57.824 125.254 57.824 125.535 c 57.824 
125.801 58.059 126.02 58.309 126.02 c 58.59 126.02 58.824 125.816 58.824
 125.535 c 58.824 125.27 58.59 125.035 58.324 125.035 c h
58.324 125.035 m f
61.105 120.691 m 62.855 120.691 l 63.012 120.691 63.043 120.691 63.074 
120.613 c 63.402 119.816 l 63.324 119.754 l 63.199 119.941 63.105 119.988
 62.918 119.988 c 61.043 119.988 l 60.059 122.113 l 60.059 122.129 60.059
 122.145 60.059 122.16 c 60.059 122.207 60.09 122.238 60.168 122.238 c 60.449
 122.238 60.793 122.301 61.168 122.41 c 62.199 122.738 62.668 123.285 62.668
 124.191 c 62.668 125.051 62.137 125.723 61.434 125.723 c 61.246 125.723
 61.105 125.66 60.84 125.457 c 60.543 125.238 60.355 125.16 60.137 125.16
 c 59.887 125.16 59.762 125.27 59.762 125.488 c 59.762 125.832 60.184 126.051
 60.855 126.051 c 61.605 126.051 62.246 125.816 62.715 125.348 c 63.105 
124.941 63.309 124.441 63.309 123.754 c 63.309 123.113 63.137 122.691 62.684
 122.254 c 62.293 121.848 61.793 121.645 60.73 121.457 c h
61.105 120.691 m f
q 1 0 0 -1 0 0 cm
86.746 -116.445 m 86.746 -112.195 l S Q
q 1 0 0 -1 0 0 cm
86.746 -3.09 m 86.746 -7.34 l S Q
82.168 125.926 m 84.637 125.926 l 84.637 125.785 l 83.949 125.785 83.793
 125.691 83.793 125.27 c 83.793 119.879 l 83.715 119.863 l 82.105 120.676
 l 82.105 120.801 l 82.449 120.676 82.668 120.613 82.746 120.613 c 82.934
 120.613 83.012 120.738 83.012 121.035 c 83.012 125.098 l 82.996 125.66 
82.84 125.785 82.168 125.785 c h
82.168 125.926 m f
86.672 125.035 m 86.406 125.035 86.172 125.254 86.172 125.535 c 86.172 
125.801 86.406 126.02 86.656 126.02 c 86.938 126.02 87.172 125.816 87.172
 125.535 c 87.172 125.27 86.938 125.035 86.672 125.035 c h
86.672 125.035 m f
90.105 119.863 m 89.605 119.863 89.23 120.004 88.902 120.332 c 88.387 120.832
 88.043 121.863 88.043 122.91 c 88.043 123.895 88.34 124.941 88.762 125.441
 c 89.09 125.832 89.543 126.051 90.074 126.051 c 90.527 126.051 90.902 125.895
 91.23 125.582 c 91.746 125.098 92.09 124.051 92.09 122.973 c 92.09 121.129
 91.277 119.863 90.105 119.863 c h
90.074 120.098 m 90.824 120.098 91.23 121.113 91.23 122.988 c 91.23 124.863
 90.84 125.816 90.074 125.816 c 89.293 125.816 88.902 124.863 88.902 122.988
 c 88.902 121.082 89.309 120.098 90.074 120.098 c h
90.074 120.098 m f
q 1 0 0 -1 0 0 cm
115.09 -116.445 m 115.09 -112.195 l S Q
q 1 0 0 -1 0 0 cm
115.09 -3.09 m 115.09 -7.34 l S Q
110.516 125.926 m 112.984 125.926 l 112.984 125.785 l 112.297 125.785 112.141
 125.691 112.141 125.27 c 112.141 119.879 l 112.062 119.863 l 110.453 120.676
 l 110.453 120.801 l 110.797 120.676 111.016 120.613 111.094 120.613 c 111.281
 120.613 111.359 120.738 111.359 121.035 c 111.359 125.098 l 111.344 125.66
 111.188 125.785 110.516 125.785 c h
110.516 125.926 m f
115.016 125.035 m 114.75 125.035 114.516 125.254 114.516 125.535 c 114.516
 125.801 114.75 126.02 115 126.02 c 115.281 126.02 115.516 125.816 115.516
 125.535 c 115.516 125.27 115.281 125.035 115.016 125.035 c h
115.016 125.035 m f
117.797 120.691 m 119.547 120.691 l 119.703 120.691 119.734 120.691 119.766
 120.613 c 120.094 119.816 l 120.016 119.754 l 119.891 119.941 119.797 119.988
 119.609 119.988 c 117.734 119.988 l 116.75 122.113 l 116.75 122.129 116.75
 122.145 116.75 122.16 c 116.75 122.207 116.781 122.238 116.859 122.238 
c 117.141 122.238 117.484 122.301 117.859 122.41 c 118.891 122.738 119.359
 123.285 119.359 124.191 c 119.359 125.051 118.828 125.723 118.125 125.723
 c 117.938 125.723 117.797 125.66 117.531 125.457 c 117.234 125.238 117.047
 125.16 116.828 125.16 c 116.578 125.16 116.453 125.27 116.453 125.488 c
 116.453 125.832 116.875 126.051 117.547 126.051 c 118.297 126.051 118.938
 125.816 119.406 125.348 c 119.797 124.941 120 124.441 120 123.754 c 120
 123.113 119.828 122.691 119.375 122.254 c 118.984 121.848 118.484 121.645
 117.422 121.457 c h
117.797 120.691 m f
142.066 124.691 m 141.941 124.645 l 141.613 125.176 141.52 125.238 141.098
 125.238 c 138.941 125.238 l 140.457 123.66 l 141.254 122.832 141.598 122.145
 141.598 121.457 c 141.598 120.551 140.879 119.863 139.941 119.863 c 139.457
 119.863 138.988 120.066 138.66 120.426 c 138.363 120.723 138.238 121.004
 138.082 121.645 c 138.27 121.691 l 138.629 120.816 138.941 120.52 139.566
 120.52 c 140.332 120.52 140.832 121.035 140.832 121.785 c 140.832 122.504
 140.426 123.332 139.66 124.129 c 138.066 125.816 l 138.066 125.926 l 141.566
 125.926 l h
142.066 124.691 m f
143.363 125.035 m 143.098 125.035 142.863 125.254 142.863 125.535 c 142.863
 125.801 143.098 126.02 143.348 126.02 c 143.629 126.02 143.863 125.816 
143.863 125.535 c 143.863 125.27 143.629 125.035 143.363 125.035 c h
143.363 125.035 m f
146.801 119.863 m 146.301 119.863 145.926 120.004 145.598 120.332 c 145.082
 120.832 144.738 121.863 144.738 122.91 c 144.738 123.895 145.035 124.941
 145.457 125.441 c 145.785 125.832 146.238 126.051 146.77 126.051 c 147.223
 126.051 147.598 125.895 147.926 125.582 c 148.441 125.098 148.785 124.051
 148.785 122.973 c 148.785 121.129 147.973 119.863 146.801 119.863 c h
146.77 120.098 m 147.52 120.098 147.926 121.113 147.926 122.988 c 147.926
 124.863 147.535 125.816 146.77 125.816 c 145.988 125.816 145.598 124.863
 145.598 122.988 c 145.598 121.082 146.004 120.098 146.77 120.098 c h
146.77 120.098 m f
65.492 131.879 m 65.086 131.879 l 61.133 145.801 l 59.57 140.895 l 58.18
 141.691 l 58.273 141.91 l 58.898 141.566 l 60.898 148.02 l 60.977 148.02
 l h
65.492 131.879 m f
65.254 131.816 51.48 0.48 re f
71.766 142.281 m 71.641 142.188 l 71.453 142.422 71.125 142.859 70.938 
142.859 c 70.859 142.859 70.812 142.812 70.812 142.703 c 70.812 142.609 
70.891 142.391 70.938 142.219 c 70.938 142.219 71.469 140.266 71.469 140.219
 c 71.531 140.031 71.562 139.844 71.562 139.719 c 71.562 139.266 71.281 
139.109 71.062 139.109 c 70.328 139.109 69.5 140.078 68.922 141.109 c 68.922
 141.109 69.25 140.062 69.25 139.703 c 69.25 139.469 69.156 139.109 68.734
 139.109 c 67.906 139.109 66.875 140.703 66.656 141.109 c 67.188 139.109
 l 67.188 139.109 65.969 139.344 65.703 139.359 c 65.703 139.516 l 66.031
 139.516 66.297 139.484 66.297 139.844 c 66.297 140.016 66.219 140.297 66.141
 140.578 c 66.141 140.578 65.422 142.969 65.375 143.203 c 66.062 143.203
 l 66.219 142.609 l 66.734 140.672 67.984 139.609 68.328 139.609 c 68.469
 139.609 68.562 139.656 68.562 139.859 c 68.562 140 68.453 140.406 68.391
 140.672 c 68.391 140.672 67.766 142.891 67.688 143.203 c 68.359 143.203
 l 68.516 142.609 l 69.062 140.594 70.281 139.609 70.641 139.609 c 70.766
 139.609 70.859 139.703 70.859 139.844 c 70.859 139.938 70.766 140.344 70.672
 140.672 c 70.312 142.016 l 70.219 142.344 70.141 142.75 70.141 142.891 
c 70.141 143.125 70.266 143.312 70.469 143.312 c 70.922 143.312 71.406 142.797
 71.766 142.281 c h
71.766 142.281 m f
72.59 141 m 73.168 141.031 73.246 141.109 73.246 141.625 c 73.246 144.719
 l 73.246 145.25 73.152 145.328 72.59 145.359 c 72.59 145.484 l 74.918 145.484
 l 75.449 145.484 75.949 145.344 76.215 145.094 c 76.465 144.875 76.59 144.562
 76.59 144.234 c 76.59 143.922 76.48 143.641 76.262 143.438 c 76.043 143.25
 75.855 143.172 75.402 143.062 c 75.762 142.969 75.918 142.906 76.074 142.75
 c 76.262 142.594 76.355 142.344 76.355 142.062 c 76.355 141.281 75.73 140.875
 74.527 140.875 c 72.59 140.875 l h
73.965 143.219 m 74.637 143.219 74.965 143.25 75.215 143.359 c 75.605 143.516
 75.793 143.812 75.793 144.234 c 75.793 144.609 75.652 144.891 75.371 145.047
 c 75.152 145.172 74.855 145.219 74.402 145.219 c 74.059 145.219 73.965 
145.156 73.965 144.938 c h
73.965 142.938 m 73.965 141.344 l 73.965 141.188 73.996 141.141 74.121 
141.141 c 74.418 141.125 l 75.199 141.109 75.652 141.469 75.652 142.078 
c 75.652 142.641 75.293 142.922 74.621 142.938 c h
73.965 142.938 m f
81.531 136.766 m 81.094 136.766 l 77.984 145.125 l 78.438 145.125 l h
81.531 136.766 m f
82.207 143.203 m 84.207 143.203 l 84.207 143.062 l 83.738 143.062 83.598
 142.969 83.598 142.609 c 83.598 140.078 l 83.598 140.062 83.66 139.969 
83.723 139.906 c 83.957 139.703 84.332 139.547 84.645 139.547 c 85.051 139.547
 85.238 139.859 85.238 140.484 c 85.238 142.438 l 85.223 142.938 85.129 
143.047 84.629 143.062 c 84.629 143.203 l 86.645 143.203 l 86.645 143.062
 l 86.145 143.062 86.02 142.922 85.988 142.344 c 85.988 140.094 l 86.27 
139.703 86.551 139.547 86.973 139.547 c 87.488 139.547 87.645 139.781 87.645
 140.531 c 87.645 142.422 l 87.629 142.953 87.566 143.016 87.051 143.062
 c 87.051 143.203 l 89.02 143.203 l 89.02 143.062 l 88.785 143.047 l 88.504
 143 88.395 142.875 88.395 142.516 c 88.395 140.672 l 88.395 139.609 88.051
 139.078 87.363 139.078 c 86.832 139.078 86.379 139.312 85.895 139.828 c
 85.738 139.312 85.426 139.078 84.941 139.078 c 84.535 139.078 84.301 139.188
 83.551 139.766 c 83.551 139.094 l 83.488 139.078 l 83.02 139.25 82.707 
139.344 82.238 139.484 c 82.238 139.641 l 82.348 139.609 82.426 139.594 
82.52 139.594 c 82.754 139.594 82.832 139.734 82.832 140.172 c 82.832 142.438
 l 82.816 142.938 82.707 143.062 82.207 143.062 c h
82.207 143.203 m f
91.277 139.078 m 90.09 139.078 89.293 139.938 89.293 141.172 c 89.293 142.391
 90.121 143.297 91.246 143.297 c 92.387 143.297 93.246 142.344 93.246 141.109
 c 93.246 139.922 92.418 139.078 91.277 139.078 c h
91.152 139.328 m 91.902 139.328 92.434 140.188 92.434 141.422 c 92.434 
142.438 92.027 143.047 91.355 143.047 c 91.012 143.047 90.684 142.828 90.496
 142.469 c 90.23 142 90.09 141.375 90.09 140.734 c 90.09 139.891 90.512 
139.328 91.152 139.328 c h
91.152 139.328 m f
93.652 143.203 m 95.777 143.203 l 95.777 143.062 l 95.199 143.047 95.105
 142.953 95.09 142.453 c 95.09 137.094 l 95.059 137.078 l 94.605 137.219
 94.277 137.312 93.637 137.469 c 93.637 137.609 l 93.684 137.609 l 93.793
 137.609 93.902 137.594 93.965 137.594 c 94.262 137.594 94.34 137.719 94.34
 138.141 c 94.34 142.422 l 94.34 142.906 94.215 143.031 93.652 143.062 c
 h
93.652 143.203 m f
97.609 143.203 m 99.703 143.203 l 99.703 143.062 l 99.531 143.062 l 99.156
 143.031 99.047 142.938 99.031 142.609 c 99.031 140.953 l 100.297 142.625
 l 100.328 142.672 100.359 142.719 100.375 142.75 c 100.453 142.828 100.484
 142.891 100.484 142.938 c 100.484 143.016 100.406 143.062 100.297 143.062
 c 100.125 143.062 l 100.125 143.203 l 102.078 143.203 l 102.078 143.062
 l 101.688 143.047 101.406 142.875 101.031 142.406 c 99.656 140.672 l 99.922
 140.438 l 101.031 139.422 101.281 139.281 101.859 139.297 c 101.859 139.172
 l 100.016 139.172 l 100.016 139.297 l 100.375 139.297 100.469 139.344 100.469
 139.453 c 100.469 139.531 100.391 139.656 100.266 139.766 c 99.031 140.859
 l 99.031 137.094 l 99 137.078 l 98.656 137.188 98.391 137.266 97.875 137.406
 c 97.609 137.469 l 97.609 137.609 l 97.719 137.609 97.812 137.594 97.891
 137.594 c 98.203 137.594 98.281 137.719 98.281 138.141 c 98.281 142.469
 l 98.266 142.938 98.25 142.969 97.609 143.062 c h
97.609 143.203 m f
106.203 139.719 m 106.203 139.375 l 105.516 139.375 l 105.328 139.375 105.188
 139.344 105.016 139.281 c 104.812 139.219 l 104.578 139.125 104.328 139.078
 104.094 139.078 c 103.266 139.078 102.609 139.719 102.609 140.547 c 102.609
 141.109 102.844 141.438 103.438 141.734 c 103.203 141.953 l 103.016 142.141
 102.906 142.234 102.875 142.266 c 102.688 142.469 102.641 142.562 102.641
 142.719 c 102.641 142.922 102.734 143.016 103.109 143.188 c 102.469 143.656
 102.234 143.953 102.234 144.281 c 102.234 144.766 102.922 145.156 103.781
 145.156 c 104.453 145.156 105.156 144.922 105.625 144.547 c 105.969 144.266
 106.125 143.984 106.125 143.641 c 106.125 143.094 105.703 142.719 105.031
 142.688 c 103.875 142.625 l 103.391 142.609 103.172 142.531 103.172 142.391
 c 103.172 142.203 103.469 141.891 103.719 141.828 c 104.031 141.844 104.203
 141.859 104.234 141.859 c 104.562 141.859 104.922 141.734 105.188 141.484
 c 105.484 141.234 105.625 140.922 105.625 140.484 c 105.625 140.219 105.578
 140.016 105.453 139.719 c h
103.297 143.219 m 103.609 143.281 104.312 143.344 104.766 143.344 c 105.578
 143.344 105.875 143.453 105.875 143.781 c 105.875 144.297 105.188 144.641
 104.172 144.641 c 103.375 144.641 102.859 144.391 102.859 144 c 102.859
 143.781 102.938 143.656 103.297 143.219 c h
103.344 140.172 m 103.344 139.641 103.594 139.328 104.016 139.328 c 104.297
 139.328 104.516 139.484 104.672 139.75 c 104.844 140.062 104.938 140.469
 104.938 140.828 c 104.938 141.328 104.688 141.641 104.266 141.641 c 103.719
 141.641 103.344 141.062 103.344 140.203 c h
103.344 140.172 m f
106.848 137.73 4.703 0.438 re f
115.102 139.965 m 115.102 139.777 l 114.57 139.777 114.398 139.777 114.398
 138.934 c 114.398 138.918 114.398 135.262 114.398 135.262 c 114.227 135.262
 l 112.883 135.84 l 112.961 136.027 l 113.273 135.902 113.336 135.887 113.43
 135.887 c 113.633 135.887 113.648 136.059 113.648 136.262 c 113.648 138.934
 l 113.648 139.777 113.492 139.762 112.961 139.777 c 112.961 139.965 l h
115.102 139.965 m f
84.469 153.344 m 83.812 153.781 83.547 154 83.203 154.422 c 82.578 155.203
 82.266 156.094 82.266 157.141 c 82.266 158.297 82.594 159.172 83.375 160.078
 c 83.75 160.516 83.984 160.703 84.453 161 c 84.547 160.844 l 83.844 160.281
 83.594 159.969 83.344 159.297 c 83.125 158.703 83.031 158.031 83.031 157.125
 c 83.031 156.172 83.141 155.438 83.391 154.891 c 83.641 154.328 83.906 
154 84.547 153.484 c h
84.469 153.344 m f
88.797 158.812 m 88.641 158.938 88.531 158.984 88.391 158.984 c 88.188 
158.984 88.125 158.859 88.125 158.469 c 88.125 156.719 l 88.125 156.25 88.078
 155.984 87.953 155.781 c 87.75 155.453 87.359 155.281 86.844 155.281 c 
86 155.281 85.328 155.719 85.328 156.281 c 85.328 156.484 85.5 156.672 85.719
 156.672 c 85.938 156.672 86.125 156.484 86.125 156.297 c 86.125 156.266
 86.109 156.219 86.109 156.156 c 86.078 156.062 86.078 156 86.078 155.938
 c 86.078 155.688 86.359 155.5 86.719 155.5 c 87.156 155.5 87.406 155.75
 87.406 156.234 c 87.406 156.781 l 86.031 157.328 85.875 157.422 85.484 
157.75 c 85.281 157.938 85.156 158.234 85.156 158.531 c 85.156 159.094 85.547
 159.5 86.109 159.5 c 86.5 159.5 86.859 159.312 87.406 158.844 c 87.453 
159.312 87.625 159.5 87.984 159.5 c 88.297 159.5 88.484 159.391 88.797 159.047
 c h
87.406 158.297 m 87.406 158.578 87.359 158.672 87.172 158.781 c 86.938 
158.906 86.703 158.969 86.516 158.969 c 86.203 158.969 85.953 158.672 85.953
 158.281 c 85.953 158.25 l 85.953 157.719 86.359 157.375 87.406 157 c h
87.406 158.297 m f
89.129 161 m 89.785 160.547 90.066 160.328 90.395 159.922 c 91.035 159.141
 91.348 158.234 91.348 157.188 c 91.348 156.047 91.004 155.172 90.223 154.266
 c 89.848 153.828 89.613 153.625 89.16 153.344 c 89.051 153.484 l 89.77 
154.047 90.004 154.359 90.254 155.031 c 90.473 155.641 90.566 156.312 90.566
 157.219 c 90.566 158.156 90.457 158.891 90.207 159.438 c 89.973 160 89.691
 160.328 89.051 160.844 c h
89.129 161 m f
7.941 91.09 m 1.754 93.965 l 1.754 94.137 l 7.941 96.996 l h
7.473 92.184 m 7.473 96.355 l 2.988 94.277 l h
7.473 92.184 m f
1.895 82.531 m 1.895 84.875 l 2.035 84.891 l 2.035 84.594 2.066 84.234 
2.473 84.234 c 2.598 84.234 2.738 84.266 3.066 84.359 c 4.566 84.75 l 4.566
 87.406 l 2.941 86.953 l 2.285 86.781 2.035 86.5 2.035 85.969 c 1.895 85.938
 l 1.895 88.391 l 2.035 88.422 l 2.035 88.125 2.066 87.734 2.473 87.734 
c 2.598 87.734 2.738 87.766 3.066 87.859 c 6.895 88.922 l 7.801 89.172 7.785
 89.438 7.785 89.844 c 7.941 89.875 l 7.941 87.516 l 7.785 87.5 l 7.785 
87.734 7.754 88.125 7.316 88.125 c 7.238 88.125 7.129 88.109 7.02 88.078
 c 4.926 87.5 l 4.926 84.859 l 6.895 85.422 l 7.785 85.672 7.785 86.016 
7.785 86.391 c 7.941 86.422 l 7.941 83.922 l 7.785 83.906 l 7.785 84.234
 7.801 84.578 7.348 84.578 c 7.238 84.578 7.082 84.562 6.895 84.5 c 2.941
 83.406 l 2.285 83.234 2.035 82.969 2.035 82.562 c h
1.895 82.531 m f
10.102 82.816 m 10.102 81.27 l 9.992 81.27 l 9.992 81.629 9.914 81.738 
9.633 81.738 c 7.664 81.738 l 7.648 81.738 7.586 81.691 7.539 81.629 c 7.383
 81.457 7.258 81.16 7.258 80.926 c 7.258 80.613 7.508 80.457 7.992 80.457
 c 9.508 80.457 l 9.898 80.473 9.977 80.535 9.992 80.926 c 10.102 80.926
 l 10.102 79.379 l 9.992 79.379 l 9.992 79.77 9.883 79.863 9.445 79.879 
c 7.68 79.879 l 7.383 79.66 7.258 79.441 7.258 79.113 c 7.258 78.723 7.445
 78.598 8.023 78.598 c 9.492 78.598 l 9.914 78.598 9.961 78.645 9.992 79.051
 c 10.102 79.051 l 10.102 77.52 l 9.992 77.52 l 9.977 77.707 l 9.945 77.926
 9.836 78.004 9.57 78.004 c 8.133 78.004 l 7.32 78.004 6.898 78.285 6.898
 78.816 c 6.898 79.223 7.07 79.566 7.477 79.957 c 7.086 80.082 6.898 80.316
 6.898 80.691 c 6.898 81.004 6.992 81.191 7.43 81.77 c 6.914 81.77 l 6.898
 81.816 l 7.023 82.191 7.102 82.426 7.211 82.801 c 7.32 82.801 l 7.305 82.707
 7.305 82.645 7.305 82.566 c 7.305 82.395 7.414 82.332 7.742 82.332 c 9.508
 82.332 l 9.898 82.348 9.992 82.426 9.992 82.816 c h
10.102 82.816 m f
9.863 73.723 m 9.707 73.723 l 9.066 74.816 7.801 75.316 5.676 75.316 c 
3.566 75.316 2.332 74.816 1.66 73.723 c 1.504 73.723 l 2.301 75.27 3.832
 76.176 5.676 76.176 c 7.551 76.176 9.004 75.301 9.863 73.723 c h
9.863 73.723 m f
5.129 70.738 m 3.895 70.77 l 3.895 70.879 l 3.973 70.926 3.988 70.973 3.988
 71.02 c 3.988 71.066 3.973 71.16 3.926 71.254 c 3.863 71.473 3.816 71.676
 3.816 71.895 c 3.816 72.598 4.285 73.113 4.926 73.113 c 5.426 73.113 5.785
 72.816 6.223 72.066 c 6.52 71.535 l 6.691 71.223 6.91 71.066 7.191 71.066
 c 7.582 71.066 7.832 71.363 7.832 71.816 c 7.832 72.441 7.488 72.754 6.582
 72.957 c 6.582 73.098 l 7.973 73.098 l 7.973 72.988 l 7.895 72.926 7.863
 72.879 7.863 72.77 c 7.863 72.676 7.895 72.566 7.941 72.363 c 7.988 72.129
 8.035 71.895 8.035 71.707 c 8.035 71.004 7.504 70.441 6.879 70.441 c 6.441
 70.441 6.145 70.66 5.816 71.191 c 5.238 72.16 l 5.082 72.426 4.879 72.551
 4.629 72.551 c 4.27 72.551 4.02 72.27 4.02 71.863 c 4.02 71.348 4.316 71.082
 5.129 70.879 c h
5.129 70.738 m f
3.816 67.836 m 3.816 69.023 4.676 69.82 5.91 69.82 c 7.129 69.82 8.035 
68.992 8.035 67.867 c 8.035 66.727 7.082 65.867 5.848 65.867 c 4.66 65.867
 3.816 66.695 3.816 67.836 c h
4.066 67.961 m 4.066 67.211 4.926 66.68 6.16 66.68 c 7.176 66.68 7.785 
67.086 7.785 67.758 c 7.785 68.102 7.566 68.43 7.207 68.617 c 6.738 68.883
 6.113 69.023 5.473 69.023 c 4.629 69.023 4.066 68.602 4.066 67.961 c h
4.066 67.961 m f
7.941 65.457 m 7.941 63.332 l 7.801 63.332 l 7.785 63.91 7.691 64.004 7.191
 64.02 c 1.832 64.02 l 1.816 64.051 l 1.957 64.504 2.051 64.832 2.207 65.473
 c 2.348 65.473 l 2.348 65.426 l 2.348 65.316 2.332 65.207 2.332 65.145 
c 2.332 64.848 2.457 64.77 2.879 64.77 c 7.16 64.77 l 7.645 64.77 7.77 64.895
 7.801 65.457 c h
7.941 65.457 m f
5.691 60.531 m 3.832 60.531 2.379 61.406 1.504 62.984 c 1.676 62.984 l 
2.316 61.891 3.566 61.391 5.691 61.391 c 7.801 61.391 9.051 61.891 9.707
 62.984 c 9.863 62.984 l 9.082 61.438 7.551 60.531 5.691 60.531 c h
5.691 60.531 m f
1.504 55.859 m 1.504 56.297 l 9.863 59.406 l 9.863 58.953 l h
1.504 55.859 m f
7.941 55.262 m 7.941 53.168 l 7.801 53.168 l 7.801 53.34 l 7.77 53.715 
7.676 53.824 7.348 53.84 c 5.691 53.84 l 7.363 52.574 l 7.41 52.543 7.457
 52.512 7.488 52.496 c 7.566 52.418 7.629 52.387 7.676 52.387 c 7.754 52.387
 7.801 52.465 7.801 52.574 c 7.801 52.746 l 7.941 52.746 l 7.941 50.793 
l 7.801 50.793 l 7.785 51.184 7.613 51.465 7.145 51.84 c 5.41 53.215 l 5.176
 52.949 l 4.16 51.84 4.02 51.59 4.035 51.012 c 3.91 51.012 l 3.91 52.855
 l 4.035 52.855 l 4.035 52.496 4.082 52.402 4.191 52.402 c 4.27 52.402 4.395
 52.48 4.504 52.605 c 5.598 53.84 l 1.832 53.84 l 1.816 53.871 l 1.926 54.215
 2.004 54.48 2.145 54.996 c 2.207 55.262 l 2.348 55.262 l 2.348 55.152 2.332
 55.059 2.332 54.98 c 2.332 54.668 2.457 54.59 2.879 54.59 c 7.207 54.59
 l 7.676 54.605 7.707 54.621 7.801 55.262 c h
7.941 55.262 m f
2.004 47.574 m 2.004 50.137 l 2.176 50.137 l 2.223 49.418 2.316 49.324 
2.988 49.309 c 7.129 49.309 l 7.535 49.309 7.723 49.418 7.723 49.652 c 7.723
 49.777 7.66 49.824 7.426 49.887 c 7.113 49.98 6.973 50.121 6.973 50.355
 c 6.973 50.605 7.176 50.793 7.426 50.793 c 7.801 50.793 8.066 50.434 8.066
 49.902 c 8.066 48.934 7.426 48.387 6.301 48.387 c 2.988 48.387 l 2.316 
48.371 2.223 48.293 2.176 47.574 c h
2.004 47.574 m f
7.941 45.703 m 7.941 43.703 l 7.801 43.703 l 7.801 44.172 7.707 44.312 
7.348 44.312 c 4.816 44.312 l 4.801 44.312 4.707 44.25 4.645 44.188 c 4.441
 43.953 4.285 43.578 4.285 43.266 c 4.285 42.859 4.598 42.672 5.223 42.672
 c 7.176 42.672 l 7.676 42.688 7.785 42.781 7.801 43.281 c 7.941 43.281 
l 7.941 41.266 l 7.801 41.266 l 7.801 41.766 7.66 41.891 7.082 41.922 c 
4.832 41.922 l 4.441 41.641 4.285 41.359 4.285 40.938 c 4.285 40.422 4.52
 40.266 5.27 40.266 c 7.16 40.266 l 7.691 40.281 7.754 40.344 7.801 40.859
 c 7.941 40.859 l 7.941 38.891 l 7.801 38.891 l 7.785 39.125 l 7.738 39.406
 7.613 39.516 7.254 39.516 c 5.41 39.516 l 4.348 39.516 3.816 39.859 3.816
 40.547 c 3.816 41.078 4.051 41.531 4.566 42.016 c 4.051 42.172 3.816 42.484
 3.816 42.969 c 3.816 43.375 3.926 43.609 4.504 44.359 c 3.832 44.359 l 
3.816 44.422 l 3.988 44.891 4.082 45.203 4.223 45.672 c 4.379 45.672 l 4.348
 45.562 4.332 45.484 4.332 45.391 c 4.332 45.156 4.473 45.078 4.91 45.078
 c 7.176 45.078 l 7.676 45.094 7.801 45.203 7.801 45.703 c h
7.941 45.703 m f
3.816 36.637 m 3.816 37.824 4.676 38.621 5.91 38.621 c 7.129 38.621 8.035
 37.793 8.035 36.668 c 8.035 35.527 7.082 34.668 5.848 34.668 c 4.66 34.668
 3.816 35.496 3.816 36.637 c h
4.066 36.762 m 4.066 36.012 4.926 35.48 6.16 35.48 c 7.176 35.48 7.785 
35.887 7.785 36.559 c 7.785 36.902 7.566 37.23 7.207 37.418 c 6.738 37.684
 6.113 37.824 5.473 37.824 c 4.629 37.824 4.066 37.402 4.066 36.762 c h
4.066 36.762 m f
7.941 34.258 m 7.941 32.133 l 7.801 32.133 l 7.785 32.711 7.691 32.805 
7.191 32.82 c 1.832 32.82 l 1.816 32.852 l 1.957 33.305 2.051 33.633 2.207
 34.273 c 2.348 34.273 l 2.348 34.227 l 2.348 34.117 2.332 34.008 2.332 
33.945 c 2.332 33.648 2.457 33.57 2.879 33.57 c 7.16 33.57 l 7.645 33.57
 7.77 33.695 7.801 34.258 c h
7.941 34.258 m f
2.469 26.801 0.438 4.703 re f
4.703 23.25 m 4.516 23.25 l 4.516 23.781 4.516 23.953 3.672 23.953 c 3.656
 23.953 0 23.953 0 23.953 c 0 24.125 l 0.578 25.469 l 0.766 25.391 l 0.641
 25.078 0.625 25.016 0.625 24.922 c 0.625 24.719 0.797 24.703 1 24.703 c
 3.672 24.703 l 4.516 24.703 4.5 24.859 4.516 25.391 c 4.703 25.391 l h
4.703 23.25 m f
19.199 118.289 m 19.043 118.258 l 18.777 118.711 18.559 118.789 18.121 
118.789 c 16.059 118.789 l 17.48 117.492 18.777 116.32 18.777 115.008 c 
18.777 114.086 17.98 113.43 17.105 113.43 c 16.246 113.43 15.559 113.898
 15.293 115.117 c 15.496 115.117 l 15.746 114.617 16.09 114.102 16.777 114.102
 c 17.559 114.102 17.996 114.695 17.996 115.367 c 17.996 116.336 16.965 
117.758 15.199 119.305 c 15.199 119.445 l 18.73 119.445 l h
19.199 118.289 m f
21.453 119.07 m 21.453 118.789 21.234 118.57 20.953 118.57 c 20.672 118.57
 20.453 118.789 20.453 119.07 c 20.453 119.352 20.672 119.57 20.953 119.57
 c 21.234 119.57 21.453 119.352 21.453 119.07 c h
21.453 119.07 m f
26.367 116.492 m 26.367 114.883 25.633 113.43 24.383 113.43 c 23.117 113.43
 22.383 114.883 22.383 116.492 c 22.383 118.117 23.07 119.555 24.383 119.555
 c 25.586 119.555 26.367 118.117 26.367 116.492 c h
25.508 116.492 m 25.508 117.789 25.383 119.305 24.383 119.305 c 23.43 119.305
 23.242 117.789 23.242 116.492 c 23.242 115.414 23.367 113.664 24.383 113.664
 c 25.383 113.664 25.508 115.414 25.508 116.492 c h
25.508 116.492 m f
q 1 0 0 -1 0 0 cm
30.055 -97.555 m 34.305 -97.555 l S Q
19.199 99.395 m 19.043 99.363 l 18.777 99.816 18.559 99.895 18.121 99.895
 c 16.059 99.895 l 17.48 98.598 18.777 97.426 18.777 96.113 c 18.777 95.191
 17.98 94.535 17.105 94.535 c 16.246 94.535 15.559 95.004 15.293 96.223 
c 15.496 96.223 l 15.746 95.723 16.09 95.207 16.777 95.207 c 17.559 95.207
 17.996 95.801 17.996 96.473 c 17.996 97.441 16.965 98.863 15.199 100.41
 c 15.199 100.551 l 18.73 100.551 l h
19.199 99.395 m f
21.453 100.176 m 21.453 99.895 21.234 99.676 20.953 99.676 c 20.672 99.676
 20.453 99.895 20.453 100.176 c 20.453 100.457 20.672 100.676 20.953 100.676
 c 21.234 100.676 21.453 100.457 21.453 100.176 c h
21.453 100.176 m f
26.305 94.629 m 23.836 94.629 l 22.727 97.176 l 22.867 97.145 23.008 97.113
 23.18 97.113 c 24.133 97.113 25.43 97.613 25.43 98.785 c 25.43 99.691 24.773
 100.27 24.148 100.27 c 23.602 100.27 23.398 99.77 22.883 99.77 c 22.633
 99.77 22.555 99.988 22.555 100.098 c 22.555 100.41 22.992 100.66 23.617
 100.66 c 24.961 100.66 26.023 99.676 26.023 98.473 c 26.023 97.051 24.898
 96.566 23.68 96.535 c 23.57 96.535 23.445 96.551 23.336 96.566 c 23.898
 95.301 l 25.992 95.285 l h
26.305 94.629 m f
q 1 0 0 -1 0 0 cm
30.055 -78.66 m 34.305 -78.66 l S Q
19.184 79.723 m 19.184 78.785 18.637 78.379 18.105 78.16 c 18.684 77.723
 18.871 77.316 18.871 76.832 c 18.871 76.316 18.449 75.645 17.48 75.645 
c 16.777 75.645 16.105 76.035 15.809 77.004 c 15.949 77.035 l 16.137 76.676
 16.496 76.223 17.152 76.223 c 17.793 76.223 18.168 76.66 18.168 77.16 c
 18.168 77.863 17.621 78.363 16.809 78.551 c 16.793 78.738 l 18.184 78.676
 18.527 79.582 18.527 80.145 c 18.527 80.816 18.043 81.426 17.402 81.426
 c 16.824 81.426 16.574 80.926 16.09 80.926 c 15.934 80.926 15.746 81.082
 15.746 81.285 c 15.746 81.66 16.309 81.77 16.715 81.77 c 18.137 81.77 19.184
 80.957 19.184 79.723 c h
19.184 79.723 m f
21.453 81.285 m 21.453 81.004 21.234 80.785 20.953 80.785 c 20.672 80.785
 20.453 81.004 20.453 81.285 c 20.453 81.566 20.672 81.785 20.953 81.785
 c 21.234 81.785 21.453 81.566 21.453 81.285 c h
21.453 81.285 m f
26.367 78.707 m 26.367 77.098 25.633 75.645 24.383 75.645 c 23.117 75.645
 22.383 77.098 22.383 78.707 c 22.383 80.332 23.07 81.77 24.383 81.77 c 
25.586 81.77 26.367 80.332 26.367 78.707 c h
25.508 78.707 m 25.508 80.004 25.383 81.52 24.383 81.52 c 23.43 81.52 23.242
 80.004 23.242 78.707 c 23.242 77.629 23.367 75.879 24.383 75.879 c 25.383
 75.879 25.508 77.629 25.508 78.707 c h
25.508 78.707 m f
q 1 0 0 -1 0 0 cm
30.055 -59.766 m 34.305 -59.766 l S Q
19.184 60.828 m 19.184 59.891 18.637 59.484 18.105 59.266 c 18.684 58.828
 18.871 58.422 18.871 57.938 c 18.871 57.422 18.449 56.75 17.48 56.75 c 
16.777 56.75 16.105 57.141 15.809 58.109 c 15.949 58.141 l 16.137 57.781
 16.496 57.328 17.152 57.328 c 17.793 57.328 18.168 57.766 18.168 58.266
 c 18.168 58.969 17.621 59.469 16.809 59.656 c 16.793 59.844 l 18.184 59.781
 18.527 60.688 18.527 61.25 c 18.527 61.922 18.043 62.531 17.402 62.531 
c 16.824 62.531 16.574 62.031 16.09 62.031 c 15.934 62.031 15.746 62.188
 15.746 62.391 c 15.746 62.766 16.309 62.875 16.715 62.875 c 18.137 62.875
 19.184 62.062 19.184 60.828 c h
19.184 60.828 m f
21.453 62.391 m 21.453 62.109 21.234 61.891 20.953 61.891 c 20.672 61.891
 20.453 62.109 20.453 62.391 c 20.453 62.672 20.672 62.891 20.953 62.891
 c 21.234 62.891 21.453 62.672 21.453 62.391 c h
21.453 62.391 m f
26.305 56.844 m 23.836 56.844 l 22.727 59.391 l 22.867 59.359 23.008 59.328
 23.18 59.328 c 24.133 59.328 25.43 59.828 25.43 61 c 25.43 61.906 24.773
 62.484 24.148 62.484 c 23.602 62.484 23.398 61.984 22.883 61.984 c 22.633
 61.984 22.555 62.203 22.555 62.312 c 22.555 62.625 22.992 62.875 23.617
 62.875 c 24.961 62.875 26.023 61.891 26.023 60.688 c 26.023 59.266 24.898
 58.781 23.68 58.75 c 23.57 58.75 23.445 58.766 23.336 58.781 c 23.898 57.516
 l 25.992 57.5 l h
26.305 56.844 m f
q 1 0 0 -1 0 0 cm
30.055 -40.875 m 34.305 -40.875 l S Q
19.184 42.387 m 19.184 41.777 l 18.309 41.777 l 18.309 37.855 l 17.871 
37.855 l 15.277 41.762 l 15.277 42.387 l 17.574 42.387 l 17.574 43.871 l
 18.309 43.871 l 18.309 42.387 l h
17.574 41.777 m 15.637 41.777 l 17.559 38.793 l 17.574 38.793 l h
17.574 41.777 m f
21.453 43.496 m 21.453 43.215 21.234 42.996 20.953 42.996 c 20.672 42.996
 20.453 43.215 20.453 43.496 c 20.453 43.777 20.672 43.996 20.953 43.996
 c 21.234 43.996 21.453 43.777 21.453 43.496 c h
21.453 43.496 m f
26.367 40.918 m 26.367 39.309 25.633 37.855 24.383 37.855 c 23.117 37.855
 22.383 39.309 22.383 40.918 c 22.383 42.543 23.07 43.98 24.383 43.98 c 
25.586 43.98 26.367 42.543 26.367 40.918 c h
25.508 40.918 m 25.508 42.215 25.383 43.73 24.383 43.73 c 23.43 43.73 23.242
 42.215 23.242 40.918 c 23.242 39.84 23.367 38.09 24.383 38.09 c 25.383 
38.09 25.508 39.84 25.508 40.918 c h
25.508 40.918 m f
q 1 0 0 -1 0 0 cm
30.055 -21.98 m 34.305 -21.98 l S Q
19.184 23.496 m 19.184 22.887 l 18.309 22.887 l 18.309 18.965 l 17.871 
18.965 l 15.277 22.871 l 15.277 23.496 l 17.574 23.496 l 17.574 24.98 l 
18.309 24.98 l 18.309 23.496 l h
17.574 22.887 m 15.637 22.887 l 17.559 19.902 l 17.574 19.902 l h
17.574 22.887 m f
21.453 24.605 m 21.453 24.324 21.234 24.105 20.953 24.105 c 20.672 24.105
 20.453 24.324 20.453 24.605 c 20.453 24.887 20.672 25.105 20.953 25.105
 c 21.234 25.105 21.453 24.887 21.453 24.605 c h
21.453 24.605 m f
26.305 19.059 m 23.836 19.059 l 22.727 21.605 l 22.867 21.574 23.008 21.543
 23.18 21.543 c 24.133 21.543 25.43 22.043 25.43 23.215 c 25.43 24.121 24.773
 24.699 24.148 24.699 c 23.602 24.699 23.398 24.199 22.883 24.199 c 22.633
 24.199 22.555 24.418 22.555 24.527 c 22.555 24.84 22.992 25.09 23.617 25.09
 c 24.961 25.09 26.023 24.105 26.023 22.902 c 26.023 21.48 24.898 20.996
 23.68 20.965 c 23.57 20.965 23.445 20.98 23.336 20.996 c 23.898 19.73 l
 25.992 19.715 l h
26.305 19.059 m f
19.465 0.164 m 16.996 0.164 l 15.887 2.711 l 16.027 2.68 16.168 2.648 16.34
 2.648 c 17.293 2.648 18.59 3.148 18.59 4.32 c 18.59 5.227 17.934 5.805 
17.309 5.805 c 16.762 5.805 16.559 5.305 16.043 5.305 c 15.793 5.305 15.715
 5.523 15.715 5.633 c 15.715 5.945 16.152 6.195 16.777 6.195 c 18.121 6.195
 19.184 5.211 19.184 4.008 c 19.184 2.586 18.059 2.102 16.84 2.07 c 16.73
 2.07 16.605 2.086 16.496 2.102 c 17.059 0.836 l 19.152 0.82 l h
19.465 0.164 m f
21.453 5.711 m 21.453 5.43 21.234 5.211 20.953 5.211 c 20.672 5.211 20.453
 5.43 20.453 5.711 c 20.453 5.992 20.672 6.211 20.953 6.211 c 21.234 6.211
 21.453 5.992 21.453 5.711 c h
21.453 5.711 m f
26.367 3.133 m 26.367 1.523 25.633 0.07 24.383 0.07 c 23.117 0.07 22.383
 1.523 22.383 3.133 c 22.383 4.758 23.07 6.195 24.383 6.195 c 25.586 6.195
 26.367 4.758 26.367 3.133 c h
25.508 3.133 m 25.508 4.43 25.383 5.945 24.383 5.945 c 23.43 5.945 23.242
 4.43 23.242 3.133 c 23.242 2.055 23.367 0.305 24.383 0.305 c 25.383 0.305
 25.508 2.055 25.508 3.133 c h
25.508 3.133 m f
171.613 78.363 m 170.301 78.363 170.035 79.801 170.02 80.379 c 169.504 
80.316 169.27 79.957 169.254 79.551 c 169.066 79.504 l 169.066 81.645 l 
169.254 81.676 l 169.27 81.41 169.395 81.145 169.754 81.145 c 169.816 81.145
 169.926 81.16 170.02 81.191 c 170.082 83.145 171.395 84.254 172.551 84.254
 c 173.613 84.223 174.02 83.363 174.129 82.223 c 174.598 82.27 174.895 82.645
 174.926 83.066 c 175.113 83.113 l 175.113 80.973 l 174.926 80.941 l 174.91
 81.207 174.77 81.473 174.426 81.473 c 174.348 81.473 174.254 81.441 174.145
 81.41 c 174.004 79.41 172.785 78.363 171.613 78.363 c h
171.629 79.129 m 173.16 79.129 173.723 80.754 173.754 81.301 c 170.426 
80.488 l 170.441 79.785 170.941 79.129 171.629 79.129 c h
170.41 81.301 m 173.754 82.129 l 173.691 82.77 173.285 83.488 172.473 83.488
 c 170.926 83.488 170.426 81.863 170.41 81.301 c h
170.41 81.301 m f
175.906 73.617 m 175.906 73.883 l 176.797 74.273 177.031 74.727 177.031
 75.523 c 177.031 76.273 l 177.031 76.461 177.062 76.789 176.75 76.789 c
 176.688 76.789 176.422 76.727 176.344 76.695 c 173.281 75.805 l 172.781
 75.664 172.578 75.445 172.578 75.07 c 172.359 75.039 l 172.359 77.086 l
 172.578 77.117 l 172.578 76.836 172.578 76.523 172.875 76.523 c 172.984
 76.523 173.094 76.555 173.344 76.633 c 176.469 77.539 l 177.172 77.742 
177.172 78.023 177.172 78.32 c 177.391 78.352 l 177.391 74.148 l h
175.906 73.617 m f
168.676 68.699 m 168.676 69.137 l 177.035 72.246 l 177.035 71.793 l h
168.676 68.699 m f
175.113 68.102 m 175.113 66.008 l 174.973 66.008 l 174.973 66.18 l 174.941
 66.555 174.848 66.664 174.52 66.68 c 172.863 66.68 l 174.535 65.414 l 174.582
 65.383 174.629 65.352 174.66 65.336 c 174.738 65.258 174.801 65.227 174.848
 65.227 c 174.926 65.227 174.973 65.305 174.973 65.414 c 174.973 65.586 
l 175.113 65.586 l 175.113 63.633 l 174.973 63.633 l 174.957 64.023 174.785
 64.305 174.316 64.68 c 172.582 66.055 l 172.348 65.789 l 171.332 64.68 
171.191 64.43 171.207 63.852 c 171.082 63.852 l 171.082 65.695 l 171.207
 65.695 l 171.207 65.336 171.254 65.242 171.363 65.242 c 171.441 65.242 
171.566 65.32 171.676 65.445 c 172.77 66.68 l 169.004 66.68 l 168.988 66.711
 l 169.098 67.055 169.176 67.32 169.316 67.836 c 169.379 68.102 l 169.52
 68.102 l 169.52 67.992 169.504 67.898 169.504 67.82 c 169.504 67.508 169.629
 67.43 170.051 67.43 c 174.379 67.43 l 174.848 67.445 174.879 67.461 174.973
 68.102 c h
175.113 68.102 m f
169.176 60.414 m 169.176 62.977 l 169.348 62.977 l 169.395 62.258 169.488
 62.164 170.16 62.148 c 174.301 62.148 l 174.707 62.148 174.895 62.258 174.895
 62.492 c 174.895 62.617 174.832 62.664 174.598 62.727 c 174.285 62.82 174.145
 62.961 174.145 63.195 c 174.145 63.445 174.348 63.633 174.598 63.633 c 
174.973 63.633 175.238 63.273 175.238 62.742 c 175.238 61.773 174.598 61.227
 173.473 61.227 c 170.16 61.227 l 169.488 61.211 169.395 61.133 169.348 
60.414 c h
169.176 60.414 m f
175.113 58.547 m 175.113 56.547 l 174.973 56.547 l 174.973 57.016 174.879
 57.156 174.52 57.156 c 171.988 57.156 l 171.973 57.156 171.879 57.094 171.816
 57.031 c 171.613 56.797 171.457 56.422 171.457 56.109 c 171.457 55.703 
171.77 55.516 172.395 55.516 c 174.348 55.516 l 174.848 55.531 174.957 55.625
 174.973 56.125 c 175.113 56.125 l 175.113 54.109 l 174.973 54.109 l 174.973
 54.609 174.832 54.734 174.254 54.766 c 172.004 54.766 l 171.613 54.484 
171.457 54.203 171.457 53.781 c 171.457 53.266 171.691 53.109 172.441 53.109
 c 174.332 53.109 l 174.863 53.125 174.926 53.188 174.973 53.703 c 175.113
 53.703 l 175.113 51.734 l 174.973 51.734 l 174.957 51.969 l 174.91 52.25
 174.785 52.359 174.426 52.359 c 172.582 52.359 l 171.52 52.359 170.988 
52.703 170.988 53.391 c 170.988 53.922 171.223 54.375 171.738 54.859 c 171.223
 55.016 170.988 55.328 170.988 55.812 c 170.988 56.219 171.098 56.453 171.676
 57.203 c 171.004 57.203 l 170.988 57.266 l 171.16 57.734 171.254 58.047
 171.395 58.516 c 171.551 58.516 l 171.52 58.406 171.504 58.328 171.504 
58.234 c 171.504 58 171.645 57.922 172.082 57.922 c 174.348 57.922 l 174.848
 57.938 174.973 58.047 174.973 58.547 c h
175.113 58.547 m f
170.988 49.477 m 170.988 50.664 171.848 51.461 173.082 51.461 c 174.301
 51.461 175.207 50.633 175.207 49.508 c 175.207 48.367 174.254 47.508 173.02
 47.508 c 171.832 47.508 170.988 48.336 170.988 49.477 c h
171.238 49.602 m 171.238 48.852 172.098 48.32 173.332 48.32 c 174.348 48.32
 174.957 48.727 174.957 49.398 c 174.957 49.742 174.738 50.07 174.379 50.258
 c 173.91 50.523 173.285 50.664 172.645 50.664 c 171.801 50.664 171.238 
50.242 171.238 49.602 c h
171.238 49.602 m f
175.113 47.098 m 175.113 44.973 l 174.973 44.973 l 174.957 45.551 174.863
 45.645 174.363 45.66 c 169.004 45.66 l 168.988 45.691 l 169.129 46.145 
169.223 46.473 169.379 47.113 c 169.52 47.113 l 169.52 47.066 l 169.52 46.957
 169.504 46.848 169.504 46.785 c 169.504 46.488 169.629 46.41 170.051 46.41
 c 174.332 46.41 l 174.816 46.41 174.941 46.535 174.973 47.098 c h
175.113 47.098 m f
169.637 39.641 0.438 4.703 re f
171.871 36.09 m 171.684 36.09 l 171.684 36.621 171.684 36.793 170.84 36.793
 c 170.824 36.793 167.168 36.793 167.168 36.793 c 167.168 36.965 l 167.746
 38.309 l 167.934 38.23 l 167.809 37.918 167.793 37.855 167.793 37.762 c
 167.793 37.559 167.965 37.543 168.168 37.543 c 170.84 37.543 l 171.684 
37.543 171.668 37.699 171.684 38.23 c 171.871 38.23 l h
171.871 36.09 m f
q 1 0 0 -1 0 0 cm
139.188 -102.086 m 143.438 -102.086 l S Q
147.418 102.602 5.484 0.453 re f
156.883 105.086 m 156.883 104.945 l 156.289 104.945 156.07 104.961 156.07
 103.789 c 156.07 103.773 156.07 99.039 156.07 99.039 c 155.945 99.039 l
 154.414 99.773 l 154.461 99.914 l 154.789 99.773 154.867 99.742 154.992
 99.742 c 155.258 99.742 155.305 99.977 155.305 100.289 c 155.305 103.789
 l 155.305 104.961 155.086 104.93 154.492 104.945 c 154.492 105.086 l h
156.883 105.086 m f
159.559 104.711 m 159.559 104.43 159.34 104.211 159.059 104.211 c 158.777
 104.211 158.559 104.43 158.559 104.711 c 158.559 104.992 158.777 105.211
 159.059 105.211 c 159.34 105.211 159.559 104.992 159.559 104.711 c h
159.559 104.711 m f
164.41 99.164 m 161.941 99.164 l 160.832 101.711 l 160.973 101.68 161.113
 101.648 161.285 101.648 c 162.238 101.648 163.535 102.148 163.535 103.32
 c 163.535 104.227 162.879 104.805 162.254 104.805 c 161.707 104.805 161.504
 104.305 160.988 104.305 c 160.738 104.305 160.66 104.523 160.66 104.633
 c 160.66 104.945 161.098 105.195 161.723 105.195 c 163.066 105.195 164.129
 104.211 164.129 103.008 c 164.129 101.586 163.004 101.102 161.785 101.07
 c 161.676 101.07 161.551 101.086 161.441 101.102 c 162.004 99.836 l 164.098
 99.82 l h
164.41 99.164 m f
q 1 0 0 -1 0 0 cm
139.188 -83.195 m 143.438 -83.195 l S Q
147.418 83.707 5.484 0.453 re f
156.883 86.191 m 156.883 86.051 l 156.289 86.051 156.07 86.066 156.07 84.895
 c 156.07 84.879 156.07 80.145 156.07 80.145 c 155.945 80.145 l 154.414 
80.879 l 154.461 81.02 l 154.789 80.879 154.867 80.848 154.992 80.848 c 
155.258 80.848 155.305 81.082 155.305 81.395 c 155.305 84.895 l 155.305 
86.066 155.086 86.035 154.492 86.051 c 154.492 86.191 l h
156.883 86.191 m f
159.559 85.816 m 159.559 85.535 159.34 85.316 159.059 85.316 c 158.777 
85.316 158.559 85.535 158.559 85.816 c 158.559 86.098 158.777 86.316 159.059
 86.316 c 159.34 86.316 159.559 86.098 159.559 85.816 c h
159.559 85.816 m f
164.473 83.238 m 164.473 81.629 163.738 80.176 162.488 80.176 c 161.223
 80.176 160.488 81.629 160.488 83.238 c 160.488 84.863 161.176 86.301 162.488
 86.301 c 163.691 86.301 164.473 84.863 164.473 83.238 c h
163.613 83.238 m 163.613 84.535 163.488 86.051 162.488 86.051 c 161.535
 86.051 161.348 84.535 161.348 83.238 c 161.348 82.16 161.473 80.41 162.488
 80.41 c 163.488 80.41 163.613 82.16 163.613 83.238 c h
163.613 83.238 m f
q 1 0 0 -1 0 0 cm
139.188 -64.301 m 143.438 -64.301 l S Q
147.418 64.816 5.484 0.453 re f
157.633 64.348 m 157.633 62.738 156.898 61.285 155.648 61.285 c 154.383
 61.285 153.648 62.738 153.648 64.348 c 153.648 65.973 154.336 67.41 155.648
 67.41 c 156.852 67.41 157.633 65.973 157.633 64.348 c h
156.773 64.348 m 156.773 65.645 156.648 67.16 155.648 67.16 c 154.695 67.16
 154.508 65.645 154.508 64.348 c 154.508 63.27 154.633 61.52 155.648 61.52
 c 156.648 61.52 156.773 63.27 156.773 64.348 c h
156.773 64.348 m f
159.559 66.926 m 159.559 66.645 159.34 66.426 159.059 66.426 c 158.777 
66.426 158.559 66.645 158.559 66.926 c 158.559 67.207 158.777 67.426 159.059
 67.426 c 159.34 67.426 159.559 67.207 159.559 66.926 c h
159.559 66.926 m f
164.41 61.379 m 161.941 61.379 l 160.832 63.926 l 160.973 63.895 161.113
 63.863 161.285 63.863 c 162.238 63.863 163.535 64.363 163.535 65.535 c 
163.535 66.441 162.879 67.02 162.254 67.02 c 161.707 67.02 161.504 66.52
 160.988 66.52 c 160.738 66.52 160.66 66.738 160.66 66.848 c 160.66 67.16
 161.098 67.41 161.723 67.41 c 163.066 67.41 164.129 66.426 164.129 65.223
 c 164.129 63.801 163.004 63.316 161.785 63.285 c 161.676 63.285 161.551
 63.301 161.441 63.316 c 162.004 62.051 l 164.098 62.035 l h
164.41 61.379 m f
q 1 0 0 -1 0 0 cm
139.188 -45.41 m 143.438 -45.41 l S Q
151.152 45.453 m 151.152 43.844 150.418 42.391 149.168 42.391 c 147.902
 42.391 147.168 43.844 147.168 45.453 c 147.168 47.078 147.855 48.516 149.168
 48.516 c 150.371 48.516 151.152 47.078 151.152 45.453 c h
150.293 45.453 m 150.293 46.75 150.168 48.266 149.168 48.266 c 148.215 
48.266 148.027 46.75 148.027 45.453 c 148.027 44.375 148.152 42.625 149.168
 42.625 c 150.168 42.625 150.293 44.375 150.293 45.453 c h
150.293 45.453 m f
q 1 0 0 -1 0 0 cm
139.188 -26.516 m 143.438 -26.516 l S Q
151.152 26.562 m 151.152 24.953 150.418 23.5 149.168 23.5 c 147.902 23.5
 147.168 24.953 147.168 26.562 c 147.168 28.188 147.855 29.625 149.168 29.625
 c 150.371 29.625 151.152 28.188 151.152 26.562 c h
150.293 26.562 m 150.293 27.859 150.168 29.375 149.168 29.375 c 148.215
 29.375 148.027 27.859 148.027 26.562 c 148.027 25.484 148.152 23.734 149.168
 23.734 c 150.168 23.734 150.293 25.484 150.293 26.562 c h
150.293 26.562 m f
153.078 29.141 m 153.078 28.859 152.859 28.641 152.578 28.641 c 152.297
 28.641 152.078 28.859 152.078 29.141 c 152.078 29.422 152.297 29.641 152.578
 29.641 c 152.859 29.641 153.078 29.422 153.078 29.141 c h
153.078 29.141 m f
157.93 23.594 m 155.461 23.594 l 154.352 26.141 l 154.492 26.109 154.633
 26.078 154.805 26.078 c 155.758 26.078 157.055 26.578 157.055 27.75 c 157.055
 28.656 156.398 29.234 155.773 29.234 c 155.227 29.234 155.023 28.734 154.508
 28.734 c 154.258 28.734 154.18 28.953 154.18 29.062 c 154.18 29.375 154.617
 29.625 155.242 29.625 c 156.586 29.625 157.648 28.641 157.648 27.438 c 
157.648 26.016 156.523 25.531 155.305 25.5 c 155.195 25.5 155.07 25.516 
154.961 25.531 c 155.523 24.266 l 157.617 24.25 l h
157.93 23.594 m f
q 1 0 0 -1 0 0 cm
139.188 -7.625 m 143.438 -7.625 l S Q
150.402 10.621 m 150.402 10.48 l 149.809 10.48 149.59 10.496 149.59 9.324
 c 149.59 9.309 149.59 4.574 149.59 4.574 c 149.465 4.574 l 147.934 5.309
 l 147.98 5.449 l 148.309 5.309 148.387 5.277 148.512 5.277 c 148.777 5.277
 148.824 5.512 148.824 5.824 c 148.824 9.324 l 148.824 10.496 148.605 10.465
 148.012 10.48 c 148.012 10.621 l h
150.402 10.621 m f
153.078 10.246 m 153.078 9.965 152.859 9.746 152.578 9.746 c 152.297 9.746
 152.078 9.965 152.078 10.246 c 152.078 10.527 152.297 10.746 152.578 10.746
 c 152.859 10.746 153.078 10.527 153.078 10.246 c h
153.078 10.246 m f
157.992 7.668 m 157.992 6.059 157.258 4.605 156.008 4.605 c 154.742 4.605
 154.008 6.059 154.008 7.668 c 154.008 9.293 154.695 10.73 156.008 10.73
 c 157.211 10.73 157.992 9.293 157.992 7.668 c h
157.133 7.668 m 157.133 8.965 157.008 10.48 156.008 10.48 c 155.055 10.48
 154.867 8.965 154.867 7.668 c 154.867 6.59 154.992 4.84 156.008 4.84 c 
157.008 4.84 157.133 6.59 157.133 7.668 c h
157.133 7.668 m f
1 J
q 1 0 0 -1 0 0 cm
143.137 -45.41 m 143.121 -45.41 l 141.355 -45.41 m 141.34 -45.41 l 139.578
 -45.41 m 139.559 -45.41 l 137.797 -45.41 m 137.777 -45.41 l 136.016 -45.41
 m 135.996 -45.41 l 134.234 -45.41 m 134.219 -45.41 l 132.453 -45.41 m 132.438
 -45.41 l 130.676 -45.41 m 130.656 -45.41 l 128.895 -45.41 m 128.875 -45.41
 l 127.113 -45.41 m 127.094 -45.41 l 125.332 -45.41 m 125.316 -45.41 l 123.551
 -45.41 m 123.535 -45.41 l 121.773 -45.41 m 121.754 -45.41 l 119.992 -45.41
 m 119.973 -45.41 l 118.211 -45.41 m 118.195 -45.41 l 116.43 -45.41 m 116.414
 -45.41 l 114.652 -45.41 m 114.633 -45.41 l 112.871 -45.41 m 112.852 -45.41
 l 111.09 -45.41 m 111.07 -45.41 l 109.309 -45.41 m 109.293 -45.41 l 107.527
 -45.41 m 107.512 -45.41 l 105.75 -45.41 m 105.73 -45.41 l 103.969 -45.41
 m 103.949 -45.41 l 102.188 -45.41 m 102.168 -45.41 l 100.406 -45.41 m 100.391
 -45.41 l 98.625 -45.41 m 98.609 -45.41 l 96.848 -45.41 m 96.828 -45.41 
l 95.066 -45.41 m 95.047 -45.41 l 93.285 -45.41 m 93.266 -45.41 l 91.504
 -45.41 m 91.488 -45.41 l 89.723 -45.41 m 89.707 -45.41 l 87.945 -45.41 
m 87.926 -45.41 l 86.164 -45.41 m 86.145 -45.41 l 84.383 -45.41 m 84.367
 -45.41 l 82.602 -45.41 m 82.586 -45.41 l 80.824 -45.41 m 80.805 -45.41 
l 79.043 -45.41 m 79.023 -45.41 l 77.262 -45.41 m 77.242 -45.41 l 75.48 
-45.41 m 75.465 -45.41 l 73.699 -45.41 m 73.684 -45.41 l 71.922 -45.41 m
 71.902 -45.41 l 70.141 -45.41 m 70.121 -45.41 l 68.359 -45.41 m 68.34 -45.41
 l 66.578 -45.41 m 66.562 -45.41 l 64.797 -45.41 m 64.781 -45.41 l 63.02
 -45.41 m 63 -45.41 l 61.238 -45.41 m 61.219 -45.41 l 59.457 -45.41 m 59.441
 -45.41 l 57.676 -45.41 m 57.66 -45.41 l 55.898 -45.41 m 55.879 -45.41 l
 54.117 -45.41 m 54.098 -45.41 l 52.336 -45.41 m 52.316 -45.41 l 50.555 
-45.41 m 50.539 -45.41 l 48.773 -45.41 m 48.758 -45.41 l 46.996 -45.41 m
 46.977 -45.41 l 45.215 -45.41 m 45.195 -45.41 l 43.434 -45.41 m 43.418 
-45.41 l 41.652 -45.41 m 41.637 -45.41 l 39.871 -45.41 m 39.855 -45.41 l
 38.094 -45.41 m 38.074 -45.41 l 36.312 -45.41 m 36.293 -45.41 l 34.531 
-45.41 m 34.516 -45.41 l 32.75 -45.41 m 32.734 -45.41 l 30.973 -45.41 m 
30.953 -45.41 l S Q
0 J
q 1 0 0 -1 0 0 cm
30.055 -45.41 m 31.848 -43.035 l 33.039 -41.457 m 34.828 -39.086 l 36.023
 -37.504 m 37.812 -35.133 l 39.008 -33.551 m 40.797 -31.18 l 41.992 -29.598
 m 43.781 -27.227 l 44.973 -25.645 m 46.766 -23.273 l 47.957 -21.691 m 49.746
 -19.32 l 50.941 -17.742 m 52.73 -15.371 l S Q
Q q
215.973 0 154.199 133.617 re W n
q
215 0 156 134 re W n
  q
0 g
1.41739 w
0 J
0 j
[] 0.0 d
10 M q 1 0 0 -1 0 0 cm
236.98 -19.219 m 236.98 -19.219 236.988 -17.773 237 -17.016 c 237 -16.789
 237.008 -16.59 237.012 -16.367 c 237.027 -15.828 237.039 -15.348 237.062
 -14.812 c 237.082 -14.238 237.109 -13.727 237.141 -13.156 c 237.16 -12.801
 237.176 -12.48 237.207 -12.121 c 237.23 -11.809 237.262 -11.527 237.297
 -11.215 c 237.32 -10.988 237.344 -10.789 237.375 -10.566 c 237.418 -10.266
 237.453 -9.992 237.508 -9.691 c 237.582 -9.266 237.637 -8.875 237.77 -8.461
 c 237.977 -7.812 238.188 -7.219 238.555 -6.645 c 238.605 -6.57 238.672 
-6.52 238.73 -6.453 c 238.812 -6.355 238.844 -6.227 238.949 -6.16 c 239.031
 -6.105 239.137 -6.125 239.23 -6.094 c 239.363 -6.051 239.465 -5.941 239.605
 -5.934 c 239.793 -5.922 239.953 -6.02 240.129 -6.094 c 240.414 -6.219 240.66
 -6.367 240.918 -6.551 c 241.402 -6.895 241.816 -7.25 242.227 -7.684 c 243.242
 -8.762 244 -9.867 244.848 -11.086 c 247.773 -15.293 250.051 -19.309 252.715
 -23.688 c 254.562 -26.719 256.117 -29.504 257.961 -32.531 c 261.516 -38.379
 264.668 -43.648 268.449 -49.348 c 271.055 -53.281 273.473 -56.766 276.316
 -60.527 c 280.648 -66.258 284.605 -71.375 289.43 -76.695 c 292.844 -80.465
 296.062 -83.742 299.918 -87.062 c 305.051 -91.484 309.824 -95.367 315.652
 -98.824 c 324.203 -103.898 332.254 -108.336 341.875 -110.812 c 350.648 
-113.07 368.098 -112.789 368.098 -112.789 c S Q
  Q
Q
Q q
349.973 2.617 20.199 114 re W n
q
349 2 22 115 re W n
  q
1 g
350.367 59.719 m 350.367 3.016 l 370.211 3.016 l 370.211 116.418 l 350.367
 116.418 l f
  Q
Q
Q q
0 g
0.567043 w
0 J
0 j
[] 0.0 d
10 M q 1 0 0 -1 0 0 cm
236.98 -3.016 113.387 -113.402 re S Q
0.398506 w
q 1 0 0 -1 0 0 cm
236.98 -116.418 m 236.98 -112.164 l S Q
q 1 0 0 -1 0 0 cm
265.328 -116.418 m 265.328 -112.164 l S Q
q 1 0 0 -1 0 0 cm
293.676 -116.418 m 293.676 -112.164 l S Q
q 1 0 0 -1 0 0 cm
322.02 -116.418 m 322.02 -112.164 l S Q
q 1 0 0 -1 0 0 cm
350.367 -116.418 m 350.367 -112.164 l S Q
q 1 0 0 -1 0 0 cm
236.98 -116.418 m 236.98 -112.164 l S Q
q 1 0 0 -1 0 0 cm
236.98 -116.418 m 241.234 -116.418 l S Q
q 1 0 0 -1 0 0 cm
236.98 -100.219 m 241.234 -100.219 l S Q
q 1 0 0 -1 0 0 cm
236.98 -84.016 m 241.234 -84.016 l S Q
q 1 0 0 -1 0 0 cm
236.98 -67.816 m 241.234 -67.816 l S Q
q 1 0 0 -1 0 0 cm
236.98 -51.617 m 241.234 -51.617 l S Q
q 1 0 0 -1 0 0 cm
236.98 -35.418 m 241.234 -35.418 l S Q
q 1 0 0 -1 0 0 cm
236.98 -19.219 m 241.234 -19.219 l S Q
q 1 0 0 -1 0 0 cm
236.98 -3.016 m 241.234 -3.016 l S Q
q 1 0 0 -1 0 0 cm
236.98 -116.418 m 241.234 -116.418 l S Q
q 1 0 0 -1 0 0 cm
236.98 -3.016 m 236.98 -7.27 l S Q
q 1 0 0 -1 0 0 cm
265.328 -3.016 m 265.328 -7.27 l S Q
q 1 0 0 -1 0 0 cm
293.676 -3.016 m 293.676 -7.27 l S Q
q 1 0 0 -1 0 0 cm
322.02 -3.016 m 322.02 -7.27 l S Q
q 1 0 0 -1 0 0 cm
350.367 -3.016 m 350.367 -7.27 l S Q
q 1 0 0 -1 0 0 cm
236.98 -3.016 m 236.98 -7.27 l S Q
q 1 0 0 -1 0 0 cm
350.367 -116.418 m 346.117 -116.418 l S Q
q 1 0 0 -1 0 0 cm
350.367 -100.219 m 346.117 -100.219 l S Q
q 1 0 0 -1 0 0 cm
350.367 -84.016 m 346.117 -84.016 l S Q
q 1 0 0 -1 0 0 cm
350.367 -67.816 m 346.117 -67.816 l S Q
q 1 0 0 -1 0 0 cm
350.367 -51.617 m 346.117 -51.617 l S Q
q 1 0 0 -1 0 0 cm
350.367 -35.418 m 346.117 -35.418 l S Q
q 1 0 0 -1 0 0 cm
350.367 -19.219 m 346.117 -19.219 l S Q
q 1 0 0 -1 0 0 cm
350.367 -3.016 m 346.117 -3.016 l S Q
q 1 0 0 -1 0 0 cm
350.367 -116.418 m 346.117 -116.418 l S Q
238.938 122.941 m 238.938 121.332 238.203 119.879 236.953 119.879 c 235.688
 119.879 234.953 121.332 234.953 122.941 c 234.953 124.566 235.641 126.004
 236.953 126.004 c 238.156 126.004 238.938 124.566 238.938 122.941 c h
238.078 122.941 m 238.078 124.238 237.953 125.754 236.953 125.754 c 236
 125.754 235.812 124.238 235.812 122.941 c 235.812 121.863 235.938 120.113
 236.953 120.113 c 237.953 120.113 238.078 121.863 238.078 122.941 c h
238.078 122.941 m f
263.148 125.895 m 263.148 125.754 l 262.555 125.754 262.336 125.77 262.336
 124.598 c 262.336 124.582 262.336 119.848 262.336 119.848 c 262.211 119.848
 l 260.68 120.582 l 260.727 120.723 l 261.055 120.582 261.133 120.551 261.258
 120.551 c 261.523 120.551 261.57 120.785 261.57 121.098 c 261.57 124.598
 l 261.57 125.77 261.352 125.738 260.758 125.754 c 260.758 125.895 l h
263.148 125.895 m f
265.82 125.52 m 265.82 125.238 265.602 125.02 265.32 125.02 c 265.039 125.02
 264.82 125.238 264.82 125.52 c 264.82 125.801 265.039 126.02 265.32 126.02
 c 265.602 126.02 265.82 125.801 265.82 125.52 c h
265.82 125.52 m f
270.738 122.941 m 270.738 121.332 270.004 119.879 268.754 119.879 c 267.488
 119.879 266.754 121.332 266.754 122.941 c 266.754 124.566 267.441 126.004
 268.754 126.004 c 269.957 126.004 270.738 124.566 270.738 122.941 c h
269.879 122.941 m 269.879 124.238 269.754 125.754 268.754 125.754 c 267.801
 125.754 267.613 124.238 267.613 122.941 c 267.613 121.863 267.738 120.113
 268.754 120.113 c 269.754 120.113 269.879 121.863 269.879 122.941 c h
269.879 122.941 m f
292.129 124.738 m 291.973 124.707 l 291.707 125.16 291.488 125.238 291.051
 125.238 c 288.988 125.238 l 290.41 123.941 291.707 122.77 291.707 121.457
 c 291.707 120.535 290.91 119.879 290.035 119.879 c 289.176 119.879 288.488
 120.348 288.223 121.566 c 288.426 121.566 l 288.676 121.066 289.02 120.551
 289.707 120.551 c 290.488 120.551 290.926 121.145 290.926 121.816 c 290.926
 122.785 289.895 124.207 288.129 125.754 c 288.129 125.895 l 291.66 125.895
 l h
292.129 124.738 m f
294.383 125.52 m 294.383 125.238 294.164 125.02 293.883 125.02 c 293.602
 125.02 293.383 125.238 293.383 125.52 c 293.383 125.801 293.602 126.02 
293.883 126.02 c 294.164 126.02 294.383 125.801 294.383 125.52 c h
294.383 125.52 m f
299.297 122.941 m 299.297 121.332 298.562 119.879 297.312 119.879 c 296.047
 119.879 295.312 121.332 295.312 122.941 c 295.312 124.566 296 126.004 297.312
 126.004 c 298.516 126.004 299.297 124.566 299.297 122.941 c h
298.438 122.941 m 298.438 124.238 298.312 125.754 297.312 125.754 c 296.359
 125.754 296.172 124.238 296.172 122.941 c 296.172 121.863 296.297 120.113
 297.312 120.113 c 298.312 120.113 298.438 121.863 298.438 122.941 c h
298.438 122.941 m f
320.191 123.957 m 320.191 123.02 319.645 122.613 319.113 122.395 c 319.691
 121.957 319.879 121.551 319.879 121.066 c 319.879 120.551 319.457 119.879
 318.488 119.879 c 317.785 119.879 317.113 120.27 316.816 121.238 c 316.957
 121.27 l 317.145 120.91 317.504 120.457 318.16 120.457 c 318.801 120.457
 319.176 120.895 319.176 121.395 c 319.176 122.098 318.629 122.598 317.816
 122.785 c 317.801 122.973 l 319.191 122.91 319.535 123.816 319.535 124.379
 c 319.535 125.051 319.051 125.66 318.41 125.66 c 317.832 125.66 317.582
 125.16 317.098 125.16 c 316.941 125.16 316.754 125.316 316.754 125.52 c
 316.754 125.895 317.316 126.004 317.723 126.004 c 319.145 126.004 320.191
 125.191 320.191 123.957 c h
320.191 123.957 m f
322.461 125.52 m 322.461 125.238 322.242 125.02 321.961 125.02 c 321.68
 125.02 321.461 125.238 321.461 125.52 c 321.461 125.801 321.68 126.02 321.961
 126.02 c 322.242 126.02 322.461 125.801 322.461 125.52 c h
322.461 125.52 m f
327.375 122.941 m 327.375 121.332 326.641 119.879 325.391 119.879 c 324.125
 119.879 323.391 121.332 323.391 122.941 c 323.391 124.566 324.078 126.004
 325.391 126.004 c 326.594 126.004 327.375 124.566 327.375 122.941 c h
326.516 122.941 m 326.516 124.238 326.391 125.754 325.391 125.754 c 324.438
 125.754 324.25 124.238 324.25 122.941 c 324.25 121.863 324.375 120.113 
325.391 120.113 c 326.391 120.113 326.516 121.863 326.516 122.941 c h
326.516 122.941 m f
348.754 124.41 m 348.754 123.801 l 347.879 123.801 l 347.879 119.879 l 
347.441 119.879 l 344.848 123.785 l 344.848 124.41 l 347.145 124.41 l 347.145
 125.895 l 347.879 125.895 l 347.879 124.41 l h
347.145 123.801 m 345.207 123.801 l 347.129 120.816 l 347.145 120.816 l
 h
347.145 123.801 m f
351.02 125.52 m 351.02 125.238 350.801 125.02 350.52 125.02 c 350.238 125.02
 350.02 125.238 350.02 125.52 c 350.02 125.801 350.238 126.02 350.52 126.02
 c 350.801 126.02 351.02 125.801 351.02 125.52 c h
351.02 125.52 m f
355.938 122.941 m 355.938 121.332 355.203 119.879 353.953 119.879 c 352.688
 119.879 351.953 121.332 351.953 122.941 c 351.953 124.566 352.641 126.004
 353.953 126.004 c 355.156 126.004 355.938 124.566 355.938 122.941 c h
355.078 122.941 m 355.078 124.238 354.953 125.754 353.953 125.754 c 353
 125.754 352.812 124.238 352.812 122.941 c 352.812 121.863 352.938 120.113
 353.953 120.113 c 354.953 120.113 355.078 121.863 355.078 122.941 c h
355.078 122.941 m f
216.242 116.93 5.484 0.453 re f
226.113 117.477 m 226.113 116.539 225.566 116.133 225.035 115.914 c 225.613
 115.477 225.801 115.07 225.801 114.586 c 225.801 114.07 225.379 113.398
 224.41 113.398 c 223.707 113.398 223.035 113.789 222.738 114.758 c 222.879
 114.789 l 223.066 114.43 223.426 113.977 224.082 113.977 c 224.723 113.977
 225.098 114.414 225.098 114.914 c 225.098 115.617 224.551 116.117 223.738
 116.305 c 223.723 116.492 l 225.113 116.43 225.457 117.336 225.457 117.898
 c 225.457 118.57 224.973 119.18 224.332 119.18 c 223.754 119.18 223.504
 118.68 223.02 118.68 c 222.863 118.68 222.676 118.836 222.676 119.039 c
 222.676 119.414 223.238 119.523 223.645 119.523 c 225.066 119.523 226.113
 118.711 226.113 117.477 c h
226.113 117.477 m f
228.383 119.039 m 228.383 118.758 228.164 118.539 227.883 118.539 c 227.602
 118.539 227.383 118.758 227.383 119.039 c 227.383 119.32 227.602 119.539
 227.883 119.539 c 228.164 119.539 228.383 119.32 228.383 119.039 c h
228.383 119.039 m f
233.297 116.461 m 233.297 114.852 232.562 113.398 231.312 113.398 c 230.047
 113.398 229.312 114.852 229.312 116.461 c 229.312 118.086 230 119.523 231.312
 119.523 c 232.516 119.523 233.297 118.086 233.297 116.461 c h
232.438 116.461 m 232.438 117.758 232.312 119.273 231.312 119.273 c 230.359
 119.273 230.172 117.758 230.172 116.461 c 230.172 115.383 230.297 113.633
 231.312 113.633 c 232.312 113.633 232.438 115.383 232.438 116.461 c h
232.438 116.461 m f
215.883 100.73 5.484 0.453 re f
226.129 102.059 m 225.973 102.027 l 225.707 102.48 225.488 102.559 225.051
 102.559 c 222.988 102.559 l 224.41 101.262 225.707 100.09 225.707 98.777
 c 225.707 97.855 224.91 97.199 224.035 97.199 c 223.176 97.199 222.488 
97.668 222.223 98.887 c 222.426 98.887 l 222.676 98.387 223.02 97.871 223.707
 97.871 c 224.488 97.871 224.926 98.465 224.926 99.137 c 224.926 100.105
 223.895 101.527 222.129 103.074 c 222.129 103.215 l 225.66 103.215 l h
226.129 102.059 m f
228.383 102.84 m 228.383 102.559 228.164 102.34 227.883 102.34 c 227.602
 102.34 227.383 102.559 227.383 102.84 c 227.383 103.121 227.602 103.34 
227.883 103.34 c 228.164 103.34 228.383 103.121 228.383 102.84 c h
228.383 102.84 m f
233.234 97.293 m 230.766 97.293 l 229.656 99.84 l 229.797 99.809 229.938
 99.777 230.109 99.777 c 231.062 99.777 232.359 100.277 232.359 101.449 
c 232.359 102.355 231.703 102.934 231.078 102.934 c 230.531 102.934 230.328
 102.434 229.812 102.434 c 229.562 102.434 229.484 102.652 229.484 102.762
 c 229.484 103.074 229.922 103.324 230.547 103.324 c 231.891 103.324 232.953
 102.34 232.953 101.137 c 232.953 99.715 231.828 99.23 230.609 99.199 c 
230.5 99.199 230.375 99.215 230.266 99.23 c 230.828 97.965 l 232.922 97.949
 l h
233.234 97.293 m f
215.883 84.531 5.484 0.453 re f
226.129 85.859 m 225.973 85.828 l 225.707 86.281 225.488 86.359 225.051
 86.359 c 222.988 86.359 l 224.41 85.062 225.707 83.891 225.707 82.578 c
 225.707 81.656 224.91 81 224.035 81 c 223.176 81 222.488 81.469 222.223
 82.688 c 222.426 82.688 l 222.676 82.188 223.02 81.672 223.707 81.672 c
 224.488 81.672 224.926 82.266 224.926 82.938 c 224.926 83.906 223.895 85.328
 222.129 86.875 c 222.129 87.016 l 225.66 87.016 l h
226.129 85.859 m f
228.383 86.641 m 228.383 86.359 228.164 86.141 227.883 86.141 c 227.602
 86.141 227.383 86.359 227.383 86.641 c 227.383 86.922 227.602 87.141 227.883
 87.141 c 228.164 87.141 228.383 86.922 228.383 86.641 c h
228.383 86.641 m f
233.297 84.062 m 233.297 82.453 232.562 81 231.312 81 c 230.047 81 229.312
 82.453 229.312 84.062 c 229.312 85.688 230 87.125 231.312 87.125 c 232.516
 87.125 233.297 85.688 233.297 84.062 c h
232.438 84.062 m 232.438 85.359 232.312 86.875 231.312 86.875 c 230.359
 86.875 230.172 85.359 230.172 84.062 c 230.172 82.984 230.297 81.234 231.312
 81.234 c 232.312 81.234 232.438 82.984 232.438 84.062 c h
232.438 84.062 m f
216.242 68.332 5.484 0.453 re f
225.707 70.816 m 225.707 70.676 l 225.113 70.676 224.895 70.691 224.895
 69.52 c 224.895 69.504 224.895 64.77 224.895 64.77 c 224.77 64.77 l 223.238
 65.504 l 223.285 65.645 l 223.613 65.504 223.691 65.473 223.816 65.473 
c 224.082 65.473 224.129 65.707 224.129 66.02 c 224.129 69.52 l 224.129 
70.691 223.91 70.66 223.316 70.676 c 223.316 70.816 l h
225.707 70.816 m f
228.383 70.441 m 228.383 70.16 228.164 69.941 227.883 69.941 c 227.602 
69.941 227.383 70.16 227.383 70.441 c 227.383 70.723 227.602 70.941 227.883
 70.941 c 228.164 70.941 228.383 70.723 228.383 70.441 c h
228.383 70.441 m f
233.234 64.895 m 230.766 64.895 l 229.656 67.441 l 229.797 67.41 229.938
 67.379 230.109 67.379 c 231.062 67.379 232.359 67.879 232.359 69.051 c 
232.359 69.957 231.703 70.535 231.078 70.535 c 230.531 70.535 230.328 70.035
 229.812 70.035 c 229.562 70.035 229.484 70.254 229.484 70.363 c 229.484
 70.676 229.922 70.926 230.547 70.926 c 231.891 70.926 232.953 69.941 232.953
 68.738 c 232.953 67.316 231.828 66.832 230.609 66.801 c 230.5 66.801 230.375
 66.816 230.266 66.832 c 230.828 65.566 l 232.922 65.551 l h
233.234 64.895 m f
216.242 52.133 5.484 0.453 re f
225.707 54.617 m 225.707 54.477 l 225.113 54.477 224.895 54.492 224.895
 53.32 c 224.895 53.305 224.895 48.57 224.895 48.57 c 224.77 48.57 l 223.238
 49.305 l 223.285 49.445 l 223.613 49.305 223.691 49.273 223.816 49.273 
c 224.082 49.273 224.129 49.508 224.129 49.82 c 224.129 53.32 l 224.129 
54.492 223.91 54.461 223.316 54.477 c 223.316 54.617 l h
225.707 54.617 m f
228.383 54.242 m 228.383 53.961 228.164 53.742 227.883 53.742 c 227.602
 53.742 227.383 53.961 227.383 54.242 c 227.383 54.523 227.602 54.742 227.883
 54.742 c 228.164 54.742 228.383 54.523 228.383 54.242 c h
228.383 54.242 m f
233.297 51.664 m 233.297 50.055 232.562 48.602 231.312 48.602 c 230.047
 48.602 229.312 50.055 229.312 51.664 c 229.312 53.289 230 54.727 231.312
 54.727 c 232.516 54.727 233.297 53.289 233.297 51.664 c h
232.438 51.664 m 232.438 52.961 232.312 54.477 231.312 54.477 c 230.359
 54.477 230.172 52.961 230.172 51.664 c 230.172 50.586 230.297 48.836 231.312
 48.836 c 232.312 48.836 232.438 50.586 232.438 51.664 c h
232.438 51.664 m f
216.242 35.93 5.484 0.453 re f
226.457 35.461 m 226.457 33.852 225.723 32.398 224.473 32.398 c 223.207
 32.398 222.473 33.852 222.473 35.461 c 222.473 37.086 223.16 38.523 224.473
 38.523 c 225.676 38.523 226.457 37.086 226.457 35.461 c h
225.598 35.461 m 225.598 36.758 225.473 38.273 224.473 38.273 c 223.52 
38.273 223.332 36.758 223.332 35.461 c 223.332 34.383 223.457 32.633 224.473
 32.633 c 225.473 32.633 225.598 34.383 225.598 35.461 c h
225.598 35.461 m f
228.383 38.039 m 228.383 37.758 228.164 37.539 227.883 37.539 c 227.602
 37.539 227.383 37.758 227.383 38.039 c 227.383 38.32 227.602 38.539 227.883
 38.539 c 228.164 38.539 228.383 38.32 228.383 38.039 c h
228.383 38.039 m f
233.234 32.492 m 230.766 32.492 l 229.656 35.039 l 229.797 35.008 229.938
 34.977 230.109 34.977 c 231.062 34.977 232.359 35.477 232.359 36.648 c 
232.359 37.555 231.703 38.133 231.078 38.133 c 230.531 38.133 230.328 37.633
 229.812 37.633 c 229.562 37.633 229.484 37.852 229.484 37.961 c 229.484
 38.273 229.922 38.523 230.547 38.523 c 231.891 38.523 232.953 37.539 232.953
 36.336 c 232.953 34.914 231.828 34.43 230.609 34.398 c 230.5 34.398 230.375
 34.414 230.266 34.43 c 230.828 33.164 l 232.922 33.148 l h
233.234 32.492 m f
233.297 19.262 m 233.297 17.652 232.562 16.199 231.312 16.199 c 230.047
 16.199 229.312 17.652 229.312 19.262 c 229.312 20.887 230 22.324 231.312
 22.324 c 232.516 22.324 233.297 20.887 233.297 19.262 c h
232.438 19.262 m 232.438 20.559 232.312 22.074 231.312 22.074 c 230.359
 22.074 230.172 20.559 230.172 19.262 c 230.172 18.184 230.297 16.434 231.312
 16.434 c 232.312 16.434 232.438 18.184 232.438 19.262 c h
232.438 19.262 m f
226.457 3.062 m 226.457 1.453 225.723 0 224.473 0 c 223.207 0 222.473 1.453
 222.473 3.062 c 222.473 4.688 223.16 6.125 224.473 6.125 c 225.676 6.125
 226.457 4.688 226.457 3.062 c h
225.598 3.062 m 225.598 4.359 225.473 5.875 224.473 5.875 c 223.52 5.875
 223.332 4.359 223.332 3.062 c 223.332 1.984 223.457 0.234 224.473 0.234
 c 225.473 0.234 225.598 1.984 225.598 3.062 c h
225.598 3.062 m f
228.383 5.641 m 228.383 5.359 228.164 5.141 227.883 5.141 c 227.602 5.141
 227.383 5.359 227.383 5.641 c 227.383 5.922 227.602 6.141 227.883 6.141
 c 228.164 6.141 228.383 5.922 228.383 5.641 c h
228.383 5.641 m f
233.234 0.094 m 230.766 0.094 l 229.656 2.641 l 229.797 2.609 229.938 2.578
 230.109 2.578 c 231.062 2.578 232.359 3.078 232.359 4.25 c 232.359 5.156
 231.703 5.734 231.078 5.734 c 230.531 5.734 230.328 5.234 229.812 5.234
 c 229.562 5.234 229.484 5.453 229.484 5.562 c 229.484 5.875 229.922 6.125
 230.547 6.125 c 231.891 6.125 232.953 5.141 232.953 3.938 c 232.953 2.516
 231.828 2.031 230.609 2 c 230.5 2 230.375 2.016 230.266 2.031 c 230.828
 0.766 l 232.922 0.75 l h
233.234 0.094 m f
274.496 138.414 m 274.371 138.32 l 274.184 138.555 273.855 138.992 273.668
 138.992 c 273.59 138.992 273.543 138.945 273.543 138.836 c 273.543 138.742
 273.621 138.523 273.668 138.352 c 273.668 138.352 274.199 136.398 274.199
 136.352 c 274.262 136.164 274.293 135.977 274.293 135.852 c 274.293 135.398
 274.012 135.242 273.793 135.242 c 273.059 135.242 272.23 136.211 271.652
 137.242 c 271.652 137.242 271.98 136.195 271.98 135.836 c 271.98 135.602
 271.887 135.242 271.465 135.242 c 270.637 135.242 269.605 136.836 269.387
 137.242 c 269.918 135.242 l 269.918 135.242 268.699 135.477 268.434 135.492
 c 268.434 135.648 l 268.762 135.648 269.027 135.617 269.027 135.977 c 269.027
 136.148 268.949 136.43 268.871 136.711 c 268.871 136.711 268.152 139.102
 268.105 139.336 c 268.793 139.336 l 268.949 138.742 l 269.465 136.805 270.715
 135.742 271.059 135.742 c 271.199 135.742 271.293 135.789 271.293 135.992
 c 271.293 136.133 271.184 136.539 271.121 136.805 c 271.121 136.805 270.496
 139.023 270.418 139.336 c 271.09 139.336 l 271.246 138.742 l 271.793 136.727
 273.012 135.742 273.371 135.742 c 273.496 135.742 273.59 135.836 273.59
 135.977 c 273.59 136.07 273.496 136.477 273.402 136.805 c 273.043 138.148
 l 272.949 138.477 272.871 138.883 272.871 139.023 c 272.871 139.258 272.996
 139.445 273.199 139.445 c 273.652 139.445 274.137 138.93 274.496 138.414
 c h
274.496 138.414 m f
275.32 137.133 m 275.898 137.164 275.977 137.242 275.977 137.758 c 275.977
 140.852 l 275.977 141.383 275.883 141.461 275.32 141.492 c 275.32 141.617
 l 277.648 141.617 l 278.18 141.617 278.68 141.477 278.945 141.227 c 279.195
 141.008 279.32 140.695 279.32 140.367 c 279.32 140.055 279.211 139.773 
278.992 139.57 c 278.773 139.383 278.586 139.305 278.133 139.195 c 278.492
 139.102 278.648 139.039 278.805 138.883 c 278.992 138.727 279.086 138.477
 279.086 138.195 c 279.086 137.414 278.461 137.008 277.258 137.008 c 275.32
 137.008 l h
276.695 139.352 m 277.367 139.352 277.695 139.383 277.945 139.492 c 278.336
 139.648 278.523 139.945 278.523 140.367 c 278.523 140.742 278.383 141.023
 278.102 141.18 c 277.883 141.305 277.586 141.352 277.133 141.352 c 276.789
 141.352 276.695 141.289 276.695 141.07 c h
276.695 139.07 m 276.695 137.477 l 276.695 137.32 276.727 137.273 276.852
 137.273 c 277.148 137.258 l 277.93 137.242 278.383 137.602 278.383 138.211
 c 278.383 138.773 278.023 139.055 277.352 139.07 c h
276.695 139.07 m f
284.262 132.898 m 283.824 132.898 l 280.715 141.258 l 281.168 141.258 l
 h
284.262 132.898 m f
284.938 139.336 m 286.938 139.336 l 286.938 139.195 l 286.469 139.195 286.328
 139.102 286.328 138.742 c 286.328 136.211 l 286.328 136.195 286.391 136.102
 286.453 136.039 c 286.688 135.836 287.062 135.68 287.375 135.68 c 287.781
 135.68 287.969 135.992 287.969 136.617 c 287.969 138.57 l 287.953 139.07
 287.859 139.18 287.359 139.195 c 287.359 139.336 l 289.375 139.336 l 289.375
 139.195 l 288.875 139.195 288.75 139.055 288.719 138.477 c 288.719 136.227
 l 289 135.836 289.281 135.68 289.703 135.68 c 290.219 135.68 290.375 135.914
 290.375 136.664 c 290.375 138.555 l 290.359 139.086 290.297 139.148 289.781
 139.195 c 289.781 139.336 l 291.75 139.336 l 291.75 139.195 l 291.516 139.18
 l 291.234 139.133 291.125 139.008 291.125 138.648 c 291.125 136.805 l 291.125
 135.742 290.781 135.211 290.094 135.211 c 289.562 135.211 289.109 135.445
 288.625 135.961 c 288.469 135.445 288.156 135.211 287.672 135.211 c 287.266
 135.211 287.031 135.32 286.281 135.898 c 286.281 135.227 l 286.219 135.211
 l 285.75 135.383 285.438 135.477 284.969 135.617 c 284.969 135.773 l 285.078
 135.742 285.156 135.727 285.25 135.727 c 285.484 135.727 285.562 135.867
 285.562 136.305 c 285.562 138.57 l 285.547 139.07 285.438 139.195 284.938
 139.195 c h
284.938 139.336 m f
294.004 135.211 m 292.816 135.211 292.02 136.07 292.02 137.305 c 292.02
 138.523 292.848 139.43 293.973 139.43 c 295.113 139.43 295.973 138.477 
295.973 137.242 c 295.973 136.055 295.145 135.211 294.004 135.211 c h
293.879 135.461 m 294.629 135.461 295.16 136.32 295.16 137.555 c 295.16
 138.57 294.754 139.18 294.082 139.18 c 293.738 139.18 293.41 138.961 293.223
 138.602 c 292.957 138.133 292.816 137.508 292.816 136.867 c 292.816 136.023
 293.238 135.461 293.879 135.461 c h
293.879 135.461 m f
296.383 139.336 m 298.508 139.336 l 298.508 139.195 l 297.93 139.18 297.836
 139.086 297.82 138.586 c 297.82 133.227 l 297.789 133.211 l 297.336 133.352
 297.008 133.445 296.367 133.602 c 296.367 133.742 l 296.414 133.742 l 296.523
 133.742 296.633 133.727 296.695 133.727 c 296.992 133.727 297.07 133.852
 297.07 134.273 c 297.07 138.555 l 297.07 139.039 296.945 139.164 296.383
 139.195 c h
296.383 139.336 m f
300.34 139.336 m 302.434 139.336 l 302.434 139.195 l 302.262 139.195 l 
301.887 139.164 301.777 139.07 301.762 138.742 c 301.762 137.086 l 303.027
 138.758 l 303.059 138.805 303.09 138.852 303.105 138.883 c 303.184 138.961
 303.215 139.023 303.215 139.07 c 303.215 139.148 303.137 139.195 303.027
 139.195 c 302.855 139.195 l 302.855 139.336 l 304.809 139.336 l 304.809
 139.195 l 304.418 139.18 304.137 139.008 303.762 138.539 c 302.387 136.805
 l 302.652 136.57 l 303.762 135.555 304.012 135.414 304.59 135.43 c 304.59
 135.305 l 302.746 135.305 l 302.746 135.43 l 303.105 135.43 303.199 135.477
 303.199 135.586 c 303.199 135.664 303.121 135.789 302.996 135.898 c 301.762
 136.992 l 301.762 133.227 l 301.73 133.211 l 301.387 133.32 301.121 133.398
 300.605 133.539 c 300.34 133.602 l 300.34 133.742 l 300.449 133.742 300.543
 133.727 300.621 133.727 c 300.934 133.727 301.012 133.852 301.012 134.273
 c 301.012 138.602 l 300.996 139.07 300.98 139.102 300.34 139.195 c h
300.34 139.336 m f
308.934 135.852 m 308.934 135.508 l 308.246 135.508 l 308.059 135.508 307.918
 135.477 307.746 135.414 c 307.543 135.352 l 307.309 135.258 307.059 135.211
 306.824 135.211 c 305.996 135.211 305.34 135.852 305.34 136.68 c 305.34
 137.242 305.574 137.57 306.168 137.867 c 305.934 138.086 l 305.746 138.273
 305.637 138.367 305.605 138.398 c 305.418 138.602 305.371 138.695 305.371
 138.852 c 305.371 139.055 305.465 139.148 305.84 139.32 c 305.199 139.789
 304.965 140.086 304.965 140.414 c 304.965 140.898 305.652 141.289 306.512
 141.289 c 307.184 141.289 307.887 141.055 308.355 140.68 c 308.699 140.398
 308.855 140.117 308.855 139.773 c 308.855 139.227 308.434 138.852 307.762
 138.82 c 306.605 138.758 l 306.121 138.742 305.902 138.664 305.902 138.523
 c 305.902 138.336 306.199 138.023 306.449 137.961 c 306.762 137.977 306.934
 137.992 306.965 137.992 c 307.293 137.992 307.652 137.867 307.918 137.617
 c 308.215 137.367 308.355 137.055 308.355 136.617 c 308.355 136.352 308.309
 136.148 308.184 135.852 c h
306.027 139.352 m 306.34 139.414 307.043 139.477 307.496 139.477 c 308.309
 139.477 308.605 139.586 308.605 139.914 c 308.605 140.43 307.918 140.773
 306.902 140.773 c 306.105 140.773 305.59 140.523 305.59 140.133 c 305.59
 139.914 305.668 139.789 306.027 139.352 c h
306.074 136.305 m 306.074 135.773 306.324 135.461 306.746 135.461 c 307.027
 135.461 307.246 135.617 307.402 135.883 c 307.574 136.195 307.668 136.602
 307.668 136.961 c 307.668 137.461 307.418 137.773 306.996 137.773 c 306.449
 137.773 306.074 137.195 306.074 136.336 c h
306.074 136.305 m f
309.578 133.863 4.703 0.438 re f
317.832 136.098 m 317.832 135.91 l 317.301 135.91 317.129 135.91 317.129
 135.066 c 317.129 135.051 317.129 131.395 317.129 131.395 c 316.957 131.395
 l 315.613 131.973 l 315.691 132.16 l 316.004 132.035 316.066 132.02 316.16
 132.02 c 316.363 132.02 316.379 132.191 316.379 132.395 c 316.379 135.066
 l 316.379 135.91 316.223 135.895 315.691 135.91 c 315.691 136.098 l h
317.832 136.098 m f
291.035 153.312 m 290.379 153.75 290.113 153.969 289.77 154.391 c 289.145
 155.172 288.832 156.062 288.832 157.109 c 288.832 158.266 289.16 159.141
 289.941 160.047 c 290.316 160.484 290.551 160.672 291.02 160.969 c 291.113
 160.812 l 290.41 160.25 290.16 159.938 289.91 159.266 c 289.691 158.672
 289.598 158 289.598 157.094 c 289.598 156.141 289.707 155.406 289.957 154.859
 c 290.207 154.297 290.473 153.969 291.113 153.453 c h
291.035 153.312 m f
292.77 153.266 m 292.723 153.25 l 292.348 153.375 292.113 153.453 291.676
 153.578 c 291.426 153.641 l 291.426 153.781 l 291.473 153.781 291.504 153.781
 291.566 153.781 c 291.926 153.781 292.02 153.859 292.02 154.234 c 292.02
 158.891 l 292.02 159.172 292.77 159.469 293.488 159.469 c 294.676 159.469
 295.598 158.484 295.598 157.203 c 295.598 156.078 294.91 155.25 294.02 
155.25 c 293.473 155.25 292.941 155.562 292.77 156.016 c h
292.77 156.484 m 292.77 156.141 293.191 155.812 293.66 155.812 c 293.91
 155.812 294.129 155.906 294.316 156.078 c 294.598 156.359 294.801 156.969
 294.801 157.609 c 294.801 158.609 294.379 159.172 293.645 159.172 c 293.176
 159.172 292.77 158.984 292.77 158.75 c h
292.77 156.484 m f
296.18 160.969 m 296.836 160.516 297.117 160.297 297.445 159.891 c 298.086
 159.109 298.398 158.203 298.398 157.156 c 298.398 156.016 298.055 155.141
 297.273 154.234 c 296.898 153.797 296.664 153.594 296.211 153.312 c 296.102
 153.453 l 296.82 154.016 297.055 154.328 297.305 155 c 297.523 155.609 
297.617 156.281 297.617 157.188 c 297.617 158.125 297.508 158.859 297.258
 159.406 c 297.023 159.969 296.742 160.297 296.102 160.812 c h
296.18 160.969 m f
206.367 78.711 m 206.367 78.898 l 207.445 79.367 207.742 79.914 207.742
 80.867 c 207.742 81.742 l 207.742 81.992 207.758 82.398 207.352 82.398 
c 207.258 82.398 206.945 82.32 206.82 82.289 c 203.07 81.242 l 202.414 81.07
 202.164 80.789 202.164 80.383 c 202.023 80.352 l 202.023 82.648 l 202.164
 82.664 l 202.164 82.383 202.195 81.992 202.602 81.992 c 202.727 81.992 
202.867 82.023 203.195 82.117 c 207.023 83.18 l 207.93 83.43 207.914 83.773
 207.914 84.102 c 208.07 84.117 l 208.07 79.273 l h
206.367 78.711 m f
205.863 77.949 m 205.895 77.371 205.973 77.293 206.488 77.293 c 209.582
 77.293 l 210.113 77.293 210.191 77.387 210.223 77.949 c 210.348 77.949 
l 210.348 75.621 l 210.348 75.09 210.207 74.59 209.957 74.324 c 209.738 
74.074 209.426 73.949 209.098 73.949 c 208.785 73.949 208.504 74.059 208.301
 74.277 c 208.113 74.496 208.035 74.684 207.926 75.137 c 207.832 74.777 
207.77 74.621 207.613 74.465 c 207.457 74.277 207.207 74.184 206.926 74.184
 c 206.145 74.184 205.738 74.809 205.738 76.012 c 205.738 77.949 l h
208.082 76.574 m 208.082 75.902 208.113 75.574 208.223 75.324 c 208.379
 74.934 208.676 74.746 209.098 74.746 c 209.473 74.746 209.754 74.887 209.91
 75.168 c 210.035 75.387 210.082 75.684 210.082 76.137 c 210.082 76.48 210.02
 76.574 209.801 76.574 c h
207.801 76.574 m 206.207 76.574 l 206.051 76.574 206.004 76.543 206.004
 76.418 c 205.988 76.121 l 205.973 75.34 206.332 74.887 206.941 74.887 c
 207.504 74.887 207.785 75.246 207.801 75.918 c h
207.801 76.574 m f
201.633 69.008 m 201.633 69.445 l 209.992 72.555 l 209.992 72.102 l h
201.633 69.008 m f
208.07 68.414 m 208.07 66.32 l 207.93 66.32 l 207.93 66.492 l 207.898 66.867
 207.805 66.977 207.477 66.992 c 205.82 66.992 l 207.492 65.727 l 207.539
 65.695 207.586 65.664 207.617 65.648 c 207.695 65.57 207.758 65.539 207.805
 65.539 c 207.883 65.539 207.93 65.617 207.93 65.727 c 207.93 65.898 l 208.07
 65.898 l 208.07 63.945 l 207.93 63.945 l 207.914 64.336 207.742 64.617 
207.273 64.992 c 205.539 66.367 l 205.305 66.102 l 204.289 64.992 204.148
 64.742 204.164 64.164 c 204.039 64.164 l 204.039 66.008 l 204.164 66.008
 l 204.164 65.648 204.211 65.555 204.32 65.555 c 204.398 65.555 204.523 
65.633 204.633 65.758 c 205.727 66.992 l 201.961 66.992 l 201.945 67.023
 l 202.055 67.367 202.133 67.633 202.273 68.148 c 202.336 68.414 l 202.477
 68.414 l 202.477 68.305 202.461 68.211 202.461 68.133 c 202.461 67.82 202.586
 67.742 203.008 67.742 c 207.336 67.742 l 207.805 67.758 207.836 67.773 
207.93 68.414 c h
208.07 68.414 m f
202.133 60.723 m 202.133 63.285 l 202.305 63.285 l 202.352 62.566 202.445
 62.473 203.117 62.457 c 207.258 62.457 l 207.664 62.457 207.852 62.566 
207.852 62.801 c 207.852 62.926 207.789 62.973 207.555 63.035 c 207.242 
63.129 207.102 63.27 207.102 63.504 c 207.102 63.754 207.305 63.941 207.555
 63.941 c 207.93 63.941 208.195 63.582 208.195 63.051 c 208.195 62.082 207.555
 61.535 206.43 61.535 c 203.117 61.535 l 202.445 61.52 202.352 61.441 202.305
 60.723 c h
202.133 60.723 m f
208.07 58.734 m 208.07 56.734 l 207.93 56.734 l 207.93 57.203 207.836 57.344
 207.477 57.344 c 204.945 57.344 l 204.93 57.344 204.836 57.281 204.773 
57.219 c 204.57 56.984 204.414 56.609 204.414 56.297 c 204.414 55.891 204.727
 55.703 205.352 55.703 c 207.305 55.703 l 207.805 55.719 207.914 55.812 
207.93 56.312 c 208.07 56.312 l 208.07 54.297 l 207.93 54.297 l 207.93 54.797
 207.789 54.922 207.211 54.953 c 204.961 54.953 l 204.57 54.672 204.414 
54.391 204.414 53.969 c 204.414 53.453 204.648 53.297 205.398 53.297 c 207.289
 53.297 l 207.82 53.312 207.883 53.375 207.93 53.891 c 208.07 53.891 l 208.07
 51.922 l 207.93 51.922 l 207.914 52.156 l 207.867 52.438 207.742 52.547
 207.383 52.547 c 205.539 52.547 l 204.477 52.547 203.945 52.891 203.945
 53.578 c 203.945 54.109 204.18 54.562 204.695 55.047 c 204.18 55.203 203.945
 55.516 203.945 56 c 203.945 56.406 204.055 56.641 204.633 57.391 c 203.961
 57.391 l 203.945 57.453 l 204.117 57.922 204.211 58.234 204.352 58.703 
c 204.508 58.703 l 204.477 58.594 204.461 58.516 204.461 58.422 c 204.461
 58.188 204.602 58.109 205.039 58.109 c 207.305 58.109 l 207.805 58.125 
207.93 58.234 207.93 58.734 c h
208.07 58.734 m f
203.945 49.664 m 203.945 50.852 204.805 51.648 206.039 51.648 c 207.258
 51.648 208.164 50.82 208.164 49.695 c 208.164 48.555 207.211 47.695 205.977
 47.695 c 204.789 47.695 203.945 48.523 203.945 49.664 c h
204.195 49.789 m 204.195 49.039 205.055 48.508 206.289 48.508 c 207.305
 48.508 207.914 48.914 207.914 49.586 c 207.914 49.93 207.695 50.258 207.336
 50.445 c 206.867 50.711 206.242 50.852 205.602 50.852 c 204.758 50.852 
204.195 50.43 204.195 49.789 c h
204.195 49.789 m f
208.07 47.289 m 208.07 45.164 l 207.93 45.164 l 207.914 45.742 207.82 45.836
 207.32 45.852 c 201.961 45.852 l 201.945 45.883 l 202.086 46.336 202.18
 46.664 202.336 47.305 c 202.477 47.305 l 202.477 47.258 l 202.477 47.148
 202.461 47.039 202.461 46.977 c 202.461 46.68 202.586 46.602 203.008 46.602
 c 207.289 46.602 l 207.773 46.602 207.898 46.727 207.93 47.289 c h
208.07 47.289 m f
202.594 39.832 0.438 4.703 re f
204.828 36.281 m 204.641 36.281 l 204.641 36.812 204.641 36.984 203.797
 36.984 c 203.781 36.984 200.125 36.984 200.125 36.984 c 200.125 37.156 
l 200.703 38.5 l 200.891 38.422 l 200.766 38.109 200.75 38.047 200.75 37.953
 c 200.75 37.75 200.922 37.734 201.125 37.734 c 203.797 37.734 l 204.641
 37.734 204.625 37.891 204.641 38.422 c 204.828 38.422 l h
204.828 36.281 m f
Q Q
showpage
%%Trailer
end
%%EOF
