%!PS-Adobe-3.0 EPSF-3.0
%%Creator: cairo 1.17.4 (https://cairographics.org)
%%CreationDate: Thu Feb 24 10:49:03 2022
%%Pages: 1
%%DocumentData: Clean7Bit
%%LanguageLevel: 2
%%BoundingBox: 0 0 359 180
%%EndComments
%%BeginProlog
50 dict begin
/q { gsave } bind def
/Q { grestore } bind def
/cm { 6 array astore concat } bind def
/w { setlinewidth } bind def
/J { setlinecap } bind def
/j { setlinejoin } bind def
/M { setmiterlimit } bind def
/d { setdash } bind def
/m { moveto } bind def
/l { lineto } bind def
/c { curveto } bind def
/h { closepath } bind def
/re { exch dup neg 3 1 roll 5 3 roll moveto 0 rlineto
      0 exch rlineto 0 rlineto closepath } bind def
/S { stroke } bind def
/f { fill } bind def
/f* { eofill } bind def
/n { newpath } bind def
/W { clip } bind def
/W* { eoclip } bind def
/BT { } bind def
/ET { } bind def
/BDC { mark 3 1 roll /BDC pdfmark } bind def
/EMC { mark /EMC pdfmark } bind def
/cairo_store_point { /cairo_point_y exch def /cairo_point_x exch def } def
/Tj { show currentpoint cairo_store_point } bind def
/TJ {
  {
    dup
    type /stringtype eq
    { show } { -0.001 mul 0 cairo_font_matrix dtransform rmoveto } ifelse
  } forall
  currentpoint cairo_store_point
} bind def
/cairo_selectfont { cairo_font_matrix aload pop pop pop 0 0 6 array astore
    cairo_font exch selectfont cairo_point_x cairo_point_y moveto } bind def
/Tf { pop /cairo_font exch def /cairo_font_matrix where
      { pop cairo_selectfont } if } bind def
/Td { matrix translate cairo_font_matrix matrix concatmatrix dup
      /cairo_font_matrix exch def dup 4 get exch 5 get cairo_store_point
      /cairo_font where { pop cairo_selectfont } if } bind def
/Tm { 2 copy 8 2 roll 6 array astore /cairo_font_matrix exch def
      cairo_store_point /cairo_font where { pop cairo_selectfont } if } bind def
/g { setgray } bind def
/rg { setrgbcolor } bind def
/d1 { setcachedevice } bind def
/cairo_data_source {
  CairoDataIndex CairoData length lt
    { CairoData CairoDataIndex get /CairoDataIndex CairoDataIndex 1 add def }
    { () } ifelse
} def
/cairo_flush_ascii85_file { cairo_ascii85_file status { cairo_ascii85_file flushfile } if } def
/cairo_image { image cairo_flush_ascii85_file } def
/cairo_imagemask { imagemask cairo_flush_ascii85_file } def
%%EndProlog
%%BeginSetup
%%EndSetup
%%Page: 1 1
%%BeginPageSetup
%%PageBoundingBox: 0 0 359 180
%%EndPageSetup
q 0 0 359 180 rectclip
1 0 0 -1 0 180 cm q
0 g
0.85036 w
0 J
0 j
[] 0.0 d
10 M q 1 0 0 -1 0 0 cm
35.34 -3.051 m 35.34 -3.051 36.039 -11.289 36.703 -15.582 c 37.051 -17.852
 37.504 -19.879 38.062 -22.113 c 38.445 -23.648 38.867 -25.043 39.426 -26.543
 c 39.844 -27.66 40.262 -28.641 40.785 -29.723 c 41.203 -30.559 41.625 -31.293
 42.148 -32.094 c 42.566 -32.723 42.984 -33.246 43.508 -33.805 c 43.926 
-34.258 44.383 -34.645 44.871 -35.027 c 45.324 -35.375 45.742 -35.656 46.23
 -35.934 c 46.684 -36.18 47.105 -36.32 47.594 -36.492 c 48.047 -36.633 48.465
 -36.738 48.953 -36.844 c 49.406 -36.945 49.828 -36.98 50.316 -37.016 c 
50.77 -37.051 51.188 -37.086 51.676 -37.051 c 52.129 -37.051 52.551 -37.016
 53.039 -36.98 c 53.492 -36.945 53.91 -36.879 54.398 -36.809 c 54.852 -36.738
 55.273 -36.668 55.762 -36.562 c 56.215 -36.457 56.633 -36.355 57.121 -36.25
 c 57.578 -36.145 57.996 -36.039 58.484 -35.934 c 58.938 -35.828 59.355 
-35.727 59.844 -35.621 c 60.301 -35.516 60.719 -35.41 61.207 -35.305 c 61.66
 -35.168 62.078 -35.062 62.566 -34.922 c 63.023 -34.816 63.441 -34.715 63.93
 -34.609 c 64.383 -34.504 64.801 -34.398 65.289 -34.293 c 65.746 -34.188
 66.164 -34.121 66.652 -34.016 c 67.105 -33.945 67.523 -33.875 68.012 -33.805
 c 68.469 -33.734 68.887 -33.633 69.375 -33.562 c 69.828 -33.527 70.246 
-33.492 70.703 -33.457 c 71.191 -33.387 71.609 -33.352 72.062 -33.316 c 
72.551 -33.281 72.969 -33.211 73.426 -33.211 c 73.914 -33.211 74.332 -33.211
 74.785 -33.211 c 75.273 -33.211 75.691 -33.211 76.148 -33.211 c 76.637 
-33.211 77.055 -33.281 77.508 -33.316 c 77.996 -33.352 78.414 -33.387 78.871
 -33.457 c 79.359 -33.492 79.777 -33.598 80.23 -33.664 c 80.719 -33.734 
81.137 -33.805 81.594 -33.91 c 82.082 -33.98 82.5 -34.086 82.953 -34.223
 c 83.441 -34.328 83.863 -34.434 84.316 -34.574 c 84.805 -34.715 85.223 
-34.816 85.676 -34.992 c 86.164 -35.133 86.586 -35.305 87.039 -35.48 c 87.527
 -35.656 87.945 -35.828 88.398 -36.039 c 88.887 -36.215 89.309 -36.387 89.762
 -36.598 c 90.25 -36.844 90.668 -37.016 91.121 -37.262 c 91.609 -37.469 
92.031 -37.68 92.484 -37.926 c 92.973 -38.168 93.391 -38.414 93.844 -38.691
 c 94.332 -38.973 94.754 -39.215 95.207 -39.531 c 95.695 -39.809 96.113 
-40.09 96.566 -40.367 c 97.055 -40.684 97.477 -40.926 97.93 -41.242 c 98.418
 -41.555 98.836 -41.867 99.289 -42.184 c 99.777 -42.531 100.199 -42.848 
100.652 -43.195 c 101.141 -43.543 101.559 -43.859 102.012 -44.242 c 102.469
 -44.59 102.922 -44.906 103.375 -45.289 c 103.863 -45.676 104.281 -46.023
 104.734 -46.406 c 105.191 -46.789 105.645 -47.141 106.098 -47.559 c 106.551
 -47.941 106.969 -48.328 107.457 -48.711 c 107.914 -49.129 108.367 -49.48
 108.82 -49.898 c 109.273 -50.316 109.727 -50.699 110.18 -51.121 c 110.637
 -51.574 111.055 -51.957 111.543 -52.41 c 111.996 -52.828 112.449 -53.18
 112.902 -53.633 c 113.359 -54.051 113.777 -54.469 114.266 -54.926 c 114.719
 -55.379 115.137 -55.762 115.625 -56.215 c 116.082 -56.668 116.5 -57.09 
116.988 -57.508 c 117.441 -57.961 117.859 -58.344 118.352 -58.801 c 118.805
 -59.254 119.223 -59.672 119.711 -60.125 c 120.164 -60.543 120.582 -60.93
 121.074 -61.383 c 121.527 -61.801 121.945 -62.219 122.434 -62.641 c 122.887
 -63.094 123.305 -63.477 123.797 -63.93 c 124.25 -64.348 124.668 -64.734
 125.156 -65.152 c 125.609 -65.57 126.027 -65.953 126.52 -66.375 c 126.973
 -66.793 127.391 -67.141 127.879 -67.562 c 128.332 -67.945 128.754 -68.328
 129.242 -68.711 c 129.695 -69.098 130.113 -69.445 130.602 -69.828 c 131.055
 -70.18 131.477 -70.492 131.965 -70.844 c 132.418 -71.191 132.836 -71.504
 133.289 -71.855 c 133.777 -72.168 134.199 -72.449 134.652 -72.762 c 135.141
 -73.074 135.559 -73.32 136.012 -73.633 c 136.5 -73.914 136.922 -74.156 
137.375 -74.402 c 137.863 -74.648 138.281 -74.855 138.734 -75.066 c 139.223
 -75.273 139.645 -75.484 140.098 -75.66 c 140.586 -75.832 141.004 -76.008
 141.457 -76.148 c 141.945 -76.324 142.367 -76.426 142.82 -76.531 c 143.309
 -76.637 143.727 -76.707 144.18 -76.742 c 144.668 -76.812 145.09 -76.848
 145.543 -76.848 c 146.031 -76.848 146.449 -76.812 146.902 -76.742 c 147.391
 -76.707 147.812 -76.602 148.266 -76.496 c 148.754 -76.355 149.172 -76.254
 149.625 -76.078 c 150.113 -75.867 150.535 -75.66 150.988 -75.379 c 151.477
 -75.137 151.895 -74.855 152.348 -74.543 c 152.84 -74.156 153.258 -73.809
 153.711 -73.391 c 154.199 -72.938 154.617 -72.484 155.07 -71.992 c 155.562
 -71.434 155.98 -70.875 156.434 -70.285 c 156.957 -69.586 157.34 -68.922
 157.793 -68.188 c 158.285 -67.352 158.703 -66.582 159.156 -65.746 c 159.68
 -64.734 160.062 -63.859 160.516 -62.812 c 161.008 -61.66 161.461 -60.613
 161.879 -59.426 c 162.402 -58.031 162.785 -56.809 163.242 -55.379 c 163.766
 -53.773 164.184 -52.305 164.602 -50.664 c 165.125 -48.746 165.543 -47.035
 165.965 -45.082 c 166.488 -42.812 166.906 -40.754 167.324 -38.414 c 167.848
 -35.621 168.266 -33.105 168.688 -30.281 c 169.211 -26.648 169.664 -23.402
 170.047 -19.773 c 170.641 -14.012 171.41 -3.051 171.41 -3.051 c S Q
q 1 0 0 -1 0 0 cm
35.34 -3.051 m 35.34 -3.051 36.074 -13.383 36.703 -18.797 c 37.086 -22.145
 37.539 -25.113 38.062 -28.465 c 38.48 -31.047 38.902 -33.352 39.426 -35.934
 c 39.844 -38.062 40.262 -39.984 40.785 -42.113 c 41.203 -43.93 41.66 -45.535
 42.148 -47.316 c 42.602 -48.887 43.02 -50.281 43.508 -51.852 c 43.961 -53.215
 44.383 -54.438 44.871 -55.797 c 45.324 -57.02 45.742 -58.102 46.23 -59.289
 c 46.684 -60.371 47.105 -61.348 47.594 -62.43 c 48.047 -63.406 48.465 -64.312
 48.953 -65.293 c 49.406 -66.164 49.828 -66.934 50.316 -67.805 c 50.77 -68.645
 51.188 -69.375 51.676 -70.18 c 52.129 -70.91 52.551 -71.574 53.039 -72.309
 c 53.492 -73.008 53.91 -73.602 54.398 -74.262 c 54.852 -74.891 55.273 -75.484
 55.762 -76.113 c 56.215 -76.707 56.633 -77.23 57.121 -77.789 c 57.578 -78.348
 57.996 -78.871 58.484 -79.43 c 58.938 -79.953 59.355 -80.406 59.844 -80.93
 c 60.301 -81.418 60.719 -81.871 61.207 -82.363 c 61.66 -82.852 62.078 -83.234
 62.566 -83.688 c 63.023 -84.141 63.441 -84.559 63.93 -85.016 c 64.383 -85.434
 64.801 -85.816 65.289 -86.234 c 65.746 -86.656 66.164 -87.039 66.652 -87.457
 c 67.105 -87.84 67.523 -88.191 68.012 -88.574 c 68.469 -88.992 68.887 -89.344
 69.375 -89.727 c 69.828 -90.109 70.246 -90.461 70.703 -90.809 c 71.191 
-91.191 71.609 -91.508 72.062 -91.855 c 72.551 -92.207 72.969 -92.555 73.426
 -92.902 c 73.914 -93.254 74.332 -93.602 74.785 -93.949 c 75.273 -94.301
 75.691 -94.613 76.148 -94.93 c 76.637 -95.277 77.055 -95.59 77.508 -95.941
 c 77.996 -96.289 78.414 -96.602 78.871 -96.953 c 79.359 -97.266 79.777 
-97.547 80.23 -97.895 c 80.719 -98.242 81.137 -98.559 81.594 -98.871 c 82.082
 -99.223 82.5 -99.5 82.953 -99.852 c 83.441 -100.164 83.863 -100.477 84.316
 -100.793 c 84.805 -101.105 85.223 -101.422 85.676 -101.734 c 86.164 -102.051
 86.586 -102.328 87.039 -102.641 c 87.527 -102.957 87.945 -103.27 88.398
 -103.586 c 88.887 -103.934 89.309 -104.18 89.762 -104.527 c 90.25 -104.84
 90.668 -105.156 91.121 -105.469 c 91.609 -105.785 92.031 -106.062 92.484
 -106.379 c 92.973 -106.691 93.391 -106.973 93.844 -107.285 c 94.332 -107.598
 94.754 -107.879 95.207 -108.191 c 95.66 -108.473 96.113 -108.75 96.566 
-109.031 c 97.055 -109.344 97.477 -109.66 97.93 -109.938 c 98.383 -110.254
 98.836 -110.531 99.289 -110.812 c 99.742 -111.125 100.164 -111.371 100.652
 -111.684 c 101.105 -111.961 101.559 -112.207 102.012 -112.484 c 102.469
 -112.766 102.922 -113.012 103.375 -113.324 c 103.828 -113.602 104.281 -113.848
 104.734 -114.125 c 105.191 -114.406 105.609 -114.684 106.098 -114.93 c 
106.551 -115.211 107.004 -115.418 107.457 -115.664 c 107.914 -115.941 108.332
 -116.188 108.82 -116.43 c 109.273 -116.676 109.691 -116.883 110.18 -117.129
 c 110.637 -117.375 111.055 -117.617 111.543 -117.828 c 111.996 -118.07 
112.414 -118.281 112.902 -118.492 c 113.359 -118.699 113.777 -118.875 114.266
 -119.082 c 114.719 -119.258 115.137 -119.469 115.625 -119.641 c 116.082
 -119.852 116.5 -120.027 116.988 -120.199 c 117.441 -120.375 117.859 -120.551
 118.352 -120.688 c 118.805 -120.863 119.223 -120.969 119.711 -121.109 c
 120.164 -121.246 120.582 -121.387 121.074 -121.527 c 121.527 -121.633 121.945
 -121.738 122.434 -121.84 c 122.887 -121.945 123.305 -122.016 123.797 -122.121
 c 124.25 -122.191 124.668 -122.262 125.156 -122.332 c 125.609 -122.398 
126.027 -122.434 126.52 -122.469 c 126.973 -122.504 127.391 -122.504 127.879
 -122.504 c 128.332 -122.504 128.754 -122.504 129.242 -122.469 c 129.695
 -122.434 130.113 -122.434 130.602 -122.363 c 131.055 -122.332 131.477 -122.297
 131.965 -122.191 c 132.418 -122.121 132.836 -122.016 133.289 -121.875 c
 133.777 -121.773 134.199 -121.633 134.652 -121.457 c 135.141 -121.316 135.559
 -121.18 136.012 -120.969 c 136.5 -120.758 136.922 -120.586 137.375 -120.34
 c 137.863 -120.098 138.281 -119.852 138.734 -119.574 c 139.223 -119.258
 139.645 -118.98 140.098 -118.664 c 140.586 -118.316 141.004 -118 141.457
 -117.617 c 141.945 -117.234 142.367 -116.852 142.82 -116.43 c 143.309 -115.977
 143.727 -115.559 144.18 -115.07 c 144.668 -114.547 145.09 -114.094 145.543
 -113.535 c 146.031 -112.941 146.449 -112.383 146.902 -111.754 c 147.391
 -111.09 147.812 -110.496 148.266 -109.832 c 148.754 -109.102 149.172 -108.438
 149.625 -107.668 c 150.113 -106.867 150.535 -106.098 150.988 -105.227 c
 151.477 -104.352 151.895 -103.516 152.348 -102.609 c 152.84 -101.594 153.258
 -100.652 153.711 -99.605 c 154.199 -98.488 154.617 -97.477 155.07 -96.359
 c 155.562 -95.102 155.98 -94.02 156.434 -92.766 c 156.922 -91.402 157.34
 -90.145 157.793 -88.785 c 158.285 -87.25 158.703 -85.887 159.156 -84.387
 c 159.645 -82.676 160.062 -81.176 160.516 -79.465 c 161.008 -77.613 161.426
 -75.938 161.879 -74.09 c 162.367 -71.992 162.785 -70.145 163.242 -68.051
 c 163.73 -65.711 164.148 -63.617 164.602 -61.277 c 165.09 -58.66 165.508
 -56.285 165.965 -53.633 c 166.453 -50.598 166.871 -47.906 167.324 -44.871
 c 167.848 -41.309 168.266 -38.133 168.688 -34.574 c 169.211 -30.246 169.664
 -26.336 170.047 -21.973 c 170.641 -15.445 171.41 -3.051 171.41 -3.051 c
 S Q
q 1 0 0 -1 0 0 cm
35.34 -3.051 m 35.48 -6.648 l 35.621 -9.578 l 35.758 -12.301 l 35.898 -14.887
 l 36.039 -17.328 l 36.145 -19.703 l 36.281 -21.973 l 36.562 -26.371 l 36.703
 -28.465 l 36.84 -30.488 l 36.98 -32.547 l 37.121 -34.539 l 37.262 -36.492
 l 37.398 -38.379 l 37.504 -40.227 l 37.645 -42.113 l 37.785 -43.93 l 37.922
 -45.742 l 38.062 -47.488 l 38.203 -49.27 l 38.344 -50.98 l 38.48 -52.727
 l 38.762 -56.078 l 38.867 -57.75 l 39.004 -59.391 l 39.145 -60.965 l 39.285
 -62.57 l 39.426 -64.141 l 39.562 -65.746 l 39.984 -70.352 l 40.086 -71.855
 l 40.367 -74.855 l 40.508 -76.289 l 40.645 -77.789 l 40.785 -79.219 l 40.926
 -80.652 l 41.066 -82.047 l 41.203 -83.512 l 41.344 -84.91 l 41.449 -86.27
 l 41.59 -87.668 l 41.727 -89.027 l 41.867 -90.391 l 42.008 -91.75 l 42.148
 -93.078 l 42.285 -94.406 l 42.426 -95.766 l 42.566 -97.059 l 42.707 -98.348
 l 42.809 -99.641 l 42.949 -100.934 l 43.09 -102.188 l 43.23 -103.48 l 43.367
 -104.738 l 43.508 -105.992 l 43.648 -107.215 l 43.789 -108.473 l 43.926
 -109.695 l 44.066 -110.914 l 44.172 -112.137 l 44.312 -113.359 l 44.449
 -114.547 l 44.59 -115.699 l 44.73 -116.883 l 44.871 -118.07 l 45.008 -119.258
 l 45.148 -120.445 l 45.289 -121.562 l 45.395 -122.75 l 45.535 -123.867 
l 45.672 -125.02 l 45.812 -126.137 l 45.953 -127.285 l 46.09 -128.367 l 
46.371 -130.602 l 46.512 -131.684 l 46.648 -132.766 l 46.754 -133.848 l 
46.895 -134.93 l 47.035 -136.047 l 47.176 -137.062 l 47.312 -138.18 l 47.418
 -139.121 l S Q
q 1 0 0 -1 0 0 cm
171.41 -3.051 m 171.27 -6.648 l 171.129 -9.578 l 170.988 -12.301 l 170.852
 -14.887 l 170.711 -17.328 l 170.605 -19.703 l 170.465 -21.973 l 170.328
 -24.172 l 170.188 -26.371 l 170.047 -28.465 l 169.906 -30.488 l 169.77 
-32.547 l 169.629 -34.539 l 169.488 -36.492 l 169.348 -38.379 l 169.246 
-40.227 l 169.105 -42.113 l 168.965 -43.93 l 168.824 -45.742 l 168.688 -47.488
 l 168.547 -49.27 l 168.406 -50.98 l 168.266 -52.727 l 168.129 -54.402 l
 167.988 -56.078 l 167.883 -57.75 l 167.742 -59.391 l 167.605 -60.965 l 
167.465 -62.57 l 167.324 -64.141 l 167.184 -65.746 l 167.047 -67.281 l 166.766
 -70.352 l 166.625 -71.855 l 166.523 -73.355 l 166.383 -74.855 l 166.242
 -76.289 l 166.102 -77.789 l 165.965 -79.219 l 165.824 -80.652 l 165.684
 -82.047 l 165.543 -83.512 l 165.406 -84.91 l 165.266 -86.27 l 165.16 -87.668
 l 165.02 -89.027 l 164.883 -90.391 l 164.742 -91.75 l 164.461 -94.406 l
 164.324 -95.766 l 164.184 -97.059 l 164.043 -98.348 l 163.902 -99.641 l
 163.801 -100.934 l 163.66 -102.188 l 163.52 -103.48 l 163.379 -104.738 
l 163.242 -105.992 l 163.102 -107.215 l 162.961 -108.473 l 162.82 -109.695
 l 162.684 -110.914 l 162.578 -112.137 l 162.438 -113.359 l 162.297 -114.547
 l 162.156 -115.699 l 162.02 -116.883 l 161.738 -119.258 l 161.602 -120.445
 l 161.461 -121.562 l 161.32 -122.75 l 161.215 -123.867 l 161.074 -125.02
 l 160.938 -126.137 l 160.797 -127.285 l 160.656 -128.367 l 160.516 -129.484
 l 160.379 -130.602 l 160.098 -132.766 l 159.961 -133.848 l 159.855 -134.93
 l 159.715 -136.047 l 159.574 -137.062 l 159.434 -138.18 l 159.297 -139.121
 l S Q
0.425175 w
q 1 0 0 -1 0 0 cm
35.348 -31.332 m 39.281 -32.996 l 40.852 -33.66 m 44.785 -35.328 l 46.359
 -35.992 m 50.293 -37.656 l 51.863 -38.324 m 55.797 -39.988 l 57.371 -40.652
 m 61.301 -42.316 l 62.875 -42.984 m 66.809 -44.648 l 68.379 -45.312 m 72.312
 -46.98 l 73.887 -47.645 m 77.82 -49.309 l 79.391 -49.977 m 83.324 -51.641
 l 84.898 -52.305 m 88.828 -53.969 l 90.402 -54.637 m 94.336 -56.301 l 95.91
 -56.965 m 99.84 -58.633 l 101.414 -59.297 m 105.348 -60.961 l 106.922 -61.629
 m 110.852 -63.293 l 112.426 -63.957 m 116.355 -65.621 l 117.93 -66.289 
m 121.863 -67.953 l 123.438 -68.617 m 127.367 -70.281 l 128.941 -70.949 
m 132.875 -72.613 l 134.445 -73.277 m 138.379 -74.945 l 139.953 -75.609 
m 143.887 -77.273 l 145.457 -77.941 m 149.391 -79.605 l 150.965 -80.27 m
 154.895 -81.934 l 156.469 -82.602 m 160.402 -84.266 l 161.977 -84.93 m 
165.906 -86.598 l 167.48 -87.262 m 171.402 -88.922 l S Q
1 g
141.465 75.477 m 141.465 74.457 140.637 73.629 139.617 73.629 c 138.598
 73.629 137.77 74.457 137.77 75.477 c 137.77 76.496 138.598 77.324 139.617
 77.324 c 140.637 77.324 141.465 76.496 141.465 75.477 c f
0 g
141.465 75.477 m 141.465 74.457 140.637 73.629 139.617 73.629 c 138.598
 73.629 137.77 74.457 137.77 75.477 c 137.77 76.496 138.598 77.324 139.617
 77.324 c 140.637 77.324 141.465 76.496 141.465 75.477 c h
141.465 75.477 m 141.277 75.477 l 141.277 74.559 140.535 73.816 139.617
 73.816 c 138.699 73.816 137.957 74.559 137.957 75.477 c 137.957 76.395 
138.699 77.137 139.617 77.137 c 140.535 77.137 141.277 76.395 141.277 75.477
 c f
1 g
48.766 36.277 m 48.766 35.258 47.938 34.43 46.918 34.43 c 45.898 34.43 
45.07 35.258 45.07 36.277 c 45.07 37.297 45.898 38.125 46.918 38.125 c 47.938
 38.125 48.766 37.297 48.766 36.277 c f
0 g
48.766 36.277 m 48.766 35.258 47.938 34.43 46.918 34.43 c 45.898 34.43 
45.07 35.258 45.07 36.277 c 45.07 37.297 45.898 38.125 46.918 38.125 c 47.938
 38.125 48.766 37.297 48.766 36.277 c h
48.766 36.277 m 48.578 36.277 l 48.578 35.359 47.836 34.617 46.918 34.617
 c 46 34.617 45.258 35.359 45.258 36.277 c 45.258 37.195 46 37.938 46.918
 37.938 c 47.836 37.938 48.578 37.195 48.578 36.277 c f
0.567041 w
q 1 0 0 -1 0 0 cm
35.324 -3.07 136.07 -136.066 re S Q
0.398506 w
q 1 0 0 -1 0 0 cm
35.336 -139.133 m 35.336 -134.871 l S Q
q 1 0 0 -1 0 0 cm
62.547 -139.133 m 62.547 -134.871 l S Q
q 1 0 0 -1 0 0 cm
89.793 -139.133 m 89.793 -134.871 l S Q
q 1 0 0 -1 0 0 cm
117.004 -139.133 m 117.004 -134.871 l S Q
q 1 0 0 -1 0 0 cm
144.215 -139.133 m 144.215 -134.871 l S Q
q 1 0 0 -1 0 0 cm
171.426 -139.133 m 171.426 -134.871 l S Q
q 1 0 0 -1 0 0 cm
35.336 -139.133 m 35.336 -134.871 l S Q
0.398507 w
q 1 0 0 -1 0 0 cm
35.348 -139.125 m 39.605 -139.125 l S Q
0.398506 w
q 1 0 0 -1 0 0 cm
35.355 -93.762 m 39.617 -93.762 l S Q
q 1 0 0 -1 0 0 cm
35.363 -48.414 m 39.586 -48.414 l S Q
0.398508 w
q 1 0 0 -1 0 0 cm
35.34 -3.051 m 39.598 -3.051 l S Q
0.398507 w
q 1 0 0 -1 0 0 cm
35.348 -139.125 m 39.605 -139.125 l S Q
0.398506 w
q 1 0 0 -1 0 0 cm
35.324 -3.07 m 35.324 -7.328 l S Q
q 1 0 0 -1 0 0 cm
62.555 -3.07 m 62.555 -7.328 l S Q
q 1 0 0 -1 0 0 cm
89.781 -3.07 m 89.781 -7.328 l S Q
q 1 0 0 -1 0 0 cm
116.973 -3.07 m 116.973 -7.328 l S Q
q 1 0 0 -1 0 0 cm
144.199 -3.07 m 144.199 -7.328 l S Q
q 1 0 0 -1 0 0 cm
171.395 -3.07 m 171.395 -7.328 l S Q
q 1 0 0 -1 0 0 cm
35.324 -3.07 m 35.324 -7.328 l S Q
0.398507 w
q 1 0 0 -1 0 0 cm
171.398 -139.125 m 167.176 -139.125 l S Q
0.398506 w
q 1 0 0 -1 0 0 cm
171.422 -93.762 m 167.16 -93.762 l S Q
q 1 0 0 -1 0 0 cm
171.418 -48.414 m 167.16 -48.414 l S Q
0.398508 w
q 1 0 0 -1 0 0 cm
171.41 -3.051 m 167.148 -3.051 l S Q
0.398507 w
q 1 0 0 -1 0 0 cm
171.398 -139.125 m 167.176 -139.125 l S Q
37.301 145.652 m 37.301 144.043 36.566 142.59 35.316 142.59 c 34.051 142.59
 33.316 144.043 33.316 145.652 c 33.316 147.277 34.004 148.715 35.316 148.715
 c 36.52 148.715 37.301 147.277 37.301 145.652 c h
36.441 145.652 m 36.441 146.949 36.316 148.465 35.316 148.465 c 34.363 
148.465 34.176 146.949 34.176 145.652 c 34.176 144.574 34.301 142.824 35.316
 142.824 c 36.316 142.824 36.441 144.574 36.441 145.652 c h
36.441 145.652 m f
61.184 145.652 m 61.184 144.043 60.449 142.59 59.199 142.59 c 57.934 142.59
 57.199 144.043 57.199 145.652 c 57.199 147.277 57.887 148.715 59.199 148.715
 c 60.402 148.715 61.184 147.277 61.184 145.652 c h
60.324 145.652 m 60.324 146.949 60.199 148.465 59.199 148.465 c 58.246 
148.465 58.059 146.949 58.059 145.652 c 58.059 144.574 58.184 142.824 59.199
 142.824 c 60.199 142.824 60.324 144.574 60.324 145.652 c h
60.324 145.652 m f
63.105 148.23 m 63.105 147.949 62.887 147.73 62.605 147.73 c 62.324 147.73
 62.105 147.949 62.105 148.23 c 62.105 148.512 62.324 148.73 62.605 148.73
 c 62.887 148.73 63.105 148.512 63.105 148.23 c h
63.105 148.23 m f
68.055 147.449 m 67.898 147.418 l 67.633 147.871 67.414 147.949 66.977 
147.949 c 64.914 147.949 l 66.336 146.652 67.633 145.48 67.633 144.168 c
 67.633 143.246 66.836 142.59 65.961 142.59 c 65.102 142.59 64.414 143.059
 64.148 144.277 c 64.352 144.277 l 64.602 143.777 64.945 143.262 65.633 
143.262 c 66.414 143.262 66.852 143.855 66.852 144.527 c 66.852 145.496 
65.82 146.918 64.055 148.465 c 64.055 148.605 l 67.586 148.605 l h
68.055 147.449 m f
88.301 145.652 m 88.301 144.043 87.566 142.59 86.316 142.59 c 85.051 142.59
 84.316 144.043 84.316 145.652 c 84.316 147.277 85.004 148.715 86.316 148.715
 c 87.52 148.715 88.301 147.277 88.301 145.652 c h
87.441 145.652 m 87.441 146.949 87.316 148.465 86.316 148.465 c 85.363 
148.465 85.176 146.949 85.176 145.652 c 85.176 144.574 85.301 142.824 86.316
 142.824 c 87.316 142.824 87.441 144.574 87.441 145.652 c h
87.441 145.652 m f
90.227 148.23 m 90.227 147.949 90.008 147.73 89.727 147.73 c 89.445 147.73
 89.227 147.949 89.227 148.23 c 89.227 148.512 89.445 148.73 89.727 148.73
 c 90.008 148.73 90.227 148.512 90.227 148.23 c h
90.227 148.23 m f
95.156 147.121 m 95.156 146.512 l 94.281 146.512 l 94.281 142.59 l 93.844
 142.59 l 91.25 146.496 l 91.25 147.121 l 93.547 147.121 l 93.547 148.605
 l 94.281 148.605 l 94.281 147.121 l h
93.547 146.512 m 91.609 146.512 l 93.531 143.527 l 93.547 143.527 l h
93.547 146.512 m f
115.543 145.652 m 115.543 144.043 114.809 142.59 113.559 142.59 c 112.293
 142.59 111.559 144.043 111.559 145.652 c 111.559 147.277 112.246 148.715
 113.559 148.715 c 114.762 148.715 115.543 147.277 115.543 145.652 c h
114.684 145.652 m 114.684 146.949 114.559 148.465 113.559 148.465 c 112.605
 148.465 112.418 146.949 112.418 145.652 c 112.418 144.574 112.543 142.824
 113.559 142.824 c 114.559 142.824 114.684 144.574 114.684 145.652 c h
114.684 145.652 m f
117.465 148.23 m 117.465 147.949 117.246 147.73 116.965 147.73 c 116.684
 147.73 116.465 147.949 116.465 148.23 c 116.465 148.512 116.684 148.73 
116.965 148.73 c 117.246 148.73 117.465 148.512 117.465 148.23 c h
117.465 148.23 m f
122.336 146.59 m 122.336 145.605 121.633 144.871 120.742 144.871 c 120.289
 144.871 119.914 145.012 119.523 145.324 c 119.914 143.73 121.086 142.73
 122.211 142.715 c 122.211 142.559 l 119.445 142.559 118.57 144.902 118.57
 146.23 c 118.57 147.652 119.398 148.715 120.508 148.715 c 121.523 148.715
 122.336 147.762 122.336 146.59 c h
121.57 147.043 m 121.57 147.871 121.195 148.449 120.602 148.449 c 119.68
 148.449 119.398 147.105 119.398 146.387 c 119.398 146.152 119.43 145.902
 119.477 145.605 c 119.867 145.355 120.18 145.246 120.492 145.246 c 121.398
 145.246 121.57 146.293 121.57 147.043 c h
121.57 147.043 m f
142.781 145.652 m 142.781 144.043 142.047 142.59 140.797 142.59 c 139.531
 142.59 138.797 144.043 138.797 145.652 c 138.797 147.277 139.484 148.715
 140.797 148.715 c 142 148.715 142.781 147.277 142.781 145.652 c h
141.922 145.652 m 141.922 146.949 141.797 148.465 140.797 148.465 c 139.844
 148.465 139.656 146.949 139.656 145.652 c 139.656 144.574 139.781 142.824
 140.797 142.824 c 141.797 142.824 141.922 144.574 141.922 145.652 c h
141.922 145.652 m f
144.707 148.23 m 144.707 147.949 144.488 147.73 144.207 147.73 c 143.926
 147.73 143.707 147.949 143.707 148.23 c 143.707 148.512 143.926 148.73 
144.207 148.73 c 144.488 148.73 144.707 148.512 144.707 148.23 c h
144.707 148.23 m f
149.355 147.23 m 149.355 146.59 149.074 146.105 147.98 145.293 c 148.668
 144.918 149.199 144.496 149.199 143.84 c 149.199 143.152 148.559 142.559
 147.605 142.559 c 146.762 142.559 145.965 143.105 145.965 143.949 c 145.965
 144.605 146.309 144.996 147.074 145.605 c 146.215 146.262 145.902 146.59
 145.902 147.262 c 145.902 148.012 146.574 148.715 147.621 148.715 c 148.84
 148.715 149.355 147.887 149.355 147.23 c h
148.59 143.824 m 148.59 144.465 148.215 144.809 147.73 145.137 c 147.137
 144.715 146.621 144.246 146.621 143.73 c 146.621 143.246 146.965 142.824
 147.574 142.824 c 148.246 142.824 148.59 143.246 148.59 143.824 c h
148.715 147.48 m 148.715 148.059 148.277 148.449 147.699 148.449 c 147.012
 148.449 146.574 147.902 146.574 147.168 c 146.574 146.496 146.902 146.105
 147.309 145.762 c 148.293 146.512 148.715 146.887 148.715 147.48 c h
148.715 147.48 m f
169.27 148.605 m 169.27 148.465 l 168.676 148.465 168.457 148.48 168.457
 147.309 c 168.457 147.293 168.457 142.559 168.457 142.559 c 168.332 142.559
 l 166.801 143.293 l 166.848 143.434 l 167.176 143.293 167.254 143.262 167.379
 143.262 c 167.645 143.262 167.691 143.496 167.691 143.809 c 167.691 147.309
 l 167.691 148.48 167.473 148.449 166.879 148.465 c 166.879 148.605 l h
169.27 148.605 m f
171.945 148.23 m 171.945 147.949 171.727 147.73 171.445 147.73 c 171.164
 147.73 170.945 147.949 170.945 148.23 c 170.945 148.512 171.164 148.73 
171.445 148.73 c 171.727 148.73 171.945 148.512 171.945 148.23 c h
171.945 148.23 m f
176.859 145.652 m 176.859 144.043 176.125 142.59 174.875 142.59 c 173.609
 142.59 172.875 144.043 172.875 145.652 c 172.875 147.277 173.562 148.715
 174.875 148.715 c 176.078 148.715 176.859 147.277 176.859 145.652 c h
176 145.652 m 176 146.949 175.875 148.465 174.875 148.465 c 173.922 148.465
 173.734 146.949 173.734 145.652 c 173.734 144.574 173.859 142.824 174.875
 142.824 c 175.875 142.824 176 144.574 176 145.652 c h
176 145.652 m f
14.609 139.641 5.484 0.453 re f
24.82 139.172 m 24.82 137.562 24.086 136.109 22.836 136.109 c 21.57 136.109
 20.836 137.562 20.836 139.172 c 20.836 140.797 21.523 142.234 22.836 142.234
 c 24.039 142.234 24.82 140.797 24.82 139.172 c h
23.961 139.172 m 23.961 140.469 23.836 141.984 22.836 141.984 c 21.883 
141.984 21.695 140.469 21.695 139.172 c 21.695 138.094 21.82 136.344 22.836
 136.344 c 23.836 136.344 23.961 138.094 23.961 139.172 c h
23.961 139.172 m f
26.746 141.75 m 26.746 141.469 26.527 141.25 26.246 141.25 c 25.965 141.25
 25.746 141.469 25.746 141.75 c 25.746 142.031 25.965 142.25 26.246 142.25
 c 26.527 142.25 26.746 142.031 26.746 141.75 c h
26.746 141.75 m f
31.316 140.188 m 31.316 139.25 30.77 138.844 30.238 138.625 c 30.816 138.188
 31.004 137.781 31.004 137.297 c 31.004 136.781 30.582 136.109 29.613 136.109
 c 28.91 136.109 28.238 136.5 27.941 137.469 c 28.082 137.5 l 28.27 137.141
 28.629 136.688 29.285 136.688 c 29.926 136.688 30.301 137.125 30.301 137.625
 c 30.301 138.328 29.754 138.828 28.941 139.016 c 28.926 139.203 l 30.316
 139.141 30.66 140.047 30.66 140.609 c 30.66 141.281 30.176 141.891 29.535
 141.891 c 28.957 141.891 28.707 141.391 28.223 141.391 c 28.066 141.391
 27.879 141.547 27.879 141.75 c 27.879 142.125 28.441 142.234 28.848 142.234
 c 30.27 142.234 31.316 141.422 31.316 140.188 c h
31.316 140.188 m f
14.609 94.281 5.484 0.453 re f
24.82 93.812 m 24.82 92.203 24.086 90.75 22.836 90.75 c 21.57 90.75 20.836
 92.203 20.836 93.812 c 20.836 95.438 21.523 96.875 22.836 96.875 c 24.039
 96.875 24.82 95.438 24.82 93.812 c h
23.961 93.812 m 23.961 95.109 23.836 96.625 22.836 96.625 c 21.883 96.625
 21.695 95.109 21.695 93.812 c 21.695 92.734 21.82 90.984 22.836 90.984 
c 23.836 90.984 23.961 92.734 23.961 93.812 c h
23.961 93.812 m f
26.746 96.391 m 26.746 96.109 26.527 95.891 26.246 95.891 c 25.965 95.891
 25.746 96.109 25.746 96.391 c 25.746 96.672 25.965 96.891 26.246 96.891
 c 26.527 96.891 26.746 96.672 26.746 96.391 c h
26.746 96.391 m f
31.691 95.609 m 31.535 95.578 l 31.27 96.031 31.051 96.109 30.613 96.109
 c 28.551 96.109 l 29.973 94.812 31.27 93.641 31.27 92.328 c 31.27 91.406
 30.473 90.75 29.598 90.75 c 28.738 90.75 28.051 91.219 27.785 92.438 c 
27.988 92.438 l 28.238 91.938 28.582 91.422 29.27 91.422 c 30.051 91.422
 30.488 92.016 30.488 92.688 c 30.488 93.656 29.457 95.078 27.691 96.625
 c 27.691 96.766 l 31.223 96.766 l h
31.691 95.609 m f
14.609 48.922 5.484 0.453 re f
24.82 48.453 m 24.82 46.844 24.086 45.391 22.836 45.391 c 21.57 45.391 
20.836 46.844 20.836 48.453 c 20.836 50.078 21.523 51.516 22.836 51.516 
c 24.039 51.516 24.82 50.078 24.82 48.453 c h
23.961 48.453 m 23.961 49.75 23.836 51.266 22.836 51.266 c 21.883 51.266
 21.695 49.75 21.695 48.453 c 21.695 47.375 21.82 45.625 22.836 45.625 c
 23.836 45.625 23.961 47.375 23.961 48.453 c h
23.961 48.453 m f
26.746 51.031 m 26.746 50.75 26.527 50.531 26.246 50.531 c 25.965 50.531
 25.746 50.75 25.746 51.031 c 25.746 51.312 25.965 51.531 26.246 51.531 
c 26.527 51.531 26.746 51.312 26.746 51.031 c h
26.746 51.031 m f
30.91 51.406 m 30.91 51.266 l 30.316 51.266 30.098 51.281 30.098 50.109
 c 30.098 50.094 30.098 45.359 30.098 45.359 c 29.973 45.359 l 28.441 46.094
 l 28.488 46.234 l 28.816 46.094 28.895 46.062 29.02 46.062 c 29.285 46.062
 29.332 46.297 29.332 46.609 c 29.332 50.109 l 29.332 51.281 29.113 51.25
 28.52 51.266 c 28.52 51.406 l h
30.91 51.406 m f
31.664 3.094 m 31.664 1.484 30.93 0.031 29.68 0.031 c 28.414 0.031 27.68
 1.484 27.68 3.094 c 27.68 4.719 28.367 6.156 29.68 6.156 c 30.883 6.156
 31.664 4.719 31.664 3.094 c h
30.805 3.094 m 30.805 4.391 30.68 5.906 29.68 5.906 c 28.727 5.906 28.539
 4.391 28.539 3.094 c 28.539 2.016 28.664 0.266 29.68 0.266 c 30.68 0.266
 30.805 2.016 30.805 3.094 c h
30.805 3.094 m f
102.859 154.426 m 102.859 154.207 102.656 154.098 102.484 154.098 c 102.031
 154.098 101.453 154.77 101.016 155.473 c 101 155.473 100.938 155.176 100.938
 155.176 c 100.797 154.582 100.625 154.238 100.312 154.098 c 100.312 154.098
 99.297 154.301 99.172 154.348 c 99.172 154.504 l 99.359 154.457 99.5 154.426
 99.594 154.426 c 100.094 154.426 100.172 154.91 100.516 156.207 c 100.109
 156.801 99.469 157.801 99.219 157.801 c 99.016 157.801 99 157.582 98.719
 157.582 c 98.531 157.582 98.391 157.723 98.391 157.91 c 98.391 158.145 
98.562 158.301 98.812 158.301 c 99.453 158.301 100.031 157.176 100.578 156.473
 c 100.609 156.535 100.812 157.332 100.812 157.332 c 101.031 158.16 101.203
 158.301 101.422 158.301 c 101.703 158.301 102.125 158.02 102.547 157.238
 c 102.422 157.16 l 102.266 157.363 102.016 157.785 101.781 157.785 c 101.469
 157.785 101.297 156.52 101.078 155.723 c 101.125 155.645 101.75 154.645
 102.078 154.645 c 102.25 154.645 102.406 154.785 102.562 154.785 c 102.781
 154.785 102.859 154.598 102.859 154.426 c h
102.859 154.426 m f
108.062 160.348 m 107.75 160.316 107.672 160.254 107.438 159.738 c 105.703
 155.77 l 105.562 155.77 l 104.109 159.191 l 103.656 160.207 103.578 160.332
 103.25 160.348 c 103.25 160.473 l 104.625 160.473 l 104.625 160.348 l 104.297
 160.348 104.156 160.254 104.156 160.051 c 104.156 159.973 104.172 159.879
 104.203 159.785 c 104.531 158.973 l 106.359 158.973 l 106.641 159.629 l
 106.719 159.832 106.766 160.004 106.766 160.098 c 106.766 160.285 106.656
 160.332 106.281 160.348 c 106.281 160.473 l 108.062 160.473 l h
104.641 158.676 m 105.453 156.77 l 106.25 158.676 l h
104.641 158.676 m f
101.102 171.809 m 100.445 172.246 100.18 172.465 99.836 172.887 c 99.211
 173.668 98.898 174.559 98.898 175.605 c 98.898 176.762 99.227 177.637 100.008
 178.543 c 100.383 178.98 100.617 179.168 101.086 179.465 c 101.18 179.309
 l 100.477 178.746 100.227 178.434 99.977 177.762 c 99.758 177.168 99.664
 176.496 99.664 175.59 c 99.664 174.637 99.773 173.902 100.023 173.355 c
 100.273 172.793 100.539 172.465 101.18 171.949 c h
101.102 171.809 m f
105.426 177.277 m 105.27 177.402 105.16 177.449 105.02 177.449 c 104.816
 177.449 104.754 177.324 104.754 176.934 c 104.754 175.184 l 104.754 174.715
 104.707 174.449 104.582 174.246 c 104.379 173.918 103.988 173.746 103.473
 173.746 c 102.629 173.746 101.957 174.184 101.957 174.746 c 101.957 174.949
 102.129 175.137 102.348 175.137 c 102.566 175.137 102.754 174.949 102.754
 174.762 c 102.754 174.73 102.738 174.684 102.738 174.621 c 102.707 174.527
 102.707 174.465 102.707 174.402 c 102.707 174.152 102.988 173.965 103.348
 173.965 c 103.785 173.965 104.035 174.215 104.035 174.699 c 104.035 175.246
 l 102.66 175.793 102.504 175.887 102.113 176.215 c 101.91 176.402 101.785
 176.699 101.785 176.996 c 101.785 177.559 102.176 177.965 102.738 177.965
 c 103.129 177.965 103.488 177.777 104.035 177.309 c 104.082 177.777 104.254
 177.965 104.613 177.965 c 104.926 177.965 105.113 177.855 105.426 177.512
 c h
104.035 176.762 m 104.035 177.043 103.988 177.137 103.801 177.246 c 103.566
 177.371 103.332 177.434 103.145 177.434 c 102.832 177.434 102.582 177.137
 102.582 176.746 c 102.582 176.715 l 102.582 176.184 102.988 175.84 104.035
 175.465 c h
104.035 176.762 m f
105.762 179.465 m 106.418 179.012 106.699 178.793 107.027 178.387 c 107.668
 177.605 107.98 176.699 107.98 175.652 c 107.98 174.512 107.637 173.637 
106.855 172.73 c 106.48 172.293 106.246 172.09 105.793 171.809 c 105.684
 171.949 l 106.402 172.512 106.637 172.824 106.887 173.496 c 107.105 174.105
 107.199 174.777 107.199 175.684 c 107.199 176.621 107.09 177.355 106.84
 177.902 c 106.605 178.465 106.324 178.793 105.684 179.309 c h
105.762 179.465 m f
6.438 93.523 m 0.25 96.398 l 0.25 96.57 l 6.438 99.43 l h
5.969 94.617 m 5.969 98.789 l 1.484 96.711 l h
5.969 94.617 m f
3.422 86.34 m 3.422 88.84 l 3.578 88.871 l 3.578 88.355 3.812 88.105 4.078
 88.105 c 4.125 88.105 4.172 88.121 4.219 88.121 c 5.938 88.59 l 6.125 88.871
 6.25 89.199 6.25 89.605 c 6.25 90.809 5.328 91.293 4.344 91.293 c 2.703
 91.293 0.547 90.23 0.547 88.512 c 0.547 87.574 1.188 87.184 2.141 87.184
 c 2.141 87.027 l 0.266 86.637 l 0.266 86.824 l 0.359 86.887 0.5 86.965 
0.5 87.184 c 0.5 87.387 0.25 87.98 0.25 88.59 c 0.25 90.871 2.375 92.277
 4.125 92.277 c 5.062 92.277 6.578 91.621 6.578 89.715 c 6.578 89.137 6.422
 88.355 6.078 87.746 c 4.25 87.262 l 3.688 87.105 3.578 86.918 3.578 86.371
 c h
3.422 86.34 m f
8.719 85.969 m 8.719 84.422 l 8.609 84.422 l 8.609 84.781 8.531 84.891 
8.25 84.891 c 6.281 84.891 l 6.266 84.891 6.203 84.844 6.156 84.781 c 6 
84.609 5.875 84.312 5.875 84.078 c 5.875 83.766 6.125 83.609 6.609 83.609
 c 8.125 83.609 l 8.516 83.625 8.594 83.688 8.609 84.078 c 8.719 84.078 
l 8.719 82.531 l 8.609 82.531 l 8.609 82.922 8.5 83.016 8.062 83.031 c 6.297
 83.031 l 6 82.812 5.875 82.594 5.875 82.266 c 5.875 81.875 6.062 81.75 
6.641 81.75 c 8.109 81.75 l 8.531 81.75 8.578 81.797 8.609 82.203 c 8.719
 82.203 l 8.719 80.672 l 8.609 80.672 l 8.594 80.859 l 8.562 81.078 8.453
 81.156 8.188 81.156 c 6.75 81.156 l 5.938 81.156 5.516 81.438 5.516 81.969
 c 5.516 82.375 5.688 82.719 6.094 83.109 c 5.703 83.234 5.516 83.469 5.516
 83.844 c 5.516 84.156 5.609 84.344 6.047 84.922 c 5.531 84.922 l 5.516 
84.969 l 5.641 85.344 5.719 85.578 5.828 85.953 c 5.938 85.953 l 5.922 85.859
 5.922 85.797 5.922 85.719 c 5.922 85.547 6.031 85.484 6.359 85.484 c 8.125
 85.484 l 8.516 85.5 8.609 85.578 8.609 85.969 c h
8.719 85.969 m f
0.375 77.555 m 0.812 78.211 1.031 78.477 1.453 78.82 c 2.234 79.445 3.125
 79.758 4.172 79.758 c 5.328 79.758 6.203 79.43 7.109 78.648 c 7.547 78.273
 7.734 78.039 8.031 77.57 c 7.875 77.477 l 7.312 78.18 7 78.43 6.328 78.68
 c 5.734 78.898 5.062 78.992 4.156 78.992 c 3.203 78.992 2.469 78.883 1.922
 78.633 c 1.359 78.383 1.031 78.117 0.516 77.477 c h
0.375 77.555 m f
6.438 77.055 m 6.438 75.055 l 6.297 75.055 l 6.297 75.523 6.203 75.664 
5.844 75.664 c 3.312 75.664 l 3.297 75.664 3.203 75.602 3.141 75.539 c 2.938
 75.305 2.781 74.93 2.781 74.617 c 2.781 74.211 3.094 74.023 3.719 74.023
 c 5.672 74.023 l 6.172 74.039 6.281 74.133 6.297 74.633 c 6.438 74.633 
l 6.438 72.617 l 6.297 72.617 l 6.297 73.117 6.156 73.242 5.578 73.273 c
 3.328 73.273 l 2.938 72.992 2.781 72.711 2.781 72.289 c 2.781 71.773 3.016
 71.617 3.766 71.617 c 5.656 71.617 l 6.188 71.633 6.25 71.695 6.297 72.211
 c 6.438 72.211 l 6.438 70.242 l 6.297 70.242 l 6.281 70.477 l 6.234 70.758
 6.109 70.867 5.75 70.867 c 3.906 70.867 l 2.844 70.867 2.312 71.211 2.312
 71.898 c 2.312 72.43 2.547 72.883 3.062 73.367 c 2.547 73.523 2.312 73.836
 2.312 74.32 c 2.312 74.727 2.422 74.961 3 75.711 c 2.328 75.711 l 2.312
 75.773 l 2.484 76.242 2.578 76.555 2.719 77.023 c 2.875 77.023 l 2.844 
76.914 2.828 76.836 2.828 76.742 c 2.828 76.508 2.969 76.43 3.406 76.43 
c 5.672 76.43 l 6.172 76.445 6.297 76.555 6.297 77.055 c h
6.438 77.055 m f
6.438 70.098 m 6.438 67.973 l 6.297 67.973 l 6.266 68.566 6.172 68.629 
5.516 68.629 c 2.344 68.629 l 2.312 68.676 l 2.812 70.066 l 2.938 70.066
 l 2.938 69.988 l 2.906 69.879 2.906 69.77 2.906 69.676 c 2.906 69.473 3.047
 69.379 3.438 69.379 c 5.516 69.379 l 6.188 69.41 6.281 69.488 6.297 70.098
 c h
0.312 69.098 m 0.312 69.332 0.516 69.535 0.766 69.535 c 1.031 69.535 1.234
 69.348 1.234 69.098 c 1.234 68.816 1.031 68.629 0.766 68.629 c 0.516 68.629
 0.312 68.832 0.312 69.098 c h
0.312 69.098 m f
6.438 65.219 m 6.438 63.422 l 6.297 63.422 l 6.297 63.703 6.156 63.875 
5.766 64.156 c 4 65.312 l 2.938 64.562 l 2.688 64.391 2.547 64.125 2.531
 63.828 c 2.406 63.828 l 2.406 65.25 l 2.531 65.25 l 2.547 64.984 2.609 
64.891 2.734 64.891 c 2.844 64.891 3.031 65 3.312 65.219 c 3.375 65.266 
3.531 65.375 3.719 65.5 c 3.609 65.562 l 3.391 65.703 3.281 65.781 3.25 
65.797 c 2.969 65.969 2.828 66.031 2.734 66.031 c 2.594 66.031 2.547 65.922
 2.531 65.641 c 2.406 65.641 l 2.406 67.5 l 2.531 67.5 l 2.531 67.422 l 
2.531 67.156 2.656 67.016 3.078 66.734 c 4.359 65.891 l 5.844 66.906 l 6.219
 67.188 6.281 67.266 6.297 67.562 c 6.438 67.562 l 6.438 66.266 l 6.297 
66.266 l 6.297 66.531 6.266 66.625 6.141 66.625 c 6.078 66.625 5.969 66.578
 5.781 66.438 c 4.672 65.734 l 5.922 64.922 l 5.984 64.891 6.031 64.859 
6.094 64.859 c 6.25 64.859 6.281 64.922 6.297 65.219 c h
6.438 65.219 m f
8.031 62.934 m 7.578 62.277 7.359 61.996 6.953 61.668 c 6.172 61.027 5.266
 60.715 4.219 60.715 c 3.078 60.715 2.203 61.059 1.297 61.84 c 0.859 62.215
 0.656 62.449 0.375 62.902 c 0.516 63.012 l 1.078 62.293 1.391 62.059 2.062
 61.809 c 2.672 61.59 3.344 61.496 4.25 61.496 c 5.188 61.496 5.922 61.605
 6.469 61.855 c 7.031 62.09 7.359 62.371 7.875 63.012 c h
8.031 62.934 m f
0 56.371 m 0 56.809 l 8.359 59.918 l 8.359 59.465 l h
0 56.371 m f
6.281 49.707 m 6.281 50.238 5.938 50.426 5.578 50.582 c 3.484 51.441 l 
3.266 50.16 2.516 49.723 1.719 49.723 c 1.156 49.723 0.391 50.176 0.391 
51.707 c 0.391 53.863 l 0.531 53.895 l 0.531 53.598 0.562 53.207 0.969 53.207
 c 1.094 53.207 1.234 53.238 1.562 53.332 c 5.391 54.395 l 6.297 54.645 
6.281 54.973 6.281 55.316 c 6.438 55.348 l 6.438 52.91 l 6.281 52.895 l 
6.281 53.129 6.25 53.566 5.812 53.566 c 5.734 53.566 5.625 53.566 5.516 
53.52 c 3.562 53.004 l 3.562 52.348 l 6.438 51.113 l 6.438 49.738 l h
1.719 50.598 m 2.812 50.598 3.281 51.426 3.281 52.363 c 3.281 52.91 l 0.641
 52.176 l 0.641 51.879 l 0.641 51.004 1.016 50.598 1.719 50.598 c h
1.719 50.598 m f
0.391 42.586 m 0.391 47.602 l 1.922 48.023 l 1.922 47.852 l 0.938 47.477
 0.719 47.008 0.719 46.227 c 0.719 46.227 0.719 45.711 0.719 45.602 c 5.391
 46.898 l 6.297 47.148 6.281 47.461 6.281 47.82 c 6.438 47.836 l 6.438 45.477
 l 6.281 45.445 l 6.281 45.789 6.297 46.133 5.844 46.133 c 5.719 46.133 
5.578 46.102 5.391 46.055 c 0.719 44.773 l 0.719 44.023 l 0.719 43.586 0.781
 43.117 1.406 43.117 c 1.547 43.117 1.703 43.133 1.922 43.18 c 1.922 43.008
 l h
0.391 42.586 m f
47.855 119.195 m 50.059 119.195 l 50.059 119.07 l 49.449 119.07 49.309 
118.992 49.293 118.602 c 49.293 113.82 l 49.23 113.805 l 47.809 114.539 
l 47.809 114.648 l 48.105 114.523 48.309 114.477 48.371 114.477 c 48.543
 114.477 48.621 114.586 48.621 114.852 c 48.621 118.461 l 48.605 118.961
 48.465 119.07 47.855 119.07 c h
47.855 119.195 m f
156.703 119.195 m 158.906 119.195 l 158.906 119.07 l 158.297 119.07 158.156
 118.992 158.141 118.602 c 158.141 113.82 l 158.078 113.805 l 156.656 114.539
 l 156.656 114.648 l 156.953 114.523 157.156 114.477 157.219 114.477 c 157.391
 114.477 157.469 114.586 157.469 114.852 c 157.469 118.461 l 157.453 118.961
 157.312 119.07 156.703 119.07 c h
156.703 119.195 m f
91.516 97.695 m 91.422 97.664 l 91.125 98.117 91.031 98.18 90.656 98.18
 c 88.75 98.18 l 90.094 96.773 l 90.797 96.039 91.109 95.43 91.109 94.82
 c 91.109 94.023 90.469 93.398 89.641 93.398 c 89.203 93.398 88.781 93.57
 88.484 93.898 c 88.234 94.164 88.109 94.43 87.984 94.992 c 88.156 95.023
 l 88.469 94.242 88.75 93.992 89.297 93.992 c 89.984 93.992 90.422 94.445
 90.422 95.117 c 90.422 95.742 90.062 96.477 89.391 97.18 c 87.969 98.695
 l 87.969 98.789 l 91.078 98.789 l h
91.516 97.695 m f
88.953 30.277 m 89.422 30.277 89.609 30.293 89.797 30.355 c 90.297 30.543
 90.594 30.996 90.594 31.543 c 90.594 32.215 90.156 32.73 89.562 32.73 c
 89.344 32.73 89.172 32.668 88.875 32.48 c 88.656 32.34 88.516 32.277 88.375
 32.277 c 88.203 32.277 88.078 32.387 88.078 32.559 c 88.078 32.84 88.422
 33.012 88.984 33.012 c 89.578 33.012 90.219 32.809 90.594 32.48 c 90.969
 32.152 91.172 31.684 91.172 31.152 c 91.172 30.746 91.047 30.371 90.812
 30.137 c 90.656 29.949 90.5 29.855 90.156 29.699 c 90.703 29.34 90.891 
29.043 90.891 28.605 c 90.891 27.949 90.391 27.512 89.656 27.512 c 89.25
 27.512 88.906 27.652 88.625 27.902 c 88.375 28.137 88.266 28.324 88.094
 28.809 c 88.219 28.84 l 88.531 28.246 88.891 27.996 89.391 27.996 c 89.922
 27.996 90.266 28.34 90.266 28.84 c 90.266 29.137 90.156 29.418 89.953 29.621
 c 89.703 29.855 89.484 29.98 88.953 30.168 c h
88.953 30.277 m f
0.850361 w
q 1 0 0 -1 0 0 cm
216.754 -139.102 m 216.754 -139.102 217.625 -124.398 218.145 -116.68 c 
218.562 -110.043 218.98 -104.098 219.5 -97.492 c 219.918 -91.789 220.336
 -86.715 220.855 -81.016 c 221.273 -76.184 221.691 -71.836 222.211 -67.004
 c 222.629 -62.902 223.047 -59.254 223.57 -55.184 c 224.02 -51.742 224.438
 -48.648 224.926 -45.242 c 225.375 -42.324 225.793 -39.715 226.281 -36.797
 c 226.73 -34.363 227.148 -32.172 227.672 -29.738 c 227.879 -28.625 228.367
 -26.539 228.367 -26.539 c S Q
0.850362 w
q 1 0 0 -1 0 0 cm
228.348 -26.547 m 228.383 -26.477 l 228.418 -26.27 l 228.488 -25.953 l 
228.594 -25.57 l 228.695 -25.117 l 228.801 -24.699 l 228.906 -24.242 l 228.977
 -23.965 l 229.012 -23.895 l 229.117 -23.477 l 229.383 -22.527 l 229.836
 -20.926 m 230.234 -19.531 l 230.371 -19.113 l 230.477 -18.766 l 231 -17.125
 l 231.062 -16.953 l 231.645 -15.398 m 231.734 -15.172 l 231.84 -14.891 
l 232.363 -13.602 l 232.953 -12.309 l 233.094 -12.031 l 233.199 -11.82 l
 233.316 -11.594 l 234.117 -10.137 m 234.316 -9.797 l 234.457 -9.586 l 234.559
 -9.41 l 235.082 -8.609 l 235.676 -7.84 l 235.816 -7.703 l 235.922 -7.562
 l 236.445 -6.969 l 236.605 -6.828 l 237.895 -5.777 m 238.398 -5.434 l 238.539
 -5.363 l 238.645 -5.328 l 239.203 -5.086 l 239.762 -4.875 l 239.898 -4.84
 l 240.004 -4.805 l 240.562 -4.664 l 241.121 -4.598 l 241.262 -4.562 l 241.367
 -4.562 l 241.789 -4.48 l 243.434 -4.562 m 243.844 -4.664 l 243.984 -4.699
 l 244.086 -4.734 l 244.645 -4.875 l 245.203 -5.051 l 245.344 -5.121 l 245.449
 -5.152 l 246.008 -5.363 l 246.566 -5.609 l 246.703 -5.645 l 246.809 -5.711
 l 247.328 -5.973 l 248.82 -6.703 m 249.289 -6.934 l 249.426 -7.004 l 249.531
 -7.074 l 250.09 -7.492 l 250.648 -7.875 l 250.789 -7.98 l 250.895 -8.051
 l 251.449 -8.363 l 252.008 -8.715 l 252.148 -8.785 l 252.254 -8.855 l 252.328
 -8.914 l 253.613 -9.969 m 254.172 -10.355 l 254.73 -10.738 l 254.871 -10.809
 l 254.977 -10.914 l 256.094 -11.82 l 256.23 -11.926 l 256.336 -11.996 l
 256.957 -12.422 l 258.289 -13.414 m 258.816 -13.844 l 258.953 -13.949 l
 259.059 -14.055 l 260.176 -14.961 l 260.316 -15.031 l 260.422 -15.137 l
 260.977 -15.52 l 261.535 -15.902 l 261.586 -15.938 l 262.887 -16.973 m 
262.898 -16.984 l 263.039 -17.09 l 263.141 -17.16 l 263.699 -17.543 l 264.258
 -17.961 l 264.398 -18.031 l 264.504 -18.137 l 265.621 -19.043 l 265.758
 -19.113 l 265.863 -19.219 l 266.207 -19.453 l 267.594 -20.367 m 267.785
 -20.477 l 268.344 -20.824 l 268.48 -20.895 l 268.586 -20.965 l 269.145 
-21.383 l 269.703 -21.766 l 269.844 -21.836 l 269.949 -21.906 l 270.504 
-22.254 l 271.062 -22.605 l 271.086 -22.617 l 272.523 -23.453 m 272.566 
-23.477 l 272.668 -23.547 l 273.227 -23.895 l 273.785 -24.211 l 273.891 
-24.277 l 274.031 -24.348 l 274.59 -24.699 l 275.148 -25.047 l 275.254 -25.117
 l 275.391 -25.188 l 275.949 -25.465 l 276.109 -25.547 l 277.605 -26.273
 m 277.871 -26.406 l 277.973 -26.477 l 278.113 -26.512 l 278.672 -26.828
 l 279.23 -27.105 l 279.336 -27.141 l 279.477 -27.211 l 280.035 -27.418 
l 280.59 -27.664 l 280.695 -27.699 l 280.836 -27.734 l 281.383 -27.973 l
 282.93 -28.578 m 283.312 -28.746 l 283.418 -28.781 l 283.559 -28.816 l 
284.117 -28.988 l 284.676 -29.164 l 284.781 -29.199 l 284.918 -29.234 l 
286.035 -29.547 l 286.141 -29.582 l 286.281 -29.617 l 286.84 -29.828 l 286.887
 -29.84 l 288.508 -30.199 m 288.758 -30.246 l 288.863 -30.281 l 289.004 
-30.316 l 290.117 -30.527 l 290.223 -30.562 l 290.363 -30.562 l 291.48 -30.805
 l 291.586 -30.84 l 291.723 -30.84 l 292.281 -30.98 l 292.57 -31.035 l 294.223
 -31.223 m 294.309 -31.223 l 294.445 -31.258 l 295.562 -31.363 l 295.809
 -31.363 l 296.926 -31.504 l 298.359 -31.504 l 300.023 -31.504 m 301.25 
-31.504 l 302.367 -31.363 l 302.613 -31.363 l 303.73 -31.258 l 303.836 -31.223
 l 303.973 -31.223 l 304.16 -31.203 l 305.812 -31.055 m 305.895 -31.051 
l 306.453 -30.98 l 306.555 -30.945 l 306.695 -30.945 l 307.254 -30.84 l 
307.812 -30.699 l 307.918 -30.699 l 308.059 -30.664 l 309.172 -30.422 l 
309.277 -30.422 l 309.418 -30.387 l 309.891 -30.297 l 311.496 -29.883 m 
311.895 -29.758 l 312 -29.723 l 312.141 -29.688 l 313.258 -29.375 l 313.363
 -29.34 l 313.5 -29.305 l 314.617 -28.957 l 314.723 -28.922 l 314.863 -28.887
 l 315.48 -28.691 l 317.047 -28.141 m 317.34 -28.012 l 317.445 -27.977 l
 317.551 -27.91 l 318.145 -27.699 l 318.699 -27.453 l 318.805 -27.418 l 
318.91 -27.387 l 319.504 -27.141 l 320.062 -26.93 l 320.168 -26.859 l 320.238
 -26.859 l 320.41 -26.793 l 320.691 -26.688 l 320.887 -26.586 l S Q
0.850361 w
q 1 0 0 -1 0 0 cm
321.004 -26.562 m 321.004 -26.562 321.355 -26.422 321.527 -26.352 c 322.02
 -26.105 322.438 -25.898 322.891 -25.652 c 323.344 -25.41 323.762 -25.199
 324.25 -24.988 c 324.707 -24.746 325.16 -24.535 325.613 -24.293 c 326.102
 -24.047 326.484 -23.734 326.973 -23.488 c 327.43 -23.211 327.883 -23.035
 328.336 -22.789 c 328.824 -22.547 329.242 -22.266 329.695 -21.988 c 330.188
 -21.676 330.57 -21.324 331.059 -21.012 c 331.512 -20.73 331.965 -20.523
 332.418 -20.207 c 332.91 -19.895 333.293 -19.578 333.781 -19.266 c 334.234
 -18.918 334.652 -18.637 335.145 -18.324 c 335.598 -17.973 336.051 -17.695
 336.504 -17.344 c 336.992 -16.996 337.375 -16.613 337.867 -16.262 c 338.32
 -15.914 338.773 -15.672 339.227 -15.32 c 339.68 -14.938 340.133 -14.621
 340.59 -14.238 c 341.043 -13.82 341.461 -13.402 341.949 -13.016 c 342.402
 -12.598 342.82 -12.285 343.312 -11.898 c 343.766 -11.516 344.184 -11.098
 344.672 -10.68 c 345.125 -10.258 345.547 -9.875 346.035 -9.457 c 346.488
 -9.039 346.906 -8.652 347.395 -8.234 c 347.848 -7.816 348.27 -7.434 348.758
 -7.012 c 349.211 -6.594 349.629 -6.211 350.117 -5.793 c 350.57 -5.336 350.992
 -4.883 351.48 -4.43 c 351.934 -3.977 352.805 -3.07 352.805 -3.07 c S Q
0.425176 w
q 1 0 0 -1 0 0 cm
228.352 -26.559 m 232.562 -26.559 l 234.246 -26.559 m 238.457 -26.559 l
 240.145 -26.559 m 244.355 -26.559 l 246.039 -26.559 m 250.25 -26.559 l 
251.934 -26.559 m 256.145 -26.559 l 257.828 -26.559 m 262.039 -26.559 l 
263.727 -26.559 m 267.938 -26.559 l 269.621 -26.559 m 273.832 -26.559 l 
275.516 -26.559 m 279.727 -26.559 l 281.41 -26.559 m 285.621 -26.559 l 287.309
 -26.559 m 291.52 -26.559 l 293.203 -26.559 m 297.414 -26.559 l 299.098 
-26.559 m 303.309 -26.559 l 304.992 -26.559 m 309.203 -26.559 l 310.891 
-26.559 m 315.102 -26.559 l 316.785 -26.559 m 320.992 -26.559 l S Q
1 g
230.164 26.578 m 230.164 25.559 229.336 24.73 228.316 24.73 c 227.297 24.73
 226.469 25.559 226.469 26.578 c 226.469 27.598 227.297 28.426 228.316 28.426
 c 229.336 28.426 230.164 27.598 230.164 26.578 c f
0 g
230.164 26.578 m 230.164 25.559 229.336 24.73 228.316 24.73 c 227.297 24.73
 226.469 25.559 226.469 26.578 c 226.469 27.598 227.297 28.426 228.316 28.426
 c 229.336 28.426 230.164 27.598 230.164 26.578 c h
230.164 26.578 m 229.977 26.578 l 229.977 25.66 229.234 24.918 228.316 
24.918 c 227.398 24.918 226.656 25.66 226.656 26.578 c 226.656 27.496 227.398
 28.238 228.316 28.238 c 229.234 28.238 229.977 27.496 229.977 26.578 c f
1 g
322.867 26.578 m 322.867 25.559 322.039 24.73 321.02 24.73 c 320 24.73 
319.172 25.559 319.172 26.578 c 319.172 27.598 320 28.426 321.02 28.426 
c 322.039 28.426 322.867 27.598 322.867 26.578 c f
0 g
322.867 26.578 m 322.867 25.559 322.039 24.73 321.02 24.73 c 320 24.73 
319.172 25.559 319.172 26.578 c 319.172 27.598 320 28.426 321.02 28.426 
c 322.039 28.426 322.867 27.598 322.867 26.578 c h
322.867 26.578 m 322.68 26.578 l 322.68 25.66 321.938 24.918 321.02 24.918
 c 320.102 24.918 319.359 25.66 319.359 26.578 c 319.359 27.496 320.102 
28.238 321.02 28.238 c 321.938 28.238 322.68 27.496 322.68 26.578 c f
0.850361 w
q 1 0 0 -1 0 0 cm
216.773 -139.137 m 216.773 -139.137 217.609 -131.805 218.133 -127.965 c
 218.555 -124.547 218.973 -121.473 219.496 -118.051 c 219.914 -114.98 220.332
 -112.258 220.855 -109.188 c 221.277 -106.465 221.695 -104.02 222.219 -101.297
 c 222.637 -98.922 223.055 -96.758 223.578 -94.352 c 224 -92.188 224.418
 -90.266 224.941 -88.102 c 225.359 -86.184 225.777 -84.438 226.266 -82.516
 c 226.723 -80.84 227.141 -79.305 227.629 -77.629 c 228.082 -76.129 228.5
 -74.77 228.988 -73.266 c 229.445 -71.941 229.863 -70.789 230.352 -69.461
 c 230.805 -68.273 231.223 -67.227 231.715 -66.074 c 232.168 -65.027 232.586
 -64.086 233.074 -63.074 c 233.527 -62.133 233.945 -61.258 234.438 -60.352
 c 234.891 -59.547 235.309 -58.816 235.797 -58.047 c 236.25 -57.312 236.668
 -56.688 237.16 -55.988 c 237.613 -55.359 238.066 -54.836 238.52 -54.242
 c 238.973 -53.648 239.391 -53.125 239.883 -52.602 c 240.336 -52.113 240.754
 -51.695 241.242 -51.242 c 241.695 -50.785 242.117 -50.402 242.605 -50.02
 c 243.059 -49.633 243.477 -49.25 243.965 -48.938 c 244.418 -48.621 244.871
 -48.379 245.328 -48.098 c 245.816 -47.82 246.199 -47.539 246.688 -47.297
 c 247.141 -47.051 247.562 -46.809 248.051 -46.598 c 248.504 -46.387 248.957
 -46.25 249.41 -46.074 c 249.898 -45.863 250.285 -45.691 250.773 -45.516
 c 251.227 -45.34 251.68 -45.234 252.133 -45.098 c 252.621 -44.957 253.008
 -44.816 253.496 -44.711 c 253.949 -44.574 254.402 -44.539 254.855 -44.434
 c 255.309 -44.328 255.766 -44.258 256.219 -44.152 c 256.672 -44.051 257.09
 -43.945 257.578 -43.875 c 258.031 -43.805 258.488 -43.805 258.941 -43.734
 c 259.395 -43.699 259.848 -43.664 260.301 -43.629 c 260.754 -43.562 261.176
 -43.527 261.664 -43.492 c 262.117 -43.422 262.535 -43.387 263.023 -43.352
 c 263.477 -43.281 263.898 -43.246 264.387 -43.211 c 264.84 -43.176 265.258
 -43.246 265.746 -43.211 c 266.199 -43.176 266.621 -43.105 267.109 -43.07
 c 267.562 -43.039 267.98 -43.105 268.469 -43.07 c 268.926 -43.039 269.344
 -42.969 269.832 -42.934 c 270.285 -42.898 270.703 -42.969 271.191 -42.934
 c 271.648 -42.898 272.066 -42.863 272.555 -42.793 c 273.008 -42.758 273.426
 -42.688 273.914 -42.652 c 274.371 -42.652 274.789 -42.688 275.277 -42.652
 c 275.73 -42.652 276.148 -42.582 276.637 -42.512 c 277.094 -42.48 277.512
 -42.445 278 -42.375 c 278.453 -42.34 278.871 -42.305 279.359 -42.27 c 279.816
 -42.199 280.234 -42.164 280.723 -42.129 c 281.176 -42.059 281.594 -42.023
 282.082 -41.988 c 282.539 -41.922 282.957 -41.922 283.445 -41.852 c 283.898
 -41.781 284.316 -41.641 284.805 -41.57 c 285.262 -41.5 285.68 -41.5 286.168
 -41.43 c 286.621 -41.363 287.039 -41.258 287.531 -41.152 c 287.984 -41.082
 288.402 -40.977 288.891 -40.906 c 289.344 -40.84 289.762 -40.84 290.219
 -40.77 c 290.707 -40.664 291.125 -40.453 291.578 -40.348 c 292.066 -40.246
 292.484 -40.176 292.941 -40.07 c 293.43 -40 293.848 -39.93 294.301 -39.789
 c 294.789 -39.688 295.207 -39.512 295.664 -39.406 c 296.152 -39.266 296.57
 -39.23 297.023 -39.129 c 297.512 -39.023 297.934 -38.848 298.387 -38.707
 c 298.875 -38.57 299.293 -38.465 299.746 -38.324 c 300.234 -38.148 300.656
 -38.047 301.109 -37.906 c 301.598 -37.73 302.016 -37.523 302.469 -37.348
 c 302.957 -37.207 303.379 -37.102 303.832 -36.965 c 304.32 -36.789 304.738
 -36.578 305.191 -36.406 c 305.68 -36.23 306.102 -36.055 306.555 -35.848
 c 307.043 -35.672 307.461 -35.496 307.914 -35.324 c 308.402 -35.113 308.824
 -34.973 309.277 -34.766 c 309.766 -34.555 310.148 -34.309 310.637 -34.102
 c 311.09 -33.891 311.547 -33.75 312 -33.543 c 312.488 -33.332 312.906 -33.09
 313.359 -32.879 c 313.848 -32.637 314.27 -32.426 314.723 -32.18 c 315.211
 -31.938 315.629 -31.762 316.082 -31.52 c 316.57 -31.238 316.957 -30.961
 317.445 -30.68 c 317.898 -30.438 318.352 -30.262 318.805 -30.016 c 319.293
 -29.738 319.715 -29.457 320.168 -29.18 c 320.621 -28.898 321.074 -28.656
 321.527 -28.375 c 321.984 -28.098 322.438 -27.852 322.891 -27.574 c 323.344
 -27.293 323.797 -27.051 324.25 -26.734 c 324.742 -26.422 325.125 -26.105
 325.613 -25.793 c 326.066 -25.48 326.484 -25.164 326.973 -24.852 c 327.43
 -24.535 327.883 -24.328 328.336 -24.012 c 328.824 -23.699 329.242 -23.418
 329.695 -23.07 c 330.188 -22.723 330.57 -22.336 331.059 -21.988 c 331.512
 -21.641 331.965 -21.359 332.418 -21.012 c 332.91 -20.66 333.293 -20.312
 333.781 -19.93 c 334.234 -19.578 334.688 -19.336 335.145 -18.984 c 335.633
 -18.637 336.051 -18.289 336.504 -17.902 c 336.992 -17.484 337.375 -17.066
 337.867 -16.684 c 338.32 -16.297 338.738 -15.949 339.227 -15.602 c 339.68
 -15.215 340.133 -14.902 340.59 -14.484 c 341.043 -14.098 341.461 -13.68
 341.949 -13.262 c 342.402 -12.844 342.82 -12.457 343.312 -12.039 c 343.766
 -11.621 344.184 -11.238 344.672 -10.816 c 345.125 -10.398 345.547 -10.016
 346.035 -9.598 c 346.488 -9.176 346.906 -8.793 347.395 -8.375 c 347.848
 -7.922 348.27 -7.465 348.758 -7.012 c 349.211 -6.594 349.629 -6.211 350.117
 -5.793 c 350.57 -5.336 350.992 -4.883 351.48 -4.43 c 351.934 -3.977 352.805
 -3.07 352.805 -3.07 c S Q
q 1 0 0 -1 0 0 cm
216.773 -139.137 m 352.805 -3.07 l S Q
0.567041 w
q 1 0 0 -1 0 0 cm
216.773 -3.07 136.031 -136.066 re S Q
0.398506 w
q 1 0 0 -1 0 0 cm
216.773 -139.133 m 216.773 -134.871 l S Q
q 1 0 0 -1 0 0 cm
243.984 -139.133 m 243.984 -134.871 l S Q
q 1 0 0 -1 0 0 cm
271.195 -139.133 m 271.195 -134.871 l S Q
q 1 0 0 -1 0 0 cm
298.406 -139.133 m 298.406 -134.871 l S Q
q 1 0 0 -1 0 0 cm
325.617 -139.133 m 325.617 -134.871 l S Q
q 1 0 0 -1 0 0 cm
352.828 -139.133 m 352.828 -134.871 l S Q
q 1 0 0 -1 0 0 cm
216.773 -139.133 m 216.773 -134.871 l S Q
0.398507 w
q 1 0 0 -1 0 0 cm
216.75 -139.125 m 221.008 -139.125 l S Q
0.398504 w
q 1 0 0 -1 0 0 cm
216.77 -111.918 m 221.016 -111.918 l S Q
0.398508 w
q 1 0 0 -1 0 0 cm
216.754 -84.699 m 221.02 -84.699 l S Q
0.398505 w
q 1 0 0 -1 0 0 cm
216.75 -57.496 m 221 -57.496 l S Q
q 1 0 0 -1 0 0 cm
216.754 -30.273 m 221.027 -30.273 l S Q
0.398506 w
q 1 0 0 -1 0 0 cm
216.773 -3.07 m 220.996 -3.07 l S Q
0.398507 w
q 1 0 0 -1 0 0 cm
216.75 -139.125 m 221.008 -139.125 l S Q
0.398506 w
q 1 0 0 -1 0 0 cm
216.773 -3.07 m 216.773 -7.328 l S Q
q 1 0 0 -1 0 0 cm
243.965 -3.07 m 243.965 -7.328 l S Q
q 1 0 0 -1 0 0 cm
271.191 -3.07 m 271.191 -7.328 l S Q
q 1 0 0 -1 0 0 cm
298.387 -3.07 m 298.387 -7.328 l S Q
q 1 0 0 -1 0 0 cm
325.613 -3.07 m 325.613 -7.328 l S Q
q 1 0 0 -1 0 0 cm
352.805 -3.07 m 352.805 -7.328 l S Q
q 1 0 0 -1 0 0 cm
216.773 -3.07 m 216.773 -7.328 l S Q
0.398507 w
q 1 0 0 -1 0 0 cm
352.836 -139.125 m 348.574 -139.125 l S Q
0.398504 w
q 1 0 0 -1 0 0 cm
352.836 -111.918 m 348.555 -111.918 l S Q
0.398508 w
q 1 0 0 -1 0 0 cm
352.832 -84.699 m 348.566 -84.699 l S Q
0.398505 w
q 1 0 0 -1 0 0 cm
352.828 -57.496 m 348.578 -57.496 l S Q
q 1 0 0 -1 0 0 cm
352.828 -30.273 m 348.59 -30.273 l S Q
0.398506 w
q 1 0 0 -1 0 0 cm
352.84 -3.07 m 348.582 -3.07 l S Q
0.398507 w
q 1 0 0 -1 0 0 cm
352.836 -139.125 m 348.574 -139.125 l S Q
218.723 145.652 m 218.723 144.043 217.988 142.59 216.738 142.59 c 215.473
 142.59 214.738 144.043 214.738 145.652 c 214.738 147.277 215.426 148.715
 216.738 148.715 c 217.941 148.715 218.723 147.277 218.723 145.652 c h
217.863 145.652 m 217.863 146.949 217.738 148.465 216.738 148.465 c 215.785
 148.465 215.598 146.949 215.598 145.652 c 215.598 144.574 215.723 142.824
 216.738 142.824 c 217.738 142.824 217.863 144.574 217.863 145.652 c h
217.863 145.652 m f
242.602 145.652 m 242.602 144.043 241.867 142.59 240.617 142.59 c 239.352
 142.59 238.617 144.043 238.617 145.652 c 238.617 147.277 239.305 148.715
 240.617 148.715 c 241.82 148.715 242.602 147.277 242.602 145.652 c h
241.742 145.652 m 241.742 146.949 241.617 148.465 240.617 148.465 c 239.664
 148.465 239.477 146.949 239.477 145.652 c 239.477 144.574 239.602 142.824
 240.617 142.824 c 241.617 142.824 241.742 144.574 241.742 145.652 c h
241.742 145.652 m f
244.527 148.23 m 244.527 147.949 244.309 147.73 244.027 147.73 c 243.746
 147.73 243.527 147.949 243.527 148.23 c 243.527 148.512 243.746 148.73 
244.027 148.73 c 244.309 148.73 244.527 148.512 244.527 148.23 c h
244.527 148.23 m f
249.473 147.449 m 249.316 147.418 l 249.051 147.871 248.832 147.949 248.395
 147.949 c 246.332 147.949 l 247.754 146.652 249.051 145.48 249.051 144.168
 c 249.051 143.246 248.254 142.59 247.379 142.59 c 246.52 142.59 245.832
 143.059 245.566 144.277 c 245.77 144.277 l 246.02 143.777 246.363 143.262
 247.051 143.262 c 247.832 143.262 248.27 143.855 248.27 144.527 c 248.27
 145.496 247.238 146.918 245.473 148.465 c 245.473 148.605 l 249.004 148.605
 l h
249.473 147.449 m f
269.723 145.652 m 269.723 144.043 268.988 142.59 267.738 142.59 c 266.473
 142.59 265.738 144.043 265.738 145.652 c 265.738 147.277 266.426 148.715
 267.738 148.715 c 268.941 148.715 269.723 147.277 269.723 145.652 c h
268.863 145.652 m 268.863 146.949 268.738 148.465 267.738 148.465 c 266.785
 148.465 266.598 146.949 266.598 145.652 c 266.598 144.574 266.723 142.824
 267.738 142.824 c 268.738 142.824 268.863 144.574 268.863 145.652 c h
268.863 145.652 m f
271.645 148.23 m 271.645 147.949 271.426 147.73 271.145 147.73 c 270.863
 147.73 270.645 147.949 270.645 148.23 c 270.645 148.512 270.863 148.73 
271.145 148.73 c 271.426 148.73 271.645 148.512 271.645 148.23 c h
271.645 148.23 m f
276.578 147.121 m 276.578 146.512 l 275.703 146.512 l 275.703 142.59 l 
275.266 142.59 l 272.672 146.496 l 272.672 147.121 l 274.969 147.121 l 274.969
 148.605 l 275.703 148.605 l 275.703 147.121 l h
274.969 146.512 m 273.031 146.512 l 274.953 143.527 l 274.969 143.527 l
 h
274.969 146.512 m f
296.961 145.652 m 296.961 144.043 296.227 142.59 294.977 142.59 c 293.711
 142.59 292.977 144.043 292.977 145.652 c 292.977 147.277 293.664 148.715
 294.977 148.715 c 296.18 148.715 296.961 147.277 296.961 145.652 c h
296.102 145.652 m 296.102 146.949 295.977 148.465 294.977 148.465 c 294.023
 148.465 293.836 146.949 293.836 145.652 c 293.836 144.574 293.961 142.824
 294.977 142.824 c 295.977 142.824 296.102 144.574 296.102 145.652 c h
296.102 145.652 m f
298.887 148.23 m 298.887 147.949 298.668 147.73 298.387 147.73 c 298.105
 147.73 297.887 147.949 297.887 148.23 c 297.887 148.512 298.105 148.73 
298.387 148.73 c 298.668 148.73 298.887 148.512 298.887 148.23 c h
298.887 148.23 m f
303.754 146.59 m 303.754 145.605 303.051 144.871 302.16 144.871 c 301.707
 144.871 301.332 145.012 300.941 145.324 c 301.332 143.73 302.504 142.73
 303.629 142.715 c 303.629 142.559 l 300.863 142.559 299.988 144.902 299.988
 146.23 c 299.988 147.652 300.816 148.715 301.926 148.715 c 302.941 148.715
 303.754 147.762 303.754 146.59 c h
302.988 147.043 m 302.988 147.871 302.613 148.449 302.02 148.449 c 301.098
 148.449 300.816 147.105 300.816 146.387 c 300.816 146.152 300.848 145.902
 300.895 145.605 c 301.285 145.355 301.598 145.246 301.91 145.246 c 302.816
 145.246 302.988 146.293 302.988 147.043 c h
302.988 147.043 m f
324.199 145.652 m 324.199 144.043 323.465 142.59 322.215 142.59 c 320.949
 142.59 320.215 144.043 320.215 145.652 c 320.215 147.277 320.902 148.715
 322.215 148.715 c 323.418 148.715 324.199 147.277 324.199 145.652 c h
323.34 145.652 m 323.34 146.949 323.215 148.465 322.215 148.465 c 321.262
 148.465 321.074 146.949 321.074 145.652 c 321.074 144.574 321.199 142.824
 322.215 142.824 c 323.215 142.824 323.34 144.574 323.34 145.652 c h
323.34 145.652 m f
326.125 148.23 m 326.125 147.949 325.906 147.73 325.625 147.73 c 325.344
 147.73 325.125 147.949 325.125 148.23 c 325.125 148.512 325.344 148.73 
325.625 148.73 c 325.906 148.73 326.125 148.512 326.125 148.23 c h
326.125 148.23 m f
330.773 147.23 m 330.773 146.59 330.492 146.105 329.398 145.293 c 330.086
 144.918 330.617 144.496 330.617 143.84 c 330.617 143.152 329.977 142.559
 329.023 142.559 c 328.18 142.559 327.383 143.105 327.383 143.949 c 327.383
 144.605 327.727 144.996 328.492 145.605 c 327.633 146.262 327.32 146.59
 327.32 147.262 c 327.32 148.012 327.992 148.715 329.039 148.715 c 330.258
 148.715 330.773 147.887 330.773 147.23 c h
330.008 143.824 m 330.008 144.465 329.633 144.809 329.148 145.137 c 328.555
 144.715 328.039 144.246 328.039 143.73 c 328.039 143.246 328.383 142.824
 328.992 142.824 c 329.664 142.824 330.008 143.246 330.008 143.824 c h
330.133 147.48 m 330.133 148.059 329.695 148.449 329.117 148.449 c 328.43
 148.449 327.992 147.902 327.992 147.168 c 327.992 146.496 328.32 146.105
 328.727 145.762 c 329.711 146.512 330.133 146.887 330.133 147.48 c h
330.133 147.48 m f
350.691 148.605 m 350.691 148.465 l 350.098 148.465 349.879 148.48 349.879
 147.309 c 349.879 147.293 349.879 142.559 349.879 142.559 c 349.754 142.559
 l 348.223 143.293 l 348.27 143.434 l 348.598 143.293 348.676 143.262 348.801
 143.262 c 349.066 143.262 349.113 143.496 349.113 143.809 c 349.113 147.309
 l 349.113 148.48 348.895 148.449 348.301 148.465 c 348.301 148.605 l h
350.691 148.605 m f
353.363 148.23 m 353.363 147.949 353.145 147.73 352.863 147.73 c 352.582
 147.73 352.363 147.949 352.363 148.23 c 352.363 148.512 352.582 148.73 
352.863 148.73 c 353.145 148.73 353.363 148.512 353.363 148.23 c h
353.363 148.23 m f
358.281 145.652 m 358.281 144.043 357.547 142.59 356.297 142.59 c 355.031
 142.59 354.297 144.043 354.297 145.652 c 354.297 147.277 354.984 148.715
 356.297 148.715 c 357.5 148.715 358.281 147.277 358.281 145.652 c h
357.422 145.652 m 357.422 146.949 357.297 148.465 356.297 148.465 c 355.344
 148.465 355.156 146.949 355.156 145.652 c 355.156 144.574 355.281 142.824
 356.297 142.824 c 357.297 142.824 357.422 144.574 357.422 145.652 c h
357.422 145.652 m f
213.082 139.172 m 213.082 137.562 212.348 136.109 211.098 136.109 c 209.832
 136.109 209.098 137.562 209.098 139.172 c 209.098 140.797 209.785 142.234
 211.098 142.234 c 212.301 142.234 213.082 140.797 213.082 139.172 c h
212.223 139.172 m 212.223 140.469 212.098 141.984 211.098 141.984 c 210.145
 141.984 209.957 140.469 209.957 139.172 c 209.957 138.094 210.082 136.344
 211.098 136.344 c 212.098 136.344 212.223 138.094 212.223 139.172 c h
212.223 139.172 m f
206.242 111.934 m 206.242 110.324 205.508 108.871 204.258 108.871 c 202.992
 108.871 202.258 110.324 202.258 111.934 c 202.258 113.559 202.945 114.996
 204.258 114.996 c 205.461 114.996 206.242 113.559 206.242 111.934 c h
205.383 111.934 m 205.383 113.23 205.258 114.746 204.258 114.746 c 203.305
 114.746 203.117 113.23 203.117 111.934 c 203.117 110.855 203.242 109.105
 204.258 109.105 c 205.258 109.105 205.383 110.855 205.383 111.934 c h
205.383 111.934 m f
208.168 114.512 m 208.168 114.23 207.949 114.012 207.668 114.012 c 207.387
 114.012 207.168 114.23 207.168 114.512 c 207.168 114.793 207.387 115.012
 207.668 115.012 c 207.949 115.012 208.168 114.793 208.168 114.512 c h
208.168 114.512 m f
213.113 113.73 m 212.957 113.699 l 212.691 114.152 212.473 114.23 212.035
 114.23 c 209.973 114.23 l 211.395 112.934 212.691 111.762 212.691 110.449
 c 212.691 109.527 211.895 108.871 211.02 108.871 c 210.16 108.871 209.473
 109.34 209.207 110.559 c 209.41 110.559 l 209.66 110.059 210.004 109.543
 210.691 109.543 c 211.473 109.543 211.91 110.137 211.91 110.809 c 211.91
 111.777 210.879 113.199 209.113 114.746 c 209.113 114.887 l 212.645 114.887
 l h
213.113 113.73 m f
206.242 84.812 m 206.242 83.203 205.508 81.75 204.258 81.75 c 202.992 81.75
 202.258 83.203 202.258 84.812 c 202.258 86.438 202.945 87.875 204.258 87.875
 c 205.461 87.875 206.242 86.438 206.242 84.812 c h
205.383 84.812 m 205.383 86.109 205.258 87.625 204.258 87.625 c 203.305
 87.625 203.117 86.109 203.117 84.812 c 203.117 83.734 203.242 81.984 204.258
 81.984 c 205.258 81.984 205.383 83.734 205.383 84.812 c h
205.383 84.812 m f
208.168 87.391 m 208.168 87.109 207.949 86.891 207.668 86.891 c 207.387
 86.891 207.168 87.109 207.168 87.391 c 207.168 87.672 207.387 87.891 207.668
 87.891 c 207.949 87.891 208.168 87.672 208.168 87.391 c h
208.168 87.391 m f
213.098 86.281 m 213.098 85.672 l 212.223 85.672 l 212.223 81.75 l 211.785
 81.75 l 209.191 85.656 l 209.191 86.281 l 211.488 86.281 l 211.488 87.766
 l 212.223 87.766 l 212.223 86.281 l h
211.488 85.672 m 209.551 85.672 l 211.473 82.688 l 211.488 82.688 l h
211.488 85.672 m f
206.242 57.574 m 206.242 55.965 205.508 54.512 204.258 54.512 c 202.992
 54.512 202.258 55.965 202.258 57.574 c 202.258 59.199 202.945 60.637 204.258
 60.637 c 205.461 60.637 206.242 59.199 206.242 57.574 c h
205.383 57.574 m 205.383 58.871 205.258 60.387 204.258 60.387 c 203.305
 60.387 203.117 58.871 203.117 57.574 c 203.117 56.496 203.242 54.746 204.258
 54.746 c 205.258 54.746 205.383 56.496 205.383 57.574 c h
205.383 57.574 m f
208.168 60.152 m 208.168 59.871 207.949 59.652 207.668 59.652 c 207.387
 59.652 207.168 59.871 207.168 60.152 c 207.168 60.434 207.387 60.652 207.668
 60.652 c 207.949 60.652 208.168 60.434 208.168 60.152 c h
208.168 60.152 m f
213.035 58.512 m 213.035 57.527 212.332 56.793 211.441 56.793 c 210.988
 56.793 210.613 56.934 210.223 57.246 c 210.613 55.652 211.785 54.652 212.91
 54.637 c 212.91 54.48 l 210.145 54.48 209.27 56.824 209.27 58.152 c 209.27
 59.574 210.098 60.637 211.207 60.637 c 212.223 60.637 213.035 59.684 213.035
 58.512 c h
212.27 58.965 m 212.27 59.793 211.895 60.371 211.301 60.371 c 210.379 60.371
 210.098 59.027 210.098 58.309 c 210.098 58.074 210.129 57.824 210.176 57.527
 c 210.566 57.277 210.879 57.168 211.191 57.168 c 212.098 57.168 212.27 
58.215 212.27 58.965 c h
212.27 58.965 m f
206.242 30.336 m 206.242 28.727 205.508 27.273 204.258 27.273 c 202.992
 27.273 202.258 28.727 202.258 30.336 c 202.258 31.961 202.945 33.398 204.258
 33.398 c 205.461 33.398 206.242 31.961 206.242 30.336 c h
205.383 30.336 m 205.383 31.633 205.258 33.148 204.258 33.148 c 203.305
 33.148 203.117 31.633 203.117 30.336 c 203.117 29.258 203.242 27.508 204.258
 27.508 c 205.258 27.508 205.383 29.258 205.383 30.336 c h
205.383 30.336 m f
208.168 32.914 m 208.168 32.633 207.949 32.414 207.668 32.414 c 207.387
 32.414 207.168 32.633 207.168 32.914 c 207.168 33.195 207.387 33.414 207.668
 33.414 c 207.949 33.414 208.168 33.195 208.168 32.914 c h
208.168 32.914 m f
212.816 31.914 m 212.816 31.273 212.535 30.789 211.441 29.977 c 212.129
 29.602 212.66 29.18 212.66 28.523 c 212.66 27.836 212.02 27.242 211.066
 27.242 c 210.223 27.242 209.426 27.789 209.426 28.633 c 209.426 29.289 
209.77 29.68 210.535 30.289 c 209.676 30.945 209.363 31.273 209.363 31.945
 c 209.363 32.695 210.035 33.398 211.082 33.398 c 212.301 33.398 212.816
 32.57 212.816 31.914 c h
212.051 28.508 m 212.051 29.148 211.676 29.492 211.191 29.82 c 210.598 
29.398 210.082 28.93 210.082 28.414 c 210.082 27.93 210.426 27.508 211.035
 27.508 c 211.707 27.508 212.051 27.93 212.051 28.508 c h
212.176 32.164 m 212.176 32.742 211.738 33.133 211.16 33.133 c 210.473 
33.133 210.035 32.586 210.035 31.852 c 210.035 31.18 210.363 30.789 210.77
 30.445 c 211.754 31.195 212.176 31.57 212.176 32.164 c h
212.176 32.164 m f
205.492 6.047 m 205.492 5.906 l 204.898 5.906 204.68 5.922 204.68 4.75 
c 204.68 4.734 204.68 0 204.68 0 c 204.555 0 l 203.023 0.734 l 203.07 0.875
 l 203.398 0.734 203.477 0.703 203.602 0.703 c 203.867 0.703 203.914 0.938
 203.914 1.25 c 203.914 4.75 l 203.914 5.922 203.695 5.891 203.102 5.906
 c 203.102 6.047 l h
205.492 6.047 m f
208.168 5.672 m 208.168 5.391 207.949 5.172 207.668 5.172 c 207.387 5.172
 207.168 5.391 207.168 5.672 c 207.168 5.953 207.387 6.172 207.668 6.172
 c 207.949 6.172 208.168 5.953 208.168 5.672 c h
208.168 5.672 m f
213.082 3.094 m 213.082 1.484 212.348 0.031 211.098 0.031 c 209.832 0.031
 209.098 1.484 209.098 3.094 c 209.098 4.719 209.785 6.156 211.098 6.156
 c 212.301 6.156 213.082 4.719 213.082 3.094 c h
212.223 3.094 m 212.223 4.391 212.098 5.906 211.098 5.906 c 210.145 5.906
 209.957 4.391 209.957 3.094 c 209.957 2.016 210.082 0.266 211.098 0.266
 c 212.098 0.266 212.223 2.016 212.223 3.094 c h
212.223 3.094 m f
284.281 154.441 m 284.281 154.223 284.078 154.113 283.906 154.113 c 283.453
 154.113 282.875 154.785 282.438 155.488 c 282.422 155.488 282.359 155.191
 282.359 155.191 c 282.219 154.598 282.047 154.254 281.734 154.113 c 281.734
 154.113 280.719 154.316 280.594 154.363 c 280.594 154.52 l 280.781 154.473
 280.922 154.441 281.016 154.441 c 281.516 154.441 281.594 154.926 281.938
 156.223 c 281.531 156.816 280.891 157.816 280.641 157.816 c 280.438 157.816
 280.422 157.598 280.141 157.598 c 279.953 157.598 279.812 157.738 279.812
 157.926 c 279.812 158.16 279.984 158.316 280.234 158.316 c 280.875 158.316
 281.453 157.191 282 156.488 c 282.031 156.551 282.234 157.348 282.234 157.348
 c 282.453 158.176 282.625 158.316 282.844 158.316 c 283.125 158.316 283.547
 158.035 283.969 157.254 c 283.844 157.176 l 283.688 157.379 283.438 157.801
 283.203 157.801 c 282.891 157.801 282.719 156.535 282.5 155.738 c 282.547
 155.66 283.172 154.66 283.5 154.66 c 283.672 154.66 283.828 154.801 283.984
 154.801 c 284.203 154.801 284.281 154.613 284.281 154.441 c h
284.281 154.441 m f
289.48 160.363 m 289.168 160.332 289.09 160.27 288.855 159.754 c 287.121
 155.785 l 286.98 155.785 l 285.527 159.207 l 285.074 160.223 284.996 160.348
 284.668 160.363 c 284.668 160.488 l 286.043 160.488 l 286.043 160.363 l
 285.715 160.363 285.574 160.27 285.574 160.066 c 285.574 159.988 285.59
 159.895 285.621 159.801 c 285.949 158.988 l 287.777 158.988 l 288.059 159.645
 l 288.137 159.848 288.184 160.02 288.184 160.113 c 288.184 160.301 288.074
 160.348 287.699 160.363 c 287.699 160.488 l 289.48 160.488 l h
286.059 158.691 m 286.871 156.785 l 287.668 158.691 l h
286.059 158.691 m f
282.16 171.824 m 281.504 172.262 281.238 172.48 280.895 172.902 c 280.27
 173.684 279.957 174.574 279.957 175.621 c 279.957 176.777 280.285 177.652
 281.066 178.559 c 281.441 178.996 281.676 179.184 282.145 179.48 c 282.238
 179.324 l 281.535 178.762 281.285 178.449 281.035 177.777 c 280.816 177.184
 280.723 176.512 280.723 175.605 c 280.723 174.652 280.832 173.918 281.082
 173.371 c 281.332 172.809 281.598 172.48 282.238 171.965 c h
282.16 171.824 m f
283.895 171.777 m 283.848 171.762 l 283.473 171.887 283.238 171.965 282.801
 172.09 c 282.551 172.152 l 282.551 172.293 l 282.598 172.293 282.629 172.293
 282.691 172.293 c 283.051 172.293 283.145 172.371 283.145 172.746 c 283.145
 177.402 l 283.145 177.684 283.895 177.98 284.613 177.98 c 285.801 177.98
 286.723 176.996 286.723 175.715 c 286.723 174.59 286.035 173.762 285.145
 173.762 c 284.598 173.762 284.066 174.074 283.895 174.527 c h
283.895 174.996 m 283.895 174.652 284.316 174.324 284.785 174.324 c 285.035
 174.324 285.254 174.418 285.441 174.59 c 285.723 174.871 285.926 175.48
 285.926 176.121 c 285.926 177.121 285.504 177.684 284.77 177.684 c 284.301
 177.684 283.895 177.496 283.895 177.262 c h
283.895 174.996 m f
287.301 179.48 m 287.957 179.027 288.238 178.809 288.566 178.402 c 289.207
 177.621 289.52 176.715 289.52 175.668 c 289.52 174.527 289.176 173.652 
288.395 172.746 c 288.02 172.309 287.785 172.105 287.332 171.824 c 287.223
 171.965 l 287.941 172.527 288.176 172.84 288.426 173.512 c 288.645 174.121
 288.738 174.793 288.738 175.699 c 288.738 176.637 288.629 177.371 288.379
 177.918 c 288.145 178.48 287.863 178.809 287.223 179.324 c h
287.301 179.48 m f
193.766 72.055 m 193.672 72.18 l 194.094 72.492 194.297 72.711 194.297 
72.852 c 194.297 72.93 194.219 72.961 194.094 72.961 c 194 72.961 193.859
 72.945 193.703 72.898 c 190.562 72.086 l 190.656 72.711 l 191.125 72.836
 l 190.797 72.914 190.562 73.227 190.562 73.57 c 190.562 74.727 192.312 
76.133 193.703 76.133 c 194.094 76.133 194.766 75.992 194.766 75.273 c 194.766
 74.633 194.188 73.914 193.391 73.461 c 193.703 73.602 194.188 73.68 194.328
 73.68 c 194.531 73.68 194.766 73.57 194.766 73.289 c 194.766 72.914 194.438
 72.492 193.766 72.055 c h
191.406 72.992 m 192.203 72.992 194.266 73.82 194.266 74.852 c 194.266 
75.07 194.141 75.398 193.609 75.398 c 192.766 75.398 190.75 74.523 190.75
 73.539 c 190.75 73.305 190.891 72.992 191.406 72.992 c h
191.406 72.992 m f
196.812 66.535 m 196.781 66.848 196.719 66.926 196.203 67.16 c 192.234 
68.895 l 192.234 69.035 l 195.656 70.488 l 196.672 70.941 196.797 71.02 
196.812 71.348 c 196.938 71.348 l 196.938 69.973 l 196.812 69.973 l 196.812
 70.301 196.719 70.441 196.516 70.441 c 196.438 70.441 196.344 70.426 196.25
 70.395 c 195.438 70.066 l 195.438 68.238 l 196.094 67.957 l 196.297 67.879
 196.469 67.832 196.562 67.832 c 196.75 67.832 196.797 67.941 196.812 68.316
 c 196.938 68.316 l 196.938 66.535 l h
195.141 69.957 m 193.234 69.145 l 195.141 68.348 l h
195.141 69.957 m f
229.547 40.492 m 230.016 40.492 230.203 40.508 230.391 40.57 c 230.891 
40.758 231.188 41.211 231.188 41.758 c 231.188 42.43 230.75 42.945 230.156
 42.945 c 229.938 42.945 229.766 42.883 229.469 42.695 c 229.25 42.555 229.109
 42.492 228.969 42.492 c 228.797 42.492 228.672 42.602 228.672 42.773 c 
228.672 43.055 229.016 43.227 229.578 43.227 c 230.172 43.227 230.812 43.023
 231.188 42.695 c 231.562 42.367 231.766 41.898 231.766 41.367 c 231.766
 40.961 231.641 40.586 231.406 40.352 c 231.25 40.164 231.094 40.07 230.75
 39.914 c 231.297 39.555 231.484 39.258 231.484 38.82 c 231.484 38.164 230.984
 37.727 230.25 37.727 c 229.844 37.727 229.5 37.867 229.219 38.117 c 228.969
 38.352 228.859 38.539 228.688 39.023 c 228.812 39.055 l 229.125 38.461 
229.484 38.211 229.984 38.211 c 230.516 38.211 230.859 38.555 230.859 39.055
 c 230.859 39.352 230.75 39.633 230.547 39.836 c 230.297 40.07 230.078 40.195
 229.547 40.383 c h
229.547 40.492 m f
245.715 59.152 m 245.621 59.121 l 245.324 59.574 245.23 59.637 244.855 
59.637 c 242.949 59.637 l 244.293 58.23 l 244.996 57.496 245.309 56.887 
245.309 56.277 c 245.309 55.48 244.668 54.855 243.84 54.855 c 243.402 54.855
 242.98 55.027 242.684 55.355 c 242.434 55.621 242.309 55.887 242.184 56.449
 c 242.355 56.48 l 242.668 55.699 242.949 55.449 243.496 55.449 c 244.184
 55.449 244.621 55.902 244.621 56.574 c 244.621 57.199 244.262 57.934 243.59
 58.637 c 242.168 60.152 l 242.168 60.246 l 245.277 60.246 l h
245.715 59.152 m f
276.887 90.859 m 279.09 90.859 l 279.09 90.734 l 278.48 90.734 278.34 90.656
 278.324 90.266 c 278.324 85.484 l 278.262 85.469 l 276.84 86.203 l 276.84
 86.312 l 277.137 86.188 277.34 86.141 277.402 86.141 c 277.574 86.141 277.652
 86.25 277.652 86.516 c 277.652 90.125 l 277.637 90.625 277.496 90.734 276.887
 90.734 c h
276.887 90.859 m f
Q Q
showpage
%%Trailer
end
%%EOF
