%!PS-Adobe-3.0 EPSF-3.0
%%Creator: cairo 1.17.4 (https://cairographics.org)
%%CreationDate: Thu Feb 24 10:49:04 2022
%%Pages: 1
%%DocumentData: Clean7Bit
%%LanguageLevel: 2
%%BoundingBox: 0 0 296 173
%%EndComments
%%BeginProlog
50 dict begin
/q { gsave } bind def
/Q { grestore } bind def
/cm { 6 array astore concat } bind def
/w { setlinewidth } bind def
/J { setlinecap } bind def
/j { setlinejoin } bind def
/M { setmiterlimit } bind def
/d { setdash } bind def
/m { moveto } bind def
/l { lineto } bind def
/c { curveto } bind def
/h { closepath } bind def
/re { exch dup neg 3 1 roll 5 3 roll moveto 0 rlineto
      0 exch rlineto 0 rlineto closepath } bind def
/S { stroke } bind def
/f { fill } bind def
/f* { eofill } bind def
/n { newpath } bind def
/W { clip } bind def
/W* { eoclip } bind def
/BT { } bind def
/ET { } bind def
/BDC { mark 3 1 roll /BDC pdfmark } bind def
/EMC { mark /EMC pdfmark } bind def
/cairo_store_point { /cairo_point_y exch def /cairo_point_x exch def } def
/Tj { show currentpoint cairo_store_point } bind def
/TJ {
  {
    dup
    type /stringtype eq
    { show } { -0.001 mul 0 cairo_font_matrix dtransform rmoveto } ifelse
  } forall
  currentpoint cairo_store_point
} bind def
/cairo_selectfont { cairo_font_matrix aload pop pop pop 0 0 6 array astore
    cairo_font exch selectfont cairo_point_x cairo_point_y moveto } bind def
/Tf { pop /cairo_font exch def /cairo_font_matrix where
      { pop cairo_selectfont } if } bind def
/Td { matrix translate cairo_font_matrix matrix concatmatrix dup
      /cairo_font_matrix exch def dup 4 get exch 5 get cairo_store_point
      /cairo_font where { pop cairo_selectfont } if } bind def
/Tm { 2 copy 8 2 roll 6 array astore /cairo_font_matrix exch def
      cairo_store_point /cairo_font where { pop cairo_selectfont } if } bind def
/g { setgray } bind def
/rg { setrgbcolor } bind def
/d1 { setcachedevice } bind def
/cairo_data_source {
  CairoDataIndex CairoData length lt
    { CairoData CairoDataIndex get /CairoDataIndex CairoDataIndex 1 add def }
    { () } ifelse
} def
/cairo_flush_ascii85_file { cairo_ascii85_file status { cairo_ascii85_file flushfile } if } def
/cairo_image { image cairo_flush_ascii85_file } def
/cairo_imagemask { imagemask cairo_flush_ascii85_file } def
%%EndProlog
%%BeginSetup
%%EndSetup
%%Page: 1 1
%%BeginPageSetup
%%PageBoundingBox: 0 0 296 173
%%EndPageSetup
q 0 0 296 173 rectclip
1 0 0 -1 0 173 cm q
0 g
1.13366 w
0 J
0 j
[] 0.0 d
10 M q 1 0 0 -1 0 0 cm
10.965 -124.723 m 124.352 -11.34 l S Q
0.567043 w
q 1 0 0 -1 0 0 cm
11.25 -68.031 m 11.25 -0.285 l 124.066 -0.285 l 124.066 -135.781 l 11.25
 -135.781 l h
11.25 -68.031 m S Q
12.922 144.148 m 12.922 142.539 12.188 141.086 10.938 141.086 c 9.672 141.086
 8.938 142.539 8.938 144.148 c 8.938 145.773 9.625 147.211 10.938 147.211
 c 12.141 147.211 12.922 145.773 12.922 144.148 c h
12.062 144.148 m 12.062 145.445 11.938 146.961 10.938 146.961 c 9.984 146.961
 9.797 145.445 9.797 144.148 c 9.797 143.07 9.922 141.32 10.938 141.32 c
 11.938 141.32 12.062 143.07 12.062 144.148 c h
12.062 144.148 m f
60.133 142.742 m 60.133 142.57 59.977 142.383 59.695 142.383 c 59.367 142.383
 58.914 142.508 58.633 142.633 c 57.93 142.414 57.789 142.086 57.789 141.93
 c 57.789 141.68 58.18 141.445 58.508 141.336 c 58.367 141.023 l 57.727 
141.258 57.398 141.633 57.398 141.945 c 57.398 142.414 57.992 142.758 58.133
 142.82 c 57.914 142.898 56.992 143.242 56.992 143.945 c 56.992 144.539 
57.539 144.914 57.789 145.07 c 57.336 145.242 56.602 145.68 56.602 146.648
 c 56.602 148.18 58.664 147.43 58.664 148.305 c 58.664 148.586 58.477 148.836
 58.18 148.977 c 57.727 149.18 57.18 149.039 57.18 149.258 c 57.18 149.336
 57.32 149.383 57.492 149.383 c 57.758 149.383 58.164 149.289 58.43 149.148
 c 58.883 148.93 59.195 148.57 59.195 148.086 c 59.195 146.852 57.133 147.492
 57.133 146.414 c 57.133 145.805 57.664 145.43 58.133 145.273 c 58.211 145.305
 58.773 145.602 59.117 145.602 c 59.477 145.602 59.664 145.367 59.664 145.148
 c 59.664 144.961 59.492 144.758 59.133 144.758 c 58.883 144.758 58.555 
144.852 58.242 144.945 c 57.82 144.742 57.539 144.414 57.539 143.961 c 57.539
 143.367 58.32 143.086 58.633 142.992 c 58.914 143.086 59.227 143.164 59.555
 143.164 c 59.945 143.164 60.133 142.945 60.133 142.742 c h
60.133 142.742 m f
64.605 141.023 m 64.168 141.023 l 61.059 149.383 l 61.512 149.383 l h
64.605 141.023 m f
65.281 147.461 m 67.281 147.461 l 67.281 147.32 l 66.812 147.32 66.672 
147.227 66.672 146.867 c 66.672 144.336 l 66.672 144.32 66.734 144.227 66.797
 144.164 c 67.031 143.961 67.406 143.805 67.719 143.805 c 68.125 143.805
 68.312 144.117 68.312 144.742 c 68.312 146.695 l 68.297 147.195 68.203 
147.305 67.703 147.32 c 67.703 147.461 l 69.719 147.461 l 69.719 147.32 
l 69.219 147.32 69.094 147.18 69.062 146.602 c 69.062 144.352 l 69.344 143.961
 69.625 143.805 70.047 143.805 c 70.562 143.805 70.719 144.039 70.719 144.789
 c 70.719 146.68 l 70.703 147.211 70.641 147.273 70.125 147.32 c 70.125 
147.461 l 72.094 147.461 l 72.094 147.32 l 71.859 147.305 l 71.578 147.258
 71.469 147.133 71.469 146.773 c 71.469 144.93 l 71.469 143.867 71.125 143.336
 70.438 143.336 c 69.906 143.336 69.453 143.57 68.969 144.086 c 68.812 143.57
 68.5 143.336 68.016 143.336 c 67.609 143.336 67.375 143.445 66.625 144.023
 c 66.625 143.352 l 66.562 143.336 l 66.094 143.508 65.781 143.602 65.312
 143.742 c 65.312 143.898 l 65.422 143.867 65.5 143.852 65.594 143.852 c
 65.828 143.852 65.906 143.992 65.906 144.43 c 65.906 146.695 l 65.891 147.195
 65.781 147.32 65.281 147.32 c h
65.281 147.461 m f
74.348 143.336 m 73.16 143.336 72.363 144.195 72.363 145.43 c 72.363 146.648
 73.191 147.555 74.316 147.555 c 75.457 147.555 76.316 146.602 76.316 145.367
 c 76.316 144.18 75.488 143.336 74.348 143.336 c h
74.223 143.586 m 74.973 143.586 75.504 144.445 75.504 145.68 c 75.504 146.695
 75.098 147.305 74.426 147.305 c 74.082 147.305 73.754 147.086 73.566 146.727
 c 73.301 146.258 73.16 145.633 73.16 144.992 c 73.16 144.148 73.582 143.586
 74.223 143.586 c h
74.223 143.586 m f
76.727 147.461 m 78.852 147.461 l 78.852 147.32 l 78.273 147.305 78.18 
147.211 78.164 146.711 c 78.164 141.352 l 78.133 141.336 l 77.68 141.477
 77.352 141.57 76.711 141.727 c 76.711 141.867 l 76.758 141.867 l 76.867
 141.867 76.977 141.852 77.039 141.852 c 77.336 141.852 77.414 141.977 77.414
 142.398 c 77.414 146.68 l 77.414 147.164 77.289 147.289 76.727 147.32 c
 h
76.727 147.461 m f
125.559 147.102 m 125.559 146.961 l 124.965 146.961 124.746 146.977 124.746
 145.805 c 124.746 145.789 124.746 141.055 124.746 141.055 c 124.621 141.055
 l 123.09 141.789 l 123.137 141.93 l 123.465 141.789 123.543 141.758 123.668
 141.758 c 123.934 141.758 123.98 141.992 123.98 142.305 c 123.98 145.805
 l 123.98 146.977 123.762 146.945 123.168 146.961 c 123.168 147.102 l h
125.559 147.102 m f
0 70.637 m 0 72.98 l 0.141 72.996 l 0.141 72.699 0.172 72.34 0.578 72.34
 c 0.703 72.34 0.844 72.371 1.172 72.465 c 2.672 72.855 l 2.672 75.512 l
 1.047 75.059 l 0.391 74.887 0.141 74.605 0.141 74.074 c 0 74.043 l 0 76.496
 l 0.141 76.527 l 0.141 76.23 0.172 75.84 0.578 75.84 c 0.703 75.84 0.844
 75.871 1.172 75.965 c 5 77.027 l 5.906 77.277 5.891 77.543 5.891 77.949
 c 6.047 77.98 l 6.047 75.621 l 5.891 75.605 l 5.891 75.84 5.859 76.23 5.422
 76.23 c 5.344 76.23 5.234 76.215 5.125 76.184 c 3.031 75.605 l 3.031 72.965
 l 5 73.527 l 5.891 73.777 5.891 74.121 5.891 74.496 c 6.047 74.527 l 6.047
 72.027 l 5.891 72.012 l 5.891 72.34 5.906 72.684 5.453 72.684 c 5.344 72.684
 5.188 72.668 5 72.605 c 1.047 71.512 l 0.391 71.34 0.141 71.074 0.141 70.668
 c h
0 70.637 m f
3.828 57.852 m 3.75 57.852 l 3.406 59.086 2.359 60.43 1.828 60.664 c 1.828
 60.898 l 2.719 60.555 3.297 59.758 3.562 59.352 c 3.562 66.211 l 4.016 
66.211 l 4.016 59.352 l 4.281 59.758 4.859 60.555 5.734 60.898 c 5.734 60.664
 l 5.219 60.43 4.156 59.086 3.828 57.852 c h
3.828 57.852 m f
65.379 164.438 m 64.723 164.875 64.457 165.094 64.113 165.516 c 63.488 
166.297 63.176 167.188 63.176 168.234 c 63.176 169.391 63.504 170.266 64.285
 171.172 c 64.66 171.609 64.895 171.797 65.363 172.094 c 65.457 171.938 
l 64.754 171.375 64.504 171.062 64.254 170.391 c 64.035 169.797 63.941 169.125
 63.941 168.219 c 63.941 167.266 64.051 166.531 64.301 165.984 c 64.551 
165.422 64.816 165.094 65.457 164.578 c h
65.379 164.438 m f
69.707 169.906 m 69.551 170.031 69.441 170.078 69.301 170.078 c 69.098 
170.078 69.035 169.953 69.035 169.562 c 69.035 167.812 l 69.035 167.344 
68.988 167.078 68.863 166.875 c 68.66 166.547 68.27 166.375 67.754 166.375
 c 66.91 166.375 66.238 166.812 66.238 167.375 c 66.238 167.578 66.41 167.766
 66.629 167.766 c 66.848 167.766 67.035 167.578 67.035 167.391 c 67.035 
167.359 67.02 167.312 67.02 167.25 c 66.988 167.156 66.988 167.094 66.988
 167.031 c 66.988 166.781 67.27 166.594 67.629 166.594 c 68.066 166.594 
68.316 166.844 68.316 167.328 c 68.316 167.875 l 66.941 168.422 66.785 168.516
 66.395 168.844 c 66.191 169.031 66.066 169.328 66.066 169.625 c 66.066 
170.188 66.457 170.594 67.02 170.594 c 67.41 170.594 67.77 170.406 68.316
 169.938 c 68.363 170.406 68.535 170.594 68.895 170.594 c 69.207 170.594
 69.395 170.484 69.707 170.141 c h
68.316 169.391 m 68.316 169.672 68.27 169.766 68.082 169.875 c 67.848 170
 67.613 170.062 67.426 170.062 c 67.113 170.062 66.863 169.766 66.863 169.375
 c 66.863 169.344 l 66.863 168.812 67.27 168.469 68.316 168.094 c h
68.316 169.391 m f
70.043 172.094 m 70.699 171.641 70.98 171.422 71.309 171.016 c 71.949 170.234
 72.262 169.328 72.262 168.281 c 72.262 167.141 71.918 166.266 71.137 165.359
 c 70.762 164.922 70.527 164.719 70.074 164.438 c 69.965 164.578 l 70.684
 165.141 70.918 165.453 71.168 166.125 c 71.387 166.734 71.48 167.406 71.48
 168.312 c 71.48 169.25 71.371 169.984 71.121 170.531 c 70.887 171.094 70.605
 171.422 69.965 171.938 c h
70.043 172.094 m f
Q q
164.285 21.062 131.715 132 re W n
q
164 21 132 133 re W n
  q
0 g
1.13366 w
0 J
0 j
[] 0.0 d
10 M q 1 0 0 -1 0 0 cm
181.043 -136.082 m 182.18 -126.059 l 183.312 -118.859 l 184.445 -112.734
 l 185.578 -107.301 l 186.715 -102.383 l 187.848 -97.879 l 188.98 -93.719
 l 190.113 -89.848 l 191.25 -86.242 l 192.383 -82.859 l 193.516 -79.684 
l 194.648 -76.699 l 195.785 -73.883 l 196.918 -71.23 l 198.051 -68.723 l
 199.184 -66.359 l 200.32 -64.125 l 201.453 -62.012 l 202.586 -60.02 l 203.723
 -58.137 l 204.855 -56.359 l 205.988 -54.684 l 207.125 -53.109 l 208.258
 -51.625 l 209.391 -50.234 l 210.523 -48.926 l 211.656 -47.707 l 212.793
 -46.566 l 213.926 -45.504 l 215.059 -44.523 l 216.191 -43.613 l 217.328
 -42.773 l 218.461 -42.008 l 219.594 -41.312 l 220.73 -40.684 l 221.863 
-40.125 l 222.996 -39.629 l 224.129 -39.195 l 225.266 -38.824 l 226.398 
-38.516 l 227.531 -38.27 l 228.668 -38.082 l 229.801 -37.953 l 230.934 -37.883
 l 232.066 -37.871 l 233.199 -37.914 l 234.336 -38.016 l 235.469 -38.172
 l 236.602 -38.383 l 237.738 -38.652 l 238.871 -38.969 l 240.004 -39.344
 l 241.137 -39.773 l 242.273 -40.254 l 243.406 -40.793 l 244.539 -41.379
 l 245.676 -42.023 l 246.809 -42.715 l 247.941 -43.465 l 249.074 -44.266
 l 250.211 -45.121 l 251.344 -46.027 l 252.477 -46.988 l 253.609 -48.004
 l 254.746 -49.07 l 255.879 -50.195 l 257.012 -51.371 l 258.145 -52.605 
l 259.281 -53.895 l 260.414 -55.238 l 261.547 -56.641 l 262.68 -58.102 l
 263.816 -59.625 l 264.949 -61.203 l 266.082 -62.844 l 267.219 -64.543 l
 268.352 -66.309 l 269.484 -68.141 l 270.621 -70.039 l 271.754 -72.008 l
 272.887 -74.043 l 274.02 -76.156 l 275.152 -78.34 l 276.289 -80.609 l 277.422
 -82.957 l 278.555 -85.391 l 279.688 -87.918 l 280.824 -90.543 l 281.957
 -93.266 l 283.09 -96.102 l 284.227 -99.059 l 285.359 -102.148 l 286.492
 -105.379 l 287.625 -108.773 l 288.762 -112.352 l 289.895 -116.156 l 291.027
 -120.234 l 292.164 -124.672 l 293.297 -129.664 l 294.43 -136.082 l S Q
  Q
Q
Q q
0 g
0.567043 w
0 J
0 j
[] 0.0 d
10 M q 1 0 0 -1 0 0 cm
181.328 -68.051 m 181.328 -0.301 l 294.145 -0.301 l 294.145 -135.797 l 
181.328 -135.797 l h
181.328 -68.051 m S Q
183 144.168 m 183 142.559 182.266 141.105 181.016 141.105 c 179.75 141.105
 179.016 142.559 179.016 144.168 c 179.016 145.793 179.703 147.23 181.016
 147.23 c 182.219 147.23 183 145.793 183 144.168 c h
182.141 144.168 m 182.141 145.465 182.016 146.98 181.016 146.98 c 180.062
 146.98 179.875 145.465 179.875 144.168 c 179.875 143.09 180 141.34 181.016
 141.34 c 182.016 141.34 182.141 143.09 182.141 144.168 c h
182.141 144.168 m f
230.215 142.762 m 230.215 142.59 230.059 142.402 229.777 142.402 c 229.449
 142.402 228.996 142.527 228.715 142.652 c 228.012 142.434 227.871 142.105
 227.871 141.949 c 227.871 141.699 228.262 141.465 228.59 141.355 c 228.449
 141.043 l 227.809 141.277 227.48 141.652 227.48 141.965 c 227.48 142.434
 228.074 142.777 228.215 142.84 c 227.996 142.918 227.074 143.262 227.074
 143.965 c 227.074 144.559 227.621 144.934 227.871 145.09 c 227.418 145.262
 226.684 145.699 226.684 146.668 c 226.684 148.199 228.746 147.449 228.746
 148.324 c 228.746 148.605 228.559 148.855 228.262 148.996 c 227.809 149.199
 227.262 149.059 227.262 149.277 c 227.262 149.355 227.402 149.402 227.574
 149.402 c 227.84 149.402 228.246 149.309 228.512 149.168 c 228.965 148.949
 229.277 148.59 229.277 148.105 c 229.277 146.871 227.215 147.512 227.215
 146.434 c 227.215 145.824 227.746 145.449 228.215 145.293 c 228.293 145.324
 228.855 145.621 229.199 145.621 c 229.559 145.621 229.746 145.387 229.746
 145.168 c 229.746 144.98 229.574 144.777 229.215 144.777 c 228.965 144.777
 228.637 144.871 228.324 144.965 c 227.902 144.762 227.621 144.434 227.621
 143.98 c 227.621 143.387 228.402 143.105 228.715 143.012 c 228.996 143.105
 229.309 143.184 229.637 143.184 c 230.027 143.184 230.215 142.965 230.215
 142.762 c h
230.215 142.762 m f
234.684 141.043 m 234.246 141.043 l 231.137 149.402 l 231.59 149.402 l 
h
234.684 141.043 m f
235.359 147.48 m 237.359 147.48 l 237.359 147.34 l 236.891 147.34 236.75
 147.246 236.75 146.887 c 236.75 144.355 l 236.75 144.34 236.812 144.246
 236.875 144.184 c 237.109 143.98 237.484 143.824 237.797 143.824 c 238.203
 143.824 238.391 144.137 238.391 144.762 c 238.391 146.715 l 238.375 147.215
 238.281 147.324 237.781 147.34 c 237.781 147.48 l 239.797 147.48 l 239.797
 147.34 l 239.297 147.34 239.172 147.199 239.141 146.621 c 239.141 144.371
 l 239.422 143.98 239.703 143.824 240.125 143.824 c 240.641 143.824 240.797
 144.059 240.797 144.809 c 240.797 146.699 l 240.781 147.23 240.719 147.293
 240.203 147.34 c 240.203 147.48 l 242.172 147.48 l 242.172 147.34 l 241.938
 147.324 l 241.656 147.277 241.547 147.152 241.547 146.793 c 241.547 144.949
 l 241.547 143.887 241.203 143.355 240.516 143.355 c 239.984 143.355 239.531
 143.59 239.047 144.105 c 238.891 143.59 238.578 143.355 238.094 143.355
 c 237.688 143.355 237.453 143.465 236.703 144.043 c 236.703 143.371 l 236.641
 143.355 l 236.172 143.527 235.859 143.621 235.391 143.762 c 235.391 143.918
 l 235.5 143.887 235.578 143.871 235.672 143.871 c 235.906 143.871 235.984
 144.012 235.984 144.449 c 235.984 146.715 l 235.969 147.215 235.859 147.34
 235.359 147.34 c h
235.359 147.48 m f
244.43 143.355 m 243.242 143.355 242.445 144.215 242.445 145.449 c 242.445
 146.668 243.273 147.574 244.398 147.574 c 245.539 147.574 246.398 146.621
 246.398 145.387 c 246.398 144.199 245.57 143.355 244.43 143.355 c h
244.305 143.605 m 245.055 143.605 245.586 144.465 245.586 145.699 c 245.586
 146.715 245.18 147.324 244.508 147.324 c 244.164 147.324 243.836 147.105
 243.648 146.746 c 243.383 146.277 243.242 145.652 243.242 145.012 c 243.242
 144.168 243.664 143.605 244.305 143.605 c h
244.305 143.605 m f
246.805 147.48 m 248.93 147.48 l 248.93 147.34 l 248.352 147.324 248.258
 147.23 248.242 146.73 c 248.242 141.371 l 248.211 141.355 l 247.758 141.496
 247.43 141.59 246.789 141.746 c 246.789 141.887 l 246.836 141.887 l 246.945
 141.887 247.055 141.871 247.117 141.871 c 247.414 141.871 247.492 141.996
 247.492 142.418 c 247.492 146.699 l 247.492 147.184 247.367 147.309 246.805
 147.34 c h
246.805 147.48 m f
295.637 147.121 m 295.637 146.98 l 295.043 146.98 294.824 146.996 294.824
 145.824 c 294.824 145.809 294.824 141.074 294.824 141.074 c 294.699 141.074
 l 293.168 141.809 l 293.215 141.949 l 293.543 141.809 293.621 141.777 293.746
 141.777 c 294.012 141.777 294.059 142.012 294.059 142.324 c 294.059 145.824
 l 294.059 146.996 293.84 146.965 293.246 146.98 c 293.246 147.121 l h
295.637 147.121 m f
169.938 71.867 m 169.938 72.055 l 170.141 72.164 170.234 72.289 170.234
 72.477 c 170.234 72.773 169.938 73.148 169.938 73.836 c 169.938 74.727 
170.516 75.57 171.484 75.57 c 172.844 75.57 173.5 73.477 174.75 73.477 c
 175.312 73.477 175.953 73.93 175.953 74.727 c 175.953 75.414 175.406 76.148
 174.438 76.148 c 174.281 76.148 174.188 76.133 174.094 76.117 c 174.094
 76.289 l 176.234 76.68 l 176.234 76.523 l 176.062 76.43 175.891 76.336 
175.891 76.102 c 175.891 75.82 176.266 75.273 176.266 74.586 c 176.266 73.273
 175.328 72.633 174.469 72.633 c 173 72.633 172.297 74.758 171.172 74.758
 c 170.625 74.758 170.25 74.32 170.25 73.727 c 170.25 72.992 170.75 72.43
 171.484 72.414 c 171.625 72.414 171.734 72.414 171.844 72.43 c 171.844 
72.273 l h
169.938 71.867 m f
173.906 59.191 m 173.828 59.191 l 173.484 60.426 172.438 61.77 171.906 
62.004 c 171.906 62.238 l 172.797 61.895 173.375 61.098 173.641 60.691 c
 173.641 67.551 l 174.094 67.551 l 174.094 60.691 l 174.359 61.098 174.938
 61.895 175.812 62.238 c 175.812 62.004 l 175.297 61.77 174.234 60.426 173.906
 59.191 c h
173.906 59.191 m f
235.098 164.457 m 234.441 164.895 234.176 165.113 233.832 165.535 c 233.207
 166.316 232.895 167.207 232.895 168.254 c 232.895 169.41 233.223 170.285
 234.004 171.191 c 234.379 171.629 234.613 171.816 235.082 172.113 c 235.176
 171.957 l 234.473 171.395 234.223 171.082 233.973 170.41 c 233.754 169.816
 233.66 169.145 233.66 168.238 c 233.66 167.285 233.77 166.551 234.02 166.004
 c 234.27 165.441 234.535 165.113 235.176 164.598 c h
235.098 164.457 m f
236.832 164.41 m 236.785 164.395 l 236.41 164.52 236.176 164.598 235.738
 164.723 c 235.488 164.785 l 235.488 164.926 l 235.535 164.926 235.566 164.926
 235.629 164.926 c 235.988 164.926 236.082 165.004 236.082 165.379 c 236.082
 170.035 l 236.082 170.316 236.832 170.613 237.551 170.613 c 238.738 170.613
 239.66 169.629 239.66 168.348 c 239.66 167.223 238.973 166.395 238.082 
166.395 c 237.535 166.395 237.004 166.707 236.832 167.16 c h
236.832 167.629 m 236.832 167.285 237.254 166.957 237.723 166.957 c 237.973
 166.957 238.191 167.051 238.379 167.223 c 238.66 167.504 238.863 168.113
 238.863 168.754 c 238.863 169.754 238.441 170.316 237.707 170.316 c 237.238
 170.316 236.832 170.129 236.832 169.895 c h
236.832 167.629 m f
240.242 172.113 m 240.898 171.66 241.18 171.441 241.508 171.035 c 242.148
 170.254 242.461 169.348 242.461 168.301 c 242.461 167.16 242.117 166.285
 241.336 165.379 c 240.961 164.941 240.727 164.738 240.273 164.457 c 240.164
 164.598 l 240.883 165.16 241.117 165.473 241.367 166.145 c 241.586 166.754
 241.68 167.426 241.68 168.332 c 241.68 169.27 241.57 170.004 241.32 170.551
 c 241.086 171.113 240.805 171.441 240.164 171.957 c h
240.242 172.113 m f
Q Q
showpage
%%Trailer
end
%%EOF
