%!PS-Adobe-3.0 EPSF-3.0
%%Creator: cairo 1.17.4 (https://cairographics.org)
%%CreationDate: Thu Feb 24 10:49:05 2022
%%Pages: 1
%%DocumentData: Clean7Bit
%%LanguageLevel: 2
%%BoundingBox: 0 0 268 87
%%EndComments
%%BeginProlog
50 dict begin
/q { gsave } bind def
/Q { grestore } bind def
/cm { 6 array astore concat } bind def
/w { setlinewidth } bind def
/J { setlinecap } bind def
/j { setlinejoin } bind def
/M { setmiterlimit } bind def
/d { setdash } bind def
/m { moveto } bind def
/l { lineto } bind def
/c { curveto } bind def
/h { closepath } bind def
/re { exch dup neg 3 1 roll 5 3 roll moveto 0 rlineto
      0 exch rlineto 0 rlineto closepath } bind def
/S { stroke } bind def
/f { fill } bind def
/f* { eofill } bind def
/n { newpath } bind def
/W { clip } bind def
/W* { eoclip } bind def
/BT { } bind def
/ET { } bind def
/BDC { mark 3 1 roll /BDC pdfmark } bind def
/EMC { mark /EMC pdfmark } bind def
/cairo_store_point { /cairo_point_y exch def /cairo_point_x exch def } def
/Tj { show currentpoint cairo_store_point } bind def
/TJ {
  {
    dup
    type /stringtype eq
    { show } { -0.001 mul 0 cairo_font_matrix dtransform rmoveto } ifelse
  } forall
  currentpoint cairo_store_point
} bind def
/cairo_selectfont { cairo_font_matrix aload pop pop pop 0 0 6 array astore
    cairo_font exch selectfont cairo_point_x cairo_point_y moveto } bind def
/Tf { pop /cairo_font exch def /cairo_font_matrix where
      { pop cairo_selectfont } if } bind def
/Td { matrix translate cairo_font_matrix matrix concatmatrix dup
      /cairo_font_matrix exch def dup 4 get exch 5 get cairo_store_point
      /cairo_font where { pop cairo_selectfont } if } bind def
/Tm { 2 copy 8 2 roll 6 array astore /cairo_font_matrix exch def
      cairo_store_point /cairo_font where { pop cairo_selectfont } if } bind def
/g { setgray } bind def
/rg { setrgbcolor } bind def
/d1 { setcachedevice } bind def
/cairo_data_source {
  CairoDataIndex CairoData length lt
    { CairoData CairoDataIndex get /CairoDataIndex CairoDataIndex 1 add def }
    { () } ifelse
} def
/cairo_flush_ascii85_file { cairo_ascii85_file status { cairo_ascii85_file flushfile } if } def
/cairo_image { image cairo_flush_ascii85_file } def
/cairo_imagemask { imagemask cairo_flush_ascii85_file } def
%%EndProlog
%%BeginSetup
%%EndSetup
%%Page: 1 1
%%BeginPageSetup
%%PageBoundingBox: 0 0 268 87
%%EndPageSetup
q 0 0 268 87 rectclip
1 0 0 -1 0 87 cm q
0 g
0.567043 w
0 J
0 j
[] 0.0 d
10 M q 1 0 0 -1 0 0 cm
0.285 -32.887 m 0.285 -30.383 l 0.285 -27.387 m 0.285 -22.395 l 0.285 -19.398
 m 0.285 -14.406 l 0.285 -11.41 m 0.285 -6.418 l 0.285 -3.422 m 0.285 -0.285
 l 2.137 -0.285 l 5.133 -0.285 m 10.125 -0.285 l 13.121 -0.285 m 18.117 
-0.285 l 21.109 -0.285 m 26.105 -0.285 l 29.102 -0.285 m 34.094 -0.285 l
 37.09 -0.285 m 42.082 -0.285 l 45.078 -0.285 m 50.07 -0.285 l 53.066 -0.285
 m 58.059 -0.285 l 61.055 -0.285 m 66.047 -0.285 l 69.043 -0.285 m 74.035
 -0.285 l 77.031 -0.285 m 82.023 -0.285 l 85.02 -0.285 m 90.012 -0.285 l
 93.008 -0.285 m 98 -0.285 l 100.996 -0.285 m 105.988 -0.285 l 108.984 -0.285
 m 110.836 -0.285 l 110.836 -3.426 l 110.836 -6.422 m 110.836 -11.414 l 
110.836 -14.41 m 110.836 -19.402 l 110.836 -22.398 m 110.836 -27.391 l 110.836
 -30.387 m 110.836 -35.383 l 110.836 -38.375 m 110.836 -43.371 l 110.836
 -46.363 m 110.836 -51.359 l 110.836 -54.355 m 110.836 -59.348 l 110.836
 -62.344 m 110.836 -65.484 l 108.98 -65.484 l 105.988 -65.484 m 100.992 
-65.484 l 97.996 -65.484 m 93.004 -65.484 l 90.008 -65.484 m 85.016 -65.484
 l 82.02 -65.484 m 77.027 -65.484 l 74.031 -65.484 m 69.039 -65.484 l 66.043
 -65.484 m 61.051 -65.484 l 58.055 -65.484 m 53.062 -65.484 l 50.066 -65.484
 m 45.074 -65.484 l 42.078 -65.484 m 37.086 -65.484 l 34.09 -65.484 m 29.098
 -65.484 l 26.102 -65.484 m 21.109 -65.484 l 18.113 -65.484 m 13.121 -65.484
 l 10.125 -65.484 m 5.133 -65.484 l 2.137 -65.484 m 0.285 -65.484 l 0.285
 -62.34 l 0.285 -59.348 m 0.285 -54.352 l 0.285 -51.359 m 0.285 -46.363 
l 0.285 -43.367 m 0.285 -38.375 l 0.285 -35.379 m 0.285 -32.887 l S Q
q 1 0 0 -1 0 0 cm
11.625 -39.973 m 11.625 -25.797 l 39.973 -25.797 l 39.973 -54.145 l 11.625
 -54.145 l h
11.625 -39.973 m S Q
18.273 36.484 m 19.023 36.531 19.117 36.625 19.133 37.297 c 19.133 41.266
 l 19.117 41.938 19.008 42.047 18.273 42.078 c 18.273 42.25 l 21.258 42.25
 l 21.961 42.25 22.602 42.062 22.93 41.75 c 23.258 41.469 23.43 41.062 23.43
 40.641 c 23.43 40.234 23.289 39.875 22.992 39.625 c 22.727 39.375 22.492
 39.266 21.898 39.125 c 22.367 39.016 22.555 38.922 22.773 38.734 c 22.992
 38.531 23.133 38.219 23.133 37.844 c 23.133 36.828 22.32 36.312 20.773 
36.312 c 18.273 36.312 l h
20.039 39.328 m 20.914 39.328 21.32 39.375 21.648 39.516 c 22.164 39.719
 22.398 40.094 22.398 40.641 c 22.398 41.125 22.211 41.484 21.852 41.688
 c 21.57 41.844 21.195 41.922 20.617 41.922 c 20.164 41.922 20.039 41.844
 20.039 41.547 c h
20.039 38.969 m 20.039 36.906 l 20.055 36.719 20.086 36.656 20.242 36.656
 c 20.633 36.641 l 21.633 36.625 22.211 37.078 22.211 37.875 c 22.211 38.578
 21.758 38.953 20.898 38.969 c h
20.039 38.969 m f
26.758 36.188 m 26.102 36.625 25.836 36.844 25.492 37.266 c 24.867 38.047
 24.555 38.938 24.555 39.984 c 24.555 41.141 24.883 42.016 25.664 42.922
 c 26.039 43.359 26.273 43.547 26.742 43.844 c 26.836 43.688 l 26.133 43.125
 25.883 42.812 25.633 42.141 c 25.414 41.547 25.32 40.875 25.32 39.969 c
 25.32 39.016 25.43 38.281 25.68 37.734 c 25.93 37.172 26.195 36.844 26.836
 36.328 c h
26.758 36.188 m f
29.945 39.438 m 29.914 38.203 l 29.805 38.203 l 29.758 38.281 29.711 38.297
 29.664 38.297 c 29.617 38.297 29.523 38.281 29.43 38.234 c 29.211 38.172
 29.008 38.125 28.789 38.125 c 28.086 38.125 27.57 38.594 27.57 39.234 c
 27.57 39.734 27.867 40.094 28.617 40.531 c 29.148 40.828 l 29.461 41 29.617
 41.219 29.617 41.5 c 29.617 41.891 29.32 42.141 28.867 42.141 c 28.242 
42.141 27.93 41.797 27.727 40.891 c 27.586 40.891 l 27.586 42.281 l 27.695
 42.281 l 27.758 42.203 27.805 42.172 27.914 42.172 c 28.008 42.172 28.117
 42.203 28.32 42.25 c 28.555 42.297 28.789 42.344 28.977 42.344 c 29.68 
42.344 30.242 41.812 30.242 41.188 c 30.242 40.75 30.023 40.453 29.492 40.125
 c 28.523 39.547 l 28.258 39.391 28.133 39.188 28.133 38.938 c 28.133 38.578
 28.414 38.328 28.82 38.328 c 29.336 38.328 29.602 38.625 29.805 39.438 
c h
29.945 39.438 m f
30.941 43.844 m 31.598 43.391 31.879 43.172 32.207 42.766 c 32.848 41.984
 33.16 41.078 33.16 40.031 c 33.16 38.891 32.816 38.016 32.035 37.109 c 
31.66 36.672 31.426 36.469 30.973 36.188 c 30.863 36.328 l 31.582 36.891
 31.816 37.203 32.066 37.875 c 32.285 38.484 32.379 39.156 32.379 40.062
 c 32.379 41 32.27 41.734 32.02 42.281 c 31.785 42.844 31.504 43.172 30.863
 43.688 c h
30.941 43.844 m f
q 1 0 0 -1 0 0 cm
56.98 -39.973 m 56.98 -25.797 l 99.5 -25.797 l 99.5 -54.145 l 56.98 -54.145
 l h
56.98 -39.973 m S Q
62.637 36.188 m 61.98 36.625 61.715 36.844 61.371 37.266 c 60.746 38.047
 60.434 38.938 60.434 39.984 c 60.434 41.141 60.762 42.016 61.543 42.922
 c 61.918 43.359 62.152 43.547 62.621 43.844 c 62.715 43.688 l 62.012 43.125
 61.762 42.812 61.512 42.141 c 61.293 41.547 61.199 40.875 61.199 39.969
 c 61.199 39.016 61.309 38.281 61.559 37.734 c 61.809 37.172 62.074 36.844
 62.715 36.328 c h
62.637 36.188 m f
69.324 42.078 m 68.918 42.047 68.84 41.969 68.527 41.297 c 66.293 36.203
 l 66.105 36.203 l 64.246 40.609 l 63.668 41.922 63.559 42.062 63.137 42.078
 c 63.137 42.25 l 64.902 42.25 l 64.902 42.078 l 64.48 42.078 64.293 41.969
 64.293 41.719 c 64.293 41.609 64.324 41.484 64.371 41.359 c 64.777 40.312
 l 67.137 40.312 l 67.496 41.172 l 67.605 41.422 67.668 41.656 67.668 41.781
 c 67.668 42 67.512 42.078 67.043 42.078 c 67.043 42.25 l 69.324 42.25 l
 h
64.934 39.938 m 65.965 37.484 l 67.012 39.938 l h
64.934 39.938 m f
73.992 39.688 m 72.023 39.688 l 72.023 40.281 l 73.992 40.281 l 73.992 
42.25 l 74.586 42.25 l 74.586 40.281 l 76.555 40.281 l 76.555 39.688 l 74.586
 39.688 l 74.586 37.719 l 73.992 37.719 l h
73.992 39.688 m f
79.234 36.484 m 79.984 36.531 80.078 36.625 80.094 37.297 c 80.094 41.266
 l 80.078 41.938 79.969 42.047 79.234 42.078 c 79.234 42.25 l 82.219 42.25
 l 82.922 42.25 83.562 42.062 83.891 41.75 c 84.219 41.469 84.391 41.062
 84.391 40.641 c 84.391 40.234 84.25 39.875 83.953 39.625 c 83.688 39.375
 83.453 39.266 82.859 39.125 c 83.328 39.016 83.516 38.922 83.734 38.734
 c 83.953 38.531 84.094 38.219 84.094 37.844 c 84.094 36.828 83.281 36.312
 81.734 36.312 c 79.234 36.312 l h
81 39.328 m 81.875 39.328 82.281 39.375 82.609 39.516 c 83.125 39.719 83.359
 40.094 83.359 40.641 c 83.359 41.125 83.172 41.484 82.812 41.688 c 82.531
 41.844 82.156 41.922 81.578 41.922 c 81.125 41.922 81 41.844 81 41.547 
c h
81 38.969 m 81 36.906 l 81.016 36.719 81.047 36.656 81.203 36.656 c 81.594
 36.641 l 82.594 36.625 83.172 37.078 83.172 37.875 c 83.172 38.578 82.719
 38.953 81.859 38.969 c h
81 38.969 m f
85.422 43.844 m 86.078 43.391 86.359 43.172 86.688 42.766 c 87.328 41.984
 87.641 41.078 87.641 40.031 c 87.641 38.891 87.297 38.016 86.516 37.109
 c 86.141 36.672 85.906 36.469 85.453 36.188 c 85.344 36.328 l 86.062 36.891
 86.297 37.203 86.547 37.875 c 86.766 38.484 86.859 39.156 86.859 40.062
 c 86.859 41 86.75 41.734 86.5 42.281 c 86.266 42.844 85.984 43.172 85.344
 43.688 c h
85.422 43.844 m f
90.719 36.188 m 90.062 36.625 89.797 36.844 89.453 37.266 c 88.828 38.047
 88.516 38.938 88.516 39.984 c 88.516 41.141 88.844 42.016 89.625 42.922
 c 90 43.359 90.234 43.547 90.703 43.844 c 90.797 43.688 l 90.094 43.125
 89.844 42.812 89.594 42.141 c 89.375 41.547 89.281 40.875 89.281 39.969
 c 89.281 39.016 89.391 38.281 89.641 37.734 c 89.891 37.172 90.156 36.844
 90.797 36.328 c h
90.719 36.188 m f
91.266 42.25 m 93.391 42.25 l 93.391 42.109 l 92.812 42.094 92.719 42 92.703
 41.5 c 92.703 36.141 l 92.672 36.125 l 92.219 36.266 91.891 36.359 91.25
 36.516 c 91.25 36.656 l 91.297 36.656 l 91.406 36.656 91.516 36.641 91.578
 36.641 c 91.875 36.641 91.953 36.766 91.953 37.188 c 91.953 41.469 l 91.953
 41.953 91.828 42.078 91.266 42.109 c h
91.266 42.25 m f
93.941 43.844 m 94.598 43.391 94.879 43.172 95.207 42.766 c 95.848 41.984
 96.16 41.078 96.16 40.031 c 96.16 38.891 95.816 38.016 95.035 37.109 c 
94.66 36.672 94.426 36.469 93.973 36.188 c 93.863 36.328 l 94.582 36.891
 94.816 37.203 95.066 37.875 c 95.285 38.484 95.379 39.156 95.379 40.062
 c 95.379 41 95.27 41.734 95.02 42.281 c 94.785 42.844 94.504 43.172 93.863
 43.688 c h
93.941 43.844 m f
67.531 22.723 m 71.152 25.797 l 70.301 21.125 l 69.809 23.473 l f
0.850361 w
q 1 0 0 -1 0 0 cm
25.797 -25.797 m 25.977 -25.492 l 26.574 -24.605 l 27.477 -23.484 l 27.641
 -23.316 l 29.129 -21.891 m 29.613 -21.477 l 30.836 -20.586 l 31.641 -20.082
 l 33.441 -19.074 m 33.535 -19.027 l 35 -18.359 l 36.285 -17.855 l 38.246
 -17.207 m 39.742 -16.801 l 41.25 -16.461 l 43.281 -16.098 m 44.836 -15.891
 l 46.359 -15.746 l 48.418 -15.637 m 50.043 -15.621 l 51.516 -15.664 l 53.574
 -15.801 m 55.137 -15.98 l 56.645 -16.215 l 58.664 -16.641 m 59.895 -16.957
 l 61.363 -17.418 l 61.633 -17.52 l 63.543 -18.297 m 64.078 -18.539 l 65.305
 -19.199 l 66.242 -19.805 l 67.855 -21.086 m 68.371 -21.57 l 69.156 -22.492
 l 69.664 -23.219 l 69.809 -23.473 l S Q
46.109 6.109 m 46.109 5.938 45.953 5.75 45.672 5.75 c 45.344 5.75 44.891
 5.875 44.609 6 c 43.906 5.781 43.766 5.453 43.766 5.297 c 43.766 5.047 
44.156 4.812 44.484 4.703 c 44.344 4.391 l 43.703 4.625 43.375 5 43.375 
5.312 c 43.375 5.781 43.969 6.125 44.109 6.188 c 43.891 6.266 42.969 6.609
 42.969 7.312 c 42.969 7.906 43.516 8.281 43.766 8.438 c 43.312 8.609 42.578
 9.047 42.578 10.016 c 42.578 11.547 44.641 10.797 44.641 11.672 c 44.641
 11.953 44.453 12.203 44.156 12.344 c 43.703 12.547 43.156 12.406 43.156
 12.625 c 43.156 12.703 43.297 12.75 43.469 12.75 c 43.734 12.75 44.141 
12.656 44.406 12.516 c 44.859 12.297 45.172 11.938 45.172 11.453 c 45.172
 10.219 43.109 10.859 43.109 9.781 c 43.109 9.172 43.641 8.797 44.109 8.641
 c 44.188 8.672 44.75 8.969 45.094 8.969 c 45.453 8.969 45.641 8.734 45.641
 8.516 c 45.641 8.328 45.469 8.125 45.109 8.125 c 44.859 8.125 44.531 8.219
 44.219 8.312 c 43.797 8.109 43.516 7.781 43.516 7.328 c 43.516 6.734 44.297
 6.453 44.609 6.359 c 44.891 6.453 45.203 6.531 45.531 6.531 c 45.922 6.531
 46.109 6.312 46.109 6.109 c h
46.109 6.109 m f
48.262 10.922 m 48.246 9.969 l 48.168 9.969 l 48.137 10.016 48.09 10.047
 48.059 10.047 c 48.012 10.047 47.949 10.031 47.871 10 c 47.699 9.938 47.543
 9.906 47.371 9.906 c 46.824 9.906 46.434 10.266 46.434 10.766 c 46.434 
11.156 46.652 11.438 47.246 11.766 c 47.652 12 l 47.887 12.141 48.012 12.312
 48.012 12.531 c 48.012 12.828 47.793 13.031 47.434 13.031 c 46.949 13.031
 46.715 12.766 46.543 12.047 c 46.434 12.047 l 46.434 13.141 l 46.527 13.141
 l 46.574 13.062 46.605 13.047 46.684 13.047 c 46.762 13.047 46.855 13.062
 47.012 13.109 c 47.199 13.156 47.371 13.172 47.512 13.172 c 48.059 13.172
 48.496 12.781 48.496 12.281 c 48.496 11.938 48.34 11.703 47.918 11.453 
c 47.168 11.016 l 46.965 10.891 46.855 10.719 46.855 10.531 c 46.855 10.25
 47.074 10.062 47.402 10.062 c 47.793 10.062 48.012 10.297 48.168 10.922
 c h
48.262 10.922 m f
50.566 9.906 m 49.66 9.906 49.035 10.578 49.035 11.531 c 49.035 12.484 
49.676 13.172 50.566 13.172 c 51.441 13.172 52.113 12.453 52.113 11.484 
c 52.113 10.562 51.473 9.906 50.566 9.906 c h
50.488 10.094 m 51.066 10.094 51.473 10.766 51.473 11.719 c 51.473 12.516
 51.16 12.984 50.645 12.984 c 50.379 12.984 50.113 12.812 49.973 12.531 
c 49.77 12.172 49.66 11.688 49.66 11.188 c 49.66 10.531 49.988 10.094 50.488
 10.094 c h
50.488 10.094 m f
52.453 13.109 m 54.109 13.109 l 54.109 13 l 53.672 12.984 53.594 12.922
 53.578 12.531 c 53.578 8.359 l 53.547 8.344 l 53.203 8.469 52.938 8.531
 52.438 8.656 c 52.438 8.766 l 52.484 8.766 l 52.562 8.766 52.641 8.75 52.703
 8.75 c 52.922 8.75 53 8.844 53 9.172 c 53 12.5 l 52.984 12.875 52.891 12.984
 52.453 13 c h
52.453 13.109 m f
53.281 78.707 m 52.625 79.145 52.359 79.363 52.016 79.785 c 51.391 80.566
 51.078 81.457 51.078 82.504 c 51.078 83.66 51.406 84.535 52.188 85.441 
c 52.562 85.879 52.797 86.066 53.266 86.363 c 53.359 86.207 l 52.656 85.645
 52.406 85.332 52.156 84.66 c 51.938 84.066 51.844 83.395 51.844 82.488 
c 51.844 81.535 51.953 80.801 52.203 80.254 c 52.453 79.691 52.719 79.363
 53.359 78.848 c h
53.281 78.707 m f
57.609 84.176 m 57.453 84.301 57.344 84.348 57.203 84.348 c 57 84.348 56.938
 84.223 56.938 83.832 c 56.938 82.082 l 56.938 81.613 56.891 81.348 56.766
 81.145 c 56.562 80.816 56.172 80.645 55.656 80.645 c 54.812 80.645 54.141
 81.082 54.141 81.645 c 54.141 81.848 54.312 82.035 54.531 82.035 c 54.75
 82.035 54.938 81.848 54.938 81.66 c 54.938 81.629 54.922 81.582 54.922 
81.52 c 54.891 81.426 54.891 81.363 54.891 81.301 c 54.891 81.051 55.172
 80.863 55.531 80.863 c 55.969 80.863 56.219 81.113 56.219 81.598 c 56.219
 82.145 l 54.844 82.691 54.688 82.785 54.297 83.113 c 54.094 83.301 53.969
 83.598 53.969 83.895 c 53.969 84.457 54.359 84.863 54.922 84.863 c 55.312
 84.863 55.672 84.676 56.219 84.207 c 56.266 84.676 56.438 84.863 56.797
 84.863 c 57.109 84.863 57.297 84.754 57.609 84.41 c h
56.219 83.66 m 56.219 83.941 56.172 84.035 55.984 84.145 c 55.75 84.27 
55.516 84.332 55.328 84.332 c 55.016 84.332 54.766 84.035 54.766 83.645 
c 54.766 83.613 l 54.766 83.082 55.172 82.738 56.219 82.363 c h
56.219 83.66 m f
57.945 86.363 m 58.602 85.91 58.883 85.691 59.211 85.285 c 59.852 84.504
 60.164 83.598 60.164 82.551 c 60.164 81.41 59.82 80.535 59.039 79.629 c
 58.664 79.191 58.43 78.988 57.977 78.707 c 57.867 78.848 l 58.586 79.41
 58.82 79.723 59.07 80.395 c 59.289 81.004 59.383 81.676 59.383 82.582 c
 59.383 83.52 59.273 84.254 59.023 84.801 c 58.789 85.363 58.508 85.691 
57.867 86.207 c h
57.945 86.363 m f
Q q
155.906 0.023 111.102 66 re W n
q
155 0 113 67 re W n
  q
0 g
0.567043 w
0 J
0 j
[] 0.0 d
10 M q 1 0 0 -1 0 0 cm
156.191 -32.887 m 156.191 -30.383 l 156.191 -27.387 m 156.191 -22.395 l
 156.191 -19.398 m 156.191 -14.406 l 156.191 -11.41 m 156.191 -6.418 l 156.191
 -3.422 m 156.191 -0.285 l 158.043 -0.285 l 161.039 -0.285 m 166.031 -0.285
 l 169.027 -0.285 m 174.023 -0.285 l 177.02 -0.285 m 182.012 -0.285 l 185.004
 -0.285 m 190 -0.285 l 192.996 -0.285 m 197.988 -0.285 l 200.984 -0.285 
m 205.977 -0.285 l 208.973 -0.285 m 213.965 -0.285 l 216.961 -0.285 m 221.953
 -0.285 l 224.949 -0.285 m 229.941 -0.285 l 232.938 -0.285 m 237.93 -0.285
 l 240.926 -0.285 m 245.918 -0.285 l 248.914 -0.285 m 253.906 -0.285 l 256.902
 -0.285 m 261.895 -0.285 l 264.891 -0.285 m 266.742 -0.285 l 266.742 -3.426
 l 266.742 -6.422 m 266.742 -11.414 l 266.742 -14.41 m 266.742 -19.402 l
 266.742 -22.398 m 266.742 -27.391 l 266.742 -30.387 m 266.742 -35.383 l
 266.742 -38.375 m 266.742 -43.371 l 266.742 -46.363 m 266.742 -51.359 l
 266.742 -54.355 m 266.742 -59.348 l 266.742 -62.344 m 266.742 -65.484 l
 264.887 -65.484 l 261.895 -65.484 m 256.898 -65.484 l 253.902 -65.484 m
 248.91 -65.484 l 245.914 -65.484 m 240.922 -65.484 l 237.926 -65.484 m 
232.934 -65.484 l 229.938 -65.484 m 224.945 -65.484 l 221.949 -65.484 m 
216.957 -65.484 l 213.961 -65.484 m 208.969 -65.484 l 205.973 -65.484 m 
200.98 -65.484 l 197.984 -65.484 m 192.992 -65.484 l 189.996 -65.484 m 185.004
 -65.484 l 182.008 -65.484 m 177.012 -65.484 l 174.02 -65.484 m 169.027 
-65.484 l 166.031 -65.484 m 161.039 -65.484 l 158.043 -65.484 m 156.191 
-65.484 l 156.191 -62.34 l 156.191 -59.348 m 156.191 -54.352 l 156.191 -51.359
 m 156.191 -46.363 l 156.191 -43.367 m 156.191 -38.375 l 156.191 -35.379
 m 156.191 -32.887 l S Q
  Q
Q
0 g
0.567043 w
0 J
0 j
[] 0.0 d
10 M q 1 0 0 -1 0 0 cm
167.531 -39.973 m 167.531 -25.797 l 195.875 -25.797 l 195.875 -54.145 l
 167.531 -54.145 l h
167.531 -39.973 m S Q
180.59 42.078 m 180.184 42.047 180.105 41.969 179.793 41.297 c 177.559 
36.203 l 177.371 36.203 l 175.512 40.609 l 174.934 41.922 174.824 42.062
 174.402 42.078 c 174.402 42.25 l 176.168 42.25 l 176.168 42.078 l 175.746
 42.078 175.559 41.969 175.559 41.719 c 175.559 41.609 175.59 41.484 175.637
 41.359 c 176.043 40.312 l 178.402 40.312 l 178.762 41.172 l 178.871 41.422
 178.934 41.656 178.934 41.781 c 178.934 42 178.777 42.078 178.309 42.078
 c 178.309 42.25 l 180.59 42.25 l h
176.199 39.938 m 177.23 37.484 l 178.277 39.938 l h
176.199 39.938 m f
183.383 36.188 m 182.727 36.625 182.461 36.844 182.117 37.266 c 181.492
 38.047 181.18 38.938 181.18 39.984 c 181.18 41.141 181.508 42.016 182.289
 42.922 c 182.664 43.359 182.898 43.547 183.367 43.844 c 183.461 43.688 
l 182.758 43.125 182.508 42.812 182.258 42.141 c 182.039 41.547 181.945 
40.875 181.945 39.969 c 181.945 39.016 182.055 38.281 182.305 37.734 c 182.555
 37.172 182.82 36.844 183.461 36.328 c h
183.383 36.188 m f
183.93 42.25 m 186.055 42.25 l 186.055 42.109 l 185.477 42.094 185.383 
42 185.367 41.5 c 185.367 36.141 l 185.336 36.125 l 184.883 36.266 184.555
 36.359 183.914 36.516 c 183.914 36.656 l 183.961 36.656 l 184.07 36.656
 184.18 36.641 184.242 36.641 c 184.539 36.641 184.617 36.766 184.617 37.188
 c 184.617 41.469 l 184.617 41.953 184.492 42.078 183.93 42.109 c h
183.93 42.25 m f
186.605 43.844 m 187.262 43.391 187.543 43.172 187.871 42.766 c 188.512
 41.984 188.824 41.078 188.824 40.031 c 188.824 38.891 188.48 38.016 187.699
 37.109 c 187.324 36.672 187.09 36.469 186.637 36.188 c 186.527 36.328 l
 187.246 36.891 187.48 37.203 187.73 37.875 c 187.949 38.484 188.043 39.156
 188.043 40.062 c 188.043 41 187.934 41.734 187.684 42.281 c 187.449 42.844
 187.168 43.172 186.527 43.688 c h
186.605 43.844 m f
q 1 0 0 -1 0 0 cm
212.883 -39.973 m 212.883 -25.797 l 255.402 -25.797 l 255.402 -54.145 l
 212.883 -54.145 l h
212.883 -39.973 m S Q
218.543 36.188 m 217.887 36.625 217.621 36.844 217.277 37.266 c 216.652
 38.047 216.34 38.938 216.34 39.984 c 216.34 41.141 216.668 42.016 217.449
 42.922 c 217.824 43.359 218.059 43.547 218.527 43.844 c 218.621 43.688 
l 217.918 43.125 217.668 42.812 217.418 42.141 c 217.199 41.547 217.105 
40.875 217.105 39.969 c 217.105 39.016 217.215 38.281 217.465 37.734 c 217.715
 37.172 217.98 36.844 218.621 36.328 c h
218.543 36.188 m f
225.23 42.078 m 224.824 42.047 224.746 41.969 224.434 41.297 c 222.199 
36.203 l 222.012 36.203 l 220.152 40.609 l 219.574 41.922 219.465 42.062
 219.043 42.078 c 219.043 42.25 l 220.809 42.25 l 220.809 42.078 l 220.387
 42.078 220.199 41.969 220.199 41.719 c 220.199 41.609 220.23 41.484 220.277
 41.359 c 220.684 40.312 l 223.043 40.312 l 223.402 41.172 l 223.512 41.422
 223.574 41.656 223.574 41.781 c 223.574 42 223.418 42.078 222.949 42.078
 c 222.949 42.25 l 225.23 42.25 l h
220.84 39.938 m 221.871 37.484 l 222.918 39.938 l h
220.84 39.938 m f
229.898 39.688 m 227.93 39.688 l 227.93 40.281 l 229.898 40.281 l 229.898
 42.25 l 230.492 42.25 l 230.492 40.281 l 232.461 40.281 l 232.461 39.688
 l 230.492 39.688 l 230.492 37.719 l 229.898 37.719 l h
229.898 39.688 m f
235.141 36.484 m 235.891 36.531 235.984 36.625 236 37.297 c 236 41.266 
l 235.984 41.938 235.875 42.047 235.141 42.078 c 235.141 42.25 l 238.125
 42.25 l 238.828 42.25 239.469 42.062 239.797 41.75 c 240.125 41.469 240.297
 41.062 240.297 40.641 c 240.297 40.234 240.156 39.875 239.859 39.625 c 
239.594 39.375 239.359 39.266 238.766 39.125 c 239.234 39.016 239.422 38.922
 239.641 38.734 c 239.859 38.531 240 38.219 240 37.844 c 240 36.828 239.188
 36.312 237.641 36.312 c 235.141 36.312 l h
236.906 39.328 m 237.781 39.328 238.188 39.375 238.516 39.516 c 239.031
 39.719 239.266 40.094 239.266 40.641 c 239.266 41.125 239.078 41.484 238.719
 41.688 c 238.438 41.844 238.062 41.922 237.484 41.922 c 237.031 41.922 
236.906 41.844 236.906 41.547 c h
236.906 38.969 m 236.906 36.906 l 236.922 36.719 236.953 36.656 237.109
 36.656 c 237.5 36.641 l 238.5 36.625 239.078 37.078 239.078 37.875 c 239.078
 38.578 238.625 38.953 237.766 38.969 c h
236.906 38.969 m f
241.328 43.844 m 241.984 43.391 242.266 43.172 242.594 42.766 c 243.234
 41.984 243.547 41.078 243.547 40.031 c 243.547 38.891 243.203 38.016 242.422
 37.109 c 242.047 36.672 241.812 36.469 241.359 36.188 c 241.25 36.328 l
 241.969 36.891 242.203 37.203 242.453 37.875 c 242.672 38.484 242.766 39.156
 242.766 40.062 c 242.766 41 242.656 41.734 242.406 42.281 c 242.172 42.844
 241.891 43.172 241.25 43.688 c h
241.328 43.844 m f
246.625 36.188 m 245.969 36.625 245.703 36.844 245.359 37.266 c 244.734
 38.047 244.422 38.938 244.422 39.984 c 244.422 41.141 244.75 42.016 245.531
 42.922 c 245.906 43.359 246.141 43.547 246.609 43.844 c 246.703 43.688 
l 246 43.125 245.75 42.812 245.5 42.141 c 245.281 41.547 245.188 40.875 
245.188 39.969 c 245.188 39.016 245.297 38.281 245.547 37.734 c 245.797 
37.172 246.062 36.844 246.703 36.328 c h
246.625 36.188 m f
247.172 42.25 m 249.297 42.25 l 249.297 42.109 l 248.719 42.094 248.625
 42 248.609 41.5 c 248.609 36.141 l 248.578 36.125 l 248.125 36.266 247.797
 36.359 247.156 36.516 c 247.156 36.656 l 247.203 36.656 l 247.312 36.656
 247.422 36.641 247.484 36.641 c 247.781 36.641 247.859 36.766 247.859 37.188
 c 247.859 41.469 l 247.859 41.953 247.734 42.078 247.172 42.109 c h
247.172 42.25 m f
249.848 43.844 m 250.504 43.391 250.785 43.172 251.113 42.766 c 251.754
 41.984 252.066 41.078 252.066 40.031 c 252.066 38.891 251.723 38.016 250.941
 37.109 c 250.566 36.672 250.332 36.469 249.879 36.188 c 249.77 36.328 l
 250.488 36.891 250.723 37.203 250.973 37.875 c 251.191 38.484 251.285 39.156
 251.285 40.062 c 251.285 41 251.176 41.734 250.926 42.281 c 250.691 42.844
 250.41 43.172 249.77 43.688 c h
249.848 43.844 m f
223.438 22.723 m 227.059 25.797 l 226.203 21.125 l 225.715 23.473 l f
0.850361 w
q 1 0 0 -1 0 0 cm
181.703 -25.797 m 181.883 -25.492 l 182.48 -24.605 l 183.379 -23.484 l 
183.543 -23.312 l 185.035 -21.891 m 185.52 -21.477 l 186.738 -20.586 l 187.543
 -20.082 l 189.348 -19.074 m 189.441 -19.027 l 190.906 -18.359 l 192.191
 -17.855 l 194.152 -17.207 m 195.648 -16.801 l 197.156 -16.461 l 199.188
 -16.098 m 200.738 -15.891 l 202.262 -15.746 l 204.324 -15.637 m 205.945
 -15.621 l 207.422 -15.664 l 209.48 -15.801 m 211.043 -15.98 l 212.551 -16.215
 l 214.57 -16.641 m 215.801 -16.957 l 217.27 -17.418 l 217.539 -17.52 l 
219.449 -18.297 m 219.98 -18.539 l 221.211 -19.199 l 222.148 -19.805 l 223.762
 -21.09 m 224.273 -21.57 l 225.062 -22.492 l 225.566 -23.219 l 225.715 -23.473
 l S Q
202.375 6.109 m 202.375 5.938 202.219 5.75 201.938 5.75 c 201.609 5.75 
201.156 5.875 200.875 6 c 200.172 5.781 200.031 5.453 200.031 5.297 c 200.031
 5.047 200.422 4.812 200.75 4.703 c 200.609 4.391 l 199.969 4.625 199.641
 5 199.641 5.312 c 199.641 5.781 200.234 6.125 200.375 6.188 c 200.156 6.266
 199.234 6.609 199.234 7.312 c 199.234 7.906 199.781 8.281 200.031 8.438
 c 199.578 8.609 198.844 9.047 198.844 10.016 c 198.844 11.547 200.906 10.797
 200.906 11.672 c 200.906 11.953 200.719 12.203 200.422 12.344 c 199.969
 12.547 199.422 12.406 199.422 12.625 c 199.422 12.703 199.562 12.75 199.734
 12.75 c 200 12.75 200.406 12.656 200.672 12.516 c 201.125 12.297 201.438
 11.938 201.438 11.453 c 201.438 10.219 199.375 10.859 199.375 9.781 c 199.375
 9.172 199.906 8.797 200.375 8.641 c 200.453 8.672 201.016 8.969 201.359
 8.969 c 201.719 8.969 201.906 8.734 201.906 8.516 c 201.906 8.328 201.734
 8.125 201.375 8.125 c 201.125 8.125 200.797 8.219 200.484 8.312 c 200.062
 8.109 199.781 7.781 199.781 7.328 c 199.781 6.734 200.562 6.453 200.875
 6.359 c 201.156 6.453 201.469 6.531 201.797 6.531 c 202.188 6.531 202.375
 6.312 202.375 6.109 c h
202.375 6.109 m f
205.762 12.703 m 205.668 12.719 205.637 12.719 205.605 12.719 c 205.355
 12.719 205.293 12.641 205.293 12.312 c 205.293 8.359 l 205.262 8.344 l 
204.934 8.469 204.699 8.531 204.23 8.656 c 204.23 8.766 l 204.293 8.766 
204.324 8.766 204.387 8.766 c 204.652 8.766 204.715 8.828 204.715 9.109 
c 204.715 10.203 l 204.449 9.984 204.262 9.906 203.98 9.906 c 203.184 9.906
 202.527 10.688 202.527 11.688 c 202.527 12.578 203.043 13.172 203.824 13.172
 c 204.215 13.172 204.465 13.047 204.715 12.719 c 204.715 13.156 l 204.73
 13.172 l 205.762 12.812 l h
204.715 12.406 m 204.715 12.453 204.668 12.531 204.59 12.609 c 204.465 
12.75 204.293 12.812 204.09 12.812 c 203.496 12.812 203.121 12.266 203.121
 11.391 c 203.121 10.609 203.465 10.094 203.996 10.094 c 204.371 10.094 
204.715 10.422 204.715 10.797 c h
204.715 12.406 m f
205.93 13.109 m 207.586 13.109 l 207.586 13 l 207.117 12.969 207.07 12.906
 207.07 12.406 c 207.07 9.922 l 207.039 9.906 l 205.961 10.281 l 205.961
 10.391 l 206.008 10.391 l 206.102 10.375 206.18 10.359 206.258 10.359 c
 206.414 10.359 206.477 10.469 206.477 10.781 c 206.477 12.406 l 206.461
 12.922 206.398 12.984 205.93 13 c h
206.711 8.344 m 206.523 8.344 206.367 8.516 206.367 8.703 c 206.367 8.906
 206.523 9.062 206.711 9.062 c 206.914 9.062 207.07 8.906 207.07 8.703 c
 207.07 8.5 206.914 8.344 206.711 8.344 c h
206.711 8.344 m f
207.879 13.109 m 209.535 13.109 l 209.535 13 l 209.098 12.984 209.02 12.922
 209.004 12.531 c 209.004 8.359 l 208.973 8.344 l 208.629 8.469 208.363 
8.531 207.863 8.656 c 207.863 8.766 l 207.91 8.766 l 207.988 8.766 208.066
 8.75 208.129 8.75 c 208.348 8.75 208.426 8.844 208.426 9.172 c 208.426 
12.5 l 208.41 12.875 208.316 12.984 207.879 13 c h
207.879 13.109 m f
Q q
0 g
208.824 78.707 m 208.168 79.145 207.902 79.363 207.559 79.785 c 206.934
 80.566 206.621 81.457 206.621 82.504 c 206.621 83.66 206.949 84.535 207.73
 85.441 c 208.105 85.879 208.34 86.066 208.809 86.363 c 208.902 86.207 l
 208.199 85.645 207.949 85.332 207.699 84.66 c 207.48 84.066 207.387 83.395
 207.387 82.488 c 207.387 81.535 207.496 80.801 207.746 80.254 c 207.996
 79.691 208.262 79.363 208.902 78.848 c h
208.824 78.707 m f
210.559 78.66 m 210.512 78.645 l 210.137 78.77 209.902 78.848 209.465 78.973
 c 209.215 79.035 l 209.215 79.176 l 209.262 79.176 209.293 79.176 209.355
 79.176 c 209.715 79.176 209.809 79.254 209.809 79.629 c 209.809 84.285 
l 209.809 84.566 210.559 84.863 211.277 84.863 c 212.465 84.863 213.387 
83.879 213.387 82.598 c 213.387 81.473 212.699 80.645 211.809 80.645 c 211.262
 80.645 210.73 80.957 210.559 81.41 c h
210.559 81.879 m 210.559 81.535 210.98 81.207 211.449 81.207 c 211.699 
81.207 211.918 81.301 212.105 81.473 c 212.387 81.754 212.59 82.363 212.59
 83.004 c 212.59 84.004 212.168 84.566 211.434 84.566 c 210.965 84.566 210.559
 84.379 210.559 84.145 c h
210.559 81.879 m f
213.969 86.363 m 214.625 85.91 214.906 85.691 215.234 85.285 c 215.875 
84.504 216.188 83.598 216.188 82.551 c 216.188 81.41 215.844 80.535 215.062
 79.629 c 214.688 79.191 214.453 78.988 214 78.707 c 213.891 78.848 l 214.609
 79.41 214.844 79.723 215.094 80.395 c 215.312 81.004 215.406 81.676 215.406
 82.582 c 215.406 83.52 215.297 84.254 215.047 84.801 c 214.812 85.363 214.531
 85.691 213.891 86.207 c h
213.969 86.363 m f
Q Q
showpage
%%Trailer
end
%%EOF
