<?xml version="1.0" encoding="UTF-8" standalone="no"?>
<svg
   width="264pt"
   height="253pt"
   viewBox="0 0 264 253"
   version="1.2"
   id="svg221"
   xmlns="http://www.w3.org/2000/svg"
   xmlns:svg="http://www.w3.org/2000/svg">
  <defs
     id="defs225" />
  <g
     id="surface1">
    <path
       style="fill:none;stroke-width:8.50363;stroke-linecap:butt;stroke-linejoin:miter;stroke:rgb(0%,0%,0%);stroke-opacity:1;stroke-miterlimit:10;"
       d="M 1053.554688 1645.664062 C 1053.554688 1645.664062 1041.015625 1677.65625 1034.414062 1694.6875 C 1027.460938 1712.773438 1021.5625 1729.101562 1015.3125 1747.539062 C 1001.367188 1787.890625 989.21875 1824.375 977.03125 1865.078125 C 962.8125 1912.695312 950.976562 1955.820312 938.789062 2004.140625 C 924.53125 2060.117188 912.734375 2110.859375 900.546875 2167.539062 C 885.9375 2235.703125 874.492188 2297.226562 862.304688 2366.054688 C 855 2406.757812 849.453125 2443.242188 843.203125 2483.945312 C 840.742188 2497.851562 836.914062 2524.257812 836.914062 2524.257812 "
       transform="matrix(0.1,0,0,-0.1,0,253)"
       id="path2" />
    <path
       style="fill:none;stroke-width:8.50363;stroke-linecap:butt;stroke-linejoin:miter;stroke:rgb(0%,0%,0%);stroke-opacity:1;stroke-miterlimit:10;"
       d="M 1182.890625 2524.257812 C 1182.890625 2524.257812 1198.164062 2494.375 1206.523438 2478.710938 C 1232.578125 2429.6875 1255.546875 2385.898438 1283.359375 2337.890625 C 1308.75 2293.75 1332.382812 2254.453125 1359.84375 2211.367188 C 1385.234375 2171.367188 1409.21875 2136.25 1436.328125 2097.304688 C 1462.070312 2060.46875 1485.351562 2027.421875 1512.8125 1991.601562 C 1538.203125 1958.242188 1562.539062 1929.375 1589.296875 1896.71875 C 1615.390625 1865.390625 1638.671875 1837.578125 1665.820312 1807.34375 C 1691.523438 1778.125 1715.507812 1752.773438 1742.304688 1724.609375 C 1768.359375 1697.148438 1818.789062 1645.664062 1818.789062 1645.664062 "
       transform="matrix(0.1,0,0,-0.1,0,253)"
       id="path4" />
    <path
       style="fill:none;stroke-width:8.50363;stroke-linecap:butt;stroke-linejoin:miter;stroke:rgb(0%,0%,0%);stroke-opacity:1;stroke-miterlimit:10;"
       d="M 1275.703125 2524.257812 C 1275.703125 2524.257812 1329.609375 2414.414062 1359.84375 2357.382812 C 1385.234375 2309.414062 1409.21875 2267.34375 1436.328125 2220.039062 C 1449.179688 2197.773438 1474.570312 2155.039062 1474.570312 2155.039062 "
       transform="matrix(0.1,0,0,-0.1,0,253)"
       id="path6" />
    <path
       style="fill:none;stroke-width:8.50363;stroke-linecap:butt;stroke-linejoin:miter;stroke:rgb(0%,0%,0%);stroke-opacity:1;stroke-miterlimit:10;"
       d="M 1512.734375 990.078125 C 1512.734375 990.078125 1461.484375 1043.085938 1436.171875 1072.5 C 1408.476562 1105.429688 1384.570312 1135.9375 1359.609375 1170.898438 C 1331.523438 1211.09375 1307.617188 1248.164062 1283.046875 1290.429688 C 1254.609375 1340.351562 1230.390625 1386.054688 1206.796875 1438.046875 C 1177.03125 1503.515625 1154.140625 1563.789062 1130.234375 1631.367188 C 1115.351562 1673.28125 1103.90625 1711.757812 1091.796875 1754.375 C 1076.875 1808.085938 1064.414062 1856.5625 1053.671875 1910.976562 C 1038.085938 1989.257812 1025.273438 2059.960938 1019.023438 2139.296875 C 1015.898438 2181.210938 1015.898438 2218.984375 1019.023438 2260.546875 C 1019.375 2265.390625 1019.726562 2270.234375 1021.445312 2274.765625 C 1028.75 2293.125 1035.3125 2316.328125 1053.671875 2322.226562 C 1066.835938 2326.367188 1079.648438 2315.273438 1091.796875 2308.007812 C 1107.03125 2299.375 1117.773438 2286.875 1130.234375 2274.765625 C 1144.101562 2260.898438 1155.546875 2247.382812 1168.359375 2232.5 C 1181.875 2216.914062 1193.632812 2202.695312 1206.796875 2186.757812 C 1233.164062 2154.882812 1256.71875 2125.78125 1283.046875 2093.554688 C 1309.375 2062.03125 1332.929688 2033.632812 1359.609375 2002.421875 C 1385.585938 1972.304688 1409.492188 1945.625 1436.171875 1916.171875 C 1462.5 1887.421875 1485.703125 1861.40625 1512.734375 1833.710938 C 1538.710938 1807.03125 1562.617188 1783.828125 1589.296875 1758.164062 C 1615.3125 1732.890625 1639.21875 1710.351562 1665.898438 1686.09375 C 1691.875 1661.875 1715.429688 1640.390625 1742.460938 1617.5 C 1768.085938 1595.351562 1792.34375 1576.992188 1819.023438 1555.820312 C 1845.351562 1535.039062 1868.90625 1516.328125 1895.585938 1496.25 C 1921.5625 1476.484375 1945.46875 1458.828125 1972.148438 1439.765625 C 1998.125 1421.40625 2022.03125 1405.117188 2048.398438 1387.109375 C 2074.726562 1369.453125 2098.28125 1353.515625 2124.960938 1336.171875 C 2151.289062 1319.53125 2175.195312 1305 2201.523438 1288.710938 C 2214.6875 1280.742188 2239.960938 1265.859375 2239.960938 1265.859375 "
       transform="matrix(0.1,0,0,-0.1,0,253)"
       id="path8" />
    <path
       style="fill:none;stroke-width:8.5036;stroke-linecap:butt;stroke-linejoin:miter;stroke:rgb(0%,0%,0%);stroke-opacity:1;stroke-miterlimit:10;"
       d="M 2316.328125 552.421875 C 2316.328125 552.421875 2291.367188 561.328125 2278.046875 566.445312 C 2251.679688 576.367188 2227.773438 585.625 2201.757812 596.210938 C 2175.078125 607.148438 2151.132812 617.421875 2125.15625 629.726562 C 2098.125 642.382812 2074.882812 654.6875 2048.554688 668.359375 C 2021.875 682.070312 1997.929688 694.023438 1971.914062 708.75 C 1944.921875 724.140625 1921.328125 739.179688 1895.3125 756.289062 C 1868.632812 773.710938 1844.6875 789.804688 1819.0625 808.945312 C 1791.679688 829.101562 1768.085938 848.28125 1742.421875 870.507812 C 1715.078125 893.75 1691.132812 915.3125 1665.820312 940.625 C 1638.125 968.671875 1614.53125 995 1589.21875 1025.078125 C 1561.171875 1058.945312 1536.875 1090.429688 1512.929688 1127.03125 C 1483.515625 1171.835938 1459.921875 1214.21875 1436.328125 1262.460938 C 1421.289062 1293.242188 1409.648438 1321.601562 1398.046875 1353.789062 C 1390.15625 1375.3125 1384.6875 1395.15625 1378.867188 1417.03125 C 1377.5 1422.5 1376.132812 1427.304688 1375.117188 1432.773438 C 1372.03125 1447.8125 1368.632812 1461.523438 1367.265625 1476.914062 C 1365.546875 1499.804688 1363.476562 1521.015625 1367.265625 1543.59375 C 1369.296875 1554.882812 1372.734375 1565.46875 1378.867188 1575.390625 C 1384.023438 1583.242188 1389.492188 1590.429688 1398.046875 1594.53125 C 1410 1600.351562 1423.007812 1600.703125 1436.328125 1599.6875 C 1463.710938 1597.96875 1487.304688 1588.75 1512.929688 1578.828125 C 1540.3125 1568.203125 1563.203125 1553.867188 1589.21875 1540.15625 C 1615.898438 1526.132812 1639.84375 1512.8125 1665.820312 1497.773438 C 1692.5 1482.695312 1715.742188 1467.65625 1742.421875 1452.265625 C 1768.789062 1436.875 1792.382812 1423.554688 1819.0625 1408.164062 C 1845.390625 1393.085938 1868.984375 1379.414062 1895.3125 1364.375 C 1921.640625 1349.648438 1945.585938 1336.328125 1971.914062 1322.304688 C 1998.28125 1307.929688 2021.875 1295.273438 2048.554688 1281.601562 C 2074.882812 1268.28125 2098.476562 1256.289062 2125.15625 1242.96875 C 2151.484375 1229.960938 2175.078125 1219.023438 2201.757812 1206.015625 C 2228.085938 1193.359375 2251.367188 1181.40625 2278.046875 1169.101562 C 2304.375 1157.109375 2328.320312 1147.539062 2354.648438 1135.898438 C 2380.976562 1124.296875 2404.570312 1113.671875 2431.25 1102.382812 C 2457.578125 1091.445312 2481.171875 1081.523438 2507.851562 1070.9375 C 2534.21875 1060.3125 2584.140625 1040.820312 2584.140625 1040.820312 "
       transform="matrix(0.1,0,0,-0.1,0,253)"
       id="path10" />
    <path
       style="fill:none;stroke-width:8.5036;stroke-linecap:butt;stroke-linejoin:miter;stroke:rgb(0%,0%,0%);stroke-opacity:1;stroke-miterlimit:10;"
       d="M 2584.179688 511.875 C 2584.179688 511.875 2533.984375 530.15625 2507.539062 540 C 2481.09375 550.15625 2457.382812 559.335938 2431.289062 569.84375 C 2404.492188 580.351562 2380.742188 589.84375 2354.648438 601.367188 C 2327.890625 613.554688 2304.140625 625.078125 2278.046875 638.320312 C 2251.25 652.226562 2227.539062 665.429688 2201.445312 680.703125 C 2174.648438 696.289062 2150.585938 710.507812 2125.15625 728.164062 C 2097.695312 746.445312 2073.945312 763.75 2048.515625 784.414062 C 2021.054688 806.132812 1996.992188 826.445312 1971.914062 851.210938 C 1958.007812 864.765625 1946.132812 878.007812 1933.59375 893.242188 C 1919.726562 910.195312 1907.148438 925.78125 1895.3125 944.101562 C 1889.53125 953.59375 1885.117188 962.421875 1880.039062 972.226562 C 1877.34375 977.65625 1874.960938 982.734375 1872.265625 988.164062 C 1869.53125 994.609375 1866.132812 1000.390625 1864.804688 1007.5 C 1860.703125 1029.53125 1857.34375 1051.5625 1864.804688 1072.578125 C 1867.5 1080.390625 1873.59375 1086.132812 1880.039062 1091.914062 C 1884.804688 1095.625 1889.882812 1098.359375 1895.3125 1100.703125 C 1907.851562 1105.46875 1920.039062 1107.851562 1933.59375 1109.53125 C 1946.835938 1110.898438 1958.710938 1109.882812 1971.914062 1109.53125 C 1985.15625 1108.867188 1996.992188 1107.5 2010.234375 1105.820312 C 2023.4375 1104.453125 2035.3125 1103.085938 2048.515625 1100.703125 C 2074.960938 1095.625 2098.710938 1089.53125 2125.15625 1083.085938 C 2151.601562 1076.640625 2175.3125 1070.546875 2201.445312 1063.75 C 2227.851562 1056.640625 2251.601562 1050.195312 2278.046875 1042.734375 C 2304.492188 1034.960938 2328.203125 1027.5 2354.648438 1019.6875 C 2381.09375 1011.914062 2404.492188 1004.453125 2431.289062 996.992188 C 2457.382812 989.53125 2481.445312 983.4375 2507.539062 975.976562 C 2533.984375 968.164062 2584.179688 952.929688 2584.179688 952.929688 "
       transform="matrix(0.1,0,0,-0.1,0,253)"
       id="path12" />
    <path
       style="fill:none;stroke-width:8.50358;stroke-linecap:butt;stroke-linejoin:miter;stroke:rgb(0%,0%,0%);stroke-opacity:1;stroke-miterlimit:10;"
       d="M 2584.257812 663.046875 C 2584.257812 663.046875 2573.828125 673.164062 2568.75 678.867188 C 2563.046875 685.625 2558.984375 692.695312 2553.59375 699.765625 C 2550.898438 703.476562 2546.875 706.171875 2545.859375 710.546875 C 2543.828125 721.328125 2547.890625 732.460938 2553.59375 742.226562 C 2555.273438 745.234375 2558.320312 746.914062 2561.367188 748.945312 C 2563.710938 750.976562 2566.054688 752.65625 2568.75 754.335938 C 2571.445312 755.703125 2573.828125 756.71875 2576.523438 758.046875 C 2579.21875 759.0625 2584.257812 761.40625 2584.257812 761.40625 "
       transform="matrix(0.1,0,0,-0.1,0,253)"
       id="path14" />
    <path
       style="fill:none;stroke-width:8.50363;stroke-linecap:butt;stroke-linejoin:miter;stroke:rgb(0%,0%,0%);stroke-opacity:1;stroke-miterlimit:10"
       d="M 990.938 2524.26 L 990.938 2523.91 L 991.289 2522.54 L 991.992 2520.78 L 992.695 2518.36 L 993.75 2515.9 L 994.414 2513.12 L 995.469 2510.7 L 995.82 2508.95 L 996.172 2508.28 L 997.891 2503.05 L 999.674 2497.39 M 1003.94 2483.88 L 1005.9 2477.66 L 1012.2 2456.78 M 1013.55 2452.3 M 1015.31 2447.07 M 1016.51 2443.29 L 1017.73 2439.41 L 1024.69 2417.54 L 1025.09 2416.29 M 1029.47 2402.81 L 1034.06 2388.67 L 1038.27 2375.88 M 1042.69 2362.42 L 1043.44 2360.16 L 1051.09 2338.24 L 1051.97 2335.65 M 1053.55 2330.94 M 1055.98 2324.34 M 1056.69 2322.3 L 1062.93 2304.53 L 1066.18 2295.6 M 1071.03 2282.29 L 1072.3 2278.79 L 1080.87 2255.72 M 1081.72 2253.44 M 1085.92 2242.49 L 1089.34 2233.59 L 1091.8 2227.34 L 1094.92 2218.98 L 1096.09 2216.05 M 1101.33 2202.88 L 1110.55 2179.73 L 1111.83 2176.57 M 1117.18 2163.45 L 1126.56 2140.43 L 1127.94 2137.25 M 1130.04 2132.42 M 1133.16 2124.77 M 1133.42 2124.18 L 1144.57 2098.13 M 1148.79 2088.28 M 1150.18 2085.13 L 1161.66 2059.22 M 1164.8 2052.11 M 1167.45 2046.29 L 1168.28 2044.45 L 1171.41 2037.5 L 1179.47 2020.64 M 1185.59 2007.86 L 1187.03 2004.84 L 1198.21 1982.5 M 1203.4 1972.15 M 1204.51 1969.81 L 1206.52 1965.55 L 1210 1958.95 L 1217.15 1944.46 M 1223.43 1931.76 L 1225.62 1927.3 L 1236.37 1906.56 M 1241.64 1896.37 M 1242.79 1893.93 L 1244.77 1889.73 L 1248.24 1883.83 L 1256.21 1868.99 M 1262.91 1856.51 L 1263.55 1855.31 L 1277.08 1831.98 M 1279.88 1827.15 M 1283.36 1821.25 M 1284.21 1819.74 L 1287.89 1813.24 L 1298.67 1795.37 M 1302.15 1789.61 M 1306.01 1783.26 L 1320.55 1759.38 L 1320.75 1759.06 M 1328.32 1747.09 L 1339.69 1729.1 L 1343.5 1723.17 M 1351.16 1711.25 L 1354.65 1705.82 L 1359.84 1698.16 L 1364.38 1691.21 L 1366.85 1687.66 M 1374.93 1676.03 L 1378.63 1670.7 L 1391.01 1652.7 M 1397.03 1643.95 M 1399.13 1641.09 L 1415.88 1618.24 M 1416.17 1617.85 M 1424.33 1606.87 L 1431.13 1597.7 L 1436.33 1591.09 L 1440.86 1584.84 L 1441.34 1584.22 M 1450.01 1573.01 L 1455.12 1566.41 L 1467.65 1550.84 M 1473.87 1543.12 M 1476.57 1539.84 L 1493.01 1519.8 L 1494.55 1517.94 M 1503.55 1507 L 1507.62 1502.07 L 1512.81 1496.17 L 1517.34 1490.62 L 1521.89 1485.41 M 1531.19 1474.73 L 1531.6 1474.26 L 1550.15 1453.67 M 1550.39 1453.4 M 1559.8 1443.3 L 1569.49 1432.89 L 1579.14 1422.59 M 1584.45 1416.91 M 1588.79 1412.23 L 1589.3 1411.68 L 1594.18 1406.84 L 1608.44 1392.23 L 1608.65 1392.02 M 1618.66 1382 L 1627.23 1373.44 L 1638.79 1362.06 M 1645.98 1355 M 1648.94 1352.18 L 1660.94 1340.74 L 1665.82 1336.25 L 1669.56 1332.75 M 1670.66 1331.72 M 1679.95 1323.12 L 1684.92 1318.52 L 1700.89 1304.04 M 1703.71 1301.48 M 1711.51 1294.66 L 1722.81 1284.77 L 1732.81 1275.97 M 1737.42 1271.91 M 1742.3 1267.73 M 1743.51 1266.69 L 1747.15 1263.55 L 1761.41 1251.76 L 1765.3 1248.59 M 1776.28 1239.64 L 1780.2 1236.45 L 1798.54 1222.11 M 1799.3 1221.52 M 1809.68 1213.36 L 1813.91 1210.04 L 1818.79 1206.21 L 1823.63 1202.38 L 1832.07 1196 M 1837.89 1191.6 M 1843.45 1187.56 L 1857.03 1177.7 L 1866.31 1170.83 M 1875.82 1163.79 M 1877.72 1162.43 L 1890.39 1153.36 L 1895.62 1149.88 L 1900.16 1146.41 L 1900.78 1145.99 M 1912.57 1138.12 L 1914.73 1136.68 L 1933.52 1124.14 L 1936.13 1122.4 M 1947.93 1114.55 L 1952.3 1111.64 L 1967.23 1102.27 L 1971.67 1099.1 M 1972.11 1098.79 M 1978.36 1094.61 M 1983.53 1091.36 L 2007.54 1076.31 M 2010 1074.77 M 2019.62 1068.92 L 2041.99 1055.31 L 2043.85 1054.23 M 2055.2 1047.66 M 2056.11 1047.14 L 2080.76 1033.17 M 2086.48 1029.92 M 2093.18 1026.36 L 2118.19 1013.04 M 2118.48 1012.89 M 2125.08 1009.41 M 2130.6 1006.21 L 2131.68 1005.59 L 2155.63 992.958 M 2168.17 986.352 L 2193.23 973.139 M 2194.96 972.227 M 2201.56 968.75 M 2205.86 966.718 L 2208.16 965.625 L 2231.37 954.396 M 2244.12 948.225 L 2269.62 935.883 M 2271.45 935 M 2278.09 931.875 M 2282.42 929.821 L 2284.69 928.75 L 2308.14 917.922 M 2316.33 914.141 M 2321.02 912.027 L 2346.85 900.387 M 2347.97 899.883 M 2354.57 896.758 M 2359.77 894.575 L 2361.17 893.984 L 2385.91 883.661 M 2392.81 880.781 M 2399.01 878.264 L 2424.45 867.93 L 2425.25 867.589 M 2431.05 865.117 M 2437.66 862.695 M 2438.43 862.391 L 2464.78 851.981 M 2469.3 850.195 M 2477.96 846.799 L 2501.29 837.656 L 2504.37 836.528 M 2507.89 835.234 M 2510.31 834.18 M 2517.69 831.733 L 2518.67 831.406 L 2530.82 826.875 L 2543.71 822.031 L 2544.23 821.836 M 2555.86 817.5 M 2557.51 816.882 L 2566.99 813.32 L 2576.02 810.195 L 2581.95 808.125 L 2584.12 807.182 M 2584.38 807.07"
       transform="matrix(0.1,0,0,-0.1,0,253)"
       id="path16" />
    <path
       style="fill:none;stroke-width:11.3366;stroke-linecap:round;stroke-linejoin:miter;stroke:rgb(0%,0%,0%);stroke-opacity:1;stroke-dashoffset:22.629;stroke-miterlimit:10"
       d="M 798.359 2524.26 M 798.672 2522.89 M 799.375 2519.06 M 799.526 2518.42 L 799.591 2518.15 M 800.781 2513.12 M 802.148 2505.16 M 804.258 2495.74 M 805.246 2490.43 L 805.297 2490.15 M 806.328 2484.61 M 809.102 2472.46 M 810.923 2462.43 L 810.974 2462.15 M 811.562 2458.91 M 814.688 2445 M 816.74 2434.45 L 816.794 2434.17 M 817.461 2430.74 M 822.649 2406.49 L 822.709 2406.21 M 823.711 2401.52 M 826.484 2387.27 M 828.476 2378.51 L 828.539 2378.23 M 829.648 2373.36 M 832.422 2360.51 M 834.141 2351.48 M 834.375 2350.55 L 834.444 2350.27 M 834.844 2348.67 M 836.914 2338.59 M 840.726 2322.69 L 840.792 2322.41 M 843.906 2309.41 M 847.234 2294.86 L 847.297 2294.58 M 852.578 2271.48 M 853.645 2267.01 L 853.71 2266.73 M 860.266 2239.2 L 860.331 2238.93 M 861.602 2233.59 M 867.142 2211.46 L 867.211 2211.19 M 868.906 2204.41 M 871.367 2194.65 M 873.438 2185.98 M 874.016 2183.72 L 874.086 2183.45 M 880.039 2160.23 M 881.175 2156.05 L 881.249 2155.78 M 888.668 2128.47 L 888.742 2128.2 M 889.102 2126.88 M 896.125 2100.88 L 896.198 2100.61 M 898.125 2093.48 M 903.841 2073.36 L 903.919 2073.09 M 905.43 2067.77 M 907.852 2059.06 M 909.961 2051.41 M 911.562 2045.85 L 911.64 2045.57 M 916.562 2028.48 M 919.595 2018.42 L 919.677 2018.15 M 925.586 1998.55 M 927.884 1991.07 L 927.967 1990.8 M 934.648 1969.02 M 936.314 1963.76 L 936.4 1963.49 M 941.914 1946.05 M 944.375 1938.44 M 944.948 1936.51 L 945.029 1936.24 M 946.445 1931.48 M 953.047 1910.94 M 953.609 1909.28 L 953.699 1909.01 M 962.109 1884.18 M 962.782 1882.21 L 962.873 1881.94 M 971.133 1857.77 M 972.057 1855.18 L 972.152 1854.91 M 978.438 1837.27 M 980.859 1830.62 M 981.658 1828.26 L 981.749 1827.99 M 982.969 1824.38 M 989.57 1805.94 M 991.295 1801.35 L 991.395 1801.09 M 998.594 1781.95 M 1001.37 1774.61 L 1001.47 1774.34 M 1007.66 1757.97 M 1011.46 1747.87 L 1011.56 1747.61 M 1014.61 1739.53 M 1017.03 1733.28 M 1020.16 1725.62 M 1021.94 1721.28 L 1022.05 1721.02 M 1032.78 1694.84 L 1032.89 1694.57 M 1035.12 1689.14 M 1043.84 1668.48 L 1043.95 1668.22 M 1050.39 1652.97 M 1053.55 1645.66 M 1055.1 1642.22 L 1055.22 1641.96 M 1056.68 1638.71 M 1066.78 1616.13 L 1066.9 1615.87 M 1071.6 1605.35 M 1078.65 1590.13 L 1078.77 1589.88 M 1086.91 1572.3 M 1090.04 1565.7 M 1090.77 1564.25 L 1090.89 1564 M 1093.16 1559.45 M 1103.17 1538.5 L 1103.29 1538.24 M 1107.77 1528.87 M 1115.93 1512.93 L 1116.06 1512.68 M 1123.09 1498.95 M 1126.56 1492.7 M 1129.24 1487.64 L 1129.37 1487.39 M 1129.69 1486.8 M 1142.53 1462.34 L 1142.67 1462.09 M 1144.3 1458.98 M 1156.33 1437.31 L 1156.47 1437.07 M 1159.57 1431.48 M 1163.05 1425.94 M 1165.82 1420.39 M 1170.47 1412.49 L 1170.62 1412.25 M 1180.78 1395 M 1185.05 1387.91 L 1185.2 1387.67 M 1196.09 1369.61 M 1199.22 1364.41 M 1199.83 1363.45 L 1199.99 1363.21 M 1202.34 1359.53 M 1215.14 1339.32 L 1215.29 1339.08 M 1217.3 1335.9 M 1230.62 1315.29 L 1230.77 1315.06 M 1232.58 1312.27 M 1235.7 1307.73 M 1238.87 1302.85 M 1246.56 1291.57 L 1246.72 1291.34 M 1253.79 1280.98 M 1262.91 1268.13 L 1263.07 1267.9 M 1269.1 1259.41 M 1272.23 1254.88 M 1275.35 1250.7 M 1279.62 1244.95 L 1279.79 1244.72 M 1290.31 1230.55 M 1296.75 1222.07 L 1296.92 1221.85 M 1305.62 1210.39 M 1311.88 1202.03 M 1314.03 1199.31 L 1314.21 1199.09 M 1326.8 1183.24 M 1331.89 1177 L 1332.07 1176.78 M 1342.11 1164.49 M 1348.36 1156.84 M 1350.02 1154.9 L 1350.21 1154.69 M 1368.67 1133.24 L 1368.85 1133.03 M 1378.28 1122.07 M 1381.76 1118.24 M 1384.53 1114.77 M 1387.42 1111.69 L 1387.61 1111.48 M 1399.84 1098.44 M 1406.86 1090.74 L 1407.05 1090.53 M 1414.77 1082.07 M 1417.89 1078.59 M 1421.05 1075.47 M 1426.39 1069.88 L 1426.59 1069.68 M 1435.98 1059.84 M 1446.37 1049.45 L 1446.57 1049.25 M 1457.54 1038.28 M 1466.69 1029.35 L 1466.89 1029.15 M 1472.5 1023.67 M 1487.45 1009.71 L 1487.66 1009.52 M 1487.77 1009.41 M 1490.94 1006.29 M 1494.06 1003.52 M 1508.51 990.392 L 1508.72 990.202 M 1508.98 989.961 M 1524.3 976.406 M 1527.42 973.594 M 1529.88 971.414 L 1530.09 971.226 M 1530.55 970.82 M 1545.51 957.969 M 1551.61 952.849 L 1551.82 952.668 M 1560.82 945.117 M 1563.95 942.656 M 1567.07 939.883 M 1573.58 934.581 L 1573.8 934.402 M 1581.99 927.734 M 1595.9 916.731 L 1596.12 916.555 M 1596.95 915.898 M 1600.43 913.125 M 1603.2 910.664 M 1618.49 899.239 L 1618.52 899.219 L 1618.71 899.066 M 1633.48 887.734 M 1636.6 885.664 M 1639.73 883.203 M 1641.33 882.075 L 1641.56 881.912 M 1655.04 872.422 M 1664.61 865.503 L 1664.84 865.338 M 1669.96 861.641 M 1673.09 859.219 M 1676.25 857.148 M 1687.93 848.985 L 1688.16 848.823 M 1691.17 846.719 M 1706.48 836.641 M 1709.61 834.531 M 1711.71 833.137 L 1711.95 832.981 M 1712.73 832.461 M 1727.7 822.383 M 1735.54 817.364 L 1735.78 817.212 M 1742.97 812.617 M 1746.13 810.898 M 1749.26 808.828 M 1759.76 802.202 L 1760 802.051 M 1764.18 799.414 M 1779.49 790.039 M 1782.62 788.281 M 1784.13 787.279 L 1784.37 787.123 M 1785.74 786.211 M 1800.7 777.5 M 1808.7 772.679 L 1808.94 772.533 M 1815.66 768.477 M 1818.79 766.758 M 1821.91 765 M 1833.48 758.45 L 1833.73 758.31 M 1837.23 756.328 M 1852.15 747.969 M 1855.27 746.211 M 1858.4 744.492 M 1858.42 744.483 L 1858.67 744.352 M 1873.71 736.484 M 1883.69 731.143 L 1883.94 731.009 M 1888.67 728.477 M 1891.8 726.758 M 1894.92 725.352 M 1908.99 717.86 L 1909.24 717.727 M 1909.88 717.383 M 1925.16 709.727 M 1928.32 708.32 M 1931.45 706.602 M 1934.55 705.084 L 1934.8 704.959 M 1946.37 699.297 M 1960.28 692.658 L 1960.54 692.536 M 1961.68 691.992 M 1964.8 690.234 M 1967.93 688.867 M 1982.89 681.914 M 1986.08 680.391 L 1986.34 680.269 M 1998.2 674.609 M 2001.33 673.203 M 2004.45 671.836 M 2012.06 668.471 L 2012.32 668.357 M 2019.38 665.234 M 2034.34 658.281 M 2038.06 656.607 L 2038.32 656.49 M 2040.59 655.469 M 2055.9 648.867 M 2064.33 645.347 L 2064.59 645.238 M 2070.86 642.617 M 2073.98 641.211 M 2077.11 639.844 M 2090.68 634.303 L 2090.95 634.196 M 2092.42 633.594 M 2107.34 627.305 M 2110.47 626.289 M 2113.63 624.883 M 2117.13 623.5 L 2117.39 623.396 M 2128.55 618.984 M 2143.75 613.093 L 2143.87 613.047 L 2144.01 612.985 M 2146.99 611.68 M 2150.12 610.625 M 2165.08 604.727 M 2170.4 602.782 L 2170.66 602.684 M 2180.35 599.141 M 2183.52 597.773 M 2186.64 596.719 M 2197.17 592.804 L 2197.44 592.706 M 2201.56 591.172 M 2216.52 585.586 M 2220 584.57 M 2223.12 583.164 M 2223.95 582.876 L 2224.22 582.784 M 2238.09 577.969 M 2250.94 573.47 L 2251.21 573.377 M 2253.05 572.734 M 2256.17 571.68 M 2259.3 570.312 M 2274.61 565.43 M 2277.98 564.256 L 2278.25 564.163 M 2289.53 560.234 M 2295.78 558.125 M 2305.02 554.991 L 2305.29 554.9 M 2311.09 552.93 M 2326.05 548.047 M 2329.18 546.992 M 2332.15 546.026 L 2332.3 545.977 L 2332.42 545.941 M 2347.27 541.445 M 2359.45 537.551 L 2359.72 537.464 M 2362.54 536.562 M 2365.66 535.547 M 2368.83 534.492 M 2383.75 529.961 M 2386.74 529.083 L 2387.01 529.003 M 2399.06 525.469 M 2405.31 523.359 M 2414.07 520.708 L 2414.34 520.627 M 2420.27 518.828 M 2435.23 514.688 M 2438.71 513.633 M 2441.49 512.694 L 2441.76 512.603 M 2441.84 512.578 M 2456.76 508.398 M 2468.94 504.739 L 2469.22 504.658 M 2471.72 503.906 M 2474.84 503.203 M 2477.97 502.148 M 2493.28 497.969 M 2496.47 497.086 L 2496.74 497.011 M 2508.24 493.828 M 2511.37 493.125 M 2514.49 492.07 M 2524.06 489.678 L 2524.34 489.609 M 2529.8 488.242 M 2544.73 484.062 M 2547.85 483.398 M 2549.26 483.047 M 2551.69 482.377 L 2551.96 482.302 M 2553.09 481.992 M 2558.98 480.586 M 2564.92 478.867 M 2570.82 477.461 M 2576.02 476.094 M 2579.36 475.25 L 2579.63 475.181 M 2580.2 475.039 M 2583.32 473.984 M 2584.38 473.984"
       transform="matrix(0.1,0,0,-0.1,0,253)"
       id="path18" />
    <path
       style="fill:none;stroke-width:11.3366;stroke-linecap:round;stroke-linejoin:miter;stroke:rgb(0%,0%,0%);stroke-opacity:1;stroke-dashoffset:22.6158;stroke-miterlimit:10"
       d="M 1308.75 2524.26 M 1309.41 2522.54 M 1310.95 2518.73 L 1311.06 2518.47 M 1311.52 2517.3 M 1314.65 2509.3 M 1318.12 2499.92 M 1321.26 2492.09 L 1321.37 2491.83 M 1322.3 2489.49 M 1326.8 2478.36 M 1330.98 2467.93 M 1331.91 2465.58 L 1332.02 2465.32 M 1333.75 2460.98 M 1334.8 2458.55 M 1336.91 2453.32 M 1342.82 2439.18 L 1342.93 2438.92 M 1347.66 2427.62 M 1353.78 2412.8 L 1353.89 2412.54 M 1358.44 2401.52 M 1360.9 2396.33 M 1362.97 2391.09 M 1364.97 2386.52 L 1365.08 2386.26 M 1373.75 2366.41 M 1376.43 2360.36 L 1376.54 2360.1 M 1384.53 2342.07 M 1386.95 2336.88 M 1388.08 2334.27 L 1388.19 2334.01 M 1389.06 2331.99 M 1399.84 2308.36 M 1399.89 2308.26 L 1400.01 2308.01 M 1410.59 2285.04 M 1411.78 2282.29 L 1411.9 2282.03 M 1412.7 2280.2 M 1415.12 2275.31 M 1423.97 2256.45 L 1424.09 2256.2 M 1425.55 2253.09 M 1436.66 2230.86 L 1436.68 2230.82 L 1436.77 2230.6 M 1438.75 2225.94 M 1441.21 2221.45 M 1449.2 2205.21 L 1449.32 2204.95 M 1451.64 2200.23 M 1462.2 2179.78 L 1462.33 2179.52 M 1462.77 2178.67 M 1464.84 2174.14 M 1466.91 2169.96 M 1475.14 2154.31 L 1475.27 2154.06 M 1488.43 2129.03 L 1488.48 2128.95 L 1488.57 2128.78 M 1490.94 2124.77 M 1493.01 2120.59 M 1502.2 2104 L 1502.34 2103.76 M 1514.57 2081.68 M 1516.1 2079.05 L 1516.24 2078.8 M 1516.99 2077.5 M 1519.06 2073.67 M 1529.84 2054.53 M 1530.07 2054.13 L 1530.21 2053.89 M 1540.62 2035.78 M 1543.09 2031.95 M 1544.44 2029.45 L 1544.58 2029.2 M 1545.16 2028.12 M 1555.94 2010.04 M 1559.06 2004.91 L 1559.2 2004.67 M 1566.72 1992.3 M 1569.14 1988.48 M 1571.25 1984.65 M 1573.87 1980.49 L 1574.03 1980.25 M 1581.99 1967.62 M 1589.03 1956.27 L 1589.18 1956.03 M 1592.77 1950.23 M 1595.23 1946.76 M 1597.3 1943.28 M 1604.45 1932.23 L 1604.6 1932 M 1618.87 1909.92 M 1619.89 1908.2 L 1620.04 1907.96 M 1620.94 1906.45 M 1623.4 1902.97 M 1634.18 1886.95 M 1635.83 1884.5 L 1635.99 1884.27 M 1644.96 1870.98 M 1647.03 1867.85 M 1649.45 1864.38 M 1651.85 1860.85 L 1652.01 1860.62 M 1659.88 1849.06 M 1668.29 1837.49 L 1668.46 1837.27 M 1671.02 1833.75 M 1673.09 1830.62 M 1675.55 1827.5 M 1684.84 1814.21 L 1685 1813.98 M 1685.98 1812.58 M 1696.76 1797.62 M 1699.18 1794.84 M 1701.25 1791.72 M 1701.67 1791.16 L 1701.84 1790.93 M 1718.9 1768.37 L 1719.07 1768.15 M 1722.81 1763.2 M 1725.27 1760.08 M 1727.34 1757.27 M 1736.3 1745.71 L 1736.47 1745.49 M 1738.12 1743.36 M 1748.91 1729.8 M 1751.33 1726.68 M 1753.4 1723.91 M 1753.94 1723.24 L 1754.12 1723.03 M 1764.18 1710.7 M 1771.99 1701.11 L 1772.17 1700.89 M 1774.96 1697.46 M 1777.42 1694.69 M 1779.49 1691.91 M 1790.22 1679.12 L 1790.27 1679.06 L 1790.4 1678.91 M 1801.05 1666.17 M 1803.12 1663.75 M 1805.59 1660.98 M 1808.71 1657.34 L 1808.89 1657.13 M 1816.37 1648.44 M 1827.11 1636.29 M 1827.47 1635.81 L 1827.65 1635.58 M 1829.22 1633.52 M 1831.64 1631.05 M 1842.42 1619.26 M 1846.56 1614.58 L 1846.75 1614.36 M 1853.2 1607.07 M 1855.27 1604.65 M 1857.73 1602.23 M 1865.74 1593.41 L 1865.93 1593.2 M 1868.16 1590.74 M 1879.3 1578.91 M 1881.37 1576.48 M 1883.79 1574.41 M 1885.36 1572.68 L 1885.55 1572.47 M 1894.22 1562.93 M 1904.93 1551.87 L 1905 1551.8 L 1905.13 1551.67 M 1909.53 1547.27 M 1920.31 1536.17 M 1924.97 1531.52 L 1925.17 1531.32 M 1931.09 1525.39 M 1933.52 1523.28 M 1935.59 1520.86 M 1945.29 1511.47 L 1945.5 1511.27 M 1957.15 1500 M 1959.61 1497.58 M 1961.68 1495.47 M 1965.82 1491.6 L 1966.02 1491.41 M 1972.46 1485.39 M 1983.24 1474.96 M 1985.66 1472.89 M 1986.57 1471.98 L 1986.77 1471.78 M 1987.77 1470.78 M 1998.52 1461.05 M 2007.56 1452.6 L 2007.77 1452.41 M 2009.3 1450.98 M 2011.41 1449.22 M 2013.83 1447.15 M 2028.87 1433.58 L 2029.08 1433.39 M 2035.39 1427.7 M 2037.46 1425.94 M 2039.92 1423.87 M 2050.36 1414.76 L 2050.57 1414.57 M 2050.7 1414.45 M 2061.45 1405.08 M 2063.55 1403.36 M 2065.98 1401.25 M 2072.05 1396.17 L 2072.26 1395.99 M 2076.76 1392.23 M 2087.54 1383.16 M 2089.61 1381.45 M 2092.07 1379.69 M 2094.05 1377.97 L 2094.27 1377.79 M 2102.5 1370.66 M 2113.63 1361.95 M 2115.7 1360.23 M 2116.14 1359.86 L 2116.36 1359.68 M 2117.77 1358.48 M 2128.55 1349.8 M 2138.35 1341.89 L 2138.57 1341.72 M 2139.34 1341.09 M 2141.76 1339.38 M 2143.87 1337.62 M 2154.65 1329.3 M 2160.94 1324.42 L 2161.16 1324.25 M 2165.43 1320.94 M 2167.85 1319.22 M 2169.92 1317.81 M 2180.7 1309.45 M 2183.73 1307.21 L 2183.96 1307.05 M 2191.48 1301.48 M 2193.95 1299.73 M 2196.02 1298.01 M 2206.79 1290.36 L 2206.8 1290.35 L 2207.02 1290.19 M 2217.58 1282.34 M 2220 1280.62 M 2222.11 1279.22 M 2229.95 1273.63 L 2230.18 1273.47 M 2232.85 1271.56 M 2243.63 1263.91 M 2245.74 1262.19 M 2248.16 1260.78 M 2253.26 1257.16 L 2253.49 1257 M 2258.95 1253.12 M 2269.73 1245.86 M 2271.8 1244.1 M 2274.26 1242.7 M 2276.78 1240.99 L 2277.02 1240.84 M 2285.04 1235.43 M 2295.78 1228.12 M 2297.89 1226.72 M 2300.31 1225 M 2300.41 1224.94 L 2300.64 1224.78 M 2310.74 1218.05 M 2321.88 1211.09 M 2323.95 1209.69 M 2324.34 1209.35 L 2324.56 1209.17 M 2326.05 1207.93 M 2336.84 1200.98 M 2347.62 1194.38 M 2348.38 1193.95 L 2348.62 1193.81 M 2350.04 1193.01 M 2352.11 1191.25 M 2372.53 1178.75 L 2372.77 1178.6 M 2373.67 1178.05 M 2376.09 1176.64 M 2378.2 1175.27 M 2396.89 1163.83 L 2397.13 1163.68 M 2399.77 1162.07 M 2402.19 1160.66 M 2404.26 1159.26 M 2415.04 1153.01 M 2421.37 1149.13 L 2421.62 1148.98 M 2425.82 1146.41 M 2427.93 1145.35 M 2430.35 1143.98 M 2441.13 1137.7 M 2446.09 1134.82 L 2446.34 1134.68 M 2451.91 1131.45 M 2453.98 1130.08 M 2456.45 1128.67 M 2467.19 1122.77 M 2470.88 1120.63 L 2471.12 1120.49 M 2477.97 1116.52 M 2480.08 1115.47 M 2482.5 1114.06 M 2495.85 1106.76 L 2496.09 1106.63 M 2504.06 1102.27 M 2506.13 1100.86 M 2508.59 1099.8 M 2519.38 1093.91 M 2520.89 1093.07 L 2521.14 1092.94 M 2530.12 1088.01 M 2532.23 1086.95 M 2534.3 1085.55 M 2546.02 1079.52 L 2546.27 1079.39 M 2555.86 1074.45 M 2558.28 1073.05 M 2559.34 1072.7 M 2561.76 1071.29 M 2565.94 1069.22 M 2570.47 1066.8 M 2571.35 1066.35 L 2571.6 1066.23 M 2574.65 1064.69 M 2578.48 1062.62 M 2581.6 1061.21 M 2583.67 1060.2 M 2584.38 1059.84"
       transform="matrix(0.1,0,0,-0.1,0,253)"
       id="path20" />
    <path
       style=" stroke:none;fill-rule:nonzero;fill:rgb(0%,0%,0%);fill-opacity:1;"
       d="M 93.664062 135.558594 C 93.664062 135.386719 93.507812 135.199219 93.226562 135.199219 C 92.898438 135.199219 92.445312 135.324219 92.164062 135.449219 C 91.460938 135.230469 91.320312 134.902344 91.320312 134.746094 C 91.320312 134.496094 91.710938 134.261719 92.039062 134.152344 L 91.898438 133.839844 C 91.257812 134.074219 90.929688 134.449219 90.929688 134.761719 C 90.929688 135.230469 91.523438 135.574219 91.664062 135.636719 C 91.445312 135.714844 90.523438 136.058594 90.523438 136.761719 C 90.523438 137.355469 91.070312 137.730469 91.320312 137.886719 C 90.867188 138.058594 90.132812 138.496094 90.132812 139.464844 C 90.132812 140.996094 92.195312 140.246094 92.195312 141.121094 C 92.195312 141.402344 92.007812 141.652344 91.710938 141.792969 C 91.257812 141.996094 90.710938 141.855469 90.710938 142.074219 C 90.710938 142.152344 90.851562 142.199219 91.023438 142.199219 C 91.289062 142.199219 91.695312 142.105469 91.960938 141.964844 C 92.414062 141.746094 92.726562 141.386719 92.726562 140.902344 C 92.726562 139.667969 90.664062 140.308594 90.664062 139.230469 C 90.664062 138.621094 91.195312 138.246094 91.664062 138.089844 C 91.742188 138.121094 92.304688 138.417969 92.648438 138.417969 C 93.007812 138.417969 93.195312 138.183594 93.195312 137.964844 C 93.195312 137.777344 93.023438 137.574219 92.664062 137.574219 C 92.414062 137.574219 92.085938 137.667969 91.773438 137.761719 C 91.351562 137.558594 91.070312 137.230469 91.070312 136.777344 C 91.070312 136.183594 91.851562 135.902344 92.164062 135.808594 C 92.445312 135.902344 92.757812 135.980469 93.085938 135.980469 C 93.476562 135.980469 93.664062 135.761719 93.664062 135.558594 Z M 93.664062 135.558594 "
       id="path22" />
    <path
       style=" stroke:none;fill-rule:nonzero;fill:rgb(0%,0%,0%);fill-opacity:1;"
       d="M 103.5 136.855469 L 97.5 136.855469 L 97.5 137.355469 L 103.5 137.355469 Z M 103.5 138.667969 L 97.5 138.667969 L 97.5 139.167969 L 103.5 139.167969 Z M 103.5 138.667969 "
       id="path24" />
    <path
       style=" stroke:none;fill-rule:nonzero;fill:rgb(0%,0%,0%);fill-opacity:1;"
       d="M 110.945312 137.324219 C 110.945312 135.714844 110.210938 134.261719 108.960938 134.261719 C 107.695312 134.261719 106.960938 135.714844 106.960938 137.324219 C 106.960938 138.949219 107.648438 140.386719 108.960938 140.386719 C 110.164062 140.386719 110.945312 138.949219 110.945312 137.324219 Z M 110.085938 137.324219 C 110.085938 138.621094 109.960938 140.136719 108.960938 140.136719 C 108.007812 140.136719 107.820312 138.621094 107.820312 137.324219 C 107.820312 136.246094 107.945312 134.496094 108.960938 134.496094 C 109.960938 134.496094 110.085938 136.246094 110.085938 137.324219 Z M 110.085938 137.324219 "
       id="path26" />
    <path
       style=" stroke:none;fill-rule:nonzero;fill:rgb(0%,0%,0%);fill-opacity:1;"
       d="M 118.046875 120.011719 L 119.613281 116.027344 L 115.867188 118.136719 L 118.011719 117.867188 "
       id="path28" />
    <path
       style="fill:none;stroke-width:2.83298;stroke-linecap:butt;stroke-linejoin:miter;stroke:rgb(0%,0%,0%);stroke-opacity:1;stroke-miterlimit:10;"
       d="M 1041.171875 1191.289062 L 1180.117188 1351.328125 "
       transform="matrix(0.1,0,0,-0.1,0,253)"
       id="path30" />
    <path
       style=" stroke:none;fill-rule:nonzero;fill:rgb(0%,0%,0%);fill-opacity:1;"
       d="M 170.273438 39.988281 C 170.273438 39.816406 170.117188 39.628906 169.835938 39.628906 C 169.507812 39.628906 169.054688 39.753906 168.773438 39.878906 C 168.070312 39.660156 167.929688 39.332031 167.929688 39.175781 C 167.929688 38.925781 168.320312 38.691406 168.648438 38.582031 L 168.507812 38.269531 C 167.867188 38.503906 167.539062 38.878906 167.539062 39.191406 C 167.539062 39.660156 168.132812 40.003906 168.273438 40.066406 C 168.054688 40.144531 167.132812 40.488281 167.132812 41.191406 C 167.132812 41.785156 167.679688 42.160156 167.929688 42.316406 C 167.476562 42.488281 166.742188 42.925781 166.742188 43.894531 C 166.742188 45.425781 168.804688 44.675781 168.804688 45.550781 C 168.804688 45.832031 168.617188 46.082031 168.320312 46.222656 C 167.867188 46.425781 167.320312 46.285156 167.320312 46.503906 C 167.320312 46.582031 167.460938 46.628906 167.632812 46.628906 C 167.898438 46.628906 168.304688 46.535156 168.570312 46.394531 C 169.023438 46.175781 169.335938 45.816406 169.335938 45.332031 C 169.335938 44.097656 167.273438 44.738281 167.273438 43.660156 C 167.273438 43.050781 167.804688 42.675781 168.273438 42.519531 C 168.351562 42.550781 168.914062 42.847656 169.257812 42.847656 C 169.617188 42.847656 169.804688 42.613281 169.804688 42.394531 C 169.804688 42.207031 169.632812 42.003906 169.273438 42.003906 C 169.023438 42.003906 168.695312 42.097656 168.382812 42.191406 C 167.960938 41.988281 167.679688 41.660156 167.679688 41.207031 C 167.679688 40.613281 168.460938 40.332031 168.773438 40.238281 C 169.054688 40.332031 169.367188 40.410156 169.695312 40.410156 C 170.085938 40.410156 170.273438 40.191406 170.273438 39.988281 Z M 170.273438 39.988281 "
       id="path32" />
    <path
       style=" stroke:none;fill-rule:nonzero;fill:rgb(0%,0%,0%);fill-opacity:1;"
       d="M 180.109375 41.285156 L 174.109375 41.285156 L 174.109375 41.785156 L 180.109375 41.785156 Z M 180.109375 43.097656 L 174.109375 43.097656 L 174.109375 43.597656 L 180.109375 43.597656 Z M 180.109375 43.097656 "
       id="path34" />
    <path
       style=" stroke:none;fill-rule:nonzero;fill:rgb(0%,0%,0%);fill-opacity:1;"
       d="M 187.628906 43.785156 L 187.503906 43.691406 C 187.332031 43.925781 186.988281 44.363281 186.800781 44.363281 C 186.738281 44.363281 186.691406 44.316406 186.691406 44.207031 C 186.691406 44.113281 186.753906 43.894531 186.800781 43.722656 C 186.800781 43.722656 187.332031 41.769531 187.347656 41.722656 C 187.394531 41.535156 187.425781 41.347656 187.425781 41.222656 C 187.425781 40.769531 187.144531 40.613281 186.925781 40.613281 C 186.082031 40.613281 185.050781 42.207031 184.832031 42.613281 L 185.363281 40.613281 C 185.363281 40.613281 184.144531 40.847656 183.878906 40.863281 L 183.878906 41.019531 C 184.207031 41.019531 184.472656 40.988281 184.472656 41.347656 C 184.472656 41.519531 184.394531 41.800781 184.316406 42.082031 C 184.316406 42.082031 183.597656 44.472656 183.550781 44.707031 L 184.238281 44.707031 L 184.394531 44.113281 C 184.910156 42.175781 186.160156 41.113281 186.503906 41.113281 C 186.644531 41.113281 186.722656 41.207031 186.722656 41.347656 C 186.722656 41.441406 186.628906 41.847656 186.550781 42.175781 L 186.175781 43.519531 C 186.082031 43.847656 186.003906 44.253906 186.003906 44.394531 C 186.003906 44.628906 186.128906 44.816406 186.347656 44.816406 C 186.800781 44.816406 187.269531 44.300781 187.628906 43.785156 Z M 187.628906 43.785156 "
       id="path36" />
    <path
       style=" stroke:none;fill-rule:nonzero;fill:rgb(0%,0%,0%);fill-opacity:1;"
       d="M 193.402344 46.863281 C 193.089844 46.832031 193.011719 46.769531 192.777344 46.253906 L 191.042969 42.285156 L 190.902344 42.285156 L 189.449219 45.707031 C 188.996094 46.722656 188.917969 46.847656 188.589844 46.863281 L 188.589844 46.988281 L 189.964844 46.988281 L 189.964844 46.863281 C 189.636719 46.863281 189.496094 46.769531 189.496094 46.566406 C 189.496094 46.488281 189.511719 46.394531 189.542969 46.300781 L 189.871094 45.488281 L 191.699219 45.488281 L 191.980469 46.144531 C 192.058594 46.347656 192.105469 46.519531 192.105469 46.613281 C 192.105469 46.800781 191.996094 46.847656 191.621094 46.863281 L 191.621094 46.988281 L 193.402344 46.988281 Z M 189.980469 45.191406 L 190.792969 43.285156 L 191.589844 45.191406 Z M 189.980469 45.191406 "
       id="path38" />
    <path
       style=" stroke:none;fill-rule:nonzero;fill:rgb(0%,0%,0%);fill-opacity:1;"
       d="M 194.097656 47.972656 C 194.566406 47.738281 194.878906 47.316406 194.878906 46.894531 C 194.878906 46.550781 194.628906 46.285156 194.316406 46.285156 C 194.082031 46.285156 193.910156 46.441406 193.910156 46.675781 C 193.910156 46.894531 194.066406 47.035156 194.316406 47.035156 C 194.363281 47.035156 194.425781 47.019531 194.457031 47.019531 C 194.488281 47.003906 194.503906 47.003906 194.503906 47.003906 C 194.566406 47.003906 194.613281 47.050781 194.613281 47.097656 C 194.613281 47.316406 194.410156 47.582031 194.035156 47.832031 Z M 194.097656 47.972656 "
       id="path40" />
    <path
       style=" stroke:none;fill-rule:nonzero;fill:rgb(0%,0%,0%);fill-opacity:1;"
       d="M 199.023438 44.675781 C 199.023438 43.425781 198.460938 42.285156 197.367188 42.285156 C 196.257812 42.285156 195.679688 43.425781 195.679688 44.675781 C 195.679688 45.957031 196.226562 47.066406 197.367188 47.066406 C 198.414062 47.066406 199.023438 45.957031 199.023438 44.675781 Z M 198.164062 44.675781 C 198.164062 45.644531 197.914062 46.800781 197.351562 46.800781 C 196.632812 46.800781 196.539062 45.644531 196.539062 44.675781 C 196.539062 43.863281 196.601562 42.550781 197.367188 42.550781 C 198.117188 42.550781 198.164062 43.863281 198.164062 44.675781 Z M 198.164062 44.675781 "
       id="path42" />
    <path
       style=" stroke:none;fill-rule:nonzero;fill:rgb(0%,0%,0%);fill-opacity:1;"
       d="M 165.523438 61.113281 L 163.941406 65.101562 L 167.6875 63.003906 L 165.554688 63.277344 "
       id="path44" />
    <path
       style="fill:none;stroke-width:2.83298;stroke-linecap:butt;stroke-linejoin:miter;stroke:rgb(0%,0%,0%);stroke-opacity:1;stroke-miterlimit:10;"
       d="M 1788.671875 2050.585938 L 1655.273438 1897.148438 "
       transform="matrix(0.1,0,0,-0.1,0,253)"
       id="path46" />
    <path
       style="fill:none;stroke-width:4.25177;stroke-linecap:butt;stroke-linejoin:miter;stroke:rgb(0%,0%,0%);stroke-opacity:1;stroke-miterlimit:10"
       d="M 1367.27 1134.41 L 1367.27 1156.97 M 1367.27 1173.89 L 1367.27 1196.45 M 1367.27 1213.37 L 1367.27 1235.93 M 1367.27 1252.85 L 1367.27 1275.41 M 1367.27 1292.33 L 1367.27 1314.89 M 1367.27 1331.8 L 1367.27 1354.37 M 1367.27 1371.28 L 1367.27 1393.84 M 1367.27 1410.76 L 1367.27 1433.32 M 1367.27 1450.24 L 1367.27 1472.8 M 1367.27 1489.72 L 1367.27 1512.28 M 1367.27 1529.2 L 1367.27 1551.76 M 1367.27 1568.68 L 1367.27 1591.24 M 1367.27 1608.15 L 1367.27 1630.71 M 1367.27 1647.63 L 1367.27 1670.19 M 1367.27 1687.11 L 1367.27 1709.67 M 1367.27 1726.59 L 1367.27 1749.15 M 1367.27 1766.07 L 1367.27 1788.63 M 1367.27 1805.55 L 1367.27 1828.11 M 1367.27 1845.03 L 1367.27 1867.59 M 1367.27 1884.51 L 1367.27 1907.07 M 1367.27 1923.99 L 1367.27 1946.55 M 1367.27 1963.47 L 1367.27 1986.03 M 1367.27 2002.95 L 1367.27 2025.51 M 1367.27 2042.43 L 1367.27 2064.99 M 1367.27 2081.9 L 1367.27 2104.47 M 1367.27 2121.38 L 1367.27 2143.95 M 1367.27 2160.86 L 1367.27 2183.42 M 1367.27 2200.34 L 1367.27 2222.9 M 1367.27 2239.82 L 1367.27 2262.38 M 1367.27 2279.3 L 1367.27 2301.86 M 1367.27 2318.78 L 1367.27 2341.34 M 1367.27 2358.26 L 1367.27 2380.82 M 1367.27 2380.82"
       transform="matrix(0.1,0,0,-0.1,0,253)"
       id="path48" />
    <path
       style="fill:none;stroke-width:4.25175;stroke-linecap:butt;stroke-linejoin:miter;stroke:rgb(0%,0%,0%);stroke-opacity:1;stroke-miterlimit:10"
       d="M 1035.55 1687.42 L 1058.55 1687.42 M 1075.79 1687.42 L 1098.79 1687.42 M 1116.04 1687.42 L 1139.04 1687.42 M 1156.29 1687.42 L 1179.29 1687.42 M 1196.53 1687.42 L 1219.53 1687.42 M 1236.78 1687.42 L 1259.78 1687.42 M 1277.03 1687.42 L 1300.03 1687.42 M 1317.27 1687.42 L 1340.27 1687.42 M 1357.52 1687.42 L 1380.52 1687.42 M 1397.77 1687.42 L 1420.77 1687.42 M 1438.01 1687.42 L 1461.01 1687.42 M 1478.26 1687.42 L 1501.26 1687.42 M 1518.51 1687.42 L 1541.51 1687.42 M 1558.75 1687.42 L 1581.75 1687.42 M 1599 1687.42 L 1622 1687.42 M 1639.25 1687.42 L 1662.25 1687.42 M 1679.49 1687.42 L 1702.49 1687.42 M 1719.74 1687.42 L 1742.74 1687.42 M 1759.99 1687.42 L 1782.98 1687.42 M 1783.01 1687.42"
       transform="matrix(0.1,0,0,-0.1,0,253)"
       id="path50" />
    <path
       style=" stroke:none;fill-rule:nonzero;fill:rgb(100%,100%,100%);fill-opacity:1;"
       d="M 138.535156 84.207031 C 138.535156 83.1875 137.707031 82.359375 136.6875 82.359375 C 135.667969 82.359375 134.839844 83.1875 134.839844 84.207031 C 134.839844 85.226562 135.667969 86.054688 136.6875 86.054688 C 137.707031 86.054688 138.535156 85.226562 138.535156 84.207031 "
       id="path52" />
    <path
       style=" stroke:none;fill-rule:nonzero;fill:rgb(0%,0%,0%);fill-opacity:1;"
       d="M 138.535156 84.207031 C 138.535156 83.1875 137.707031 82.359375 136.6875 82.359375 C 135.667969 82.359375 134.839844 83.1875 134.839844 84.207031 C 134.839844 85.226562 135.667969 86.054688 136.6875 86.054688 C 137.707031 86.054688 138.535156 85.226562 138.535156 84.207031 Z M 138.535156 84.207031 L 138.347656 84.207031 C 138.347656 83.289062 137.605469 82.546875 136.6875 82.546875 C 135.769531 82.546875 135.027344 83.289062 135.027344 84.207031 C 135.027344 85.125 135.769531 85.867188 136.6875 85.867188 C 137.605469 85.867188 138.347656 85.125 138.347656 84.207031 "
       id="path54" />
    <path
       style=" stroke:none;fill-rule:nonzero;fill:rgb(0%,0%,0%);fill-opacity:1;"
       d="M 138.535156 102.007812 C 138.535156 100.988281 137.707031 100.160156 136.6875 100.160156 C 135.667969 100.160156 134.839844 100.988281 134.839844 102.007812 C 134.839844 103.027344 135.667969 103.855469 136.6875 103.855469 C 137.707031 103.855469 138.535156 103.027344 138.535156 102.007812 "
       id="path56" />
    <path
       style="fill:none;stroke-width:5.67043;stroke-linecap:butt;stroke-linejoin:miter;stroke:rgb(0%,0%,0%);stroke-opacity:1;stroke-miterlimit:10;"
       d="M 288.4375 239.804688 L 2584.179688 239.804688 L 2584.179688 2524.414062 L 288.4375 2524.414062 Z M 288.4375 239.804688 "
       transform="matrix(0.1,0,0,-0.1,0,253)"
       id="path58" />
    <path
       style="fill:none;stroke-width:3.98506;stroke-linecap:butt;stroke-linejoin:miter;stroke:rgb(0%,0%,0%);stroke-opacity:1;stroke-miterlimit:10;"
       d="M 288.28125 239.804688 L 288.28125 282.1875 "
       transform="matrix(0.1,0,0,-0.1,0,253)"
       id="path60" />
    <path
       style="fill:none;stroke-width:3.98506;stroke-linecap:butt;stroke-linejoin:miter;stroke:rgb(0%,0%,0%);stroke-opacity:1;stroke-miterlimit:10;"
       d="M 670.976562 239.804688 L 670.976562 282.1875 "
       transform="matrix(0.1,0,0,-0.1,0,253)"
       id="path62" />
    <path
       style="fill:none;stroke-width:3.98506;stroke-linecap:butt;stroke-linejoin:miter;stroke:rgb(0%,0%,0%);stroke-opacity:1;stroke-miterlimit:10;"
       d="M 1053.671875 239.804688 L 1053.671875 282.1875 "
       transform="matrix(0.1,0,0,-0.1,0,253)"
       id="path64" />
    <path
       style="fill:none;stroke-width:3.98506;stroke-linecap:butt;stroke-linejoin:miter;stroke:rgb(0%,0%,0%);stroke-opacity:1;stroke-miterlimit:10;"
       d="M 1436.328125 239.804688 L 1436.328125 282.1875 "
       transform="matrix(0.1,0,0,-0.1,0,253)"
       id="path66" />
    <path
       style="fill:none;stroke-width:3.98506;stroke-linecap:butt;stroke-linejoin:miter;stroke:rgb(0%,0%,0%);stroke-opacity:1;stroke-miterlimit:10;"
       d="M 1819.023438 239.804688 L 1819.023438 282.1875 "
       transform="matrix(0.1,0,0,-0.1,0,253)"
       id="path68" />
    <path
       style="fill:none;stroke-width:3.98506;stroke-linecap:butt;stroke-linejoin:miter;stroke:rgb(0%,0%,0%);stroke-opacity:1;stroke-miterlimit:10;"
       d="M 2201.679688 239.804688 L 2201.679688 282.1875 "
       transform="matrix(0.1,0,0,-0.1,0,253)"
       id="path70" />
    <path
       style="fill:none;stroke-width:3.98506;stroke-linecap:butt;stroke-linejoin:miter;stroke:rgb(0%,0%,0%);stroke-opacity:1;stroke-miterlimit:10;"
       d="M 2584.375 239.804688 L 2584.375 282.1875 "
       transform="matrix(0.1,0,0,-0.1,0,253)"
       id="path72" />
    <path
       style="fill:none;stroke-width:3.98506;stroke-linecap:butt;stroke-linejoin:miter;stroke:rgb(0%,0%,0%);stroke-opacity:1;stroke-miterlimit:10;"
       d="M 288.28125 239.804688 L 288.28125 282.1875 "
       transform="matrix(0.1,0,0,-0.1,0,253)"
       id="path74" />
    <path
       style="fill:none;stroke-width:3.98505;stroke-linecap:butt;stroke-linejoin:miter;stroke:rgb(0%,0%,0%);stroke-opacity:1;stroke-miterlimit:10;"
       d="M 288.085938 239.648438 L 330.820312 239.648438 "
       transform="matrix(0.1,0,0,-0.1,0,253)"
       id="path76" />
    <path
       style="fill:none;stroke-width:3.98504;stroke-linecap:butt;stroke-linejoin:miter;stroke:rgb(0%,0%,0%);stroke-opacity:1;stroke-miterlimit:10;"
       d="M 288.320312 591.09375 L 330.625 591.09375 "
       transform="matrix(0.1,0,0,-0.1,0,253)"
       id="path78" />
    <path
       style="fill:none;stroke-width:3.98505;stroke-linecap:butt;stroke-linejoin:miter;stroke:rgb(0%,0%,0%);stroke-opacity:1;stroke-miterlimit:10;"
       d="M 288.164062 942.65625 L 330.742188 942.65625 "
       transform="matrix(0.1,0,0,-0.1,0,253)"
       id="path80" />
    <path
       style="fill:none;stroke-width:3.98507;stroke-linecap:butt;stroke-linejoin:miter;stroke:rgb(0%,0%,0%);stroke-opacity:1;stroke-miterlimit:10;"
       d="M 288.359375 1294.101562 L 330.859375 1294.101562 "
       transform="matrix(0.1,0,0,-0.1,0,253)"
       id="path82" />
    <path
       style="fill:none;stroke-width:3.98507;stroke-linecap:butt;stroke-linejoin:miter;stroke:rgb(0%,0%,0%);stroke-opacity:1;stroke-miterlimit:10;"
       d="M 288.164062 1645.546875 L 330.625 1645.546875 "
       transform="matrix(0.1,0,0,-0.1,0,253)"
       id="path84" />
    <path
       style="fill:none;stroke-width:3.98507;stroke-linecap:butt;stroke-linejoin:miter;stroke:rgb(0%,0%,0%);stroke-opacity:1;stroke-miterlimit:10;"
       d="M 288.164062 1997.109375 L 330.859375 1997.109375 "
       transform="matrix(0.1,0,0,-0.1,0,253)"
       id="path86" />
    <path
       style="fill:none;stroke-width:3.98506;stroke-linecap:butt;stroke-linejoin:miter;stroke:rgb(0%,0%,0%);stroke-opacity:1;stroke-miterlimit:10;"
       d="M 288.085938 2348.554688 L 330.742188 2348.554688 "
       transform="matrix(0.1,0,0,-0.1,0,253)"
       id="path88" />
    <path
       style="fill:none;stroke-width:3.98505;stroke-linecap:butt;stroke-linejoin:miter;stroke:rgb(0%,0%,0%);stroke-opacity:1;stroke-miterlimit:10;"
       d="M 288.085938 239.648438 L 330.820312 239.648438 "
       transform="matrix(0.1,0,0,-0.1,0,253)"
       id="path90" />
    <path
       style="fill:none;stroke-width:3.98505;stroke-linecap:butt;stroke-linejoin:miter;stroke:rgb(0%,0%,0%);stroke-opacity:1;stroke-miterlimit:10;"
       d="M 288.4375 2524.414062 L 288.4375 2481.992188 "
       transform="matrix(0.1,0,0,-0.1,0,253)"
       id="path92" />
    <path
       style="fill:none;stroke-width:3.98505;stroke-linecap:butt;stroke-linejoin:miter;stroke:rgb(0%,0%,0%);stroke-opacity:1;stroke-miterlimit:10;"
       d="M 670.898438 2524.414062 L 670.898438 2481.992188 "
       transform="matrix(0.1,0,0,-0.1,0,253)"
       id="path94" />
    <path
       style="fill:none;stroke-width:3.98505;stroke-linecap:butt;stroke-linejoin:miter;stroke:rgb(0%,0%,0%);stroke-opacity:1;stroke-miterlimit:10;"
       d="M 1053.671875 2524.414062 L 1053.671875 2481.992188 "
       transform="matrix(0.1,0,0,-0.1,0,253)"
       id="path96" />
    <path
       style="fill:none;stroke-width:3.98505;stroke-linecap:butt;stroke-linejoin:miter;stroke:rgb(0%,0%,0%);stroke-opacity:1;stroke-miterlimit:10;"
       d="M 1436.132812 2524.414062 L 1436.132812 2481.992188 "
       transform="matrix(0.1,0,0,-0.1,0,253)"
       id="path98" />
    <path
       style="fill:none;stroke-width:3.98505;stroke-linecap:butt;stroke-linejoin:miter;stroke:rgb(0%,0%,0%);stroke-opacity:1;stroke-miterlimit:10;"
       d="M 1818.945312 2524.414062 L 1818.945312 2481.992188 "
       transform="matrix(0.1,0,0,-0.1,0,253)"
       id="path100" />
    <path
       style="fill:none;stroke-width:3.98505;stroke-linecap:butt;stroke-linejoin:miter;stroke:rgb(0%,0%,0%);stroke-opacity:1;stroke-miterlimit:10;"
       d="M 2201.71875 2524.414062 L 2201.71875 2481.992188 "
       transform="matrix(0.1,0,0,-0.1,0,253)"
       id="path102" />
    <path
       style="fill:none;stroke-width:3.98505;stroke-linecap:butt;stroke-linejoin:miter;stroke:rgb(0%,0%,0%);stroke-opacity:1;stroke-miterlimit:10;"
       d="M 2584.179688 2524.414062 L 2584.179688 2481.992188 "
       transform="matrix(0.1,0,0,-0.1,0,253)"
       id="path104" />
    <path
       style="fill:none;stroke-width:3.98505;stroke-linecap:butt;stroke-linejoin:miter;stroke:rgb(0%,0%,0%);stroke-opacity:1;stroke-miterlimit:10;"
       d="M 288.4375 2524.414062 L 288.4375 2481.992188 "
       transform="matrix(0.1,0,0,-0.1,0,253)"
       id="path106" />
    <path
       style="fill:none;stroke-width:3.98505;stroke-linecap:butt;stroke-linejoin:miter;stroke:rgb(0%,0%,0%);stroke-opacity:1;stroke-miterlimit:10;"
       d="M 2584.375 239.648438 L 2541.679688 239.648438 "
       transform="matrix(0.1,0,0,-0.1,0,253)"
       id="path108" />
    <path
       style="fill:none;stroke-width:3.98504;stroke-linecap:butt;stroke-linejoin:miter;stroke:rgb(0%,0%,0%);stroke-opacity:1;stroke-miterlimit:10;"
       d="M 2584.335938 591.09375 L 2541.679688 591.09375 "
       transform="matrix(0.1,0,0,-0.1,0,253)"
       id="path110" />
    <path
       style="fill:none;stroke-width:3.98505;stroke-linecap:butt;stroke-linejoin:miter;stroke:rgb(0%,0%,0%);stroke-opacity:1;stroke-miterlimit:10;"
       d="M 2584.375 942.65625 L 2541.757812 942.65625 "
       transform="matrix(0.1,0,0,-0.1,0,253)"
       id="path112" />
    <path
       style="fill:none;stroke-width:3.98507;stroke-linecap:butt;stroke-linejoin:miter;stroke:rgb(0%,0%,0%);stroke-opacity:1;stroke-miterlimit:10;"
       d="M 2584.257812 1294.101562 L 2541.757812 1294.101562 "
       transform="matrix(0.1,0,0,-0.1,0,253)"
       id="path114" />
    <path
       style="fill:none;stroke-width:3.98507;stroke-linecap:butt;stroke-linejoin:miter;stroke:rgb(0%,0%,0%);stroke-opacity:1;stroke-miterlimit:10;"
       d="M 2584.257812 1645.546875 L 2541.796875 1645.546875 "
       transform="matrix(0.1,0,0,-0.1,0,253)"
       id="path116" />
    <path
       style="fill:none;stroke-width:3.98507;stroke-linecap:butt;stroke-linejoin:miter;stroke:rgb(0%,0%,0%);stroke-opacity:1;stroke-miterlimit:10;"
       d="M 2584.21875 1997.109375 L 2541.875 1997.109375 "
       transform="matrix(0.1,0,0,-0.1,0,253)"
       id="path118" />
    <path
       style="fill:none;stroke-width:3.98506;stroke-linecap:butt;stroke-linejoin:miter;stroke:rgb(0%,0%,0%);stroke-opacity:1;stroke-miterlimit:10;"
       d="M 2584.335938 2348.554688 L 2541.71875 2348.554688 "
       transform="matrix(0.1,0,0,-0.1,0,253)"
       id="path120" />
    <path
       style="fill:none;stroke-width:3.98505;stroke-linecap:butt;stroke-linejoin:miter;stroke:rgb(0%,0%,0%);stroke-opacity:1;stroke-miterlimit:10;"
       d="M 2584.375 239.648438 L 2541.679688 239.648438 "
       transform="matrix(0.1,0,0,-0.1,0,253)"
       id="path122" />
    <path
       style=" stroke:none;fill-rule:nonzero;fill:rgb(0%,0%,0%);fill-opacity:1;"
       d="M 30.773438 235.566406 C 30.773438 233.957031 30.039062 232.503906 28.789062 232.503906 C 27.523438 232.503906 26.789062 233.957031 26.789062 235.566406 C 26.789062 237.191406 27.476562 238.628906 28.789062 238.628906 C 29.992188 238.628906 30.773438 237.191406 30.773438 235.566406 Z M 29.914062 235.566406 C 29.914062 236.863281 29.789062 238.378906 28.789062 238.378906 C 27.835938 238.378906 27.648438 236.863281 27.648438 235.566406 C 27.648438 234.488281 27.773438 232.738281 28.789062 232.738281 C 29.789062 232.738281 29.914062 234.488281 29.914062 235.566406 Z M 29.914062 235.566406 "
       id="path124" />
    <path
       style=" stroke:none;fill-rule:nonzero;fill:rgb(0%,0%,0%);fill-opacity:1;"
       d="M 65.695312 235.566406 C 65.695312 233.957031 64.960938 232.503906 63.710938 232.503906 C 62.445312 232.503906 61.710938 233.957031 61.710938 235.566406 C 61.710938 237.191406 62.398438 238.628906 63.710938 238.628906 C 64.914062 238.628906 65.695312 237.191406 65.695312 235.566406 Z M 64.835938 235.566406 C 64.835938 236.863281 64.710938 238.378906 63.710938 238.378906 C 62.757812 238.378906 62.570312 236.863281 62.570312 235.566406 C 62.570312 234.488281 62.695312 232.738281 63.710938 232.738281 C 64.710938 232.738281 64.835938 234.488281 64.835938 235.566406 Z M 64.835938 235.566406 "
       id="path126" />
    <path
       style=" stroke:none;fill-rule:nonzero;fill:rgb(0%,0%,0%);fill-opacity:1;"
       d="M 67.617188 238.144531 C 67.617188 237.863281 67.398438 237.644531 67.117188 237.644531 C 66.835938 237.644531 66.617188 237.863281 66.617188 238.144531 C 66.617188 238.425781 66.835938 238.644531 67.117188 238.644531 C 67.398438 238.644531 67.617188 238.425781 67.617188 238.144531 Z M 67.617188 238.144531 "
       id="path128" />
    <path
       style=" stroke:none;fill-rule:nonzero;fill:rgb(0%,0%,0%);fill-opacity:1;"
       d="M 72.472656 232.597656 L 70.003906 232.597656 L 68.894531 235.144531 C 69.035156 235.113281 69.175781 235.082031 69.347656 235.082031 C 70.300781 235.082031 71.597656 235.582031 71.597656 236.753906 C 71.597656 237.660156 70.941406 238.238281 70.316406 238.238281 C 69.769531 238.238281 69.566406 237.738281 69.050781 237.738281 C 68.800781 237.738281 68.722656 237.957031 68.722656 238.066406 C 68.722656 238.378906 69.160156 238.628906 69.785156 238.628906 C 71.128906 238.628906 72.191406 237.644531 72.191406 236.441406 C 72.191406 235.019531 71.066406 234.535156 69.847656 234.503906 C 69.738281 234.503906 69.613281 234.519531 69.503906 234.535156 L 70.066406 233.269531 L 72.160156 233.253906 Z M 72.472656 232.597656 "
       id="path130" />
    <path
       style=" stroke:none;fill-rule:nonzero;fill:rgb(0%,0%,0%);fill-opacity:1;"
       d="M 103.222656 238.519531 L 103.222656 238.378906 C 102.628906 238.378906 102.410156 238.394531 102.410156 237.222656 C 102.410156 237.207031 102.410156 232.472656 102.410156 232.472656 L 102.285156 232.472656 L 100.753906 233.207031 L 100.800781 233.347656 C 101.128906 233.207031 101.207031 233.175781 101.332031 233.175781 C 101.597656 233.175781 101.644531 233.410156 101.644531 233.722656 L 101.644531 237.222656 C 101.644531 238.394531 101.425781 238.363281 100.832031 238.378906 L 100.832031 238.519531 Z M 103.222656 238.519531 "
       id="path132" />
    <path
       style=" stroke:none;fill-rule:nonzero;fill:rgb(0%,0%,0%);fill-opacity:1;"
       d="M 105.898438 238.144531 C 105.898438 237.863281 105.679688 237.644531 105.398438 237.644531 C 105.117188 237.644531 104.898438 237.863281 104.898438 238.144531 C 104.898438 238.425781 105.117188 238.644531 105.398438 238.644531 C 105.679688 238.644531 105.898438 238.425781 105.898438 238.144531 Z M 105.898438 238.144531 "
       id="path134" />
    <path
       style=" stroke:none;fill-rule:nonzero;fill:rgb(0%,0%,0%);fill-opacity:1;"
       d="M 110.8125 235.566406 C 110.8125 233.957031 110.078125 232.503906 108.828125 232.503906 C 107.5625 232.503906 106.828125 233.957031 106.828125 235.566406 C 106.828125 237.191406 107.515625 238.628906 108.828125 238.628906 C 110.03125 238.628906 110.8125 237.191406 110.8125 235.566406 Z M 109.953125 235.566406 C 109.953125 236.863281 109.828125 238.378906 108.828125 238.378906 C 107.875 238.378906 107.6875 236.863281 107.6875 235.566406 C 107.6875 234.488281 107.8125 232.738281 108.828125 232.738281 C 109.828125 232.738281 109.953125 234.488281 109.953125 235.566406 Z M 109.953125 235.566406 "
       id="path136" />
    <path
       style=" stroke:none;fill-rule:nonzero;fill:rgb(0%,0%,0%);fill-opacity:1;"
       d="M 141.382812 238.519531 L 141.382812 238.378906 C 140.789062 238.378906 140.570312 238.394531 140.570312 237.222656 C 140.570312 237.207031 140.570312 232.472656 140.570312 232.472656 L 140.445312 232.472656 L 138.914062 233.207031 L 138.960938 233.347656 C 139.289062 233.207031 139.367188 233.175781 139.492188 233.175781 C 139.757812 233.175781 139.804688 233.410156 139.804688 233.722656 L 139.804688 237.222656 C 139.804688 238.394531 139.585938 238.363281 138.992188 238.378906 L 138.992188 238.519531 Z M 141.382812 238.519531 "
       id="path138" />
    <path
       style=" stroke:none;fill-rule:nonzero;fill:rgb(0%,0%,0%);fill-opacity:1;"
       d="M 144.058594 238.144531 C 144.058594 237.863281 143.839844 237.644531 143.558594 237.644531 C 143.277344 237.644531 143.058594 237.863281 143.058594 238.144531 C 143.058594 238.425781 143.277344 238.644531 143.558594 238.644531 C 143.839844 238.644531 144.058594 238.425781 144.058594 238.144531 Z M 144.058594 238.144531 "
       id="path140" />
    <path
       style=" stroke:none;fill-rule:nonzero;fill:rgb(0%,0%,0%);fill-opacity:1;"
       d="M 148.910156 232.597656 L 146.441406 232.597656 L 145.332031 235.144531 C 145.472656 235.113281 145.613281 235.082031 145.785156 235.082031 C 146.738281 235.082031 148.035156 235.582031 148.035156 236.753906 C 148.035156 237.660156 147.378906 238.238281 146.753906 238.238281 C 146.207031 238.238281 146.003906 237.738281 145.488281 237.738281 C 145.238281 237.738281 145.160156 237.957031 145.160156 238.066406 C 145.160156 238.378906 145.597656 238.628906 146.222656 238.628906 C 147.566406 238.628906 148.628906 237.644531 148.628906 236.441406 C 148.628906 235.019531 147.503906 234.535156 146.285156 234.503906 C 146.175781 234.503906 146.050781 234.519531 145.941406 234.535156 L 146.503906 233.269531 L 148.597656 233.253906 Z M 148.910156 232.597656 "
       id="path142" />
    <path
       style=" stroke:none;fill-rule:nonzero;fill:rgb(0%,0%,0%);fill-opacity:1;"
       d="M 180.324219 237.363281 L 180.167969 237.332031 C 179.902344 237.785156 179.683594 237.863281 179.246094 237.863281 L 177.183594 237.863281 C 178.605469 236.566406 179.902344 235.394531 179.902344 234.082031 C 179.902344 233.160156 179.105469 232.503906 178.230469 232.503906 C 177.371094 232.503906 176.683594 232.972656 176.417969 234.191406 L 176.621094 234.191406 C 176.871094 233.691406 177.214844 233.175781 177.902344 233.175781 C 178.683594 233.175781 179.121094 233.769531 179.121094 234.441406 C 179.121094 235.410156 178.089844 236.832031 176.324219 238.378906 L 176.324219 238.519531 L 179.855469 238.519531 Z M 180.324219 237.363281 "
       id="path144" />
    <path
       style=" stroke:none;fill-rule:nonzero;fill:rgb(0%,0%,0%);fill-opacity:1;"
       d="M 182.578125 238.144531 C 182.578125 237.863281 182.359375 237.644531 182.078125 237.644531 C 181.796875 237.644531 181.578125 237.863281 181.578125 238.144531 C 181.578125 238.425781 181.796875 238.644531 182.078125 238.644531 C 182.359375 238.644531 182.578125 238.425781 182.578125 238.144531 Z M 182.578125 238.144531 "
       id="path146" />
    <path
       style=" stroke:none;fill-rule:nonzero;fill:rgb(0%,0%,0%);fill-opacity:1;"
       d="M 187.492188 235.566406 C 187.492188 233.957031 186.757812 232.503906 185.507812 232.503906 C 184.242188 232.503906 183.507812 233.957031 183.507812 235.566406 C 183.507812 237.191406 184.195312 238.628906 185.507812 238.628906 C 186.710938 238.628906 187.492188 237.191406 187.492188 235.566406 Z M 186.632812 235.566406 C 186.632812 236.863281 186.507812 238.378906 185.507812 238.378906 C 184.554688 238.378906 184.367188 236.863281 184.367188 235.566406 C 184.367188 234.488281 184.492188 232.738281 185.507812 232.738281 C 186.507812 232.738281 186.632812 234.488281 186.632812 235.566406 Z M 186.632812 235.566406 "
       id="path148" />
    <path
       style=" stroke:none;fill-rule:nonzero;fill:rgb(0%,0%,0%);fill-opacity:1;"
       d="M 218.605469 237.363281 L 218.449219 237.332031 C 218.183594 237.785156 217.964844 237.863281 217.527344 237.863281 L 215.464844 237.863281 C 216.886719 236.566406 218.183594 235.394531 218.183594 234.082031 C 218.183594 233.160156 217.386719 232.503906 216.511719 232.503906 C 215.652344 232.503906 214.964844 232.972656 214.699219 234.191406 L 214.902344 234.191406 C 215.152344 233.691406 215.496094 233.175781 216.183594 233.175781 C 216.964844 233.175781 217.402344 233.769531 217.402344 234.441406 C 217.402344 235.410156 216.371094 236.832031 214.605469 238.378906 L 214.605469 238.519531 L 218.136719 238.519531 Z M 218.605469 237.363281 "
       id="path150" />
    <path
       style=" stroke:none;fill-rule:nonzero;fill:rgb(0%,0%,0%);fill-opacity:1;"
       d="M 220.855469 238.144531 C 220.855469 237.863281 220.636719 237.644531 220.355469 237.644531 C 220.074219 237.644531 219.855469 237.863281 219.855469 238.144531 C 219.855469 238.425781 220.074219 238.644531 220.355469 238.644531 C 220.636719 238.644531 220.855469 238.425781 220.855469 238.144531 Z M 220.855469 238.144531 "
       id="path152" />
    <path
       style=" stroke:none;fill-rule:nonzero;fill:rgb(0%,0%,0%);fill-opacity:1;"
       d="M 225.710938 232.597656 L 223.242188 232.597656 L 222.132812 235.144531 C 222.273438 235.113281 222.414062 235.082031 222.585938 235.082031 C 223.539062 235.082031 224.835938 235.582031 224.835938 236.753906 C 224.835938 237.660156 224.179688 238.238281 223.554688 238.238281 C 223.007812 238.238281 222.804688 237.738281 222.289062 237.738281 C 222.039062 237.738281 221.960938 237.957031 221.960938 238.066406 C 221.960938 238.378906 222.398438 238.628906 223.023438 238.628906 C 224.367188 238.628906 225.429688 237.644531 225.429688 236.441406 C 225.429688 235.019531 224.304688 234.535156 223.085938 234.503906 C 222.976562 234.503906 222.851562 234.519531 222.742188 234.535156 L 223.304688 233.269531 L 225.398438 233.253906 Z M 225.710938 232.597656 "
       id="path154" />
    <path
       style=" stroke:none;fill-rule:nonzero;fill:rgb(0%,0%,0%);fill-opacity:1;"
       d="M 256.628906 236.582031 C 256.628906 235.644531 256.082031 235.238281 255.550781 235.019531 C 256.128906 234.582031 256.316406 234.175781 256.316406 233.691406 C 256.316406 233.175781 255.894531 232.503906 254.925781 232.503906 C 254.222656 232.503906 253.550781 232.894531 253.253906 233.863281 L 253.394531 233.894531 C 253.582031 233.535156 253.941406 233.082031 254.597656 233.082031 C 255.238281 233.082031 255.613281 233.519531 255.613281 234.019531 C 255.613281 234.722656 255.066406 235.222656 254.253906 235.410156 L 254.238281 235.597656 C 255.628906 235.535156 255.972656 236.441406 255.972656 237.003906 C 255.972656 237.675781 255.488281 238.285156 254.847656 238.285156 C 254.269531 238.285156 254.019531 237.785156 253.535156 237.785156 C 253.378906 237.785156 253.191406 237.941406 253.191406 238.144531 C 253.191406 238.519531 253.753906 238.628906 254.160156 238.628906 C 255.582031 238.628906 256.628906 237.816406 256.628906 236.582031 Z M 256.628906 236.582031 "
       id="path156" />
    <path
       style=" stroke:none;fill-rule:nonzero;fill:rgb(0%,0%,0%);fill-opacity:1;"
       d="M 258.898438 238.144531 C 258.898438 237.863281 258.679688 237.644531 258.398438 237.644531 C 258.117188 237.644531 257.898438 237.863281 257.898438 238.144531 C 257.898438 238.425781 258.117188 238.644531 258.398438 238.644531 C 258.679688 238.644531 258.898438 238.425781 258.898438 238.144531 Z M 258.898438 238.144531 "
       id="path158" />
    <path
       style=" stroke:none;fill-rule:nonzero;fill:rgb(0%,0%,0%);fill-opacity:1;"
       d="M 263.8125 235.566406 C 263.8125 233.957031 263.078125 232.503906 261.828125 232.503906 C 260.5625 232.503906 259.828125 233.957031 259.828125 235.566406 C 259.828125 237.191406 260.515625 238.628906 261.828125 238.628906 C 263.03125 238.628906 263.8125 237.191406 263.8125 235.566406 Z M 262.953125 235.566406 C 262.953125 236.863281 262.828125 238.378906 261.828125 238.378906 C 260.875 238.378906 260.6875 236.863281 260.6875 235.566406 C 260.6875 234.488281 260.8125 232.738281 261.828125 232.738281 C 262.828125 232.738281 262.953125 234.488281 262.953125 235.566406 Z M 262.953125 235.566406 "
       id="path160" />
    <path
       style=" stroke:none;fill-rule:nonzero;fill:rgb(0%,0%,0%);fill-opacity:1;"
       d="M 18.292969 229.085938 C 18.292969 227.476562 17.558594 226.023438 16.308594 226.023438 C 15.042969 226.023438 14.308594 227.476562 14.308594 229.085938 C 14.308594 230.710938 14.996094 232.148438 16.308594 232.148438 C 17.511719 232.148438 18.292969 230.710938 18.292969 229.085938 Z M 17.433594 229.085938 C 17.433594 230.382812 17.308594 231.898438 16.308594 231.898438 C 15.355469 231.898438 15.167969 230.382812 15.167969 229.085938 C 15.167969 228.007812 15.292969 226.257812 16.308594 226.257812 C 17.308594 226.257812 17.433594 228.007812 17.433594 229.085938 Z M 17.433594 229.085938 "
       id="path162" />
    <path
       style=" stroke:none;fill-rule:nonzero;fill:rgb(0%,0%,0%);fill-opacity:1;"
       d="M 20.21875 231.664062 C 20.21875 231.382812 20 231.164062 19.71875 231.164062 C 19.4375 231.164062 19.21875 231.382812 19.21875 231.664062 C 19.21875 231.945312 19.4375 232.164062 19.71875 232.164062 C 20 232.164062 20.21875 231.945312 20.21875 231.664062 Z M 20.21875 231.664062 "
       id="path164" />
    <path
       style=" stroke:none;fill-rule:nonzero;fill:rgb(0%,0%,0%);fill-opacity:1;"
       d="M 25.164062 230.882812 L 25.007812 230.851562 C 24.742188 231.304688 24.523438 231.382812 24.085938 231.382812 L 22.023438 231.382812 C 23.445312 230.085938 24.742188 228.914062 24.742188 227.601562 C 24.742188 226.679688 23.945312 226.023438 23.070312 226.023438 C 22.210938 226.023438 21.523438 226.492188 21.257812 227.710938 L 21.460938 227.710938 C 21.710938 227.210938 22.054688 226.695312 22.742188 226.695312 C 23.523438 226.695312 23.960938 227.289062 23.960938 227.960938 C 23.960938 228.929688 22.929688 230.351562 21.164062 231.898438 L 21.164062 232.039062 L 24.695312 232.039062 Z M 25.164062 230.882812 "
       id="path166" />
    <path
       style=" stroke:none;fill-rule:nonzero;fill:rgb(0%,0%,0%);fill-opacity:1;"
       d="M 18.292969 193.925781 C 18.292969 192.316406 17.558594 190.863281 16.308594 190.863281 C 15.042969 190.863281 14.308594 192.316406 14.308594 193.925781 C 14.308594 195.550781 14.996094 196.988281 16.308594 196.988281 C 17.511719 196.988281 18.292969 195.550781 18.292969 193.925781 Z M 17.433594 193.925781 C 17.433594 195.222656 17.308594 196.738281 16.308594 196.738281 C 15.355469 196.738281 15.167969 195.222656 15.167969 193.925781 C 15.167969 192.847656 15.292969 191.097656 16.308594 191.097656 C 17.308594 191.097656 17.433594 192.847656 17.433594 193.925781 Z M 17.433594 193.925781 "
       id="path168" />
    <path
       style=" stroke:none;fill-rule:nonzero;fill:rgb(0%,0%,0%);fill-opacity:1;"
       d="M 20.21875 196.503906 C 20.21875 196.222656 20 196.003906 19.71875 196.003906 C 19.4375 196.003906 19.21875 196.222656 19.21875 196.503906 C 19.21875 196.785156 19.4375 197.003906 19.71875 197.003906 C 20 197.003906 20.21875 196.785156 20.21875 196.503906 Z M 20.21875 196.503906 "
       id="path170" />
    <path
       style=" stroke:none;fill-rule:nonzero;fill:rgb(0%,0%,0%);fill-opacity:1;"
       d="M 25.148438 195.394531 L 25.148438 194.785156 L 24.273438 194.785156 L 24.273438 190.863281 L 23.835938 190.863281 L 21.242188 194.769531 L 21.242188 195.394531 L 23.539062 195.394531 L 23.539062 196.878906 L 24.273438 196.878906 L 24.273438 195.394531 Z M 23.539062 194.785156 L 21.601562 194.785156 L 23.523438 191.800781 L 23.539062 191.800781 Z M 23.539062 194.785156 "
       id="path172" />
    <path
       style=" stroke:none;fill-rule:nonzero;fill:rgb(0%,0%,0%);fill-opacity:1;"
       d="M 18.292969 158.765625 C 18.292969 157.15625 17.558594 155.703125 16.308594 155.703125 C 15.042969 155.703125 14.308594 157.15625 14.308594 158.765625 C 14.308594 160.390625 14.996094 161.828125 16.308594 161.828125 C 17.511719 161.828125 18.292969 160.390625 18.292969 158.765625 Z M 17.433594 158.765625 C 17.433594 160.0625 17.308594 161.578125 16.308594 161.578125 C 15.355469 161.578125 15.167969 160.0625 15.167969 158.765625 C 15.167969 157.6875 15.292969 155.9375 16.308594 155.9375 C 17.308594 155.9375 17.433594 157.6875 17.433594 158.765625 Z M 17.433594 158.765625 "
       id="path174" />
    <path
       style=" stroke:none;fill-rule:nonzero;fill:rgb(0%,0%,0%);fill-opacity:1;"
       d="M 20.21875 161.34375 C 20.21875 161.0625 20 160.84375 19.71875 160.84375 C 19.4375 160.84375 19.21875 161.0625 19.21875 161.34375 C 19.21875 161.625 19.4375 161.84375 19.71875 161.84375 C 20 161.84375 20.21875 161.625 20.21875 161.34375 Z M 20.21875 161.34375 "
       id="path176" />
    <path
       style=" stroke:none;fill-rule:nonzero;fill:rgb(0%,0%,0%);fill-opacity:1;"
       d="M 25.085938 159.703125 C 25.085938 158.71875 24.382812 157.984375 23.492188 157.984375 C 23.039062 157.984375 22.664062 158.125 22.273438 158.4375 C 22.664062 156.84375 23.835938 155.84375 24.960938 155.828125 L 24.960938 155.671875 C 22.195312 155.671875 21.320312 158.015625 21.320312 159.34375 C 21.320312 160.765625 22.148438 161.828125 23.257812 161.828125 C 24.273438 161.828125 25.085938 160.875 25.085938 159.703125 Z M 24.320312 160.15625 C 24.320312 160.984375 23.945312 161.5625 23.351562 161.5625 C 22.429688 161.5625 22.148438 160.21875 22.148438 159.5 C 22.148438 159.265625 22.179688 159.015625 22.226562 158.71875 C 22.617188 158.46875 22.929688 158.359375 23.242188 158.359375 C 24.148438 158.359375 24.320312 159.40625 24.320312 160.15625 Z M 24.320312 160.15625 "
       id="path178" />
    <path
       style=" stroke:none;fill-rule:nonzero;fill:rgb(0%,0%,0%);fill-opacity:1;"
       d="M 18.292969 123.605469 C 18.292969 121.996094 17.558594 120.542969 16.308594 120.542969 C 15.042969 120.542969 14.308594 121.996094 14.308594 123.605469 C 14.308594 125.230469 14.996094 126.667969 16.308594 126.667969 C 17.511719 126.667969 18.292969 125.230469 18.292969 123.605469 Z M 17.433594 123.605469 C 17.433594 124.902344 17.308594 126.417969 16.308594 126.417969 C 15.355469 126.417969 15.167969 124.902344 15.167969 123.605469 C 15.167969 122.527344 15.292969 120.777344 16.308594 120.777344 C 17.308594 120.777344 17.433594 122.527344 17.433594 123.605469 Z M 17.433594 123.605469 "
       id="path180" />
    <path
       style=" stroke:none;fill-rule:nonzero;fill:rgb(0%,0%,0%);fill-opacity:1;"
       d="M 20.21875 126.183594 C 20.21875 125.902344 20 125.683594 19.71875 125.683594 C 19.4375 125.683594 19.21875 125.902344 19.21875 126.183594 C 19.21875 126.464844 19.4375 126.683594 19.71875 126.683594 C 20 126.683594 20.21875 126.464844 20.21875 126.183594 Z M 20.21875 126.183594 "
       id="path182" />
    <path
       style=" stroke:none;fill-rule:nonzero;fill:rgb(0%,0%,0%);fill-opacity:1;"
       d="M 24.867188 125.183594 C 24.867188 124.542969 24.585938 124.058594 23.492188 123.246094 C 24.179688 122.871094 24.710938 122.449219 24.710938 121.792969 C 24.710938 121.105469 24.070312 120.511719 23.117188 120.511719 C 22.273438 120.511719 21.476562 121.058594 21.476562 121.902344 C 21.476562 122.558594 21.820312 122.949219 22.585938 123.558594 C 21.726562 124.214844 21.414062 124.542969 21.414062 125.214844 C 21.414062 125.964844 22.085938 126.667969 23.132812 126.667969 C 24.351562 126.667969 24.867188 125.839844 24.867188 125.183594 Z M 24.101562 121.777344 C 24.101562 122.417969 23.726562 122.761719 23.242188 123.089844 C 22.648438 122.667969 22.132812 122.199219 22.132812 121.683594 C 22.132812 121.199219 22.476562 120.777344 23.085938 120.777344 C 23.757812 120.777344 24.101562 121.199219 24.101562 121.777344 Z M 24.226562 125.433594 C 24.226562 126.011719 23.789062 126.402344 23.210938 126.402344 C 22.523438 126.402344 22.085938 125.855469 22.085938 125.121094 C 22.085938 124.449219 22.414062 124.058594 22.820312 123.714844 C 23.804688 124.464844 24.226562 124.839844 24.226562 125.433594 Z M 24.226562 125.433594 "
       id="path184" />
    <path
       style=" stroke:none;fill-rule:nonzero;fill:rgb(0%,0%,0%);fill-opacity:1;"
       d="M 17.542969 91.519531 L 17.542969 91.378906 C 16.949219 91.378906 16.730469 91.394531 16.730469 90.222656 C 16.730469 90.207031 16.730469 85.472656 16.730469 85.472656 L 16.605469 85.472656 L 15.074219 86.207031 L 15.121094 86.347656 C 15.449219 86.207031 15.527344 86.175781 15.652344 86.175781 C 15.917969 86.175781 15.964844 86.410156 15.964844 86.722656 L 15.964844 90.222656 C 15.964844 91.394531 15.746094 91.363281 15.152344 91.378906 L 15.152344 91.519531 Z M 17.542969 91.519531 "
       id="path186" />
    <path
       style=" stroke:none;fill-rule:nonzero;fill:rgb(0%,0%,0%);fill-opacity:1;"
       d="M 20.21875 91.144531 C 20.21875 90.863281 20 90.644531 19.71875 90.644531 C 19.4375 90.644531 19.21875 90.863281 19.21875 91.144531 C 19.21875 91.425781 19.4375 91.644531 19.71875 91.644531 C 20 91.644531 20.21875 91.425781 20.21875 91.144531 Z M 20.21875 91.144531 "
       id="path188" />
    <path
       style=" stroke:none;fill-rule:nonzero;fill:rgb(0%,0%,0%);fill-opacity:1;"
       d="M 25.132812 88.566406 C 25.132812 86.957031 24.398438 85.503906 23.148438 85.503906 C 21.882812 85.503906 21.148438 86.957031 21.148438 88.566406 C 21.148438 90.191406 21.835938 91.628906 23.148438 91.628906 C 24.351562 91.628906 25.132812 90.191406 25.132812 88.566406 Z M 24.273438 88.566406 C 24.273438 89.863281 24.148438 91.378906 23.148438 91.378906 C 22.195312 91.378906 22.007812 89.863281 22.007812 88.566406 C 22.007812 87.488281 22.132812 85.738281 23.148438 85.738281 C 24.148438 85.738281 24.273438 87.488281 24.273438 88.566406 Z M 24.273438 88.566406 "
       id="path190" />
    <path
       style=" stroke:none;fill-rule:nonzero;fill:rgb(0%,0%,0%);fill-opacity:1;"
       d="M 17.542969 56.359375 L 17.542969 56.21875 C 16.949219 56.21875 16.730469 56.234375 16.730469 55.0625 C 16.730469 55.046875 16.730469 50.3125 16.730469 50.3125 L 16.605469 50.3125 L 15.074219 51.046875 L 15.121094 51.1875 C 15.449219 51.046875 15.527344 51.015625 15.652344 51.015625 C 15.917969 51.015625 15.964844 51.25 15.964844 51.5625 L 15.964844 55.0625 C 15.964844 56.234375 15.746094 56.203125 15.152344 56.21875 L 15.152344 56.359375 Z M 17.542969 56.359375 "
       id="path192" />
    <path
       style=" stroke:none;fill-rule:nonzero;fill:rgb(0%,0%,0%);fill-opacity:1;"
       d="M 20.21875 55.984375 C 20.21875 55.703125 20 55.484375 19.71875 55.484375 C 19.4375 55.484375 19.21875 55.703125 19.21875 55.984375 C 19.21875 56.265625 19.4375 56.484375 19.71875 56.484375 C 20 56.484375 20.21875 56.265625 20.21875 55.984375 Z M 20.21875 55.984375 "
       id="path194" />
    <path
       style=" stroke:none;fill-rule:nonzero;fill:rgb(0%,0%,0%);fill-opacity:1;"
       d="M 25.164062 55.203125 L 25.007812 55.171875 C 24.742188 55.625 24.523438 55.703125 24.085938 55.703125 L 22.023438 55.703125 C 23.445312 54.40625 24.742188 53.234375 24.742188 51.921875 C 24.742188 51 23.945312 50.34375 23.070312 50.34375 C 22.210938 50.34375 21.523438 50.8125 21.257812 52.03125 L 21.460938 52.03125 C 21.710938 51.53125 22.054688 51.015625 22.742188 51.015625 C 23.523438 51.015625 23.960938 51.609375 23.960938 52.28125 C 23.960938 53.25 22.929688 54.671875 21.164062 56.21875 L 21.164062 56.359375 L 24.695312 56.359375 Z M 25.164062 55.203125 "
       id="path196" />
    <path
       style=" stroke:none;fill-rule:nonzero;fill:rgb(0%,0%,0%);fill-opacity:1;"
       d="M 17.542969 21.199219 L 17.542969 21.058594 C 16.949219 21.058594 16.730469 21.074219 16.730469 19.902344 C 16.730469 19.886719 16.730469 15.152344 16.730469 15.152344 L 16.605469 15.152344 L 15.074219 15.886719 L 15.121094 16.027344 C 15.449219 15.886719 15.527344 15.855469 15.652344 15.855469 C 15.917969 15.855469 15.964844 16.089844 15.964844 16.402344 L 15.964844 19.902344 C 15.964844 21.074219 15.746094 21.042969 15.152344 21.058594 L 15.152344 21.199219 Z M 17.542969 21.199219 "
       id="path198" />
    <path
       style=" stroke:none;fill-rule:nonzero;fill:rgb(0%,0%,0%);fill-opacity:1;"
       d="M 20.21875 20.824219 C 20.21875 20.542969 20 20.324219 19.71875 20.324219 C 19.4375 20.324219 19.21875 20.542969 19.21875 20.824219 C 19.21875 21.105469 19.4375 21.324219 19.71875 21.324219 C 20 21.324219 20.21875 21.105469 20.21875 20.824219 Z M 20.21875 20.824219 "
       id="path200" />
    <path
       style=" stroke:none;fill-rule:nonzero;fill:rgb(0%,0%,0%);fill-opacity:1;"
       d="M 25.148438 19.714844 L 25.148438 19.105469 L 24.273438 19.105469 L 24.273438 15.183594 L 23.835938 15.183594 L 21.242188 19.089844 L 21.242188 19.714844 L 23.539062 19.714844 L 23.539062 21.199219 L 24.273438 21.199219 L 24.273438 19.714844 Z M 23.539062 19.105469 L 21.601562 19.105469 L 23.523438 16.121094 L 23.539062 16.121094 Z M 23.539062 19.105469 "
       id="path202" />
    <path
       style=" stroke:none;fill-rule:nonzero;fill:rgb(0%,0%,0%);fill-opacity:1;"
       d="M 139.671875 244.621094 L 139.671875 244.480469 L 137.953125 244.480469 L 137.953125 244.621094 C 138.140625 244.621094 138.453125 244.699219 138.453125 244.949219 C 138.453125 245.167969 138.234375 245.527344 138.109375 245.714844 L 135.71875 249.230469 L 135.546875 245.308594 C 135.515625 244.746094 135.828125 244.621094 136.3125 244.621094 L 136.3125 244.480469 L 134 244.480469 L 134 244.621094 C 134.609375 244.621094 134.65625 244.902344 134.734375 245.636719 L 134.9375 250.667969 L 135.09375 250.667969 L 138.71875 245.339844 C 138.890625 245.121094 139.28125 244.621094 139.671875 244.621094 Z M 139.671875 244.621094 "
       id="path204" />
    <path
       style=" stroke:none;fill-rule:nonzero;fill:rgb(0%,0%,0%);fill-opacity:1;"
       d="M 143.328125 244.089844 L 142.890625 244.089844 L 139.78125 252.449219 L 140.234375 252.449219 Z M 143.328125 244.089844 "
       id="path206" />
    <path
       style=" stroke:none;fill-rule:nonzero;fill:rgb(0%,0%,0%);fill-opacity:1;"
       d="M 151.070312 244.621094 L 151.070312 244.480469 L 149.351562 244.480469 L 149.351562 244.621094 C 149.539062 244.621094 149.851562 244.699219 149.851562 244.949219 C 149.851562 245.167969 149.632812 245.527344 149.507812 245.714844 L 147.117188 249.230469 L 146.945312 245.308594 C 146.914062 244.746094 147.226562 244.621094 147.710938 244.621094 L 147.710938 244.480469 L 145.398438 244.480469 L 145.398438 244.621094 C 146.007812 244.621094 146.054688 244.902344 146.132812 245.636719 L 146.335938 250.667969 L 146.492188 250.667969 L 150.117188 245.339844 C 150.289062 245.121094 150.679688 244.621094 151.070312 244.621094 Z M 151.070312 244.621094 "
       id="path208" />
    <path
       style=" stroke:none;fill-rule:nonzero;fill:rgb(0%,0%,0%);fill-opacity:1;"
       d="M 153.445312 250.375 C 153.445312 249.125 152.882812 247.984375 151.789062 247.984375 C 150.679688 247.984375 150.101562 249.125 150.101562 250.375 C 150.101562 251.65625 150.648438 252.765625 151.789062 252.765625 C 152.835938 252.765625 153.445312 251.65625 153.445312 250.375 Z M 152.585938 250.375 C 152.585938 251.34375 152.335938 252.5 151.773438 252.5 C 151.054688 252.5 150.960938 251.34375 150.960938 250.375 C 150.960938 249.5625 151.023438 248.25 151.789062 248.25 C 152.539062 248.25 152.585938 249.5625 152.585938 250.375 Z M 152.585938 250.375 "
       id="path210" />
    <path
       style=" stroke:none;fill-rule:nonzero;fill:rgb(0%,0%,0%);fill-opacity:1;"
       d="M 3.789062 111.035156 C 3.085938 111.035156 2.617188 111.347656 2.617188 112.019531 C 2.617188 112.613281 3.039062 113.066406 3.601562 113.472656 L 2.617188 113.160156 C 2.617188 113.160156 2.851562 114.363281 2.867188 114.628906 L 3.023438 114.628906 C 3.023438 114.300781 2.992188 114.035156 3.351562 114.035156 C 3.523438 114.035156 3.914062 114.144531 4.132812 114.207031 L 7.867188 115.269531 C 8.210938 115.363281 8.460938 115.519531 8.460938 115.957031 L 8.617188 115.988281 L 8.617188 114.019531 L 8.460938 113.988281 C 8.460938 114.332031 8.445312 114.628906 8.195312 114.628906 C 8.117188 114.628906 8.023438 114.613281 7.851562 114.566406 L 6.601562 114.253906 C 6.742188 114.082031 6.820312 113.816406 6.820312 113.597656 C 6.820312 112.519531 5.289062 111.035156 3.789062 111.035156 Z M 3.882812 111.800781 C 5.054688 111.800781 6.617188 112.785156 6.617188 113.628906 C 6.617188 113.832031 6.539062 114.019531 6.367188 114.191406 C 5.570312 113.988281 3.039062 113.441406 3.039062 112.285156 C 3.039062 111.800781 3.679688 111.800781 3.882812 111.800781 Z M 3.882812 111.800781 "
       id="path212" />
    <path
       style=" stroke:none;fill-rule:nonzero;fill:rgb(0%,0%,0%);fill-opacity:1;"
       d="M 0.273438 106.441406 L 0.273438 106.878906 L 8.632812 109.988281 L 8.632812 109.535156 Z M 0.273438 106.441406 "
       id="path214" />
    <path
       style=" stroke:none;fill-rule:nonzero;fill:rgb(0%,0%,0%);fill-opacity:1;"
       d="M 3.789062 100.59375 C 3.085938 100.59375 2.617188 100.90625 2.617188 101.578125 C 2.617188 102.171875 3.039062 102.625 3.601562 103.03125 L 2.617188 102.71875 C 2.617188 102.71875 2.851562 103.921875 2.867188 104.1875 L 3.023438 104.1875 C 3.023438 103.859375 2.992188 103.59375 3.351562 103.59375 C 3.523438 103.59375 3.914062 103.703125 4.132812 103.765625 L 7.867188 104.828125 C 8.210938 104.921875 8.460938 105.078125 8.460938 105.515625 L 8.617188 105.546875 L 8.617188 103.578125 L 8.460938 103.546875 C 8.460938 103.890625 8.445312 104.1875 8.195312 104.1875 C 8.117188 104.1875 8.023438 104.171875 7.851562 104.125 L 6.601562 103.8125 C 6.742188 103.640625 6.820312 103.375 6.820312 103.15625 C 6.820312 102.078125 5.289062 100.59375 3.789062 100.59375 Z M 3.882812 101.359375 C 5.054688 101.359375 6.617188 102.34375 6.617188 103.1875 C 6.617188 103.390625 6.539062 103.578125 6.367188 103.75 C 5.570312 103.546875 3.039062 103 3.039062 101.84375 C 3.039062 101.359375 3.679688 101.359375 3.882812 101.359375 Z M 3.882812 101.359375 "
       id="path216" />
    <path
       style=" stroke:none;fill-rule:nonzero;fill:rgb(0%,0%,0%);fill-opacity:1;"
       d="M 1.453125 96.519531 C 0.65625 96.519531 0 97.175781 0 98.003906 C 0 98.832031 0.65625 99.488281 1.453125 99.488281 C 2.234375 99.488281 2.890625 98.832031 2.890625 98.003906 C 2.890625 97.175781 2.234375 96.519531 1.453125 96.519531 Z M 1.453125 96.988281 C 1.984375 96.988281 2.4375 97.457031 2.4375 98.003906 C 2.4375 98.550781 1.984375 99.003906 1.453125 99.003906 C 0.921875 99.003906 0.46875 98.550781 0.46875 98.003906 C 0.46875 97.457031 0.921875 96.988281 1.453125 96.988281 Z M 1.453125 96.988281 "
       id="path218" />
    <path
       style="display:none;fill:none;stroke:#000000;stroke-width:8.50363;stroke-linecap:butt;stroke-linejoin:miter;stroke-miterlimit:10;stroke-dasharray:28.3325, 14.1661;stroke-opacity:1"
       d="m 990.9375,2524.2578 v -0.3515 l 0.35156,-1.3672 0.70313,-1.7578 0.70312,-2.4219 1.05469,-2.461 0.66406,-2.7734 1.05469,-2.4219 0.35156,-1.7578 0.35156,-0.664 1.71875,-5.2344 8.00778,-25.3906 7.6563,-25.3516 1.7578,-5.2344 2.4219,-7.6562 6.9531,-21.875 9.375,-28.8672 9.375,-28.5156 7.6563,-21.9141 2.4609,-7.3047 2.4219,-6.6016 6.9531,-19.8046 9.375,-25.7422 9.4141,-25.3516 7.6171,-19.8437 2.461,-6.25 3.125,-8.3594 15.625,-39.2578 16.0156,-39.2969 3.4766,-8.0078 3.125,-7.6563 15.625,-36.4843 16.0156,-36.1719 3.4766,-7.6563 3.125,-6.9531 15.625,-32.6562 16.3671,-32.6954 3.125,-6.6015 3.4766,-6.6016 15.625,-31.6406 16.0156,-30.9375 3.125,-6.6406 3.4766,-5.8985 15.3125,-28.5156 16.3281,-28.1641 3.4766,-5.8984 4.5312,-8.0078 14.2578,-23.6328 18.3985,-30.2344 19.1406,-30.2734 14.9609,-23.2813 5.1954,-7.6562 4.5312,-6.9532 14.2578,-20.5078 18.3985,-26.7578 19.1406,-26.0937 14.9609,-20.1563 5.1953,-6.6015 4.5313,-6.25 14.2578,-18.4375 18.75,-23.2813 19.1406,-23.3203 14.6094,-17.7344 5.1953,-5.8984 4.5313,-5.5469 14.2578,-16.3672 18.789,-20.8594 19.1016,-20.5078 14.9609,-15.9765 4.8438,-5.2344 4.8828,-4.8438 14.2578,-14.6093 18.7891,-18.7891 18.75,-18.4375 14.9609,-14.2578 4.8828,-4.4922 4.8438,-4.5312 14.2578,-13.2032 18.789,-17.0312 19.1016,-16.7188 14.6094,-12.8515 4.8828,-4.1797 4.8437,-4.1797 14.2579,-11.7969 18.789,-15.3125 19.1016,-14.9219 14.6094,-11.4843 4.8828,-3.8282 4.8437,-3.8281 14.2578,-10.7812 19.1407,-13.9063 18.789,-13.9062 14.5703,-10.4297 5.2344,-3.4766 4.5313,-3.4765 14.5703,-9.7266 18.789,-12.5391 18.7891,-12.5 14.9219,-9.375 4.8828,-3.4765 6.25,-4.1797 31.6406,-19.8438 31.9922,-19.4531 13.2031,-7.6562 31.2891,-17.7344 31.9922,-17.0313 6.6015,-3.4765 6.6016,-3.8282 63.2812,-33.35934 6.6016,-3.47656 6.6016,-3.125 63.2812,-30.625 6.6406,-3.125 6.6016,-3.125 31.6406,-14.60938 31.6407,-14.25781 6.6015,-3.125 6.6016,-2.77344 31.6406,-13.20312 31.6406,-12.85156 6.6016,-2.8125 6.6016,-2.42188 31.6406,-12.5 31.9922,-12.53906 6.6015,-2.42188 2.4219,-1.05468 8.3594,-2.77344 12.1484,-4.53125 12.8906,-4.84375 12.1485,-4.53125 11.1328,-4.17969 9.0234,-3.125 5.9375,-2.07031 2.4219,-1.05469"
       transform="matrix(0.1,0,0,-0.1,0,253)"
       id="path837" />
    <path
       style="display:none;fill:none;stroke:#000000;stroke-width:11.3366;stroke-linecap:round;stroke-linejoin:miter;stroke-miterlimit:10;stroke-dasharray:0.28297, 28.2973;stroke-dashoffset:22.629;stroke-opacity:1"
       d="m 798.35937,2524.2578 0.3125,-1.3672 0.70313,-3.8281 1.40625,-5.9375 1.36719,-7.9687 2.10937,-9.4141 2.07031,-11.1328 2.77344,-12.1485 2.46094,-13.5546 3.125,-13.9063 2.77344,-14.2578 6.25,-29.2188 2.77343,-14.2578 3.16407,-13.9062 2.77343,-12.8516 1.71875,-9.0234 0.70313,-2.8125 2.07031,-10.0781 6.99219,-29.1797 8.67187,-37.9297 9.02344,-37.8906 7.30469,-29.1797 2.46094,-9.7657 2.07031,-8.6718 6.60156,-25.7422 9.0625,-33.3594 9.02344,-33.3984 7.30469,-25.7032 2.42187,-8.7109 2.10938,-7.6562 6.60156,-22.9297 9.02344,-29.9219 9.0625,-29.5313 7.26562,-22.9687 2.46094,-7.6172 2.07031,-6.9531 6.60156,-20.5469 9.0625,-26.7578 9.02344,-26.4063 7.30469,-20.5078 2.42187,-6.6406 2.10938,-6.25 6.60156,-18.4375 9.02344,-23.9844 9.06245,-23.9843 6.9532,-18.4375 2.4218,-6.25 3.125,-7.6563 14.961,-36.4844 15.2734,-36.1718 3.1641,-7.3047 3.125,-6.9532 14.9219,-33.3593 15.3125,-33.0469 3.125,-6.6016 3.125,-6.25 14.6093,-30.5859 15.3125,-29.9219 3.4766,-6.25 3.125,-5.8984 14.6094,-27.8125 15.2734,-27.5 3.4766,-5.5469 2.7734,-5.5469 14.961,-25.3906 15.3125,-25.3906 3.125,-5.1953 3.125,-4.8828 14.9609,-23.6329 15.2734,-23.6328 3.125,-4.5312 3.1641,-4.8828 14.9219,-21.875 15.3125,-21.5625 3.125,-4.5313 3.125,-4.1797 14.9609,-20.1562 15.3125,-20.1563 6.25,-8.3593 14.9219,-18.7891 15.3125,-18.75 6.25,-7.6563 29.9219,-34.7656 3.4765,-3.8281 2.7735,-3.4766 15.3125,-16.3281 14.9218,-16.3672 3.125,-3.4765 3.1641,-3.125 14.9219,-15.625 21.5625,-21.5625 14.9609,-14.6094 15.2734,-14.2578 3.1641,-3.125 3.125,-2.7735 14.9219,-13.55466 15.3125,-13.55469 3.125,-2.8125 3.125,-2.77344 14.9609,-12.85156 15.3125,-12.85156 3.125,-2.46094 3.125,-2.77344 14.9219,-12.14844 14.9609,-11.83593 3.4766,-2.77344 2.7734,-2.46094 15.3125,-11.44531 14.961,-11.48438 3.125,-2.07031 3.125,-2.46094 15.3125,-10.78125 14.9218,-10.78125 3.125,-2.42187 3.1641,-2.07031 14.9219,-10.42969 15.3125,-10.07813 3.125,-2.10937 3.125,-2.07031 14.9609,-10.07813 15.2735,-9.76562 3.164,-1.71875 3.125,-2.07032 14.9219,-9.41406 15.3125,-9.375 3.125,-1.75781 3.125,-2.07031 14.9609,-8.71094 14.961,-9.02344 3.125,-1.71875 3.125,-1.75781 15.3125,-8.67188 14.9218,-8.35937 3.125,-1.75781 3.125,-1.71875 15.3125,-8.00782 14.961,-8.00781 3.125,-1.71875 3.125,-1.40625 14.9609,-7.96875 15.2735,-7.65625 3.164,-1.40625 3.125,-1.71875 14.9219,-7.30469 15.3125,-7.30468 3.125,-1.75782 3.125,-1.36718 14.9609,-6.95313 15.3125,-7.30469 3.125,-1.40625 3.125,-1.36718 14.9219,-6.60157 14.9609,-6.95312 6.25,-2.8125 15.3125,-6.60156 14.961,-6.25 3.125,-1.40625 3.125,-1.36719 15.3125,-6.25 14.9219,-6.28906 3.125,-1.01563 3.164,-1.40625 14.9219,-5.89844 15.3125,-5.9375 3.125,-1.36718 3.125,-1.05469 14.9609,-5.89844 15.2735,-5.58594 3.164,-1.36718 3.125,-1.05469 14.9219,-5.54688 14.9609,-5.58593 3.4766,-1.01563 3.125,-1.40625 14.9609,-5.19531 14.961,-5.23438 3.125,-1.05468 3.125,-1.36719 15.3125,-4.88281 14.9219,-5.19532 6.25,-2.10937 15.3125,-5.19531 14.9609,-4.88282 3.125,-1.05468 3.125,-1.01563 14.9609,-4.53125 15.2735,-4.88281 3.125,-1.01563 3.164,-1.05468 14.9219,-4.53125 15.3125,-4.49219 6.25,-2.10938 14.9609,-4.53125 14.961,-4.14062 3.4765,-1.05469 3.125,-1.05469 14.9219,-4.17968 14.961,-4.49219 3.125,-0.70313 3.125,-1.05468 15.3125,-4.17969 14.9609,-4.14063 3.125,-0.70312 3.125,-1.05469 15.3125,-3.82812 14.9219,-4.17969 3.125,-0.66406 1.4062,-0.35157 3.8281,-1.05468 5.8985,-1.40625 5.9375,-1.71875 5.8984,-1.40625 5.1953,-1.36719 4.1797,-1.05469 3.125,-1.05469 h 1.0547"
       transform="matrix(0.1,0,0,-0.1,0,253)"
       id="path1673" />
    <path
       style="display:none;fill:none;stroke:#000000;stroke-width:11.3366;stroke-linecap:round;stroke-linejoin:miter;stroke-miterlimit:10;stroke-dasharray:0.28284, 28.2841;stroke-dashoffset:22.6158;stroke-opacity:1"
       d="m 1308.75,2524.2578 0.6641,-1.7187 2.1093,-5.2344 3.125,-8.0078 3.4766,-9.375 4.1797,-10.4297 4.4922,-11.1328 4.1797,-10.4297 2.7734,-6.9531 1.0547,-2.4219 2.1094,-5.2344 10.7422,-25.7031 10.7812,-26.0938 2.4609,-5.1953 2.0704,-5.2343 10.7812,-24.6875 10.7813,-24.336 2.4218,-5.1953 2.1094,-4.8828 10.7813,-23.6328 10.7421,-23.3203 2.1094,-4.8438 2.4219,-4.8828 10.4297,-22.2266 11.1328,-22.2656 2.0703,-4.8828 2.4609,-4.4922 10.4297,-21.2109 11.1328,-21.5625 2.0704,-4.5313 2.0703,-4.1797 21.5625,-41.0156 2.4609,-4.1797 2.0703,-4.1797 21.5625,-38.9062 2.4219,-4.1797 2.0703,-3.8281 10.7813,-19.1406 10.7812,-18.75 2.4609,-3.8282 2.0704,-3.8281 10.7812,-18.0859 10.7813,-17.7344 2.4218,-3.8281 2.1094,-3.8282 10.7422,-17.0312 10.7812,-17.3828 2.461,-3.4766 2.0703,-3.4765 21.5625,-33.3594 2.0703,-3.4766 2.4609,-3.4765 10.7813,-16.0157 10.7812,-15.9765 2.0704,-3.125 2.4218,-3.4766 10.4297,-15.3125 11.1328,-15.3125 2.0703,-3.125 2.461,-3.125 10.4297,-14.9219 10.7812,-14.9609 2.4219,-2.7734 2.0703,-3.125 21.5625,-28.5157 2.4609,-3.125 2.0704,-2.8125 10.7812,-13.9062 10.7813,-13.5547 2.4218,-3.125 2.0703,-2.7734 10.7813,-13.2032 10.7812,-13.2422 2.461,-2.7734 2.0703,-2.7734 10.7812,-12.8516 10.7813,-12.8906 2.0703,-2.4219 2.4609,-2.7734 10.7813,-12.5391 10.7422,-12.1484 2.1094,-2.7735 2.4218,-2.4609 10.7813,-11.7969 10.7812,-12.1875 2.0703,-2.4219 2.461,-2.4218 10.4297,-11.4844 11.1328,-11.8359 2.0703,-2.4219 2.4219,-2.0703 10.4297,-11.4844 10.7812,-11.1328 4.5313,-4.5313 10.7812,-11.0937 10.7813,-10.7813 2.4218,-2.1093 2.0703,-2.4219 21.5625,-20.8594 2.461,-2.4219 2.0703,-2.1093 10.7812,-10.0782 10.7813,-10.4297 2.4219,-2.0703 2.1093,-2.1093 10.7422,-9.7266 10.7813,-10.0781 2.1094,-1.7578 2.4218,-2.0704 21.5625,-19.4531 2.0703,-1.7578 2.461,-2.0703 10.7812,-9.4141 10.7422,-9.375 2.1094,-1.7187 2.4219,-2.1094 10.7812,-9.0234 10.7813,-9.0625 2.0703,-1.7188 2.4609,-1.7578 10.4297,-9.0234 11.1328,-8.711 2.0703,-1.7187 2.0703,-1.7578 10.7813,-8.6719 10.7812,-8.7109 2.4219,-1.7188 2.1094,-1.7578 10.7812,-8.3203 10.7813,-8.3594 2.4219,-1.7187 2.0703,-1.4063 10.7812,-8.3594 10.7813,-7.9687 2.4609,-1.7578 2.0703,-1.7188 10.7813,-7.6562 10.7812,-8.0078 2.4219,-1.7188 2.1094,-1.4062 10.7422,-7.6563 10.7812,-7.6562 2.1094,-1.7188 2.4219,-1.4062 10.7812,-7.6563 10.7813,-7.2656 2.0703,-1.7578 2.4609,-1.4063 10.7813,-7.2656 10.7422,-7.3047 2.1093,-1.4062 2.4219,-1.7188 10.4297,-6.9531 11.1328,-6.9531 2.0703,-1.4063 2.1094,-1.7578 10.7812,-6.9531 10.7813,-6.6016 2.4219,-1.3672 2.0703,-1.7578 21.5625,-13.2031 2.4219,-1.4063 2.1093,-1.3672 21.5625,-13.2031 2.4219,-1.4062 2.0703,-1.4063 10.7813,-6.25 10.7812,-6.6015 2.1094,-1.0547 2.4219,-1.3672 10.7812,-6.2891 10.7813,-6.25 2.0703,-1.3672 2.4609,-1.4062 10.7422,-5.8985 10.7813,-6.25 2.1093,-1.0546 2.4219,-1.4063 21.5625,-11.7969 2.0703,-1.4062 2.461,-1.0547 10.7812,-5.8984 10.7422,-5.8985 2.1094,-1.0547 2.0703,-1.4062 21.5625,-11.0938 2.4219,-1.4062 1.0546,-0.3516 2.4219,-1.4062 4.1797,-2.0703 4.5313,-2.4219 4.1796,-2.1094 3.8282,-2.0703 3.125,-1.4063 2.0703,-1.0156 0.7031,-0.3515"
       transform="matrix(0.1,0,0,-0.1,0,253)"
       id="path1956" />
    <path
       style="display:none;fill:none;stroke:#000000;stroke-width:4.25177;stroke-linecap:butt;stroke-linejoin:miter;stroke-miterlimit:10;stroke-dasharray:22.5599, 16.9189;stroke-opacity:1"
       d="M 1367.2656,1134.4141 V 2380.8203"
       transform="matrix(0.1,0,0,-0.1,0,253)"
       id="path2241" />
    <path
       style="display:none;fill:none;stroke:#000000;stroke-width:4.25175;stroke-linecap:butt;stroke-linejoin:miter;stroke-miterlimit:10;stroke-dasharray:22.9987, 17.2479;stroke-opacity:1"
       d="m 1035.5469,1687.4219 h 747.4609"
       transform="matrix(0.1,0,0,-0.1,0,253)"
       id="path2528" />
  </g>
</svg>
