%!PS-Adobe-3.0 EPSF-3.0
%%Creator: cairo 1.17.4 (https://cairographics.org)
%%CreationDate: Thu Feb 24 10:49:52 2022
%%Pages: 1
%%DocumentData: Clean7Bit
%%LanguageLevel: 2
%%BoundingBox: 0 0 221 171
%%EndComments
%%BeginProlog
50 dict begin
/q { gsave } bind def
/Q { grestore } bind def
/cm { 6 array astore concat } bind def
/w { setlinewidth } bind def
/J { setlinecap } bind def
/j { setlinejoin } bind def
/M { setmiterlimit } bind def
/d { setdash } bind def
/m { moveto } bind def
/l { lineto } bind def
/c { curveto } bind def
/h { closepath } bind def
/re { exch dup neg 3 1 roll 5 3 roll moveto 0 rlineto
      0 exch rlineto 0 rlineto closepath } bind def
/S { stroke } bind def
/f { fill } bind def
/f* { eofill } bind def
/n { newpath } bind def
/W { clip } bind def
/W* { eoclip } bind def
/BT { } bind def
/ET { } bind def
/BDC { mark 3 1 roll /BDC pdfmark } bind def
/EMC { mark /EMC pdfmark } bind def
/cairo_store_point { /cairo_point_y exch def /cairo_point_x exch def } def
/Tj { show currentpoint cairo_store_point } bind def
/TJ {
  {
    dup
    type /stringtype eq
    { show } { -0.001 mul 0 cairo_font_matrix dtransform rmoveto } ifelse
  } forall
  currentpoint cairo_store_point
} bind def
/cairo_selectfont { cairo_font_matrix aload pop pop pop 0 0 6 array astore
    cairo_font exch selectfont cairo_point_x cairo_point_y moveto } bind def
/Tf { pop /cairo_font exch def /cairo_font_matrix where
      { pop cairo_selectfont } if } bind def
/Td { matrix translate cairo_font_matrix matrix concatmatrix dup
      /cairo_font_matrix exch def dup 4 get exch 5 get cairo_store_point
      /cairo_font where { pop cairo_selectfont } if } bind def
/Tm { 2 copy 8 2 roll 6 array astore /cairo_font_matrix exch def
      cairo_store_point /cairo_font where { pop cairo_selectfont } if } bind def
/g { setgray } bind def
/rg { setrgbcolor } bind def
/d1 { setcachedevice } bind def
/cairo_data_source {
  CairoDataIndex CairoData length lt
    { CairoData CairoDataIndex get /CairoDataIndex CairoDataIndex 1 add def }
    { () } ifelse
} def
/cairo_flush_ascii85_file { cairo_ascii85_file status { cairo_ascii85_file flushfile } if } def
/cairo_image { image cairo_flush_ascii85_file } def
/cairo_imagemask { imagemask cairo_flush_ascii85_file } def
%%EndProlog
%%BeginSetup
%%EndSetup
%%Page: 1 1
%%BeginPageSetup
%%PageBoundingBox: 0 0 221 171
%%EndPageSetup
q 0 0 221 171 rectclip
1 0 0 -1 0 171 cm q
0 g
42.652 31.363 m 42.652 30.5 41.953 29.801 41.09 29.801 c 40.227 29.801 
39.527 30.5 39.527 31.363 c 39.527 32.227 40.227 32.926 41.09 32.926 c 41.953
 32.926 42.652 32.227 42.652 31.363 c f
1 g
60.156 42.184 m 60.156 41.164 59.328 40.336 58.309 40.336 c 57.289 40.336
 56.461 41.164 56.461 42.184 c 56.461 43.203 57.289 44.031 58.309 44.031
 c 59.328 44.031 60.156 43.203 60.156 42.184 c f
0 g
60.156 42.184 m 60.156 41.164 59.328 40.336 58.309 40.336 c 57.289 40.336
 56.461 41.164 56.461 42.184 c 56.461 43.203 57.289 44.031 58.309 44.031
 c 59.328 44.031 60.156 43.203 60.156 42.184 c h
60.156 42.184 m 59.969 42.184 l 59.969 41.266 59.227 40.523 58.309 40.523
 c 57.391 40.523 56.648 41.266 56.648 42.184 c 56.648 43.102 57.391 43.844
 58.309 43.844 c 59.227 43.844 59.969 43.102 59.969 42.184 c f
1 g
78.867 61.172 m 78.867 60.152 78.039 59.324 77.02 59.324 c 76 59.324 75.172
 60.152 75.172 61.172 c 75.172 62.191 76 63.02 77.02 63.02 c 78.039 63.02
 78.867 62.191 78.867 61.172 c f
0 g
78.867 61.172 m 78.867 60.152 78.039 59.324 77.02 59.324 c 76 59.324 75.172
 60.152 75.172 61.172 c 75.172 62.191 76 63.02 77.02 63.02 c 78.039 63.02
 78.867 62.191 78.867 61.172 c h
78.867 61.172 m 78.68 61.172 l 78.68 60.254 77.938 59.512 77.02 59.512 
c 76.102 59.512 75.359 60.254 75.359 61.172 c 75.359 62.09 76.102 62.832
 77.02 62.832 c 77.938 62.832 78.68 62.09 78.68 61.172 c f
1 g
79.879 58.051 m 79.879 57.031 79.051 56.203 78.031 56.203 c 77.012 56.203
 76.184 57.031 76.184 58.051 c 76.184 59.07 77.012 59.898 78.031 59.898 
c 79.051 59.898 79.879 59.07 79.879 58.051 c f
0 g
79.879 58.051 m 79.879 57.031 79.051 56.203 78.031 56.203 c 77.012 56.203
 76.184 57.031 76.184 58.051 c 76.184 59.07 77.012 59.898 78.031 59.898 
c 79.051 59.898 79.879 59.07 79.879 58.051 c h
79.879 58.051 m 79.691 58.051 l 79.691 57.133 78.949 56.391 78.031 56.391
 c 77.113 56.391 76.371 57.133 76.371 58.051 c 76.371 58.969 77.113 59.711
 78.031 59.711 c 78.949 59.711 79.691 58.969 79.691 58.051 c f
1 g
100.598 72.652 m 100.598 71.633 99.77 70.805 98.75 70.805 c 97.73 70.805
 96.902 71.633 96.902 72.652 c 96.902 73.672 97.73 74.5 98.75 74.5 c 99.77
 74.5 100.598 73.672 100.598 72.652 c f
0 g
100.598 72.652 m 100.598 71.633 99.77 70.805 98.75 70.805 c 97.73 70.805
 96.902 71.633 96.902 72.652 c 96.902 73.672 97.73 74.5 98.75 74.5 c 99.77
 74.5 100.598 73.672 100.598 72.652 c h
100.598 72.652 m 100.41 72.652 l 100.41 71.734 99.668 70.992 98.75 70.992
 c 97.832 70.992 97.09 71.734 97.09 72.652 c 97.09 73.57 97.832 74.312 98.75
 74.312 c 99.668 74.312 100.41 73.57 100.41 72.652 c f
1 g
105.219 60.883 m 105.219 59.863 104.391 59.035 103.371 59.035 c 102.352
 59.035 101.523 59.863 101.523 60.883 c 101.523 61.902 102.352 62.73 103.371
 62.73 c 104.391 62.73 105.219 61.902 105.219 60.883 c f
0 g
105.219 60.883 m 105.219 59.863 104.391 59.035 103.371 59.035 c 102.352
 59.035 101.523 59.863 101.523 60.883 c 101.523 61.902 102.352 62.73 103.371
 62.73 c 104.391 62.73 105.219 61.902 105.219 60.883 c h
105.219 60.883 m 105.031 60.883 l 105.031 59.965 104.289 59.223 103.371
 59.223 c 102.453 59.223 101.711 59.965 101.711 60.883 c 101.711 61.801 
102.453 62.543 103.371 62.543 c 104.289 62.543 105.031 61.801 105.031 60.883
 c f
1 g
121.629 93.773 m 121.629 92.754 120.801 91.926 119.781 91.926 c 118.762
 91.926 117.934 92.754 117.934 93.773 c 117.934 94.793 118.762 95.621 119.781
 95.621 c 120.801 95.621 121.629 94.793 121.629 93.773 c f
0 g
121.629 93.773 m 121.629 92.754 120.801 91.926 119.781 91.926 c 118.762
 91.926 117.934 92.754 117.934 93.773 c 117.934 94.793 118.762 95.621 119.781
 95.621 c 120.801 95.621 121.629 94.793 121.629 93.773 c h
121.629 93.773 m 121.441 93.773 l 121.441 92.855 120.699 92.113 119.781
 92.113 c 118.863 92.113 118.121 92.855 118.121 93.773 c 118.121 94.691 
118.863 95.434 119.781 95.434 c 120.699 95.434 121.441 94.691 121.441 93.773
 c f
1 g
144.848 80.871 m 144.848 79.852 144.02 79.023 143 79.023 c 141.98 79.023
 141.152 79.852 141.152 80.871 c 141.152 81.891 141.98 82.719 143 82.719
 c 144.02 82.719 144.848 81.891 144.848 80.871 c f
0 g
144.848 80.871 m 144.848 79.852 144.02 79.023 143 79.023 c 141.98 79.023
 141.152 79.852 141.152 80.871 c 141.152 81.891 141.98 82.719 143 82.719
 c 144.02 82.719 144.848 81.891 144.848 80.871 c h
144.848 80.871 m 144.66 80.871 l 144.66 79.953 143.918 79.211 143 79.211
 c 142.082 79.211 141.34 79.953 141.34 80.871 c 141.34 81.789 142.082 82.531
 143 82.531 c 143.918 82.531 144.66 81.789 144.66 80.871 c f
1 g
201.098 114.172 m 201.098 113.152 200.27 112.324 199.25 112.324 c 198.23
 112.324 197.402 113.152 197.402 114.172 c 197.402 115.191 198.23 116.02
 199.25 116.02 c 200.27 116.02 201.098 115.191 201.098 114.172 c f
0 g
201.098 114.172 m 201.098 113.152 200.27 112.324 199.25 112.324 c 198.23
 112.324 197.402 113.152 197.402 114.172 c 197.402 115.191 198.23 116.02
 199.25 116.02 c 200.27 116.02 201.098 115.191 201.098 114.172 c h
201.098 114.172 m 200.91 114.172 l 200.91 113.254 200.168 112.512 199.25
 112.512 c 198.332 112.512 197.59 113.254 197.59 114.172 c 197.59 115.09
 198.332 115.832 199.25 115.832 c 200.168 115.832 200.91 115.09 200.91 114.172
 c f
0.567043 w
0 J
0 j
[] 0.0 d
10 M q 1 0 0 -1 0 0 cm
41.41 -73.934 m 41.41 -3.355 l 210.898 -3.355 l 210.898 -144.508 l 41.41
 -144.508 l h
41.41 -73.934 m S Q
41.121 148.32 m 40.621 148.32 40.246 148.461 39.918 148.789 c 39.402 149.289
 39.059 150.32 39.059 151.367 c 39.059 152.352 39.355 153.398 39.777 153.898
 c 40.105 154.289 40.559 154.508 41.09 154.508 c 41.543 154.508 41.918 154.352
 42.246 154.039 c 42.762 153.555 43.105 152.508 43.105 151.43 c 43.105 149.586
 42.293 148.32 41.121 148.32 c h
41.09 148.555 m 41.84 148.555 42.246 149.57 42.246 151.445 c 42.246 153.32
 41.855 154.273 41.09 154.273 c 40.309 154.273 39.918 153.32 39.918 151.445
 c 39.918 149.539 40.324 148.555 41.09 148.555 c h
41.09 148.555 m f
75.844 148.32 m 75.344 148.32 74.969 148.461 74.641 148.789 c 74.125 149.289
 73.781 150.32 73.781 151.367 c 73.781 152.352 74.078 153.398 74.5 153.898
 c 74.828 154.289 75.281 154.508 75.812 154.508 c 76.266 154.508 76.641 
154.352 76.969 154.039 c 77.484 153.555 77.828 152.508 77.828 151.43 c 77.828
 149.586 77.016 148.32 75.844 148.32 c h
75.812 148.555 m 76.562 148.555 76.969 149.57 76.969 151.445 c 76.969 153.32
 76.578 154.273 75.812 154.273 c 75.031 154.273 74.641 153.32 74.641 151.445
 c 74.641 149.539 75.047 148.555 75.812 148.555 c h
75.812 148.555 m f
79.125 153.492 m 78.859 153.492 78.625 153.711 78.625 153.992 c 78.625 
154.258 78.859 154.477 79.109 154.477 c 79.391 154.477 79.625 154.273 79.625
 153.992 c 79.625 153.727 79.391 153.492 79.125 153.492 c h
79.125 153.492 m f
82.562 148.32 m 82.062 148.32 81.688 148.461 81.359 148.789 c 80.844 149.289
 80.5 150.32 80.5 151.367 c 80.5 152.352 80.797 153.398 81.219 153.898 c
 81.547 154.289 82 154.508 82.531 154.508 c 82.984 154.508 83.359 154.352
 83.688 154.039 c 84.203 153.555 84.547 152.508 84.547 151.43 c 84.547 149.586
 83.734 148.32 82.562 148.32 c h
82.531 148.555 m 83.281 148.555 83.688 149.57 83.688 151.445 c 83.688 153.32
 83.297 154.273 82.531 154.273 c 81.75 154.273 81.359 153.32 81.359 151.445
 c 81.359 149.539 81.766 148.555 82.531 148.555 c h
82.531 148.555 m f
87.004 148.32 m 86.504 148.32 86.129 148.461 85.801 148.789 c 85.285 149.289
 84.941 150.32 84.941 151.367 c 84.941 152.352 85.238 153.398 85.66 153.898
 c 85.988 154.289 86.441 154.508 86.973 154.508 c 87.426 154.508 87.801 
154.352 88.129 154.039 c 88.645 153.555 88.988 152.508 88.988 151.43 c 88.988
 149.586 88.176 148.32 87.004 148.32 c h
86.973 148.555 m 87.723 148.555 88.129 149.57 88.129 151.445 c 88.129 153.32
 87.738 154.273 86.973 154.273 c 86.191 154.273 85.801 153.32 85.801 151.445
 c 85.801 149.539 86.207 148.555 86.973 148.555 c h
86.973 148.555 m f
90.223 154.383 m 92.691 154.383 l 92.691 154.242 l 92.004 154.242 91.848
 154.148 91.848 153.727 c 91.848 148.336 l 91.77 148.32 l 90.16 149.133 
l 90.16 149.258 l 90.504 149.133 90.723 149.07 90.801 149.07 c 90.988 149.07
 91.066 149.195 91.066 149.492 c 91.066 153.555 l 91.051 154.117 90.895 
154.242 90.223 154.242 c h
90.223 154.383 m f
0.567045 w
q 1 0 0 -1 0 0 cm
83.641 -3.062 m 83.641 -7.305 l S Q
0.567041 w
q 1 0 0 -1 0 0 cm
83.629 -144.793 m 83.629 -140.555 l S Q
118.359 148.32 m 117.859 148.32 117.484 148.461 117.156 148.789 c 116.641
 149.289 116.297 150.32 116.297 151.367 c 116.297 152.352 116.594 153.398
 117.016 153.898 c 117.344 154.289 117.797 154.508 118.328 154.508 c 118.781
 154.508 119.156 154.352 119.484 154.039 c 120 153.555 120.344 152.508 120.344
 151.43 c 120.344 149.586 119.531 148.32 118.359 148.32 c h
118.328 148.555 m 119.078 148.555 119.484 149.57 119.484 151.445 c 119.484
 153.32 119.094 154.273 118.328 154.273 c 117.547 154.273 117.156 153.32
 117.156 151.445 c 117.156 149.539 117.562 148.555 118.328 148.555 c h
118.328 148.555 m f
121.645 153.492 m 121.379 153.492 121.145 153.711 121.145 153.992 c 121.145
 154.258 121.379 154.477 121.629 154.477 c 121.91 154.477 122.145 154.273
 122.145 153.992 c 122.145 153.727 121.91 153.492 121.645 153.492 c h
121.645 153.492 m f
125.082 148.32 m 124.582 148.32 124.207 148.461 123.879 148.789 c 123.363
 149.289 123.02 150.32 123.02 151.367 c 123.02 152.352 123.316 153.398 123.738
 153.898 c 124.066 154.289 124.52 154.508 125.051 154.508 c 125.504 154.508
 125.879 154.352 126.207 154.039 c 126.723 153.555 127.066 152.508 127.066
 151.43 c 127.066 149.586 126.254 148.32 125.082 148.32 c h
125.051 148.555 m 125.801 148.555 126.207 149.57 126.207 151.445 c 126.207
 153.32 125.816 154.273 125.051 154.273 c 124.27 154.273 123.879 153.32 
123.879 151.445 c 123.879 149.539 124.285 148.555 125.051 148.555 c h
125.051 148.555 m f
129.52 148.32 m 129.02 148.32 128.645 148.461 128.316 148.789 c 127.801
 149.289 127.457 150.32 127.457 151.367 c 127.457 152.352 127.754 153.398
 128.176 153.898 c 128.504 154.289 128.957 154.508 129.488 154.508 c 129.941
 154.508 130.316 154.352 130.645 154.039 c 131.16 153.555 131.504 152.508
 131.504 151.43 c 131.504 149.586 130.691 148.32 129.52 148.32 c h
129.488 148.555 m 130.238 148.555 130.645 149.57 130.645 151.445 c 130.645
 153.32 130.254 154.273 129.488 154.273 c 128.707 154.273 128.316 153.32
 128.316 151.445 c 128.316 149.539 128.723 148.555 129.488 148.555 c h
129.488 148.555 m f
135.945 153.148 m 135.82 153.102 l 135.492 153.633 135.398 153.695 134.977
 153.695 c 132.82 153.695 l 134.336 152.117 l 135.133 151.289 135.477 150.602
 135.477 149.914 c 135.477 149.008 134.758 148.32 133.82 148.32 c 133.336
 148.32 132.867 148.523 132.539 148.883 c 132.242 149.18 132.117 149.461
 131.961 150.102 c 132.148 150.148 l 132.508 149.273 132.82 148.977 133.445
 148.977 c 134.211 148.977 134.711 149.492 134.711 150.242 c 134.711 150.961
 134.305 151.789 133.539 152.586 c 131.945 154.273 l 131.945 154.383 l 135.445
 154.383 l h
135.945 153.148 m f
0.567045 w
q 1 0 0 -1 0 0 cm
126.164 -3.062 m 126.164 -7.305 l S Q
0.567041 w
q 1 0 0 -1 0 0 cm
126.137 -144.793 m 126.137 -140.555 l S Q
160.883 148.32 m 160.383 148.32 160.008 148.461 159.68 148.789 c 159.164
 149.289 158.82 150.32 158.82 151.367 c 158.82 152.352 159.117 153.398 159.539
 153.898 c 159.867 154.289 160.32 154.508 160.852 154.508 c 161.305 154.508
 161.68 154.352 162.008 154.039 c 162.523 153.555 162.867 152.508 162.867
 151.43 c 162.867 149.586 162.055 148.32 160.883 148.32 c h
160.852 148.555 m 161.602 148.555 162.008 149.57 162.008 151.445 c 162.008
 153.32 161.617 154.273 160.852 154.273 c 160.07 154.273 159.68 153.32 159.68
 151.445 c 159.68 149.539 160.086 148.555 160.852 148.555 c h
160.852 148.555 m f
164.164 153.492 m 163.898 153.492 163.664 153.711 163.664 153.992 c 163.664
 154.258 163.898 154.477 164.148 154.477 c 164.43 154.477 164.664 154.273
 164.664 153.992 c 164.664 153.727 164.43 153.492 164.164 153.492 c h
164.164 153.492 m f
167.602 148.32 m 167.102 148.32 166.727 148.461 166.398 148.789 c 165.883
 149.289 165.539 150.32 165.539 151.367 c 165.539 152.352 165.836 153.398
 166.258 153.898 c 166.586 154.289 167.039 154.508 167.57 154.508 c 168.023
 154.508 168.398 154.352 168.727 154.039 c 169.242 153.555 169.586 152.508
 169.586 151.43 c 169.586 149.586 168.773 148.32 167.602 148.32 c h
167.57 148.555 m 168.32 148.555 168.727 149.57 168.727 151.445 c 168.727
 153.32 168.336 154.273 167.57 154.273 c 166.789 154.273 166.398 153.32 
166.398 151.445 c 166.398 149.539 166.805 148.555 167.57 148.555 c h
167.57 148.555 m f
172.039 148.32 m 171.539 148.32 171.164 148.461 170.836 148.789 c 170.32
 149.289 169.977 150.32 169.977 151.367 c 169.977 152.352 170.273 153.398
 170.695 153.898 c 171.023 154.289 171.477 154.508 172.008 154.508 c 172.461
 154.508 172.836 154.352 173.164 154.039 c 173.68 153.555 174.023 152.508
 174.023 151.43 c 174.023 149.586 173.211 148.32 172.039 148.32 c h
172.008 148.555 m 172.758 148.555 173.164 149.57 173.164 151.445 c 173.164
 153.32 172.773 154.273 172.008 154.273 c 171.227 154.273 170.836 153.32
 170.836 151.445 c 170.836 149.539 171.242 148.555 172.008 148.555 c h
172.008 148.555 m f
175.574 151.43 m 176.105 151.43 176.309 151.445 176.512 151.523 c 177.074
 151.727 177.418 152.227 177.418 152.852 c 177.418 153.617 176.918 154.18
 176.246 154.18 c 175.996 154.18 175.824 154.117 175.496 153.914 c 175.23
 153.742 175.074 153.68 174.918 153.68 c 174.715 153.68 174.59 153.805 174.59
 153.992 c 174.59 154.305 174.965 154.508 175.605 154.508 c 176.277 154.508
 176.996 154.273 177.418 153.914 c 177.84 153.539 178.059 153.023 178.059
 152.414 c 178.059 151.945 177.918 151.539 177.668 151.258 c 177.48 151.07
 177.309 150.961 176.918 150.789 c 177.543 150.367 177.762 150.039 177.762
 149.555 c 177.762 148.82 177.199 148.32 176.355 148.32 c 175.918 148.32
 175.512 148.477 175.199 148.758 c 174.918 149.008 174.793 149.242 174.605
 149.773 c 174.73 149.805 l 175.09 149.148 175.496 148.852 176.059 148.852
 c 176.652 148.852 177.059 149.242 177.059 149.82 c 177.059 150.133 176.918
 150.461 176.699 150.695 c 176.418 150.961 176.168 151.086 175.559 151.305
 c h
175.574 151.43 m f
0.567045 w
q 1 0 0 -1 0 0 cm
168.684 -3.062 m 168.684 -7.305 l S Q
0.567041 w
q 1 0 0 -1 0 0 cm
168.68 -144.793 m 168.68 -140.555 l S Q
203.402 148.32 m 202.902 148.32 202.527 148.461 202.199 148.789 c 201.684
 149.289 201.34 150.32 201.34 151.367 c 201.34 152.352 201.637 153.398 202.059
 153.898 c 202.387 154.289 202.84 154.508 203.371 154.508 c 203.824 154.508
 204.199 154.352 204.527 154.039 c 205.043 153.555 205.387 152.508 205.387
 151.43 c 205.387 149.586 204.574 148.32 203.402 148.32 c h
203.371 148.555 m 204.121 148.555 204.527 149.57 204.527 151.445 c 204.527
 153.32 204.137 154.273 203.371 154.273 c 202.59 154.273 202.199 153.32 
202.199 151.445 c 202.199 149.539 202.605 148.555 203.371 148.555 c h
203.371 148.555 m f
206.684 153.492 m 206.418 153.492 206.184 153.711 206.184 153.992 c 206.184
 154.258 206.418 154.477 206.668 154.477 c 206.949 154.477 207.184 154.273
 207.184 153.992 c 207.184 153.727 206.949 153.492 206.684 153.492 c h
206.684 153.492 m f
210.121 148.32 m 209.621 148.32 209.246 148.461 208.918 148.789 c 208.402
 149.289 208.059 150.32 208.059 151.367 c 208.059 152.352 208.355 153.398
 208.777 153.898 c 209.105 154.289 209.559 154.508 210.09 154.508 c 210.543
 154.508 210.918 154.352 211.246 154.039 c 211.762 153.555 212.105 152.508
 212.105 151.43 c 212.105 149.586 211.293 148.32 210.121 148.32 c h
210.09 148.555 m 210.84 148.555 211.246 149.57 211.246 151.445 c 211.246
 153.32 210.855 154.273 210.09 154.273 c 209.309 154.273 208.918 153.32 
208.918 151.445 c 208.918 149.539 209.324 148.555 210.09 148.555 c h
210.09 148.555 m f
214.562 148.32 m 214.062 148.32 213.688 148.461 213.359 148.789 c 212.844
 149.289 212.5 150.32 212.5 151.367 c 212.5 152.352 212.797 153.398 213.219
 153.898 c 213.547 154.289 214 154.508 214.531 154.508 c 214.984 154.508
 215.359 154.352 215.688 154.039 c 216.203 153.555 216.547 152.508 216.547
 151.43 c 216.547 149.586 215.734 148.32 214.562 148.32 c h
214.531 148.555 m 215.281 148.555 215.688 149.57 215.688 151.445 c 215.688
 153.32 215.297 154.273 214.531 154.273 c 213.75 154.273 213.359 153.32 
213.359 151.445 c 213.359 149.539 213.766 148.555 214.531 148.555 c h
214.531 148.555 m f
220.953 152.305 m 220.031 152.305 l 220.031 148.32 l 219.641 148.32 l 216.828
 152.305 l 216.828 152.883 l 219.344 152.883 l 219.344 154.383 l 220.031
 154.383 l 220.031 152.883 l 220.953 152.883 l h
219.344 152.305 m 217.188 152.305 l 219.344 149.242 l h
219.344 152.305 m f
15.324 141.719 m 14.824 141.719 14.449 141.859 14.121 142.188 c 13.605 
142.688 13.262 143.719 13.262 144.766 c 13.262 145.75 13.559 146.797 13.98
 147.297 c 14.309 147.688 14.762 147.906 15.293 147.906 c 15.746 147.906
 16.121 147.75 16.449 147.438 c 16.965 146.953 17.309 145.906 17.309 144.828
 c 17.309 142.984 16.496 141.719 15.324 141.719 c h
15.293 141.953 m 16.043 141.953 16.449 142.969 16.449 144.844 c 16.449 
146.719 16.059 147.672 15.293 147.672 c 14.512 147.672 14.121 146.719 14.121
 144.844 c 14.121 142.938 14.527 141.953 15.293 141.953 c h
15.293 141.953 m f
18.609 146.891 m 18.344 146.891 18.109 147.109 18.109 147.391 c 18.109 
147.656 18.344 147.875 18.594 147.875 c 18.875 147.875 19.109 147.672 19.109
 147.391 c 19.109 147.125 18.875 146.891 18.609 146.891 c h
18.609 146.891 m f
22.047 141.719 m 21.547 141.719 21.172 141.859 20.844 142.188 c 20.328 
142.688 19.984 143.719 19.984 144.766 c 19.984 145.75 20.281 146.797 20.703
 147.297 c 21.031 147.688 21.484 147.906 22.016 147.906 c 22.469 147.906
 22.844 147.75 23.172 147.438 c 23.688 146.953 24.031 145.906 24.031 144.828
 c 24.031 142.984 23.219 141.719 22.047 141.719 c h
22.016 141.953 m 22.766 141.953 23.172 142.969 23.172 144.844 c 23.172 
146.719 22.781 147.672 22.016 147.672 c 21.234 147.672 20.844 146.719 20.844
 144.844 c 20.844 142.938 21.25 141.953 22.016 141.953 c h
22.016 141.953 m f
28.234 141.844 m 24.906 141.844 l 24.375 143.156 l 24.531 143.234 l 24.906
 142.641 25.078 142.516 25.578 142.5 c 27.516 142.5 l 25.75 147.859 l 26.328
 147.859 l 28.234 141.984 l h
28.234 141.844 m f
30.926 141.719 m 30.426 141.719 30.051 141.859 29.723 142.188 c 29.207 
142.688 28.863 143.719 28.863 144.766 c 28.863 145.75 29.16 146.797 29.582
 147.297 c 29.91 147.688 30.363 147.906 30.895 147.906 c 31.348 147.906 
31.723 147.75 32.051 147.438 c 32.566 146.953 32.91 145.906 32.91 144.828
 c 32.91 142.984 32.098 141.719 30.926 141.719 c h
30.895 141.953 m 31.645 141.953 32.051 142.969 32.051 144.844 c 32.051 
146.719 31.66 147.672 30.895 147.672 c 30.113 147.672 29.723 146.719 29.723
 144.844 c 29.723 142.938 30.129 141.953 30.895 141.953 c h
30.895 141.953 m f
37.348 146.547 m 37.223 146.5 l 36.895 147.031 36.801 147.094 36.379 147.094
 c 34.223 147.094 l 35.738 145.516 l 36.535 144.688 36.879 144 36.879 143.312
 c 36.879 142.406 36.16 141.719 35.223 141.719 c 34.738 141.719 34.27 141.922
 33.941 142.281 c 33.645 142.578 33.52 142.859 33.363 143.5 c 33.551 143.547
 l 33.91 142.672 34.223 142.375 34.848 142.375 c 35.613 142.375 36.113 142.891
 36.113 143.641 c 36.113 144.359 35.707 145.188 34.941 145.984 c 33.348 
147.672 l 33.348 147.781 l 36.848 147.781 l h
37.348 146.547 m f
15.324 113.387 m 14.824 113.387 14.449 113.527 14.121 113.855 c 13.605 
114.355 13.262 115.387 13.262 116.434 c 13.262 117.418 13.559 118.465 13.98
 118.965 c 14.309 119.355 14.762 119.574 15.293 119.574 c 15.746 119.574
 16.121 119.418 16.449 119.105 c 16.965 118.621 17.309 117.574 17.309 116.496
 c 17.309 114.652 16.496 113.387 15.324 113.387 c h
15.293 113.621 m 16.043 113.621 16.449 114.637 16.449 116.512 c 16.449 
118.387 16.059 119.34 15.293 119.34 c 14.512 119.34 14.121 118.387 14.121
 116.512 c 14.121 114.605 14.527 113.621 15.293 113.621 c h
15.293 113.621 m f
18.609 118.559 m 18.344 118.559 18.109 118.777 18.109 119.059 c 18.109 
119.324 18.344 119.543 18.594 119.543 c 18.875 119.543 19.109 119.34 19.109
 119.059 c 19.109 118.793 18.875 118.559 18.609 118.559 c h
18.609 118.559 m f
22.047 113.387 m 21.547 113.387 21.172 113.527 20.844 113.855 c 20.328 
114.355 19.984 115.387 19.984 116.434 c 19.984 117.418 20.281 118.465 20.703
 118.965 c 21.031 119.355 21.484 119.574 22.016 119.574 c 22.469 119.574
 22.844 119.418 23.172 119.105 c 23.688 118.621 24.031 117.574 24.031 116.496
 c 24.031 114.652 23.219 113.387 22.047 113.387 c h
22.016 113.621 m 22.766 113.621 23.172 114.637 23.172 116.512 c 23.172 
118.387 22.781 119.34 22.016 119.34 c 21.234 119.34 20.844 118.387 20.844
 116.512 c 20.844 114.605 21.25 113.621 22.016 113.621 c h
22.016 113.621 m f
28.234 113.512 m 24.906 113.512 l 24.375 114.824 l 24.531 114.902 l 24.906
 114.309 25.078 114.184 25.578 114.168 c 27.516 114.168 l 25.75 119.527 
l 26.328 119.527 l 28.234 113.652 l h
28.234 113.512 m f
30.926 113.387 m 30.426 113.387 30.051 113.527 29.723 113.855 c 29.207 
114.355 28.863 115.387 28.863 116.434 c 28.863 117.418 29.16 118.465 29.582
 118.965 c 29.91 119.355 30.363 119.574 30.895 119.574 c 31.348 119.574 
31.723 119.418 32.051 119.105 c 32.566 118.621 32.91 117.574 32.91 116.496
 c 32.91 114.652 32.098 113.387 30.926 113.387 c h
30.895 113.621 m 31.645 113.621 32.051 114.637 32.051 116.512 c 32.051 
118.387 31.66 119.34 30.895 119.34 c 30.113 119.34 29.723 118.387 29.723
 116.512 c 29.723 114.605 30.129 113.621 30.895 113.621 c h
30.895 113.621 m f
37.316 117.371 m 36.395 117.371 l 36.395 113.387 l 36.004 113.387 l 33.191
 117.371 l 33.191 117.949 l 35.707 117.949 l 35.707 119.449 l 36.395 119.449
 l 36.395 117.949 l 37.316 117.949 l h
35.707 117.371 m 33.551 117.371 l 35.707 114.309 l h
35.707 117.371 m f
q 1 0 0 -1 0 0 cm
41.098 -116.461 m 45.359 -116.461 l S Q
q 1 0 0 -1 0 0 cm
211.191 -116.461 m 206.93 -116.461 l S Q
15.32 85.039 m 14.82 85.039 14.445 85.18 14.117 85.508 c 13.602 86.008 
13.258 87.039 13.258 88.086 c 13.258 89.07 13.555 90.117 13.977 90.617 c
 14.305 91.008 14.758 91.227 15.289 91.227 c 15.742 91.227 16.117 91.07 
16.445 90.758 c 16.961 90.273 17.305 89.227 17.305 88.148 c 17.305 86.305
 16.492 85.039 15.32 85.039 c h
15.289 85.273 m 16.039 85.273 16.445 86.289 16.445 88.164 c 16.445 90.039
 16.055 90.992 15.289 90.992 c 14.508 90.992 14.117 90.039 14.117 88.164
 c 14.117 86.258 14.523 85.273 15.289 85.273 c h
15.289 85.273 m f
18.605 90.211 m 18.34 90.211 18.105 90.43 18.105 90.711 c 18.105 90.977
 18.34 91.195 18.59 91.195 c 18.871 91.195 19.105 90.992 19.105 90.711 c
 19.105 90.445 18.871 90.211 18.605 90.211 c h
18.605 90.211 m f
22.043 85.039 m 21.543 85.039 21.168 85.18 20.84 85.508 c 20.324 86.008
 19.98 87.039 19.98 88.086 c 19.98 89.07 20.277 90.117 20.699 90.617 c 21.027
 91.008 21.48 91.227 22.012 91.227 c 22.465 91.227 22.84 91.07 23.168 90.758
 c 23.684 90.273 24.027 89.227 24.027 88.148 c 24.027 86.305 23.215 85.039
 22.043 85.039 c h
22.012 85.273 m 22.762 85.273 23.168 86.289 23.168 88.164 c 23.168 90.039
 22.777 90.992 22.012 90.992 c 21.23 90.992 20.84 90.039 20.84 88.164 c 
20.84 86.258 21.246 85.273 22.012 85.273 c h
22.012 85.273 m f
28.23 85.164 m 24.902 85.164 l 24.371 86.477 l 24.527 86.555 l 24.902 85.961
 25.074 85.836 25.574 85.82 c 27.512 85.82 l 25.746 91.18 l 26.324 91.18
 l 28.23 85.305 l h
28.23 85.164 m f
30.922 85.039 m 30.422 85.039 30.047 85.18 29.719 85.508 c 29.203 86.008
 28.859 87.039 28.859 88.086 c 28.859 89.07 29.156 90.117 29.578 90.617 
c 29.906 91.008 30.359 91.227 30.891 91.227 c 31.344 91.227 31.719 91.07
 32.047 90.758 c 32.562 90.273 32.906 89.227 32.906 88.148 c 32.906 86.305
 32.094 85.039 30.922 85.039 c h
30.891 85.273 m 31.641 85.273 32.047 86.289 32.047 88.164 c 32.047 90.039
 31.656 90.992 30.891 90.992 c 30.109 90.992 29.719 90.039 29.719 88.164
 c 29.719 86.258 30.125 85.273 30.891 85.273 c h
30.891 85.273 m f
37.078 84.961 m 36.062 85.055 35.531 85.227 34.875 85.68 c 33.906 86.367
 33.391 87.398 33.391 88.602 c 33.391 89.383 33.625 90.164 34.016 90.617
 c 34.359 91.008 34.844 91.227 35.391 91.227 c 36.5 91.227 37.281 90.383
 37.281 89.133 c 37.281 87.977 36.625 87.258 35.578 87.258 c 35.188 87.258
 35 87.32 34.438 87.664 c 34.688 86.305 35.688 85.336 37.094 85.117 c h
35.25 87.68 m 36.031 87.68 36.469 88.32 36.469 89.445 c 36.469 90.43 36.125
 90.977 35.484 90.977 c 34.703 90.977 34.219 90.133 34.219 88.742 c 34.219
 88.289 34.281 88.039 34.469 87.898 c 34.656 87.758 34.938 87.68 35.25 87.68
 c h
35.25 87.68 m f
0.567043 w
q 1 0 0 -1 0 0 cm
41.125 -88.102 m 45.371 -88.102 l S Q
q 1 0 0 -1 0 0 cm
211.195 -88.102 m 206.945 -88.102 l S Q
15.32 56.691 m 14.82 56.691 14.445 56.832 14.117 57.16 c 13.602 57.66 13.258
 58.691 13.258 59.738 c 13.258 60.723 13.555 61.77 13.977 62.27 c 14.305
 62.66 14.758 62.879 15.289 62.879 c 15.742 62.879 16.117 62.723 16.445 
62.41 c 16.961 61.926 17.305 60.879 17.305 59.801 c 17.305 57.957 16.492
 56.691 15.32 56.691 c h
15.289 56.926 m 16.039 56.926 16.445 57.941 16.445 59.816 c 16.445 61.691
 16.055 62.645 15.289 62.645 c 14.508 62.645 14.117 61.691 14.117 59.816
 c 14.117 57.91 14.523 56.926 15.289 56.926 c h
15.289 56.926 m f
18.605 61.863 m 18.34 61.863 18.105 62.082 18.105 62.363 c 18.105 62.629
 18.34 62.848 18.59 62.848 c 18.871 62.848 19.105 62.645 19.105 62.363 c
 19.105 62.098 18.871 61.863 18.605 61.863 c h
18.605 61.863 m f
22.043 56.691 m 21.543 56.691 21.168 56.832 20.84 57.16 c 20.324 57.66 
19.98 58.691 19.98 59.738 c 19.98 60.723 20.277 61.77 20.699 62.27 c 21.027
 62.66 21.48 62.879 22.012 62.879 c 22.465 62.879 22.84 62.723 23.168 62.41
 c 23.684 61.926 24.027 60.879 24.027 59.801 c 24.027 57.957 23.215 56.691
 22.043 56.691 c h
22.012 56.926 m 22.762 56.926 23.168 57.941 23.168 59.816 c 23.168 61.691
 22.777 62.645 22.012 62.645 c 21.23 62.645 20.84 61.691 20.84 59.816 c 
20.84 57.91 21.246 56.926 22.012 56.926 c h
22.012 56.926 m f
28.23 56.816 m 24.902 56.816 l 24.371 58.129 l 24.527 58.207 l 24.902 57.613
 25.074 57.488 25.574 57.473 c 27.512 57.473 l 25.746 62.832 l 26.324 62.832
 l 28.23 56.957 l h
28.23 56.816 m f
30.922 56.691 m 30.422 56.691 30.047 56.832 29.719 57.16 c 29.203 57.66
 28.859 58.691 28.859 59.738 c 28.859 60.723 29.156 61.77 29.578 62.27 c
 29.906 62.66 30.359 62.879 30.891 62.879 c 31.344 62.879 31.719 62.723 
32.047 62.41 c 32.562 61.926 32.906 60.879 32.906 59.801 c 32.906 57.957
 32.094 56.691 30.922 56.691 c h
30.891 56.926 m 31.641 56.926 32.047 57.941 32.047 59.816 c 32.047 61.691
 31.656 62.645 30.891 62.645 c 30.109 62.645 29.719 61.691 29.719 59.816
 c 29.719 57.91 30.125 56.926 30.891 56.926 c h
30.891 56.926 m f
35.672 59.426 m 36.578 58.941 36.875 58.582 36.875 57.957 c 36.875 57.223
 36.25 56.691 35.344 56.691 c 34.359 56.691 33.641 57.285 33.641 58.113 
c 33.641 58.691 33.797 58.957 34.75 59.77 c 33.766 60.52 33.578 60.785 33.578
 61.395 c 33.578 62.285 34.281 62.879 35.297 62.879 c 36.375 62.879 37.062
 62.285 37.062 61.363 c 37.062 60.676 36.766 60.238 35.672 59.426 c h
35.516 60.348 m 36.172 60.816 36.391 61.145 36.391 61.645 c 36.391 62.223
 35.984 62.629 35.406 62.629 c 34.719 62.629 34.266 62.113 34.266 61.332
 c 34.266 60.754 34.453 60.379 34.984 59.957 c h
35.422 59.27 m 34.625 58.738 34.297 58.332 34.297 57.832 c 34.297 57.316
 34.703 56.941 35.266 56.941 c 35.875 56.941 36.266 57.332 36.266 57.957
 c 36.266 58.504 36.031 58.863 35.422 59.27 c h
35.422 59.27 m f
0.567042 w
q 1 0 0 -1 0 0 cm
41.109 -59.754 m 45.379 -59.754 l S Q
q 1 0 0 -1 0 0 cm
211.18 -59.754 m 206.949 -59.754 l S Q
15.32 28.328 m 14.82 28.328 14.445 28.469 14.117 28.797 c 13.602 29.297
 13.258 30.328 13.258 31.375 c 13.258 32.359 13.555 33.406 13.977 33.906
 c 14.305 34.297 14.758 34.516 15.289 34.516 c 15.742 34.516 16.117 34.359
 16.445 34.047 c 16.961 33.562 17.305 32.516 17.305 31.438 c 17.305 29.594
 16.492 28.328 15.32 28.328 c h
15.289 28.562 m 16.039 28.562 16.445 29.578 16.445 31.453 c 16.445 33.328
 16.055 34.281 15.289 34.281 c 14.508 34.281 14.117 33.328 14.117 31.453
 c 14.117 29.547 14.523 28.562 15.289 28.562 c h
15.289 28.562 m f
18.605 33.5 m 18.34 33.5 18.105 33.719 18.105 34 c 18.105 34.266 18.34 
34.484 18.59 34.484 c 18.871 34.484 19.105 34.281 19.105 34 c 19.105 33.734
 18.871 33.5 18.605 33.5 c h
18.605 33.5 m f
22.043 28.328 m 21.543 28.328 21.168 28.469 20.84 28.797 c 20.324 29.297
 19.98 30.328 19.98 31.375 c 19.98 32.359 20.277 33.406 20.699 33.906 c 
21.027 34.297 21.48 34.516 22.012 34.516 c 22.465 34.516 22.84 34.359 23.168
 34.047 c 23.684 33.562 24.027 32.516 24.027 31.438 c 24.027 29.594 23.215
 28.328 22.043 28.328 c h
22.012 28.562 m 22.762 28.562 23.168 29.578 23.168 31.453 c 23.168 33.328
 22.777 34.281 22.012 34.281 c 21.23 34.281 20.84 33.328 20.84 31.453 c 
20.84 29.547 21.246 28.562 22.012 28.562 c h
22.012 28.562 m f
28.23 28.453 m 24.902 28.453 l 24.371 29.766 l 24.527 29.844 l 24.902 29.25
 25.074 29.125 25.574 29.109 c 27.512 29.109 l 25.746 34.469 l 26.324 34.469
 l 28.23 28.594 l h
28.23 28.453 m f
29.703 34.391 m 32.172 34.391 l 32.172 34.25 l 31.484 34.25 31.328 34.156
 31.328 33.734 c 31.328 28.344 l 31.25 28.328 l 29.641 29.141 l 29.641 29.266
 l 29.984 29.141 30.203 29.078 30.281 29.078 c 30.469 29.078 30.547 29.203
 30.547 29.5 c 30.547 33.562 l 30.531 34.125 30.375 34.25 29.703 34.25 c
 h
29.703 34.391 m f
35.359 28.328 m 34.859 28.328 34.484 28.469 34.156 28.797 c 33.641 29.297
 33.297 30.328 33.297 31.375 c 33.297 32.359 33.594 33.406 34.016 33.906
 c 34.344 34.297 34.797 34.516 35.328 34.516 c 35.781 34.516 36.156 34.359
 36.484 34.047 c 37 33.562 37.344 32.516 37.344 31.438 c 37.344 29.594 36.531
 28.328 35.359 28.328 c h
35.328 28.562 m 36.078 28.562 36.484 29.578 36.484 31.453 c 36.484 33.328
 36.094 34.281 35.328 34.281 c 34.547 34.281 34.156 33.328 34.156 31.453
 c 34.156 29.547 34.562 28.562 35.328 28.562 c h
35.328 28.562 m f
0.567044 w
q 1 0 0 -1 0 0 cm
41.121 -31.395 m 45.375 -31.395 l S Q
q 1 0 0 -1 0 0 cm
211.188 -31.395 m 206.969 -31.395 l S Q
15.32 0 m 14.82 0 14.445 0.141 14.117 0.469 c 13.602 0.969 13.258 2 13.258
 3.047 c 13.258 4.031 13.555 5.078 13.977 5.578 c 14.305 5.969 14.758 6.188
 15.289 6.188 c 15.742 6.188 16.117 6.031 16.445 5.719 c 16.961 5.234 17.305
 4.188 17.305 3.109 c 17.305 1.266 16.492 0 15.32 0 c h
15.289 0.234 m 16.039 0.234 16.445 1.25 16.445 3.125 c 16.445 5 16.055 
5.953 15.289 5.953 c 14.508 5.953 14.117 5 14.117 3.125 c 14.117 1.219 14.523
 0.234 15.289 0.234 c h
15.289 0.234 m f
18.605 5.172 m 18.34 5.172 18.105 5.391 18.105 5.672 c 18.105 5.938 18.34
 6.156 18.59 6.156 c 18.871 6.156 19.105 5.953 19.105 5.672 c 19.105 5.406
 18.871 5.172 18.605 5.172 c h
18.605 5.172 m f
22.043 0 m 21.543 0 21.168 0.141 20.84 0.469 c 20.324 0.969 19.98 2 19.98
 3.047 c 19.98 4.031 20.277 5.078 20.699 5.578 c 21.027 5.969 21.48 6.188
 22.012 6.188 c 22.465 6.188 22.84 6.031 23.168 5.719 c 23.684 5.234 24.027
 4.188 24.027 3.109 c 24.027 1.266 23.215 0 22.043 0 c h
22.012 0.234 m 22.762 0.234 23.168 1.25 23.168 3.125 c 23.168 5 22.777 
5.953 22.012 5.953 c 21.23 5.953 20.84 5 20.84 3.125 c 20.84 1.219 21.246
 0.234 22.012 0.234 c h
22.012 0.234 m f
28.23 0.125 m 24.902 0.125 l 24.371 1.438 l 24.527 1.516 l 24.902 0.922
 25.074 0.797 25.574 0.781 c 27.512 0.781 l 25.746 6.141 l 26.324 6.141 
l 28.23 0.266 l h
28.23 0.125 m f
29.703 6.062 m 32.172 6.062 l 32.172 5.922 l 31.484 5.922 31.328 5.828 
31.328 5.406 c 31.328 0.016 l 31.25 0 l 29.641 0.812 l 29.641 0.938 l 29.984
 0.812 30.203 0.75 30.281 0.75 c 30.469 0.75 30.547 0.875 30.547 1.172 c
 30.547 5.234 l 30.531 5.797 30.375 5.922 29.703 5.922 c h
29.703 6.062 m f
37.344 4.828 m 37.219 4.781 l 36.891 5.312 36.797 5.375 36.375 5.375 c 
34.219 5.375 l 35.734 3.797 l 36.531 2.969 36.875 2.281 36.875 1.594 c 36.875
 0.688 36.156 0 35.219 0 c 34.734 0 34.266 0.203 33.938 0.562 c 33.641 0.859
 33.516 1.141 33.359 1.781 c 33.547 1.828 l 33.906 0.953 34.219 0.656 34.844
 0.656 c 35.609 0.656 36.109 1.172 36.109 1.922 c 36.109 2.641 35.703 3.469
 34.938 4.266 c 33.344 5.953 l 33.344 6.062 l 36.844 6.062 l h
37.344 4.828 m f
106.977 166.898 m 106.852 166.805 l 106.664 167.039 106.336 167.477 106.148
 167.477 c 106.07 167.477 106.023 167.43 106.023 167.32 c 106.023 167.227
 106.102 167.008 106.148 166.836 c 106.148 166.836 106.68 164.883 106.68
 164.836 c 106.742 164.648 106.773 164.461 106.773 164.336 c 106.773 163.883
 106.492 163.727 106.273 163.727 c 105.539 163.727 104.711 164.695 104.133
 165.727 c 104.133 165.727 104.461 164.68 104.461 164.32 c 104.461 164.086
 104.367 163.727 103.945 163.727 c 103.117 163.727 102.086 165.32 101.867
 165.727 c 102.398 163.727 l 102.398 163.727 101.18 163.961 100.914 163.977
 c 100.914 164.133 l 101.242 164.133 101.508 164.102 101.508 164.461 c 101.508
 164.633 101.43 164.914 101.352 165.195 c 101.352 165.195 100.633 167.586
 100.586 167.82 c 101.273 167.82 l 101.43 167.227 l 101.945 165.289 103.195
 164.227 103.539 164.227 c 103.68 164.227 103.773 164.273 103.773 164.477
 c 103.773 164.617 103.664 165.023 103.602 165.289 c 103.602 165.289 102.977
 167.508 102.898 167.82 c 103.57 167.82 l 103.727 167.227 l 104.273 165.211
 105.492 164.227 105.852 164.227 c 105.977 164.227 106.07 164.32 106.07 
164.461 c 106.07 164.555 105.977 164.961 105.883 165.289 c 105.523 166.633
 l 105.43 166.961 105.352 167.367 105.352 167.508 c 105.352 167.742 105.477
 167.93 105.68 167.93 c 106.133 167.93 106.617 167.414 106.977 166.898 c
 h
106.977 166.898 m f
107.801 165.617 m 108.379 165.648 108.457 165.727 108.457 166.242 c 108.457
 169.336 l 108.457 169.867 108.363 169.945 107.801 169.977 c 107.801 170.102
 l 110.129 170.102 l 110.66 170.102 111.16 169.961 111.426 169.711 c 111.676
 169.492 111.801 169.18 111.801 168.852 c 111.801 168.539 111.691 168.258
 111.473 168.055 c 111.254 167.867 111.066 167.789 110.613 167.68 c 110.973
 167.586 111.129 167.523 111.285 167.367 c 111.473 167.211 111.566 166.961
 111.566 166.68 c 111.566 165.898 110.941 165.492 109.738 165.492 c 107.801
 165.492 l h
109.176 167.836 m 109.848 167.836 110.176 167.867 110.426 167.977 c 110.816
 168.133 111.004 168.43 111.004 168.852 c 111.004 169.227 110.863 169.508
 110.582 169.664 c 110.363 169.789 110.066 169.836 109.613 169.836 c 109.27
 169.836 109.176 169.773 109.176 169.555 c h
109.176 167.555 m 109.176 165.961 l 109.176 165.805 109.207 165.758 109.332
 165.758 c 109.629 165.742 l 110.41 165.727 110.863 166.086 110.863 166.695
 c 110.863 167.258 110.504 167.539 109.832 167.555 c h
109.176 167.555 m f
116.742 161.383 m 116.305 161.383 l 113.195 169.742 l 113.648 169.742 l
 h
116.742 161.383 m f
117.418 167.82 m 119.418 167.82 l 119.418 167.68 l 118.949 167.68 118.809
 167.586 118.809 167.227 c 118.809 164.695 l 118.809 164.68 118.871 164.586
 118.934 164.523 c 119.168 164.32 119.543 164.164 119.855 164.164 c 120.262
 164.164 120.449 164.477 120.449 165.102 c 120.449 167.055 l 120.434 167.555
 120.34 167.664 119.84 167.68 c 119.84 167.82 l 121.855 167.82 l 121.855
 167.68 l 121.355 167.68 121.23 167.539 121.199 166.961 c 121.199 164.711
 l 121.48 164.32 121.762 164.164 122.184 164.164 c 122.699 164.164 122.855
 164.398 122.855 165.148 c 122.855 167.039 l 122.84 167.57 122.777 167.633
 122.262 167.68 c 122.262 167.82 l 124.23 167.82 l 124.23 167.68 l 123.996
 167.664 l 123.715 167.617 123.605 167.492 123.605 167.133 c 123.605 165.289
 l 123.605 164.227 123.262 163.695 122.574 163.695 c 122.043 163.695 121.59
 163.93 121.105 164.445 c 120.949 163.93 120.637 163.695 120.152 163.695
 c 119.746 163.695 119.512 163.805 118.762 164.383 c 118.762 163.711 l 118.699
 163.695 l 118.23 163.867 117.918 163.961 117.449 164.102 c 117.449 164.258
 l 117.559 164.227 117.637 164.211 117.73 164.211 c 117.965 164.211 118.043
 164.352 118.043 164.789 c 118.043 167.055 l 118.027 167.555 117.918 167.68
 117.418 167.68 c h
117.418 167.82 m f
126.488 163.695 m 125.301 163.695 124.504 164.555 124.504 165.789 c 124.504
 167.008 125.332 167.914 126.457 167.914 c 127.598 167.914 128.457 166.961
 128.457 165.727 c 128.457 164.539 127.629 163.695 126.488 163.695 c h
126.363 163.945 m 127.113 163.945 127.645 164.805 127.645 166.039 c 127.645
 167.055 127.238 167.664 126.566 167.664 c 126.223 167.664 125.895 167.445
 125.707 167.086 c 125.441 166.617 125.301 165.992 125.301 165.352 c 125.301
 164.508 125.723 163.945 126.363 163.945 c h
126.363 163.945 m f
128.863 167.82 m 130.988 167.82 l 130.988 167.68 l 130.41 167.664 130.316
 167.57 130.301 167.07 c 130.301 161.711 l 130.27 161.695 l 129.816 161.836
 129.488 161.93 128.848 162.086 c 128.848 162.227 l 128.895 162.227 l 129.004
 162.227 129.113 162.211 129.176 162.211 c 129.473 162.211 129.551 162.336
 129.551 162.758 c 129.551 167.039 l 129.551 167.523 129.426 167.648 128.863
 167.68 c h
128.863 167.82 m f
132.82 167.82 m 134.914 167.82 l 134.914 167.68 l 134.742 167.68 l 134.367
 167.648 134.258 167.555 134.242 167.227 c 134.242 165.57 l 135.508 167.242
 l 135.539 167.289 135.57 167.336 135.586 167.367 c 135.664 167.445 135.695
 167.508 135.695 167.555 c 135.695 167.633 135.617 167.68 135.508 167.68
 c 135.336 167.68 l 135.336 167.82 l 137.289 167.82 l 137.289 167.68 l 136.898
 167.664 136.617 167.492 136.242 167.023 c 134.867 165.289 l 135.133 165.055
 l 136.242 164.039 136.492 163.898 137.07 163.914 c 137.07 163.789 l 135.227
 163.789 l 135.227 163.914 l 135.586 163.914 135.68 163.961 135.68 164.07
 c 135.68 164.148 135.602 164.273 135.477 164.383 c 134.242 165.477 l 134.242
 161.711 l 134.211 161.695 l 133.867 161.805 133.602 161.883 133.086 162.023
 c 132.82 162.086 l 132.82 162.227 l 132.93 162.227 133.023 162.211 133.102
 162.211 c 133.414 162.211 133.492 162.336 133.492 162.758 c 133.492 167.086
 l 133.477 167.555 133.461 167.586 132.82 167.68 c h
132.82 167.82 m f
141.418 164.336 m 141.418 163.992 l 140.73 163.992 l 140.543 163.992 140.402
 163.961 140.23 163.898 c 140.027 163.836 l 139.793 163.742 139.543 163.695
 139.309 163.695 c 138.48 163.695 137.824 164.336 137.824 165.164 c 137.824
 165.727 138.059 166.055 138.652 166.352 c 138.418 166.57 l 138.23 166.758
 138.121 166.852 138.09 166.883 c 137.902 167.086 137.855 167.18 137.855
 167.336 c 137.855 167.539 137.949 167.633 138.324 167.805 c 137.684 168.273
 137.449 168.57 137.449 168.898 c 137.449 169.383 138.137 169.773 138.996
 169.773 c 139.668 169.773 140.371 169.539 140.84 169.164 c 141.184 168.883
 141.34 168.602 141.34 168.258 c 141.34 167.711 140.918 167.336 140.246 
167.305 c 139.09 167.242 l 138.605 167.227 138.387 167.148 138.387 167.008
 c 138.387 166.82 138.684 166.508 138.934 166.445 c 139.246 166.461 139.418
 166.477 139.449 166.477 c 139.777 166.477 140.137 166.352 140.402 166.102
 c 140.699 165.852 140.84 165.539 140.84 165.102 c 140.84 164.836 140.793
 164.633 140.668 164.336 c h
138.512 167.836 m 138.824 167.898 139.527 167.961 139.98 167.961 c 140.793
 167.961 141.09 168.07 141.09 168.398 c 141.09 168.914 140.402 169.258 139.387
 169.258 c 138.59 169.258 138.074 169.008 138.074 168.617 c 138.074 168.398
 138.152 168.273 138.512 167.836 c h
138.559 164.789 m 138.559 164.258 138.809 163.945 139.23 163.945 c 139.512
 163.945 139.73 164.102 139.887 164.367 c 140.059 164.68 140.152 165.086
 140.152 165.445 c 140.152 165.945 139.902 166.258 139.48 166.258 c 138.934
 166.258 138.559 165.68 138.559 164.82 c h
138.559 164.789 m f
142.059 162.348 4.703 0.438 re f
150.312 164.582 m 150.312 164.395 l 149.781 164.395 149.609 164.395 149.609
 163.551 c 149.609 163.535 149.609 159.879 149.609 159.879 c 149.438 159.879
 l 148.094 160.457 l 148.172 160.645 l 148.484 160.52 148.547 160.504 148.641
 160.504 c 148.844 160.504 148.859 160.676 148.859 160.879 c 148.859 163.551
 l 148.859 164.395 148.703 164.379 148.172 164.395 c 148.172 164.582 l h
150.312 164.582 m f
1.055 81.375 m 1.055 85.859 l 1.195 85.891 l 1.195 85.594 1.227 85.203 
1.633 85.203 c 1.758 85.203 1.898 85.234 2.227 85.328 c 6.055 86.391 l 6.961
 86.641 6.945 86.969 6.945 87.312 c 7.102 87.344 l 7.102 82.609 l 5.477 
82 l 5.477 82.203 l 5.961 82.516 6.805 83.094 6.805 84.484 c 6.805 85.75
 l 4.055 84.969 l 4.07 83.797 4.117 83.484 4.555 83.484 c 4.68 83.484 4.836
 83.5 5.055 83.547 c 5.055 83.375 l 2.883 82.766 l 2.883 82.922 l 3.18 83.047
 3.758 83.188 3.758 84.906 c 1.367 84.234 l 1.367 83.266 l 1.367 82.422 
1.539 81.844 2.164 81.844 c 2.273 81.844 2.367 81.859 2.477 81.875 c 2.477
 81.703 l h
1.055 81.375 m f
0.375 78.664 m 0.156 78.664 0 78.898 0 79.117 c 0 79.273 0.078 79.414 0.297
 79.477 c 3.484 80.414 l 3.562 80.211 l 0.547 78.711 l 0.484 78.695 0.438
 78.664 0.375 78.664 c h
0.375 78.664 m f
9.125 78.449 m 9.625 78.793 9.781 79.043 9.781 79.434 c 9.781 80.074 9.234
 80.527 8.422 80.527 c 7.703 80.527 7.219 80.137 7.219 79.574 c 7.219 79.324
 7.281 79.23 7.547 79.168 c 7.703 79.121 l 7.906 79.059 8.031 78.934 8.031
 78.777 c 8.031 78.605 7.891 78.449 7.734 78.449 c 7.344 78.449 7.016 78.949
 7.016 79.527 c 7.016 79.871 7.156 80.23 7.406 80.512 c 7.703 80.855 8.188
 81.059 8.734 81.059 c 9.641 81.059 10.281 80.512 10.281 79.73 c 10.281 
79.418 10.172 79.137 9.953 78.887 c 9.797 78.699 9.609 78.574 9.188 78.355
 c h
9.125 78.449 m f
9.078 75.27 m 9.609 75.598 9.812 75.91 9.812 76.348 c 9.812 76.754 9.609
 77.051 9.203 77.254 c 8.938 77.379 8.719 77.426 8.281 77.441 c 8.281 75.285
 l 7.828 75.348 7.641 75.41 7.406 75.598 c 7.156 75.801 7.016 76.113 7.016
 76.488 c 7.016 76.832 7.141 77.16 7.375 77.426 c 7.656 77.754 8.156 77.941
 8.734 77.941 c 9.688 77.941 10.281 77.441 10.281 76.629 c 10.281 75.973
 9.875 75.457 9.125 75.16 c h
8.062 77.426 m 7.516 77.348 7.266 77.113 7.266 76.691 c 7.266 76.254 7.453
 76.098 8.062 76.004 c h
8.062 77.426 m f
10.219 74.852 m 10.219 73.195 l 10.109 73.195 l 10.094 73.633 10.031 73.711
 9.641 73.727 c 5.469 73.727 l 5.453 73.758 l 5.578 74.102 5.641 74.367 
5.766 74.867 c 5.875 74.867 l 5.875 74.82 l 5.875 74.742 5.859 74.664 5.859
 74.602 c 5.859 74.383 5.953 74.305 6.281 74.305 c 9.609 74.305 l 9.984 
74.32 10.094 74.414 10.109 74.852 c h
10.219 74.852 m f
10.219 72.934 m 10.219 71.277 l 10.109 71.277 l 10.094 71.715 10.031 71.793
 9.641 71.809 c 5.469 71.809 l 5.453 71.84 l 5.578 72.184 5.641 72.449 5.766
 72.949 c 5.875 72.949 l 5.875 72.902 l 5.875 72.824 5.859 72.746 5.859 
72.684 c 5.859 72.465 5.953 72.387 6.281 72.387 c 9.609 72.387 l 9.984 72.402
 10.094 72.496 10.109 72.934 c h
10.219 72.934 m f
0.664 66.887 m 0.664 67.324 l 9.023 70.434 l 9.023 69.98 l h
0.664 66.887 m f
1.164 60.102 m 1.164 61.945 l 1.336 61.945 l 1.367 61.445 1.461 61.289 
1.711 61.289 c 1.852 61.289 2.102 61.352 2.367 61.461 c 5.664 62.773 l 2.633
 64.133 l 1.961 64.43 1.758 64.492 1.633 64.492 c 1.445 64.492 1.367 64.367
 1.352 64.086 c 1.352 64.039 1.336 63.945 1.336 63.82 c 1.164 63.82 l 1.164
 66.211 l 1.336 66.211 l 1.352 65.773 1.477 65.648 2.273 65.258 c 7.195 
63.055 l 7.195 62.914 l 2.164 60.93 l 1.461 60.633 1.367 60.523 1.336 60.102
 c h
1.164 60.102 m f
Q Q
showpage
%%Trailer
end
%%EOF
