%!PS-Adobe-3.0 EPSF-3.0
%%Creator: cairo 1.17.4 (https://cairographics.org)
%%CreationDate: Thu Feb 24 10:49:56 2022
%%Pages: 1
%%DocumentData: Clean7Bit
%%LanguageLevel: 2
%%BoundingBox: 0 0 331 122
%%EndComments
%%BeginProlog
50 dict begin
/q { gsave } bind def
/Q { grestore } bind def
/cm { 6 array astore concat } bind def
/w { setlinewidth } bind def
/J { setlinecap } bind def
/j { setlinejoin } bind def
/M { setmiterlimit } bind def
/d { setdash } bind def
/m { moveto } bind def
/l { lineto } bind def
/c { curveto } bind def
/h { closepath } bind def
/re { exch dup neg 3 1 roll 5 3 roll moveto 0 rlineto
      0 exch rlineto 0 rlineto closepath } bind def
/S { stroke } bind def
/f { fill } bind def
/f* { eofill } bind def
/n { newpath } bind def
/W { clip } bind def
/W* { eoclip } bind def
/BT { } bind def
/ET { } bind def
/BDC { mark 3 1 roll /BDC pdfmark } bind def
/EMC { mark /EMC pdfmark } bind def
/cairo_store_point { /cairo_point_y exch def /cairo_point_x exch def } def
/Tj { show currentpoint cairo_store_point } bind def
/TJ {
  {
    dup
    type /stringtype eq
    { show } { -0.001 mul 0 cairo_font_matrix dtransform rmoveto } ifelse
  } forall
  currentpoint cairo_store_point
} bind def
/cairo_selectfont { cairo_font_matrix aload pop pop pop 0 0 6 array astore
    cairo_font exch selectfont cairo_point_x cairo_point_y moveto } bind def
/Tf { pop /cairo_font exch def /cairo_font_matrix where
      { pop cairo_selectfont } if } bind def
/Td { matrix translate cairo_font_matrix matrix concatmatrix dup
      /cairo_font_matrix exch def dup 4 get exch 5 get cairo_store_point
      /cairo_font where { pop cairo_selectfont } if } bind def
/Tm { 2 copy 8 2 roll 6 array astore /cairo_font_matrix exch def
      cairo_store_point /cairo_font where { pop cairo_selectfont } if } bind def
/g { setgray } bind def
/rg { setrgbcolor } bind def
/d1 { setcachedevice } bind def
/cairo_data_source {
  CairoDataIndex CairoData length lt
    { CairoData CairoDataIndex get /CairoDataIndex CairoDataIndex 1 add def }
    { () } ifelse
} def
/cairo_flush_ascii85_file { cairo_ascii85_file status { cairo_ascii85_file flushfile } if } def
/cairo_image { image cairo_flush_ascii85_file } def
/cairo_imagemask { imagemask cairo_flush_ascii85_file } def
%%EndProlog
%%BeginSetup
%%EndSetup
%%Page: 1 1
%%BeginPageSetup
%%PageBoundingBox: 0 0 331 122
%%EndPageSetup
q 0 0 331 122 rectclip
1 0 0 -1 0 122 cm q
0 g
3.984 44.734 m 2.672 41.039 l 1.359 44.734 l 2.672 43.25 l f
0.567041 w
0 J
0 j
[] 0.0 d
10 M q 1 0 0 -1 0 0 cm
2.652 -75.055 m 2.652 -43.254 l S Q
4.859 32.074 m 4.859 31.793 4.828 30.699 3.203 30.527 c 3.625 29.105 l 
3.656 29.027 3.672 28.934 3.672 28.902 c 3.672 28.746 3.547 28.59 3.391 
28.59 c 3.266 28.59 3.062 28.605 2.984 28.934 c 2.688 30.512 l 0.562 30.793
 0 32.34 0 33.074 c 0 34.59 1.656 34.652 1.656 34.652 c 1.219 36.059 l 1.219
 36.074 1.203 36.137 1.203 36.168 c 1.203 36.34 1.344 36.496 1.5 36.496 
c 1.625 36.496 1.812 36.387 1.859 36.168 c 2.172 34.699 l 4.094 34.48 4.859
 32.934 4.859 32.074 c h
4.094 32.059 m 4.094 32.84 3.562 34.184 2.25 34.402 c 3.141 30.809 l 3.828
 30.902 4.094 31.512 4.094 32.059 c h
2.609 30.824 m 1.75 34.402 l 1.031 34.199 0.766 33.715 0.766 33.199 c 0.766
 32.527 1.25 31.012 2.609 30.824 c h
2.609 30.824 m f
79.754 113.672 m 79.098 114.109 78.832 114.328 78.488 114.75 c 77.863 115.531
 77.551 116.422 77.551 117.469 c 77.551 118.625 77.879 119.5 78.66 120.406
 c 79.035 120.844 79.27 121.031 79.738 121.328 c 79.832 121.172 l 79.129
 120.609 78.879 120.297 78.629 119.625 c 78.41 119.031 78.316 118.359 78.316
 117.453 c 78.316 116.5 78.426 115.766 78.676 115.219 c 78.926 114.656 79.191
 114.328 79.832 113.812 c h
79.754 113.672 m f
84.082 119.141 m 83.926 119.266 83.816 119.312 83.676 119.312 c 83.473 
119.312 83.41 119.188 83.41 118.797 c 83.41 117.047 l 83.41 116.578 83.363
 116.312 83.238 116.109 c 83.035 115.781 82.645 115.609 82.129 115.609 c
 81.285 115.609 80.613 116.047 80.613 116.609 c 80.613 116.812 80.785 117
 81.004 117 c 81.223 117 81.41 116.812 81.41 116.625 c 81.41 116.594 81.395
 116.547 81.395 116.484 c 81.363 116.391 81.363 116.328 81.363 116.266 c
 81.363 116.016 81.645 115.828 82.004 115.828 c 82.441 115.828 82.691 116.078
 82.691 116.562 c 82.691 117.109 l 81.316 117.656 81.16 117.75 80.77 118.078
 c 80.566 118.266 80.441 118.562 80.441 118.859 c 80.441 119.422 80.832 
119.828 81.395 119.828 c 81.785 119.828 82.145 119.641 82.691 119.172 c 
82.738 119.641 82.91 119.828 83.27 119.828 c 83.582 119.828 83.77 119.719
 84.082 119.375 c h
82.691 118.625 m 82.691 118.906 82.645 119 82.457 119.109 c 82.223 119.234
 81.988 119.297 81.801 119.297 c 81.488 119.297 81.238 119 81.238 118.609
 c 81.238 118.578 l 81.238 118.047 81.645 117.703 82.691 117.328 c h
82.691 118.625 m f
84.414 121.328 m 85.07 120.875 85.352 120.656 85.68 120.25 c 86.32 119.469
 86.633 118.562 86.633 117.516 c 86.633 116.375 86.289 115.5 85.508 114.594
 c 85.133 114.156 84.898 113.953 84.445 113.672 c 84.336 113.812 l 85.055
 114.375 85.289 114.688 85.539 115.359 c 85.758 115.969 85.852 116.641 85.852
 117.547 c 85.852 118.484 85.742 119.219 85.492 119.766 c 85.258 120.328
 84.977 120.656 84.336 121.172 c h
84.414 121.328 m f
1.13366 w
q 1 0 0 -1 0 0 cm
16.848 -75.043 m 30.996 -75.043 l 30.996 -89.227 l 45.184 -89.227 l 45.184
 -46.707 l 101.887 -46.707 l 101.887 -24.035 l 116.039 -24.035 l 116.039
 -4.184 l 130.223 -4.184 l S Q
18.93 75.086 m 18.93 73.91 17.977 72.957 16.801 72.957 c 15.625 72.957 
14.672 73.91 14.672 75.086 c 14.672 76.262 15.625 77.215 16.801 77.215 c
 17.977 77.215 18.93 76.262 18.93 75.086 c f
132.332 4.184 m 132.332 3.008 131.379 2.055 130.203 2.055 c 129.027 2.055
 128.074 3.008 128.074 4.184 c 128.074 5.359 129.027 6.312 130.203 6.312
 c 131.379 6.312 132.332 5.359 132.332 4.184 c f
22.004 78.004 m 20.035 78.004 l 20.035 78.129 l 20.551 78.16 20.629 78.254
 20.645 78.754 c 20.645 81.848 l 20.629 82.348 20.535 82.457 20.035 82.488
 c 20.035 82.613 l 23.785 82.613 l 24.129 81.395 l 23.957 81.395 l 23.629
 82.129 23.316 82.316 22.426 82.348 c 21.957 82.348 l 21.426 82.332 21.363
 82.301 21.363 82.051 c 21.363 78.754 l 21.379 78.254 21.457 78.16 22.004
 78.129 c h
22.004 78.004 m f
26.836 82.488 m 26.258 82.457 26.164 82.363 26.164 81.848 c 26.164 78.285
 l 26.539 78.285 l 27.352 78.301 27.492 78.426 27.648 79.191 c 27.805 79.191
 l 27.773 78.004 l 23.836 78.004 l 23.805 79.191 l 23.961 79.191 l 24.133
 78.426 24.273 78.301 25.07 78.285 c 25.445 78.285 l 25.445 81.77 l 25.445
 82.379 25.383 82.441 24.789 82.488 c 24.789 82.613 l 26.836 82.613 l h
26.836 82.488 m f
35.82 92.18 m 33.852 92.18 l 33.852 92.305 l 34.367 92.336 34.445 92.43
 34.461 92.93 c 34.461 96.023 l 34.445 96.523 34.352 96.633 33.852 96.664
 c 33.852 96.789 l 37.602 96.789 l 37.945 95.57 l 37.773 95.57 l 37.445 
96.305 37.133 96.492 36.242 96.523 c 35.773 96.523 l 35.242 96.508 35.18
 96.477 35.18 96.227 c 35.18 92.93 l 35.195 92.43 35.273 92.336 35.82 92.305
 c h
35.82 92.18 m f
42.25 95.617 m 42.062 95.617 l 41.719 96.352 41.406 96.523 40.422 96.523
 c 40.219 96.523 l 39.5 96.508 39.5 96.508 39.5 96.227 c 39.5 94.508 l 40.562
 94.508 l 41.156 94.523 41.25 94.602 41.328 95.18 c 41.5 95.18 l 41.5 93.57
 l 41.328 93.57 l 41.25 94.133 41.156 94.211 40.562 94.227 c 39.5 94.227
 l 39.5 92.68 l 39.5 92.461 39.531 92.445 39.719 92.445 c 40.672 92.445 
l 41.469 92.461 41.609 92.555 41.719 93.18 c 41.906 93.18 l 41.875 92.18
 l 38.172 92.18 l 38.172 92.305 l 38.688 92.336 38.766 92.43 38.781 92.93
 c 38.781 96.023 l 38.766 96.523 38.672 96.633 38.172 96.664 c 38.172 96.789
 l 41.938 96.789 l h
42.25 95.617 m f
72.449 54.27 m 74.512 54.27 l 74.512 54.145 l 73.949 54.129 73.855 54.02
 73.84 53.504 c 73.84 50.41 l 73.855 49.895 73.934 49.816 74.512 49.785 
c 74.512 49.66 l 72.449 49.66 l 72.449 49.785 l 73.043 49.816 73.121 49.895
 73.121 50.41 c 73.121 53.504 l 73.121 54.035 73.027 54.113 72.449 54.145
 c h
72.449 54.27 m f
109.113 31.465 m 108.848 31.434 108.707 31.371 108.504 31.137 c 107.066
 29.371 l 107.957 29.199 108.332 28.84 108.332 28.199 c 108.332 27.902 108.238
 27.652 108.066 27.449 c 107.801 27.152 107.207 26.98 106.566 26.98 c 104.645
 26.98 l 104.645 27.105 l 105.16 27.168 105.223 27.23 105.223 27.73 c 105.223
 30.746 l 105.223 31.34 105.16 31.418 104.645 31.465 c 104.645 31.59 l 106.566
 31.59 l 106.566 31.465 l 106.035 31.418 105.941 31.34 105.941 30.824 c 
105.941 29.465 l 106.332 29.449 l 107.988 31.59 l 109.113 31.59 l h
105.941 27.48 m 105.941 27.293 106.02 27.23 106.301 27.23 c 107.16 27.23
 107.566 27.527 107.566 28.184 c 107.566 28.543 107.426 28.824 107.176 28.965
 c 106.848 29.137 106.613 29.184 105.941 29.199 c h
105.941 27.48 m f
113.355 30.418 m 113.168 30.418 l 112.824 31.152 112.512 31.324 111.527
 31.324 c 111.324 31.324 l 110.605 31.309 110.605 31.309 110.605 31.027 
c 110.605 29.309 l 111.668 29.309 l 112.262 29.324 112.355 29.402 112.434
 29.98 c 112.605 29.98 l 112.605 28.371 l 112.434 28.371 l 112.355 28.934
 112.262 29.012 111.668 29.027 c 110.605 29.027 l 110.605 27.48 l 110.605
 27.262 110.637 27.246 110.824 27.246 c 111.777 27.246 l 112.574 27.262 
112.715 27.355 112.824 27.98 c 113.012 27.98 l 112.98 26.98 l 109.277 26.98
 l 109.277 27.105 l 109.793 27.137 109.871 27.23 109.887 27.73 c 109.887
 30.824 l 109.871 31.324 109.777 31.434 109.277 31.465 c 109.277 31.59 l
 113.043 31.59 l h
113.355 30.418 m f
123.523 11.625 m 123.258 11.594 123.117 11.531 122.914 11.297 c 121.477
 9.531 l 122.367 9.359 122.742 9 122.742 8.359 c 122.742 8.062 122.648 7.812
 122.477 7.609 c 122.211 7.312 121.617 7.141 120.977 7.141 c 119.055 7.141
 l 119.055 7.266 l 119.57 7.328 119.633 7.391 119.633 7.891 c 119.633 10.906
 l 119.633 11.5 119.57 11.578 119.055 11.625 c 119.055 11.75 l 120.977 11.75
 l 120.977 11.625 l 120.445 11.578 120.352 11.5 120.352 10.984 c 120.352
 9.625 l 120.742 9.609 l 122.398 11.75 l 123.523 11.75 l h
120.352 7.641 m 120.352 7.453 120.43 7.391 120.711 7.391 c 121.57 7.391
 121.977 7.688 121.977 8.344 c 121.977 8.703 121.836 8.984 121.586 9.125
 c 121.258 9.297 121.023 9.344 120.352 9.359 c h
120.352 7.641 m f
126.406 11.625 m 125.828 11.594 125.734 11.5 125.734 10.984 c 125.734 7.422
 l 126.109 7.422 l 126.922 7.438 127.062 7.562 127.219 8.328 c 127.375 8.328
 l 127.344 7.141 l 123.406 7.141 l 123.375 8.328 l 123.531 8.328 l 123.703
 7.562 123.844 7.438 124.641 7.422 c 125.016 7.422 l 125.016 10.906 l 125.016
 11.516 124.953 11.578 124.359 11.625 c 124.359 11.75 l 126.406 11.75 l 
h
126.406 11.625 m f
249.469 113.672 m 248.812 114.109 248.547 114.328 248.203 114.75 c 247.578
 115.531 247.266 116.422 247.266 117.469 c 247.266 118.625 247.594 119.5
 248.375 120.406 c 248.75 120.844 248.984 121.031 249.453 121.328 c 249.547
 121.172 l 248.844 120.609 248.594 120.297 248.344 119.625 c 248.125 119.031
 248.031 118.359 248.031 117.453 c 248.031 116.5 248.141 115.766 248.391
 115.219 c 248.641 114.656 248.906 114.328 249.547 113.812 c h
249.469 113.672 m f
251.203 113.625 m 251.156 113.609 l 250.781 113.734 250.547 113.812 250.109
 113.938 c 249.859 114 l 249.859 114.141 l 249.906 114.141 249.938 114.141
 250 114.141 c 250.359 114.141 250.453 114.219 250.453 114.594 c 250.453
 119.25 l 250.453 119.531 251.203 119.828 251.922 119.828 c 253.109 119.828
 254.031 118.844 254.031 117.562 c 254.031 116.438 253.344 115.609 252.453
 115.609 c 251.906 115.609 251.375 115.922 251.203 116.375 c h
251.203 116.844 m 251.203 116.5 251.625 116.172 252.094 116.172 c 252.344
 116.172 252.562 116.266 252.75 116.438 c 253.031 116.719 253.234 117.328
 253.234 117.969 c 253.234 118.969 252.812 119.531 252.078 119.531 c 251.609
 119.531 251.203 119.344 251.203 119.109 c h
251.203 116.844 m f
254.609 121.328 m 255.266 120.875 255.547 120.656 255.875 120.25 c 256.516
 119.469 256.828 118.562 256.828 117.516 c 256.828 116.375 256.484 115.5
 255.703 114.594 c 255.328 114.156 255.094 113.953 254.641 113.672 c 254.531
 113.812 l 255.25 114.375 255.484 114.688 255.734 115.359 c 255.953 115.969
 256.047 116.641 256.047 117.547 c 256.047 118.484 255.938 119.219 255.688
 119.766 c 255.453 120.328 255.172 120.656 254.531 121.172 c h
254.609 121.328 m f
q 1 0 0 -1 0 0 cm
186.898 -75.051 m 201.086 -77.883 l 201.086 -92.07 l 215.242 -94.902 l 
215.242 -52.367 l 271.965 -83.543 l 271.965 -60.895 l 286.121 -63.727 l 
286.121 -43.875 l 300.309 -46.707 l S Q
189.031 75.086 m 189.031 73.91 188.078 72.957 186.902 72.957 c 185.727 
72.957 184.773 73.91 184.773 75.086 c 184.773 76.262 185.727 77.215 186.902
 77.215 c 188.078 77.215 189.031 76.262 189.031 75.086 c f
302.43 46.684 m 302.43 45.508 301.477 44.555 300.301 44.555 c 299.125 44.555
 298.172 45.508 298.172 46.684 c 298.172 47.859 299.125 48.812 300.301 48.812
 c 301.477 48.812 302.43 47.859 302.43 46.684 c f
192.082 79.422 m 190.113 79.422 l 190.113 79.547 l 190.629 79.578 190.707
 79.672 190.723 80.172 c 190.723 83.266 l 190.707 83.766 190.613 83.875 
190.113 83.906 c 190.113 84.031 l 193.863 84.031 l 194.207 82.812 l 194.035
 82.812 l 193.707 83.547 193.395 83.734 192.504 83.766 c 192.035 83.766 
l 191.504 83.75 191.441 83.719 191.441 83.469 c 191.441 80.172 l 191.457
 79.672 191.535 79.578 192.082 79.547 c h
192.082 79.422 m f
196.914 83.906 m 196.336 83.875 196.242 83.781 196.242 83.266 c 196.242
 79.703 l 196.617 79.703 l 197.43 79.719 197.57 79.844 197.727 80.609 c 
197.883 80.609 l 197.852 79.422 l 193.914 79.422 l 193.883 80.609 l 194.039
 80.609 l 194.211 79.844 194.352 79.719 195.148 79.703 c 195.523 79.703 
l 195.523 83.188 l 195.523 83.797 195.461 83.859 194.867 83.906 c 194.867
 84.031 l 196.914 84.031 l h
196.914 83.906 m f
205.898 96.43 m 203.93 96.43 l 203.93 96.555 l 204.445 96.586 204.523 96.68
 204.539 97.18 c 204.539 100.273 l 204.523 100.773 204.43 100.883 203.93
 100.914 c 203.93 101.039 l 207.68 101.039 l 208.023 99.82 l 207.852 99.82
 l 207.523 100.555 207.211 100.742 206.32 100.773 c 205.852 100.773 l 205.32
 100.758 205.258 100.727 205.258 100.477 c 205.258 97.18 l 205.273 96.68
 205.352 96.586 205.898 96.555 c h
205.898 96.43 m f
212.324 99.867 m 212.137 99.867 l 211.793 100.602 211.48 100.773 210.496
 100.773 c 210.293 100.773 l 209.574 100.758 209.574 100.758 209.574 100.477
 c 209.574 98.758 l 210.637 98.758 l 211.23 98.773 211.324 98.852 211.402
 99.43 c 211.574 99.43 l 211.574 97.82 l 211.402 97.82 l 211.324 98.383 
211.23 98.461 210.637 98.477 c 209.574 98.477 l 209.574 96.93 l 209.574 
96.711 209.605 96.695 209.793 96.695 c 210.746 96.695 l 211.543 96.711 211.684
 96.805 211.793 97.43 c 211.98 97.43 l 211.949 96.43 l 208.246 96.43 l 208.246
 96.555 l 208.762 96.586 208.84 96.68 208.855 97.18 c 208.855 100.273 l 
208.84 100.773 208.746 100.883 208.246 100.914 c 208.246 101.039 l 212.012
 101.039 l h
212.324 99.867 m f
234.023 70.34 m 236.086 70.34 l 236.086 70.215 l 235.523 70.199 235.43 
70.09 235.414 69.574 c 235.414 66.48 l 235.43 65.965 235.508 65.887 236.086
 65.855 c 236.086 65.73 l 234.023 65.73 l 234.023 65.855 l 234.617 65.887
 234.695 65.965 234.695 66.48 c 234.695 69.574 l 234.695 70.105 234.602 
70.184 234.023 70.215 c h
234.023 70.34 m f
279.191 69.734 m 278.926 69.703 278.785 69.641 278.582 69.406 c 277.145
 67.641 l 278.035 67.469 278.41 67.109 278.41 66.469 c 278.41 66.172 278.316
 65.922 278.145 65.719 c 277.879 65.422 277.285 65.25 276.645 65.25 c 274.723
 65.25 l 274.723 65.375 l 275.238 65.438 275.301 65.5 275.301 66 c 275.301
 69.016 l 275.301 69.609 275.238 69.688 274.723 69.734 c 274.723 69.859 
l 276.645 69.859 l 276.645 69.734 l 276.113 69.688 276.02 69.609 276.02 
69.094 c 276.02 67.734 l 276.41 67.719 l 278.066 69.859 l 279.191 69.859
 l h
276.02 65.75 m 276.02 65.562 276.098 65.5 276.379 65.5 c 277.238 65.5 277.645
 65.797 277.645 66.453 c 277.645 66.812 277.504 67.094 277.254 67.234 c 
276.926 67.406 276.691 67.453 276.02 67.469 c h
276.02 65.75 m f
283.434 68.688 m 283.246 68.688 l 282.902 69.422 282.59 69.594 281.605 
69.594 c 281.402 69.594 l 280.684 69.578 280.684 69.578 280.684 69.297 c
 280.684 67.578 l 281.746 67.578 l 282.34 67.594 282.434 67.672 282.512 
68.25 c 282.684 68.25 l 282.684 66.641 l 282.512 66.641 l 282.434 67.203
 282.34 67.281 281.746 67.297 c 280.684 67.297 l 280.684 65.75 l 280.684
 65.531 280.715 65.516 280.902 65.516 c 281.855 65.516 l 282.652 65.531 
282.793 65.625 282.902 66.25 c 283.09 66.25 l 283.059 65.25 l 279.355 65.25
 l 279.355 65.375 l 279.871 65.406 279.949 65.5 279.965 66 c 279.965 69.094
 l 279.949 69.594 279.855 69.703 279.355 69.734 c 279.355 69.859 l 283.121
 69.859 l h
283.434 68.688 m f
293.602 52.727 m 293.336 52.695 293.195 52.633 292.992 52.398 c 291.555
 50.633 l 292.445 50.461 292.82 50.102 292.82 49.461 c 292.82 49.164 292.727
 48.914 292.555 48.711 c 292.289 48.414 291.695 48.242 291.055 48.242 c 
289.133 48.242 l 289.133 48.367 l 289.648 48.43 289.711 48.492 289.711 48.992
 c 289.711 52.008 l 289.711 52.602 289.648 52.68 289.133 52.727 c 289.133
 52.852 l 291.055 52.852 l 291.055 52.727 l 290.523 52.68 290.43 52.602 
290.43 52.086 c 290.43 50.727 l 290.82 50.711 l 292.477 52.852 l 293.602
 52.852 l h
290.43 48.742 m 290.43 48.555 290.508 48.492 290.789 48.492 c 291.648 48.492
 292.055 48.789 292.055 49.445 c 292.055 49.805 291.914 50.086 291.664 50.227
 c 291.336 50.398 291.102 50.445 290.43 50.461 c h
290.43 48.742 m f
296.484 52.727 m 295.906 52.695 295.812 52.602 295.812 52.086 c 295.812
 48.523 l 296.188 48.523 l 297 48.539 297.141 48.664 297.297 49.43 c 297.453
 49.43 l 297.422 48.242 l 293.484 48.242 l 293.453 49.43 l 293.609 49.43
 l 293.781 48.664 293.922 48.539 294.719 48.523 c 295.094 48.523 l 295.094
 52.008 l 295.094 52.617 295.031 52.68 294.438 52.727 c 294.438 52.852 l
 296.484 52.852 l h
296.484 52.727 m f
0.425175 w
q 1 0 0 -1 0 0 cm
130.223 -4.184 m 134.699 -4.184 l 136.488 -4.184 m 140.965 -4.184 l 142.754
 -4.184 m 147.227 -4.184 l S Q
155.301 3.484 m 155.301 3.203 155.27 2.109 153.645 1.938 c 154.066 0.516
 l 154.098 0.438 154.113 0.344 154.113 0.312 c 154.113 0.156 153.988 0 153.832
 0 c 153.707 0 153.504 0.016 153.426 0.344 c 153.129 1.922 l 151.004 2.203
 150.441 3.75 150.441 4.484 c 150.441 6 152.098 6.062 152.098 6.062 c 151.66
 7.469 l 151.66 7.484 151.645 7.547 151.645 7.578 c 151.645 7.75 151.785
 7.906 151.941 7.906 c 152.066 7.906 152.254 7.797 152.301 7.578 c 152.613
 6.109 l 154.535 5.891 155.301 4.344 155.301 3.484 c h
154.535 3.469 m 154.535 4.25 154.004 5.594 152.691 5.812 c 153.582 2.219
 l 154.27 2.312 154.535 2.922 154.535 3.469 c h
153.051 2.234 m 152.191 5.812 l 151.473 5.609 151.207 5.125 151.207 4.609
 c 151.207 3.938 151.691 2.422 153.051 2.234 c h
153.051 2.234 m f
159.977 8.141 m 159.711 8.109 159.57 8.047 159.367 7.812 c 157.93 6.047
 l 158.82 5.875 159.195 5.516 159.195 4.875 c 159.195 4.578 159.102 4.328
 158.93 4.125 c 158.664 3.828 158.07 3.656 157.43 3.656 c 155.508 3.656 
l 155.508 3.781 l 156.023 3.844 156.086 3.906 156.086 4.406 c 156.086 7.422
 l 156.086 8.016 156.023 8.094 155.508 8.141 c 155.508 8.266 l 157.43 8.266
 l 157.43 8.141 l 156.898 8.094 156.805 8.016 156.805 7.5 c 156.805 6.141
 l 157.195 6.125 l 158.852 8.266 l 159.977 8.266 l h
156.805 4.156 m 156.805 3.969 156.883 3.906 157.164 3.906 c 158.023 3.906
 158.43 4.203 158.43 4.859 c 158.43 5.219 158.289 5.5 158.039 5.641 c 157.711
 5.812 157.477 5.859 156.805 5.875 c h
156.805 4.156 m f
0.425176 w
q 1 0 0 -1 0 0 cm
16.832 -75.059 m 21.121 -75.059 l 22.836 -75.059 m 27.125 -75.059 l 28.844
 -75.059 m 33.133 -75.059 l 34.848 -75.059 m 39.137 -75.059 l 40.852 -75.059
 m 45.141 -75.059 l 46.855 -75.059 m 51.145 -75.059 l 52.863 -75.059 m 57.152
 -75.059 l 58.867 -75.059 m 63.156 -75.059 l 64.871 -75.059 m 69.16 -75.059
 l 70.875 -75.059 m 75.164 -75.059 l 76.883 -75.059 m 81.172 -75.059 l 82.887
 -75.059 m 87.176 -75.059 l 88.891 -75.059 m 93.18 -75.059 l 94.898 -75.059
 m 99.188 -75.059 l 100.902 -75.059 m 105.191 -75.059 l 106.906 -75.059 
m 111.195 -75.059 l 112.91 -75.059 m 117.199 -75.059 l 118.914 -75.059 m
 123.207 -75.059 l 124.922 -75.059 m 129.211 -75.059 l 130.926 -75.059 m
 135.215 -75.059 l 136.93 -75.059 m 141.223 -75.059 l 142.938 -75.059 m 
147.227 -75.059 l S Q
155.301 74.355 m 155.301 74.074 155.27 72.98 153.645 72.809 c 154.066 71.387
 l 154.098 71.309 154.113 71.215 154.113 71.184 c 154.113 71.027 153.988
 70.871 153.832 70.871 c 153.707 70.871 153.504 70.887 153.426 71.215 c 
153.129 72.793 l 151.004 73.074 150.441 74.621 150.441 75.355 c 150.441 
76.871 152.098 76.934 152.098 76.934 c 151.66 78.34 l 151.66 78.355 151.645
 78.418 151.645 78.449 c 151.645 78.621 151.785 78.777 151.941 78.777 c 
152.066 78.777 152.254 78.668 152.301 78.449 c 152.613 76.98 l 154.535 76.762
 155.301 75.215 155.301 74.355 c h
154.535 74.34 m 154.535 75.121 154.004 76.465 152.691 76.684 c 153.582 
73.09 l 154.27 73.184 154.535 73.793 154.535 74.34 c h
153.051 73.105 m 152.191 76.684 l 151.473 76.48 151.207 75.996 151.207 
75.48 c 151.207 74.809 151.691 73.293 153.051 73.105 c h
153.051 73.105 m f
157.43 74.527 m 155.461 74.527 l 155.461 74.652 l 155.977 74.684 156.055
 74.777 156.07 75.277 c 156.07 78.371 l 156.055 78.871 155.961 78.98 155.461
 79.012 c 155.461 79.137 l 159.211 79.137 l 159.555 77.918 l 159.383 77.918
 l 159.055 78.652 158.742 78.84 157.852 78.871 c 157.383 78.871 l 156.852
 78.855 156.789 78.824 156.789 78.574 c 156.789 75.277 l 156.805 74.777 
156.883 74.684 157.43 74.652 c h
157.43 74.527 m f
140.027 7.871 m 138.742 4.184 l 137.422 7.871 l 138.742 6.41 l f
0.567043 w
q 1 0 0 -1 0 0 cm
138.73 -75.074 m 138.73 -6.402 l S Q
1 g
122.281 39.668 m 122.281 31.781 l 155.219 31.781 l 155.219 47.559 l 122.281
 47.559 l f
0 g
131.859 34.777 m 127.375 34.777 l 127.344 34.918 l 127.641 34.918 128.031
 34.949 128.031 35.355 c 128.031 35.48 128 35.621 127.906 35.949 c 126.844
 39.777 l 126.594 40.684 126.266 40.668 125.922 40.668 c 125.891 40.824 
l 130.625 40.824 l 131.234 39.199 l 131.031 39.199 l 130.719 39.684 130.141
 40.527 128.75 40.527 c 127.484 40.527 l 128.266 37.777 l 129.438 37.793
 129.75 37.84 129.75 38.277 c 129.75 38.402 129.734 38.559 129.688 38.777
 c 129.859 38.777 l 130.469 36.605 l 130.312 36.605 l 130.188 36.902 130.047
 37.48 128.328 37.48 c 129 35.09 l 129.969 35.09 l 130.812 35.09 131.391
 35.262 131.391 35.887 c 131.391 35.996 131.375 36.09 131.359 36.199 c 131.531
 36.199 l h
131.859 34.777 m f
134.781 41.891 m 134.438 42.391 134.188 42.547 133.797 42.547 c 133.156
 42.547 132.703 42 132.703 41.188 c 132.703 40.469 133.094 39.984 133.656
 39.984 c 133.906 39.984 134 40.047 134.062 40.312 c 134.109 40.469 l 134.172
 40.672 134.297 40.797 134.453 40.797 c 134.625 40.797 134.781 40.656 134.781
 40.5 c 134.781 40.109 134.281 39.781 133.703 39.781 c 133.359 39.781 133
 39.922 132.719 40.172 c 132.375 40.469 132.172 40.953 132.172 41.5 c 132.172
 42.406 132.719 43.047 133.5 43.047 c 133.812 43.047 134.094 42.938 134.344
 42.719 c 134.531 42.562 134.656 42.375 134.875 41.953 c h
134.781 41.891 m f
137.965 41.844 m 137.637 42.375 137.324 42.578 136.887 42.578 c 136.48 
42.578 136.184 42.375 135.98 41.969 c 135.855 41.703 135.809 41.484 135.793
 41.047 c 137.949 41.047 l 137.887 40.594 137.824 40.406 137.637 40.172 
c 137.434 39.922 137.121 39.781 136.746 39.781 c 136.402 39.781 136.074 
39.906 135.809 40.141 c 135.48 40.422 135.293 40.922 135.293 41.5 c 135.293
 42.453 135.793 43.047 136.605 43.047 c 137.262 43.047 137.777 42.641 138.074
 41.891 c h
135.809 40.828 m 135.887 40.281 136.121 40.031 136.543 40.031 c 136.98 
40.031 137.137 40.219 137.23 40.828 c h
135.809 40.828 m f
138.383 42.984 m 140.039 42.984 l 140.039 42.875 l 139.602 42.859 139.523
 42.797 139.508 42.406 c 139.508 38.234 l 139.477 38.219 l 139.133 38.344
 138.867 38.406 138.367 38.531 c 138.367 38.641 l 138.414 38.641 l 138.492
 38.641 138.57 38.625 138.633 38.625 c 138.852 38.625 138.93 38.719 138.93
 39.047 c 138.93 42.375 l 138.914 42.75 138.82 42.859 138.383 42.875 c h
138.383 42.984 m f
140.301 42.984 m 141.957 42.984 l 141.957 42.875 l 141.52 42.859 141.441
 42.797 141.426 42.406 c 141.426 38.234 l 141.395 38.219 l 141.051 38.344
 140.785 38.406 140.285 38.531 c 140.285 38.641 l 140.332 38.641 l 140.41
 38.641 140.488 38.625 140.551 38.625 c 140.77 38.625 140.848 38.719 140.848
 39.047 c 140.848 42.375 l 140.832 42.75 140.738 42.859 140.301 42.875 c
 h
140.301 42.984 m f
142.66 43.969 m 143.129 43.734 143.441 43.312 143.441 42.891 c 143.441 
42.547 143.191 42.281 142.879 42.281 c 142.645 42.281 142.473 42.438 142.473
 42.672 c 142.473 42.891 142.629 43.031 142.879 43.031 c 142.926 43.031 
142.988 43.016 143.02 43.016 c 143.051 43 143.066 43 143.066 43 c 143.129
 43 143.176 43.047 143.176 43.094 c 143.176 43.312 142.973 43.578 142.598
 43.828 c h
142.66 43.969 m f
148.043 41.844 m 147.715 42.375 147.402 42.578 146.965 42.578 c 146.559
 42.578 146.262 42.375 146.059 41.969 c 145.934 41.703 145.887 41.484 145.871
 41.047 c 148.027 41.047 l 147.965 40.594 147.902 40.406 147.715 40.172 
c 147.512 39.922 147.199 39.781 146.824 39.781 c 146.48 39.781 146.152 39.906
 145.887 40.141 c 145.559 40.422 145.371 40.922 145.371 41.5 c 145.371 42.453
 145.871 43.047 146.684 43.047 c 147.34 43.047 147.855 42.641 148.152 41.891
 c h
145.887 40.828 m 145.965 40.281 146.199 40.031 146.621 40.031 c 147.059
 40.031 147.215 40.219 147.309 40.828 c h
145.887 40.828 m f
150.836 40.016 m 150.508 39.844 150.305 39.781 150.023 39.781 c 149.148
 39.781 148.492 40.547 148.492 41.562 c 148.492 42.438 148.945 43.047 149.602
 43.047 c 150.008 43.047 150.383 42.875 150.695 42.531 c 150.695 43.844 
l 150.695 44.234 150.57 44.344 150.07 44.375 c 150.07 44.5 l 151.727 44.5
 l 151.727 44.406 l 151.352 44.312 151.289 44.266 151.289 43.969 c 151.289
 39.812 l 151.211 39.797 l h
150.695 42.094 m 150.695 42.266 150.664 42.359 150.602 42.422 c 150.445
 42.547 150.211 42.625 149.992 42.625 c 149.789 42.625 149.602 42.562 149.461
 42.422 c 149.227 42.219 149.086 41.766 149.086 41.312 c 149.086 40.484 
149.461 39.969 150.055 39.969 c 150.477 39.969 150.695 40.203 150.695 40.656
 c h
150.695 42.094 m f
0.425177 w
q 1 0 0 -1 0 0 cm
300.297 -46.711 m 304.773 -46.711 l 306.562 -46.711 m 311.039 -46.711 l
 312.828 -46.711 m 317.305 -46.711 l S Q
325.379 46.004 m 325.379 45.723 325.348 44.629 323.723 44.457 c 324.145
 43.035 l 324.176 42.957 324.191 42.863 324.191 42.832 c 324.191 42.676 
324.066 42.52 323.91 42.52 c 323.785 42.52 323.582 42.535 323.504 42.863
 c 323.207 44.441 l 321.082 44.723 320.52 46.27 320.52 47.004 c 320.52 48.52
 322.176 48.582 322.176 48.582 c 321.738 49.988 l 321.738 50.004 321.723
 50.066 321.723 50.098 c 321.723 50.27 321.863 50.426 322.02 50.426 c 322.145
 50.426 322.332 50.316 322.379 50.098 c 322.691 48.629 l 324.613 48.41 325.379
 46.863 325.379 46.004 c h
324.613 45.988 m 324.613 46.77 324.082 48.113 322.77 48.332 c 323.66 44.738
 l 324.348 44.832 324.613 45.441 324.613 45.988 c h
323.129 44.754 m 322.27 48.332 l 321.551 48.129 321.285 47.645 321.285 
47.129 c 321.285 46.457 321.77 44.941 323.129 44.754 c h
323.129 44.754 m f
330.055 50.66 m 329.789 50.629 329.648 50.566 329.445 50.332 c 328.008 
48.566 l 328.898 48.395 329.273 48.035 329.273 47.395 c 329.273 47.098 329.18
 46.848 329.008 46.645 c 328.742 46.348 328.148 46.176 327.508 46.176 c 
325.586 46.176 l 325.586 46.301 l 326.102 46.363 326.164 46.426 326.164 
46.926 c 326.164 49.941 l 326.164 50.535 326.102 50.613 325.586 50.66 c 
325.586 50.785 l 327.508 50.785 l 327.508 50.66 l 326.977 50.613 326.883
 50.535 326.883 50.02 c 326.883 48.66 l 327.273 48.645 l 328.93 50.785 l
 330.055 50.785 l h
326.883 46.676 m 326.883 46.488 326.961 46.426 327.242 46.426 c 328.102
 46.426 328.508 46.723 328.508 47.379 c 328.508 47.738 328.367 48.02 328.117
 48.16 c 327.789 48.332 327.555 48.379 326.883 48.395 c h
326.883 46.676 m f
0.425176 w
q 1 0 0 -1 0 0 cm
186.918 -75.059 m 191.207 -75.059 l 192.922 -75.059 m 197.211 -75.059 l
 198.93 -75.059 m 203.219 -75.059 l 204.934 -75.059 m 209.223 -75.059 l 
210.938 -75.059 m 215.227 -75.059 l 216.941 -75.059 m 221.23 -75.059 l 222.949
 -75.059 m 227.238 -75.059 l 228.953 -75.059 m 233.242 -75.059 l 234.957
 -75.059 m 239.246 -75.059 l 240.965 -75.059 m 245.254 -75.059 l 246.969
 -75.059 m 251.258 -75.059 l 252.973 -75.059 m 257.262 -75.059 l 258.977
 -75.059 m 263.266 -75.059 l 264.98 -75.059 m 269.273 -75.059 l 270.988 
-75.059 m 275.277 -75.059 l 276.992 -75.059 m 281.281 -75.059 l 282.996 
-75.059 m 287.285 -75.059 l 289.004 -75.059 m 293.289 -75.059 l 295.008 
-75.059 m 299.297 -75.059 l 301.012 -75.059 m 305.301 -75.059 l 307.016 
-75.059 m 311.309 -75.059 l 313.023 -75.059 m 317.312 -75.059 l S Q
325.379 74.355 m 325.379 74.074 325.348 72.98 323.723 72.809 c 324.145 
71.387 l 324.176 71.309 324.191 71.215 324.191 71.184 c 324.191 71.027 324.066
 70.871 323.91 70.871 c 323.785 70.871 323.582 70.887 323.504 71.215 c 323.207
 72.793 l 321.082 73.074 320.52 74.621 320.52 75.355 c 320.52 76.871 322.176
 76.934 322.176 76.934 c 321.738 78.34 l 321.738 78.355 321.723 78.418 321.723
 78.449 c 321.723 78.621 321.863 78.777 322.02 78.777 c 322.145 78.777 322.332
 78.668 322.379 78.449 c 322.691 76.98 l 324.613 76.762 325.379 75.215 325.379
 74.355 c h
324.613 74.34 m 324.613 75.121 324.082 76.465 322.77 76.684 c 323.66 73.09
 l 324.348 73.184 324.613 73.793 324.613 74.34 c h
323.129 73.105 m 322.27 76.684 l 321.551 76.48 321.285 75.996 321.285 75.48
 c 321.285 74.809 321.77 73.293 323.129 73.105 c h
323.129 73.105 m f
327.508 74.527 m 325.539 74.527 l 325.539 74.652 l 326.055 74.684 326.133
 74.777 326.148 75.277 c 326.148 78.371 l 326.133 78.871 326.039 78.98 325.539
 79.012 c 325.539 79.137 l 329.289 79.137 l 329.633 77.918 l 329.461 77.918
 l 329.133 78.652 328.82 78.84 327.93 78.871 c 327.461 78.871 l 326.93 78.855
 326.867 78.824 326.867 78.574 c 326.867 75.277 l 326.883 74.777 326.961
 74.684 327.508 74.652 c h
327.508 74.527 m f
310.098 50.402 m 308.785 46.711 l 307.477 50.402 l 308.785 48.918 l f
0.567044 w
q 1 0 0 -1 0 0 cm
308.797 -75.059 m 308.797 -48.91 l S Q
1 g
297.191 60.809 m 297.191 53.641 l 320.387 53.641 l 320.387 68.012 l 297.191
 68.012 l f
0 g
306.738 56.637 m 302.254 56.637 l 302.223 56.777 l 302.52 56.777 302.91
 56.809 302.91 57.215 c 302.91 57.34 302.879 57.48 302.785 57.809 c 301.723
 61.637 l 301.473 62.543 301.145 62.527 300.801 62.527 c 300.77 62.684 l
 305.504 62.684 l 306.113 61.059 l 305.91 61.059 l 305.598 61.543 305.02
 62.387 303.629 62.387 c 302.363 62.387 l 303.145 59.637 l 304.316 59.652
 304.629 59.699 304.629 60.137 c 304.629 60.262 304.613 60.418 304.566 60.637
 c 304.738 60.637 l 305.348 58.465 l 305.191 58.465 l 305.066 58.762 304.926
 59.34 303.207 59.34 c 303.879 56.949 l 304.848 56.949 l 305.691 56.949 
306.27 57.121 306.27 57.746 c 306.27 57.855 306.254 57.949 306.238 58.059
 c 306.41 58.059 l h
306.738 56.637 m f
309.664 63.871 m 309.32 64.371 309.07 64.527 308.68 64.527 c 308.039 64.527
 307.586 63.98 307.586 63.168 c 307.586 62.449 307.977 61.965 308.539 61.965
 c 308.789 61.965 308.883 62.027 308.945 62.293 c 308.992 62.449 l 309.055
 62.652 309.18 62.777 309.336 62.777 c 309.508 62.777 309.664 62.637 309.664
 62.48 c 309.664 62.09 309.164 61.762 308.586 61.762 c 308.242 61.762 307.883
 61.902 307.602 62.152 c 307.258 62.449 307.055 62.934 307.055 63.48 c 307.055
 64.387 307.602 65.027 308.383 65.027 c 308.695 65.027 308.977 64.918 309.227
 64.699 c 309.414 64.543 309.539 64.355 309.758 63.934 c h
309.664 63.871 m f
312.844 63.824 m 312.516 64.355 312.203 64.559 311.766 64.559 c 311.359
 64.559 311.062 64.355 310.859 63.949 c 310.734 63.684 310.688 63.465 310.672
 63.027 c 312.828 63.027 l 312.766 62.574 312.703 62.387 312.516 62.152 
c 312.312 61.902 312 61.762 311.625 61.762 c 311.281 61.762 310.953 61.887
 310.688 62.121 c 310.359 62.402 310.172 62.902 310.172 63.48 c 310.172 
64.434 310.672 65.027 311.484 65.027 c 312.141 65.027 312.656 64.621 312.953
 63.871 c h
310.688 62.809 m 310.766 62.262 311 62.012 311.422 62.012 c 311.859 62.012
 312.016 62.199 312.109 62.809 c h
310.688 62.809 m f
313.262 64.965 m 314.918 64.965 l 314.918 64.855 l 314.48 64.84 314.402
 64.777 314.387 64.387 c 314.387 60.215 l 314.355 60.199 l 314.012 60.324
 313.746 60.387 313.246 60.512 c 313.246 60.621 l 313.293 60.621 l 313.371
 60.621 313.449 60.605 313.512 60.605 c 313.73 60.605 313.809 60.699 313.809
 61.027 c 313.809 64.355 l 313.793 64.73 313.699 64.84 313.262 64.855 c 
h
313.262 64.965 m f
315.184 64.965 m 316.84 64.965 l 316.84 64.855 l 316.402 64.84 316.324 
64.777 316.309 64.387 c 316.309 60.215 l 316.277 60.199 l 315.934 60.324
 315.668 60.387 315.168 60.512 c 315.168 60.621 l 315.215 60.621 l 315.293
 60.621 315.371 60.605 315.434 60.605 c 315.652 60.605 315.73 60.699 315.73
 61.027 c 315.73 64.355 l 315.715 64.73 315.621 64.84 315.184 64.855 c h
315.184 64.965 m f
Q Q
showpage
%%Trailer
end
%%EOF
