%!PS-Adobe-3.0 EPSF-3.0
%%Creator: cairo 1.16.0 (https://cairographics.org)
%%CreationDate: Mon Apr 12 08:11:36 2021
%%Pages: 1
%%DocumentData: Clean7Bit
%%LanguageLevel: 2
%%BoundingBox: 1 2 172 173
%%EndComments
%%BeginProlog
50 dict begin
/q { gsave } bind def
/Q { grestore } bind def
/cm { 6 array astore concat } bind def
/w { setlinewidth } bind def
/J { setlinecap } bind def
/j { setlinejoin } bind def
/M { setmiterlimit } bind def
/d { setdash } bind def
/m { moveto } bind def
/l { lineto } bind def
/c { curveto } bind def
/h { closepath } bind def
/re { exch dup neg 3 1 roll 5 3 roll moveto 0 rlineto
      0 exch rlineto 0 rlineto closepath } bind def
/S { stroke } bind def
/f { fill } bind def
/f* { eofill } bind def
/n { newpath } bind def
/W { clip } bind def
/W* { eoclip } bind def
/BT { } bind def
/ET { } bind def
/BDC { mark 3 1 roll /BDC pdfmark } bind def
/EMC { mark /EMC pdfmark } bind def
/cairo_store_point { /cairo_point_y exch def /cairo_point_x exch def } def
/Tj { show currentpoint cairo_store_point } bind def
/TJ {
  {
    dup
    type /stringtype eq
    { show } { -0.001 mul 0 cairo_font_matrix dtransform rmoveto } ifelse
  } forall
  currentpoint cairo_store_point
} bind def
/cairo_selectfont { cairo_font_matrix aload pop pop pop 0 0 6 array astore
    cairo_font exch selectfont cairo_point_x cairo_point_y moveto } bind def
/Tf { pop /cairo_font exch def /cairo_font_matrix where
      { pop cairo_selectfont } if } bind def
/Td { matrix translate cairo_font_matrix matrix concatmatrix dup
      /cairo_font_matrix exch def dup 4 get exch 5 get cairo_store_point
      /cairo_font where { pop cairo_selectfont } if } bind def
/Tm { 2 copy 8 2 roll 6 array astore /cairo_font_matrix exch def
      cairo_store_point /cairo_font where { pop cairo_selectfont } if } bind def
/g { setgray } bind def
/rg { setrgbcolor } bind def
/d1 { setcachedevice } bind def
/cairo_data_source {
  CairoDataIndex CairoData length lt
    { CairoData CairoDataIndex get /CairoDataIndex CairoDataIndex 1 add def }
    { () } ifelse
} def
/cairo_flush_ascii85_file { cairo_ascii85_file status { cairo_ascii85_file flushfile } if } def
/cairo_image { image cairo_flush_ascii85_file } def
/cairo_imagemask { imagemask cairo_flush_ascii85_file } def
%%EndProlog
%%BeginSetup
%%EndSetup
%%Page: 1 1
%%BeginPageSetup
%%PageBoundingBox: 1 2 172 173
%%EndPageSetup
q 1 2 171 171 rectclip
1 0 0 -1 0 175 cm q
0 g
27.7789 w
0 J
0 j
[] 0.0 d
10 M q 1 0 0 -1 0 0 cm
15.867 -44.871 m 15.867 -131.328 l 15.867 -146.199 27.922 -158.258 42.797
 -158.258 c 57.668 -158.258 69.727 -146.199 69.727 -131.328 c 69.727 -44.871
 l S Q
1 g
25.5116 w
q 1 0 0 -1 0 0 cm
15.867 -44.871 m 15.867 -131.328 l 15.867 -146.199 27.922 -158.258 42.797
 -158.258 c 57.668 -158.258 69.727 -146.199 69.727 -131.328 c 69.727 -44.871
 l S Q
0.567043 w
q 1 0 0 -1 0 0 cm
3.109 -44.871 m 28.621 -44.871 l S Q
q 1 0 0 -1 0 0 cm
82.48 -44.871 m 56.969 -44.871 l S Q
0.74902 0.831373 0.901961 rg
25.5116 w
q 1 0 0 -1 0 0 cm
15.867 -61.34 m 15.867 -131.328 l 15.867 -146.199 27.922 -158.258 42.797
 -158.258 c 57.668 -158.258 69.727 -146.199 69.727 -131.328 c 69.727 -61.34
 l S Q
0.74902 g
1.41739 w
q 1 0 0 -1 0 0 cm
27.914 -57.344 m 27.914 -61.879 l S Q
q 1 0 0 -1 0 0 cm
57.676 -57.344 m 57.676 -61.879 l S Q
0 g
1.13366 w
q 1 0 0 -1 0 0 cm
29.191 -44.871 m 29.191 -37.516 23.227 -31.551 15.867 -31.551 c 8.508 -31.551
 2.543 -37.516 2.543 -44.871 c S Q
q 1 0 0 -1 0 0 cm
83.047 -44.871 m 83.047 -37.516 77.082 -31.551 69.727 -31.551 c 62.367 
-31.551 56.402 -37.516 56.402 -44.871 c S Q
q 1 0 0 -1 0 0 cm
31.457 -101.566 m 31.457 -131.328 l 31.457 -137.59 36.535 -142.668 42.797
 -142.668 c 49.059 -142.668 54.133 -137.59 54.133 -131.328 c 54.133 -101.566
 l S Q
q 1 0 0 -1 0 0 cm
40.246 -87.391 m 40.246 -2.352 l S Q
q 1 0 0 -1 0 0 cm
45.348 -87.391 m 45.348 -2.352 l S Q
q 1 0 0 -1 0 0 cm
31.457 -101.566 m 31.457 -94.477 40.246 -94.477 40.246 -87.391 c S Q
q 1 0 0 -1 0 0 cm
54.133 -101.566 m 54.133 -94.477 45.348 -94.477 45.348 -87.391 c S Q
1 g
26.922 93.914 m 26.922 56.797 l 26.922 56.602 26.855 56.414 26.73 56.262
 c 26.648 56.156 l 26.383 55.832 25.914 55.746 25.555 55.961 c 24.969 56.309
 l 24.77 56.426 24.625 56.625 24.574 56.855 c 24.098 59 l 24.09 59.031 24.086
 59.062 24.082 59.094 c 23.871 61 l 23.863 61.074 23.844 61.152 23.816 61.223
 c 22.062 65.625 l 22.031 65.695 22.012 65.777 22.004 65.855 c 21.566 70.352
 l 21.566 70.355 21.562 70.355 21.562 70.359 c 21.09 74.887 l 21.086 74.945
 21.086 75.008 21.09 75.062 c 21.543 79.387 l 21.555 79.523 21.535 79.664
 21.484 79.793 c 19.828 83.859 l 19.742 84.07 19.742 84.305 19.832 84.516
 c 20.961 87.164 l 21.039 87.348 21.051 87.555 20.992 87.746 c 19.266 93.348
 l 19.25 93.402 19.238 93.457 19.23 93.516 c 18.789 98.008 l 18.789 98.035
 18.785 98.062 18.785 98.094 c 18.785 107.223 l 18.785 107.266 18.789 107.312
 18.797 107.359 c 21.078 121.129 l 21.082 121.145 21.082 121.16 21.086 121.18
 c 21.551 125.645 l 21.559 125.73 21.555 125.816 21.539 125.902 c 20.637
 130.316 l 20.633 130.348 20.629 130.383 20.625 130.414 c 20.203 135.148
 l 20.188 135.355 20.242 135.559 20.363 135.727 c 22.996 139.355 l 23.117
 139.516 23.172 139.715 23.16 139.914 c 22.988 142.359 l 22.965 142.656 
23.102 142.941 23.344 143.113 c 23.473 143.207 l 23.578 143.281 23.664 143.379
 23.727 143.492 c 26.461 148.52 l 26.574 148.727 26.77 148.879 27 148.938
 c 30.184 149.746 l 30.277 149.77 30.363 149.809 30.445 149.863 c 35.625
 153.301 l 35.789 153.406 35.984 153.457 36.18 153.438 c 40.418 153.023 
l 40.473 153.016 40.527 153.016 40.582 153.023 c 45.016 153.461 l 45.066
 153.465 45.117 153.465 45.168 153.461 c 50.602 153.02 l 50.633 153.016 
50.664 153.012 50.691 153.004 c 54.293 152.312 l 54.32 152.309 54.344 152.301
 54.371 152.293 c 56.301 151.73 l 56.527 151.664 56.719 151.504 56.824 151.293
 c 57.887 149.164 l 57.988 148.961 58.164 148.809 58.379 148.734 c 59.352
 148.414 l 59.387 148.398 59.426 148.383 59.461 148.367 c 61.961 147.113
 l 62.109 147.043 62.23 146.93 62.312 146.793 c 63.484 144.824 l 63.543 
144.73 63.621 144.645 63.711 144.578 c 65.07 143.574 l 65.289 143.414 65.414
 143.16 65.414 142.891 c 65.414 139.648 l 65.414 139.621 65.414 139.594 
65.41 139.562 c 65.199 137.395 l 65.191 137.34 65.191 137.281 65.199 137.227
 c 65.414 134.992 l 65.414 134.988 65.418 134.984 65.418 134.977 c 65.887
 130.945 l 65.895 130.879 65.895 130.812 65.887 130.75 c 65.43 126.785 l
 65.422 126.715 65.422 126.645 65.43 126.574 c 65.871 123.188 l 65.887 123.062
 65.875 122.93 65.836 122.809 c 64.562 118.984 l 64.527 118.883 64.512 118.77
 64.52 118.664 c 64.953 112.023 l 64.961 111.949 64.953 111.875 64.941 111.801
 c 64.047 107.395 l 64.035 107.324 64.027 107.254 64.031 107.184 c 64.508
 98.07 l 64.508 98.059 64.512 98.043 64.512 98.031 c 64.961 93.449 l 64.961
 93.438 64.965 93.422 64.965 93.406 c 66.34 84.25 l 66.348 84.211 66.352
 84.168 66.352 84.125 c 66.352 79.219 l 66.352 79.148 66.344 79.082 66.328
 79.016 c 65.93 77.398 l 65.91 77.316 65.902 77.227 65.906 77.141 c 66.348
 70.414 l 66.352 70.375 66.352 70.336 66.348 70.301 c 66.043 65.758 l 66.039
 65.742 66.039 65.727 66.035 65.711 c 65.488 61.227 l 65.477 61.152 65.457
 61.078 65.43 61.008 c 64.668 59.156 l 64.637 59.082 64.617 59.004 64.609
 58.926 c 64.41 57.125 l 64.367 56.75 64.086 56.449 63.719 56.379 c 59.902
 55.68 l 59.598 55.625 59.285 55.738 59.09 55.977 c 58.859 56.262 l 58.738
 56.414 58.668 56.602 58.668 56.797 c 58.668 131.875 l 58.668 131.887 58.668
 131.902 58.668 131.918 c 58.645 132.414 l 58.645 132.43 58.641 132.441 
58.641 132.457 c 58.586 133 l 58.586 133 58.586 133.004 58.586 133.004 c
 58.531 133.496 l 58.531 133.523 58.523 133.555 58.52 133.582 c 58.418 134.059
 l 58.414 134.07 58.414 134.086 58.41 134.102 c 58.336 134.574 l 58.332 
134.602 58.324 134.633 58.32 134.66 c 58.188 135.156 l 58.047 135.695 l 
57.914 136.191 l 57.91 136.219 57.898 136.246 57.891 136.273 c 57.707 136.766
 l 57.707 136.77 57.703 136.773 57.703 136.777 c 57.508 137.281 l 57.328
 137.746 l 57.316 137.777 57.301 137.809 57.285 137.836 c 57.059 138.266
 l 57.055 138.27 57.051 138.277 57.051 138.281 c 56.805 138.773 l 56.801
 138.781 56.797 138.789 56.793 138.793 c 56.551 139.25 l 56.547 139.262 
56.539 139.273 56.535 139.281 c 56.277 139.723 l 56.266 139.738 56.254 139.758
 56.242 139.773 c 55.949 140.199 l 55.648 140.641 l 55.641 140.648 55.633
 140.66 55.625 140.668 c 55.305 141.098 l 55.301 141.105 55.293 141.113 
55.289 141.117 c 54.965 141.52 l 54.961 141.527 54.953 141.539 54.945 141.547
 c 54.598 141.949 l 54.59 141.957 54.586 141.965 54.578 141.969 c 54.23 
142.344 l 54.223 142.352 54.215 142.359 54.207 142.367 c 53.832 142.742 
l 53.828 142.75 53.82 142.758 53.812 142.766 c 53.438 143.109 l 53.43 143.117
 53.422 143.125 53.414 143.133 c 53.012 143.477 l 53.004 143.484 52.996 
143.492 52.988 143.5 c 52.586 143.82 l 52.578 143.824 52.57 143.832 52.566
 143.836 c 52.137 144.16 l 52.125 144.168 52.117 144.172 52.105 144.18 c
 51.668 144.48 l 51.238 144.777 l 51.223 144.789 51.207 144.797 51.188 144.809
 c 50.75 145.066 l 50.738 145.074 50.727 145.082 50.715 145.086 c 50.258
 145.328 l 50.254 145.332 50.246 145.336 50.242 145.336 c 49.75 145.582 
l 49.742 145.586 49.738 145.59 49.73 145.594 c 49.301 145.82 l 49.273 145.836
 49.242 145.848 49.211 145.859 c 48.75 146.039 l 48.75 146.043 l 48.246 
146.234 l 48.242 146.238 48.234 146.238 48.23 146.242 c 47.738 146.422 l
 47.711 146.434 47.688 146.441 47.66 146.449 c 47.16 146.578 l 46.621 146.723
 l 46.125 146.852 l 46.098 146.859 46.07 146.863 46.039 146.871 c 45.566
 146.945 l 45.551 146.945 45.539 146.949 45.523 146.953 c 45.051 147.051
 l 45.02 147.059 44.992 147.062 44.965 147.066 c 44.469 147.117 l 44.469
 147.117 44.469 147.117 44.465 147.117 c 43.922 147.172 l 43.91 147.176 
43.895 147.176 43.883 147.176 c 43.387 147.203 l 43.371 147.203 43.355 147.203
 43.34 147.203 c 42.25 147.203 l 42.238 147.203 42.219 147.203 42.207 147.203
 c 41.711 147.176 l 41.695 147.176 41.684 147.176 41.672 147.172 c 41.125
 147.117 l 41.125 147.117 41.121 147.117 41.121 147.117 c 40.629 147.066
 l 40.602 147.062 40.57 147.059 40.543 147.051 c 40.066 146.953 l 40.055
 146.949 40.039 146.945 40.023 146.945 c 39.551 146.871 l 39.523 146.863
 39.492 146.859 39.465 146.852 c 38.969 146.723 l 38.43 146.578 l 37.93 
146.449 l 37.906 146.441 37.879 146.434 37.855 146.422 c 37.359 146.242 
l 37.355 146.238 37.352 146.238 37.344 146.234 c 36.844 146.043 l 36.844
 146.039 l 36.379 145.859 l 36.348 145.848 36.316 145.836 36.289 145.82 
c 35.859 145.594 l 35.855 145.59 35.848 145.586 35.84 145.582 c 35.352 145.336
 l 35.344 145.336 35.336 145.332 35.332 145.328 c 34.875 145.086 l 34.863
 145.082 34.852 145.074 34.844 145.066 c 34.402 144.809 l 34.387 144.801
 34.367 144.789 34.352 144.777 c 33.922 144.48 l 33.484 144.18 l 33.477 
144.172 33.465 144.168 33.457 144.16 c 33.027 143.836 l 33.02 143.832 33.012
 143.824 33.004 143.82 c 32.605 143.5 l 32.594 143.492 32.586 143.484 32.578
 143.477 c 32.176 143.133 l 32.168 143.125 32.16 143.117 32.156 143.109 
c 31.781 142.766 l 31.773 142.758 31.766 142.75 31.758 142.742 c 31.383 
142.367 l 31.375 142.359 31.367 142.352 31.363 142.344 c 31.012 141.969 
l 31.008 141.965 31 141.957 30.992 141.949 c 30.645 141.547 l 30.637 141.539
 30.633 141.527 30.625 141.52 c 30.305 141.117 l 30.297 141.113 30.293 141.105
 30.285 141.098 c 29.965 140.668 l 29.957 140.66 29.953 140.648 29.945 140.641
 c 29.645 140.199 l 29.348 139.773 l 29.336 139.758 29.324 139.738 29.316
 139.723 c 29.055 139.281 l 29.051 139.273 29.043 139.262 29.039 139.25 
c 28.797 138.793 l 28.793 138.789 28.789 138.781 28.789 138.773 c 28.543
 138.281 l 28.539 138.277 28.535 138.27 28.531 138.266 c 28.305 137.836 
l 28.289 137.809 28.277 137.777 28.266 137.746 c 28.082 137.281 l 27.887
 136.777 l 27.887 136.773 27.883 136.77 27.883 136.766 c 27.703 136.273 
l 27.691 136.246 27.684 136.219 27.676 136.191 c 27.547 135.695 l 27.402
 135.156 l 27.273 134.66 l 27.266 134.633 27.258 134.602 27.254 134.574 
c 27.18 134.102 l 27.18 134.086 27.176 134.07 27.172 134.059 c 27.074 133.582
 l 27.066 133.555 27.062 133.527 27.059 133.496 c 27.008 133.004 l 27.008
 133.004 27.008 133 27.008 133 c 26.953 132.457 l 26.949 132.441 26.949 
132.43 26.949 132.414 c 26.922 131.918 l 26.922 131.902 26.922 131.887 26.922
 131.875 c 26.922 131.328 l f
0 g
0.567043 w
q 1 0 0 -1 0 0 cm
26.922 -93.914 m 26.922 -56.797 l 26.922 -56.602 26.855 -56.414 26.73 -56.262
 c 26.648 -56.156 l 26.383 -55.832 25.914 -55.746 25.555 -55.961 c 24.969
 -56.309 l 24.77 -56.426 24.625 -56.625 24.574 -56.855 c 24.098 -59 l 24.09
 -59.031 24.086 -59.062 24.082 -59.094 c 23.871 -61 l 23.863 -61.074 23.844
 -61.152 23.816 -61.223 c 22.062 -65.625 l 22.031 -65.695 22.012 -65.777
 22.004 -65.855 c 21.566 -70.352 l 21.566 -70.355 21.562 -70.355 21.562 
-70.359 c 21.09 -74.887 l 21.086 -74.945 21.086 -75.008 21.09 -75.062 c 
21.543 -79.387 l 21.555 -79.523 21.535 -79.664 21.484 -79.793 c 19.828 -83.859
 l 19.742 -84.07 19.742 -84.305 19.832 -84.516 c 20.961 -87.164 l 21.039
 -87.348 21.051 -87.555 20.992 -87.746 c 19.266 -93.348 l 19.25 -93.402 
19.238 -93.457 19.23 -93.516 c 18.789 -98.008 l 18.789 -98.035 18.785 -98.062
 18.785 -98.094 c 18.785 -107.223 l 18.785 -107.266 18.789 -107.312 18.797
 -107.359 c 21.078 -121.129 l 21.082 -121.145 21.082 -121.16 21.086 -121.18
 c 21.551 -125.645 l 21.559 -125.73 21.555 -125.816 21.539 -125.902 c 20.637
 -130.316 l 20.633 -130.348 20.629 -130.383 20.625 -130.414 c 20.203 -135.148
 l 20.188 -135.355 20.242 -135.559 20.363 -135.727 c 22.996 -139.355 l 23.117
 -139.516 23.172 -139.715 23.16 -139.914 c 22.988 -142.359 l 22.965 -142.656
 23.102 -142.941 23.344 -143.113 c 23.473 -143.207 l 23.578 -143.281 23.664
 -143.379 23.727 -143.492 c 26.461 -148.52 l 26.574 -148.727 26.77 -148.879
 27 -148.938 c 30.184 -149.746 l 30.277 -149.77 30.363 -149.809 30.445 -149.863
 c 35.625 -153.301 l 35.789 -153.406 35.984 -153.457 36.18 -153.438 c 40.418
 -153.023 l 40.473 -153.016 40.527 -153.016 40.582 -153.023 c 45.016 -153.461
 l 45.066 -153.465 45.117 -153.465 45.168 -153.461 c 50.602 -153.02 l 50.633
 -153.016 50.664 -153.012 50.691 -153.004 c 54.293 -152.312 l 54.32 -152.309
 54.344 -152.301 54.371 -152.293 c 56.301 -151.73 l 56.527 -151.664 56.719
 -151.504 56.824 -151.293 c 57.887 -149.164 l 57.988 -148.961 58.164 -148.809
 58.379 -148.734 c 59.352 -148.414 l 59.387 -148.398 59.426 -148.383 59.461
 -148.367 c 61.961 -147.113 l 62.109 -147.043 62.23 -146.93 62.312 -146.793
 c 63.484 -144.824 l 63.543 -144.73 63.621 -144.645 63.711 -144.578 c 65.07
 -143.574 l 65.289 -143.414 65.414 -143.16 65.414 -142.891 c 65.414 -139.648
 l 65.414 -139.621 65.414 -139.594 65.41 -139.562 c 65.199 -137.395 l 65.191
 -137.34 65.191 -137.281 65.199 -137.227 c 65.414 -134.992 l 65.414 -134.988
 65.418 -134.984 65.418 -134.977 c 65.887 -130.945 l 65.895 -130.879 65.895
 -130.812 65.887 -130.75 c 65.43 -126.785 l 65.422 -126.715 65.422 -126.645
 65.43 -126.574 c 65.871 -123.188 l 65.887 -123.062 65.875 -122.93 65.836
 -122.809 c 64.562 -118.984 l 64.527 -118.883 64.512 -118.77 64.52 -118.664
 c 64.953 -112.023 l 64.961 -111.949 64.953 -111.875 64.941 -111.801 c 64.047
 -107.395 l 64.035 -107.324 64.027 -107.254 64.031 -107.184 c 64.508 -98.07
 l 64.508 -98.059 64.512 -98.043 64.512 -98.031 c 64.961 -93.449 l 64.961
 -93.438 64.965 -93.422 64.965 -93.406 c 66.34 -84.25 l 66.348 -84.211 66.352
 -84.168 66.352 -84.125 c 66.352 -79.219 l 66.352 -79.148 66.344 -79.082
 66.328 -79.016 c 65.93 -77.398 l 65.91 -77.316 65.902 -77.227 65.906 -77.141
 c 66.348 -70.414 l 66.352 -70.375 66.352 -70.336 66.348 -70.301 c 66.043
 -65.758 l 66.039 -65.742 66.039 -65.727 66.035 -65.711 c 65.488 -61.227
 l 65.477 -61.152 65.457 -61.078 65.43 -61.008 c 64.668 -59.156 l 64.637
 -59.082 64.617 -59.004 64.609 -58.926 c 64.41 -57.125 l 64.367 -56.75 64.086
 -56.449 63.719 -56.379 c 59.902 -55.68 l 59.598 -55.625 59.285 -55.738 
59.09 -55.977 c 58.859 -56.262 l 58.738 -56.414 58.668 -56.602 58.668 -56.797
 c 58.668 -131.875 l 58.668 -131.887 58.668 -131.902 58.668 -131.918 c 58.645
 -132.414 l 58.645 -132.43 58.641 -132.441 58.641 -132.457 c 58.586 -133
 l 58.586 -133 58.586 -133.004 58.586 -133.004 c 58.531 -133.496 l 58.531
 -133.523 58.523 -133.555 58.52 -133.582 c 58.418 -134.059 l 58.414 -134.07
 58.414 -134.086 58.41 -134.102 c 58.336 -134.574 l 58.332 -134.602 58.324
 -134.633 58.32 -134.66 c 58.188 -135.156 l 58.047 -135.695 l 57.914 -136.191
 l 57.91 -136.219 57.898 -136.246 57.891 -136.273 c 57.707 -136.766 l 57.707
 -136.77 57.703 -136.773 57.703 -136.777 c 57.508 -137.281 l 57.328 -137.746
 l 57.316 -137.777 57.301 -137.809 57.285 -137.836 c 57.059 -138.266 l 57.055
 -138.27 57.051 -138.277 57.051 -138.281 c 56.805 -138.773 l 56.801 -138.781
 56.797 -138.789 56.793 -138.793 c 56.551 -139.25 l 56.547 -139.262 56.539
 -139.273 56.535 -139.281 c 56.277 -139.723 l 56.266 -139.738 56.254 -139.758
 56.242 -139.773 c 55.949 -140.199 l 55.648 -140.641 l 55.641 -140.648 55.633
 -140.66 55.625 -140.668 c 55.305 -141.098 l 55.301 -141.105 55.293 -141.113
 55.289 -141.117 c 54.965 -141.52 l 54.961 -141.527 54.953 -141.539 54.945
 -141.547 c 54.598 -141.949 l 54.59 -141.957 54.586 -141.965 54.578 -141.969
 c 54.23 -142.344 l 54.223 -142.352 54.215 -142.359 54.207 -142.367 c 53.832
 -142.742 l 53.828 -142.75 53.82 -142.758 53.812 -142.766 c 53.438 -143.109
 l 53.43 -143.117 53.422 -143.125 53.414 -143.133 c 53.012 -143.477 l 53.004
 -143.484 52.996 -143.492 52.988 -143.5 c 52.586 -143.82 l 52.578 -143.824
 52.57 -143.832 52.566 -143.836 c 52.137 -144.16 l 52.125 -144.168 52.117
 -144.172 52.105 -144.18 c 51.668 -144.48 l 51.238 -144.777 l 51.223 -144.789
 51.207 -144.797 51.188 -144.809 c 50.75 -145.066 l 50.738 -145.074 50.727
 -145.082 50.715 -145.086 c 50.258 -145.328 l 50.254 -145.332 50.246 -145.336
 50.242 -145.336 c 49.75 -145.582 l 49.742 -145.586 49.738 -145.59 49.73
 -145.594 c 49.301 -145.82 l 49.273 -145.836 49.242 -145.848 49.211 -145.859
 c 48.75 -146.039 l 48.75 -146.043 l 48.246 -146.234 l 48.242 -146.238 48.234
 -146.238 48.23 -146.242 c 47.738 -146.422 l 47.711 -146.434 47.688 -146.441
 47.66 -146.449 c 47.16 -146.578 l 46.621 -146.723 l 46.125 -146.852 l 46.098
 -146.859 46.07 -146.863 46.039 -146.871 c 45.566 -146.945 l 45.551 -146.945
 45.539 -146.949 45.523 -146.953 c 45.051 -147.051 l 45.02 -147.059 44.992
 -147.062 44.965 -147.066 c 44.469 -147.117 l 44.469 -147.117 44.469 -147.117
 44.465 -147.117 c 43.922 -147.172 l 43.91 -147.176 43.895 -147.176 43.883
 -147.176 c 43.387 -147.203 l 43.371 -147.203 43.355 -147.203 43.34 -147.203
 c 42.25 -147.203 l 42.238 -147.203 42.219 -147.203 42.207 -147.203 c 41.711
 -147.176 l 41.695 -147.176 41.684 -147.176 41.672 -147.172 c 41.125 -147.117
 l 41.125 -147.117 41.121 -147.117 41.121 -147.117 c 40.629 -147.066 l 40.602
 -147.062 40.57 -147.059 40.543 -147.051 c 40.066 -146.953 l 40.055 -146.949
 40.039 -146.945 40.023 -146.945 c 39.551 -146.871 l 39.523 -146.863 39.492
 -146.859 39.465 -146.852 c 38.969 -146.723 l 38.43 -146.578 l 37.93 -146.449
 l 37.906 -146.441 37.879 -146.434 37.855 -146.422 c 37.359 -146.242 l 37.355
 -146.238 37.352 -146.238 37.344 -146.234 c 36.844 -146.043 l 36.844 -146.039
 l 36.379 -145.859 l 36.348 -145.848 36.316 -145.836 36.289 -145.82 c 35.859
 -145.594 l 35.855 -145.59 35.848 -145.586 35.84 -145.582 c 35.352 -145.336
 l 35.344 -145.336 35.336 -145.332 35.332 -145.328 c 34.875 -145.086 l 34.863
 -145.082 34.852 -145.074 34.844 -145.066 c 34.402 -144.809 l 34.387 -144.801
 34.367 -144.789 34.352 -144.777 c 33.922 -144.48 l 33.484 -144.18 l 33.477
 -144.172 33.465 -144.168 33.457 -144.16 c 33.027 -143.836 l 33.02 -143.832
 33.012 -143.824 33.004 -143.82 c 32.605 -143.5 l 32.594 -143.492 32.586
 -143.484 32.578 -143.477 c 32.176 -143.133 l 32.168 -143.125 32.16 -143.117
 32.156 -143.109 c 31.781 -142.766 l 31.773 -142.758 31.766 -142.75 31.758
 -142.742 c 31.383 -142.367 l 31.375 -142.359 31.367 -142.352 31.363 -142.344
 c 31.012 -141.969 l 31.008 -141.965 31 -141.957 30.992 -141.949 c 30.645
 -141.547 l 30.637 -141.539 30.633 -141.527 30.625 -141.52 c 30.305 -141.117
 l 30.297 -141.113 30.293 -141.105 30.285 -141.098 c 29.965 -140.668 l 29.957
 -140.66 29.953 -140.648 29.945 -140.641 c 29.645 -140.199 l 29.348 -139.773
 l 29.336 -139.758 29.324 -139.738 29.316 -139.723 c 29.055 -139.281 l 29.051
 -139.273 29.043 -139.262 29.039 -139.25 c 28.797 -138.793 l 28.793 -138.789
 28.789 -138.781 28.789 -138.773 c 28.543 -138.281 l 28.539 -138.277 28.535
 -138.27 28.531 -138.266 c 28.305 -137.836 l 28.289 -137.809 28.277 -137.777
 28.266 -137.746 c 28.082 -137.281 l 27.887 -136.777 l 27.887 -136.773 27.883
 -136.77 27.883 -136.766 c 27.703 -136.273 l 27.691 -136.246 27.684 -136.219
 27.676 -136.191 c 27.547 -135.695 l 27.402 -135.156 l 27.273 -134.66 l 
27.266 -134.633 27.258 -134.602 27.254 -134.574 c 27.18 -134.102 l 27.18
 -134.086 27.176 -134.07 27.172 -134.059 c 27.074 -133.582 l 27.066 -133.555
 27.062 -133.527 27.059 -133.496 c 27.008 -133.004 l 27.008 -133.004 27.008
 -133 27.008 -133 c 26.953 -132.457 l 26.949 -132.441 26.949 -132.43 26.949
 -132.414 c 26.922 -131.918 l 26.922 -131.902 26.922 -131.887 26.922 -131.875
 c h
26.922 -93.914 m S Q
q 1 0 0 -1 0 0 cm
2.543 -59.047 m 2.543 -60.609 3.812 -61.879 5.379 -61.879 c 21.25 -61.879
 l 22.816 -61.879 24.086 -60.609 24.086 -59.047 c S Q
q 1 0 0 -1 0 0 cm
83.047 -59.047 m 83.047 -60.609 81.777 -61.879 80.211 -61.879 c 67.457 
-61.879 l 65.895 -61.879 64.621 -60.609 64.621 -59.047 c S Q
q 1 0 0 -1 0 0 cm
26.922 -56.492 m 26.922 -56.965 27.301 -57.344 27.773 -57.344 c 28.055 
-57.344 l 28.523 -57.344 28.906 -56.965 28.906 -56.492 c S Q
q 1 0 0 -1 0 0 cm
58.668 -56.492 m 58.668 -56.965 58.289 -57.344 57.82 -57.344 c 57.535 -57.344
 l 57.066 -57.344 56.688 -56.965 56.688 -56.492 c S Q
72.609 43.844 m 69.727 44.871 l 72.609 45.902 l 71.457 44.871 l f
0.283298 w
q 1 0 0 -1 0 0 cm
71.457 -44.871 m 105.156 -44.871 l S Q
108.09 46.793 m 110.574 46.793 l 110.574 46.621 l 109.902 46.574 109.809
 46.465 109.793 45.809 c 109.793 43.965 l 112.512 43.965 l 112.512 45.715
 l 112.496 46.48 112.418 46.574 111.715 46.621 c 111.715 46.793 l 114.215
 46.793 l 114.215 46.621 l 113.543 46.574 113.434 46.465 113.418 45.809 
c 113.418 41.84 l 113.434 41.184 113.527 41.09 114.215 41.027 c 114.215 
40.855 l 111.715 40.855 l 111.715 41.027 l 112.418 41.074 112.496 41.168
 112.512 41.84 c 112.512 43.574 l 109.793 43.574 l 109.793 41.84 l 109.809
 41.184 109.887 41.09 110.574 41.027 c 110.574 40.855 l 108.09 40.855 l 
108.09 41.027 l 108.777 41.074 108.871 41.168 108.871 41.84 c 108.871 45.715
 l 108.871 46.48 108.793 46.574 108.09 46.621 c h
108.09 46.793 m f
118.211 48.105 m 117.992 48.074 l 117.758 48.434 117.57 48.496 117.227 
48.496 c 115.57 48.496 l 116.758 47.512 117.82 46.621 117.82 45.652 c 117.82
 44.918 117.117 44.402 116.352 44.402 c 115.586 44.402 114.977 44.762 114.742
 45.777 c 114.992 45.777 l 115.211 45.387 115.492 44.996 116.07 44.996 c
 116.711 44.996 117.07 45.418 117.07 45.918 c 117.07 46.652 116.18 47.715
 114.664 48.902 c 114.664 49.074 l 117.758 49.074 l h
118.211 48.105 m f
122.195 40.73 m 120.492 40.73 119.273 42.012 119.273 43.824 c 119.273 44.668
 119.555 45.496 120.039 45.996 c 120.555 46.574 121.352 46.918 122.148 46.918
 c 123.914 46.918 125.133 45.668 125.133 43.855 c 125.133 42.965 124.867
 42.199 124.383 41.668 c 123.82 41.059 123.055 40.73 122.195 40.73 c h
122.195 41.059 m 122.617 41.059 123.023 41.215 123.352 41.496 c 123.836
 41.934 124.102 42.777 124.102 43.855 c 124.102 44.387 124.008 44.996 123.82
 45.465 c 123.727 45.684 123.586 45.918 123.367 46.121 c 123.055 46.434 
122.648 46.59 122.18 46.59 c 121.773 46.59 121.367 46.434 121.039 46.152
 c 120.586 45.746 120.289 44.84 120.289 43.84 c 120.289 42.934 120.539 42.059
 120.914 41.637 c 121.273 41.246 121.711 41.059 122.195 41.059 c h
122.195 41.059 m f
128.078 40.73 m 127.422 41.168 127.156 41.387 126.812 41.809 c 126.188 
42.59 125.875 43.48 125.875 44.527 c 125.875 45.684 126.203 46.559 126.984
 47.465 c 127.359 47.902 127.594 48.09 128.062 48.387 c 128.156 48.23 l 
127.453 47.668 127.203 47.355 126.953 46.684 c 126.734 46.09 126.641 45.418
 126.641 44.512 c 126.641 43.559 126.75 42.824 127 42.277 c 127.25 41.715
 127.516 41.387 128.156 40.871 c h
128.078 40.73 m f
132.656 43.309 m 132.656 42.965 l 131.969 42.965 l 131.781 42.965 131.641
 42.934 131.469 42.871 c 131.266 42.809 l 131.031 42.715 130.781 42.668 
130.547 42.668 c 129.719 42.668 129.062 43.309 129.062 44.137 c 129.062 
44.699 129.297 45.027 129.891 45.324 c 129.656 45.543 l 129.469 45.73 129.359
 45.824 129.328 45.855 c 129.141 46.059 129.094 46.152 129.094 46.309 c 
129.094 46.512 129.188 46.605 129.562 46.777 c 128.922 47.246 128.688 47.543
 128.688 47.871 c 128.688 48.355 129.375 48.746 130.234 48.746 c 130.906
 48.746 131.609 48.512 132.078 48.137 c 132.422 47.855 132.578 47.574 132.578
 47.23 c 132.578 46.684 132.156 46.309 131.484 46.277 c 130.328 46.215 l
 129.844 46.199 129.625 46.121 129.625 45.98 c 129.625 45.793 129.922 45.48
 130.172 45.418 c 130.484 45.434 130.656 45.449 130.688 45.449 c 131.016
 45.449 131.375 45.324 131.641 45.074 c 131.938 44.824 132.078 44.512 132.078
 44.074 c 132.078 43.809 132.031 43.605 131.906 43.309 c h
129.75 46.809 m 130.062 46.871 130.766 46.934 131.219 46.934 c 132.031 
46.934 132.328 47.043 132.328 47.371 c 132.328 47.887 131.641 48.23 130.625
 48.23 c 129.828 48.23 129.312 47.98 129.312 47.59 c 129.312 47.371 129.391
 47.246 129.75 46.809 c h
129.797 43.762 m 129.797 43.23 130.047 42.918 130.469 42.918 c 130.75 42.918
 130.969 43.074 131.125 43.34 c 131.297 43.652 131.391 44.059 131.391 44.418
 c 131.391 44.918 131.141 45.23 130.719 45.23 c 130.172 45.23 129.797 44.652
 129.797 43.793 c h
129.797 43.762 m f
133.223 48.387 m 133.879 47.934 134.16 47.715 134.488 47.309 c 135.129 
46.527 135.441 45.621 135.441 44.574 c 135.441 43.434 135.098 42.559 134.316
 41.652 c 133.941 41.215 133.707 41.012 133.254 40.73 c 133.145 40.871 l
 133.863 41.434 134.098 41.746 134.348 42.418 c 134.566 43.027 134.66 43.699
 134.66 44.605 c 134.66 45.543 134.551 46.277 134.301 46.824 c 134.066 47.387
 133.785 47.715 133.145 48.23 c h
133.223 48.387 m f
79.695 69.352 m 76.812 70.383 l 79.695 71.414 l 78.543 70.383 l f
q 1 0 0 -1 0 0 cm
78.543 -70.383 m 105.156 -70.383 l S Q
108.09 72.305 m 110.574 72.305 l 110.574 72.133 l 109.902 72.086 109.809
 71.977 109.793 71.32 c 109.793 69.477 l 112.512 69.477 l 112.512 71.227
 l 112.496 71.992 112.418 72.086 111.715 72.133 c 111.715 72.305 l 114.215
 72.305 l 114.215 72.133 l 113.543 72.086 113.434 71.977 113.418 71.32 c
 113.418 67.352 l 113.434 66.695 113.527 66.602 114.215 66.539 c 114.215
 66.367 l 111.715 66.367 l 111.715 66.539 l 112.418 66.586 112.496 66.68
 112.512 67.352 c 112.512 69.086 l 109.793 69.086 l 109.793 67.352 l 109.809
 66.695 109.887 66.602 110.574 66.539 c 110.574 66.367 l 108.09 66.367 l
 108.09 66.539 l 108.777 66.586 108.871 66.68 108.871 67.352 c 108.871 71.227
 l 108.871 71.992 108.793 72.086 108.09 72.133 c h
108.09 72.305 m f
118.211 73.617 m 117.992 73.586 l 117.758 73.945 117.57 74.008 117.227 
74.008 c 115.57 74.008 l 116.758 73.023 117.82 72.133 117.82 71.164 c 117.82
 70.43 117.117 69.914 116.352 69.914 c 115.586 69.914 114.977 70.273 114.742
 71.289 c 114.992 71.289 l 115.211 70.898 115.492 70.508 116.07 70.508 c
 116.711 70.508 117.07 70.93 117.07 71.43 c 117.07 72.164 116.18 73.227 
114.664 74.414 c 114.664 74.586 l 117.758 74.586 l h
118.211 73.617 m f
122.195 66.242 m 120.492 66.242 119.273 67.523 119.273 69.336 c 119.273
 70.18 119.555 71.008 120.039 71.508 c 120.555 72.086 121.352 72.43 122.148
 72.43 c 123.914 72.43 125.133 71.18 125.133 69.367 c 125.133 68.477 124.867
 67.711 124.383 67.18 c 123.82 66.57 123.055 66.242 122.195 66.242 c h
122.195 66.57 m 122.617 66.57 123.023 66.727 123.352 67.008 c 123.836 67.445
 124.102 68.289 124.102 69.367 c 124.102 69.898 124.008 70.508 123.82 70.977
 c 123.727 71.195 123.586 71.43 123.367 71.633 c 123.055 71.945 122.648 
72.102 122.18 72.102 c 121.773 72.102 121.367 71.945 121.039 71.664 c 120.586
 71.258 120.289 70.352 120.289 69.352 c 120.289 68.445 120.539 67.57 120.914
 67.148 c 121.273 66.758 121.711 66.57 122.195 66.57 c h
122.195 66.57 m f
128.078 66.242 m 127.422 66.68 127.156 66.898 126.812 67.32 c 126.188 68.102
 125.875 68.992 125.875 70.039 c 125.875 71.195 126.203 72.07 126.984 72.977
 c 127.359 73.414 127.594 73.602 128.062 73.898 c 128.156 73.742 l 127.453
 73.18 127.203 72.867 126.953 72.195 c 126.734 71.602 126.641 70.93 126.641
 70.023 c 126.641 69.07 126.75 68.336 127 67.789 c 127.25 67.227 127.516
 66.898 128.156 66.383 c h
128.078 66.242 m f
128.625 72.305 m 130.75 72.305 l 130.75 72.164 l 130.172 72.148 130.078
 72.055 130.062 71.555 c 130.062 66.195 l 130.031 66.18 l 129.578 66.32 
129.25 66.414 128.609 66.57 c 128.609 66.711 l 128.656 66.711 l 128.766 
66.711 128.875 66.695 128.938 66.695 c 129.234 66.695 129.312 66.82 129.312
 67.242 c 129.312 71.523 l 129.312 72.008 129.188 72.133 128.625 72.164 
c h
128.625 72.305 m f
131.305 73.898 m 131.961 73.445 132.242 73.227 132.57 72.82 c 133.211 72.039
 133.523 71.133 133.523 70.086 c 133.523 68.945 133.18 68.07 132.398 67.164
 c 132.023 66.727 131.789 66.523 131.336 66.242 c 131.227 66.383 l 131.945
 66.945 132.18 67.258 132.43 67.93 c 132.648 68.539 132.742 69.211 132.742
 70.117 c 132.742 71.055 132.633 71.789 132.383 72.336 c 132.148 72.898 
131.867 73.227 131.227 73.742 c h
131.305 73.898 m f
64.957 86.359 m 62.07 87.391 l 64.957 88.422 l 63.801 87.391 l f
q 1 0 0 -1 0 0 cm
63.801 -87.391 m 105.156 -87.391 l S Q
108.09 89.312 m 110.574 89.312 l 110.574 89.141 l 109.902 89.094 109.809
 88.984 109.793 88.328 c 109.793 86.484 l 112.512 86.484 l 112.512 88.234
 l 112.496 89 112.418 89.094 111.715 89.141 c 111.715 89.312 l 114.215 89.312
 l 114.215 89.141 l 113.543 89.094 113.434 88.984 113.418 88.328 c 113.418
 84.359 l 113.434 83.703 113.527 83.609 114.215 83.547 c 114.215 83.375 
l 111.715 83.375 l 111.715 83.547 l 112.418 83.594 112.496 83.688 112.512
 84.359 c 112.512 86.094 l 109.793 86.094 l 109.793 84.359 l 109.809 83.703
 109.887 83.609 110.574 83.547 c 110.574 83.375 l 108.09 83.375 l 108.09
 83.547 l 108.777 83.594 108.871 83.688 108.871 84.359 c 108.871 88.234 
l 108.871 89 108.793 89.094 108.09 89.141 c h
108.09 89.312 m f
118.211 90.625 m 117.992 90.594 l 117.758 90.953 117.57 91.016 117.227 
91.016 c 115.57 91.016 l 116.758 90.031 117.82 89.141 117.82 88.172 c 117.82
 87.438 117.117 86.922 116.352 86.922 c 115.586 86.922 114.977 87.281 114.742
 88.297 c 114.992 88.297 l 115.211 87.906 115.492 87.516 116.07 87.516 c
 116.711 87.516 117.07 87.938 117.07 88.438 c 117.07 89.172 116.18 90.234
 114.664 91.422 c 114.664 91.594 l 117.758 91.594 l h
118.211 90.625 m f
122.195 83.25 m 120.492 83.25 119.273 84.531 119.273 86.344 c 119.273 87.188
 119.555 88.016 120.039 88.516 c 120.555 89.094 121.352 89.438 122.148 89.438
 c 123.914 89.438 125.133 88.188 125.133 86.375 c 125.133 85.484 124.867
 84.719 124.383 84.188 c 123.82 83.578 123.055 83.25 122.195 83.25 c h
122.195 83.578 m 122.617 83.578 123.023 83.734 123.352 84.016 c 123.836
 84.453 124.102 85.297 124.102 86.375 c 124.102 86.906 124.008 87.516 123.82
 87.984 c 123.727 88.203 123.586 88.438 123.367 88.641 c 123.055 88.953 
122.648 89.109 122.18 89.109 c 121.773 89.109 121.367 88.953 121.039 88.672
 c 120.586 88.266 120.289 87.359 120.289 86.359 c 120.289 85.453 120.539
 84.578 120.914 84.156 c 121.273 83.766 121.711 83.578 122.195 83.578 c 
h
122.195 83.578 m f
128.078 83.25 m 127.422 83.688 127.156 83.906 126.812 84.328 c 126.188 
85.109 125.875 86 125.875 87.047 c 125.875 88.203 126.203 89.078 126.984
 89.984 c 127.359 90.422 127.594 90.609 128.062 90.906 c 128.156 90.75 l
 127.453 90.188 127.203 89.875 126.953 89.203 c 126.734 88.609 126.641 87.938
 126.641 87.031 c 126.641 86.078 126.75 85.344 127 84.797 c 127.25 84.234
 127.516 83.906 128.156 83.391 c h
128.078 83.25 m f
131.266 86.5 m 131.234 85.266 l 131.125 85.266 l 131.078 85.344 131.031
 85.359 130.984 85.359 c 130.938 85.359 130.844 85.344 130.75 85.297 c 130.531
 85.234 130.328 85.188 130.109 85.188 c 129.406 85.188 128.891 85.656 128.891
 86.297 c 128.891 86.797 129.188 87.156 129.938 87.594 c 130.469 87.891 
l 130.781 88.062 130.938 88.281 130.938 88.562 c 130.938 88.953 130.641 
89.203 130.188 89.203 c 129.562 89.203 129.25 88.859 129.047 87.953 c 128.906
 87.953 l 128.906 89.344 l 129.016 89.344 l 129.078 89.266 129.125 89.234
 129.234 89.234 c 129.328 89.234 129.438 89.266 129.641 89.312 c 129.875
 89.359 130.109 89.406 130.297 89.406 c 131 89.406 131.562 88.875 131.562
 88.25 c 131.562 87.812 131.344 87.516 130.812 87.188 c 129.844 86.609 l
 129.578 86.453 129.453 86.25 129.453 86 c 129.453 85.641 129.734 85.391
 130.141 85.391 c 130.656 85.391 130.922 85.688 131.125 86.5 c h
131.266 86.5 m f
132.262 90.906 m 132.918 90.453 133.199 90.234 133.527 89.828 c 134.168
 89.047 134.48 88.141 134.48 87.094 c 134.48 85.953 134.137 85.078 133.355
 84.172 c 132.98 83.734 132.746 83.531 132.293 83.25 c 132.184 83.391 l 
132.902 83.953 133.137 84.266 133.387 84.938 c 133.605 85.547 133.699 86.219
 133.699 87.125 c 133.699 88.062 133.59 88.797 133.34 89.344 c 133.105 89.906
 132.824 90.234 132.184 90.75 c h
132.262 90.906 m f
60.703 103.367 m 57.82 104.398 l 60.703 105.43 l 59.551 104.398 l f
q 1 0 0 -1 0 0 cm
59.551 -104.398 m 105.156 -104.398 l S Q
108.09 106.32 m 110.574 106.32 l 110.574 106.148 l 109.902 106.102 109.809
 105.992 109.793 105.336 c 109.793 103.492 l 112.512 103.492 l 112.512 105.242
 l 112.496 106.008 112.418 106.102 111.715 106.148 c 111.715 106.32 l 114.215
 106.32 l 114.215 106.148 l 113.543 106.102 113.434 105.992 113.418 105.336
 c 113.418 101.367 l 113.434 100.711 113.527 100.617 114.215 100.555 c 114.215
 100.383 l 111.715 100.383 l 111.715 100.555 l 112.418 100.602 112.496 100.695
 112.512 101.367 c 112.512 103.102 l 109.793 103.102 l 109.793 101.367 l
 109.809 100.711 109.887 100.617 110.574 100.555 c 110.574 100.383 l 108.09
 100.383 l 108.09 100.555 l 108.777 100.602 108.871 100.695 108.871 101.367
 c 108.871 105.242 l 108.871 106.008 108.793 106.102 108.09 106.148 c h
108.09 106.32 m f
118.211 107.633 m 117.992 107.602 l 117.758 107.961 117.57 108.023 117.227
 108.023 c 115.57 108.023 l 116.758 107.039 117.82 106.148 117.82 105.18
 c 117.82 104.445 117.117 103.93 116.352 103.93 c 115.586 103.93 114.977
 104.289 114.742 105.305 c 114.992 105.305 l 115.211 104.914 115.492 104.523
 116.07 104.523 c 116.711 104.523 117.07 104.945 117.07 105.445 c 117.07
 106.18 116.18 107.242 114.664 108.43 c 114.664 108.602 l 117.758 108.602
 l h
118.211 107.633 m f
122.195 100.258 m 120.492 100.258 119.273 101.539 119.273 103.352 c 119.273
 104.195 119.555 105.023 120.039 105.523 c 120.555 106.102 121.352 106.445
 122.148 106.445 c 123.914 106.445 125.133 105.195 125.133 103.383 c 125.133
 102.492 124.867 101.727 124.383 101.195 c 123.82 100.586 123.055 100.258
 122.195 100.258 c h
122.195 100.586 m 122.617 100.586 123.023 100.742 123.352 101.023 c 123.836
 101.461 124.102 102.305 124.102 103.383 c 124.102 103.914 124.008 104.523
 123.82 104.992 c 123.727 105.211 123.586 105.445 123.367 105.648 c 123.055
 105.961 122.648 106.117 122.18 106.117 c 121.773 106.117 121.367 105.961
 121.039 105.68 c 120.586 105.273 120.289 104.367 120.289 103.367 c 120.289
 102.461 120.539 101.586 120.914 101.164 c 121.273 100.773 121.711 100.586
 122.195 100.586 c h
122.195 100.586 m f
128.078 100.258 m 127.422 100.695 127.156 100.914 126.812 101.336 c 126.188
 102.117 125.875 103.008 125.875 104.055 c 125.875 105.211 126.203 106.086
 126.984 106.992 c 127.359 107.43 127.594 107.617 128.062 107.914 c 128.156
 107.758 l 127.453 107.195 127.203 106.883 126.953 106.211 c 126.734 105.617
 126.641 104.945 126.641 104.039 c 126.641 103.086 126.75 102.352 127 101.805
 c 127.25 101.242 127.516 100.914 128.156 100.398 c h
128.078 100.258 m f
128.625 106.32 m 130.75 106.32 l 130.75 106.18 l 130.172 106.164 130.078
 106.07 130.062 105.57 c 130.062 100.211 l 130.031 100.195 l 129.578 100.336
 129.25 100.43 128.609 100.586 c 128.609 100.727 l 128.656 100.727 l 128.766
 100.727 128.875 100.711 128.938 100.711 c 129.234 100.711 129.312 100.836
 129.312 101.258 c 129.312 105.539 l 129.312 106.023 129.188 106.148 128.625
 106.18 c h
128.625 106.32 m f
131.305 107.914 m 131.961 107.461 132.242 107.242 132.57 106.836 c 133.211
 106.055 133.523 105.148 133.523 104.102 c 133.523 102.961 133.18 102.086
 132.398 101.18 c 132.023 100.742 131.789 100.539 131.336 100.258 c 131.227
 100.398 l 131.945 100.961 132.18 101.273 132.43 101.945 c 132.648 102.555
 132.742 103.227 132.742 104.133 c 132.742 105.07 132.633 105.805 132.383
 106.352 c 132.148 106.914 131.867 107.242 131.227 107.758 c h
131.305 107.914 m f
45.68 120.379 m 42.797 121.406 l 45.68 122.438 l 44.527 121.406 l f
q 1 0 0 -1 0 0 cm
44.527 -121.406 m 105.156 -121.406 l S Q
110.199 120.379 m 109.293 120.379 l 109.293 119.332 l 109.293 119.238 109.277
 119.223 109.23 119.223 c 108.715 119.973 108.449 120.27 108.184 120.426
 c 108.09 120.488 108.027 120.551 108.027 120.598 c 108.027 120.629 108.043
 120.645 108.074 120.66 c 108.543 120.66 l 108.543 123.363 l 108.543 124.113
 108.809 124.504 109.34 124.504 c 109.777 124.504 110.121 124.285 110.418
 123.816 c 110.309 123.723 l 110.105 123.957 109.965 124.035 109.762 124.035
 c 109.434 124.035 109.293 123.785 109.293 123.223 c 109.293 120.66 l 110.199
 120.66 l h
110.199 120.379 m f
114.812 124.27 m 114.328 124.191 114.281 124.129 114.266 123.488 c 114.266
 121.707 l 114.266 120.77 113.906 120.285 113.156 120.285 c 112.641 120.285
 112.266 120.504 111.844 121.035 c 111.844 118.316 l 111.797 118.285 l 111.484
 118.395 111.266 118.457 110.766 118.613 c 110.531 118.676 l 110.531 118.816
 l 110.562 118.816 110.578 118.816 110.641 118.816 c 111.016 118.816 111.094
 118.879 111.094 119.27 c 111.094 123.488 l 111.078 124.145 111.031 124.207
 110.516 124.27 c 110.516 124.41 l 112.453 124.41 l 112.453 124.27 l 111.938
 124.238 111.859 124.129 111.844 123.488 c 111.844 121.332 l 112.219 120.926
 112.484 120.77 112.844 120.77 c 113.297 120.77 113.516 121.098 113.516 
121.723 c 113.516 123.488 l 113.5 124.129 113.422 124.238 112.906 124.27
 c 112.906 124.41 l 114.812 124.41 l h
114.812 124.27 m f
118.535 122.941 m 118.113 123.613 117.723 123.879 117.145 123.879 c 116.645
 123.879 116.254 123.613 115.988 123.113 c 115.832 122.77 115.77 122.488
 115.754 121.926 c 118.504 121.926 l 118.441 121.348 118.348 121.082 118.129
 120.801 c 117.863 120.473 117.441 120.285 116.973 120.285 c 116.535 120.285
 116.113 120.441 115.77 120.754 c 115.348 121.113 115.098 121.754 115.098
 122.488 c 115.098 123.723 115.754 124.504 116.785 124.504 c 117.629 124.504
 118.301 123.973 118.676 123.004 c h
115.77 121.645 m 115.863 120.941 116.176 120.613 116.723 120.613 c 117.27
 120.613 117.473 120.863 117.598 121.645 c h
115.77 121.645 m f
118.887 124.41 m 121.043 124.41 l 121.043 124.27 l 120.434 124.254 120.293
 124.129 120.277 123.598 c 120.277 121.582 l 120.277 121.301 120.652 120.848
 120.902 120.848 c 120.949 120.848 121.043 120.895 121.137 120.988 c 121.277
 121.113 121.371 121.16 121.496 121.16 c 121.715 121.16 121.84 121.004 121.84
 120.754 c 121.84 120.457 121.652 120.285 121.355 120.285 c 120.98 120.285
 120.73 120.488 120.277 121.129 c 120.277 120.301 l 120.23 120.285 l 119.73
 120.488 119.402 120.613 118.902 120.77 c 118.902 120.91 l 119.027 120.879
 119.105 120.879 119.215 120.879 c 119.434 120.879 119.527 121.02 119.527
 121.41 c 119.527 123.66 l 119.496 124.129 119.449 124.176 118.887 124.27
 c h
118.887 124.41 m f
121.98 124.41 m 123.98 124.41 l 123.98 124.27 l 123.512 124.27 123.371 
124.176 123.371 123.816 c 123.371 121.285 l 123.371 121.27 123.434 121.176
 123.496 121.113 c 123.73 120.91 124.105 120.754 124.418 120.754 c 124.824
 120.754 125.012 121.066 125.012 121.691 c 125.012 123.645 l 124.996 124.145
 124.902 124.254 124.402 124.27 c 124.402 124.41 l 126.418 124.41 l 126.418
 124.27 l 125.918 124.27 125.793 124.129 125.762 123.551 c 125.762 121.301
 l 126.043 120.91 126.324 120.754 126.746 120.754 c 127.262 120.754 127.418
 120.988 127.418 121.738 c 127.418 123.629 l 127.402 124.16 127.34 124.223
 126.824 124.27 c 126.824 124.41 l 128.793 124.41 l 128.793 124.27 l 128.559
 124.254 l 128.277 124.207 128.168 124.082 128.168 123.723 c 128.168 121.879
 l 128.168 120.816 127.824 120.285 127.137 120.285 c 126.605 120.285 126.152
 120.52 125.668 121.035 c 125.512 120.52 125.199 120.285 124.715 120.285
 c 124.309 120.285 124.074 120.395 123.324 120.973 c 123.324 120.301 l 123.262
 120.285 l 122.793 120.457 122.48 120.551 122.012 120.691 c 122.012 120.848
 l 122.121 120.816 122.199 120.801 122.293 120.801 c 122.527 120.801 122.605
 120.941 122.605 121.379 c 122.605 123.645 l 122.59 124.145 122.48 124.27
 121.98 124.27 c h
121.98 124.41 m f
131.051 120.285 m 129.863 120.285 129.066 121.145 129.066 122.379 c 129.066
 123.598 129.895 124.504 131.02 124.504 c 132.16 124.504 133.02 123.551 
133.02 122.316 c 133.02 121.129 132.191 120.285 131.051 120.285 c h
130.926 120.535 m 131.676 120.535 132.207 121.395 132.207 122.629 c 132.207
 123.645 131.801 124.254 131.129 124.254 c 130.785 124.254 130.457 124.035
 130.27 123.676 c 130.004 123.207 129.863 122.582 129.863 121.941 c 129.863
 121.098 130.285 120.535 130.926 120.535 c h
130.926 120.535 m f
133.379 124.41 m 135.379 124.41 l 135.379 124.27 l 134.91 124.27 134.77
 124.176 134.77 123.816 c 134.77 121.285 l 134.77 121.27 134.832 121.176
 134.895 121.113 c 135.129 120.91 135.504 120.754 135.816 120.754 c 136.223
 120.754 136.41 121.066 136.41 121.691 c 136.41 123.645 l 136.395 124.145
 136.301 124.254 135.801 124.27 c 135.801 124.41 l 137.816 124.41 l 137.816
 124.27 l 137.316 124.27 137.191 124.129 137.16 123.551 c 137.16 121.301
 l 137.441 120.91 137.723 120.754 138.145 120.754 c 138.66 120.754 138.816
 120.988 138.816 121.738 c 138.816 123.629 l 138.801 124.16 138.738 124.223
 138.223 124.27 c 138.223 124.41 l 140.191 124.41 l 140.191 124.27 l 139.957
 124.254 l 139.676 124.207 139.566 124.082 139.566 123.723 c 139.566 121.879
 l 139.566 120.816 139.223 120.285 138.535 120.285 c 138.004 120.285 137.551
 120.52 137.066 121.035 c 136.91 120.52 136.598 120.285 136.113 120.285 
c 135.707 120.285 135.473 120.395 134.723 120.973 c 134.723 120.301 l 134.66
 120.285 l 134.191 120.457 133.879 120.551 133.41 120.691 c 133.41 120.848
 l 133.52 120.816 133.598 120.801 133.691 120.801 c 133.926 120.801 134.004
 120.941 134.004 121.379 c 134.004 123.645 l 133.988 124.145 133.879 124.27
 133.379 124.27 c h
133.379 124.41 m f
143.855 122.941 m 143.434 123.613 143.043 123.879 142.465 123.879 c 141.965
 123.879 141.574 123.613 141.309 123.113 c 141.152 122.77 141.09 122.488
 141.074 121.926 c 143.824 121.926 l 143.762 121.348 143.668 121.082 143.449
 120.801 c 143.184 120.473 142.762 120.285 142.293 120.285 c 141.855 120.285
 141.434 120.441 141.09 120.754 c 140.668 121.113 140.418 121.754 140.418
 122.488 c 140.418 123.723 141.074 124.504 142.105 124.504 c 142.949 124.504
 143.621 123.973 143.996 123.004 c h
141.09 121.645 m 141.184 120.941 141.496 120.613 142.043 120.613 c 142.59
 120.613 142.793 120.863 142.918 121.645 c h
141.09 121.645 m f
146.441 120.379 m 145.535 120.379 l 145.535 119.332 l 145.535 119.238 145.52
 119.223 145.473 119.223 c 144.957 119.973 144.691 120.27 144.426 120.426
 c 144.332 120.488 144.27 120.551 144.27 120.598 c 144.27 120.629 144.285
 120.645 144.316 120.66 c 144.785 120.66 l 144.785 123.363 l 144.785 124.113
 145.051 124.504 145.582 124.504 c 146.02 124.504 146.363 124.285 146.66
 123.816 c 146.551 123.723 l 146.348 123.957 146.207 124.035 146.004 124.035
 c 145.676 124.035 145.535 123.785 145.535 123.223 c 145.535 120.66 l 146.441
 120.66 l h
146.441 120.379 m f
150.336 122.941 m 149.914 123.613 149.523 123.879 148.945 123.879 c 148.445
 123.879 148.055 123.613 147.789 123.113 c 147.633 122.77 147.57 122.488
 147.555 121.926 c 150.305 121.926 l 150.242 121.348 150.148 121.082 149.93
 120.801 c 149.664 120.473 149.242 120.285 148.773 120.285 c 148.336 120.285
 147.914 120.441 147.57 120.754 c 147.148 121.113 146.898 121.754 146.898
 122.488 c 146.898 123.723 147.555 124.504 148.586 124.504 c 149.43 124.504
 150.102 123.973 150.477 123.004 c h
147.57 121.645 m 147.664 120.941 147.977 120.613 148.523 120.613 c 149.07
 120.613 149.273 120.863 149.398 121.645 c h
147.57 121.645 m f
150.688 124.41 m 152.844 124.41 l 152.844 124.27 l 152.234 124.254 152.094
 124.129 152.078 123.598 c 152.078 121.582 l 152.078 121.301 152.453 120.848
 152.703 120.848 c 152.75 120.848 152.844 120.895 152.938 120.988 c 153.078
 121.113 153.172 121.16 153.297 121.16 c 153.516 121.16 153.641 121.004 
153.641 120.754 c 153.641 120.457 153.453 120.285 153.156 120.285 c 152.781
 120.285 152.531 120.488 152.078 121.129 c 152.078 120.301 l 152.031 120.285
 l 151.531 120.488 151.203 120.613 150.703 120.77 c 150.703 120.91 l 150.828
 120.879 150.906 120.879 151.016 120.879 c 151.234 120.879 151.328 121.02
 151.328 121.41 c 151.328 123.66 l 151.297 124.129 151.25 124.176 150.688
 124.27 c h
150.688 124.41 m f
157.414 118.301 m 157.367 118.285 l 156.992 118.41 156.758 118.488 156.32
 118.613 c 156.07 118.676 l 156.07 118.816 l 156.117 118.816 156.148 118.816
 156.211 118.816 c 156.57 118.816 156.664 118.895 156.664 119.27 c 156.664
 123.926 l 156.664 124.207 157.414 124.504 158.133 124.504 c 159.32 124.504
 160.242 123.52 160.242 122.238 c 160.242 121.113 159.555 120.285 158.664
 120.285 c 158.117 120.285 157.586 120.598 157.414 121.051 c h
157.414 121.52 m 157.414 121.176 157.836 120.848 158.305 120.848 c 158.555
 120.848 158.773 120.941 158.961 121.113 c 159.242 121.395 159.445 122.004
 159.445 122.645 c 159.445 123.645 159.023 124.207 158.289 124.207 c 157.82
 124.207 157.414 124.02 157.414 123.785 c h
157.414 121.52 m f
164.656 123.957 m 164.609 123.957 l 164.172 123.941 164.109 123.879 164.094
 123.457 c 164.094 120.379 l 162.688 120.379 l 162.688 120.52 l 163.234 
120.551 163.344 120.645 163.344 121.098 c 163.344 123.207 l 163.344 123.457
 163.297 123.582 163.172 123.676 c 162.938 123.879 162.656 123.973 162.391
 123.973 c 162.031 123.973 161.75 123.676 161.75 123.301 c 161.75 120.379
 l 160.438 120.379 l 160.438 120.504 l 160.859 120.52 160.984 120.645 161
 121.066 c 161 123.332 l 161 124.035 161.422 124.504 162.078 124.504 c 162.406
 124.504 162.766 124.363 163 124.113 c 163.391 123.723 l 163.391 124.473
 l 163.422 124.488 l 163.875 124.316 164.203 124.207 164.656 124.082 c h
164.656 123.957 m f
164.988 124.41 m 167.113 124.41 l 167.113 124.27 l 166.535 124.254 166.441
 124.16 166.426 123.66 c 166.426 118.301 l 166.395 118.285 l 165.941 118.426
 165.613 118.52 164.973 118.676 c 164.973 118.816 l 165.02 118.816 l 165.129
 118.816 165.238 118.801 165.301 118.801 c 165.598 118.801 165.676 118.926
 165.676 119.348 c 165.676 123.629 l 165.676 124.113 165.551 124.238 164.988
 124.27 c h
164.988 124.41 m f
168.695 118.301 m 168.648 118.285 l 168.273 118.41 168.039 118.488 167.602
 118.613 c 167.352 118.676 l 167.352 118.816 l 167.398 118.816 167.43 118.816
 167.492 118.816 c 167.852 118.816 167.945 118.895 167.945 119.27 c 167.945
 123.926 l 167.945 124.207 168.695 124.504 169.414 124.504 c 170.602 124.504
 171.523 123.52 171.523 122.238 c 171.523 121.113 170.836 120.285 169.945
 120.285 c 169.398 120.285 168.867 120.598 168.695 121.051 c h
168.695 121.52 m 168.695 121.176 169.117 120.848 169.586 120.848 c 169.836
 120.848 170.055 120.941 170.242 121.113 c 170.523 121.395 170.727 122.004
 170.727 122.645 c 170.727 123.645 170.305 124.207 169.57 124.207 c 169.102
 124.207 168.695 124.02 168.695 123.785 c h
168.695 121.52 m f
Q Q
showpage
%%Trailer
end
%%EOF
