<?xml version="1.0" encoding="UTF-8" standalone="no"?>
<svg
   xmlns:dc="http://purl.org/dc/elements/1.1/"
   xmlns:cc="http://creativecommons.org/ns#"
   xmlns:rdf="http://www.w3.org/1999/02/22-rdf-syntax-ns#"
   xmlns:svg="http://www.w3.org/2000/svg"
   xmlns="http://www.w3.org/2000/svg"
   xmlns:xlink="http://www.w3.org/1999/xlink"
   xmlns:sodipodi="http://sodipodi.sourceforge.net/DTD/sodipodi-0.dtd"
   xmlns:inkscape="http://www.inkscape.org/namespaces/inkscape"
   width="268pt"
   height="88pt"
   viewBox="0 0 268 88"
   version="1.2"
   id="svg9135"
   sodipodi:docname="c2_fig..example_paths_of_closed_ideal_gas_system_in_p-v_space.svg"
   inkscape:version="0.92.4 (5da689c313, 2019-01-14)">
  <title
     id="title9684">example paths of closed ideal gas system in p-V space</title>
  <metadata
     id="metadata9139">
    <rdf:RDF>
      <cc:Work
         rdf:about="">
        <dc:format>image/svg+xml</dc:format>
        <dc:type
           rdf:resource="http://purl.org/dc/dcmitype/StillImage" />
        <dc:title>example paths of closed ideal gas system in p-V space</dc:title>
        <cc:license
           rdf:resource="http://creativecommons.org/licenses/by-sa/4.0/" />
        <dc:date>2021-04-12</dc:date>
        <dc:creator>
          <cc:Agent>
            <dc:title>Sandoval, Steven Baltakatei</dc:title>
          </cc:Agent>
        </dc:creator>
        <dc:rights>
          <cc:Agent>
            <dc:title>This work &quot;example paths of closed ideal gas system in p-V space&quot; is a derivative of &quot;02-SUP/3-PATHS.eps&quot; by Howard DeVoe, used under CC BY 4.0. &quot;example paths of closed ideal gas system in p-V space&quot; is licensed under CC BY-SA 4.0 by Steven Baltakatei Sandoval.</dc:title>
          </cc:Agent>
        </dc:rights>
        <dc:source>https://gitlab.com/baltakatei/bk-2021-07-1</dc:source>
        <dc:relation>Thermodynamics and Chemistry 2nd Edition, Version 10, by Howard DeVoe, http://www2.chem.umd.edu/thermobook/</dc:relation>
        <dc:language>en</dc:language>
        <dc:description>Paths of three processes of a closed ideal-gas system with p and V as
the independent variables. (a) Isothermal expansion. (b) Isobaric
expansion. (c) Isochoric pressure reduction.</dc:description>
      </cc:Work>
      <cc:License
         rdf:about="http://creativecommons.org/licenses/by-sa/4.0/">
        <cc:permits
           rdf:resource="http://creativecommons.org/ns#Reproduction" />
        <cc:permits
           rdf:resource="http://creativecommons.org/ns#Distribution" />
        <cc:requires
           rdf:resource="http://creativecommons.org/ns#Notice" />
        <cc:requires
           rdf:resource="http://creativecommons.org/ns#Attribution" />
        <cc:permits
           rdf:resource="http://creativecommons.org/ns#DerivativeWorks" />
        <cc:requires
           rdf:resource="http://creativecommons.org/ns#ShareAlike" />
      </cc:License>
    </rdf:RDF>
  </metadata>
  <sodipodi:namedview
     pagecolor="#ffffff"
     bordercolor="#666666"
     borderopacity="1"
     objecttolerance="10"
     gridtolerance="10"
     guidetolerance="10"
     inkscape:pageopacity="0"
     inkscape:pageshadow="2"
     inkscape:window-width="1920"
     inkscape:window-height="1016"
     id="namedview9137"
     showgrid="false"
     inkscape:zoom="1.7878788"
     inkscape:cx="200.0412"
     inkscape:cy="109.23932"
     inkscape:window-x="0"
     inkscape:window-y="27"
     inkscape:window-maximized="1"
     inkscape:current-layer="svg9135" />
  <defs
     id="defs9030">
    <g
       id="g9028">
      <symbol
         overflow="visible"
         id="glyph0-0"
         style="overflow:visible">
        <path
           style="stroke:none"
           d=""
           id="path9001"
           inkscape:connector-curvature="0" />
      </symbol>
      <symbol
         overflow="visible"
         id="glyph0-1"
         style="overflow:visible">
        <path
           style="stroke:none"
           d="M 6.53125,-5.5 V -5.75 H 4.734375 v 0.25 c 0.21875,0 0.5,0.03125 0.5,0.234375 0,0.1875 -0.21875,0.53125 -0.328125,0.671875 l -2.265625,3.171875 -0.15625,-3.5 C 2.46875,-5.421875 2.75,-5.5 3.25,-5.5 V -5.75 H 0.875 v 0.25 c 0.609375,0 0.640625,0.234375 0.71875,0.875 l 0.203125,4.75 h 0.21875 l 3.5625,-4.984375 C 5.734375,-5.0625 6.09375,-5.5 6.53125,-5.5 Z m 0,0"
           id="path9004"
           inkscape:connector-curvature="0" />
      </symbol>
      <symbol
         overflow="visible"
         id="glyph0-2"
         style="overflow:visible">
        <path
           style="stroke:none"
           d="m 5.3125,-2.75 c 0,-0.65625 -0.328125,-1.140625 -1.03125,-1.140625 -0.484375,0 -0.90625,0.265625 -1.265625,0.671875 l 0.25,-0.6875 c 0,0 -1.28125,0.203125 -1.5625,0.234375 V -3.4375 c 0.34375,0 0.578125,-0.046875 0.578125,0.234375 0,0.15625 -0.109375,0.5 -0.171875,0.671875 L 1.078125,0.765625 C 0.984375,1.046875 0.84375,1.25 0.390625,1.25 L 0.359375,1.484375 H 2.375 L 2.421875,1.25 c -0.34375,0 -0.625,0.015625 -0.625,-0.1875 0,-0.0625 0,-0.140625 0.046875,-0.28125 L 2.140625,-0.0625 c 0.171875,0.109375 0.375,0.171875 0.578125,0.171875 1.09375,0 2.59375,-1.5 2.59375,-2.859375 z m -0.84375,0.078125 c 0,1.046875 -0.96875,2.5 -1.75,2.5 -0.171875,0 -0.34375,-0.0625 -0.5,-0.171875 0.34375,-1.109375 0.71875,-3.078125 1.8125,-3.078125 0.4375,0 0.4375,0.578125 0.4375,0.75 z m 0,0"
           id="path9007"
           inkscape:connector-curvature="0" />
      </symbol>
      <symbol
         overflow="visible"
         id="glyph1-0"
         style="overflow:visible">
        <path
           style="stroke:none"
           d=""
           id="path9010"
           inkscape:connector-curvature="0" />
      </symbol>
      <symbol
         overflow="visible"
         id="glyph1-1"
         style="overflow:visible">
        <path
           style="stroke:none"
           d="M 2.34375,-5.390625 C 1.765625,-5 1.515625,-4.796875 1.234375,-4.4375 0.65625,-3.734375 0.375,-2.9375 0.375,-2.015625 c 0,1.03125 0.296875,1.796875 1,2.609375 0.328125,0.390625 0.53125,0.5625 0.953125,0.8125 l 0.09375,-0.125 C 1.78125,0.78125 1.5625,0.5 1.34375,-0.09375 1.15625,-0.625 1.0625,-1.234375 1.0625,-2.03125 c 0,-0.84375 0.109375,-1.5 0.328125,-1.984375 0.21875,-0.5 0.453125,-0.78125 1.03125,-1.25 z m 0,0"
           id="path9013"
           inkscape:connector-curvature="0" />
      </symbol>
      <symbol
         overflow="visible"
         id="glyph1-2"
         style="overflow:visible">
        <path
           style="stroke:none"
           d="m 3.515625,-0.53125 c -0.125,0.109375 -0.21875,0.15625 -0.34375,0.15625 -0.1875,0 -0.234375,-0.109375 -0.234375,-0.46875 V -2.390625 C 2.9375,-2.8125 2.890625,-3.03125 2.765625,-3.234375 2.59375,-3.515625 2.25,-3.671875 1.78125,-3.671875 c -0.75,0 -1.328125,0.390625 -1.328125,0.90625 0,0.171875 0.140625,0.328125 0.328125,0.328125 0.203125,0 0.359375,-0.15625 0.359375,-0.328125 0,-0.03125 0,-0.078125 -0.015625,-0.125 -0.015625,-0.078125 -0.015625,-0.140625 -0.015625,-0.1875 0,-0.21875 0.25,-0.390625 0.578125,-0.390625 0.390625,0 0.59375,0.21875 0.59375,0.65625 v 0.484375 c -1.21875,0.484375 -1.359375,0.5625 -1.703125,0.859375 -0.171875,0.15625 -0.28125,0.4375 -0.28125,0.703125 0,0.5 0.34375,0.84375 0.828125,0.84375 0.359375,0 0.6875,-0.171875 1.171875,-0.578125 0.03125,0.421875 0.1875,0.578125 0.515625,0.578125 0.265625,0 0.4375,-0.09375 0.703125,-0.390625 z M 2.28125,-0.984375 c 0,0.25 -0.03125,0.328125 -0.203125,0.421875 C 1.875,-0.453125 1.671875,-0.375 1.5,-0.375 1.21875,-0.375 1,-0.65625 1,-1 V -1.03125 C 1,-1.5 1.359375,-1.8125 2.28125,-2.140625 Z m 0,0"
           id="path9016"
           inkscape:connector-curvature="0" />
      </symbol>
      <symbol
         overflow="visible"
         id="glyph1-3"
         style="overflow:visible">
        <path
           style="stroke:none"
           d="m 0.296875,1.40625 c 0.59375,-0.390625 0.828125,-0.578125 1.125,-0.953125 0.5625,-0.6875 0.84375,-1.484375 0.84375,-2.421875 0,-1.015625 -0.296875,-1.796875 -0.984375,-2.609375 -0.328125,-0.375 -0.546875,-0.546875 -0.953125,-0.8125 l -0.09375,0.125 C 0.875,-4.75 1.078125,-4.484375 1.3125,-3.875 1.5,-3.34375 1.578125,-2.75 1.578125,-1.9375 c 0,0.828125 -0.09375,1.484375 -0.3125,1.96875 -0.21875,0.5 -0.453125,0.796875 -1.03125,1.25 z m 0,0"
           id="path9019"
           inkscape:connector-curvature="0" />
      </symbol>
      <symbol
         overflow="visible"
         id="glyph1-4"
         style="overflow:visible">
        <path
           style="stroke:none"
           d="M 1.21875,-5.421875 1.171875,-5.4375 C 0.859375,-5.328125 0.640625,-5.265625 0.25,-5.15625 l -0.21875,0.0625 v 0.125 c 0.046875,0 0.0625,0 0.125,0 0.328125,0 0.390625,0.0625 0.390625,0.40625 v 4.125 c 0,0.25 0.671875,0.515625 1.3125,0.515625 1.0625,0 1.875,-0.875 1.875,-2.015625 0,-0.984375 -0.609375,-1.734375 -1.40625,-1.734375 -0.484375,0 -0.953125,0.28125 -1.109375,0.6875 z m 0,2.859375 c 0,-0.3125 0.375,-0.59375 0.796875,-0.59375 0.21875,0 0.421875,0.078125 0.578125,0.21875 0.265625,0.25 0.4375,0.796875 0.4375,1.375 0,0.875 -0.390625,1.390625 -1.046875,1.390625 -0.40625,0 -0.765625,-0.171875 -0.765625,-0.390625 z m 0,0"
           id="path9022"
           inkscape:connector-curvature="0" />
      </symbol>
      <symbol
         overflow="visible"
         id="glyph1-5"
         style="overflow:visible">
        <path
           style="stroke:none"
           d="M 3.171875,-1.25 C 2.78125,-0.6875 2.5,-0.5 2.046875,-0.5 1.3125,-0.5 0.8125,-1.125 0.8125,-2.046875 0.8125,-2.875 1.25,-3.4375 1.890625,-3.4375 c 0.296875,0 0.390625,0.078125 0.46875,0.390625 l 0.0625,0.171875 c 0.0625,0.234375 0.203125,0.359375 0.375,0.359375 0.203125,0 0.375,-0.140625 0.375,-0.328125 0,-0.453125 -0.5625,-0.828125 -1.234375,-0.828125 -0.390625,0 -0.796875,0.171875 -1.109375,0.453125 -0.40625,0.34375 -0.625,0.890625 -0.625,1.53125 0,1.03125 0.625,1.765625 1.515625,1.765625 0.359375,0 0.671875,-0.125 0.953125,-0.375 0.21875,-0.1875 0.375,-0.40625 0.609375,-0.875 z m 0,0"
           id="path9025"
           inkscape:connector-curvature="0" />
      </symbol>
    </g>
  </defs>
  <g
     id="surface666072"
     transform="translate(-136.95843,-123.89617)">
    <path
       style="fill:#000000;fill-opacity:1;fill-rule:nonzero;stroke:none"
       d="m 149.99219,128.42578 -1.3125,-3.67969 -1.3125,3.67969 1.3125,-1.47265"
       id="path9032"
       inkscape:connector-curvature="0" />
    <path
       style="fill:#000000;fill-opacity:1;fill-rule:nonzero;stroke:none"
       d="m 201.69141,182.75391 3.67968,-1.3125 -3.67968,-1.31641 1.47265,1.31641"
       id="path9034"
       inkscape:connector-curvature="0" />
    <path
       style="fill:none;stroke:#000000;stroke-width:5.67043018;stroke-linecap:butt;stroke-linejoin:miter;stroke-miterlimit:10;stroke-opacity:1"
       d="m 1486.7969,6650.4687 v -544.8828 h 544.8437"
       transform="matrix(0.1,0,0,-0.1,0,792)"
       id="path9036"
       inkscape:connector-curvature="0" />
    <path
       style="fill:#000000;fill-opacity:1;fill-rule:nonzero;stroke:none"
       d="m 161.10937,139.52734 c 0.33204,0.96094 1.38672,1.47266 2.35157,1.13672 0.96093,-0.33203 1.47265,-1.38672 1.13672,-2.34765 -0.33204,-0.96485 -1.38672,-1.47657 -2.35157,-1.14063 -0.96093,0.33594 -1.47265,1.38672 -1.13672,2.35156"
       id="path9038"
       inkscape:connector-curvature="0" />
    <path
       style="fill:#000000;fill-opacity:1;fill-rule:nonzero;stroke:none"
       d="m 191.78906,165.51562 c -0.96484,-0.32421 -2.01172,0.19532 -2.33984,1.16016 -0.32422,0.96484 0.19531,2.01563 1.16015,2.33984 0.96485,0.32813 2.01172,-0.1914 2.33985,-1.15625 0.32422,-0.96875 -0.19141,-2.01562 -1.16016,-2.34375"
       id="path9040"
       inkscape:connector-curvature="0" />
    <path
       style="fill:none;stroke:#000000;stroke-width:8.50360966;stroke-linecap:butt;stroke-linejoin:miter;stroke-miterlimit:10;stroke-opacity:1"
       d="m 1633.9063,6515.3516 0.4296,-1.25 5.7813,-15.3907 5.7812,-14.2968 5.7813,-13.2813 5.7812,-12.4219 5.7813,-11.5625 5.7812,-10.8203 5.7813,-10.1953 5.7812,-9.5703 5.7813,-9.0234 5.8203,-8.4766 5.7813,-8.0469 5.7812,-7.6172 5.7813,-7.2265 5.7812,-6.836 5.7813,-6.5234 5.7812,-6.2109 5.7813,-5.8985 5.7812,-5.625 5.7813,-5.3906 5.8203,-5.1563 5.7422,-4.8828 5.8203,-4.7265 5.7812,-4.5313 5.7813,-4.3359 5.7812,-4.1797 5.7813,-3.9844 5.7812,-3.8672 5.7813,-3.7109 5.7812,-3.5547 5.7813,-3.4766 5.7812,-3.3203 5.8203,-3.2031 5.7813,-3.0859 5.7812,-3.0078 5.7813,-2.8907 5.7812,-2.7734 5.7813,-2.7344 5.7812,-2.6172 5.7813,-2.539 5.7812,-2.461 5.7813,-2.3828 5.8203,-2.3437 5.7812,-2.2266 5.7813,-2.1875 5.7812,-2.1484 5.7813,-2.0703 5.7812,-1.9922 -9.6875,3.2812"
       transform="matrix(0.1,0,0,-0.1,0,792)"
       id="path9042"
       inkscape:connector-curvature="0" />
    <path
       style="fill:#000000;fill-opacity:1;fill-rule:nonzero;stroke:none"
       d="m 170.87891,158.27344 6.14843,1.90625 -3.55078,-5.36719 0.64063,3.18359"
       id="path9044"
       inkscape:connector-curvature="0" />
    <g
       style="fill:#000000;fill-opacity:1"
       id="g9048">
      <use
         xlink:href="#glyph0-1"
         x="173.427"
         y="192.24001"
         id="use9046"
         width="100%"
         height="100%" />
    </g>
    <g
       style="fill:#000000;fill-opacity:1"
       id="g9052">
      <use
         xlink:href="#glyph0-2"
         x="137.7606"
         y="154.2935"
         id="use9050"
         width="100%"
         height="100%" />
    </g>
    <g
       style="fill:#000000;fill-opacity:1"
       id="g9056">
      <use
         xlink:href="#glyph1-1"
         x="172.58681"
         y="209.64"
         id="use9054"
         width="100%"
         height="100%" />
    </g>
    <g
       style="fill:#000000;fill-opacity:1"
       id="g9060">
      <use
         xlink:href="#glyph1-2"
         x="175.22679"
         y="209.64"
         id="use9058"
         width="100%"
         height="100%" />
    </g>
    <g
       style="fill:#000000;fill-opacity:1"
       id="g9064">
      <use
         xlink:href="#glyph1-3"
         x="178.70679"
         y="209.64"
         id="use9062"
         width="100%"
         height="100%" />
    </g>
    <path
       style="fill:#000000;fill-opacity:1;fill-rule:nonzero;stroke:none"
       d="m 249.20703,128.42578 -1.3125,-3.67969 -1.31641,3.67969 1.31641,-1.47265"
       id="path9066"
       inkscape:connector-curvature="0" />
    <path
       style="fill:#000000;fill-opacity:1;fill-rule:nonzero;stroke:none"
       d="m 300.90625,182.75391 3.67969,-1.3125 -3.67969,-1.31641 1.47266,1.31641"
       id="path9068"
       inkscape:connector-curvature="0" />
    <path
       style="fill:none;stroke:#000000;stroke-width:5.67043018;stroke-linecap:butt;stroke-linejoin:miter;stroke-miterlimit:10;stroke-opacity:1"
       d="m 2478.9453,6650.4687 v -544.8828 h 544.8438"
       transform="matrix(0.1,0,0,-0.1,0,792)"
       id="path9070"
       inkscape:connector-curvature="0" />
    <path
       style="fill:#000000;fill-opacity:1;fill-rule:nonzero;stroke:none"
       d="m 262.06641,140.76562 c 1.01953,0 1.84765,-0.82421 1.84765,-1.84375 0,-1.01953 -0.82812,-1.84765 -1.84765,-1.84765 -1.01954,0 -1.84766,0.82812 -1.84766,1.84765 0,1.01954 0.82812,1.84375 1.84766,1.84375"
       id="path9072"
       inkscape:connector-curvature="0" />
    <path
       style="fill:#000000;fill-opacity:1;fill-rule:nonzero;stroke:none"
       d="m 290.41016,137.07422 c -1.01563,0 -1.84375,0.82812 -1.84375,1.84765 0,1.01954 0.82812,1.84375 1.84375,1.84375 1.02343,0 1.84765,-0.82421 1.84765,-1.84375 0,-1.01953 -0.82422,-1.84765 -1.84765,-1.84765"
       id="path9074"
       inkscape:connector-curvature="0" />
    <path
       style="fill:none;stroke:#000000;stroke-width:8.50360966;stroke-linecap:butt;stroke-linejoin:miter;stroke-miterlimit:10;stroke-opacity:1"
       d="m 2636.9922,6530.7812 h 250.7812"
       transform="matrix(0.1,0,0,-0.1,0,792)"
       id="path9076"
       inkscape:connector-curvature="0" />
    <path
       style="fill:#000000;fill-opacity:1;fill-rule:nonzero;stroke:none"
       d="m 275.84766,141.08594 6.05859,-2.16407 -6.05859,-2.16406 2.42187,2.16406"
       id="path9078"
       inkscape:connector-curvature="0" />
    <g
       style="fill:#000000;fill-opacity:1"
       id="g9082">
      <use
         xlink:href="#glyph0-1"
         x="272.63901"
         y="192.24001"
         id="use9080"
         width="100%"
         height="100%" />
    </g>
    <g
       style="fill:#000000;fill-opacity:1"
       id="g9086">
      <use
         xlink:href="#glyph0-2"
         x="236.9726"
         y="154.2935"
         id="use9084"
         width="100%"
         height="100%" />
    </g>
    <g
       style="fill:#000000;fill-opacity:1"
       id="g9090">
      <use
         xlink:href="#glyph1-1"
         x="271.5589"
         y="209.64"
         id="use9088"
         width="100%"
         height="100%" />
    </g>
    <g
       style="fill:#000000;fill-opacity:1"
       id="g9094">
      <use
         xlink:href="#glyph1-4"
         x="274.19888"
         y="209.64"
         id="use9092"
         width="100%"
         height="100%" />
    </g>
    <g
       style="fill:#000000;fill-opacity:1"
       id="g9098">
      <use
         xlink:href="#glyph1-3"
         x="278.15891"
         y="209.64"
         id="use9096"
         width="100%"
         height="100%" />
    </g>
    <path
       style="fill:#000000;fill-opacity:1;fill-rule:nonzero;stroke:none"
       d="m 348.41797,128.42578 -1.3125,-3.67969 -1.31641,3.67969 1.31641,-1.47265"
       id="path9100"
       inkscape:connector-curvature="0" />
    <path
       style="fill:#000000;fill-opacity:1;fill-rule:nonzero;stroke:none"
       d="m 400.11719,182.75391 3.67968,-1.3125 -3.67968,-1.31641 1.47265,1.31641"
       id="path9102"
       inkscape:connector-curvature="0" />
    <path
       style="fill:none;stroke:#000000;stroke-width:5.67043018;stroke-linecap:butt;stroke-linejoin:miter;stroke-miterlimit:10;stroke-opacity:1"
       d="m 3471.0547,6650.4687 v -544.8828 h 544.8437"
       transform="matrix(0.1,0,0,-0.1,0,792)"
       id="path9104"
       inkscape:connector-curvature="0" />
    <path
       style="fill:#000000;fill-opacity:1;fill-rule:nonzero;stroke:none"
       d="m 359.43359,138.92187 c 0,1.01954 0.82422,1.84375 1.84375,1.84375 1.01953,0 1.84766,-0.82421 1.84766,-1.84375 0,-1.01953 -0.82813,-1.84765 -1.84766,-1.84765 -1.01953,0 -1.84375,0.82812 -1.84375,1.84765"
       id="path9106"
       inkscape:connector-curvature="0" />
    <path
       style="fill:#000000;fill-opacity:1;fill-rule:nonzero;stroke:none"
       d="m 363.125,167.26562 c 0,-1.01953 -0.82813,-1.84375 -1.84766,-1.84375 -1.01953,0 -1.84375,0.82422 -1.84375,1.84375 0,1.01954 0.82422,1.84766 1.84375,1.84766 1.01953,0 1.84766,-0.82812 1.84766,-1.84766"
       id="path9108"
       inkscape:connector-curvature="0" />
    <path
       style="fill:none;stroke:#000000;stroke-width:8.50360966;stroke-linecap:butt;stroke-linejoin:miter;stroke-miterlimit:10;stroke-opacity:1"
       d="M 3612.7734,6514.4531 V 6263.6719"
       transform="matrix(0.1,0,0,-0.1,0,792)"
       id="path9110"
       inkscape:connector-curvature="0" />
    <path
       style="fill:#000000;fill-opacity:1;fill-rule:nonzero;stroke:none"
       d="m 359.11328,152.70312 2.16406,6.0586 2.16407,-6.0586 -2.16407,2.42188"
       id="path9112"
       inkscape:connector-curvature="0" />
    <g
       style="fill:#000000;fill-opacity:1"
       id="g9116">
      <use
         xlink:href="#glyph0-1"
         x="371.85199"
         y="192.24001"
         id="use9114"
         width="100%"
         height="100%" />
    </g>
    <g
       style="fill:#000000;fill-opacity:1"
       id="g9120">
      <use
         xlink:href="#glyph0-2"
         x="336.18561"
         y="154.2935"
         id="use9118"
         width="100%"
         height="100%" />
    </g>
    <g
       style="fill:#000000;fill-opacity:1"
       id="g9124">
      <use
         xlink:href="#glyph1-1"
         x="371.01221"
         y="209.64"
         id="use9122"
         width="100%"
         height="100%" />
    </g>
    <g
       style="fill:#000000;fill-opacity:1"
       id="g9128">
      <use
         xlink:href="#glyph1-5"
         x="373.65219"
         y="209.64"
         id="use9126"
         width="100%"
         height="100%" />
    </g>
    <g
       style="fill:#000000;fill-opacity:1"
       id="g9132">
      <use
         xlink:href="#glyph1-3"
         x="377.1322"
         y="209.64"
         id="use9130"
         width="100%"
         height="100%" />
    </g>
  </g>
</svg>
