%!PS-Adobe-3.0 EPSF-3.0
%%Creator: cairo 1.16.0 (https://cairographics.org)
%%CreationDate: Sun Apr 11 21:59:56 2021
%%Pages: 1
%%DocumentData: Clean7Bit
%%LanguageLevel: 2
%%BoundingBox: 1 2 93 49
%%EndComments
%%BeginProlog
50 dict begin
/q { gsave } bind def
/Q { grestore } bind def
/cm { 6 array astore concat } bind def
/w { setlinewidth } bind def
/J { setlinecap } bind def
/j { setlinejoin } bind def
/M { setmiterlimit } bind def
/d { setdash } bind def
/m { moveto } bind def
/l { lineto } bind def
/c { curveto } bind def
/h { closepath } bind def
/re { exch dup neg 3 1 roll 5 3 roll moveto 0 rlineto
      0 exch rlineto 0 rlineto closepath } bind def
/S { stroke } bind def
/f { fill } bind def
/f* { eofill } bind def
/n { newpath } bind def
/W { clip } bind def
/W* { eoclip } bind def
/BT { } bind def
/ET { } bind def
/BDC { mark 3 1 roll /BDC pdfmark } bind def
/EMC { mark /EMC pdfmark } bind def
/cairo_store_point { /cairo_point_y exch def /cairo_point_x exch def } def
/Tj { show currentpoint cairo_store_point } bind def
/TJ {
  {
    dup
    type /stringtype eq
    { show } { -0.001 mul 0 cairo_font_matrix dtransform rmoveto } ifelse
  } forall
  currentpoint cairo_store_point
} bind def
/cairo_selectfont { cairo_font_matrix aload pop pop pop 0 0 6 array astore
    cairo_font exch selectfont cairo_point_x cairo_point_y moveto } bind def
/Tf { pop /cairo_font exch def /cairo_font_matrix where
      { pop cairo_selectfont } if } bind def
/Td { matrix translate cairo_font_matrix matrix concatmatrix dup
      /cairo_font_matrix exch def dup 4 get exch 5 get cairo_store_point
      /cairo_font where { pop cairo_selectfont } if } bind def
/Tm { 2 copy 8 2 roll 6 array astore /cairo_font_matrix exch def
      cairo_store_point /cairo_font where { pop cairo_selectfont } if } bind def
/g { setgray } bind def
/rg { setrgbcolor } bind def
/d1 { setcachedevice } bind def
/cairo_data_source {
  CairoDataIndex CairoData length lt
    { CairoData CairoDataIndex get /CairoDataIndex CairoDataIndex 1 add def }
    { () } ifelse
} def
/cairo_flush_ascii85_file { cairo_ascii85_file status { cairo_ascii85_file flushfile } if } def
/cairo_image { image cairo_flush_ascii85_file } def
/cairo_imagemask { imagemask cairo_flush_ascii85_file } def
%%EndProlog
%%BeginSetup
%%EndSetup
%%Page: 1 1
%%BeginPageSetup
%%PageBoundingBox: 1 2 93 49
%%EndPageSetup
q 1 2 92 47 rectclip
1 0 0 -1 0 51 cm q
0 g
0.850361 w
0 J
0 j
[] 0.0 d
10 M q 1 0 0 -1 0 0 cm
4.73 -40.84 m 4.73 -33.754 l 75.598 -33.754 l 75.598 -47.926 l 4.73 -47.926
 l h
4.73 -40.84 m S Q
80.438 39.242 m 75.965 40.84 l 80.438 42.438 l 78.648 40.84 l f
q 1 0 0 -1 0 0 cm
78.648 -40.84 m 92.605 -40.84 l S Q
q 1 0 0 -1 0 0 cm
18.902 -9.66 m 18.902 -2.574 l 89.77 -2.574 l 89.77 -16.746 l 18.902 -16.746
 l h
18.902 -9.66 m S Q
14.004 11.258 m 18.477 9.66 l 14.004 8.062 l 15.793 9.66 l f
q 1 0 0 -1 0 0 cm
1.895 -9.66 m 15.793 -9.66 l S Q
0.74902 g
40.164 33.754 m 18.902 33.754 l 33.078 16.746 l 75.598 16.746 l 61.422 
33.754 l f
0 g
q 1 0 0 -1 0 0 cm
40.164 -33.754 m 18.902 -33.754 l 33.078 -16.746 l 75.598 -16.746 l 61.422
 -33.754 l h
40.164 -33.754 m S Q
Q Q
showpage
%%Trailer
end
%%EOF
