<?xml version="1.0" encoding="UTF-8" standalone="no"?>
<svg
   xmlns:dc="http://purl.org/dc/elements/1.1/"
   xmlns:cc="http://creativecommons.org/ns#"
   xmlns:rdf="http://www.w3.org/1999/02/22-rdf-syntax-ns#"
   xmlns:svg="http://www.w3.org/2000/svg"
   xmlns="http://www.w3.org/2000/svg"
   xmlns:xlink="http://www.w3.org/1999/xlink"
   xmlns:sodipodi="http://sodipodi.sourceforge.net/DTD/sodipodi-0.dtd"
   xmlns:inkscape="http://www.inkscape.org/namespaces/inkscape"
   width="172pt"
   height="173pt"
   viewBox="0 0 172 173"
   version="1.2"
   id="svg5997"
   sodipodi:docname="c2_fig..cross-section_of_a_water_triple-point_cell.svg"
   inkscape:version="0.92.4 (5da689c313, 2019-01-14)">
  <title
     id="title6546">cross-section of a water triple-point cell</title>
  <metadata
     id="metadata6001">
    <rdf:RDF>
      <cc:Work
         rdf:about="">
        <dc:format>image/svg+xml</dc:format>
        <dc:type
           rdf:resource="http://purl.org/dc/dcmitype/StillImage" />
        <dc:title>cross-section of a water triple-point cell</dc:title>
        <cc:license
           rdf:resource="http://creativecommons.org/licenses/by-sa/4.0/" />
        <dc:date>2021-04-12</dc:date>
        <dc:creator>
          <cc:Agent>
            <dc:title>Sandoval, Steven Baltakatei</dc:title>
          </cc:Agent>
        </dc:creator>
        <dc:rights>
          <cc:Agent>
            <dc:title>This work &quot;cross-section of a water triple-point cell&quot; is a derivative of &quot;02-SUP/TP-CELL.eps&quot; by Howard DeVoe, used under CC BY 4.0. &quot;cross-section of a water triple-point cell&quot; is licensed under CC BY-SA 4.0 by Steven Baltakatei Sandoval.</dc:title>
          </cc:Agent>
        </dc:rights>
        <dc:source>https://gitlab.com/baltakatei/bk-2021-07-1</dc:source>
        <dc:relation>Thermodynamics and Chemistry 2nd Edition, Version 10, by Howard DeVoe, http://www2.chem.umd.edu/thermobook/</dc:relation>
        <dc:language>en</dc:language>
        <dc:description>Cross-section of a water triple-point cell. The cell has cylindrical
sym- metry about a vertical axis. Pure water of the same isotopic
composition as H2O in ocean water is distilled into the cell. The air
is pumped out and the cell is sealed. A freezing mixture is placed in
the inner well to cause a thin layer of ice to form next to the inner
wall. The freezing mixture is removed, and some of the ice is allowed
to melt to a film of very pure water between the ice and inner
wall. The thermometer bulb is placed in the inner well as shown,
together with ice water (not shown) for good thermal contact.</dc:description>
      </cc:Work>
      <cc:License
         rdf:about="http://creativecommons.org/licenses/by-sa/4.0/">
        <cc:permits
           rdf:resource="http://creativecommons.org/ns#Reproduction" />
        <cc:permits
           rdf:resource="http://creativecommons.org/ns#Distribution" />
        <cc:requires
           rdf:resource="http://creativecommons.org/ns#Notice" />
        <cc:requires
           rdf:resource="http://creativecommons.org/ns#Attribution" />
        <cc:permits
           rdf:resource="http://creativecommons.org/ns#DerivativeWorks" />
        <cc:requires
           rdf:resource="http://creativecommons.org/ns#ShareAlike" />
      </cc:License>
    </rdf:RDF>
  </metadata>
  <sodipodi:namedview
     pagecolor="#ffffff"
     bordercolor="#666666"
     borderopacity="1"
     objecttolerance="10"
     gridtolerance="10"
     guidetolerance="10"
     inkscape:pageopacity="0"
     inkscape:pageshadow="2"
     inkscape:window-width="1920"
     inkscape:window-height="1016"
     id="namedview5999"
     showgrid="false"
     inkscape:zoom="1.7878788"
     inkscape:cx="32.640151"
     inkscape:cy="82.103263"
     inkscape:window-x="0"
     inkscape:window-y="27"
     inkscape:window-maximized="1"
     inkscape:current-layer="svg5997" />
  <defs
     id="defs5778">
    <g
       id="g5776">
      <symbol
         overflow="visible"
         id="glyph0-0"
         style="overflow:visible">
        <path
           style="stroke:none"
           d=""
           id="path5722"
           inkscape:connector-curvature="0" />
      </symbol>
      <symbol
         overflow="visible"
         id="glyph0-1"
         style="overflow:visible">
        <path
           style="stroke:none"
           d="M 0.171875,0 H 2.65625 V -0.171875 C 1.984375,-0.21875 1.890625,-0.328125 1.875,-0.984375 v -1.84375 h 2.71875 v 1.75 C 4.578125,-0.3125 4.5,-0.21875 3.796875,-0.171875 V 0 h 2.5 V -0.171875 C 5.625,-0.21875 5.515625,-0.328125 5.5,-0.984375 v -3.96875 c 0.015625,-0.65625 0.109375,-0.75 0.796875,-0.8125 V -5.9375 h -2.5 v 0.171875 C 4.5,-5.71875 4.578125,-5.625 4.59375,-4.953125 V -3.21875 H 1.875 v -1.734375 c 0.015625,-0.65625 0.09375,-0.75 0.78125,-0.8125 V -5.9375 H 0.171875 v 0.171875 c 0.6875,0.046875 0.78125,0.140625 0.78125,0.8125 v 3.875 c 0,0.765625 -0.078125,0.859375 -0.78125,0.90625 z m 0,0"
           id="path5725"
           inkscape:connector-curvature="0" />
      </symbol>
      <symbol
         overflow="visible"
         id="glyph0-2"
         style="overflow:visible">
        <path
           style="stroke:none"
           d="m 3.234375,-6.0625 c -1.703125,0 -2.921875,1.28125 -2.921875,3.09375 0,0.84375 0.28125,1.671875 0.765625,2.171875 C 1.59375,-0.21875 2.390625,0.125 3.1875,0.125 c 1.765625,0 2.984375,-1.25 2.984375,-3.0625 0,-0.890625 -0.265625,-1.65625 -0.75,-2.1875 -0.5625,-0.609375 -1.328125,-0.9375 -2.1875,-0.9375 z m 0,0.328125 c 0.421875,0 0.828125,0.15625 1.15625,0.4375 0.484375,0.4375 0.75,1.28125 0.75,2.359375 0,0.53125 -0.09375,1.140625 -0.28125,1.609375 -0.09375,0.21875 -0.234375,0.453125 -0.453125,0.65625 -0.3125,0.3125 -0.71875,0.46875 -1.1875,0.46875 -0.40625,0 -0.8125,-0.15625 -1.140625,-0.4375 -0.453125,-0.40625 -0.75,-1.3125 -0.75,-2.3125 0,-0.90625 0.25,-1.78125 0.625,-2.203125 C 2.3125,-5.546875 2.75,-5.734375 3.234375,-5.734375 Z m 0,0"
           id="path5728"
           inkscape:connector-curvature="0" />
      </symbol>
      <symbol
         overflow="visible"
         id="glyph0-3"
         style="overflow:visible">
        <path
           style="stroke:none"
           d="M 2.640625,-6.0625 C 1.984375,-5.625 1.71875,-5.40625 1.375,-4.984375 0.75,-4.203125 0.4375,-3.3125 0.4375,-2.265625 c 0,1.15625 0.328125,2.03125 1.109375,2.9375 0.375,0.4375 0.609375,0.625 1.078125,0.921875 L 2.71875,1.4375 C 2.015625,0.875 1.765625,0.5625 1.515625,-0.109375 1.296875,-0.703125 1.203125,-1.375 1.203125,-2.28125 c 0,-0.953125 0.109375,-1.6875 0.359375,-2.234375 0.25,-0.5625 0.515625,-0.890625 1.15625,-1.40625 z m 0,0"
           id="path5731"
           inkscape:connector-curvature="0" />
      </symbol>
      <symbol
         overflow="visible"
         id="glyph0-4"
         style="overflow:visible">
        <path
           style="stroke:none"
           d="m 4.21875,-3.484375 v -0.34375 h -0.6875 c -0.1875,0 -0.328125,-0.03125 -0.5,-0.09375 l -0.203125,-0.0625 C 2.59375,-4.078125 2.34375,-4.125 2.109375,-4.125 1.28125,-4.125 0.625,-3.484375 0.625,-2.65625 c 0,0.5625 0.234375,0.890625 0.828125,1.1875 L 1.21875,-1.25 c -0.1875,0.1875 -0.296875,0.28125 -0.328125,0.3125 -0.1875,0.203125 -0.234375,0.296875 -0.234375,0.453125 0,0.203125 0.09375,0.296875 0.46875,0.46875 C 0.484375,0.453125 0.25,0.75 0.25,1.078125 c 0,0.484375 0.6875,0.875 1.546875,0.875 0.671875,0 1.375,-0.234375 1.84375,-0.609375 0.34375,-0.28125 0.5,-0.5625 0.5,-0.90625 0,-0.546875 -0.421875,-0.921875 -1.09375,-0.953125 l -1.15625,-0.0625 C 1.40625,-0.59375 1.1875,-0.671875 1.1875,-0.8125 c 0,-0.1875 0.296875,-0.5 0.546875,-0.5625 0.3125,0.015625 0.484375,0.03125 0.515625,0.03125 0.328125,0 0.6875,-0.125 0.953125,-0.375 0.296875,-0.25 0.4375,-0.5625 0.4375,-1 0,-0.265625 -0.046875,-0.46875 -0.171875,-0.765625 z m -2.90625,3.5 c 0.3125,0.0625 1.015625,0.125 1.46875,0.125 0.8125,0 1.109375,0.109375 1.109375,0.4375 0,0.515625 -0.6875,0.859375 -1.703125,0.859375 -0.796875,0 -1.3125,-0.25 -1.3125,-0.640625 0,-0.21875 0.078125,-0.34375 0.4375,-0.78125 z M 1.359375,-3.03125 c 0,-0.53125 0.25,-0.84375 0.671875,-0.84375 0.28125,0 0.5,0.15625 0.65625,0.421875 0.171875,0.3125 0.265625,0.71875 0.265625,1.078125 0,0.5 -0.25,0.8125 -0.671875,0.8125 -0.546875,0 -0.921875,-0.578125 -0.921875,-1.4375 z m 0,0"
           id="path5734"
           inkscape:connector-curvature="0" />
      </symbol>
      <symbol
         overflow="visible"
         id="glyph0-5"
         style="overflow:visible">
        <path
           style="stroke:none"
           d="M 0.34375,1.59375 C 1,1.140625 1.28125,0.921875 1.609375,0.515625 2.25,-0.265625 2.5625,-1.171875 2.5625,-2.21875 2.5625,-3.359375 2.21875,-4.234375 1.4375,-5.140625 1.0625,-5.578125 0.828125,-5.78125 0.375,-6.0625 l -0.109375,0.140625 c 0.71875,0.5625 0.953125,0.875 1.203125,1.546875 0.21875,0.609375 0.3125,1.28125 0.3125,2.1875 0,0.9375 -0.109375,1.671875 -0.359375,2.21875 C 1.1875,0.59375 0.90625,0.921875 0.265625,1.4375 Z m 0,0"
           id="path5737"
           inkscape:connector-curvature="0" />
      </symbol>
      <symbol
         overflow="visible"
         id="glyph0-6"
         style="overflow:visible">
        <path
           style="stroke:none"
           d="m 0.1875,0 h 2.125 V -0.140625 C 1.734375,-0.15625 1.640625,-0.25 1.625,-0.75 V -6.109375 L 1.59375,-6.125 C 1.140625,-5.984375 0.8125,-5.890625 0.171875,-5.734375 V -5.59375 H 0.21875 c 0.109375,0 0.21875,-0.015625 0.28125,-0.015625 0.296875,0 0.375,0.125 0.375,0.546875 v 4.28125 c 0,0.484375 -0.125,0.609375 -0.6875,0.640625 z m 0,0"
           id="path5740"
           inkscape:connector-curvature="0" />
      </symbol>
      <symbol
         overflow="visible"
         id="glyph0-7"
         style="overflow:visible">
        <path
           style="stroke:none"
           d="M 2.828125,-2.8125 2.796875,-4.046875 H 2.6875 C 2.640625,-3.96875 2.59375,-3.953125 2.546875,-3.953125 2.5,-3.953125 2.40625,-3.96875 2.3125,-4.015625 2.09375,-4.078125 1.890625,-4.125 1.671875,-4.125 c -0.703125,0 -1.21875,0.46875 -1.21875,1.109375 0,0.5 0.296875,0.859375 1.046875,1.296875 l 0.53125,0.296875 C 2.34375,-1.25 2.5,-1.03125 2.5,-0.75 c 0,0.390625 -0.296875,0.640625 -0.75,0.640625 -0.625,0 -0.9375,-0.34375 -1.140625,-1.25 H 0.46875 V 0.03125 H 0.578125 C 0.640625,-0.046875 0.6875,-0.078125 0.796875,-0.078125 0.890625,-0.078125 1,-0.046875 1.203125,0 1.4375,0.046875 1.671875,0.09375 1.859375,0.09375 2.5625,0.09375 3.125,-0.4375 3.125,-1.0625 3.125,-1.5 2.90625,-1.796875 2.375,-2.125 L 1.40625,-2.703125 C 1.140625,-2.859375 1.015625,-3.0625 1.015625,-3.3125 c 0,-0.359375 0.28125,-0.609375 0.6875,-0.609375 0.515625,0 0.78125,0.296875 0.984375,1.109375 z m 0,0"
           id="path5743"
           inkscape:connector-curvature="0" />
      </symbol>
      <symbol
         overflow="visible"
         id="glyph0-8"
         style="overflow:visible">
        <path
           style="stroke:none"
           d="M 2.28125,-4.03125 H 1.375 v -1.046875 c 0,-0.09375 -0.015625,-0.109375 -0.0625,-0.109375 -0.515625,0.75 -0.78125,1.046875 -1.046875,1.203125 -0.09375,0.0625 -0.15625,0.125 -0.15625,0.171875 0,0.03125 0.015625,0.046875 0.046875,0.0625 H 0.625 v 2.703125 c 0,0.75 0.265625,1.140625 0.796875,1.140625 0.4375,0 0.78125,-0.21875 1.078125,-0.6875 L 2.390625,-0.6875 C 2.1875,-0.453125 2.046875,-0.375 1.84375,-0.375 1.515625,-0.375 1.375,-0.625 1.375,-1.1875 V -3.75 h 0.90625 z m 0,0"
           id="path5746"
           inkscape:connector-curvature="0" />
      </symbol>
      <symbol
         overflow="visible"
         id="glyph0-9"
         style="overflow:visible">
        <path
           style="stroke:none"
           d="M 4.375,-0.140625 C 3.890625,-0.21875 3.84375,-0.28125 3.828125,-0.921875 v -1.78125 c 0,-0.9375 -0.359375,-1.421875 -1.109375,-1.421875 -0.515625,0 -0.890625,0.21875 -1.3125,0.75 V -6.09375 L 1.359375,-6.125 c -0.3125,0.109375 -0.53125,0.171875 -1.03125,0.328125 l -0.234375,0.0625 v 0.140625 c 0.03125,0 0.046875,0 0.109375,0 0.375,0 0.453125,0.0625 0.453125,0.453125 v 4.21875 c -0.015625,0.65625 -0.0625,0.71875 -0.578125,0.78125 V 0 h 1.9375 V -0.140625 C 1.5,-0.171875 1.421875,-0.28125 1.40625,-0.921875 v -2.15625 c 0.375,-0.40625 0.640625,-0.5625 1,-0.5625 0.453125,0 0.671875,0.328125 0.671875,0.953125 v 1.765625 c -0.015625,0.640625 -0.09375,0.75 -0.609375,0.78125 V 0 H 4.375 Z m 0,0"
           id="path5749"
           inkscape:connector-curvature="0" />
      </symbol>
      <symbol
         overflow="visible"
         id="glyph0-10"
         style="overflow:visible">
        <path
           style="stroke:none"
           d="m 3.65625,-1.46875 c -0.421875,0.671875 -0.8125,0.9375 -1.390625,0.9375 -0.5,0 -0.890625,-0.265625 -1.15625,-0.765625 -0.15625,-0.34375 -0.21875,-0.625 -0.234375,-1.1875 h 2.75 C 3.5625,-3.0625 3.46875,-3.328125 3.25,-3.609375 2.984375,-3.9375 2.5625,-4.125 2.09375,-4.125 c -0.4375,0 -0.859375,0.15625 -1.203125,0.46875 -0.421875,0.359375 -0.671875,1 -0.671875,1.734375 0,1.234375 0.65625,2.015625 1.6875,2.015625 0.84375,0 1.515625,-0.53125 1.890625,-1.5 z M 0.890625,-2.765625 c 0.09375,-0.703125 0.40625,-1.03125 0.953125,-1.03125 0.546875,0 0.75,0.25 0.875,1.03125 z m 0,0"
           id="path5752"
           inkscape:connector-curvature="0" />
      </symbol>
      <symbol
         overflow="visible"
         id="glyph0-11"
         style="overflow:visible">
        <path
           style="stroke:none"
           d="m 0.046875,0 h 2.15625 V -0.140625 C 1.59375,-0.15625 1.453125,-0.28125 1.4375,-0.8125 v -2.015625 c 0,-0.28125 0.375,-0.734375 0.625,-0.734375 0.046875,0 0.140625,0.046875 0.234375,0.140625 C 2.4375,-3.296875 2.53125,-3.25 2.65625,-3.25 2.875,-3.25 3,-3.40625 3,-3.65625 3,-3.953125 2.8125,-4.125 2.515625,-4.125 c -0.375,0 -0.625,0.203125 -1.078125,0.84375 V -4.109375 L 1.390625,-4.125 c -0.5,0.203125 -0.828125,0.328125 -1.328125,0.484375 V -3.5 c 0.125,-0.03125 0.203125,-0.03125 0.3125,-0.03125 0.21875,0 0.3125,0.140625 0.3125,0.53125 v 2.25 c -0.03125,0.46875 -0.078125,0.515625 -0.640625,0.609375 z m 0,0"
           id="path5755"
           inkscape:connector-curvature="0" />
      </symbol>
      <symbol
         overflow="visible"
         id="glyph0-12"
         style="overflow:visible">
        <path
           style="stroke:none"
           d="m 0.140625,0 h 2 v -0.140625 c -0.46875,0 -0.609375,-0.09375 -0.609375,-0.453125 V -3.125 c 0,-0.015625 0.0625,-0.109375 0.125,-0.171875 C 1.890625,-3.5 2.265625,-3.65625 2.578125,-3.65625 c 0.40625,0 0.59375,0.3125 0.59375,0.9375 v 1.953125 c -0.015625,0.5 -0.109375,0.609375 -0.609375,0.625 V 0 h 2.015625 v -0.140625 c -0.5,0 -0.625,-0.140625 -0.65625,-0.71875 v -2.25 C 4.203125,-3.5 4.484375,-3.65625 4.90625,-3.65625 c 0.515625,0 0.671875,0.234375 0.671875,0.984375 V -0.78125 C 5.5625,-0.25 5.5,-0.1875 4.984375,-0.140625 V 0 h 1.96875 V -0.140625 L 6.71875,-0.15625 C 6.4375,-0.203125 6.328125,-0.328125 6.328125,-0.6875 v -1.84375 c 0,-1.0625 -0.34375,-1.59375 -1.03125,-1.59375 -0.53125,0 -0.984375,0.234375 -1.46875,0.75 -0.15625,-0.515625 -0.46875,-0.75 -0.953125,-0.75 -0.40625,0 -0.640625,0.109375 -1.390625,0.6875 V -4.109375 L 1.421875,-4.125 c -0.46875,0.171875 -0.78125,0.265625 -1.25,0.40625 v 0.15625 c 0.109375,-0.03125 0.1875,-0.046875 0.28125,-0.046875 0.234375,0 0.3125,0.140625 0.3125,0.578125 v 2.265625 c -0.015625,0.5 -0.125,0.625 -0.625,0.625 z m 0,0"
           id="path5758"
           inkscape:connector-curvature="0" />
      </symbol>
      <symbol
         overflow="visible"
         id="glyph0-13"
         style="overflow:visible">
        <path
           style="stroke:none"
           d="m 2.25,-4.125 c -1.1875,0 -1.984375,0.859375 -1.984375,2.09375 0,1.21875 0.828125,2.125 1.953125,2.125 1.140625,0 2,-0.953125 2,-2.1875 0,-1.1875 -0.828125,-2.03125 -1.96875,-2.03125 z m -0.125,0.25 c 0.75,0 1.28125,0.859375 1.28125,2.09375 0,1.015625 -0.40625,1.625 -1.078125,1.625 -0.34375,0 -0.671875,-0.21875 -0.859375,-0.578125 C 1.203125,-1.203125 1.0625,-1.828125 1.0625,-2.46875 1.0625,-3.3125 1.484375,-3.875 2.125,-3.875 Z m 0,0"
           id="path5761"
           inkscape:connector-curvature="0" />
      </symbol>
      <symbol
         overflow="visible"
         id="glyph0-14"
         style="overflow:visible">
        <path
           style="stroke:none"
           d="M 1.375,-6.109375 1.328125,-6.125 C 0.953125,-6 0.71875,-5.921875 0.28125,-5.796875 l -0.25,0.0625 v 0.140625 c 0.046875,0 0.078125,0 0.140625,0 0.359375,0 0.453125,0.078125 0.453125,0.453125 v 4.65625 c 0,0.28125 0.75,0.578125 1.46875,0.578125 1.1875,0 2.109375,-0.984375 2.109375,-2.265625 0,-1.125 -0.6875,-1.953125 -1.578125,-1.953125 -0.546875,0 -1.078125,0.3125 -1.25,0.765625 z m 0,3.21875 c 0,-0.34375 0.421875,-0.671875 0.890625,-0.671875 0.25,0 0.46875,0.09375 0.65625,0.265625 0.28125,0.28125 0.484375,0.890625 0.484375,1.53125 0,1 -0.421875,1.5625 -1.15625,1.5625 -0.46875,0 -0.875,-0.1875 -0.875,-0.421875 z m 0,0"
           id="path5764"
           inkscape:connector-curvature="0" />
      </symbol>
      <symbol
         overflow="visible"
         id="glyph0-15"
         style="overflow:visible">
        <path
           style="stroke:none"
           d="M 4.296875,-0.453125 H 4.25 c -0.4375,-0.015625 -0.5,-0.078125 -0.515625,-0.5 V -4.03125 h -1.40625 v 0.140625 c 0.546875,0.03125 0.65625,0.125 0.65625,0.578125 v 2.109375 c 0,0.25 -0.046875,0.375 -0.171875,0.46875 C 2.578125,-0.53125 2.296875,-0.4375 2.03125,-0.4375 c -0.359375,0 -0.640625,-0.296875 -0.640625,-0.671875 V -4.03125 h -1.3125 v 0.125 C 0.5,-3.890625 0.625,-3.765625 0.640625,-3.34375 v 2.265625 c 0,0.703125 0.421875,1.171875 1.078125,1.171875 0.328125,0 0.6875,-0.140625 0.921875,-0.390625 L 3.03125,-0.6875 v 0.75 L 3.0625,0.078125 c 0.453125,-0.171875 0.78125,-0.28125 1.234375,-0.40625 z m 0,0"
           id="path5767"
           inkscape:connector-curvature="0" />
      </symbol>
      <symbol
         overflow="visible"
         id="glyph1-0"
         style="overflow:visible">
        <path
           style="stroke:none"
           d=""
           id="path5770"
           inkscape:connector-curvature="0" />
      </symbol>
      <symbol
         overflow="visible"
         id="glyph1-1"
         style="overflow:visible">
        <path
           style="stroke:none"
           d="M 3.8125,-0.96875 3.59375,-1 c -0.234375,0.359375 -0.421875,0.421875 -0.765625,0.421875 h -1.65625 c 1.1875,-0.984375 2.25,-1.875 2.25,-2.84375 0,-0.734375 -0.703125,-1.25 -1.46875,-1.25 -0.765625,0 -1.375,0.359375 -1.609375,1.375 h 0.25 c 0.21875,-0.390625 0.5,-0.78125 1.078125,-0.78125 0.640625,0 1,0.421875 1,0.921875 0,0.734375 -0.890625,1.796875 -2.40625,2.984375 V 0 h 3.09375 z m 0,0"
           id="path5773"
           inkscape:connector-curvature="0" />
      </symbol>
    </g>
  </defs>
  <g
     id="surface457161"
     transform="translate(-149.23279,-123.17129)">
    <path
       style="fill:none;stroke:#000000;stroke-width:277.78900146;stroke-linecap:butt;stroke-linejoin:miter;stroke-miterlimit:10;stroke-opacity:1"
       d="M 1643.5156,6247.0703 V 5382.5 c 0,-148.7109 120.5469,-269.2969 269.2969,-269.2969 148.7109,0 269.2969,120.586 269.2969,269.2969 v 864.5703"
       transform="matrix(0.1,0,0,-0.1,0,792)"
       id="path5780"
       inkscape:connector-curvature="0" />
    <path
       style="fill:none;stroke:#ffffff;stroke-width:255.11599731;stroke-linecap:butt;stroke-linejoin:miter;stroke-miterlimit:10;stroke-opacity:1"
       d="M 1643.5156,6247.0703 V 5382.5 c 0,-148.7109 120.5469,-269.2969 269.2969,-269.2969 148.7109,0 269.2969,120.586 269.2969,269.2969 v 864.5703"
       transform="matrix(0.1,0,0,-0.1,0,792)"
       id="path5782"
       inkscape:connector-curvature="0" />
    <path
       style="fill:none;stroke:#ffffff;stroke-width:5.67043018;stroke-linecap:butt;stroke-linejoin:miter;stroke-miterlimit:10;stroke-opacity:1"
       d="m 1515.9375,6247.0703 h 255.1172"
       transform="matrix(0.1,0,0,-0.1,0,792)"
       id="path5784"
       inkscape:connector-curvature="0" />
    <path
       style="fill:none;stroke:#ffffff;stroke-width:5.67043018;stroke-linecap:butt;stroke-linejoin:miter;stroke-miterlimit:10;stroke-opacity:1"
       d="M 2309.6484,6247.0703 H 2054.5313"
       transform="matrix(0.1,0,0,-0.1,0,792)"
       id="path5786"
       inkscape:connector-curvature="0" />
    <path
       style="fill:none;stroke:#bfd4e6;stroke-width:255.11599731;stroke-linecap:butt;stroke-linejoin:miter;stroke-miterlimit:10;stroke-opacity:1"
       d="M 1643.5156,6082.3828 V 5382.5 c 0,-148.7109 120.5469,-269.2969 269.2969,-269.2969 148.7109,0 269.2969,120.586 269.2969,269.2969 v 699.8828"
       transform="matrix(0.1,0,0,-0.1,0,792)"
       id="path5788"
       inkscape:connector-curvature="0" />
    <path
       style="fill:none;stroke:#bfbfbf;stroke-width:14.17389965;stroke-linecap:butt;stroke-linejoin:miter;stroke-miterlimit:10;stroke-opacity:1"
       d="m 1763.9844,6122.3437 v -45.3515"
       transform="matrix(0.1,0,0,-0.1,0,792)"
       id="path5790"
       inkscape:connector-curvature="0" />
    <path
       style="fill:none;stroke:#bfbfbf;stroke-width:14.17389965;stroke-linecap:butt;stroke-linejoin:miter;stroke-miterlimit:10;stroke-opacity:1"
       d="m 2061.6016,6122.3437 v -45.3515"
       transform="matrix(0.1,0,0,-0.1,0,792)"
       id="path5792"
       inkscape:connector-curvature="0" />
    <path
       style="fill:none;stroke:#000000;stroke-width:11.3366003;stroke-linecap:butt;stroke-linejoin:miter;stroke-miterlimit:10;stroke-opacity:1"
       d="m 1776.7578,6247.0703 c 0,73.5547 -59.6484,133.2031 -133.2422,133.2031 -73.5937,0 -133.2422,-59.6484 -133.2422,-133.2031"
       transform="matrix(0.1,0,0,-0.1,0,792)"
       id="path5794"
       inkscape:connector-curvature="0" />
    <path
       style="fill:none;stroke:#000000;stroke-width:11.3366003;stroke-linecap:butt;stroke-linejoin:miter;stroke-miterlimit:10;stroke-opacity:1"
       d="m 2315.3125,6247.0703 c 0,73.5547 -59.6484,133.2031 -133.2031,133.2031 -73.5938,0 -133.2422,-59.6484 -133.2422,-133.2031"
       transform="matrix(0.1,0,0,-0.1,0,792)"
       id="path5796"
       inkscape:connector-curvature="0" />
    <path
       style="fill:none;stroke:#000000;stroke-width:11.3366003;stroke-linecap:butt;stroke-linejoin:miter;stroke-miterlimit:10;stroke-opacity:1"
       d="M 1799.4141,5680.1172 V 5382.5 c 0,-62.6172 50.7812,-113.3984 113.3984,-113.3984 62.6172,0 113.3594,50.7812 113.3594,113.3984 v 297.6172"
       transform="matrix(0.1,0,0,-0.1,0,792)"
       id="path5798"
       inkscape:connector-curvature="0" />
    <path
       style="fill:none;stroke:#000000;stroke-width:11.3366003;stroke-linecap:butt;stroke-linejoin:miter;stroke-miterlimit:10;stroke-opacity:1"
       d="m 1887.3047,5821.875 v 850.3906"
       transform="matrix(0.1,0,0,-0.1,0,792)"
       id="path5800"
       inkscape:connector-curvature="0" />
    <path
       style="fill:none;stroke:#000000;stroke-width:11.3366003;stroke-linecap:butt;stroke-linejoin:miter;stroke-miterlimit:10;stroke-opacity:1"
       d="m 1938.3203,5821.875 v 850.3906"
       transform="matrix(0.1,0,0,-0.1,0,792)"
       id="path5802"
       inkscape:connector-curvature="0" />
    <path
       style="fill:none;stroke:#000000;stroke-width:11.3366003;stroke-linecap:butt;stroke-linejoin:miter;stroke-miterlimit:10;stroke-opacity:1"
       d="m 1799.4141,5680.1172 c 0,70.8984 87.8906,70.8984 87.8906,141.7578"
       transform="matrix(0.1,0,0,-0.1,0,792)"
       id="path5804"
       inkscape:connector-curvature="0" />
    <path
       style="fill:none;stroke:#000000;stroke-width:11.3366003;stroke-linecap:butt;stroke-linejoin:miter;stroke-miterlimit:10;stroke-opacity:1"
       d="m 2026.1719,5680.1172 c 0,70.8984 -87.8516,70.8984 -87.8516,141.7578"
       transform="matrix(0.1,0,0,-0.1,0,792)"
       id="path5806"
       inkscape:connector-curvature="0" />
    <path
       style="fill:#ffffff;fill-opacity:1;fill-rule:nonzero;stroke:none"
       d="m 175.40625,216.33594 v -37.11719 c 0,-0.19531 -0.0664,-0.38281 -0.19141,-0.53516 l -0.082,-0.10547 c -0.26562,-0.32421 -0.73437,-0.41015 -1.09375,-0.19531 l -0.58594,0.34766 c -0.19921,0.11719 -0.34375,0.3164 -0.39453,0.54687 l -0.47656,2.14453 c -0.008,0.0312 -0.0117,0.0625 -0.0156,0.0937 l -0.21094,1.90625 c -0.008,0.0742 -0.0273,0.15235 -0.0547,0.22266 l -1.75391,4.40234 c -0.0312,0.0703 -0.0508,0.15235 -0.0586,0.23047 l -0.4375,4.4961 c 0,0.004 -0.004,0.004 -0.004,0.008 l -0.47265,4.52734 c -0.004,0.0586 -0.004,0.1211 0,0.17578 l 0.45312,4.32422 c 0.0117,0.13672 -0.008,0.27735 -0.0586,0.40625 l -1.65625,4.06641 c -0.0859,0.21094 -0.0859,0.44531 0.004,0.65625 l 1.1289,2.64844 c 0.0781,0.18359 0.0898,0.39062 0.0312,0.58203 l -1.72656,5.60156 c -0.0156,0.0547 -0.0273,0.10938 -0.0352,0.16797 l -0.4414,4.49219 c 0,0.0273 -0.004,0.0547 -0.004,0.0859 v 9.12891 c 0,0.043 0.004,0.0898 0.0117,0.13672 l 2.28125,13.76953 c 0.004,0.0156 0.004,0.0312 0.008,0.0508 l 0.46485,4.46485 c 0.008,0.0859 0.004,0.17187 -0.0117,0.25781 l -0.90235,4.41406 c -0.004,0.0312 -0.008,0.0664 -0.0117,0.0977 l -0.42187,4.73437 c -0.0156,0.20703 0.0391,0.41016 0.16016,0.57813 l 2.63281,3.6289 c 0.12109,0.16016 0.17578,0.35938 0.16406,0.5586 l -0.17187,2.44531 c -0.0234,0.29687 0.11328,0.58203 0.35546,0.75391 l 0.12891,0.0937 c 0.10547,0.0742 0.19141,0.17187 0.25391,0.28515 l 2.73437,5.02735 c 0.11328,0.20703 0.3086,0.35937 0.53906,0.41796 l 3.1836,0.8086 c 0.0937,0.0234 0.17969,0.0625 0.26172,0.11719 l 5.17968,3.4375 c 0.16407,0.10546 0.35938,0.15625 0.55469,0.13671 l 4.23828,-0.41406 c 0.0547,-0.008 0.10938,-0.008 0.16407,0 l 4.43359,0.4375 c 0.0508,0.004 0.10156,0.004 0.15234,0 l 5.4336,-0.4414 c 0.0312,-0.004 0.0625,-0.008 0.0898,-0.0156 l 3.60156,-0.69141 c 0.0273,-0.004 0.0508,-0.0117 0.0781,-0.0195 l 1.92969,-0.5625 c 0.22656,-0.0664 0.41796,-0.22656 0.52343,-0.4375 l 1.0625,-2.1289 c 0.10157,-0.20313 0.27735,-0.35547 0.49219,-0.42969 l 0.97266,-0.32031 c 0.0352,-0.0156 0.0742,-0.0312 0.10937,-0.0469 l 2.5,-1.2539 c 0.14844,-0.0703 0.26953,-0.1836 0.35156,-0.32032 l 1.17188,-1.96875 c 0.0586,-0.0937 0.13672,-0.17968 0.22656,-0.24609 l 1.35938,-1.00391 c 0.21875,-0.16015 0.34375,-0.41406 0.34375,-0.68359 v -3.24219 c 0,-0.0273 0,-0.0547 -0.004,-0.0859 l -0.21094,-2.16796 c -0.008,-0.0547 -0.008,-0.11329 0,-0.16797 l 0.21485,-2.23438 c 0,-0.004 0.004,-0.008 0.004,-0.0156 l 0.46875,-4.03125 c 0.008,-0.0664 0.008,-0.13282 0,-0.19532 l -0.45703,-3.96484 c -0.008,-0.0703 -0.008,-0.14062 0,-0.21094 l 0.44141,-3.38672 c 0.0156,-0.125 0.004,-0.25781 -0.0352,-0.3789 l -1.27344,-3.82422 c -0.0352,-0.10156 -0.0508,-0.21484 -0.043,-0.32031 l 0.43359,-6.64063 c 0.008,-0.0742 0,-0.14844 -0.0117,-0.22265 l -0.89453,-4.40625 c -0.0117,-0.0703 -0.0195,-0.14063 -0.0156,-0.21094 l 0.47657,-9.11328 c 0,-0.0117 0.004,-0.0273 0.004,-0.0391 l 0.44922,-4.58203 c 0,-0.0117 0.004,-0.0273 0.004,-0.043 l 1.375,-9.15625 c 0.008,-0.0391 0.0117,-0.082 0.0117,-0.125 v -4.90625 c 0,-0.0703 -0.008,-0.13671 -0.0234,-0.20312 l -0.39844,-1.61719 c -0.0195,-0.082 -0.0273,-0.17187 -0.0234,-0.25781 l 0.44141,-6.72656 c 0.004,-0.0391 0.004,-0.0781 0,-0.11328 l -0.30469,-4.54297 c -0.004,-0.0156 -0.004,-0.0312 -0.008,-0.0469 l -0.54687,-4.48437 c -0.0117,-0.0742 -0.0312,-0.14844 -0.0586,-0.21875 l -0.76172,-1.85157 c -0.0312,-0.0742 -0.0508,-0.15234 -0.0586,-0.23046 l -0.19922,-1.80079 c -0.043,-0.375 -0.32422,-0.67578 -0.69141,-0.74609 l -3.8164,-0.69922 c -0.30469,-0.0547 -0.61719,0.0586 -0.8125,0.29688 l -0.23047,0.28515 c -0.12109,0.15235 -0.19141,0.33985 -0.19141,0.53516 v 75.07812 c 0,0.0117 0,0.0273 0,0.043 l -0.0234,0.4961 c 0,0.0156 -0.004,0.0273 -0.004,0.043 l -0.0547,0.54296 c 0,0 0,0.004 0,0.004 l -0.0547,0.49219 c 0,0.0273 -0.008,0.0586 -0.0117,0.0859 l -0.10157,0.47656 c -0.004,0.0117 -0.004,0.0273 -0.008,0.043 l -0.0742,0.47265 c -0.004,0.0274 -0.0117,0.0586 -0.0156,0.0859 l -0.13282,0.49609 -0.14062,0.53907 -0.13281,0.49609 c -0.004,0.0273 -0.0156,0.0547 -0.0234,0.082 l -0.18359,0.49219 c 0,0.004 -0.004,0.008 -0.004,0.0117 l -0.19531,0.5039 -0.17969,0.46485 c -0.0117,0.0312 -0.0273,0.0625 -0.043,0.0898 l -0.22656,0.42969 c -0.004,0.004 -0.008,0.0117 -0.008,0.0156 l -0.2461,0.49219 c -0.004,0.008 -0.008,0.0156 -0.0117,0.0195 l -0.24218,0.45703 c -0.004,0.0117 -0.0117,0.0234 -0.0156,0.0312 l -0.25781,0.44141 c -0.0117,0.0156 -0.0234,0.0352 -0.0352,0.0508 l -0.29297,0.42578 -0.30078,0.44141 c -0.008,0.008 -0.0156,0.0195 -0.0234,0.0273 l -0.32031,0.42969 c -0.004,0.008 -0.0117,0.0156 -0.0156,0.0195 l -0.32422,0.40235 c -0.004,0.008 -0.0117,0.0195 -0.0195,0.0273 l -0.34766,0.40234 c -0.008,0.008 -0.0117,0.0156 -0.0195,0.0195 l -0.34766,0.375 c -0.008,0.008 -0.0156,0.0156 -0.0234,0.0234 l -0.375,0.375 c -0.004,0.008 -0.0117,0.0156 -0.0195,0.0234 l -0.375,0.34375 c -0.008,0.008 -0.0156,0.0156 -0.0234,0.0234 l -0.40235,0.34375 c -0.008,0.008 -0.0156,0.0156 -0.0234,0.0234 l -0.40235,0.32032 c -0.008,0.004 -0.0156,0.0117 -0.0195,0.0156 l -0.42969,0.32422 c -0.0117,0.008 -0.0195,0.0117 -0.0312,0.0195 l -0.4375,0.30078 -0.42968,0.29688 c -0.0156,0.0117 -0.0312,0.0195 -0.0508,0.0312 l -0.4375,0.25781 c -0.0117,0.008 -0.0234,0.0156 -0.0352,0.0195 l -0.45703,0.24219 c -0.004,0.004 -0.0117,0.008 -0.0156,0.008 l -0.49219,0.2461 c -0.008,0.004 -0.0117,0.008 -0.0195,0.0117 l -0.42968,0.22657 c -0.0273,0.0156 -0.0586,0.0273 -0.0898,0.0391 l -0.46094,0.17969 v 0.004 l -0.5039,0.19141 c -0.004,0.004 -0.0117,0.004 -0.0156,0.008 l -0.49218,0.17969 c -0.0273,0.0117 -0.0508,0.0195 -0.0781,0.0273 l -0.5,0.12891 -0.53906,0.14453 -0.4961,0.12891 c -0.0273,0.008 -0.0547,0.0117 -0.0859,0.0195 l -0.47266,0.0742 c -0.0156,0 -0.0273,0.004 -0.043,0.008 l -0.47265,0.0977 c -0.0312,0.008 -0.0586,0.0117 -0.0859,0.0156 l -0.4961,0.0508 c 0,0 0,0 -0.004,0 l -0.54297,0.0547 c -0.0117,0.004 -0.0273,0.004 -0.0391,0.004 l -0.4961,0.0273 c -0.0156,0 -0.0312,0 -0.0469,0 h -1.08985 c -0.0117,0 -0.0312,0 -0.043,0 l -0.4961,-0.0273 c -0.0156,0 -0.0273,0 -0.0391,-0.004 l -0.54688,-0.0547 c 0,0 -0.004,0 -0.004,0 l -0.49219,-0.0508 c -0.0273,-0.004 -0.0586,-0.008 -0.0859,-0.0156 l -0.47656,-0.0977 c -0.0117,-0.004 -0.0273,-0.008 -0.043,-0.008 l -0.47265,-0.0742 c -0.0273,-0.008 -0.0586,-0.0117 -0.0859,-0.0195 l -0.4961,-0.12891 -0.53906,-0.14453 -0.5,-0.12891 c -0.0234,-0.008 -0.0508,-0.0156 -0.0742,-0.0273 l -0.49609,-0.17969 c -0.004,-0.004 -0.008,-0.004 -0.0156,-0.008 l -0.5,-0.19141 v -0.004 l -0.46484,-0.17969 c -0.0312,-0.0117 -0.0625,-0.0234 -0.0898,-0.0391 l -0.42969,-0.22657 c -0.004,-0.004 -0.0117,-0.008 -0.0195,-0.0117 l -0.48828,-0.2461 c -0.008,0 -0.0156,-0.004 -0.0195,-0.008 l -0.45704,-0.24219 c -0.0117,-0.004 -0.0234,-0.0117 -0.0312,-0.0195 l -0.4414,-0.25781 c -0.0156,-0.008 -0.0352,-0.0195 -0.0508,-0.0312 l -0.42969,-0.29688 -0.4375,-0.30078 c -0.008,-0.008 -0.0195,-0.0117 -0.0273,-0.0195 l -0.42969,-0.32422 c -0.008,-0.004 -0.0156,-0.0117 -0.0234,-0.0156 l -0.39844,-0.32032 c -0.0117,-0.008 -0.0195,-0.0156 -0.0273,-0.0234 l -0.40234,-0.34375 c -0.008,-0.008 -0.0156,-0.0156 -0.0195,-0.0234 l -0.375,-0.34375 c -0.008,-0.008 -0.0156,-0.0156 -0.0234,-0.0234 l -0.375,-0.375 c -0.008,-0.008 -0.0156,-0.0156 -0.0195,-0.0234 l -0.35157,-0.375 c -0.004,-0.004 -0.0117,-0.0117 -0.0195,-0.0195 l -0.34765,-0.40234 c -0.008,-0.008 -0.0117,-0.0195 -0.0195,-0.0273 l -0.32031,-0.40235 c -0.008,-0.004 -0.0117,-0.0117 -0.0195,-0.0195 l -0.32031,-0.42969 c -0.008,-0.008 -0.0117,-0.0195 -0.0195,-0.0273 l -0.30078,-0.44141 -0.29688,-0.42578 c -0.0117,-0.0156 -0.0234,-0.0351 -0.0312,-0.0508 l -0.26172,-0.44141 c -0.004,-0.008 -0.0117,-0.0195 -0.0156,-0.0312 l -0.24219,-0.45703 c -0.004,-0.004 -0.008,-0.0117 -0.008,-0.0195 l -0.2461,-0.49219 c -0.004,-0.004 -0.008,-0.0117 -0.0117,-0.0156 l -0.22656,-0.42969 c -0.0156,-0.0273 -0.0273,-0.0586 -0.0391,-0.0898 l -0.18359,-0.46485 -0.19532,-0.5039 c 0,-0.004 -0.004,-0.008 -0.004,-0.0117 l -0.17969,-0.49219 c -0.0117,-0.0273 -0.0195,-0.0547 -0.0273,-0.082 l -0.12891,-0.49609 -0.14453,-0.53907 -0.12891,-0.49609 c -0.008,-0.0273 -0.0156,-0.0586 -0.0195,-0.0859 l -0.0742,-0.47265 c 0,-0.0156 -0.004,-0.0312 -0.008,-0.043 l -0.0977,-0.47656 c -0.008,-0.0274 -0.0117,-0.0547 -0.0156,-0.0859 l -0.0508,-0.49219 c 0,0 0,-0.004 0,-0.004 l -0.0547,-0.54296 c -0.004,-0.0156 -0.004,-0.0273 -0.004,-0.043 l -0.0273,-0.4961 c 0,-0.0156 0,-0.0312 0,-0.043 V 253.75"
       id="path5808"
       inkscape:connector-curvature="0" />
    <path
       style="fill:none;stroke:#000000;stroke-width:5.67043018;stroke-linecap:butt;stroke-linejoin:miter;stroke-miterlimit:10;stroke-opacity:1"
       d="m 1754.0625,5756.6406 v 371.1719 c 0,1.9531 -0.6641,3.8281 -1.9141,5.3516 l -0.8203,1.0546 c -2.6562,3.2422 -7.3437,4.1016 -10.9375,1.9532 l -5.8593,-3.4766 c -1.9922,-1.1719 -3.4375,-3.1641 -3.9454,-5.4687 l -4.7656,-21.4454 c -0.078,-0.3125 -0.1172,-0.625 -0.1562,-0.9375 l -2.1094,-19.0625 c -0.078,-0.7421 -0.2734,-1.5234 -0.5469,-2.2265 l -17.539,-44.0235 c -0.3125,-0.7031 -0.5079,-1.5234 -0.586,-2.3046 l -4.375,-44.961 c 0,-0.039 -0.039,-0.039 -0.039,-0.078 l -4.7266,-45.2734 c -0.039,-0.586 -0.039,-1.211 0,-1.7579 l 4.5312,-43.2421 c 0.1172,-1.3672 -0.078,-2.7735 -0.5859,-4.0625 l -16.5625,-40.6641 c -0.8594,-2.1094 -0.8594,-4.4531 0.039,-6.5625 l 11.289,-26.4844 c 0.7813,-1.8359 0.8985,-3.9062 0.3125,-5.8203 L 1677.5,5762.3047 c -0.1562,-0.5469 -0.2734,-1.0938 -0.3516,-1.6797 l -4.414,-44.9219 c 0,-0.2734 -0.039,-0.5469 -0.039,-0.8594 v -91.289 c 0,-0.4297 0.039,-0.8985 0.1172,-1.3672 l 22.8125,-137.6953 c 0.039,-0.1563 0.039,-0.3125 0.078,-0.5078 l 4.6485,-44.6485 c 0.078,-0.8593 0.039,-1.7187 -0.1172,-2.5781 l -9.0235,-44.1406 c -0.039,-0.3125 -0.078,-0.6641 -0.1171,-0.9766 l -4.2188,-47.3437 c -0.1562,-2.0703 0.3906,-4.1016 1.6016,-5.7813 l 26.3281,-36.289 c 1.2109,-1.6016 1.7578,-3.5938 1.6406,-5.586 l -1.7187,-24.4531 c -0.2344,-2.9688 1.1328,-5.8203 3.5547,-7.5391 l 1.289,-0.9375 c 1.0547,-0.7422 1.9141,-1.7187 2.5391,-2.8515 l 27.3437,-50.2735 c 1.1328,-2.0703 3.086,-3.5937 5.3907,-4.1797 l 31.8359,-8.0859 c 0.9375,-0.2344 1.7969,-0.625 2.6172,-1.1719 l 51.7969,-34.375 c 1.6406,-1.0547 3.5937,-1.5625 5.5468,-1.3672 l 42.3828,4.1407 c 0.5469,0.078 1.0938,0.078 1.6407,0 l 44.3359,-4.375 c 0.5078,-0.039 1.0156,-0.039 1.5234,0 l 54.336,4.414 c 0.3125,0.039 0.625,0.078 0.8984,0.1563 l 36.0156,6.914 c 0.2735,0.039 0.5079,0.1172 0.7813,0.1954 l 19.2969,5.625 c 2.2656,0.664 4.1797,2.2656 5.2343,4.375 l 10.625,21.289 c 1.0157,2.0313 2.7735,3.5547 4.9219,4.2969 l 9.7266,3.2031 c 0.3515,0.1563 0.7422,0.3125 1.0937,0.4688 l 25,12.539 c 1.4844,0.7032 2.6953,1.836 3.5157,3.2032 l 11.7187,19.6875 c 0.5859,0.9375 1.3672,1.7968 2.2656,2.4609 l 13.5938,10.0391 c 2.1875,1.6015 3.4375,4.1406 3.4375,6.8359 v 32.4219 c 0,0.2734 0,0.5468 -0.039,0.8593 l -2.1094,21.6797 c -0.078,0.5469 -0.078,1.1328 0,1.6797 l 2.1485,22.3438 c 0,0.039 0.039,0.078 0.039,0.1562 l 4.6875,40.3125 c 0.078,0.6641 0.078,1.3281 0,1.9531 l -4.5703,39.6485 c -0.078,0.7031 -0.078,1.4062 0,2.1094 l 4.4141,33.8671 c 0.1562,1.25 0.039,2.5782 -0.3516,3.7891 l -12.7343,38.2422 c -0.3516,1.0156 -0.5079,2.1484 -0.4297,3.2031 l 4.3359,66.4063 c 0.078,0.7422 0,1.4843 -0.1172,2.2265 l -8.9453,44.0625 c -0.1172,0.7032 -0.1953,1.4063 -0.1562,2.1094 l 4.7656,91.1328 c 0,0.1172 0.039,0.2735 0.039,0.3906 l 4.4922,45.8204 c 0,0.1171 0.039,0.2734 0.039,0.4296 l 13.75,91.5625 c 0.078,0.3907 0.1172,0.8204 0.1172,1.25 v 49.0625 c 0,0.7032 -0.078,1.3672 -0.2344,2.0313 l -3.9844,16.1719 c -0.1953,0.8203 -0.2734,1.7187 -0.2343,2.5781 l 4.414,67.2656 c 0.039,0.3906 0.039,0.7813 0,1.1328 l -3.0469,45.4297 c -0.039,0.1563 -0.039,0.3125 -0.078,0.4688 l -5.4687,44.8437 c -0.1172,0.7422 -0.3125,1.4844 -0.586,2.1875 l -7.6172,18.5156 c -0.3125,0.7422 -0.5078,1.5235 -0.5859,2.3047 l -1.9922,18.0078 c -0.4297,3.75 -3.2422,6.7579 -6.914,7.461 l -38.1641,6.9922 c -3.0469,0.5468 -6.1719,-0.586 -8.125,-2.9688 l -2.3047,-2.8515 c -1.2109,-1.5235 -1.9141,-3.3985 -1.9141,-5.3516 v -750.7813 c 0,-0.1171 0,-0.2734 0,-0.4296 l -0.2343,-4.961 c 0,-0.1562 -0.039,-0.2734 -0.039,-0.4297 l -0.5469,-5.4297 c 0,0 0,-0.039 0,-0.039 l -0.5468,-4.9219 c 0,-0.2734 -0.078,-0.5859 -0.1172,-0.8594 l -1.0157,-4.7656 c -0.039,-0.1172 -0.039,-0.2734 -0.078,-0.4297 l -0.7422,-4.7265 c -0.039,-0.2735 -0.1172,-0.586 -0.1562,-0.8594 l -1.3281,-4.961 -1.4063,-5.3906 -1.3281,-4.9609 c -0.039,-0.2735 -0.1563,-0.5469 -0.2344,-0.8203 l -1.8359,-4.9219 c 0,-0.039 -0.039,-0.078 -0.039,-0.1172 l -1.9531,-5.0391 -1.7969,-4.6484 c -0.1172,-0.3125 -0.2734,-0.625 -0.4297,-0.8984 l -2.2656,-4.2969 c -0.039,-0.039 -0.078,-0.1172 -0.078,-0.1563 l -2.461,-4.9218 c -0.039,-0.078 -0.078,-0.1563 -0.1172,-0.1953 l -2.4218,-4.5704 c -0.039,-0.1171 -0.1172,-0.2343 -0.1563,-0.3125 l -2.5781,-4.414 c -0.1172,-0.1563 -0.2344,-0.3516 -0.3516,-0.5078 l -2.9297,-4.2578 -3.0078,-4.4141 c -0.078,-0.078 -0.1562,-0.1953 -0.2343,-0.2734 l -3.2032,-4.2969 c -0.039,-0.078 -0.1172,-0.1563 -0.1562,-0.1953 l -3.2422,-4.0235 c -0.039,-0.078 -0.1172,-0.1953 -0.1953,-0.2734 l -3.4766,-4.0234 c -0.078,-0.078 -0.1172,-0.1563 -0.1953,-0.1954 l -3.4766,-3.75 c -0.078,-0.078 -0.1562,-0.1562 -0.2343,-0.2343 l -3.75,-3.75 c -0.039,-0.078 -0.1172,-0.1563 -0.1953,-0.2344 l -3.75,-3.4375 c -0.078,-0.078 -0.1563,-0.1563 -0.2344,-0.2344 l -4.0235,-3.4375 c -0.078,-0.078 -0.1562,-0.1562 -0.2343,-0.2344 l -4.0235,-3.2031 c -0.078,-0.039 -0.1562,-0.1172 -0.1953,-0.1562 l -4.2969,-3.2422 c -0.1171,-0.078 -0.1953,-0.1172 -0.3125,-0.1953 l -4.375,-3.0078 -4.2968,-2.9688 c -0.1563,-0.1172 -0.3125,-0.1953 -0.5078,-0.3125 l -4.375,-2.5781 c -0.1172,-0.078 -0.2344,-0.1563 -0.3516,-0.1953 l -4.5703,-2.4219 c -0.039,-0.039 -0.1172,-0.078 -0.1563,-0.078 l -4.9218,-2.461 c -0.078,-0.039 -0.1172,-0.078 -0.1954,-0.1172 l -4.2968,-2.2656 c -0.2735,-0.1562 -0.586,-0.2734 -0.8985,-0.3906 l -4.6093,-1.7969 v -0.039 l -5.0391,-1.9141 c -0.039,-0.039 -0.1172,-0.039 -0.1563,-0.078 l -4.9218,-1.7969 c -0.2735,-0.1172 -0.5078,-0.1953 -0.7813,-0.2734 l -5,-1.2891 -5.3906,-1.4453 -4.9609,-1.2891 c -0.2735,-0.078 -0.5469,-0.1172 -0.8594,-0.1953 l -4.7266,-0.7422 c -0.1562,0 -0.2734,-0.039 -0.4297,-0.078 l -4.7265,-0.9766 c -0.3125,-0.078 -0.586,-0.1172 -0.8594,-0.1562 l -4.9609,-0.5078 c 0,0 0,0 -0.039,0 l -5.4297,-0.5469 c -0.1172,-0.039 -0.2734,-0.039 -0.3906,-0.039 l -4.961,-0.2734 c -0.1562,0 -0.3125,0 -0.4687,0 h -10.8984 c -0.1172,0 -0.3125,0 -0.4297,0 l -4.961,0.2734 c -0.1562,0 -0.2734,0 -0.3906,0.039 l -5.4687,0.5469 c 0,0 -0.039,0 -0.039,0 l -4.9219,0.5078 c -0.2734,0.039 -0.5859,0.078 -0.8594,0.1562 l -4.7656,0.9766 c -0.1172,0.039 -0.2734,0.078 -0.4297,0.078 l -4.7265,0.7422 c -0.2735,0.078 -0.586,0.1172 -0.8594,0.1953 l -4.9609,1.2891 -5.3907,1.4453 -5,1.2891 c -0.2343,0.078 -0.5078,0.1562 -0.7422,0.2734 l -4.9609,1.7969 c -0.039,0.039 -0.078,0.039 -0.1562,0.078 l -5,1.9141 v 0.039 l -4.6485,1.7969 c -0.3125,0.1172 -0.625,0.2344 -0.8984,0.3906 l -4.2969,2.2656 c -0.039,0.039 -0.1172,0.078 -0.1953,0.1172 l -4.8828,2.461 c -0.078,0 -0.1563,0.039 -0.1953,0.078 l -4.5703,2.4219 c -0.1172,0.039 -0.2344,0.1172 -0.3125,0.1953 l -4.4141,2.5781 c -0.1563,0.078 -0.3516,0.1953 -0.5078,0.3125 l -4.2969,2.9688 -4.375,3.0078 c -0.078,0.078 -0.1953,0.1172 -0.2734,0.1953 l -4.2969,3.2422 c -0.078,0.039 -0.1563,0.1172 -0.2344,0.1562 l -3.9844,3.2031 c -0.1171,0.078 -0.1953,0.1563 -0.2734,0.2344 l -4.0234,3.4375 c -0.078,0.078 -0.1563,0.1563 -0.1953,0.2344 l -3.75,3.4375 c -0.078,0.078 -0.1563,0.1562 -0.2344,0.2344 l -3.75,3.75 c -0.078,0.078 -0.1563,0.1562 -0.1953,0.2343 l -3.5157,3.75 c -0.039,0.039 -0.1171,0.1172 -0.1953,0.1954 l -3.4765,4.0234 c -0.078,0.078 -0.1172,0.1953 -0.1953,0.2734 l -3.2032,4.0235 c -0.078,0.039 -0.1172,0.1172 -0.1953,0.1953 l -3.2031,4.2969 c -0.078,0.078 -0.1172,0.1953 -0.1953,0.2734 l -3.0078,4.4141 -2.9688,4.2578 c -0.1172,0.1562 -0.2344,0.3515 -0.3125,0.5078 l -2.6172,4.414 c -0.039,0.078 -0.1172,0.1954 -0.1562,0.3125 l -2.4219,4.5704 c -0.039,0.039 -0.078,0.1171 -0.078,0.1953 l -2.461,4.9218 c -0.039,0.039 -0.078,0.1172 -0.1171,0.1563 l -2.2657,4.2969 c -0.1562,0.2734 -0.2734,0.5859 -0.3906,0.8984 l -1.8359,4.6484 -1.9532,5.0391 c 0,0.039 -0.039,0.078 -0.039,0.1172 l -1.7969,4.9219 c -0.1172,0.2734 -0.1953,0.5468 -0.2734,0.8203 l -1.2891,4.9609 -1.4453,5.3906 -1.2891,4.961 c -0.078,0.2734 -0.1562,0.5859 -0.1953,0.8594 l -0.7422,4.7265 c 0,0.1563 -0.039,0.3125 -0.078,0.4297 l -0.9766,4.7656 c -0.078,0.2735 -0.1171,0.5469 -0.1562,0.8594 l -0.5078,4.9219 c 0,0 0,0.039 0,0.039 l -0.5469,5.4297 c -0.039,0.1563 -0.039,0.2735 -0.039,0.4297 l -0.2734,4.961 c 0,0.1562 0,0.3125 0,0.4296 z m 0,0"
       transform="matrix(0.1,0,0,-0.1,0,792)"
       id="path5810"
       inkscape:connector-curvature="0" />
    <path
       style="fill:none;stroke:#000000;stroke-width:5.67043018;stroke-linecap:butt;stroke-linejoin:miter;stroke-miterlimit:10;stroke-opacity:1"
       d="m 1510.2734,6105.3125 c 0,-15.625 12.6954,-28.3203 28.3594,-28.3203 h 158.711 c 15.664,0 28.3593,12.6953 28.3593,28.3203"
       transform="matrix(0.1,0,0,-0.1,0,792)"
       id="path5812"
       inkscape:connector-curvature="0" />
    <path
       style="fill:none;stroke:#000000;stroke-width:5.67043018;stroke-linecap:butt;stroke-linejoin:miter;stroke-miterlimit:10;stroke-opacity:1"
       d="m 2315.3125,6105.3125 c 0,-15.625 -12.6953,-28.3203 -28.3594,-28.3203 h -127.539 c -15.625,0 -28.3594,12.6953 -28.3594,28.3203"
       transform="matrix(0.1,0,0,-0.1,0,792)"
       id="path5814"
       inkscape:connector-curvature="0" />
    <path
       style="fill:none;stroke:#000000;stroke-width:5.67043018;stroke-linecap:butt;stroke-linejoin:miter;stroke-miterlimit:10;stroke-opacity:1"
       d="m 1754.0625,6130.8594 c 0,-4.7266 3.7891,-8.5157 8.5156,-8.5157 h 2.8125 c 4.6875,0 8.5157,3.7891 8.5157,8.5157"
       transform="matrix(0.1,0,0,-0.1,0,792)"
       id="path5816"
       inkscape:connector-curvature="0" />
    <path
       style="fill:none;stroke:#000000;stroke-width:5.67043018;stroke-linecap:butt;stroke-linejoin:miter;stroke-miterlimit:10;stroke-opacity:1"
       d="m 2071.5234,6130.8594 c 0,-4.7266 -3.789,-8.5157 -8.4765,-8.5157 h -2.8516 c -4.6875,0 -8.4765,3.7891 -8.4765,8.5157"
       transform="matrix(0.1,0,0,-0.1,0,792)"
       id="path5818"
       inkscape:connector-curvature="0" />
    <path
       style="fill:#000000;fill-opacity:1;fill-rule:nonzero;stroke:none"
       d="m 221.09375,166.26562 -2.88281,1.02735 2.88281,1.03125 -1.15234,-1.03125"
       id="path5820"
       inkscape:connector-curvature="0" />
    <path
       style="fill:none;stroke:#000000;stroke-width:2.83297992;stroke-linecap:butt;stroke-linejoin:miter;stroke-miterlimit:10;stroke-opacity:1"
       d="m 2199.4141,6247.0703 h 336.9922"
       transform="matrix(0.1,0,0,-0.1,0,792)"
       id="path5822"
       inkscape:connector-curvature="0" />
    <g
       style="fill:#000000;fill-opacity:1"
       id="g5826">
      <use
         xlink:href="#glyph0-1"
         x="256.40201"
         y="169.214"
         id="use5824"
         width="100%"
         height="100%" />
    </g>
    <g
       style="fill:#000000;fill-opacity:1"
       id="g5830">
      <use
         xlink:href="#glyph1-1"
         x="262.88208"
         y="171.49408"
         id="use5828"
         width="100%"
         height="100%" />
    </g>
    <g
       style="fill:#000000;fill-opacity:1"
       id="g5834">
      <use
         xlink:href="#glyph0-2"
         x="267.44223"
         y="169.214"
         id="use5832"
         width="100%"
         height="100%" />
    </g>
    <g
       style="fill:#000000;fill-opacity:1"
       id="g5838">
      <use
         xlink:href="#glyph0-3"
         x="273.92224"
         y="169.214"
         id="use5836"
         width="100%"
         height="100%" />
    </g>
    <g
       style="fill:#000000;fill-opacity:1"
       id="g5842">
      <use
         xlink:href="#glyph0-4"
         x="276.92224"
         y="169.214"
         id="use5840"
         width="100%"
         height="100%" />
    </g>
    <g
       style="fill:#000000;fill-opacity:1"
       id="g5846">
      <use
         xlink:href="#glyph0-5"
         x="281.36224"
         y="169.214"
         id="use5844"
         width="100%"
         height="100%" />
    </g>
    <path
       style="fill:#000000;fill-opacity:1;fill-rule:nonzero;stroke:none"
       d="m 228.17969,191.77344 -2.88282,1.03125 2.88282,1.03125 -1.15235,-1.03125"
       id="path5848"
       inkscape:connector-curvature="0" />
    <path
       style="fill:none;stroke:#000000;stroke-width:2.83297992;stroke-linecap:butt;stroke-linejoin:miter;stroke-miterlimit:10;stroke-opacity:1"
       d="m 2270.2734,5991.9531 h 266.1329"
       transform="matrix(0.1,0,0,-0.1,0,792)"
       id="path5850"
       inkscape:connector-curvature="0" />
    <g
       style="fill:#000000;fill-opacity:1"
       id="g5854">
      <use
         xlink:href="#glyph0-1"
         x="256.40201"
         y="194.726"
         id="use5852"
         width="100%"
         height="100%" />
    </g>
    <g
       style="fill:#000000;fill-opacity:1"
       id="g5858">
      <use
         xlink:href="#glyph1-1"
         x="262.88208"
         y="197.00607"
         id="use5856"
         width="100%"
         height="100%" />
    </g>
    <g
       style="fill:#000000;fill-opacity:1"
       id="g5862">
      <use
         xlink:href="#glyph0-2"
         x="267.44223"
         y="194.726"
         id="use5860"
         width="100%"
         height="100%" />
    </g>
    <g
       style="fill:#000000;fill-opacity:1"
       id="g5866">
      <use
         xlink:href="#glyph0-3"
         x="273.92224"
         y="194.726"
         id="use5864"
         width="100%"
         height="100%" />
    </g>
    <g
       style="fill:#000000;fill-opacity:1"
       id="g5870">
      <use
         xlink:href="#glyph0-6"
         x="276.92224"
         y="194.726"
         id="use5868"
         width="100%"
         height="100%" />
    </g>
    <g
       style="fill:#000000;fill-opacity:1"
       id="g5874">
      <use
         xlink:href="#glyph0-5"
         x="279.44226"
         y="194.726"
         id="use5872"
         width="100%"
         height="100%" />
    </g>
    <path
       style="fill:#000000;fill-opacity:1;fill-rule:nonzero;stroke:none"
       d="m 213.44141,208.78125 -2.88672,1.03125 2.88672,1.03125 -1.15625,-1.03125"
       id="path5876"
       inkscape:connector-curvature="0" />
    <path
       style="fill:none;stroke:#000000;stroke-width:2.83297992;stroke-linecap:butt;stroke-linejoin:miter;stroke-miterlimit:10;stroke-opacity:1"
       d="m 2122.8516,5821.875 h 413.5547"
       transform="matrix(0.1,0,0,-0.1,0,792)"
       id="path5878"
       inkscape:connector-curvature="0" />
    <g
       style="fill:#000000;fill-opacity:1"
       id="g5882">
      <use
         xlink:href="#glyph0-1"
         x="256.40201"
         y="211.73399"
         id="use5880"
         width="100%"
         height="100%" />
    </g>
    <g
       style="fill:#000000;fill-opacity:1"
       id="g5886">
      <use
         xlink:href="#glyph1-1"
         x="262.88208"
         y="214.01369"
         id="use5884"
         width="100%"
         height="100%" />
    </g>
    <g
       style="fill:#000000;fill-opacity:1"
       id="g5890">
      <use
         xlink:href="#glyph0-2"
         x="267.44223"
         y="211.73399"
         id="use5888"
         width="100%"
         height="100%" />
    </g>
    <g
       style="fill:#000000;fill-opacity:1"
       id="g5894">
      <use
         xlink:href="#glyph0-3"
         x="273.92224"
         y="211.73399"
         id="use5892"
         width="100%"
         height="100%" />
    </g>
    <g
       style="fill:#000000;fill-opacity:1"
       id="g5898">
      <use
         xlink:href="#glyph0-7"
         x="276.92224"
         y="211.73399"
         id="use5896"
         width="100%"
         height="100%" />
    </g>
    <g
       style="fill:#000000;fill-opacity:1"
       id="g5902">
      <use
         xlink:href="#glyph0-5"
         x="280.40225"
         y="211.73399"
         id="use5900"
         width="100%"
         height="100%" />
    </g>
    <path
       style="fill:#000000;fill-opacity:1;fill-rule:nonzero;stroke:none"
       d="m 209.1875,225.78906 -2.88281,1.03125 2.88281,1.03125 -1.15234,-1.03125"
       id="path5904"
       inkscape:connector-curvature="0" />
    <path
       style="fill:none;stroke:#000000;stroke-width:2.83297992;stroke-linecap:butt;stroke-linejoin:miter;stroke-miterlimit:10;stroke-opacity:1"
       d="m 2080.3516,5651.7969 h 456.0547"
       transform="matrix(0.1,0,0,-0.1,0,792)"
       id="path5906"
       inkscape:connector-curvature="0" />
    <g
       style="fill:#000000;fill-opacity:1"
       id="g5910">
      <use
         xlink:href="#glyph0-1"
         x="256.40201"
         y="228.742"
         id="use5908"
         width="100%"
         height="100%" />
    </g>
    <g
       style="fill:#000000;fill-opacity:1"
       id="g5914">
      <use
         xlink:href="#glyph1-1"
         x="262.88208"
         y="231.02208"
         id="use5912"
         width="100%"
         height="100%" />
    </g>
    <g
       style="fill:#000000;fill-opacity:1"
       id="g5918">
      <use
         xlink:href="#glyph0-2"
         x="267.44223"
         y="228.742"
         id="use5916"
         width="100%"
         height="100%" />
    </g>
    <g
       style="fill:#000000;fill-opacity:1"
       id="g5922">
      <use
         xlink:href="#glyph0-3"
         x="273.92224"
         y="228.742"
         id="use5920"
         width="100%"
         height="100%" />
    </g>
    <g
       style="fill:#000000;fill-opacity:1"
       id="g5926">
      <use
         xlink:href="#glyph0-6"
         x="276.92224"
         y="228.742"
         id="use5924"
         width="100%"
         height="100%" />
    </g>
    <g
       style="fill:#000000;fill-opacity:1"
       id="g5930">
      <use
         xlink:href="#glyph0-5"
         x="279.44226"
         y="228.742"
         id="use5928"
         width="100%"
         height="100%" />
    </g>
    <path
       style="fill:#000000;fill-opacity:1;fill-rule:nonzero;stroke:none"
       d="m 194.16406,242.80078 -2.88281,1.02734 2.88281,1.03125 -1.15234,-1.03125"
       id="path5932"
       inkscape:connector-curvature="0" />
    <path
       style="fill:none;stroke:#000000;stroke-width:2.83297992;stroke-linecap:butt;stroke-linejoin:miter;stroke-miterlimit:10;stroke-opacity:1"
       d="m 1930.1172,5481.7187 h 606.2891"
       transform="matrix(0.1,0,0,-0.1,0,792)"
       id="path5934"
       inkscape:connector-curvature="0" />
    <g
       style="fill:#000000;fill-opacity:1"
       id="g5938">
      <use
         xlink:href="#glyph0-8"
         x="256.40201"
         y="246.83"
         id="use5936"
         width="100%"
         height="100%" />
    </g>
    <g
       style="fill:#000000;fill-opacity:1"
       id="g5942">
      <use
         xlink:href="#glyph0-9"
         x="258.922"
         y="246.83"
         id="use5940"
         width="100%"
         height="100%" />
    </g>
    <g
       style="fill:#000000;fill-opacity:1"
       id="g5946">
      <use
         xlink:href="#glyph0-10"
         x="263.36203"
         y="246.83"
         id="use5944"
         width="100%"
         height="100%" />
    </g>
    <g
       style="fill:#000000;fill-opacity:1"
       id="g5950">
      <use
         xlink:href="#glyph0-11"
         x="267.32199"
         y="246.83"
         id="use5948"
         width="100%"
         height="100%" />
    </g>
    <g
       style="fill:#000000;fill-opacity:1"
       id="g5954">
      <use
         xlink:href="#glyph0-12"
         x="270.32202"
         y="246.83"
         id="use5952"
         width="100%"
         height="100%" />
    </g>
    <g
       style="fill:#000000;fill-opacity:1"
       id="g5958">
      <use
         xlink:href="#glyph0-13"
         x="277.28204"
         y="246.83"
         id="use5956"
         width="100%"
         height="100%" />
    </g>
    <g
       style="fill:#000000;fill-opacity:1"
       id="g5962">
      <use
         xlink:href="#glyph0-12"
         x="281.72205"
         y="246.83"
         id="use5960"
         width="100%"
         height="100%" />
    </g>
    <g
       style="fill:#000000;fill-opacity:1"
       id="g5966">
      <use
         xlink:href="#glyph0-10"
         x="288.68207"
         y="246.83"
         id="use5964"
         width="100%"
         height="100%" />
    </g>
    <g
       style="fill:#000000;fill-opacity:1"
       id="g5970">
      <use
         xlink:href="#glyph0-8"
         x="292.64203"
         y="246.83"
         id="use5968"
         width="100%"
         height="100%" />
    </g>
    <g
       style="fill:#000000;fill-opacity:1"
       id="g5974">
      <use
         xlink:href="#glyph0-10"
         x="295.16205"
         y="246.83"
         id="use5972"
         width="100%"
         height="100%" />
    </g>
    <g
       style="fill:#000000;fill-opacity:1"
       id="g5978">
      <use
         xlink:href="#glyph0-11"
         x="299.12204"
         y="246.83"
         id="use5976"
         width="100%"
         height="100%" />
    </g>
    <g
       style="fill:#000000;fill-opacity:1"
       id="g5982">
      <use
         xlink:href="#glyph0-14"
         x="304.52197"
         y="246.83"
         id="use5980"
         width="100%"
         height="100%" />
    </g>
    <g
       style="fill:#000000;fill-opacity:1"
       id="g5986">
      <use
         xlink:href="#glyph0-15"
         x="308.84192"
         y="246.83"
         id="use5984"
         width="100%"
         height="100%" />
    </g>
    <g
       style="fill:#000000;fill-opacity:1"
       id="g5990">
      <use
         xlink:href="#glyph0-6"
         x="313.28192"
         y="246.83"
         id="use5988"
         width="100%"
         height="100%" />
    </g>
    <g
       style="fill:#000000;fill-opacity:1"
       id="g5994">
      <use
         xlink:href="#glyph0-14"
         x="315.80194"
         y="246.83"
         id="use5992"
         width="100%"
         height="100%" />
    </g>
  </g>
</svg>
