<?xml version="1.0" encoding="UTF-8" standalone="no"?>
<svg
   xmlns:dc="http://purl.org/dc/elements/1.1/"
   xmlns:cc="http://creativecommons.org/ns#"
   xmlns:rdf="http://www.w3.org/1999/02/22-rdf-syntax-ns#"
   xmlns:svg="http://www.w3.org/2000/svg"
   xmlns="http://www.w3.org/2000/svg"
   xmlns:xlink="http://www.w3.org/1999/xlink"
   xmlns:sodipodi="http://sodipodi.sourceforge.net/DTD/sodipodi-0.dtd"
   xmlns:inkscape="http://www.inkscape.org/namespaces/inkscape"
   width="340pt"
   height="166pt"
   viewBox="0 0 340 166"
   version="1.2"
   id="svg3699"
   sodipodi:docname="c2_fig..carbon_dioxide_compression_factor_and_virial_coefficient_examples.svg"
   inkscape:version="0.92.4 (5da689c313, 2019-01-14)">
  <title
     id="title4248">carbon dioxide compression factor and virial coefficient examples</title>
  <metadata
     id="metadata3703">
    <rdf:RDF>
      <cc:Work
         rdf:about="">
        <dc:format>image/svg+xml</dc:format>
        <dc:type
           rdf:resource="http://purl.org/dc/dcmitype/StillImage" />
        <dc:title>carbon dioxide compression factor and virial coefficient examples</dc:title>
        <cc:license
           rdf:resource="http://creativecommons.org/licenses/by-sa/4.0/" />
        <dc:date>2021-05-03</dc:date>
        <dc:creator>
          <cc:Agent>
            <dc:title>Sandoval, Steven Baltakatei</dc:title>
          </cc:Agent>
        </dc:creator>
        <dc:rights>
          <cc:Agent>
            <dc:title>This work &quot;carbon dioxide compression factor and virial coefficient examples&quot; is a derivative of &quot;02-SUP/CO2.eps&quot; by Howard DeVoe, used under CC BY 4.0. &quot;carbon dioxide compression factor and virial coefficient examples&quot; is licensed under CC BY-SA 4.0 by Steven Baltakatei Sandoval.</dc:title>
          </cc:Agent>
        </dc:rights>
        <dc:source>https://gitlab.com/baltakatei/bk-2021-07-1</dc:source>
        <dc:relation>Thermodynamics and Chemistry 2nd Edition, Version 10, by Howard DeVoe, http://www2.chem.umd.edu/thermobook/</dc:relation>
        <dc:language>en</dc:language>
      </cc:Work>
      <cc:License
         rdf:about="http://creativecommons.org/licenses/by-sa/4.0/">
        <cc:permits
           rdf:resource="http://creativecommons.org/ns#Reproduction" />
        <cc:permits
           rdf:resource="http://creativecommons.org/ns#Distribution" />
        <cc:requires
           rdf:resource="http://creativecommons.org/ns#Notice" />
        <cc:requires
           rdf:resource="http://creativecommons.org/ns#Attribution" />
        <cc:permits
           rdf:resource="http://creativecommons.org/ns#DerivativeWorks" />
        <cc:requires
           rdf:resource="http://creativecommons.org/ns#ShareAlike" />
      </cc:License>
    </rdf:RDF>
  </metadata>
  <sodipodi:namedview
     pagecolor="#ffffff"
     bordercolor="#666666"
     borderopacity="1"
     objecttolerance="10"
     gridtolerance="10"
     guidetolerance="10"
     inkscape:pageopacity="0"
     inkscape:pageshadow="2"
     inkscape:window-width="1920"
     inkscape:window-height="1016"
     id="namedview3701"
     showgrid="false"
     inkscape:zoom="2.5284424"
     inkscape:cx="218.91204"
     inkscape:cy="102.16893"
     inkscape:window-x="0"
     inkscape:window-y="27"
     inkscape:window-maximized="1"
     inkscape:current-layer="g1458" />
  <defs
     id="defs3148">
    <g
       id="g3146">
      <symbol
         overflow="visible"
         id="glyph0-0"
         style="overflow:visible">
        <path
           style="stroke:none"
           d=""
           id="path3005"
           inkscape:connector-curvature="0" />
      </symbol>
      <symbol
         overflow="visible"
         id="glyph0-1"
         style="overflow:visible">
        <path
           style="stroke:none"
           d="m 4.234375,-2.953125 c 0,-1.609375 -0.734375,-3.0625 -1.984375,-3.0625 -1.265625,0 -2,1.453125 -2,3.0625 0,1.625 0.6875,3.0625 2,3.0625 1.203125,0 1.984375,-1.4375 1.984375,-3.0625 z m -0.859375,0 c 0,1.296875 -0.125,2.8125 -1.125,2.8125 -0.953125,0 -1.140625,-1.515625 -1.140625,-2.8125 0,-1.078125 0.125,-2.828125 1.140625,-2.828125 1,0 1.125,1.75 1.125,2.828125 z m 0,0"
           id="path3008"
           inkscape:connector-curvature="0" />
      </symbol>
      <symbol
         overflow="visible"
         id="glyph0-2"
         style="overflow:visible">
        <path
           style="stroke:none"
           d="M 4.265625,-1.15625 4.109375,-1.1875 C 3.84375,-0.734375 3.625,-0.65625 3.1875,-0.65625 H 1.125 C 2.546875,-1.953125 3.84375,-3.125 3.84375,-4.4375 c 0,-0.921875 -0.796875,-1.578125 -1.671875,-1.578125 -0.859375,0 -1.546875,0.46875 -1.8125,1.6875 H 0.5625 c 0.25,-0.5 0.59375,-1.015625 1.28125,-1.015625 0.78125,0 1.21875,0.59375 1.21875,1.265625 0,0.96875 -1.03125,2.390625 -2.796875,3.9375 V 0 h 3.53125 z m 0,0"
           id="path3011"
           inkscape:connector-curvature="0" />
      </symbol>
      <symbol
         overflow="visible"
         id="glyph0-3"
         style="overflow:visible">
        <path
           style="stroke:none"
           d="M 4.25,-1.484375 V -2.09375 H 3.375 V -6.015625 H 2.9375 l -2.59375,3.90625 v 0.625 H 2.640625 V 0 H 3.375 V -1.484375 Z M 2.640625,-2.09375 h -1.9375 L 2.625,-5.078125 h 0.015625 z m 0,0"
           id="path3014"
           inkscape:connector-curvature="0" />
      </symbol>
      <symbol
         overflow="visible"
         id="glyph0-4"
         style="overflow:visible">
        <path
           style="stroke:none"
           d="M 4.1875,-2.015625 C 4.1875,-3 3.484375,-3.734375 2.59375,-3.734375 2.140625,-3.734375 1.765625,-3.59375 1.375,-3.28125 1.765625,-4.875 2.9375,-5.875 4.0625,-5.890625 v -0.15625 c -2.765625,0 -3.640625,2.34375 -3.640625,3.671875 0,1.421875 0.828125,2.484375 1.9375,2.484375 1.015625,0 1.828125,-0.953125 1.828125,-2.125 z M 3.421875,-1.5625 c 0,0.828125 -0.375,1.40625 -0.96875,1.40625 C 1.53125,-0.15625 1.25,-1.5 1.25,-2.21875 1.25,-2.453125 1.28125,-2.703125 1.328125,-3 1.71875,-3.25 2.03125,-3.359375 2.34375,-3.359375 c 0.90625,0 1.078125,1.046875 1.078125,1.796875 z m 0,0"
           id="path3017"
           inkscape:connector-curvature="0" />
      </symbol>
      <symbol
         overflow="visible"
         id="glyph0-5"
         style="overflow:visible">
        <path
           style="stroke:none"
           d="m 1.71875,-0.375 c 0,-0.28125 -0.21875,-0.5 -0.5,-0.5 -0.28125,0 -0.5,0.21875 -0.5,0.5 0,0.28125 0.21875,0.5 0.5,0.5 0.28125,0 0.5,-0.21875 0.5,-0.5 z m 0,0"
           id="path3020"
           inkscape:connector-curvature="0" />
      </symbol>
      <symbol
         overflow="visible"
         id="glyph0-6"
         style="overflow:visible">
        <path
           style="stroke:none"
           d="m 3.96875,-1.375 c 0,-0.640625 -0.28125,-1.125 -1.375,-1.9375 0.6875,-0.375 1.21875,-0.796875 1.21875,-1.453125 0,-0.6875 -0.640625,-1.28125 -1.59375,-1.28125 -0.84375,0 -1.640625,0.546875 -1.640625,1.390625 0,0.65625 0.34375,1.046875 1.109375,1.65625 -0.859375,0.65625 -1.171875,0.984375 -1.171875,1.65625 0,0.75 0.671875,1.453125 1.71875,1.453125 1.21875,0 1.734375,-0.828125 1.734375,-1.484375 z M 3.203125,-4.78125 c 0,0.640625 -0.375,0.984375 -0.859375,1.3125 C 1.75,-3.890625 1.234375,-4.359375 1.234375,-4.875 c 0,-0.484375 0.34375,-0.90625 0.953125,-0.90625 0.671875,0 1.015625,0.421875 1.015625,1 z m 0.125,3.65625 c 0,0.578125 -0.4375,0.96875 -1.015625,0.96875 -0.6875,0 -1.125,-0.546875 -1.125,-1.28125 0,-0.671875 0.328125,-1.0625 0.734375,-1.40625 0.984375,0.75 1.40625,1.125 1.40625,1.71875 z m 0,0"
           id="path3023"
           inkscape:connector-curvature="0" />
      </symbol>
      <symbol
         overflow="visible"
         id="glyph0-7"
         style="overflow:visible">
        <path
           style="stroke:none"
           d="m 3.484375,0 v -0.140625 c -0.59375,0 -0.8125,0.015625 -0.8125,-1.15625 0,-0.015625 0,-4.75 0,-4.75 h -0.125 L 1.015625,-5.3125 1.0625,-5.171875 C 1.390625,-5.3125 1.46875,-5.34375 1.59375,-5.34375 c 0.265625,0 0.3125,0.234375 0.3125,0.546875 v 3.5 c 0,1.171875 -0.21875,1.140625 -0.8125,1.15625 V 0 Z m 0,0"
           id="path3026"
           inkscape:connector-curvature="0" />
      </symbol>
      <symbol
         overflow="visible"
         id="glyph0-8"
         style="overflow:visible">
        <path
           style="stroke:none"
           d="M 5.3125,-2.921875 C 5.3125,-3.625 5,-4.09375 4.328125,-4.09375 c -0.59375,0 -1.046875,0.421875 -1.453125,0.984375 L 3.1875,-4.09375 c 0,0 -1.203125,0.234375 -1.46875,0.25 v 0.15625 c 0.328125,0 0.59375,-0.03125 0.59375,0.328125 0,0.171875 -0.109375,0.5625 -0.171875,0.78125 L 1.078125,1.15625 C 0.984375,1.5 0.828125,1.75 0.390625,1.75 l -0.03125,0.15625 h 1.96875 L 2.359375,1.75 C 2.015625,1.75 1.71875,1.734375 1.71875,1.484375 c 0,-0.078125 0.015625,-0.171875 0.0625,-0.34375 l 0.3125,-1.25 c 0.171875,0.140625 0.4375,0.21875 0.65625,0.21875 1.078125,0 2.5625,-1.53125 2.5625,-3.03125 z m -0.765625,0.09375 c 0,1.171875 -0.984375,2.734375 -1.828125,2.734375 -0.203125,0 -0.390625,-0.078125 -0.5625,-0.25 0.203125,-0.796875 0.75,-3.328125 1.90625,-3.328125 0.484375,0 0.484375,0.640625 0.484375,0.84375 z m 0,0"
           id="path3029"
           inkscape:connector-curvature="0" />
      </symbol>
      <symbol
         overflow="visible"
         id="glyph0-9"
         style="overflow:visible">
        <path
           style="stroke:none"
           d="M 4.171875,-5.921875 H 1.703125 L 0.59375,-3.375 c 0.140625,-0.03125 0.28125,-0.0625 0.453125,-0.0625 0.953125,0 2.25,0.5 2.25,1.671875 0,0.90625 -0.65625,1.484375 -1.28125,1.484375 -0.546875,0 -0.75,-0.5 -1.265625,-0.5 -0.25,0 -0.328125,0.21875 -0.328125,0.328125 0,0.3125 0.4375,0.5625 1.0625,0.5625 1.34375,0 2.40625,-0.984375 2.40625,-2.1875 0,-1.421875 -1.125,-1.90625 -2.34375,-1.9375 C 1.4375,-4.015625 1.3125,-4 1.203125,-3.984375 L 1.765625,-5.25 3.859375,-5.265625 Z m 0,0"
           id="path3032"
           inkscape:connector-curvature="0" />
      </symbol>
      <symbol
         overflow="visible"
         id="glyph0-10"
         style="overflow:visible">
        <path
           style="stroke:none"
           d="M 6.171875,-6.046875 H 1.15625 l -0.421875,1.53125 H 0.90625 C 1.28125,-5.5 1.75,-5.71875 2.53125,-5.71875 c 0,0 0.515625,0 0.625,0 l -1.296875,4.671875 c -0.25,0.90625 -0.5625,0.890625 -0.921875,0.890625 L 0.921875,0 H 3.28125 L 3.3125,-0.15625 c -0.34375,0 -0.6875,0.015625 -0.6875,-0.4375 0,-0.125 0.03125,-0.265625 0.078125,-0.453125 l 1.28125,-4.671875 h 0.75 c 0.4375,0 0.90625,0.0625 0.90625,0.6875 0,0.140625 -0.015625,0.296875 -0.0625,0.515625 H 5.75 Z m 0,0"
           id="path3035"
           inkscape:connector-curvature="0" />
      </symbol>
      <symbol
         overflow="visible"
         id="glyph1-0"
         style="overflow:visible">
        <path
           style="stroke:none"
           d=""
           id="path3038"
           inkscape:connector-curvature="0" />
      </symbol>
      <symbol
         overflow="visible"
         id="glyph1-1"
         style="overflow:visible">
        <path
           style="stroke:none"
           d="M 2.578125,-6.0625 H 1.96875 L -0.078125,0.125 H 0.53125 Z m 0,0"
           id="path3041"
           inkscape:connector-curvature="0" />
      </symbol>
      <symbol
         overflow="visible"
         id="glyph1-2"
         style="overflow:visible">
        <path
           style="stroke:none"
           d="M 1.375,-6.109375 1.328125,-6.125 C 0.953125,-6 0.71875,-5.921875 0.28125,-5.796875 l -0.25,0.0625 v 0.140625 c 0.046875,0 0.078125,0 0.140625,0 0.359375,0 0.453125,0.078125 0.453125,0.453125 v 4.65625 c 0,0.28125 0.75,0.578125 1.46875,0.578125 1.1875,0 2.109375,-0.984375 2.109375,-2.265625 0,-1.125 -0.6875,-1.953125 -1.578125,-1.953125 -0.546875,0 -1.078125,0.3125 -1.25,0.765625 z m 0,3.21875 c 0,-0.34375 0.421875,-0.671875 0.890625,-0.671875 0.25,0 0.46875,0.09375 0.65625,0.265625 0.28125,0.28125 0.484375,0.890625 0.484375,1.53125 0,1 -0.421875,1.5625 -1.15625,1.5625 -0.46875,0 -0.875,-0.1875 -0.875,-0.421875 z m 0,0"
           id="path3044"
           inkscape:connector-curvature="0" />
      </symbol>
      <symbol
         overflow="visible"
         id="glyph1-3"
         style="overflow:visible">
        <path
           style="stroke:none"
           d="m 3.96875,-0.59375 c -0.15625,0.125 -0.265625,0.171875 -0.40625,0.171875 -0.203125,0 -0.265625,-0.125 -0.265625,-0.515625 v -1.75 C 3.296875,-3.15625 3.25,-3.421875 3.125,-3.625 c -0.203125,-0.328125 -0.59375,-0.5 -1.109375,-0.5 -0.84375,0 -1.515625,0.4375 -1.515625,1 0,0.203125 0.171875,0.390625 0.390625,0.390625 0.21875,0 0.40625,-0.1875 0.40625,-0.375 C 1.296875,-3.140625 1.28125,-3.1875 1.28125,-3.25 1.25,-3.34375 1.25,-3.40625 1.25,-3.46875 c 0,-0.25 0.28125,-0.4375 0.640625,-0.4375 0.4375,0 0.6875,0.25 0.6875,0.734375 V -2.625 c -1.375,0.546875 -1.53125,0.640625 -1.921875,0.96875 -0.203125,0.1875 -0.328125,0.484375 -0.328125,0.78125 0,0.5625 0.390625,0.96875 0.953125,0.96875 0.390625,0 0.75,-0.1875 1.296875,-0.65625 0.046875,0.46875 0.21875,0.65625 0.578125,0.65625 0.3125,0 0.5,-0.109375 0.8125,-0.453125 z M 2.578125,-1.109375 c 0,0.28125 -0.046875,0.375 -0.234375,0.484375 C 2.109375,-0.5 1.875,-0.4375 1.6875,-0.4375 1.375,-0.4375 1.125,-0.734375 1.125,-1.125 v -0.03125 c 0,-0.53125 0.40625,-0.875 1.453125,-1.25 z m 0,0"
           id="path3047"
           inkscape:connector-curvature="0" />
      </symbol>
      <symbol
         overflow="visible"
         id="glyph1-4"
         style="overflow:visible">
        <path
           style="stroke:none"
           d="m 0.046875,0 h 2.15625 V -0.140625 C 1.59375,-0.15625 1.453125,-0.28125 1.4375,-0.8125 v -2.015625 c 0,-0.28125 0.375,-0.734375 0.625,-0.734375 0.046875,0 0.140625,0.046875 0.234375,0.140625 C 2.4375,-3.296875 2.53125,-3.25 2.65625,-3.25 2.875,-3.25 3,-3.40625 3,-3.65625 3,-3.953125 2.8125,-4.125 2.515625,-4.125 c -0.375,0 -0.625,0.203125 -1.078125,0.84375 V -4.109375 L 1.390625,-4.125 c -0.5,0.203125 -0.828125,0.328125 -1.328125,0.484375 V -3.5 c 0.125,-0.03125 0.203125,-0.03125 0.3125,-0.03125 0.21875,0 0.3125,0.140625 0.3125,0.53125 v 2.25 c -0.03125,0.46875 -0.078125,0.515625 -0.640625,0.609375 z m 0,0"
           id="path3050"
           inkscape:connector-curvature="0" />
      </symbol>
      <symbol
         overflow="visible"
         id="glyph1-5"
         style="overflow:visible">
        <path
           style="stroke:none"
           d="m 1.125,-0.890625 c -0.265625,0 -0.5,0.21875 -0.5,0.5 0,0.265625 0.234375,0.484375 0.484375,0.484375 0.28125,0 0.515625,-0.203125 0.515625,-0.484375 0,-0.265625 -0.234375,-0.5 -0.5,-0.5 z m 0,0"
           id="path3053"
           inkscape:connector-curvature="0" />
      </symbol>
      <symbol
         overflow="visible"
         id="glyph1-6"
         style="overflow:visible">
        <path
           style="stroke:none"
           d="m 3.703125,-5.765625 c 0.546875,0.03125 0.609375,0.0625 0.609375,0.28125 0,0.1875 -0.203125,0.46875 -0.703125,0.921875 L 2.03125,-3.125 v -1.828125 c 0,-0.671875 0.09375,-0.765625 0.828125,-0.8125 V -5.9375 H 0.3125 v 0.171875 c 0.6875,0.046875 0.78125,0.15625 0.796875,0.8125 v 3.875 C 1.109375,-0.3125 1,-0.21875 0.3125,-0.171875 V 0 H 2.828125 V -0.171875 C 2.140625,-0.21875 2.03125,-0.3125 2.03125,-0.984375 V -2.65625 l 0.234375,-0.1875 0.9375,0.9375 C 3.90625,-1.203125 4.375,-0.59375 4.375,-0.375 c 0,0.140625 -0.109375,0.1875 -0.375,0.203125 -0.046875,0 -0.140625,0 -0.25,0 V 0 h 2.734375 v -0.171875 c -0.46875,0 -0.59375,-0.09375 -1.40625,-0.96875 L 2.984375,-3.375 4.6875,-5.0625 c 0.609375,-0.59375 0.75,-0.65625 1.359375,-0.703125 V -5.9375 h -2.34375 z m 0,0"
           id="path3056"
           inkscape:connector-curvature="0" />
      </symbol>
      <symbol
         overflow="visible"
         id="glyph1-7"
         style="overflow:visible">
        <path
           style="stroke:none"
           d="M 2.640625,-6.0625 C 1.984375,-5.625 1.71875,-5.40625 1.375,-4.984375 0.75,-4.203125 0.4375,-3.3125 0.4375,-2.265625 c 0,1.15625 0.328125,2.03125 1.109375,2.9375 0.375,0.4375 0.609375,0.625 1.078125,0.921875 L 2.71875,1.4375 C 2.015625,0.875 1.765625,0.5625 1.515625,-0.109375 1.296875,-0.703125 1.203125,-1.375 1.203125,-2.28125 c 0,-0.953125 0.109375,-1.6875 0.359375,-2.234375 0.25,-0.5625 0.515625,-0.890625 1.15625,-1.40625 z m 0,0"
           id="path3059"
           inkscape:connector-curvature="0" />
      </symbol>
      <symbol
         overflow="visible"
         id="glyph1-8"
         style="overflow:visible">
        <path
           style="stroke:none"
           d="M 0.34375,1.59375 C 1,1.140625 1.28125,0.921875 1.609375,0.515625 2.25,-0.265625 2.5625,-1.171875 2.5625,-2.21875 2.5625,-3.359375 2.21875,-4.234375 1.4375,-5.140625 1.0625,-5.578125 0.828125,-5.78125 0.375,-6.0625 l -0.109375,0.140625 c 0.71875,0.5625 0.953125,0.875 1.203125,1.546875 0.21875,0.609375 0.3125,1.28125 0.3125,2.1875 0,0.9375 -0.109375,1.671875 -0.359375,2.21875 C 1.1875,0.59375 0.90625,0.921875 0.265625,1.4375 Z m 0,0"
           id="path3062"
           inkscape:connector-curvature="0" />
      </symbol>
      <symbol
         overflow="visible"
         id="glyph2-0"
         style="overflow:visible">
        <path
           style="stroke:none"
           d=""
           id="path3065"
           inkscape:connector-curvature="0" />
      </symbol>
      <symbol
         overflow="visible"
         id="glyph2-1"
         style="overflow:visible">
        <path
           style="stroke:none"
           d="M -5.90625,-6.578125 H -6.046875 V -1.875 l 1.390625,0.4375 V -1.609375 C -5.53125,-1.96875 -5.734375,-2.3125 -5.734375,-3.703125 V -5.34375 l 5.59375,4.734375 H 0 v -4.875 L -1.5625,-5.96875 v 0.171875 c 0.953125,0.4375 1.234375,0.765625 1.234375,2.4375 v 1.53125 z m 0,0"
           id="path3068"
           inkscape:connector-curvature="0" />
      </symbol>
      <symbol
         overflow="visible"
         id="glyph2-2"
         style="overflow:visible">
        <path
           style="stroke:none"
           d="m -4.6875,-6.203125 c -0.84375,0 -1.359375,0.671875 -1.359375,1.84375 v 2.265625 l 0.140625,0.03125 c 0,-0.28125 0.03125,-0.6875 0.4375,-0.6875 0.125,0 0.265625,0.03125 0.59375,0.125 l 3.828125,1.0625 c 0.90625,0.25 0.890625,0.5625 0.890625,0.921875 L 0,-0.609375 V -3.375 C 0,-5 -1.03125,-5.71875 -1.828125,-5.71875 c -0.546875,0 -1.125,0.34375 -1.40625,1.125 -0.125,-0.890625 -0.671875,-1.609375 -1.453125,-1.609375 z m -0.109375,0.9375 c 0.671875,0 1.4375,0.5625 1.4375,1.5 0,0 0,0.453125 0,0.65625 l -2.40625,-0.65625 v -0.4375 c 0,-0.734375 0.46875,-1.0625 0.96875,-1.0625 z m 2.90625,0.53125 c 0.765625,0 1.59375,0.59375 1.59375,1.8125 V -2.3125 L -3.0625,-3.015625 c 0,-0.265625 0,-0.546875 0,-0.546875 0,-0.78125 0.5625,-1.171875 1.171875,-1.171875 z m 0,0"
           id="path3071"
           inkscape:connector-curvature="0" />
      </symbol>
      <symbol
         overflow="visible"
         id="glyph3-0"
         style="overflow:visible">
        <path
           style="stroke:none"
           d=""
           id="path3074"
           inkscape:connector-curvature="0" />
      </symbol>
      <symbol
         overflow="visible"
         id="glyph3-1"
         style="overflow:visible">
        <path
           style="stroke:none"
           d="M 4.28125,-5.296875 H 0.953125 L 0.390625,-4.0625 H 0.625 C 0.9375,-4.5 1.15625,-4.609375 1.65625,-4.609375 h 1.765625 l -1.75,4.703125 H 2.3125 Z m 0,0"
           id="path3077"
           inkscape:connector-curvature="0" />
      </symbol>
      <symbol
         overflow="visible"
         id="glyph3-2"
         style="overflow:visible">
        <path
           style="stroke:none"
           d="m 3.609375,0 v -0.21875 c -0.609375,0 -0.796875,0 -0.796875,-0.96875 0,0 0,-4.1875 0,-4.1875 H 2.609375 L 1.0625,-4.71875 1.15625,-4.5 c 0.359375,-0.140625 0.421875,-0.15625 0.546875,-0.15625 0.234375,0 0.25,0.1875 0.25,0.421875 V -1.1875 c 0,0.96875 -0.1875,0.953125 -0.796875,0.96875 V 0 Z m 0,0"
           id="path3080"
           inkscape:connector-curvature="0" />
      </symbol>
      <symbol
         overflow="visible"
         id="glyph3-3"
         style="overflow:visible">
        <path
           style="stroke:none"
           d="m 4.234375,-2.640625 c 0,-1.4375 -0.65625,-2.734375 -1.90625,-2.734375 -1.265625,0 -1.90625,1.296875 -1.90625,2.734375 0,1.453125 0.625,2.734375 1.90625,2.734375 1.21875,0 1.90625,-1.28125 1.90625,-2.734375 z m -0.984375,0 c 0,1.109375 -0.28125,2.421875 -0.9375,2.421875 -0.8125,0 -0.90625,-1.3125 -0.90625,-2.421875 0,-0.921875 0.046875,-2.421875 0.921875,-2.421875 0.875,0 0.921875,1.5 0.921875,2.421875 z m 0,0"
           id="path3083"
           inkscape:connector-curvature="0" />
      </symbol>
      <symbol
         overflow="visible"
         id="glyph3-4"
         style="overflow:visible">
        <path
           style="stroke:none"
           d="m 4.296875,-1.3125 v -0.625 H 3.4375 V -5.375 h -0.5 L 0.375,-1.921875 V -1.3125 h 2.25 V 0 H 3.4375 V -1.3125 Z M 2.671875,-4.453125 2.625,-4.515625 V -1.9375 h -1.75 z m 0,0"
           id="path3086"
           inkscape:connector-curvature="0" />
      </symbol>
      <symbol
         overflow="visible"
         id="glyph3-5"
         style="overflow:visible">
        <path
           style="stroke:none"
           d="m 4.0625,-1.75 c 0,-0.8125 -0.484375,-1.1875 -1,-1.375 C 3.59375,-3.5 3.765625,-3.859375 3.765625,-4.28125 3.765625,-4.75 3.34375,-5.375 2.34375,-5.375 c -0.703125,0 -1.375,0.34375 -1.6875,1.265625 l 0.234375,0.0625 c 0.1875,-0.328125 0.53125,-0.71875 1.140625,-0.71875 0.59375,0 0.9375,0.34375 0.9375,0.765625 0,0.578125 -0.515625,1.015625 -1.3125,1.1875 l -0.015625,0.25 C 3,-2.625 3.328125,-1.84375 3.328125,-1.375 3.328125,-0.828125 2.875,-0.296875 2.28125,-0.296875 1.71875,-0.296875 1.453125,-0.75 1,-0.75 c -0.1875,0 -0.390625,0.15625 -0.390625,0.375 0,0.34375 0.5625,0.46875 1,0.46875 1.421875,0 2.453125,-0.75 2.453125,-1.84375 z m 0,0"
           id="path3089"
           inkscape:connector-curvature="0" />
      </symbol>
      <symbol
         overflow="visible"
         id="glyph4-0"
         style="overflow:visible">
        <path
           style="stroke:none"
           d=""
           id="path3092"
           inkscape:connector-curvature="0" />
      </symbol>
      <symbol
         overflow="visible"
         id="glyph4-1"
         style="overflow:visible">
        <path
           style="stroke:none"
           d="m 3.296875,-5.125 c 0.46875,0.03125 0.53125,0.0625 0.53125,0.25 0,0.171875 -0.171875,0.40625 -0.609375,0.8125 L 1.796875,-2.765625 V -4.40625 C 1.8125,-5 1.890625,-5.078125 2.53125,-5.125 V -5.28125 H 0.265625 V -5.125 c 0.625,0.046875 0.703125,0.140625 0.71875,0.71875 v 3.453125 c 0,0.671875 -0.09375,0.765625 -0.71875,0.796875 V 0 h 2.25 V -0.15625 C 1.90625,-0.1875 1.8125,-0.28125 1.796875,-0.875 v -1.484375 l 0.21875,-0.171875 0.84375,0.84375 c 0.609375,0.609375 1.03125,1.15625 1.03125,1.359375 0,0.109375 -0.109375,0.15625 -0.34375,0.171875 -0.03125,0 -0.125,0 -0.21875,0 V 0 h 2.4375 v -0.15625 c -0.421875,0 -0.53125,-0.078125 -1.25,-0.859375 L 2.65625,-3 4.171875,-4.5 C 4.703125,-5.015625 4.84375,-5.078125 5.375,-5.125 V -5.28125 H 3.296875 Z m 0,0"
           id="path3095"
           inkscape:connector-curvature="0" />
      </symbol>
      <symbol
         overflow="visible"
         id="glyph4-2"
         style="overflow:visible">
        <path
           style="stroke:none"
           d="M 2.34375,-5.390625 C 1.765625,-5 1.515625,-4.796875 1.234375,-4.4375 0.65625,-3.734375 0.375,-2.9375 0.375,-2.015625 c 0,1.03125 0.296875,1.796875 1,2.609375 0.328125,0.390625 0.53125,0.5625 0.953125,0.8125 l 0.09375,-0.125 C 1.78125,0.78125 1.5625,0.5 1.34375,-0.09375 1.15625,-0.625 1.0625,-1.234375 1.0625,-2.03125 c 0,-0.84375 0.109375,-1.5 0.328125,-1.984375 0.21875,-0.5 0.453125,-0.78125 1.03125,-1.25 z m 0,0"
           id="path3098"
           inkscape:connector-curvature="0" />
      </symbol>
      <symbol
         overflow="visible"
         id="glyph4-3"
         style="overflow:visible">
        <path
           style="stroke:none"
           d="m 3.515625,-0.53125 c -0.125,0.109375 -0.21875,0.15625 -0.34375,0.15625 -0.1875,0 -0.234375,-0.109375 -0.234375,-0.46875 V -2.390625 C 2.9375,-2.8125 2.890625,-3.03125 2.765625,-3.234375 2.59375,-3.515625 2.25,-3.671875 1.78125,-3.671875 c -0.75,0 -1.328125,0.390625 -1.328125,0.90625 0,0.171875 0.140625,0.328125 0.328125,0.328125 0.203125,0 0.359375,-0.15625 0.359375,-0.328125 0,-0.03125 0,-0.078125 -0.015625,-0.125 -0.015625,-0.078125 -0.015625,-0.140625 -0.015625,-0.1875 0,-0.21875 0.25,-0.390625 0.578125,-0.390625 0.390625,0 0.59375,0.21875 0.59375,0.65625 v 0.484375 c -1.21875,0.484375 -1.359375,0.5625 -1.703125,0.859375 -0.171875,0.15625 -0.28125,0.4375 -0.28125,0.703125 0,0.5 0.34375,0.84375 0.828125,0.84375 0.359375,0 0.6875,-0.171875 1.171875,-0.578125 0.03125,0.421875 0.1875,0.578125 0.515625,0.578125 0.265625,0 0.4375,-0.09375 0.703125,-0.390625 z M 2.28125,-0.984375 c 0,0.25 -0.03125,0.328125 -0.203125,0.421875 C 1.875,-0.453125 1.671875,-0.375 1.5,-0.375 1.21875,-0.375 1,-0.65625 1,-1 V -1.03125 C 1,-1.5 1.359375,-1.8125 2.28125,-2.140625 Z m 0,0"
           id="path3101"
           inkscape:connector-curvature="0" />
      </symbol>
      <symbol
         overflow="visible"
         id="glyph4-4"
         style="overflow:visible">
        <path
           style="stroke:none"
           d="m 0.296875,1.40625 c 0.59375,-0.390625 0.828125,-0.578125 1.125,-0.953125 0.5625,-0.6875 0.84375,-1.484375 0.84375,-2.421875 0,-1.015625 -0.296875,-1.796875 -0.984375,-2.609375 -0.328125,-0.375 -0.546875,-0.546875 -0.953125,-0.8125 l -0.09375,0.125 C 0.875,-4.75 1.078125,-4.484375 1.3125,-3.875 1.5,-3.34375 1.578125,-2.75 1.578125,-1.9375 c 0,0.828125 -0.09375,1.484375 -0.3125,1.96875 -0.21875,0.5 -0.453125,0.796875 -1.03125,1.25 z m 0,0"
           id="path3104"
           inkscape:connector-curvature="0" />
      </symbol>
      <symbol
         overflow="visible"
         id="glyph5-0"
         style="overflow:visible">
        <path
           style="stroke:none"
           d=""
           id="path3107"
           inkscape:connector-curvature="0" />
      </symbol>
      <symbol
         overflow="visible"
         id="glyph5-1"
         style="overflow:visible">
        <path
           style="stroke:none"
           d="M 5.984375,-2.03125 V -2.484375 H 0.5 v 0.453125 z m 0,0"
           id="path3110"
           inkscape:connector-curvature="0" />
      </symbol>
      <symbol
         overflow="visible"
         id="glyph6-0"
         style="overflow:visible">
        <path
           style="stroke:none"
           d=""
           id="path3113"
           inkscape:connector-curvature="0" />
      </symbol>
      <symbol
         overflow="visible"
         id="glyph6-1"
         style="overflow:visible">
        <path
           style="stroke:none"
           d="M -6.0625,-2.578125 V -1.96875 L 0.125,0.078125 V -0.53125 Z m 0,0"
           id="path3116"
           inkscape:connector-curvature="0" />
      </symbol>
      <symbol
         overflow="visible"
         id="glyph6-2"
         style="overflow:visible">
        <path
           style="stroke:none"
           d="m -1.40625,-3.5625 c 0.640625,0.421875 0.84375,0.75 0.84375,1.25 0,0.828125 -0.71875,1.390625 -1.75,1.390625 -0.921875,0 -1.546875,-0.484375 -1.546875,-1.21875 0,-0.3125 0.078125,-0.4375 0.421875,-0.515625 l 0.203125,-0.0625 c 0.25,-0.078125 0.40625,-0.234375 0.40625,-0.421875 0,-0.234375 -0.171875,-0.421875 -0.375,-0.421875 -0.5,0 -0.921875,0.625 -0.921875,1.375 0,0.4375 0.171875,0.890625 0.5,1.265625 0.390625,0.453125 1,0.703125 1.71875,0.703125 1.15625,0 2,-0.71875 2,-1.703125 0,-0.40625 -0.140625,-0.765625 -0.421875,-1.09375 C -0.53125,-3.25 -0.796875,-3.421875 -1.3125,-3.6875 Z m 0,0"
           id="path3119"
           inkscape:connector-curvature="0" />
      </symbol>
      <symbol
         overflow="visible"
         id="glyph6-3"
         style="overflow:visible">
        <path
           style="stroke:none"
           d="m 0,-0.140625 v -2 h -0.140625 c 0,0.46875 -0.09375,0.609375 -0.453125,0.609375 H -3.125 c -0.015625,0 -0.109375,-0.0625 -0.171875,-0.125 C -3.5,-1.890625 -3.65625,-2.265625 -3.65625,-2.578125 c 0,-0.40625 0.3125,-0.59375 0.9375,-0.59375 h 1.953125 c 0.5,0.015625 0.609375,0.109375 0.625,0.609375 H 0 v -2.015625 h -0.140625 c 0,0.5 -0.140625,0.625 -0.71875,0.65625 h -2.25 C -3.5,-4.203125 -3.65625,-4.484375 -3.65625,-4.90625 c 0,-0.515625 0.234375,-0.671875 0.984375,-0.671875 H -0.78125 C -0.25,-5.5625 -0.1875,-5.5 -0.140625,-4.984375 H 0 v -1.96875 H -0.140625 L -0.15625,-6.71875 c -0.046875,0.28125 -0.171875,0.390625 -0.53125,0.390625 h -1.84375 c -1.0625,0 -1.59375,0.34375 -1.59375,1.03125 0,0.53125 0.234375,0.984375 0.75,1.46875 -0.515625,0.15625 -0.75,0.46875 -0.75,0.953125 0,0.40625 0.109375,0.640625 0.6875,1.390625 h -0.671875 l -0.015625,0.0625 c 0.171875,0.46875 0.265625,0.78125 0.40625,1.25 h 0.15625 c -0.03125,-0.109375 -0.046875,-0.1875 -0.046875,-0.28125 0,-0.234375 0.140625,-0.3125 0.578125,-0.3125 h 2.265625 c 0.5,0.015625 0.625,0.125 0.625,0.625 z m 0,0"
           id="path3122"
           inkscape:connector-curvature="0" />
      </symbol>
      <symbol
         overflow="visible"
         id="glyph6-4"
         style="overflow:visible">
        <path
           style="stroke:none"
           d="m -4.125,-2.25 c 0,1.1875 0.859375,1.984375 2.09375,1.984375 1.21875,0 2.125,-0.828125 2.125,-1.953125 0,-1.140625 -0.953125,-2 -2.1875,-2 -1.1875,0 -2.03125,0.828125 -2.03125,1.96875 z m 0.25,0.125 c 0,-0.75 0.859375,-1.28125 2.09375,-1.28125 1.015625,0 1.625,0.40625 1.625,1.078125 0,0.34375 -0.21875,0.671875 -0.578125,0.859375 -0.46875,0.265625 -1.09375,0.40625 -1.734375,0.40625 -0.84375,0 -1.40625,-0.421875 -1.40625,-1.0625 z m 0,0"
           id="path3125"
           inkscape:connector-curvature="0" />
      </symbol>
      <symbol
         overflow="visible"
         id="glyph6-5"
         style="overflow:visible">
        <path
           style="stroke:none"
           d="m 0,-0.1875 v -2.125 H -0.140625 C -0.15625,-1.734375 -0.25,-1.640625 -0.75,-1.625 H -6.109375 L -6.125,-1.59375 c 0.140625,0.453125 0.234375,0.78125 0.390625,1.421875 H -5.59375 V -0.21875 c 0,-0.109375 -0.015625,-0.21875 -0.015625,-0.28125 0,-0.296875 0.125,-0.375 0.546875,-0.375 h 4.28125 c 0.484375,0 0.609375,0.125 0.640625,0.6875 z m 0,0"
           id="path3128"
           inkscape:connector-curvature="0" />
      </symbol>
      <symbol
         overflow="visible"
         id="glyph7-0"
         style="overflow:visible">
        <path
           style="stroke:none"
           d=""
           id="path3131"
           inkscape:connector-curvature="0" />
      </symbol>
      <symbol
         overflow="visible"
         id="glyph7-1"
         style="overflow:visible">
        <path
           style="stroke:none"
           d="m -1.53125,-3.546875 c -0.71875,0 -1.03125,0.421875 -1.203125,0.875 -0.328125,-0.46875 -0.640625,-0.625 -1.015625,-0.625 -0.40625,0 -0.953125,0.375 -0.953125,1.234375 0,0.625 0.296875,1.21875 1.109375,1.484375 l 0.046875,-0.203125 c -0.28125,-0.15625 -0.625,-0.46875 -0.625,-1 0,-0.515625 0.3125,-0.8125 0.671875,-0.8125 0.515625,0 0.890625,0.453125 1.046875,1.140625 L -2.25,-1.421875 C -2.296875,-2.625 -1.609375,-2.90625 -1.203125,-2.90625 c 0.484375,0 0.9375,0.390625 0.9375,0.90625 0,0.5 -0.390625,0.71875 -0.390625,1.125 0,0.171875 0.140625,0.34375 0.328125,0.34375 0.296875,0 0.40625,-0.5 0.40625,-0.875 0,-1.234375 -0.65625,-2.140625 -1.609375,-2.140625 z m 0,0"
           id="path3134"
           inkscape:connector-curvature="0" />
      </symbol>
      <symbol
         overflow="visible"
         id="glyph7-2"
         style="overflow:visible">
        <path
           style="stroke:none"
           d="m 0,-3.15625 h -0.1875 c 0,0.53125 0,0.703125 -0.84375,0.703125 -0.015625,0 -3.671875,0 -3.671875,0 V -2.28125 L -4.125,-0.9375 -3.9375,-1.015625 c -0.125,-0.3125 -0.140625,-0.375 -0.140625,-0.46875 0,-0.203125 0.171875,-0.21875 0.375,-0.21875 h 2.671875 c 0.84375,0 0.828125,0.15625 0.84375,0.6875 H 0 Z m 0,0"
           id="path3137"
           inkscape:connector-curvature="0" />
      </symbol>
      <symbol
         overflow="visible"
         id="glyph8-0"
         style="overflow:visible">
        <path
           style="stroke:none"
           d=""
           id="path3140"
           inkscape:connector-curvature="0" />
      </symbol>
      <symbol
         overflow="visible"
         id="glyph8-1"
         style="overflow:visible">
        <path
           style="stroke:none"
           d="m -1.796875,-5.125 h -0.4375 v 4.703125 h 0.4375 z m 0,0"
           id="path3143"
           inkscape:connector-curvature="0" />
      </symbol>
    </g>
  </defs>
  <g
     id="surface336076"
     transform="translate(-146.8357,-119.98549)">
    <g
       id="g1458"
       inkscape:label="g1458-a">
      <path
         inkscape:connector-curvature="0"
         id="path3150"
         transform="matrix(0.1,0,0,-0.1,0,792)"
         d="m 1770,6473.7109 c 0,0 0.5469,-1.4062 0.8594,-2.1875 0.2734,-0.7422 0.5469,-1.4453 0.8594,-2.1875 0.5859,-1.5234 1.0937,-2.8906 1.6796,-4.414 0.586,-1.5235 1.1329,-2.9297 1.7188,-4.4532 0.5859,-1.5234 1.0937,-2.9296 1.6797,-4.4531 0.5859,-1.5625 1.0937,-2.9297 1.7187,-4.4922 2.9297,-7.8906 5.586,-14.9609 8.4766,-22.8515 2.9687,-8.086 5.625,-15.3907 8.5156,-23.5157 2.9688,-8.3593 5.586,-15.8593 8.4766,-24.2578 3.0078,-8.6718 5.625,-16.4843 8.5156,-25.1953 2.9688,-9.0234 5.625,-17.1484 8.4766,-26.1719 3.0078,-9.414 5.625,-17.8906 8.5156,-27.3437 3.0078,-9.9219 5.625,-18.8281 8.5156,-28.75 3.0078,-10.4688 5.625,-19.9219 8.4766,-30.4297 3.0078,-11.1719 5.664,-21.2109 8.4765,-32.4609 3.086,-12.0703 5.7032,-22.9297 8.5157,-35.0391 3.0859,-13.2422 5.7422,-25.1562 8.5156,-38.4766 3.0859,-14.8437 5.7422,-28.2031 8.4766,-43.164 3.164,-17.3047 5.8593,-32.8906 8.5156,-50.2735 3.2812,-21.5234 6.0156,-40.8984 8.4765,-62.539 3.5938,-30.9375 6.0547,-58.8281 8.5157,-89.8828 3.5937,-45.0782 1.0547,-86.1719 8.5156,-130.7422 1.8359,-10.9766 1.1328,-22.9297 8.4766,-31.1328 2.0703,-2.3438 5.3906,-3.2032 8.5156,-3.3594 3.0078,-0.1563 5.7812,1.0156 8.4765,2.4219 33.5157,17.5 56.4454,44.6484 85,69.5312 30.1563,26.3672 55.586,51.836 85,79.0625 29.2579,27.1094 55.5079,51.4844 84.961,78.3985 29.2187,26.7187 55.5469,50.5859 85,77.0312 29.2187,26.25 55.5469,49.6875 84.9609,75.6641 29.2578,25.8203 55.586,48.8672 85,74.414 29.2188,25.3907 55.586,48.086 85,73.2422 29.2188,25.0391 55.586,47.3828 84.961,72.2266 29.2578,24.6875 55.625,46.7578 85,71.289 29.2578,24.375 55.5859,46.211 85,70.4297 29.2578,24.1407 55.5859,45.7032 84.9609,69.6485 29.2969,23.8672 85,68.9453 85,68.9453"
         style="fill:none;stroke:#000000;stroke-width:11.3366003;stroke-linecap:butt;stroke-linejoin:miter;stroke-miterlimit:10;stroke-opacity:1" />
      <path
         inkscape:connector-curvature="0"
         id="path3152"
         transform="matrix(0.1,0,0,-0.1,0,792)"
         d="m 1770,6473.7109 c 0,0 0.5469,-0.5859 0.8594,-0.8984 0.2734,-0.3125 0.5469,-0.5859 0.8594,-0.8984 0.5859,-0.625 1.0937,-1.1719 1.6796,-1.7969 0.586,-0.625 1.0938,-1.1719 1.7188,-1.836 0.5469,-0.5859 1.0937,-1.1718 1.6797,-1.7968 0.5859,-0.625 1.0937,-1.1719 1.7187,-1.7969 2.9297,-3.125 5.5469,-5.9375 8.4766,-9.0625 2.9297,-3.1641 5.5859,-5.9766 8.5156,-9.1016 2.9297,-3.125 5.5469,-5.9765 8.4766,-9.1015 2.9297,-3.1641 5.5859,-5.9766 8.5156,-9.1407 2.9297,-3.164 5.5469,-5.9765 8.4766,-9.1406 2.9687,-3.164 5.5859,-5.9765 8.5156,-9.1406 2.9297,-3.1641 5.5469,-6.0156 8.5156,-9.1406 2.9297,-3.1641 5.5469,-6.0157 8.4766,-9.1407 2.9297,-3.164 5.5469,-6.0156 8.4765,-9.1796 2.9688,-3.125 5.586,-5.9766 8.5157,-9.1016 2.9297,-3.1641 5.5859,-5.9766 8.5156,-9.1406 2.9297,-3.125 5.5469,-5.9375 8.4766,-9.0625 2.9296,-3.125 5.5859,-5.9375 8.5156,-9.0625 2.9297,-3.086 5.5469,-5.8594 8.4765,-8.9844 2.9297,-3.0859 5.586,-5.8594 8.5157,-8.9453 2.9297,-3.0469 5.5468,-5.7813 8.5156,-8.8281 2.8906,-3.0469 5.5469,-5.7813 8.4766,-8.7891 2.9296,-3.0078 5.5468,-5.7031 8.5156,-8.6719 2.9297,-2.9687 5.4687,-5.7031 8.4765,-8.5547 28.5547,-27.1093 52.8907,-53.3593 85,-76.0156 27.2657,-19.2578 53.125,-36.5625 85,-46.3672 28.086,-8.7109 55.586,-10.3906 84.961,-8.4765 30.039,1.9921 56.3672,10.664 85,20 30.2344,9.8437 56.1719,22.2656 84.9609,35.7812 29.9219,13.9844 55.9766,28.2031 85,43.9844 29.6485,16.0937 55.8594,31.3281 85,48.3203 29.4922,17.2266 55.7422,33.0859 84.961,50.7812 29.4531,17.8125 55.7421,33.9844 85,52.0704 29.375,18.125 55.7031,34.5312 85,52.8125 29.3359,18.2421 55.664,34.7265 84.9609,53.0859 29.3359,18.3594 85,53.2812 85,53.2812"
         style="fill:none;stroke:#000000;stroke-width:11.3366003;stroke-linecap:butt;stroke-linejoin:miter;stroke-miterlimit:10;stroke-opacity:1" />
      <path
         inkscape:connector-curvature="0"
         id="path3154"
         transform="matrix(0.1,0,0,-0.1,0,792)"
         d="m 1770,6473.7109 c 0,0 1.0938,0 1.7188,0 0.5859,0 1.0937,0 1.6796,0 1.7579,0 3.3594,0 5.1172,0 2.9297,0 5.5469,0 8.4766,0 2.9297,0 5.5859,0 8.5156,0 2.9297,0 5.5469,0 8.4766,0 5.8594,0.039 11.1328,0.078 16.9922,0.1172 2.9687,0.039 5.5859,0.078 8.5156,0.1172 2.9297,0 5.5469,0.039 8.5156,0.078 2.9297,0.039 5.5469,0.078 8.4766,0.078 2.9297,0.039 5.5469,0.078 8.4765,0.1171 2.9688,0.039 5.586,0.039 8.5157,0.1172 2.9297,0.039 5.5859,0.1172 8.5156,0.1953 2.9297,0.078 5.5469,0.1172 8.4766,0.1954 2.9296,0.078 5.5859,0.1171 8.5156,0.1953 2.9297,0.078 5.5469,0.1953 8.4765,0.2734 2.9297,0.1172 5.586,0.1172 8.5157,0.1953 2.9297,0.1172 5.5468,0.1953 8.5156,0.3125 2.9297,0.1172 5.5469,0.2735 8.4766,0.3906 2.9296,0.1172 5.5859,0.1954 8.5156,0.3125 2.9297,0.1172 5.5469,0.2344 8.4765,0.3907 29.336,1.5625 55.7032,2.8906 85,5.0781 29.375,2.1875 55.7032,4.5703 85,7.6172 29.375,3.0469 55.6641,6.25 84.961,10.039 29.375,3.7891 55.7031,7.5 85,11.9922 29.375,4.4922 55.7031,8.9063 84.9609,13.9844 29.4141,5.1172 55.7422,9.9219 85,15.5859 29.4141,5.7032 55.7031,11.1329 85,17.3438 29.375,6.25 55.7031,12.0703 84.961,18.75 29.414,6.7578 55.7421,13.0078 85,20.1562 29.375,7.1875 85,21.4454 85,21.4454"
         style="fill:none;stroke:#000000;stroke-width:11.3366003;stroke-linecap:butt;stroke-linejoin:miter;stroke-miterlimit:10;stroke-opacity:1" />
      <path
         inkscape:connector-curvature="0"
         id="path3156"
         transform="matrix(0.1,0,0,-0.1,0,792)"
         d="M 1770,5481.6016 H 2959.8047 V 6672.1484 H 1770 Z m 0,0"
         style="fill:none;stroke:#000000;stroke-width:5.67043018;stroke-linecap:butt;stroke-linejoin:miter;stroke-miterlimit:10;stroke-opacity:1" />
      <path
         inkscape:connector-curvature="0"
         id="path3158"
         transform="matrix(0.1,0,0,-0.1,0,792)"
         d="m 1770,5481.6016 v 42.5"
         style="fill:none;stroke:#000000;stroke-width:3.98505998;stroke-linecap:butt;stroke-linejoin:miter;stroke-miterlimit:10;stroke-opacity:1" />
      <path
         inkscape:connector-curvature="0"
         id="path3160"
         transform="matrix(0.1,0,0,-0.1,0,792)"
         d="m 2109.9219,5481.6016 v 42.5"
         style="fill:none;stroke:#000000;stroke-width:3.98505998;stroke-linecap:butt;stroke-linejoin:miter;stroke-miterlimit:10;stroke-opacity:1" />
      <path
         inkscape:connector-curvature="0"
         id="path3162"
         transform="matrix(0.1,0,0,-0.1,0,792)"
         d="m 2449.8828,5481.6016 v 42.5"
         style="fill:none;stroke:#000000;stroke-width:3.98505998;stroke-linecap:butt;stroke-linejoin:miter;stroke-miterlimit:10;stroke-opacity:1" />
      <path
         inkscape:connector-curvature="0"
         id="path3164"
         transform="matrix(0.1,0,0,-0.1,0,792)"
         d="m 2789.8438,5481.6016 v 42.5"
         style="fill:none;stroke:#000000;stroke-width:3.98505998;stroke-linecap:butt;stroke-linejoin:miter;stroke-miterlimit:10;stroke-opacity:1" />
      <path
         inkscape:connector-curvature="0"
         id="path3166"
         transform="matrix(0.1,0,0,-0.1,0,792)"
         d="m 1770,5481.6016 v 42.5"
         style="fill:none;stroke:#000000;stroke-width:3.98505998;stroke-linecap:butt;stroke-linejoin:miter;stroke-miterlimit:10;stroke-opacity:1" />
      <path
         inkscape:connector-curvature="0"
         id="path3168"
         transform="matrix(0.1,0,0,-0.1,0,792)"
         d="m 1770,5481.6016 h 42.5391"
         style="fill:none;stroke:#000000;stroke-width:3.98505998;stroke-linecap:butt;stroke-linejoin:miter;stroke-miterlimit:10;stroke-opacity:1" />
      <path
         inkscape:connector-curvature="0"
         id="path3170"
         transform="matrix(0.1,0,0,-0.1,0,792)"
         d="m 1770,5680.0391 h 42.5391"
         style="fill:none;stroke:#000000;stroke-width:3.98505998;stroke-linecap:butt;stroke-linejoin:miter;stroke-miterlimit:10;stroke-opacity:1" />
      <path
         inkscape:connector-curvature="0"
         id="path3172"
         transform="matrix(0.1,0,0,-0.1,0,792)"
         d="m 1770,5878.4375 h 42.5391"
         style="fill:none;stroke:#000000;stroke-width:3.98505998;stroke-linecap:butt;stroke-linejoin:miter;stroke-miterlimit:10;stroke-opacity:1" />
      <path
         inkscape:connector-curvature="0"
         id="path3174"
         transform="matrix(0.1,0,0,-0.1,0,792)"
         d="m 1770,6076.875 h 42.5391"
         style="fill:none;stroke:#000000;stroke-width:3.98505998;stroke-linecap:butt;stroke-linejoin:miter;stroke-miterlimit:10;stroke-opacity:1" />
      <path
         inkscape:connector-curvature="0"
         id="path3176"
         transform="matrix(0.1,0,0,-0.1,0,792)"
         d="m 1770,6275.2734 h 42.5391"
         style="fill:none;stroke:#000000;stroke-width:3.98505998;stroke-linecap:butt;stroke-linejoin:miter;stroke-miterlimit:10;stroke-opacity:1" />
      <path
         inkscape:connector-curvature="0"
         id="path3178"
         transform="matrix(0.1,0,0,-0.1,0,792)"
         d="m 1770,6473.7109 h 42.5391"
         style="fill:none;stroke:#000000;stroke-width:3.98505998;stroke-linecap:butt;stroke-linejoin:miter;stroke-miterlimit:10;stroke-opacity:1" />
      <path
         inkscape:connector-curvature="0"
         id="path3180"
         transform="matrix(0.1,0,0,-0.1,0,792)"
         d="m 1770,6672.1484 h 42.5391"
         style="fill:none;stroke:#000000;stroke-width:3.98505998;stroke-linecap:butt;stroke-linejoin:miter;stroke-miterlimit:10;stroke-opacity:1" />
      <path
         inkscape:connector-curvature="0"
         id="path3182"
         transform="matrix(0.1,0,0,-0.1,0,792)"
         d="m 1770,5481.6016 h 42.5391"
         style="fill:none;stroke:#000000;stroke-width:3.98505998;stroke-linecap:butt;stroke-linejoin:miter;stroke-miterlimit:10;stroke-opacity:1" />
      <path
         inkscape:connector-curvature="0"
         id="path3184"
         transform="matrix(0.1,0,0,-0.1,0,792)"
         d="m 1770,6672.1484 v -42.5"
         style="fill:none;stroke:#000000;stroke-width:3.98505998;stroke-linecap:butt;stroke-linejoin:miter;stroke-miterlimit:10;stroke-opacity:1" />
      <path
         inkscape:connector-curvature="0"
         id="path3186"
         transform="matrix(0.1,0,0,-0.1,0,792)"
         d="m 2109.9219,6672.1484 v -42.5"
         style="fill:none;stroke:#000000;stroke-width:3.98505998;stroke-linecap:butt;stroke-linejoin:miter;stroke-miterlimit:10;stroke-opacity:1" />
      <path
         inkscape:connector-curvature="0"
         id="path3188"
         transform="matrix(0.1,0,0,-0.1,0,792)"
         d="m 2449.8828,6672.1484 v -42.5"
         style="fill:none;stroke:#000000;stroke-width:3.98505998;stroke-linecap:butt;stroke-linejoin:miter;stroke-miterlimit:10;stroke-opacity:1" />
      <path
         inkscape:connector-curvature="0"
         id="path3190"
         transform="matrix(0.1,0,0,-0.1,0,792)"
         d="m 2789.8438,6672.1484 v -42.5"
         style="fill:none;stroke:#000000;stroke-width:3.98505998;stroke-linecap:butt;stroke-linejoin:miter;stroke-miterlimit:10;stroke-opacity:1" />
      <path
         inkscape:connector-curvature="0"
         id="path3192"
         transform="matrix(0.1,0,0,-0.1,0,792)"
         d="m 1770,6672.1484 v -42.5"
         style="fill:none;stroke:#000000;stroke-width:3.98505998;stroke-linecap:butt;stroke-linejoin:miter;stroke-miterlimit:10;stroke-opacity:1" />
      <path
         inkscape:connector-curvature="0"
         id="path3194"
         transform="matrix(0.1,0,0,-0.1,0,792)"
         d="m 2959.8047,5481.6016 h -42.5391"
         style="fill:none;stroke:#000000;stroke-width:3.98505998;stroke-linecap:butt;stroke-linejoin:miter;stroke-miterlimit:10;stroke-opacity:1" />
      <path
         inkscape:connector-curvature="0"
         id="path3196"
         transform="matrix(0.1,0,0,-0.1,0,792)"
         d="m 2959.8047,5680.0391 h -42.5391"
         style="fill:none;stroke:#000000;stroke-width:3.98505998;stroke-linecap:butt;stroke-linejoin:miter;stroke-miterlimit:10;stroke-opacity:1" />
      <path
         inkscape:connector-curvature="0"
         id="path3198"
         transform="matrix(0.1,0,0,-0.1,0,792)"
         d="m 2959.8047,5878.4375 h -42.5391"
         style="fill:none;stroke:#000000;stroke-width:3.98505998;stroke-linecap:butt;stroke-linejoin:miter;stroke-miterlimit:10;stroke-opacity:1" />
      <path
         inkscape:connector-curvature="0"
         id="path3200"
         transform="matrix(0.1,0,0,-0.1,0,792)"
         d="m 2959.8047,6076.875 h -42.5391"
         style="fill:none;stroke:#000000;stroke-width:3.98505998;stroke-linecap:butt;stroke-linejoin:miter;stroke-miterlimit:10;stroke-opacity:1" />
      <path
         inkscape:connector-curvature="0"
         id="path3202"
         transform="matrix(0.1,0,0,-0.1,0,792)"
         d="m 2959.8047,6275.2734 h -42.5391"
         style="fill:none;stroke:#000000;stroke-width:3.98505998;stroke-linecap:butt;stroke-linejoin:miter;stroke-miterlimit:10;stroke-opacity:1" />
      <path
         inkscape:connector-curvature="0"
         id="path3204"
         transform="matrix(0.1,0,0,-0.1,0,792)"
         d="m 2959.8047,6473.7109 h -42.5391"
         style="fill:none;stroke:#000000;stroke-width:3.98505998;stroke-linecap:butt;stroke-linejoin:miter;stroke-miterlimit:10;stroke-opacity:1" />
      <path
         inkscape:connector-curvature="0"
         id="path3206"
         transform="matrix(0.1,0,0,-0.1,0,792)"
         d="m 2959.8047,6672.1484 h -42.5391"
         style="fill:none;stroke:#000000;stroke-width:3.98505998;stroke-linecap:butt;stroke-linejoin:miter;stroke-miterlimit:10;stroke-opacity:1" />
      <path
         inkscape:connector-curvature="0"
         id="path3208"
         transform="matrix(0.1,0,0,-0.1,0,792)"
         d="m 2959.8047,5481.6016 h -42.5391"
         style="fill:none;stroke:#000000;stroke-width:3.98505998;stroke-linecap:butt;stroke-linejoin:miter;stroke-miterlimit:10;stroke-opacity:1" />
      <g
         id="g3212"
         style="fill:#000000;fill-opacity:1">
        <use
           height="100%"
           width="100%"
           id="use3210"
           y="253.32001"
           x="174.72"
           xlink:href="#glyph0-1" />
      </g>
      <g
         id="g3216"
         style="fill:#000000;fill-opacity:1">
        <use
           height="100%"
           width="100%"
           id="use3214"
           y="253.32001"
           x="204.35989"
           xlink:href="#glyph0-2" />
      </g>
      <g
         id="g3220"
         style="fill:#000000;fill-opacity:1">
        <use
           height="100%"
           width="100%"
           id="use3218"
           y="253.32001"
           x="208.7999"
           xlink:href="#glyph0-1" />
      </g>
      <g
         id="g3224"
         style="fill:#000000;fill-opacity:1">
        <use
           height="100%"
           width="100%"
           id="use3222"
           y="253.32001"
           x="213.23991"
           xlink:href="#glyph0-1" />
      </g>
      <g
         id="g3228"
         style="fill:#000000;fill-opacity:1">
        <use
           height="100%"
           width="100%"
           id="use3226"
           y="253.32001"
           x="238.32005"
           xlink:href="#glyph0-3" />
      </g>
      <g
         id="g3232"
         style="fill:#000000;fill-opacity:1">
        <use
           height="100%"
           width="100%"
           id="use3230"
           y="253.32001"
           x="242.76006"
           xlink:href="#glyph0-1" />
      </g>
      <g
         id="g3236"
         style="fill:#000000;fill-opacity:1">
        <use
           height="100%"
           width="100%"
           id="use3234"
           y="253.32001"
           x="247.20007"
           xlink:href="#glyph0-1" />
      </g>
      <g
         id="g3240"
         style="fill:#000000;fill-opacity:1">
        <use
           height="100%"
           width="100%"
           id="use3238"
           y="253.32001"
           x="272.28021"
           xlink:href="#glyph0-4" />
      </g>
      <g
         id="g3244"
         style="fill:#000000;fill-opacity:1">
        <use
           height="100%"
           width="100%"
           id="use3242"
           y="253.32001"
           x="276.72021"
           xlink:href="#glyph0-1" />
      </g>
      <g
         id="g3248"
         style="fill:#000000;fill-opacity:1">
        <use
           height="100%"
           width="100%"
           id="use3246"
           y="253.32001"
           x="281.16025"
           xlink:href="#glyph0-1" />
      </g>
      <g
         id="g3252"
         style="fill:#000000;fill-opacity:1">
        <use
           height="100%"
           width="100%"
           id="use3250"
           y="246.83992"
           x="169.08015"
           xlink:href="#glyph0-1" />
      </g>
      <g
         id="g3256"
         style="fill:#000000;fill-opacity:1">
        <use
           height="100%"
           width="100%"
           id="use3254"
           y="227.03992"
           x="162.23993"
           xlink:href="#glyph0-1" />
      </g>
      <g
         id="g3260"
         style="fill:#000000;fill-opacity:1">
        <use
           height="100%"
           width="100%"
           id="use3258"
           y="227.03992"
           x="166.67993"
           xlink:href="#glyph0-5" />
      </g>
      <g
         id="g3264"
         style="fill:#000000;fill-opacity:1">
        <use
           height="100%"
           width="100%"
           id="use3262"
           y="227.03992"
           x="169.07994"
           xlink:href="#glyph0-2" />
      </g>
      <g
         id="g3268"
         style="fill:#000000;fill-opacity:1">
        <use
           height="100%"
           width="100%"
           id="use3266"
           y="207.23991"
           x="162.23993"
           xlink:href="#glyph0-1" />
      </g>
      <g
         id="g3272"
         style="fill:#000000;fill-opacity:1">
        <use
           height="100%"
           width="100%"
           id="use3270"
           y="207.23991"
           x="166.67993"
           xlink:href="#glyph0-5" />
      </g>
      <g
         id="g3276"
         style="fill:#000000;fill-opacity:1">
        <use
           height="100%"
           width="100%"
           id="use3274"
           y="207.23991"
           x="169.07994"
           xlink:href="#glyph0-3" />
      </g>
      <g
         id="g3280"
         style="fill:#000000;fill-opacity:1">
        <use
           height="100%"
           width="100%"
           id="use3278"
           y="187.32002"
           x="162.23993"
           xlink:href="#glyph0-1" />
      </g>
      <g
         id="g3284"
         style="fill:#000000;fill-opacity:1">
        <use
           height="100%"
           width="100%"
           id="use3282"
           y="187.32002"
           x="166.67993"
           xlink:href="#glyph0-5" />
      </g>
      <g
         id="g3288"
         style="fill:#000000;fill-opacity:1">
        <use
           height="100%"
           width="100%"
           id="use3286"
           y="187.32002"
           x="169.07994"
           xlink:href="#glyph0-4" />
      </g>
      <g
         id="g3292"
         style="fill:#000000;fill-opacity:1">
        <use
           height="100%"
           width="100%"
           id="use3290"
           y="167.52002"
           x="162.23993"
           xlink:href="#glyph0-1" />
      </g>
      <g
         id="g3296"
         style="fill:#000000;fill-opacity:1">
        <use
           height="100%"
           width="100%"
           id="use3294"
           y="167.52002"
           x="166.67993"
           xlink:href="#glyph0-5" />
      </g>
      <g
         id="g3300"
         style="fill:#000000;fill-opacity:1">
        <use
           height="100%"
           width="100%"
           id="use3298"
           y="167.52002"
           x="169.07994"
           xlink:href="#glyph0-6" />
      </g>
      <g
         id="g3304"
         style="fill:#000000;fill-opacity:1">
        <use
           height="100%"
           width="100%"
           id="use3302"
           y="147.72002"
           x="162.23993"
           xlink:href="#glyph0-7" />
      </g>
      <g
         id="g3308"
         style="fill:#000000;fill-opacity:1">
        <use
           height="100%"
           width="100%"
           id="use3306"
           y="147.72002"
           x="166.67993"
           xlink:href="#glyph0-5" />
      </g>
      <g
         id="g3312"
         style="fill:#000000;fill-opacity:1">
        <use
           height="100%"
           width="100%"
           id="use3310"
           y="147.72002"
           x="169.07994"
           xlink:href="#glyph0-1" />
      </g>
      <g
         id="g3316"
         style="fill:#000000;fill-opacity:1">
        <use
           height="100%"
           width="100%"
           id="use3314"
           y="127.80012"
           x="162.23993"
           xlink:href="#glyph0-7" />
      </g>
      <g
         id="g3320"
         style="fill:#000000;fill-opacity:1">
        <use
           height="100%"
           width="100%"
           id="use3318"
           y="127.80012"
           x="166.67993"
           xlink:href="#glyph0-5" />
      </g>
      <g
         id="g3324"
         style="fill:#000000;fill-opacity:1">
        <use
           height="100%"
           width="100%"
           id="use3322"
           y="127.80012"
           x="169.07994"
           xlink:href="#glyph0-2" />
      </g>
      <g
         id="g2229"
         inkscape:label="g2229-dashes">
        <path
           inkscape:label="path3326-dashes-static"
           style="fill:none;stroke:#000000;stroke-width:5.67043018;stroke-linecap:butt;stroke-linejoin:miter;stroke-miterlimit:10;stroke-opacity:1"
           d="m 1770,6473.7109 c 0,0 18.4848,0 50.8463,0 m 30.5075,0 c 15.2,0 32.2343,0 50.8465,0 m 30.5084,0 c 16.0769,0 33.0687,0 50.8457,0 m 30.5073,0 c 16.4233,0 33.4016,0 50.8461,0 m 30.5082,0 c 16.6165,0 33.5886,0 50.8459,0 m 30.5071,0 c 16.7471,0 33.7159,0 50.8453,0 m 30.5076,0 c 16.8494,0 33.817,0 50.8462,0 m 30.5067,0 c 16.9396,0 33.9068,0 50.8464,0 m 30.5072,0 c 17.0292,0 33.9967,0 50.846,0 m 30.5084,0 c 17.1295,0 34.0984,0 50.8456,0 m 30.5074,0 c 17.2576,0 34.23,0 50.8467,0 m 30.5069,0 c 17.4442,0 34.4222,0 50.8453,0 m 30.5083,0 c 17.7771,0 34.769,0 50.846,0 m 30.5069,0 c 18.6121,0 35.6465,0 50.8466,0 m 30.5069,0 c 31.9878,0 50.4201,0 50.8477,0 m 0.01,0"
           transform="matrix(0.1,0,0,-0.1,0,792)"
           id="path1460"
           inkscape:connector-curvature="0" />
        <path
           inkscape:label="path3326-dashes"
           style="display:none;fill:none;stroke:#000000;stroke-width:5.67043018;stroke-linecap:butt;stroke-linejoin:miter;stroke-miterlimit:10;stroke-dasharray:50.846, 30.5076;stroke-opacity:1"
           d="M 1770,6473.7109 H 2959.8047"
           transform="matrix(0.1,0,0,-0.1,0,792)"
           id="path3326"
           inkscape:connector-curvature="0" />
      </g>
      <g
         id="g3330"
         style="fill:#000000;fill-opacity:1">
        <use
           height="100%"
           width="100%"
           id="use3328"
           y="264.95999"
           x="226.64999"
           xlink:href="#glyph0-8" />
      </g>
      <g
         id="g3334"
         style="fill:#000000;fill-opacity:1">
        <use
           height="100%"
           width="100%"
           id="use3332"
           y="264.95999"
           x="232.64999"
           xlink:href="#glyph1-1" />
      </g>
      <g
         id="g3338"
         style="fill:#000000;fill-opacity:1">
        <use
           height="100%"
           width="100%"
           id="use3336"
           y="264.95999"
           x="235.17"
           xlink:href="#glyph1-2" />
      </g>
      <g
         id="g3342"
         style="fill:#000000;fill-opacity:1">
        <use
           height="100%"
           width="100%"
           id="use3340"
           y="264.95999"
           x="239.61002"
           xlink:href="#glyph1-3" />
      </g>
      <g
         id="g3346"
         style="fill:#000000;fill-opacity:1">
        <use
           height="100%"
           width="100%"
           id="use3344"
           y="264.95999"
           x="243.57001"
           xlink:href="#glyph1-4" />
      </g>
      <g
         id="g3350"
         style="fill:#ffffff;fill-opacity:1">
        <use
           height="100%"
           width="100%"
           id="use3348"
           y="184.672"
           x="146.75999"
           xlink:href="#glyph1-5" />
      </g>
      <g
         id="g3354"
         style="fill:#000000;fill-opacity:1">
        <use
           height="100%"
           width="100%"
           id="use3352"
           y="188.032"
           x="154.89"
           xlink:href="#glyph2-1" />
      </g>
      <g
         id="g3358"
         style="fill:#000000;fill-opacity:1">
        <use
           height="100%"
           width="100%"
           id="use3356"
           y="137.466"
           x="207.595"
           xlink:href="#glyph3-1" />
      </g>
      <g
         id="g3362"
         style="fill:#000000;fill-opacity:1">
        <use
           height="100%"
           width="100%"
           id="use3360"
           y="137.466"
           x="212.27501"
           xlink:href="#glyph3-2" />
      </g>
      <g
         id="g3366"
         style="fill:#000000;fill-opacity:1">
        <use
           height="100%"
           width="100%"
           id="use3364"
           y="137.466"
           x="216.95502"
           xlink:href="#glyph3-3" />
      </g>
      <g
         id="g3370"
         style="fill:#000000;fill-opacity:1">
        <use
           height="100%"
           width="100%"
           id="use3368"
           y="137.466"
           x="222.9552"
           xlink:href="#glyph4-1" />
      </g>
      <g
         id="g3374"
         style="fill:#000000;fill-opacity:1">
        <use
           height="100%"
           width="100%"
           id="use3372"
           y="184.0961"
           x="207.595"
           xlink:href="#glyph3-4" />
      </g>
      <g
         id="g3378"
         style="fill:#000000;fill-opacity:1">
        <use
           height="100%"
           width="100%"
           id="use3376"
           y="184.0961"
           x="212.27501"
           xlink:href="#glyph3-3" />
      </g>
      <g
         id="g3382"
         style="fill:#000000;fill-opacity:1">
        <use
           height="100%"
           width="100%"
           id="use3380"
           y="184.0961"
           x="216.95502"
           xlink:href="#glyph3-3" />
      </g>
      <g
         id="g3386"
         style="fill:#000000;fill-opacity:1">
        <use
           height="100%"
           width="100%"
           id="use3384"
           y="184.0961"
           x="222.9552"
           xlink:href="#glyph4-1" />
      </g>
      <g
         id="g3390"
         style="fill:#000000;fill-opacity:1">
        <use
           height="100%"
           width="100%"
           id="use3388"
           y="216.8363"
           x="207.595"
           xlink:href="#glyph3-5" />
      </g>
      <g
         id="g3394"
         style="fill:#000000;fill-opacity:1">
        <use
           height="100%"
           width="100%"
           id="use3392"
           y="216.8363"
           x="212.27501"
           xlink:href="#glyph3-2" />
      </g>
      <g
         id="g3398"
         style="fill:#000000;fill-opacity:1">
        <use
           height="100%"
           width="100%"
           id="use3396"
           y="216.8363"
           x="216.95502"
           xlink:href="#glyph3-3" />
      </g>
      <g
         id="g3402"
         style="fill:#000000;fill-opacity:1">
        <use
           height="100%"
           width="100%"
           id="use3400"
           y="216.8363"
           x="222.9552"
           xlink:href="#glyph4-1" />
      </g>
      <g
         id="g3406"
         style="fill:#000000;fill-opacity:1">
        <use
           height="100%"
           width="100%"
           id="use3404"
           y="281.8804"
           x="232.05013"
           xlink:href="#glyph4-2" />
      </g>
      <g
         id="g3410"
         style="fill:#000000;fill-opacity:1">
        <use
           height="100%"
           width="100%"
           id="use3408"
           y="281.8804"
           x="234.69011"
           xlink:href="#glyph4-3" />
      </g>
      <g
         id="g3414"
         style="fill:#000000;fill-opacity:1">
        <use
           height="100%"
           width="100%"
           id="use3412"
           y="281.8804"
           x="238.17012"
           xlink:href="#glyph4-4" />
      </g>
    </g>
    <g
       id="g1323"
       inkscape:label="g1323-b">
      <path
         inkscape:connector-curvature="0"
         id="path3416"
         transform="matrix(0.1,0,0,-0.1,0,792)"
         d="m 3669.8438,5488.5156 14.1796,98.8672 14.1797,82.9688 14.1797,71.0937 14.1797,61.5234 14.2188,54.0235 14.1796,48.0469 14.1797,42.8515 14.1797,38.9453 14.1797,34.9219 14.2188,32.1484 14.1796,28.9844 14.1797,27.0313 14.1797,24.6093 14.1797,23.0079 14.1797,21.0546 14.2187,19.4532 14.1797,18.6718 14.1797,17.0704 14.1797,15.8984 14.1797,14.6875 14.1797,13.8672 14.2187,13.5156 14.1797,12.3047 14.1797,11.5234 14.1797,10.7032 14.1797,10.3125 14.2187,9.9609 14.1797,9.1016 14.1797,8.75 14.1797,8.3203 14.1797,7.9687 14.2187,7.5391 28.3594,13.5156 14.1797,6.7188 14.1797,5.9765 14.1797,5.9375 14.2187,5.586 28.3594,10.3125 28.3594,9.5312 14.1796,4.375 14.2188,3.9453 14.1797,4.375 14.1797,3.9453 28.3593,7.1875 14.1797,3.5547 14.2188,3.1641 14.1797,3.2031 14.1797,3.1641 14.1796,2.7734 14.2188,3.1641 14.1797,2.8125 14.1797,2.3828 14.1797,2.7734 28.3593,4.7656 14.2188,2.3829 14.1797,1.9921 14.1797,2.3829 14.1796,1.9531 28.3594,3.9844 14.2188,1.9921 14.1797,1.6016 14.1796,1.9531 28.3594,3.2032 14.2188,1.5625 28.3593,3.2031 14.1797,1.5625 14.1797,1.2109 14.2188,1.5625 14.1797,1.211 14.1796,1.6015"
         style="fill:none;stroke:#000000;stroke-width:11.3366003;stroke-linecap:butt;stroke-linejoin:miter;stroke-miterlimit:10;stroke-opacity:1" />
      <path
         inkscape:connector-curvature="0"
         id="path3418"
         transform="matrix(0.1,0,0,-0.1,0,792)"
         d="M 3642.1094,5481.6016 H 4777.0312 V 6672.7734 H 3642.1094 Z m 0,0"
         style="fill:none;stroke:#000000;stroke-width:5.67043018;stroke-linecap:butt;stroke-linejoin:miter;stroke-miterlimit:10;stroke-opacity:1" />
      <path
         inkscape:connector-curvature="0"
         id="path3420"
         transform="matrix(0.1,0,0,-0.1,0,792)"
         d="m 3642.1094,5481.6016 v 42.5"
         style="fill:none;stroke:#000000;stroke-width:3.98505998;stroke-linecap:butt;stroke-linejoin:miter;stroke-miterlimit:10;stroke-opacity:1" />
      <path
         inkscape:connector-curvature="0"
         id="path3422"
         transform="matrix(0.1,0,0,-0.1,0,792)"
         d="m 3925.8594,5481.6016 v 42.5"
         style="fill:none;stroke:#000000;stroke-width:3.98505998;stroke-linecap:butt;stroke-linejoin:miter;stroke-miterlimit:10;stroke-opacity:1" />
      <path
         inkscape:connector-curvature="0"
         id="path3424"
         transform="matrix(0.1,0,0,-0.1,0,792)"
         d="m 4209.5703,5481.6016 v 42.5"
         style="fill:none;stroke:#000000;stroke-width:3.98505998;stroke-linecap:butt;stroke-linejoin:miter;stroke-miterlimit:10;stroke-opacity:1" />
      <path
         inkscape:connector-curvature="0"
         id="path3426"
         transform="matrix(0.1,0,0,-0.1,0,792)"
         d="m 4493.2812,5481.6016 v 42.5"
         style="fill:none;stroke:#000000;stroke-width:3.98505998;stroke-linecap:butt;stroke-linejoin:miter;stroke-miterlimit:10;stroke-opacity:1" />
      <path
         inkscape:connector-curvature="0"
         id="path3428"
         transform="matrix(0.1,0,0,-0.1,0,792)"
         d="m 4777.0312,5481.6016 v 42.5"
         style="fill:none;stroke:#000000;stroke-width:3.98505998;stroke-linecap:butt;stroke-linejoin:miter;stroke-miterlimit:10;stroke-opacity:1" />
      <path
         inkscape:connector-curvature="0"
         id="path3430"
         transform="matrix(0.1,0,0,-0.1,0,792)"
         d="m 3642.1094,5481.6016 v 42.5"
         style="fill:none;stroke:#000000;stroke-width:3.98505998;stroke-linecap:butt;stroke-linejoin:miter;stroke-miterlimit:10;stroke-opacity:1" />
      <path
         inkscape:connector-curvature="0"
         id="path3432"
         transform="matrix(0.1,0,0,-0.1,0,792)"
         d="m 3642.1094,5481.6016 h 42.539"
         style="fill:none;stroke:#000000;stroke-width:3.98505998;stroke-linecap:butt;stroke-linejoin:miter;stroke-miterlimit:10;stroke-opacity:1" />
      <path
         inkscape:connector-curvature="0"
         id="path3434"
         transform="matrix(0.1,0,0,-0.1,0,792)"
         d="m 3642.1094,5680.1172 h 42.539"
         style="fill:none;stroke:#000000;stroke-width:3.98505998;stroke-linecap:butt;stroke-linejoin:miter;stroke-miterlimit:10;stroke-opacity:1" />
      <path
         inkscape:connector-curvature="0"
         id="path3436"
         transform="matrix(0.1,0,0,-0.1,0,792)"
         d="m 3642.1094,5878.6719 h 42.539"
         style="fill:none;stroke:#000000;stroke-width:3.98505998;stroke-linecap:butt;stroke-linejoin:miter;stroke-miterlimit:10;stroke-opacity:1" />
      <path
         inkscape:connector-curvature="0"
         id="path3438"
         transform="matrix(0.1,0,0,-0.1,0,792)"
         d="m 3642.1094,6077.1875 h 42.539"
         style="fill:none;stroke:#000000;stroke-width:3.98505998;stroke-linecap:butt;stroke-linejoin:miter;stroke-miterlimit:10;stroke-opacity:1" />
      <path
         inkscape:connector-curvature="0"
         id="path3440"
         transform="matrix(0.1,0,0,-0.1,0,792)"
         d="m 3642.1094,6275.7031 h 42.539"
         style="fill:none;stroke:#000000;stroke-width:3.98505998;stroke-linecap:butt;stroke-linejoin:miter;stroke-miterlimit:10;stroke-opacity:1" />
      <path
         inkscape:connector-curvature="0"
         id="path3442"
         transform="matrix(0.1,0,0,-0.1,0,792)"
         d="m 3642.1094,6474.2578 h 42.539"
         style="fill:none;stroke:#000000;stroke-width:3.98505998;stroke-linecap:butt;stroke-linejoin:miter;stroke-miterlimit:10;stroke-opacity:1" />
      <path
         inkscape:connector-curvature="0"
         id="path3444"
         transform="matrix(0.1,0,0,-0.1,0,792)"
         d="m 3642.1094,6672.7734 h 42.539"
         style="fill:none;stroke:#000000;stroke-width:3.98505998;stroke-linecap:butt;stroke-linejoin:miter;stroke-miterlimit:10;stroke-opacity:1" />
      <path
         inkscape:connector-curvature="0"
         id="path3446"
         transform="matrix(0.1,0,0,-0.1,0,792)"
         d="m 3642.1094,5481.6016 h 42.539"
         style="fill:none;stroke:#000000;stroke-width:3.98505998;stroke-linecap:butt;stroke-linejoin:miter;stroke-miterlimit:10;stroke-opacity:1" />
      <path
         inkscape:connector-curvature="0"
         id="path3448"
         transform="matrix(0.1,0,0,-0.1,0,792)"
         d="m 3642.1094,6672.7734 v -42.539"
         style="fill:none;stroke:#000000;stroke-width:3.98505998;stroke-linecap:butt;stroke-linejoin:miter;stroke-miterlimit:10;stroke-opacity:1" />
      <path
         inkscape:connector-curvature="0"
         id="path3450"
         transform="matrix(0.1,0,0,-0.1,0,792)"
         d="m 3925.8594,6672.7734 v -42.539"
         style="fill:none;stroke:#000000;stroke-width:3.98505998;stroke-linecap:butt;stroke-linejoin:miter;stroke-miterlimit:10;stroke-opacity:1" />
      <path
         inkscape:connector-curvature="0"
         id="path3452"
         transform="matrix(0.1,0,0,-0.1,0,792)"
         d="m 4209.5703,6672.7734 v -42.539"
         style="fill:none;stroke:#000000;stroke-width:3.98505998;stroke-linecap:butt;stroke-linejoin:miter;stroke-miterlimit:10;stroke-opacity:1" />
      <path
         inkscape:connector-curvature="0"
         id="path3454"
         transform="matrix(0.1,0,0,-0.1,0,792)"
         d="m 4493.2812,6672.7734 v -42.539"
         style="fill:none;stroke:#000000;stroke-width:3.98505998;stroke-linecap:butt;stroke-linejoin:miter;stroke-miterlimit:10;stroke-opacity:1" />
      <path
         inkscape:connector-curvature="0"
         id="path3456"
         transform="matrix(0.1,0,0,-0.1,0,792)"
         d="m 4777.0312,6672.7734 v -42.539"
         style="fill:none;stroke:#000000;stroke-width:3.98505998;stroke-linecap:butt;stroke-linejoin:miter;stroke-miterlimit:10;stroke-opacity:1" />
      <path
         inkscape:connector-curvature="0"
         id="path3458"
         transform="matrix(0.1,0,0,-0.1,0,792)"
         d="m 3642.1094,6672.7734 v -42.539"
         style="fill:none;stroke:#000000;stroke-width:3.98505998;stroke-linecap:butt;stroke-linejoin:miter;stroke-miterlimit:10;stroke-opacity:1" />
      <path
         inkscape:connector-curvature="0"
         id="path3460"
         transform="matrix(0.1,0,0,-0.1,0,792)"
         d="m 4777.0312,5481.6016 h -42.539"
         style="fill:none;stroke:#000000;stroke-width:3.98505998;stroke-linecap:butt;stroke-linejoin:miter;stroke-miterlimit:10;stroke-opacity:1" />
      <path
         inkscape:connector-curvature="0"
         id="path3462"
         transform="matrix(0.1,0,0,-0.1,0,792)"
         d="m 4777.0312,5680.1172 h -42.539"
         style="fill:none;stroke:#000000;stroke-width:3.98505998;stroke-linecap:butt;stroke-linejoin:miter;stroke-miterlimit:10;stroke-opacity:1" />
      <path
         inkscape:connector-curvature="0"
         id="path3464"
         transform="matrix(0.1,0,0,-0.1,0,792)"
         d="m 4777.0312,5878.6719 h -42.539"
         style="fill:none;stroke:#000000;stroke-width:3.98505998;stroke-linecap:butt;stroke-linejoin:miter;stroke-miterlimit:10;stroke-opacity:1" />
      <path
         inkscape:connector-curvature="0"
         id="path3466"
         transform="matrix(0.1,0,0,-0.1,0,792)"
         d="m 4777.0312,6077.1875 h -42.539"
         style="fill:none;stroke:#000000;stroke-width:3.98505998;stroke-linecap:butt;stroke-linejoin:miter;stroke-miterlimit:10;stroke-opacity:1" />
      <path
         inkscape:connector-curvature="0"
         id="path3468"
         transform="matrix(0.1,0,0,-0.1,0,792)"
         d="m 4777.0312,6275.7031 h -42.539"
         style="fill:none;stroke:#000000;stroke-width:3.98505998;stroke-linecap:butt;stroke-linejoin:miter;stroke-miterlimit:10;stroke-opacity:1" />
      <path
         inkscape:connector-curvature="0"
         id="path3470"
         transform="matrix(0.1,0,0,-0.1,0,792)"
         d="m 4777.0312,6474.2578 h -42.539"
         style="fill:none;stroke:#000000;stroke-width:3.98505998;stroke-linecap:butt;stroke-linejoin:miter;stroke-miterlimit:10;stroke-opacity:1" />
      <path
         inkscape:connector-curvature="0"
         id="path3472"
         transform="matrix(0.1,0,0,-0.1,0,792)"
         d="m 4777.0312,6672.7734 h -42.539"
         style="fill:none;stroke:#000000;stroke-width:3.98505998;stroke-linecap:butt;stroke-linejoin:miter;stroke-miterlimit:10;stroke-opacity:1" />
      <path
         inkscape:connector-curvature="0"
         id="path3474"
         transform="matrix(0.1,0,0,-0.1,0,792)"
         d="m 4777.0312,5481.6016 h -42.539"
         style="fill:none;stroke:#000000;stroke-width:3.98505998;stroke-linecap:butt;stroke-linejoin:miter;stroke-miterlimit:10;stroke-opacity:1" />
      <g
         id="g3478"
         style="fill:#000000;fill-opacity:1">
        <use
           height="100%"
           width="100%"
           id="use3476"
           y="253.32001"
           x="357.492"
           xlink:href="#glyph0-2" />
      </g>
      <g
         id="g3482"
         style="fill:#000000;fill-opacity:1">
        <use
           height="100%"
           width="100%"
           id="use3480"
           y="253.32001"
           x="361.93201"
           xlink:href="#glyph0-1" />
      </g>
      <g
         id="g3486"
         style="fill:#000000;fill-opacity:1">
        <use
           height="100%"
           width="100%"
           id="use3484"
           y="253.32001"
           x="366.37204"
           xlink:href="#glyph0-1" />
      </g>
      <g
         id="g3490"
         style="fill:#000000;fill-opacity:1">
        <use
           height="100%"
           width="100%"
           id="use3488"
           y="253.32001"
           x="385.81204"
           xlink:href="#glyph0-3" />
      </g>
      <g
         id="g3494"
         style="fill:#000000;fill-opacity:1">
        <use
           height="100%"
           width="100%"
           id="use3492"
           y="253.32001"
           x="390.25204"
           xlink:href="#glyph0-1" />
      </g>
      <g
         id="g3498"
         style="fill:#000000;fill-opacity:1">
        <use
           height="100%"
           width="100%"
           id="use3496"
           y="253.32001"
           x="394.69208"
           xlink:href="#glyph0-1" />
      </g>
      <g
         id="g3502"
         style="fill:#000000;fill-opacity:1">
        <use
           height="100%"
           width="100%"
           id="use3500"
           y="253.32001"
           x="414.25195"
           xlink:href="#glyph0-4" />
      </g>
      <g
         id="g3506"
         style="fill:#000000;fill-opacity:1">
        <use
           height="100%"
           width="100%"
           id="use3504"
           y="253.32001"
           x="418.69193"
           xlink:href="#glyph0-1" />
      </g>
      <g
         id="g3510"
         style="fill:#000000;fill-opacity:1">
        <use
           height="100%"
           width="100%"
           id="use3508"
           y="253.32001"
           x="423.1319"
           xlink:href="#glyph0-1" />
      </g>
      <g
         id="g3514"
         style="fill:#000000;fill-opacity:1">
        <use
           height="100%"
           width="100%"
           id="use3512"
           y="253.32001"
           x="442.57193"
           xlink:href="#glyph0-6" />
      </g>
      <g
         id="g3518"
         style="fill:#000000;fill-opacity:1">
        <use
           height="100%"
           width="100%"
           id="use3516"
           y="253.32001"
           x="447.0119"
           xlink:href="#glyph0-1" />
      </g>
      <g
         id="g3522"
         style="fill:#000000;fill-opacity:1">
        <use
           height="100%"
           width="100%"
           id="use3520"
           y="253.32001"
           x="451.45187"
           xlink:href="#glyph0-1" />
      </g>
      <g
         id="g3526"
         style="fill:#000000;fill-opacity:1">
        <use
           height="100%"
           width="100%"
           id="use3524"
           y="253.32001"
           x="468.73206"
           xlink:href="#glyph0-7" />
      </g>
      <g
         id="g3530"
         style="fill:#000000;fill-opacity:1">
        <use
           height="100%"
           width="100%"
           id="use3528"
           y="253.32001"
           x="473.17203"
           xlink:href="#glyph0-1" />
      </g>
      <g
         id="g3534"
         style="fill:#000000;fill-opacity:1">
        <use
           height="100%"
           width="100%"
           id="use3532"
           y="253.32001"
           x="477.612"
           xlink:href="#glyph0-1" />
      </g>
      <g
         id="g3538"
         style="fill:#000000;fill-opacity:1">
        <use
           height="100%"
           width="100%"
           id="use3536"
           y="253.32001"
           x="482.05203"
           xlink:href="#glyph0-1" />
      </g>
      <g
         id="g3542"
         style="fill:#000000;fill-opacity:1">
        <use
           height="100%"
           width="100%"
           id="use3540"
           y="246.83992"
           x="340.81189"
           xlink:href="#glyph5-1" />
      </g>
      <g
         id="g3546"
         style="fill:#000000;fill-opacity:1">
        <use
           height="100%"
           width="100%"
           id="use3544"
           y="246.83992"
           x="347.29199"
           xlink:href="#glyph0-2" />
      </g>
      <g
         id="g3550"
         style="fill:#000000;fill-opacity:1">
        <use
           height="100%"
           width="100%"
           id="use3548"
           y="246.83992"
           x="351.73199"
           xlink:href="#glyph0-9" />
      </g>
      <g
         id="g3554"
         style="fill:#000000;fill-opacity:1">
        <use
           height="100%"
           width="100%"
           id="use3552"
           y="246.83992"
           x="356.172"
           xlink:href="#glyph0-1" />
      </g>
      <g
         id="g3558"
         style="fill:#000000;fill-opacity:1">
        <use
           height="100%"
           width="100%"
           id="use3556"
           y="227.03992"
           x="340.81189"
           xlink:href="#glyph5-1" />
      </g>
      <g
         id="g3562"
         style="fill:#000000;fill-opacity:1">
        <use
           height="100%"
           width="100%"
           id="use3560"
           y="227.03992"
           x="347.29199"
           xlink:href="#glyph0-2" />
      </g>
      <g
         id="g3566"
         style="fill:#000000;fill-opacity:1">
        <use
           height="100%"
           width="100%"
           id="use3564"
           y="227.03992"
           x="351.73199"
           xlink:href="#glyph0-1" />
      </g>
      <g
         id="g3570"
         style="fill:#000000;fill-opacity:1">
        <use
           height="100%"
           width="100%"
           id="use3568"
           y="227.03992"
           x="356.172"
           xlink:href="#glyph0-1" />
      </g>
      <g
         id="g3574"
         style="fill:#000000;fill-opacity:1">
        <use
           height="100%"
           width="100%"
           id="use3572"
           y="207.12003"
           x="340.81189"
           xlink:href="#glyph5-1" />
      </g>
      <g
         id="g3578"
         style="fill:#000000;fill-opacity:1">
        <use
           height="100%"
           width="100%"
           id="use3576"
           y="207.12003"
           x="347.29199"
           xlink:href="#glyph0-7" />
      </g>
      <g
         id="g3582"
         style="fill:#000000;fill-opacity:1">
        <use
           height="100%"
           width="100%"
           id="use3580"
           y="207.12003"
           x="351.73199"
           xlink:href="#glyph0-9" />
      </g>
      <g
         id="g3586"
         style="fill:#000000;fill-opacity:1">
        <use
           height="100%"
           width="100%"
           id="use3584"
           y="207.12003"
           x="356.172"
           xlink:href="#glyph0-1" />
      </g>
      <g
         id="g3590"
         style="fill:#000000;fill-opacity:1">
        <use
           height="100%"
           width="100%"
           id="use3588"
           y="187.32002"
           x="340.81189"
           xlink:href="#glyph5-1" />
      </g>
      <g
         id="g3594"
         style="fill:#000000;fill-opacity:1">
        <use
           height="100%"
           width="100%"
           id="use3592"
           y="187.32002"
           x="347.29199"
           xlink:href="#glyph0-7" />
      </g>
      <g
         id="g3598"
         style="fill:#000000;fill-opacity:1">
        <use
           height="100%"
           width="100%"
           id="use3596"
           y="187.32002"
           x="351.73199"
           xlink:href="#glyph0-1" />
      </g>
      <g
         id="g3602"
         style="fill:#000000;fill-opacity:1">
        <use
           height="100%"
           width="100%"
           id="use3600"
           y="187.32002"
           x="356.172"
           xlink:href="#glyph0-1" />
      </g>
      <g
         id="g3606"
         style="fill:#000000;fill-opacity:1">
        <use
           height="100%"
           width="100%"
           id="use3604"
           y="167.52002"
           x="345.37207"
           xlink:href="#glyph5-1" />
      </g>
      <g
         id="g3610"
         style="fill:#000000;fill-opacity:1">
        <use
           height="100%"
           width="100%"
           id="use3608"
           y="167.52002"
           x="351.85214"
           xlink:href="#glyph0-9" />
      </g>
      <g
         id="g3614"
         style="fill:#000000;fill-opacity:1">
        <use
           height="100%"
           width="100%"
           id="use3612"
           y="167.52002"
           x="356.29214"
           xlink:href="#glyph0-1" />
      </g>
      <g
         id="g3618"
         style="fill:#000000;fill-opacity:1">
        <use
           height="100%"
           width="100%"
           id="use3616"
           y="147.60011"
           x="356.29199"
           xlink:href="#glyph0-1" />
      </g>
      <g
         id="g3622"
         style="fill:#000000;fill-opacity:1">
        <use
           height="100%"
           width="100%"
           id="use3620"
           y="127.80012"
           x="351.85214"
           xlink:href="#glyph0-9" />
      </g>
      <g
         id="g3626"
         style="fill:#000000;fill-opacity:1">
        <use
           height="100%"
           width="100%"
           id="use3624"
           y="127.80012"
           x="356.29214"
           xlink:href="#glyph0-1" />
      </g>
      <g
         id="g2225"
         inkscape:label="g2225-dashes">
        <path
           inkscape:label="path3628-dashes-static"
           style="fill:none;stroke:#000000;stroke-width:5.67043018;stroke-linecap:butt;stroke-linejoin:miter;stroke-miterlimit:10;stroke-opacity:1"
           d="m 3641.4453,6473.9844 c 0,0 17.6316,0 48.4994,0 m 29.1001,0 c 14.4987,0 30.7472,0 48.5008,0 m 29.0992,0 c 15.3352,0 31.5431,0 48.5001,0 m 29.1,0 c 15.6657,0 31.8608,0 48.5006,0 m 29.101,0 c 15.8497,0 32.0386,0 48.4995,0 m 29.1,0 c 15.9746,0 32.1607,0 48.5,0 m 29.1005,0 c 16.0722,0 32.2572,0 48.501,0 m 29.0996,0 c 16.1577,0 32.3418,0 48.4996,0 m 29.1002,0 c 16.2438,0 32.4287,0 48.501,0 m 29.0999,0 c 16.3391,0 32.5251,0 48.4995,0 m 29.0995,0 c 16.461,0 32.6501,0 48.5,0 m 29.1004,0 c 16.6393,0 32.8341,0 48.4995,0 m 29.1005,0 c 16.957,0 33.1649,0 48.5003,0 m 29.0994,0 c 17.7531,0 34.0015,0 48.5005,0 m 29.1,0 c 30.3075,0 47.8607,0 48.5016,0 m 0.018,0"
           transform="matrix(0.1,0,0,-0.1,0,792)"
           id="path1841"
           inkscape:connector-curvature="0" />
        <path
           inkscape:label="path3628-dashes"
           style="display:none;fill:none;stroke:#000000;stroke-width:5.67043018;stroke-linecap:butt;stroke-linejoin:miter;stroke-miterlimit:10;stroke-dasharray:48.5001, 29.1001;stroke-opacity:1"
           d="M 3641.4453,6473.9844 H 4776.3672"
           transform="matrix(0.1,0,0,-0.1,0,792)"
           id="path3628"
           inkscape:connector-curvature="0" />
      </g>
      <g
         id="g3632"
         style="fill:#000000;fill-opacity:1">
        <use
           height="100%"
           width="100%"
           id="use3630"
           y="264.98401"
           x="412.97"
           xlink:href="#glyph0-10" />
      </g>
      <g
         id="g3636"
         style="fill:#000000;fill-opacity:1">
        <use
           height="100%"
           width="100%"
           id="use3634"
           y="264.98401"
           x="419.80984"
           xlink:href="#glyph1-1" />
      </g>
      <g
         id="g3640"
         style="fill:#000000;fill-opacity:1">
        <use
           height="100%"
           width="100%"
           id="use3638"
           y="264.98401"
           x="422.32983"
           xlink:href="#glyph1-6" />
      </g>
      <g
         id="g3644"
         style="fill:#ffffff;fill-opacity:1">
        <use
           height="100%"
           width="100%"
           id="use3642"
           y="184.666"
           x="325.14499"
           xlink:href="#glyph1-5" />
      </g>
      <g
         id="g3648"
         style="fill:#000000;fill-opacity:1">
        <use
           height="100%"
           width="100%"
           id="use3646"
           y="209.98599"
           x="334.922"
           xlink:href="#glyph2-2" />
      </g>
      <g
         id="g3652"
         style="fill:#000000;fill-opacity:1">
        <use
           height="100%"
           width="100%"
           id="use3650"
           y="202.90591"
           x="334.922"
           xlink:href="#glyph6-1" />
      </g>
      <g
         id="g3656"
         style="fill:#000000;fill-opacity:1">
        <use
           height="100%"
           width="100%"
           id="use3654"
           y="200.38593"
           x="334.922"
           xlink:href="#glyph6-2" />
      </g>
      <g
         id="g3660"
         style="fill:#000000;fill-opacity:1">
        <use
           height="100%"
           width="100%"
           id="use3658"
           y="196.42595"
           x="334.922"
           xlink:href="#glyph6-3" />
      </g>
      <g
         id="g3664"
         style="fill:#000000;fill-opacity:1">
        <use
           height="100%"
           width="100%"
           id="use3662"
           y="189.46613"
           x="331.68176"
           xlink:href="#glyph7-1" />
      </g>
      <g
         id="g3668"
         style="fill:#000000;fill-opacity:1">
        <use
           height="100%"
           width="100%"
           id="use3666"
           y="182.62589"
           x="334.922"
           xlink:href="#glyph6-3" />
      </g>
      <g
         id="g3672"
         style="fill:#000000;fill-opacity:1">
        <use
           height="100%"
           width="100%"
           id="use3670"
           y="175.66586"
           x="334.922"
           xlink:href="#glyph6-4" />
      </g>
      <g
         id="g3676"
         style="fill:#000000;fill-opacity:1">
        <use
           height="100%"
           width="100%"
           id="use3674"
           y="171.22589"
           x="334.922"
           xlink:href="#glyph6-5" />
      </g>
      <g
         id="g3680"
         style="fill:#000000;fill-opacity:1">
        <use
           height="100%"
           width="100%"
           id="use3678"
           y="168.70599"
           x="331.68176"
           xlink:href="#glyph8-1" />
      </g>
      <g
         id="g3684"
         style="fill:#000000;fill-opacity:1">
        <use
           height="100%"
           width="100%"
           id="use3682"
           y="163.18607"
           x="331.68176"
           xlink:href="#glyph7-2" />
      </g>
      <g
         id="g3688"
         style="fill:#000000;fill-opacity:1">
        <use
           height="100%"
           width="100%"
           id="use3686"
           y="282.62399"
           x="415.60999"
           xlink:href="#glyph1-7" />
      </g>
      <g
         id="g3692"
         style="fill:#000000;fill-opacity:1">
        <use
           height="100%"
           width="100%"
           id="use3690"
           y="282.62399"
           x="418.61002"
           xlink:href="#glyph1-2" />
      </g>
      <g
         id="g3696"
         style="fill:#000000;fill-opacity:1">
        <use
           height="100%"
           width="100%"
           id="use3694"
           y="282.62399"
           x="423.04999"
           xlink:href="#glyph1-8" />
      </g>
    </g>
  </g>
</svg>
