%!PS-Adobe-3.0 EPSF-3.0
%%Creator: cairo 1.16.0 (https://cairographics.org)
%%CreationDate: Mon May  3 04:05:59 2021
%%Pages: 1
%%DocumentData: Clean7Bit
%%LanguageLevel: 2
%%BoundingBox: 10 11 104 107
%%EndComments
%%BeginProlog
50 dict begin
/q { gsave } bind def
/Q { grestore } bind def
/cm { 6 array astore concat } bind def
/w { setlinewidth } bind def
/J { setlinecap } bind def
/j { setlinejoin } bind def
/M { setmiterlimit } bind def
/d { setdash } bind def
/m { moveto } bind def
/l { lineto } bind def
/c { curveto } bind def
/h { closepath } bind def
/re { exch dup neg 3 1 roll 5 3 roll moveto 0 rlineto
      0 exch rlineto 0 rlineto closepath } bind def
/S { stroke } bind def
/f { fill } bind def
/f* { eofill } bind def
/n { newpath } bind def
/W { clip } bind def
/W* { eoclip } bind def
/BT { } bind def
/ET { } bind def
/BDC { mark 3 1 roll /BDC pdfmark } bind def
/EMC { mark /EMC pdfmark } bind def
/cairo_store_point { /cairo_point_y exch def /cairo_point_x exch def } def
/Tj { show currentpoint cairo_store_point } bind def
/TJ {
  {
    dup
    type /stringtype eq
    { show } { -0.001 mul 0 cairo_font_matrix dtransform rmoveto } ifelse
  } forall
  currentpoint cairo_store_point
} bind def
/cairo_selectfont { cairo_font_matrix aload pop pop pop 0 0 6 array astore
    cairo_font exch selectfont cairo_point_x cairo_point_y moveto } bind def
/Tf { pop /cairo_font exch def /cairo_font_matrix where
      { pop cairo_selectfont } if } bind def
/Td { matrix translate cairo_font_matrix matrix concatmatrix dup
      /cairo_font_matrix exch def dup 4 get exch 5 get cairo_store_point
      /cairo_font where { pop cairo_selectfont } if } bind def
/Tm { 2 copy 8 2 roll 6 array astore /cairo_font_matrix exch def
      cairo_store_point /cairo_font where { pop cairo_selectfont } if } bind def
/g { setgray } bind def
/rg { setrgbcolor } bind def
/d1 { setcachedevice } bind def
/cairo_data_source {
  CairoDataIndex CairoData length lt
    { CairoData CairoDataIndex get /CairoDataIndex CairoDataIndex 1 add def }
    { () } ifelse
} def
/cairo_flush_ascii85_file { cairo_ascii85_file status { cairo_ascii85_file flushfile } if } def
/cairo_image { image cairo_flush_ascii85_file } def
/cairo_imagemask { imagemask cairo_flush_ascii85_file } def
%%EndProlog
%%BeginSetup
%%EndSetup
%%Page: 1 1
%%BeginPageSetup
%%PageBoundingBox: 10 11 104 107
%%EndPageSetup
q 10 11 94 96 rectclip
1 0 0 -1 0 117 cm q
0 g
54.582 23.766 m 53.41 20.484 l 52.238 23.766 l 53.41 22.453 l f
0.425176 w
0 J
0 j
[] 0.0 d
10 M q 1 0 0 -1 0 0 cm
53.41 -105.523 m 53.41 -22.453 l S Q
92.645 64.176 m 95.93 63.004 l 92.645 61.828 l 93.957 63.004 l f
q 1 0 0 -1 0 0 cm
10.891 -63.004 m 93.957 -63.004 l S Q
103.664 60.078 m 101.336 60.078 l 101.305 60.219 l 101.602 60.219 101.992
 60.25 101.992 60.656 c 101.992 60.781 101.961 60.922 101.867 61.25 c 100.805
 65.078 l 100.555 65.984 100.227 65.969 99.883 65.969 c 99.852 66.125 l 
102.211 66.125 l 102.242 65.969 l 101.914 65.969 101.57 65.984 101.57 65.562
 c 101.57 65.438 101.602 65.281 101.664 65.078 c 102.773 61.125 l 102.961
 60.469 103.227 60.219 103.633 60.219 c h
103.664 60.078 m f
53.445 11.688 m 53.445 11.234 53.383 10.75 52.977 10.75 c 52.805 10.75 
52.602 10.859 52.602 11.109 c 52.602 11.484 53.102 11.312 53.102 12.094 
c 53.102 13.109 52.336 14.703 51.555 14.703 c 51.18 14.703 51.008 14.391
 51.008 13.969 c 51.008 13.828 51.055 13.516 51.086 13.359 c 51.68 10.75
 l 50.945 10.75 l 50.398 13.297 l 50.18 14.281 49.758 14.703 49.43 14.703
 c 49.18 14.703 48.977 14.453 48.977 13.984 c 48.977 13.328 49.398 12.078
 49.398 11.594 c 49.398 11.031 49.023 10.75 48.664 10.75 c 48.148 10.75 
47.898 11.219 47.898 11.531 c 47.898 11.609 47.914 11.703 47.961 11.766 
c 48.055 11.766 l 48.055 11.734 48.055 11.719 48.055 11.703 c 48.055 11.531
 48.117 11.156 48.461 11.156 c 48.602 11.156 48.711 11.266 48.711 11.609
 c 48.711 11.922 48.289 13.344 48.289 13.875 c 48.289 14.578 48.852 14.953
 49.305 14.953 c 49.867 14.953 50.398 14.531 50.586 14.062 c 50.633 14.625
 50.977 14.953 51.555 14.953 c 52.648 14.953 53.445 12.906 53.445 11.688
 c h
53.445 11.688 m f
56.73 15.863 m 56.402 16.395 56.09 16.598 55.652 16.598 c 55.246 16.598
 54.949 16.395 54.746 15.988 c 54.621 15.723 54.574 15.504 54.559 15.066
 c 56.715 15.066 l 56.652 14.613 56.59 14.426 56.402 14.191 c 56.199 13.941
 55.887 13.801 55.512 13.801 c 55.168 13.801 54.84 13.926 54.574 14.16 c
 54.246 14.441 54.059 14.941 54.059 15.52 c 54.059 16.473 54.559 17.066 
55.371 17.066 c 56.027 17.066 56.543 16.66 56.84 15.91 c h
54.574 14.848 m 54.652 14.301 54.887 14.051 55.309 14.051 c 55.746 14.051
 55.902 14.238 55.996 14.848 c h
54.574 14.848 m f
57.148 17.004 m 58.805 17.004 l 58.805 16.895 l 58.367 16.879 58.289 16.816
 58.273 16.426 c 58.273 12.254 l 58.242 12.238 l 57.898 12.363 57.633 12.426
 57.133 12.551 c 57.133 12.66 l 57.18 12.66 l 57.258 12.66 57.336 12.645
 57.398 12.645 c 57.617 12.645 57.695 12.738 57.695 13.066 c 57.695 16.395
 l 57.68 16.77 57.586 16.879 57.148 16.895 c h
57.148 17.004 m f
1.41739 w
q 1 0 0 -1 0 0 cm
53.41 -37.492 m 95.93 -28.988 l S Q
q 1 0 0 -1 0 0 cm
53.41 -88.516 m 10.891 -80.008 l S Q
1 g
55.227 37.473 m 55.227 36.453 54.398 35.625 53.379 35.625 c 52.359 35.625
 51.531 36.453 51.531 37.473 c 51.531 38.492 52.359 39.32 53.379 39.32 c
 54.398 39.32 55.227 38.492 55.227 37.473 c f
0 g
55.227 37.473 m 55.227 36.453 54.398 35.625 53.379 35.625 c 52.359 35.625
 51.531 36.453 51.531 37.473 c 51.531 38.492 52.359 39.32 53.379 39.32 c
 54.398 39.32 55.227 38.492 55.227 37.473 c h
55.227 37.473 m 55.039 37.473 l 55.039 36.555 54.297 35.812 53.379 35.812
 c 52.461 35.812 51.719 36.555 51.719 37.473 c 51.719 38.391 52.461 39.133
 53.379 39.133 c 54.297 39.133 55.039 38.391 55.039 37.473 c f
1 g
55.227 88.473 m 55.227 87.453 54.398 86.625 53.379 86.625 c 52.359 86.625
 51.531 87.453 51.531 88.473 c 51.531 89.492 52.359 90.32 53.379 90.32 c
 54.398 90.32 55.227 89.492 55.227 88.473 c f
0 g
55.227 88.473 m 55.227 87.453 54.398 86.625 53.379 86.625 c 52.359 86.625
 51.531 87.453 51.531 88.473 c 51.531 89.492 52.359 90.32 53.379 90.32 c
 54.398 90.32 55.227 89.492 55.227 88.473 c h
55.227 88.473 m 55.039 88.473 l 55.039 87.555 54.297 86.812 53.379 86.812
 c 52.461 86.812 51.719 87.555 51.719 88.473 c 51.719 89.391 52.461 90.133
 53.379 90.133 c 54.297 90.133 55.039 89.391 55.039 88.473 c f
Q Q
showpage
%%Trailer
end
%%EOF
