<?xml version="1.0" encoding="UTF-8" standalone="no"?>
<svg
   xmlns:dc="http://purl.org/dc/elements/1.1/"
   xmlns:cc="http://creativecommons.org/ns#"
   xmlns:rdf="http://www.w3.org/1999/02/22-rdf-syntax-ns#"
   xmlns:svg="http://www.w3.org/2000/svg"
   xmlns="http://www.w3.org/2000/svg"
   xmlns:xlink="http://www.w3.org/1999/xlink"
   id="svg211"
   version="1.2"
   viewBox="0 0 191.49551 125.55273"
   height="125.55273pt"
   width="191.49551pt">
  <title
     id="title1112">examples of shaft work and torque</title>
  <metadata
     id="metadata215">
    <rdf:RDF>
      <cc:Work
         rdf:about="">
        <dc:format>image/svg+xml</dc:format>
        <dc:type
           rdf:resource="http://purl.org/dc/dcmitype/StillImage" />
        <dc:title>examples of shaft work and torque</dc:title>
        <dc:date>2021-05-03</dc:date>
        <dc:creator>
          <cc:Agent>
            <dc:title>Sandoval, Steven Baltakatei</dc:title>
          </cc:Agent>
        </dc:creator>
        <dc:rights>
          <cc:Agent>
            <dc:title>This work &quot;examples of shaft work and torque&quot; is a derivative of &quot;03-SUP/shaft_work.eps&quot; by Howard DeVoe, used under CC BY 4.0. &quot;examples of shaft work and torque&quot; is licensed under CC BY-SA 4.0 by Steven Baltakatei Sandoval.</dc:title>
          </cc:Agent>
        </dc:rights>
        <dc:source>https://gitlab.com/baltakatei/bk-2021-07-1</dc:source>
        <dc:relation>Thermodynamics and Chemistry 2nd Edition, Version 10, by Howard DeVoe, http://www2.chem.umd.edu/thermobook/</dc:relation>
        <dc:language>en</dc:language>
        <dc:description>Two systems with shaft work. The dashed rectangles indicate the system boundaries. System A has an internal weight, cord, and pulley wheel in air; system B has a stirrer immersed in water.</dc:description>
        <cc:license
           rdf:resource="http://creativecommons.org/licenses/by-sa/4.0/" />
      </cc:Work>
      <cc:License
         rdf:about="http://creativecommons.org/licenses/by-sa/4.0/">
        <cc:permits
           rdf:resource="http://creativecommons.org/ns#Reproduction" />
        <cc:permits
           rdf:resource="http://creativecommons.org/ns#Distribution" />
        <cc:requires
           rdf:resource="http://creativecommons.org/ns#Notice" />
        <cc:requires
           rdf:resource="http://creativecommons.org/ns#Attribution" />
        <cc:permits
           rdf:resource="http://creativecommons.org/ns#DerivativeWorks" />
        <cc:requires
           rdf:resource="http://creativecommons.org/ns#ShareAlike" />
      </cc:License>
    </rdf:RDF>
  </metadata>
  <defs
     id="defs46">
    <g
       id="g44">
      <symbol
         style="overflow:visible"
         id="glyph0-0"
         overflow="visible">
        <path
           id="path2"
           d=""
           style="stroke:none" />
      </symbol>
      <symbol
         style="overflow:visible"
         id="glyph0-1"
         overflow="visible">
        <path
           id="path5"
           d="M 5.25,-3.3125 V -3.640625 L 4.578125,-3.6875 C 4.75,-5.140625 4.34375,-6.4375 3.34375,-6.4375 c -0.6875,0 -1.03125,0.625 -1.03125,1.3125 0,0.90625 0.765625,1.53125 1.578125,1.671875 -0.484375,2.5 -1.3125,3.28125 -1.875,3.28125 -0.421875,0 -0.578125,-0.234375 -0.578125,-0.609375 0,-0.203125 0.046875,-0.4375 0.109375,-0.71875 l 0.40625,-1.359375 C 2,-3.046875 2.015625,-3.1875 2.015625,-3.3125 c 0,-0.578125 -0.328125,-0.78125 -0.671875,-0.78125 -0.59375,0 -0.8125,0.609375 -0.8125,1.03125 H 0.6875 c 0.015625,-0.359375 0.1875,-0.578125 0.4375,-0.578125 0.109375,0 0.296875,0.09375 0.296875,0.375 0,0.0625 0,0.125 -0.015625,0.203125 L 1,-1.59375 c -0.0625,0.28125 -0.078125,0.5 -0.078125,0.703125 0,0.6875 0.375,1 1,1 1.578125,0 2.484375,-2.640625 2.625,-3.46875 z M 4,-4.796875 C 4,-4.515625 3.96875,-4.03125 3.921875,-3.78125 3.140625,-3.953125 2.6875,-4.46875 2.6875,-5.234375 c 0,-0.578125 0.296875,-0.90625 0.609375,-0.90625 0.359375,0 0.703125,0.375 0.703125,1.34375 z m 0,0"
           style="stroke:none" />
      </symbol>
      <symbol
         style="overflow:visible"
         id="glyph1-0"
         overflow="visible">
        <path
           id="path8"
           d=""
           style="stroke:none" />
      </symbol>
      <symbol
         style="overflow:visible"
         id="glyph1-1"
         overflow="visible">
        <path
           id="path11"
           d="m 4.015625,-6.0625 h -0.1875 C 3.78125,-5.859375 3.6875,-5.765625 3.53125,-5.765625 c -0.09375,0 -0.234375,-0.03125 -0.390625,-0.09375 C 2.8125,-5.984375 2.46875,-6.0625 2.171875,-6.0625 c -0.375,0 -0.765625,0.15625 -1.0625,0.40625 -0.3125,0.28125 -0.46875,0.65625 -0.46875,1.125 0,0.71875 0.390625,1.21875 1.390625,1.75 0.65625,0.34375 1.109375,0.703125 1.34375,1.046875 0.078125,0.125 0.125,0.3125 0.125,0.53125 0,0.59375 -0.453125,1 -1.109375,1 -0.796875,0 -1.359375,-0.484375 -1.8125,-1.578125 H 0.375 L 0.640625,0.109375 H 0.84375 c 0.015625,-0.15625 0.109375,-0.28125 0.25,-0.28125 0.09375,0 0.25,0.03125 0.421875,0.09375 0.34375,0.125 0.703125,0.203125 1.0625,0.203125 1.03125,0 1.828125,-0.703125 1.828125,-1.640625 0,-0.734375 -0.5,-1.3125 -1.6875,-1.953125 -0.9375,-0.515625 -1.3125,-0.90625 -1.3125,-1.40625 0,-0.484375 0.375,-0.8125 0.9375,-0.8125 0.40625,0 0.78125,0.15625 1.09375,0.484375 0.28125,0.28125 0.40625,0.515625 0.546875,1.046875 h 0.21875 z m 0,0"
           style="stroke:none" />
      </symbol>
      <symbol
         style="overflow:visible"
         id="glyph1-2"
         overflow="visible">
        <path
           id="path14"
           d="m 4.265625,-4.03125 h -1.21875 v 0.125 c 0.296875,0 0.4375,0.078125 0.4375,0.234375 0,0.03125 -0.015625,0.078125 -0.046875,0.140625 L 2.578125,-1.046875 1.546875,-3.3125 c -0.0625,-0.125 -0.09375,-0.25 -0.09375,-0.34375 0,-0.171875 0.140625,-0.234375 0.515625,-0.25 v -0.125 H 0.125 v 0.125 c 0.234375,0.03125 0.390625,0.125 0.453125,0.28125 l 1.03125,2.203125 c 0.109375,0.25 0.109375,0.25 0.15625,0.34375 0.25,0.453125 0.390625,0.78125 0.390625,0.921875 0,0.140625 -0.203125,0.6875 -0.359375,0.96875 -0.125,0.21875 -0.3125,0.390625 -0.4375,0.390625 -0.0625,0 -0.140625,-0.015625 -0.234375,-0.0625 -0.171875,-0.0625 -0.328125,-0.09375 -0.46875,-0.09375 -0.21875,0 -0.390625,0.15625 -0.390625,0.390625 0,0.296875 0.28125,0.515625 0.671875,0.515625 0.609375,0 1.015625,-0.484375 1.515625,-1.796875 L 3.828125,-3.5 c 0.125,-0.28125 0.21875,-0.375 0.4375,-0.40625 z m 0,0"
           style="stroke:none" />
      </symbol>
      <symbol
         style="overflow:visible"
         id="glyph1-3"
         overflow="visible">
        <path
           id="path17"
           d="M 2.828125,-2.8125 2.796875,-4.046875 H 2.6875 C 2.640625,-3.96875 2.59375,-3.953125 2.546875,-3.953125 2.5,-3.953125 2.40625,-3.96875 2.3125,-4.015625 2.09375,-4.078125 1.890625,-4.125 1.671875,-4.125 c -0.703125,0 -1.21875,0.46875 -1.21875,1.109375 0,0.5 0.296875,0.859375 1.046875,1.296875 l 0.53125,0.296875 C 2.34375,-1.25 2.5,-1.03125 2.5,-0.75 c 0,0.390625 -0.296875,0.640625 -0.75,0.640625 -0.625,0 -0.9375,-0.34375 -1.140625,-1.25 H 0.46875 V 0.03125 H 0.578125 C 0.640625,-0.046875 0.6875,-0.078125 0.796875,-0.078125 0.890625,-0.078125 1,-0.046875 1.203125,0 1.4375,0.046875 1.671875,0.09375 1.859375,0.09375 2.5625,0.09375 3.125,-0.4375 3.125,-1.0625 3.125,-1.5 2.90625,-1.796875 2.375,-2.125 L 1.40625,-2.703125 C 1.140625,-2.859375 1.015625,-3.0625 1.015625,-3.3125 c 0,-0.359375 0.28125,-0.609375 0.6875,-0.609375 0.515625,0 0.78125,0.296875 0.984375,1.109375 z m 0,0"
           style="stroke:none" />
      </symbol>
      <symbol
         style="overflow:visible"
         id="glyph1-4"
         overflow="visible">
        <path
           id="path20"
           d="M 2.28125,-4.03125 H 1.375 v -1.046875 c 0,-0.09375 -0.015625,-0.109375 -0.0625,-0.109375 -0.515625,0.75 -0.78125,1.046875 -1.046875,1.203125 -0.09375,0.0625 -0.15625,0.125 -0.15625,0.171875 0,0.03125 0.015625,0.046875 0.046875,0.0625 H 0.625 v 2.703125 c 0,0.75 0.265625,1.140625 0.796875,1.140625 0.4375,0 0.78125,-0.21875 1.078125,-0.6875 L 2.390625,-0.6875 C 2.1875,-0.453125 2.046875,-0.375 1.84375,-0.375 1.515625,-0.375 1.375,-0.625 1.375,-1.1875 V -3.75 h 0.90625 z m 0,0"
           style="stroke:none" />
      </symbol>
      <symbol
         style="overflow:visible"
         id="glyph1-5"
         overflow="visible">
        <path
           id="path23"
           d="m 3.65625,-1.46875 c -0.421875,0.671875 -0.8125,0.9375 -1.390625,0.9375 -0.5,0 -0.890625,-0.265625 -1.15625,-0.765625 -0.15625,-0.34375 -0.21875,-0.625 -0.234375,-1.1875 h 2.75 C 3.5625,-3.0625 3.46875,-3.328125 3.25,-3.609375 2.984375,-3.9375 2.5625,-4.125 2.09375,-4.125 c -0.4375,0 -0.859375,0.15625 -1.203125,0.46875 -0.421875,0.359375 -0.671875,1 -0.671875,1.734375 0,1.234375 0.65625,2.015625 1.6875,2.015625 0.84375,0 1.515625,-0.53125 1.890625,-1.5 z M 0.890625,-2.765625 c 0.09375,-0.703125 0.40625,-1.03125 0.953125,-1.03125 0.546875,0 0.75,0.25 0.875,1.03125 z m 0,0"
           style="stroke:none" />
      </symbol>
      <symbol
         style="overflow:visible"
         id="glyph1-6"
         overflow="visible">
        <path
           id="path26"
           d="m 0.140625,0 h 2 v -0.140625 c -0.46875,0 -0.609375,-0.09375 -0.609375,-0.453125 V -3.125 c 0,-0.015625 0.0625,-0.109375 0.125,-0.171875 C 1.890625,-3.5 2.265625,-3.65625 2.578125,-3.65625 c 0.40625,0 0.59375,0.3125 0.59375,0.9375 v 1.953125 c -0.015625,0.5 -0.109375,0.609375 -0.609375,0.625 V 0 h 2.015625 v -0.140625 c -0.5,0 -0.625,-0.140625 -0.65625,-0.71875 v -2.25 C 4.203125,-3.5 4.484375,-3.65625 4.90625,-3.65625 c 0.515625,0 0.671875,0.234375 0.671875,0.984375 V -0.78125 C 5.5625,-0.25 5.5,-0.1875 4.984375,-0.140625 V 0 h 1.96875 V -0.140625 L 6.71875,-0.15625 C 6.4375,-0.203125 6.328125,-0.328125 6.328125,-0.6875 v -1.84375 c 0,-1.0625 -0.34375,-1.59375 -1.03125,-1.59375 -0.53125,0 -0.984375,0.234375 -1.46875,0.75 -0.15625,-0.515625 -0.46875,-0.75 -0.953125,-0.75 -0.40625,0 -0.640625,0.109375 -1.390625,0.6875 V -4.109375 L 1.421875,-4.125 c -0.46875,0.171875 -0.78125,0.265625 -1.25,0.40625 v 0.15625 c 0.109375,-0.03125 0.1875,-0.046875 0.28125,-0.046875 0.234375,0 0.3125,0.140625 0.3125,0.578125 v 2.265625 c -0.015625,0.5 -0.125,0.625 -0.625,0.625 z m 0,0"
           style="stroke:none" />
      </symbol>
      <symbol
         style="overflow:visible"
         id="glyph1-7"
         overflow="visible">
        <path
           id="path29"
           d="M 6.328125,-0.171875 C 5.921875,-0.203125 5.84375,-0.28125 5.53125,-0.953125 l -2.234375,-5.09375 h -0.1875 L 1.25,-1.640625 c -0.578125,1.3125 -0.6875,1.453125 -1.109375,1.46875 V 0 H 1.90625 v -0.171875 c -0.421875,0 -0.609375,-0.109375 -0.609375,-0.359375 0,-0.109375 0.03125,-0.234375 0.078125,-0.359375 L 1.78125,-1.9375 H 4.140625 L 4.5,-1.078125 c 0.109375,0.25 0.171875,0.484375 0.171875,0.609375 0,0.21875 -0.15625,0.296875 -0.625,0.296875 V 0 h 2.28125 z M 1.9375,-2.3125 2.96875,-4.765625 4.015625,-2.3125 Z m 0,0"
           style="stroke:none" />
      </symbol>
      <symbol
         style="overflow:visible"
         id="glyph1-8"
         overflow="visible">
        <path
           id="path32"
           d="m 5.125,-4.03125 v 0.125 c 0.296875,0.0625 0.390625,0.125 0.390625,0.28125 0,0.140625 -0.046875,0.34375 -0.15625,0.59375 l -0.796875,1.984375 -0.765625,-2 C 3.65625,-3.46875 3.65625,-3.46875 3.65625,-3.578125 3.65625,-3.78125 3.75,-3.84375 4.171875,-3.90625 v -0.125 H 2.34375 v 0.125 c 0.34375,0.046875 0.453125,0.140625 0.625,0.625 0.046875,0.125 0.125,0.34375 0.171875,0.5 L 2.328125,-1 1.4375,-3.34375 C 1.40625,-3.421875 1.390625,-3.515625 1.390625,-3.609375 c 0,-0.1875 0.09375,-0.25 0.40625,-0.296875 v -0.125 H 0.1875 v 0.125 c 0.203125,0.015625 0.28125,0.109375 0.46875,0.5625 L 1.875,-0.265625 C 1.984375,0.015625 2.046875,0.125 2.109375,0.125 2.15625,0.125 2.21875,0.015625 2.328125,-0.21875 L 3.34375,-2.375 4.15625,-0.265625 C 4.28125,0.078125 4.3125,0.125 4.375,0.125 c 0.0625,0 0.09375,-0.078125 0.25,-0.4375 l 1.234375,-3.109375 c 0.15625,-0.375 0.1875,-0.421875 0.359375,-0.484375 v -0.125 z m 0,0"
           style="stroke:none" />
      </symbol>
      <symbol
         style="overflow:visible"
         id="glyph1-9"
         overflow="visible">
        <path
           id="path35"
           d="m 3.96875,-0.59375 c -0.15625,0.125 -0.265625,0.171875 -0.40625,0.171875 -0.203125,0 -0.265625,-0.125 -0.265625,-0.515625 v -1.75 C 3.296875,-3.15625 3.25,-3.421875 3.125,-3.625 c -0.203125,-0.328125 -0.59375,-0.5 -1.109375,-0.5 -0.84375,0 -1.515625,0.4375 -1.515625,1 0,0.203125 0.171875,0.390625 0.390625,0.390625 0.21875,0 0.40625,-0.1875 0.40625,-0.375 C 1.296875,-3.140625 1.28125,-3.1875 1.28125,-3.25 1.25,-3.34375 1.25,-3.40625 1.25,-3.46875 c 0,-0.25 0.28125,-0.4375 0.640625,-0.4375 0.4375,0 0.6875,0.25 0.6875,0.734375 V -2.625 c -1.375,0.546875 -1.53125,0.640625 -1.921875,0.96875 -0.203125,0.1875 -0.328125,0.484375 -0.328125,0.78125 0,0.5625 0.390625,0.96875 0.953125,0.96875 0.390625,0 0.75,-0.1875 1.296875,-0.65625 0.046875,0.46875 0.21875,0.65625 0.578125,0.65625 0.3125,0 0.5,-0.109375 0.8125,-0.453125 z M 2.578125,-1.109375 c 0,0.28125 -0.046875,0.375 -0.234375,0.484375 C 2.109375,-0.5 1.875,-0.4375 1.6875,-0.4375 1.375,-0.4375 1.125,-0.734375 1.125,-1.125 v -0.03125 c 0,-0.53125 0.40625,-0.875 1.453125,-1.25 z m 0,0"
           style="stroke:none" />
      </symbol>
      <symbol
         style="overflow:visible"
         id="glyph1-10"
         overflow="visible">
        <path
           id="path38"
           d="m 0.046875,0 h 2.15625 V -0.140625 C 1.59375,-0.15625 1.453125,-0.28125 1.4375,-0.8125 v -2.015625 c 0,-0.28125 0.375,-0.734375 0.625,-0.734375 0.046875,0 0.140625,0.046875 0.234375,0.140625 C 2.4375,-3.296875 2.53125,-3.25 2.65625,-3.25 2.875,-3.25 3,-3.40625 3,-3.65625 3,-3.953125 2.8125,-4.125 2.515625,-4.125 c -0.375,0 -0.625,0.203125 -1.078125,0.84375 V -4.109375 L 1.390625,-4.125 c -0.5,0.203125 -0.828125,0.328125 -1.328125,0.484375 V -3.5 c 0.125,-0.03125 0.203125,-0.03125 0.3125,-0.03125 0.21875,0 0.3125,0.140625 0.3125,0.53125 v 2.25 c -0.03125,0.46875 -0.078125,0.515625 -0.640625,0.609375 z m 0,0"
           style="stroke:none" />
      </symbol>
      <symbol
         style="overflow:visible"
         id="glyph1-11"
         overflow="visible">
        <path
           id="path41"
           d="M 0.15625,-5.765625 C 0.90625,-5.71875 1,-5.625 1.015625,-4.953125 v 3.96875 C 1,-0.3125 0.890625,-0.203125 0.15625,-0.171875 V 0 h 2.984375 c 0.703125,0 1.34375,-0.1875 1.671875,-0.5 0.328125,-0.28125 0.5,-0.6875 0.5,-1.109375 C 5.3125,-2.015625 5.171875,-2.375 4.875,-2.625 4.609375,-2.875 4.375,-2.984375 3.78125,-3.125 4.25,-3.234375 4.4375,-3.328125 4.65625,-3.515625 4.875,-3.71875 5.015625,-4.03125 5.015625,-4.40625 c 0,-1.015625 -0.8125,-1.53125 -2.359375,-1.53125 h -2.5 z m 1.765625,2.84375 c 0.875,0 1.28125,0.046875 1.609375,0.1875 0.515625,0.203125 0.75,0.578125 0.75,1.125 0,0.484375 -0.1875,0.84375 -0.546875,1.046875 -0.28125,0.15625 -0.65625,0.234375 -1.234375,0.234375 -0.453125,0 -0.578125,-0.078125 -0.578125,-0.375 z m 0,-0.359375 v -2.0625 c 0.015625,-0.1875 0.046875,-0.25 0.203125,-0.25 l 0.390625,-0.015625 c 1,-0.015625 1.578125,0.4375 1.578125,1.234375 0,0.703125 -0.453125,1.078125 -1.3125,1.09375 z m 0,0"
           style="stroke:none" />
      </symbol>
    </g>
  </defs>
  <g
     transform="translate(-137.99834,-112.46449)"
     id="surface752">
    <g
       id="g1342">
      <g
         id="g1470">
        <path
           id="path1344"
           transform="matrix(0.1,0,0,-0.1,0,792)"
           d="m 1501.25,6168.75 c 0,0 0,-5.4931 0,-15.0043 m 0,-19.9666 c 0,-8.7922 0,-18.9071 0,-29.9482 m 0,-19.9657 c 0,-9.6026 0,-19.6533 0,-29.9477 m 0,-19.9657 c 0,-9.9394 0,-19.98 0,-29.9493 m 0,-19.9665 c 0,-10.2536 0,-20.3022 0,-29.9484 m 0,-19.9654 c 0,-10.9037 0,-21.0047 0,-29.9481 m 0,-19.9651 c 0,-12.6702 0,-20.1856 0,-20.1856 0,0 3.4377,0 9.7638,0 m 19.9655,0 c 8.4818,0 18.5606,0 29.9485,0 m 19.9657,0 c 9.3958,0 19.417,0 29.9485,0 m 19.9657,0 c 9.675,0 19.6829,0 29.9475,0 m 19.965,0 c 9.8233,0 19.8266,0 29.9488,0 m 19.9664,0 c 9.9276,0 19.9292,0 29.9492,0 m 19.9656,0 c 10.02,0 20.0215,0 29.9488,0 m 19.9664,0 c 10.1221,0 20.1251,0 29.9479,0 m 19.9653,0 c 10.2653,0 20.2735,0 29.9485,0 m 19.9653,0 c 10.5322,0 20.5535,0 29.9487,0 m 19.9662,0 c 11.3908,0 21.4696,0 29.948,0 m 19.9656,0 c 6.2751,0 9.6838,0 9.6838,0 0,0 0,7.2857 0,20.264 m 0,19.9655 c 0,8.8007 0,18.8497 0,29.9484 m 0,19.966 c 0,9.4542 0,19.4679 0,29.9494 m 0,19.9656 c 0,9.6865 0,19.6903 0,29.9491 m 0,19.9657 c 0,9.8133 0,19.8126 0,29.9478 m 0,19.9657 c 0,9.9021 0,19.8999 0,29.9491 m 0,19.9649 c 0,9.9756 0,19.9725 0,29.9479 m 0,19.9653 c 0,10.0492 0,20.0471 0,29.949 m 0,19.9651 c 0,10.1359 0,20.1357 0,29.9492 m 0,19.9656 c 0,10.2587 0,20.262 0,29.9478 m 0,19.9663 c 0,10.4821 0,20.4958 0,29.9494 m 0,19.9651 c 0,11.1014 0,21.1508 0,29.9492 m 0,19.9664 c 0,12.9167 0,20.1657 0,20.1657 0,0 -3.4443,0 -9.7819,0 m -19.9658,0 c -8.4828,0 -18.5618,0 -29.9495,0 m -19.9652,0 c -9.3956,0 -19.4166,0 -29.9475,0 m -19.9659,0 c -9.6757,0 -19.6842,0 -29.9494,0 m -19.9647,0 c -9.8231,0 -19.8263,0 -29.9482,0 m -19.9658,0 c -9.9273,0 -19.9285,0 -29.9481,0 m -19.9663,0 c -10.02,0 -20.0215,0 -29.9488,0 m -19.9652,0 c -10.1223,0 -20.1254,0 -29.9483,0 m -19.9659,0 c -10.2657,0 -20.2742,0 -29.9494,0 m -19.966,0 c -10.5319,0 -20.5529,0 -29.9476,0 m -19.9658,0 c -11.3919,0 -21.4712,0 -29.9492,0 m -19.9651,0 c -6.2632,0 -9.6651,0 -9.6651,0 0,0 0,-7.5541 0,-20.2836 m 0,-19.965 c 0,-8.9461 0,-19.0469 0,-29.9483 m 0,-19.9649 c 0,-9.6473 0,-19.6963 0,-29.9495 m 0,-19.9662 c 0,-9.9694 0,-20.0094 0,-29.9478 m 0,-19.9659 c 0,-10.2956 0,-20.3466 0,-29.9485 m 0,-19.9655 c 0,-11.0442 0,-21.1596 0,-29.9487 m 0,-19.9667 c 0,-9.4507 0,-14.906 0,-14.906 m 0,0"
           style="display:inline;fill:none;stroke:#000000;stroke-width:5.67043018;stroke-linecap:butt;stroke-linejoin:miter;stroke-miterlimit:10;stroke-dashoffset:14.94400024;stroke-opacity:1" />
        <path
           id="path48"
           transform="matrix(0.1,0,0,-0.1,0,792)"
           d="m 1501.25,6168.75 v -304.7266 h 538.5547 v 609.4532 H 1501.25 Z m 0,0"
           style="display:none;fill:none;stroke:#000000;stroke-width:5.67043018;stroke-linecap:butt;stroke-linejoin:miter;stroke-miterlimit:10;stroke-dasharray:29.9485, 19.9657;stroke-dashoffset:14.94400024;stroke-opacity:1" />
      </g>
      <path
         style="fill:none;stroke:#000000;stroke-width:14.17389965;stroke-linecap:butt;stroke-linejoin:miter;stroke-miterlimit:10;stroke-opacity:1"
         d="m 1487.0703,6615.1953 v -765.3516 h 566.9141 v 765.3516"
         transform="matrix(0.1,0,0,-0.1,0,792)"
         id="path50" />
      <path
         style="fill:none;stroke:#000000;stroke-width:5.67043018;stroke-linecap:butt;stroke-linejoin:miter;stroke-miterlimit:10;stroke-opacity:1"
         d="M 1895.2344,6292.0312 V 6671.875"
         transform="matrix(0.1,0,0,-0.1,0,792)"
         id="path52" />
      <path
         style="fill:none;stroke:#000000;stroke-width:5.67043018;stroke-linecap:butt;stroke-linejoin:miter;stroke-miterlimit:10;stroke-opacity:1"
         d="M 1929.2578,6292.0312 V 6671.875"
         transform="matrix(0.1,0,0,-0.1,0,792)"
         id="path54" />
      <path
         style="fill:none;stroke:#000000;stroke-width:5.67043018;stroke-linecap:butt;stroke-linejoin:miter;stroke-miterlimit:10;stroke-opacity:1"
         d="m 1895.2344,6671.875 c 0,0 5.8594,7.4219 9.9609,7.1094 3.3203,-0.2735 4.6094,-4.6485 7.0703,-7.1094 2.461,-2.4219 3.711,-6.7969 7.0703,-7.0703 4.1016,-0.3516 9.9219,3.0859 9.9219,7.0703 0,3.9844 -5.8203,7.4219 -9.9219,7.1094 -3.3593,-0.2735 -7.0703,-7.1094 -7.0703,-7.1094"
         transform="matrix(0.1,0,0,-0.1,0,792)"
         id="path56" />
      <path
         style="fill:none;stroke:#000000;stroke-width:5.67043018;stroke-linecap:butt;stroke-linejoin:miter;stroke-miterlimit:10;stroke-opacity:1"
         d="m 1886.7578,6246.6797 v -45.3516 h 51.0156 v 90.7031 h -51.0156 z m 0,0"
         transform="matrix(0.1,0,0,-0.1,0,792)"
         id="path58" />
      <path
         style="fill:#000000;fill-opacity:1;fill-rule:nonzero;stroke:none"
         d="m 193.06641,167.33203 c 0,-0.62891 -0.31641,-1.13281 -0.70704,-1.13281 -0.39062,0 -0.70703,0.5039 -0.70703,1.13281 0,0.625 0.31641,1.13281 0.70703,1.13281 0.39063,0 0.70704,-0.50781 0.70704,-1.13281"
         id="path60" />
      <path
         style="fill:none;stroke:#000000;stroke-width:5.67043018;stroke-linecap:round;stroke-linejoin:miter;stroke-miterlimit:10;stroke-opacity:1"
         d="m 1912.2656,6224.0234 0.9766,0.1563"
         transform="matrix(0.1,0,0,-0.1,0,792)"
         id="path62" />
      <path
         style="fill:none;stroke:#000000;stroke-width:5.67043018;stroke-linecap:round;stroke-linejoin:miter;stroke-miterlimit:10;stroke-opacity:1"
         d="m 1943.4375,6229.6875 -0.9766,-0.1953"
         transform="matrix(0.1,0,0,-0.1,0,792)"
         id="path64" />
      <path
         style="fill:none;stroke:#000000;stroke-width:5.67043018;stroke-linecap:butt;stroke-linejoin:miter;stroke-miterlimit:10;stroke-opacity:1"
         d="m 1912.2656,6224.0234 31.1719,5.6641"
         transform="matrix(0.1,0,0,-0.1,0,792)"
         id="path66" />
      <path
         style="fill:none;stroke:#000000;stroke-width:5.6704402;stroke-linecap:round;stroke-linejoin:miter;stroke-miterlimit:10;stroke-opacity:1"
         d="m 1881.0938,6241.0156 0.9765,0.1172"
         transform="matrix(0.1,0,0,-0.1,0,792)"
         id="path68" />
      <path
         style="fill:none;stroke:#000000;stroke-width:5.6704402;stroke-linecap:round;stroke-linejoin:miter;stroke-miterlimit:10;stroke-opacity:1"
         d="m 1923.5938,6246.6797 -0.9766,-0.1172"
         transform="matrix(0.1,0,0,-0.1,0,792)"
         id="path70" />
      <path
         style="fill:none;stroke:#000000;stroke-width:5.67043018;stroke-linecap:butt;stroke-linejoin:miter;stroke-miterlimit:10;stroke-opacity:1"
         d="m 1881.0938,6241.0156 42.5,5.6641"
         transform="matrix(0.1,0,0,-0.1,0,792)"
         id="path72" />
      <path
         style="fill:none;stroke:#000000;stroke-width:5.67043018;stroke-linecap:butt;stroke-linejoin:miter;stroke-miterlimit:10;stroke-opacity:1"
         d="m 1742.1875,6181.4844 c 0,23.4765 -19.0625,42.539 -42.5391,42.539 -23.4765,0 -42.5,-19.0625 -42.5,-42.539 0,-23.4766 19.0235,-42.5 42.5,-42.5 23.4766,0 42.5391,19.0234 42.5391,42.5 z m 0,0"
         transform="matrix(0.1,0,0,-0.1,0,792)"
         id="path74" />
      <path
         style="fill:#000000;fill-opacity:1;fill-rule:nonzero;stroke:none"
         d="m 170.81641,173.85156 c 0,-0.46875 -0.37891,-0.85156 -0.85157,-0.85156 -0.46875,0 -0.84765,0.38281 -0.84765,0.85156 0,0.46875 0.3789,0.84766 0.84765,0.84766 0.47266,0 0.85157,-0.37891 0.85157,-0.84766"
         id="path76" />
      <path
         style="fill:none;stroke:#000000;stroke-width:5.67043018;stroke-linecap:butt;stroke-linejoin:miter;stroke-miterlimit:10;stroke-opacity:1"
         d="m 1699.6484,6224.0234 h 212.6172"
         transform="matrix(0.1,0,0,-0.1,0,792)"
         id="path78" />
      <path
         style="fill:none;stroke:#000000;stroke-width:5.67043018;stroke-linecap:butt;stroke-linejoin:miter;stroke-miterlimit:10;stroke-opacity:1"
         d="M 1657.1484,6181.4844 V 6026.9922"
         transform="matrix(0.1,0,0,-0.1,0,792)"
         id="path80" />
      <path
         style="fill:none;stroke:#000000;stroke-width:5.67043018;stroke-linecap:butt;stroke-linejoin:miter;stroke-miterlimit:10;stroke-opacity:1"
         d="m 1625.2344,5991.5625 3.5547,35.4297 h 56.7187 l 7.0703,-70.8594 h -70.8593 z m 0,0"
         transform="matrix(0.1,0,0,-0.1,0,792)"
         id="path82" />
      <path
         style="fill:#000000;fill-opacity:1;fill-rule:nonzero;stroke:none"
         d="m 200.62891,131.63672 -3.73438,-1.15625 2.15625,3.25781 -0.39062,-1.93359"
         id="path84" />
      <path
         style="fill:none;stroke:#ffffff;stroke-width:17.01129913;stroke-linecap:butt;stroke-linejoin:miter;stroke-miterlimit:10;stroke-opacity:1"
         d="m 1855.5859,6615.1953 c -113.3984,-85.0391 226.7579,-85.0391 131.0157,-13.2422"
         transform="matrix(0.1,0,0,-0.1,0,792)"
         id="path86" />
      <path
         style="fill:none;stroke:#000000;stroke-width:5.67043018;stroke-linecap:butt;stroke-linejoin:miter;stroke-miterlimit:10;stroke-opacity:1"
         d="m 1855.5859,6615.1953 c -113.3984,-85.0391 226.7579,-85.0391 131.0157,-13.2422"
         transform="matrix(0.1,0,0,-0.1,0,792)"
         id="path88" />
      <path
         style="fill:#000000;fill-opacity:1;fill-rule:nonzero;stroke:none"
         d="m 200.62891,131.63672 -3.73438,-1.15625 2.15625,3.25781 -0.39062,-1.93359"
         id="path90" />
      <g
         style="fill:#000000;fill-opacity:1"
         id="g94">
        <use
           xlink:href="#glyph0-1"
           x="195.313"
           y="128.90199"
           id="use92"
           width="100%"
           height="100%" />
      </g>
      <g
         style="fill:#000000;fill-opacity:1"
         id="g98">
        <use
           xlink:href="#glyph1-1"
           x="159.5329"
           y="226.0641"
           id="use96"
           width="100%"
           height="100%" />
      </g>
      <g
         style="fill:#000000;fill-opacity:1"
         id="g102">
        <use
           xlink:href="#glyph1-2"
           x="164.57291"
           y="226.0641"
           id="use100"
           width="100%"
           height="100%" />
      </g>
      <g
         style="fill:#000000;fill-opacity:1"
         id="g106">
        <use
           xlink:href="#glyph1-3"
           x="169.01289"
           y="226.0641"
           id="use104"
           width="100%"
           height="100%" />
      </g>
      <g
         style="fill:#000000;fill-opacity:1"
         id="g110">
        <use
           xlink:href="#glyph1-4"
           x="172.4929"
           y="226.0641"
           id="use108"
           width="100%"
           height="100%" />
      </g>
      <g
         style="fill:#000000;fill-opacity:1"
         id="g114">
        <use
           xlink:href="#glyph1-5"
           x="175.01291"
           y="226.0641"
           id="use112"
           width="100%"
           height="100%" />
      </g>
      <g
         style="fill:#000000;fill-opacity:1"
         id="g118">
        <use
           xlink:href="#glyph1-6"
           x="178.97292"
           y="226.0641"
           id="use116"
           width="100%"
           height="100%" />
      </g>
      <g
         style="fill:#000000;fill-opacity:1"
         id="g122">
        <use
           xlink:href="#glyph1-7"
           x="188.09308"
           y="226.0641"
           id="use120"
           width="100%"
           height="100%" />
      </g>
    </g>
    <g
       id="g1302">
      <path
         style="fill:#bfd4e6;fill-opacity:1;fill-rule:nonzero;stroke:none"
         d="m 262.09375,177.25391 v 29.76171 h 56.69141 v -59.52734 h -56.69141"
         id="path124" />
      <g
         id="g1255">
        <path
           id="path1133"
           transform="matrix(0.1,0,0,-0.1,0,792)"
           d="m 2635.1172,6168.75 c 0,0 0,-5.4931 0,-15.0043 m 0,-19.9646 c 0,-8.792 0,-18.9069 0,-29.948 m 0,-19.9657 c 0,-9.6026 0,-19.6533 0,-29.9478 m 0,-19.9657 c 0,-9.9396 0,-19.9802 0,-29.9496 m 0,-19.9651 c 0,-10.2538 0,-20.3026 0,-29.949 m 0,-19.9659 c 0,-10.9041 0,-21.0053 0,-29.949 m 0,-19.9657 c 0,-12.6706 0,-20.1862 0,-20.1862 0,0 3.4371,0 9.762,0 m 19.9659,0 c 8.4817,0 18.5603,0 29.9481,0 m 19.9656,0 c 9.3957,0 19.417,0 29.9484,0 m 19.9657,0 c 9.675,0 19.6828,0 29.9475,0 m 19.965,0 c 9.8233,0 19.8267,0 29.9489,0 m 19.9665,0 c 9.9271,0 19.9281,0 29.9476,0 m 19.9657,0 c 10.0201,0 20.0217,0 29.9491,0 m 19.9653,0 c 10.1222,0 20.1254,0 29.9483,0 m 19.9657,0 c 10.2655,0 20.2739,0 29.9491,0 m 19.9657,0 c 10.5318,0 20.5529,0 29.9479,0 m 19.965,0 c 11.3904,0 21.4691,0 29.9476,0 m 19.9666,0 c 6.2774,0 9.6875,0 9.6875,0 0,0 0,7.2847 0,20.2613 m 0,19.9664 c 0,8.8005 0,18.8494 0,29.948 m 0,19.9659 c 0,9.4541 0,19.4678 0,29.9492 m 0,19.9656 c 0,9.6865 0,19.6903 0,29.9491 m 0,19.9647 c 0,9.8133 0,19.8126 0,29.9479 m 0,19.9657 c 0,9.9022 0,19.9001 0,29.9493 m 0,19.965 c 0,9.9756 0,19.9726 0,29.9481 m 0,19.9654 c 0,10.0489 0,20.0463 0,29.9477 m 0,19.9654 c 0,10.1356 0,20.135 0,29.9483 m 0,19.966 c 0,10.2589 0,20.2625 0,29.9485 m 0,19.965 c 0,10.4814 0,20.4945 0,29.9476 m 0,19.9665 c 0,11.1008 0,21.15 0,29.9483 m 0,19.966 c 0,12.9209 0,20.1723 0,20.1723 0,0 -3.4423,0 -9.7765,0 m -19.9656,0 c -8.4822,0 -18.5608,0 -29.948,0 m -19.9666,0 c -9.396,0 -19.4176,0 -29.9492,0 m -19.9658,0 c -9.675,0 -19.6829,0 -29.9475,0 m -19.9648,0 c -9.8231,0 -19.8263,0 -29.9484,0 m -19.9659,0 c -9.9274,0 -19.9287,0 -29.9484,0 m -19.965,0 c -10.0197,0 -20.0209,0 -29.9479,0 m -19.9657,0 c -10.1225,0 -20.126,0 -29.9492,0 m -19.9665,0 c -10.2652,0 -20.2734,0 -29.9483,0 m -19.9653,0 c -10.532,0 -20.5532,0 -29.9481,0 m -19.9655,0 c -11.391,0 -21.4697,0 -29.9477,0 m -19.9647,0 c -6.2689,0 -9.6741,0 -9.6741,0 0,0 0,-7.5505 0,-20.2743 m 0,-19.9652 c 0,-8.9459 0,-19.0468 0,-29.9486 m 0,-19.9649 c 0,-9.6467 0,-19.6951 0,-29.9478 m 0,-19.9668 c 0,-9.9697 0,-20.0102 0,-29.9491 m 0,-19.9653 c 0,-10.2958 0,-20.347 0,-29.9493 m 0,-19.9652 c 0,-11.0438 0,-21.1591 0,-29.9484 m 0,-19.9662 c 0,-9.4566 0,-14.9155 0,-14.9155 m 0,0"
           style="display:inline;fill:none;stroke:#000000;stroke-width:5.67043018;stroke-linecap:butt;stroke-linejoin:miter;stroke-miterlimit:10;stroke-dashoffset:14.94400024;stroke-opacity:1" />
        <path
           id="path126"
           transform="matrix(0.1,0,0,-0.1,0,792)"
           d="m 2635.1172,6168.75 v -304.7266 h 538.5547 v 609.4532 h -538.5547 z m 0,0"
           style="display:none;fill:none;stroke:#000000;stroke-width:5.67043018;stroke-linecap:butt;stroke-linejoin:miter;stroke-miterlimit:10;stroke-dasharray:29.9484, 19.9656;stroke-dashoffset:14.94400024;stroke-opacity:1" />
      </g>
      <path
         style="fill:none;stroke:#000000;stroke-width:14.17389965;stroke-linecap:butt;stroke-linejoin:miter;stroke-miterlimit:10;stroke-opacity:1"
         d="m 2620.9375,6615.1953 v -765.3516 h 566.9141 v 765.3516"
         transform="matrix(0.1,0,0,-0.1,0,792)"
         id="path128" />
      <path
         style="fill:none;stroke:#000000;stroke-width:5.67043018;stroke-linecap:butt;stroke-linejoin:miter;stroke-miterlimit:10;stroke-opacity:1"
         d="m 2620.9375,6445.1172 v 2.1094 h 2.3438 l 2.3437,-0.1172 2.3828,-0.1563 2.3438,-0.1953 2.3828,-0.2734 2.3437,-0.3125 2.3828,-0.3125 2.3438,-0.3907 2.3828,-0.3515 2.3438,-0.3906 2.3828,-0.3516 2.3437,-0.3125 2.3828,-0.3125 2.3438,-0.2734 2.3828,-0.1954 2.3437,-0.1562 2.3829,-0.1172 h 4.6875 l 2.3828,0.1172 2.3828,0.1562 2.3437,0.1954 2.3438,0.2734 2.3828,0.3125 2.3437,0.3125 2.3829,0.3516 2.3437,0.3906 2.3828,0.3515 2.3438,0.3907 2.3828,0.3125 2.3437,0.3125 2.3828,0.2734 2.3438,0.1953 2.3437,0.1563 2.3829,0.1172 h 4.7265 l 2.3438,-0.1172 2.3828,-0.1563 2.3437,-0.1953 2.3828,-0.2734 2.3438,-0.3125 2.3828,-0.3125 2.3438,-0.3907 2.3828,-0.3515 2.3437,-0.3906 2.3828,-0.3516 4.6875,-0.625 2.3828,-0.2734 2.3829,-0.1954 2.3437,-0.1562 2.3438,-0.1172 h 4.7656 l 2.3437,0.1172 2.3438,0.1562 2.3828,0.1954 2.3437,0.2734 2.3829,0.3125 2.3437,0.3125 2.3828,0.3516 2.3438,0.3906 2.3828,0.3515 2.3437,0.3907 2.3828,0.3125 2.3438,0.3125 2.3437,0.2734 2.3829,0.1953 2.3828,0.1563 2.3437,0.1172 h 4.7266 l 2.3437,-0.1172 2.3828,-0.1563 2.3438,-0.1953 2.3828,-0.2734 2.3438,-0.3125 2.3828,-0.3125 2.3437,-0.3907 2.3828,-0.3515 2.3438,-0.3906 2.3828,-0.3516 2.3437,-0.3125 2.3829,-0.3125 2.3437,-0.2734 2.3438,-0.1954 2.3828,-0.1562 2.3437,-0.1172 h 4.7266 l 2.3828,0.1172 2.3437,0.1562 2.3829,0.1954 2.3437,0.2734 2.3828,0.3125 2.3438,0.3125 2.3828,0.3516 2.3437,0.3906 2.3828,0.3515 2.3438,0.3907 2.3828,0.3125 2.3438,0.3125 2.3437,0.2734 2.3828,0.1953 2.3438,0.1563 2.3828,0.1172 h 4.7265 l 2.3438,-0.1172 2.3828,-0.1563 2.3438,-0.1953 2.3828,-0.2734 2.3437,-0.3125 2.3828,-0.3125 2.3438,-0.3907 2.3828,-0.3515 2.3437,-0.3906 2.3438,-0.3516 2.3828,-0.3125 2.3438,-0.3125 2.3828,-0.2734 2.3437,-0.1954 2.3828,-0.1562 2.3438,-0.1172 h 4.7265 l 2.3829,0.1172 2.3437,0.1562 2.3828,0.1954 2.3438,0.2734 2.3828,0.3125 2.3437,0.3125 2.3438,0.3516 2.3828,0.3906 2.3437,0.3515 2.3829,0.3907 2.3437,0.3125 2.3828,0.3125 2.3438,0.2734 2.3828,0.1953 2.3437,0.1563 2.3828,0.1172 h 4.7266 l 2.3438,-0.1172 2.3828,-0.1563 2.3437,-0.1953 2.3438,-0.2734 4.7656,-0.625 2.3437,-0.3907 2.3438,-0.3515 2.3828,-0.3906 2.3438,-0.3516 2.3828,-0.3125 2.3437,-0.3125 2.3828,-0.2734 2.3438,-0.1954 2.3828,-0.1562 2.3437,-0.1172 h 4.7266 l 2.3438,0.1172 2.3828,0.1562 2.3828,0.1954 2.3437,0.2734 2.3438,0.3125 2.3828,0.3125 2.3437,0.3516 2.3829,0.3906 2.3437,0.3515 1.9141,0.3125 v -0.664"
         transform="matrix(0.1,0,0,-0.1,0,792)"
         id="path130" />
      <path
         style="fill:none;stroke:#000000;stroke-width:5.67043018;stroke-linecap:butt;stroke-linejoin:miter;stroke-miterlimit:10;stroke-opacity:1"
         d="m 3063.125,6445.1172 v 2.1094 h 2.3828 l 2.3438,-0.1172 2.3437,-0.1563 2.3828,-0.1953 2.3438,-0.2734 2.3828,-0.3125 2.3437,-0.3125 2.3829,-0.3907 2.3437,-0.3515 2.3828,-0.3906 2.3438,-0.3516 2.3828,-0.3125 2.3437,-0.3125 2.3828,-0.2734 2.3438,-0.1954 2.3828,-0.1562 2.3438,-0.1172 h 4.7265 l 2.3438,0.1172 2.3828,0.1562 2.3437,0.1954 2.3828,0.2734 2.3438,0.3125 2.3828,0.3125 2.3438,0.3516 2.3828,0.3906 2.3437,0.3515 2.3828,0.3907 2.3438,0.3125 2.3828,0.3125 2.3437,0.2734 2.3438,0.1953 2.3828,0.1563 2.3438,0.1172 h 4.7265 l 2.3828,-0.1172 2.3438,-0.1563 2.3828,-0.1953 2.3437,-0.2734 2.3829,-0.3125 2.3437,-0.3125 2.3828,-0.3907 2.3438,-0.3515 2.3828,-0.3906 2.3437,-0.3516 2.3438,-0.3125 2.3828,-0.3125 2.3437,-0.2734 2.3829,-0.1954 2.3437,-0.1562 1.9141,-0.078 v 2.0703"
         transform="matrix(0.1,0,0,-0.1,0,792)"
         id="path132" />
      <g
         style="fill:#000000;fill-opacity:1"
         id="g136">
        <use
           xlink:href="#glyph1-8"
           x="273.392"
           y="178.355"
           id="use134"
           width="100%"
           height="100%" />
      </g>
      <g
         style="fill:#000000;fill-opacity:1"
         id="g140">
        <use
           xlink:href="#glyph1-9"
           x="279.75217"
           y="178.355"
           id="use138"
           width="100%"
           height="100%" />
      </g>
      <g
         style="fill:#000000;fill-opacity:1"
         id="g144">
        <use
           xlink:href="#glyph1-4"
           x="283.71216"
           y="178.355"
           id="use142"
           width="100%"
           height="100%" />
      </g>
      <g
         style="fill:#000000;fill-opacity:1"
         id="g148">
        <use
           xlink:href="#glyph1-5"
           x="286.23215"
           y="178.355"
           id="use146"
           width="100%"
           height="100%" />
      </g>
      <g
         style="fill:#000000;fill-opacity:1"
         id="g152">
        <use
           xlink:href="#glyph1-10"
           x="290.19214"
           y="178.355"
           id="use150"
           width="100%"
           height="100%" />
      </g>
      <path
         style="fill:#ffffff;fill-opacity:1;fill-rule:nonzero;stroke:none"
         d="m 302.91016,169.31641 v 21.82421 h 3.40234 v -43.65234 h -3.40234"
         id="path154" />
      <path
         style="fill:none;stroke:#000000;stroke-width:5.67043018;stroke-linecap:butt;stroke-linejoin:miter;stroke-miterlimit:10;stroke-opacity:1"
         d="M 3029.1016,6008.5937 V 6671.875"
         transform="matrix(0.1,0,0,-0.1,0,792)"
         id="path156" />
      <path
         style="fill:none;stroke:#000000;stroke-width:5.67043018;stroke-linecap:butt;stroke-linejoin:miter;stroke-miterlimit:10;stroke-opacity:1"
         d="M 3063.125,6008.5937 V 6671.875"
         transform="matrix(0.1,0,0,-0.1,0,792)"
         id="path158" />
      <path
         style="fill:none;stroke:#000000;stroke-width:5.67043018;stroke-linecap:butt;stroke-linejoin:miter;stroke-miterlimit:10;stroke-opacity:1"
         d="m 3029.1016,6671.875 c 0,0 5.8593,7.4219 9.9218,7.1094 3.3594,-0.2735 4.6485,-4.6485 7.1094,-7.1094 2.4219,-2.4219 3.711,-6.7969 7.0703,-7.0703 4.1016,-0.3516 9.9219,3.0859 9.9219,7.0703 0,3.9844 -5.8203,7.4219 -9.9219,7.1094 -3.3593,-0.2735 -7.0703,-7.1094 -7.0703,-7.1094"
         transform="matrix(0.1,0,0,-0.1,0,792)"
         id="path160" />
      <path
         style="fill:#ffffff;fill-opacity:1;fill-rule:nonzero;stroke:none"
         d="m 313.11719,192.84375 c 1.5039,1.08203 1.5039,4.58594 0,5.66797 -4.75782,3.42969 -12.25391,-9.09766 -17.00782,-5.66797 -1.5039,1.08203 -1.5039,4.58594 0,5.66797 4.75391,3.42969 12.25,-9.09766 17.00782,-5.66797"
         id="path162" />
      <path
         style="fill:none;stroke:#000000;stroke-width:5.67043018;stroke-linecap:butt;stroke-linejoin:miter;stroke-miterlimit:10;stroke-opacity:1"
         d="m 3131.1719,5991.5625 c 15.039,-10.8203 15.039,-45.8594 0,-56.6797 -47.5781,-34.2969 -122.5391,90.9766 -170.0781,56.6797 -15.0391,-10.8203 -15.0391,-45.8594 0,-56.6797 47.539,-34.2969 122.5,90.9766 170.0781,56.6797 z m 0,0"
         transform="matrix(0.1,0,0,-0.1,0,792)"
         id="path164" />
      <path
         style="fill:#ffffff;fill-opacity:1;fill-rule:nonzero;stroke:none"
         d="m 302.0625,195.67969 v 4.53515 h 5.10156 v -9.07422 h -5.10156"
         id="path166" />
      <path
         style="fill:none;stroke:#000000;stroke-width:5.67043018;stroke-linecap:butt;stroke-linejoin:miter;stroke-miterlimit:10;stroke-opacity:1"
         d="m 3020.625,5963.2031 v -45.3515 h 51.0156 v 90.7421 h -51.0156 z m 0,0"
         transform="matrix(0.1,0,0,-0.1,0,792)"
         id="path168" />
      <path
         style="fill:#000000;fill-opacity:1;fill-rule:nonzero;stroke:none"
         d="m 314.01562,131.63672 -3.73437,-1.15625 2.15625,3.25781 -0.39063,-1.93359"
         id="path170" />
      <path
         style="fill:none;stroke:#ffffff;stroke-width:17.01129913;stroke-linecap:butt;stroke-linejoin:miter;stroke-miterlimit:10;stroke-opacity:1"
         d="m 2989.4141,6615.1953 c -113.3594,-85.0391 226.7968,-85.0391 131.0547,-13.2422"
         transform="matrix(0.1,0,0,-0.1,0,792)"
         id="path172" />
      <path
         style="fill:none;stroke:#000000;stroke-width:5.67043018;stroke-linecap:butt;stroke-linejoin:miter;stroke-miterlimit:10;stroke-opacity:1"
         d="m 2989.4141,6615.1953 c -113.3594,-85.0391 226.7968,-85.0391 131.0547,-13.2422"
         transform="matrix(0.1,0,0,-0.1,0,792)"
         id="path174" />
      <path
         style="fill:#000000;fill-opacity:1;fill-rule:nonzero;stroke:none"
         d="m 314.01562,131.63672 -3.73437,-1.15625 2.15625,3.25781 -0.39063,-1.93359"
         id="path176" />
      <g
         style="fill:#000000;fill-opacity:1"
         id="g180">
        <use
           xlink:href="#glyph0-1"
           x="308.698"
           y="128.90199"
           id="use178"
           width="100%"
           height="100%" />
      </g>
      <g
         style="fill:#000000;fill-opacity:1"
         id="g184">
        <use
           xlink:href="#glyph1-1"
           x="273.1582"
           y="226.0641"
           id="use182"
           width="100%"
           height="100%" />
      </g>
      <g
         style="fill:#000000;fill-opacity:1"
         id="g188">
        <use
           xlink:href="#glyph1-2"
           x="278.19818"
           y="226.0641"
           id="use186"
           width="100%"
           height="100%" />
      </g>
      <g
         style="fill:#000000;fill-opacity:1"
         id="g192">
        <use
           xlink:href="#glyph1-3"
           x="282.63821"
           y="226.0641"
           id="use190"
           width="100%"
           height="100%" />
      </g>
      <g
         style="fill:#000000;fill-opacity:1"
         id="g196">
        <use
           xlink:href="#glyph1-4"
           x="286.11823"
           y="226.0641"
           id="use194"
           width="100%"
           height="100%" />
      </g>
      <g
         style="fill:#000000;fill-opacity:1"
         id="g200">
        <use
           xlink:href="#glyph1-5"
           x="288.63824"
           y="226.0641"
           id="use198"
           width="100%"
           height="100%" />
      </g>
      <g
         style="fill:#000000;fill-opacity:1"
         id="g204">
        <use
           xlink:href="#glyph1-6"
           x="292.59821"
           y="226.0641"
           id="use202"
           width="100%"
           height="100%" />
      </g>
      <g
         style="fill:#000000;fill-opacity:1"
         id="g208">
        <use
           xlink:href="#glyph1-11"
           x="301.71838"
           y="226.0641"
           id="use206"
           width="100%"
           height="100%" />
      </g>
    </g>
  </g>
</svg>
