<?xml version="1.0" encoding="UTF-8" standalone="no"?>
<svg
   xmlns:dc="http://purl.org/dc/elements/1.1/"
   xmlns:cc="http://creativecommons.org/ns#"
   xmlns:rdf="http://www.w3.org/1999/02/22-rdf-syntax-ns#"
   xmlns:svg="http://www.w3.org/2000/svg"
   xmlns="http://www.w3.org/2000/svg"
   xmlns:xlink="http://www.w3.org/1999/xlink"
   xmlns:sodipodi="http://sodipodi.sourceforge.net/DTD/sodipodi-0.dtd"
   xmlns:inkscape="http://www.inkscape.org/namespaces/inkscape"
   width="256.05051pt"
   height="134.36681pt"
   viewBox="0 0 256.05051 134.36681"
   version="1.2"
   id="svg123"
   sodipodi:docname="c3_fig..example_plots_of_shaft_work_w_versus_angular_velocity_omega.svg"
   inkscape:version="0.92.4 (5da689c313, 2019-01-14)">
  <title
     id="title934">example plots of shaft work w versus angular velocity ω</title>
  <metadata
     id="metadata127">
    <rdf:RDF>
      <cc:Work
         rdf:about="">
        <dc:format>image/svg+xml</dc:format>
        <dc:type
           rdf:resource="http://purl.org/dc/dcmitype/StillImage" />
        <dc:title>example plots of shaft work w versus angular velocity ω</dc:title>
        <cc:license
           rdf:resource="http://creativecommons.org/licenses/by-sa/4.0/" />
        <dc:date>2021-05-03</dc:date>
        <dc:creator>
          <cc:Agent>
            <dc:title>Sandoval, Steven Baltakatei</dc:title>
          </cc:Agent>
        </dc:creator>
        <dc:source>https://gitlab.com/baltakatei/bk-2021-07-1</dc:source>
        <dc:relation>Thermodynamics and Chemistry 2nd Edition, Version 10, by Howard DeVoe, http://www2.chem.umd.edu/thermobook/</dc:relation>
        <dc:language>en</dc:language>
        <dc:rights>
          <cc:Agent>
            <dc:title>This work &quot;example plots of shaft work w versus angular velocity ω&quot; is a derivative of &quot;03-SUP/rates-shaft_work.eps&quot; by Howard DeVoe, used under CC BY 4.0. &quot;example plots of shaft work w versus angular velocity ω&quot; is licensed under CC BY-SA 4.0 by Steven Baltakatei Sandoval.</dc:title>
          </cc:Agent>
        </dc:rights>
        <dc:description>Shaft work w for a fixed magnitude of shaft rotation Δϑ as a function of the angular velocity ω=(dϑ/dt). The open circles indicate work in the limit of infinite slowness. (a) System A of &quot;examples of shaft work and torque&quot;. (b) System B of &quot;examples of shaft work and torque&quot;.</dc:description>
      </cc:Work>
      <cc:License
         rdf:about="http://creativecommons.org/licenses/by-sa/4.0/">
        <cc:permits
           rdf:resource="http://creativecommons.org/ns#Reproduction" />
        <cc:permits
           rdf:resource="http://creativecommons.org/ns#Distribution" />
        <cc:requires
           rdf:resource="http://creativecommons.org/ns#Notice" />
        <cc:requires
           rdf:resource="http://creativecommons.org/ns#Attribution" />
        <cc:permits
           rdf:resource="http://creativecommons.org/ns#DerivativeWorks" />
        <cc:requires
           rdf:resource="http://creativecommons.org/ns#ShareAlike" />
      </cc:License>
    </rdf:RDF>
  </metadata>
  <sodipodi:namedview
     pagecolor="#ffffff"
     bordercolor="#666666"
     borderopacity="1"
     objecttolerance="10"
     gridtolerance="10"
     guidetolerance="10"
     inkscape:pageopacity="0"
     inkscape:pageshadow="2"
     inkscape:window-width="1920"
     inkscape:window-height="1016"
     id="namedview125"
     showgrid="false"
     fit-margin-top="10"
     fit-margin-left="10"
     fit-margin-right="10"
     fit-margin-bottom="10"
     inkscape:zoom="1.7878788"
     inkscape:cx="214.15663"
     inkscape:cy="85.587466"
     inkscape:window-x="0"
     inkscape:window-y="27"
     inkscape:window-maximized="1"
     inkscape:current-layer="svg123" />
  <defs
     id="defs34">
    <g
       id="g32">
      <symbol
         overflow="visible"
         id="glyph0-0"
         style="overflow:visible">
        <path
           style="stroke:none"
           d=""
           id="path2"
           inkscape:connector-curvature="0" />
      </symbol>
      <symbol
         overflow="visible"
         id="glyph0-1"
         style="overflow:visible">
        <path
           style="stroke:none"
           d="m 5.78125,-2.390625 c 0,-1.34375 -1.015625,-1.703125 -1.328125,-1.703125 v 0.125 C 5.046875,-3.6875 5.125,-3 5.125,-2.328125 c 0,1.0625 -0.984375,2.140625 -1.546875,2.140625 -0.390625,0 -0.640625,-0.1875 -0.640625,-0.875 0.265625,-0.34375 0.71875,-1.21875 0.71875,-1.671875 0,-0.21875 -0.09375,-0.4375 -0.359375,-0.4375 -0.28125,0 -0.40625,0.234375 -0.46875,0.390625 C 2.640625,-2.328125 2.625,-1.890625 2.625,-1.4375 c 0,0.125 0,0.234375 0.015625,0.3125 -0.3125,0.5 -0.578125,0.890625 -1.125,0.890625 -0.375,0 -0.640625,-0.359375 -0.640625,-0.859375 0,-1.375 0.96875,-2.46875 1.625,-2.875 v -0.125 C 0.9375,-3.75 0.21875,-2.265625 0.21875,-1.1875 c 0,0.65625 0.359375,1.296875 1.15625,1.296875 0.671875,0 1.125,-0.546875 1.3125,-0.796875 0.078125,0.453125 0.265625,0.796875 0.828125,0.796875 1.03125,0 2.265625,-1.15625 2.265625,-2.5 z m 0,0"
           id="path5"
           inkscape:connector-curvature="0" />
      </symbol>
      <symbol
         overflow="visible"
         id="glyph0-2"
         style="overflow:visible">
        <path
           style="stroke:none"
           d="m 6.15625,-3.15625 c 0,-0.453125 -0.0625,-0.9375 -0.46875,-0.9375 -0.171875,0 -0.375,0.109375 -0.375,0.359375 0,0.375 0.5,0.203125 0.5,0.984375 0,1.015625 -0.765625,2.609375 -1.546875,2.609375 -0.375,0 -0.546875,-0.3125 -0.546875,-0.734375 0,-0.140625 0.046875,-0.453125 0.078125,-0.609375 L 4.390625,-4.09375 H 3.65625 l -0.546875,2.546875 c -0.21875,0.984375 -0.640625,1.40625 -0.96875,1.40625 -0.25,0 -0.453125,-0.25 -0.453125,-0.71875 0,-0.65625 0.421875,-1.90625 0.421875,-2.390625 0,-0.5625 -0.375,-0.84375 -0.734375,-0.84375 -0.515625,0 -0.765625,0.46875 -0.765625,0.78125 0,0.078125 0.015625,0.171875 0.0625,0.234375 h 0.09375 c 0,-0.03125 0,-0.046875 0,-0.0625 0,-0.171875 0.0625,-0.546875 0.40625,-0.546875 0.140625,0 0.25,0.109375 0.25,0.453125 C 1.421875,-2.921875 1,-1.5 1,-0.96875 c 0,0.703125 0.5625,1.078125 1.015625,1.078125 0.5625,0 1.09375,-0.421875 1.28125,-0.890625 0.046875,0.5625 0.390625,0.890625 0.96875,0.890625 1.09375,0 1.890625,-2.046875 1.890625,-3.265625 z m 0,0"
           id="path8"
           inkscape:connector-curvature="0" />
      </symbol>
      <symbol
         overflow="visible"
         id="glyph2-0"
         style="overflow:visible">
        <path
           style="stroke:none"
           d=""
           id="path11"
           inkscape:connector-curvature="0" />
      </symbol>
      <symbol
         overflow="visible"
         id="glyph2-1"
         style="overflow:visible">
        <path
           style="stroke:none"
           d="M 2.640625,-6.0625 C 1.984375,-5.625 1.71875,-5.40625 1.375,-4.984375 0.75,-4.203125 0.4375,-3.3125 0.4375,-2.265625 c 0,1.15625 0.328125,2.03125 1.109375,2.9375 0.375,0.4375 0.609375,0.625 1.078125,0.921875 L 2.71875,1.4375 C 2.015625,0.875 1.765625,0.5625 1.515625,-0.109375 1.296875,-0.703125 1.203125,-1.375 1.203125,-2.28125 c 0,-0.953125 0.109375,-1.6875 0.359375,-2.234375 0.25,-0.5625 0.515625,-0.890625 1.15625,-1.40625 z m 0,0"
           id="path14"
           inkscape:connector-curvature="0" />
      </symbol>
      <symbol
         overflow="visible"
         id="glyph2-2"
         style="overflow:visible">
        <path
           style="stroke:none"
           d="m 3.96875,-0.59375 c -0.15625,0.125 -0.265625,0.171875 -0.40625,0.171875 -0.203125,0 -0.265625,-0.125 -0.265625,-0.515625 v -1.75 C 3.296875,-3.15625 3.25,-3.421875 3.125,-3.625 c -0.203125,-0.328125 -0.59375,-0.5 -1.109375,-0.5 -0.84375,0 -1.515625,0.4375 -1.515625,1 0,0.203125 0.171875,0.390625 0.390625,0.390625 0.21875,0 0.40625,-0.1875 0.40625,-0.375 C 1.296875,-3.140625 1.28125,-3.1875 1.28125,-3.25 1.25,-3.34375 1.25,-3.40625 1.25,-3.46875 c 0,-0.25 0.28125,-0.4375 0.640625,-0.4375 0.4375,0 0.6875,0.25 0.6875,0.734375 V -2.625 c -1.375,0.546875 -1.53125,0.640625 -1.921875,0.96875 -0.203125,0.1875 -0.328125,0.484375 -0.328125,0.78125 0,0.5625 0.390625,0.96875 0.953125,0.96875 0.390625,0 0.75,-0.1875 1.296875,-0.65625 0.046875,0.46875 0.21875,0.65625 0.578125,0.65625 0.3125,0 0.5,-0.109375 0.8125,-0.453125 z M 2.578125,-1.109375 c 0,0.28125 -0.046875,0.375 -0.234375,0.484375 C 2.109375,-0.5 1.875,-0.4375 1.6875,-0.4375 1.375,-0.4375 1.125,-0.734375 1.125,-1.125 v -0.03125 c 0,-0.53125 0.40625,-0.875 1.453125,-1.25 z m 0,0"
           id="path17"
           inkscape:connector-curvature="0" />
      </symbol>
      <symbol
         overflow="visible"
         id="glyph2-3"
         style="overflow:visible">
        <path
           style="stroke:none"
           d="M 0.34375,1.59375 C 1,1.140625 1.28125,0.921875 1.609375,0.515625 2.25,-0.265625 2.5625,-1.171875 2.5625,-2.21875 2.5625,-3.359375 2.21875,-4.234375 1.4375,-5.140625 1.0625,-5.578125 0.828125,-5.78125 0.375,-6.0625 l -0.109375,0.140625 c 0.71875,0.5625 0.953125,0.875 1.203125,1.546875 0.21875,0.609375 0.3125,1.28125 0.3125,2.1875 0,0.9375 -0.109375,1.671875 -0.359375,2.21875 C 1.1875,0.59375 0.90625,0.921875 0.265625,1.4375 Z m 0,0"
           id="path20"
           inkscape:connector-curvature="0" />
      </symbol>
      <symbol
         overflow="visible"
         id="glyph2-4"
         style="overflow:visible">
        <path
           style="stroke:none"
           d="M 1.375,-6.109375 1.328125,-6.125 C 0.953125,-6 0.71875,-5.921875 0.28125,-5.796875 l -0.25,0.0625 v 0.140625 c 0.046875,0 0.078125,0 0.140625,0 0.359375,0 0.453125,0.078125 0.453125,0.453125 v 4.65625 c 0,0.28125 0.75,0.578125 1.46875,0.578125 1.1875,0 2.109375,-0.984375 2.109375,-2.265625 0,-1.125 -0.6875,-1.953125 -1.578125,-1.953125 -0.546875,0 -1.078125,0.3125 -1.25,0.765625 z m 0,3.21875 c 0,-0.34375 0.421875,-0.671875 0.890625,-0.671875 0.25,0 0.46875,0.09375 0.65625,0.265625 0.28125,0.28125 0.484375,0.890625 0.484375,1.53125 0,1 -0.421875,1.5625 -1.15625,1.5625 -0.46875,0 -0.875,-0.1875 -0.875,-0.421875 z m 0,0"
           id="path23"
           inkscape:connector-curvature="0" />
      </symbol>
      <symbol
         overflow="visible"
         id="glyph1-0"
         style="overflow:visible">
        <path
           style="stroke:none"
           d="M 1.847656,0 C 1.847656,-1.019531 1.019531,-1.847656 0,-1.847656 -1.019531,-1.847656 -1.847656,-1.019531 -1.847656,0 -1.847656,1.019531 -1.019531,1.847656 0,1.847656 1.019531,1.847656 1.847656,1.019531 1.847656,0"
           id="path26"
           inkscape:connector-curvature="0" />
      </symbol>
      <symbol
         overflow="visible"
         id="glyph1-1"
         style="overflow:visible">
        <path
           style="stroke:none"
           d="m 1.847656,0 c 0,-1.019531 -0.828125,-1.847656 -1.847656,-1.847656 -1.019531,0 -1.847656,0.828125 -1.847656,1.847656 0,1.019531 0.828125,1.847656 1.847656,1.847656 1.019531,0 1.847656,-0.828125 1.847656,-1.847656 z m 0,0 h -0.1875 c 0,-0.917969 -0.742187,-1.660156 -1.660156,-1.660156 -0.917969,0 -1.660156,0.742187 -1.660156,1.660156 0,0.917969 0.742187,1.660156 1.660156,1.660156 0.917969,0 1.660156,-0.742187 1.660156,-1.660156"
           id="path29"
           inkscape:connector-curvature="0" />
      </symbol>
    </g>
  </defs>
  <g
     id="surface741"
     transform="translate(-138.62273,-78.986748)">
    <path
       style="fill:#000000;fill-opacity:1;fill-rule:nonzero;stroke:none"
       d="m 192.45312,99.722656 -1.17187,-3.28125 -1.17188,3.28125 1.17188,-1.3125"
       id="path36"
       inkscape:connector-curvature="0" />
    <path
       style="fill:none;stroke:#000000;stroke-width:4.25176001;stroke-linecap:butt;stroke-linejoin:miter;stroke-miterlimit:10;stroke-opacity:1"
       d="m 1912.8125,6105.1953 v 830.7031"
       transform="matrix(0.1,0,0,-0.1,0,792)"
       id="path38"
       inkscape:connector-curvature="0" />
    <path
       style="fill:#000000;fill-opacity:1;fill-rule:nonzero;stroke:none"
       d="m 230.51562,140.13281 3.28516,-1.17187 -3.28516,-1.17578 1.3125,1.17578"
       id="path40"
       inkscape:connector-curvature="0" />
    <path
       style="fill:none;stroke:#000000;stroke-width:4.25176001;stroke-linecap:butt;stroke-linejoin:miter;stroke-miterlimit:10;stroke-opacity:1"
       d="m 1487.6172,6530.3906 h 830.6641"
       transform="matrix(0.1,0,0,-0.1,0,792)"
       id="path42"
       inkscape:connector-curvature="0" />
    <g
       style="fill:#000000;fill-opacity:1"
       id="g46">
      <use
         xlink:href="#glyph0-1"
         x="237.16"
         y="141"
         id="use44"
         width="100%"
         height="100%" />
    </g>
    <g
       style="fill:#000000;fill-opacity:1"
       id="g50">
      <use
         xlink:href="#glyph0-2"
         x="187.8002"
         y="93.080498"
         id="use48"
         width="100%"
         height="100%" />
    </g>
    <path
       style="fill:none;stroke:#000000;stroke-width:14.17389965;stroke-linecap:butt;stroke-linejoin:miter;stroke-miterlimit:10;stroke-opacity:1"
       d="m 1912.8125,6785.5078 425.1953,85.0391"
       transform="matrix(0.1,0,0,-0.1,0,792)"
       id="path52"
       inkscape:connector-curvature="0" />
    <path
       style="fill:none;stroke:#000000;stroke-width:14.17389965;stroke-linecap:butt;stroke-linejoin:miter;stroke-miterlimit:10;stroke-opacity:1"
       d="m 1912.8125,6275.2734 -425.1953,85.0391"
       transform="matrix(0.1,0,0,-0.1,0,792)"
       id="path54"
       inkscape:connector-curvature="0" />
    <g
       style="fill:#ffffff;fill-opacity:1"
       id="g58">
      <use
         xlink:href="#glyph1-0"
         x="191.25"
         y="113.45"
         id="use56"
         width="100%"
         height="100%" />
    </g>
    <g
       style="fill:#000000;fill-opacity:1"
       id="g62">
      <use
         xlink:href="#glyph1-1"
         x="191.25"
         y="113.45"
         id="use60"
         width="100%"
         height="100%" />
    </g>
    <g
       style="fill:#ffffff;fill-opacity:1"
       id="g66">
      <use
         xlink:href="#glyph1-0"
         x="191.25"
         y="164.45"
         id="use64"
         width="100%"
         height="100%" />
    </g>
    <g
       style="fill:#000000;fill-opacity:1"
       id="g70">
      <use
         xlink:href="#glyph1-1"
         x="191.25"
         y="164.45"
         id="use68"
         width="100%"
         height="100%" />
    </g>
    <g
       style="fill:#000000;fill-opacity:1"
       id="g74">
      <use
         xlink:href="#glyph2-1"
         x="186.36015"
         y="201.7598"
         id="use72"
         width="100%"
         height="100%" />
    </g>
    <g
       style="fill:#000000;fill-opacity:1"
       id="g78">
      <use
         xlink:href="#glyph2-2"
         x="189.36017"
         y="201.7598"
         id="use76"
         width="100%"
         height="100%" />
    </g>
    <g
       style="fill:#000000;fill-opacity:1"
       id="g82">
      <use
         xlink:href="#glyph2-3"
         x="193.32016"
         y="201.7598"
         id="use80"
         width="100%"
         height="100%" />
    </g>
    <path
       style="fill:#000000;fill-opacity:1;fill-rule:nonzero;stroke:none"
       d="m 334.18359,99.722656 -1.17187,-3.28125 -1.17188,3.28125 1.17188,-1.3125"
       id="path84"
       inkscape:connector-curvature="0" />
    <path
       style="fill:none;stroke:#000000;stroke-width:4.25176001;stroke-linecap:butt;stroke-linejoin:miter;stroke-miterlimit:10;stroke-opacity:1"
       d="m 3330.1172,6105.1953 v 830.7031"
       transform="matrix(0.1,0,0,-0.1,0,792)"
       id="path86"
       inkscape:connector-curvature="0" />
    <path
       style="fill:#000000;fill-opacity:1;fill-rule:nonzero;stroke:none"
       d="m 372.25,140.13281 3.28125,-1.17187 -3.28125,-1.17578 1.3125,1.17578"
       id="path88"
       inkscape:connector-curvature="0" />
    <path
       style="fill:none;stroke:#000000;stroke-width:4.25176001;stroke-linecap:butt;stroke-linejoin:miter;stroke-miterlimit:10;stroke-opacity:1"
       d="M 2904.9219,6530.3906 H 3735.625"
       transform="matrix(0.1,0,0,-0.1,0,792)"
       id="path90"
       inkscape:connector-curvature="0" />
    <g
       style="fill:#000000;fill-opacity:1"
       id="g94">
      <use
         xlink:href="#glyph0-1"
         x="378.892"
         y="141"
         id="use92"
         width="100%"
         height="100%" />
    </g>
    <g
       style="fill:#000000;fill-opacity:1"
       id="g98">
      <use
         xlink:href="#glyph0-2"
         x="329.53259"
         y="93.080498"
         id="use96"
         width="100%"
         height="100%" />
    </g>
    <path
       style="fill:none;stroke:#000000;stroke-width:14.17389965;stroke-linecap:butt;stroke-linejoin:miter;stroke-miterlimit:10;stroke-opacity:1"
       d="m 2904.9219,6743.0078 425.1953,-212.6172 425.1953,212.6172"
       transform="matrix(0.1,0,0,-0.1,0,792)"
       id="path100"
       inkscape:connector-curvature="0" />
    <g
       style="fill:#ffffff;fill-opacity:1"
       id="g104">
      <use
         xlink:href="#glyph1-0"
         x="333.04999"
         y="138.95"
         id="use102"
         width="100%"
         height="100%" />
    </g>
    <g
       style="fill:#000000;fill-opacity:1"
       id="g108">
      <use
         xlink:href="#glyph1-1"
         x="333.04999"
         y="138.95"
         id="use106"
         width="100%"
         height="100%" />
    </g>
    <g
       style="fill:#000000;fill-opacity:1"
       id="g112">
      <use
         xlink:href="#glyph2-1"
         x="327.73242"
         y="201.7598"
         id="use110"
         width="100%"
         height="100%" />
    </g>
    <g
       style="fill:#000000;fill-opacity:1"
       id="g116">
      <use
         xlink:href="#glyph2-4"
         x="330.73242"
         y="201.7598"
         id="use114"
         width="100%"
         height="100%" />
    </g>
    <g
       style="fill:#000000;fill-opacity:1"
       id="g120">
      <use
         xlink:href="#glyph2-3"
         x="335.17242"
         y="201.7598"
         id="use118"
         width="100%"
         height="100%" />
    </g>
  </g>
</svg>
