%!PS-Adobe-3.0 EPSF-3.0
%%Creator: cairo 1.16.0 (https://cairographics.org)
%%CreationDate: Mon May  3 04:10:03 2021
%%Pages: 1
%%DocumentData: Clean7Bit
%%LanguageLevel: 2
%%BoundingBox: 10 11 171 89
%%EndComments
%%BeginProlog
50 dict begin
/q { gsave } bind def
/Q { grestore } bind def
/cm { 6 array astore concat } bind def
/w { setlinewidth } bind def
/J { setlinecap } bind def
/j { setlinejoin } bind def
/M { setmiterlimit } bind def
/d { setdash } bind def
/m { moveto } bind def
/l { lineto } bind def
/c { curveto } bind def
/h { closepath } bind def
/re { exch dup neg 3 1 roll 5 3 roll moveto 0 rlineto
      0 exch rlineto 0 rlineto closepath } bind def
/S { stroke } bind def
/f { fill } bind def
/f* { eofill } bind def
/n { newpath } bind def
/W { clip } bind def
/W* { eoclip } bind def
/BT { } bind def
/ET { } bind def
/BDC { mark 3 1 roll /BDC pdfmark } bind def
/EMC { mark /EMC pdfmark } bind def
/cairo_store_point { /cairo_point_y exch def /cairo_point_x exch def } def
/Tj { show currentpoint cairo_store_point } bind def
/TJ {
  {
    dup
    type /stringtype eq
    { show } { -0.001 mul 0 cairo_font_matrix dtransform rmoveto } ifelse
  } forall
  currentpoint cairo_store_point
} bind def
/cairo_selectfont { cairo_font_matrix aload pop pop pop 0 0 6 array astore
    cairo_font exch selectfont cairo_point_x cairo_point_y moveto } bind def
/Tf { pop /cairo_font exch def /cairo_font_matrix where
      { pop cairo_selectfont } if } bind def
/Td { matrix translate cairo_font_matrix matrix concatmatrix dup
      /cairo_font_matrix exch def dup 4 get exch 5 get cairo_store_point
      /cairo_font where { pop cairo_selectfont } if } bind def
/Tm { 2 copy 8 2 roll 6 array astore /cairo_font_matrix exch def
      cairo_store_point /cairo_font where { pop cairo_selectfont } if } bind def
/g { setgray } bind def
/rg { setrgbcolor } bind def
/d1 { setcachedevice } bind def
/cairo_data_source {
  CairoDataIndex CairoData length lt
    { CairoData CairoDataIndex get /CairoDataIndex CairoDataIndex 1 add def }
    { () } ifelse
} def
/cairo_flush_ascii85_file { cairo_ascii85_file status { cairo_ascii85_file flushfile } if } def
/cairo_image { image cairo_flush_ascii85_file } def
/cairo_imagemask { imagemask cairo_flush_ascii85_file } def
%%EndProlog
%%BeginSetup
%%EndSetup
%%Page: 1 1
%%BeginPageSetup
%%PageBoundingBox: 10 11 171 89
%%EndPageSetup
q 10 11 161 78 rectclip
1 0 0 -1 0 99 cm q
0.901961 g
14.012 42.359 m 14.012 70.703 l 127.395 70.703 l 127.395 14.012 l 14.012
 14.012 l f
Q q
11.176 34.504 m 14.012 34.504 l 14.012 70.703 l 11.176 70.703 l h
11.176 70.703 m 98.57 70.703 l 98.57 73.539 l 11.176 73.539 l h
11.176 70.703 m W n
q
11 34 88 40 re W n
  q
0 g
0.510386 w
2 J
0 j
[] 0.0 d
10 M q 1 0 0 -1 0 0 cm
90.582 -152.875 m -19.969 -42.324 l S Q
  Q
Q
Q q
11.176 33.504 m 14.012 33.504 l 14.012 70.703 l 11.176 70.703 l h
11.176 70.703 m 99.57 70.703 l 99.57 73.539 l 11.176 73.539 l h
11.176 70.703 m W n
q
11 33 89 41 re W n
  q
0 g
0.510386 w
2 J
0 j
[] 0.0 d
10 M q 1 0 0 -1 0 0 cm
91.98 -151.473 m -18.57 -40.922 l S Q
  Q
Q
Q q
11.176 31.504 m 14.012 31.504 l 14.012 70.703 l 11.176 70.703 l h
11.176 70.703 m 101.57 70.703 l 101.57 73.539 l 11.176 73.539 l h
11.176 70.703 m W n
q
11 31 91 43 re W n
  q
0 g
0.510386 w
2 J
0 j
[] 0.0 d
10 M q 1 0 0 -1 0 0 cm
93.379 -150.074 m -17.172 -39.523 l S Q
  Q
Q
Q q
11.176 30.504 m 14.012 30.504 l 14.012 70.703 l 11.176 70.703 l h
11.176 70.703 m 102.57 70.703 l 102.57 73.539 l 11.176 73.539 l h
11.176 70.703 m W n
q
11 30 92 44 re W n
  q
0 g
0.510386 w
2 J
0 j
[] 0.0 d
10 M q 1 0 0 -1 0 0 cm
94.781 -148.676 m -15.77 -38.121 l S Q
  Q
Q
Q q
11.176 29.504 m 14.012 29.504 l 14.012 70.703 l 11.176 70.703 l h
11.176 70.703 m 103.57 70.703 l 103.57 73.539 l 11.176 73.539 l h
11.176 70.703 m W n
q
11 29 93 45 re W n
  q
0 g
0.510386 w
2 J
0 j
[] 0.0 d
10 M q 1 0 0 -1 0 0 cm
96.18 -147.273 m -14.371 -36.723 l S Q
  Q
Q
Q q
11.176 27.504 m 14.012 27.504 l 14.012 70.703 l 11.176 70.703 l h
11.176 70.703 m 105.57 70.703 l 105.57 73.539 l 11.176 73.539 l h
11.176 70.703 m W n
q
11 27 95 47 re W n
  q
0 g
0.510386 w
2 J
0 j
[] 0.0 d
10 M q 1 0 0 -1 0 0 cm
97.582 -145.875 m -12.969 -35.324 l S Q
  Q
Q
Q q
11.176 26.504 m 14.012 26.504 l 14.012 70.703 l 11.176 70.703 l h
11.176 70.703 m 106.57 70.703 l 106.57 73.539 l 11.176 73.539 l h
11.176 70.703 m W n
q
11 26 96 48 re W n
  q
0 g
0.510386 w
2 J
0 j
[] 0.0 d
10 M q 1 0 0 -1 0 0 cm
98.98 -144.473 m -11.57 -33.922 l S Q
  Q
Q
Q q
11.176 24.504 m 14.012 24.504 l 14.012 70.703 l 11.176 70.703 l h
11.176 70.703 m 108.57 70.703 l 108.57 73.539 l 11.176 73.539 l h
11.176 70.703 m W n
q
11 24 98 50 re W n
  q
0 g
0.510386 w
2 J
0 j
[] 0.0 d
10 M q 1 0 0 -1 0 0 cm
100.379 -143.074 m -10.172 -32.523 l S Q
  Q
Q
Q q
11.176 23.504 m 14.012 23.504 l 14.012 70.703 l 11.176 70.703 l h
11.176 70.703 m 109.57 70.703 l 109.57 73.539 l 11.176 73.539 l h
11.176 70.703 m W n
q
11 23 99 51 re W n
  q
0 g
0.510386 w
2 J
0 j
[] 0.0 d
10 M q 1 0 0 -1 0 0 cm
101.781 -141.676 m -8.77 -31.121 l S Q
  Q
Q
Q q
11.176 22.504 m 14.012 22.504 l 14.012 70.703 l 11.176 70.703 l h
11.176 70.703 m 110.57 70.703 l 110.57 73.539 l 11.176 73.539 l h
11.176 70.703 m W n
q
11 22 100 52 re W n
  q
0 g
0.510386 w
2 J
0 j
[] 0.0 d
10 M q 1 0 0 -1 0 0 cm
103.18 -140.273 m -7.371 -29.723 l S Q
  Q
Q
Q q
11.176 20.504 m 14.012 20.504 l 14.012 70.703 l 11.176 70.703 l h
11.176 70.703 m 112.57 70.703 l 112.57 73.539 l 11.176 73.539 l h
11.176 70.703 m W n
q
11 20 102 54 re W n
  q
0 g
0.510386 w
2 J
0 j
[] 0.0 d
10 M q 1 0 0 -1 0 0 cm
104.582 -138.875 m -5.969 -28.324 l S Q
  Q
Q
Q q
11.176 19.504 m 14.012 19.504 l 14.012 70.703 l 11.176 70.703 l h
11.176 70.703 m 113.57 70.703 l 113.57 73.539 l 11.176 73.539 l h
11.176 70.703 m W n
q
11 19 103 55 re W n
  q
0 g
0.510386 w
2 J
0 j
[] 0.0 d
10 M q 1 0 0 -1 0 0 cm
105.98 -137.473 m -4.57 -26.922 l S Q
  Q
Q
Q q
11.176 17.504 m 14.012 17.504 l 14.012 70.703 l 11.176 70.703 l h
11.176 70.703 m 115.57 70.703 l 115.57 73.539 l 11.176 73.539 l h
11.176 70.703 m W n
q
11 17 105 57 re W n
  q
0 g
0.510386 w
2 J
0 j
[] 0.0 d
10 M q 1 0 0 -1 0 0 cm
107.379 -136.074 m -3.172 -25.523 l S Q
  Q
Q
Q q
11.176 16.504 m 14.012 16.504 l 14.012 70.703 l 11.176 70.703 l h
11.176 70.703 m 116.57 70.703 l 116.57 73.539 l 11.176 73.539 l h
11.176 70.703 m W n
q
11 16 106 58 re W n
  q
0 g
0.510386 w
2 J
0 j
[] 0.0 d
10 M q 1 0 0 -1 0 0 cm
108.781 -134.676 m -1.77 -24.121 l S Q
  Q
Q
Q q
11.176 15.504 m 14.012 15.504 l 14.012 70.703 l 11.176 70.703 l h
11.176 70.703 m 117.57 70.703 l 117.57 73.539 l 11.176 73.539 l h
11.176 70.703 m W n
q
11 15 107 59 re W n
  q
0 g
0.510386 w
2 J
0 j
[] 0.0 d
10 M q 1 0 0 -1 0 0 cm
110.18 -133.273 m -0.371 -22.723 l S Q
  Q
Q
Q q
11.176 13.504 m 119.57 13.504 l 119.57 14.012 l 11.176 14.012 l h
11.176 14.012 m 14.012 14.012 l 14.012 70.703 l 11.176 70.703 l h
11.176 70.703 m 119.57 70.703 l 119.57 73.539 l 11.176 73.539 l h
11.176 70.703 m W n
q
11 13 109 61 re W n
  q
0 g
0.510386 w
2 J
0 j
[] 0.0 d
10 M q 1 0 0 -1 0 0 cm
111.582 -131.875 m 1.031 -21.324 l S Q
  Q
Q
Q q
11.176 12.504 m 120.57 12.504 l 120.57 14.012 l 11.176 14.012 l h
11.176 14.012 m 14.012 14.012 l 14.012 70.703 l 11.176 70.703 l h
11.176 70.703 m 120.57 70.703 l 120.57 73.539 l 11.176 73.539 l h
11.176 70.703 m W n
q
11 12 110 62 re W n
  q
0 g
0.510386 w
2 J
0 j
[] 0.0 d
10 M q 1 0 0 -1 0 0 cm
112.98 -130.473 m 2.43 -19.922 l S Q
  Q
Q
Q q
11.176 11.176 m 122.57 11.176 l 122.57 14.012 l 11.176 14.012 l h
11.176 14.012 m 14.012 14.012 l 14.012 70.703 l 11.176 70.703 l h
11.176 70.703 m 122.57 70.703 l 122.57 73.539 l 11.176 73.539 l h
11.176 70.703 m W n
q
11 11 112 63 re W n
  q
0 g
0.510386 w
2 J
0 j
[] 0.0 d
10 M q 1 0 0 -1 0 0 cm
114.379 -129.074 m 3.828 -18.523 l S Q
  Q
Q
Q q
11.176 11.176 m 123.57 11.176 l 123.57 14.012 l 11.176 14.012 l h
11.176 14.012 m 14.012 14.012 l 14.012 70.703 l 11.176 70.703 l h
11.176 70.703 m 123.57 70.703 l 123.57 73.539 l 11.176 73.539 l h
11.176 70.703 m W n
q
11 11 113 63 re W n
  q
0 g
0.510386 w
2 J
0 j
[] 0.0 d
10 M q 1 0 0 -1 0 0 cm
115.781 -127.676 m 5.23 -17.121 l S Q
  Q
Q
Q q
11.176 11.176 m 124.57 11.176 l 124.57 14.012 l 11.176 14.012 l h
11.176 14.012 m 14.012 14.012 l 14.012 70.703 l 11.176 70.703 l h
11.176 70.703 m 124.57 70.703 l 124.57 73.539 l 11.176 73.539 l h
11.176 70.703 m W n
q
11 11 114 63 re W n
  q
0 g
0.510386 w
2 J
0 j
[] 0.0 d
10 M q 1 0 0 -1 0 0 cm
117.18 -126.273 m 6.629 -15.723 l S Q
  Q
Q
Q q
11.176 11.176 m 126.57 11.176 l 126.57 14.012 l 11.176 14.012 l h
11.176 14.012 m 14.012 14.012 l 14.012 70.703 l 11.176 70.703 l h
11.176 70.703 m 126.57 70.703 l 126.57 73.539 l 11.176 73.539 l h
11.176 70.703 m W n
q
11 11 116 63 re W n
  q
0 g
0.510386 w
2 J
0 j
[] 0.0 d
10 M q 1 0 0 -1 0 0 cm
118.582 -124.875 m 8.031 -14.324 l S Q
  Q
Q
Q q
11.176 11.176 m 127.57 11.176 l 127.57 14.012 l 11.176 14.012 l h
11.176 14.012 m 14.012 14.012 l 14.012 70.703 l 11.176 70.703 l h
11.176 70.703 m 127.57 70.703 l 127.57 73.539 l 11.176 73.539 l h
11.176 70.703 m W n
q
11 11 117 63 re W n
  q
0 g
0.510386 w
2 J
0 j
[] 0.0 d
10 M q 1 0 0 -1 0 0 cm
119.98 -123.473 m 9.43 -12.922 l S Q
  Q
Q
Q q
11.176 11.176 m 129.57 11.176 l 129.57 14.012 l 11.176 14.012 l h
11.176 14.012 m 14.012 14.012 l 14.012 70.703 l 11.176 70.703 l h
11.176 70.703 m 129.57 70.703 l 129.57 73.539 l 11.176 73.539 l h
11.176 70.703 m W n
q
11 11 119 63 re W n
  q
0 g
0.510386 w
2 J
0 j
[] 0.0 d
10 M q 1 0 0 -1 0 0 cm
121.379 -122.074 m 10.828 -11.523 l S Q
  Q
Q
Q q
11.176 11.176 m 130.57 11.176 l 130.57 14.012 l 11.176 14.012 l h
11.176 14.012 m 14.012 14.012 l 14.012 70.703 l 11.176 70.703 l h
11.176 70.703 m 130.57 70.703 l 130.57 73.539 l 11.176 73.539 l h
11.176 70.703 m W n
q
11 11 120 63 re W n
  q
0 g
0.510386 w
2 J
0 j
[] 0.0 d
10 M q 1 0 0 -1 0 0 cm
122.781 -120.676 m 12.23 -10.121 l S Q
  Q
Q
Q q
11.176 11.176 m 131.57 11.176 l 131.57 14.012 l 11.176 14.012 l h
11.176 14.012 m 14.012 14.012 l 14.012 70.703 l 11.176 70.703 l h
11.176 70.703 m 131.57 70.703 l 131.57 73.539 l 11.176 73.539 l h
11.176 70.703 m W n
q
11 11 121 63 re W n
  q
0 g
0.510386 w
2 J
0 j
[] 0.0 d
10 M q 1 0 0 -1 0 0 cm
124.18 -119.273 m 13.629 -8.723 l S Q
  Q
Q
Q q
11.176 11.176 m 133.57 11.176 l 133.57 14.012 l 11.176 14.012 l h
11.176 14.012 m 14.012 14.012 l 14.012 70.703 l 11.176 70.703 l h
11.176 70.703 m 133.57 70.703 l 133.57 73.539 l 11.176 73.539 l h
11.176 70.703 m W n
q
11 11 123 63 re W n
  q
0 g
0.510386 w
2 J
0 j
[] 0.0 d
10 M q 1 0 0 -1 0 0 cm
125.582 -117.875 m 15.031 -7.324 l S Q
  Q
Q
Q q
11.176 11.176 m 134.57 11.176 l 134.57 14.012 l 11.176 14.012 l h
11.176 14.012 m 14.012 14.012 l 14.012 70.703 l 11.176 70.703 l h
11.176 70.703 m 134.57 70.703 l 134.57 73.539 l 11.176 73.539 l h
11.176 70.703 m W n
q
11 11 124 63 re W n
  q
0 g
0.510386 w
2 J
0 j
[] 0.0 d
10 M q 1 0 0 -1 0 0 cm
126.98 -116.473 m 16.43 -5.922 l S Q
  Q
Q
Q q
11.176 11.176 m 136.57 11.176 l 136.57 14.012 l 11.176 14.012 l h
11.176 14.012 m 14.012 14.012 l 14.012 70.703 l 11.176 70.703 l h
11.176 70.703 m 136.57 70.703 l 136.57 73.539 l 11.176 73.539 l h
11.176 70.703 m W n
q
11 11 126 63 re W n
  q
0 g
0.510386 w
2 J
0 j
[] 0.0 d
10 M q 1 0 0 -1 0 0 cm
128.379 -115.074 m 17.828 -4.523 l S Q
  Q
Q
Q q
11.57 11.176 m 137.57 11.176 l 137.57 14.012 l 11.57 14.012 l h
11.57 14.012 m 14.012 14.012 l 14.012 70.703 l 11.57 70.703 l h
11.57 70.703 m 137.57 70.703 l 137.57 73.539 l 11.57 73.539 l h
11.57 70.703 m W n
q
11 11 127 63 re W n
  q
0 g
0.510386 w
2 J
0 j
[] 0.0 d
10 M q 1 0 0 -1 0 0 cm
129.781 -113.676 m 19.23 -3.121 l S Q
  Q
Q
Q q
12.57 11.176 m 138.57 11.176 l 138.57 14.012 l 12.57 14.012 l h
12.57 14.012 m 14.012 14.012 l 14.012 70.703 l 12.57 70.703 l h
12.57 70.703 m 138.57 70.703 l 138.57 73.539 l 12.57 73.539 l h
12.57 70.703 m W n
q
12 11 127 63 re W n
  q
0 g
0.510386 w
2 J
0 j
[] 0.0 d
10 M q 1 0 0 -1 0 0 cm
131.18 -112.273 m 20.629 -1.723 l S Q
  Q
Q
Q q
14.57 11.176 m 140.57 11.176 l 140.57 14.012 l 14.57 14.012 l h
14.57 70.703 m 140.57 70.703 l 140.57 73.539 l 14.57 73.539 l h
14.57 70.703 m W n
q
14 11 127 63 re W n
  q
0 g
0.510386 w
2 J
0 j
[] 0.0 d
10 M q 1 0 0 -1 0 0 cm
132.582 -110.875 m 22.031 -0.324 l S Q
  Q
Q
Q q
15.57 11.176 m 141.57 11.176 l 141.57 14.012 l 15.57 14.012 l h
15.57 70.703 m 141.57 70.703 l 141.57 73.539 l 15.57 73.539 l h
15.57 70.703 m W n
q
15 11 127 63 re W n
  q
0 g
0.510386 w
2 J
0 j
[] 0.0 d
10 M q 1 0 0 -1 0 0 cm
133.98 -109.473 m 23.43 1.078 l S Q
  Q
Q
Q q
17.57 11.176 m 143.57 11.176 l 143.57 14.012 l 17.57 14.012 l h
17.57 70.703 m 143.57 70.703 l 143.57 73.539 l 17.57 73.539 l h
17.57 70.703 m W n
q
17 11 127 63 re W n
  q
0 g
0.510386 w
2 J
0 j
[] 0.0 d
10 M q 1 0 0 -1 0 0 cm
135.379 -108.074 m 24.828 2.477 l S Q
  Q
Q
Q q
18.57 11.176 m 144.57 11.176 l 144.57 14.012 l 18.57 14.012 l h
18.57 70.703 m 144.57 70.703 l 144.57 73.539 l 18.57 73.539 l h
18.57 70.703 m W n
q
18 11 127 63 re W n
  q
0 g
0.510386 w
2 J
0 j
[] 0.0 d
10 M q 1 0 0 -1 0 0 cm
136.781 -106.676 m 26.23 3.879 l S Q
  Q
Q
Q q
19.57 11.176 m 145.57 11.176 l 145.57 14.012 l 19.57 14.012 l h
19.57 70.703 m 145.57 70.703 l 145.57 73.539 l 19.57 73.539 l h
19.57 70.703 m W n
q
19 11 127 63 re W n
  q
0 g
0.510386 w
2 J
0 j
[] 0.0 d
10 M q 1 0 0 -1 0 0 cm
138.18 -105.273 m 27.629 5.277 l S Q
  Q
Q
Q q
21.57 11.176 m 147.57 11.176 l 147.57 14.012 l 21.57 14.012 l h
21.57 70.703 m 147.57 70.703 l 147.57 73.539 l 21.57 73.539 l h
21.57 70.703 m W n
q
21 11 127 63 re W n
  q
0 g
0.510386 w
2 J
0 j
[] 0.0 d
10 M q 1 0 0 -1 0 0 cm
139.582 -103.875 m 29.031 6.676 l S Q
  Q
Q
Q q
22.57 11.176 m 148.57 11.176 l 148.57 14.012 l 22.57 14.012 l h
22.57 70.703 m 148.57 70.703 l 148.57 73.539 l 22.57 73.539 l h
22.57 70.703 m W n
q
22 11 127 63 re W n
  q
0 g
0.510386 w
2 J
0 j
[] 0.0 d
10 M q 1 0 0 -1 0 0 cm
140.98 -102.473 m 30.43 8.078 l S Q
  Q
Q
Q q
24.57 11.176 m 150.57 11.176 l 150.57 14.012 l 24.57 14.012 l h
24.57 70.703 m 150.57 70.703 l 150.57 73.539 l 24.57 73.539 l h
24.57 70.703 m W n
q
24 11 127 63 re W n
  q
0 g
0.510386 w
2 J
0 j
[] 0.0 d
10 M q 1 0 0 -1 0 0 cm
142.379 -101.074 m 31.828 9.477 l S Q
  Q
Q
Q q
25.57 11.176 m 151.57 11.176 l 151.57 14.012 l 25.57 14.012 l h
25.57 70.703 m 151.57 70.703 l 151.57 73.539 l 25.57 73.539 l h
25.57 70.703 m W n
q
25 11 127 63 re W n
  q
0 g
0.510386 w
2 J
0 j
[] 0.0 d
10 M q 1 0 0 -1 0 0 cm
143.781 -99.676 m 33.23 10.879 l S Q
  Q
Q
Q q
26.57 11.176 m 152.57 11.176 l 152.57 14.012 l 26.57 14.012 l h
26.57 70.703 m 152.57 70.703 l 152.57 73.539 l 26.57 73.539 l h
26.57 70.703 m W n
q
26 11 127 63 re W n
  q
0 g
0.510386 w
2 J
0 j
[] 0.0 d
10 M q 1 0 0 -1 0 0 cm
145.18 -98.273 m 34.629 12.277 l S Q
  Q
Q
Q q
28.57 11.176 m 154.57 11.176 l 154.57 14.012 l 28.57 14.012 l h
28.57 70.703 m 154.57 70.703 l 154.57 73.539 l 28.57 73.539 l h
28.57 70.703 m W n
q
28 11 127 63 re W n
  q
0 g
0.510386 w
2 J
0 j
[] 0.0 d
10 M q 1 0 0 -1 0 0 cm
146.582 -96.875 m 36.031 13.676 l S Q
  Q
Q
Q q
29.57 11.176 m 155.57 11.176 l 155.57 14.012 l 29.57 14.012 l h
29.57 70.703 m 155.57 70.703 l 155.57 73.539 l 29.57 73.539 l h
29.57 70.703 m W n
q
29 11 127 63 re W n
  q
0 g
0.510386 w
2 J
0 j
[] 0.0 d
10 M q 1 0 0 -1 0 0 cm
147.98 -95.473 m 37.43 15.078 l S Q
  Q
Q
Q q
31.57 11.176 m 157.57 11.176 l 157.57 14.012 l 31.57 14.012 l h
31.57 70.703 m 157.57 70.703 l 157.57 73.539 l 31.57 73.539 l h
31.57 70.703 m W n
q
31 11 127 63 re W n
  q
0 g
0.510386 w
2 J
0 j
[] 0.0 d
10 M q 1 0 0 -1 0 0 cm
149.379 -94.074 m 38.828 16.477 l S Q
  Q
Q
Q q
32.57 11.176 m 158.57 11.176 l 158.57 14.012 l 32.57 14.012 l h
32.57 70.703 m 158.57 70.703 l 158.57 73.539 l 32.57 73.539 l h
32.57 70.703 m W n
q
32 11 127 63 re W n
  q
0 g
0.510386 w
2 J
0 j
[] 0.0 d
10 M q 1 0 0 -1 0 0 cm
150.781 -92.676 m 40.23 17.879 l S Q
  Q
Q
Q q
33.57 11.176 m 159.57 11.176 l 159.57 14.012 l 33.57 14.012 l h
33.57 70.703 m 159.57 70.703 l 159.57 73.539 l 33.57 73.539 l h
33.57 70.703 m W n
q
33 11 127 63 re W n
  q
0 g
0.510386 w
2 J
0 j
[] 0.0 d
10 M q 1 0 0 -1 0 0 cm
152.18 -91.273 m 41.629 19.277 l S Q
  Q
Q
Q q
35.57 11.176 m 161.57 11.176 l 161.57 14.012 l 35.57 14.012 l h
35.57 70.703 m 161.57 70.703 l 161.57 73.539 l 35.57 73.539 l h
35.57 70.703 m W n
q
35 11 127 63 re W n
  q
0 g
0.510386 w
2 J
0 j
[] 0.0 d
10 M q 1 0 0 -1 0 0 cm
153.582 -89.875 m 43.031 20.676 l S Q
  Q
Q
Q q
36.57 11.176 m 162.57 11.176 l 162.57 14.012 l 36.57 14.012 l h
36.57 70.703 m 162.57 70.703 l 162.57 73.539 l 36.57 73.539 l h
36.57 70.703 m W n
q
36 11 127 63 re W n
  q
0 g
0.510386 w
2 J
0 j
[] 0.0 d
10 M q 1 0 0 -1 0 0 cm
154.98 -88.473 m 44.43 22.078 l S Q
  Q
Q
Q q
38.57 11.176 m 164.57 11.176 l 164.57 14.012 l 38.57 14.012 l h
38.57 70.703 m 164.57 70.703 l 164.57 73.539 l 38.57 73.539 l h
38.57 70.703 m W n
q
38 11 127 63 re W n
  q
0 g
0.510386 w
2 J
0 j
[] 0.0 d
10 M q 1 0 0 -1 0 0 cm
156.379 -87.074 m 45.828 23.477 l S Q
  Q
Q
Q q
39.57 11.176 m 165.57 11.176 l 165.57 14.012 l 39.57 14.012 l h
39.57 70.703 m 165.57 70.703 l 165.57 73.539 l 39.57 73.539 l h
39.57 70.703 m W n
q
39 11 127 63 re W n
  q
0 g
0.510386 w
2 J
0 j
[] 0.0 d
10 M q 1 0 0 -1 0 0 cm
157.781 -85.676 m 47.23 24.879 l S Q
  Q
Q
Q q
40.57 11.176 m 166.57 11.176 l 166.57 14.012 l 40.57 14.012 l h
40.57 70.703 m 166.57 70.703 l 166.57 73.539 l 40.57 73.539 l h
40.57 70.703 m W n
q
40 11 127 63 re W n
  q
0 g
0.510386 w
2 J
0 j
[] 0.0 d
10 M q 1 0 0 -1 0 0 cm
159.18 -84.273 m 48.629 26.277 l S Q
  Q
Q
Q q
42.57 11.176 m 168.57 11.176 l 168.57 14.012 l 42.57 14.012 l h
42.57 70.703 m 168.57 70.703 l 168.57 73.539 l 42.57 73.539 l h
42.57 70.703 m W n
q
42 11 127 63 re W n
  q
0 g
0.510386 w
2 J
0 j
[] 0.0 d
10 M q 1 0 0 -1 0 0 cm
160.582 -82.875 m 50.031 27.676 l S Q
  Q
Q
Q q
43.57 11.176 m 169.57 11.176 l 169.57 14.012 l 43.57 14.012 l h
43.57 70.703 m 169.57 70.703 l 169.57 73.539 l 43.57 73.539 l h
43.57 70.703 m W n
q
43 11 127 63 re W n
  q
0 g
0.510386 w
2 J
0 j
[] 0.0 d
10 M q 1 0 0 -1 0 0 cm
161.98 -81.473 m 51.43 29.078 l S Q
  Q
Q
Q q
45.57 11.176 m 169.914 11.176 l 169.914 14.012 l 45.57 14.012 l h
45.57 70.703 m 169.914 70.703 l 169.914 73.539 l 45.57 73.539 l h
45.57 70.703 m W n
q
45 11 125 63 re W n
  q
0 g
0.510386 w
2 J
0 j
[] 0.0 d
10 M q 1 0 0 -1 0 0 cm
163.379 -80.074 m 52.828 30.477 l S Q
  Q
Q
Q q
46.57 11.176 m 169.914 11.176 l 169.914 14.012 l 46.57 14.012 l h
46.57 70.703 m 169.914 70.703 l 169.914 73.539 l 46.57 73.539 l h
46.57 70.703 m W n
q
46 11 124 63 re W n
  q
0 g
0.510386 w
2 J
0 j
[] 0.0 d
10 M q 1 0 0 -1 0 0 cm
164.781 -78.676 m 54.23 31.879 l S Q
  Q
Q
Q q
47.57 11.176 m 169.914 11.176 l 169.914 14.012 l 47.57 14.012 l h
47.57 70.703 m 169.914 70.703 l 169.914 73.539 l 47.57 73.539 l h
47.57 70.703 m W n
q
47 11 123 63 re W n
  q
0 g
0.510386 w
2 J
0 j
[] 0.0 d
10 M q 1 0 0 -1 0 0 cm
166.18 -77.273 m 55.629 33.277 l S Q
  Q
Q
Q q
49.57 11.176 m 169.914 11.176 l 169.914 14.012 l 49.57 14.012 l h
49.57 70.703 m 169.914 70.703 l 169.914 73.539 l 49.57 73.539 l h
49.57 70.703 m W n
q
49 11 121 63 re W n
  q
0 g
0.510386 w
2 J
0 j
[] 0.0 d
10 M q 1 0 0 -1 0 0 cm
167.582 -75.875 m 57.031 34.676 l S Q
  Q
Q
Q q
50.57 11.176 m 169.914 11.176 l 169.914 14.012 l 50.57 14.012 l h
50.57 70.703 m 169.914 70.703 l 169.914 73.539 l 50.57 73.539 l h
50.57 70.703 m W n
q
50 11 120 63 re W n
  q
0 g
0.510386 w
2 J
0 j
[] 0.0 d
10 M q 1 0 0 -1 0 0 cm
168.98 -74.473 m 58.43 36.078 l S Q
  Q
Q
Q q
52.57 11.176 m 169.914 11.176 l 169.914 14.012 l 52.57 14.012 l h
52.57 70.703 m 169.914 70.703 l 169.914 73.539 l 52.57 73.539 l h
52.57 70.703 m W n
q
52 11 118 63 re W n
  q
0 g
0.510386 w
2 J
0 j
[] 0.0 d
10 M q 1 0 0 -1 0 0 cm
170.379 -73.074 m 59.828 37.477 l S Q
  Q
Q
Q q
53.57 11.176 m 169.914 11.176 l 169.914 14.012 l 53.57 14.012 l h
53.57 70.703 m 169.914 70.703 l 169.914 73.539 l 53.57 73.539 l h
53.57 70.703 m W n
q
53 11 117 63 re W n
  q
0 g
0.510386 w
2 J
0 j
[] 0.0 d
10 M q 1 0 0 -1 0 0 cm
171.781 -71.676 m 61.23 38.879 l S Q
  Q
Q
Q q
54.57 11.176 m 169.914 11.176 l 169.914 14.012 l 54.57 14.012 l h
54.57 70.703 m 169.914 70.703 l 169.914 73.539 l 54.57 73.539 l h
54.57 70.703 m W n
q
54 11 116 63 re W n
  q
0 g
0.510386 w
2 J
0 j
[] 0.0 d
10 M q 1 0 0 -1 0 0 cm
173.18 -70.273 m 62.629 40.277 l S Q
  Q
Q
Q q
56.57 11.176 m 169.914 11.176 l 169.914 14.012 l 56.57 14.012 l h
56.57 70.703 m 169.914 70.703 l 169.914 73.539 l 56.57 73.539 l h
56.57 70.703 m W n
q
56 11 114 63 re W n
  q
0 g
0.510386 w
2 J
0 j
[] 0.0 d
10 M q 1 0 0 -1 0 0 cm
174.582 -68.875 m 64.031 41.676 l S Q
  Q
Q
Q q
57.57 11.176 m 169.914 11.176 l 169.914 14.012 l 57.57 14.012 l h
57.57 70.703 m 169.914 70.703 l 169.914 73.539 l 57.57 73.539 l h
57.57 70.703 m W n
q
57 11 113 63 re W n
  q
0 g
0.510386 w
2 J
0 j
[] 0.0 d
10 M q 1 0 0 -1 0 0 cm
175.98 -67.473 m 65.43 43.078 l S Q
  Q
Q
Q q
59.57 11.176 m 169.914 11.176 l 169.914 14.012 l 59.57 14.012 l h
59.57 70.703 m 169.914 70.703 l 169.914 73.504 l 59.57 73.504 l h
59.57 70.703 m W n
q
59 11 111 63 re W n
  q
0 g
0.510386 w
2 J
0 j
[] 0.0 d
10 M q 1 0 0 -1 0 0 cm
177.379 -66.074 m 66.828 44.477 l S Q
  Q
Q
Q q
60.57 11.176 m 169.914 11.176 l 169.914 14.012 l 60.57 14.012 l h
60.57 70.703 m 169.914 70.703 l 169.914 72.504 l 60.57 72.504 l h
60.57 70.703 m W n
q
60 11 110 62 re W n
  q
0 g
0.510386 w
2 J
0 j
[] 0.0 d
10 M q 1 0 0 -1 0 0 cm
178.781 -64.676 m 68.23 45.879 l S Q
  Q
Q
Q q
61.57 11.176 108.344 2.836 re W n
q
61 11 109 4 re W n
  q
0 g
0.510386 w
2 J
0 j
[] 0.0 d
10 M q 1 0 0 -1 0 0 cm
180.18 -63.273 m 69.629 47.277 l S Q
  Q
Q
Q q
63.57 11.176 106.344 2.836 re W n
q
63 11 107 4 re W n
  q
0 g
0.510386 w
2 J
0 j
[] 0.0 d
10 M q 1 0 0 -1 0 0 cm
181.582 -61.875 m 71.031 48.676 l S Q
  Q
Q
Q q
64.57 11.176 105.344 2.836 re W n
q
64 11 106 4 re W n
  q
0 g
0.510386 w
2 J
0 j
[] 0.0 d
10 M q 1 0 0 -1 0 0 cm
182.98 -60.473 m 72.43 50.078 l S Q
  Q
Q
Q q
66.57 11.176 103.344 2.836 re W n
q
66 11 104 4 re W n
  q
0 g
0.510386 w
2 J
0 j
[] 0.0 d
10 M q 1 0 0 -1 0 0 cm
184.379 -59.074 m 73.828 51.477 l S Q
  Q
Q
Q q
67.57 11.176 102.344 2.836 re W n
q
67 11 103 4 re W n
  q
0 g
0.510386 w
2 J
0 j
[] 0.0 d
10 M q 1 0 0 -1 0 0 cm
185.781 -57.676 m 75.23 52.879 l S Q
  Q
Q
Q q
68.57 11.176 101.344 2.836 re W n
q
68 11 102 4 re W n
  q
0 g
0.510386 w
2 J
0 j
[] 0.0 d
10 M q 1 0 0 -1 0 0 cm
187.18 -56.273 m 76.629 54.277 l S Q
  Q
Q
Q q
70.57 11.176 99.344 2.836 re W n
q
70 11 100 4 re W n
  q
0 g
0.510386 w
2 J
0 j
[] 0.0 d
10 M q 1 0 0 -1 0 0 cm
188.582 -54.875 m 78.031 55.676 l S Q
  Q
Q
Q q
71.57 11.176 98.344 2.836 re W n
q
71 11 99 4 re W n
  q
0 g
0.510386 w
2 J
0 j
[] 0.0 d
10 M q 1 0 0 -1 0 0 cm
189.98 -53.473 m 79.43 57.078 l S Q
  Q
Q
Q q
73.57 11.176 96.344 2.836 re W n
q
73 11 97 4 re W n
  q
0 g
0.510386 w
2 J
0 j
[] 0.0 d
10 M q 1 0 0 -1 0 0 cm
191.379 -52.074 m 80.828 58.477 l S Q
  Q
Q
Q q
74.57 11.176 95.344 2.836 re W n
q
74 11 96 4 re W n
  q
0 g
0.510386 w
2 J
0 j
[] 0.0 d
10 M q 1 0 0 -1 0 0 cm
192.781 -50.676 m 82.23 59.879 l S Q
  Q
Q
Q q
75.57 11.176 94.344 2.836 re W n
q
75 11 95 4 re W n
  q
0 g
0.510386 w
2 J
0 j
[] 0.0 d
10 M q 1 0 0 -1 0 0 cm
194.18 -49.273 m 83.629 61.277 l S Q
  Q
Q
Q q
77.57 11.176 92.344 2.836 re W n
q
77 11 93 4 re W n
  q
0 g
0.510386 w
2 J
0 j
[] 0.0 d
10 M q 1 0 0 -1 0 0 cm
195.582 -47.875 m 85.031 62.676 l S Q
  Q
Q
Q q
78.57 11.176 91.344 2.836 re W n
q
78 11 92 4 re W n
  q
0 g
0.510386 w
2 J
0 j
[] 0.0 d
10 M q 1 0 0 -1 0 0 cm
196.98 -46.473 m 86.43 64.078 l S Q
  Q
Q
Q q
80.57 11.176 89.344 2.836 re W n
q
80 11 90 4 re W n
  q
0 g
0.510386 w
2 J
0 j
[] 0.0 d
10 M q 1 0 0 -1 0 0 cm
198.379 -45.074 m 87.828 65.477 l S Q
  Q
Q
Q q
81.57 11.176 88.344 2.836 re W n
q
81 11 89 4 re W n
  q
0 g
0.510386 w
2 J
0 j
[] 0.0 d
10 M q 1 0 0 -1 0 0 cm
199.781 -43.676 m 89.23 66.879 l S Q
  Q
Q
Q q
82.57 11.176 87.344 2.836 re W n
q
82 11 88 4 re W n
  q
0 g
0.510386 w
2 J
0 j
[] 0.0 d
10 M q 1 0 0 -1 0 0 cm
201.18 -42.273 m 90.629 68.277 l S Q
  Q
Q
Q q
0 g
0.850361 w
0 J
0 j
[] 0.0 d
10 M q 1 0 0 -1 0 0 cm
91.965 -70.703 m 14.012 -70.703 l 14.012 -14.012 l 169.914 -14.012 l 169.914
 -11.176 l 11.176 -11.176 l 11.176 -73.539 l 169.914 -73.539 l 169.914 -70.703
 l h
91.965 -70.703 m S Q
Q q
127.82 33.504 m 138.309 33.504 l 138.309 42.359 l 127.82 42.359 l h
127.82 42.359 m 138.309 42.359 l 138.309 70.277 l 127.82 70.277 l h
127.82 42.359 m W n
q
127 33 12 38 re W n
  q
0 g
0.510386 w
2 J
0 j
[] 0.0 d
10 M q 1 0 0 -1 0 0 cm
165.188 -41.312 m 132.02 -74.48 l S Q
  Q
Q
Q q
127.82 32.504 m 138.309 32.504 l 138.309 42.359 l 127.82 42.359 l h
127.82 42.359 m 138.309 42.359 l 138.309 70.277 l 127.82 70.277 l h
127.82 42.359 m W n
q
127 32 12 39 re W n
  q
0 g
0.510386 w
2 J
0 j
[] 0.0 d
10 M q 1 0 0 -1 0 0 cm
163.785 -39.914 m 130.621 -73.078 l S Q
  Q
Q
Q q
127.82 30.504 m 138.309 30.504 l 138.309 42.359 l 127.82 42.359 l h
127.82 42.359 m 138.309 42.359 l 138.309 70.277 l 127.82 70.277 l h
127.82 42.359 m W n
q
127 30 12 41 re W n
  q
0 g
0.510386 w
2 J
0 j
[] 0.0 d
10 M q 1 0 0 -1 0 0 cm
162.387 -38.512 m 129.223 -71.68 l S Q
  Q
Q
Q q
127.82 29.504 m 138.309 29.504 l 138.309 42.359 l 127.82 42.359 l h
127.82 42.359 m 138.309 42.359 l 138.309 70.277 l 127.82 70.277 l h
127.82 42.359 m W n
q
127 29 12 42 re W n
  q
0 g
0.510386 w
2 J
0 j
[] 0.0 d
10 M q 1 0 0 -1 0 0 cm
160.984 -37.113 m 127.82 -70.277 l S Q
  Q
Q
Q q
127.82 27.504 m 138.309 27.504 l 138.309 42.359 l 127.82 42.359 l h
127.82 42.359 m 138.309 42.359 l 138.309 70.277 l 127.82 70.277 l h
127.82 42.359 m W n
q
127 27 12 44 re W n
  q
0 g
0.510386 w
2 J
0 j
[] 0.0 d
10 M q 1 0 0 -1 0 0 cm
159.586 -35.715 m 126.422 -68.879 l S Q
  Q
Q
Q q
127.82 26.504 m 138.309 26.504 l 138.309 42.359 l 127.82 42.359 l h
127.82 42.359 m 138.309 42.359 l 138.309 70.277 l 127.82 70.277 l h
127.82 42.359 m W n
q
127 26 12 45 re W n
  q
0 g
0.510386 w
2 J
0 j
[] 0.0 d
10 M q 1 0 0 -1 0 0 cm
158.188 -34.312 m 125.02 -67.48 l S Q
  Q
Q
Q q
127.82 25.504 m 138.309 25.504 l 138.309 42.359 l 127.82 42.359 l h
127.82 42.359 m 138.309 42.359 l 138.309 70.277 l 127.82 70.277 l h
127.82 42.359 m W n
q
127 25 12 46 re W n
  q
0 g
0.510386 w
2 J
0 j
[] 0.0 d
10 M q 1 0 0 -1 0 0 cm
156.785 -32.914 m 123.621 -66.078 l S Q
  Q
Q
Q q
127.82 23.504 m 138.309 23.504 l 138.309 42.359 l 127.82 42.359 l h
127.82 42.359 m 138.309 42.359 l 138.309 70.277 l 127.82 70.277 l h
127.82 42.359 m W n
q
127 23 12 48 re W n
  q
0 g
0.510386 w
2 J
0 j
[] 0.0 d
10 M q 1 0 0 -1 0 0 cm
155.387 -31.512 m 122.223 -64.68 l S Q
  Q
Q
Q q
127.82 22.504 m 138.309 22.504 l 138.309 42.359 l 127.82 42.359 l h
127.82 42.359 m 138.309 42.359 l 138.309 70.277 l 127.82 70.277 l h
127.82 42.359 m W n
q
127 22 12 49 re W n
  q
0 g
0.510386 w
2 J
0 j
[] 0.0 d
10 M q 1 0 0 -1 0 0 cm
153.984 -30.113 m 120.82 -63.277 l S Q
  Q
Q
Q q
127.82 20.504 m 138.309 20.504 l 138.309 42.359 l 127.82 42.359 l h
127.82 42.359 m 138.309 42.359 l 138.309 69.504 l 127.82 69.504 l h
127.82 42.359 m W n
q
127 20 12 50 re W n
  q
0 g
0.510386 w
2 J
0 j
[] 0.0 d
10 M q 1 0 0 -1 0 0 cm
152.586 -28.715 m 119.422 -61.879 l S Q
  Q
Q
Q q
127.82 19.504 m 138.309 19.504 l 138.309 42.359 l 127.82 42.359 l h
127.82 42.359 m 138.309 42.359 l 138.309 68.504 l 127.82 68.504 l h
127.82 42.359 m W n
q
127 19 12 50 re W n
  q
0 g
0.510386 w
2 J
0 j
[] 0.0 d
10 M q 1 0 0 -1 0 0 cm
151.188 -27.312 m 118.02 -60.48 l S Q
  Q
Q
Q q
127.82 18.504 m 138.309 18.504 l 138.309 42.359 l 127.82 42.359 l h
127.82 42.359 m 138.309 42.359 l 138.309 66.504 l 127.82 66.504 l h
127.82 42.359 m W n
q
127 18 12 49 re W n
  q
0 g
0.510386 w
2 J
0 j
[] 0.0 d
10 M q 1 0 0 -1 0 0 cm
149.785 -25.914 m 116.621 -59.078 l S Q
  Q
Q
Q q
127.82 16.504 m 138.309 16.504 l 138.309 42.359 l 127.82 42.359 l h
127.82 42.359 m 138.309 42.359 l 138.309 65.504 l 127.82 65.504 l h
127.82 42.359 m W n
q
127 16 12 50 re W n
  q
0 g
0.510386 w
2 J
0 j
[] 0.0 d
10 M q 1 0 0 -1 0 0 cm
148.387 -24.512 m 115.223 -57.68 l S Q
  Q
Q
Q q
127.82 15.504 m 138.309 15.504 l 138.309 42.359 l 127.82 42.359 l h
127.82 42.359 m 138.309 42.359 l 138.309 63.504 l 127.82 63.504 l h
127.82 42.359 m W n
q
127 15 12 49 re W n
  q
0 g
0.510386 w
2 J
0 j
[] 0.0 d
10 M q 1 0 0 -1 0 0 cm
146.984 -23.113 m 113.82 -56.277 l S Q
  Q
Q
Q q
127.82 14.438 m 138.309 14.438 l 138.309 42.359 l 127.82 42.359 l h
127.82 42.359 m 138.309 42.359 l 138.309 62.504 l 127.82 62.504 l h
127.82 42.359 m W n
q
127 14 12 49 re W n
  q
0 g
0.510386 w
2 J
0 j
[] 0.0 d
10 M q 1 0 0 -1 0 0 cm
145.586 -21.715 m 112.422 -54.879 l S Q
  Q
Q
Q q
127.82 14.438 m 138.309 14.438 l 138.309 42.359 l 127.82 42.359 l h
127.82 42.359 m 138.309 42.359 l 138.309 61.504 l 127.82 61.504 l h
127.82 42.359 m W n
q
127 14 12 48 re W n
  q
0 g
0.510386 w
2 J
0 j
[] 0.0 d
10 M q 1 0 0 -1 0 0 cm
144.188 -20.312 m 111.02 -53.48 l S Q
  Q
Q
Q q
127.82 14.438 m 138.309 14.438 l 138.309 42.359 l 127.82 42.359 l h
127.82 42.359 m 138.309 42.359 l 138.309 59.504 l 127.82 59.504 l h
127.82 42.359 m W n
q
127 14 12 46 re W n
  q
0 g
0.510386 w
2 J
0 j
[] 0.0 d
10 M q 1 0 0 -1 0 0 cm
142.785 -18.914 m 109.621 -52.078 l S Q
  Q
Q
Q q
127.82 14.438 m 138.309 14.438 l 138.309 42.359 l 127.82 42.359 l h
127.82 42.359 m 138.309 42.359 l 138.309 58.504 l 127.82 58.504 l h
127.82 42.359 m W n
q
127 14 12 45 re W n
  q
0 g
0.510386 w
2 J
0 j
[] 0.0 d
10 M q 1 0 0 -1 0 0 cm
141.387 -17.512 m 108.223 -50.68 l S Q
  Q
Q
Q q
127.82 14.438 m 138.309 14.438 l 138.309 42.359 l 127.82 42.359 l h
127.82 42.359 m 138.309 42.359 l 138.309 56.504 l 127.82 56.504 l h
127.82 42.359 m W n
q
127 14 12 43 re W n
  q
0 g
0.510386 w
2 J
0 j
[] 0.0 d
10 M q 1 0 0 -1 0 0 cm
139.984 -16.113 m 106.82 -49.277 l S Q
  Q
Q
Q q
127.82 14.438 m 138.309 14.438 l 138.309 42.359 l 127.82 42.359 l h
127.82 42.359 m 138.309 42.359 l 138.309 55.504 l 127.82 55.504 l h
127.82 42.359 m W n
q
127 14 12 42 re W n
  q
0 g
0.510386 w
2 J
0 j
[] 0.0 d
10 M q 1 0 0 -1 0 0 cm
138.586 -14.715 m 105.422 -47.879 l S Q
  Q
Q
Q q
127.82 14.438 m 138.309 14.438 l 138.309 42.359 l 127.82 42.359 l h
127.82 42.359 m 138.309 42.359 l 138.309 54.504 l 127.82 54.504 l h
127.82 42.359 m W n
q
127 14 12 41 re W n
  q
0 g
0.510386 w
2 J
0 j
[] 0.0 d
10 M q 1 0 0 -1 0 0 cm
137.188 -13.312 m 104.02 -46.48 l S Q
  Q
Q
Q q
127.82 14.438 m 138.309 14.438 l 138.309 42.359 l 127.82 42.359 l h
127.82 42.359 m 138.309 42.359 l 138.309 52.504 l 127.82 52.504 l h
127.82 42.359 m W n
q
127 14 12 39 re W n
  q
0 g
0.510386 w
2 J
0 j
[] 0.0 d
10 M q 1 0 0 -1 0 0 cm
135.785 -11.914 m 102.621 -45.078 l S Q
  Q
Q
Q q
127.82 14.438 m 138.309 14.438 l 138.309 42.359 l 127.82 42.359 l h
127.82 42.359 m 138.309 42.359 l 138.309 51.504 l 127.82 51.504 l h
127.82 42.359 m W n
q
127 14 12 38 re W n
  q
0 g
0.510386 w
2 J
0 j
[] 0.0 d
10 M q 1 0 0 -1 0 0 cm
134.387 -10.512 m 101.223 -43.68 l S Q
  Q
Q
Q q
127.82 14.438 m 138.309 14.438 l 138.309 42.359 l 127.82 42.359 l h
127.82 42.359 m 138.309 42.359 l 138.309 49.504 l 127.82 49.504 l h
127.82 42.359 m W n
q
127 14 12 36 re W n
  q
0 g
0.510386 w
2 J
0 j
[] 0.0 d
10 M q 1 0 0 -1 0 0 cm
132.984 -9.113 m 99.82 -42.277 l S Q
  Q
Q
Q q
0 g
0.850361 w
0 J
0 j
[] 0.0 d
10 M q 1 0 0 -1 0 0 cm
127.82 -42.359 m 127.82 -70.277 l 138.309 -70.277 l 138.309 -14.438 l 127.82
 -14.438 l h
127.82 -42.359 m S Q
1 g
56.531 42.359 m 56.531 44.344 l 127.395 44.344 l 127.395 40.371 l 56.531
 40.371 l f
Q q
83.57 39.949 m 127.82 39.949 l 127.82 42.359 l 83.57 42.359 l h
83.57 42.359 m 127.82 42.359 l 127.82 44.766 l 83.57 44.766 l h
83.57 42.359 m W n
q
83 39 45 6 re W n
  q
0 g
0.510386 w
2 J
0 j
[] 0.0 d
10 M q 1 0 0 -1 0 0 cm
129.492 -41.621 m 91.227 -79.887 l S Q
  Q
Q
Q q
81.57 39.949 m 127.82 39.949 l 127.82 42.359 l 81.57 42.359 l h
81.57 42.359 m 127.82 42.359 l 127.82 44.766 l 81.57 44.766 l h
81.57 42.359 m W n
q
81 39 47 6 re W n
  q
0 g
0.510386 w
2 J
0 j
[] 0.0 d
10 M q 1 0 0 -1 0 0 cm
127.094 -39.219 m 88.824 -77.488 l S Q
  Q
Q
Q q
78.57 39.949 m 127.82 39.949 l 127.82 42.359 l 78.57 42.359 l h
78.57 42.359 m 127.82 42.359 l 127.82 44.766 l 78.57 44.766 l h
78.57 42.359 m W n
q
78 39 50 6 re W n
  q
0 g
0.510386 w
2 J
0 j
[] 0.0 d
10 M q 1 0 0 -1 0 0 cm
124.691 -36.82 m 86.426 -75.09 l S Q
  Q
Q
Q q
76.57 39.949 m 127.82 39.949 l 127.82 42.359 l 76.57 42.359 l h
76.57 42.359 m 127.82 42.359 l 127.82 44.766 l 76.57 44.766 l h
76.57 42.359 m W n
q
76 39 52 6 re W n
  q
0 g
0.510386 w
2 J
0 j
[] 0.0 d
10 M q 1 0 0 -1 0 0 cm
122.293 -34.418 m 84.023 -72.688 l S Q
  Q
Q
Q q
73.57 39.949 m 127.57 39.949 l 127.57 42.359 l 73.57 42.359 l h
73.57 42.359 m 127.57 42.359 l 127.57 44.766 l 73.57 44.766 l h
73.57 42.359 m W n
q
73 39 55 6 re W n
  q
0 g
0.510386 w
2 J
0 j
[] 0.0 d
10 M q 1 0 0 -1 0 0 cm
119.895 -32.02 m 81.625 -70.289 l S Q
  Q
Q
Q q
71.57 39.949 m 125.57 39.949 l 125.57 42.359 l 71.57 42.359 l h
71.57 42.359 m 125.57 42.359 l 125.57 44.766 l 71.57 44.766 l h
71.57 42.359 m W n
q
71 39 55 6 re W n
  q
0 g
0.510386 w
2 J
0 j
[] 0.0 d
10 M q 1 0 0 -1 0 0 cm
117.492 -29.621 m 79.227 -67.887 l S Q
  Q
Q
Q q
69.57 39.949 m 122.57 39.949 l 122.57 42.359 l 69.57 42.359 l h
69.57 42.359 m 122.57 42.359 l 122.57 44.766 l 69.57 44.766 l h
69.57 42.359 m W n
q
69 39 54 6 re W n
  q
0 g
0.510386 w
2 J
0 j
[] 0.0 d
10 M q 1 0 0 -1 0 0 cm
115.094 -27.219 m 76.824 -65.488 l S Q
  Q
Q
Q q
66.57 39.949 m 120.57 39.949 l 120.57 42.359 l 66.57 42.359 l h
66.57 42.359 m 120.57 42.359 l 120.57 44.766 l 66.57 44.766 l h
66.57 42.359 m W n
q
66 39 55 6 re W n
  q
0 g
0.510386 w
2 J
0 j
[] 0.0 d
10 M q 1 0 0 -1 0 0 cm
112.691 -24.82 m 74.426 -63.09 l S Q
  Q
Q
Q q
64.57 39.949 m 117.57 39.949 l 117.57 42.359 l 64.57 42.359 l h
64.57 42.359 m 117.57 42.359 l 117.57 44.766 l 64.57 44.766 l h
64.57 42.359 m W n
q
64 39 54 6 re W n
  q
0 g
0.510386 w
2 J
0 j
[] 0.0 d
10 M q 1 0 0 -1 0 0 cm
110.293 -22.418 m 72.023 -60.688 l S Q
  Q
Q
Q q
61.57 39.949 m 115.57 39.949 l 115.57 42.359 l 61.57 42.359 l h
61.57 42.359 m 115.57 42.359 l 115.57 44.766 l 61.57 44.766 l h
61.57 42.359 m W n
q
61 39 55 6 re W n
  q
0 g
0.510386 w
2 J
0 j
[] 0.0 d
10 M q 1 0 0 -1 0 0 cm
107.895 -20.02 m 69.625 -58.289 l S Q
  Q
Q
Q q
59.57 39.949 m 113.57 39.949 l 113.57 42.359 l 59.57 42.359 l h
59.57 42.359 m 113.57 42.359 l 113.57 44.766 l 59.57 44.766 l h
59.57 42.359 m W n
q
59 39 55 6 re W n
  q
0 g
0.510386 w
2 J
0 j
[] 0.0 d
10 M q 1 0 0 -1 0 0 cm
105.492 -17.621 m 67.227 -55.887 l S Q
  Q
Q
Q q
57.57 39.949 m 110.57 39.949 l 110.57 42.359 l 57.57 42.359 l h
57.57 42.359 m 110.57 42.359 l 110.57 44.766 l 57.57 44.766 l h
57.57 42.359 m W n
q
57 39 54 6 re W n
  q
0 g
0.510386 w
2 J
0 j
[] 0.0 d
10 M q 1 0 0 -1 0 0 cm
103.094 -15.219 m 64.824 -53.488 l S Q
  Q
Q
Q q
56.105 39.949 m 108.57 39.949 l 108.57 42.359 l 56.105 42.359 l h
56.105 42.359 m 108.57 42.359 l 108.57 44.766 l 56.105 44.766 l h
56.105 42.359 m W n
q
56 39 53 6 re W n
  q
0 g
0.510386 w
2 J
0 j
[] 0.0 d
10 M q 1 0 0 -1 0 0 cm
100.691 -12.82 m 62.426 -51.09 l S Q
  Q
Q
Q q
56.105 39.949 m 105.57 39.949 l 105.57 42.359 l 56.105 42.359 l h
56.105 42.359 m 105.57 42.359 l 105.57 44.766 l 56.105 44.766 l h
56.105 42.359 m W n
q
56 39 50 6 re W n
  q
0 g
0.510386 w
2 J
0 j
[] 0.0 d
10 M q 1 0 0 -1 0 0 cm
98.293 -10.418 m 60.023 -48.688 l S Q
  Q
Q
Q q
56.105 39.949 m 103.57 39.949 l 103.57 42.359 l 56.105 42.359 l h
56.105 42.359 m 103.57 42.359 l 103.57 44.766 l 56.105 44.766 l h
56.105 42.359 m W n
q
56 39 48 6 re W n
  q
0 g
0.510386 w
2 J
0 j
[] 0.0 d
10 M q 1 0 0 -1 0 0 cm
95.895 -8.02 m 57.625 -46.289 l S Q
  Q
Q
Q q
56.105 39.949 m 101.57 39.949 l 101.57 42.359 l 56.105 42.359 l h
56.105 42.359 m 101.57 42.359 l 101.57 44.766 l 56.105 44.766 l h
56.105 42.359 m W n
q
56 39 46 6 re W n
  q
0 g
0.510386 w
2 J
0 j
[] 0.0 d
10 M q 1 0 0 -1 0 0 cm
93.492 -5.621 m 55.227 -43.887 l S Q
  Q
Q
Q q
56.105 39.949 m 98.57 39.949 l 98.57 42.359 l 56.105 42.359 l h
56.105 42.359 m 98.57 42.359 l 98.57 44.766 l 56.105 44.766 l h
56.105 42.359 m W n
q
56 39 43 6 re W n
  q
0 g
0.510386 w
2 J
0 j
[] 0.0 d
10 M q 1 0 0 -1 0 0 cm
91.094 -3.219 m 52.824 -41.488 l S Q
  Q
Q
Q q
0 g
0.850361 w
0 J
0 j
[] 0.0 d
10 M q 1 0 0 -1 0 0 cm
56.105 -42.359 m 56.105 -44.766 l 127.82 -44.766 l 127.82 -39.949 l 56.105
 -39.949 l h
56.105 -42.359 m S Q
1 g
14.012 36.688 m 14.012 39.523 l 19.68 39.523 l 19.68 33.855 l 14.012 33.855
 l f
25.348 36.688 m 25.348 39.523 l 90.547 39.523 l 90.547 33.855 l 25.348 
33.855 l f
14.012 48.027 m 14.012 50.859 l 90.547 50.859 l 90.547 45.191 l 14.012 
45.191 l f
Q q
14.434 34.277 m 19.254 34.277 l 19.254 36.688 l 14.434 36.688 l h
14.434 36.688 m 19.254 36.688 l 19.254 39.098 l 14.434 39.098 l h
14.434 36.688 m W n
q
14 34 6 6 re W n
  q
0 g
0.510386 w
2 J
0 j
[] 0.0 d
10 M q 1 0 0 -1 0 0 cm
15.23 -43.121 m 10.41 -38.305 l S Q
q 1 0 0 -1 0 0 cm
17.629 -40.723 m 12.809 -35.902 l S Q
q 1 0 0 -1 0 0 cm
20.031 -38.324 m 15.211 -33.504 l S Q
q 1 0 0 -1 0 0 cm
22.43 -35.922 m 17.609 -31.105 l S Q
  Q
Q
Q q
0 g
0.850361 w
0 J
0 j
[] 0.0 d
10 M q 1 0 0 -1 0 0 cm
14.434 -36.688 m 14.434 -39.098 l 19.254 -39.098 l 19.254 -34.277 l 14.434
 -34.277 l h
14.434 -36.688 m S Q
Q q
25.773 34.277 m 65.57 34.277 l 65.57 36.688 l 25.773 36.688 l h
25.773 36.688 m 65.57 36.688 l 65.57 39.098 l 25.773 39.098 l h
25.773 36.688 m W n
q
25 34 41 6 re W n
  q
0 g
0.510386 w
2 J
0 j
[] 0.0 d
10 M q 1 0 0 -1 0 0 cm
57.863 -71.355 m 23.281 -36.773 l S Q
  Q
Q
Q q
25.773 34.277 m 67.57 34.277 l 67.57 36.688 l 25.773 36.688 l h
25.773 36.688 m 67.57 36.688 l 67.57 39.098 l 25.773 39.098 l h
25.773 36.688 m W n
q
25 34 43 6 re W n
  q
0 g
0.510386 w
2 J
0 j
[] 0.0 d
10 M q 1 0 0 -1 0 0 cm
60.262 -68.957 m 25.68 -34.371 l S Q
  Q
Q
Q q
25.773 34.277 m 70.57 34.277 l 70.57 36.688 l 25.773 36.688 l h
25.773 36.688 m 70.57 36.688 l 70.57 39.098 l 25.773 39.098 l h
25.773 36.688 m W n
q
25 34 46 6 re W n
  q
0 g
0.510386 w
2 J
0 j
[] 0.0 d
10 M q 1 0 0 -1 0 0 cm
62.664 -66.555 m 28.078 -31.973 l S Q
  Q
Q
Q q
25.773 34.277 m 72.57 34.277 l 72.57 36.688 l 25.773 36.688 l h
25.773 36.688 m 72.57 36.688 l 72.57 39.098 l 25.773 39.098 l h
25.773 36.688 m W n
q
25 34 48 6 re W n
  q
0 g
0.510386 w
2 J
0 j
[] 0.0 d
10 M q 1 0 0 -1 0 0 cm
65.062 -64.156 m 30.48 -29.574 l S Q
  Q
Q
Q q
25.773 34.277 m 75.57 34.277 l 75.57 36.688 l 25.773 36.688 l h
25.773 36.688 m 75.57 36.688 l 75.57 39.098 l 25.773 39.098 l h
25.773 36.688 m W n
q
25 34 51 6 re W n
  q
0 g
0.510386 w
2 J
0 j
[] 0.0 d
10 M q 1 0 0 -1 0 0 cm
67.461 -61.758 m 32.879 -27.172 l S Q
  Q
Q
Q q
27.57 34.277 m 77.57 34.277 l 77.57 36.688 l 27.57 36.688 l h
27.57 36.688 m 77.57 36.688 l 77.57 39.098 l 27.57 39.098 l h
27.57 36.688 m W n
q
27 34 51 6 re W n
  q
0 g
0.510386 w
2 J
0 j
[] 0.0 d
10 M q 1 0 0 -1 0 0 cm
69.863 -59.355 m 35.281 -24.773 l S Q
  Q
Q
Q q
29.57 34.277 m 79.57 34.277 l 79.57 36.688 l 29.57 36.688 l h
29.57 36.688 m 79.57 36.688 l 79.57 39.098 l 29.57 39.098 l h
29.57 36.688 m W n
q
29 34 51 6 re W n
  q
0 g
0.510386 w
2 J
0 j
[] 0.0 d
10 M q 1 0 0 -1 0 0 cm
72.262 -56.957 m 37.68 -22.371 l S Q
  Q
Q
Q q
32.57 34.277 m 82.57 34.277 l 82.57 36.688 l 32.57 36.688 l h
32.57 36.688 m 82.57 36.688 l 82.57 39.098 l 32.57 39.098 l h
32.57 36.688 m W n
q
32 34 51 6 re W n
  q
0 g
0.510386 w
2 J
0 j
[] 0.0 d
10 M q 1 0 0 -1 0 0 cm
74.664 -54.555 m 40.078 -19.973 l S Q
  Q
Q
Q q
34.57 34.277 m 84.57 34.277 l 84.57 36.688 l 34.57 36.688 l h
34.57 36.688 m 84.57 36.688 l 84.57 39.098 l 34.57 39.098 l h
34.57 36.688 m W n
q
34 34 51 6 re W n
  q
0 g
0.510386 w
2 J
0 j
[] 0.0 d
10 M q 1 0 0 -1 0 0 cm
77.062 -52.156 m 42.48 -17.574 l S Q
  Q
Q
Q q
37.57 34.277 m 87.57 34.277 l 87.57 36.688 l 37.57 36.688 l h
37.57 36.688 m 87.57 36.688 l 87.57 39.098 l 37.57 39.098 l h
37.57 36.688 m W n
q
37 34 51 6 re W n
  q
0 g
0.510386 w
2 J
0 j
[] 0.0 d
10 M q 1 0 0 -1 0 0 cm
79.461 -49.758 m 44.879 -15.172 l S Q
  Q
Q
Q q
39.57 34.277 m 89.57 34.277 l 89.57 36.688 l 39.57 36.688 l h
39.57 36.688 m 89.57 36.688 l 89.57 39.098 l 39.57 39.098 l h
39.57 36.688 m W n
q
39 34 51 6 re W n
  q
0 g
0.510386 w
2 J
0 j
[] 0.0 d
10 M q 1 0 0 -1 0 0 cm
81.863 -47.355 m 47.281 -12.773 l S Q
  Q
Q
Q q
41.57 34.277 m 90.121 34.277 l 90.121 36.688 l 41.57 36.688 l h
41.57 36.688 m 90.121 36.688 l 90.121 39.098 l 41.57 39.098 l h
41.57 36.688 m W n
q
41 34 50 6 re W n
  q
0 g
0.510386 w
2 J
0 j
[] 0.0 d
10 M q 1 0 0 -1 0 0 cm
84.262 -44.957 m 49.68 -10.371 l S Q
  Q
Q
Q q
44.57 34.277 m 90.121 34.277 l 90.121 36.688 l 44.57 36.688 l h
44.57 36.688 m 90.121 36.688 l 90.121 39.098 l 44.57 39.098 l h
44.57 36.688 m W n
q
44 34 47 6 re W n
  q
0 g
0.510386 w
2 J
0 j
[] 0.0 d
10 M q 1 0 0 -1 0 0 cm
86.664 -42.555 m 52.078 -7.973 l S Q
  Q
Q
Q q
46.57 34.277 m 90.121 34.277 l 90.121 36.688 l 46.57 36.688 l h
46.57 36.688 m 90.121 36.688 l 90.121 39.098 l 46.57 39.098 l h
46.57 36.688 m W n
q
46 34 45 6 re W n
  q
0 g
0.510386 w
2 J
0 j
[] 0.0 d
10 M q 1 0 0 -1 0 0 cm
89.062 -40.156 m 54.48 -5.574 l S Q
  Q
Q
Q q
49.57 34.277 m 90.121 34.277 l 90.121 36.688 l 49.57 36.688 l h
49.57 36.688 m 90.121 36.688 l 90.121 39.098 l 49.57 39.098 l h
49.57 36.688 m W n
q
49 34 42 6 re W n
  q
0 g
0.510386 w
2 J
0 j
[] 0.0 d
10 M q 1 0 0 -1 0 0 cm
91.461 -37.758 m 56.879 -3.172 l S Q
  Q
Q
Q q
51.57 34.277 m 90.121 34.277 l 90.121 36.688 l 51.57 36.688 l h
51.57 36.688 m 90.121 36.688 l 90.121 39.098 l 51.57 39.098 l h
51.57 36.688 m W n
q
51 34 40 6 re W n
  q
0 g
0.510386 w
2 J
0 j
[] 0.0 d
10 M q 1 0 0 -1 0 0 cm
93.863 -35.355 m 59.281 -0.773 l S Q
  Q
Q
Q q
0 g
0.850361 w
0 J
0 j
[] 0.0 d
10 M q 1 0 0 -1 0 0 cm
25.773 -36.688 m 25.773 -39.098 l 90.121 -39.098 l 90.121 -34.277 l 25.773
 -34.277 l h
25.773 -36.688 m S Q
Q q
14.434 45.617 m 59.57 45.617 l 59.57 48.027 l 14.434 48.027 l h
14.434 48.027 m 59.57 48.027 l 59.57 50.438 l 14.434 50.438 l h
14.434 48.027 m W n
q
14 45 46 6 re W n
  q
0 g
0.510386 w
2 J
0 j
[] 0.0 d
10 M q 1 0 0 -1 0 0 cm
51.531 -89.023 m 11.281 -48.773 l S Q
  Q
Q
Q q
14.434 45.617 m 61.57 45.617 l 61.57 48.027 l 14.434 48.027 l h
14.434 48.027 m 61.57 48.027 l 61.57 50.438 l 14.434 50.438 l h
14.434 48.027 m W n
q
14 45 48 6 re W n
  q
0 g
0.510386 w
2 J
0 j
[] 0.0 d
10 M q 1 0 0 -1 0 0 cm
53.93 -86.625 m 13.68 -46.375 l S Q
  Q
Q
Q q
14.434 45.617 m 63.57 45.617 l 63.57 48.027 l 14.434 48.027 l h
14.434 48.027 m 63.57 48.027 l 63.57 50.438 l 14.434 50.438 l h
14.434 48.027 m W n
q
14 45 50 6 re W n
  q
0 g
0.510386 w
2 J
0 j
[] 0.0 d
10 M q 1 0 0 -1 0 0 cm
56.332 -84.227 m 16.078 -43.973 l S Q
  Q
Q
Q q
14.434 45.617 m 66.57 45.617 l 66.57 48.027 l 14.434 48.027 l h
14.434 48.027 m 66.57 48.027 l 66.57 50.438 l 14.434 50.438 l h
14.434 48.027 m W n
q
14 45 53 6 re W n
  q
0 g
0.510386 w
2 J
0 j
[] 0.0 d
10 M q 1 0 0 -1 0 0 cm
58.73 -81.824 m 18.48 -41.574 l S Q
  Q
Q
Q q
14.434 45.617 m 68.57 45.617 l 68.57 48.027 l 14.434 48.027 l h
14.434 48.027 m 68.57 48.027 l 68.57 50.438 l 14.434 50.438 l h
14.434 48.027 m W n
q
14 45 55 6 re W n
  q
0 g
0.510386 w
2 J
0 j
[] 0.0 d
10 M q 1 0 0 -1 0 0 cm
61.133 -79.426 m 20.879 -39.176 l S Q
  Q
Q
Q q
15.57 45.617 m 71.57 45.617 l 71.57 48.027 l 15.57 48.027 l h
15.57 48.027 m 71.57 48.027 l 71.57 50.438 l 15.57 50.438 l h
15.57 48.027 m W n
q
15 45 57 6 re W n
  q
0 g
0.510386 w
2 J
0 j
[] 0.0 d
10 M q 1 0 0 -1 0 0 cm
63.531 -77.023 m 23.281 -36.773 l S Q
  Q
Q
Q q
17.57 45.617 m 73.57 45.617 l 73.57 48.027 l 17.57 48.027 l h
17.57 48.027 m 73.57 48.027 l 73.57 50.438 l 17.57 50.438 l h
17.57 48.027 m W n
q
17 45 57 6 re W n
  q
0 g
0.510386 w
2 J
0 j
[] 0.0 d
10 M q 1 0 0 -1 0 0 cm
65.93 -74.625 m 25.68 -34.375 l S Q
  Q
Q
Q q
20.57 45.617 m 75.57 45.617 l 75.57 48.027 l 20.57 48.027 l h
20.57 48.027 m 75.57 48.027 l 75.57 50.438 l 20.57 50.438 l h
20.57 48.027 m W n
q
20 45 56 6 re W n
  q
0 g
0.510386 w
2 J
0 j
[] 0.0 d
10 M q 1 0 0 -1 0 0 cm
68.332 -72.227 m 28.078 -31.973 l S Q
  Q
Q
Q q
22.57 45.617 m 78.57 45.617 l 78.57 48.027 l 22.57 48.027 l h
22.57 48.027 m 78.57 48.027 l 78.57 50.438 l 22.57 50.438 l h
22.57 48.027 m W n
q
22 45 57 6 re W n
  q
0 g
0.510386 w
2 J
0 j
[] 0.0 d
10 M q 1 0 0 -1 0 0 cm
70.73 -69.824 m 30.48 -29.574 l S Q
  Q
Q
Q q
25.57 45.617 m 80.57 45.617 l 80.57 48.027 l 25.57 48.027 l h
25.57 48.027 m 80.57 48.027 l 80.57 50.438 l 25.57 50.438 l h
25.57 48.027 m W n
q
25 45 56 6 re W n
  q
0 g
0.510386 w
2 J
0 j
[] 0.0 d
10 M q 1 0 0 -1 0 0 cm
73.133 -67.426 m 32.879 -27.176 l S Q
  Q
Q
Q q
27.57 45.617 m 83.57 45.617 l 83.57 48.027 l 27.57 48.027 l h
27.57 48.027 m 83.57 48.027 l 83.57 50.438 l 27.57 50.438 l h
27.57 48.027 m W n
q
27 45 57 6 re W n
  q
0 g
0.510386 w
2 J
0 j
[] 0.0 d
10 M q 1 0 0 -1 0 0 cm
75.531 -65.023 m 35.281 -24.773 l S Q
  Q
Q
Q q
29.57 45.617 m 85.57 45.617 l 85.57 48.027 l 29.57 48.027 l h
29.57 48.027 m 85.57 48.027 l 85.57 50.438 l 29.57 50.438 l h
29.57 48.027 m W n
q
29 45 57 6 re W n
  q
0 g
0.510386 w
2 J
0 j
[] 0.0 d
10 M q 1 0 0 -1 0 0 cm
77.93 -62.625 m 37.68 -22.375 l S Q
  Q
Q
Q q
32.57 45.617 m 87.57 45.617 l 87.57 48.027 l 32.57 48.027 l h
32.57 48.027 m 87.57 48.027 l 87.57 50.438 l 32.57 50.438 l h
32.57 48.027 m W n
q
32 45 56 6 re W n
  q
0 g
0.510386 w
2 J
0 j
[] 0.0 d
10 M q 1 0 0 -1 0 0 cm
80.332 -60.227 m 40.078 -19.973 l S Q
  Q
Q
Q q
34.57 45.617 m 90.121 45.617 l 90.121 48.027 l 34.57 48.027 l h
34.57 48.027 m 90.121 48.027 l 90.121 50.438 l 34.57 50.438 l h
34.57 48.027 m W n
q
34 45 57 6 re W n
  q
0 g
0.510386 w
2 J
0 j
[] 0.0 d
10 M q 1 0 0 -1 0 0 cm
82.73 -57.824 m 42.48 -17.574 l S Q
  Q
Q
Q q
37.57 45.617 m 90.121 45.617 l 90.121 48.027 l 37.57 48.027 l h
37.57 48.027 m 90.121 48.027 l 90.121 50.438 l 37.57 50.438 l h
37.57 48.027 m W n
q
37 45 54 6 re W n
  q
0 g
0.510386 w
2 J
0 j
[] 0.0 d
10 M q 1 0 0 -1 0 0 cm
85.133 -55.426 m 44.879 -15.176 l S Q
  Q
Q
Q q
39.57 45.617 m 90.121 45.617 l 90.121 48.027 l 39.57 48.027 l h
39.57 48.027 m 90.121 48.027 l 90.121 50.438 l 39.57 50.438 l h
39.57 48.027 m W n
q
39 45 52 6 re W n
  q
0 g
0.510386 w
2 J
0 j
[] 0.0 d
10 M q 1 0 0 -1 0 0 cm
87.531 -53.023 m 47.281 -12.773 l S Q
  Q
Q
Q q
41.57 45.617 m 90.121 45.617 l 90.121 48.027 l 41.57 48.027 l h
41.57 48.027 m 90.121 48.027 l 90.121 50.438 l 41.57 50.438 l h
41.57 48.027 m W n
q
41 45 50 6 re W n
  q
0 g
0.510386 w
2 J
0 j
[] 0.0 d
10 M q 1 0 0 -1 0 0 cm
89.93 -50.625 m 49.68 -10.375 l S Q
  Q
Q
Q q
44.57 45.617 m 90.121 45.617 l 90.121 48.027 l 44.57 48.027 l h
44.57 48.027 m 90.121 48.027 l 90.121 50.438 l 44.57 50.438 l h
44.57 48.027 m W n
q
44 45 47 6 re W n
  q
0 g
0.510386 w
2 J
0 j
[] 0.0 d
10 M q 1 0 0 -1 0 0 cm
92.332 -48.227 m 52.078 -7.973 l S Q
  Q
Q
Q q
46.57 45.617 m 90.121 45.617 l 90.121 48.027 l 46.57 48.027 l h
46.57 48.027 m 90.121 48.027 l 90.121 50.438 l 46.57 50.438 l h
46.57 48.027 m W n
q
46 45 45 6 re W n
  q
0 g
0.510386 w
2 J
0 j
[] 0.0 d
10 M q 1 0 0 -1 0 0 cm
94.73 -45.824 m 54.48 -5.574 l S Q
  Q
Q
Q q
0 g
0.850361 w
0 J
0 j
[] 0.0 d
10 M q 1 0 0 -1 0 0 cm
14.434 -48.027 m 14.434 -50.438 l 90.121 -50.438 l 90.121 -45.617 l 14.434
 -45.617 l h
14.434 -48.027 m S Q
68.922 22.945 m 68.922 22.602 l 68.234 22.602 l 68.047 22.602 67.906 22.57
 67.734 22.508 c 67.531 22.445 l 67.297 22.352 67.047 22.305 66.812 22.305
 c 65.984 22.305 65.328 22.945 65.328 23.773 c 65.328 24.336 65.562 24.664
 66.156 24.961 c 65.922 25.18 l 65.734 25.367 65.625 25.461 65.594 25.492
 c 65.406 25.695 65.359 25.789 65.359 25.945 c 65.359 26.148 65.453 26.242
 65.828 26.414 c 65.188 26.883 64.953 27.18 64.953 27.508 c 64.953 27.992
 65.641 28.383 66.5 28.383 c 67.172 28.383 67.875 28.148 68.344 27.773 c
 68.688 27.492 68.844 27.211 68.844 26.867 c 68.844 26.32 68.422 25.945 
67.75 25.914 c 66.594 25.852 l 66.109 25.836 65.891 25.758 65.891 25.617
 c 65.891 25.43 66.188 25.117 66.438 25.055 c 66.75 25.07 66.922 25.086 
66.953 25.086 c 67.281 25.086 67.641 24.961 67.906 24.711 c 68.203 24.461
 68.344 24.148 68.344 23.711 c 68.344 23.445 68.297 23.242 68.172 22.945
 c h
66.016 26.445 m 66.328 26.508 67.031 26.57 67.484 26.57 c 68.297 26.57 
68.594 26.68 68.594 27.008 c 68.594 27.523 67.906 27.867 66.891 27.867 c
 66.094 27.867 65.578 27.617 65.578 27.227 c 65.578 27.008 65.656 26.883
 66.016 26.445 c h
66.062 23.398 m 66.062 22.867 66.312 22.555 66.734 22.555 c 67.016 22.555
 67.234 22.711 67.391 22.977 c 67.562 23.289 67.656 23.695 67.656 24.055
 c 67.656 24.555 67.406 24.867 66.984 24.867 c 66.438 24.867 66.062 24.289
 66.062 23.43 c h
66.062 23.398 m f
73.113 25.836 m 72.957 25.961 72.848 26.008 72.707 26.008 c 72.504 26.008
 72.441 25.883 72.441 25.492 c 72.441 23.742 l 72.441 23.273 72.395 23.008
 72.27 22.805 c 72.066 22.477 71.676 22.305 71.16 22.305 c 70.316 22.305
 69.645 22.742 69.645 23.305 c 69.645 23.508 69.816 23.695 70.035 23.695
 c 70.254 23.695 70.441 23.508 70.441 23.32 c 70.441 23.289 70.426 23.242
 70.426 23.18 c 70.395 23.086 70.395 23.023 70.395 22.961 c 70.395 22.711
 70.676 22.523 71.035 22.523 c 71.473 22.523 71.723 22.773 71.723 23.258
 c 71.723 23.805 l 70.348 24.352 70.191 24.445 69.801 24.773 c 69.598 24.961
 69.473 25.258 69.473 25.555 c 69.473 26.117 69.863 26.523 70.426 26.523
 c 70.816 26.523 71.176 26.336 71.723 25.867 c 71.77 26.336 71.941 26.523
 72.301 26.523 c 72.613 26.523 72.801 26.414 73.113 26.07 c h
71.723 25.32 m 71.723 25.602 71.676 25.695 71.488 25.805 c 71.254 25.93
 71.02 25.992 70.832 25.992 c 70.52 25.992 70.27 25.695 70.27 25.305 c 70.27
 25.273 l 70.27 24.742 70.676 24.398 71.723 24.023 c h
71.723 25.32 m f
75.93 23.617 m 75.898 22.383 l 75.789 22.383 l 75.742 22.461 75.695 22.477
 75.648 22.477 c 75.602 22.477 75.508 22.461 75.414 22.414 c 75.195 22.352
 74.992 22.305 74.773 22.305 c 74.07 22.305 73.555 22.773 73.555 23.414 
c 73.555 23.914 73.852 24.273 74.602 24.711 c 75.133 25.008 l 75.445 25.18
 75.602 25.398 75.602 25.68 c 75.602 26.07 75.305 26.32 74.852 26.32 c 74.227
 26.32 73.914 25.977 73.711 25.07 c 73.57 25.07 l 73.57 26.461 l 73.68 26.461
 l 73.742 26.383 73.789 26.352 73.898 26.352 c 73.992 26.352 74.102 26.383
 74.305 26.43 c 74.539 26.477 74.773 26.523 74.961 26.523 c 75.664 26.523
 76.227 25.992 76.227 25.367 c 76.227 24.93 76.008 24.633 75.477 24.305 
c 74.508 23.727 l 74.242 23.57 74.117 23.367 74.117 23.117 c 74.117 22.758
 74.398 22.508 74.805 22.508 c 75.32 22.508 75.586 22.805 75.789 23.617 
c h
75.93 23.617 m f
45.184 53.766 m 45.934 53.812 46.027 53.906 46.043 54.578 c 46.043 58.547
 l 46.027 59.219 45.918 59.328 45.184 59.359 c 45.184 59.531 l 48.168 59.531
 l 48.871 59.531 49.512 59.344 49.84 59.031 c 50.168 58.75 50.34 58.344 
50.34 57.922 c 50.34 57.516 50.199 57.156 49.902 56.906 c 49.637 56.656 
49.402 56.547 48.809 56.406 c 49.277 56.297 49.465 56.203 49.684 56.016 
c 49.902 55.812 50.043 55.5 50.043 55.125 c 50.043 54.109 49.23 53.594 47.684
 53.594 c 45.184 53.594 l h
46.949 56.609 m 47.824 56.609 48.23 56.656 48.559 56.797 c 49.074 57 49.309
 57.375 49.309 57.922 c 49.309 58.406 49.121 58.766 48.762 58.969 c 48.48
 59.125 48.105 59.203 47.527 59.203 c 47.074 59.203 46.949 59.125 46.949
 58.828 c h
46.949 56.25 m 46.949 54.188 l 46.965 54 46.996 53.938 47.152 53.938 c 
47.543 53.922 l 48.543 53.906 49.121 54.359 49.121 55.156 c 49.121 55.859
 48.668 56.234 47.809 56.25 c h
46.949 56.25 m f
113.293 53.688 m 112.949 53.656 112.777 53.578 112.512 53.266 c 110.668
 51 l 111.809 50.781 112.293 50.328 112.293 49.5 c 112.293 49.109 112.184
 48.781 111.949 48.516 c 111.605 48.156 110.855 47.922 110.012 47.922 c 
107.543 47.922 l 107.543 48.094 l 108.199 48.172 108.293 48.25 108.309 48.906
 c 108.309 52.781 l 108.293 53.547 108.215 53.641 107.543 53.688 c 107.543
 53.859 l 110.027 53.859 l 110.027 53.688 l 109.34 53.641 109.23 53.531 
109.215 52.875 c 109.215 51.109 l 109.715 51.094 l 111.855 53.859 l 113.293
 53.859 l h
109.215 48.578 m 109.215 48.328 109.309 48.25 109.668 48.25 c 110.793 48.25
 111.309 48.641 111.309 49.484 c 111.309 49.938 111.121 50.312 110.809 50.484
 c 110.387 50.719 110.074 50.766 109.215 50.781 c h
109.215 48.578 m f
140.605 25.418 m 141.277 25.496 141.355 25.574 141.355 26.23 c 141.355 
30.105 l 141.355 30.871 141.293 30.949 140.605 31.012 c 140.605 31.184 l
 143.121 31.184 l 143.121 31.012 l 142.418 30.996 142.293 30.871 142.277
 30.199 c 142.277 28.574 l 142.512 28.59 142.668 28.605 142.902 28.605 c
 143.605 28.605 144.074 28.512 144.465 28.293 c 144.996 28.012 145.324 27.465
 145.324 26.871 c 145.324 26.496 145.199 26.152 144.965 25.887 c 144.605
 25.496 143.824 25.246 142.98 25.246 c 140.605 25.246 l h
142.277 25.887 m 142.277 25.637 142.34 25.574 142.574 25.574 c 143.793 
25.574 144.355 25.996 144.355 26.918 c 144.355 27.793 143.824 28.246 142.793
 28.246 c 142.605 28.246 142.48 28.23 142.277 28.215 c h
142.277 25.887 m f
0.425176 w
q 1 0 0 -1 0 0 cm
90.547 -76.371 m 90.547 -87.711 l S Q
q 1 0 0 -1 0 0 cm
127.395 -76.371 m 127.395 -87.711 l S Q
124.113 83.215 m 127.395 82.043 l 124.113 80.871 l 125.426 82.043 l f
q 1 0 0 -1 0 0 cm
90.547 -82.043 m 125.426 -82.043 l S Q
1 g
103.344 82.035 m 103.344 87.07 l 114.672 87.07 l 114.672 76.996 l 103.344
 76.996 l f
0 g
110.973 80.316 m 110.973 80.098 110.77 79.988 110.598 79.988 c 110.145 
79.988 109.566 80.66 109.129 81.363 c 109.113 81.363 109.051 81.066 109.051
 81.066 c 108.91 80.473 108.738 80.129 108.426 79.988 c 108.426 79.988 107.41
 80.191 107.285 80.238 c 107.285 80.395 l 107.473 80.348 107.613 80.316 
107.707 80.316 c 108.207 80.316 108.285 80.801 108.629 82.098 c 108.223 
82.691 107.582 83.691 107.332 83.691 c 107.129 83.691 107.113 83.473 106.832
 83.473 c 106.645 83.473 106.504 83.613 106.504 83.801 c 106.504 84.035 
106.676 84.191 106.926 84.191 c 107.566 84.191 108.145 83.066 108.691 82.363
 c 108.723 82.426 108.926 83.223 108.926 83.223 c 109.145 84.051 109.316
 84.191 109.535 84.191 c 109.816 84.191 110.238 83.91 110.66 83.129 c 110.535
 83.051 l 110.379 83.254 110.129 83.676 109.895 83.676 c 109.582 83.676 
109.41 82.41 109.191 81.613 c 109.238 81.535 109.863 80.535 110.191 80.535
 c 110.363 80.535 110.52 80.676 110.676 80.676 c 110.895 80.676 110.973 
80.488 110.973 80.316 c h
110.973 80.316 m f
0.567043 w
q 1 0 0 -1 0 0 cm
15.426 -42.359 m 15.426 -42.359 15.426 -42.918 15.426 -43.871 c 15.426 
-45.875 m 15.426 -46.762 15.426 -47.781 15.426 -48.883 c 15.426 -50.887 
m 15.426 -51.859 15.426 -52.871 15.426 -53.895 c 15.426 -55.902 m 15.426
 -56.91 15.426 -57.922 15.426 -58.906 c 15.426 -60.914 m 15.426 -61.977 
15.426 -62.988 15.426 -63.922 c 15.426 -65.926 m 15.426 -67.344 15.426 -68.414
 15.426 -68.934 c 17.078 -69.285 m 17.84 -69.285 18.852 -69.285 20.086 -69.285
 c 22.09 -69.285 m 23.012 -69.285 24.016 -69.285 25.098 -69.285 c 27.102
 -69.285 m 28.059 -69.285 29.062 -69.285 30.109 -69.285 c 32.113 -69.285
 m 33.086 -69.285 34.09 -69.285 35.121 -69.285 c 37.125 -69.285 m 38.105
 -69.285 39.109 -69.285 40.133 -69.285 c 42.137 -69.285 m 43.125 -69.285
 44.129 -69.285 45.145 -69.285 c 47.152 -69.285 m 48.141 -69.285 49.145 
-69.285 50.156 -69.285 c 52.164 -69.285 m 53.156 -69.285 54.16 -69.285 55.172
 -69.285 c 57.176 -69.285 m 58.172 -69.285 59.176 -69.285 60.184 -69.285
 c 62.188 -69.285 m 63.188 -69.285 64.188 -69.285 65.195 -69.285 c 67.199
 -69.285 m 68.199 -69.285 69.203 -69.285 70.207 -69.285 c 72.211 -69.285
 m 73.215 -69.285 74.219 -69.285 75.219 -69.285 c 77.223 -69.285 m 78.23
 -69.285 79.23 -69.285 80.23 -69.285 c 82.234 -69.285 m 83.242 -69.285 84.246
 -69.285 85.242 -69.285 c 87.246 -69.285 m 88.258 -69.285 89.262 -69.285
 90.254 -69.285 c 92.262 -69.285 m 93.273 -69.285 94.277 -69.285 95.266 
-69.285 c 97.273 -69.285 m 98.289 -69.285 99.293 -69.285 100.281 -69.285
 c 102.285 -69.285 m 103.309 -69.285 104.312 -69.285 105.293 -69.285 c 107.297
 -69.285 m 108.328 -69.285 109.332 -69.285 110.305 -69.285 c 112.309 -69.285
 m 113.355 -69.285 114.359 -69.285 115.316 -69.285 c 117.32 -69.285 m 118.402
 -69.285 119.406 -69.285 120.328 -69.285 c 122.332 -69.285 m 123.566 -69.285
 124.578 -69.285 125.34 -69.285 c 126.969 -68.906 m 126.969 -68.387 126.969
 -67.344 126.969 -65.898 c 126.969 -63.895 m 126.969 -62.98 126.969 -61.973
 126.969 -60.887 c 126.969 -58.883 m 126.969 -57.922 126.969 -56.918 126.969
 -55.875 c 126.969 -53.871 m 126.969 -52.891 126.969 -51.887 126.969 -50.863
 c 126.969 -48.859 m 126.969 -47.867 126.969 -46.863 126.969 -45.852 c 126.969
 -43.848 m 126.969 -42.844 126.969 -41.84 126.969 -40.84 c 126.969 -38.836
 m 126.969 -37.824 126.969 -36.82 126.969 -35.828 c 126.969 -33.824 m 126.969
 -32.801 126.969 -31.793 126.969 -30.816 c 126.969 -28.809 m 126.969 -27.77
 126.969 -26.762 126.969 -25.805 c 126.969 -23.797 m 126.969 -22.711 126.969
 -21.703 126.969 -20.789 c 126.969 -18.785 m 126.969 -17.332 126.969 -16.289
 126.969 -15.777 c 125.312 -15.43 m 124.551 -15.43 123.539 -15.43 122.305
 -15.43 c 120.301 -15.43 m 119.379 -15.43 118.375 -15.43 117.293 -15.43 
c 115.289 -15.43 m 114.332 -15.43 113.328 -15.43 112.281 -15.43 c 110.277
 -15.43 m 109.305 -15.43 108.301 -15.43 107.27 -15.43 c 105.266 -15.43 m
 104.285 -15.43 103.281 -15.43 102.258 -15.43 c 100.254 -15.43 m 99.266 
-15.43 98.262 -15.43 97.246 -15.43 c 95.242 -15.43 m 94.25 -15.43 93.246
 -15.43 92.234 -15.43 c 90.227 -15.43 m 89.234 -15.43 88.23 -15.43 87.223
 -15.43 c 85.215 -15.43 m 84.219 -15.43 83.215 -15.43 82.207 -15.43 c 80.203
 -15.43 m 79.203 -15.43 78.203 -15.43 77.195 -15.43 c 75.191 -15.43 m 74.191
 -15.43 73.188 -15.43 72.184 -15.43 c 70.18 -15.43 m 69.176 -15.43 68.172
 -15.43 67.172 -15.43 c 65.168 -15.43 m 64.16 -15.43 63.16 -15.43 62.16 
-15.43 c 60.156 -15.43 m 59.148 -15.43 58.145 -15.43 57.148 -15.43 c 55.145
 -15.43 m 54.133 -15.43 53.129 -15.43 52.137 -15.43 c 50.129 -15.43 m 49.117
 -15.43 48.113 -15.43 47.125 -15.43 c 45.117 -15.43 m 44.102 -15.43 43.098
 -15.43 42.113 -15.43 c 40.105 -15.43 m 39.082 -15.43 38.078 -15.43 37.098
 -15.43 c 35.094 -15.43 m 34.062 -15.43 33.059 -15.43 32.086 -15.43 c 30.082
 -15.43 m 29.035 -15.43 28.031 -15.43 27.074 -15.43 c 25.07 -15.43 m 23.988
 -15.43 22.984 -15.43 22.062 -15.43 c 20.059 -15.43 m 18.824 -15.43 17.812
 -15.43 17.051 -15.43 c 15.426 -15.809 m 15.426 -16.34 15.426 -17.406 15.426
 -18.816 c 15.426 -20.82 m 15.426 -21.754 15.426 -22.766 15.426 -23.828 
c 15.426 -25.832 m 15.426 -26.82 15.426 -27.828 15.426 -28.84 c 15.426 -30.844
 m 15.426 -31.871 15.426 -32.883 15.426 -33.852 c 15.426 -35.855 m 15.426
 -36.961 15.426 -37.977 15.426 -38.863 c 15.426 -40.871 m 15.426 -41.809
 15.426 -42.359 15.426 -42.359 c S Q
Q Q
showpage
%%Trailer
end
%%EOF
