%!PS-Adobe-3.0 EPSF-3.0
%%Creator: cairo 1.16.0 (https://cairographics.org)
%%CreationDate: Mon May  3 03:33:23 2021
%%Pages: 1
%%DocumentData: Clean7Bit
%%LanguageLevel: 2
%%BoundingBox: 10 11 196 139
%%EndComments
%%BeginProlog
50 dict begin
/q { gsave } bind def
/Q { grestore } bind def
/cm { 6 array astore concat } bind def
/w { setlinewidth } bind def
/J { setlinecap } bind def
/j { setlinejoin } bind def
/M { setmiterlimit } bind def
/d { setdash } bind def
/m { moveto } bind def
/l { lineto } bind def
/c { curveto } bind def
/h { closepath } bind def
/re { exch dup neg 3 1 roll 5 3 roll moveto 0 rlineto
      0 exch rlineto 0 rlineto closepath } bind def
/S { stroke } bind def
/f { fill } bind def
/f* { eofill } bind def
/n { newpath } bind def
/W { clip } bind def
/W* { eoclip } bind def
/BT { } bind def
/ET { } bind def
/BDC { mark 3 1 roll /BDC pdfmark } bind def
/EMC { mark /EMC pdfmark } bind def
/cairo_store_point { /cairo_point_y exch def /cairo_point_x exch def } def
/Tj { show currentpoint cairo_store_point } bind def
/TJ {
  {
    dup
    type /stringtype eq
    { show } { -0.001 mul 0 cairo_font_matrix dtransform rmoveto } ifelse
  } forall
  currentpoint cairo_store_point
} bind def
/cairo_selectfont { cairo_font_matrix aload pop pop pop 0 0 6 array astore
    cairo_font exch selectfont cairo_point_x cairo_point_y moveto } bind def
/Tf { pop /cairo_font exch def /cairo_font_matrix where
      { pop cairo_selectfont } if } bind def
/Td { matrix translate cairo_font_matrix matrix concatmatrix dup
      /cairo_font_matrix exch def dup 4 get exch 5 get cairo_store_point
      /cairo_font where { pop cairo_selectfont } if } bind def
/Tm { 2 copy 8 2 roll 6 array astore /cairo_font_matrix exch def
      cairo_store_point /cairo_font where { pop cairo_selectfont } if } bind def
/g { setgray } bind def
/rg { setrgbcolor } bind def
/d1 { setcachedevice } bind def
/cairo_data_source {
  CairoDataIndex CairoData length lt
    { CairoData CairoDataIndex get /CairoDataIndex CairoDataIndex 1 add def }
    { () } ifelse
} def
/cairo_flush_ascii85_file { cairo_ascii85_file status { cairo_ascii85_file flushfile } if } def
/cairo_image { image cairo_flush_ascii85_file } def
/cairo_imagemask { imagemask cairo_flush_ascii85_file } def
%%EndProlog
%%BeginSetup
%%EndSetup
%%Page: 1 1
%%BeginPageSetup
%%PageBoundingBox: 10 11 196 139
%%EndPageSetup
q 10 11 186 128 rectclip
1 0 0 -1 0 149 cm q
0.901961 g
24.922 70.277 m 24.922 115.633 l 81.617 115.633 l 81.617 24.926 l 24.922
 24.926 l f
0 g
1.70071 w
0 J
0 j
[] 0.0 d
10 M q 1 0 0 -1 0 0 cm
24.922 -10.75 m 24.922 -115.633 l 81.617 -115.633 l 81.617 -10.75 l S Q
0.850361 w
q 1 0 0 -1 0 0 cm
24.922 -22.09 m 24.922 -23.656 26.191 -24.926 27.758 -24.926 c 78.781 -24.926
 l 80.348 -24.926 81.617 -23.656 81.617 -22.09 c S Q
0.498039 g
58.938 58.941 m 58.938 55.809 56.402 53.27 53.27 53.27 c 50.137 53.27 47.602
 55.809 47.602 58.941 c 47.602 62.07 50.137 64.609 53.27 64.609 c 56.402
 64.609 58.938 62.07 58.938 58.941 c f
0 g
q 1 0 0 -1 0 0 cm
58.938 -58.941 m 58.938 -55.809 56.402 -53.27 53.27 -53.27 c 50.137 -53.27
 47.602 -55.809 47.602 -58.941 c 47.602 -62.07 50.137 -64.609 53.27 -64.609
 c 56.402 -64.609 58.938 -62.07 58.938 -58.941 c h
58.938 -58.941 m S Q
52.031 46.406 m 50.434 41.934 l 48.836 46.406 l 50.434 44.617 l f
q 1 0 0 -1 0 0 cm
50.434 -50.438 m 50.434 -44.617 l S Q
34.785 42.754 m 30.285 42.754 l 30.27 42.895 l 30.551 42.895 30.941 42.926
 30.941 43.332 c 30.941 43.457 30.926 43.598 30.816 43.926 c 29.77 47.754
 l 29.52 48.66 29.207 48.645 28.832 48.645 c 28.816 48.801 l 31.223 48.801
 l 31.254 48.645 l 31.02 48.645 30.613 48.613 30.613 48.176 c 30.613 48.098
 30.613 47.988 30.645 47.879 c 31.191 45.754 l 32.363 45.77 32.676 45.816
 32.676 46.254 c 32.676 46.379 32.645 46.535 32.613 46.754 c 32.785 46.754
 l 33.395 44.582 l 33.238 44.582 l 33.113 44.879 33.004 45.457 31.285 45.457
 c 31.926 43.066 l 32.879 43.066 l 33.723 43.066 34.316 43.238 34.316 43.863
 c 34.316 43.973 34.285 44.066 34.27 44.176 c 34.441 44.176 l h
34.785 42.754 m f
35.059 46.211 m 35.027 46.195 l 34.746 46.305 34.559 46.367 34.215 46.445
 c 34.012 46.508 l 34.012 46.617 l 34.059 46.617 34.074 46.617 34.137 46.617
 c 34.418 46.617 34.48 46.68 34.48 46.961 c 34.48 50.586 l 34.48 50.805 
35.059 51.023 35.621 51.023 c 36.543 51.023 37.262 50.258 37.262 49.273 
c 37.262 48.398 36.73 47.758 36.027 47.758 c 35.605 47.758 35.199 47.992
 35.059 48.352 c h
35.059 48.711 m 35.059 48.445 35.387 48.195 35.746 48.195 c 35.949 48.195
 36.121 48.258 36.262 48.398 c 36.496 48.617 36.637 49.086 36.637 49.586
 c 36.637 50.367 36.309 50.805 35.73 50.805 c 35.371 50.805 35.059 50.648
 35.059 50.477 c h
35.059 48.711 m f
40.699 50.617 m 40.652 50.617 l 40.324 50.602 40.262 50.539 40.262 50.211
 c 40.262 47.82 l 39.168 47.82 l 39.168 47.945 l 39.59 47.961 39.684 48.039
 39.684 48.383 c 39.684 50.023 l 39.684 50.211 39.637 50.32 39.543 50.383
 c 39.355 50.539 39.137 50.633 38.934 50.633 c 38.652 50.633 38.434 50.383
 38.434 50.102 c 38.434 47.82 l 37.418 47.82 l 37.418 47.93 l 37.746 47.93
 37.84 48.039 37.855 48.367 c 37.855 50.117 l 37.855 50.68 38.184 51.023
 38.699 51.023 c 38.949 51.023 39.23 50.914 39.418 50.727 c 39.715 50.43
 l 39.715 51.008 l 39.746 51.023 l 40.09 50.883 40.34 50.805 40.699 50.711
 c h
40.699 50.617 m f
42.57 47.758 m 41.664 47.758 41.039 48.43 41.039 49.383 c 41.039 50.336
 41.68 51.023 42.57 51.023 c 43.445 51.023 44.117 50.305 44.117 49.336 c
 44.117 48.414 43.477 47.758 42.57 47.758 c h
42.492 47.945 m 43.07 47.945 43.477 48.617 43.477 49.57 c 43.477 50.367
 43.164 50.836 42.648 50.836 c 42.383 50.836 42.117 50.664 41.977 50.383
 c 41.773 50.023 41.664 49.539 41.664 49.039 c 41.664 48.383 41.992 47.945
 42.492 47.945 c h
42.492 47.945 m f
47.508 47.82 m 46.57 47.82 l 46.57 47.93 l 46.789 47.93 46.898 47.992 46.898
 48.102 c 46.898 48.133 46.898 48.18 46.867 48.227 c 46.195 50.148 l 45.398
 48.383 l 45.352 48.289 45.32 48.18 45.32 48.117 c 45.32 47.992 45.43 47.945
 45.727 47.93 c 45.727 47.82 l 44.289 47.82 l 44.289 47.93 l 44.477 47.945
 44.586 48.023 44.648 48.148 c 45.445 49.867 l 45.523 50.055 45.539 50.055
 45.57 50.117 c 45.758 50.477 45.867 50.727 45.867 50.836 c 45.867 50.945
 45.711 51.367 45.602 51.586 c 45.492 51.758 45.352 51.898 45.242 51.898
 c 45.211 51.898 45.148 51.883 45.07 51.852 c 44.945 51.805 44.82 51.773
 44.711 51.773 c 44.539 51.773 44.398 51.898 44.398 52.07 c 44.398 52.305
 44.617 52.477 44.914 52.477 c 45.398 52.477 45.711 52.102 46.102 51.086
 c 47.164 48.242 l 47.258 48.023 47.336 47.945 47.508 47.93 c h
47.508 47.82 m f
57.703 37.902 m 56.105 33.43 l 54.508 37.902 l 56.105 36.113 l f
q 1 0 0 -1 0 0 cm
56.105 -50.438 m 56.105 -36.113 l S Q
65.055 43.477 m 60.555 43.477 l 60.539 43.617 l 60.82 43.617 61.211 43.648
 61.211 44.055 c 61.211 44.18 61.195 44.32 61.086 44.648 c 60.039 48.477
 l 59.789 49.383 59.477 49.367 59.102 49.367 c 59.086 49.523 l 61.492 49.523
 l 61.523 49.367 l 61.289 49.367 60.883 49.336 60.883 48.898 c 60.883 48.82
 60.883 48.711 60.914 48.602 c 61.461 46.477 l 62.633 46.492 62.945 46.539
 62.945 46.977 c 62.945 47.102 62.914 47.258 62.883 47.477 c 63.055 47.477
 l 63.664 45.305 l 63.508 45.305 l 63.383 45.602 63.273 46.18 61.555 46.18
 c 62.195 43.789 l 63.148 43.789 l 63.992 43.789 64.586 43.961 64.586 44.586
 c 64.586 44.695 64.555 44.789 64.539 44.898 c 64.711 44.898 l h
65.055 43.477 m f
66.422 48.543 m 65.562 48.543 l 65.562 47.746 l 65.562 47.324 65.688 47.121
 65.953 47.121 c 66.109 47.121 66.203 47.184 66.328 47.387 c 66.438 47.574
 66.531 47.637 66.641 47.637 c 66.812 47.637 66.938 47.512 66.938 47.355
 c 66.938 47.105 66.625 46.918 66.203 46.918 c 65.766 46.918 65.406 47.105
 65.234 47.418 c 65.047 47.746 64.984 47.996 64.984 48.543 c 64.406 48.543
 l 64.406 48.777 l 64.984 48.777 l 64.984 50.965 l 64.969 51.48 64.906 51.559
 64.406 51.574 c 64.406 51.684 l 66.219 51.684 l 66.219 51.574 l 65.641 
51.559 65.562 51.48 65.562 50.965 c 65.562 48.777 l 66.422 48.777 l h
66.422 48.543 m f
66.574 51.684 m 68.246 51.684 l 68.246 51.574 l 67.777 51.559 67.668 51.465
 67.652 51.059 c 67.652 49.496 l 67.652 49.262 67.949 48.918 68.152 48.918
 c 68.184 48.918 68.246 48.949 68.324 49.027 c 68.434 49.121 68.512 49.168
 68.605 49.168 c 68.777 49.168 68.871 49.043 68.871 48.84 c 68.871 48.621
 68.73 48.48 68.496 48.48 c 68.199 48.48 68.012 48.637 67.652 49.137 c 67.652
 48.496 l 67.621 48.48 l 67.23 48.637 66.98 48.73 66.59 48.855 c 66.59 48.965
 l 66.684 48.949 66.746 48.934 66.84 48.934 c 67.012 48.934 67.074 49.043
 67.074 49.355 c 67.074 51.105 l 67.059 51.465 67.012 51.496 66.574 51.574
 c h
66.574 51.684 m f
68.934 51.684 m 70.59 51.684 l 70.59 51.574 l 70.121 51.543 70.074 51.48
 70.074 50.98 c 70.074 48.496 l 70.043 48.48 l 68.965 48.855 l 68.965 48.965
 l 69.012 48.965 l 69.105 48.949 69.184 48.934 69.262 48.934 c 69.418 48.934
 69.48 49.043 69.48 49.355 c 69.48 50.98 l 69.465 51.496 69.402 51.559 68.934
 51.574 c h
69.715 46.918 m 69.527 46.918 69.371 47.09 69.371 47.277 c 69.371 47.48
 69.527 47.637 69.715 47.637 c 69.918 47.637 70.074 47.48 70.074 47.277 
c 70.074 47.074 69.918 46.918 69.715 46.918 c h
69.715 46.918 m f
73.527 50.59 m 73.184 51.09 72.934 51.246 72.543 51.246 c 71.902 51.246
 71.449 50.699 71.449 49.887 c 71.449 49.168 71.84 48.684 72.402 48.684 
c 72.652 48.684 72.746 48.746 72.809 49.012 c 72.855 49.168 l 72.918 49.371
 73.043 49.496 73.199 49.496 c 73.371 49.496 73.527 49.355 73.527 49.199
 c 73.527 48.809 73.027 48.48 72.449 48.48 c 72.105 48.48 71.746 48.621 
71.465 48.871 c 71.121 49.168 70.918 49.652 70.918 50.199 c 70.918 51.105
 71.465 51.746 72.246 51.746 c 72.559 51.746 72.84 51.637 73.09 51.418 c
 73.277 51.262 73.402 51.074 73.621 50.652 c h
73.527 50.59 m f
51.672 88.484 m 53.27 92.957 l 54.867 88.484 l 53.27 90.273 l f
q 1 0 0 -1 0 0 cm
53.27 -67.445 m 53.27 -90.273 l S Q
62.051 80.641 m 61.926 80.547 l 61.738 80.781 61.41 81.219 61.223 81.219
 c 61.145 81.219 61.098 81.172 61.098 81.062 c 61.098 80.969 61.176 80.75
 61.223 80.578 c 61.223 80.578 61.754 78.625 61.754 78.578 c 61.816 78.391
 61.848 78.203 61.848 78.078 c 61.848 77.625 61.566 77.469 61.348 77.469
 c 60.613 77.469 59.785 78.438 59.207 79.469 c 59.207 79.469 59.535 78.422
 59.535 78.062 c 59.535 77.828 59.441 77.469 59.02 77.469 c 58.191 77.469
 57.16 79.062 56.941 79.469 c 57.473 77.469 l 57.473 77.469 56.254 77.703
 55.988 77.719 c 55.988 77.875 l 56.316 77.875 56.582 77.844 56.582 78.203
 c 56.582 78.375 56.504 78.656 56.426 78.938 c 56.426 78.938 55.707 81.328
 55.66 81.562 c 56.348 81.562 l 56.504 80.969 l 57.02 79.031 58.27 77.969
 58.613 77.969 c 58.754 77.969 58.848 78.016 58.848 78.219 c 58.848 78.359
 58.738 78.766 58.676 79.031 c 58.676 79.031 58.051 81.25 57.973 81.562 
c 58.645 81.562 l 58.801 80.969 l 59.348 78.953 60.566 77.969 60.926 77.969
 c 61.051 77.969 61.145 78.062 61.145 78.203 c 61.145 78.297 61.051 78.703
 60.957 79.031 c 60.598 80.375 l 60.504 80.703 60.426 81.109 60.426 81.25
 c 60.426 81.484 60.551 81.672 60.754 81.672 c 61.207 81.672 61.691 81.156
 62.051 80.641 c h
62.051 80.641 m f
67.383 77.766 m 66.523 77.766 l 66.07 77.703 65.977 77.469 65.383 77.469
 c 64.555 77.469 63.555 78.078 63.555 79.047 c 63.555 79.438 63.742 79.875
 64.367 80.094 c 63.977 80.328 63.586 80.578 63.586 80.906 c 63.586 81.094
 63.727 81.188 63.82 81.25 c 63.055 81.672 62.773 82.094 62.773 82.453 c
 62.773 82.984 63.383 83.422 64.336 83.422 c 65.508 83.422 66.289 82.859
 66.289 82.094 c 66.289 80.906 64.242 81.047 64.242 80.609 c 64.242 80.453
 64.32 80.328 64.695 80.188 c 64.758 80.188 64.82 80.188 64.883 80.188 c
 65.57 80.188 66.602 79.547 66.602 78.688 c 66.602 78.5 66.57 78.328 66.523
 78.188 c 67.273 78.188 l h
65.883 78.297 m 65.883 79 65.477 79.969 64.852 79.969 c 64.43 79.969 64.289
 79.578 64.289 79.266 c 64.289 78.797 64.602 77.672 65.367 77.672 c 65.727
 77.672 65.883 77.953 65.883 78.297 c h
65.742 82.375 m 65.742 82.906 65.086 83.219 64.43 83.219 c 64.07 83.219
 63.273 83.062 63.273 82.375 c 63.273 81.938 63.633 81.547 64.008 81.344
 c 64.93 81.609 65.742 81.875 65.742 82.375 c h
65.742 82.375 m f
46.199 100.77 m 46.762 100.77 l 46.762 103.254 l 46.73 103.879 46.684 103.957
 46.199 103.973 c 46.199 104.098 l 47.996 104.098 l 47.996 103.973 l 47.543
 103.941 47.434 103.848 47.418 103.473 c 47.418 100.77 l 48.918 100.77 l
 48.918 103.426 l 48.918 103.832 48.793 103.957 48.387 103.973 c 48.387 
104.098 l 50.105 104.098 l 50.105 103.973 l 49.668 103.941 49.59 103.879
 49.59 103.457 c 49.59 98.676 l 49.559 98.66 l 49.48 98.676 49.402 98.691
 49.309 98.738 c 49.152 98.816 49.027 98.848 48.965 98.848 c 48.934 98.848
 48.855 98.832 48.73 98.785 c 48.512 98.707 48.277 98.66 48.074 98.66 c 
47.715 98.66 47.34 98.848 47.121 99.16 c 46.887 99.504 46.809 99.816 46.777
 100.52 c 46.199 100.52 l h
48.918 100.52 m 47.418 100.52 l 47.418 100.098 l 47.402 99.285 47.59 98.863
 47.934 98.863 c 48.121 98.863 48.215 98.941 48.355 99.145 c 48.512 99.379
 48.605 99.441 48.793 99.441 c 48.855 99.441 48.887 99.441 48.918 99.395
 c h
48.918 100.52 m f
54.203 103.707 m 54.172 103.707 l 53.781 103.676 53.719 103.613 53.719 
103.238 c 53.719 100.52 l 52.453 100.52 l 52.453 100.645 l 52.953 100.676
 53.047 100.754 53.047 101.145 c 53.047 103.02 l 53.047 103.238 53 103.363
 52.891 103.441 c 52.672 103.613 52.438 103.723 52.188 103.723 c 51.875 
103.723 51.625 103.441 51.625 103.113 c 51.625 100.52 l 50.469 100.52 l 
50.469 100.629 l 50.844 100.645 50.953 100.754 50.953 101.129 c 50.953 103.145
 l 50.953 103.77 51.344 104.176 51.922 104.176 c 52.219 104.176 52.531 104.051
 52.734 103.832 c 53.078 103.488 l 53.078 104.16 l 53.109 104.176 l 53.516
 104.004 53.797 103.926 54.203 103.816 c h
54.203 103.707 m f
54.473 104.098 m 56.363 104.098 l 56.363 103.973 l 55.832 103.941 55.785
 103.863 55.77 103.285 c 55.77 100.457 l 55.738 100.426 l 54.504 100.863
 l 54.504 100.988 l 54.566 100.988 l 54.66 100.973 54.77 100.957 54.848 
100.957 c 55.035 100.957 55.098 101.082 55.098 101.441 c 55.098 103.285 
l 55.082 103.879 55.02 103.957 54.473 103.973 c h
55.363 98.66 m 55.16 98.66 54.973 98.832 54.973 99.066 c 54.973 99.285 
55.145 99.473 55.363 99.473 c 55.613 99.473 55.785 99.285 55.785 99.066 
c 55.785 98.832 55.598 98.66 55.363 98.66 c h
55.363 98.66 m f
60.414 103.629 m 60.32 103.645 60.273 103.645 60.242 103.645 c 59.961 103.645
 59.883 103.551 59.883 103.191 c 59.883 98.676 l 59.852 98.66 l 59.477 98.785
 59.195 98.863 58.68 99.004 c 58.68 99.129 l 58.742 99.129 58.773 99.129
 58.852 99.129 c 59.148 99.129 59.211 99.207 59.211 99.535 c 59.211 100.77
 l 58.914 100.52 58.695 100.426 58.383 100.426 c 57.461 100.426 56.727 101.332
 56.727 102.457 c 56.727 103.488 57.32 104.176 58.195 104.176 c 58.648 104.176
 58.945 104.02 59.211 103.645 c 59.211 104.16 l 59.242 104.176 l 60.414 
103.77 l h
59.211 103.285 m 59.211 103.348 59.164 103.441 59.086 103.52 c 58.945 103.676
 58.742 103.77 58.508 103.77 c 57.836 103.77 57.414 103.129 57.414 102.145
 c 57.414 101.238 57.805 100.66 58.398 100.66 c 58.836 100.66 59.211 101.035
 59.211 101.457 c h
59.211 103.285 m f
0.567043 w
q 1 0 0 -1 0 0 cm
22.09 -114.785 m 10.75 -114.785 l S Q
q 1 0 0 -1 0 0 cm
22.09 -58.941 m 10.75 -58.941 l S Q
17.734 62.621 m 16.418 58.941 l 15.105 62.621 l 16.418 61.148 l f
q 1 0 0 -1 0 0 cm
16.418 -114.785 m 16.418 -61.148 l S Q
1 g
11.152 87.277 m 11.152 92.316 l 21.727 92.316 l 21.727 82.242 l 11.152 
82.242 l f
0 g
18.156 85.234 m 15.359 85.234 l 14.969 86.391 l 15.156 86.391 l 15.375 
85.844 15.594 85.828 15.922 85.828 c 17.375 85.828 l 14.281 89.328 l 17.125
 89.328 l 17.516 88.141 l 17.344 88.141 l 17.141 88.75 16.797 88.75 16.469
 88.75 c 15.047 88.75 l h
18.156 85.234 m f
50.992 129.852 m 50.336 130.289 50.07 130.508 49.727 130.93 c 49.102 131.711
 48.789 132.602 48.789 133.648 c 48.789 134.805 49.117 135.68 49.898 136.586
 c 50.273 137.023 50.508 137.211 50.977 137.508 c 51.07 137.352 l 50.367
 136.789 50.117 136.477 49.867 135.805 c 49.648 135.211 49.555 134.539 49.555
 133.633 c 49.555 132.68 49.664 131.945 49.914 131.398 c 50.164 130.836 
50.43 130.508 51.07 129.992 c h
50.992 129.852 m f
55.32 135.32 m 55.164 135.445 55.055 135.492 54.914 135.492 c 54.711 135.492
 54.648 135.367 54.648 134.977 c 54.648 133.227 l 54.648 132.758 54.602 
132.492 54.477 132.289 c 54.273 131.961 53.883 131.789 53.367 131.789 c 
52.523 131.789 51.852 132.227 51.852 132.789 c 51.852 132.992 52.023 133.18
 52.242 133.18 c 52.461 133.18 52.648 132.992 52.648 132.805 c 52.648 132.773
 52.633 132.727 52.633 132.664 c 52.602 132.57 52.602 132.508 52.602 132.445
 c 52.602 132.195 52.883 132.008 53.242 132.008 c 53.68 132.008 53.93 132.258
 53.93 132.742 c 53.93 133.289 l 52.555 133.836 52.398 133.93 52.008 134.258
 c 51.805 134.445 51.68 134.742 51.68 135.039 c 51.68 135.602 52.07 136.008
 52.633 136.008 c 53.023 136.008 53.383 135.82 53.93 135.352 c 53.977 135.82
 54.148 136.008 54.508 136.008 c 54.82 136.008 55.008 135.898 55.32 135.555
 c h
53.93 134.805 m 53.93 135.086 53.883 135.18 53.695 135.289 c 53.461 135.414
 53.227 135.477 53.039 135.477 c 52.727 135.477 52.477 135.18 52.477 134.789
 c 52.477 134.758 l 52.477 134.227 52.883 133.883 53.93 133.508 c h
53.93 134.805 m f
55.652 137.508 m 56.309 137.055 56.59 136.836 56.918 136.43 c 57.559 135.648
 57.871 134.742 57.871 133.695 c 57.871 132.555 57.527 131.68 56.746 130.773
 c 56.371 130.336 56.137 130.133 55.684 129.852 c 55.574 129.992 l 56.293
 130.555 56.527 130.867 56.777 131.539 c 56.996 132.148 57.09 132.82 57.09
 133.727 c 57.09 134.664 56.98 135.398 56.73 135.945 c 56.496 136.508 56.215
 136.836 55.574 137.352 c h
55.652 137.508 m f
0.901961 g
138.309 70.277 m 138.309 115.633 l 195 115.633 l 195 24.926 l 138.309 24.926
 l f
0 g
1.70071 w
q 1 0 0 -1 0 0 cm
138.309 -10.75 m 138.309 -115.633 l 195 -115.633 l 195 -10.75 l S Q
0.850361 w
q 1 0 0 -1 0 0 cm
138.309 -22.09 m 138.309 -23.656 139.578 -24.926 141.145 -24.926 c 192.168
 -24.926 l 193.734 -24.926 195 -23.656 195 -22.09 c S Q
1.98444 w
q 1 0 0 -1 0 0 cm
166.656 -53.27 m 166.656 -10.75 l S Q
1 g
0.850361 w
q 1 0 0 -1 0 0 cm
166.656 -53.27 m 166.656 -10.75 l S Q
0.498039 g
172.324 58.941 m 172.324 55.809 169.785 53.27 166.656 53.27 c 163.523 53.27
 160.984 55.809 160.984 58.941 c 160.984 62.07 163.523 64.609 166.656 64.609
 c 169.785 64.609 172.324 62.07 172.324 58.941 c f
0 g
q 1 0 0 -1 0 0 cm
172.324 -58.941 m 172.324 -55.809 169.785 -53.27 166.656 -53.27 c 163.523
 -53.27 160.984 -55.809 160.984 -58.941 c 160.984 -62.07 163.523 -64.609
 166.656 -64.609 c 169.785 -64.609 172.324 -62.07 172.324 -58.941 c h
172.324 -58.941 m S Q
164.566 46.406 m 162.969 41.934 l 161.371 46.406 l 162.969 44.617 l f
q 1 0 0 -1 0 0 cm
162.969 -50.438 m 162.969 -44.617 l S Q
147.32 42.754 m 142.82 42.754 l 142.805 42.895 l 143.086 42.895 143.477
 42.926 143.477 43.332 c 143.477 43.457 143.461 43.598 143.352 43.926 c 
142.305 47.754 l 142.055 48.66 141.742 48.645 141.367 48.645 c 141.352 48.801
 l 143.758 48.801 l 143.789 48.645 l 143.555 48.645 143.148 48.613 143.148
 48.176 c 143.148 48.098 143.148 47.988 143.18 47.879 c 143.727 45.754 l
 144.898 45.77 145.211 45.816 145.211 46.254 c 145.211 46.379 145.18 46.535
 145.148 46.754 c 145.32 46.754 l 145.93 44.582 l 145.773 44.582 l 145.648
 44.879 145.539 45.457 143.82 45.457 c 144.461 43.066 l 145.414 43.066 l
 146.258 43.066 146.852 43.238 146.852 43.863 c 146.852 43.973 146.82 44.066
 146.805 44.176 c 146.977 44.176 l h
147.32 42.754 m f
147.594 46.211 m 147.562 46.195 l 147.281 46.305 147.094 46.367 146.75 
46.445 c 146.547 46.508 l 146.547 46.617 l 146.594 46.617 146.609 46.617
 146.672 46.617 c 146.953 46.617 147.016 46.68 147.016 46.961 c 147.016 
50.586 l 147.016 50.805 147.594 51.023 148.156 51.023 c 149.078 51.023 149.797
 50.258 149.797 49.273 c 149.797 48.398 149.266 47.758 148.562 47.758 c 
148.141 47.758 147.734 47.992 147.594 48.352 c h
147.594 48.711 m 147.594 48.445 147.922 48.195 148.281 48.195 c 148.484
 48.195 148.656 48.258 148.797 48.398 c 149.031 48.617 149.172 49.086 149.172
 49.586 c 149.172 50.367 148.844 50.805 148.266 50.805 c 147.906 50.805 
147.594 50.648 147.594 50.477 c h
147.594 48.711 m f
153.234 50.617 m 153.188 50.617 l 152.859 50.602 152.797 50.539 152.797
 50.211 c 152.797 47.82 l 151.703 47.82 l 151.703 47.945 l 152.125 47.961
 152.219 48.039 152.219 48.383 c 152.219 50.023 l 152.219 50.211 152.172
 50.32 152.078 50.383 c 151.891 50.539 151.672 50.633 151.469 50.633 c 151.188
 50.633 150.969 50.383 150.969 50.102 c 150.969 47.82 l 149.953 47.82 l 
149.953 47.93 l 150.281 47.93 150.375 48.039 150.391 48.367 c 150.391 50.117
 l 150.391 50.68 150.719 51.023 151.234 51.023 c 151.484 51.023 151.766 
50.914 151.953 50.727 c 152.25 50.43 l 152.25 51.008 l 152.281 51.023 l 
152.625 50.883 152.875 50.805 153.234 50.711 c h
153.234 50.617 m f
155.105 47.758 m 154.199 47.758 153.574 48.43 153.574 49.383 c 153.574 
50.336 154.215 51.023 155.105 51.023 c 155.98 51.023 156.652 50.305 156.652
 49.336 c 156.652 48.414 156.012 47.758 155.105 47.758 c h
155.027 47.945 m 155.605 47.945 156.012 48.617 156.012 49.57 c 156.012 
50.367 155.699 50.836 155.184 50.836 c 154.918 50.836 154.652 50.664 154.512
 50.383 c 154.309 50.023 154.199 49.539 154.199 49.039 c 154.199 48.383 
154.527 47.945 155.027 47.945 c h
155.027 47.945 m f
160.043 47.82 m 159.105 47.82 l 159.105 47.93 l 159.324 47.93 159.434 47.992
 159.434 48.102 c 159.434 48.133 159.434 48.18 159.402 48.227 c 158.73 50.148
 l 157.934 48.383 l 157.887 48.289 157.855 48.18 157.855 48.117 c 157.855
 47.992 157.965 47.945 158.262 47.93 c 158.262 47.82 l 156.824 47.82 l 156.824
 47.93 l 157.012 47.945 157.121 48.023 157.184 48.148 c 157.98 49.867 l 
158.059 50.055 158.074 50.055 158.105 50.117 c 158.293 50.477 158.402 50.727
 158.402 50.836 c 158.402 50.945 158.246 51.367 158.137 51.586 c 158.027
 51.758 157.887 51.898 157.777 51.898 c 157.746 51.898 157.684 51.883 157.605
 51.852 c 157.48 51.805 157.355 51.773 157.246 51.773 c 157.074 51.773 156.934
 51.898 156.934 52.07 c 156.934 52.305 157.152 52.477 157.449 52.477 c 157.934
 52.477 158.246 52.102 158.637 51.086 c 159.699 48.242 l 159.793 48.023 
159.871 47.945 160.043 47.93 c h
160.043 47.82 m f
171.938 46.406 m 170.34 41.934 l 168.742 46.406 l 170.34 44.617 l f
q 1 0 0 -1 0 0 cm
170.34 -50.438 m 170.34 -44.617 l S Q
179.293 43.477 m 174.793 43.477 l 174.777 43.617 l 175.059 43.617 175.449
 43.648 175.449 44.055 c 175.449 44.18 175.434 44.32 175.324 44.648 c 174.277
 48.477 l 174.027 49.383 173.715 49.367 173.34 49.367 c 173.324 49.523 l
 175.73 49.523 l 175.762 49.367 l 175.527 49.367 175.121 49.336 175.121 
48.898 c 175.121 48.82 175.121 48.711 175.152 48.602 c 175.699 46.477 l 
176.871 46.492 177.184 46.539 177.184 46.977 c 177.184 47.102 177.152 47.258
 177.121 47.477 c 177.293 47.477 l 177.902 45.305 l 177.746 45.305 l 177.621
 45.602 177.512 46.18 175.793 46.18 c 176.434 43.789 l 177.387 43.789 l 
178.23 43.789 178.824 43.961 178.824 44.586 c 178.824 44.695 178.793 44.789
 178.777 44.898 c 178.949 44.898 l h
179.293 43.477 m f
180.656 48.543 m 179.797 48.543 l 179.797 47.746 l 179.797 47.324 179.922
 47.121 180.188 47.121 c 180.344 47.121 180.438 47.184 180.562 47.387 c 
180.672 47.574 180.766 47.637 180.875 47.637 c 181.047 47.637 181.172 47.512
 181.172 47.355 c 181.172 47.105 180.859 46.918 180.438 46.918 c 180 46.918
 179.641 47.105 179.469 47.418 c 179.281 47.746 179.219 47.996 179.219 48.543
 c 178.641 48.543 l 178.641 48.777 l 179.219 48.777 l 179.219 50.965 l 179.203
 51.48 179.141 51.559 178.641 51.574 c 178.641 51.684 l 180.453 51.684 l
 180.453 51.574 l 179.875 51.559 179.797 51.48 179.797 50.965 c 179.797 
48.777 l 180.656 48.777 l h
180.656 48.543 m f
180.812 51.684 m 182.484 51.684 l 182.484 51.574 l 182.016 51.559 181.906
 51.465 181.891 51.059 c 181.891 49.496 l 181.891 49.262 182.188 48.918 
182.391 48.918 c 182.422 48.918 182.484 48.949 182.562 49.027 c 182.672 
49.121 182.75 49.168 182.844 49.168 c 183.016 49.168 183.109 49.043 183.109
 48.84 c 183.109 48.621 182.969 48.48 182.734 48.48 c 182.438 48.48 182.25
 48.637 181.891 49.137 c 181.891 48.496 l 181.859 48.48 l 181.469 48.637
 181.219 48.73 180.828 48.855 c 180.828 48.965 l 180.922 48.949 180.984 
48.934 181.078 48.934 c 181.25 48.934 181.312 49.043 181.312 49.355 c 181.312
 51.105 l 181.297 51.465 181.25 51.496 180.812 51.574 c h
180.812 51.684 m f
183.172 51.684 m 184.828 51.684 l 184.828 51.574 l 184.359 51.543 184.312
 51.48 184.312 50.98 c 184.312 48.496 l 184.281 48.48 l 183.203 48.855 l
 183.203 48.965 l 183.25 48.965 l 183.344 48.949 183.422 48.934 183.5 48.934
 c 183.656 48.934 183.719 49.043 183.719 49.355 c 183.719 50.98 l 183.703
 51.496 183.641 51.559 183.172 51.574 c h
183.953 46.918 m 183.766 46.918 183.609 47.09 183.609 47.277 c 183.609 
47.48 183.766 47.637 183.953 47.637 c 184.156 47.637 184.312 47.48 184.312
 47.277 c 184.312 47.074 184.156 46.918 183.953 46.918 c h
183.953 46.918 m f
187.762 50.59 m 187.418 51.09 187.168 51.246 186.777 51.246 c 186.137 51.246
 185.684 50.699 185.684 49.887 c 185.684 49.168 186.074 48.684 186.637 48.684
 c 186.887 48.684 186.98 48.746 187.043 49.012 c 187.09 49.168 l 187.152
 49.371 187.277 49.496 187.434 49.496 c 187.605 49.496 187.762 49.355 187.762
 49.199 c 187.762 48.809 187.262 48.48 186.684 48.48 c 186.34 48.48 185.98
 48.621 185.699 48.871 c 185.355 49.168 185.152 49.652 185.152 50.199 c 
185.152 51.105 185.699 51.746 186.48 51.746 c 186.793 51.746 187.074 51.637
 187.324 51.418 c 187.512 51.262 187.637 51.074 187.855 50.652 c h
187.762 50.59 m f
165.059 88.484 m 166.656 92.957 l 168.254 88.484 l 166.656 90.273 l f
q 1 0 0 -1 0 0 cm
166.656 -67.445 m 166.656 -90.273 l S Q
175.434 80.359 m 175.309 80.266 l 175.121 80.5 174.793 80.938 174.605 80.938
 c 174.527 80.938 174.48 80.891 174.48 80.781 c 174.48 80.688 174.559 80.469
 174.605 80.297 c 174.605 80.297 175.137 78.344 175.137 78.297 c 175.199
 78.109 175.23 77.922 175.23 77.797 c 175.23 77.344 174.949 77.188 174.73
 77.188 c 173.996 77.188 173.168 78.156 172.59 79.188 c 172.59 79.188 172.918
 78.141 172.918 77.781 c 172.918 77.547 172.824 77.188 172.402 77.188 c 
171.574 77.188 170.543 78.781 170.324 79.188 c 170.855 77.188 l 170.855 
77.188 169.637 77.422 169.371 77.438 c 169.371 77.594 l 169.699 77.594 169.965
 77.562 169.965 77.922 c 169.965 78.094 169.887 78.375 169.809 78.656 c 
169.809 78.656 169.09 81.047 169.043 81.281 c 169.73 81.281 l 169.887 80.688
 l 170.402 78.75 171.652 77.688 171.996 77.688 c 172.137 77.688 172.23 77.734
 172.23 77.938 c 172.23 78.078 172.121 78.484 172.059 78.75 c 172.059 78.75
 171.434 80.969 171.355 81.281 c 172.027 81.281 l 172.184 80.688 l 172.73
 78.672 173.949 77.688 174.309 77.688 c 174.434 77.688 174.527 77.781 174.527
 77.922 c 174.527 78.016 174.434 78.422 174.34 78.75 c 173.98 80.094 l 173.887
 80.422 173.809 80.828 173.809 80.969 c 173.809 81.203 173.934 81.391 174.137
 81.391 c 174.59 81.391 175.074 80.875 175.434 80.359 c h
175.434 80.359 m f
180.77 77.484 m 179.91 77.484 l 179.457 77.422 179.363 77.188 178.77 77.188
 c 177.941 77.188 176.941 77.797 176.941 78.766 c 176.941 79.156 177.129
 79.594 177.754 79.812 c 177.363 80.047 176.973 80.297 176.973 80.625 c 
176.973 80.812 177.113 80.906 177.207 80.969 c 176.441 81.391 176.16 81.812
 176.16 82.172 c 176.16 82.703 176.77 83.141 177.723 83.141 c 178.895 83.141
 179.676 82.578 179.676 81.812 c 179.676 80.625 177.629 80.766 177.629 80.328
 c 177.629 80.172 177.707 80.047 178.082 79.906 c 178.145 79.906 178.207
 79.906 178.27 79.906 c 178.957 79.906 179.988 79.266 179.988 78.406 c 179.988
 78.219 179.957 78.047 179.91 77.906 c 180.66 77.906 l h
179.27 78.016 m 179.27 78.719 178.863 79.688 178.238 79.688 c 177.816 79.688
 177.676 79.297 177.676 78.984 c 177.676 78.516 177.988 77.391 178.754 77.391
 c 179.113 77.391 179.27 77.672 179.27 78.016 c h
179.129 82.094 m 179.129 82.625 178.473 82.938 177.816 82.938 c 177.457
 82.938 176.66 82.781 176.66 82.094 c 176.66 81.656 177.02 81.266 177.395
 81.062 c 178.316 81.328 179.129 81.594 179.129 82.094 c h
179.129 82.094 m f
171.938 35.066 m 170.34 30.594 l 168.742 35.066 l 170.34 33.277 l f
q 1 0 0 -1 0 0 cm
170.34 -39.098 m 170.34 -33.277 l S Q
179.293 32.137 m 174.793 32.137 l 174.777 32.277 l 175.059 32.277 175.449
 32.309 175.449 32.715 c 175.449 32.84 175.434 32.98 175.324 33.309 c 174.277
 37.137 l 174.027 38.043 173.715 38.027 173.34 38.027 c 173.324 38.184 l
 175.73 38.184 l 175.762 38.027 l 175.527 38.027 175.121 37.996 175.121 
37.559 c 175.121 37.48 175.121 37.371 175.152 37.262 c 175.699 35.137 l 
176.871 35.152 177.184 35.199 177.184 35.637 c 177.184 35.762 177.152 35.918
 177.121 36.137 c 177.293 36.137 l 177.902 33.965 l 177.746 33.965 l 177.621
 34.262 177.512 34.84 175.793 34.84 c 176.434 32.449 l 177.387 32.449 l 
178.23 32.449 178.824 32.621 178.824 33.246 c 178.824 33.355 178.793 33.449
 178.777 33.559 c 178.949 33.559 l h
179.293 32.137 m f
180.688 38.156 m 180.672 37.203 l 180.594 37.203 l 180.562 37.25 180.516
 37.281 180.484 37.281 c 180.438 37.281 180.375 37.266 180.297 37.234 c 
180.125 37.172 179.969 37.141 179.797 37.141 c 179.25 37.141 178.859 37.5
 178.859 38 c 178.859 38.391 179.078 38.672 179.672 39 c 180.078 39.234 
l 180.312 39.375 180.438 39.547 180.438 39.766 c 180.438 40.062 180.219 
40.266 179.859 40.266 c 179.375 40.266 179.141 40 178.969 39.281 c 178.859
 39.281 l 178.859 40.375 l 178.953 40.375 l 179 40.297 179.031 40.281 179.109
 40.281 c 179.188 40.281 179.281 40.297 179.438 40.344 c 179.625 40.391 
179.797 40.406 179.938 40.406 c 180.484 40.406 180.922 40.016 180.922 39.516
 c 180.922 39.172 180.766 38.938 180.344 38.688 c 179.594 38.25 l 179.391
 38.125 179.281 37.953 179.281 37.766 c 179.281 37.484 179.5 37.297 179.828
 37.297 c 180.219 37.297 180.438 37.531 180.594 38.156 c h
180.688 38.156 m f
183.043 37.203 m 182.34 37.203 l 182.34 36.406 l 182.34 36.328 182.324 
36.312 182.293 36.312 c 181.887 36.891 181.668 37.125 181.465 37.25 c 181.387
 37.297 181.355 37.344 181.355 37.375 c 181.355 37.406 181.355 37.422 181.387
 37.438 c 181.746 37.438 l 181.746 39.531 l 181.746 40.109 181.965 40.406
 182.371 40.406 c 182.715 40.406 182.98 40.25 183.199 39.891 c 183.121 39.812
 l 182.965 39.984 182.855 40.047 182.699 40.047 c 182.434 40.047 182.34 
39.859 182.34 39.422 c 182.34 37.438 l 183.043 37.438 l h
183.043 37.203 m f
183.211 40.344 m 184.883 40.344 l 184.883 40.234 l 184.414 40.219 184.305
 40.125 184.289 39.719 c 184.289 38.156 l 184.289 37.922 184.586 37.578 
184.789 37.578 c 184.82 37.578 184.883 37.609 184.961 37.688 c 185.07 37.781
 185.148 37.828 185.242 37.828 c 185.414 37.828 185.508 37.703 185.508 37.5
 c 185.508 37.281 185.367 37.141 185.133 37.141 c 184.836 37.141 184.648
 37.297 184.289 37.797 c 184.289 37.156 l 184.258 37.141 l 183.867 37.297
 183.617 37.391 183.227 37.516 c 183.227 37.625 l 183.32 37.609 183.383 
37.594 183.477 37.594 c 183.648 37.594 183.711 37.703 183.711 38.016 c 183.711
 39.766 l 183.695 40.125 183.648 40.156 183.211 40.234 c h
183.211 40.344 m f
159.707 100.773 m 160.27 100.773 l 160.27 103.258 l 160.238 103.883 160.191
 103.961 159.707 103.977 c 159.707 104.102 l 161.504 104.102 l 161.504 103.977
 l 161.051 103.945 160.941 103.852 160.926 103.477 c 160.926 100.773 l 162.426
 100.773 l 162.426 103.43 l 162.426 103.836 162.301 103.961 161.895 103.977
 c 161.895 104.102 l 163.613 104.102 l 163.613 103.977 l 163.176 103.945
 163.098 103.883 163.098 103.461 c 163.098 98.68 l 163.066 98.664 l 162.988
 98.68 162.91 98.695 162.816 98.742 c 162.66 98.82 162.535 98.852 162.473
 98.852 c 162.441 98.852 162.363 98.836 162.238 98.789 c 162.02 98.711 161.785
 98.664 161.582 98.664 c 161.223 98.664 160.848 98.852 160.629 99.164 c 
160.395 99.508 160.316 99.82 160.285 100.523 c 159.707 100.523 l h
162.426 100.523 m 160.926 100.523 l 160.926 100.102 l 160.91 99.289 161.098
 98.867 161.441 98.867 c 161.629 98.867 161.723 98.945 161.863 99.148 c 
162.02 99.383 162.113 99.445 162.301 99.445 c 162.363 99.445 162.395 99.445
 162.426 99.398 c h
162.426 100.523 m f
167.707 103.711 m 167.676 103.711 l 167.285 103.68 167.223 103.617 167.223
 103.242 c 167.223 100.523 l 165.957 100.523 l 165.957 100.648 l 166.457
 100.68 166.551 100.758 166.551 101.148 c 166.551 103.023 l 166.551 103.242
 166.504 103.367 166.395 103.445 c 166.176 103.617 165.941 103.727 165.691
 103.727 c 165.379 103.727 165.129 103.445 165.129 103.117 c 165.129 100.523
 l 163.973 100.523 l 163.973 100.633 l 164.348 100.648 164.457 100.758 164.457
 101.133 c 164.457 103.148 l 164.457 103.773 164.848 104.18 165.426 104.18
 c 165.723 104.18 166.035 104.055 166.238 103.836 c 166.582 103.492 l 166.582
 104.164 l 166.613 104.18 l 167.02 104.008 167.301 103.93 167.707 103.82
 c h
167.707 103.711 m f
167.98 104.102 m 169.871 104.102 l 169.871 103.977 l 169.34 103.945 169.293
 103.867 169.277 103.289 c 169.277 100.461 l 169.246 100.43 l 168.012 100.867
 l 168.012 100.992 l 168.074 100.992 l 168.168 100.977 168.277 100.961 168.355
 100.961 c 168.543 100.961 168.605 101.086 168.605 101.445 c 168.605 103.289
 l 168.59 103.883 168.527 103.961 167.98 103.977 c h
168.871 98.664 m 168.668 98.664 168.48 98.836 168.48 99.07 c 168.48 99.289
 168.652 99.477 168.871 99.477 c 169.121 99.477 169.293 99.289 169.293 99.07
 c 169.293 98.836 169.105 98.664 168.871 98.664 c h
168.871 98.664 m f
173.922 103.633 m 173.828 103.648 173.781 103.648 173.75 103.648 c 173.469
 103.648 173.391 103.555 173.391 103.195 c 173.391 98.68 l 173.359 98.664
 l 172.984 98.789 172.703 98.867 172.188 99.008 c 172.188 99.133 l 172.25
 99.133 172.281 99.133 172.359 99.133 c 172.656 99.133 172.719 99.211 172.719
 99.539 c 172.719 100.773 l 172.422 100.523 172.203 100.43 171.891 100.43
 c 170.969 100.43 170.234 101.336 170.234 102.461 c 170.234 103.492 170.828
 104.18 171.703 104.18 c 172.156 104.18 172.453 104.023 172.719 103.648 
c 172.719 104.164 l 172.75 104.18 l 173.922 103.773 l h
172.719 103.289 m 172.719 103.352 172.672 103.445 172.594 103.523 c 172.453
 103.68 172.25 103.773 172.016 103.773 c 171.344 103.773 170.922 103.133
 170.922 102.148 c 170.922 101.242 171.312 100.664 171.906 100.664 c 172.344
 100.664 172.719 101.039 172.719 101.461 c h
172.719 103.289 m f
0.567043 w
q 1 0 0 -1 0 0 cm
135.473 -114.785 m 124.137 -114.785 l S Q
q 1 0 0 -1 0 0 cm
135.473 -58.941 m 124.137 -58.941 l S Q
131.121 62.621 m 129.805 58.941 l 128.492 62.621 l 129.805 61.148 l f
q 1 0 0 -1 0 0 cm
129.805 -114.785 m 129.805 -61.148 l S Q
1 g
124.535 87.277 m 124.535 92.316 l 135.113 92.316 l 135.113 82.242 l 124.535
 82.242 l f
0 g
131.539 85.234 m 128.742 85.234 l 128.352 86.391 l 128.539 86.391 l 128.758
 85.844 128.977 85.828 129.305 85.828 c 130.758 85.828 l 127.664 89.328 
l 130.508 89.328 l 130.898 88.141 l 130.727 88.141 l 130.523 88.75 130.18
 88.75 129.852 88.75 c 128.43 88.75 l h
131.539 85.234 m f
164.016 129.852 m 163.359 130.289 163.094 130.508 162.75 130.93 c 162.125
 131.711 161.812 132.602 161.812 133.648 c 161.812 134.805 162.141 135.68
 162.922 136.586 c 163.297 137.023 163.531 137.211 164 137.508 c 164.094
 137.352 l 163.391 136.789 163.141 136.477 162.891 135.805 c 162.672 135.211
 162.578 134.539 162.578 133.633 c 162.578 132.68 162.688 131.945 162.938
 131.398 c 163.188 130.836 163.453 130.508 164.094 129.992 c h
164.016 129.852 m f
165.75 129.805 m 165.703 129.789 l 165.328 129.914 165.094 129.992 164.656
 130.117 c 164.406 130.18 l 164.406 130.32 l 164.453 130.32 164.484 130.32
 164.547 130.32 c 164.906 130.32 165 130.398 165 130.773 c 165 135.43 l 
165 135.711 165.75 136.008 166.469 136.008 c 167.656 136.008 168.578 135.023
 168.578 133.742 c 168.578 132.617 167.891 131.789 167 131.789 c 166.453
 131.789 165.922 132.102 165.75 132.555 c h
165.75 133.023 m 165.75 132.68 166.172 132.352 166.641 132.352 c 166.891
 132.352 167.109 132.445 167.297 132.617 c 167.578 132.898 167.781 133.508
 167.781 134.148 c 167.781 135.148 167.359 135.711 166.625 135.711 c 166.156
 135.711 165.75 135.523 165.75 135.289 c h
165.75 133.023 m f
169.16 137.508 m 169.816 137.055 170.098 136.836 170.426 136.43 c 171.066
 135.648 171.379 134.742 171.379 133.695 c 171.379 132.555 171.035 131.68
 170.254 130.773 c 169.879 130.336 169.645 130.133 169.191 129.852 c 169.082
 129.992 l 169.801 130.555 170.035 130.867 170.285 131.539 c 170.504 132.148
 170.598 132.82 170.598 133.727 c 170.598 134.664 170.488 135.398 170.238
 135.945 c 170.004 136.508 169.723 136.836 169.082 137.352 c h
169.16 137.508 m f
Q Q
showpage
%%Trailer
end
%%EOF
