<?xml version="1.0" encoding="UTF-8" standalone="no"?>
<svg
   xmlns:dc="http://purl.org/dc/elements/1.1/"
   xmlns:cc="http://creativecommons.org/ns#"
   xmlns:rdf="http://www.w3.org/1999/02/22-rdf-syntax-ns#"
   xmlns:svg="http://www.w3.org/2000/svg"
   xmlns="http://www.w3.org/2000/svg"
   xmlns:xlink="http://www.w3.org/1999/xlink"
   id="svg65"
   version="1.2"
   viewBox="0 0 113.09025 114.77423"
   height="114.77423pt"
   width="113.09025pt">
  <title
     id="title876">example diagram of electrical work versus electric current</title>
  <metadata
     id="metadata69">
    <rdf:RDF>
      <cc:Work
         rdf:about="">
        <dc:format>image/svg+xml</dc:format>
        <dc:type
           rdf:resource="http://purl.org/dc/dcmitype/StillImage" />
        <dc:title>example diagram of electrical work versus electric current</dc:title>
        <cc:license
           rdf:resource="http://creativecommons.org/licenses/by-sa/4.0/" />
        <dc:date>2021-05-03</dc:date>
        <dc:creator>
          <cc:Agent>
            <dc:title>Sandoval, Steven Baltakatei</dc:title>
          </cc:Agent>
        </dc:creator>
        <dc:source>https://gitlab.com/baltakatei/bk-2021-07-1</dc:source>
        <dc:relation>Thermodynamics and Chemistry 2nd Edition, Version 10, by Howard DeVoe, http://www2.chem.umd.edu/thermobook/</dc:relation>
        <dc:language>en</dc:language>
        <dc:rights>
          <cc:Agent>
            <dc:title>This work &quot;example diagram of electrical work versus electric current&quot; is a derivative of &quot;03-SUP/rates-el.eps&quot; by Howard DeVoe, used under CC BY 4.0. &quot;example diagram of electrical work versus electric current&quot; is licensed under CC BY-SA 4.0 by Steven Baltakatei Sandoval.</dc:title>
          </cc:Agent>
        </dc:rights>
        <dc:description>Work of electrical heating with a fixed magnitude of Q_sys as a function of the electric current I=d_bar*Q_sys/d*t. The open circle indicates the limit of infinite slowness.</dc:description>
      </cc:Work>
      <cc:License
         rdf:about="http://creativecommons.org/licenses/by-sa/4.0/">
        <cc:permits
           rdf:resource="http://creativecommons.org/ns#Reproduction" />
        <cc:permits
           rdf:resource="http://creativecommons.org/ns#Distribution" />
        <cc:requires
           rdf:resource="http://creativecommons.org/ns#Notice" />
        <cc:requires
           rdf:resource="http://creativecommons.org/ns#Attribution" />
        <cc:permits
           rdf:resource="http://creativecommons.org/ns#DerivativeWorks" />
        <cc:requires
           rdf:resource="http://creativecommons.org/ns#ShareAlike" />
      </cc:License>
    </rdf:RDF>
  </metadata>
  <defs
     id="defs28">
    <g
       id="g26">
      <symbol
         style="overflow:visible"
         id="glyph0-0"
         overflow="visible">
        <path
           id="path2"
           d=""
           style="stroke:none" />
      </symbol>
      <symbol
         style="overflow:visible"
         id="glyph0-1"
         overflow="visible">
        <path
           id="path5"
           d="M 4.375,-6.046875 H 2.046875 l -0.03125,0.140625 c 0.296875,0 0.6875,0.03125 0.6875,0.4375 0,0.125 -0.03125,0.265625 -0.125,0.59375 l -1.0625,3.828125 C 1.265625,-0.140625 0.9375,-0.15625 0.59375,-0.15625 L 0.5625,0 h 2.359375 l 0.03125,-0.15625 c -0.328125,0 -0.671875,0.015625 -0.671875,-0.40625 0,-0.125 0.03125,-0.28125 0.09375,-0.484375 L 3.484375,-5 C 3.671875,-5.65625 3.9375,-5.90625 4.34375,-5.90625 Z m 0,0"
           style="stroke:none" />
      </symbol>
      <symbol
         style="overflow:visible"
         id="glyph0-2"
         overflow="visible">
        <path
           id="path8"
           d="m 6.15625,-3.15625 c 0,-0.453125 -0.0625,-0.9375 -0.46875,-0.9375 -0.171875,0 -0.375,0.109375 -0.375,0.359375 0,0.375 0.5,0.203125 0.5,0.984375 0,1.015625 -0.765625,2.609375 -1.546875,2.609375 -0.375,0 -0.546875,-0.3125 -0.546875,-0.734375 0,-0.140625 0.046875,-0.453125 0.078125,-0.609375 L 4.390625,-4.09375 H 3.65625 l -0.546875,2.546875 c -0.21875,0.984375 -0.640625,1.40625 -0.96875,1.40625 -0.25,0 -0.453125,-0.25 -0.453125,-0.71875 0,-0.65625 0.421875,-1.90625 0.421875,-2.390625 0,-0.5625 -0.375,-0.84375 -0.734375,-0.84375 -0.515625,0 -0.765625,0.46875 -0.765625,0.78125 0,0.078125 0.015625,0.171875 0.0625,0.234375 h 0.09375 c 0,-0.03125 0,-0.046875 0,-0.0625 0,-0.171875 0.0625,-0.546875 0.40625,-0.546875 0.140625,0 0.25,0.109375 0.25,0.453125 C 1.421875,-2.921875 1,-1.5 1,-0.96875 c 0,0.703125 0.5625,1.078125 1.015625,1.078125 0.5625,0 1.09375,-0.421875 1.28125,-0.890625 0.046875,0.5625 0.390625,0.890625 0.96875,0.890625 1.09375,0 1.890625,-2.046875 1.890625,-3.265625 z m 0,0"
           style="stroke:none" />
      </symbol>
      <symbol
         style="overflow:visible"
         id="glyph1-0"
         overflow="visible">
        <path
           id="path11"
           d=""
           style="stroke:none" />
      </symbol>
      <symbol
         style="overflow:visible"
         id="glyph1-1"
         overflow="visible">
        <path
           id="path14"
           d="m 2.84375,-1.140625 c -0.328125,0.53125 -0.640625,0.734375 -1.078125,0.734375 -0.40625,0 -0.703125,-0.203125 -0.90625,-0.609375 C 0.734375,-1.28125 0.6875,-1.5 0.671875,-1.9375 h 2.15625 c -0.0625,-0.453125 -0.125,-0.640625 -0.3125,-0.875 C 2.3125,-3.0625 2,-3.203125 1.625,-3.203125 c -0.34375,0 -0.671875,0.125 -0.9375,0.359375 -0.328125,0.28125 -0.515625,0.78125 -0.515625,1.359375 0,0.953125 0.5,1.546875 1.3125,1.546875 0.65625,0 1.171875,-0.40625 1.46875,-1.15625 z M 0.6875,-2.15625 C 0.765625,-2.703125 1,-2.953125 1.421875,-2.953125 c 0.4375,0 0.59375,0.1875 0.6875,0.796875 z m 0,0"
           style="stroke:none" />
      </symbol>
      <symbol
         style="overflow:visible"
         id="glyph1-2"
         overflow="visible">
        <path
           id="path17"
           d="m 0.140625,0 h 1.65625 V -0.109375 C 1.359375,-0.125 1.28125,-0.1875 1.265625,-0.578125 V -4.75 l -0.03125,-0.015625 c -0.34375,0.125 -0.609375,0.1875 -1.109375,0.3125 v 0.109375 h 0.046875 c 0.078125,0 0.15625,-0.015625 0.21875,-0.015625 0.21875,0 0.296875,0.09375 0.296875,0.421875 v 3.328125 c -0.015625,0.375 -0.109375,0.484375 -0.546875,0.5 z m 0,0"
           style="stroke:none" />
      </symbol>
      <symbol
         style="overflow:visible"
         id="glyph2-0"
         overflow="visible">
        <path
           id="path20"
           d="M 1.847656,0 C 1.847656,-1.019531 1.019531,-1.847656 0,-1.847656 -1.019531,-1.847656 -1.847656,-1.019531 -1.847656,0 -1.847656,1.019531 -1.019531,1.847656 0,1.847656 1.019531,1.847656 1.847656,1.019531 1.847656,0"
           style="stroke:none" />
      </symbol>
      <symbol
         style="overflow:visible"
         id="glyph2-1"
         overflow="visible">
        <path
           id="path23"
           d="m 1.847656,0 c 0,-1.019531 -0.828125,-1.847656 -1.847656,-1.847656 -1.019531,0 -1.847656,0.828125 -1.847656,1.847656 0,1.019531 0.828125,1.847656 1.847656,1.847656 1.019531,0 1.847656,-0.828125 1.847656,-1.847656 z m 0,0 h -0.1875 c 0,-0.917969 -0.742187,-1.660156 -1.660156,-1.660156 -0.917969,0 -1.660156,0.742187 -1.660156,1.660156 0,0.917969 0.742187,1.660156 1.660156,1.660156 0.917969,0 1.660156,-0.742187 1.660156,-1.660156"
           style="stroke:none" />
      </symbol>
    </g>
  </defs>
  <g
     transform="translate(-138.44476,-105.02655)"
     id="surface661">
    <path
       id="path30"
       d="m 192.45312,128.04297 -1.17187,-3.28125 -1.17188,3.28125 1.17188,-1.3125"
       style="fill:#000000;fill-opacity:1;fill-rule:nonzero;stroke:none" />
    <path
       id="path32"
       transform="matrix(0.1,0,0,-0.1,0,792)"
       d="m 1912.8125,5821.9922 v 830.7031"
       style="fill:none;stroke:#000000;stroke-width:4.25176001;stroke-linecap:butt;stroke-linejoin:miter;stroke-miterlimit:10;stroke-opacity:1" />
    <path
       id="path34"
       d="m 230.51562,168.45312 3.28516,-1.17187 -3.28516,-1.17578 1.3125,1.17578"
       style="fill:#000000;fill-opacity:1;fill-rule:nonzero;stroke:none" />
    <path
       id="path36"
       transform="matrix(0.1,0,0,-0.1,0,792)"
       d="m 1487.6172,6247.1875 h 830.6641"
       style="fill:none;stroke:#000000;stroke-width:4.25176001;stroke-linecap:butt;stroke-linejoin:miter;stroke-miterlimit:10;stroke-opacity:1" />
    <g
       id="g40"
       style="fill:#000000;fill-opacity:1">
      <use
         height="100%"
         width="100%"
         id="use38"
         y="170.39999"
         x="237.16"
         xlink:href="#glyph0-1" />
    </g>
    <g
       id="g44"
       style="fill:#000000;fill-opacity:1">
      <use
         height="100%"
         width="100%"
         id="use42"
         y="119.1203"
         x="185.16"
         xlink:href="#glyph0-2" />
    </g>
    <g
       id="g48"
       style="fill:#000000;fill-opacity:1">
      <use
         height="100%"
         width="100%"
         id="use46"
         y="121.28046"
         x="191.75999"
         xlink:href="#glyph1-1" />
    </g>
    <g
       id="g52"
       style="fill:#000000;fill-opacity:1">
      <use
         height="100%"
         width="100%"
         id="use50"
         y="121.28046"
         x="194.88"
         xlink:href="#glyph1-2" />
    </g>
    <path
       id="path54"
       transform="matrix(0.1,0,0,-0.1,0,792)"
       d="m 1487.6172,6459.8047 425.1953,-212.6172 425.1953,212.6172"
       style="fill:none;stroke:#000000;stroke-width:14.17389965;stroke-linecap:butt;stroke-linejoin:miter;stroke-miterlimit:10;stroke-opacity:1" />
    <g
       id="g58"
       style="fill:#ffffff;fill-opacity:1">
      <use
         height="100%"
         width="100%"
         id="use56"
         y="167.25"
         x="191.25"
         xlink:href="#glyph2-0" />
    </g>
    <g
       id="g62"
       style="fill:#000000;fill-opacity:1">
      <use
         height="100%"
         width="100%"
         id="use60"
         y="167.25"
         x="191.25"
         xlink:href="#glyph2-1" />
    </g>
  </g>
</svg>
