%!PS-Adobe-3.0 EPSF-3.0
%%Creator: cairo 1.16.0 (https://cairographics.org)
%%CreationDate: Mon May  3 04:22:35 2021
%%Pages: 1
%%DocumentData: Clean7Bit
%%LanguageLevel: 2
%%BoundingBox: 10 10 128 104
%%EndComments
%%BeginProlog
50 dict begin
/q { gsave } bind def
/Q { grestore } bind def
/cm { 6 array astore concat } bind def
/w { setlinewidth } bind def
/J { setlinecap } bind def
/j { setlinejoin } bind def
/M { setmiterlimit } bind def
/d { setdash } bind def
/m { moveto } bind def
/l { lineto } bind def
/c { curveto } bind def
/h { closepath } bind def
/re { exch dup neg 3 1 roll 5 3 roll moveto 0 rlineto
      0 exch rlineto 0 rlineto closepath } bind def
/S { stroke } bind def
/f { fill } bind def
/f* { eofill } bind def
/n { newpath } bind def
/W { clip } bind def
/W* { eoclip } bind def
/BT { } bind def
/ET { } bind def
/BDC { mark 3 1 roll /BDC pdfmark } bind def
/EMC { mark /EMC pdfmark } bind def
/cairo_store_point { /cairo_point_y exch def /cairo_point_x exch def } def
/Tj { show currentpoint cairo_store_point } bind def
/TJ {
  {
    dup
    type /stringtype eq
    { show } { -0.001 mul 0 cairo_font_matrix dtransform rmoveto } ifelse
  } forall
  currentpoint cairo_store_point
} bind def
/cairo_selectfont { cairo_font_matrix aload pop pop pop 0 0 6 array astore
    cairo_font exch selectfont cairo_point_x cairo_point_y moveto } bind def
/Tf { pop /cairo_font exch def /cairo_font_matrix where
      { pop cairo_selectfont } if } bind def
/Td { matrix translate cairo_font_matrix matrix concatmatrix dup
      /cairo_font_matrix exch def dup 4 get exch 5 get cairo_store_point
      /cairo_font where { pop cairo_selectfont } if } bind def
/Tm { 2 copy 8 2 roll 6 array astore /cairo_font_matrix exch def
      cairo_store_point /cairo_font where { pop cairo_selectfont } if } bind def
/g { setgray } bind def
/rg { setrgbcolor } bind def
/d1 { setcachedevice } bind def
/cairo_data_source {
  CairoDataIndex CairoData length lt
    { CairoData CairoDataIndex get /CairoDataIndex CairoDataIndex 1 add def }
    { () } ifelse
} def
/cairo_flush_ascii85_file { cairo_ascii85_file status { cairo_ascii85_file flushfile } if } def
/cairo_image { image cairo_flush_ascii85_file } def
/cairo_imagemask { imagemask cairo_flush_ascii85_file } def
%%EndProlog
%%BeginSetup
%%EndSetup
%%Page: 1 1
%%BeginPageSetup
%%PageBoundingBox: 10 10 128 104
%%EndPageSetup
q 10 10 118 94 rectclip
1 0 0 -1 0 114 cm q
0 g
54.582 21.488 m 53.41 18.207 l 52.238 21.488 l 53.41 20.176 l f
0.425176 w
0 J
0 j
[] 0.0 d
10 M q 1 0 0 -1 0 0 cm
53.41 -103.246 m 53.41 -20.176 l S Q
92.645 61.898 m 95.93 60.727 l 92.645 59.551 l 93.957 60.727 l f
q 1 0 0 -1 0 0 cm
10.891 -60.727 m 93.957 -60.727 l S Q
102.195 65.047 m 100.836 60.875 l 102.195 56.688 l 101.648 56.688 l 100.289
 60.875 l 101.648 65.047 l h
102.195 65.047 m f
107.055 62.488 m 106.93 62.488 106.883 62.488 106.852 62.488 c 106.539 
62.488 106.445 62.395 106.445 61.988 c 106.445 56.895 l 106.414 56.879 l
 105.992 57.02 105.68 57.113 105.086 57.27 c 105.086 57.41 l 105.164 57.41
 105.211 57.41 105.289 57.41 c 105.617 57.41 105.695 57.504 105.695 57.863
 c 105.695 59.27 l 105.352 58.973 105.117 58.879 104.758 58.879 c 103.727
 58.879 102.883 59.895 102.883 61.16 c 102.883 62.316 103.555 63.098 104.555
 63.098 c 105.055 63.098 105.398 62.91 105.695 62.488 c 105.695 63.066 l
 105.727 63.098 l 107.055 62.629 l h
105.695 62.082 m 105.695 62.145 105.633 62.254 105.539 62.363 c 105.398
 62.535 105.164 62.629 104.898 62.629 c 104.148 62.629 103.664 61.91 103.664
 60.801 c 103.664 59.801 104.102 59.129 104.789 59.129 c 105.273 59.129 
105.695 59.551 105.695 60.02 c h
105.695 62.082 m f
113.695 57.098 m 113.695 56.957 l 111.977 56.957 l 111.977 57.098 l 112.164
 57.098 112.477 57.176 112.477 57.426 c 112.477 57.645 112.258 58.004 112.133
 58.191 c 109.742 61.707 l 109.57 57.785 l 109.539 57.223 109.852 57.098
 110.336 57.098 c 110.336 56.957 l 108.023 56.957 l 108.023 57.098 l 108.633
 57.098 108.68 57.379 108.758 58.113 c 108.961 63.145 l 109.117 63.145 l
 112.742 57.816 l 112.914 57.598 113.305 57.098 113.695 57.098 c h
113.695 57.098 m f
116.754 56.566 m 116.316 56.566 l 113.207 64.926 l 113.66 64.926 l h
116.754 56.566 m f
121.691 62.488 m 121.566 62.488 121.52 62.488 121.488 62.488 c 121.176 
62.488 121.082 62.395 121.082 61.988 c 121.082 56.895 l 121.051 56.879 l
 120.629 57.02 120.316 57.113 119.723 57.27 c 119.723 57.41 l 119.801 57.41
 119.848 57.41 119.926 57.41 c 120.254 57.41 120.332 57.504 120.332 57.863
 c 120.332 59.27 l 119.988 58.973 119.754 58.879 119.395 58.879 c 118.363
 58.879 117.52 59.895 117.52 61.16 c 117.52 62.316 118.191 63.098 119.191
 63.098 c 119.691 63.098 120.035 62.91 120.332 62.488 c 120.332 63.066 l
 120.363 63.098 l 121.691 62.629 l h
120.332 62.082 m 120.332 62.145 120.27 62.254 120.176 62.363 c 120.035 
62.535 119.801 62.629 119.535 62.629 c 118.785 62.629 118.301 61.91 118.301
 60.801 c 118.301 59.801 118.738 59.129 119.426 59.129 c 119.91 59.129 120.332
 59.551 120.332 60.02 c h
120.332 62.082 m f
124.352 58.988 m 123.68 58.988 l 123.977 57.91 l 123.836 57.91 l 123.414
 58.535 122.914 58.957 122.305 59.098 c 122.258 59.285 l 122.93 59.285 l
 122.195 61.988 l 122.164 62.176 122.055 62.535 122.055 62.676 c 122.055
 63.02 122.305 63.113 122.477 63.113 c 122.867 63.113 123.289 62.816 123.758
 62.066 c 123.633 62.004 l 123.398 62.27 123.117 62.676 122.898 62.676 c
 122.773 62.676 122.742 62.598 122.742 62.535 c 122.742 62.473 122.758 62.426
 122.789 62.285 c 123.602 59.285 l 124.305 59.285 l h
124.352 58.988 m f
127.613 60.875 m 126.254 56.688 l 125.707 56.688 l 127.066 60.875 l 125.707
 65.047 l 126.254 65.047 l h
127.613 60.875 m f
56.082 11.688 m 56.082 11.234 56.02 10.75 55.613 10.75 c 55.441 10.75 55.238
 10.859 55.238 11.109 c 55.238 11.484 55.738 11.312 55.738 12.094 c 55.738
 13.109 54.973 14.703 54.191 14.703 c 53.816 14.703 53.645 14.391 53.645
 13.969 c 53.645 13.828 53.691 13.516 53.723 13.359 c 54.316 10.75 l 53.582
 10.75 l 53.035 13.297 l 52.816 14.281 52.395 14.703 52.066 14.703 c 51.816
 14.703 51.613 14.453 51.613 13.984 c 51.613 13.328 52.035 12.078 52.035
 11.594 c 52.035 11.031 51.66 10.75 51.301 10.75 c 50.785 10.75 50.535 11.219
 50.535 11.531 c 50.535 11.609 50.551 11.703 50.598 11.766 c 50.691 11.766
 l 50.691 11.734 50.691 11.719 50.691 11.703 c 50.691 11.531 50.754 11.156
 51.098 11.156 c 51.238 11.156 51.348 11.266 51.348 11.609 c 51.348 11.922
 50.926 13.344 50.926 13.875 c 50.926 14.578 51.488 14.953 51.941 14.953
 c 52.504 14.953 53.035 14.531 53.223 14.062 c 53.27 14.625 53.613 14.953
 54.191 14.953 c 55.285 14.953 56.082 12.906 56.082 11.688 c h
56.082 11.688 m f
1.41739 w
q 1 0 0 -1 0 0 cm
53.41 -35.215 m 10.891 -26.711 l S Q
q 1 0 0 -1 0 0 cm
53.41 -86.238 m 95.93 -77.73 l S Q
1 g
55.227 35.195 m 55.227 34.176 54.398 33.348 53.379 33.348 c 52.359 33.348
 51.531 34.176 51.531 35.195 c 51.531 36.215 52.359 37.043 53.379 37.043
 c 54.398 37.043 55.227 36.215 55.227 35.195 c f
0 g
55.227 35.195 m 55.227 34.176 54.398 33.348 53.379 33.348 c 52.359 33.348
 51.531 34.176 51.531 35.195 c 51.531 36.215 52.359 37.043 53.379 37.043
 c 54.398 37.043 55.227 36.215 55.227 35.195 c h
55.227 35.195 m 55.039 35.195 l 55.039 34.277 54.297 33.535 53.379 33.535
 c 52.461 33.535 51.719 34.277 51.719 35.195 c 51.719 36.113 52.461 36.855
 53.379 36.855 c 54.297 36.855 55.039 36.113 55.039 35.195 c f
1 g
55.227 86.195 m 55.227 85.176 54.398 84.348 53.379 84.348 c 52.359 84.348
 51.531 85.176 51.531 86.195 c 51.531 87.215 52.359 88.043 53.379 88.043
 c 54.398 88.043 55.227 87.215 55.227 86.195 c f
0 g
55.227 86.195 m 55.227 85.176 54.398 84.348 53.379 84.348 c 52.359 84.348
 51.531 85.176 51.531 86.195 c 51.531 87.215 52.359 88.043 53.379 88.043
 c 54.398 88.043 55.227 87.215 55.227 86.195 c h
55.227 86.195 m 55.039 86.195 l 55.039 85.277 54.297 84.535 53.379 84.535
 c 52.461 84.535 51.719 85.277 51.719 86.195 c 51.719 87.113 52.461 87.855
 53.379 87.855 c 54.297 87.855 55.039 87.113 55.039 86.195 c f
14.059 42.262 m 13.668 42.824 13.387 43.012 12.934 43.012 c 12.199 43.012
 11.699 42.387 11.699 41.465 c 11.699 40.637 12.137 40.074 12.777 40.074
 c 13.074 40.074 13.168 40.152 13.246 40.465 c 13.309 40.637 l 13.371 40.871
 13.512 40.996 13.684 40.996 c 13.887 40.996 14.059 40.855 14.059 40.668
 c 14.059 40.215 13.496 39.84 12.824 39.84 c 12.434 39.84 12.027 40.012 
11.715 40.293 c 11.309 40.637 11.09 41.184 11.09 41.824 c 11.09 42.855 11.715
 43.59 12.605 43.59 c 12.965 43.59 13.277 43.465 13.559 43.215 c 13.777 
43.027 13.934 42.809 14.168 42.34 c h
14.059 42.262 m f
16.352 39.84 m 15.32 39.84 14.602 40.605 14.602 41.715 c 14.602 42.793 
15.336 43.59 16.336 43.59 c 17.352 43.59 18.117 42.762 18.117 41.652 c 18.117
 40.59 17.383 39.84 16.352 39.84 c h
16.258 40.074 m 16.93 40.074 17.398 40.84 17.398 41.934 c 17.398 42.84 
17.039 43.371 16.445 43.371 c 16.133 43.371 15.836 43.184 15.664 42.855 
c 15.445 42.449 15.32 41.887 15.32 41.324 c 15.32 40.559 15.68 40.074 16.258
 40.074 c h
16.258 40.074 m f
18.453 43.512 m 20.219 43.512 l 20.219 43.387 l 19.812 43.387 19.688 43.293
 19.688 42.98 c 19.688 40.73 l 19.688 40.715 19.75 40.637 19.797 40.574 
c 20 40.402 20.344 40.262 20.625 40.262 c 20.969 40.262 21.156 40.543 21.156
 41.09 c 21.156 42.824 l 21.141 43.277 21.047 43.371 20.609 43.387 c 20.609
 43.512 l 22.391 43.512 l 22.391 43.387 l 21.953 43.387 21.828 43.262 21.812
 42.762 c 21.812 40.746 l 22.062 40.402 22.312 40.262 22.688 40.262 c 23.141
 40.262 23.281 40.48 23.281 41.137 c 23.281 42.824 l 23.266 43.293 23.219
 43.34 22.766 43.387 c 22.766 43.512 l 24.5 43.512 l 24.5 43.387 l 24.297
 43.371 l 24.047 43.34 23.953 43.215 23.953 42.902 c 23.953 41.262 l 23.953
 40.324 23.641 39.84 23.031 39.84 c 22.562 39.84 22.156 40.059 21.734 40.512
 c 21.594 40.059 21.312 39.84 20.891 39.84 c 20.531 39.84 20.312 39.949 
19.656 40.465 c 19.656 39.855 l 19.594 39.84 l 19.172 39.996 18.906 40.09
 18.484 40.199 c 18.484 40.34 l 18.578 40.309 18.641 40.309 18.734 40.309
 c 18.938 40.309 19.016 40.434 19.016 40.824 c 19.016 42.84 l 19 43.277 
18.891 43.387 18.453 43.387 c h
18.453 43.512 m f
24.613 45.246 m 26.535 45.246 l 26.535 45.09 l 25.941 45.09 25.848 45.012
 25.832 44.496 c 25.832 43.246 l 26.113 43.512 26.301 43.59 26.645 43.59
 c 27.582 43.59 28.316 42.699 28.316 41.543 c 28.316 40.559 27.754 39.84
 26.988 39.84 c 26.535 39.84 26.191 40.043 25.832 40.48 c 25.832 39.855 
l 25.785 39.84 l 25.348 40.012 25.082 40.121 24.645 40.246 c 24.645 40.387
 l 24.707 40.371 24.754 40.371 24.832 40.371 c 25.113 40.371 25.16 40.449
 25.16 40.824 c 25.16 44.559 l 25.16 44.98 25.082 45.059 24.613 45.105 c
 h
25.832 40.855 m 25.832 40.605 26.285 40.324 26.645 40.324 c 27.238 40.324
 27.629 40.934 27.629 41.855 c 27.629 42.746 27.238 43.34 26.66 43.34 c 
26.285 43.34 25.832 43.043 25.832 42.809 c h
25.832 40.855 m f
28.574 43.512 m 30.48 43.512 l 30.48 43.387 l 29.949 43.371 29.824 43.262
 29.809 42.793 c 29.809 40.996 l 29.809 40.746 30.137 40.355 30.355 40.355
 c 30.402 40.355 30.48 40.387 30.574 40.465 c 30.684 40.59 30.777 40.621
 30.887 40.621 c 31.074 40.621 31.199 40.496 31.199 40.262 c 31.199 40.012
 31.027 39.84 30.762 39.84 c 30.418 39.84 30.199 40.027 29.809 40.59 c 29.809
 39.855 l 29.762 39.84 l 29.309 40.027 29.027 40.137 28.59 40.277 c 28.59
 40.402 l 28.699 40.387 28.762 40.371 28.855 40.371 c 29.059 40.371 29.137
 40.496 29.137 40.855 c 29.137 42.84 l 29.121 43.262 29.074 43.309 28.574
 43.387 c h
28.574 43.512 m f
34.418 42.199 m 34.043 42.809 33.699 43.043 33.184 43.043 c 32.73 43.043
 32.387 42.809 32.152 42.355 c 32.012 42.059 31.949 41.793 31.934 41.309
 c 34.402 41.309 l 34.324 40.793 34.246 40.559 34.059 40.293 c 33.809 40.012
 33.449 39.84 33.027 39.84 c 32.637 39.84 32.262 39.996 31.949 40.262 c 
31.59 40.59 31.371 41.152 31.371 41.809 c 31.371 42.902 31.934 43.59 32.855
 43.59 c 33.621 43.59 34.215 43.121 34.543 42.262 c h
31.949 41.043 m 32.043 40.434 32.309 40.137 32.809 40.137 c 33.293 40.137
 33.48 40.355 33.59 41.043 c h
31.949 41.043 m f
37.164 41.012 m 37.133 39.918 l 37.039 39.918 l 36.992 39.98 36.961 40.012
 36.914 40.012 c 36.867 40.012 36.789 39.996 36.695 39.949 c 36.508 39.887
 36.336 39.84 36.133 39.84 c 35.508 39.84 35.055 40.262 35.055 40.84 c 35.055
 41.277 35.305 41.605 35.992 41.98 c 36.445 42.246 l 36.727 42.402 36.867
 42.59 36.867 42.84 c 36.867 43.199 36.602 43.418 36.195 43.418 c 35.648
 43.418 35.367 43.121 35.195 42.293 c 35.07 42.293 l 35.07 43.543 l 35.164
 43.543 l 35.227 43.465 35.258 43.449 35.352 43.449 c 35.43 43.449 35.539
 43.465 35.711 43.512 c 35.93 43.559 36.133 43.59 36.305 43.59 c 36.914 
43.59 37.414 43.137 37.414 42.574 c 37.414 42.168 37.227 41.902 36.758 41.621
 c 35.898 41.105 l 35.664 40.98 35.555 40.793 35.555 40.574 c 35.555 40.246
 35.789 40.027 36.164 40.027 c 36.617 40.027 36.852 40.293 37.039 41.012
 c h
37.164 41.012 m f
40.281 41.012 m 40.25 39.918 l 40.156 39.918 l 40.109 39.98 40.078 40.012
 40.031 40.012 c 39.984 40.012 39.906 39.996 39.812 39.949 c 39.625 39.887
 39.453 39.84 39.25 39.84 c 38.625 39.84 38.172 40.262 38.172 40.84 c 38.172
 41.277 38.422 41.605 39.109 41.98 c 39.562 42.246 l 39.844 42.402 39.984
 42.59 39.984 42.84 c 39.984 43.199 39.719 43.418 39.312 43.418 c 38.766
 43.418 38.484 43.121 38.312 42.293 c 38.188 42.293 l 38.188 43.543 l 38.281
 43.543 l 38.344 43.465 38.375 43.449 38.469 43.449 c 38.547 43.449 38.656
 43.465 38.828 43.512 c 39.047 43.559 39.25 43.59 39.422 43.59 c 40.031 
43.59 40.531 43.137 40.531 42.574 c 40.531 42.168 40.344 41.902 39.875 41.621
 c 39.016 41.105 l 38.781 40.98 38.672 40.793 38.672 40.574 c 38.672 40.246
 38.906 40.027 39.281 40.027 c 39.734 40.027 39.969 40.293 40.156 41.012
 c h
40.281 41.012 m f
41.012 43.512 m 42.902 43.512 l 42.902 43.387 l 42.371 43.355 42.324 43.277
 42.309 42.699 c 42.309 39.871 l 42.277 39.84 l 41.043 40.277 l 41.043 40.402
 l 41.105 40.402 l 41.199 40.387 41.309 40.371 41.387 40.371 c 41.574 40.371
 41.637 40.496 41.637 40.855 c 41.637 42.699 l 41.621 43.293 41.559 43.371
 41.012 43.387 c h
41.902 38.074 m 41.699 38.074 41.512 38.246 41.512 38.48 c 41.512 38.699
 41.684 38.887 41.902 38.887 c 42.152 38.887 42.324 38.699 42.324 38.48 
c 42.324 38.246 42.137 38.074 41.902 38.074 c h
41.902 38.074 m f
45.031 39.84 m 44 39.84 43.281 40.605 43.281 41.715 c 43.281 42.793 44.016
 43.59 45.016 43.59 c 46.031 43.59 46.797 42.762 46.797 41.652 c 46.797 
40.59 46.062 39.84 45.031 39.84 c h
44.938 40.074 m 45.609 40.074 46.078 40.84 46.078 41.934 c 46.078 42.84
 45.719 43.371 45.125 43.371 c 44.812 43.371 44.516 43.184 44.344 42.855
 c 44.125 42.449 44 41.887 44 41.324 c 44 40.559 44.359 40.074 44.938 40.074
 c h
44.938 40.074 m f
47.148 43.512 m 48.836 43.512 l 48.836 43.387 l 48.445 43.371 48.32 43.262
 48.32 42.98 c 48.32 40.746 l 48.695 40.387 48.867 40.277 49.133 40.277 
c 49.523 40.277 49.711 40.527 49.711 41.059 c 49.711 42.73 l 49.695 43.246
 49.602 43.371 49.211 43.387 c 49.211 43.512 l 50.867 43.512 l 50.867 43.387
 l 50.477 43.355 50.398 43.262 50.383 42.871 c 50.383 41.043 l 50.383 40.293
 50.039 39.84 49.445 39.84 c 49.086 39.84 48.836 39.98 48.289 40.496 c 48.289
 39.855 l 48.242 39.84 l 47.82 39.996 47.555 40.09 47.133 40.199 c 47.133
 40.34 l 47.195 40.309 47.258 40.309 47.352 40.309 c 47.57 40.309 47.648
 40.434 47.648 40.824 c 47.648 42.793 l 47.633 43.262 47.555 43.371 47.148
 43.387 c h
47.148 43.512 m f
62.184 91.945 m 61.809 92.555 61.465 92.789 60.949 92.789 c 60.496 92.789
 60.152 92.555 59.918 92.102 c 59.777 91.805 59.715 91.539 59.699 91.055
 c 62.168 91.055 l 62.09 90.539 62.012 90.305 61.824 90.039 c 61.574 89.758
 61.215 89.586 60.793 89.586 c 60.402 89.586 60.027 89.742 59.715 90.008
 c 59.355 90.336 59.137 90.898 59.137 91.555 c 59.137 92.648 59.699 93.336
 60.621 93.336 c 61.387 93.336 61.98 92.867 62.309 92.008 c h
59.715 90.789 m 59.809 90.18 60.074 89.883 60.574 89.883 c 61.059 89.883
 61.246 90.102 61.355 90.789 c h
59.715 90.789 m f
64.516 93.258 m 66.109 93.258 l 66.109 93.133 l 65.859 93.133 65.703 93.008
 65.453 92.664 c 64.438 91.102 l 65.109 90.148 l 65.25 89.93 65.484 89.805
 65.75 89.789 c 65.75 89.68 l 64.484 89.68 l 64.484 89.789 l 64.734 89.805
 64.812 89.852 64.812 89.961 c 64.812 90.055 64.719 90.242 64.516 90.492
 c 64.469 90.539 64.375 90.68 64.266 90.836 c 64.203 90.742 l 64.094 90.555
 64.016 90.445 64 90.414 c 63.844 90.18 63.797 90.039 63.797 89.961 c 63.797
 89.852 63.906 89.805 64.141 89.789 c 64.141 89.68 l 62.484 89.68 l 62.484
 89.789 l 62.562 89.789 l 62.797 89.789 62.922 89.898 63.172 90.273 c 63.922
 91.414 l 63.016 92.727 l 62.781 93.055 62.688 93.117 62.438 93.133 c 62.438
 93.258 l 63.594 93.258 l 63.594 93.133 l 63.359 93.133 63.266 93.102 63.266
 92.992 c 63.266 92.945 63.312 92.836 63.422 92.664 c 64.062 91.695 l 64.781
 92.805 l 64.812 92.852 64.828 92.898 64.828 92.945 c 64.828 93.086 64.781
 93.117 64.516 93.133 c h
64.516 93.258 m f
66.301 94.992 m 68.223 94.992 l 68.223 94.836 l 67.629 94.836 67.535 94.758
 67.52 94.242 c 67.52 92.992 l 67.801 93.258 67.988 93.336 68.332 93.336
 c 69.27 93.336 70.004 92.445 70.004 91.289 c 70.004 90.305 69.441 89.586
 68.676 89.586 c 68.223 89.586 67.879 89.789 67.52 90.227 c 67.52 89.602
 l 67.473 89.586 l 67.035 89.758 66.77 89.867 66.332 89.992 c 66.332 90.133
 l 66.395 90.117 66.441 90.117 66.52 90.117 c 66.801 90.117 66.848 90.195
 66.848 90.57 c 66.848 94.305 l 66.848 94.727 66.77 94.805 66.301 94.852
 c h
67.52 90.602 m 67.52 90.352 67.973 90.07 68.332 90.07 c 68.926 90.07 69.316
 90.68 69.316 91.602 c 69.316 92.492 68.926 93.086 68.348 93.086 c 67.973
 93.086 67.52 92.789 67.52 92.555 c h
67.52 90.602 m f
73.73 92.727 m 73.605 92.836 73.512 92.883 73.387 92.883 c 73.199 92.883
 73.152 92.773 73.152 92.414 c 73.152 90.867 l 73.152 90.445 73.105 90.227
 72.98 90.023 c 72.809 89.742 72.465 89.586 71.996 89.586 c 71.246 89.586
 70.668 89.977 70.668 90.492 c 70.668 90.664 70.809 90.82 70.996 90.82 c
 71.199 90.82 71.355 90.664 71.355 90.492 c 71.355 90.461 71.355 90.414 
71.34 90.367 c 71.324 90.289 71.324 90.227 71.324 90.18 c 71.324 89.961 
71.574 89.789 71.902 89.789 c 72.293 89.789 72.496 90.008 72.496 90.445 
c 72.496 90.93 l 71.277 91.414 71.137 91.492 70.793 91.789 c 70.621 91.945
 70.512 92.227 70.512 92.492 c 70.512 92.992 70.855 93.336 71.34 93.336 
c 71.699 93.336 72.027 93.164 72.512 92.758 c 72.543 93.18 72.699 93.336
 73.027 93.336 c 73.293 93.336 73.465 93.242 73.73 92.945 c h
72.496 92.273 m 72.496 92.523 72.465 92.602 72.293 92.695 c 72.09 92.805
 71.887 92.883 71.715 92.883 c 71.434 92.883 71.215 92.602 71.215 92.258
 c 71.215 92.227 l 71.215 91.758 71.574 91.445 72.496 91.117 c h
72.496 92.273 m f
73.836 93.258 m 75.523 93.258 l 75.523 93.133 l 75.133 93.117 75.008 93.008
 75.008 92.727 c 75.008 90.492 l 75.383 90.133 75.555 90.023 75.82 90.023
 c 76.211 90.023 76.398 90.273 76.398 90.805 c 76.398 92.477 l 76.383 92.992
 76.289 93.117 75.898 93.133 c 75.898 93.258 l 77.555 93.258 l 77.555 93.133
 l 77.164 93.102 77.086 93.008 77.07 92.617 c 77.07 90.789 l 77.07 90.039
 76.727 89.586 76.133 89.586 c 75.773 89.586 75.523 89.727 74.977 90.242
 c 74.977 89.602 l 74.93 89.586 l 74.508 89.742 74.242 89.836 73.82 89.945
 c 73.82 90.086 l 73.883 90.055 73.945 90.055 74.039 90.055 c 74.258 90.055
 74.336 90.18 74.336 90.57 c 74.336 92.539 l 74.32 93.008 74.242 93.117 
73.836 93.133 c h
73.836 93.258 m f
80.172 90.758 m 80.141 89.664 l 80.047 89.664 l 80 89.727 79.969 89.758
 79.922 89.758 c 79.875 89.758 79.797 89.742 79.703 89.695 c 79.516 89.633
 79.344 89.586 79.141 89.586 c 78.516 89.586 78.062 90.008 78.062 90.586
 c 78.062 91.023 78.312 91.352 79 91.727 c 79.453 91.992 l 79.734 92.148
 79.875 92.336 79.875 92.586 c 79.875 92.945 79.609 93.164 79.203 93.164
 c 78.656 93.164 78.375 92.867 78.203 92.039 c 78.078 92.039 l 78.078 93.289
 l 78.172 93.289 l 78.234 93.211 78.266 93.195 78.359 93.195 c 78.438 93.195
 78.547 93.211 78.719 93.258 c 78.938 93.305 79.141 93.336 79.312 93.336
 c 79.922 93.336 80.422 92.883 80.422 92.32 c 80.422 91.914 80.234 91.648
 79.766 91.367 c 78.906 90.852 l 78.672 90.727 78.562 90.539 78.562 90.32
 c 78.562 89.992 78.797 89.773 79.172 89.773 c 79.625 89.773 79.859 90.039
 80.047 90.758 c h
80.172 90.758 m f
80.898 93.258 m 82.789 93.258 l 82.789 93.133 l 82.258 93.102 82.211 93.023
 82.195 92.445 c 82.195 89.617 l 82.164 89.586 l 80.93 90.023 l 80.93 90.148
 l 80.992 90.148 l 81.086 90.133 81.195 90.117 81.273 90.117 c 81.461 90.117
 81.523 90.242 81.523 90.602 c 81.523 92.445 l 81.508 93.039 81.445 93.117
 80.898 93.133 c h
81.789 87.82 m 81.586 87.82 81.398 87.992 81.398 88.227 c 81.398 88.445
 81.57 88.633 81.789 88.633 c 82.039 88.633 82.211 88.445 82.211 88.227 
c 82.211 87.992 82.023 87.82 81.789 87.82 c h
81.789 87.82 m f
84.918 89.586 m 83.887 89.586 83.168 90.352 83.168 91.461 c 83.168 92.539
 83.902 93.336 84.902 93.336 c 85.918 93.336 86.684 92.508 86.684 91.398
 c 86.684 90.336 85.949 89.586 84.918 89.586 c h
84.824 89.82 m 85.496 89.82 85.965 90.586 85.965 91.68 c 85.965 92.586 
85.605 93.117 85.012 93.117 c 84.699 93.117 84.402 92.93 84.23 92.602 c 
84.012 92.195 83.887 91.633 83.887 91.07 c 83.887 90.305 84.246 89.82 84.824
 89.82 c h
84.824 89.82 m f
87.035 93.258 m 88.723 93.258 l 88.723 93.133 l 88.332 93.117 88.207 93.008
 88.207 92.727 c 88.207 90.492 l 88.582 90.133 88.754 90.023 89.02 90.023
 c 89.41 90.023 89.598 90.273 89.598 90.805 c 89.598 92.477 l 89.582 92.992
 89.488 93.117 89.098 93.133 c 89.098 93.258 l 90.754 93.258 l 90.754 93.133
 l 90.363 93.102 90.285 93.008 90.27 92.617 c 90.27 90.789 l 90.27 90.039
 89.926 89.586 89.332 89.586 c 88.973 89.586 88.723 89.727 88.176 90.242
 c 88.176 89.602 l 88.129 89.586 l 87.707 89.742 87.441 89.836 87.02 89.945
 c 87.02 90.086 l 87.082 90.055 87.145 90.055 87.238 90.055 c 87.457 90.055
 87.535 90.18 87.535 90.57 c 87.535 92.539 l 87.52 93.008 87.441 93.117 
87.035 93.133 c h
87.035 93.258 m f
Q Q
showpage
%%Trailer
end
%%EOF
