%!PS-Adobe-3.0 EPSF-3.0
%%Creator: cairo 1.16.0 (https://cairographics.org)
%%CreationDate: Mon May  3 03:48:16 2021
%%Pages: 1
%%DocumentData: Clean7Bit
%%LanguageLevel: 2
%%BoundingBox: 10 11 136 152
%%EndComments
%%BeginProlog
50 dict begin
/q { gsave } bind def
/Q { grestore } bind def
/cm { 6 array astore concat } bind def
/w { setlinewidth } bind def
/J { setlinecap } bind def
/j { setlinejoin } bind def
/M { setmiterlimit } bind def
/d { setdash } bind def
/m { moveto } bind def
/l { lineto } bind def
/c { curveto } bind def
/h { closepath } bind def
/re { exch dup neg 3 1 roll 5 3 roll moveto 0 rlineto
      0 exch rlineto 0 rlineto closepath } bind def
/S { stroke } bind def
/f { fill } bind def
/f* { eofill } bind def
/n { newpath } bind def
/W { clip } bind def
/W* { eoclip } bind def
/BT { } bind def
/ET { } bind def
/BDC { mark 3 1 roll /BDC pdfmark } bind def
/EMC { mark /EMC pdfmark } bind def
/cairo_store_point { /cairo_point_y exch def /cairo_point_x exch def } def
/Tj { show currentpoint cairo_store_point } bind def
/TJ {
  {
    dup
    type /stringtype eq
    { show } { -0.001 mul 0 cairo_font_matrix dtransform rmoveto } ifelse
  } forall
  currentpoint cairo_store_point
} bind def
/cairo_selectfont { cairo_font_matrix aload pop pop pop 0 0 6 array astore
    cairo_font exch selectfont cairo_point_x cairo_point_y moveto } bind def
/Tf { pop /cairo_font exch def /cairo_font_matrix where
      { pop cairo_selectfont } if } bind def
/Td { matrix translate cairo_font_matrix matrix concatmatrix dup
      /cairo_font_matrix exch def dup 4 get exch 5 get cairo_store_point
      /cairo_font where { pop cairo_selectfont } if } bind def
/Tm { 2 copy 8 2 roll 6 array astore /cairo_font_matrix exch def
      cairo_store_point /cairo_font where { pop cairo_selectfont } if } bind def
/g { setgray } bind def
/rg { setrgbcolor } bind def
/d1 { setcachedevice } bind def
/cairo_data_source {
  CairoDataIndex CairoData length lt
    { CairoData CairoDataIndex get /CairoDataIndex CairoDataIndex 1 add def }
    { () } ifelse
} def
/cairo_flush_ascii85_file { cairo_ascii85_file status { cairo_ascii85_file flushfile } if } def
/cairo_image { image cairo_flush_ascii85_file } def
/cairo_imagemask { imagemask cairo_flush_ascii85_file } def
%%EndProlog
%%BeginSetup
%%EndSetup
%%Page: 1 1
%%BeginPageSetup
%%PageBoundingBox: 10 11 136 152
%%EndPageSetup
q 10 11 126 141 rectclip
1 0 0 -1 0 162 cm q
0.74902 0.831373 0.901961 rg
16.078 98.562 m 16.078 148.453 l 112.457 148.453 l 112.457 48.676 l 16.078
 48.676 l f
Q q
112.457 93.453 m 114.156 93.453 l 114.156 148.453 l 112.457 148.453 l h
58.867 148.453 m 114.156 148.453 l 114.156 150.152 l 58.867 150.152 l h
58.867 148.453 m W n
q
58 93 57 58 re W n
  q
0 g
0.283298 w
2 J
0 j
[] 0.0 d
10 M q 1 0 0 -1 0 0 cm
169.219 -97.5 m 63.77 -202.949 l S Q
  Q
Q
Q q
112.457 91.453 m 114.156 91.453 l 114.156 148.453 l 112.457 148.453 l h
57.867 148.453 m 114.156 148.453 l 114.156 150.152 l 57.867 150.152 l h
57.867 148.453 m W n
q
57 91 58 60 re W n
  q
0 g
0.283298 w
2 J
0 j
[] 0.0 d
10 M q 1 0 0 -1 0 0 cm
167.418 -95.699 m 61.973 -201.148 l S Q
  Q
Q
Q q
112.457 89.453 m 114.156 89.453 l 114.156 148.453 l 112.457 148.453 l h
55.867 148.453 m 114.156 148.453 l 114.156 150.152 l 55.867 150.152 l h
55.867 148.453 m W n
q
55 89 60 62 re W n
  q
0 g
0.283298 w
2 J
0 j
[] 0.0 d
10 M q 1 0 0 -1 0 0 cm
165.617 -93.902 m 60.172 -199.348 l S Q
  Q
Q
Q q
112.457 87.453 m 114.156 87.453 l 114.156 148.453 l 112.457 148.453 l h
53.867 148.453 m 114.156 148.453 l 114.156 150.152 l 53.867 150.152 l h
53.867 148.453 m W n
q
53 87 62 64 re W n
  q
0 g
0.283298 w
2 J
0 j
[] 0.0 d
10 M q 1 0 0 -1 0 0 cm
163.816 -92.102 m 58.371 -197.551 l S Q
  Q
Q
Q q
112.457 85.453 m 114.156 85.453 l 114.156 148.453 l 112.457 148.453 l h
51.867 148.453 m 114.156 148.453 l 114.156 150.152 l 51.867 150.152 l h
51.867 148.453 m W n
q
51 85 64 66 re W n
  q
0 g
0.283298 w
2 J
0 j
[] 0.0 d
10 M q 1 0 0 -1 0 0 cm
162.02 -90.301 m 56.57 -195.75 l S Q
  Q
Q
Q q
112.457 84.453 m 114.156 84.453 l 114.156 148.453 l 112.457 148.453 l h
49.867 148.453 m 114.156 148.453 l 114.156 150.152 l 49.867 150.152 l h
49.867 148.453 m W n
q
49 84 66 67 re W n
  q
0 g
0.283298 w
2 J
0 j
[] 0.0 d
10 M q 1 0 0 -1 0 0 cm
160.219 -88.5 m 54.77 -193.949 l S Q
  Q
Q
Q q
112.457 82.453 m 114.156 82.453 l 114.156 148.453 l 112.457 148.453 l h
48.867 148.453 m 114.156 148.453 l 114.156 150.152 l 48.867 150.152 l h
48.867 148.453 m W n
q
48 82 67 69 re W n
  q
0 g
0.283298 w
2 J
0 j
[] 0.0 d
10 M q 1 0 0 -1 0 0 cm
158.418 -86.699 m 52.973 -192.148 l S Q
  Q
Q
Q q
112.457 80.453 m 114.156 80.453 l 114.156 148.453 l 112.457 148.453 l h
46.867 148.453 m 114.156 148.453 l 114.156 150.152 l 46.867 150.152 l h
46.867 148.453 m W n
q
46 80 69 71 re W n
  q
0 g
0.283298 w
2 J
0 j
[] 0.0 d
10 M q 1 0 0 -1 0 0 cm
156.617 -84.902 m 51.172 -190.348 l S Q
  Q
Q
Q q
112.457 78.453 m 114.156 78.453 l 114.156 148.453 l 112.457 148.453 l h
44.867 148.453 m 114.156 148.453 l 114.156 150.152 l 44.867 150.152 l h
44.867 148.453 m W n
q
44 78 71 73 re W n
  q
0 g
0.283298 w
2 J
0 j
[] 0.0 d
10 M q 1 0 0 -1 0 0 cm
154.816 -83.102 m 49.371 -188.551 l S Q
  Q
Q
Q q
112.457 76.453 m 114.156 76.453 l 114.156 148.453 l 112.457 148.453 l h
42.867 148.453 m 114.156 148.453 l 114.156 150.152 l 42.867 150.152 l h
42.867 148.453 m W n
q
42 76 73 75 re W n
  q
0 g
0.283298 w
2 J
0 j
[] 0.0 d
10 M q 1 0 0 -1 0 0 cm
153.02 -81.301 m 47.57 -186.75 l S Q
  Q
Q
Q q
112.457 75.453 m 114.156 75.453 l 114.156 148.453 l 112.457 148.453 l h
40.867 148.453 m 114.156 148.453 l 114.156 150.152 l 40.867 150.152 l h
40.867 148.453 m W n
q
40 75 75 76 re W n
  q
0 g
0.283298 w
2 J
0 j
[] 0.0 d
10 M q 1 0 0 -1 0 0 cm
151.219 -79.5 m 45.77 -184.949 l S Q
  Q
Q
Q q
112.457 73.453 m 114.156 73.453 l 114.156 148.453 l 112.457 148.453 l h
39.867 148.453 m 114.156 148.453 l 114.156 150.152 l 39.867 150.152 l h
39.867 148.453 m W n
q
39 73 76 78 re W n
  q
0 g
0.283298 w
2 J
0 j
[] 0.0 d
10 M q 1 0 0 -1 0 0 cm
149.418 -77.699 m 43.973 -183.148 l S Q
  Q
Q
Q q
112.457 71.453 m 114.156 71.453 l 114.156 148.453 l 112.457 148.453 l h
37.867 148.453 m 114.156 148.453 l 114.156 150.152 l 37.867 150.152 l h
37.867 148.453 m W n
q
37 71 78 80 re W n
  q
0 g
0.283298 w
2 J
0 j
[] 0.0 d
10 M q 1 0 0 -1 0 0 cm
147.617 -75.902 m 42.172 -181.348 l S Q
  Q
Q
Q q
112.457 69.453 m 114.156 69.453 l 114.156 148.453 l 112.457 148.453 l h
35.867 148.453 m 114.156 148.453 l 114.156 150.152 l 35.867 150.152 l h
35.867 148.453 m W n
q
35 69 80 82 re W n
  q
0 g
0.283298 w
2 J
0 j
[] 0.0 d
10 M q 1 0 0 -1 0 0 cm
145.816 -74.102 m 40.371 -179.551 l S Q
  Q
Q
Q q
112.457 67.453 m 114.156 67.453 l 114.156 148.453 l 112.457 148.453 l h
33.867 148.453 m 114.156 148.453 l 114.156 150.152 l 33.867 150.152 l h
33.867 148.453 m W n
q
33 67 82 84 re W n
  q
0 g
0.283298 w
2 J
0 j
[] 0.0 d
10 M q 1 0 0 -1 0 0 cm
144.02 -72.301 m 38.57 -177.75 l S Q
  Q
Q
Q q
112.457 66.453 m 114.156 66.453 l 114.156 148.453 l 112.457 148.453 l h
31.867 148.453 m 114.156 148.453 l 114.156 150.152 l 31.867 150.152 l h
31.867 148.453 m W n
q
31 66 84 85 re W n
  q
0 g
0.283298 w
2 J
0 j
[] 0.0 d
10 M q 1 0 0 -1 0 0 cm
142.219 -70.5 m 36.77 -175.949 l S Q
  Q
Q
Q q
112.457 64.453 m 114.156 64.453 l 114.156 148.453 l 112.457 148.453 l h
30.867 148.453 m 114.156 148.453 l 114.156 150.152 l 30.867 150.152 l h
30.867 148.453 m W n
q
30 64 85 87 re W n
  q
0 g
0.283298 w
2 J
0 j
[] 0.0 d
10 M q 1 0 0 -1 0 0 cm
140.418 -68.699 m 34.973 -174.148 l S Q
  Q
Q
Q q
112.457 62.453 m 114.156 62.453 l 114.156 148.453 l 112.457 148.453 l h
28.867 148.453 m 114.156 148.453 l 114.156 150.152 l 28.867 150.152 l h
28.867 148.453 m W n
q
28 62 87 89 re W n
  q
0 g
0.283298 w
2 J
0 j
[] 0.0 d
10 M q 1 0 0 -1 0 0 cm
138.617 -66.902 m 33.172 -172.348 l S Q
  Q
Q
Q q
112.457 60.453 m 114.156 60.453 l 114.156 148.453 l 112.457 148.453 l h
26.867 148.453 m 114.156 148.453 l 114.156 150.152 l 26.867 150.152 l h
26.867 148.453 m W n
q
26 60 89 91 re W n
  q
0 g
0.283298 w
2 J
0 j
[] 0.0 d
10 M q 1 0 0 -1 0 0 cm
136.816 -65.102 m 31.371 -170.551 l S Q
  Q
Q
Q q
112.457 58.453 m 114.156 58.453 l 114.156 148.453 l 112.457 148.453 l h
24.867 148.453 m 114.156 148.453 l 114.156 150.152 l 24.867 150.152 l h
24.867 148.453 m W n
q
24 58 91 93 re W n
  q
0 g
0.283298 w
2 J
0 j
[] 0.0 d
10 M q 1 0 0 -1 0 0 cm
135.02 -63.301 m 29.57 -168.75 l S Q
  Q
Q
Q q
112.457 57.453 m 114.156 57.453 l 114.156 148.453 l 112.457 148.453 l h
22.867 148.453 m 114.156 148.453 l 114.156 150.152 l 22.867 150.152 l h
22.867 148.453 m W n
q
22 57 93 94 re W n
  q
0 g
0.283298 w
2 J
0 j
[] 0.0 d
10 M q 1 0 0 -1 0 0 cm
133.219 -61.5 m 27.77 -166.949 l S Q
  Q
Q
Q q
112.457 55.453 m 114.156 55.453 l 114.156 148.453 l 112.457 148.453 l h
21.867 148.453 m 114.156 148.453 l 114.156 150.152 l 21.867 150.152 l h
21.867 148.453 m W n
q
21 55 94 96 re W n
  q
0 g
0.283298 w
2 J
0 j
[] 0.0 d
10 M q 1 0 0 -1 0 0 cm
131.418 -59.699 m 25.973 -165.148 l S Q
  Q
Q
Q q
112.457 53.453 m 114.156 53.453 l 114.156 148.453 l 112.457 148.453 l h
19.867 148.453 m 114.156 148.453 l 114.156 150.152 l 19.867 150.152 l h
19.867 148.453 m W n
q
19 53 96 98 re W n
  q
0 g
0.283298 w
2 J
0 j
[] 0.0 d
10 M q 1 0 0 -1 0 0 cm
129.617 -57.902 m 24.172 -163.348 l S Q
  Q
Q
Q q
112.457 51.453 m 114.156 51.453 l 114.156 148.453 l 112.457 148.453 l h
17.867 148.453 m 114.156 148.453 l 114.156 150.152 l 17.867 150.152 l h
17.867 148.453 m W n
q
17 51 98 100 re W n
  q
0 g
0.283298 w
2 J
0 j
[] 0.0 d
10 M q 1 0 0 -1 0 0 cm
127.816 -56.102 m 22.371 -161.551 l S Q
  Q
Q
Q q
112.457 49.453 m 114.156 49.453 l 114.156 148.453 l 112.457 148.453 l h
15.867 49.453 m 16.078 49.453 l 16.078 148.453 l 15.867 148.453 l h
15.867 148.453 m 114.156 148.453 l 114.156 150.152 l 15.867 150.152 l h
15.867 148.453 m W n
q
15 49 100 102 re W n
  q
0 g
0.283298 w
2 J
0 j
[] 0.0 d
10 M q 1 0 0 -1 0 0 cm
126.02 -54.301 m 20.57 -159.75 l S Q
  Q
Q
Q q
112.457 48.453 m 114.156 48.453 l 114.156 148.453 l 112.457 148.453 l h
14.379 48.453 m 16.078 48.453 l 16.078 148.453 l 14.379 148.453 l h
14.379 148.453 m 114.156 148.453 l 114.156 150.152 l 14.379 150.152 l h
14.379 148.453 m W n
q
14 48 101 103 re W n
  q
0 g
0.283298 w
2 J
0 j
[] 0.0 d
10 M q 1 0 0 -1 0 0 cm
124.219 -52.5 m 18.77 -157.949 l S Q
  Q
Q
Q q
12.867 46.453 m 16.078 46.453 l 16.078 48.109 l 12.867 48.109 l h
112.457 46.453 m 117.559 46.453 l 117.559 48.109 l 112.457 48.109 l h
112.457 48.109 m 114.156 48.109 l 114.156 148.453 l 112.457 148.453 l h
14.379 48.109 m 16.078 48.109 l 16.078 148.453 l 14.379 148.453 l h
14.379 148.453 m 114.156 148.453 l 114.156 150.152 l 14.379 150.152 l h
14.379 148.453 m W n
q
12 46 106 105 re W n
  q
0 g
0.283298 w
2 J
0 j
[] 0.0 d
10 M q 1 0 0 -1 0 0 cm
122.418 -50.699 m 16.973 -156.148 l S Q
  Q
Q
Q q
10.977 45.84 m 16.078 45.84 l 16.078 48.109 l 10.977 48.109 l h
112.457 45.84 m 117.559 45.84 l 117.559 48.109 l 112.457 48.109 l h
112.457 48.109 m 114.156 48.109 l 114.156 148.453 l 112.457 148.453 l h
14.379 48.109 m 16.078 48.109 l 16.078 148.453 l 14.379 148.453 l h
14.379 148.453 m 114.156 148.453 l 114.156 150.152 l 14.379 150.152 l h
14.379 148.453 m W n
q
10 45 108 106 re W n
  q
0 g
0.283298 w
2 J
0 j
[] 0.0 d
10 M q 1 0 0 -1 0 0 cm
120.617 -48.902 m 15.172 -154.348 l S Q
q 1 0 0 -1 0 0 cm
118.816 -47.102 m 13.371 -152.551 l S Q
q 1 0 0 -1 0 0 cm
117.02 -45.301 m 11.57 -150.75 l S Q
q 1 0 0 -1 0 0 cm
115.219 -43.5 m 9.77 -148.949 l S Q
q 1 0 0 -1 0 0 cm
113.418 -41.699 m 7.973 -147.148 l S Q
  Q
Q
Q q
10.977 45.84 m 16.078 45.84 l 16.078 48.109 l 10.977 48.109 l h
112.457 45.84 m 115.867 45.84 l 115.867 48.109 l 112.457 48.109 l h
112.457 48.109 m 114.156 48.109 l 114.156 148.453 l 112.457 148.453 l h
14.379 48.109 m 16.078 48.109 l 16.078 148.453 l 14.379 148.453 l h
14.379 148.453 m 114.156 148.453 l 114.156 149.453 l 14.379 149.453 l h
14.379 148.453 m W n
q
10 45 106 105 re W n
  q
0 g
0.283298 w
2 J
0 j
[] 0.0 d
10 M q 1 0 0 -1 0 0 cm
111.617 -39.902 m 6.172 -145.348 l S Q
  Q
Q
Q q
10.977 45.84 m 16.078 45.84 l 16.078 48.109 l 10.977 48.109 l h
112.457 45.84 m 113.867 45.84 l 113.867 48.109 l 112.457 48.109 l h
112.457 48.109 m 113.867 48.109 l 113.867 148.453 l 112.457 148.453 l h
14.379 48.109 m 16.078 48.109 l 16.078 148.453 l 14.379 148.453 l h
14.379 48.109 m W n
q
10 45 104 104 re W n
  q
0 g
0.283298 w
2 J
0 j
[] 0.0 d
10 M q 1 0 0 -1 0 0 cm
109.816 -38.102 m 4.371 -143.551 l S Q
  Q
Q
Q q
10.977 45.84 m 16.078 45.84 l 16.078 48.109 l 10.977 48.109 l h
112.457 45.84 m 112.867 45.84 l 112.867 48.109 l 112.457 48.109 l h
112.457 48.109 m 112.867 48.109 l 112.867 146.453 l 112.457 146.453 l h
14.379 48.109 m 16.078 48.109 l 16.078 146.453 l 14.379 146.453 l h
14.379 48.109 m W n
q
10 45 103 102 re W n
  q
0 g
0.283298 w
2 J
0 j
[] 0.0 d
10 M q 1 0 0 -1 0 0 cm
108.02 -36.301 m 2.57 -141.75 l S Q
  Q
Q
Q q
10.977 45.84 m 16.078 45.84 l 16.078 48.109 l 10.977 48.109 l h
14.379 48.109 m 16.078 48.109 l 16.078 144.453 l 14.379 144.453 l h
14.379 48.109 m W n
q
10 45 7 100 re W n
  q
0 g
0.283298 w
2 J
0 j
[] 0.0 d
10 M q 1 0 0 -1 0 0 cm
106.219 -34.5 m 0.77 -139.949 l S Q
  Q
Q
Q q
10.977 45.84 m 16.078 45.84 l 16.078 48.109 l 10.977 48.109 l h
14.379 48.109 m 16.078 48.109 l 16.078 142.453 l 14.379 142.453 l h
14.379 48.109 m W n
q
10 45 7 98 re W n
  q
0 g
0.283298 w
2 J
0 j
[] 0.0 d
10 M q 1 0 0 -1 0 0 cm
104.418 -32.699 m -1.027 -138.148 l S Q
  Q
Q
Q q
10.977 45.84 m 16.078 45.84 l 16.078 48.109 l 10.977 48.109 l h
14.379 48.109 m 16.078 48.109 l 16.078 140.453 l 14.379 140.453 l h
14.379 48.109 m W n
q
10 45 7 96 re W n
  q
0 g
0.283298 w
2 J
0 j
[] 0.0 d
10 M q 1 0 0 -1 0 0 cm
102.617 -30.902 m -2.828 -136.348 l S Q
  Q
Q
Q q
10.977 45.84 m 16.078 45.84 l 16.078 48.109 l 10.977 48.109 l h
14.379 48.109 m 16.078 48.109 l 16.078 139.453 l 14.379 139.453 l h
14.379 48.109 m W n
q
10 45 7 95 re W n
  q
0 g
0.283298 w
2 J
0 j
[] 0.0 d
10 M q 1 0 0 -1 0 0 cm
100.816 -29.102 m -4.629 -134.551 l S Q
  Q
Q
Q q
10.977 45.84 m 16.078 45.84 l 16.078 48.109 l 10.977 48.109 l h
14.379 48.109 m 16.078 48.109 l 16.078 137.453 l 14.379 137.453 l h
14.379 48.109 m W n
q
10 45 7 93 re W n
  q
0 g
0.283298 w
2 J
0 j
[] 0.0 d
10 M q 1 0 0 -1 0 0 cm
99.02 -27.301 m -6.43 -132.75 l S Q
  Q
Q
Q q
10.977 45.84 m 16.078 45.84 l 16.078 48.109 l 10.977 48.109 l h
14.379 48.109 m 16.078 48.109 l 16.078 135.453 l 14.379 135.453 l h
14.379 48.109 m W n
q
10 45 7 91 re W n
  q
0 g
0.283298 w
2 J
0 j
[] 0.0 d
10 M q 1 0 0 -1 0 0 cm
97.219 -25.5 m -8.23 -130.949 l S Q
  Q
Q
Q q
10.977 45.84 m 16.078 45.84 l 16.078 48.109 l 10.977 48.109 l h
14.379 48.109 m 16.078 48.109 l 16.078 133.453 l 14.379 133.453 l h
14.379 48.109 m W n
q
10 45 7 89 re W n
  q
0 g
0.283298 w
2 J
0 j
[] 0.0 d
10 M q 1 0 0 -1 0 0 cm
95.418 -23.699 m -10.027 -129.148 l S Q
  Q
Q
Q q
10.977 45.84 m 16.078 45.84 l 16.078 48.109 l 10.977 48.109 l h
14.379 48.109 m 16.078 48.109 l 16.078 131.453 l 14.379 131.453 l h
14.379 48.109 m W n
q
10 45 7 87 re W n
  q
0 g
0.283298 w
2 J
0 j
[] 0.0 d
10 M q 1 0 0 -1 0 0 cm
93.617 -21.902 m -11.828 -127.348 l S Q
  Q
Q
Q q
10.977 45.84 m 16.078 45.84 l 16.078 48.109 l 10.977 48.109 l h
14.379 48.109 m 16.078 48.109 l 16.078 130.453 l 14.379 130.453 l h
14.379 48.109 m W n
q
10 45 7 86 re W n
  q
0 g
0.283298 w
2 J
0 j
[] 0.0 d
10 M q 1 0 0 -1 0 0 cm
91.816 -20.102 m -13.629 -125.551 l S Q
  Q
Q
Q q
10.977 45.84 m 16.078 45.84 l 16.078 48.109 l 10.977 48.109 l h
14.379 48.109 m 16.078 48.109 l 16.078 128.453 l 14.379 128.453 l h
14.379 48.109 m W n
q
10 45 7 84 re W n
  q
0 g
0.283298 w
2 J
0 j
[] 0.0 d
10 M q 1 0 0 -1 0 0 cm
90.02 -18.301 m -15.43 -123.75 l S Q
  Q
Q
Q q
10.977 45.84 m 16.078 45.84 l 16.078 48.109 l 10.977 48.109 l h
14.379 48.109 m 16.078 48.109 l 16.078 126.453 l 14.379 126.453 l h
14.379 48.109 m W n
q
10 45 7 82 re W n
  q
0 g
0.283298 w
2 J
0 j
[] 0.0 d
10 M q 1 0 0 -1 0 0 cm
88.219 -16.5 m -17.23 -121.949 l S Q
  Q
Q
Q q
10.977 45.84 m 16.078 45.84 l 16.078 48.109 l 10.977 48.109 l h
14.379 48.109 m 16.078 48.109 l 16.078 124.453 l 14.379 124.453 l h
14.379 48.109 m W n
q
10 45 7 80 re W n
  q
0 g
0.283298 w
2 J
0 j
[] 0.0 d
10 M q 1 0 0 -1 0 0 cm
86.418 -14.699 m -19.027 -120.148 l S Q
  Q
Q
Q q
10.977 45.84 m 16.078 45.84 l 16.078 48.109 l 10.977 48.109 l h
14.379 48.109 m 16.078 48.109 l 16.078 122.453 l 14.379 122.453 l h
14.379 48.109 m W n
q
10 45 7 78 re W n
  q
0 g
0.283298 w
2 J
0 j
[] 0.0 d
10 M q 1 0 0 -1 0 0 cm
84.617 -12.902 m -20.828 -118.348 l S Q
  Q
Q
Q q
10.977 45.84 m 16.078 45.84 l 16.078 48.109 l 10.977 48.109 l h
14.379 48.109 m 16.078 48.109 l 16.078 121.453 l 14.379 121.453 l h
14.379 48.109 m W n
q
10 45 7 77 re W n
  q
0 g
0.283298 w
2 J
0 j
[] 0.0 d
10 M q 1 0 0 -1 0 0 cm
82.816 -11.102 m -22.629 -116.551 l S Q
  Q
Q
Q q
10.977 45.84 m 16.078 45.84 l 16.078 48.109 l 10.977 48.109 l h
14.379 48.109 m 16.078 48.109 l 16.078 119.453 l 14.379 119.453 l h
14.379 48.109 m W n
q
10 45 7 75 re W n
  q
0 g
0.283298 w
2 J
0 j
[] 0.0 d
10 M q 1 0 0 -1 0 0 cm
81.02 -9.301 m -24.43 -114.75 l S Q
  Q
Q
Q q
10.977 45.84 m 16.078 45.84 l 16.078 48.109 l 10.977 48.109 l h
14.379 48.109 m 16.078 48.109 l 16.078 117.453 l 14.379 117.453 l h
14.379 48.109 m W n
q
10 45 7 73 re W n
  q
0 g
0.283298 w
2 J
0 j
[] 0.0 d
10 M q 1 0 0 -1 0 0 cm
79.219 -7.5 m -26.23 -112.949 l S Q
  Q
Q
Q q
10.977 45.84 m 16.078 45.84 l 16.078 48.109 l 10.977 48.109 l h
14.379 48.109 m 16.078 48.109 l 16.078 115.453 l 14.379 115.453 l h
14.379 48.109 m W n
q
10 45 7 71 re W n
  q
0 g
0.283298 w
2 J
0 j
[] 0.0 d
10 M q 1 0 0 -1 0 0 cm
77.418 -5.699 m -28.027 -111.148 l S Q
  Q
Q
Q q
10.977 45.84 m 16.078 45.84 l 16.078 48.109 l 10.977 48.109 l h
14.379 48.109 m 16.078 48.109 l 16.078 113.453 l 14.379 113.453 l h
14.379 48.109 m W n
q
10 45 7 69 re W n
  q
0 g
0.283298 w
2 J
0 j
[] 0.0 d
10 M q 1 0 0 -1 0 0 cm
75.617 -3.902 m -29.828 -109.348 l S Q
  Q
Q
Q q
10.977 45.84 m 16.078 45.84 l 16.078 48.109 l 10.977 48.109 l h
14.379 48.109 m 16.078 48.109 l 16.078 112.453 l 14.379 112.453 l h
14.379 48.109 m W n
q
10 45 7 68 re W n
  q
0 g
0.283298 w
2 J
0 j
[] 0.0 d
10 M q 1 0 0 -1 0 0 cm
73.816 -2.102 m -31.629 -107.551 l S Q
  Q
Q
Q q
10.977 45.84 m 16.078 45.84 l 16.078 48.109 l 10.977 48.109 l h
14.379 48.109 m 16.078 48.109 l 16.078 110.453 l 14.379 110.453 l h
14.379 48.109 m W n
q
10 45 7 66 re W n
  q
0 g
0.283298 w
2 J
0 j
[] 0.0 d
10 M q 1 0 0 -1 0 0 cm
72.02 -0.301 m -33.43 -105.75 l S Q
  Q
Q
Q q
10.977 45.84 m 16.078 45.84 l 16.078 48.109 l 10.977 48.109 l h
14.379 48.109 m 16.078 48.109 l 16.078 108.453 l 14.379 108.453 l h
14.379 48.109 m W n
q
10 45 7 64 re W n
  q
0 g
0.283298 w
2 J
0 j
[] 0.0 d
10 M q 1 0 0 -1 0 0 cm
70.219 1.5 m -35.23 -103.949 l S Q
  Q
Q
Q q
10.977 45.84 m 16.078 45.84 l 16.078 48.109 l 10.977 48.109 l h
14.379 48.109 m 16.078 48.109 l 16.078 106.453 l 14.379 106.453 l h
14.379 48.109 m W n
q
10 45 7 62 re W n
  q
0 g
0.283298 w
2 J
0 j
[] 0.0 d
10 M q 1 0 0 -1 0 0 cm
68.418 3.301 m -37.027 -102.148 l S Q
  Q
Q
Q q
10.977 45.84 m 16.078 45.84 l 16.078 48.109 l 10.977 48.109 l h
14.379 48.109 m 16.078 48.109 l 16.078 104.453 l 14.379 104.453 l h
14.379 48.109 m W n
q
10 45 7 60 re W n
  q
0 g
0.283298 w
2 J
0 j
[] 0.0 d
10 M q 1 0 0 -1 0 0 cm
66.617 5.098 m -38.828 -100.348 l S Q
  Q
Q
Q q
10.977 45.84 m 16.078 45.84 l 16.078 48.109 l 10.977 48.109 l h
14.379 48.109 m 16.078 48.109 l 16.078 103.453 l 14.379 103.453 l h
14.379 48.109 m W n
q
10 45 7 59 re W n
  q
0 g
0.283298 w
2 J
0 j
[] 0.0 d
10 M q 1 0 0 -1 0 0 cm
64.816 6.898 m -40.629 -98.551 l S Q
  Q
Q
Q q
10.977 45.84 m 16.078 45.84 l 16.078 48.109 l 10.977 48.109 l h
14.379 48.109 m 16.078 48.109 l 16.078 101.453 l 14.379 101.453 l h
14.379 48.109 m W n
q
10 45 7 57 re W n
  q
0 g
0.283298 w
2 J
0 j
[] 0.0 d
10 M q 1 0 0 -1 0 0 cm
63.02 8.699 m -42.43 -96.75 l S Q
  Q
Q
Q q
0 g
0.45345 w
0 J
0 j
[] 0.0 d
10 M q 1 0 0 -1 0 0 cm
64.266 -150.152 m 14.379 -150.152 l 14.379 -48.109 l 10.977 -48.109 l 10.977
 -45.84 l 16.078 -45.84 l 16.078 -148.453 l 112.457 -148.453 l 112.457 -45.84
 l 117.559 -45.84 l 117.559 -48.109 l 114.156 -48.109 l 114.156 -150.152
 l h
64.266 -150.152 m S Q
0.340124 w
q 1 0 0 -1 0 0 cm
16.078 -48.676 m 16.078 -48.504 l 16.27 -48.508 l 16.457 -48.516 l 16.645
 -48.527 l 16.836 -48.547 l 17.023 -48.566 l 17.215 -48.59 l 17.59 -48.645
 l 17.781 -48.676 l 17.969 -48.707 l 18.156 -48.734 l 18.348 -48.762 l 18.535
 -48.785 l 18.723 -48.805 l 18.914 -48.82 l 19.102 -48.836 l 19.293 -48.844
 l 19.668 -48.844 l 19.859 -48.836 l 20.234 -48.805 l 20.426 -48.785 l 20.613
 -48.762 l 20.805 -48.734 l 20.992 -48.707 l 21.18 -48.676 l 21.371 -48.645
 l 21.746 -48.59 l 21.938 -48.566 l 22.312 -48.527 l 22.504 -48.516 l 22.691
 -48.508 l 22.883 -48.504 l 23.07 -48.508 l 23.258 -48.516 l 23.449 -48.527
 l 23.637 -48.547 l 23.828 -48.566 l 24.016 -48.59 l 24.203 -48.617 l 24.395
 -48.645 l 24.77 -48.707 l 24.961 -48.734 l 25.148 -48.762 l 25.34 -48.785
 l 25.527 -48.805 l 25.715 -48.82 l 25.906 -48.836 l 26.094 -48.844 l 26.473
 -48.844 l 26.66 -48.836 l 26.848 -48.82 l 27.039 -48.805 l 27.227 -48.785
 l 27.418 -48.762 l 27.793 -48.707 l 27.984 -48.676 l 28.172 -48.645 l 28.359
 -48.617 l 28.551 -48.59 l 28.738 -48.566 l 28.93 -48.547 l 29.117 -48.527
 l 29.305 -48.516 l 29.496 -48.508 l 29.684 -48.504 l 29.875 -48.508 l 30.062
 -48.516 l 30.25 -48.527 l 30.441 -48.547 l 30.629 -48.566 l 30.816 -48.59
 l 31.008 -48.617 l 31.195 -48.645 l 31.387 -48.676 l 31.574 -48.707 l 31.762
 -48.734 l 31.953 -48.762 l 32.141 -48.785 l 32.328 -48.805 l 32.52 -48.82
 l 32.707 -48.836 l 32.895 -48.844 l 33.273 -48.844 l 33.465 -48.836 l 33.84
 -48.805 l 34.031 -48.785 l 34.219 -48.762 l 34.406 -48.734 l 34.598 -48.707
 l 34.973 -48.645 l 35.164 -48.617 l 35.352 -48.59 l 35.543 -48.566 l 35.918
 -48.527 l 36.109 -48.516 l 36.297 -48.508 l 36.484 -48.504 l 36.676 -48.508
 l 36.863 -48.516 l 37.055 -48.527 l 37.43 -48.566 l 37.621 -48.59 l 37.809
 -48.617 l 38 -48.645 l 38.375 -48.707 l 38.566 -48.734 l 38.754 -48.762
 l 38.941 -48.785 l 39.133 -48.805 l 39.32 -48.82 l 39.512 -48.836 l 39.699
 -48.844 l 40.078 -48.844 l 40.266 -48.836 l 40.457 -48.82 l 40.645 -48.805
 l 40.832 -48.785 l 41.02 -48.762 l 41.211 -48.734 l 41.398 -48.707 l 41.59
 -48.676 l 41.777 -48.645 l 41.965 -48.617 l 42.156 -48.59 l 42.344 -48.566
 l 42.531 -48.547 l 42.723 -48.527 l 42.91 -48.516 l 43.102 -48.508 l 43.289
 -48.504 l 43.477 -48.508 l 43.668 -48.516 l 43.855 -48.527 l 44.047 -48.547
 l 44.234 -48.566 l 44.422 -48.59 l 44.613 -48.617 l 44.801 -48.645 l 44.988
 -48.676 l 45.18 -48.707 l 45.555 -48.762 l 45.746 -48.785 l 45.934 -48.805
 l 46.125 -48.82 l 46.312 -48.836 l 46.5 -48.844 l 46.879 -48.844 l 47.066
 -48.836 l 47.258 -48.82 l 47.445 -48.805 l 47.637 -48.785 l 47.824 -48.762
 l 48.012 -48.734 l 48.203 -48.707 l 48.391 -48.676 l 48.582 -48.645 l 48.957
 -48.59 l 49.145 -48.566 l 49.336 -48.547 l 49.523 -48.527 l 49.715 -48.516
 l 49.902 -48.508 l 50.09 -48.504 l 50.281 -48.508 l 50.469 -48.516 l 50.656
 -48.527 l 50.848 -48.547 l 51.035 -48.566 l 51.227 -48.59 l 51.602 -48.645
 l 51.793 -48.676 l 51.98 -48.707 l 52.172 -48.734 l 52.359 -48.762 l 52.547
 -48.785 l 52.738 -48.805 l 53.113 -48.836 l 53.305 -48.844 l 53.68 -48.844
 l 53.871 -48.836 l 54.059 -48.82 l 54.25 -48.805 l 54.438 -48.785 l 54.625
 -48.762 l 54.816 -48.734 l 55.004 -48.707 l 55.191 -48.676 l 55.383 -48.645
 l 55.57 -48.617 l 55.762 -48.59 l 55.949 -48.566 l 56.137 -48.547 l 56.328
 -48.527 l 56.516 -48.516 l 56.707 -48.508 l 56.895 -48.504 l 57.082 -48.508
 l 57.273 -48.516 l 57.461 -48.527 l 57.648 -48.547 l 57.84 -48.566 l 58.027
 -48.59 l 58.219 -48.617 l 58.406 -48.645 l 58.781 -48.707 l 58.973 -48.734
 l 59.16 -48.762 l 59.352 -48.785 l 59.539 -48.805 l 59.727 -48.82 l 59.918
 -48.836 l 60.105 -48.844 l 60.484 -48.844 l 60.672 -48.836 l 60.863 -48.82
 l 61.051 -48.805 l 61.238 -48.785 l 61.43 -48.762 l 61.805 -48.707 l 61.996
 -48.676 l 62.184 -48.645 l 62.375 -48.617 l 62.562 -48.59 l 62.75 -48.566
 l 62.941 -48.547 l 63.129 -48.527 l 63.316 -48.516 l 63.508 -48.508 l 63.695
 -48.504 l 63.887 -48.508 l 64.074 -48.516 l 64.262 -48.527 l 64.453 -48.547
 l 64.641 -48.566 l 64.832 -48.59 l 65.207 -48.645 l 65.398 -48.676 l 65.586
 -48.707 l 65.773 -48.734 l 65.965 -48.762 l 66.152 -48.785 l 66.344 -48.805
 l 66.719 -48.836 l 66.906 -48.844 l 67.289 -48.844 l 67.477 -48.836 l 67.852
 -48.805 l 68.043 -48.785 l 68.23 -48.762 l 68.422 -48.734 l 68.609 -48.707
 l 68.797 -48.676 l 68.988 -48.645 l 69.363 -48.59 l 69.555 -48.566 l 69.742
 -48.547 l 69.934 -48.527 l 70.121 -48.516 l 70.309 -48.508 l 70.5 -48.504
 l 70.688 -48.508 l 70.879 -48.516 l 71.066 -48.527 l 71.254 -48.547 l 71.445
 -48.566 l 71.633 -48.59 l 71.82 -48.617 l 72.012 -48.645 l 72.387 -48.707
 l 72.578 -48.734 l 72.766 -48.762 l 72.957 -48.785 l 73.145 -48.805 l 73.332
 -48.82 l 73.523 -48.836 l 73.711 -48.844 l 74.09 -48.844 l 74.277 -48.836
 l 74.469 -48.82 l 74.656 -48.805 l 74.844 -48.785 l 75.035 -48.762 l 75.223
 -48.734 l 75.414 -48.707 l 75.789 -48.645 l 75.977 -48.617 l 76.168 -48.59
 l 76.355 -48.566 l 76.547 -48.547 l 76.734 -48.527 l 76.922 -48.516 l 77.113
 -48.508 l 77.301 -48.504 l 77.488 -48.508 l 77.68 -48.516 l 77.867 -48.527
 l 78.059 -48.547 l 78.246 -48.566 l 78.434 -48.59 l 78.625 -48.617 l 78.812
 -48.645 l 79.004 -48.676 l 79.191 -48.707 l 79.379 -48.734 l 79.57 -48.762
 l 79.758 -48.785 l 79.945 -48.805 l 80.137 -48.82 l 80.324 -48.836 l 80.512
 -48.844 l 80.891 -48.844 l 81.082 -48.836 l 81.457 -48.805 l 81.648 -48.785
 l 81.836 -48.762 l 82.023 -48.734 l 82.215 -48.707 l 82.402 -48.676 l 82.594
 -48.645 l 82.969 -48.59 l 83.16 -48.566 l 83.348 -48.547 l 83.539 -48.527
 l 83.727 -48.516 l 83.914 -48.508 l 84.105 -48.504 l 84.293 -48.508 l 84.48
 -48.516 l 84.672 -48.527 l 84.859 -48.547 l 85.051 -48.566 l 85.238 -48.59
 l 85.613 -48.645 l 85.805 -48.676 l 85.992 -48.707 l 86.184 -48.734 l 86.371
 -48.762 l 86.559 -48.785 l 86.75 -48.805 l 86.938 -48.82 l 87.129 -48.836
 l 87.316 -48.844 l 87.695 -48.844 l 87.883 -48.836 l 88.07 -48.82 l 88.262
 -48.805 l 88.449 -48.785 l 88.641 -48.762 l 89.016 -48.707 l 89.207 -48.676
 l 89.395 -48.645 l 89.582 -48.617 l 89.773 -48.59 l 89.961 -48.566 l 90.148
 -48.547 l 90.34 -48.527 l 90.527 -48.516 l 90.719 -48.508 l 90.906 -48.504
 l 91.094 -48.508 l 91.285 -48.516 l 91.473 -48.527 l 91.664 -48.547 l 91.852
 -48.566 l 92.039 -48.59 l 92.23 -48.617 l 92.418 -48.645 l 92.605 -48.676
 l 92.797 -48.707 l 92.984 -48.734 l 93.176 -48.762 l 93.363 -48.785 l 93.551
 -48.805 l 93.738 -48.82 l 93.93 -48.836 l 94.121 -48.844 l 94.496 -48.844
 l 94.684 -48.836 l 94.875 -48.82 l 95.062 -48.805 l 95.254 -48.785 l 95.441
 -48.762 l 95.629 -48.734 l 95.82 -48.707 l 96.195 -48.645 l 96.387 -48.617
 l 96.574 -48.59 l 96.766 -48.566 l 97.141 -48.527 l 97.332 -48.516 l 97.52
 -48.508 l 97.711 -48.504 l 97.898 -48.508 l 98.086 -48.516 l 98.277 -48.527
 l 98.652 -48.566 l 98.844 -48.59 l 99.031 -48.617 l 99.223 -48.645 l 99.598
 -48.707 l 99.789 -48.734 l 99.977 -48.762 l 100.164 -48.785 l 100.355 -48.805
 l 100.73 -48.836 l 100.922 -48.844 l 101.301 -48.844 l 101.488 -48.836 
l 101.676 -48.82 l 101.867 -48.805 l 102.055 -48.785 l 102.246 -48.762 l
 102.621 -48.707 l 102.809 -48.676 l 103 -48.645 l 103.188 -48.617 l 103.379
 -48.59 l 103.566 -48.566 l 103.754 -48.547 l 103.945 -48.527 l 104.133 
-48.516 l 104.32 -48.508 l 104.512 -48.504 l 104.699 -48.508 l 104.891 -48.516
 l 105.078 -48.527 l 105.266 -48.547 l 105.457 -48.566 l 105.645 -48.59 
l 105.836 -48.617 l 106.023 -48.645 l 106.211 -48.676 l 106.402 -48.707 
l 106.777 -48.762 l 106.969 -48.785 l 107.156 -48.805 l 107.348 -48.82 l
 107.535 -48.836 l 107.723 -48.844 l 108.102 -48.844 l 108.289 -48.836 l
 108.48 -48.82 l 108.668 -48.805 l 108.855 -48.785 l 109.047 -48.762 l 109.234
 -48.734 l 109.426 -48.707 l 109.801 -48.645 l 109.992 -48.617 l 110.18 
-48.59 l 110.371 -48.566 l 110.746 -48.527 l 110.938 -48.516 l 111.125 -48.508
 l 111.312 -48.504 l 111.504 -48.508 l 111.691 -48.516 l 111.883 -48.527
 l 112.258 -48.566 l 112.445 -48.59 l 112.457 -48.59 l 112.457 -48.676 l
 S Q
Q q
10.867 31.453 28 15 re W n
q
10 31 29 16 re W n
  q
Q q
10 31 29 15 re W n
13.527 45.84 m 10.977 45.84 l 10.977 43.574 l 16.078 43.574 l 59.164 39.012
 l 59.164 24.297 l 60.863 24.297 l 60.863 41.098 l 16.078 45.84 l h
13.527 45.84 m W n
q
10 31 29 15 re W n
  q
0 g
0.283298 w
2 J
0 j
[] 0.0 d
10 M q 1 0 0 -1 0 0 cm
34.66 -72.047 m -1.055 -36.332 l S Q
  Q
Q
  Q
Q
Q q
10.867 30.453 30 16 re W n
q
10 30 31 17 re W n
  q
Q q
10 30 31 16 re W n
13.527 45.84 m 10.977 45.84 l 10.977 43.574 l 16.078 43.574 l 59.164 39.012
 l 59.164 24.297 l 60.863 24.297 l 60.863 41.098 l 16.078 45.84 l h
13.527 45.84 m W n
q
10 30 31 16 re W n
  q
0 g
0.283298 w
2 J
0 j
[] 0.0 d
10 M q 1 0 0 -1 0 0 cm
36.461 -70.246 m 0.746 -34.531 l S Q
  Q
Q
  Q
Q
Q q
10.867 28.453 32 18 re W n
q
10 28 33 19 re W n
  q
Q q
10 28 33 18 re W n
13.527 45.84 m 10.977 45.84 l 10.977 43.574 l 16.078 43.574 l 59.164 39.012
 l 59.164 24.297 l 60.863 24.297 l 60.863 41.098 l 16.078 45.84 l h
13.527 45.84 m W n
q
10 28 33 18 re W n
  q
0 g
0.283298 w
2 J
0 j
[] 0.0 d
10 M q 1 0 0 -1 0 0 cm
38.262 -68.445 m 2.543 -32.73 l S Q
  Q
Q
  Q
Q
Q q
10.867 26.453 34 20 re W n
q
10 26 35 21 re W n
  q
Q q
10 26 35 20 re W n
13.527 45.84 m 10.977 45.84 l 10.977 43.574 l 16.078 43.574 l 59.164 39.012
 l 59.164 24.297 l 60.863 24.297 l 60.863 41.098 l 16.078 45.84 l h
13.527 45.84 m W n
q
10 26 35 20 re W n
  q
0 g
0.283298 w
2 J
0 j
[] 0.0 d
10 M q 1 0 0 -1 0 0 cm
40.059 -66.645 m 4.344 -30.93 l S Q
  Q
Q
  Q
Q
Q q
10.867 24.453 35 22 re W n
q
10 24 36 23 re W n
  q
Q q
10 24 36 22 re W n
13.527 45.84 m 10.977 45.84 l 10.977 43.574 l 16.078 43.574 l 59.164 39.012
 l 59.164 24.297 l 60.863 24.297 l 60.863 41.098 l 16.078 45.84 l h
13.527 45.84 m W n
q
10 24 36 22 re W n
  q
0 g
0.283298 w
2 J
0 j
[] 0.0 d
10 M q 1 0 0 -1 0 0 cm
41.859 -64.848 m 6.145 -29.129 l S Q
  Q
Q
  Q
Q
Q q
10.867 23.453 37 23 re W n
q
10 23 38 24 re W n
  q
Q q
10 24 38 22 re W n
13.527 45.84 m 10.977 45.84 l 10.977 43.574 l 16.078 43.574 l 59.164 39.012
 l 59.164 24.297 l 60.863 24.297 l 60.863 41.098 l 16.078 45.84 l h
13.527 45.84 m W n
q
10 24 38 22 re W n
  q
0 g
0.283298 w
2 J
0 j
[] 0.0 d
10 M q 1 0 0 -1 0 0 cm
43.66 -63.047 m 7.945 -27.332 l S Q
  Q
Q
  Q
Q
Q q
10.867 23.453 39 23 re W n
q
10 23 40 24 re W n
  q
Q q
10 24 40 22 re W n
13.527 45.84 m 10.977 45.84 l 10.977 43.574 l 16.078 43.574 l 59.164 39.012
 l 59.164 24.297 l 60.863 24.297 l 60.863 41.098 l 16.078 45.84 l h
13.527 45.84 m W n
q
10 24 40 22 re W n
  q
0 g
0.283298 w
2 J
0 j
[] 0.0 d
10 M q 1 0 0 -1 0 0 cm
45.461 -61.246 m 9.746 -25.531 l S Q
  Q
Q
  Q
Q
Q q
10.867 23.453 41 23 re W n
q
10 23 42 24 re W n
  q
Q q
10 24 42 22 re W n
13.527 45.84 m 10.977 45.84 l 10.977 43.574 l 16.078 43.574 l 59.164 39.012
 l 59.164 24.297 l 60.863 24.297 l 60.863 41.098 l 16.078 45.84 l h
13.527 45.84 m W n
q
10 24 42 22 re W n
  q
0 g
0.283298 w
2 J
0 j
[] 0.0 d
10 M q 1 0 0 -1 0 0 cm
47.262 -59.445 m 11.543 -23.73 l S Q
  Q
Q
  Q
Q
Q q
10.867 23.453 43 23 re W n
q
10 23 44 24 re W n
  q
Q q
10 24 44 22 re W n
13.527 45.84 m 10.977 45.84 l 10.977 43.574 l 16.078 43.574 l 59.164 39.012
 l 59.164 24.297 l 60.863 24.297 l 60.863 41.098 l 16.078 45.84 l h
13.527 45.84 m W n
q
10 24 44 22 re W n
  q
0 g
0.283298 w
2 J
0 j
[] 0.0 d
10 M q 1 0 0 -1 0 0 cm
49.059 -57.645 m 13.344 -21.93 l S Q
  Q
Q
  Q
Q
Q q
10.867 23.453 44 23 re W n
q
10 23 45 24 re W n
  q
Q q
10 24 45 22 re W n
13.527 45.84 m 10.977 45.84 l 10.977 43.574 l 16.078 43.574 l 59.164 39.012
 l 59.164 24.297 l 60.863 24.297 l 60.863 41.098 l 16.078 45.84 l h
13.527 45.84 m W n
q
10 24 45 22 re W n
  q
0 g
0.283298 w
2 J
0 j
[] 0.0 d
10 M q 1 0 0 -1 0 0 cm
50.859 -55.848 m 15.145 -20.129 l S Q
  Q
Q
  Q
Q
Q q
12.867 23.453 44 23 re W n
q
12 23 45 24 re W n
  q
Q q
12 24 45 22 re W n
13.527 45.84 m 10.977 45.84 l 10.977 43.574 l 16.078 43.574 l 59.164 39.012
 l 59.164 24.297 l 60.863 24.297 l 60.863 41.098 l 16.078 45.84 l h
13.527 45.84 m W n
q
12 24 45 22 re W n
  q
0 g
0.283298 w
2 J
0 j
[] 0.0 d
10 M q 1 0 0 -1 0 0 cm
52.66 -54.047 m 16.945 -18.332 l S Q
  Q
Q
  Q
Q
Q q
13.867 23.453 45 23 re W n
q
13 23 46 24 re W n
  q
Q q
13 24 46 22 re W n
13.527 45.84 m 10.977 45.84 l 10.977 43.574 l 16.078 43.574 l 59.164 39.012
 l 59.164 24.297 l 60.863 24.297 l 60.863 41.098 l 16.078 45.84 l h
13.527 45.84 m W n
q
13 24 46 22 re W n
  q
0 g
0.283298 w
2 J
0 j
[] 0.0 d
10 M q 1 0 0 -1 0 0 cm
54.461 -52.246 m 18.746 -16.531 l S Q
  Q
Q
  Q
Q
Q q
15.867 23.453 45 23 re W n
q
15 23 46 24 re W n
  q
Q q
15 24 46 22 re W n
13.527 45.84 m 10.977 45.84 l 10.977 43.574 l 16.078 43.574 l 59.164 39.012
 l 59.164 24.297 l 60.863 24.297 l 60.863 41.098 l 16.078 45.84 l h
13.527 45.84 m W n
q
15 24 46 22 re W n
  q
0 g
0.283298 w
2 J
0 j
[] 0.0 d
10 M q 1 0 0 -1 0 0 cm
56.262 -50.445 m 20.543 -14.73 l S Q
  Q
Q
  Q
Q
Q q
17.867 23.453 43 23 re W n
q
17 23 44 24 re W n
  q
Q q
17 24 44 22 re W n
13.527 45.84 m 10.977 45.84 l 10.977 43.574 l 16.078 43.574 l 59.164 39.012
 l 59.164 24.297 l 60.863 24.297 l 60.863 41.098 l 16.078 45.84 l h
13.527 45.84 m W n
q
17 24 44 22 re W n
  q
0 g
0.283298 w
2 J
0 j
[] 0.0 d
10 M q 1 0 0 -1 0 0 cm
58.059 -48.645 m 22.344 -12.93 l S Q
  Q
Q
  Q
Q
Q q
19.867 23.453 41 23 re W n
q
19 23 42 24 re W n
  q
Q q
19 24 42 22 re W n
13.527 45.84 m 10.977 45.84 l 10.977 43.574 l 16.078 43.574 l 59.164 39.012
 l 59.164 24.297 l 60.863 24.297 l 60.863 41.098 l 16.078 45.84 l h
13.527 45.84 m W n
q
19 24 42 22 re W n
  q
0 g
0.283298 w
2 J
0 j
[] 0.0 d
10 M q 1 0 0 -1 0 0 cm
59.859 -46.848 m 24.145 -11.129 l S Q
  Q
Q
  Q
Q
Q q
21.867 23.453 39 23 re W n
q
21 23 40 24 re W n
  q
Q q
21 24 40 22 re W n
13.527 45.84 m 10.977 45.84 l 10.977 43.574 l 16.078 43.574 l 59.164 39.012
 l 59.164 24.297 l 60.863 24.297 l 60.863 41.098 l 16.078 45.84 l h
13.527 45.84 m W n
q
21 24 40 22 re W n
  q
0 g
0.283298 w
2 J
0 j
[] 0.0 d
10 M q 1 0 0 -1 0 0 cm
61.66 -45.047 m 25.945 -9.332 l S Q
  Q
Q
  Q
Q
Q q
22.867 23.453 38 23 re W n
q
22 23 39 24 re W n
  q
Q q
22 24 39 22 re W n
13.527 45.84 m 10.977 45.84 l 10.977 43.574 l 16.078 43.574 l 59.164 39.012
 l 59.164 24.297 l 60.863 24.297 l 60.863 41.098 l 16.078 45.84 l h
13.527 45.84 m W n
q
22 24 39 22 re W n
  q
0 g
0.283298 w
2 J
0 j
[] 0.0 d
10 M q 1 0 0 -1 0 0 cm
63.461 -43.246 m 27.746 -7.531 l S Q
  Q
Q
  Q
Q
Q q
24.867 23.453 36 22 re W n
q
24 23 37 23 re W n
  q
Q q
24 24 37 22 re W n
13.527 45.84 m 10.977 45.84 l 10.977 43.574 l 16.078 43.574 l 59.164 39.012
 l 59.164 24.297 l 60.863 24.297 l 60.863 41.098 l 16.078 45.84 l h
13.527 45.84 m W n
q
24 24 37 22 re W n
  q
0 g
0.283298 w
2 J
0 j
[] 0.0 d
10 M q 1 0 0 -1 0 0 cm
65.262 -41.445 m 29.543 -5.73 l S Q
  Q
Q
  Q
Q
Q q
26.867 23.453 34 21 re W n
q
26 23 35 22 re W n
  q
Q q
26 24 35 21 re W n
13.527 45.84 m 10.977 45.84 l 10.977 43.574 l 16.078 43.574 l 59.164 39.012
 l 59.164 24.297 l 60.863 24.297 l 60.863 41.098 l 16.078 45.84 l h
13.527 45.84 m W n
q
26 24 35 21 re W n
  q
0 g
0.283298 w
2 J
0 j
[] 0.0 d
10 M q 1 0 0 -1 0 0 cm
67.059 -39.645 m 31.344 -3.93 l S Q
  Q
Q
  Q
Q
Q q
28.867 23.453 32 19 re W n
q
28 23 33 20 re W n
  q
Q q
28 24 33 19 re W n
13.527 45.84 m 10.977 45.84 l 10.977 43.574 l 16.078 43.574 l 59.164 39.012
 l 59.164 24.297 l 60.863 24.297 l 60.863 41.098 l 16.078 45.84 l h
13.527 45.84 m W n
q
28 24 33 19 re W n
  q
0 g
0.283298 w
2 J
0 j
[] 0.0 d
10 M q 1 0 0 -1 0 0 cm
68.859 -37.848 m 33.145 -2.129 l S Q
  Q
Q
  Q
Q
Q q
30.867 23.453 30 17 re W n
q
30 23 31 18 re W n
  q
Q q
30 24 31 17 re W n
13.527 45.84 m 10.977 45.84 l 10.977 43.574 l 16.078 43.574 l 59.164 39.012
 l 59.164 24.297 l 60.863 24.297 l 60.863 41.098 l 16.078 45.84 l h
13.527 45.84 m W n
q
30 24 31 17 re W n
  q
0 g
0.283298 w
2 J
0 j
[] 0.0 d
10 M q 1 0 0 -1 0 0 cm
70.66 -36.047 m 34.945 -0.332 l S Q
  Q
Q
  Q
Q
Q q
31.867 23.453 29 15 re W n
q
31 23 30 16 re W n
  q
Q q
31 24 30 15 re W n
13.527 45.84 m 10.977 45.84 l 10.977 43.574 l 16.078 43.574 l 59.164 39.012
 l 59.164 24.297 l 60.863 24.297 l 60.863 41.098 l 16.078 45.84 l h
13.527 45.84 m W n
q
31 24 30 15 re W n
  q
0 g
0.283298 w
2 J
0 j
[] 0.0 d
10 M q 1 0 0 -1 0 0 cm
72.461 -34.246 m 36.746 1.469 l S Q
  Q
Q
  Q
Q
Q q
0 g
0.45345 w
0 J
0 j
[] 0.0 d
10 M q 1 0 0 -1 0 0 cm
13.527 -45.84 m 10.977 -45.84 l 10.977 -43.574 l 16.078 -43.574 l 59.164
 -39.012 l 59.164 -24.297 l 60.863 -24.297 l 60.863 -41.098 l 16.078 -45.84
 l h
13.527 -45.84 m S Q
Q q
66.867 29.453 11 13 re W n
q
66 29 12 14 re W n
  q
Q q
67 29 11 14 re W n
73.906 41.758 m 67.668 41.098 l 67.668 24.297 l 69.371 24.297 l 69.371 
39.012 l 78.441 39.973 l 78.441 24.297 l 80.141 24.297 l 80.141 42.418 l
 h
73.906 41.758 m W n
q
67 29 11 14 re W n
  q
0 g
0.283298 w
2 J
0 j
[] 0.0 d
10 M q 1 0 0 -1 0 0 cm
73.188 -49.375 m 57.891 -34.074 l S Q
  Q
Q
  Q
Q
Q q
66.867 27.453 13 15 re W n
q
66 27 14 16 re W n
  q
Q q
67 27 13 16 re W n
73.906 41.758 m 67.668 41.098 l 67.668 24.297 l 69.371 24.297 l 69.371 
39.012 l 78.441 39.973 l 78.441 24.297 l 80.141 24.297 l 80.141 42.418 l
 h
73.906 41.758 m W n
q
67 27 13 16 re W n
  q
0 g
0.283298 w
2 J
0 j
[] 0.0 d
10 M q 1 0 0 -1 0 0 cm
74.988 -47.574 m 59.691 -32.277 l S Q
  Q
Q
  Q
Q
Q q
66.867 26.453 14 16 re W n
q
66 26 15 17 re W n
  q
Q q
67 26 14 17 re W n
73.906 41.758 m 67.668 41.098 l 67.668 24.297 l 69.371 24.297 l 69.371 
39.012 l 78.441 39.973 l 78.441 24.297 l 80.141 24.297 l 80.141 42.418 l
 h
73.906 41.758 m W n
q
67 26 14 17 re W n
  q
0 g
0.283298 w
2 J
0 j
[] 0.0 d
10 M q 1 0 0 -1 0 0 cm
76.789 -45.773 m 61.488 -30.477 l S Q
  Q
Q
  Q
Q
Q q
66.867 24.453 14 18 re W n
q
66 24 15 19 re W n
  q
Q q
67 24 14 19 re W n
73.906 41.758 m 67.668 41.098 l 67.668 24.297 l 69.371 24.297 l 69.371 
39.012 l 78.441 39.973 l 78.441 24.297 l 80.141 24.297 l 80.141 42.418 l
 h
73.906 41.758 m W n
q
67 24 14 19 re W n
  q
0 g
0.283298 w
2 J
0 j
[] 0.0 d
10 M q 1 0 0 -1 0 0 cm
78.586 -43.973 m 63.289 -28.676 l S Q
  Q
Q
  Q
Q
Q q
66.867 23.453 14 19 re W n
q
66 23 15 20 re W n
  q
Q q
67 24 14 19 re W n
73.906 41.758 m 67.668 41.098 l 67.668 24.297 l 69.371 24.297 l 69.371 
39.012 l 78.441 39.973 l 78.441 24.297 l 80.141 24.297 l 80.141 42.418 l
 h
73.906 41.758 m W n
q
67 24 14 19 re W n
  q
0 g
0.283298 w
2 J
0 j
[] 0.0 d
10 M q 1 0 0 -1 0 0 cm
80.387 -42.172 m 65.09 -26.875 l S Q
q 1 0 0 -1 0 0 cm
82.188 -40.375 m 66.891 -25.074 l S Q
q 1 0 0 -1 0 0 cm
83.988 -38.574 m 68.691 -23.277 l S Q
  Q
Q
  Q
Q
Q q
66.867 23.453 14 18 re W n
q
66 23 15 19 re W n
  q
Q q
67 24 14 18 re W n
73.906 41.758 m 67.668 41.098 l 67.668 24.297 l 69.371 24.297 l 69.371 
39.012 l 78.441 39.973 l 78.441 24.297 l 80.141 24.297 l 80.141 42.418 l
 h
73.906 41.758 m W n
q
67 24 14 18 re W n
  q
0 g
0.283298 w
2 J
0 j
[] 0.0 d
10 M q 1 0 0 -1 0 0 cm
85.789 -36.773 m 70.488 -21.477 l S Q
  Q
Q
  Q
Q
Q q
67.867 23.453 13 16 re W n
q
67 23 14 17 re W n
  q
Q q
67 24 14 16 re W n
73.906 41.758 m 67.668 41.098 l 67.668 24.297 l 69.371 24.297 l 69.371 
39.012 l 78.441 39.973 l 78.441 24.297 l 80.141 24.297 l 80.141 42.418 l
 h
73.906 41.758 m W n
q
67 24 14 16 re W n
  q
0 g
0.283298 w
2 J
0 j
[] 0.0 d
10 M q 1 0 0 -1 0 0 cm
87.586 -34.973 m 72.289 -19.676 l S Q
  Q
Q
  Q
Q
Q q
69.867 23.453 11 14 re W n
q
69 23 12 15 re W n
  q
Q q
69 24 12 14 re W n
73.906 41.758 m 67.668 41.098 l 67.668 24.297 l 69.371 24.297 l 69.371 
39.012 l 78.441 39.973 l 78.441 24.297 l 80.141 24.297 l 80.141 42.418 l
 h
73.906 41.758 m W n
q
69 24 12 14 re W n
  q
0 g
0.283298 w
2 J
0 j
[] 0.0 d
10 M q 1 0 0 -1 0 0 cm
89.387 -33.172 m 74.09 -17.875 l S Q
  Q
Q
  Q
Q
Q q
0 g
0.45345 w
0 J
0 j
[] 0.0 d
10 M q 1 0 0 -1 0 0 cm
73.906 -41.758 m 67.668 -41.098 l 67.668 -24.297 l 69.371 -24.297 l 69.371
 -39.012 l 78.441 -39.973 l 78.441 -24.297 l 80.141 -24.297 l 80.141 -42.418
 l h
73.906 -41.758 m S Q
Q q
86.867 32.453 18 14 re W n
q
86 32 19 15 re W n
  q
Q q
86 32 19 14 re W n
99.699 44.488 m 86.945 43.141 l 86.945 24.297 l 88.645 24.297 l 88.645 
41.051 l 112.457 43.574 l 117.559 43.574 l 117.559 45.84 l 112.457 45.84
 l h
99.699 44.488 m W n
q
86 32 19 14 re W n
  q
0 g
0.283298 w
2 J
0 j
[] 0.0 d
10 M q 1 0 0 -1 0 0 cm
100.805 -62.594 m 74.727 -36.516 l S Q
  Q
Q
  Q
Q
Q q
86.867 30.453 20 16 re W n
q
86 30 21 17 re W n
  q
Q q
86 30 21 16 re W n
99.699 44.488 m 86.945 43.141 l 86.945 24.297 l 88.645 24.297 l 88.645 
41.051 l 112.457 43.574 l 117.559 43.574 l 117.559 45.84 l 112.457 45.84
 l h
99.699 44.488 m W n
q
86 30 21 16 re W n
  q
0 g
0.283298 w
2 J
0 j
[] 0.0 d
10 M q 1 0 0 -1 0 0 cm
102.605 -60.793 m 76.527 -34.715 l S Q
  Q
Q
  Q
Q
Q q
86.867 28.453 22 18 re W n
q
86 28 23 19 re W n
  q
Q q
86 28 23 18 re W n
99.699 44.488 m 86.945 43.141 l 86.945 24.297 l 88.645 24.297 l 88.645 
41.051 l 112.457 43.574 l 117.559 43.574 l 117.559 45.84 l 112.457 45.84
 l h
99.699 44.488 m W n
q
86 28 23 18 re W n
  q
0 g
0.283298 w
2 J
0 j
[] 0.0 d
10 M q 1 0 0 -1 0 0 cm
104.406 -58.992 m 78.328 -32.914 l S Q
  Q
Q
  Q
Q
Q q
86.867 26.453 24 20 re W n
q
86 26 25 21 re W n
  q
Q q
86 26 25 20 re W n
99.699 44.488 m 86.945 43.141 l 86.945 24.297 l 88.645 24.297 l 88.645 
41.051 l 112.457 43.574 l 117.559 43.574 l 117.559 45.84 l 112.457 45.84
 l h
99.699 44.488 m W n
q
86 26 25 20 re W n
  q
0 g
0.283298 w
2 J
0 j
[] 0.0 d
10 M q 1 0 0 -1 0 0 cm
106.207 -57.191 m 80.129 -31.113 l S Q
  Q
Q
  Q
Q
Q q
86.867 24.453 26 22 re W n
q
86 24 27 23 re W n
  q
Q q
86 24 27 22 re W n
99.699 44.488 m 86.945 43.141 l 86.945 24.297 l 88.645 24.297 l 88.645 
41.051 l 112.457 43.574 l 117.559 43.574 l 117.559 45.84 l 112.457 45.84
 l h
99.699 44.488 m W n
q
86 24 27 22 re W n
  q
0 g
0.283298 w
2 J
0 j
[] 0.0 d
10 M q 1 0 0 -1 0 0 cm
108.008 -55.391 m 81.93 -29.312 l S Q
  Q
Q
  Q
Q
Q q
86.867 23.453 27 23 re W n
q
86 23 28 24 re W n
  q
Q q
86 24 28 22 re W n
99.699 44.488 m 86.945 43.141 l 86.945 24.297 l 88.645 24.297 l 88.645 
41.051 l 112.457 43.574 l 117.559 43.574 l 117.559 45.84 l 112.457 45.84
 l h
99.699 44.488 m W n
q
86 24 28 22 re W n
  q
0 g
0.283298 w
2 J
0 j
[] 0.0 d
10 M q 1 0 0 -1 0 0 cm
109.805 -53.594 m 83.727 -27.516 l S Q
  Q
Q
  Q
Q
Q q
86.867 23.453 29 23 re W n
q
86 23 30 24 re W n
  q
Q q
86 24 30 22 re W n
99.699 44.488 m 86.945 43.141 l 86.945 24.297 l 88.645 24.297 l 88.645 
41.051 l 112.457 43.574 l 117.559 43.574 l 117.559 45.84 l 112.457 45.84
 l h
99.699 44.488 m W n
q
86 24 30 22 re W n
  q
0 g
0.283298 w
2 J
0 j
[] 0.0 d
10 M q 1 0 0 -1 0 0 cm
111.605 -51.793 m 85.527 -25.715 l S Q
  Q
Q
  Q
Q
Q q
86.867 23.453 31 23 re W n
q
86 23 32 24 re W n
  q
Q q
86 24 32 22 re W n
99.699 44.488 m 86.945 43.141 l 86.945 24.297 l 88.645 24.297 l 88.645 
41.051 l 112.457 43.574 l 117.559 43.574 l 117.559 45.84 l 112.457 45.84
 l h
99.699 44.488 m W n
q
86 24 32 22 re W n
  q
0 g
0.283298 w
2 J
0 j
[] 0.0 d
10 M q 1 0 0 -1 0 0 cm
113.406 -49.992 m 87.328 -23.914 l S Q
q 1 0 0 -1 0 0 cm
115.207 -48.191 m 89.129 -22.113 l S Q
q 1 0 0 -1 0 0 cm
117.008 -46.391 m 90.93 -20.312 l S Q
  Q
Q
  Q
Q
Q q
87.867 23.453 30 23 re W n
q
87 23 31 24 re W n
  q
Q q
87 24 31 22 re W n
99.699 44.488 m 86.945 43.141 l 86.945 24.297 l 88.645 24.297 l 88.645 
41.051 l 112.457 43.574 l 117.559 43.574 l 117.559 45.84 l 112.457 45.84
 l h
99.699 44.488 m W n
q
87 24 31 22 re W n
  q
0 g
0.283298 w
2 J
0 j
[] 0.0 d
10 M q 1 0 0 -1 0 0 cm
118.805 -44.594 m 92.727 -18.516 l S Q
  Q
Q
  Q
Q
Q q
89.867 23.453 28 23 re W n
q
89 23 29 24 re W n
  q
Q q
89 24 29 22 re W n
99.699 44.488 m 86.945 43.141 l 86.945 24.297 l 88.645 24.297 l 88.645 
41.051 l 112.457 43.574 l 117.559 43.574 l 117.559 45.84 l 112.457 45.84
 l h
99.699 44.488 m W n
q
89 24 29 22 re W n
  q
0 g
0.283298 w
2 J
0 j
[] 0.0 d
10 M q 1 0 0 -1 0 0 cm
120.605 -42.793 m 94.527 -16.715 l S Q
  Q
Q
  Q
Q
Q q
91.867 23.453 26 22 re W n
q
91 23 27 23 re W n
  q
Q q
91 24 27 22 re W n
99.699 44.488 m 86.945 43.141 l 86.945 24.297 l 88.645 24.297 l 88.645 
41.051 l 112.457 43.574 l 117.559 43.574 l 117.559 45.84 l 112.457 45.84
 l h
99.699 44.488 m W n
q
91 24 27 22 re W n
  q
0 g
0.283298 w
2 J
0 j
[] 0.0 d
10 M q 1 0 0 -1 0 0 cm
122.406 -40.992 m 96.328 -14.914 l S Q
  Q
Q
  Q
Q
Q q
93.867 23.453 24 20 re W n
q
93 23 25 21 re W n
  q
Q q
93 24 25 20 re W n
99.699 44.488 m 86.945 43.141 l 86.945 24.297 l 88.645 24.297 l 88.645 
41.051 l 112.457 43.574 l 117.559 43.574 l 117.559 45.84 l 112.457 45.84
 l h
99.699 44.488 m W n
q
93 24 25 20 re W n
  q
0 g
0.283298 w
2 J
0 j
[] 0.0 d
10 M q 1 0 0 -1 0 0 cm
124.207 -39.191 m 98.129 -13.113 l S Q
  Q
Q
  Q
Q
Q q
95.867 23.453 22 18 re W n
q
95 23 23 19 re W n
  q
Q q
95 24 23 18 re W n
99.699 44.488 m 86.945 43.141 l 86.945 24.297 l 88.645 24.297 l 88.645 
41.051 l 112.457 43.574 l 117.559 43.574 l 117.559 45.84 l 112.457 45.84
 l h
99.699 44.488 m W n
q
95 24 23 18 re W n
  q
0 g
0.283298 w
2 J
0 j
[] 0.0 d
10 M q 1 0 0 -1 0 0 cm
126.008 -37.391 m 99.93 -11.312 l S Q
  Q
Q
  Q
Q
Q q
96.867 23.453 21 17 re W n
q
96 23 22 18 re W n
  q
Q q
96 24 22 17 re W n
99.699 44.488 m 86.945 43.141 l 86.945 24.297 l 88.645 24.297 l 88.645 
41.051 l 112.457 43.574 l 117.559 43.574 l 117.559 45.84 l 112.457 45.84
 l h
99.699 44.488 m W n
q
96 24 22 17 re W n
  q
0 g
0.283298 w
2 J
0 j
[] 0.0 d
10 M q 1 0 0 -1 0 0 cm
127.805 -35.594 m 101.727 -9.516 l S Q
  Q
Q
  Q
Q
Q q
98.867 23.453 19 15 re W n
q
98 23 20 16 re W n
  q
Q q
98 24 20 15 re W n
99.699 44.488 m 86.945 43.141 l 86.945 24.297 l 88.645 24.297 l 88.645 
41.051 l 112.457 43.574 l 117.559 43.574 l 117.559 45.84 l 112.457 45.84
 l h
99.699 44.488 m W n
q
98 24 20 15 re W n
  q
0 g
0.283298 w
2 J
0 j
[] 0.0 d
10 M q 1 0 0 -1 0 0 cm
129.605 -33.793 m 103.527 -7.715 l S Q
  Q
Q
  Q
Q
Q q
0 g
0.45345 w
0 J
0 j
[] 0.0 d
10 M q 1 0 0 -1 0 0 cm
99.699 -44.488 m 86.945 -43.141 l 86.945 -24.297 l 88.645 -24.297 l 88.645
 -41.051 l 112.457 -43.574 l 117.559 -43.574 l 117.559 -45.84 l 112.457 
-45.84 l h
99.699 -44.488 m S Q
0.74902 g
91.48 148.453 m 112.457 148.453 l 112.457 58.879 l 70.504 58.879 l 70.504
 69.086 l 105.086 69.086 l 105.086 74.754 l 70.504 74.754 l 70.504 87.227
 l 94.883 87.227 l 94.883 80.422 l 108.488 80.422 l 108.488 99.699 l 94.883
 99.699 l 94.883 92.895 l 70.504 92.895 l 70.504 107.066 l 105.086 107.066
 l 105.086 112.738 l 70.504 112.738 l 70.504 126.344 l 94.883 126.344 l 
94.883 118.973 l 108.488 118.973 l 108.488 139.383 l 94.883 139.383 l 94.883
 132.012 l 70.504 132.012 l 70.504 148.453 l f
0 g
q 1 0 0 -1 0 0 cm
91.48 -148.453 m 112.457 -148.453 l 112.457 -58.879 l 70.504 -58.879 l 
70.504 -69.086 l 105.086 -69.086 l 105.086 -74.754 l 70.504 -74.754 l 70.504
 -87.227 l 94.883 -87.227 l 94.883 -80.422 l 108.488 -80.422 l 108.488 -99.699
 l 94.883 -99.699 l 94.883 -92.895 l 70.504 -92.895 l 70.504 -107.066 l 
105.086 -107.066 l 105.086 -112.738 l 70.504 -112.738 l 70.504 -126.344 
l 94.883 -126.344 l 94.883 -118.973 l 108.488 -118.973 l 108.488 -139.383
 l 94.883 -139.383 l 94.883 -132.012 l 70.504 -132.012 l 70.504 -148.453
 l h
91.48 -148.453 m S Q
0.74902 g
37.055 148.453 m 16.078 148.453 l 16.078 58.879 l 58.031 58.879 l 58.031
 69.086 l 23.449 69.086 l 23.449 74.754 l 58.031 74.754 l 58.031 87.227 
l 33.652 87.227 l 33.652 80.422 l 20.047 80.422 l 20.047 99.699 l 33.652
 99.699 l 33.652 92.895 l 58.031 92.895 l 58.031 107.066 l 23.449 107.066
 l 23.449 112.738 l 58.031 112.738 l 58.031 126.344 l 33.652 126.344 l 33.652
 118.973 l 20.047 118.973 l 20.047 139.383 l 33.652 139.383 l 33.652 132.012
 l 58.031 132.012 l 58.031 148.453 l f
0 g
q 1 0 0 -1 0 0 cm
37.055 -148.453 m 16.078 -148.453 l 16.078 -58.879 l 58.031 -58.879 l 58.031
 -69.086 l 23.449 -69.086 l 23.449 -74.754 l 58.031 -74.754 l 58.031 -87.227
 l 33.652 -87.227 l 33.652 -80.422 l 20.047 -80.422 l 20.047 -99.699 l 33.652
 -99.699 l 33.652 -92.895 l 58.031 -92.895 l 58.031 -107.066 l 23.449 -107.066
 l 23.449 -112.738 l 58.031 -112.738 l 58.031 -126.344 l 33.652 -126.344
 l 33.652 -118.973 l 20.047 -118.973 l 20.047 -139.383 l 33.652 -139.383
 l 33.652 -132.012 l 58.031 -132.012 l 58.031 -148.453 l h
37.055 -148.453 m S Q
0.498039 g
64.266 148.453 m 66.082 148.453 l 66.082 146.754 l 67.668 146.754 l 67.668
 130.027 l 97.148 130.027 l 97.148 137.113 l 106.219 137.113 l 106.219 121.242
 l 97.148 121.242 l 97.148 128.328 l 67.668 128.328 l 67.668 110.754 l 102.816
 110.754 l 102.816 109.051 l 67.668 109.051 l 67.668 90.91 l 97.148 90.91
 l 97.148 97.43 l 106.219 97.43 l 106.219 82.691 l 97.148 82.691 l 97.148
 89.211 l 67.668 89.211 l 67.668 72.77 l 102.816 72.77 l 102.816 71.066 
l 67.668 71.066 l 67.668 58.879 l 66.082 58.879 l 66.082 12.391 l 65.402
 12.391 l 64.836 13.527 l 63.699 11.258 l 63.133 12.391 l 62.453 12.391 
l 62.453 58.879 l 60.863 58.879 l 60.863 71.066 l 25.719 71.066 l 25.719
 72.77 l 60.863 72.77 l 60.863 89.211 l 31.387 89.211 l 31.387 82.691 l 
22.316 82.691 l 22.316 97.43 l 31.387 97.43 l 31.387 90.91 l 60.863 90.91
 l 60.863 109.051 l 25.719 109.051 l 25.719 110.754 l 60.863 110.754 l 60.863
 128.328 l 31.387 128.328 l 31.387 121.242 l 22.316 121.242 l 22.316 137.113
 l 31.387 137.113 l 31.387 130.027 l 60.863 130.027 l 60.863 146.754 l 62.453
 146.754 l 62.453 148.453 l f
0 g
q 1 0 0 -1 0 0 cm
64.266 -148.453 m 66.082 -148.453 l 66.082 -146.754 l 67.668 -146.754 l
 67.668 -130.027 l 97.148 -130.027 l 97.148 -137.113 l 106.219 -137.113 
l 106.219 -121.242 l 97.148 -121.242 l 97.148 -128.328 l 67.668 -128.328
 l 67.668 -110.754 l 102.816 -110.754 l 102.816 -109.051 l 67.668 -109.051
 l 67.668 -90.91 l 97.148 -90.91 l 97.148 -97.43 l 106.219 -97.43 l 106.219
 -82.691 l 97.148 -82.691 l 97.148 -89.211 l 67.668 -89.211 l 67.668 -72.77
 l 102.816 -72.77 l 102.816 -71.066 l 67.668 -71.066 l 67.668 -58.879 l 
66.082 -58.879 l 66.082 -12.391 l 65.402 -12.391 l 64.836 -13.527 l 63.699
 -11.258 l 63.133 -12.391 l 62.453 -12.391 l 62.453 -58.879 l 60.863 -58.879
 l 60.863 -71.066 l 25.719 -71.066 l 25.719 -72.77 l 60.863 -72.77 l 60.863
 -89.211 l 31.387 -89.211 l 31.387 -82.691 l 22.316 -82.691 l 22.316 -97.43
 l 31.387 -97.43 l 31.387 -90.91 l 60.863 -90.91 l 60.863 -109.051 l 25.719
 -109.051 l 25.719 -110.754 l 60.863 -110.754 l 60.863 -128.328 l 31.387
 -128.328 l 31.387 -121.242 l 22.316 -121.242 l 22.316 -137.113 l 31.387
 -137.113 l 31.387 -130.027 l 60.863 -130.027 l 60.863 -146.754 l 62.453
 -146.754 l 62.453 -148.453 l h
64.266 -148.453 m S Q
q 1 0 0 -1 0 0 cm
60.863 -102.816 m 60.863 -146.754 l 67.668 -146.754 l 67.668 -58.879 l 
60.863 -58.879 l h
60.863 -102.816 m S Q
40.777 52.359 m 40.777 52.469 l 41.059 52.531 41.137 52.578 41.137 52.719
 c 41.137 52.844 41.09 53.031 40.996 53.25 c 40.277 55.016 l 39.605 53.234
 l 39.48 52.859 39.48 52.859 39.48 52.766 c 39.48 52.578 39.559 52.531 39.934
 52.469 c 39.934 52.359 l 38.324 52.359 l 38.324 52.469 l 38.605 52.5 38.715
 52.594 38.871 53.016 c 38.902 53.125 38.98 53.328 39.027 53.469 c 38.309
 55.047 l 37.512 52.969 l 37.48 52.891 37.465 52.812 37.465 52.734 c 37.465
 52.562 37.559 52.5 37.84 52.469 c 37.84 52.359 l 36.402 52.359 l 36.402
 52.469 l 36.574 52.484 36.652 52.562 36.824 52.969 c 37.902 55.703 l 37.996
 55.953 38.059 56.047 38.105 56.047 c 38.137 56.047 38.199 55.953 38.309
 55.734 c 39.199 53.828 l 39.918 55.703 l 40.043 56.016 40.059 56.047 40.105
 56.047 c 40.168 56.047 40.199 55.984 40.34 55.656 c 41.434 52.906 l 41.574
 52.562 41.605 52.531 41.762 52.469 c 41.762 52.359 l h
40.777 52.359 m f
45.387 55.406 m 45.262 55.516 45.168 55.562 45.043 55.562 c 44.855 55.562
 44.809 55.453 44.809 55.094 c 44.809 53.547 l 44.809 53.125 44.762 52.906
 44.637 52.703 c 44.465 52.422 44.121 52.266 43.652 52.266 c 42.902 52.266
 42.324 52.656 42.324 53.172 c 42.324 53.344 42.465 53.5 42.652 53.5 c 42.855
 53.5 43.012 53.344 43.012 53.172 c 43.012 53.141 43.012 53.094 42.996 53.047
 c 42.98 52.969 42.98 52.906 42.98 52.859 c 42.98 52.641 43.23 52.469 43.559
 52.469 c 43.949 52.469 44.152 52.688 44.152 53.125 c 44.152 53.609 l 42.934
 54.094 42.793 54.172 42.449 54.469 c 42.277 54.625 42.168 54.906 42.168
 55.172 c 42.168 55.672 42.512 56.016 42.996 56.016 c 43.355 56.016 43.684
 55.844 44.168 55.438 c 44.199 55.859 44.355 56.016 44.684 56.016 c 44.949
 56.016 45.121 55.922 45.387 55.625 c h
44.152 54.953 m 44.152 55.203 44.121 55.281 43.949 55.375 c 43.746 55.484
 43.543 55.562 43.371 55.562 c 43.09 55.562 42.871 55.281 42.871 54.938 
c 42.871 54.906 l 42.871 54.438 43.23 54.125 44.152 53.797 c h
44.152 54.953 m f
47.383 52.359 m 46.586 52.359 l 46.586 51.422 l 46.586 51.344 46.57 51.328
 46.523 51.328 c 46.055 52 45.82 52.266 45.586 52.406 c 45.508 52.453 45.461
 52.5 45.461 52.547 c 45.461 52.578 45.461 52.594 45.492 52.609 c 45.914
 52.609 l 45.914 55 l 45.914 55.672 46.148 56.016 46.617 56.016 c 47.008
 56.016 47.305 55.828 47.57 55.406 c 47.477 55.328 l 47.289 55.531 47.164
 55.609 46.992 55.609 c 46.695 55.609 46.586 55.391 46.586 54.891 c 46.586
 52.609 l 47.383 52.609 l h
47.383 52.359 m f
50.762 54.625 m 50.387 55.234 50.043 55.469 49.527 55.469 c 49.074 55.469
 48.73 55.234 48.496 54.781 c 48.355 54.484 48.293 54.219 48.277 53.734 
c 50.746 53.734 l 50.668 53.219 50.59 52.984 50.402 52.719 c 50.152 52.438
 49.793 52.266 49.371 52.266 c 48.98 52.266 48.605 52.422 48.293 52.688 
c 47.934 53.016 47.715 53.578 47.715 54.234 c 47.715 55.328 48.277 56.016
 49.199 56.016 c 49.965 56.016 50.559 55.547 50.887 54.688 c h
48.293 53.469 m 48.387 52.859 48.652 52.562 49.152 52.562 c 49.637 52.562
 49.824 52.781 49.934 53.469 c h
48.293 53.469 m f
51.039 55.938 m 52.945 55.938 l 52.945 55.812 l 52.414 55.797 52.289 55.688
 52.273 55.219 c 52.273 53.422 l 52.273 53.172 52.602 52.781 52.82 52.781
 c 52.867 52.781 52.945 52.812 53.039 52.891 c 53.148 53.016 53.242 53.047
 53.352 53.047 c 53.539 53.047 53.664 52.922 53.664 52.688 c 53.664 52.438
 53.492 52.266 53.227 52.266 c 52.883 52.266 52.664 52.453 52.273 53.016
 c 52.273 52.281 l 52.227 52.266 l 51.773 52.453 51.492 52.562 51.055 52.703
 c 51.055 52.828 l 51.164 52.812 51.227 52.797 51.32 52.797 c 51.523 52.797
 51.602 52.922 51.602 53.281 c 51.602 55.266 l 51.586 55.688 51.539 55.734
 51.039 55.812 c h
51.039 55.938 m f
82.457 20.688 m 83.543 23.73 l 84.629 20.688 l 83.543 21.902 l f
0.340124 w
q 1 0 0 -1 0 0 cm
92.613 -18.062 m 83.543 -18.062 l 83.543 -21.902 l S Q
96.867 12.785 m 95.836 12.785 95.117 13.551 95.117 14.66 c 95.117 15.738
 95.852 16.535 96.852 16.535 c 97.867 16.535 98.633 15.707 98.633 14.598
 c 98.633 13.535 97.898 12.785 96.867 12.785 c h
96.773 13.02 m 97.445 13.02 97.914 13.785 97.914 14.879 c 97.914 15.785
 97.555 16.316 96.961 16.316 c 96.648 16.316 96.352 16.129 96.18 15.801 
c 95.961 15.395 95.836 14.832 95.836 14.27 c 95.836 13.504 96.195 13.02 
96.773 13.02 c h
96.773 13.02 m f
98.887 18.191 m 100.809 18.191 l 100.809 18.035 l 100.215 18.035 100.121
 17.957 100.105 17.441 c 100.105 16.191 l 100.387 16.457 100.574 16.535 
100.918 16.535 c 101.855 16.535 102.59 15.645 102.59 14.488 c 102.59 13.504
 102.027 12.785 101.262 12.785 c 100.809 12.785 100.465 12.988 100.105 13.426
 c 100.105 12.801 l 100.059 12.785 l 99.621 12.957 99.355 13.066 98.918 
13.191 c 98.918 13.332 l 98.98 13.316 99.027 13.316 99.105 13.316 c 99.387
 13.316 99.434 13.395 99.434 13.77 c 99.434 17.504 l 99.434 17.926 99.355
 18.004 98.887 18.051 c h
100.105 13.801 m 100.105 13.551 100.559 13.27 100.918 13.27 c 101.512 13.27
 101.902 13.879 101.902 14.801 c 101.902 15.691 101.512 16.285 100.934 16.285
 c 100.559 16.285 100.105 15.988 100.105 15.754 c h
100.105 13.801 m f
106.051 15.145 m 105.676 15.754 105.332 15.988 104.816 15.988 c 104.363
 15.988 104.02 15.754 103.785 15.301 c 103.645 15.004 103.582 14.738 103.566
 14.254 c 106.035 14.254 l 105.957 13.738 105.879 13.504 105.691 13.238 
c 105.441 12.957 105.082 12.785 104.66 12.785 c 104.27 12.785 103.895 12.941
 103.582 13.207 c 103.223 13.535 103.004 14.098 103.004 14.754 c 103.004
 15.848 103.566 16.535 104.488 16.535 c 105.254 16.535 105.848 16.066 106.176
 15.207 c h
103.582 13.988 m 103.676 13.379 103.941 13.082 104.441 13.082 c 104.926
 13.082 105.113 13.301 105.223 13.988 c h
103.582 13.988 m f
106.422 16.457 m 108.109 16.457 l 108.109 16.332 l 107.719 16.316 107.594
 16.207 107.594 15.926 c 107.594 13.691 l 107.969 13.332 108.141 13.223 
108.406 13.223 c 108.797 13.223 108.984 13.473 108.984 14.004 c 108.984 
15.676 l 108.969 16.191 108.875 16.316 108.484 16.332 c 108.484 16.457 l
 110.141 16.457 l 110.141 16.332 l 109.75 16.301 109.672 16.207 109.656 
15.816 c 109.656 13.988 l 109.656 13.238 109.312 12.785 108.719 12.785 c
 108.359 12.785 108.109 12.926 107.562 13.441 c 107.562 12.801 l 107.516
 12.785 l 107.094 12.941 106.828 13.035 106.406 13.145 c 106.406 13.285 
l 106.469 13.254 106.531 13.254 106.625 13.254 c 106.844 13.254 106.922 
13.379 106.922 13.77 c 106.922 15.738 l 106.906 16.207 106.828 16.316 106.422
 16.332 c h
106.422 16.457 m f
110.367 16.457 m 112.258 16.457 l 112.258 16.332 l 111.727 16.301 111.68
 16.223 111.664 15.645 c 111.664 12.816 l 111.633 12.785 l 110.398 13.223
 l 110.398 13.348 l 110.461 13.348 l 110.555 13.332 110.664 13.316 110.742
 13.316 c 110.93 13.316 110.992 13.441 110.992 13.801 c 110.992 15.645 l
 110.977 16.238 110.914 16.316 110.367 16.332 c h
111.258 11.02 m 111.055 11.02 110.867 11.191 110.867 11.426 c 110.867 11.645
 111.039 11.832 111.258 11.832 c 111.508 11.832 111.68 11.645 111.68 11.426
 c 111.68 11.191 111.492 11.02 111.258 11.02 c h
111.258 11.02 m f
112.543 16.457 m 114.23 16.457 l 114.23 16.332 l 113.84 16.316 113.715 
16.207 113.715 15.926 c 113.715 13.691 l 114.09 13.332 114.262 13.223 114.527
 13.223 c 114.918 13.223 115.105 13.473 115.105 14.004 c 115.105 15.676 
l 115.09 16.191 114.996 16.316 114.605 16.332 c 114.605 16.457 l 116.262
 16.457 l 116.262 16.332 l 115.871 16.301 115.793 16.207 115.777 15.816 
c 115.777 13.988 l 115.777 13.238 115.434 12.785 114.84 12.785 c 114.48 
12.785 114.23 12.926 113.684 13.441 c 113.684 12.801 l 113.637 12.785 l 
113.215 12.941 112.949 13.035 112.527 13.145 c 112.527 13.285 l 112.59 13.254
 112.652 13.254 112.746 13.254 c 112.965 13.254 113.043 13.379 113.043 13.77
 c 113.043 15.738 l 113.027 16.207 112.949 16.316 112.543 16.332 c h
112.543 16.457 m f
120.113 13.363 m 120.113 13.051 l 119.488 13.051 l 119.332 13.051 119.223
 13.035 119.051 12.973 c 118.879 12.91 l 118.676 12.832 118.457 12.785 118.238
 12.785 c 117.504 12.785 116.91 13.363 116.91 14.098 c 116.91 14.598 117.113
 14.895 117.66 15.16 c 117.441 15.348 l 117.285 15.504 117.191 15.598 117.16
 15.629 c 116.988 15.801 116.941 15.895 116.941 16.02 c 116.941 16.207 117.035
 16.285 117.363 16.441 c 116.801 16.863 116.582 17.129 116.582 17.426 c 
116.582 17.848 117.207 18.191 117.973 18.191 c 118.566 18.191 119.191 17.988
 119.598 17.645 c 119.895 17.41 120.035 17.145 120.035 16.848 c 120.035 
16.348 119.66 16.02 119.066 15.988 c 118.051 15.941 l 117.613 15.926 117.426
 15.863 117.426 15.738 c 117.426 15.566 117.691 15.301 117.895 15.223 c 
118.191 15.254 118.332 15.27 118.348 15.27 c 118.645 15.27 118.973 15.145
 119.223 14.941 c 119.473 14.707 119.598 14.426 119.598 14.035 c 119.598
 13.801 119.566 13.613 119.441 13.363 c h
117.535 16.473 m 117.801 16.535 118.426 16.582 118.832 16.582 c 119.551
 16.582 119.816 16.676 119.816 16.973 c 119.816 17.426 119.207 17.738 118.301
 17.738 c 117.598 17.738 117.145 17.504 117.145 17.16 c 117.145 16.973 117.223
 16.848 117.535 16.473 c h
117.582 13.77 m 117.582 13.301 117.801 13.02 118.16 13.02 c 118.41 13.02
 118.613 13.145 118.738 13.395 c 118.895 13.676 118.988 14.02 118.988 14.348
 c 118.988 14.785 118.77 15.066 118.395 15.066 c 117.895 15.066 117.582 
14.551 117.582 13.785 c h
117.582 13.77 m f
125.07 12.879 m 124.086 12.879 l 124.086 11.941 l 124.086 11.473 124.242
 11.238 124.539 11.238 c 124.711 11.238 124.82 11.316 124.961 11.551 c 125.086
 11.754 125.18 11.832 125.32 11.832 c 125.508 11.832 125.648 11.691 125.648
 11.504 c 125.648 11.223 125.305 11.02 124.82 11.02 c 124.32 11.02 123.914
 11.223 123.695 11.582 c 123.492 11.941 123.43 12.238 123.43 12.879 c 122.773
 12.879 l 122.773 13.129 l 123.43 13.129 l 123.43 15.629 l 123.414 16.223
 123.32 16.316 122.758 16.332 c 122.758 16.457 l 124.836 16.457 l 124.836
 16.332 l 124.18 16.316 124.086 16.223 124.086 15.629 c 124.086 13.129 l
 125.07 13.129 l h
125.07 12.879 m f
127.227 12.785 m 126.195 12.785 125.477 13.551 125.477 14.66 c 125.477 
15.738 126.211 16.535 127.211 16.535 c 128.227 16.535 128.992 15.707 128.992
 14.598 c 128.992 13.535 128.258 12.785 127.227 12.785 c h
127.133 13.02 m 127.805 13.02 128.273 13.785 128.273 14.879 c 128.273 15.785
 127.914 16.316 127.32 16.316 c 127.008 16.316 126.711 16.129 126.539 15.801
 c 126.32 15.395 126.195 14.832 126.195 14.27 c 126.195 13.504 126.555 13.02
 127.133 13.02 c h
127.133 13.02 m f
129.25 16.457 m 131.156 16.457 l 131.156 16.332 l 130.625 16.316 130.5 
16.207 130.484 15.738 c 130.484 13.941 l 130.484 13.691 130.812 13.301 131.031
 13.301 c 131.078 13.301 131.156 13.332 131.25 13.41 c 131.359 13.535 131.453
 13.566 131.562 13.566 c 131.75 13.566 131.875 13.441 131.875 13.207 c 131.875
 12.957 131.703 12.785 131.438 12.785 c 131.094 12.785 130.875 12.973 130.484
 13.535 c 130.484 12.801 l 130.438 12.785 l 129.984 12.973 129.703 13.082
 129.266 13.223 c 129.266 13.348 l 129.375 13.332 129.438 13.316 129.531
 13.316 c 129.734 13.316 129.812 13.441 129.812 13.801 c 129.812 15.785 
l 129.797 16.207 129.75 16.254 129.25 16.332 c h
129.25 16.457 m f
96.914 20.523 m 96.117 20.523 l 96.117 19.586 l 96.117 19.508 96.102 19.492
 96.055 19.492 c 95.586 20.164 95.352 20.43 95.117 20.57 c 95.039 20.617
 94.992 20.664 94.992 20.711 c 94.992 20.742 94.992 20.758 95.023 20.773
 c 95.445 20.773 l 95.445 23.164 l 95.445 23.836 95.68 24.18 96.148 24.18
 c 96.539 24.18 96.836 23.992 97.102 23.57 c 97.008 23.492 l 96.82 23.695
 96.695 23.773 96.523 23.773 c 96.227 23.773 96.117 23.555 96.117 23.055
 c 96.117 20.773 l 96.914 20.773 l h
96.914 20.523 m f
100.918 23.977 m 100.496 23.914 100.449 23.852 100.449 23.289 c 100.449
 21.695 l 100.449 20.867 100.121 20.43 99.465 20.43 c 98.996 20.43 98.668
 20.633 98.293 21.102 c 98.293 18.68 l 98.262 18.664 l 97.98 18.758 97.777
 18.82 97.34 18.945 c 97.121 19.008 l 97.121 19.133 l 97.152 19.133 97.168
 19.133 97.215 19.133 c 97.559 19.133 97.621 19.195 97.621 19.539 c 97.621
 23.289 l 97.605 23.867 97.574 23.93 97.121 23.977 c 97.121 24.102 l 98.84
 24.102 l 98.84 23.977 l 98.371 23.945 98.309 23.852 98.293 23.289 c 98.293
 21.367 l 98.621 21.008 98.871 20.867 99.184 20.867 c 99.574 20.867 99.777
 21.148 99.777 21.711 c 99.777 23.289 l 99.762 23.852 99.684 23.945 99.23
 23.977 c 99.23 24.102 l 100.918 24.102 l h
100.918 23.977 m f
104.25 22.789 m 103.875 23.398 103.531 23.633 103.016 23.633 c 102.562 
23.633 102.219 23.398 101.984 22.945 c 101.844 22.648 101.781 22.383 101.766
 21.898 c 104.234 21.898 l 104.156 21.383 104.078 21.148 103.891 20.883 
c 103.641 20.602 103.281 20.43 102.859 20.43 c 102.469 20.43 102.094 20.586
 101.781 20.852 c 101.422 21.18 101.203 21.742 101.203 22.398 c 101.203 
23.492 101.766 24.18 102.688 24.18 c 103.453 24.18 104.047 23.711 104.375
 22.852 c h
101.781 21.633 m 101.875 21.023 102.141 20.727 102.641 20.727 c 103.125
 20.727 103.312 20.945 103.422 21.633 c h
101.781 21.633 m f
104.527 24.102 m 106.434 24.102 l 106.434 23.977 l 105.902 23.961 105.777
 23.852 105.762 23.383 c 105.762 21.586 l 105.762 21.336 106.09 20.945 106.309
 20.945 c 106.355 20.945 106.434 20.977 106.527 21.055 c 106.637 21.18 106.73
 21.211 106.84 21.211 c 107.027 21.211 107.152 21.086 107.152 20.852 c 107.152
 20.602 106.98 20.43 106.715 20.43 c 106.371 20.43 106.152 20.617 105.762
 21.18 c 105.762 20.445 l 105.715 20.43 l 105.262 20.617 104.98 20.727 104.543
 20.867 c 104.543 20.992 l 104.652 20.977 104.715 20.961 104.809 20.961 
c 105.012 20.961 105.09 21.086 105.09 21.445 c 105.09 23.43 l 105.074 23.852
 105.027 23.898 104.527 23.977 c h
104.527 24.102 m f
107.246 24.102 m 109.012 24.102 l 109.012 23.977 l 108.605 23.977 108.48
 23.883 108.48 23.57 c 108.48 21.32 l 108.48 21.305 108.543 21.227 108.59
 21.164 c 108.793 20.992 109.137 20.852 109.418 20.852 c 109.762 20.852 
109.949 21.133 109.949 21.68 c 109.949 23.414 l 109.934 23.867 109.84 23.961
 109.402 23.977 c 109.402 24.102 l 111.184 24.102 l 111.184 23.977 l 110.746
 23.977 110.621 23.852 110.605 23.352 c 110.605 21.336 l 110.855 20.992 
111.105 20.852 111.48 20.852 c 111.934 20.852 112.074 21.07 112.074 21.727
 c 112.074 23.414 l 112.059 23.883 112.012 23.93 111.559 23.977 c 111.559
 24.102 l 113.293 24.102 l 113.293 23.977 l 113.09 23.961 l 112.84 23.93
 112.746 23.805 112.746 23.492 c 112.746 21.852 l 112.746 20.914 112.434
 20.43 111.824 20.43 c 111.355 20.43 110.949 20.648 110.527 21.102 c 110.387
 20.648 110.105 20.43 109.684 20.43 c 109.324 20.43 109.105 20.539 108.449
 21.055 c 108.449 20.445 l 108.387 20.43 l 107.965 20.586 107.699 20.68 
107.277 20.789 c 107.277 20.93 l 107.371 20.898 107.434 20.898 107.527 20.898
 c 107.73 20.898 107.809 21.023 107.809 21.414 c 107.809 23.43 l 107.793
 23.867 107.684 23.977 107.246 23.977 c h
107.246 24.102 m f
115.348 20.43 m 114.316 20.43 113.598 21.195 113.598 22.305 c 113.598 23.383
 114.332 24.18 115.332 24.18 c 116.348 24.18 117.113 23.352 117.113 22.242
 c 117.113 21.18 116.379 20.43 115.348 20.43 c h
115.254 20.664 m 115.926 20.664 116.395 21.43 116.395 22.523 c 116.395 
23.43 116.035 23.961 115.441 23.961 c 115.129 23.961 114.832 23.773 114.66
 23.445 c 114.441 23.039 114.316 22.477 114.316 21.914 c 114.316 21.148 
114.676 20.664 115.254 20.664 c h
115.254 20.664 m f
117.445 24.102 m 119.211 24.102 l 119.211 23.977 l 118.805 23.977 118.68
 23.883 118.68 23.57 c 118.68 21.32 l 118.68 21.305 118.742 21.227 118.789
 21.164 c 118.992 20.992 119.336 20.852 119.617 20.852 c 119.961 20.852 
120.148 21.133 120.148 21.68 c 120.148 23.414 l 120.133 23.867 120.039 23.961
 119.602 23.977 c 119.602 24.102 l 121.383 24.102 l 121.383 23.977 l 120.945
 23.977 120.82 23.852 120.805 23.352 c 120.805 21.336 l 121.055 20.992 121.305
 20.852 121.68 20.852 c 122.133 20.852 122.273 21.07 122.273 21.727 c 122.273
 23.414 l 122.258 23.883 122.211 23.93 121.758 23.977 c 121.758 24.102 l
 123.492 24.102 l 123.492 23.977 l 123.289 23.961 l 123.039 23.93 122.945
 23.805 122.945 23.492 c 122.945 21.852 l 122.945 20.914 122.633 20.43 122.023
 20.43 c 121.555 20.43 121.148 20.648 120.727 21.102 c 120.586 20.648 120.305
 20.43 119.883 20.43 c 119.523 20.43 119.305 20.539 118.648 21.055 c 118.648
 20.445 l 118.586 20.43 l 118.164 20.586 117.898 20.68 117.477 20.789 c 
117.477 20.93 l 117.57 20.898 117.633 20.898 117.727 20.898 c 117.93 20.898
 118.008 21.023 118.008 21.414 c 118.008 23.43 l 117.992 23.867 117.883 
23.977 117.445 23.977 c h
117.445 24.102 m f
126.812 22.789 m 126.438 23.398 126.094 23.633 125.578 23.633 c 125.125
 23.633 124.781 23.398 124.547 22.945 c 124.406 22.648 124.344 22.383 124.328
 21.898 c 126.797 21.898 l 126.719 21.383 126.641 21.148 126.453 20.883 
c 126.203 20.602 125.844 20.43 125.422 20.43 c 125.031 20.43 124.656 20.586
 124.344 20.852 c 123.984 21.18 123.766 21.742 123.766 22.398 c 123.766 
23.492 124.328 24.18 125.25 24.18 c 126.016 24.18 126.609 23.711 126.938
 22.852 c h
124.344 21.633 m 124.438 21.023 124.703 20.727 125.203 20.727 c 125.688
 20.727 125.875 20.945 125.984 21.633 c h
124.344 21.633 m f
129.074 20.523 m 128.277 20.523 l 128.277 19.586 l 128.277 19.508 128.262
 19.492 128.215 19.492 c 127.746 20.164 127.512 20.43 127.277 20.57 c 127.199
 20.617 127.152 20.664 127.152 20.711 c 127.152 20.742 127.152 20.758 127.184
 20.773 c 127.605 20.773 l 127.605 23.164 l 127.605 23.836 127.84 24.18 
128.309 24.18 c 128.699 24.18 128.996 23.992 129.262 23.57 c 129.168 23.492
 l 128.98 23.695 128.855 23.773 128.684 23.773 c 128.387 23.773 128.277 
23.555 128.277 23.055 c 128.277 20.773 l 129.074 20.773 l h
129.074 20.523 m f
132.453 22.789 m 132.078 23.398 131.734 23.633 131.219 23.633 c 130.766
 23.633 130.422 23.398 130.188 22.945 c 130.047 22.648 129.984 22.383 129.969
 21.898 c 132.438 21.898 l 132.359 21.383 132.281 21.148 132.094 20.883 
c 131.844 20.602 131.484 20.43 131.062 20.43 c 130.672 20.43 130.297 20.586
 129.984 20.852 c 129.625 21.18 129.406 21.742 129.406 22.398 c 129.406 
23.492 129.969 24.18 130.891 24.18 c 131.656 24.18 132.25 23.711 132.578
 22.852 c h
129.984 21.633 m 130.078 21.023 130.344 20.727 130.844 20.727 c 131.328
 20.727 131.516 20.945 131.625 21.633 c h
129.984 21.633 m f
132.727 24.102 m 134.633 24.102 l 134.633 23.977 l 134.102 23.961 133.977
 23.852 133.961 23.383 c 133.961 21.586 l 133.961 21.336 134.289 20.945 
134.508 20.945 c 134.555 20.945 134.633 20.977 134.727 21.055 c 134.836 
21.18 134.93 21.211 135.039 21.211 c 135.227 21.211 135.352 21.086 135.352
 20.852 c 135.352 20.602 135.18 20.43 134.914 20.43 c 134.57 20.43 134.352
 20.617 133.961 21.18 c 133.961 20.445 l 133.914 20.43 l 133.461 20.617 
133.18 20.727 132.742 20.867 c 132.742 20.992 l 132.852 20.977 132.914 20.961
 133.008 20.961 c 133.211 20.961 133.289 21.086 133.289 21.445 c 133.289
 23.43 l 133.273 23.852 133.227 23.898 132.727 23.977 c h
132.727 24.102 m f
Q Q
showpage
%%Trailer
end
%%EOF
