<?xml version="1.0" encoding="UTF-8" standalone="no"?>
<svg
   xmlns:dc="http://purl.org/dc/elements/1.1/"
   xmlns:cc="http://creativecommons.org/ns#"
   xmlns:rdf="http://www.w3.org/1999/02/22-rdf-syntax-ns#"
   xmlns:svg="http://www.w3.org/2000/svg"
   xmlns="http://www.w3.org/2000/svg"
   xmlns:xlink="http://www.w3.org/1999/xlink"
   id="svg167"
   version="1.2"
   viewBox="0 0 281 41"
   height="41pt"
   width="281pt">
  <title
     id="title978">free expansion of a gas into a vacuum</title>
  <metadata
     id="metadata171">
    <rdf:RDF>
      <cc:Work
         rdf:about="">
        <dc:format>image/svg+xml</dc:format>
        <dc:type
           rdf:resource="http://purl.org/dc/dcmitype/StillImage" />
        <dc:title>free expansion of a gas into a vacuum</dc:title>
        <cc:license
           rdf:resource="http://creativecommons.org/licenses/by-sa/4.0/" />
        <dc:date>2021-04-23</dc:date>
        <dc:creator>
          <cc:Agent>
            <dc:title>Sandoval, Steven Baltakatei</dc:title>
          </cc:Agent>
        </dc:creator>
        <dc:rights>
          <cc:Agent>
            <dc:title>This work &quot;free expansion of a gas into a vacuum&quot; is a derivative of &quot;03-SUP/free-exp.eps&quot; by Howard DeVoe, used under CC BY 4.0. &quot;free expansion of a gas into a vacuum&quot; is licensed under CC BY-SA 4.0 by Steven Baltakatei Sandoval.</dc:title>
          </cc:Agent>
        </dc:rights>
        <dc:source>https://gitlab.com/baltakatei/bk-2021-07-1</dc:source>
        <dc:relation>Thermodynamics and Chemistry 2nd Edition, Version 10, by Howard DeVoe, http://www2.chem.umd.edu/thermobook/</dc:relation>
        <dc:description>Free expansion into a vacuum.</dc:description>
      </cc:Work>
      <cc:License
         rdf:about="http://creativecommons.org/licenses/by-sa/4.0/">
        <cc:permits
           rdf:resource="http://creativecommons.org/ns#Reproduction" />
        <cc:permits
           rdf:resource="http://creativecommons.org/ns#Distribution" />
        <cc:requires
           rdf:resource="http://creativecommons.org/ns#Notice" />
        <cc:requires
           rdf:resource="http://creativecommons.org/ns#Attribution" />
        <cc:permits
           rdf:resource="http://creativecommons.org/ns#DerivativeWorks" />
        <cc:requires
           rdf:resource="http://creativecommons.org/ns#ShareAlike" />
      </cc:License>
    </rdf:RDF>
  </metadata>
  <defs
     id="defs28">
    <g
       id="g26">
      <symbol
         style="overflow:visible"
         id="glyph0-0"
         overflow="visible">
        <path
           id="path2"
           d=""
           style="stroke:none" />
      </symbol>
      <symbol
         style="overflow:visible"
         id="glyph0-1"
         overflow="visible">
        <path
           id="path5"
           d="m 4.21875,-3.484375 v -0.34375 h -0.6875 c -0.1875,0 -0.328125,-0.03125 -0.5,-0.09375 l -0.203125,-0.0625 C 2.59375,-4.078125 2.34375,-4.125 2.109375,-4.125 1.28125,-4.125 0.625,-3.484375 0.625,-2.65625 c 0,0.5625 0.234375,0.890625 0.828125,1.1875 L 1.21875,-1.25 c -0.1875,0.1875 -0.296875,0.28125 -0.328125,0.3125 -0.1875,0.203125 -0.234375,0.296875 -0.234375,0.453125 0,0.203125 0.09375,0.296875 0.46875,0.46875 C 0.484375,0.453125 0.25,0.75 0.25,1.078125 c 0,0.484375 0.6875,0.875 1.546875,0.875 0.671875,0 1.375,-0.234375 1.84375,-0.609375 0.34375,-0.28125 0.5,-0.5625 0.5,-0.90625 0,-0.546875 -0.421875,-0.921875 -1.09375,-0.953125 l -1.15625,-0.0625 C 1.40625,-0.59375 1.1875,-0.671875 1.1875,-0.8125 c 0,-0.1875 0.296875,-0.5 0.546875,-0.5625 0.3125,0.015625 0.484375,0.03125 0.515625,0.03125 0.328125,0 0.6875,-0.125 0.953125,-0.375 0.296875,-0.25 0.4375,-0.5625 0.4375,-1 0,-0.265625 -0.046875,-0.46875 -0.171875,-0.765625 z m -2.90625,3.5 c 0.3125,0.0625 1.015625,0.125 1.46875,0.125 0.8125,0 1.109375,0.109375 1.109375,0.4375 0,0.515625 -0.6875,0.859375 -1.703125,0.859375 -0.796875,0 -1.3125,-0.25 -1.3125,-0.640625 0,-0.21875 0.078125,-0.34375 0.4375,-0.78125 z M 1.359375,-3.03125 c 0,-0.53125 0.25,-0.84375 0.671875,-0.84375 0.28125,0 0.5,0.15625 0.65625,0.421875 0.171875,0.3125 0.265625,0.71875 0.265625,1.078125 0,0.5 -0.25,0.8125 -0.671875,0.8125 -0.546875,0 -0.921875,-0.578125 -0.921875,-1.4375 z m 0,0"
           style="stroke:none" />
      </symbol>
      <symbol
         style="overflow:visible"
         id="glyph0-2"
         overflow="visible">
        <path
           id="path8"
           d="m 3.96875,-0.59375 c -0.15625,0.125 -0.265625,0.171875 -0.40625,0.171875 -0.203125,0 -0.265625,-0.125 -0.265625,-0.515625 v -1.75 C 3.296875,-3.15625 3.25,-3.421875 3.125,-3.625 c -0.203125,-0.328125 -0.59375,-0.5 -1.109375,-0.5 -0.84375,0 -1.515625,0.4375 -1.515625,1 0,0.203125 0.171875,0.390625 0.390625,0.390625 0.21875,0 0.40625,-0.1875 0.40625,-0.375 C 1.296875,-3.140625 1.28125,-3.1875 1.28125,-3.25 1.25,-3.34375 1.25,-3.40625 1.25,-3.46875 c 0,-0.25 0.28125,-0.4375 0.640625,-0.4375 0.4375,0 0.6875,0.25 0.6875,0.734375 V -2.625 c -1.375,0.546875 -1.53125,0.640625 -1.921875,0.96875 -0.203125,0.1875 -0.328125,0.484375 -0.328125,0.78125 0,0.5625 0.390625,0.96875 0.953125,0.96875 0.390625,0 0.75,-0.1875 1.296875,-0.65625 0.046875,0.46875 0.21875,0.65625 0.578125,0.65625 0.3125,0 0.5,-0.109375 0.8125,-0.453125 z M 2.578125,-1.109375 c 0,0.28125 -0.046875,0.375 -0.234375,0.484375 C 2.109375,-0.5 1.875,-0.4375 1.6875,-0.4375 1.375,-0.4375 1.125,-0.734375 1.125,-1.125 v -0.03125 c 0,-0.53125 0.40625,-0.875 1.453125,-1.25 z m 0,0"
           style="stroke:none" />
      </symbol>
      <symbol
         style="overflow:visible"
         id="glyph0-3"
         overflow="visible">
        <path
           id="path11"
           d="M 2.828125,-2.8125 2.796875,-4.046875 H 2.6875 C 2.640625,-3.96875 2.59375,-3.953125 2.546875,-3.953125 2.5,-3.953125 2.40625,-3.96875 2.3125,-4.015625 2.09375,-4.078125 1.890625,-4.125 1.671875,-4.125 c -0.703125,0 -1.21875,0.46875 -1.21875,1.109375 0,0.5 0.296875,0.859375 1.046875,1.296875 l 0.53125,0.296875 C 2.34375,-1.25 2.5,-1.03125 2.5,-0.75 c 0,0.390625 -0.296875,0.640625 -0.75,0.640625 -0.625,0 -0.9375,-0.34375 -1.140625,-1.25 H 0.46875 V 0.03125 H 0.578125 C 0.640625,-0.046875 0.6875,-0.078125 0.796875,-0.078125 0.890625,-0.078125 1,-0.046875 1.203125,0 1.4375,0.046875 1.671875,0.09375 1.859375,0.09375 2.5625,0.09375 3.125,-0.4375 3.125,-1.0625 3.125,-1.5 2.90625,-1.796875 2.375,-2.125 L 1.40625,-2.703125 C 1.140625,-2.859375 1.015625,-3.0625 1.015625,-3.3125 c 0,-0.359375 0.28125,-0.609375 0.6875,-0.609375 0.515625,0 0.78125,0.296875 0.984375,1.109375 z m 0,0"
           style="stroke:none" />
      </symbol>
      <symbol
         style="overflow:visible"
         id="glyph0-4"
         overflow="visible">
        <path
           id="path14"
           d="m 4.28125,-4.03125 h -1.25 v 0.125 c 0.28125,0.03125 0.421875,0.125 0.421875,0.296875 0,0.078125 -0.015625,0.171875 -0.046875,0.265625 L 2.515625,-1.015625 1.59375,-3.3125 c -0.046875,-0.125 -0.078125,-0.25 -0.078125,-0.34375 0,-0.15625 0.09375,-0.21875 0.40625,-0.25 v -0.125 h -1.75 v 0.125 c 0.34375,0.015625 0.40625,0.109375 0.8125,1.03125 L 2.0625,-0.296875 c 0.015625,0.0625 0.046875,0.125 0.078125,0.1875 C 2.15625,-0.03125 2.1875,0.03125 2.21875,0.078125 2.234375,0.109375 2.265625,0.125 2.296875,0.125 c 0.046875,0 0.109375,-0.109375 0.25,-0.453125 l 1.140625,-2.875 C 3.953125,-3.8125 4.015625,-3.875 4.28125,-3.90625 Z m 0,0"
           style="stroke:none" />
      </symbol>
      <symbol
         style="overflow:visible"
         id="glyph0-5"
         overflow="visible">
        <path
           id="path17"
           d="m 3.5625,-1.40625 c -0.421875,0.640625 -0.75,0.84375 -1.25,0.84375 -0.828125,0 -1.390625,-0.71875 -1.390625,-1.75 0,-0.921875 0.484375,-1.546875 1.21875,-1.546875 0.3125,0 0.4375,0.078125 0.515625,0.421875 l 0.0625,0.203125 c 0.078125,0.25 0.234375,0.40625 0.421875,0.40625 0.234375,0 0.421875,-0.171875 0.421875,-0.375 0,-0.5 -0.625,-0.921875 -1.375,-0.921875 -0.4375,0 -0.890625,0.171875 -1.265625,0.5 -0.453125,0.390625 -0.703125,1 -0.703125,1.71875 0,1.15625 0.71875,2 1.703125,2 0.40625,0 0.765625,-0.140625 1.09375,-0.421875 C 3.25,-0.53125 3.421875,-0.796875 3.6875,-1.3125 Z m 0,0"
           style="stroke:none" />
      </symbol>
      <symbol
         style="overflow:visible"
         id="glyph0-6"
         overflow="visible">
        <path
           id="path20"
           d="M 4.296875,-0.453125 H 4.25 c -0.4375,-0.015625 -0.5,-0.078125 -0.515625,-0.5 V -4.03125 h -1.40625 v 0.140625 c 0.546875,0.03125 0.65625,0.125 0.65625,0.578125 v 2.109375 c 0,0.25 -0.046875,0.375 -0.171875,0.46875 C 2.578125,-0.53125 2.296875,-0.4375 2.03125,-0.4375 c -0.359375,0 -0.640625,-0.296875 -0.640625,-0.671875 V -4.03125 h -1.3125 v 0.125 C 0.5,-3.890625 0.625,-3.765625 0.640625,-3.34375 v 2.265625 c 0,0.703125 0.421875,1.171875 1.078125,1.171875 0.328125,0 0.6875,-0.140625 0.921875,-0.390625 L 3.03125,-0.6875 v 0.75 L 3.0625,0.078125 c 0.453125,-0.171875 0.78125,-0.28125 1.234375,-0.40625 z m 0,0"
           style="stroke:none" />
      </symbol>
      <symbol
         style="overflow:visible"
         id="glyph0-7"
         overflow="visible">
        <path
           id="path23"
           d="m 0.140625,0 h 2 v -0.140625 c -0.46875,0 -0.609375,-0.09375 -0.609375,-0.453125 V -3.125 c 0,-0.015625 0.0625,-0.109375 0.125,-0.171875 C 1.890625,-3.5 2.265625,-3.65625 2.578125,-3.65625 c 0.40625,0 0.59375,0.3125 0.59375,0.9375 v 1.953125 c -0.015625,0.5 -0.109375,0.609375 -0.609375,0.625 V 0 h 2.015625 v -0.140625 c -0.5,0 -0.625,-0.140625 -0.65625,-0.71875 v -2.25 C 4.203125,-3.5 4.484375,-3.65625 4.90625,-3.65625 c 0.515625,0 0.671875,0.234375 0.671875,0.984375 V -0.78125 C 5.5625,-0.25 5.5,-0.1875 4.984375,-0.140625 V 0 h 1.96875 V -0.140625 L 6.71875,-0.15625 C 6.4375,-0.203125 6.328125,-0.328125 6.328125,-0.6875 v -1.84375 c 0,-1.0625 -0.34375,-1.59375 -1.03125,-1.59375 -0.53125,0 -0.984375,0.234375 -1.46875,0.75 -0.15625,-0.515625 -0.46875,-0.75 -0.953125,-0.75 -0.40625,0 -0.640625,0.109375 -1.390625,0.6875 V -4.109375 L 1.421875,-4.125 c -0.46875,0.171875 -0.78125,0.265625 -1.25,0.40625 v 0.15625 c 0.109375,-0.03125 0.1875,-0.046875 0.28125,-0.046875 0.234375,0 0.3125,0.140625 0.3125,0.578125 v 2.265625 c -0.015625,0.5 -0.125,0.625 -0.625,0.625 z m 0,0"
           style="stroke:none" />
      </symbol>
    </g>
  </defs>
  <g
     transform="translate(-147.09961,-123.53125)"
     id="surface668">
    <path
       id="path30"
       d="m 185.55078,144.60156 c 0,-10.17578 -8.24609,-18.42578 -18.42187,-18.42578 -10.17969,0 -18.42579,8.25 -18.42579,18.42578 0,10.17578 8.2461,18.42188 18.42579,18.42188 10.17578,0 18.42187,-8.2461 18.42187,-18.42188"
       style="fill:#bfbfbf;fill-opacity:1;fill-rule:nonzero;stroke:none" />
    <path
       id="path32"
       transform="matrix(0.1,0,0,-0.1,0,792)"
       d="m 1855.5078,6473.9844 c 0,101.7578 -82.4609,184.2578 -184.2187,184.2578 -101.7969,0 -184.2578,-82.5 -184.2578,-184.2578 0,-101.7578 82.4609,-184.2188 184.2578,-184.2188 101.7578,0 184.2187,82.461 184.2187,184.2188 z m 0,0"
       style="fill:none;stroke:#000000;stroke-width:5.67043018;stroke-linecap:butt;stroke-linejoin:miter;stroke-miterlimit:10;stroke-opacity:1" />
    <g
       id="g36"
       style="fill:#000000;fill-opacity:1">
      <use
         height="100%"
         width="100%"
         id="use34"
         y="146.53"
         x="161.127"
         xlink:href="#glyph0-1" />
    </g>
    <g
       id="g40"
       style="fill:#000000;fill-opacity:1">
      <use
         height="100%"
         width="100%"
         id="use38"
         y="146.53"
         x="165.567"
         xlink:href="#glyph0-2" />
    </g>
    <g
       id="g44"
       style="fill:#000000;fill-opacity:1">
      <use
         height="100%"
         width="100%"
         id="use42"
         y="146.53"
         x="169.52701"
         xlink:href="#glyph0-3" />
    </g>
    <path
       id="path46"
       transform="matrix(0.1,0,0,-0.1,0,792)"
       d="m 2564.1797,6473.9844 c 0,101.7578 -82.5,184.2578 -184.2578,184.2578 -101.7578,0 -184.2578,-82.5 -184.2578,-184.2578 0,-101.7578 82.5,-184.2188 184.2578,-184.2188 101.7578,0 184.2578,82.461 184.2578,184.2188 z m 0,0"
       style="fill:none;stroke:#000000;stroke-width:5.67043018;stroke-linecap:butt;stroke-linejoin:miter;stroke-miterlimit:10;stroke-opacity:1" />
    <g
       id="g50"
       style="fill:#000000;fill-opacity:1">
      <use
         height="100%"
         width="100%"
         id="use48"
         y="146.64"
         x="223.953"
         xlink:href="#glyph0-4" />
    </g>
    <g
       id="g54"
       style="fill:#000000;fill-opacity:1">
      <use
         height="100%"
         width="100%"
         id="use52"
         y="146.64"
         x="228.15302"
         xlink:href="#glyph0-2" />
    </g>
    <g
       id="g58"
       style="fill:#000000;fill-opacity:1">
      <use
         height="100%"
         width="100%"
         id="use56"
         y="146.64"
         x="232.11301"
         xlink:href="#glyph0-5" />
    </g>
    <g
       id="g62"
       style="fill:#000000;fill-opacity:1">
      <use
         height="100%"
         width="100%"
         id="use60"
         y="146.64"
         x="236.073"
         xlink:href="#glyph0-6" />
    </g>
    <g
       id="g66"
       style="fill:#000000;fill-opacity:1">
      <use
         height="100%"
         width="100%"
         id="use64"
         y="146.64"
         x="240.51302"
         xlink:href="#glyph0-6" />
    </g>
    <g
       id="g70"
       style="fill:#000000;fill-opacity:1">
      <use
         height="100%"
         width="100%"
         id="use68"
         y="146.64"
         x="244.95302"
         xlink:href="#glyph0-7" />
    </g>
    <path
       id="path72"
       transform="matrix(0.1,0,0,-0.1,0,792)"
       d="m 1849.8438,6473.9844 h 351.5234"
       style="fill:none;stroke:#000000;stroke-width:53.8586998;stroke-linecap:butt;stroke-linejoin:miter;stroke-miterlimit:10;stroke-opacity:1" />
    <path
       id="path74"
       transform="matrix(0.1,0,0,-0.1,0,792)"
       d="m 1849.8438,6473.9844 h 351.5234"
       style="fill:none;stroke:#ffffff;stroke-width:42.51789856;stroke-linecap:butt;stroke-linejoin:miter;stroke-miterlimit:10;stroke-opacity:1" />
    <path
       id="path76"
       d="m 182.71875,144.60156 v 2.125 h 39.68359 v -4.2539 h -39.68359"
       style="fill:#ffffff;fill-opacity:1;fill-rule:nonzero;stroke:none" />
    <path
       id="path78"
       d="m 179.88281,144.60156 v 2.125 h 22.67578 v -4.2539 h -22.67578"
       style="fill:#bfbfbf;fill-opacity:1;fill-rule:nonzero;stroke:none" />
    <path
       id="path80"
       d="m 197.31641,144.45703 0.99218,10.34766 h 8.50391 l 1.98437,-20.69141 h -12.47265"
       style="fill:#ffffff;fill-opacity:1;fill-rule:nonzero;stroke:none" />
    <path
       id="path82"
       transform="matrix(0.1,0,0,-0.1,0,792)"
       d="m 1973.1641,6475.4297 9.9218,-103.4766 h 85.0391 l 19.8438,206.9141 h -124.7266 z m 0,0"
       style="fill:none;stroke:#000000;stroke-width:5.67043018;stroke-linecap:butt;stroke-linejoin:miter;stroke-miterlimit:10;stroke-opacity:1" />
    <path
       id="path84"
       transform="matrix(0.1,0,0,-0.1,0,792)"
       d="m 2036.9531,6473.9844 c 0,6.289 -5.0781,11.3672 -11.3672,11.3672 -6.25,0 -11.3281,-5.0782 -11.3281,-11.3672 0,-6.25 5.0781,-11.3282 11.3281,-11.3282 6.2891,0 11.3672,5.0782 11.3672,11.3282 z m 0,0"
       style="fill:none;stroke:#000000;stroke-width:5.67043018;stroke-linecap:butt;stroke-linejoin:miter;stroke-miterlimit:10;stroke-opacity:1" />
    <path
       id="path86"
       transform="matrix(0.1,0,0,-0.1,0,792)"
       d="m 1994.4141,6371.9531 v -19.8437 h 62.3828 v 19.8437"
       style="fill:none;stroke:#000000;stroke-width:5.67043018;stroke-linecap:butt;stroke-linejoin:miter;stroke-miterlimit:10;stroke-opacity:1" />
    <path
       id="path88"
       transform="matrix(0.1,0,0,-0.1,0,792)"
       d="m 1985.9375,6638.3984 v -31.1718 h 79.3359 v 62.3828 h -79.3359 z m 0,0"
       style="fill:none;stroke:#000000;stroke-width:5.67043018;stroke-linecap:butt;stroke-linejoin:miter;stroke-miterlimit:10;stroke-opacity:1" />
    <path
       id="path90"
       transform="matrix(0.1,0,0,-0.1,0,792)"
       d="m 1977.4219,6578.8672 c 14.1797,8.5156 19.8437,19.8437 12.7344,26.9531"
       style="fill:none;stroke:#000000;stroke-width:5.67043018;stroke-linecap:butt;stroke-linejoin:miter;stroke-miterlimit:10;stroke-opacity:1" />
    <path
       id="path92"
       transform="matrix(0.1,0,0,-0.1,0,792)"
       d="m 2073.7891,6578.8672 c -14.1797,8.5156 -19.8438,19.8437 -12.7735,26.9531"
       style="fill:none;stroke:#000000;stroke-width:5.67043018;stroke-linecap:butt;stroke-linejoin:miter;stroke-miterlimit:10;stroke-opacity:1" />
    <path
       id="path94"
       transform="matrix(0.1,0,0,-0.1,0,792)"
       d="m 2042.6172,6638.3984 c 0,9.4141 -7.6172,17.0313 -17.0313,17.0313 -9.375,0 -16.9921,-7.6172 -16.9921,-17.0313 0,-9.375 7.6171,-16.9922 16.9921,-16.9922 9.4141,0 17.0313,7.6172 17.0313,16.9922 z m 0,0"
       style="fill:none;stroke:#000000;stroke-width:5.67043018;stroke-linecap:butt;stroke-linejoin:miter;stroke-miterlimit:10;stroke-opacity:1" />
    <path
       id="path96"
       transform="matrix(0.1,0,0,-0.1,0,792)"
       d="m 2025.5859,6646.9141 c -4.6875,0 -8.4765,-3.7891 -8.4765,-8.5157 0,-4.6875 3.789,-8.4765 8.4765,-8.4765 2.2657,0 4.4532,0.8593 6.0157,2.4609"
       style="fill:none;stroke:#000000;stroke-width:2.83297992;stroke-linecap:butt;stroke-linejoin:miter;stroke-miterlimit:10;stroke-opacity:1" />
    <path
       id="path98"
       d="m 296.50781,146.48047 5.26563,-1.87891 -5.26563,-1.88281 2.10547,1.88281"
       style="fill:#000000;fill-opacity:1;fill-rule:nonzero;stroke:none" />
    <path
       id="path100"
       transform="matrix(0.1,0,0,-0.1,0,792)"
       d="m 2734.2578,6473.9844 h 251.875"
       style="fill:none;stroke:#000000;stroke-width:11.3366003;stroke-linecap:butt;stroke-linejoin:miter;stroke-miterlimit:10;stroke-opacity:1" />
    <path
       id="path102"
       d="m 355.62891,144.60156 c 0,-10.17578 -8.2461,-18.42578 -18.42579,-18.42578 -10.17187,0 -18.42187,8.25 -18.42187,18.42578 0,10.17578 8.25,18.42188 18.42187,18.42188 10.17969,0 18.42579,-8.2461 18.42579,-18.42188"
       style="fill:#e6e6e6;fill-opacity:1;fill-rule:nonzero;stroke:none" />
    <path
       id="path104"
       transform="matrix(0.1,0,0,-0.1,0,792)"
       d="m 3556.2891,6473.9844 c 0,101.7578 -82.461,184.2578 -184.2578,184.2578 -101.7188,0 -184.2188,-82.5 -184.2188,-184.2578 0,-101.7578 82.5,-184.2188 184.2188,-184.2188 101.7968,0 184.2578,82.461 184.2578,184.2188 z m 0,0"
       style="fill:none;stroke:#000000;stroke-width:5.67043018;stroke-linecap:butt;stroke-linejoin:miter;stroke-miterlimit:10;stroke-opacity:1" />
    <g
       id="g108"
       style="fill:#000000;fill-opacity:1">
      <use
         height="100%"
         width="100%"
         id="use106"
         y="146.53"
         x="331.20499"
         xlink:href="#glyph0-1" />
    </g>
    <g
       id="g112"
       style="fill:#000000;fill-opacity:1">
      <use
         height="100%"
         width="100%"
         id="use110"
         y="146.53"
         x="335.64499"
         xlink:href="#glyph0-2" />
    </g>
    <g
       id="g116"
       style="fill:#000000;fill-opacity:1">
      <use
         height="100%"
         width="100%"
         id="use114"
         y="146.53"
         x="339.60501"
         xlink:href="#glyph0-3" />
    </g>
    <path
       id="path118"
       d="m 426.49609,144.60156 c 0,-10.17578 -8.25,-18.42578 -18.42578,-18.42578 -10.17578,0 -18.42187,8.25 -18.42187,18.42578 0,10.17578 8.24609,18.42188 18.42187,18.42188 10.17578,0 18.42578,-8.2461 18.42578,-18.42188"
       style="fill:#e6e6e6;fill-opacity:1;fill-rule:nonzero;stroke:none" />
    <path
       id="path120"
       transform="matrix(0.1,0,0,-0.1,0,792)"
       d="m 4264.9609,6473.9844 c 0,101.7578 -82.5,184.2578 -184.2578,184.2578 -101.7578,0 -184.2187,-82.5 -184.2187,-184.2578 0,-101.7578 82.4609,-184.2188 184.2187,-184.2188 101.7578,0 184.2578,82.461 184.2578,184.2188 z m 0,0"
       style="fill:none;stroke:#000000;stroke-width:5.67043018;stroke-linecap:butt;stroke-linejoin:miter;stroke-miterlimit:10;stroke-opacity:1" />
    <g
       id="g124"
       style="fill:#000000;fill-opacity:1">
      <use
         height="100%"
         width="100%"
         id="use122"
         y="146.53"
         x="402.07199"
         xlink:href="#glyph0-1" />
    </g>
    <g
       id="g128"
       style="fill:#000000;fill-opacity:1">
      <use
         height="100%"
         width="100%"
         id="use126"
         y="146.53"
         x="406.51199"
         xlink:href="#glyph0-2" />
    </g>
    <g
       id="g132"
       style="fill:#000000;fill-opacity:1">
      <use
         height="100%"
         width="100%"
         id="use130"
         y="146.53"
         x="410.47202"
         xlink:href="#glyph0-3" />
    </g>
    <path
       id="path134"
       transform="matrix(0.1,0,0,-0.1,0,792)"
       d="m 3550.625,6473.9844 h 351.5234"
       style="fill:none;stroke:#000000;stroke-width:53.8586998;stroke-linecap:butt;stroke-linejoin:miter;stroke-miterlimit:10;stroke-opacity:1" />
    <path
       id="path136"
       transform="matrix(0.1,0,0,-0.1,0,792)"
       d="m 3550.625,6473.9844 h 351.5234"
       style="fill:none;stroke:#ffffff;stroke-width:42.51789856;stroke-linecap:butt;stroke-linejoin:miter;stroke-miterlimit:10;stroke-opacity:1" />
    <path
       id="path138"
       d="m 352.79687,144.60156 v 2.125 h 39.6836 v -4.2539 h -39.6836"
       style="fill:#ffffff;fill-opacity:1;fill-rule:nonzero;stroke:none" />
    <path
       id="path140"
       d="m 349.96094,144.60156 v 2.125 h 45.35547 v -4.2539 h -45.35547"
       style="fill:#e6e6e6;fill-opacity:1;fill-rule:nonzero;stroke:none" />
    <path
       id="path142"
       d="m 367.39453,144.45703 0.99219,10.34766 h 8.5039 l 1.98438,-20.69141 h -12.47266"
       style="fill:#ffffff;fill-opacity:1;fill-rule:nonzero;stroke:none" />
    <path
       id="path144"
       transform="matrix(0.1,0,0,-0.1,0,792)"
       d="m 3673.9453,6475.4297 9.9219,-103.4766 h 85.0391 l 19.8437,206.9141 h -124.7266 z m 0,0"
       style="fill:none;stroke:#000000;stroke-width:5.67043018;stroke-linecap:butt;stroke-linejoin:miter;stroke-miterlimit:10;stroke-opacity:1" />
    <path
       id="path146"
       transform="matrix(0.1,0,0,-0.1,0,792)"
       d="m 3673.9453,6473.9844 h 104.8828"
       style="fill:none;stroke:#000000;stroke-width:25.51479912;stroke-linecap:butt;stroke-linejoin:miter;stroke-miterlimit:10;stroke-opacity:1" />
    <path
       id="path148"
       transform="matrix(0.1,0,0,-0.1,0,792)"
       d="m 3673.9453,6473.9844 h 104.8828"
       style="fill:none;stroke:#ffffff;stroke-width:14.17389965;stroke-linecap:butt;stroke-linejoin:miter;stroke-miterlimit:10;stroke-opacity:1" />
    <path
       id="path150"
       d="m 366.96875,144.60156 v 0.70703 h 11.33984 v -1.41797 h -11.33984"
       style="fill:#ffffff;fill-opacity:1;fill-rule:nonzero;stroke:none" />
    <path
       id="path152"
       d="m 364.13672,144.60156 v 0.70703 h 17.00781 v -1.41797 h -17.00781"
       style="fill:#e6e6e6;fill-opacity:1;fill-rule:nonzero;stroke:none" />
    <path
       id="path154"
       transform="matrix(0.1,0,0,-0.1,0,792)"
       d="m 3695.1953,6371.9531 v -19.8437 h 62.3828 v 19.8437"
       style="fill:none;stroke:#000000;stroke-width:5.67043018;stroke-linecap:butt;stroke-linejoin:miter;stroke-miterlimit:10;stroke-opacity:1" />
    <path
       id="path156"
       transform="matrix(0.1,0,0,-0.1,0,792)"
       d="m 3831.2891,6638.3984 c 0,7.8125 -46.9922,14.1797 -104.8828,14.1797 -57.9297,0 -104.9219,-6.3672 -104.9219,-14.1797 0,-7.8125 46.9922,-14.1406 104.9219,-14.1406 57.8906,0 104.8828,6.3281 104.8828,14.1406 z m 0,0"
       style="fill:none;stroke:#000000;stroke-width:5.67043018;stroke-linecap:butt;stroke-linejoin:miter;stroke-miterlimit:10;stroke-opacity:1" />
    <path
       id="path158"
       d="m 368.38672,128.16016 v 3.40234 h 8.5039 v -6.80469 h -8.5039"
       style="fill:#ffffff;fill-opacity:1;fill-rule:nonzero;stroke:none" />
    <path
       id="path160"
       transform="matrix(0.1,0,0,-0.1,0,792)"
       d="m 3686.7188,6638.3984 v -31.1718 h 79.3359 v 62.3828 h -79.3359 z m 0,0"
       style="fill:none;stroke:#000000;stroke-width:5.67043018;stroke-linecap:butt;stroke-linejoin:miter;stroke-miterlimit:10;stroke-opacity:1" />
    <path
       id="path162"
       transform="matrix(0.1,0,0,-0.1,0,792)"
       d="m 3678.2031,6578.8672 c 14.1797,8.5156 19.8438,19.8437 12.7344,26.9531"
       style="fill:none;stroke:#000000;stroke-width:5.67043018;stroke-linecap:butt;stroke-linejoin:miter;stroke-miterlimit:10;stroke-opacity:1" />
    <path
       id="path164"
       transform="matrix(0.1,0,0,-0.1,0,792)"
       d="m 3774.5703,6578.8672 c -14.1797,8.5156 -19.8437,19.8437 -12.7344,26.9531"
       style="fill:none;stroke:#000000;stroke-width:5.67043018;stroke-linecap:butt;stroke-linejoin:miter;stroke-miterlimit:10;stroke-opacity:1" />
  </g>
</svg>
