<?xml version="1.0" encoding="UTF-8" standalone="no"?>
<svg
   xmlns:dc="http://purl.org/dc/elements/1.1/"
   xmlns:cc="http://creativecommons.org/ns#"
   xmlns:rdf="http://www.w3.org/1999/02/22-rdf-syntax-ns#"
   xmlns:svg="http://www.w3.org/2000/svg"
   xmlns="http://www.w3.org/2000/svg"
   xmlns:xlink="http://www.w3.org/1999/xlink"
   id="svg190"
   version="1.2"
   viewBox="0 0 205.10426 100.35178"
   height="100.35178pt"
   width="205.10426pt">
  <title
     id="title1001">galvanic cell and external electrical resistor</title>
  <metadata
     id="metadata194">
    <rdf:RDF>
      <cc:Work
         rdf:about="">
        <dc:format>image/svg+xml</dc:format>
        <dc:type
           rdf:resource="http://purl.org/dc/dcmitype/StillImage" />
        <dc:title>galvanic cell and external electrical resistor</dc:title>
        <cc:license
           rdf:resource="http://creativecommons.org/licenses/by-sa/4.0/" />
        <dc:creator>
          <cc:Agent>
            <dc:title>Sandoval, Steven Baltakatei</dc:title>
          </cc:Agent>
        </dc:creator>
        <dc:source>https://gitlab.com/baltakatei/bk-2021-07-1</dc:source>
        <dc:relation>Thermodynamics and Chemistry 2nd Edition, Version 10, by Howard DeVoe, http://www2.chem.umd.edu/thermobook/</dc:relation>
        <dc:date>2021-05-03</dc:date>
        <dc:rights>
          <cc:Agent>
            <dc:title>This work &quot;galvanic cell and external electrical resistor&quot; is a derivative of &quot;03-SUP/galvanic_cell.eps&quot; by Howard DeVoe, used under CC BY 4.0. &quot;galvanic cell and external electrical resistor&quot; is licensed under CC BY-SA 4.0 by Steven Baltakatei Sandoval.</dc:title>
          </cc:Agent>
        </dc:rights>
        <dc:language>en</dc:language>
        <dc:description>Galvanic cell and external electrical resistor. (a) Open circuit with isolated cell in an equilibrium state. (b) Closed circuit. phi_L and phi_R are electric potentials.</dc:description>
      </cc:Work>
      <cc:License
         rdf:about="http://creativecommons.org/licenses/by-sa/4.0/">
        <cc:permits
           rdf:resource="http://creativecommons.org/ns#Reproduction" />
        <cc:permits
           rdf:resource="http://creativecommons.org/ns#Distribution" />
        <cc:requires
           rdf:resource="http://creativecommons.org/ns#Notice" />
        <cc:requires
           rdf:resource="http://creativecommons.org/ns#Attribution" />
        <cc:permits
           rdf:resource="http://creativecommons.org/ns#DerivativeWorks" />
        <cc:requires
           rdf:resource="http://creativecommons.org/ns#ShareAlike" />
      </cc:License>
    </rdf:RDF>
  </metadata>
  <defs
     id="defs55">
    <g
       id="g53">
      <symbol
         style="overflow:visible"
         id="glyph0-0"
         overflow="visible">
        <path
           id="path2"
           d=""
           style="stroke:none" />
      </symbol>
      <symbol
         style="overflow:visible"
         id="glyph0-1"
         overflow="visible">
        <path
           id="path5"
           d="m 3.5625,-1.40625 c -0.421875,0.640625 -0.75,0.84375 -1.25,0.84375 -0.828125,0 -1.390625,-0.71875 -1.390625,-1.75 0,-0.921875 0.484375,-1.546875 1.21875,-1.546875 0.3125,0 0.4375,0.078125 0.515625,0.421875 l 0.0625,0.203125 c 0.078125,0.25 0.234375,0.40625 0.421875,0.40625 0.234375,0 0.421875,-0.171875 0.421875,-0.375 0,-0.5 -0.625,-0.921875 -1.375,-0.921875 -0.4375,0 -0.890625,0.171875 -1.265625,0.5 -0.453125,0.390625 -0.703125,1 -0.703125,1.71875 0,1.15625 0.71875,2 1.703125,2 0.40625,0 0.765625,-0.140625 1.09375,-0.421875 C 3.25,-0.53125 3.421875,-0.796875 3.6875,-1.3125 Z m 0,0"
           style="stroke:none" />
      </symbol>
      <symbol
         style="overflow:visible"
         id="glyph0-2"
         overflow="visible">
        <path
           id="path8"
           d="m 3.65625,-1.46875 c -0.421875,0.671875 -0.8125,0.9375 -1.390625,0.9375 -0.5,0 -0.890625,-0.265625 -1.15625,-0.765625 -0.15625,-0.34375 -0.21875,-0.625 -0.234375,-1.1875 h 2.75 C 3.5625,-3.0625 3.46875,-3.328125 3.25,-3.609375 2.984375,-3.9375 2.5625,-4.125 2.09375,-4.125 c -0.4375,0 -0.859375,0.15625 -1.203125,0.46875 -0.421875,0.359375 -0.671875,1 -0.671875,1.734375 0,1.234375 0.65625,2.015625 1.6875,2.015625 0.84375,0 1.515625,-0.53125 1.890625,-1.5 z M 0.890625,-2.765625 c 0.09375,-0.703125 0.40625,-1.03125 0.953125,-1.03125 0.546875,0 0.75,0.25 0.875,1.03125 z m 0,0"
           style="stroke:none" />
      </symbol>
      <symbol
         style="overflow:visible"
         id="glyph0-3"
         overflow="visible">
        <path
           id="path11"
           d="m 0.1875,0 h 2.125 V -0.140625 C 1.734375,-0.15625 1.640625,-0.25 1.625,-0.75 V -6.109375 L 1.59375,-6.125 C 1.140625,-5.984375 0.8125,-5.890625 0.171875,-5.734375 V -5.59375 H 0.21875 c 0.109375,0 0.21875,-0.015625 0.28125,-0.015625 0.296875,0 0.375,0.125 0.375,0.546875 v 4.28125 c 0,0.484375 -0.125,0.609375 -0.6875,0.640625 z m 0,0"
           style="stroke:none" />
      </symbol>
      <symbol
         style="overflow:visible"
         id="glyph0-4"
         overflow="visible">
        <path
           id="path14"
           d="M 2.640625,-6.0625 C 1.984375,-5.625 1.71875,-5.40625 1.375,-4.984375 0.75,-4.203125 0.4375,-3.3125 0.4375,-2.265625 c 0,1.15625 0.328125,2.03125 1.109375,2.9375 0.375,0.4375 0.609375,0.625 1.078125,0.921875 L 2.71875,1.4375 C 2.015625,0.875 1.765625,0.5625 1.515625,-0.109375 1.296875,-0.703125 1.203125,-1.375 1.203125,-2.28125 c 0,-0.953125 0.109375,-1.6875 0.359375,-2.234375 0.25,-0.5625 0.515625,-0.890625 1.15625,-1.40625 z m 0,0"
           style="stroke:none" />
      </symbol>
      <symbol
         style="overflow:visible"
         id="glyph0-5"
         overflow="visible">
        <path
           id="path17"
           d="m 3.96875,-0.59375 c -0.15625,0.125 -0.265625,0.171875 -0.40625,0.171875 -0.203125,0 -0.265625,-0.125 -0.265625,-0.515625 v -1.75 C 3.296875,-3.15625 3.25,-3.421875 3.125,-3.625 c -0.203125,-0.328125 -0.59375,-0.5 -1.109375,-0.5 -0.84375,0 -1.515625,0.4375 -1.515625,1 0,0.203125 0.171875,0.390625 0.390625,0.390625 0.21875,0 0.40625,-0.1875 0.40625,-0.375 C 1.296875,-3.140625 1.28125,-3.1875 1.28125,-3.25 1.25,-3.34375 1.25,-3.40625 1.25,-3.46875 c 0,-0.25 0.28125,-0.4375 0.640625,-0.4375 0.4375,0 0.6875,0.25 0.6875,0.734375 V -2.625 c -1.375,0.546875 -1.53125,0.640625 -1.921875,0.96875 -0.203125,0.1875 -0.328125,0.484375 -0.328125,0.78125 0,0.5625 0.390625,0.96875 0.953125,0.96875 0.390625,0 0.75,-0.1875 1.296875,-0.65625 0.046875,0.46875 0.21875,0.65625 0.578125,0.65625 0.3125,0 0.5,-0.109375 0.8125,-0.453125 z M 2.578125,-1.109375 c 0,0.28125 -0.046875,0.375 -0.234375,0.484375 C 2.109375,-0.5 1.875,-0.4375 1.6875,-0.4375 1.375,-0.4375 1.125,-0.734375 1.125,-1.125 v -0.03125 c 0,-0.53125 0.40625,-0.875 1.453125,-1.25 z m 0,0"
           style="stroke:none" />
      </symbol>
      <symbol
         style="overflow:visible"
         id="glyph0-6"
         overflow="visible">
        <path
           id="path20"
           d="M 0.34375,1.59375 C 1,1.140625 1.28125,0.921875 1.609375,0.515625 2.25,-0.265625 2.5625,-1.171875 2.5625,-2.21875 2.5625,-3.359375 2.21875,-4.234375 1.4375,-5.140625 1.0625,-5.578125 0.828125,-5.78125 0.375,-6.0625 l -0.109375,0.140625 c 0.71875,0.5625 0.953125,0.875 1.203125,1.546875 0.21875,0.609375 0.3125,1.28125 0.3125,2.1875 0,0.9375 -0.109375,1.671875 -0.359375,2.21875 C 1.1875,0.59375 0.90625,0.921875 0.265625,1.4375 Z m 0,0"
           style="stroke:none" />
      </symbol>
      <symbol
         style="overflow:visible"
         id="glyph0-7"
         overflow="visible">
        <path
           id="path23"
           d="M 1.375,-6.109375 1.328125,-6.125 C 0.953125,-6 0.71875,-5.921875 0.28125,-5.796875 l -0.25,0.0625 v 0.140625 c 0.046875,0 0.078125,0 0.140625,0 0.359375,0 0.453125,0.078125 0.453125,0.453125 v 4.65625 c 0,0.28125 0.75,0.578125 1.46875,0.578125 1.1875,0 2.109375,-0.984375 2.109375,-2.265625 0,-1.125 -0.6875,-1.953125 -1.578125,-1.953125 -0.546875,0 -1.078125,0.3125 -1.25,0.765625 z m 0,3.21875 c 0,-0.34375 0.421875,-0.671875 0.890625,-0.671875 0.25,0 0.46875,0.09375 0.65625,0.265625 0.28125,0.28125 0.484375,0.890625 0.484375,1.53125 0,1 -0.421875,1.5625 -1.15625,1.5625 -0.46875,0 -0.875,-0.1875 -0.875,-0.421875 z m 0,0"
           style="stroke:none" />
      </symbol>
      <symbol
         style="overflow:visible"
         id="glyph2-0"
         overflow="visible">
        <path
           id="path26"
           d=""
           style="stroke:none" />
      </symbol>
      <symbol
         style="overflow:visible"
         id="glyph2-1"
         overflow="visible">
        <path
           id="path29"
           d="m 5.078125,-2.5 c 0,-0.28125 -0.03125,-1.375 -1.65625,-1.546875 L 3.84375,-5.46875 c 0.03125,-0.078125 0.046875,-0.171875 0.046875,-0.203125 0,-0.15625 -0.125,-0.3125 -0.28125,-0.3125 -0.125,0 -0.328125,0.015625 -0.40625,0.34375 L 2.90625,-4.0625 c -2.125,0.28125 -2.6875,1.828125 -2.6875,2.5625 0,1.515625 1.65625,1.578125 1.65625,1.578125 L 1.4375,1.484375 C 1.4375,1.5 1.421875,1.5625 1.421875,1.59375 c 0,0.171875 0.140625,0.328125 0.296875,0.328125 0.125,0 0.3125,-0.109375 0.359375,-0.328125 L 2.390625,0.125 C 4.3125,-0.09375 5.078125,-1.640625 5.078125,-2.5 Z M 4.3125,-2.515625 c 0,0.78125 -0.53125,2.125 -1.84375,2.34375 l 0.890625,-3.59375 c 0.6875,0.09375 0.953125,0.703125 0.953125,1.25 z M 2.828125,-3.75 1.96875,-0.171875 C 1.25,-0.375 0.984375,-0.859375 0.984375,-1.375 c 0,-0.671875 0.484375,-2.1875 1.84375,-2.375 z m 0,0"
           style="stroke:none" />
      </symbol>
      <symbol
         style="overflow:visible"
         id="glyph3-0"
         overflow="visible">
        <path
           id="path32"
           d=""
           style="stroke:none" />
      </symbol>
      <symbol
         style="overflow:visible"
         id="glyph3-1"
         overflow="visible">
        <path
           id="path35"
           d="m 2.046875,-4.609375 h -1.96875 v 0.125 c 0.515625,0.03125 0.59375,0.125 0.609375,0.625 v 3.09375 c -0.015625,0.5 -0.109375,0.609375 -0.609375,0.640625 V 0 h 3.75 l 0.34375,-1.21875 H 4 C 3.671875,-0.484375 3.359375,-0.296875 2.46875,-0.265625 H 2 C 1.46875,-0.28125 1.40625,-0.3125 1.40625,-0.5625 v -3.296875 c 0.015625,-0.5 0.09375,-0.59375 0.640625,-0.625 z m 0,0"
           style="stroke:none" />
      </symbol>
      <symbol
         style="overflow:visible"
         id="glyph3-2"
         overflow="visible">
        <path
           id="path38"
           d="M 4.59375,-0.125 C 4.328125,-0.15625 4.1875,-0.21875 3.984375,-0.453125 L 2.546875,-2.21875 C 3.4375,-2.390625 3.8125,-2.75 3.8125,-3.390625 3.8125,-3.6875 3.71875,-3.9375 3.546875,-4.140625 3.28125,-4.4375 2.6875,-4.609375 2.046875,-4.609375 H 0.125 v 0.125 c 0.515625,0.0625 0.578125,0.125 0.578125,0.625 v 3.015625 c 0,0.59375 -0.0625,0.671875 -0.578125,0.71875 V 0 h 1.921875 v -0.125 c -0.53125,-0.046875 -0.625,-0.125 -0.625,-0.640625 V -2.125 L 1.8125,-2.140625 3.46875,0 h 1.125 z M 1.421875,-4.109375 c 0,-0.1875 0.078125,-0.25 0.359375,-0.25 0.859375,0 1.265625,0.296875 1.265625,0.953125 0,0.359375 -0.140625,0.640625 -0.390625,0.78125 -0.328125,0.171875 -0.5625,0.21875 -1.234375,0.234375 z m 0,0"
           style="stroke:none" />
      </symbol>
      <symbol
         style="overflow:visible"
         id="glyph4-0"
         overflow="visible">
        <path
           id="path41"
           d=""
           style="stroke:none" />
      </symbol>
      <symbol
         style="overflow:visible"
         id="glyph4-1"
         overflow="visible">
        <path
           id="path44"
           d="m 5.125,-1.796875 v -0.4375 H 0.421875 v 0.4375 z m 0,0"
           style="stroke:none" />
      </symbol>
      <symbol
         style="overflow:visible"
         id="glyph4-2"
         overflow="visible">
        <path
           id="path47"
           d="m 5.703125,-1.796875 v -0.4375 H 3.375 V -4.5625 H 2.953125 v 2.328125 H 0.625 v 0.4375 H 2.953125 V 0.53125 H 3.375 v -2.328125 z m 0,0"
           style="stroke:none" />
      </symbol>
      <symbol
         style="overflow:visible"
         id="glyph1-0"
         overflow="visible">
        <path
           id="path50"
           d="M 1.28125,0 C 1.28125,-0.707031 0.707031,-1.28125 0,-1.28125 -0.707031,-1.28125 -1.28125,-0.707031 -1.28125,0 -1.28125,0.707031 -0.707031,1.28125 0,1.28125 0.707031,1.28125 1.28125,0.707031 1.28125,0"
           style="stroke:none" />
      </symbol>
    </g>
  </defs>
  <g
     transform="translate(-166.58654,-127.20197)"
     id="surface717">
    <path
       id="path57"
       transform="matrix(0.1,0,0,-0.1,0,792)"
       d="m 1914.6875,6104.9219 v 138.9062 h 277.7734 v -277.8125 h -277.7734 z m 0,0"
       style="fill:none;stroke:#000000;stroke-width:5.67043018;stroke-linecap:butt;stroke-linejoin:miter;stroke-miterlimit:10;stroke-opacity:1" />
    <g
       id="g61"
       style="fill:#000000;fill-opacity:1">
      <use
         height="100%"
         width="100%"
         id="use59"
         y="184.507"
         x="198.879"
         xlink:href="#glyph0-1" />
    </g>
    <g
       id="g65"
       style="fill:#000000;fill-opacity:1">
      <use
         height="100%"
         width="100%"
         id="use63"
         y="184.507"
         x="202.839"
         xlink:href="#glyph0-2" />
    </g>
    <g
       id="g69"
       style="fill:#000000;fill-opacity:1">
      <use
         height="100%"
         width="100%"
         id="use67"
         y="184.507"
         x="206.79901"
         xlink:href="#glyph0-3" />
    </g>
    <g
       id="g73"
       style="fill:#000000;fill-opacity:1">
      <use
         height="100%"
         width="100%"
         id="use71"
         y="184.507"
         x="209.319"
         xlink:href="#glyph0-3" />
    </g>
    <path
       id="path75"
       transform="matrix(0.1,0,0,-0.1,0,792)"
       d="m 1911.875,6104.9219 h -141.7578 v 396.875 h 56.6797 l 73.7109,42.5"
       style="fill:none;stroke:#000000;stroke-width:8.50360966;stroke-linecap:butt;stroke-linejoin:miter;stroke-miterlimit:10;stroke-opacity:1" />
    <g
       id="g79"
       style="fill:#000000;fill-opacity:1">
      <use
         height="100%"
         width="100%"
         id="use77"
         y="141.85001"
         x="182.64999"
         xlink:href="#glyph1-0" />
    </g>
    <g
       id="g83"
       style="fill:#000000;fill-opacity:1">
      <use
         height="100%"
         width="100%"
         id="use81"
         y="141.85001"
         x="191.14999"
         xlink:href="#glyph1-0" />
    </g>
    <g
       id="g87"
       style="fill:#000000;fill-opacity:1">
      <use
         height="100%"
         width="100%"
         id="use85"
         y="189.427"
         x="179.17891"
         xlink:href="#glyph2-1" />
    </g>
    <g
       id="g91"
       style="fill:#000000;fill-opacity:1">
      <use
         height="100%"
         width="100%"
         id="use89"
         y="191.70708"
         x="184.33868"
         xlink:href="#glyph3-1" />
    </g>
    <g
       id="g95"
       style="fill:#000000;fill-opacity:1">
      <use
         height="100%"
         width="100%"
         id="use93"
         y="179.82698"
         x="181.33868"
         xlink:href="#glyph4-1" />
    </g>
    <path
       id="path97"
       transform="matrix(0.1,0,0,-0.1,0,792)"
       d="m 2195.3125,6104.9219 h 141.7188 v 396.875"
       style="fill:none;stroke:#000000;stroke-width:8.50360966;stroke-linecap:butt;stroke-linejoin:miter;stroke-miterlimit:10;stroke-opacity:1" />
    <g
       id="g101"
       style="fill:#000000;fill-opacity:1">
      <use
         height="100%"
         width="100%"
         id="use99"
         y="189.427"
         x="221.459"
         xlink:href="#glyph2-1" />
    </g>
    <g
       id="g105"
       style="fill:#000000;fill-opacity:1">
      <use
         height="100%"
         width="100%"
         id="use103"
         y="191.70708"
         x="226.61877"
         xlink:href="#glyph3-2" />
    </g>
    <g
       id="g109"
       style="fill:#000000;fill-opacity:1">
      <use
         height="100%"
         width="100%"
         id="use107"
         y="179.22697"
         x="223.49886"
         xlink:href="#glyph4-2" />
    </g>
    <path
       id="path111"
       transform="matrix(0.1,0,0,-0.1,0,792)"
       d="m 1911.875,6501.7969 h 65.8984 l 10.625,21.25 21.25,-42.5391 21.25,42.5391 21.2891,-42.5391 21.25,42.5391 21.25,-42.5391 21.25,42.5391 21.2891,-42.5391 21.25,42.5391 21.25,-42.5391 21.25,42.5391 21.25,-42.5391 21.289,42.5391 21.25,-42.5391 10.625,21.2891 h 65.8985"
       style="fill:none;stroke:#000000;stroke-width:8.50360966;stroke-linecap:butt;stroke-linejoin:miter;stroke-miterlimit:10;stroke-opacity:1" />
    <g
       id="g115"
       style="fill:#000000;fill-opacity:1">
      <use
         height="100%"
         width="100%"
         id="use113"
         y="215.96001"
         x="200.439"
         xlink:href="#glyph0-4" />
    </g>
    <g
       id="g119"
       style="fill:#000000;fill-opacity:1">
      <use
         height="100%"
         width="100%"
         id="use117"
         y="215.96001"
         x="203.439"
         xlink:href="#glyph0-5" />
    </g>
    <g
       id="g123"
       style="fill:#000000;fill-opacity:1">
      <use
         height="100%"
         width="100%"
         id="use121"
         y="215.96001"
         x="207.399"
         xlink:href="#glyph0-6" />
    </g>
    <path
       id="path125"
       transform="matrix(0.1,0,0,-0.1,0,792)"
       d="m 3190.2734,6104.9219 v 138.9062 h 277.8125 v -277.8125 h -277.8125 z m 0,0"
       style="fill:none;stroke:#000000;stroke-width:5.67043018;stroke-linecap:butt;stroke-linejoin:miter;stroke-miterlimit:10;stroke-opacity:1" />
    <g
       id="g129"
       style="fill:#000000;fill-opacity:1">
      <use
         height="100%"
         width="100%"
         id="use127"
         y="184.507"
         x="326.43799"
         xlink:href="#glyph0-1" />
    </g>
    <g
       id="g133"
       style="fill:#000000;fill-opacity:1">
      <use
         height="100%"
         width="100%"
         id="use131"
         y="184.507"
         x="330.39801"
         xlink:href="#glyph0-2" />
    </g>
    <g
       id="g137"
       style="fill:#000000;fill-opacity:1">
      <use
         height="100%"
         width="100%"
         id="use135"
         y="184.507"
         x="334.35797"
         xlink:href="#glyph0-3" />
    </g>
    <g
       id="g141"
       style="fill:#000000;fill-opacity:1">
      <use
         height="100%"
         width="100%"
         id="use139"
         y="184.507"
         x="336.87799"
         xlink:href="#glyph0-3" />
    </g>
    <path
       id="path143"
       transform="matrix(0.1,0,0,-0.1,0,792)"
       d="m 3187.4609,6104.9219 h -141.7578 v 396.875 h 141.7578"
       style="fill:none;stroke:#000000;stroke-width:8.50360966;stroke-linecap:butt;stroke-linejoin:miter;stroke-miterlimit:10;stroke-opacity:1" />
    <path
       id="path145"
       d="m 300.625,184.53906 -1.72266,-3.03125 -0.58984,3.4336 0.92969,-1.4961"
       style="fill:#000000;fill-opacity:1;fill-rule:nonzero;stroke:none" />
    <path
       id="path147"
       transform="matrix(0.1,0,0,-0.1,0,792)"
       d="m 2992.4219,6085.5469 -0.1953,0.5859 c 7.9687,-22.6953 29.414,-37.8906 53.4765,-37.8906"
       style="fill:none;stroke:#000000;stroke-width:4.25176001;stroke-linecap:butt;stroke-linejoin:miter;stroke-miterlimit:10;stroke-opacity:1" />
    <g
       id="g151"
       style="fill:#000000;fill-opacity:1">
      <use
         height="100%"
         width="100%"
         id="use149"
         y="192.651"
         x="288.19299"
         xlink:href="#glyph0-2" />
    </g>
    <g
       id="g155"
       style="fill:#000000;fill-opacity:1">
      <use
         height="100%"
         width="100%"
         id="use153"
         y="189.41077"
         x="292.15277"
         xlink:href="#glyph4-1" />
    </g>
    <g
       id="g159"
       style="fill:#000000;fill-opacity:1">
      <use
         height="100%"
         width="100%"
         id="use157"
         y="141.84987"
         x="310.25006"
         xlink:href="#glyph1-0" />
    </g>
    <g
       id="g163"
       style="fill:#000000;fill-opacity:1">
      <use
         height="100%"
         width="100%"
         id="use161"
         y="141.84987"
         x="318.75006"
         xlink:href="#glyph1-0" />
    </g>
    <g
       id="g167"
       style="fill:#000000;fill-opacity:1">
      <use
         height="100%"
         width="100%"
         id="use165"
         y="179.82687"
         x="308.89774"
         xlink:href="#glyph4-1" />
    </g>
    <path
       id="path169"
       transform="matrix(0.1,0,0,-0.1,0,792)"
       d="m 3470.8984,6104.9219 h 141.7579 v 396.875"
       style="fill:none;stroke:#000000;stroke-width:8.50360966;stroke-linecap:butt;stroke-linejoin:miter;stroke-miterlimit:10;stroke-opacity:1" />
    <g
       id="g173"
       style="fill:#000000;fill-opacity:1">
      <use
         height="100%"
         width="100%"
         id="use171"
         y="179.22701"
         x="351.05701"
         xlink:href="#glyph4-2" />
    </g>
    <path
       id="path175"
       transform="matrix(0.1,0,0,-0.1,0,792)"
       d="m 3187.4609,6501.7969 h 65.8985 l 10.625,21.25 21.25,-42.5391 21.25,42.5391 21.289,-42.5391 21.25,42.5391 21.25,-42.5391 21.25,42.5391 21.2891,-42.5391 21.25,42.5391 21.25,-42.5391 21.25,42.5391 21.25,-42.5391 21.2891,42.5391 21.25,-42.5391 10.625,21.2891 h 65.8984"
       style="fill:none;stroke:#000000;stroke-width:8.50360966;stroke-linecap:butt;stroke-linejoin:miter;stroke-miterlimit:10;stroke-opacity:1" />
    <g
       id="g179"
       style="fill:#000000;fill-opacity:1">
      <use
         height="100%"
         width="100%"
         id="use177"
         y="215.96001"
         x="327.638"
         xlink:href="#glyph0-4" />
    </g>
    <g
       id="g183"
       style="fill:#000000;fill-opacity:1">
      <use
         height="100%"
         width="100%"
         id="use181"
         y="215.96001"
         x="330.638"
         xlink:href="#glyph0-7" />
    </g>
    <g
       id="g187"
       style="fill:#000000;fill-opacity:1">
      <use
         height="100%"
         width="100%"
         id="use185"
         y="215.96001"
         x="335.078"
         xlink:href="#glyph0-6" />
    </g>
  </g>
</svg>
