%!PS-Adobe-3.0 EPSF-3.0
%%Creator: cairo 1.16.0 (https://cairographics.org)
%%CreationDate: Sun May  2 11:19:40 2021
%%Pages: 1
%%DocumentData: Clean7Bit
%%LanguageLevel: 2
%%BoundingBox: 1 2 201 201
%%EndComments
%%BeginProlog
50 dict begin
/q { gsave } bind def
/Q { grestore } bind def
/cm { 6 array astore concat } bind def
/w { setlinewidth } bind def
/J { setlinecap } bind def
/j { setlinejoin } bind def
/M { setmiterlimit } bind def
/d { setdash } bind def
/m { moveto } bind def
/l { lineto } bind def
/c { curveto } bind def
/h { closepath } bind def
/re { exch dup neg 3 1 roll 5 3 roll moveto 0 rlineto
      0 exch rlineto 0 rlineto closepath } bind def
/S { stroke } bind def
/f { fill } bind def
/f* { eofill } bind def
/n { newpath } bind def
/W { clip } bind def
/W* { eoclip } bind def
/BT { } bind def
/ET { } bind def
/BDC { mark 3 1 roll /BDC pdfmark } bind def
/EMC { mark /EMC pdfmark } bind def
/cairo_store_point { /cairo_point_y exch def /cairo_point_x exch def } def
/Tj { show currentpoint cairo_store_point } bind def
/TJ {
  {
    dup
    type /stringtype eq
    { show } { -0.001 mul 0 cairo_font_matrix dtransform rmoveto } ifelse
  } forall
  currentpoint cairo_store_point
} bind def
/cairo_selectfont { cairo_font_matrix aload pop pop pop 0 0 6 array astore
    cairo_font exch selectfont cairo_point_x cairo_point_y moveto } bind def
/Tf { pop /cairo_font exch def /cairo_font_matrix where
      { pop cairo_selectfont } if } bind def
/Td { matrix translate cairo_font_matrix matrix concatmatrix dup
      /cairo_font_matrix exch def dup 4 get exch 5 get cairo_store_point
      /cairo_font where { pop cairo_selectfont } if } bind def
/Tm { 2 copy 8 2 roll 6 array astore /cairo_font_matrix exch def
      cairo_store_point /cairo_font where { pop cairo_selectfont } if } bind def
/g { setgray } bind def
/rg { setrgbcolor } bind def
/d1 { setcachedevice } bind def
/cairo_data_source {
  CairoDataIndex CairoData length lt
    { CairoData CairoDataIndex get /CairoDataIndex CairoDataIndex 1 add def }
    { () } ifelse
} def
/cairo_flush_ascii85_file { cairo_ascii85_file status { cairo_ascii85_file flushfile } if } def
/cairo_image { image cairo_flush_ascii85_file } def
/cairo_imagemask { imagemask cairo_flush_ascii85_file } def
%%EndProlog
%%BeginSetup
%%EndSetup
%%Page: 1 1
%%BeginPageSetup
%%PageBoundingBox: 1 2 201 201
%%EndPageSetup
q 1 2 200 199 rectclip
1 0 0 -1 0 202 cm q
0 g
0.850361 w
0 J
0 j
[] 0.0 d
10 M q 1 0 0 -1 0 0 cm
59.559 -4.793 m 59.559 -4.793 60.609 -12.863 61.258 -17.102 c 62.602 -25.891
 63.828 -33.777 65.512 -42.508 c 66.812 -49.254 68.105 -55.293 69.762 -61.961
 c 71.078 -67.262 72.383 -71.992 74.016 -77.203 c 75.348 -81.453 76.656 
-85.234 78.266 -89.387 c 79.617 -92.867 80.926 -95.957 82.52 -99.336 c 83.879
 -102.219 85.195 -104.77 86.77 -107.539 c 88.145 -109.965 89.465 -112.098
 91.023 -114.406 c 92.41 -116.465 93.734 -118.266 95.273 -120.211 c 96.676
 -121.98 97.996 -123.527 99.527 -125.188 c 100.938 -126.715 102.262 -128.035
 103.777 -129.461 c 105.199 -130.793 106.523 -131.945 108.031 -133.18 c 
109.461 -134.352 110.781 -135.355 112.281 -136.434 c 113.719 -137.465 115.039
 -138.355 116.535 -139.305 c 117.977 -140.219 119.301 -140.992 120.785 -141.832
 c 122.234 -142.652 123.551 -143.359 125.039 -144.109 c 126.488 -144.84 
127.809 -145.457 129.289 -146.129 c 130.746 -146.785 132.062 -147.355 133.543
 -147.957 c 134.996 -148.551 136.316 -149.051 137.793 -149.594 c 139.254
 -150.129 140.57 -150.59 142.047 -151.082 c 143.508 -151.566 144.824 -151.977
 146.297 -152.422 c 147.762 -152.863 149.078 -153.246 150.551 -153.652 c
 152.012 -154.059 153.332 -154.406 154.801 -154.781 c 156.266 -155.152 157.582
 -155.477 159.055 -155.82 c 160.52 -156.164 161.836 -156.465 163.305 -156.777
 c 164.77 -157.094 166.09 -157.359 167.559 -157.648 c 169.023 -157.941 170.34
 -158.188 171.809 -158.457 c 173.277 -158.73 174.594 -158.969 176.062 -159.223
 c 177.527 -159.477 178.844 -159.695 180.312 -159.926 c 181.777 -160.156
 183.098 -160.348 184.566 -160.562 c 186.031 -160.777 187.348 -160.977 188.816
 -161.18 c 190.285 -161.383 193.07 -161.73 193.07 -161.73 c S Q
0.283298 w
q 1 0 0 -1 0 0 cm
33.367 -4.793 m 33.367 -4.793 33.383 -5.008 33.383 -5.008 c 33.383 -5.008
 33.426 -5.621 33.426 -5.621 c 33.426 -5.621 33.5 -6.594 33.5 -6.594 c 33.5
 -6.594 33.516 -6.809 33.535 -7.059 c 33.617 -8.191 m 33.652 -8.648 33.715
 -9.453 33.715 -9.453 c 33.715 -9.453 33.754 -9.973 33.793 -10.457 c 33.879
 -11.59 m 33.922 -12.156 34.012 -13.266 34.012 -13.266 c 34.012 -13.266 
34.031 -13.52 34.055 -13.852 c 34.145 -14.984 m 34.164 -15.246 34.18 -15.426
 34.18 -15.426 c 34.18 -15.426 34.27 -16.586 34.32 -17.25 c 34.414 -18.379
 m 34.469 -19.074 34.551 -20.055 34.551 -20.055 c 34.551 -20.055 34.57 -20.305
 34.598 -20.645 c 34.691 -21.777 m 34.723 -22.152 34.75 -22.441 34.75 -22.441
 c 34.75 -22.441 34.824 -23.344 34.883 -24.039 c 34.977 -25.172 m 35.035
 -25.82 35.152 -27.156 35.152 -27.156 c 35.152 -27.156 35.16 -27.266 35.176
 -27.434 c 35.277 -28.562 m 35.32 -29.016 35.355 -29.402 35.355 -29.402 
c 35.355 -29.402 35.43 -30.207 35.488 -30.824 c 35.594 -31.957 m 35.637 
-32.387 35.695 -32.984 35.695 -32.984 c 35.695 -32.984 35.746 -33.473 35.746
 -33.473 c 35.746 -33.473 35.777 -33.809 35.82 -34.215 c 35.938 -35.344 
m 35.961 -35.566 35.977 -35.715 35.977 -35.715 c 35.977 -35.715 36.059 -36.535
 36.168 -37.605 c 36.281 -38.734 m 36.359 -39.52 36.441 -40.332 36.512 -40.992
 c 36.625 -42.125 m 36.645 -42.332 36.66 -42.449 36.66 -42.449 c 36.66 -42.449
 36.746 -43.258 36.867 -44.383 c 36.992 -45.512 m 37.07 -46.242 37.156 -47.023
 37.238 -47.77 c 37.359 -48.898 m 37.488 -50.07 37.586 -50.98 37.605 -51.156
 c 37.742 -52.281 m 37.816 -52.887 37.918 -53.684 38.023 -54.535 c 38.16
 -55.664 m 38.258 -56.453 38.355 -57.242 38.441 -57.918 c 38.578 -59.043
 m 38.645 -59.574 38.688 -59.902 38.688 -59.902 c 38.688 -59.902 38.77 -60.48
 38.883 -61.293 c 39.043 -62.418 m 39.148 -63.164 39.262 -63.965 39.363 
-64.668 c 39.523 -65.793 m 39.594 -66.285 39.641 -66.602 39.641 -66.602 
c 39.641 -66.602 39.766 -67.395 39.871 -68.035 c 40.051 -69.156 m 40.113
 -69.559 40.215 -70.18 40.215 -70.18 c 40.215 -70.18 40.305 -70.715 40.422
 -71.398 c 40.613 -72.516 m 40.766 -73.418 40.906 -74.23 40.906 -74.23 c
 40.906 -74.23 40.941 -74.434 41.004 -74.754 c 41.211 -75.871 m 41.344 -76.586
 41.5 -77.418 41.629 -78.102 c 41.836 -79.219 m 41.867 -79.379 41.887 -79.473
 41.887 -79.473 c 41.887 -79.473 42.078 -80.383 42.301 -81.441 c 42.535 
-82.555 m 42.773 -83.688 42.988 -84.695 42.988 -84.695 c 42.988 -84.695 
42.992 -84.723 43.004 -84.777 c 43.262 -85.883 m 43.43 -86.609 43.641 -87.508
 43.777 -88.094 c 44.043 -89.199 m 44.207 -89.855 44.477 -90.93 44.477 -90.93
 c 44.477 -90.93 44.523 -91.121 44.598 -91.398 c 44.891 -92.496 m 45.051
 -93.098 45.195 -93.645 45.195 -93.645 c 45.195 -93.645 45.324 -94.102 45.488
 -94.688 c 45.801 -95.781 m 46.008 -96.512 46.191 -97.148 46.191 -97.148
 c 46.191 -97.148 46.297 -97.488 46.445 -97.957 c 46.785 -99.039 m 47.039
 -99.855 47.285 -100.625 47.285 -100.625 c 47.285 -100.625 47.363 -100.867
 47.48 -101.203 c 47.844 -102.277 m 48.027 -102.816 48.188 -103.281 48.188
 -103.281 c 48.188 -103.281 48.504 -104.16 48.504 -104.16 c 48.504 -104.16
 48.547 -104.281 48.594 -104.422 c 48.988 -105.484 m 49.203 -106.051 49.473
 -106.762 49.473 -106.762 c 49.473 -106.762 49.625 -107.141 49.809 -107.605
 c 50.234 -108.656 m 50.379 -109.012 50.484 -109.27 50.484 -109.27 c 50.484
 -109.27 50.828 -110.059 51.129 -110.746 c 51.582 -111.785 m 51.699 -112.035
 52.449 -113.637 52.449 -113.637 c 52.449 -113.637 52.492 -113.73 52.547
 -113.84 c 53.047 -114.859 m 53.219 -115.195 53.746 -116.227 53.746 -116.227
 c 53.746 -116.227 53.902 -116.52 54.094 -116.875 c 54.637 -117.875 m 54.715
 -118.023 54.77 -118.117 54.77 -118.117 c 54.77 -118.117 55.52 -119.414 
55.77 -119.844 c 56.355 -120.812 m 56.543 -121.117 56.711 -121.387 56.711
 -121.387 c 56.711 -121.387 57.008 -121.848 57.008 -121.848 c 57.008 -121.848
 57.344 -122.375 57.344 -122.375 c 57.344 -122.375 57.438 -122.516 57.582
 -122.727 c 58.223 -123.66 m 58.641 -124.266 59.047 -124.855 59.047 -124.855
 c 59.047 -124.855 59.258 -125.141 59.543 -125.512 c 60.227 -126.414 m 60.574
 -126.871 60.863 -127.25 60.863 -127.25 c 60.863 -127.25 61.258 -127.738
 61.258 -127.738 c 61.258 -127.738 61.602 -128.164 61.602 -128.164 c 61.602
 -128.164 61.609 -128.18 61.629 -128.203 c 62.371 -129.062 m 62.828 -129.59
 63.32 -130.156 63.32 -130.156 c 63.32 -130.156 63.57 -130.422 63.883 -130.758
 c 64.66 -131.582 m 64.926 -131.863 65.125 -132.07 65.125 -132.07 c 65.125
 -132.07 65.512 -132.457 65.512 -132.457 c 65.512 -132.457 65.859 -132.809
 65.859 -132.809 c 65.859 -132.809 66.027 -132.973 66.266 -133.191 c 67.09
 -133.969 m 67.371 -134.23 67.59 -134.434 67.59 -134.434 c 67.59 -134.434
 68.266 -135.023 68.789 -135.477 c 69.652 -136.215 m 69.711 -136.266 69.762
 -136.305 69.762 -136.305 c 69.762 -136.305 70.117 -136.598 70.117 -136.598
 c 70.117 -136.598 70.918 -137.227 71.43 -137.629 c 72.336 -138.312 m 72.863
 -138.695 73.637 -139.254 73.637 -139.254 c 73.637 -139.254 74.016 -139.516
 74.016 -139.516 c 74.016 -139.516 74.098 -139.574 74.184 -139.637 c 75.125
 -140.266 m 75.598 -140.574 76.113 -140.914 76.113 -140.914 c 76.113 -140.914
 76.582 -141.207 77.039 -141.492 c 78.004 -142.086 m 78.117 -142.152 78.266
 -142.238 78.266 -142.238 c 78.266 -142.238 78.625 -142.449 78.625 -142.449
 c 78.625 -142.449 79.461 -142.926 79.973 -143.219 c 80.969 -143.762 m 81.484
 -144.039 82.145 -144.387 82.145 -144.387 c 82.145 -144.387 82.52 -144.574
 82.52 -144.574 c 82.52 -144.574 82.879 -144.762 82.879 -144.762 c 82.879
 -144.762 82.918 -144.781 82.984 -144.816 c 84.004 -145.312 m 84.344 -145.48
 84.629 -145.617 84.629 -145.617 c 84.629 -145.617 85.547 -146.039 86.059
 -146.277 c 87.094 -146.742 m 87.117 -146.754 87.133 -146.758 87.133 -146.758
 c 87.133 -146.758 88.887 -147.504 88.887 -147.504 c 88.887 -147.504 89.008
 -147.555 89.188 -147.629 c 90.242 -148.051 m 90.477 -148.148 90.652 -148.215
 90.652 -148.215 c 90.652 -148.215 91.023 -148.359 91.023 -148.359 c 91.023
 -148.359 91.387 -148.5 91.387 -148.5 c 91.387 -148.5 91.891 -148.691 92.359
 -148.867 c 93.426 -149.258 m 93.926 -149.438 94.906 -149.785 94.906 -149.785
 c 94.906 -149.785 95.273 -149.91 95.273 -149.91 c 95.273 -149.91 95.461
 -149.977 95.566 -150.016 c 96.645 -150.375 m 97.035 -150.504 97.395 -150.621
 97.395 -150.621 c 97.395 -150.621 98.293 -150.906 98.805 -151.07 c 99.891
 -151.406 m 99.945 -151.426 101.648 -151.938 101.648 -151.938 c 101.648 
-151.938 101.824 -151.988 102.066 -152.059 c 103.156 -152.375 m 103.309 
-152.418 103.41 -152.445 103.41 -152.445 c 103.41 -152.445 104.145 -152.648
 104.145 -152.648 c 104.145 -152.648 104.836 -152.832 105.348 -152.969 c
 106.449 -153.254 m 106.965 -153.387 107.66 -153.562 107.66 -153.562 c 107.66
 -153.562 108.031 -153.652 108.031 -153.652 c 108.031 -153.652 108.395 -153.746
 108.395 -153.746 c 108.395 -153.746 108.496 -153.773 108.648 -153.809 c
 109.754 -154.078 m 109.984 -154.137 110.152 -154.176 110.152 -154.176 c
 110.152 -154.176 111.914 -154.59 111.914 -154.59 c 111.914 -154.59 111.934
 -154.594 111.965 -154.602 c 113.07 -154.852 m 113.59 -154.965 114.406 -155.145
 114.406 -155.145 c 114.406 -155.145 114.848 -155.238 115.289 -155.332 c
 116.402 -155.562 m 116.473 -155.578 116.535 -155.59 116.535 -155.59 c 116.535
 -155.59 116.898 -155.664 116.898 -155.664 c 116.898 -155.664 118.402 -155.961
 118.629 -156.008 c 119.746 -156.219 m 120.105 -156.289 120.418 -156.348
 120.418 -156.348 c 120.418 -156.348 121.152 -156.488 121.152 -156.488 c
 121.152 -156.488 121.555 -156.566 121.977 -156.645 c 123.094 -156.855 m
 123.543 -156.938 124.672 -157.141 124.672 -157.141 c 124.672 -157.141 125.039
 -157.203 125.039 -157.203 c 125.039 -157.203 125.223 -157.238 125.328 -157.258
 c 126.445 -157.445 m 126.824 -157.508 127.164 -157.562 127.164 -157.562
 c 127.164 -157.562 128.211 -157.734 128.688 -157.812 c 129.809 -157.992
 m 130.238 -158.059 131.414 -158.242 131.414 -158.242 c 131.414 -158.242
 131.707 -158.289 132.055 -158.34 c 133.176 -158.512 m 133.203 -158.516 
133.543 -158.566 133.543 -158.566 c 133.543 -158.566 133.91 -158.617 133.91
 -158.617 c 133.91 -158.617 134.941 -158.766 135.426 -158.832 c 136.551 
-158.988 m 136.988 -159.051 137.426 -159.109 137.426 -159.109 c 137.426 
-159.109 137.793 -159.16 137.793 -159.16 c 137.793 -159.16 138.16 -159.207
 138.16 -159.207 c 138.16 -159.207 138.453 -159.246 138.801 -159.293 c 139.926
 -159.441 m 140.031 -159.457 141.68 -159.664 141.68 -159.664 c 141.68 -159.664
 142.047 -159.715 142.047 -159.715 c 142.047 -159.715 142.105 -159.723 142.18
 -159.73 c 143.305 -159.871 m 143.738 -159.926 144.172 -159.98 144.172 -159.98
 c 144.172 -159.98 145.043 -160.09 145.559 -160.156 c 146.684 -160.293 m
 146.895 -160.316 148.422 -160.492 148.422 -160.492 c 148.422 -160.492 148.648
 -160.52 148.941 -160.551 c 150.07 -160.68 m 150.141 -160.688 150.184 -160.691
 150.184 -160.691 c 150.184 -160.691 150.551 -160.734 150.551 -160.734 c
 150.551 -160.734 150.914 -160.773 150.914 -160.773 c 150.914 -160.773 151.816
 -160.871 152.328 -160.926 c 153.457 -161.043 m 153.926 -161.09 154.434 
-161.141 154.434 -161.141 c 154.434 -161.141 155.168 -161.219 155.168 -161.219
 c 155.168 -161.219 155.41 -161.246 155.715 -161.273 c 156.848 -161.387 
m 156.895 -161.395 156.926 -161.395 156.926 -161.395 c 156.926 -161.395 
158.688 -161.57 158.688 -161.57 c 158.688 -161.57 158.906 -161.594 159.105
 -161.613 c 160.238 -161.719 m 160.941 -161.789 161.934 -161.883 162.496
 -161.938 c 163.629 -162.039 m 163.652 -162.043 163.672 -162.043 163.672
 -162.043 c 163.672 -162.043 165.43 -162.203 165.43 -162.203 c 165.43 -162.203
 165.625 -162.223 165.891 -162.246 c 167.02 -162.344 m 167.125 -162.355 
167.191 -162.359 167.191 -162.359 c 167.191 -162.359 167.926 -162.422 167.926
 -162.422 c 167.926 -162.422 168.766 -162.496 169.285 -162.539 c 170.414
 -162.637 m 170.898 -162.68 171.441 -162.723 171.441 -162.723 c 171.441 
-162.723 171.809 -162.754 171.809 -162.754 c 171.809 -162.754 172.176 -162.781
 172.176 -162.781 c 172.176 -162.781 172.395 -162.801 172.68 -162.824 c 
173.812 -162.918 m 173.891 -162.922 173.938 -162.926 173.938 -162.926 c 
173.938 -162.926 175.695 -163.066 175.695 -163.066 c 175.695 -163.066 175.887
 -163.082 176.074 -163.098 c 177.207 -163.184 m 177.676 -163.219 178.188
 -163.258 178.188 -163.258 c 178.188 -163.258 178.949 -163.316 179.473 -163.352
 c 180.605 -163.434 m 180.648 -163.438 180.68 -163.438 180.68 -163.438 c
 180.68 -163.438 182.441 -163.562 182.441 -163.562 c 182.441 -163.562 182.621
 -163.578 182.871 -163.594 c 184.004 -163.672 m 184.121 -163.68 184.199 
-163.684 184.199 -163.684 c 184.199 -163.684 184.566 -163.707 184.566 -163.707
 c 184.566 -163.707 184.934 -163.734 184.934 -163.734 c 184.934 -163.734
 185.551 -163.773 186.27 -163.82 c 187.402 -163.895 m 187.988 -163.934 188.449
 -163.961 188.449 -163.961 c 188.449 -163.961 188.816 -163.984 188.816 -163.984
 c 188.816 -163.984 188.969 -163.996 188.969 -163.996 c 188.969 -163.996
 189.422 -164.023 189.422 -164.023 c 189.422 -164.023 189.535 -164.031 189.668
 -164.043 c 190.801 -164.113 m 190.805 -164.113 190.809 -164.113 190.809
 -164.113 c 190.809 -164.113 191.492 -164.16 191.492 -164.16 c 191.492 -164.16
 192.109 -164.199 192.109 -164.199 c 192.109 -164.199 192.609 -164.23 192.609
 -164.23 c 192.609 -164.23 192.945 -164.254 192.945 -164.254 c 192.945 -164.254
 193.059 -164.262 193.066 -164.262 c S Q
152.727 166.449 m 152.492 166.387 l 152.18 166.762 151.977 166.809 151.57
 166.762 c 149.695 166.574 l 151.148 165.621 152.445 164.699 152.555 163.59
 c 152.648 162.762 151.898 162.105 151.023 162.027 c 150.164 161.934 149.445
 162.262 149.039 163.402 c 149.32 163.434 l 149.633 163.012 150.008 162.605
 150.633 162.668 c 151.367 162.73 151.727 163.262 151.664 163.824 c 151.586
 164.668 150.477 165.777 148.617 166.949 c 148.602 167.152 l 152.117 167.496
 l h
152.727 166.449 m f
157.414 165.355 m 157.555 163.918 157.023 162.574 155.773 162.449 c 154.523
 162.34 153.758 163.559 153.617 164.996 c 153.477 166.434 153.977 167.777
 155.242 167.887 c 156.461 168.012 157.273 166.793 157.414 165.355 c h
156.43 165.262 m 156.336 166.355 155.914 167.637 155.258 167.574 c 154.461
 167.496 154.508 166.184 154.602 165.09 c 154.695 164.168 154.883 162.684
 155.742 162.762 c 156.617 162.855 156.523 164.34 156.43 165.262 c h
156.43 165.262 m f
162.074 165.809 m 162.215 164.371 161.684 163.027 160.434 162.902 c 159.184
 162.793 158.418 164.012 158.277 165.449 c 158.137 166.887 158.637 168.23
 159.902 168.34 c 161.121 168.465 161.934 167.246 162.074 165.809 c h
161.09 165.715 m 160.996 166.809 160.574 168.09 159.918 168.027 c 159.121
 167.949 159.168 166.637 159.262 165.543 c 159.355 164.621 159.543 163.137
 160.402 163.215 c 161.277 163.309 161.184 164.793 161.09 165.715 c h
161.09 165.715 m f
167.359 163.828 m 167.828 163.906 167.875 163.953 167.859 164.125 c 167.844
 164.297 167.656 164.516 167.172 164.875 c 165.625 166.031 l 165.781 164.391
 l 165.859 163.812 165.953 163.75 166.594 163.766 c 166.609 163.609 l 164.359
 163.391 l 164.344 163.547 l 164.969 163.656 165.031 163.75 164.984 164.312
 c 164.656 167.75 l 164.594 168.422 164.484 168.516 163.859 168.484 c 163.844
 168.641 l 166.078 168.859 l 166.094 168.703 l 165.484 168.609 165.406 168.5
 165.438 167.906 c 165.594 166.438 l 165.828 166.297 l 166.578 167.219 l
 167.141 167.875 167.5 168.453 167.484 168.656 c 167.469 168.766 167.359
 168.797 167.125 168.797 c 167.094 168.797 167 168.781 166.906 168.781 c
 166.891 168.938 l 169.312 169.172 l 169.328 169.016 l 168.906 168.969 168.797
 168.891 168.172 168.031 c 166.516 165.891 l 168.172 164.531 l 168.75 164.078
 168.906 164.031 169.422 164.031 c 169.438 163.875 l 167.375 163.672 l h
167.359 163.828 m f
q 1 0 0 -1 0 0 cm
44.25 -4.793 m 44.25 -4.793 44.25 -4.836 44.25 -4.836 c 44.25 -4.836 44.246
 -4.941 44.246 -4.941 c 44.246 -4.941 44.246 -5.074 44.246 -5.074 c 44.246
 -5.074 44.25 -5.164 44.25 -5.164 c 44.25 -5.164 44.25 -5.195 44.25 -5.195
 c 44.25 -5.195 44.32 -6.105 44.32 -6.105 c 44.32 -6.105 44.359 -6.539 44.406
 -7.059 c 44.512 -8.191 m 44.547 -8.566 44.574 -8.84 44.574 -8.84 c 44.574
 -8.84 44.66 -9.621 44.758 -10.453 c 44.887 -11.582 m 44.938 -12.055 44.98
 -12.398 44.98 -12.398 c 44.98 -12.398 45.07 -13.078 45.172 -13.836 c 45.328
 -14.961 m 45.398 -15.5 45.457 -15.906 45.457 -15.906 c 45.457 -15.906 45.547
 -16.508 45.656 -17.211 c 45.832 -18.332 m 45.922 -18.922 45.996 -19.383
 45.996 -19.383 c 45.996 -19.383 46.086 -19.922 46.195 -20.578 c 46.387 
-21.695 m 46.492 -22.332 46.582 -22.852 46.582 -22.852 c 46.582 -22.852 
46.664 -23.332 46.773 -23.938 c 46.973 -25.055 m 47.098 -25.75 47.203 -26.34
 47.203 -26.34 c 47.203 -26.34 47.277 -26.75 47.375 -27.293 c 47.578 -28.41
 m 47.719 -29.18 47.848 -29.871 47.848 -29.871 c 47.848 -29.871 47.906 -30.211
 47.988 -30.645 c 48.191 -31.766 m 48.273 -32.215 48.34 -32.57 48.34 -32.57
 c 48.34 -32.57 48.504 -33.473 48.504 -33.473 c 48.504 -33.473 48.547 -33.723
 48.598 -34 c 48.801 -35.117 m 48.895 -35.625 49.074 -36.57 49.223 -37.352
 c 49.434 -38.469 m 49.449 -38.562 49.461 -38.613 49.461 -38.613 c 49.461
 -38.613 49.656 -39.602 49.879 -40.699 c 50.102 -41.812 m 50.297 -42.785
 50.465 -43.605 50.465 -43.605 c 50.465 -43.605 50.5 -43.77 50.559 -44.039
 c 50.801 -45.148 m 50.957 -45.863 51.137 -46.699 51.285 -47.371 c 51.527
 -48.48 m 51.543 -48.547 51.551 -48.582 51.551 -48.582 c 51.551 -48.582 
51.805 -49.676 52.043 -50.691 c 52.301 -51.801 m 52.383 -52.16 52.441 -52.398
 52.441 -52.398 c 52.441 -52.398 52.754 -53.668 52.754 -53.668 c 52.754 
-53.668 52.789 -53.824 52.836 -54.008 c 53.109 -55.109 m 53.273 -55.746 
53.551 -56.844 53.672 -57.312 c 53.965 -58.41 m 54.145 -59.082 54.391 -59.992
 54.559 -60.605 c 54.859 -61.699 m 55.012 -62.223 55.277 -63.145 55.492 
-63.883 c 55.809 -64.977 m 55.816 -65.004 55.824 -65.02 55.824 -65.02 c 
55.824 -65.02 56.215 -66.301 56.477 -67.148 c 56.816 -68.234 m 56.902 -68.504
 57.008 -68.828 57.008 -68.828 c 57.008 -68.828 57.25 -69.582 57.25 -69.582
 c 57.25 -69.582 57.371 -69.953 57.52 -70.395 c 57.875 -71.473 m 57.949 
-71.691 58 -71.84 58 -71.84 c 58 -71.84 58.332 -72.801 58.621 -73.621 c 
58.996 -74.695 m 59.008 -74.734 59.02 -74.758 59.02 -74.758 c 59.02 -74.758
 59.469 -75.969 59.785 -76.824 c 60.184 -77.891 m 60.406 -78.461 60.961 
-79.871 60.961 -79.871 c 60.961 -79.871 60.98 -79.926 61.012 -80.004 c 61.441
 -81.059 m 61.477 -81.148 61.504 -81.211 61.504 -81.211 c 61.504 -81.211
 62.266 -83.023 62.266 -83.023 c 62.266 -83.023 62.285 -83.074 62.32 -83.152
 c 62.777 -84.195 m 63.031 -84.777 63.289 -85.355 63.289 -85.355 c 63.289
 -85.355 63.484 -85.781 63.707 -86.27 c 64.184 -87.301 m 64.289 -87.523 
64.359 -87.672 64.359 -87.672 c 64.359 -87.672 64.996 -88.984 65.172 -89.348
 c 65.68 -90.363 m 65.727 -90.461 65.762 -90.523 65.762 -90.523 c 65.762
 -90.523 66.527 -92.012 66.527 -92.012 c 66.527 -92.012 66.605 -92.164 66.723
 -92.383 c 67.262 -93.383 m 67.426 -93.691 67.555 -93.926 67.555 -93.926
 c 67.555 -93.926 68.051 -94.809 68.367 -95.367 c 68.938 -96.352 m 69.176
 -96.766 69.473 -97.262 69.473 -97.262 c 69.473 -97.262 69.762 -97.738 69.762
 -97.738 c 69.762 -97.738 70.066 -98.246 70.102 -98.305 c 70.711 -99.262
 m 71.203 -100.035 71.82 -100.996 71.82 -100.996 c 71.82 -100.996 71.863
 -101.062 71.941 -101.176 c 72.586 -102.109 m 73.074 -102.828 73.625 -103.621
 73.625 -103.621 c 73.625 -103.621 73.77 -103.82 73.879 -103.977 c 74.551
 -104.895 m 74.891 -105.348 75.598 -106.285 75.922 -106.711 c 76.629 -107.598
 m 77.156 -108.254 77.883 -109.148 77.883 -109.148 c 77.883 -109.148 77.969
 -109.254 78.062 -109.363 c 78.797 -110.227 m 79.191 -110.672 80.105 -111.699
 80.305 -111.93 c 81.082 -112.758 m 81.578 -113.281 82.137 -113.871 82.137
 -113.871 c 82.137 -113.871 82.52 -114.258 82.52 -114.258 c 82.52 -114.258
 82.582 -114.324 82.652 -114.398 c 83.461 -115.203 m 83.965 -115.695 84.609
 -116.328 84.609 -116.328 c 84.609 -116.328 84.816 -116.523 85.094 -116.781
 c 85.926 -117.555 m 86.191 -117.801 86.391 -117.984 86.391 -117.984 c 86.391
 -117.984 86.77 -118.32 86.77 -118.32 c 86.77 -118.32 87.125 -118.637 87.125
 -118.637 c 87.125 -118.637 87.344 -118.824 87.625 -119.066 c 88.488 -119.801
 m 88.707 -119.988 88.867 -120.121 88.867 -120.121 c 88.867 -120.121 89.727
 -120.816 90.25 -121.238 c 91.141 -121.941 m 91.246 -122.023 91.383 -122.129
 91.383 -122.129 c 91.383 -122.129 92.512 -122.984 92.953 -123.316 c 93.871
 -123.984 m 94.355 -124.328 94.898 -124.715 94.898 -124.715 c 94.898 -124.715
 95.273 -124.973 95.273 -124.973 c 95.273 -124.973 95.633 -125.223 95.633
 -125.223 c 95.633 -125.223 95.668 -125.25 95.73 -125.293 c 96.68 -125.922
 m 97.051 -126.168 97.383 -126.387 97.383 -126.387 c 97.383 -126.387 98.07
 -126.824 98.586 -127.152 c 99.551 -127.754 m 99.633 -127.805 99.887 -127.961
 99.887 -127.961 c 99.887 -127.961 101.086 -128.68 101.5 -128.926 c 102.484
 -129.496 m 102.938 -129.754 103.406 -130.02 103.406 -130.02 c 103.406 -130.02
 103.777 -130.227 103.777 -130.227 c 103.777 -130.227 104.141 -130.426 104.141
 -130.426 c 104.141 -130.426 104.273 -130.5 104.469 -130.602 c 105.469 -131.141
 m 105.711 -131.27 105.891 -131.363 105.891 -131.363 c 105.891 -131.363 
107.043 -131.957 107.488 -132.188 c 108.504 -132.695 m 108.887 -132.883 
110.145 -133.488 110.145 -133.488 c 110.145 -133.488 110.316 -133.57 110.551
 -133.68 c 111.582 -134.16 m 111.773 -134.25 111.91 -134.309 111.91 -134.309
 c 111.91 -134.309 112.281 -134.477 112.281 -134.477 c 112.281 -134.477 
112.645 -134.641 112.645 -134.641 c 112.645 -134.641 113.176 -134.875 113.656
 -135.086 c 114.699 -135.539 m 115.203 -135.75 116.164 -136.152 116.164 
-136.152 c 116.164 -136.152 116.535 -136.305 116.535 -136.305 c 116.535 
-136.305 116.688 -136.371 116.797 -136.418 c 117.852 -136.84 m 118.262 -137.004
 118.652 -137.16 118.652 -137.16 c 118.652 -137.16 119.441 -137.469 119.965
 -137.672 c 121.027 -138.078 m 121.102 -138.105 121.152 -138.121 121.152
 -138.121 c 121.152 -138.121 122.906 -138.766 122.906 -138.766 c 122.906
 -138.766 123.008 -138.805 123.16 -138.859 c 124.234 -139.234 m 124.484 
-139.324 124.672 -139.387 124.672 -139.387 c 124.672 -139.387 125.039 -139.516
 125.039 -139.516 c 125.039 -139.516 125.402 -139.645 125.402 -139.645 c
 125.402 -139.645 125.91 -139.82 126.383 -139.98 c 127.457 -140.344 m 127.961
 -140.508 128.922 -140.824 128.922 -140.824 c 128.922 -140.824 129.473 -141
 129.617 -141.047 c 130.703 -141.387 m 131.078 -141.5 131.41 -141.602 131.41
 -141.602 c 131.41 -141.602 132.379 -141.891 132.879 -142.043 c 133.969 
-142.363 m 134.285 -142.457 135.664 -142.852 135.664 -142.852 c 135.664 
-142.852 135.875 -142.914 136.152 -142.992 c 137.246 -143.301 m 137.355 
-143.332 137.426 -143.348 137.426 -143.348 c 137.426 -143.348 138.16 -143.551
 138.16 -143.551 c 138.16 -143.551 138.922 -143.758 139.441 -143.898 c 140.539
 -144.188 m 141.047 -144.316 141.68 -144.48 141.68 -144.48 c 141.68 -144.48
 142.047 -144.574 142.047 -144.574 c 142.047 -144.574 142.41 -144.668 142.41
 -144.668 c 142.41 -144.668 142.543 -144.703 142.742 -144.754 c 143.844 
-145.027 m 144.035 -145.074 144.172 -145.105 144.172 -145.105 c 144.172 
-145.105 145.93 -145.531 145.93 -145.531 c 145.93 -145.531 145.977 -145.543
 146.055 -145.562 c 147.16 -145.82 m 147.68 -145.941 148.422 -146.113 148.422
 -146.113 c 148.422 -146.113 148.91 -146.227 149.375 -146.332 c 150.484 
-146.582 m 150.523 -146.59 150.551 -146.594 150.551 -146.594 c 150.551 -146.594
 150.914 -146.676 150.914 -146.676 c 150.914 -146.676 152.676 -147.062 152.676
 -147.062 c 152.676 -147.062 152.684 -147.066 152.703 -147.07 c 153.812 
-147.305 m 154.152 -147.375 154.434 -147.434 154.434 -147.434 c 154.434 
-147.434 154.801 -147.508 154.801 -147.508 c 154.801 -147.508 155.168 -147.586
 155.168 -147.586 c 155.168 -147.586 155.602 -147.676 156.039 -147.766 c
 157.156 -147.988 m 157.633 -148.082 158.688 -148.289 158.688 -148.289 c
 158.688 -148.289 159.238 -148.398 159.387 -148.426 c 160.5 -148.641 m 160.863
 -148.711 161.18 -148.77 161.18 -148.77 c 161.18 -148.77 162.273 -148.977
 162.734 -149.066 c 163.852 -149.27 m 164.301 -149.348 165.43 -149.547 165.43
 -149.547 c 165.43 -149.547 165.734 -149.602 166.09 -149.66 c 167.211 -149.852
 m 167.289 -149.867 167.559 -149.91 167.559 -149.91 c 167.559 -149.91 167.926
 -149.977 167.926 -149.977 c 167.926 -149.977 168.973 -150.156 169.449 -150.238
 c 170.57 -150.43 m 171.008 -150.504 171.441 -150.574 171.441 -150.574 c
 171.441 -150.574 171.809 -150.637 171.809 -150.637 c 171.809 -150.637 172.176
 -150.695 172.176 -150.695 c 172.176 -150.695 172.469 -150.742 172.812 -150.797
 c 173.938 -150.973 m 174.035 -150.988 175.695 -151.238 175.695 -151.238
 c 175.695 -151.238 176.062 -151.293 176.062 -151.293 c 176.062 -151.293
 176.117 -151.305 176.184 -151.312 c 177.309 -151.484 m 177.746 -151.551
 178.188 -151.617 178.188 -151.617 c 178.188 -151.617 179.039 -151.746 179.555
 -151.824 c 180.68 -151.984 m 180.734 -151.992 182.438 -152.242 182.438 
-152.242 c 182.438 -152.242 182.648 -152.273 182.93 -152.316 c 184.055 -152.477
 m 184.145 -152.488 184.199 -152.496 184.199 -152.496 c 184.199 -152.496
 184.566 -152.547 184.566 -152.547 c 184.566 -152.547 184.934 -152.602 184.934
 -152.602 c 184.934 -152.602 185.789 -152.719 186.305 -152.789 c 187.43 
-152.941 m 187.91 -153.004 188.449 -153.074 188.449 -153.074 c 188.449 -153.074
 188.816 -153.121 188.816 -153.121 c 188.816 -153.121 188.969 -153.141 188.969
 -153.141 c 188.969 -153.141 189.422 -153.199 189.422 -153.199 c 189.422
 -153.199 189.543 -153.215 189.684 -153.234 c 190.812 -153.379 m 190.875
 -153.387 191.492 -153.457 191.492 -153.457 c 191.492 -153.457 192.109 -153.535
 192.109 -153.535 c 192.109 -153.535 192.609 -153.598 192.609 -153.598 c
 192.609 -153.598 192.945 -153.641 192.945 -153.641 c 192.945 -153.641 193.059
 -153.652 193.066 -153.652 c S Q
152.656 144.18 m 152.766 143.57 l 151.922 143.414 l 152.562 140.039 l 152.078
 139.945 l 148.922 142.852 l 148.812 143.445 l 151.016 143.867 l 150.766
 145.164 l 151.562 145.32 l 151.812 144.023 l h
151.641 140.805 m 151.609 140.727 l 151.125 143.258 l 149.406 142.93 l 
h
151.641 140.805 m f
157.426 143.734 m 157.691 142.328 157.301 140.938 156.066 140.703 c 154.832
 140.469 153.957 141.625 153.691 143.031 c 153.426 144.453 153.801 145.828
 155.051 146.078 c 156.254 146.297 157.16 145.156 157.426 143.734 c h
156.457 143.562 m 156.254 144.656 155.754 145.875 155.098 145.75 c 154.301
 145.609 154.441 144.312 154.645 143.219 c 154.816 142.312 155.145 140.844
 156.004 141.016 c 156.863 141.172 156.629 142.656 156.457 143.562 c h
156.457 143.562 m f
162.027 144.605 m 162.293 143.199 161.902 141.809 160.668 141.574 c 159.434
 141.34 158.559 142.496 158.293 143.902 c 158.027 145.324 158.402 146.699
 159.652 146.949 c 160.855 147.168 161.762 146.027 162.027 144.605 c h
161.059 144.434 m 160.855 145.527 160.355 146.746 159.699 146.621 c 158.902
 146.48 159.043 145.184 159.246 144.09 c 159.418 143.184 159.746 141.715
 160.605 141.887 c 161.465 142.043 161.23 143.527 161.059 144.434 c h
161.059 144.434 m f
167.469 143.109 m 167.938 143.234 167.984 143.266 167.953 143.438 c 167.922
 143.609 167.703 143.812 167.188 144.141 c 165.562 145.141 l 165.859 143.531
 l 165.984 142.969 166.078 142.891 166.719 142.969 c 166.75 142.812 l 164.531
 142.391 l 164.5 142.547 l 165.094 142.719 165.156 142.828 165.062 143.391
 c 164.422 146.781 l 164.297 147.438 164.188 147.516 163.578 147.422 c 163.547
 147.578 l 165.75 148 l 165.781 147.844 l 165.188 147.703 165.109 147.594
 165.203 147 c 165.484 145.547 l 165.734 145.422 l 166.406 146.406 l 166.891
 147.109 167.203 147.734 167.172 147.922 c 167.156 148.031 167.031 148.062
 166.797 148.031 c 166.766 148.031 166.672 148.016 166.578 148 c 166.547
 148.156 l 168.953 148.609 l 168.984 148.453 l 168.562 148.359 168.469 148.266
 167.906 147.375 c 166.453 145.078 l 168.203 143.891 l 168.844 143.484 168.984
 143.453 169.516 143.5 c 169.547 143.344 l 167.5 142.953 l h
167.469 143.109 m f
q 1 0 0 -1 0 0 cm
54.711 -4.793 m 54.711 -4.793 54.727 -4.875 54.727 -4.875 c 54.727 -4.875
 54.773 -5.109 54.773 -5.109 c 54.773 -5.109 54.852 -5.484 54.852 -5.484
 c 54.852 -5.484 54.949 -5.977 54.949 -5.977 c 54.949 -5.977 55.07 -6.578
 55.07 -6.578 c 55.07 -6.578 55.117 -6.824 55.16 -7.02 c 55.387 -8.133 m
 55.43 -8.348 55.539 -8.871 55.539 -8.871 c 55.539 -8.871 55.719 -9.742 
55.719 -9.742 c 55.719 -9.742 55.789 -10.094 55.844 -10.359 c 56.078 -11.473
 m 56.18 -11.957 56.289 -12.473 56.289 -12.473 c 56.289 -12.473 56.48 -13.367
 56.48 -13.367 c 56.48 -13.367 56.512 -13.52 56.547 -13.695 c 56.785 -14.805
 m 56.816 -14.938 56.84 -15.039 56.84 -15.039 c 56.84 -15.039 56.965 -15.598
 56.965 -15.598 c 56.965 -15.598 57.008 -15.785 57.008 -15.785 c 57.008 
-15.785 57.258 -16.906 57.258 -16.906 c 57.258 -16.906 57.266 -16.949 57.281
 -17.023 c 57.531 -18.129 m 57.75 -19.098 58.02 -20.281 58.02 -20.281 c 
58.02 -20.281 58.023 -20.305 58.031 -20.348 c 58.289 -21.453 m 58.449 -22.145
 58.652 -23.008 58.805 -23.664 c 59.062 -24.77 m 59.141 -25.098 59.375 -26.055
 59.602 -26.977 c 59.867 -28.082 m 60 -28.625 60.098 -29.012 60.098 -29.012
 c 60.098 -29.012 60.246 -29.602 60.422 -30.285 c 60.703 -31.387 m 60.848
 -31.934 60.957 -32.359 60.957 -32.359 c 60.957 -32.359 61.258 -33.473 61.258
 -33.473 c 61.258 -33.473 61.266 -33.516 61.285 -33.582 c 61.582 -34.68 
m 61.738 -35.23 62.062 -36.391 62.195 -36.867 c 62.512 -37.957 m 62.715 
-38.652 62.988 -39.594 63.148 -40.137 c 63.477 -41.227 m 63.668 -41.844 
63.953 -42.773 64.145 -43.395 c 64.488 -44.48 m 64.695 -45.125 65.082 -46.316
 65.188 -46.641 c 65.547 -47.719 m 65.613 -47.926 65.758 -48.352 65.758 
-48.352 c 65.758 -48.352 66.055 -49.223 66.277 -49.871 c 66.652 -50.941 
m 66.855 -51.5 67.227 -52.539 67.422 -53.078 c 67.816 -54.145 m 68.121 -54.965
 68.59 -56.203 68.613 -56.273 c 69.027 -57.328 m 69.246 -57.887 69.469 -58.453
 69.469 -58.453 c 69.469 -58.453 69.762 -59.176 69.762 -59.176 c 69.762 
-59.176 69.812 -59.305 69.867 -59.441 c 70.297 -60.492 m 70.516 -61.016 
70.781 -61.645 70.781 -61.645 c 70.781 -61.645 70.969 -62.082 71.184 -62.586
 c 71.633 -63.629 m 71.734 -63.871 71.809 -64.035 71.809 -64.035 c 71.809
 -64.035 72.242 -65.004 72.555 -65.703 c 73.027 -66.738 m 73.27 -67.258 
73.727 -68.227 73.727 -68.227 c 73.727 -68.227 73.934 -68.66 73.996 -68.793
 c 74.492 -69.812 m 74.719 -70.273 75.039 -70.914 75.039 -70.914 c 75.039
 -70.914 75.27 -71.367 75.512 -71.844 c 76.027 -72.855 m 76.055 -72.906 
76.07 -72.934 76.07 -72.934 c 76.07 -72.934 76.902 -74.5 77.094 -74.859 
c 77.641 -75.855 m 77.82 -76.18 77.98 -76.465 77.98 -76.465 c 77.98 -76.465
 78.266 -76.969 78.266 -76.969 c 78.266 -76.969 78.613 -77.586 78.613 -77.586
 c 78.613 -77.586 78.668 -77.68 78.758 -77.836 c 79.336 -78.812 m 79.805
 -79.613 80.332 -80.504 80.332 -80.504 c 80.332 -80.504 80.395 -80.605 80.496
 -80.766 c 81.098 -81.73 m 81.59 -82.508 82.133 -83.371 82.133 -83.371 c
 82.133 -83.371 82.219 -83.508 82.312 -83.648 c 82.934 -84.598 m 83.148 
-84.91 83.797 -85.859 84.215 -86.477 c 84.867 -87.406 m 85.234 -87.918 85.875
 -88.809 86.195 -89.25 c 86.871 -90.164 m 86.977 -90.301 87.121 -90.492 
87.121 -90.492 c 87.121 -90.492 87.758 -91.316 88.262 -91.961 c 88.961 -92.852
 m 89.25 -93.203 90.016 -94.133 90.406 -94.609 c 91.137 -95.477 m 91.238
 -95.598 91.375 -95.754 91.375 -95.754 c 91.375 -95.754 92.125 -96.602 92.637
 -97.184 c 93.398 -98.023 m 93.906 -98.566 94.895 -99.621 94.895 -99.621
 c 94.895 -99.621 94.918 -99.648 94.953 -99.684 c 95.742 -100.5 m 96.102
 -100.859 97.195 -101.945 97.352 -102.105 c 98.172 -102.887 m 98.645 -103.336
 99.148 -103.812 99.148 -103.812 c 99.148 -103.812 99.527 -104.16 99.527
 -104.16 c 99.527 -104.16 99.727 -104.352 99.828 -104.445 c 100.672 -105.203
 m 101.133 -105.613 101.625 -106.051 101.625 -106.051 c 101.625 -106.051
 101.984 -106.359 102.383 -106.699 c 103.246 -107.438 m 103.34 -107.52 103.402
 -107.57 103.402 -107.57 c 103.402 -107.57 103.777 -107.883 103.777 -107.883
 c 103.777 -107.883 104.137 -108.18 104.137 -108.18 c 104.137 -108.18 104.566
 -108.531 105 -108.879 c 105.883 -109.594 m 105.965 -109.656 107.656 -110.961
 107.656 -110.961 c 107.656 -110.961 107.664 -110.969 107.684 -110.984 c
 108.594 -111.66 m 109.055 -111.992 110.137 -112.773 110.137 -112.773 c 
110.137 -112.773 110.258 -112.859 110.438 -112.984 c 111.371 -113.637 m 
111.672 -113.844 111.91 -114.008 111.91 -114.008 c 111.91 -114.008 112.281
 -114.258 112.281 -114.258 c 112.281 -114.258 112.645 -114.504 112.645 -114.504
 c 112.645 -114.504 112.918 -114.688 113.25 -114.91 c 114.199 -115.535 m
 114.316 -115.617 114.395 -115.664 114.395 -115.664 c 114.395 -115.664 115.828
 -116.582 116.109 -116.762 c 117.078 -117.359 m 117.527 -117.629 118.648
 -118.301 118.648 -118.301 c 118.648 -118.301 118.805 -118.395 119.027 -118.523
 c 120.012 -119.09 m 120.246 -119.227 120.414 -119.32 120.414 -119.32 c 
120.414 -119.32 120.785 -119.531 120.785 -119.531 c 120.785 -119.531 121.148
 -119.738 121.148 -119.738 c 121.148 -119.738 121.562 -119.973 121.992 -120.207
 c 122.984 -120.758 m 123.336 -120.945 124.668 -121.656 124.668 -121.656
 c 124.668 -121.656 124.891 -121.773 124.988 -121.824 c 126 -122.344 m 126.508
 -122.602 127.156 -122.93 127.156 -122.93 c 127.156 -122.93 127.594 -123.145
 128.031 -123.363 c 129.051 -123.863 m 129.156 -123.914 129.289 -123.977
 129.289 -123.977 c 129.289 -123.977 129.652 -124.148 129.652 -124.148 c
 129.652 -124.148 130.605 -124.598 131.105 -124.832 c 132.141 -125.305 m
 132.625 -125.523 133.172 -125.77 133.172 -125.77 c 133.172 -125.77 133.543
 -125.93 133.543 -125.93 c 133.543 -125.93 133.906 -126.094 133.906 -126.094
 c 133.906 -126.094 134.031 -126.148 134.215 -126.23 c 135.258 -126.68 m
 135.488 -126.781 135.66 -126.852 135.66 -126.852 c 135.66 -126.852 137.02
 -127.418 137.352 -127.559 c 138.402 -127.988 m 138.887 -128.18 139.914 
-128.59 139.914 -128.59 c 139.914 -128.59 140.184 -128.695 140.516 -128.824
 c 141.574 -129.238 m 141.641 -129.266 141.68 -129.277 141.68 -129.277 c
 141.68 -129.277 142.047 -129.418 142.047 -129.418 c 142.047 -129.418 142.41
 -129.559 142.41 -129.559 c 142.41 -129.559 143.176 -129.848 143.699 -130.043
 c 144.766 -130.434 m 145.273 -130.621 145.93 -130.859 145.93 -130.859 c
 145.93 -130.859 146.297 -130.992 146.297 -130.992 c 146.297 -130.992 146.664
 -131.121 146.664 -131.121 c 146.664 -131.121 146.758 -131.156 146.902 -131.207
 c 147.973 -131.578 m 148.23 -131.668 148.422 -131.734 148.422 -131.734 
c 148.422 -131.734 149.816 -132.211 150.121 -132.316 c 151.199 -132.672 
m 151.699 -132.836 152.672 -133.148 152.672 -133.148 c 152.672 -133.148 
152.992 -133.25 153.363 -133.367 c 154.445 -133.711 m 154.516 -133.73 154.801
 -133.816 154.801 -133.816 c 154.801 -133.816 155.168 -133.934 155.168 -133.934
 c 155.168 -133.934 156.117 -134.223 156.621 -134.375 c 157.707 -134.699
 m 158.18 -134.836 158.688 -134.984 158.688 -134.984 c 158.688 -134.984 
159.055 -135.094 159.055 -135.094 c 159.055 -135.094 159.422 -135.199 159.422
 -135.199 c 159.422 -135.199 159.621 -135.258 159.891 -135.336 c 160.98 
-135.652 m 161.098 -135.688 161.176 -135.707 161.176 -135.707 c 161.176 
-135.707 162.938 -136.203 162.938 -136.203 c 162.938 -136.203 163.039 -136.234
 163.168 -136.27 c 164.262 -136.566 m 164.773 -136.703 165.43 -136.875 165.43
 -136.875 c 165.43 -136.875 165.977 -137.02 166.461 -137.145 c 167.559 -137.434
 m 167.578 -137.441 167.926 -137.527 167.926 -137.527 c 167.926 -137.527
 169.684 -137.98 169.684 -137.98 c 169.684 -137.98 169.711 -137.988 169.758
 -138 c 170.859 -138.281 m 171.18 -138.359 171.441 -138.426 171.441 -138.426
 c 171.441 -138.426 172.176 -138.605 172.176 -138.605 c 172.176 -138.605
 172.621 -138.715 173.066 -138.82 c 174.172 -139.078 m 174.652 -139.191 
175.695 -139.43 175.695 -139.43 c 175.695 -139.43 176.227 -139.555 176.387
 -139.594 c 177.492 -139.844 m 177.863 -139.93 178.188 -140 178.188 -140
 c 178.188 -140 179.23 -140.234 179.711 -140.34 c 180.82 -140.586 m 181.234
 -140.676 182.438 -140.938 182.438 -140.938 c 182.438 -140.938 182.707 -140.996
 183.039 -141.066 c 184.148 -141.305 m 184.18 -141.309 184.199 -141.312 
184.199 -141.312 c 184.199 -141.312 184.566 -141.387 184.566 -141.387 c 
184.566 -141.387 184.934 -141.465 184.934 -141.465 c 184.934 -141.465 185.871
 -141.656 186.375 -141.758 c 187.492 -141.977 m 187.953 -142.07 188.449 
-142.164 188.449 -142.164 c 188.449 -142.164 188.816 -142.238 188.816 -142.238
 c 188.816 -142.238 188.969 -142.266 188.969 -142.266 c 188.969 -142.266
 189.422 -142.355 189.422 -142.355 c 189.422 -142.355 189.566 -142.383 189.719
 -142.414 c 190.836 -142.625 m 190.965 -142.648 191.492 -142.746 191.492
 -142.746 c 191.492 -142.746 192.109 -142.863 192.109 -142.863 c 192.109
 -142.863 192.609 -142.957 192.609 -142.957 c 192.609 -142.957 192.945 -143.023
 192.945 -143.023 c 192.945 -143.023 193.062 -143.047 193.07 -143.047 c S Q
152.754 129.293 m 152.988 128.434 152.473 127.605 151.629 127.355 c 151.238
 127.246 150.848 127.262 150.457 127.371 c 151.207 126.262 152.488 125.777
 153.535 126.074 c 153.598 125.824 l 150.91 125.059 149.52 126.824 149.191
 127.949 c 148.848 129.168 149.379 130.309 150.426 130.621 c 151.426 130.902
 152.457 130.309 152.754 129.293 c h
151.816 129.434 m 151.629 130.105 151.16 130.48 150.629 130.34 c 149.785
 130.09 149.863 128.902 150.035 128.34 c 150.082 128.137 150.16 127.965 
150.27 127.73 c 150.676 127.621 150.973 127.621 151.238 127.699 c 152.082
 127.949 151.988 128.824 151.816 129.434 c h
151.816 129.434 m f
157.473 129.766 m 157.879 128.391 157.582 126.969 156.379 126.625 c 155.16
 126.281 154.207 127.344 153.801 128.719 c 153.41 130.125 153.645 131.531
 154.879 131.891 c 156.051 132.219 157.082 131.172 157.473 129.766 c h
156.52 129.5 m 156.223 130.578 155.598 131.766 154.957 131.594 c 154.176
 131.359 154.457 130.078 154.754 129 c 155.004 128.125 155.457 126.672 156.301
 126.922 c 157.145 127.156 156.77 128.625 156.52 129.5 c h
156.52 129.5 m f
161.977 131.047 m 162.383 129.672 162.086 128.25 160.883 127.906 c 159.664
 127.562 158.711 128.625 158.305 130 c 157.914 131.406 158.148 132.812 159.383
 133.172 c 160.555 133.5 161.586 132.453 161.977 131.047 c h
161.023 130.781 m 160.727 131.859 160.102 133.047 159.461 132.875 c 158.68
 132.641 158.961 131.359 159.258 130.281 c 159.508 129.406 159.961 127.953
 160.805 128.203 c 161.648 128.438 161.273 129.906 161.023 130.781 c h
161.023 130.781 m f
167.527 130.066 m 167.965 130.207 168.027 130.254 167.965 130.441 c 167.918
 130.613 167.684 130.785 167.152 131.051 c 165.434 131.926 l 165.887 130.348
 l 166.074 129.77 166.152 129.707 166.793 129.848 c 166.84 129.691 l 164.652
 129.082 l 164.605 129.238 l 165.199 129.441 165.246 129.551 165.105 130.113
 c 164.168 133.426 l 163.98 134.082 163.855 134.145 163.246 134.004 c 163.199
 134.16 l 165.371 134.77 l 165.418 134.613 l 164.824 134.41 164.777 134.316
 164.918 133.738 c 165.324 132.316 l 165.574 132.191 l 166.168 133.238 l
 166.59 134.004 166.824 134.629 166.777 134.832 c 166.746 134.941 166.637
 134.941 166.402 134.895 c 166.371 134.895 166.293 134.863 166.199 134.832
 c 166.152 134.988 l 168.496 135.66 l 168.543 135.504 l 168.137 135.395 
168.043 135.301 167.574 134.332 c 166.324 131.926 l 168.199 130.895 l 168.84
 130.535 168.996 130.52 169.527 130.629 c 169.574 130.473 l 167.574 129.91
 l h
167.527 130.066 m f
q 1 0 0 -1 0 0 cm
65.426 -4.793 m 65.426 -4.793 65.434 -4.836 65.434 -4.836 c 65.434 -4.836
 65.453 -4.941 65.453 -4.941 c 65.453 -4.941 65.484 -5.074 65.484 -5.074
 c 65.484 -5.074 65.504 -5.164 65.504 -5.164 c 65.504 -5.164 65.512 -5.195
 65.512 -5.195 c 65.512 -5.195 65.75 -6.18 65.75 -6.18 c 65.75 -6.18 65.84
 -6.535 65.957 -7 c 66.234 -8.098 m 66.379 -8.66 66.5 -9.125 66.5 -9.125
 c 66.5 -9.125 66.637 -9.641 66.812 -10.289 c 67.105 -11.387 m 67.324 -12.207
 67.523 -12.934 67.523 -12.934 c 67.523 -12.934 67.594 -13.191 67.703 -13.57
 c 68.016 -14.66 m 68.301 -15.664 68.605 -16.727 68.605 -16.727 c 68.605
 -16.727 68.617 -16.77 68.637 -16.844 c 68.961 -17.93 m 69.199 -18.73 69.469
 -19.641 69.469 -19.641 c 69.469 -19.641 69.535 -19.867 69.605 -20.102 c
 69.938 -21.188 m 69.977 -21.324 70.012 -21.43 70.012 -21.43 c 70.012 -21.43
 70.383 -22.629 70.609 -23.352 c 70.949 -24.434 m 71.145 -25.039 71.457 
-26.012 71.645 -26.59 c 72 -27.668 m 72.211 -28.293 72.539 -29.266 72.727
 -29.816 c 73.098 -30.887 m 73.352 -31.605 73.723 -32.664 73.723 -32.664
 c 73.723 -32.664 73.785 -32.84 73.852 -33.027 c 74.234 -34.094 m 74.254
 -34.141 74.266 -34.168 74.266 -34.168 c 74.266 -34.168 74.93 -35.969 75.023
 -36.219 c 75.426 -37.277 m 75.719 -38.035 76.062 -38.934 76.062 -38.934
 c 76.062 -38.934 76.137 -39.121 76.242 -39.395 c 76.664 -40.445 m 76.906
 -41.051 77.133 -41.605 77.133 -41.605 c 77.133 -41.605 77.32 -42.062 77.52
 -42.547 c 77.953 -43.594 m 77.969 -43.633 77.98 -43.656 77.98 -43.656 c
 77.98 -43.656 78.266 -44.336 78.266 -44.336 c 78.266 -44.336 78.52 -44.934
 78.52 -44.934 c 78.52 -44.934 78.672 -45.289 78.84 -45.68 c 79.289 -46.719
 m 79.289 -46.723 79.293 -46.723 79.293 -46.723 c 79.293 -46.723 79.949 
-48.199 80.215 -48.789 c 80.688 -49.82 m 80.996 -50.484 81.391 -51.328 81.391
 -51.328 c 81.391 -51.328 81.504 -51.57 81.648 -51.875 c 82.137 -52.898 
m 82.195 -53.016 82.23 -53.086 82.23 -53.086 c 82.23 -53.086 82.52 -53.668
 82.52 -53.668 c 82.52 -53.668 82.773 -54.188 82.773 -54.188 c 82.773 -54.188
 82.953 -54.555 83.145 -54.93 c 83.652 -55.941 m 83.918 -56.449 84.586 -57.738
 84.586 -57.738 c 84.586 -57.738 84.629 -57.824 84.699 -57.953 c 85.234 
-58.953 m 85.453 -59.367 85.648 -59.727 85.648 -59.727 c 85.648 -59.727 
86.074 -60.5 86.32 -60.941 c 86.871 -61.934 m 86.977 -62.117 87.121 -62.367
 87.121 -62.367 c 87.121 -62.367 87.57 -63.141 88.008 -63.895 c 88.582 -64.875
 m 88.738 -65.145 88.844 -65.32 88.844 -65.32 c 88.844 -65.32 89.305 -66.07
 89.762 -66.809 c 90.355 -67.773 m 90.523 -68.047 90.637 -68.227 90.637 
-68.227 c 90.637 -68.227 91.023 -68.828 91.023 -68.828 c 91.023 -68.828 
91.371 -69.375 91.371 -69.375 c 91.371 -69.375 91.449 -69.496 91.574 -69.688
 c 92.203 -70.629 m 92.648 -71.293 93.102 -71.973 93.102 -71.973 c 93.102
 -71.973 93.254 -72.195 93.473 -72.508 c 94.125 -73.438 m 94.527 -74.008
 94.895 -74.527 94.895 -74.527 c 94.895 -74.527 95.273 -75.055 95.273 -75.055
 c 95.273 -75.055 95.352 -75.168 95.438 -75.285 c 96.113 -76.195 m 96.625
 -76.879 97.359 -77.859 97.359 -77.859 c 97.359 -77.859 97.402 -77.914 97.473
 -78.008 c 98.172 -78.902 m 98.645 -79.5 99.145 -80.137 99.145 -80.137 c
 99.145 -80.137 99.527 -80.605 99.527 -80.605 c 99.527 -80.605 99.547 -80.637
 99.582 -80.676 c 100.305 -81.551 m 100.82 -82.16 101.617 -83.109 101.617
 -83.109 c 101.617 -83.109 101.672 -83.176 101.766 -83.285 c 102.516 -84.137
 m 102.957 -84.641 103.398 -85.141 103.398 -85.141 c 103.398 -85.141 103.777
 -85.559 103.777 -85.559 c 103.777 -85.559 103.918 -85.715 104.023 -85.832
 c 104.793 -86.66 m 105.285 -87.191 105.875 -87.82 105.875 -87.82 c 105.875
 -87.82 106.078 -88.031 106.348 -88.312 c 107.141 -89.125 m 107.426 -89.422
 107.652 -89.648 107.652 -89.648 c 107.652 -89.648 108.031 -90.023 108.031
 -90.023 c 108.031 -90.023 108.387 -90.383 108.387 -90.383 c 108.387 -90.383
 108.531 -90.527 108.742 -90.727 c 109.555 -91.516 m 109.875 -91.824 110.133
 -92.07 110.133 -92.07 c 110.133 -92.07 110.707 -92.609 111.203 -93.07 c
 112.035 -93.844 m 112.145 -93.941 112.281 -94.062 112.281 -94.062 c 112.281
 -94.062 112.641 -94.387 112.641 -94.387 c 112.641 -94.387 113.234 -94.914
 113.73 -95.352 c 114.582 -96.094 m 115.047 -96.488 116.16 -97.43 116.16
 -97.43 c 116.16 -97.43 116.234 -97.492 116.316 -97.559 c 117.191 -98.281
 m 117.688 -98.68 118.641 -99.445 118.641 -99.445 c 118.641 -99.445 118.77
 -99.547 118.961 -99.695 c 119.859 -100.391 m 120.168 -100.629 120.414 -100.816
 120.414 -100.816 c 120.414 -100.816 120.785 -101.098 120.785 -101.098 c
 120.785 -101.098 121.148 -101.371 121.148 -101.371 c 121.148 -101.371 121.375
 -101.539 121.668 -101.754 c 122.582 -102.426 m 122.766 -102.562 122.895
 -102.652 122.895 -102.652 c 122.895 -102.652 123.949 -103.398 124.43 -103.738
 c 125.359 -104.387 m 125.383 -104.402 125.398 -104.41 125.398 -104.41 c
 125.398 -104.41 127.152 -105.594 127.152 -105.594 c 127.152 -105.594 127.184
 -105.617 127.242 -105.652 c 128.188 -106.273 m 128.574 -106.527 128.918
 -106.75 128.918 -106.75 c 128.918 -106.75 129.289 -106.988 129.289 -106.988
 c 129.289 -106.988 129.652 -107.219 129.652 -107.219 c 129.652 -107.219
 129.84 -107.34 130.098 -107.5 c 131.059 -108.102 m 131.258 -108.23 131.402
 -108.316 131.402 -108.316 c 131.402 -108.316 132.551 -109.012 132.996 -109.277
 c 133.973 -109.855 m 134.289 -110.043 135.656 -110.832 135.656 -110.832
 c 135.656 -110.832 135.766 -110.895 135.934 -110.992 c 136.922 -111.543
 m 137.207 -111.703 137.426 -111.824 137.426 -111.824 c 137.426 -111.824
 137.793 -112.027 137.793 -112.027 c 137.793 -112.027 138.156 -112.227 138.156
 -112.227 c 138.156 -112.227 138.516 -112.422 138.914 -112.633 c 139.914
 -113.164 m 140.02 -113.219 141.676 -114.07 141.676 -114.07 c 141.676 -114.07
 141.82 -114.145 141.93 -114.203 c 142.941 -114.715 m 143.457 -114.973 144.164
 -115.324 144.164 -115.324 c 144.164 -115.324 144.559 -115.52 144.973 -115.723
 c 145.992 -116.219 m 146.098 -116.27 146.297 -116.363 146.297 -116.363 
c 146.297 -116.363 146.66 -116.539 146.66 -116.539 c 146.66 -116.539 147.527
 -116.945 148.043 -117.188 c 149.074 -117.66 m 149.574 -117.887 150.18 -118.156
 150.18 -118.156 c 150.18 -118.156 150.551 -118.32 150.551 -118.32 c 150.551
 -118.32 150.914 -118.48 150.914 -118.48 c 150.914 -118.48 151.004 -118.52
 151.145 -118.582 c 152.184 -119.027 m 152.461 -119.145 152.672 -119.234
 152.672 -119.234 c 152.672 -119.234 153.844 -119.727 154.273 -119.91 c 
155.32 -120.344 m 155.75 -120.52 156.922 -121 156.922 -121 c 156.922 -121
 157.137 -121.09 157.422 -121.203 c 158.473 -121.621 m 158.602 -121.672 
158.684 -121.703 158.684 -121.703 c 158.684 -121.703 159.055 -121.848 159.055
 -121.848 c 159.055 -121.848 159.418 -121.992 159.418 -121.992 c 159.418
 -121.992 160.078 -122.242 160.59 -122.438 c 161.652 -122.836 m 162.172 
-123.027 162.938 -123.309 162.938 -123.309 c 162.938 -123.309 163.305 -123.441
 163.305 -123.441 c 163.305 -123.441 163.672 -123.578 163.672 -123.578 c
 163.672 -123.578 163.711 -123.594 163.777 -123.617 c 164.844 -124.008 m
 165.164 -124.125 165.43 -124.219 165.43 -124.219 c 165.43 -124.219 166.508
 -124.605 166.977 -124.773 c 168.047 -125.145 m 168.453 -125.285 169.68 
-125.699 169.68 -125.699 c 169.68 -125.699 169.906 -125.773 170.195 -125.871
 c 171.273 -126.223 m 171.375 -126.258 171.441 -126.277 171.441 -126.277
 c 171.441 -126.277 172.176 -126.52 172.176 -126.52 c 172.176 -126.52 172.91
 -126.754 173.43 -126.922 c 174.512 -127.262 m 175.027 -127.418 175.695 
-127.625 175.695 -127.625 c 175.695 -127.625 176.43 -127.852 176.43 -127.852
 c 176.43 -127.852 176.527 -127.883 176.68 -127.93 c 177.766 -128.258 m 
178.004 -128.332 178.184 -128.383 178.184 -128.383 c 178.184 -128.383 179.824
 -128.871 179.938 -128.906 c 181.027 -129.223 m 181.539 -129.371 182.438
 -129.629 182.438 -129.629 c 182.438 -129.629 182.805 -129.734 183.207 -129.848
 c 184.297 -130.152 m 184.406 -130.184 184.566 -130.227 184.566 -130.227
 c 184.566 -130.227 184.93 -130.324 184.93 -130.324 c 184.93 -130.324 186.023
 -130.621 186.484 -130.742 c 187.582 -131.031 m 188.016 -131.145 188.449
 -131.258 188.449 -131.258 c 188.449 -131.258 188.816 -131.352 188.816 -131.352
 c 188.816 -131.352 188.969 -131.391 188.969 -131.391 c 188.969 -131.391
 189.422 -131.512 189.422 -131.512 c 189.422 -131.512 189.602 -131.559 189.777
 -131.605 c 190.875 -131.891 m 191.047 -131.934 191.492 -132.051 191.492
 -132.051 c 191.492 -132.051 192.109 -132.207 192.109 -132.207 c 192.109
 -132.207 192.609 -132.34 192.609 -132.34 c 192.609 -132.34 192.945 -132.426
 192.945 -132.426 c 192.945 -132.426 193.07 -132.457 193.07 -132.457 c S Q
152.516 116.434 m 152.703 115.949 152.609 115.418 151.891 114.402 c 152.609
 114.309 153.203 114.152 153.422 113.621 c 153.641 113.059 153.219 112.309
 152.328 111.965 c 151.531 111.652 150.609 111.84 150.328 112.543 c 150.125
 113.09 150.297 113.527 150.812 114.262 c 149.844 114.48 149.453 114.684
 149.234 115.215 c 149 115.855 149.422 116.699 150.391 117.074 c 151.547
 117.527 152.297 116.996 152.516 116.434 c h
152.781 113.371 m 152.594 113.871 152.156 113.996 151.656 114.09 c 151.266
 113.574 150.953 113.027 151.109 112.621 c 151.25 112.262 151.672 112.043
 152.188 112.246 c 152.781 112.48 152.953 112.934 152.781 113.371 c h
151.75 116.387 m 151.578 116.824 151.078 116.98 150.578 116.793 c 149.969
 116.559 149.766 115.98 149.984 115.418 c 150.188 114.902 150.578 114.699
 151.016 114.559 c 151.656 115.48 151.922 115.934 151.75 116.387 c h
151.75 116.387 m f
157.527 116.875 m 158.043 115.531 157.887 114.094 156.715 113.641 c 155.527
 113.188 154.48 114.172 153.965 115.516 c 153.434 116.875 153.574 118.297
 154.762 118.75 c 155.902 119.188 156.996 118.234 157.527 116.875 c h
156.605 116.531 m 156.199 117.578 155.465 118.688 154.855 118.453 c 154.105
 118.156 154.48 116.906 154.887 115.859 c 155.215 115 155.793 113.625 156.605
 113.938 c 157.418 114.25 156.934 115.672 156.605 116.531 c h
156.605 116.531 m f
161.895 118.551 m 162.41 117.207 162.254 115.77 161.082 115.316 c 159.895
 114.863 158.848 115.848 158.332 117.191 c 157.801 118.551 157.941 119.973
 159.129 120.426 c 160.27 120.863 161.363 119.91 161.895 118.551 c h
160.973 118.207 m 160.566 119.254 159.832 120.363 159.223 120.129 c 158.473
 119.832 158.848 118.582 159.254 117.535 c 159.582 116.676 160.16 115.301
 160.973 115.613 c 161.785 115.926 161.301 117.348 160.973 118.207 c h
160.973 118.207 m f
167.512 118.062 m 167.934 118.25 167.98 118.312 167.918 118.484 c 167.855
 118.641 167.59 118.797 167.043 119.016 c 165.246 119.719 l 165.84 118.188
 l 166.074 117.641 166.168 117.594 166.793 117.781 c 166.84 117.625 l 164.73
 116.812 l 164.684 116.969 l 165.23 117.234 165.277 117.344 165.09 117.906
 c 163.855 121.125 l 163.605 121.75 163.48 121.797 162.902 121.609 c 162.84
 121.75 l 164.934 122.562 l 164.996 122.422 l 164.434 122.172 164.371 122.047
 164.574 121.484 c 165.105 120.094 l 165.371 120.016 l 165.871 121.109 l
 166.215 121.906 166.402 122.547 166.34 122.734 c 166.293 122.844 166.184
 122.859 165.965 122.781 c 165.934 122.781 165.84 122.734 165.762 122.703
 c 165.699 122.844 l 167.965 123.719 l 168.027 123.578 l 167.637 123.438
 167.559 123.312 167.168 122.328 c 166.152 119.812 l 168.09 118.953 l 168.777
 118.656 168.918 118.656 169.449 118.797 c 169.496 118.641 l 167.559 117.906
 l h
167.512 118.062 m f
0.567043 w
q 1 0 0 -1 0 0 cm
22.992 -4.793 170.074 -170.078 re S Q
0.398506 w
q 1 0 0 -1 0 0 cm
22.992 -174.871 m 22.992 -170.617 l S Q
q 1 0 0 -1 0 0 cm
65.512 -174.871 m 65.512 -170.617 l S Q
q 1 0 0 -1 0 0 cm
108.035 -174.871 m 108.035 -170.617 l S Q
q 1 0 0 -1 0 0 cm
150.559 -174.871 m 150.559 -170.617 l S Q
q 1 0 0 -1 0 0 cm
193.078 -174.871 m 193.078 -170.617 l S Q
q 1 0 0 -1 0 0 cm
22.992 -174.871 m 22.992 -170.617 l S Q
q 1 0 0 -1 0 0 cm
22.992 -174.871 m 27.242 -174.871 l S Q
q 1 0 0 -1 0 0 cm
22.992 -132.352 m 27.242 -132.352 l S Q
q 1 0 0 -1 0 0 cm
22.992 -89.832 m 27.242 -89.832 l S Q
q 1 0 0 -1 0 0 cm
22.992 -47.312 m 27.242 -47.312 l S Q
q 1 0 0 -1 0 0 cm
22.992 -4.793 m 27.242 -4.793 l S Q
q 1 0 0 -1 0 0 cm
22.992 -174.871 m 27.242 -174.871 l S Q
q 1 0 0 -1 0 0 cm
22.992 -4.793 m 22.992 -9.043 l S Q
q 1 0 0 -1 0 0 cm
65.512 -4.793 m 65.512 -9.043 l S Q
q 1 0 0 -1 0 0 cm
108.035 -4.793 m 108.035 -9.043 l S Q
q 1 0 0 -1 0 0 cm
150.559 -4.793 m 150.559 -9.043 l S Q
q 1 0 0 -1 0 0 cm
193.078 -4.793 m 193.078 -9.043 l S Q
q 1 0 0 -1 0 0 cm
22.992 -4.793 m 22.992 -9.043 l S Q
q 1 0 0 -1 0 0 cm
193.066 -174.871 m 188.816 -174.871 l S Q
q 1 0 0 -1 0 0 cm
193.066 -132.352 m 188.816 -132.352 l S Q
q 1 0 0 -1 0 0 cm
193.066 -89.832 m 188.816 -89.832 l S Q
q 1 0 0 -1 0 0 cm
193.066 -47.312 m 188.816 -47.312 l S Q
q 1 0 0 -1 0 0 cm
193.066 -4.793 m 188.816 -4.793 l S Q
q 1 0 0 -1 0 0 cm
193.066 -174.871 m 188.816 -174.871 l S Q
24.945 181.398 m 24.945 179.789 24.211 178.336 22.961 178.336 c 21.695 
178.336 20.961 179.789 20.961 181.398 c 20.961 183.023 21.648 184.461 22.961
 184.461 c 24.164 184.461 24.945 183.023 24.945 181.398 c h
24.086 181.398 m 24.086 182.695 23.961 184.211 22.961 184.211 c 22.008 
184.211 21.82 182.695 21.82 181.398 c 21.82 180.32 21.945 178.57 22.961 
178.57 c 23.961 178.57 24.086 180.32 24.086 181.398 c h
24.086 181.398 m f
61.785 181.398 m 61.785 179.789 61.051 178.336 59.801 178.336 c 58.535 
178.336 57.801 179.789 57.801 181.398 c 57.801 183.023 58.488 184.461 59.801
 184.461 c 61.004 184.461 61.785 183.023 61.785 181.398 c h
60.926 181.398 m 60.926 182.695 60.801 184.211 59.801 184.211 c 58.848 
184.211 58.66 182.695 58.66 181.398 c 58.66 180.32 58.785 178.57 59.801 
178.57 c 60.801 178.57 60.926 180.32 60.926 181.398 c h
60.926 181.398 m f
63.707 183.977 m 63.707 183.695 63.488 183.477 63.207 183.477 c 62.926 
183.477 62.707 183.695 62.707 183.977 c 62.707 184.258 62.926 184.477 63.207
 184.477 c 63.488 184.477 63.707 184.258 63.707 183.977 c h
63.707 183.977 m f
67.875 184.352 m 67.875 184.211 l 67.281 184.211 67.062 184.227 67.062 
183.055 c 67.062 183.039 67.062 178.305 67.062 178.305 c 66.938 178.305 
l 65.406 179.039 l 65.453 179.18 l 65.781 179.039 65.859 179.008 65.984 
179.008 c 66.25 179.008 66.297 179.242 66.297 179.555 c 66.297 183.055 l
 66.297 184.227 66.078 184.195 65.484 184.211 c 65.484 184.352 l h
67.875 184.352 m f
73.062 181.398 m 73.062 179.789 72.328 178.336 71.078 178.336 c 69.812 
178.336 69.078 179.789 69.078 181.398 c 69.078 183.023 69.766 184.461 71.078
 184.461 c 72.281 184.461 73.062 183.023 73.062 181.398 c h
72.203 181.398 m 72.203 182.695 72.078 184.211 71.078 184.211 c 70.125 
184.211 69.938 182.695 69.938 181.398 c 69.938 180.32 70.062 178.57 71.078
 178.57 c 72.078 178.57 72.203 180.32 72.203 181.398 c h
72.203 181.398 m f
104.262 181.398 m 104.262 179.789 103.527 178.336 102.277 178.336 c 101.012
 178.336 100.277 179.789 100.277 181.398 c 100.277 183.023 100.965 184.461
 102.277 184.461 c 103.48 184.461 104.262 183.023 104.262 181.398 c h
103.402 181.398 m 103.402 182.695 103.277 184.211 102.277 184.211 c 101.324
 184.211 101.137 182.695 101.137 181.398 c 101.137 180.32 101.262 178.57
 102.277 178.57 c 103.277 178.57 103.402 180.32 103.402 181.398 c h
103.402 181.398 m f
106.188 183.977 m 106.188 183.695 105.969 183.477 105.688 183.477 c 105.406
 183.477 105.188 183.695 105.188 183.977 c 105.188 184.258 105.406 184.477
 105.688 184.477 c 105.969 184.477 106.188 184.258 106.188 183.977 c h
106.188 183.977 m f
111.137 183.195 m 110.98 183.164 l 110.715 183.617 110.496 183.695 110.059
 183.695 c 107.996 183.695 l 109.418 182.398 110.715 181.227 110.715 179.914
 c 110.715 178.992 109.918 178.336 109.043 178.336 c 108.184 178.336 107.496
 178.805 107.23 180.023 c 107.434 180.023 l 107.684 179.523 108.027 179.008
 108.715 179.008 c 109.496 179.008 109.934 179.602 109.934 180.273 c 109.934
 181.242 108.902 182.664 107.137 184.211 c 107.137 184.352 l 110.668 184.352
 l h
111.137 183.195 m f
115.543 181.398 m 115.543 179.789 114.809 178.336 113.559 178.336 c 112.293
 178.336 111.559 179.789 111.559 181.398 c 111.559 183.023 112.246 184.461
 113.559 184.461 c 114.762 184.461 115.543 183.023 115.543 181.398 c h
114.684 181.398 m 114.684 182.695 114.559 184.211 113.559 184.211 c 112.605
 184.211 112.418 182.695 112.418 181.398 c 112.418 180.32 112.543 178.57
 113.559 178.57 c 114.559 178.57 114.684 180.32 114.684 181.398 c h
114.684 181.398 m f
146.863 181.398 m 146.863 179.789 146.129 178.336 144.879 178.336 c 143.613
 178.336 142.879 179.789 142.879 181.398 c 142.879 183.023 143.566 184.461
 144.879 184.461 c 146.082 184.461 146.863 183.023 146.863 181.398 c h
146.004 181.398 m 146.004 182.695 145.879 184.211 144.879 184.211 c 143.926
 184.211 143.738 182.695 143.738 181.398 c 143.738 180.32 143.863 178.57
 144.879 178.57 c 145.879 178.57 146.004 180.32 146.004 181.398 c h
146.004 181.398 m f
148.789 183.977 m 148.789 183.695 148.57 183.477 148.289 183.477 c 148.008
 183.477 147.789 183.695 147.789 183.977 c 147.789 184.258 148.008 184.477
 148.289 184.477 c 148.57 184.477 148.789 184.258 148.789 183.977 c h
148.789 183.977 m f
153.359 182.414 m 153.359 181.477 152.812 181.07 152.281 180.852 c 152.859
 180.414 153.047 180.008 153.047 179.523 c 153.047 179.008 152.625 178.336
 151.656 178.336 c 150.953 178.336 150.281 178.727 149.984 179.695 c 150.125
 179.727 l 150.312 179.367 150.672 178.914 151.328 178.914 c 151.969 178.914
 152.344 179.352 152.344 179.852 c 152.344 180.555 151.797 181.055 150.984
 181.242 c 150.969 181.43 l 152.359 181.367 152.703 182.273 152.703 182.836
 c 152.703 183.508 152.219 184.117 151.578 184.117 c 151 184.117 150.75 
183.617 150.266 183.617 c 150.109 183.617 149.922 183.773 149.922 183.977
 c 149.922 184.352 150.484 184.461 150.891 184.461 c 152.312 184.461 153.359
 183.648 153.359 182.414 c h
153.359 182.414 m f
158.145 181.398 m 158.145 179.789 157.41 178.336 156.16 178.336 c 154.895
 178.336 154.16 179.789 154.16 181.398 c 154.16 183.023 154.848 184.461 
156.16 184.461 c 157.363 184.461 158.145 183.023 158.145 181.398 c h
157.285 181.398 m 157.285 182.695 157.16 184.211 156.16 184.211 c 155.207
 184.211 155.02 182.695 155.02 181.398 c 155.02 180.32 155.145 178.57 156.16
 178.57 c 157.16 178.57 157.285 180.32 157.285 181.398 c h
157.285 181.398 m f
19.305 174.918 m 19.305 173.309 18.57 171.855 17.32 171.855 c 16.055 171.855
 15.32 173.309 15.32 174.918 c 15.32 176.543 16.008 177.98 17.32 177.98 
c 18.523 177.98 19.305 176.543 19.305 174.918 c h
18.445 174.918 m 18.445 176.215 18.32 177.73 17.32 177.73 c 16.367 177.73
 16.18 176.215 16.18 174.918 c 16.18 173.84 16.305 172.09 17.32 172.09 c
 18.32 172.09 18.445 173.84 18.445 174.918 c h
18.445 174.918 m f
19.336 134.234 m 19.18 134.203 l 18.914 134.656 18.695 134.734 18.258 134.734
 c 16.195 134.734 l 17.617 133.438 18.914 132.266 18.914 130.953 c 18.914
 130.031 18.117 129.375 17.242 129.375 c 16.383 129.375 15.695 129.844 15.43
 131.062 c 15.633 131.062 l 15.883 130.562 16.227 130.047 16.914 130.047
 c 17.695 130.047 18.133 130.641 18.133 131.312 c 18.133 132.281 17.102 
133.703 15.336 135.25 c 15.336 135.391 l 18.867 135.391 l h
19.336 134.234 m f
19.32 91.309 m 19.32 90.699 l 18.445 90.699 l 18.445 86.777 l 18.008 86.777
 l 15.414 90.684 l 15.414 91.309 l 17.711 91.309 l 17.711 92.793 l 18.445
 92.793 l 18.445 91.309 l h
17.711 90.699 m 15.773 90.699 l 17.695 87.715 l 17.711 87.715 l h
17.711 90.699 m f
19.258 48.297 m 19.258 47.312 18.555 46.578 17.664 46.578 c 17.211 46.578
 16.836 46.719 16.445 47.031 c 16.836 45.438 18.008 44.438 19.133 44.422
 c 19.133 44.266 l 16.367 44.266 15.492 46.609 15.492 47.938 c 15.492 49.359
 16.32 50.422 17.43 50.422 c 18.445 50.422 19.258 49.469 19.258 48.297 c
 h
18.492 48.75 m 18.492 49.578 18.117 50.156 17.523 50.156 c 16.602 50.156
 16.32 48.812 16.32 48.094 c 16.32 47.859 16.352 47.609 16.398 47.312 c 
16.789 47.062 17.102 46.953 17.414 46.953 c 18.32 46.953 18.492 48 18.492
 48.75 c h
18.492 48.75 m f
19.039 6.457 m 19.039 5.816 18.758 5.332 17.664 4.52 c 18.352 4.145 18.883
 3.723 18.883 3.066 c 18.883 2.379 18.242 1.785 17.289 1.785 c 16.445 1.785
 15.648 2.332 15.648 3.176 c 15.648 3.832 15.992 4.223 16.758 4.832 c 15.898
 5.488 15.586 5.816 15.586 6.488 c 15.586 7.238 16.258 7.941 17.305 7.941
 c 18.523 7.941 19.039 7.113 19.039 6.457 c h
18.273 3.051 m 18.273 3.691 17.898 4.035 17.414 4.363 c 16.82 3.941 16.305
 3.473 16.305 2.957 c 16.305 2.473 16.648 2.051 17.258 2.051 c 17.93 2.051
 18.273 2.473 18.273 3.051 c h
18.398 6.707 m 18.398 7.285 17.961 7.676 17.383 7.676 c 16.695 7.676 16.258
 7.129 16.258 6.395 c 16.258 5.723 16.586 5.332 16.992 4.988 c 17.977 5.738
 18.398 6.113 18.398 6.707 c h
18.398 6.707 m f
189.379 181.398 m 189.379 179.789 188.645 178.336 187.395 178.336 c 186.129
 178.336 185.395 179.789 185.395 181.398 c 185.395 183.023 186.082 184.461
 187.395 184.461 c 188.598 184.461 189.379 183.023 189.379 181.398 c h
188.52 181.398 m 188.52 182.695 188.395 184.211 187.395 184.211 c 186.441
 184.211 186.254 182.695 186.254 181.398 c 186.254 180.32 186.379 178.57
 187.395 178.57 c 188.395 178.57 188.52 180.32 188.52 181.398 c h
188.52 181.398 m f
191.305 183.977 m 191.305 183.695 191.086 183.477 190.805 183.477 c 190.523
 183.477 190.305 183.695 190.305 183.977 c 190.305 184.258 190.523 184.477
 190.805 184.477 c 191.086 184.477 191.305 184.258 191.305 183.977 c h
191.305 183.977 m f
196.234 182.867 m 196.234 182.258 l 195.359 182.258 l 195.359 178.336 l
 194.922 178.336 l 192.328 182.242 l 192.328 182.867 l 194.625 182.867 l
 194.625 184.352 l 195.359 184.352 l 195.359 182.867 l h
194.625 182.258 m 192.688 182.258 l 194.609 179.273 l 194.625 179.273 l
 h
194.625 182.258 m f
200.66 181.398 m 200.66 179.789 199.926 178.336 198.676 178.336 c 197.41
 178.336 196.676 179.789 196.676 181.398 c 196.676 183.023 197.363 184.461
 198.676 184.461 c 199.879 184.461 200.66 183.023 200.66 181.398 c h
199.801 181.398 m 199.801 182.695 199.676 184.211 198.676 184.211 c 197.723
 184.211 197.535 182.695 197.535 181.398 c 197.535 180.32 197.66 178.57 
198.676 178.57 c 199.676 178.57 199.801 180.32 199.801 181.398 c h
199.801 181.398 m f
100.477 191.887 m 100.477 191.746 l 98.758 191.746 l 98.758 191.887 l 98.945
 191.887 99.258 191.965 99.258 192.215 c 99.258 192.434 99.039 192.793 98.914
 192.98 c 96.523 196.496 l 96.352 192.574 l 96.32 192.012 96.633 191.887
 97.117 191.887 c 97.117 191.746 l 94.805 191.746 l 94.805 191.887 l 95.414
 191.887 95.461 192.168 95.539 192.902 c 95.742 197.934 l 95.898 197.934
 l 99.523 192.605 l 99.695 192.387 100.086 191.887 100.477 191.887 c h
100.477 191.887 m f
104.133 191.355 m 103.695 191.355 l 100.586 199.715 l 101.039 199.715 l
 h
104.133 191.355 m f
110.516 197.277 m 110.391 197.277 110.344 197.277 110.312 197.277 c 110
 197.277 109.906 197.184 109.906 196.777 c 109.906 191.684 l 109.875 191.668
 l 109.453 191.809 109.141 191.902 108.547 192.059 c 108.547 192.199 l 108.625
 192.199 108.672 192.199 108.75 192.199 c 109.078 192.199 109.156 192.293
 109.156 192.652 c 109.156 194.059 l 108.812 193.762 108.578 193.668 108.219
 193.668 c 107.188 193.668 106.344 194.684 106.344 195.949 c 106.344 197.105
 107.016 197.887 108.016 197.887 c 108.516 197.887 108.859 197.699 109.156
 197.277 c 109.156 197.855 l 109.188 197.887 l 110.516 197.418 l h
109.156 196.871 m 109.156 196.934 109.094 197.043 109 197.152 c 108.859
 197.324 108.625 197.418 108.359 197.418 c 107.609 197.418 107.125 196.699
 107.125 195.59 c 107.125 194.59 107.562 193.918 108.25 193.918 c 108.734
 193.918 109.156 194.34 109.156 194.809 c h
109.156 196.871 m f
110.688 197.793 m 112.688 197.793 l 112.688 197.652 l 112.219 197.652 112.078
 197.559 112.078 197.199 c 112.078 194.668 l 112.078 194.652 112.141 194.559
 112.203 194.496 c 112.438 194.293 112.812 194.137 113.125 194.137 c 113.531
 194.137 113.719 194.449 113.719 195.074 c 113.719 197.027 l 113.703 197.527
 113.609 197.637 113.109 197.652 c 113.109 197.793 l 115.125 197.793 l 115.125
 197.652 l 114.625 197.652 114.5 197.512 114.469 196.934 c 114.469 194.684
 l 114.75 194.293 115.031 194.137 115.453 194.137 c 115.969 194.137 116.125
 194.371 116.125 195.121 c 116.125 197.012 l 116.109 197.543 116.047 197.605
 115.531 197.652 c 115.531 197.793 l 117.5 197.793 l 117.5 197.652 l 117.266
 197.637 l 116.984 197.59 116.875 197.465 116.875 197.105 c 116.875 195.262
 l 116.875 194.199 116.531 193.668 115.844 193.668 c 115.312 193.668 114.859
 193.902 114.375 194.418 c 114.219 193.902 113.906 193.668 113.422 193.668
 c 113.016 193.668 112.781 193.777 112.031 194.355 c 112.031 193.684 l 111.969
 193.668 l 111.5 193.84 111.188 193.934 110.719 194.074 c 110.719 194.23
 l 110.828 194.199 110.906 194.184 111 194.184 c 111.234 194.184 111.312
 194.324 111.312 194.762 c 111.312 197.027 l 111.297 197.527 111.188 197.652
 110.688 197.652 c h
110.688 197.793 m f
121.055 193.02 m 121.055 192.301 120.633 191.988 120.18 191.816 c 120.648
 191.488 120.805 191.176 120.805 190.801 c 120.805 190.395 120.43 189.848
 119.57 189.848 c 118.945 189.848 118.352 190.145 118.086 190.957 c 118.289
 191.004 l 118.445 190.723 118.758 190.379 119.289 190.379 c 119.805 190.379
 120.102 190.691 120.102 191.051 c 120.102 191.566 119.648 191.941 118.961
 192.098 c 118.93 192.301 l 120.133 192.254 120.414 192.941 120.414 193.348
 c 120.414 193.832 120.023 194.285 119.508 194.285 c 119.008 194.285 118.789
 193.895 118.383 193.895 c 118.211 193.895 118.039 194.035 118.039 194.223
 c 118.039 194.52 118.539 194.629 118.914 194.629 c 120.148 194.629 121.055
 193.973 121.055 193.02 c h
121.055 193.02 m f
5.043 96.039 m 4.34 96.039 3.871 96.352 3.871 97.023 c 3.871 97.617 4.293
 98.07 4.855 98.477 c 3.871 98.164 l 3.871 98.164 4.105 99.367 4.121 99.633
 c 4.277 99.633 l 4.277 99.305 4.246 99.039 4.605 99.039 c 4.777 99.039 
5.168 99.148 5.387 99.211 c 9.121 100.273 l 9.465 100.367 9.715 100.523 
9.715 100.961 c 9.871 100.992 l 9.871 99.023 l 9.715 98.992 l 9.715 99.336
 9.699 99.633 9.449 99.633 c 9.371 99.633 9.277 99.617 9.105 99.57 c 7.855
 99.258 l 7.996 99.086 8.074 98.82 8.074 98.602 c 8.074 97.523 6.543 96.039
 5.043 96.039 c h
5.137 96.805 m 6.309 96.805 7.871 97.789 7.871 98.633 c 7.871 98.836 7.793
 99.023 7.621 99.195 c 6.824 98.992 4.293 98.445 4.293 97.289 c 4.293 96.805
 4.934 96.805 5.137 96.805 c h
5.137 96.805 m f
1.902 91.336 m 1.902 91.945 l 8.09 93.992 l 8.09 93.383 l h
1.902 91.336 m f
1.855 88.457 m 1.84 88.504 l 1.965 88.879 2.043 89.113 2.168 89.551 c 2.23
 89.801 l 2.371 89.801 l 2.371 89.754 2.371 89.723 2.371 89.66 c 2.371 89.301
 2.449 89.207 2.824 89.207 c 7.48 89.207 l 7.762 89.207 8.059 88.457 8.059
 87.738 c 8.059 86.551 7.074 85.629 5.793 85.629 c 4.668 85.629 3.84 86.316
 3.84 87.207 c 3.84 87.754 4.152 88.285 4.605 88.457 c h
5.074 88.457 m 4.73 88.457 4.402 88.035 4.402 87.566 c 4.402 87.316 4.496
 87.098 4.668 86.91 c 4.949 86.629 5.559 86.426 6.199 86.426 c 7.199 86.426
 7.762 86.848 7.762 87.582 c 7.762 88.051 7.574 88.457 7.34 88.457 c h
5.074 88.457 m f
7.371 81.426 m 7.496 81.582 7.543 81.691 7.543 81.832 c 7.543 82.035 7.418
 82.098 7.027 82.098 c 5.277 82.098 l 4.809 82.098 4.543 82.145 4.34 82.27
 c 4.012 82.473 3.84 82.863 3.84 83.379 c 3.84 84.223 4.277 84.895 4.84 
84.895 c 5.043 84.895 5.23 84.723 5.23 84.504 c 5.23 84.285 5.043 84.098
 4.855 84.098 c 4.824 84.098 4.777 84.113 4.715 84.113 c 4.621 84.145 4.559
 84.145 4.496 84.145 c 4.246 84.145 4.059 83.863 4.059 83.504 c 4.059 83.066
 4.309 82.816 4.793 82.816 c 5.34 82.816 l 5.887 84.191 5.98 84.348 6.309
 84.738 c 6.496 84.941 6.793 85.066 7.09 85.066 c 7.652 85.066 8.059 84.676
 8.059 84.113 c 8.059 83.723 7.871 83.363 7.402 82.816 c 7.871 82.77 8.059
 82.598 8.059 82.238 c 8.059 81.926 7.949 81.738 7.605 81.426 c h
6.855 82.816 m 7.137 82.816 7.23 82.863 7.34 83.051 c 7.465 83.285 7.527
 83.52 7.527 83.707 c 7.527 84.02 7.23 84.27 6.84 84.27 c 6.809 84.27 l 
6.277 84.27 5.934 83.863 5.559 82.816 c h
6.855 82.816 m f
7.965 81.387 m 7.965 79.23 l 7.824 79.23 l 7.809 79.84 7.684 79.98 7.152
 79.996 c 5.137 79.996 l 4.855 79.996 4.402 79.621 4.402 79.371 c 4.402 
79.324 4.449 79.23 4.543 79.137 c 4.668 78.996 4.715 78.902 4.715 78.777
 c 4.715 78.559 4.559 78.434 4.309 78.434 c 4.012 78.434 3.84 78.621 3.84
 78.918 c 3.84 79.293 4.043 79.543 4.684 79.996 c 3.855 79.996 l 3.84 80.043
 l 4.043 80.543 4.168 80.871 4.324 81.371 c 4.465 81.371 l 4.434 81.246 
4.434 81.168 4.434 81.059 c 4.434 80.84 4.574 80.746 4.965 80.746 c 7.215
 80.746 l 7.684 80.777 7.73 80.824 7.824 81.387 c h
7.965 81.387 m f
Q Q
showpage
%%Trailer
end
%%EOF
