<?xml version="1.0" encoding="UTF-8" standalone="no"?>
<svg
   xmlns:dc="http://purl.org/dc/elements/1.1/"
   xmlns:cc="http://creativecommons.org/ns#"
   xmlns:rdf="http://www.w3.org/1999/02/22-rdf-syntax-ns#"
   xmlns:svg="http://www.w3.org/2000/svg"
   xmlns="http://www.w3.org/2000/svg"
   xmlns:xlink="http://www.w3.org/1999/xlink"
   id="svg136"
   version="1.2"
   viewBox="0 0 92.284576 111.298"
   height="111.298pt"
   width="92.284576pt">
  <title
     id="title947">electrical circuit with submerged resistor and electric potentials phi_l, phi_r</title>
  <metadata
     id="metadata140">
    <rdf:RDF>
      <cc:Work
         rdf:about="">
        <dc:format>image/svg+xml</dc:format>
        <dc:type
           rdf:resource="http://purl.org/dc/dcmitype/StillImage" />
        <dc:title>electrical circuit with submerged resistor and electric potentials phi_l, phi_r</dc:title>
        <cc:license
           rdf:resource="http://creativecommons.org/licenses/by-sa/4.0/" />
        <dc:date>2021-05-03</dc:date>
        <dc:creator>
          <cc:Agent>
            <dc:title>Sandoval, Steven Baltakatei</dc:title>
          </cc:Agent>
        </dc:creator>
        <dc:source>https://gitlab.com/baltakatei/bk-2021-07-1</dc:source>
        <dc:relation>Thermodynamics and Chemistry 2nd Edition, Version 10, by Howard DeVoe, http://www2.chem.umd.edu/thermobook/</dc:relation>
        <dc:language>en</dc:language>
        <dc:rights>
          <cc:Agent>
            <dc:title>This work &quot;electrical circuit with submerged resistor and electric potentials phi_l, phi_r&quot; is a derivative of &quot;03-SUP/el_heating.eps&quot; by Howard DeVoe, used under CC BY 4.0. &quot;electrical circuit with submerged resistor and electric potentials phi_l, phi_r&quot; is licensed under CC BY-SA 4.0 by Steven Baltakatei Sandoval.</dc:title>
          </cc:Agent>
        </dc:rights>
        <dc:description>System containing an electrical resistor immersed in a liquid. The dashed rectangle indicates the system boundary. phi_L and phi_R indicates left and right electric potentials.</dc:description>
      </cc:Work>
      <cc:License
         rdf:about="http://creativecommons.org/licenses/by-sa/4.0/">
        <cc:permits
           rdf:resource="http://creativecommons.org/ns#Reproduction" />
        <cc:permits
           rdf:resource="http://creativecommons.org/ns#Distribution" />
        <cc:requires
           rdf:resource="http://creativecommons.org/ns#Notice" />
        <cc:requires
           rdf:resource="http://creativecommons.org/ns#Attribution" />
        <cc:permits
           rdf:resource="http://creativecommons.org/ns#DerivativeWorks" />
        <cc:requires
           rdf:resource="http://creativecommons.org/ns#ShareAlike" />
      </cc:License>
    </rdf:RDF>
  </metadata>
  <defs
     id="defs55">
    <g
       id="g53">
      <symbol
         style="overflow:visible"
         id="glyph0-0"
         overflow="visible">
        <path
           id="path2"
           d=""
           style="stroke:none" />
      </symbol>
      <symbol
         style="overflow:visible"
         id="glyph0-1"
         overflow="visible">
        <path
           id="path5"
           d="m 0.1875,0 h 2.125 V -0.140625 C 1.734375,-0.15625 1.640625,-0.25 1.625,-0.75 V -6.109375 L 1.59375,-6.125 C 1.140625,-5.984375 0.8125,-5.890625 0.171875,-5.734375 V -5.59375 H 0.21875 c 0.109375,0 0.21875,-0.015625 0.28125,-0.015625 0.296875,0 0.375,0.125 0.375,0.546875 v 4.28125 c 0,0.484375 -0.125,0.609375 -0.6875,0.640625 z m 0,0"
           style="stroke:none" />
      </symbol>
      <symbol
         style="overflow:visible"
         id="glyph0-2"
         overflow="visible">
        <path
           id="path8"
           d="m 0.140625,0 h 2.125 v -0.140625 c -0.59375,-0.03125 -0.65625,-0.125 -0.65625,-0.78125 V -4.09375 L 1.5625,-4.125 0.171875,-3.625 V -3.5 H 0.25 c 0.109375,-0.03125 0.21875,-0.03125 0.3125,-0.03125 0.203125,0 0.296875,0.140625 0.296875,0.53125 v 2.078125 C 0.828125,-0.25 0.75,-0.15625 0.140625,-0.140625 Z m 1,-6.125 c -0.234375,0 -0.4375,0.203125 -0.4375,0.453125 0,0.265625 0.1875,0.46875 0.4375,0.46875 0.28125,0 0.46875,-0.203125 0.46875,-0.46875 0,-0.25 -0.203125,-0.453125 -0.46875,-0.453125 z m 0,0"
           style="stroke:none" />
      </symbol>
      <symbol
         style="overflow:visible"
         id="glyph0-3"
         overflow="visible">
        <path
           id="path11"
           d="M 3.234375,-3.8125 C 2.828125,-4.046875 2.5625,-4.125 2.203125,-4.125 c -1.140625,0 -1.984375,1 -1.984375,2.296875 0,1.125 0.59375,1.921875 1.4375,1.921875 0.515625,0 1,-0.234375 1.40625,-0.671875 v 1.6875 c -0.015625,0.5 -0.171875,0.65625 -0.796875,0.6875 v 0.15625 H 4.375 v -0.125 C 3.890625,1.71875 3.828125,1.65625 3.8125,1.265625 V -4.09375 H 3.71875 Z M 3.0625,-1.140625 c 0,0.21875 -0.046875,0.328125 -0.125,0.421875 -0.203125,0.15625 -0.5,0.265625 -0.78125,0.265625 -0.265625,0 -0.515625,-0.09375 -0.6875,-0.265625 -0.296875,-0.265625 -0.484375,-0.84375 -0.484375,-1.4375 0,-1.0625 0.484375,-1.71875 1.234375,-1.71875 0.5625,0 0.84375,0.296875 0.84375,0.890625 z m 0,0"
           style="stroke:none" />
      </symbol>
      <symbol
         style="overflow:visible"
         id="glyph0-4"
         overflow="visible">
        <path
           id="path14"
           d="M 4.296875,-0.453125 H 4.25 c -0.4375,-0.015625 -0.5,-0.078125 -0.515625,-0.5 V -4.03125 h -1.40625 v 0.140625 c 0.546875,0.03125 0.65625,0.125 0.65625,0.578125 v 2.109375 c 0,0.25 -0.046875,0.375 -0.171875,0.46875 C 2.578125,-0.53125 2.296875,-0.4375 2.03125,-0.4375 c -0.359375,0 -0.640625,-0.296875 -0.640625,-0.671875 V -4.03125 h -1.3125 v 0.125 C 0.5,-3.890625 0.625,-3.765625 0.640625,-3.34375 v 2.265625 c 0,0.703125 0.421875,1.171875 1.078125,1.171875 0.328125,0 0.6875,-0.140625 0.921875,-0.390625 L 3.03125,-0.6875 v 0.75 L 3.0625,0.078125 c 0.453125,-0.171875 0.78125,-0.28125 1.234375,-0.40625 z m 0,0"
           style="stroke:none" />
      </symbol>
      <symbol
         style="overflow:visible"
         id="glyph0-5"
         overflow="visible">
        <path
           id="path17"
           d="m 4.40625,-0.515625 c -0.125,0 -0.171875,0 -0.203125,0 -0.3125,0 -0.40625,-0.09375 -0.40625,-0.5 v -5.09375 L 3.765625,-6.125 C 3.34375,-5.984375 3.03125,-5.890625 2.4375,-5.734375 v 0.140625 c 0.078125,0 0.125,0 0.203125,0 0.328125,0 0.40625,0.09375 0.40625,0.453125 v 1.40625 C 2.703125,-4.03125 2.46875,-4.125 2.109375,-4.125 c -1.03125,0 -1.875,1.015625 -1.875,2.28125 0,1.15625 0.671875,1.9375 1.671875,1.9375 0.5,0 0.84375,-0.1875 1.140625,-0.609375 V 0.0625 L 3.078125,0.09375 4.40625,-0.375 Z m -1.359375,-0.40625 c 0,0.0625 -0.0625,0.171875 -0.15625,0.28125 C 2.75,-0.46875 2.515625,-0.375 2.25,-0.375 c -0.75,0 -1.234375,-0.71875 -1.234375,-1.828125 0,-1 0.4375,-1.671875 1.125,-1.671875 0.484375,0 0.90625,0.421875 0.90625,0.890625 z m 0,0"
           style="stroke:none" />
      </symbol>
      <symbol
         style="overflow:visible"
         id="glyph0-6"
         overflow="visible">
        <path
           id="path20"
           d="m 3.65625,-1.46875 c -0.421875,0.671875 -0.8125,0.9375 -1.390625,0.9375 -0.5,0 -0.890625,-0.265625 -1.15625,-0.765625 -0.15625,-0.34375 -0.21875,-0.625 -0.234375,-1.1875 h 2.75 C 3.5625,-3.0625 3.46875,-3.328125 3.25,-3.609375 2.984375,-3.9375 2.5625,-4.125 2.09375,-4.125 c -0.4375,0 -0.859375,0.15625 -1.203125,0.46875 -0.421875,0.359375 -0.671875,1 -0.671875,1.734375 0,1.234375 0.65625,2.015625 1.6875,2.015625 0.84375,0 1.515625,-0.53125 1.890625,-1.5 z M 0.890625,-2.765625 c 0.09375,-0.703125 0.40625,-1.03125 0.953125,-1.03125 0.546875,0 0.75,0.25 0.875,1.03125 z m 0,0"
           style="stroke:none" />
      </symbol>
      <symbol
         style="overflow:visible"
         id="glyph1-0"
         overflow="visible">
        <path
           id="path23"
           d=""
           style="stroke:none" />
      </symbol>
      <symbol
         style="overflow:visible"
         id="glyph1-1"
         overflow="visible">
        <path
           id="path26"
           d="m 5.078125,-2.5 c 0,-0.28125 -0.03125,-1.375 -1.65625,-1.546875 L 3.84375,-5.46875 c 0.03125,-0.078125 0.046875,-0.171875 0.046875,-0.203125 0,-0.15625 -0.125,-0.3125 -0.28125,-0.3125 -0.125,0 -0.328125,0.015625 -0.40625,0.34375 L 2.90625,-4.0625 c -2.125,0.28125 -2.6875,1.828125 -2.6875,2.5625 0,1.515625 1.65625,1.578125 1.65625,1.578125 L 1.4375,1.484375 C 1.4375,1.5 1.421875,1.5625 1.421875,1.59375 c 0,0.171875 0.140625,0.328125 0.296875,0.328125 0.125,0 0.3125,-0.109375 0.359375,-0.328125 L 2.390625,0.125 C 4.3125,-0.09375 5.078125,-1.640625 5.078125,-2.5 Z M 4.3125,-2.515625 c 0,0.78125 -0.53125,2.125 -1.84375,2.34375 l 0.890625,-3.59375 c 0.6875,0.09375 0.953125,0.703125 0.953125,1.25 z M 2.828125,-3.75 1.96875,-0.171875 C 1.25,-0.375 0.984375,-0.859375 0.984375,-1.375 c 0,-0.671875 0.484375,-2.1875 1.84375,-2.375 z m 0,0"
           style="stroke:none" />
      </symbol>
      <symbol
         style="overflow:visible"
         id="glyph2-0"
         overflow="visible">
        <path
           id="path29"
           d=""
           style="stroke:none" />
      </symbol>
      <symbol
         style="overflow:visible"
         id="glyph2-1"
         overflow="visible">
        <path
           id="path32"
           d="m 2.046875,-4.609375 h -1.96875 v 0.125 c 0.515625,0.03125 0.59375,0.125 0.609375,0.625 v 3.09375 c -0.015625,0.5 -0.109375,0.609375 -0.609375,0.640625 V 0 h 3.75 l 0.34375,-1.21875 H 4 C 3.671875,-0.484375 3.359375,-0.296875 2.46875,-0.265625 H 2 C 1.46875,-0.28125 1.40625,-0.3125 1.40625,-0.5625 v -3.296875 c 0.015625,-0.5 0.09375,-0.59375 0.640625,-0.625 z m 0,0"
           style="stroke:none" />
      </symbol>
      <symbol
         style="overflow:visible"
         id="glyph2-2"
         overflow="visible">
        <path
           id="path35"
           d="M 4.59375,-0.125 C 4.328125,-0.15625 4.1875,-0.21875 3.984375,-0.453125 L 2.546875,-2.21875 C 3.4375,-2.390625 3.8125,-2.75 3.8125,-3.390625 3.8125,-3.6875 3.71875,-3.9375 3.546875,-4.140625 3.28125,-4.4375 2.6875,-4.609375 2.046875,-4.609375 H 0.125 v 0.125 c 0.515625,0.0625 0.578125,0.125 0.578125,0.625 v 3.015625 c 0,0.59375 -0.0625,0.671875 -0.578125,0.71875 V 0 h 1.921875 v -0.125 c -0.53125,-0.046875 -0.625,-0.125 -0.625,-0.640625 V -2.125 L 1.8125,-2.140625 3.46875,0 h 1.125 z M 1.421875,-4.109375 c 0,-0.1875 0.078125,-0.25 0.359375,-0.25 0.859375,0 1.265625,0.296875 1.265625,0.953125 0,0.359375 -0.140625,0.640625 -0.390625,0.78125 -0.328125,0.171875 -0.5625,0.21875 -1.234375,0.234375 z m 0,0"
           style="stroke:none" />
      </symbol>
      <symbol
         style="overflow:visible"
         id="glyph3-0"
         overflow="visible">
        <path
           id="path38"
           d=""
           style="stroke:none" />
      </symbol>
      <symbol
         style="overflow:visible"
         id="glyph3-1"
         overflow="visible">
        <path
           id="path41"
           d="M 6.75,-2.03125 V -2.484375 H 3.96875 V -5.25 h -0.4375 v 2.765625 H 0.75 v 0.453125 h 2.78125 v 2.765625 h 0.4375 V -2.03125 Z m 0,0"
           style="stroke:none" />
      </symbol>
      <symbol
         style="overflow:visible"
         id="glyph3-2"
         overflow="visible">
        <path
           id="path44"
           d="M 5.984375,-2.03125 V -2.484375 H 0.5 v 0.453125 z m 0,0"
           style="stroke:none" />
      </symbol>
      <symbol
         style="overflow:visible"
         id="glyph4-0"
         overflow="visible">
        <path
           id="path47"
           d=""
           style="stroke:none" />
      </symbol>
      <symbol
         style="overflow:visible"
         id="glyph4-1"
         overflow="visible">
        <path
           id="path50"
           d="m 5.125,-1.796875 v -0.4375 H 0.421875 v 0.4375 z m 0,0"
           style="stroke:none" />
      </symbol>
    </g>
  </defs>
  <g
     transform="translate(-137.97099,-52.531784)"
     id="surface792">
    <path
       id="path57"
       d="m 148.67969,124.77344 v 28.34765 h 70.86718 V 96.425781 h -70.86718"
       style="fill:#e6e6e6;fill-opacity:1;fill-rule:nonzero;stroke:none" />
    <path
       id="path59"
       transform="matrix(0.1,0,0,-0.1,0,792)"
       d="m 1486.7969,7069.1016 v -680.3125 h 708.6719 v 708.6718"
       style="fill:none;stroke:#000000;stroke-width:14.17389965;stroke-linecap:butt;stroke-linejoin:miter;stroke-miterlimit:10;stroke-opacity:1" />
    <path
       id="path61"
       transform="matrix(0.1,0,0,-0.1,0,792)"
       d="m 1486.7969,6955.7422 v 2.1094 l 2.3437,-0.039 2.3828,-0.078 2.3829,-0.1563 4.6875,-0.4687 2.3828,-0.3125 2.3828,-0.3516 4.6875,-0.7031 2.3828,-0.3906 2.3437,-0.3516 2.3829,-0.3516 2.3437,-0.2734 2.3828,-0.2734 2.3438,-0.1954 2.3828,-0.1953 2.3437,-0.078 2.3828,-0.039 2.3438,0.039 2.3437,0.078 4.7657,0.3907 4.6875,0.5468 2.3828,0.3516 2.3437,0.3516 2.3828,0.3906 2.3438,0.3515 2.3828,0.3516 2.3438,0.3516 2.3828,0.3125 2.3437,0.2343 2.3828,0.2344 2.3438,0.1563 2.3437,0.078 2.3828,0.039 2.3829,-0.039 2.3437,-0.078 2.3438,-0.1563 2.3828,-0.2344 2.3437,-0.2343 2.3828,-0.3125 2.3438,-0.3516 2.3828,-0.3516 2.3437,-0.3515 2.3829,-0.3906 2.3437,-0.3516 2.3828,-0.3516 2.3438,-0.2734 2.3828,-0.2734 2.3437,-0.1954 2.3828,-0.1953 2.3438,-0.078 2.3437,-0.039 2.3829,0.039 2.3437,0.078 2.3828,0.1953 2.3438,0.1954 2.3828,0.2734 2.3437,0.2734 2.3828,0.3516 2.3438,0.3516 2.3828,0.3906 2.3438,0.3515 2.3828,0.3516 2.3437,0.3516 2.3828,0.3125 2.3438,0.2343 2.3828,0.2344 2.3437,0.1563 2.3438,0.078 2.3828,0.039 2.3438,-0.039 2.3828,-0.078 2.3437,-0.1563 2.3828,-0.2344 2.3438,-0.2343 2.3828,-0.3125 2.3437,-0.3516 2.3829,-0.3516 2.3437,-0.3515 2.3828,-0.3906 4.6875,-0.7032 2.3828,-0.2734 2.3438,-0.2734 2.3828,-0.1954 2.3437,-0.1953 2.3829,-0.078 2.3437,-0.039 2.3828,0.039 2.3438,0.078 2.3828,0.1953 2.3437,0.1954 2.3828,0.2734 2.3438,0.2734 2.3828,0.3516 2.3438,0.3516 2.3828,0.3906 4.6875,0.7031 2.3828,0.3516 2.3437,0.3125 2.3828,0.2343 2.3438,0.2344 2.3828,0.1563 2.3438,0.078 2.3828,0.039 2.3437,-0.039 2.3828,-0.078 2.3438,-0.1563 2.3828,-0.2344 2.3437,-0.2343 2.3829,-0.3125 4.6875,-0.7032 2.3828,-0.3515 2.3828,-0.3906 4.6875,-0.7032 2.3828,-0.2734 2.3437,-0.2734 2.3829,-0.1954 2.3437,-0.1953 2.3828,-0.078 2.3438,-0.039 2.3828,0.039 2.3437,0.078 2.3828,0.1953 2.3438,0.1954 2.3437,0.2734 2.3829,0.2734 2.3828,0.3516 2.3437,0.3516 2.3438,0.3906 2.3828,0.3515 2.3437,0.3516 2.3828,0.3516 2.3438,0.3125 2.3828,0.2343 2.3438,0.2344 2.3828,0.1563 2.3437,0.078 2.3828,0.039 2.3438,-0.039 2.3437,-0.078 2.3828,-0.1563 2.3829,-0.2344 2.3437,-0.2343 2.3438,-0.3125 4.7656,-0.7032 2.3437,-0.3515 2.3438,-0.3906 2.3828,-0.3516 2.3437,-0.3516 2.3829,-0.2734 2.3437,-0.2734 2.3828,-0.1954 2.3438,-0.1953 2.3828,-0.078 2.3437,-0.039 2.3828,0.039 2.3438,0.078 2.3437,0.1953 2.3829,0.1954 2.3828,0.2734 2.3437,0.2734 2.3438,0.3516 2.3828,0.3516 2.3437,0.3906 2.3828,0.3515 2.3438,0.3516 2.3828,0.3516 2.3438,0.3125 2.3828,0.2343 2.3437,0.2344 2.3828,0.1563 2.3438,0.078 2.3828,0.039 2.3437,-0.039 2.3829,-0.078 2.3437,-0.1563 2.3828,-0.2344 2.3438,-0.2343 2.3437,-0.3125 2.3828,-0.3516 2.3438,-0.3516 2.3828,-0.3515 2.3437,-0.3906 2.3829,-0.3516 2.3437,-0.3516 2.3828,-0.2734 2.3438,-0.2734 2.3828,-0.1954 2.3437,-0.1953 2.3828,-0.078 2.3438,-0.039 2.3828,0.039 2.3438,0.078 2.3437,0.1953 2.3828,0.1954 2.3438,0.2734 2.3828,0.2734 2.3437,0.3516 2.3828,0.3516 2.3438,0.3906 2.3828,0.3515 2.3438,0.3516 2.3828,0.3516 2.3437,0.3125 2.3828,0.2343 2.3438,0.2344 2.3828,0.1563 2.3437,0.078 2.3438,0.039 2.3828,-0.039 2.3438,-0.078 2.3828,-0.1563 2.3437,-0.2344 2.3828,-0.2343 2.3438,-0.3125 2.3828,-0.3516 2.3437,-0.3516 2.3829,-0.3515 2.3437,-0.3906 2.3828,-0.3516 2.3438,-0.3516 2.3828,-0.2734 2.3437,-0.2734 2.3438,-0.1954 2.3828,-0.1953 2.3828,-0.078 2.3438,-0.039 2.3437,0.039 2.3828,0.078 2.3438,0.1953 2.3828,0.1954 2.3437,0.2734 2.3828,0.2734 2.3438,0.3516 2.3828,0.3516 2.3438,0.3906 2.3828,0.3515 2.3437,0.3516 2.3828,0.3516 2.3438,0.3125 2.3828,0.2343 2.3437,0.2344 2.3438,0.1563 2.3828,0.078 2.3438,0.039 2.3828,-0.039 2.3437,-0.078 2.3828,-0.1563 2.3438,-0.2344 2.3828,-0.2343 2.3437,-0.3125 2.3829,-0.3516 4.6875,-0.7031 2.3828,-0.3906 2.3828,-0.3516 2.3437,-0.3516 2.3438,-0.2734 2.3828,-0.2734 2.3437,-0.1954 2.3829,-0.1953 2.3437,-0.078 2.3828,-0.039 2.3438,0.039 2.3828,0.078 2.3437,0.1953 2.3828,0.1954 4.6875,0.5468 4.7657,0.7032 2.3437,0.3906 2.3438,0.3515 2.3828,0.3516 2.3437,0.3516 2.3828,0.3125 2.3438,0.2343 2.3828,0.2344 2.3438,0.1563 2.3828,0.078 2.3437,0.039 2.3828,-0.039 2.3438,-0.078 2.3828,-0.1563 2.3437,-0.2344 2.3829,-0.2343 2.3437,-0.3125 2.3828,-0.3516 2.3438,-0.3516 2.3828,-0.3515 2.3437,-0.3906 2.3438,-0.3516 2.3828,-0.3516 h 0.039 v 1.0938"
       style="fill:none;stroke:#000000;stroke-width:5.67043018;stroke-linecap:butt;stroke-linejoin:miter;stroke-miterlimit:10;stroke-opacity:1" />
    <path
       id="path63"
       transform="matrix(0.1,0,0,-0.1,0,792)"
       d="m 1652.6172,6672.2656 h 32.6172 l 14.1797,-28.3594 28.3203,56.7188 28.3594,-56.7188 28.3593,56.7188 28.3203,-56.7188 28.3594,56.7188 28.3594,-56.7188 28.3203,56.7188 28.3594,-56.7188 28.3594,56.7188 28.3203,-56.7188 14.1797,28.3594 h 32.6171"
       style="fill:none;stroke:#000000;stroke-width:7.97010994;stroke-linecap:butt;stroke-linejoin:miter;stroke-miterlimit:10;stroke-opacity:1" />
    <g
       id="g67"
       style="fill:#000000;fill-opacity:1">
      <use
         height="100%"
         width="100%"
         id="use65"
         y="143.94099"
         x="173.673"
         xlink:href="#glyph0-1" />
    </g>
    <g
       id="g71"
       style="fill:#000000;fill-opacity:1">
      <use
         height="100%"
         width="100%"
         id="use69"
         y="143.94099"
         x="176.19299"
         xlink:href="#glyph0-2" />
    </g>
    <g
       id="g75"
       style="fill:#000000;fill-opacity:1">
      <use
         height="100%"
         width="100%"
         id="use73"
         y="143.94099"
         x="178.71301"
         xlink:href="#glyph0-3" />
    </g>
    <g
       id="g79"
       style="fill:#000000;fill-opacity:1">
      <use
         height="100%"
         width="100%"
         id="use77"
         y="143.94099"
         x="183.153"
         xlink:href="#glyph0-4" />
    </g>
    <g
       id="g83"
       style="fill:#000000;fill-opacity:1">
      <use
         height="100%"
         width="100%"
         id="use81"
         y="143.94099"
         x="187.593"
         xlink:href="#glyph0-2" />
    </g>
    <g
       id="g87"
       style="fill:#000000;fill-opacity:1">
      <use
         height="100%"
         width="100%"
         id="use85"
         y="143.94099"
         x="190.11301"
         xlink:href="#glyph0-5" />
    </g>
    <path
       id="path89"
       transform="matrix(0.1,0,0,-0.1,0,792)"
       d="M 1656.875,6672.2656 V 7182.5 h 172.9297"
       style="fill:none;stroke:#000000;stroke-width:7.97010994;stroke-linecap:butt;stroke-linejoin:miter;stroke-miterlimit:10;stroke-opacity:1" />
    <g
       id="g93"
       style="fill:#000000;fill-opacity:1">
      <use
         height="100%"
         width="100%"
         id="use91"
         y="87.009003"
         x="155.09801"
         xlink:href="#glyph1-1" />
    </g>
    <g
       id="g97"
       style="fill:#000000;fill-opacity:1">
      <use
         height="100%"
         width="100%"
         id="use95"
         y="89.289078"
         x="160.25816"
         xlink:href="#glyph2-1" />
    </g>
    <g
       id="g101"
       style="fill:#000000;fill-opacity:1">
      <use
         height="100%"
         width="100%"
         id="use99"
         y="70.360977"
         x="170.47105"
         xlink:href="#glyph3-1" />
    </g>
    <path
       id="path103"
       transform="matrix(0.1,0,0,-0.1,0,792)"
       d="M 2025.3906,6672.2656 V 7182.5 h -163.0078"
       style="fill:none;stroke:#000000;stroke-width:7.97010994;stroke-linecap:butt;stroke-linejoin:miter;stroke-miterlimit:10;stroke-opacity:1" />
    <g
       id="g107"
       style="fill:#000000;fill-opacity:1">
      <use
         height="100%"
         width="100%"
         id="use105"
         y="87.009003"
         x="203.614"
         xlink:href="#glyph1-1" />
    </g>
    <g
       id="g111"
       style="fill:#000000;fill-opacity:1">
      <use
         height="100%"
         width="100%"
         id="use109"
         y="89.289078"
         x="208.77377"
         xlink:href="#glyph2-2" />
    </g>
    <g
       id="g115"
       style="fill:#000000;fill-opacity:1">
      <use
         height="100%"
         width="100%"
         id="use113"
         y="69.280884"
         x="190.79407"
         xlink:href="#glyph3-2" />
    </g>
    <path
       id="path117"
       d="m 206.75,71.054688 1.45703,2.695312 0.57813,-3.007812 -0.83985,1.296874"
       style="fill:#000000;fill-opacity:1;fill-rule:nonzero;stroke:none" />
    <path
       id="path119"
       transform="matrix(0.1,0,0,-0.1,0,792)"
       d="m 2079.4531,7199.6094 0.078,-0.3907 c -7.3047,23.75 -29.2969,39.961 -54.1407,39.961"
       style="fill:none;stroke:#000000;stroke-width:2.83297992;stroke-linecap:butt;stroke-linejoin:miter;stroke-miterlimit:10;stroke-opacity:1" />
    <g
       id="g123"
       style="fill:#000000;fill-opacity:1">
      <use
         height="100%"
         width="100%"
         id="use121"
         y="68.005997"
         x="206.002"
         xlink:href="#glyph0-6" />
    </g>
    <g
       id="g127"
       style="fill:#000000;fill-opacity:1">
      <use
         height="100%"
         width="100%"
         id="use125"
         y="64.766159"
         x="209.96216"
         xlink:href="#glyph4-1" />
    </g>
    <path
       id="path129"
       transform="matrix(0.1,0,0,-0.1,0,792)"
       d="m 1829.8047,7094.6484 v 175.7422"
       style="fill:none;stroke:#000000;stroke-width:7.97010994;stroke-linecap:butt;stroke-linejoin:miter;stroke-miterlimit:10;stroke-opacity:1" />
    <path
       id="path131"
       transform="matrix(0.1,0,0,-0.1,0,792)"
       d="m 1862.3828,7137.1484 v 90.7032"
       style="fill:none;stroke:#000000;stroke-width:22.67760086;stroke-linecap:butt;stroke-linejoin:miter;stroke-miterlimit:10;stroke-opacity:1" />
    <g
       id="g1567">
      <path
         id="path133"
         transform="matrix(0.1,0,0,-0.1,0,792)"
         d="m 1500.9766,6693.5156 c 0,0 0,-5.6328 0,-15.3297 m 0,-20.182 c 0,-8.9109 0,-19.1429 0,-30.2746 m 0,-20.1827 c 0,-9.737 0,-19.9031 0,-30.275 m 0,-20.1822 c 0,-10.0995 0,-20.2563 0,-30.2741 m 0,-20.1822 c 0,-10.4892 0,-20.6624 0,-30.2742 m 0,-20.1823 c 0,-11.6285 0,-21.9183 0,-30.2747 m 0,-20.1816 c 0,-1.798 0,-2.7516 0,-2.7516 0,0 9.9803,0 27.5233,0 m 20.1834,0 c 9.0411,0 19.1859,0 30.2744,0 m 20.1828,0 c 9.586,0 19.7036,0 30.2741,0 m 20.1821,0 c 9.7949,0 19.904,0 30.2734,0 m 20.1826,0 c 9.9113,0 20.0167,0 30.2731,0 m 20.1828,0 c 9.9917,0 20.0958,0 30.2744,0 m 20.1835,0 c 10.0559,0 20.1593,0 30.2743,0 m 20.1819,0 c 10.1152,0 20.2181,0 30.2732,0 m 20.1837,0 c 10.1792,0 20.2834,0 30.2745,0 m 20.1824,0 c 10.2571,0 20.3626,0 30.2732,0 m 20.1821,0 c 10.3709,0 20.4805,0 30.2745,0 m 20.1826,0 c 10.5725,0 20.69,0 30.2733,0 m 20.1832,0 c 11.0959,0 21.241,0 30.2741,0 m 20.1823,0 c 17.2971,0 27.1273,0 27.1273,0 0,0 0,1.0805 0,3.1484 m 0,20.1817 c 0,8.2384 0,18.4454 0,30.2743 m 0,20.1833 c 0,9.4254 0,19.5562 0,30.2733 m 0,20.1834 c 0,9.74 0,19.8559 0,30.273 m 0,20.1818 c 0,9.8962 0,20.0069 0,30.2741 m 0,20.182 c 0,9.9996 0,20.1082 0,30.275 m 0,20.1826 c 0,10.0834 0,20.1909 0,30.2736 m 0,20.1823 c 0,10.1673 0,20.2757 0,30.2744 m 0,20.1825 c 0,10.2683 0,20.3791 0,30.2745 m 0,20.1819 c 0,10.419 0,20.5351 0,30.2736 m 0,20.1834 c 0,10.721 0,20.8522 0,30.2738 m 0,20.1839 c 0,11.8513 0,22.0602 0,30.2747 m 0,20.1828 c 0,1.8012 0,2.7395 0,2.7395 0,0 -9.9847,0 -27.5349,0 m -20.1822,0 c -9.0412,0 -19.1857,0 -30.2738,0 m -20.1834,0 c -9.5861,0 -19.7039,0 -30.2746,0 m -20.1822,0 c -9.7949,0 -19.9041,0 -30.2734,0 m -20.1826,0 c -9.9116,0 -20.0175,0 -30.2742,0 m -20.1826,0 c -9.9915,0 -20.0955,0 -30.274,0 m -20.1831,0 c -10.0557,0 -20.1589,0 -30.2738,0 m -20.1835,0 c -10.1155,0 -20.2188,0 -30.2742,0 m -20.183,0 c -10.1789,0 -20.2827,0 -30.2734,0 m -20.1832,0 c -10.2576,0 -20.3636,0 -30.2746,0 m -20.1835,0 c -10.3708,0 -20.4804,0 -30.2744,0 m -20.1826,0 c -10.5725,0 -20.69,0 -30.2731,0 m -20.1828,0 c -11.0962,0 -21.2412,0 -30.274,0 m -20.1817,0 c -17.2887,0 -27.1137,0 -27.1137,0 0,0 0,-1.0981 0,-3.1593 m 0,-20.1825 c 0,-8.3804 0,-18.667 0,-30.2731 m 0,-20.1826 c 0,-9.6165 0,-19.7895 0,-30.2747 m 0,-20.182 c 0,-10.0202 0,-20.1768 0,-30.2734 m 0,-20.1833 c 0,-10.3748 0,-20.5405 0,-30.2733 m 0,-20.1827 c 0,-11.1437 0,-21.3771 0,-30.2749 m 0,-20.1824 c 0,-9.4474 0,-14.9227 0,-14.9227 m 0,0"
         style="fill:none;stroke:#000000;stroke-width:5.67043018;stroke-linecap:butt;stroke-linejoin:miter;stroke-miterlimit:10;stroke-dashoffset:14.94400024;stroke-opacity:1" />
      <path
         id="path1481"
         transform="matrix(0.1,0,0,-0.1,0,792)"
         d="m 1500.9766,6693.5156 v -290.5469 h 680.3125 v 581.0938 h -680.3125 z m 0,0"
         style="display:none;fill:none;stroke:#000000;stroke-width:5.67043018;stroke-linecap:butt;stroke-linejoin:miter;stroke-miterlimit:10;stroke-dasharray:30.274, 20.1827;stroke-dashoffset:14.94400024;stroke-opacity:1" />
    </g>
  </g>
</svg>
