<?xml version="1.0" encoding="UTF-8" standalone="no"?>
<svg
   xmlns:dc="http://purl.org/dc/elements/1.1/"
   xmlns:cc="http://creativecommons.org/ns#"
   xmlns:rdf="http://www.w3.org/1999/02/22-rdf-syntax-ns#"
   xmlns:svg="http://www.w3.org/2000/svg"
   xmlns="http://www.w3.org/2000/svg"
   xmlns:xlink="http://www.w3.org/1999/xlink"
   xmlns:sodipodi="http://sodipodi.sourceforge.net/DTD/sodipodi-0.dtd"
   xmlns:inkscape="http://www.inkscape.org/namespaces/inkscape"
   width="136.86345pt"
   height="112.49423pt"
   viewBox="0 0 136.86345 112.49423"
   version="1.2"
   id="svg219"
   sodipodi:docname="c3_fig..diagram_of_adiabatic_expansion_work_as_a_function_of_average_rate_of_volume_change.svg"
   inkscape:version="0.92.4 (5da689c313, 2019-01-14)">
  <title
     id="title1030">diagram of adiabatic expansion work as a function of average rate of volume change</title>
  <metadata
     id="metadata223">
    <rdf:RDF>
      <cc:Work
         rdf:about="">
        <dc:format>image/svg+xml</dc:format>
        <dc:type
           rdf:resource="http://purl.org/dc/dcmitype/StillImage" />
        <dc:title>diagram of adiabatic expansion work as a function of average rate of volume change</dc:title>
        <cc:license
           rdf:resource="http://creativecommons.org/licenses/by-sa/4.0/" />
        <dc:creator>
          <cc:Agent>
            <dc:title>Sandoval, Steven Baltakatei</dc:title>
          </cc:Agent>
        </dc:creator>
        <dc:source>https://gitlab.com/baltakatei/bk-2021-07-1</dc:source>
        <dc:relation>Thermodynamics and Chemistry 2nd Edition, Version 10, by Howard DeVoe, http://www2.chem.umd.edu/thermobook/</dc:relation>
        <dc:language>en</dc:language>
        <dc:date>2021-05-03</dc:date>
        <dc:rights>
          <cc:Agent>
            <dc:title>Rights: This work &quot;diagram of adiabatic expansion work as a function of average rate of volume change&quot; is a derivative of &quot;03-SUP/rates-dissip.eps&quot; by Howard DeVoe, used under CC BY 4.0. &quot;diagram of adiabatic expansion work as a function of average rate of volume change&quot; is licensed under CC BY-SA 4.0 by Steven Baltakatei Sandoval.</dc:title>
          </cc:Agent>
        </dc:rights>
        <dc:description>Adiabatic expansion work with internal lubricated friction for a fixed magnitude of 𝛥V , as a function of the average rate of volume change. The open circles indicate the reversible limits.</dc:description>
      </cc:Work>
      <cc:License
         rdf:about="http://creativecommons.org/licenses/by-sa/4.0/">
        <cc:permits
           rdf:resource="http://creativecommons.org/ns#Reproduction" />
        <cc:permits
           rdf:resource="http://creativecommons.org/ns#Distribution" />
        <cc:requires
           rdf:resource="http://creativecommons.org/ns#Notice" />
        <cc:requires
           rdf:resource="http://creativecommons.org/ns#Attribution" />
        <cc:permits
           rdf:resource="http://creativecommons.org/ns#DerivativeWorks" />
        <cc:requires
           rdf:resource="http://creativecommons.org/ns#ShareAlike" />
      </cc:License>
    </rdf:RDF>
  </metadata>
  <sodipodi:namedview
     pagecolor="#ffffff"
     bordercolor="#666666"
     borderopacity="1"
     objecttolerance="10"
     gridtolerance="10"
     guidetolerance="10"
     inkscape:pageopacity="0"
     inkscape:pageshadow="2"
     inkscape:window-width="930"
     inkscape:window-height="480"
     id="namedview221"
     showgrid="false"
     fit-margin-top="10"
     fit-margin-left="10"
     fit-margin-right="10"
     fit-margin-bottom="10"
     inkscape:zoom="0.22348485"
     inkscape:cx="-336.15234"
     inkscape:cy="-234.93229"
     inkscape:window-x="0"
     inkscape:window-y="27"
     inkscape:window-maximized="0"
     inkscape:current-layer="svg219" />
  <defs
     id="defs76">
    <g
       id="g74">
      <symbol
         overflow="visible"
         id="glyph0-0"
         style="overflow:visible">
        <path
           style="stroke:none"
           d=""
           id="path2"
           inkscape:connector-curvature="0" />
      </symbol>
      <symbol
         overflow="visible"
         id="glyph0-1"
         style="overflow:visible">
        <path
           style="stroke:none"
           d="M 2.90625,1.921875 1.546875,-2.25 2.90625,-6.4375 H 2.359375 L 1,-2.25 2.359375,1.921875 Z m 0,0"
           id="path5"
           inkscape:connector-curvature="0" />
      </symbol>
      <symbol
         overflow="visible"
         id="glyph0-2"
         style="overflow:visible">
        <path
           style="stroke:none"
           d="M 2.40625,-2.25 1.046875,-6.4375 H 0.5 L 1.859375,-2.25 0.5,1.921875 h 0.546875 z m 0,0"
           id="path8"
           inkscape:connector-curvature="0" />
      </symbol>
      <symbol
         overflow="visible"
         id="glyph1-0"
         style="overflow:visible">
        <path
           style="stroke:none"
           d=""
           id="path11"
           inkscape:connector-curvature="0" />
      </symbol>
      <symbol
         overflow="visible"
         id="glyph1-1"
         style="overflow:visible">
        <path
           style="stroke:none"
           d="m 4.40625,-0.515625 c -0.125,0 -0.171875,0 -0.203125,0 -0.3125,0 -0.40625,-0.09375 -0.40625,-0.5 v -5.09375 L 3.765625,-6.125 C 3.34375,-5.984375 3.03125,-5.890625 2.4375,-5.734375 v 0.140625 c 0.078125,0 0.125,0 0.203125,0 0.328125,0 0.40625,0.09375 0.40625,0.453125 v 1.40625 C 2.703125,-4.03125 2.46875,-4.125 2.109375,-4.125 c -1.03125,0 -1.875,1.015625 -1.875,2.28125 0,1.15625 0.671875,1.9375 1.671875,1.9375 0.5,0 0.84375,-0.1875 1.140625,-0.609375 V 0.0625 L 3.078125,0.09375 4.40625,-0.375 Z m -1.359375,-0.40625 c 0,0.0625 -0.0625,0.171875 -0.15625,0.28125 C 2.75,-0.46875 2.515625,-0.375 2.25,-0.375 c -0.75,0 -1.234375,-0.71875 -1.234375,-1.828125 0,-1 0.4375,-1.671875 1.125,-1.671875 0.484375,0 0.90625,0.421875 0.90625,0.890625 z m 0,0"
           id="path14"
           inkscape:connector-curvature="0" />
      </symbol>
      <symbol
         overflow="visible"
         id="glyph2-0"
         style="overflow:visible">
        <path
           style="stroke:none"
           d=""
           id="path17"
           inkscape:connector-curvature="0" />
      </symbol>
      <symbol
         overflow="visible"
         id="glyph2-1"
         style="overflow:visible">
        <path
           style="stroke:none"
           d="m 6.609375,-5.90625 v -0.140625 h -1.71875 v 0.140625 c 0.1875,0 0.5,0.078125 0.5,0.328125 0,0.21875 -0.21875,0.578125 -0.34375,0.765625 L 2.65625,-1.296875 2.484375,-5.21875 C 2.453125,-5.78125 2.765625,-5.90625 3.25,-5.90625 V -6.046875 H 0.9375 v 0.140625 c 0.609375,0 0.65625,0.28125 0.734375,1.015625 L 1.875,0.140625 h 0.15625 l 3.625,-5.328125 c 0.171875,-0.21875 0.5625,-0.71875 0.953125,-0.71875 z m 0,0"
           id="path20"
           inkscape:connector-curvature="0" />
      </symbol>
      <symbol
         overflow="visible"
         id="glyph2-2"
         style="overflow:visible">
        <path
           style="stroke:none"
           d="M 3.90625,-6.4375 H 3.46875 L 0.359375,1.921875 H 0.8125 Z m 0,0"
           id="path23"
           inkscape:connector-curvature="0" />
      </symbol>
      <symbol
         overflow="visible"
         id="glyph2-3"
         style="overflow:visible">
        <path
           style="stroke:none"
           d="M 2.625,-4.015625 H 1.953125 L 2.25,-5.09375 H 2.109375 C 1.6875,-4.46875 1.1875,-4.046875 0.578125,-3.90625 L 0.53125,-3.71875 H 1.203125 L 0.46875,-1.015625 c -0.03125,0.1875 -0.140625,0.546875 -0.140625,0.6875 0,0.34375 0.25,0.4375 0.421875,0.4375 0.390625,0 0.8125,-0.296875 1.28125,-1.046875 L 1.90625,-1 c -0.234375,0.265625 -0.515625,0.671875 -0.734375,0.671875 -0.125,0 -0.15625,-0.078125 -0.15625,-0.140625 0,-0.0625 0.015625,-0.109375 0.046875,-0.25 l 0.8125,-3 h 0.703125 z m 0,0"
           id="path26"
           inkscape:connector-curvature="0" />
      </symbol>
      <symbol
         overflow="visible"
         id="glyph2-4"
         style="overflow:visible">
        <path
           style="stroke:none"
           d="m 6.15625,-3.15625 c 0,-0.453125 -0.0625,-0.9375 -0.46875,-0.9375 -0.171875,0 -0.375,0.109375 -0.375,0.359375 0,0.375 0.5,0.203125 0.5,0.984375 0,1.015625 -0.765625,2.609375 -1.546875,2.609375 -0.375,0 -0.546875,-0.3125 -0.546875,-0.734375 0,-0.140625 0.046875,-0.453125 0.078125,-0.609375 L 4.390625,-4.09375 H 3.65625 l -0.546875,2.546875 c -0.21875,0.984375 -0.640625,1.40625 -0.96875,1.40625 -0.25,0 -0.453125,-0.25 -0.453125,-0.71875 0,-0.65625 0.421875,-1.90625 0.421875,-2.390625 0,-0.5625 -0.375,-0.84375 -0.734375,-0.84375 -0.515625,0 -0.765625,0.46875 -0.765625,0.78125 0,0.078125 0.015625,0.171875 0.0625,0.234375 h 0.09375 c 0,-0.03125 0,-0.046875 0,-0.0625 0,-0.171875 0.0625,-0.546875 0.40625,-0.546875 0.140625,0 0.25,0.109375 0.25,0.453125 C 1.421875,-2.921875 1,-1.5 1,-0.96875 c 0,0.703125 0.5625,1.078125 1.015625,1.078125 0.5625,0 1.09375,-0.421875 1.28125,-0.890625 0.046875,0.5625 0.390625,0.890625 0.96875,0.890625 1.09375,0 1.890625,-2.046875 1.890625,-3.265625 z m 0,0"
           id="path29"
           inkscape:connector-curvature="0" />
      </symbol>
      <symbol
         overflow="visible"
         id="glyph4-0"
         style="overflow:visible">
        <path
           style="stroke:none"
           d=""
           id="path32"
           inkscape:connector-curvature="0" />
      </symbol>
      <symbol
         overflow="visible"
         id="glyph4-1"
         style="overflow:visible">
        <path
           style="stroke:none"
           d="M 3.171875,-1.25 C 2.78125,-0.6875 2.5,-0.5 2.046875,-0.5 1.3125,-0.5 0.8125,-1.125 0.8125,-2.046875 0.8125,-2.875 1.25,-3.4375 1.890625,-3.4375 c 0.296875,0 0.390625,0.078125 0.46875,0.390625 l 0.0625,0.171875 c 0.0625,0.234375 0.203125,0.359375 0.375,0.359375 0.203125,0 0.375,-0.140625 0.375,-0.328125 0,-0.453125 -0.5625,-0.828125 -1.234375,-0.828125 -0.390625,0 -0.796875,0.171875 -1.109375,0.453125 -0.40625,0.34375 -0.625,0.890625 -0.625,1.53125 0,1.03125 0.625,1.765625 1.515625,1.765625 0.359375,0 0.671875,-0.125 0.953125,-0.375 0.21875,-0.1875 0.375,-0.40625 0.609375,-0.875 z m 0,0"
           id="path35"
           inkscape:connector-curvature="0" />
      </symbol>
      <symbol
         overflow="visible"
         id="glyph4-2"
         style="overflow:visible">
        <path
           style="stroke:none"
           d="m 1.984375,-3.671875 c -1.03125,0 -1.75,0.765625 -1.75,1.875 0,1.078125 0.734375,1.875 1.734375,1.875 1.015625,0 1.78125,-0.828125 1.78125,-1.9375 0,-1.0625 -0.734375,-1.8125 -1.765625,-1.8125 z M 1.890625,-3.4375 c 0.671875,0 1.140625,0.765625 1.140625,1.859375 0,0.90625 -0.359375,1.4375 -0.953125,1.4375 -0.3125,0 -0.609375,-0.1875 -0.78125,-0.515625 -0.21875,-0.40625 -0.34375,-0.96875 -0.34375,-1.53125 0,-0.765625 0.359375,-1.25 0.9375,-1.25 z m 0,0"
           id="path38"
           inkscape:connector-curvature="0" />
      </symbol>
      <symbol
         overflow="visible"
         id="glyph4-3"
         style="overflow:visible">
        <path
           style="stroke:none"
           d="m 0.125,0 h 1.765625 v -0.125 c -0.40625,0 -0.53125,-0.09375 -0.53125,-0.40625 v -2.25 c 0,-0.015625 0.0625,-0.09375 0.109375,-0.15625 0.203125,-0.171875 0.546875,-0.3125 0.828125,-0.3125 0.34375,0 0.53125,0.28125 0.53125,0.828125 V -0.6875 C 2.8125,-0.234375 2.71875,-0.140625 2.28125,-0.125 V 0 H 4.0625 V -0.125 C 3.625,-0.125 3.5,-0.25 3.484375,-0.75 v -2.015625 c 0.25,-0.34375 0.5,-0.484375 0.875,-0.484375 0.453125,0 0.59375,0.21875 0.59375,0.875 v 1.6875 C 4.9375,-0.21875 4.890625,-0.171875 4.4375,-0.125 V 0 H 6.171875 V -0.125 L 5.96875,-0.140625 C 5.71875,-0.171875 5.625,-0.296875 5.625,-0.609375 V -2.25 c 0,-0.9375 -0.3125,-1.421875 -0.921875,-1.421875 -0.46875,0 -0.875,0.21875 -1.296875,0.671875 -0.140625,-0.453125 -0.421875,-0.671875 -0.84375,-0.671875 -0.359375,0 -0.578125,0.109375 -1.234375,0.625 V -3.65625 l -0.0625,-0.015625 c -0.421875,0.15625 -0.6875,0.25 -1.109375,0.359375 v 0.140625 c 0.09375,-0.03125 0.15625,-0.03125 0.25,-0.03125 0.203125,0 0.28125,0.125 0.28125,0.515625 v 2.015625 C 0.671875,-0.234375 0.5625,-0.125 0.125,-0.125 Z m 0,0"
           id="path41"
           inkscape:connector-curvature="0" />
      </symbol>
      <symbol
         overflow="visible"
         id="glyph4-4"
         style="overflow:visible">
        <path
           style="stroke:none"
           d="M 0.046875,1.734375 H 1.96875 V 1.578125 C 1.375,1.578125 1.28125,1.5 1.265625,0.984375 v -1.25 C 1.546875,0 1.734375,0.078125 2.078125,0.078125 3.015625,0.078125 3.75,-0.8125 3.75,-1.96875 c 0,-0.984375 -0.5625,-1.703125 -1.328125,-1.703125 -0.453125,0 -0.796875,0.203125 -1.15625,0.640625 v -0.625 L 1.21875,-3.671875 C 0.78125,-3.5 0.515625,-3.390625 0.078125,-3.265625 V -3.125 c 0.0625,-0.015625 0.109375,-0.015625 0.1875,-0.015625 0.28125,0 0.328125,0.078125 0.328125,0.453125 v 3.734375 c 0,0.421875 -0.078125,0.5 -0.546875,0.546875 z m 1.21875,-4.390625 c 0,-0.25 0.453125,-0.53125 0.8125,-0.53125 0.59375,0 0.984375,0.609375 0.984375,1.53125 0,0.890625 -0.390625,1.484375 -0.96875,1.484375 -0.375,0 -0.828125,-0.296875 -0.828125,-0.53125 z m 0,0"
           id="path44"
           inkscape:connector-curvature="0" />
      </symbol>
      <symbol
         overflow="visible"
         id="glyph4-5"
         style="overflow:visible">
        <path
           style="stroke:none"
           d="m 0.046875,0 h 1.90625 V -0.125 C 1.421875,-0.140625 1.296875,-0.25 1.28125,-0.71875 v -1.796875 c 0,-0.25 0.328125,-0.640625 0.546875,-0.640625 0.046875,0 0.125,0.03125 0.21875,0.109375 0.109375,0.125 0.203125,0.15625 0.3125,0.15625 0.1875,0 0.3125,-0.125 0.3125,-0.359375 0,-0.25 -0.171875,-0.421875 -0.4375,-0.421875 -0.34375,0 -0.5625,0.1875 -0.953125,0.75 V -3.65625 L 1.234375,-3.671875 C 0.78125,-3.484375 0.5,-3.375 0.0625,-3.234375 v 0.125 c 0.109375,-0.015625 0.171875,-0.03125 0.265625,-0.03125 0.203125,0 0.28125,0.125 0.28125,0.484375 v 1.984375 C 0.59375,-0.25 0.546875,-0.203125 0.046875,-0.125 Z m 0,0"
           id="path47"
           inkscape:connector-curvature="0" />
      </symbol>
      <symbol
         overflow="visible"
         id="glyph4-6"
         style="overflow:visible">
        <path
           style="stroke:none"
           d="m 3.25,-1.3125 c -0.375,0.609375 -0.71875,0.84375 -1.234375,0.84375 -0.453125,0 -0.796875,-0.234375 -1.03125,-0.6875 C 0.84375,-1.453125 0.78125,-1.71875 0.765625,-2.203125 h 2.46875 C 3.15625,-2.71875 3.078125,-2.953125 2.890625,-3.21875 2.640625,-3.5 2.28125,-3.671875 1.859375,-3.671875 c -0.390625,0 -0.765625,0.15625 -1.078125,0.421875 -0.359375,0.328125 -0.578125,0.890625 -0.578125,1.546875 0,1.09375 0.5625,1.78125 1.484375,1.78125 0.765625,0 1.359375,-0.46875 1.6875,-1.328125 z M 0.78125,-2.46875 C 0.875,-3.078125 1.140625,-3.375 1.640625,-3.375 c 0.484375,0 0.671875,0.21875 0.78125,0.90625 z m 0,0"
           id="path50"
           inkscape:connector-curvature="0" />
      </symbol>
      <symbol
         overflow="visible"
         id="glyph4-7"
         style="overflow:visible">
        <path
           style="stroke:none"
           d="M 2.515625,-2.5 2.484375,-3.59375 H 2.390625 C 2.34375,-3.53125 2.3125,-3.5 2.265625,-3.5 c -0.046875,0 -0.125,-0.015625 -0.21875,-0.0625 -0.1875,-0.0625 -0.359375,-0.109375 -0.5625,-0.109375 -0.625,0 -1.078125,0.421875 -1.078125,1 0,0.4375 0.25,0.765625 0.9375,1.140625 l 0.453125,0.265625 c 0.28125,0.15625 0.421875,0.34375 0.421875,0.59375 0,0.359375 -0.265625,0.578125 -0.671875,0.578125 -0.546875,0 -0.828125,-0.296875 -1,-1.125 h -0.125 v 1.25 h 0.09375 c 0.0625,-0.078125 0.09375,-0.09375 0.1875,-0.09375 0.078125,0 0.1875,0.015625 0.359375,0.0625 0.21875,0.046875 0.421875,0.078125 0.59375,0.078125 0.609375,0 1.109375,-0.453125 1.109375,-1.015625 0,-0.40625 -0.1875,-0.671875 -0.65625,-0.953125 L 1.25,-2.40625 c -0.234375,-0.125 -0.34375,-0.3125 -0.34375,-0.53125 0,-0.328125 0.234375,-0.546875 0.609375,-0.546875 0.453125,0 0.6875,0.265625 0.875,0.984375 z m 0,0"
           id="path53"
           inkscape:connector-curvature="0" />
      </symbol>
      <symbol
         overflow="visible"
         id="glyph4-8"
         style="overflow:visible">
        <path
           style="stroke:none"
           d="M 0.125,0 H 2.015625 V -0.125 C 1.484375,-0.15625 1.4375,-0.234375 1.421875,-0.8125 v -2.828125 l -0.03125,-0.03125 -1.234375,0.4375 v 0.125 h 0.0625 C 0.3125,-3.125 0.421875,-3.140625 0.5,-3.140625 c 0.1875,0 0.25,0.125 0.25,0.484375 V -0.8125 C 0.734375,-0.21875 0.671875,-0.140625 0.125,-0.125 Z M 1.015625,-5.4375 C 0.8125,-5.4375 0.625,-5.265625 0.625,-5.03125 c 0,0.21875 0.171875,0.40625 0.390625,0.40625 0.25,0 0.421875,-0.1875 0.421875,-0.40625 0,-0.234375 -0.1875,-0.40625 -0.421875,-0.40625 z m 0,0"
           id="path56"
           inkscape:connector-curvature="0" />
      </symbol>
      <symbol
         overflow="visible"
         id="glyph4-9"
         style="overflow:visible">
        <path
           style="stroke:none"
           d="m 0.140625,0 h 1.6875 V -0.125 C 1.4375,-0.140625 1.3125,-0.25 1.3125,-0.53125 v -2.234375 c 0.375,-0.359375 0.546875,-0.46875 0.8125,-0.46875 0.390625,0 0.578125,0.25 0.578125,0.78125 V -0.78125 C 2.6875,-0.265625 2.59375,-0.140625 2.203125,-0.125 V 0 h 1.65625 V -0.125 C 3.46875,-0.15625 3.390625,-0.25 3.375,-0.640625 V -2.46875 c 0,-0.75 -0.34375,-1.203125 -0.9375,-1.203125 -0.359375,0 -0.609375,0.140625 -1.15625,0.65625 V -3.65625 L 1.234375,-3.671875 c -0.421875,0.15625 -0.6875,0.25 -1.109375,0.359375 v 0.140625 c 0.0625,-0.03125 0.125,-0.03125 0.21875,-0.03125 0.21875,0 0.296875,0.125 0.296875,0.515625 v 1.96875 C 0.625,-0.25 0.546875,-0.140625 0.140625,-0.125 Z m 0,0"
           id="path59"
           inkscape:connector-curvature="0" />
      </symbol>
      <symbol
         overflow="visible"
         id="glyph4-10"
         style="overflow:visible">
        <path
           style="stroke:none"
           d="M 2.21875,0 H 3.8125 v -0.125 c -0.25,0 -0.40625,-0.125 -0.65625,-0.46875 L 2.140625,-2.15625 2.8125,-3.109375 c 0.140625,-0.21875 0.375,-0.34375 0.640625,-0.359375 V -3.578125 H 2.1875 v 0.109375 c 0.25,0.015625 0.328125,0.0625 0.328125,0.171875 0,0.09375 -0.09375,0.28125 -0.296875,0.53125 -0.046875,0.046875 -0.140625,0.1875 -0.25,0.34375 l -0.0625,-0.09375 C 1.796875,-2.703125 1.71875,-2.8125 1.703125,-2.84375 1.546875,-3.078125 1.5,-3.21875 1.5,-3.296875 1.5,-3.40625 1.609375,-3.453125 1.84375,-3.46875 V -3.578125 H 0.1875 V -3.46875 H 0.265625 C 0.5,-3.46875 0.625,-3.359375 0.875,-2.984375 l 0.75,1.140625 -0.90625,1.3125 C 0.484375,-0.203125 0.390625,-0.140625 0.140625,-0.125 V 0 h 1.15625 v -0.125 c -0.234375,0 -0.328125,-0.03125 -0.328125,-0.140625 0,-0.046875 0.046875,-0.15625 0.15625,-0.328125 l 0.640625,-0.96875 0.71875,1.109375 c 0.03125,0.046875 0.046875,0.09375 0.046875,0.140625 0,0.140625 -0.046875,0.171875 -0.3125,0.1875 z m 0,0"
           id="path62"
           inkscape:connector-curvature="0" />
      </symbol>
      <symbol
         overflow="visible"
         id="glyph4-11"
         style="overflow:visible">
        <path
           style="stroke:none"
           d="m 3.515625,-0.53125 c -0.125,0.109375 -0.21875,0.15625 -0.34375,0.15625 -0.1875,0 -0.234375,-0.109375 -0.234375,-0.46875 V -2.390625 C 2.9375,-2.8125 2.890625,-3.03125 2.765625,-3.234375 2.59375,-3.515625 2.25,-3.671875 1.78125,-3.671875 c -0.75,0 -1.328125,0.390625 -1.328125,0.90625 0,0.171875 0.140625,0.328125 0.328125,0.328125 0.203125,0 0.359375,-0.15625 0.359375,-0.328125 0,-0.03125 0,-0.078125 -0.015625,-0.125 -0.015625,-0.078125 -0.015625,-0.140625 -0.015625,-0.1875 0,-0.21875 0.25,-0.390625 0.578125,-0.390625 0.390625,0 0.59375,0.21875 0.59375,0.65625 v 0.484375 c -1.21875,0.484375 -1.359375,0.5625 -1.703125,0.859375 -0.171875,0.15625 -0.28125,0.4375 -0.28125,0.703125 0,0.5 0.34375,0.84375 0.828125,0.84375 0.359375,0 0.6875,-0.171875 1.171875,-0.578125 0.03125,0.421875 0.1875,0.578125 0.515625,0.578125 0.265625,0 0.4375,-0.09375 0.703125,-0.390625 z M 2.28125,-0.984375 c 0,0.25 -0.03125,0.328125 -0.203125,0.421875 C 1.875,-0.453125 1.671875,-0.375 1.5,-0.375 1.21875,-0.375 1,-0.65625 1,-1 V -1.03125 C 1,-1.5 1.359375,-1.8125 2.28125,-2.140625 Z m 0,0"
           id="path65"
           inkscape:connector-curvature="0" />
      </symbol>
      <symbol
         overflow="visible"
         id="glyph3-0"
         style="overflow:visible">
        <path
           style="stroke:none"
           d="M 1.847656,0 C 1.847656,-1.019531 1.019531,-1.847656 0,-1.847656 -1.019531,-1.847656 -1.847656,-1.019531 -1.847656,0 -1.847656,1.019531 -1.019531,1.847656 0,1.847656 1.019531,1.847656 1.847656,1.019531 1.847656,0"
           id="path68"
           inkscape:connector-curvature="0" />
      </symbol>
      <symbol
         overflow="visible"
         id="glyph3-1"
         style="overflow:visible">
        <path
           style="stroke:none"
           d="m 1.847656,0 c 0,-1.019531 -0.828125,-1.847656 -1.847656,-1.847656 -1.019531,0 -1.847656,0.828125 -1.847656,1.847656 0,1.019531 0.828125,1.847656 1.847656,1.847656 1.019531,0 1.847656,-0.828125 1.847656,-1.847656 z m 0,0 h -0.1875 c 0,-0.917969 -0.742187,-1.660156 -1.660156,-1.660156 -0.917969,0 -1.660156,0.742187 -1.660156,1.660156 0,0.917969 0.742187,1.660156 1.660156,1.660156 0.917969,0 1.660156,-0.742187 1.660156,-1.660156"
           id="path71"
           inkscape:connector-curvature="0" />
      </symbol>
    </g>
  </defs>
  <g
     id="surface687"
     transform="translate(-138.62273,-107.30655)">
    <path
       style="fill:#000000;fill-opacity:1;fill-rule:nonzero;stroke:none"
       d="m 192.45312,128.04297 -1.17187,-3.28125 -1.17188,3.28125 1.17188,-1.3125"
       id="path78"
       inkscape:connector-curvature="0" />
    <path
       style="fill:none;stroke:#000000;stroke-width:4.25176001;stroke-linecap:butt;stroke-linejoin:miter;stroke-miterlimit:10;stroke-opacity:1"
       d="m 1912.8125,5821.9922 v 830.7031"
       transform="matrix(0.1,0,0,-0.1,0,792)"
       id="path80"
       inkscape:connector-curvature="0" />
    <path
       style="fill:#000000;fill-opacity:1;fill-rule:nonzero;stroke:none"
       d="m 230.51562,168.45312 3.28516,-1.17187 -3.28516,-1.17578 1.3125,1.17578"
       id="path82"
       inkscape:connector-curvature="0" />
    <path
       style="fill:none;stroke:#000000;stroke-width:4.25176001;stroke-linecap:butt;stroke-linejoin:miter;stroke-miterlimit:10;stroke-opacity:1"
       d="m 1487.6172,6247.1875 h 830.6641"
       transform="matrix(0.1,0,0,-0.1,0,792)"
       id="path84"
       inkscape:connector-curvature="0" />
    <g
       style="fill:#000000;fill-opacity:1"
       id="g88">
      <use
         xlink:href="#glyph0-1"
         x="237.16"
         y="169.67999"
         id="use86"
         width="100%"
         height="100%" />
    </g>
    <g
       style="fill:#000000;fill-opacity:1"
       id="g92">
      <use
         xlink:href="#glyph1-1"
         x="240.51978"
         y="169.56007"
         id="use90"
         width="100%"
         height="100%" />
    </g>
    <g
       style="fill:#000000;fill-opacity:1"
       id="g96">
      <use
         xlink:href="#glyph2-1"
         x="244.95961"
         y="169.56007"
         id="use94"
         width="100%"
         height="100%" />
    </g>
    <g
       style="fill:#000000;fill-opacity:1"
       id="g100">
      <use
         xlink:href="#glyph2-2"
         x="250.71976"
         y="169.56007"
         id="use98"
         width="100%"
         height="100%" />
    </g>
    <g
       style="fill:#000000;fill-opacity:1"
       id="g104">
      <use
         xlink:href="#glyph1-1"
         x="255.15961"
         y="169.56007"
         id="use102"
         width="100%"
         height="100%" />
    </g>
    <g
       style="fill:#000000;fill-opacity:1"
       id="g108">
      <use
         xlink:href="#glyph2-3"
         x="259.59946"
         y="169.56007"
         id="use106"
         width="100%"
         height="100%" />
    </g>
    <g
       style="fill:#000000;fill-opacity:1"
       id="g112">
      <use
         xlink:href="#glyph0-2"
         x="263.07993"
         y="169.67999"
         id="use110"
         width="100%"
         height="100%" />
    </g>
    <g
       style="fill:#000000;fill-opacity:1"
       id="g116">
      <use
         xlink:href="#glyph2-4"
         x="187.80022"
         y="121.4003"
         id="use114"
         width="100%"
         height="100%" />
    </g>
    <path
       style="fill:none;stroke:#000000;stroke-width:14.17389965;stroke-linecap:butt;stroke-linejoin:miter;stroke-miterlimit:10;stroke-opacity:1"
       d="m 1912.8125,6502.3047 -425.1953,85.039"
       transform="matrix(0.1,0,0,-0.1,0,792)"
       id="path118"
       inkscape:connector-curvature="0" />
    <path
       style="fill:none;stroke:#000000;stroke-width:14.17389965;stroke-linecap:butt;stroke-linejoin:miter;stroke-miterlimit:10;stroke-opacity:1"
       d="m 1912.8125,5992.0703 425.1953,85.0781"
       transform="matrix(0.1,0,0,-0.1,0,792)"
       id="path120"
       inkscape:connector-curvature="0" />
    <g
       style="fill:#ffffff;fill-opacity:1"
       id="g124">
      <use
         xlink:href="#glyph3-0"
         x="191.25"
         y="141.75"
         id="use122"
         width="100%"
         height="100%" />
    </g>
    <g
       style="fill:#000000;fill-opacity:1"
       id="g128">
      <use
         xlink:href="#glyph3-1"
         x="191.25"
         y="141.75"
         id="use126"
         width="100%"
         height="100%" />
    </g>
    <g
       style="fill:#ffffff;fill-opacity:1"
       id="g132">
      <use
         xlink:href="#glyph3-0"
         x="191.25"
         y="192.75"
         id="use130"
         width="100%"
         height="100%" />
    </g>
    <g
       style="fill:#000000;fill-opacity:1"
       id="g136">
      <use
         xlink:href="#glyph3-1"
         x="191.25"
         y="192.75"
         id="use134"
         width="100%"
         height="100%" />
    </g>
    <g
       style="fill:#000000;fill-opacity:1"
       id="g140">
      <use
         xlink:href="#glyph4-1"
         x="148.76019"
         y="150.06641"
         id="use138"
         width="100%"
         height="100%" />
    </g>
    <g
       style="fill:#000000;fill-opacity:1"
       id="g144">
      <use
         xlink:href="#glyph4-2"
         x="152.2402"
         y="150.06641"
         id="use142"
         width="100%"
         height="100%" />
    </g>
    <g
       style="fill:#000000;fill-opacity:1"
       id="g148">
      <use
         xlink:href="#glyph4-3"
         x="156.2002"
         y="150.06641"
         id="use146"
         width="100%"
         height="100%" />
    </g>
    <g
       style="fill:#000000;fill-opacity:1"
       id="g152">
      <use
         xlink:href="#glyph4-4"
         x="162.44019"
         y="150.06641"
         id="use150"
         width="100%"
         height="100%" />
    </g>
    <g
       style="fill:#000000;fill-opacity:1"
       id="g156">
      <use
         xlink:href="#glyph4-5"
         x="166.40019"
         y="150.06641"
         id="use154"
         width="100%"
         height="100%" />
    </g>
    <g
       style="fill:#000000;fill-opacity:1"
       id="g160">
      <use
         xlink:href="#glyph4-6"
         x="169.04018"
         y="150.06641"
         id="use158"
         width="100%"
         height="100%" />
    </g>
    <g
       style="fill:#000000;fill-opacity:1"
       id="g164">
      <use
         xlink:href="#glyph4-7"
         x="172.52017"
         y="150.06641"
         id="use162"
         width="100%"
         height="100%" />
    </g>
    <g
       style="fill:#000000;fill-opacity:1"
       id="g168">
      <use
         xlink:href="#glyph4-7"
         x="175.64017"
         y="150.06641"
         id="use166"
         width="100%"
         height="100%" />
    </g>
    <g
       style="fill:#000000;fill-opacity:1"
       id="g172">
      <use
         xlink:href="#glyph4-8"
         x="178.76016"
         y="150.06641"
         id="use170"
         width="100%"
         height="100%" />
    </g>
    <g
       style="fill:#000000;fill-opacity:1"
       id="g176">
      <use
         xlink:href="#glyph4-2"
         x="180.92017"
         y="150.06641"
         id="use174"
         width="100%"
         height="100%" />
    </g>
    <g
       style="fill:#000000;fill-opacity:1"
       id="g180">
      <use
         xlink:href="#glyph4-9"
         x="184.88016"
         y="150.06641"
         id="use178"
         width="100%"
         height="100%" />
    </g>
    <g
       style="fill:#000000;fill-opacity:1"
       id="g184">
      <use
         xlink:href="#glyph4-6"
         x="196.80791"
         y="199.8141"
         id="use182"
         width="100%"
         height="100%" />
    </g>
    <g
       style="fill:#000000;fill-opacity:1"
       id="g188">
      <use
         xlink:href="#glyph4-10"
         x="200.16805"
         y="199.8141"
         id="use186"
         width="100%"
         height="100%" />
    </g>
    <g
       style="fill:#000000;fill-opacity:1"
       id="g192">
      <use
         xlink:href="#glyph4-4"
         x="204.12805"
         y="199.8141"
         id="use190"
         width="100%"
         height="100%" />
    </g>
    <g
       style="fill:#000000;fill-opacity:1"
       id="g196">
      <use
         xlink:href="#glyph4-11"
         x="208.08806"
         y="199.8141"
         id="use194"
         width="100%"
         height="100%" />
    </g>
    <g
       style="fill:#000000;fill-opacity:1"
       id="g200">
      <use
         xlink:href="#glyph4-9"
         x="211.56807"
         y="199.8141"
         id="use198"
         width="100%"
         height="100%" />
    </g>
    <g
       style="fill:#000000;fill-opacity:1"
       id="g204">
      <use
         xlink:href="#glyph4-7"
         x="215.52808"
         y="199.8141"
         id="use202"
         width="100%"
         height="100%" />
    </g>
    <g
       style="fill:#000000;fill-opacity:1"
       id="g208">
      <use
         xlink:href="#glyph4-8"
         x="218.64807"
         y="199.8141"
         id="use206"
         width="100%"
         height="100%" />
    </g>
    <g
       style="fill:#000000;fill-opacity:1"
       id="g212">
      <use
         xlink:href="#glyph4-2"
         x="220.80804"
         y="199.8141"
         id="use210"
         width="100%"
         height="100%" />
    </g>
    <g
       style="fill:#000000;fill-opacity:1"
       id="g216">
      <use
         xlink:href="#glyph4-9"
         x="224.76805"
         y="199.8141"
         id="use214"
         width="100%"
         height="100%" />
    </g>
  </g>
</svg>
