%!PS-Adobe-3.0 EPSF-3.0
%%Creator: cairo 1.16.0 (https://cairographics.org)
%%CreationDate: Mon May  3 04:02:09 2021
%%Pages: 1
%%DocumentData: Clean7Bit
%%LanguageLevel: 2
%%BoundingBox: 10 10 196 92
%%EndComments
%%BeginProlog
50 dict begin
/q { gsave } bind def
/Q { grestore } bind def
/cm { 6 array astore concat } bind def
/w { setlinewidth } bind def
/J { setlinecap } bind def
/j { setlinejoin } bind def
/M { setmiterlimit } bind def
/d { setdash } bind def
/m { moveto } bind def
/l { lineto } bind def
/c { curveto } bind def
/h { closepath } bind def
/re { exch dup neg 3 1 roll 5 3 roll moveto 0 rlineto
      0 exch rlineto 0 rlineto closepath } bind def
/S { stroke } bind def
/f { fill } bind def
/f* { eofill } bind def
/n { newpath } bind def
/W { clip } bind def
/W* { eoclip } bind def
/BT { } bind def
/ET { } bind def
/BDC { mark 3 1 roll /BDC pdfmark } bind def
/EMC { mark /EMC pdfmark } bind def
/cairo_store_point { /cairo_point_y exch def /cairo_point_x exch def } def
/Tj { show currentpoint cairo_store_point } bind def
/TJ {
  {
    dup
    type /stringtype eq
    { show } { -0.001 mul 0 cairo_font_matrix dtransform rmoveto } ifelse
  } forall
  currentpoint cairo_store_point
} bind def
/cairo_selectfont { cairo_font_matrix aload pop pop pop 0 0 6 array astore
    cairo_font exch selectfont cairo_point_x cairo_point_y moveto } bind def
/Tf { pop /cairo_font exch def /cairo_font_matrix where
      { pop cairo_selectfont } if } bind def
/Td { matrix translate cairo_font_matrix matrix concatmatrix dup
      /cairo_font_matrix exch def dup 4 get exch 5 get cairo_store_point
      /cairo_font where { pop cairo_selectfont } if } bind def
/Tm { 2 copy 8 2 roll 6 array astore /cairo_font_matrix exch def
      cairo_store_point /cairo_font where { pop cairo_selectfont } if } bind def
/g { setgray } bind def
/rg { setrgbcolor } bind def
/d1 { setcachedevice } bind def
/cairo_data_source {
  CairoDataIndex CairoData length lt
    { CairoData CairoDataIndex get /CairoDataIndex CairoDataIndex 1 add def }
    { () } ifelse
} def
/cairo_flush_ascii85_file { cairo_ascii85_file status { cairo_ascii85_file flushfile } if } def
/cairo_image { image cairo_flush_ascii85_file } def
/cairo_imagemask { imagemask cairo_flush_ascii85_file } def
%%EndProlog
%%BeginSetup
%%EndSetup
%%Page: 1 1
%%BeginPageSetup
%%PageBoundingBox: 10 10 196 92
%%EndPageSetup
q 10 10 186 82 rectclip
1 0 0 -1 0 102 cm q
0 g
0.567043 w
0 J
0 j
[] 0.0 d
10 M q 1 0 0 -1 0 0 cm
25.633 -55.055 m 25.633 -41.164 l 53.41 -41.164 l 53.41 -68.945 l 25.633
 -68.945 l h
25.633 -55.055 m S Q
36.605 56.648 m 36.184 57.289 35.855 57.492 35.355 57.492 c 34.527 57.492
 33.965 56.773 33.965 55.742 c 33.965 54.82 34.449 54.195 35.184 54.195 
c 35.496 54.195 35.621 54.273 35.699 54.617 c 35.762 54.82 l 35.84 55.07
 35.996 55.227 36.184 55.227 c 36.418 55.227 36.605 55.055 36.605 54.852
 c 36.605 54.352 35.98 53.93 35.23 53.93 c 34.793 53.93 34.34 54.102 33.965
 54.43 c 33.512 54.82 33.262 55.43 33.262 56.148 c 33.262 57.305 33.98 58.148
 34.965 58.148 c 35.371 58.148 35.73 58.008 36.059 57.727 c 36.293 57.523
 36.465 57.258 36.73 56.742 c h
36.605 56.648 m f
40.66 56.586 m 40.238 57.258 39.848 57.523 39.27 57.523 c 38.77 57.523 
38.379 57.258 38.113 56.758 c 37.957 56.414 37.895 56.133 37.879 55.57 c
 40.629 55.57 l 40.566 54.992 40.473 54.727 40.254 54.445 c 39.988 54.117
 39.566 53.93 39.098 53.93 c 38.66 53.93 38.238 54.086 37.895 54.398 c 37.473
 54.758 37.223 55.398 37.223 56.133 c 37.223 57.367 37.879 58.148 38.91 
58.148 c 39.754 58.148 40.426 57.617 40.801 56.648 c h
37.895 55.289 m 37.988 54.586 38.301 54.258 38.848 54.258 c 39.395 54.258
 39.598 54.508 39.723 55.289 c h
37.895 55.289 m f
41.148 58.055 m 43.273 58.055 l 43.273 57.914 l 42.695 57.898 42.602 57.805
 42.586 57.305 c 42.586 51.945 l 42.555 51.93 l 42.102 52.07 41.773 52.164
 41.133 52.32 c 41.133 52.461 l 41.18 52.461 l 41.289 52.461 41.398 52.445
 41.461 52.445 c 41.758 52.445 41.836 52.57 41.836 52.992 c 41.836 57.273
 l 41.836 57.758 41.711 57.883 41.148 57.914 c h
41.148 58.055 m f
43.672 58.055 m 45.797 58.055 l 45.797 57.914 l 45.219 57.898 45.125 57.805
 45.109 57.305 c 45.109 51.945 l 45.078 51.93 l 44.625 52.07 44.297 52.164
 43.656 52.32 c 43.656 52.461 l 43.703 52.461 l 43.812 52.461 43.922 52.445
 43.984 52.445 c 44.281 52.445 44.359 52.57 44.359 52.992 c 44.359 57.273
 l 44.359 57.758 44.234 57.883 43.672 57.914 c h
43.672 58.055 m f
0.850361 w
q 1 0 0 -1 0 0 cm
25.352 -55.055 m 11.176 -55.055 l 11.176 -15.367 l 16.844 -15.367 l 24.215
 -11.117 l S Q
18.094 15.398 m 18.094 14.691 17.52 14.117 16.812 14.117 c 16.105 14.117
 15.531 14.691 15.531 15.398 c 15.531 16.105 16.105 16.68 16.812 16.68 c
 17.52 16.68 18.094 16.105 18.094 15.398 c f
26.594 15.398 m 26.594 14.691 26.02 14.117 25.312 14.117 c 24.605 14.117
 24.031 14.691 24.031 15.398 c 24.031 16.105 24.605 16.68 25.312 16.68 c
 26.02 16.68 26.594 16.105 26.594 15.398 c f
18.422 60.477 m 18.422 60.195 18.391 59.102 16.766 58.93 c 17.188 57.508
 l 17.219 57.43 17.234 57.336 17.234 57.305 c 17.234 57.148 17.109 56.992
 16.953 56.992 c 16.828 56.992 16.625 57.008 16.547 57.336 c 16.25 58.914
 l 14.125 59.195 13.562 60.742 13.562 61.477 c 13.562 62.992 15.219 63.055
 15.219 63.055 c 14.781 64.461 l 14.781 64.477 14.766 64.539 14.766 64.57
 c 14.766 64.742 14.906 64.898 15.062 64.898 c 15.188 64.898 15.375 64.789
 15.422 64.57 c 15.734 63.102 l 17.656 62.883 18.422 61.336 18.422 60.477
 c h
17.656 60.461 m 17.656 61.242 17.125 62.586 15.812 62.805 c 16.703 59.211
 l 17.391 59.305 17.656 59.914 17.656 60.461 c h
16.172 59.227 m 15.312 62.805 l 14.594 62.602 14.328 62.117 14.328 61.602
 c 14.328 60.93 14.812 59.414 16.172 59.227 c h
16.172 59.227 m f
20.551 60.645 m 18.582 60.645 l 18.582 60.77 l 19.098 60.801 19.176 60.895
 19.191 61.395 c 19.191 64.488 l 19.176 64.988 19.082 65.098 18.582 65.129
 c 18.582 65.254 l 22.332 65.254 l 22.676 64.035 l 22.504 64.035 l 22.176
 64.77 21.863 64.957 20.973 64.988 c 20.504 64.988 l 19.973 64.973 19.91
 64.941 19.91 64.691 c 19.91 61.395 l 19.926 60.895 20.004 60.801 20.551
 60.77 c h
20.551 60.645 m f
15.926 51.141 4.703 0.438 re f
q 1 0 0 -1 0 0 cm
53.695 -55.055 m 67.867 -55.055 l 67.867 -15.367 l S Q
60.699 60.477 m 60.699 60.195 60.668 59.102 59.043 58.93 c 59.465 57.508
 l 59.496 57.43 59.512 57.336 59.512 57.305 c 59.512 57.148 59.387 56.992
 59.23 56.992 c 59.105 56.992 58.902 57.008 58.824 57.336 c 58.527 58.914
 l 56.402 59.195 55.84 60.742 55.84 61.477 c 55.84 62.992 57.496 63.055 
57.496 63.055 c 57.059 64.461 l 57.059 64.477 57.043 64.539 57.043 64.57
 c 57.043 64.742 57.184 64.898 57.34 64.898 c 57.465 64.898 57.652 64.789
 57.699 64.57 c 58.012 63.102 l 59.934 62.883 60.699 61.336 60.699 60.477
 c h
59.934 60.461 m 59.934 61.242 59.402 62.586 58.09 62.805 c 58.98 59.211
 l 59.668 59.305 59.934 59.914 59.934 60.461 c h
58.449 59.227 m 57.59 62.805 l 56.871 62.602 56.605 62.117 56.605 61.602
 c 56.605 60.93 57.09 59.414 58.449 59.227 c h
58.449 59.227 m f
65.375 65.129 m 65.109 65.098 64.969 65.035 64.766 64.801 c 63.328 63.035
 l 64.219 62.863 64.594 62.504 64.594 61.863 c 64.594 61.566 64.5 61.316
 64.328 61.113 c 64.062 60.816 63.469 60.645 62.828 60.645 c 60.906 60.645
 l 60.906 60.77 l 61.422 60.832 61.484 60.895 61.484 61.395 c 61.484 64.41
 l 61.484 65.004 61.422 65.082 60.906 65.129 c 60.906 65.254 l 62.828 65.254
 l 62.828 65.129 l 62.297 65.082 62.203 65.004 62.203 64.488 c 62.203 63.129
 l 62.594 63.113 l 64.25 65.254 l 65.375 65.254 l h
62.203 61.145 m 62.203 60.957 62.281 60.895 62.562 60.895 c 63.422 60.895
 63.828 61.191 63.828 61.848 c 63.828 62.207 63.688 62.488 63.438 62.629
 c 63.109 62.801 62.875 62.848 62.203 62.863 c h
62.203 61.145 m f
63.367 50.977 m 63.367 50.539 l 61.039 50.539 l 61.039 48.211 l 60.617 
48.211 l 60.617 50.539 l 58.289 50.539 l 58.289 50.977 l 60.617 50.977 l
 60.617 53.305 l 61.039 53.305 l 61.039 50.977 l h
63.367 50.977 m f
q 1 0 0 -1 0 0 cm
25.352 -15.367 m 31.941 -15.367 l 33.004 -13.242 l 35.129 -17.496 l 37.254
 -13.242 l 39.383 -17.496 l 41.508 -13.242 l 43.633 -17.496 l 45.758 -13.242
 l 47.887 -17.496 l 50.012 -13.242 l 52.137 -17.496 l 54.262 -13.242 l 56.387
 -17.496 l 58.516 -13.242 l 60.641 -17.496 l 61.703 -15.367 l 68.293 -15.367
 l S Q
37.242 83.445 m 36.586 83.883 36.32 84.102 35.977 84.523 c 35.352 85.305
 35.039 86.195 35.039 87.242 c 35.039 88.398 35.367 89.273 36.148 90.18 
c 36.523 90.617 36.758 90.805 37.227 91.102 c 37.32 90.945 l 36.617 90.383
 36.367 90.07 36.117 89.398 c 35.898 88.805 35.805 88.133 35.805 87.227 
c 35.805 86.273 35.914 85.539 36.164 84.992 c 36.414 84.43 36.68 84.102 
37.32 83.586 c h
37.242 83.445 m f
41.57 88.914 m 41.414 89.039 41.305 89.086 41.164 89.086 c 40.961 89.086
 40.898 88.961 40.898 88.57 c 40.898 86.82 l 40.898 86.352 40.852 86.086
 40.727 85.883 c 40.523 85.555 40.133 85.383 39.617 85.383 c 38.773 85.383
 38.102 85.82 38.102 86.383 c 38.102 86.586 38.273 86.773 38.492 86.773 
c 38.711 86.773 38.898 86.586 38.898 86.398 c 38.898 86.367 38.883 86.32
 38.883 86.258 c 38.852 86.164 38.852 86.102 38.852 86.039 c 38.852 85.789
 39.133 85.602 39.492 85.602 c 39.93 85.602 40.18 85.852 40.18 86.336 c 
40.18 86.883 l 38.805 87.43 38.648 87.523 38.258 87.852 c 38.055 88.039 
37.93 88.336 37.93 88.633 c 37.93 89.195 38.32 89.602 38.883 89.602 c 39.273
 89.602 39.633 89.414 40.18 88.945 c 40.227 89.414 40.398 89.602 40.758 
89.602 c 41.07 89.602 41.258 89.492 41.57 89.148 c h
40.18 88.398 m 40.18 88.68 40.133 88.773 39.945 88.883 c 39.711 89.008 
39.477 89.07 39.289 89.07 c 38.977 89.07 38.727 88.773 38.727 88.383 c 38.727
 88.352 l 38.727 87.82 39.133 87.477 40.18 87.102 c h
40.18 88.398 m f
41.906 91.102 m 42.562 90.648 42.844 90.43 43.172 90.023 c 43.812 89.242
 44.125 88.336 44.125 87.289 c 44.125 86.148 43.781 85.273 43 84.367 c 42.625
 83.93 42.391 83.727 41.938 83.445 c 41.828 83.586 l 42.547 84.148 42.781
 84.461 43.031 85.133 c 43.25 85.742 43.344 86.414 43.344 87.32 c 43.344
 88.258 43.234 88.992 42.984 89.539 c 42.75 90.102 42.469 90.43 41.828 90.945
 c h
41.906 91.102 m f
0.567043 w
q 1 0 0 -1 0 0 cm
153.191 -55.055 m 153.191 -41.164 l 180.973 -41.164 l 180.973 -68.945 l
 153.191 -68.945 l h
153.191 -55.055 m S Q
164.164 56.648 m 163.742 57.289 163.414 57.492 162.914 57.492 c 162.086
 57.492 161.523 56.773 161.523 55.742 c 161.523 54.82 162.008 54.195 162.742
 54.195 c 163.055 54.195 163.18 54.273 163.258 54.617 c 163.32 54.82 l 163.398
 55.07 163.555 55.227 163.742 55.227 c 163.977 55.227 164.164 55.055 164.164
 54.852 c 164.164 54.352 163.539 53.93 162.789 53.93 c 162.352 53.93 161.898
 54.102 161.523 54.43 c 161.07 54.82 160.82 55.43 160.82 56.148 c 160.82
 57.305 161.539 58.148 162.523 58.148 c 162.93 58.148 163.289 58.008 163.617
 57.727 c 163.852 57.523 164.023 57.258 164.289 56.742 c h
164.164 56.648 m f
168.219 56.586 m 167.797 57.258 167.406 57.523 166.828 57.523 c 166.328
 57.523 165.938 57.258 165.672 56.758 c 165.516 56.414 165.453 56.133 165.438
 55.57 c 168.188 55.57 l 168.125 54.992 168.031 54.727 167.812 54.445 c 
167.547 54.117 167.125 53.93 166.656 53.93 c 166.219 53.93 165.797 54.086
 165.453 54.398 c 165.031 54.758 164.781 55.398 164.781 56.133 c 164.781
 57.367 165.438 58.148 166.469 58.148 c 167.312 58.148 167.984 57.617 168.359
 56.648 c h
165.453 55.289 m 165.547 54.586 165.859 54.258 166.406 54.258 c 166.953
 54.258 167.156 54.508 167.281 55.289 c h
165.453 55.289 m f
168.707 58.055 m 170.832 58.055 l 170.832 57.914 l 170.254 57.898 170.16
 57.805 170.145 57.305 c 170.145 51.945 l 170.113 51.93 l 169.66 52.07 169.332
 52.164 168.691 52.32 c 168.691 52.461 l 168.738 52.461 l 168.848 52.461
 168.957 52.445 169.02 52.445 c 169.316 52.445 169.395 52.57 169.395 52.992
 c 169.395 57.273 l 169.395 57.758 169.27 57.883 168.707 57.914 c h
168.707 58.055 m f
171.23 58.055 m 173.355 58.055 l 173.355 57.914 l 172.777 57.898 172.684
 57.805 172.668 57.305 c 172.668 51.945 l 172.637 51.93 l 172.184 52.07 
171.855 52.164 171.215 52.32 c 171.215 52.461 l 171.262 52.461 l 171.371
 52.461 171.48 52.445 171.543 52.445 c 171.84 52.445 171.918 52.57 171.918
 52.992 c 171.918 57.273 l 171.918 57.758 171.793 57.883 171.23 57.914 c
 h
171.23 58.055 m f
0.850361 w
q 1 0 0 -1 0 0 cm
152.91 -55.055 m 138.734 -55.055 l 138.734 -15.367 l 152.91 -15.367 l S Q
134.789 58.086 m 133.066 55.055 l 132.477 58.488 l 133.406 56.992 l f
0.425176 w
q 1 0 0 -1 0 0 cm
133.406 -56.992 m 133.387 -56.934 l 134.184 -59.203 136.328 -60.723 138.734
 -60.723 c S Q
126.012 64.73 m 125.59 65.402 125.199 65.668 124.621 65.668 c 124.121 65.668
 123.73 65.402 123.465 64.902 c 123.309 64.559 123.246 64.277 123.23 63.715
 c 125.98 63.715 l 125.918 63.137 125.824 62.871 125.605 62.59 c 125.34 
62.262 124.918 62.074 124.449 62.074 c 124.012 62.074 123.59 62.23 123.246
 62.543 c 122.824 62.902 122.574 63.543 122.574 64.277 c 122.574 65.512 
123.23 66.293 124.262 66.293 c 125.105 66.293 125.777 65.762 126.152 64.793
 c h
123.246 63.434 m 123.34 62.73 123.652 62.402 124.199 62.402 c 124.746 62.402
 124.949 62.652 125.074 63.434 c h
123.246 63.434 m f
126.738 60.723 4.703 0.438 re f
145.695 15.398 m 145.695 14.691 145.121 14.117 144.414 14.117 c 143.707
 14.117 143.133 14.691 143.133 15.398 c 143.133 16.105 143.707 16.68 144.414
 16.68 c 145.121 16.68 145.695 16.105 145.695 15.398 c f
154.195 15.398 m 154.195 14.691 153.621 14.117 152.914 14.117 c 152.207
 14.117 151.633 14.691 151.633 15.398 c 151.633 16.105 152.207 16.68 152.914
 16.68 c 153.621 16.68 154.195 16.105 154.195 15.398 c f
143.484 51.141 4.703 0.438 re f
0.850361 w
q 1 0 0 -1 0 0 cm
181.254 -55.055 m 195.43 -55.055 l 195.43 -15.367 l S Q
190.922 50.977 m 190.922 50.539 l 188.594 50.539 l 188.594 48.211 l 188.172
 48.211 l 188.172 50.539 l 185.844 50.539 l 185.844 50.977 l 188.172 50.977
 l 188.172 53.305 l 188.594 53.305 l 188.594 50.977 l h
190.922 50.977 m f
q 1 0 0 -1 0 0 cm
152.91 -15.367 m 159.5 -15.367 l 160.562 -13.242 l 162.688 -17.496 l 164.812
 -13.242 l 166.941 -17.496 l 169.066 -13.242 l 171.191 -17.496 l 173.316
 -13.242 l 175.445 -17.496 l 177.57 -13.242 l 179.695 -17.496 l 181.82 -13.242
 l 183.945 -17.496 l 186.074 -13.242 l 188.199 -17.496 l 189.262 -15.367
 l 195.852 -15.367 l S Q
164.441 83.445 m 163.785 83.883 163.52 84.102 163.176 84.523 c 162.551 
85.305 162.238 86.195 162.238 87.242 c 162.238 88.398 162.566 89.273 163.348
 90.18 c 163.723 90.617 163.957 90.805 164.426 91.102 c 164.52 90.945 l 
163.816 90.383 163.566 90.07 163.316 89.398 c 163.098 88.805 163.004 88.133
 163.004 87.227 c 163.004 86.273 163.113 85.539 163.363 84.992 c 163.613
 84.43 163.879 84.102 164.52 83.586 c h
164.441 83.445 m f
166.176 83.398 m 166.129 83.383 l 165.754 83.508 165.52 83.586 165.082 
83.711 c 164.832 83.773 l 164.832 83.914 l 164.879 83.914 164.91 83.914 
164.973 83.914 c 165.332 83.914 165.426 83.992 165.426 84.367 c 165.426 
89.023 l 165.426 89.305 166.176 89.602 166.895 89.602 c 168.082 89.602 169.004
 88.617 169.004 87.336 c 169.004 86.211 168.316 85.383 167.426 85.383 c 
166.879 85.383 166.348 85.695 166.176 86.148 c h
166.176 86.617 m 166.176 86.273 166.598 85.945 167.066 85.945 c 167.316
 85.945 167.535 86.039 167.723 86.211 c 168.004 86.492 168.207 87.102 168.207
 87.742 c 168.207 88.742 167.785 89.305 167.051 89.305 c 166.582 89.305 
166.176 89.117 166.176 88.883 c h
166.176 86.617 m f
169.586 91.102 m 170.242 90.648 170.523 90.43 170.852 90.023 c 171.492 
89.242 171.805 88.336 171.805 87.289 c 171.805 86.148 171.461 85.273 170.68
 84.367 c 170.305 83.93 170.07 83.727 169.617 83.445 c 169.508 83.586 l 
170.227 84.148 170.461 84.461 170.711 85.133 c 170.93 85.742 171.023 86.414
 171.023 87.32 c 171.023 88.258 170.914 88.992 170.664 89.539 c 170.43 90.102
 170.148 90.43 169.508 90.945 c h
169.586 91.102 m f
Q Q
showpage
%%Trailer
end
%%EOF
