%!PS-Adobe-3.0 EPSF-3.0
%%Creator: cairo 1.16.0 (https://cairographics.org)
%%CreationDate: Mon May  3 03:41:27 2021
%%Pages: 1
%%DocumentData: Clean7Bit
%%LanguageLevel: 2
%%BoundingBox: 10 11 183 118
%%EndComments
%%BeginProlog
50 dict begin
/q { gsave } bind def
/Q { grestore } bind def
/cm { 6 array astore concat } bind def
/w { setlinewidth } bind def
/J { setlinecap } bind def
/j { setlinejoin } bind def
/M { setmiterlimit } bind def
/d { setdash } bind def
/m { moveto } bind def
/l { lineto } bind def
/c { curveto } bind def
/h { closepath } bind def
/re { exch dup neg 3 1 roll 5 3 roll moveto 0 rlineto
      0 exch rlineto 0 rlineto closepath } bind def
/S { stroke } bind def
/f { fill } bind def
/f* { eofill } bind def
/n { newpath } bind def
/W { clip } bind def
/W* { eoclip } bind def
/BT { } bind def
/ET { } bind def
/BDC { mark 3 1 roll /BDC pdfmark } bind def
/EMC { mark /EMC pdfmark } bind def
/cairo_store_point { /cairo_point_y exch def /cairo_point_x exch def } def
/Tj { show currentpoint cairo_store_point } bind def
/TJ {
  {
    dup
    type /stringtype eq
    { show } { -0.001 mul 0 cairo_font_matrix dtransform rmoveto } ifelse
  } forall
  currentpoint cairo_store_point
} bind def
/cairo_selectfont { cairo_font_matrix aload pop pop pop 0 0 6 array astore
    cairo_font exch selectfont cairo_point_x cairo_point_y moveto } bind def
/Tf { pop /cairo_font exch def /cairo_font_matrix where
      { pop cairo_selectfont } if } bind def
/Td { matrix translate cairo_font_matrix matrix concatmatrix dup
      /cairo_font_matrix exch def dup 4 get exch 5 get cairo_store_point
      /cairo_font where { pop cairo_selectfont } if } bind def
/Tm { 2 copy 8 2 roll 6 array astore /cairo_font_matrix exch def
      cairo_store_point /cairo_font where { pop cairo_selectfont } if } bind def
/g { setgray } bind def
/rg { setrgbcolor } bind def
/d1 { setcachedevice } bind def
/cairo_data_source {
  CairoDataIndex CairoData length lt
    { CairoData CairoDataIndex get /CairoDataIndex CairoDataIndex 1 add def }
    { () } ifelse
} def
/cairo_flush_ascii85_file { cairo_ascii85_file status { cairo_ascii85_file flushfile } if } def
/cairo_image { image cairo_flush_ascii85_file } def
/cairo_imagemask { imagemask cairo_flush_ascii85_file } def
%%EndProlog
%%BeginSetup
%%EndSetup
%%Page: 1 1
%%BeginPageSetup
%%PageBoundingBox: 10 11 183 118
%%EndPageSetup
q 10 11 173 107 rectclip
1 0 0 -1 0 128 cm q
0 g
0.567043 w
0 J
0 j
[] 0.0 d
10 M q 1 0 0 -1 0 0 cm
12.875 -63.41 m 12.875 -63.41 12.875 -63.961 12.875 -64.91 c 12.875 -66.906
 m 12.875 -67.785 12.875 -68.797 12.875 -69.902 c 12.875 -71.898 m 12.875
 -72.859 12.875 -73.863 12.875 -74.895 c 12.875 -76.891 m 12.875 -77.883
 12.875 -78.887 12.875 -79.887 c 12.875 -81.883 m 12.875 -82.906 12.875 
-83.914 12.875 -84.875 c 12.875 -86.875 m 12.875 -87.965 12.875 -88.973 
12.875 -89.867 c 12.875 -91.863 m 12.875 -93.133 12.875 -93.883 12.875 -93.883
 c 12.875 -93.883 13.219 -93.883 13.852 -93.883 c 15.848 -93.883 m 16.699
 -93.883 17.707 -93.883 18.844 -93.883 c 20.84 -93.883 m 21.781 -93.883 
22.781 -93.883 23.836 -93.883 c 25.832 -93.883 m 26.801 -93.883 27.801 -93.883
 28.828 -93.883 c 30.824 -93.883 m 31.805 -93.883 32.805 -93.883 33.82 -93.883
 c 35.816 -93.883 m 36.809 -93.883 37.809 -93.883 38.809 -93.883 c 40.809
 -93.883 m 41.809 -93.883 42.809 -93.883 43.801 -93.883 c 45.797 -93.883
 m 46.809 -93.883 47.812 -93.883 48.793 -93.883 c 50.789 -93.883 m 51.816
 -93.883 52.816 -93.883 53.785 -93.883 c 55.781 -93.883 m 56.836 -93.883
 57.836 -93.883 58.777 -93.883 c 60.773 -93.883 m 61.91 -93.883 62.918 -93.883
 63.766 -93.883 c 65.766 -93.883 m 66.391 -93.883 66.73 -93.883 66.73 -93.883
 c 66.73 -93.883 66.73 -93.156 66.73 -91.855 c 66.73 -89.859 m 66.73 -88.98
 66.73 -87.977 66.73 -86.867 c 66.73 -84.867 m 66.73 -83.922 66.73 -82.922
 66.73 -81.875 c 66.73 -79.879 m 66.73 -78.91 66.73 -77.91 66.73 -76.883
 c 66.73 -74.887 m 66.73 -73.906 66.73 -72.906 66.73 -71.891 c 66.73 -69.895
 m 66.73 -68.902 66.73 -67.906 66.73 -66.898 c 66.73 -64.902 m 66.73 -63.906
 66.73 -62.906 66.73 -61.91 c 66.73 -59.91 m 66.73 -58.906 66.73 -57.906
 66.73 -56.918 c 66.73 -54.922 m 66.73 -53.906 66.73 -52.906 66.73 -51.926
 c 66.73 -49.93 m 66.73 -48.902 66.73 -47.902 66.73 -46.934 c 66.73 -44.938
 m 66.73 -43.891 66.73 -42.887 66.73 -41.941 c 66.73 -39.945 m 66.73 -38.836
 66.73 -37.832 66.73 -36.949 c 66.73 -34.953 m 66.73 -33.664 66.73 -32.938
 66.73 -32.938 c 66.73 -32.938 66.387 -32.938 65.754 -32.938 c 63.758 -32.938
 m 62.91 -32.938 61.902 -32.938 60.762 -32.938 c 58.766 -32.938 m 57.828
 -32.938 56.824 -32.938 55.77 -32.938 c 53.773 -32.938 m 52.809 -32.938 
51.805 -32.938 50.781 -32.938 c 48.781 -32.938 m 47.801 -32.938 46.801 -32.938
 45.789 -32.938 c 43.793 -32.938 m 42.801 -32.938 41.801 -32.938 40.797 
-32.938 c 38.801 -32.938 m 37.797 -32.938 36.797 -32.938 35.805 -32.938 
c 33.809 -32.938 m 32.797 -32.938 31.797 -32.938 30.812 -32.938 c 28.816
 -32.938 m 27.789 -32.938 26.789 -32.938 25.824 -32.938 c 23.824 -32.938
 m 22.773 -32.938 21.77 -32.938 20.832 -32.938 c 18.836 -32.938 m 17.695
 -32.938 16.688 -32.938 15.84 -32.938 c 13.844 -32.938 m 13.219 -32.938 
12.875 -32.938 12.875 -32.938 c 12.875 -32.938 12.875 -33.691 12.875 -34.965
 c 12.875 -36.961 m 12.875 -37.855 12.875 -38.867 12.875 -39.957 c 12.875
 -41.953 m 12.875 -42.918 12.875 -43.922 12.875 -44.949 c 12.875 -46.945
 m 12.875 -47.941 12.875 -48.945 12.875 -49.941 c 12.875 -51.938 m 12.875
 -52.965 12.875 -53.973 12.875 -54.934 c 12.875 -56.93 m 12.875 -58.031 
12.875 -59.043 12.875 -59.922 c 12.875 -61.918 m 12.875 -62.863 12.875 -63.41
 12.875 -63.41 c S Q
1.41739 w
q 1 0 0 -1 0 0 cm
11.457 -18.766 m 11.457 -95.301 l 68.148 -95.301 l 68.148 -18.766 l S Q
0.567043 w
q 1 0 0 -1 0 0 cm
52.273 -51.082 m 52.273 -13.098 l S Q
q 1 0 0 -1 0 0 cm
55.676 -51.082 m 55.676 -13.098 l S Q
q 1 0 0 -1 0 0 cm
52.273 -13.098 m 52.273 -13.098 52.859 -12.355 53.27 -12.387 c 53.602 -12.414
 53.73 -12.852 53.977 -13.098 c 54.223 -13.34 54.348 -13.777 54.684 -13.805
 c 55.094 -13.84 55.676 -13.496 55.676 -13.098 c 55.676 -12.699 55.094 -12.355
 54.684 -12.387 c 54.348 -12.414 53.977 -13.098 53.977 -13.098 c S Q
q 1 0 0 -1 0 0 cm
51.426 -55.617 m 51.426 -60.152 l 56.527 -60.152 l 56.527 -51.082 l 51.426
 -51.082 l h
51.426 -55.617 m S Q
55.816 55.617 m 55.816 54.988 55.5 54.484 55.109 54.484 c 54.719 54.484
 54.402 54.988 54.402 55.617 c 54.402 56.242 54.719 56.75 55.109 56.75 c
 55.5 56.75 55.816 56.242 55.816 55.617 c f
1 J
q 1 0 0 -1 0 0 cm
53.977 -57.883 m 54.074 -57.867 l S Q
q 1 0 0 -1 0 0 cm
57.094 -57.316 m 56.996 -57.336 l S Q
0 J
q 1 0 0 -1 0 0 cm
53.977 -57.883 m 57.094 -57.316 l S Q
0.567044 w
1 J
q 1 0 0 -1 0 0 cm
50.859 -56.184 m 50.957 -56.172 l S Q
q 1 0 0 -1 0 0 cm
55.109 -55.617 m 55.012 -55.629 l S Q
0.567043 w
0 J
q 1 0 0 -1 0 0 cm
50.859 -56.184 m 55.109 -55.617 l S Q
q 1 0 0 -1 0 0 cm
36.969 -62.137 m 36.969 -59.789 35.062 -57.883 32.715 -57.883 c 30.367 
-57.883 28.465 -59.789 28.465 -62.137 c 28.465 -64.484 30.367 -66.387 32.715
 -66.387 c 35.062 -66.387 36.969 -64.484 36.969 -62.137 c h
36.969 -62.137 m S Q
33.566 62.137 m 33.566 61.668 33.188 61.285 32.715 61.285 c 32.246 61.285
 31.867 61.668 31.867 62.137 c 31.867 62.605 32.246 62.984 32.715 62.984
 c 33.188 62.984 33.566 62.605 33.566 62.137 c f
q 1 0 0 -1 0 0 cm
32.715 -57.883 m 53.977 -57.883 l S Q
q 1 0 0 -1 0 0 cm
28.465 -62.137 m 28.465 -77.586 l S Q
q 1 0 0 -1 0 0 cm
25.273 -81.129 m 25.629 -77.586 l 31.301 -77.586 l 32.008 -84.672 l 24.922
 -84.672 l h
25.273 -81.129 m S Q
63.379 19.922 m 59.645 18.766 l 61.801 22.023 l 61.41 20.09 l f
1 g
1.70113 w
q 1 0 0 -1 0 0 cm
48.309 -18.766 m 36.969 -27.27 70.984 -27.27 61.41 -20.09 c S Q
0 g
0.567043 w
q 1 0 0 -1 0 0 cm
48.309 -18.766 m 36.969 -27.27 70.984 -27.27 61.41 -20.09 c S Q
63.379 19.922 m 59.645 18.766 l 61.801 22.023 l 61.41 20.09 l f
63.316 13.875 m 63.316 13.547 l 62.645 13.5 l 62.816 12.047 62.41 10.75
 61.41 10.75 c 60.723 10.75 60.379 11.375 60.379 12.062 c 60.379 12.969 
61.145 13.594 61.957 13.734 c 61.473 16.234 60.645 17.016 60.082 17.016 
c 59.66 17.016 59.504 16.781 59.504 16.406 c 59.504 16.203 59.551 15.969
 59.613 15.688 c 60.02 14.328 l 60.066 14.141 60.082 14 60.082 13.875 c 
60.082 13.297 59.754 13.094 59.41 13.094 c 58.816 13.094 58.598 13.703 58.598
 14.125 c 58.754 14.125 l 58.77 13.766 58.941 13.547 59.191 13.547 c 59.301
 13.547 59.488 13.641 59.488 13.922 c 59.488 13.984 59.488 14.047 59.473
 14.125 c 59.066 15.594 l 59.004 15.875 58.988 16.094 58.988 16.297 c 58.988
 16.984 59.363 17.297 59.988 17.297 c 61.566 17.297 62.473 14.656 62.613
 13.828 c h
62.066 12.391 m 62.066 12.672 62.035 13.156 61.988 13.406 c 61.207 13.234
 60.754 12.719 60.754 11.953 c 60.754 11.375 61.051 11.047 61.363 11.047
 c 61.723 11.047 62.066 11.422 62.066 12.391 c h
62.066 12.391 m f
26.301 108.289 m 26.113 108.289 l 26.066 108.492 25.973 108.586 25.816 
108.586 c 25.723 108.586 25.582 108.555 25.426 108.492 c 25.098 108.367 
24.754 108.289 24.457 108.289 c 24.082 108.289 23.691 108.445 23.395 108.695
 c 23.082 108.977 22.926 109.352 22.926 109.82 c 22.926 110.539 23.316 111.039
 24.316 111.57 c 24.973 111.914 25.426 112.273 25.66 112.617 c 25.738 112.742
 25.785 112.93 25.785 113.148 c 25.785 113.742 25.332 114.148 24.676 114.148
 c 23.879 114.148 23.316 113.664 22.863 112.57 c 22.66 112.57 l 22.926 114.461
 l 23.129 114.461 l 23.145 114.305 23.238 114.18 23.379 114.18 c 23.473 
114.18 23.629 114.211 23.801 114.273 c 24.145 114.398 24.504 114.477 24.863
 114.477 c 25.895 114.477 26.691 113.773 26.691 112.836 c 26.691 112.102
 26.191 111.523 25.004 110.883 c 24.066 110.367 23.691 109.977 23.691 109.477
 c 23.691 108.992 24.066 108.664 24.629 108.664 c 25.035 108.664 25.41 108.82
 25.723 109.148 c 26.004 109.43 26.129 109.664 26.27 110.195 c 26.488 110.195
 l h
26.301 108.289 m f
31.59 110.32 m 30.371 110.32 l 30.371 110.445 l 30.668 110.445 30.809 110.523
 30.809 110.68 c 30.809 110.711 30.793 110.758 30.762 110.82 c 29.902 113.305
 l 28.871 111.039 l 28.809 110.914 28.777 110.789 28.777 110.695 c 28.777
 110.523 28.918 110.461 29.293 110.445 c 29.293 110.32 l 27.449 110.32 l
 27.449 110.445 l 27.684 110.477 27.84 110.57 27.902 110.727 c 28.934 112.93
 l 29.043 113.18 29.043 113.18 29.09 113.273 c 29.34 113.727 29.48 114.055
 29.48 114.195 c 29.48 114.336 29.277 114.883 29.121 115.164 c 28.996 115.383
 28.809 115.555 28.684 115.555 c 28.621 115.555 28.543 115.539 28.449 115.492
 c 28.277 115.43 28.121 115.398 27.98 115.398 c 27.762 115.398 27.59 115.555
 27.59 115.789 c 27.59 116.086 27.871 116.305 28.262 116.305 c 28.871 116.305
 29.277 115.82 29.777 114.508 c 31.152 110.852 l 31.277 110.57 31.371 110.477
 31.59 110.445 c h
31.59 110.32 m f
34.594 111.539 m 34.562 110.305 l 34.453 110.305 l 34.406 110.383 34.359
 110.398 34.312 110.398 c 34.266 110.398 34.172 110.383 34.078 110.336 c
 33.859 110.273 33.656 110.227 33.438 110.227 c 32.734 110.227 32.219 110.695
 32.219 111.336 c 32.219 111.836 32.516 112.195 33.266 112.633 c 33.797 
112.93 l 34.109 113.102 34.266 113.32 34.266 113.602 c 34.266 113.992 33.969
 114.242 33.516 114.242 c 32.891 114.242 32.578 113.898 32.375 112.992 c
 32.234 112.992 l 32.234 114.383 l 32.344 114.383 l 32.406 114.305 32.453
 114.273 32.562 114.273 c 32.656 114.273 32.766 114.305 32.969 114.352 c
 33.203 114.398 33.438 114.445 33.625 114.445 c 34.328 114.445 34.891 113.914
 34.891 113.289 c 34.891 112.852 34.672 112.555 34.141 112.227 c 33.172 
111.648 l 32.906 111.492 32.781 111.289 32.781 111.039 c 32.781 110.68 33.062
 110.43 33.469 110.43 c 33.984 110.43 34.25 110.727 34.453 111.539 c h
34.594 111.539 m f
37.527 110.32 m 36.621 110.32 l 36.621 109.273 l 36.621 109.18 36.605 109.164
 36.559 109.164 c 36.043 109.914 35.777 110.211 35.512 110.367 c 35.418 
110.43 35.355 110.492 35.355 110.539 c 35.355 110.57 35.371 110.586 35.402
 110.602 c 35.871 110.602 l 35.871 113.305 l 35.871 114.055 36.137 114.445
 36.668 114.445 c 37.105 114.445 37.449 114.227 37.746 113.758 c 37.637 
113.664 l 37.434 113.898 37.293 113.977 37.09 113.977 c 36.762 113.977 36.621
 113.727 36.621 113.164 c 36.621 110.602 l 37.527 110.602 l h
37.527 110.32 m f
41.422 112.883 m 41 113.555 40.609 113.82 40.031 113.82 c 39.531 113.82
 39.141 113.555 38.875 113.055 c 38.719 112.711 38.656 112.43 38.641 111.867
 c 41.391 111.867 l 41.328 111.289 41.234 111.023 41.016 110.742 c 40.75
 110.414 40.328 110.227 39.859 110.227 c 39.422 110.227 39 110.383 38.656
 110.695 c 38.234 111.055 37.984 111.695 37.984 112.43 c 37.984 113.664 
38.641 114.445 39.672 114.445 c 40.516 114.445 41.188 113.914 41.562 112.945
 c h
38.656 111.586 m 38.75 110.883 39.062 110.555 39.609 110.555 c 40.156 110.555
 40.359 110.805 40.484 111.586 c h
38.656 111.586 m f
41.863 114.352 m 43.863 114.352 l 43.863 114.211 l 43.395 114.211 43.254
 114.117 43.254 113.758 c 43.254 111.227 l 43.254 111.211 43.316 111.117
 43.379 111.055 c 43.613 110.852 43.988 110.695 44.301 110.695 c 44.707 
110.695 44.895 111.008 44.895 111.633 c 44.895 113.586 l 44.879 114.086 
44.785 114.195 44.285 114.211 c 44.285 114.352 l 46.301 114.352 l 46.301
 114.211 l 45.801 114.211 45.676 114.07 45.645 113.492 c 45.645 111.242 
l 45.926 110.852 46.207 110.695 46.629 110.695 c 47.145 110.695 47.301 110.93
 47.301 111.68 c 47.301 113.57 l 47.285 114.102 47.223 114.164 46.707 114.211
 c 46.707 114.352 l 48.676 114.352 l 48.676 114.211 l 48.441 114.195 l 48.16
 114.148 48.051 114.023 48.051 113.664 c 48.051 111.82 l 48.051 110.758 
47.707 110.227 47.02 110.227 c 46.488 110.227 46.035 110.461 45.551 110.977
 c 45.395 110.461 45.082 110.227 44.598 110.227 c 44.191 110.227 43.957 
110.336 43.207 110.914 c 43.207 110.242 l 43.145 110.227 l 42.676 110.398
 42.363 110.492 41.895 110.633 c 41.895 110.789 l 42.004 110.758 42.082 
110.742 42.176 110.742 c 42.41 110.742 42.488 110.883 42.488 111.32 c 42.488
 113.586 l 42.473 114.086 42.363 114.211 41.863 114.211 c h
41.863 114.352 m f
57.172 114.18 m 56.766 114.148 56.688 114.07 56.375 113.398 c 54.141 108.305
 l 53.953 108.305 l 52.094 112.711 l 51.516 114.023 51.406 114.164 50.984
 114.18 c 50.984 114.352 l 52.75 114.352 l 52.75 114.18 l 52.328 114.18 
52.141 114.07 52.141 113.82 c 52.141 113.711 52.172 113.586 52.219 113.461
 c 52.625 112.414 l 54.984 112.414 l 55.344 113.273 l 55.453 113.523 55.516
 113.758 55.516 113.883 c 55.516 114.102 55.359 114.18 54.891 114.18 c 54.891
 114.352 l 57.172 114.352 l h
52.781 112.039 m 53.812 109.586 l 54.859 112.039 l h
52.781 112.039 m f
0.74902 0.831373 0.901961 rg
124.844 65.539 m 124.844 95.301 l 181.535 95.301 l 181.535 35.773 l 124.844
 35.773 l f
0 g
q 1 0 0 -1 0 0 cm
126.262 -63.41 m 126.262 -63.41 126.262 -63.961 126.262 -64.91 c 126.262
 -66.906 m 126.262 -67.785 126.262 -68.797 126.262 -69.902 c 126.262 -71.898
 m 126.262 -72.859 126.262 -73.863 126.262 -74.895 c 126.262 -76.891 m 126.262
 -77.883 126.262 -78.887 126.262 -79.887 c 126.262 -81.883 m 126.262 -82.906
 126.262 -83.91 126.262 -84.875 c 126.262 -86.875 m 126.262 -87.965 126.262
 -88.973 126.262 -89.867 c 126.262 -91.863 m 126.262 -93.133 126.262 -93.883
 126.262 -93.883 c 126.262 -93.883 126.605 -93.883 127.238 -93.883 c 129.234
 -93.883 m 130.086 -93.883 131.094 -93.883 132.23 -93.883 c 134.227 -93.883
 m 135.168 -93.883 136.168 -93.883 137.223 -93.883 c 139.219 -93.883 m 140.188
 -93.883 141.188 -93.883 142.215 -93.883 c 144.211 -93.883 m 145.191 -93.883
 146.191 -93.883 147.207 -93.883 c 149.203 -93.883 m 150.195 -93.883 151.195
 -93.883 152.195 -93.883 c 154.191 -93.883 m 155.195 -93.883 156.195 -93.883
 157.188 -93.883 c 159.184 -93.883 m 160.195 -93.883 161.195 -93.883 162.18
 -93.883 c 164.176 -93.883 m 165.203 -93.883 166.203 -93.883 167.172 -93.883
 c 169.168 -93.883 m 170.219 -93.883 171.223 -93.883 172.164 -93.883 c 174.16
 -93.883 m 175.297 -93.883 176.305 -93.883 177.152 -93.883 c 179.148 -93.883
 m 179.777 -93.883 180.117 -93.883 180.117 -93.883 c 180.117 -93.883 180.117
 -93.156 180.117 -91.855 c 180.117 -89.859 m 180.117 -88.98 180.117 -87.977
 180.117 -86.867 c 180.117 -84.867 m 180.117 -83.922 180.117 -82.922 180.117
 -81.875 c 180.117 -79.879 m 180.117 -78.91 180.117 -77.91 180.117 -76.883
 c 180.117 -74.887 m 180.117 -73.906 180.117 -72.906 180.117 -71.891 c 180.117
 -69.895 m 180.117 -68.906 180.117 -67.906 180.117 -66.898 c 180.117 -64.902
 m 180.117 -63.906 180.117 -62.906 180.117 -61.91 c 180.117 -59.91 m 180.117
 -58.906 180.117 -57.906 180.117 -56.918 c 180.117 -54.922 m 180.117 -53.906
 180.117 -52.906 180.117 -51.926 c 180.117 -49.93 m 180.117 -48.902 180.117
 -47.902 180.117 -46.934 c 180.117 -44.938 m 180.117 -43.891 180.117 -42.887
 180.117 -41.941 c 180.117 -39.945 m 180.117 -38.836 180.117 -37.832 180.117
 -36.953 c 180.117 -34.957 m 180.117 -33.664 180.117 -32.938 180.117 -32.938
 c 180.117 -32.938 179.773 -32.938 179.141 -32.938 c 177.145 -32.938 m 176.297
 -32.938 175.289 -32.938 174.148 -32.938 c 172.152 -32.938 m 171.215 -32.938
 170.211 -32.938 169.16 -32.938 c 167.16 -32.938 m 166.195 -32.938 165.195
 -32.938 164.168 -32.938 c 162.172 -32.938 m 161.188 -32.938 160.188 -32.938
 159.176 -32.938 c 157.18 -32.938 m 156.188 -32.938 155.188 -32.938 154.184
 -32.938 c 152.188 -32.938 m 151.188 -32.938 150.188 -32.938 149.191 -32.938
 c 147.195 -32.938 m 146.184 -32.938 145.184 -32.938 144.203 -32.938 c 142.203
 -32.938 m 141.18 -32.938 140.176 -32.938 139.211 -32.938 c 137.215 -32.938
 m 136.16 -32.938 135.156 -32.938 134.219 -32.938 c 132.223 -32.938 m 131.082
 -32.938 130.074 -32.938 129.227 -32.938 c 127.23 -32.938 m 126.605 -32.938
 126.262 -32.938 126.262 -32.938 c 126.262 -32.938 126.262 -33.691 126.262
 -34.965 c 126.262 -36.961 m 126.262 -37.855 126.262 -38.867 126.262 -39.957
 c 126.262 -41.953 m 126.262 -42.918 126.262 -43.922 126.262 -44.949 c 126.262
 -46.945 m 126.262 -47.941 126.262 -48.945 126.262 -49.941 c 126.262 -51.938
 m 126.262 -52.965 126.262 -53.973 126.262 -54.93 c 126.262 -56.926 m 126.262
 -58.031 126.262 -59.043 126.262 -59.922 c 126.262 -61.918 m 126.262 -62.863
 126.262 -63.41 126.262 -63.41 c S Q
1.41739 w
q 1 0 0 -1 0 0 cm
124.844 -18.766 m 124.844 -95.301 l 181.535 -95.301 l 181.535 -18.766 l
 S Q
0.567043 w
q 1 0 0 -1 0 0 cm
124.844 -35.773 m 124.844 -35.562 l 125.078 -35.562 l 125.312 -35.574 l
 125.551 -35.59 l 125.785 -35.609 l 126.023 -35.637 l 126.258 -35.668 l 
126.496 -35.699 l 126.73 -35.738 l 126.969 -35.773 l 127.203 -35.812 l 127.441
 -35.848 l 127.676 -35.879 l 127.914 -35.91 l 128.148 -35.938 l 128.387 
-35.957 l 128.621 -35.973 l 128.859 -35.984 l 129.328 -35.984 l 129.566 
-35.973 l 129.805 -35.957 l 130.039 -35.938 l 130.273 -35.91 l 130.512 -35.879
 l 130.746 -35.848 l 130.984 -35.812 l 131.219 -35.773 l 131.457 -35.738
 l 131.691 -35.699 l 131.93 -35.668 l 132.164 -35.637 l 132.402 -35.609 
l 132.637 -35.59 l 132.871 -35.574 l 133.109 -35.562 l 133.582 -35.562 l
 133.816 -35.574 l 134.055 -35.59 l 134.289 -35.609 l 134.527 -35.637 l 
134.762 -35.668 l 135 -35.699 l 135.234 -35.738 l 135.473 -35.773 l 135.707
 -35.812 l 135.945 -35.848 l 136.414 -35.91 l 136.652 -35.938 l 136.891 
-35.957 l 137.125 -35.973 l 137.359 -35.984 l 137.836 -35.984 l 138.07 -35.973
 l 138.305 -35.957 l 138.543 -35.938 l 138.777 -35.91 l 139.016 -35.879 
l 139.25 -35.848 l 139.488 -35.812 l 139.723 -35.773 l 139.961 -35.738 l
 140.195 -35.699 l 140.434 -35.668 l 140.668 -35.637 l 140.902 -35.609 l
 141.141 -35.59 l 141.379 -35.574 l 141.613 -35.562 l 142.086 -35.562 l 
142.32 -35.574 l 142.559 -35.59 l 142.793 -35.609 l 143.031 -35.637 l 143.266
 -35.668 l 143.504 -35.699 l 143.738 -35.738 l 143.977 -35.773 l 144.211
 -35.812 l 144.449 -35.848 l 144.684 -35.879 l 144.922 -35.91 l 145.156 
-35.938 l 145.391 -35.957 l 145.629 -35.973 l 145.863 -35.984 l 146.336 
-35.984 l 146.574 -35.973 l 146.809 -35.957 l 147.047 -35.938 l 147.281 
-35.91 l 147.52 -35.879 l 147.754 -35.848 l 147.992 -35.812 l 148.227 -35.773
 l 148.465 -35.738 l 148.699 -35.699 l 148.938 -35.668 l 149.172 -35.637
 l 149.406 -35.609 l 149.645 -35.59 l 149.879 -35.574 l 150.117 -35.562 
l 150.59 -35.562 l 150.824 -35.574 l 151.062 -35.59 l 151.297 -35.609 l 
151.535 -35.637 l 151.77 -35.668 l 152.008 -35.699 l 152.242 -35.738 l 152.48
 -35.773 l 152.715 -35.812 l 152.949 -35.848 l 153.188 -35.879 l 153.422
 -35.91 l 153.66 -35.938 l 153.895 -35.957 l 154.133 -35.973 l 154.367 -35.984
 l 154.84 -35.984 l 155.078 -35.973 l 155.312 -35.957 l 155.551 -35.938 
l 155.785 -35.91 l 156.023 -35.879 l 156.258 -35.848 l 156.492 -35.812 l
 156.73 -35.773 l 156.965 -35.738 l 157.203 -35.699 l 157.438 -35.668 l 
157.676 -35.637 l 157.91 -35.609 l 158.148 -35.59 l 158.383 -35.574 l 158.621
 -35.562 l 159.094 -35.562 l 159.328 -35.574 l 159.566 -35.59 l 159.801 
-35.609 l 160.035 -35.637 l 160.512 -35.699 l 160.746 -35.738 l 160.98 -35.773
 l 161.219 -35.812 l 161.453 -35.848 l 161.691 -35.879 l 161.926 -35.91 
l 162.164 -35.938 l 162.398 -35.957 l 162.637 -35.973 l 162.871 -35.984 
l 163.344 -35.984 l 163.578 -35.973 l 163.816 -35.957 l 164.055 -35.938 
l 164.289 -35.91 l 164.523 -35.879 l 164.762 -35.848 l 164.996 -35.812 l
 165.234 -35.773 l 165.469 -35.738 l 165.66 -35.707 l 165.66 -35.773 l S Q
q 1 0 0 -1 0 0 cm
169.062 -35.773 m 169.062 -35.562 l 169.301 -35.562 l 169.535 -35.574 l
 169.77 -35.59 l 170.008 -35.609 l 170.242 -35.637 l 170.48 -35.668 l 170.715
 -35.699 l 170.953 -35.738 l 171.188 -35.773 l 171.426 -35.812 l 171.66 
-35.848 l 171.898 -35.879 l 172.133 -35.91 l 172.371 -35.938 l 172.605 -35.957
 l 172.844 -35.973 l 173.078 -35.984 l 173.551 -35.984 l 173.785 -35.973
 l 174.023 -35.957 l 174.258 -35.938 l 174.496 -35.91 l 174.73 -35.879 l
 174.969 -35.848 l 175.203 -35.812 l 175.441 -35.773 l 175.676 -35.738 l
 175.914 -35.699 l 176.148 -35.668 l 176.387 -35.637 l 176.621 -35.609 l
 176.855 -35.59 l 177.094 -35.574 l 177.328 -35.562 l 177.801 -35.562 l 
178.039 -35.574 l 178.273 -35.59 l 178.512 -35.609 l 178.746 -35.637 l 178.984
 -35.668 l 179.219 -35.699 l 179.457 -35.738 l 179.691 -35.773 l 179.93 
-35.812 l 180.164 -35.848 l 180.398 -35.879 l 180.637 -35.91 l 180.871 -35.938
 l 181.109 -35.957 l 181.344 -35.973 l 181.535 -35.98 l 181.535 -35.773 
l S Q
141.27 62.609 m 141.27 62.734 l 141.566 62.797 141.66 62.859 141.66 63.016
 c 141.66 63.156 141.613 63.359 141.504 63.609 c 140.707 65.594 l 139.941
 63.594 l 139.801 63.172 139.801 63.172 139.801 63.062 c 139.801 62.859 
139.895 62.797 140.316 62.734 c 140.316 62.609 l 138.488 62.609 l 138.488
 62.734 l 138.832 62.781 138.941 62.875 139.113 63.359 c 139.16 63.484 139.238
 63.703 139.285 63.859 c 138.473 65.641 l 137.582 63.297 l 137.551 63.219
 137.535 63.125 137.535 63.031 c 137.535 62.844 137.629 62.781 137.941 62.734
 c 137.941 62.609 l 136.332 62.609 l 136.332 62.734 l 136.535 62.75 136.613
 62.844 136.801 63.297 c 138.02 66.375 l 138.129 66.656 138.191 66.766 138.254
 66.766 c 138.301 66.766 138.363 66.656 138.473 66.422 c 139.488 64.266 
l 140.301 66.375 l 140.426 66.719 140.457 66.766 140.52 66.766 c 140.582
 66.766 140.613 66.688 140.77 66.328 c 142.004 63.219 l 142.16 62.844 142.191
 62.797 142.363 62.734 c 142.363 62.609 l h
141.27 62.609 m f
146.473 66.047 m 146.316 66.172 146.207 66.219 146.066 66.219 c 145.863
 66.219 145.801 66.094 145.801 65.703 c 145.801 63.953 l 145.801 63.484 
145.754 63.219 145.629 63.016 c 145.426 62.688 145.035 62.516 144.52 62.516
 c 143.676 62.516 143.004 62.953 143.004 63.516 c 143.004 63.719 143.176
 63.906 143.395 63.906 c 143.613 63.906 143.801 63.719 143.801 63.531 c 
143.801 63.5 143.785 63.453 143.785 63.391 c 143.754 63.297 143.754 63.234
 143.754 63.172 c 143.754 62.922 144.035 62.734 144.395 62.734 c 144.832
 62.734 145.082 62.984 145.082 63.469 c 145.082 64.016 l 143.707 64.562 
143.551 64.656 143.16 64.984 c 142.957 65.172 142.832 65.469 142.832 65.766
 c 142.832 66.328 143.223 66.734 143.785 66.734 c 144.176 66.734 144.535
 66.547 145.082 66.078 c 145.129 66.547 145.301 66.734 145.66 66.734 c 145.973
 66.734 146.16 66.625 146.473 66.281 c h
145.082 65.531 m 145.082 65.812 145.035 65.906 144.848 66.016 c 144.613
 66.141 144.379 66.203 144.191 66.203 c 143.879 66.203 143.629 65.906 143.629
 65.516 c 143.629 65.484 l 143.629 64.953 144.035 64.609 145.082 64.234 
c h
145.082 65.531 m f
148.746 62.609 m 147.84 62.609 l 147.84 61.562 l 147.84 61.469 147.824 
61.453 147.777 61.453 c 147.262 62.203 146.996 62.5 146.73 62.656 c 146.637
 62.719 146.574 62.781 146.574 62.828 c 146.574 62.859 146.59 62.875 146.621
 62.891 c 147.09 62.891 l 147.09 65.594 l 147.09 66.344 147.355 66.734 147.887
 66.734 c 148.324 66.734 148.668 66.516 148.965 66.047 c 148.855 65.953 
l 148.652 66.188 148.512 66.266 148.309 66.266 c 147.98 66.266 147.84 66.016
 147.84 65.453 c 147.84 62.891 l 148.746 62.891 l h
148.746 62.609 m f
152.641 65.172 m 152.219 65.844 151.828 66.109 151.25 66.109 c 150.75 66.109
 150.359 65.844 150.094 65.344 c 149.938 65 149.875 64.719 149.859 64.156
 c 152.609 64.156 l 152.547 63.578 152.453 63.312 152.234 63.031 c 151.969
 62.703 151.547 62.516 151.078 62.516 c 150.641 62.516 150.219 62.672 149.875
 62.984 c 149.453 63.344 149.203 63.984 149.203 64.719 c 149.203 65.953 
149.859 66.734 150.891 66.734 c 151.734 66.734 152.406 66.203 152.781 65.234
 c h
149.875 63.875 m 149.969 63.172 150.281 62.844 150.828 62.844 c 151.375
 62.844 151.578 63.094 151.703 63.875 c h
149.875 63.875 m f
152.992 66.641 m 155.148 66.641 l 155.148 66.5 l 154.539 66.484 154.398
 66.359 154.383 65.828 c 154.383 63.812 l 154.383 63.531 154.758 63.078 
155.008 63.078 c 155.055 63.078 155.148 63.125 155.242 63.219 c 155.383 
63.344 155.477 63.391 155.602 63.391 c 155.82 63.391 155.945 63.234 155.945
 62.984 c 155.945 62.688 155.758 62.516 155.461 62.516 c 155.086 62.516 
154.836 62.719 154.383 63.359 c 154.383 62.531 l 154.336 62.516 l 153.836
 62.719 153.508 62.844 153.008 63 c 153.008 63.141 l 153.133 63.109 153.211
 63.109 153.32 63.109 c 153.539 63.109 153.633 63.25 153.633 63.641 c 153.633
 65.891 l 153.602 66.359 153.555 66.406 152.992 66.5 c h
152.992 66.641 m f
1 g
165.66 57.602 m 165.66 79.426 l 169.062 79.426 l 169.062 35.773 l 165.66
 35.773 l f
0 g
q 1 0 0 -1 0 0 cm
165.66 -79.426 m 165.66 -13.098 l S Q
q 1 0 0 -1 0 0 cm
169.062 -79.426 m 169.062 -13.098 l S Q
q 1 0 0 -1 0 0 cm
165.66 -13.098 m 165.66 -13.098 166.246 -12.355 166.652 -12.387 c 166.988
 -12.414 167.117 -12.852 167.363 -13.098 c 167.605 -13.34 167.734 -13.777
 168.07 -13.805 c 168.48 -13.84 169.062 -13.496 169.062 -13.098 c 169.062
 -12.699 168.48 -12.355 168.07 -12.387 c 167.734 -12.414 167.363 -13.098
 167.363 -13.098 c S Q
1 g
175.867 81.129 m 177.371 82.211 177.371 85.715 175.867 86.797 c 171.109
 90.227 163.613 77.699 158.859 81.129 c 157.355 82.211 157.355 85.715 158.859
 86.797 c 163.613 90.227 171.109 77.699 175.867 81.129 c f
0 g
q 1 0 0 -1 0 0 cm
175.867 -81.129 m 177.371 -82.211 177.371 -85.715 175.867 -86.797 c 171.109
 -90.227 163.613 -77.699 158.859 -81.129 c 157.355 -82.211 157.355 -85.715
 158.859 -86.797 c 163.613 -90.227 171.109 -77.699 175.867 -81.129 c h
175.867 -81.129 m S Q
1 g
164.812 83.965 m 164.812 88.5 l 169.914 88.5 l 169.914 79.426 l 164.812
 79.426 l f
0 g
q 1 0 0 -1 0 0 cm
164.812 -83.965 m 164.812 -88.5 l 169.914 -88.5 l 169.914 -79.426 l 164.812
 -79.426 l h
164.812 -83.965 m S Q
176.766 19.922 m 173.031 18.766 l 175.188 22.023 l 174.797 20.09 l f
1 g
1.70113 w
q 1 0 0 -1 0 0 cm
161.691 -18.766 m 150.355 -27.27 184.371 -27.27 174.797 -20.09 c S Q
0 g
0.567043 w
q 1 0 0 -1 0 0 cm
161.691 -18.766 m 150.355 -27.27 184.371 -27.27 174.797 -20.09 c S Q
176.766 19.922 m 173.031 18.766 l 175.188 22.023 l 174.797 20.09 l f
176.699 13.875 m 176.699 13.547 l 176.027 13.5 l 176.199 12.047 175.793
 10.75 174.793 10.75 c 174.105 10.75 173.762 11.375 173.762 12.062 c 173.762
 12.969 174.527 13.594 175.34 13.734 c 174.855 16.234 174.027 17.016 173.465
 17.016 c 173.043 17.016 172.887 16.781 172.887 16.406 c 172.887 16.203 
172.934 15.969 172.996 15.688 c 173.402 14.328 l 173.449 14.141 173.465 
14 173.465 13.875 c 173.465 13.297 173.137 13.094 172.793 13.094 c 172.199
 13.094 171.98 13.703 171.98 14.125 c 172.137 14.125 l 172.152 13.766 172.324
 13.547 172.574 13.547 c 172.684 13.547 172.871 13.641 172.871 13.922 c 
172.871 13.984 172.871 14.047 172.855 14.125 c 172.449 15.594 l 172.387 
15.875 172.371 16.094 172.371 16.297 c 172.371 16.984 172.746 17.297 173.371
 17.297 c 174.949 17.297 175.855 14.656 175.996 13.828 c h
175.449 12.391 m 175.449 12.672 175.418 13.156 175.371 13.406 c 174.59 
13.234 174.137 12.719 174.137 11.953 c 174.137 11.375 174.434 11.047 174.746
 11.047 c 175.105 11.047 175.449 11.422 175.449 12.391 c h
175.449 12.391 m f
139.926 108.289 m 139.738 108.289 l 139.691 108.492 139.598 108.586 139.441
 108.586 c 139.348 108.586 139.207 108.555 139.051 108.492 c 138.723 108.367
 138.379 108.289 138.082 108.289 c 137.707 108.289 137.316 108.445 137.02
 108.695 c 136.707 108.977 136.551 109.352 136.551 109.82 c 136.551 110.539
 136.941 111.039 137.941 111.57 c 138.598 111.914 139.051 112.273 139.285
 112.617 c 139.363 112.742 139.41 112.93 139.41 113.148 c 139.41 113.742
 138.957 114.148 138.301 114.148 c 137.504 114.148 136.941 113.664 136.488
 112.57 c 136.285 112.57 l 136.551 114.461 l 136.754 114.461 l 136.77 114.305
 136.863 114.18 137.004 114.18 c 137.098 114.18 137.254 114.211 137.426 
114.273 c 137.77 114.398 138.129 114.477 138.488 114.477 c 139.52 114.477
 140.316 113.773 140.316 112.836 c 140.316 112.102 139.816 111.523 138.629
 110.883 c 137.691 110.367 137.316 109.977 137.316 109.477 c 137.316 108.992
 137.691 108.664 138.254 108.664 c 138.66 108.664 139.035 108.82 139.348
 109.148 c 139.629 109.43 139.754 109.664 139.895 110.195 c 140.113 110.195
 l h
139.926 108.289 m f
145.215 110.32 m 143.996 110.32 l 143.996 110.445 l 144.293 110.445 144.434
 110.523 144.434 110.68 c 144.434 110.711 144.418 110.758 144.387 110.82
 c 143.527 113.305 l 142.496 111.039 l 142.434 110.914 142.402 110.789 142.402
 110.695 c 142.402 110.523 142.543 110.461 142.918 110.445 c 142.918 110.32
 l 141.074 110.32 l 141.074 110.445 l 141.309 110.477 141.465 110.57 141.527
 110.727 c 142.559 112.93 l 142.668 113.18 142.668 113.18 142.715 113.273
 c 142.965 113.727 143.105 114.055 143.105 114.195 c 143.105 114.336 142.902
 114.883 142.746 115.164 c 142.621 115.383 142.434 115.555 142.309 115.555
 c 142.246 115.555 142.168 115.539 142.074 115.492 c 141.902 115.43 141.746
 115.398 141.605 115.398 c 141.387 115.398 141.215 115.555 141.215 115.789
 c 141.215 116.086 141.496 116.305 141.887 116.305 c 142.496 116.305 142.902
 115.82 143.402 114.508 c 144.777 110.852 l 144.902 110.57 144.996 110.477
 145.215 110.445 c h
145.215 110.32 m f
148.219 111.539 m 148.188 110.305 l 148.078 110.305 l 148.031 110.383 147.984
 110.398 147.938 110.398 c 147.891 110.398 147.797 110.383 147.703 110.336
 c 147.484 110.273 147.281 110.227 147.062 110.227 c 146.359 110.227 145.844
 110.695 145.844 111.336 c 145.844 111.836 146.141 112.195 146.891 112.633
 c 147.422 112.93 l 147.734 113.102 147.891 113.32 147.891 113.602 c 147.891
 113.992 147.594 114.242 147.141 114.242 c 146.516 114.242 146.203 113.898
 146 112.992 c 145.859 112.992 l 145.859 114.383 l 145.969 114.383 l 146.031
 114.305 146.078 114.273 146.188 114.273 c 146.281 114.273 146.391 114.305
 146.594 114.352 c 146.828 114.398 147.062 114.445 147.25 114.445 c 147.953
 114.445 148.516 113.914 148.516 113.289 c 148.516 112.852 148.297 112.555
 147.766 112.227 c 146.797 111.648 l 146.531 111.492 146.406 111.289 146.406
 111.039 c 146.406 110.68 146.688 110.43 147.094 110.43 c 147.609 110.43
 147.875 110.727 148.078 111.539 c h
148.219 111.539 m f
151.152 110.32 m 150.246 110.32 l 150.246 109.273 l 150.246 109.18 150.23
 109.164 150.184 109.164 c 149.668 109.914 149.402 110.211 149.137 110.367
 c 149.043 110.43 148.98 110.492 148.98 110.539 c 148.98 110.57 148.996 
110.586 149.027 110.602 c 149.496 110.602 l 149.496 113.305 l 149.496 114.055
 149.762 114.445 150.293 114.445 c 150.73 114.445 151.074 114.227 151.371
 113.758 c 151.262 113.664 l 151.059 113.898 150.918 113.977 150.715 113.977
 c 150.387 113.977 150.246 113.727 150.246 113.164 c 150.246 110.602 l 151.152
 110.602 l h
151.152 110.32 m f
155.047 112.883 m 154.625 113.555 154.234 113.82 153.656 113.82 c 153.156
 113.82 152.766 113.555 152.5 113.055 c 152.344 112.711 152.281 112.43 152.266
 111.867 c 155.016 111.867 l 154.953 111.289 154.859 111.023 154.641 110.742
 c 154.375 110.414 153.953 110.227 153.484 110.227 c 153.047 110.227 152.625
 110.383 152.281 110.695 c 151.859 111.055 151.609 111.695 151.609 112.43
 c 151.609 113.664 152.266 114.445 153.297 114.445 c 154.141 114.445 154.812
 113.914 155.188 112.945 c h
152.281 111.586 m 152.375 110.883 152.688 110.555 153.234 110.555 c 153.781
 110.555 153.984 110.805 154.109 111.586 c h
152.281 111.586 m f
155.492 114.352 m 157.492 114.352 l 157.492 114.211 l 157.023 114.211 156.883
 114.117 156.883 113.758 c 156.883 111.227 l 156.883 111.211 156.945 111.117
 157.008 111.055 c 157.242 110.852 157.617 110.695 157.93 110.695 c 158.336
 110.695 158.523 111.008 158.523 111.633 c 158.523 113.586 l 158.508 114.086
 158.414 114.195 157.914 114.211 c 157.914 114.352 l 159.93 114.352 l 159.93
 114.211 l 159.43 114.211 159.305 114.07 159.273 113.492 c 159.273 111.242
 l 159.555 110.852 159.836 110.695 160.258 110.695 c 160.773 110.695 160.93
 110.93 160.93 111.68 c 160.93 113.57 l 160.914 114.102 160.852 114.164 
160.336 114.211 c 160.336 114.352 l 162.305 114.352 l 162.305 114.211 l 
162.07 114.195 l 161.789 114.148 161.68 114.023 161.68 113.664 c 161.68 
111.82 l 161.68 110.758 161.336 110.227 160.648 110.227 c 160.117 110.227
 159.664 110.461 159.18 110.977 c 159.023 110.461 158.711 110.227 158.227
 110.227 c 157.82 110.227 157.586 110.336 156.836 110.914 c 156.836 110.242
 l 156.773 110.227 l 156.305 110.398 155.992 110.492 155.523 110.633 c 155.523
 110.789 l 155.633 110.758 155.711 110.742 155.805 110.742 c 156.039 110.742
 156.117 110.883 156.117 111.32 c 156.117 113.586 l 156.102 114.086 155.992
 114.211 155.492 114.211 c h
155.492 114.352 m f
164.625 108.586 m 165.375 108.633 165.469 108.727 165.484 109.398 c 165.484
 113.367 l 165.469 114.039 165.359 114.148 164.625 114.18 c 164.625 114.352
 l 167.609 114.352 l 168.312 114.352 168.953 114.164 169.281 113.852 c 169.609
 113.57 169.781 113.164 169.781 112.742 c 169.781 112.336 169.641 111.977
 169.344 111.727 c 169.078 111.477 168.844 111.367 168.25 111.227 c 168.719
 111.117 168.906 111.023 169.125 110.836 c 169.344 110.633 169.484 110.32
 169.484 109.945 c 169.484 108.93 168.672 108.414 167.125 108.414 c 164.625
 108.414 l h
166.391 111.43 m 167.266 111.43 167.672 111.477 168 111.617 c 168.516 111.82
 168.75 112.195 168.75 112.742 c 168.75 113.227 168.562 113.586 168.203 
113.789 c 167.922 113.945 167.547 114.023 166.969 114.023 c 166.516 114.023
 166.391 113.945 166.391 113.648 c h
166.391 111.07 m 166.391 109.008 l 166.406 108.82 166.438 108.758 166.594
 108.758 c 166.984 108.742 l 167.984 108.727 168.562 109.18 168.562 109.977
 c 168.562 110.68 168.109 111.055 167.25 111.07 c h
166.391 111.07 m f
Q Q
showpage
%%Trailer
end
%%EOF
