%!PS-Adobe-3.0 EPSF-3.0
%%Creator: cairo 1.16.0 (https://cairographics.org)
%%CreationDate: Tue Apr 20 21:16:21 2021
%%Pages: 1
%%DocumentData: Clean7Bit
%%LanguageLevel: 2
%%BoundingBox: 1 1 180 112
%%EndComments
%%BeginProlog
50 dict begin
/q { gsave } bind def
/Q { grestore } bind def
/cm { 6 array astore concat } bind def
/w { setlinewidth } bind def
/J { setlinecap } bind def
/j { setlinejoin } bind def
/M { setmiterlimit } bind def
/d { setdash } bind def
/m { moveto } bind def
/l { lineto } bind def
/c { curveto } bind def
/h { closepath } bind def
/re { exch dup neg 3 1 roll 5 3 roll moveto 0 rlineto
      0 exch rlineto 0 rlineto closepath } bind def
/S { stroke } bind def
/f { fill } bind def
/f* { eofill } bind def
/n { newpath } bind def
/W { clip } bind def
/W* { eoclip } bind def
/BT { } bind def
/ET { } bind def
/BDC { mark 3 1 roll /BDC pdfmark } bind def
/EMC { mark /EMC pdfmark } bind def
/cairo_store_point { /cairo_point_y exch def /cairo_point_x exch def } def
/Tj { show currentpoint cairo_store_point } bind def
/TJ {
  {
    dup
    type /stringtype eq
    { show } { -0.001 mul 0 cairo_font_matrix dtransform rmoveto } ifelse
  } forall
  currentpoint cairo_store_point
} bind def
/cairo_selectfont { cairo_font_matrix aload pop pop pop 0 0 6 array astore
    cairo_font exch selectfont cairo_point_x cairo_point_y moveto } bind def
/Tf { pop /cairo_font exch def /cairo_font_matrix where
      { pop cairo_selectfont } if } bind def
/Td { matrix translate cairo_font_matrix matrix concatmatrix dup
      /cairo_font_matrix exch def dup 4 get exch 5 get cairo_store_point
      /cairo_font where { pop cairo_selectfont } if } bind def
/Tm { 2 copy 8 2 roll 6 array astore /cairo_font_matrix exch def
      cairo_store_point /cairo_font where { pop cairo_selectfont } if } bind def
/g { setgray } bind def
/rg { setrgbcolor } bind def
/d1 { setcachedevice } bind def
/cairo_data_source {
  CairoDataIndex CairoData length lt
    { CairoData CairoDataIndex get /CairoDataIndex CairoDataIndex 1 add def }
    { () } ifelse
} def
/cairo_flush_ascii85_file { cairo_ascii85_file status { cairo_ascii85_file flushfile } if } def
/cairo_image { image cairo_flush_ascii85_file } def
/cairo_imagemask { imagemask cairo_flush_ascii85_file } def
%%EndProlog
%%BeginSetup
%%EndSetup
%%Page: 1 1
%%BeginPageSetup
%%PageBoundingBox: 1 1 180 112
%%EndPageSetup
q 1 1 179 111 rectclip
1 0 0 -1 0 113 cm q
Q q
1.957 58.781 m 69.02 58.781 l 69.02 66.879 l 1.957 66.879 l h
1.957 66.879 m 69.02 66.879 l 69.02 110.602 l 1.957 110.602 l h
1.957 66.879 m W n
q
1 58 69 53 re W n
  q
0 g
0.510386 w
2 J
0 j
[] 0.0 d
10 M q 1 0 0 -1 0 0 cm
61.496 -169.695 m -41.543 -66.656 l S Q
  Q
Q
Q q
1.957 56.781 m 72.02 56.781 l 72.02 66.879 l 1.957 66.879 l h
1.957 66.879 m 72.02 66.879 l 72.02 110.602 l 1.957 110.602 l h
1.957 66.879 m W n
q
1 56 72 55 re W n
  q
0 g
0.510386 w
2 J
0 j
[] 0.0 d
10 M q 1 0 0 -1 0 0 cm
63.895 -167.297 m -39.145 -64.258 l S Q
  Q
Q
Q q
1.957 53.781 m 74.02 53.781 l 74.02 66.879 l 1.957 66.879 l h
1.957 66.879 m 74.02 66.879 l 74.02 110.602 l 1.957 110.602 l h
1.957 66.879 m W n
q
1 53 74 58 re W n
  q
0 g
0.510386 w
2 J
0 j
[] 0.0 d
10 M q 1 0 0 -1 0 0 cm
66.293 -164.895 m -36.746 -61.855 l S Q
  Q
Q
Q q
1.957 51.781 m 76.02 51.781 l 76.02 66.879 l 1.957 66.879 l h
1.957 66.879 m 76.02 66.879 l 76.02 110.602 l 1.957 110.602 l h
1.957 66.879 m W n
q
1 51 76 60 re W n
  q
0 g
0.510386 w
2 J
0 j
[] 0.0 d
10 M q 1 0 0 -1 0 0 cm
68.695 -162.496 m -34.344 -59.457 l S Q
  Q
Q
Q q
1.957 49.781 m 79.02 49.781 l 79.02 66.879 l 1.957 66.879 l h
1.957 66.879 m 79.02 66.879 l 79.02 110.602 l 1.957 110.602 l h
1.957 66.879 m W n
q
1 49 79 62 re W n
  q
0 g
0.510386 w
2 J
0 j
[] 0.0 d
10 M q 1 0 0 -1 0 0 cm
71.094 -160.098 m -31.945 -57.055 l S Q
  Q
Q
Q q
1.957 46.781 m 81.02 46.781 l 81.02 66.879 l 1.957 66.879 l h
1.957 66.879 m 81.02 66.879 l 81.02 110.602 l 1.957 110.602 l h
1.957 66.879 m W n
q
1 46 81 65 re W n
  q
0 g
0.510386 w
2 J
0 j
[] 0.0 d
10 M q 1 0 0 -1 0 0 cm
73.496 -157.695 m -29.543 -54.656 l S Q
  Q
Q
Q q
1.957 44.781 m 84.02 44.781 l 84.02 66.879 l 1.957 66.879 l h
1.957 66.879 m 84.02 66.879 l 84.02 110.602 l 1.957 110.602 l h
1.957 66.879 m W n
q
1 44 84 67 re W n
  q
0 g
0.510386 w
2 J
0 j
[] 0.0 d
10 M q 1 0 0 -1 0 0 cm
75.895 -155.297 m -27.145 -52.258 l S Q
  Q
Q
Q q
1.957 41.781 m 86.02 41.781 l 86.02 66.879 l 1.957 66.879 l h
1.957 66.879 m 86.02 66.879 l 86.02 110.602 l 1.957 110.602 l h
1.957 66.879 m W n
q
1 41 86 70 re W n
  q
0 g
0.510386 w
2 J
0 j
[] 0.0 d
10 M q 1 0 0 -1 0 0 cm
78.293 -152.895 m -24.746 -49.855 l S Q
  Q
Q
Q q
1.957 39.781 m 88.02 39.781 l 88.02 66.879 l 1.957 66.879 l h
1.957 66.879 m 88.02 66.879 l 88.02 110.602 l 1.957 110.602 l h
1.957 66.879 m W n
q
1 39 88 72 re W n
  q
0 g
0.510386 w
2 J
0 j
[] 0.0 d
10 M q 1 0 0 -1 0 0 cm
80.695 -150.496 m -22.344 -47.457 l S Q
  Q
Q
Q q
1.957 37.781 m 91.02 37.781 l 91.02 66.879 l 1.957 66.879 l h
1.957 66.879 m 91.02 66.879 l 91.02 110.602 l 1.957 110.602 l h
1.957 66.879 m W n
q
1 37 91 74 re W n
  q
0 g
0.510386 w
2 J
0 j
[] 0.0 d
10 M q 1 0 0 -1 0 0 cm
83.094 -148.098 m -19.945 -45.055 l S Q
  Q
Q
Q q
1.957 34.781 m 93.02 34.781 l 93.02 66.879 l 1.957 66.879 l h
1.957 66.879 m 93.02 66.879 l 93.02 110.602 l 1.957 110.602 l h
1.957 66.879 m W n
q
1 34 93 77 re W n
  q
0 g
0.510386 w
2 J
0 j
[] 0.0 d
10 M q 1 0 0 -1 0 0 cm
85.496 -145.695 m -17.543 -42.656 l S Q
  Q
Q
Q q
1.957 32.781 m 96.02 32.781 l 96.02 66.879 l 1.957 66.879 l h
1.957 66.879 m 96.02 66.879 l 96.02 110.602 l 1.957 110.602 l h
1.957 66.879 m W n
q
1 32 96 79 re W n
  q
0 g
0.510386 w
2 J
0 j
[] 0.0 d
10 M q 1 0 0 -1 0 0 cm
87.895 -143.297 m -15.145 -40.258 l S Q
  Q
Q
Q q
1.957 29.781 m 98.02 29.781 l 98.02 66.879 l 1.957 66.879 l h
1.957 66.879 m 98.02 66.879 l 98.02 110.602 l 1.957 110.602 l h
1.957 66.879 m W n
q
1 29 98 82 re W n
  q
0 g
0.510386 w
2 J
0 j
[] 0.0 d
10 M q 1 0 0 -1 0 0 cm
90.293 -140.895 m -12.746 -37.855 l S Q
  Q
Q
Q q
1.957 27.781 m 100.02 27.781 l 100.02 66.879 l 1.957 66.879 l h
1.957 66.879 m 100.02 66.879 l 100.02 110.602 l 1.957 110.602 l h
1.957 66.879 m W n
q
1 27 100 84 re W n
  q
0 g
0.510386 w
2 J
0 j
[] 0.0 d
10 M q 1 0 0 -1 0 0 cm
92.695 -138.496 m -10.344 -35.457 l S Q
  Q
Q
Q q
1.957 25.781 m 103.02 25.781 l 103.02 66.879 l 1.957 66.879 l h
1.957 66.879 m 103.02 66.879 l 103.02 110.602 l 1.957 110.602 l h
1.957 66.879 m W n
q
1 25 103 86 re W n
  q
0 g
0.510386 w
2 J
0 j
[] 0.0 d
10 M q 1 0 0 -1 0 0 cm
95.094 -136.098 m -7.945 -33.055 l S Q
  Q
Q
Q q
1.957 23.152 m 105.02 23.152 l 105.02 66.879 l 1.957 66.879 l h
1.957 66.879 m 105.02 66.879 l 105.02 110.602 l 1.957 110.602 l h
1.957 66.879 m W n
q
1 23 105 88 re W n
  q
0 g
0.510386 w
2 J
0 j
[] 0.0 d
10 M q 1 0 0 -1 0 0 cm
97.496 -133.695 m -5.543 -30.656 l S Q
  Q
Q
Q q
1.957 23.152 m 108.02 23.152 l 108.02 66.879 l 1.957 66.879 l h
1.957 66.879 m 108.02 66.879 l 108.02 110.602 l 1.957 110.602 l h
1.957 66.879 m W n
q
1 23 108 88 re W n
  q
0 g
0.510386 w
2 J
0 j
[] 0.0 d
10 M q 1 0 0 -1 0 0 cm
99.895 -131.297 m -3.145 -28.258 l S Q
  Q
Q
Q q
1.957 23.152 m 110.02 23.152 l 110.02 66.879 l 1.957 66.879 l h
1.957 66.879 m 110.02 66.879 l 110.02 110.602 l 1.957 110.602 l h
1.957 66.879 m W n
q
1 23 110 88 re W n
  q
0 g
0.510386 w
2 J
0 j
[] 0.0 d
10 M q 1 0 0 -1 0 0 cm
102.293 -128.895 m -0.746 -25.855 l S Q
  Q
Q
Q q
1.957 23.152 m 112.02 23.152 l 112.02 66.879 l 1.957 66.879 l h
1.957 66.879 m 112.02 66.879 l 112.02 110.602 l 1.957 110.602 l h
1.957 66.879 m W n
q
1 23 112 88 re W n
  q
0 g
0.510386 w
2 J
0 j
[] 0.0 d
10 M q 1 0 0 -1 0 0 cm
104.695 -126.496 m 1.656 -23.457 l S Q
  Q
Q
Q q
1.957 23.152 m 115.02 23.152 l 115.02 66.879 l 1.957 66.879 l h
1.957 66.879 m 115.02 66.879 l 115.02 110.602 l 1.957 110.602 l h
1.957 66.879 m W n
q
1 23 115 88 re W n
  q
0 g
0.510386 w
2 J
0 j
[] 0.0 d
10 M q 1 0 0 -1 0 0 cm
107.094 -124.098 m 4.055 -21.055 l S Q
  Q
Q
Q q
1.957 23.152 m 117.02 23.152 l 117.02 66.879 l 1.957 66.879 l h
1.957 66.879 m 117.02 66.879 l 117.02 110.602 l 1.957 110.602 l h
1.957 66.879 m W n
q
1 23 117 88 re W n
  q
0 g
0.510386 w
2 J
0 j
[] 0.0 d
10 M q 1 0 0 -1 0 0 cm
109.496 -121.695 m 6.457 -18.656 l S Q
  Q
Q
Q q
1.957 23.152 m 120.02 23.152 l 120.02 66.879 l 1.957 66.879 l h
1.957 66.879 m 120.02 66.879 l 120.02 110.602 l 1.957 110.602 l h
1.957 66.879 m W n
q
1 23 120 88 re W n
  q
0 g
0.510386 w
2 J
0 j
[] 0.0 d
10 M q 1 0 0 -1 0 0 cm
111.895 -119.297 m 8.855 -16.258 l S Q
  Q
Q
Q q
4.02 23.152 m 120.586 23.152 l 120.586 66.879 l 4.02 66.879 l h
4.02 66.879 m 120.586 66.879 l 120.586 110.602 l 4.02 110.602 l h
4.02 66.879 m W n
q
4 23 117 88 re W n
  q
0 g
0.510386 w
2 J
0 j
[] 0.0 d
10 M q 1 0 0 -1 0 0 cm
114.293 -116.895 m 11.254 -13.855 l S Q
  Q
Q
Q q
6.02 23.152 m 120.586 23.152 l 120.586 66.879 l 6.02 66.879 l h
6.02 66.879 m 120.586 66.879 l 120.586 110.602 l 6.02 110.602 l h
6.02 66.879 m W n
q
6 23 115 88 re W n
  q
0 g
0.510386 w
2 J
0 j
[] 0.0 d
10 M q 1 0 0 -1 0 0 cm
116.695 -114.496 m 13.656 -11.457 l S Q
  Q
Q
Q q
8.02 23.152 m 120.586 23.152 l 120.586 66.879 l 8.02 66.879 l h
8.02 66.879 m 120.586 66.879 l 120.586 110.602 l 8.02 110.602 l h
8.02 66.879 m W n
q
8 23 113 88 re W n
  q
0 g
0.510386 w
2 J
0 j
[] 0.0 d
10 M q 1 0 0 -1 0 0 cm
119.094 -112.098 m 16.055 -9.055 l S Q
  Q
Q
Q q
11.02 23.152 m 120.586 23.152 l 120.586 66.879 l 11.02 66.879 l h
11.02 66.879 m 120.586 66.879 l 120.586 110.602 l 11.02 110.602 l h
11.02 66.879 m W n
q
11 23 110 88 re W n
  q
0 g
0.510386 w
2 J
0 j
[] 0.0 d
10 M q 1 0 0 -1 0 0 cm
121.496 -109.695 m 18.457 -6.656 l S Q
  Q
Q
Q q
13.02 23.152 m 120.586 23.152 l 120.586 66.879 l 13.02 66.879 l h
13.02 66.879 m 120.586 66.879 l 120.586 110.602 l 13.02 110.602 l h
13.02 66.879 m W n
q
13 23 108 88 re W n
  q
0 g
0.510386 w
2 J
0 j
[] 0.0 d
10 M q 1 0 0 -1 0 0 cm
123.895 -107.297 m 20.855 -4.258 l S Q
  Q
Q
Q q
16.02 23.152 m 120.586 23.152 l 120.586 66.879 l 16.02 66.879 l h
16.02 66.879 m 120.586 66.879 l 120.586 110.602 l 16.02 110.602 l h
16.02 66.879 m W n
q
16 23 105 88 re W n
  q
0 g
0.510386 w
2 J
0 j
[] 0.0 d
10 M q 1 0 0 -1 0 0 cm
126.293 -104.895 m 23.254 -1.855 l S Q
  Q
Q
Q q
18.02 23.152 m 120.586 23.152 l 120.586 66.879 l 18.02 66.879 l h
18.02 66.879 m 120.586 66.879 l 120.586 109.781 l 18.02 109.781 l h
18.02 66.879 m W n
q
18 23 103 87 re W n
  q
0 g
0.510386 w
2 J
0 j
[] 0.0 d
10 M q 1 0 0 -1 0 0 cm
128.695 -102.496 m 25.656 0.543 l S Q
  Q
Q
Q q
20.02 23.152 m 120.586 23.152 l 120.586 66.879 l 20.02 66.879 l h
20.02 66.879 m 120.586 66.879 l 120.586 107.781 l 20.02 107.781 l h
20.02 66.879 m W n
q
20 23 101 85 re W n
  q
0 g
0.510386 w
2 J
0 j
[] 0.0 d
10 M q 1 0 0 -1 0 0 cm
131.094 -100.098 m 28.055 2.945 l S Q
  Q
Q
Q q
23.02 23.152 m 120.586 23.152 l 120.586 66.879 l 23.02 66.879 l h
23.02 66.879 m 120.586 66.879 l 120.586 105.781 l 23.02 105.781 l h
23.02 66.879 m W n
q
23 23 98 83 re W n
  q
0 g
0.510386 w
2 J
0 j
[] 0.0 d
10 M q 1 0 0 -1 0 0 cm
133.496 -97.695 m 30.457 5.344 l S Q
  Q
Q
Q q
25.02 23.152 m 120.586 23.152 l 120.586 66.879 l 25.02 66.879 l h
25.02 66.879 m 120.586 66.879 l 120.586 102.781 l 25.02 102.781 l h
25.02 66.879 m W n
q
25 23 96 80 re W n
  q
0 g
0.510386 w
2 J
0 j
[] 0.0 d
10 M q 1 0 0 -1 0 0 cm
135.895 -95.297 m 32.855 7.742 l S Q
  Q
Q
Q q
28.02 23.152 m 120.586 23.152 l 120.586 66.879 l 28.02 66.879 l h
28.02 66.879 m 120.586 66.879 l 120.586 100.781 l 28.02 100.781 l h
28.02 66.879 m W n
q
28 23 93 78 re W n
  q
0 g
0.510386 w
2 J
0 j
[] 0.0 d
10 M q 1 0 0 -1 0 0 cm
138.293 -92.895 m 35.254 10.145 l S Q
  Q
Q
Q q
30.02 23.152 m 120.586 23.152 l 120.586 66.879 l 30.02 66.879 l h
30.02 66.879 m 120.586 66.879 l 120.586 97.781 l 30.02 97.781 l h
30.02 66.879 m W n
q
30 23 91 75 re W n
  q
0 g
0.510386 w
2 J
0 j
[] 0.0 d
10 M q 1 0 0 -1 0 0 cm
140.695 -90.496 m 37.656 12.543 l S Q
  Q
Q
Q q
32.02 23.152 m 120.586 23.152 l 120.586 66.879 l 32.02 66.879 l h
32.02 66.879 m 120.586 66.879 l 120.586 95.781 l 32.02 95.781 l h
32.02 66.879 m W n
q
32 23 89 73 re W n
  q
0 g
0.510386 w
2 J
0 j
[] 0.0 d
10 M q 1 0 0 -1 0 0 cm
143.094 -88.098 m 40.055 14.945 l S Q
  Q
Q
Q q
35.02 23.152 m 120.586 23.152 l 120.586 66.879 l 35.02 66.879 l h
35.02 66.879 m 120.586 66.879 l 120.586 93.781 l 35.02 93.781 l h
35.02 66.879 m W n
q
35 23 86 71 re W n
  q
0 g
0.510386 w
2 J
0 j
[] 0.0 d
10 M q 1 0 0 -1 0 0 cm
145.496 -85.695 m 42.457 17.344 l S Q
  Q
Q
Q q
37.02 23.152 m 120.586 23.152 l 120.586 66.879 l 37.02 66.879 l h
37.02 66.879 m 120.586 66.879 l 120.586 90.781 l 37.02 90.781 l h
37.02 66.879 m W n
q
37 23 84 68 re W n
  q
0 g
0.510386 w
2 J
0 j
[] 0.0 d
10 M q 1 0 0 -1 0 0 cm
147.895 -83.297 m 44.855 19.742 l S Q
  Q
Q
Q q
40.02 23.152 m 120.586 23.152 l 120.586 66.879 l 40.02 66.879 l h
40.02 66.879 m 120.586 66.879 l 120.586 88.781 l 40.02 88.781 l h
40.02 66.879 m W n
q
40 23 81 66 re W n
  q
0 g
0.510386 w
2 J
0 j
[] 0.0 d
10 M q 1 0 0 -1 0 0 cm
150.293 -80.895 m 47.254 22.145 l S Q
  Q
Q
Q q
42.02 23.152 m 120.586 23.152 l 120.586 66.879 l 42.02 66.879 l h
42.02 66.879 m 120.586 66.879 l 120.586 85.781 l 42.02 85.781 l h
42.02 66.879 m W n
q
42 23 79 63 re W n
  q
0 g
0.510386 w
2 J
0 j
[] 0.0 d
10 M q 1 0 0 -1 0 0 cm
152.695 -78.496 m 49.656 24.543 l S Q
  Q
Q
Q q
44.02 23.152 m 120.586 23.152 l 120.586 66.879 l 44.02 66.879 l h
44.02 66.879 m 120.586 66.879 l 120.586 83.781 l 44.02 83.781 l h
44.02 66.879 m W n
q
44 23 77 61 re W n
  q
0 g
0.510386 w
2 J
0 j
[] 0.0 d
10 M q 1 0 0 -1 0 0 cm
155.094 -76.098 m 52.055 26.945 l S Q
  Q
Q
Q q
47.02 23.152 m 120.586 23.152 l 120.586 66.879 l 47.02 66.879 l h
47.02 66.879 m 120.586 66.879 l 120.586 81.781 l 47.02 81.781 l h
47.02 66.879 m W n
q
47 23 74 59 re W n
  q
0 g
0.510386 w
2 J
0 j
[] 0.0 d
10 M q 1 0 0 -1 0 0 cm
157.496 -73.695 m 54.457 29.344 l S Q
  Q
Q
Q q
49.02 23.152 m 120.586 23.152 l 120.586 66.879 l 49.02 66.879 l h
49.02 66.879 m 120.586 66.879 l 120.586 78.781 l 49.02 78.781 l h
49.02 66.879 m W n
q
49 23 72 56 re W n
  q
0 g
0.510386 w
2 J
0 j
[] 0.0 d
10 M q 1 0 0 -1 0 0 cm
159.895 -71.297 m 56.855 31.742 l S Q
  Q
Q
Q q
52.02 23.152 m 120.586 23.152 l 120.586 66.879 l 52.02 66.879 l h
52.02 66.879 m 120.586 66.879 l 120.586 76.781 l 52.02 76.781 l h
52.02 66.879 m W n
q
52 23 69 54 re W n
  q
0 g
0.510386 w
2 J
0 j
[] 0.0 d
10 M q 1 0 0 -1 0 0 cm
162.293 -68.895 m 59.254 34.145 l S Q
  Q
Q
Q q
54.02 23.152 m 120.586 23.152 l 120.586 66.879 l 54.02 66.879 l h
54.02 66.879 m 120.586 66.879 l 120.586 73.781 l 54.02 73.781 l h
54.02 66.879 m W n
q
54 23 67 51 re W n
  q
0 g
0.510386 w
2 J
0 j
[] 0.0 d
10 M q 1 0 0 -1 0 0 cm
164.695 -66.496 m 61.656 36.543 l S Q
  Q
Q
Q q
0 g
0.425176 w
0 J
0 j
[] 0.0 d
10 M q 1 0 0 -1 0 0 cm
1.957 -66.879 m 1.957 -110.602 l 120.586 -110.602 l 120.586 -23.152 l 1.957
 -23.152 l h
1.957 -66.879 m S Q
1 g
10.035 66.879 m 10.035 102.523 l 112.508 102.523 l 112.508 31.234 l 10.035
 31.234 l f
0 g
q 1 0 0 -1 0 0 cm
10.035 -66.879 m 10.035 -102.523 l 112.508 -102.523 l 112.508 -31.234 l
 10.035 -31.234 l h
10.035 -66.879 m S Q
0.74902 0.831373 0.901961 rg
10.25 71.133 m 10.25 102.312 l 109.461 102.312 l 109.461 39.949 l 10.25
 39.949 l f
0 g
0.567043 w
q 1 0 0 -1 0 0 cm
13.082 -39.949 m 13.082 -39.738 l 13.32 -39.742 l 13.555 -39.75 l 13.793
 -39.766 l 14.027 -39.789 l 14.266 -39.812 l 14.5 -39.844 l 14.738 -39.879
 l 14.973 -39.914 l 15.211 -39.949 l 15.445 -39.984 l 15.68 -40.023 l 16.156
 -40.086 l 16.391 -40.113 l 16.625 -40.133 l 16.863 -40.148 l 17.098 -40.16
 l 17.336 -40.164 l 17.57 -40.16 l 17.809 -40.148 l 18.043 -40.133 l 18.281
 -40.113 l 18.516 -40.086 l 18.754 -40.055 l 18.988 -40.023 l 19.223 -39.984
 l 19.699 -39.914 l 20.168 -39.844 l 20.406 -39.812 l 20.641 -39.789 l 20.879
 -39.766 l 21.113 -39.75 l 21.352 -39.742 l 21.586 -39.738 l 21.824 -39.742
 l 22.059 -39.75 l 22.297 -39.766 l 22.766 -39.812 l 23.004 -39.844 l 23.242
 -39.879 l 23.711 -39.949 l 23.949 -39.984 l 24.184 -40.023 l 24.422 -40.055
 l 24.656 -40.086 l 24.895 -40.113 l 25.129 -40.133 l 25.367 -40.148 l 25.602
 -40.16 l 25.84 -40.164 l 26.074 -40.16 l 26.312 -40.148 l 26.547 -40.133
 l 26.785 -40.113 l 27.02 -40.086 l 27.258 -40.055 l 27.492 -40.023 l 27.73
 -39.984 l 28.199 -39.914 l 28.438 -39.879 l 28.672 -39.844 l 28.91 -39.812
 l 29.145 -39.789 l 29.383 -39.766 l 29.617 -39.75 l 29.855 -39.742 l 30.09
 -39.738 l 30.328 -39.742 l 30.562 -39.75 l 30.801 -39.766 l 31.035 -39.789
 l 31.273 -39.812 l 31.508 -39.844 l 31.746 -39.879 l 32.215 -39.949 l 32.453
 -39.984 l 32.688 -40.023 l 32.926 -40.055 l 33.16 -40.086 l 33.398 -40.113
 l 33.633 -40.133 l 33.871 -40.148 l 34.105 -40.16 l 34.344 -40.164 l 34.578
 -40.16 l 34.816 -40.148 l 35.051 -40.133 l 35.289 -40.113 l 35.523 -40.086
 l 35.758 -40.055 l 35.996 -40.023 l 36.234 -39.984 l 36.703 -39.914 l 36.941
 -39.879 l 37.176 -39.844 l 37.414 -39.812 l 37.648 -39.789 l 37.887 -39.766
 l 38.121 -39.75 l 38.359 -39.742 l 38.594 -39.738 l 38.832 -39.742 l 39.066
 -39.75 l 39.301 -39.766 l 39.539 -39.789 l 39.773 -39.812 l 40.012 -39.844
 l 40.246 -39.879 l 40.484 -39.914 l 40.719 -39.949 l 40.957 -39.984 l 41.191
 -40.023 l 41.43 -40.055 l 41.664 -40.086 l 41.902 -40.113 l 42.137 -40.133
 l 42.375 -40.148 l 42.609 -40.16 l 42.844 -40.164 l 43.082 -40.16 l 43.32
 -40.148 l 43.555 -40.133 l 43.789 -40.113 l 44.027 -40.086 l 44.262 -40.055
 l 44.5 -40.023 l 44.734 -39.984 l 44.973 -39.949 l 45.207 -39.914 l 45.445
 -39.879 l 45.68 -39.844 l 45.918 -39.812 l 46.152 -39.789 l 46.391 -39.766
 l 46.625 -39.75 l 46.863 -39.742 l 47.098 -39.738 l 47.332 -39.742 l 47.57
 -39.75 l 47.805 -39.766 l 48.043 -39.789 l 48.277 -39.812 l 48.516 -39.844
 l 48.75 -39.879 l 48.988 -39.914 l 49.223 -39.949 l 49.461 -39.984 l 49.695
 -40.023 l 49.934 -40.055 l 50.168 -40.086 l 50.406 -40.113 l 50.641 -40.133
 l 50.875 -40.148 l 51.113 -40.16 l 51.348 -40.164 l 51.586 -40.16 l 51.82
 -40.148 l 52.059 -40.133 l 52.293 -40.113 l 52.531 -40.086 l 52.766 -40.055
 l 53.004 -40.023 l 53.238 -39.984 l 53.477 -39.949 l 53.711 -39.914 l 53.949
 -39.879 l 54.184 -39.844 l 54.418 -39.812 l 54.656 -39.789 l 54.891 -39.766
 l 55.129 -39.75 l 55.363 -39.742 l 55.602 -39.738 l 55.836 -39.742 l 56.074
 -39.75 l 56.309 -39.766 l 56.547 -39.789 l 56.781 -39.812 l 57.02 -39.844
 l 57.254 -39.879 l 57.492 -39.914 l 57.727 -39.949 l 57.965 -39.984 l 58.199
 -40.023 l 58.434 -40.055 l 58.672 -40.086 l 58.91 -40.113 l 59.145 -40.133
 l 59.379 -40.148 l 59.617 -40.16 l 59.852 -40.164 l 60.09 -40.16 l 60.324
 -40.148 l 60.562 -40.133 l 60.797 -40.113 l 61.035 -40.086 l 61.27 -40.055
 l 61.508 -40.023 l 61.742 -39.984 l 61.98 -39.949 l 62.215 -39.914 l 62.453
 -39.879 l 62.688 -39.844 l 62.922 -39.812 l 63.398 -39.766 l 63.633 -39.75
 l 63.867 -39.742 l 64.105 -39.738 l 64.34 -39.742 l 64.578 -39.75 l 64.812
 -39.766 l 65.051 -39.789 l 65.285 -39.812 l 65.523 -39.844 l 65.758 -39.879
 l 65.996 -39.914 l 66.465 -39.984 l 66.703 -40.023 l 66.941 -40.055 l 67.176
 -40.086 l 67.41 -40.113 l 67.648 -40.133 l 67.883 -40.148 l 68.121 -40.16
 l 68.355 -40.164 l 68.594 -40.16 l 68.828 -40.148 l 69.066 -40.133 l 69.301
 -40.113 l 69.539 -40.086 l 70.008 -40.023 l 70.246 -39.984 l 70.484 -39.949
 l 70.953 -39.879 l 71.191 -39.844 l 71.426 -39.812 l 71.664 -39.789 l 71.898
 -39.766 l 72.137 -39.75 l 72.371 -39.742 l 72.609 -39.738 l 72.844 -39.742
 l 73.082 -39.75 l 73.316 -39.766 l 73.555 -39.789 l 73.789 -39.812 l 74.027
 -39.844 l 74.496 -39.914 l 74.734 -39.949 l 74.969 -39.984 l 75.207 -40.023
 l 75.441 -40.055 l 75.68 -40.086 l 75.914 -40.113 l 76.152 -40.133 l 76.387
 -40.148 l 76.625 -40.16 l 76.859 -40.164 l 77.098 -40.16 l 77.332 -40.148
 l 77.57 -40.133 l 77.805 -40.113 l 78.039 -40.086 l 78.277 -40.055 l 78.512
 -40.023 l 78.75 -39.984 l 78.984 -39.949 l 79.223 -39.914 l 79.457 -39.879
 l 79.695 -39.844 l 79.93 -39.812 l 80.168 -39.789 l 80.402 -39.766 l 80.641
 -39.75 l 80.875 -39.742 l 81.113 -39.738 l 81.348 -39.742 l 81.582 -39.75
 l 81.82 -39.766 l 82.055 -39.789 l 82.293 -39.812 l 82.527 -39.844 l 82.766
 -39.879 l 83 -39.914 l 83.238 -39.949 l 83.473 -39.984 l 83.711 -40.023
 l 83.945 -40.055 l 84.184 -40.086 l 84.418 -40.113 l 84.656 -40.133 l 84.891
 -40.148 l 85.129 -40.16 l 85.363 -40.164 l 85.598 -40.16 l 85.836 -40.148
 l 86.07 -40.133 l 86.309 -40.113 l 86.543 -40.086 l 86.781 -40.055 l 87.016
 -40.023 l 87.254 -39.984 l 87.488 -39.949 l 87.727 -39.914 l 87.961 -39.879
 l 88.199 -39.844 l 88.434 -39.812 l 88.672 -39.789 l 88.906 -39.766 l 89.141
 -39.75 l 89.379 -39.742 l 89.617 -39.738 l 89.852 -39.742 l 90.086 -39.75
 l 90.324 -39.766 l 90.559 -39.789 l 90.797 -39.812 l 91.031 -39.844 l 91.27
 -39.879 l 91.504 -39.914 l 91.742 -39.949 l 91.977 -39.984 l 92.215 -40.023
 l 92.684 -40.086 l 92.922 -40.113 l 93.16 -40.133 l 93.395 -40.148 l 93.629
 -40.16 l 93.867 -40.164 l 94.105 -40.16 l 94.34 -40.148 l 94.574 -40.133
 l 94.812 -40.113 l 95.047 -40.086 l 95.285 -40.055 l 95.52 -40.023 l 95.758
 -39.984 l 95.992 -39.949 l 96.23 -39.914 l 96.465 -39.879 l 96.703 -39.844
 l 96.938 -39.812 l 97.172 -39.789 l 97.41 -39.766 l 97.648 -39.75 l 97.883
 -39.742 l 98.117 -39.738 l 98.355 -39.742 l 98.59 -39.75 l 98.828 -39.766
 l 99.062 -39.789 l 99.301 -39.812 l 99.535 -39.844 l 99.773 -39.879 l 100.008
 -39.914 l 100.246 -39.949 l 100.48 -39.984 l 100.715 -40.023 l 101.191 
-40.086 l 101.426 -40.113 l 101.66 -40.133 l 101.898 -40.148 l 102.133 -40.16
 l 102.371 -40.164 l 102.605 -40.16 l 102.844 -40.148 l 103.078 -40.133 
l 103.316 -40.113 l 103.551 -40.086 l 103.789 -40.055 l 104.023 -40.023 
l 104.262 -39.984 l 104.496 -39.949 l 104.734 -39.914 l 104.969 -39.879 
l 105.207 -39.844 l 105.441 -39.812 l 105.676 -39.789 l 105.914 -39.766 
l 106.148 -39.75 l 106.387 -39.742 l 106.621 -39.738 l 106.859 -39.742 l
 107.094 -39.75 l 107.332 -39.766 l 107.566 -39.789 l 107.805 -39.812 l 
108.039 -39.844 l 108.277 -39.879 l 108.512 -39.914 l 108.75 -39.949 l 108.984
 -39.984 l 109.219 -40.023 l 109.457 -40.055 l 109.461 -40.059 l 109.461
 -39.949 l S Q
28.09 80.961 m 28.09 81.086 l 28.387 81.148 28.48 81.211 28.48 81.367 c
 28.48 81.508 28.434 81.711 28.324 81.961 c 27.527 83.945 l 26.762 81.945
 l 26.621 81.523 26.621 81.523 26.621 81.414 c 26.621 81.211 26.715 81.148
 27.137 81.086 c 27.137 80.961 l 25.309 80.961 l 25.309 81.086 l 25.652 
81.133 25.762 81.227 25.934 81.711 c 25.98 81.836 26.059 82.055 26.105 82.211
 c 25.293 83.992 l 24.402 81.648 l 24.371 81.57 24.355 81.477 24.355 81.383
 c 24.355 81.195 24.449 81.133 24.762 81.086 c 24.762 80.961 l 23.152 80.961
 l 23.152 81.086 l 23.355 81.102 23.434 81.195 23.621 81.648 c 24.84 84.727
 l 24.949 85.008 25.012 85.117 25.074 85.117 c 25.121 85.117 25.184 85.008
 25.293 84.773 c 26.309 82.617 l 27.121 84.727 l 27.246 85.07 27.277 85.117
 27.34 85.117 c 27.402 85.117 27.434 85.039 27.59 84.68 c 28.824 81.57 l
 28.98 81.195 29.012 81.148 29.184 81.086 c 29.184 80.961 l h
28.09 80.961 m f
33.293 84.398 m 33.137 84.523 33.027 84.57 32.887 84.57 c 32.684 84.57 
32.621 84.445 32.621 84.055 c 32.621 82.305 l 32.621 81.836 32.574 81.57
 32.449 81.367 c 32.246 81.039 31.855 80.867 31.34 80.867 c 30.496 80.867
 29.824 81.305 29.824 81.867 c 29.824 82.07 29.996 82.258 30.215 82.258 
c 30.434 82.258 30.621 82.07 30.621 81.883 c 30.621 81.852 30.605 81.805
 30.605 81.742 c 30.574 81.648 30.574 81.586 30.574 81.523 c 30.574 81.273
 30.855 81.086 31.215 81.086 c 31.652 81.086 31.902 81.336 31.902 81.82 
c 31.902 82.367 l 30.527 82.914 30.371 83.008 29.98 83.336 c 29.777 83.523
 29.652 83.82 29.652 84.117 c 29.652 84.68 30.043 85.086 30.605 85.086 c
 30.996 85.086 31.355 84.898 31.902 84.43 c 31.949 84.898 32.121 85.086 
32.48 85.086 c 32.793 85.086 32.98 84.977 33.293 84.633 c h
31.902 83.883 m 31.902 84.164 31.855 84.258 31.668 84.367 c 31.434 84.492
 31.199 84.555 31.012 84.555 c 30.699 84.555 30.449 84.258 30.449 83.867
 c 30.449 83.836 l 30.449 83.305 30.855 82.961 31.902 82.586 c h
31.902 83.883 m f
35.566 80.961 m 34.66 80.961 l 34.66 79.914 l 34.66 79.82 34.645 79.805
 34.598 79.805 c 34.082 80.555 33.816 80.852 33.551 81.008 c 33.457 81.07
 33.395 81.133 33.395 81.18 c 33.395 81.211 33.41 81.227 33.441 81.242 c
 33.91 81.242 l 33.91 83.945 l 33.91 84.695 34.176 85.086 34.707 85.086 
c 35.145 85.086 35.488 84.867 35.785 84.398 c 35.676 84.305 l 35.473 84.539
 35.332 84.617 35.129 84.617 c 34.801 84.617 34.66 84.367 34.66 83.805 c
 34.66 81.242 l 35.566 81.242 l h
35.566 80.961 m f
39.461 83.523 m 39.039 84.195 38.648 84.461 38.07 84.461 c 37.57 84.461
 37.18 84.195 36.914 83.695 c 36.758 83.352 36.695 83.07 36.68 82.508 c 
39.43 82.508 l 39.367 81.93 39.273 81.664 39.055 81.383 c 38.789 81.055 
38.367 80.867 37.898 80.867 c 37.461 80.867 37.039 81.023 36.695 81.336 
c 36.273 81.695 36.023 82.336 36.023 83.07 c 36.023 84.305 36.68 85.086 
37.711 85.086 c 38.555 85.086 39.227 84.555 39.602 83.586 c h
36.695 82.227 m 36.789 81.523 37.102 81.195 37.648 81.195 c 38.195 81.195
 38.398 81.445 38.523 82.227 c h
36.695 82.227 m f
39.812 84.992 m 41.969 84.992 l 41.969 84.852 l 41.359 84.836 41.219 84.711
 41.203 84.18 c 41.203 82.164 l 41.203 81.883 41.578 81.43 41.828 81.43 
c 41.875 81.43 41.969 81.477 42.062 81.57 c 42.203 81.695 42.297 81.742 
42.422 81.742 c 42.641 81.742 42.766 81.586 42.766 81.336 c 42.766 81.039
 42.578 80.867 42.281 80.867 c 41.906 80.867 41.656 81.07 41.203 81.711 
c 41.203 80.883 l 41.156 80.867 l 40.656 81.07 40.328 81.195 39.828 81.352
 c 39.828 81.492 l 39.953 81.461 40.031 81.461 40.141 81.461 c 40.359 81.461
 40.453 81.602 40.453 81.992 c 40.453 84.242 l 40.422 84.711 40.375 84.758
 39.812 84.852 c h
39.812 84.992 m f
q 1 0 0 -1 0 0 cm
27.258 -8.77 m 21.586 -8.77 l 21.586 -59.793 l S Q
q 1 0 0 -1 0 0 cm
44.266 -59.793 m 44.266 -8.77 l 41.43 -8.77 l S Q
41.793 8.16 m 41.457 7.961 41.023 8.066 40.824 8.402 c 40.621 8.738 40.73
 9.176 41.066 9.375 c 41.402 9.578 41.836 9.469 42.039 9.133 c 42.238 8.797
 42.129 8.363 41.793 8.16 c f
1 g
41.504 8.648 m 41.434 8.605 41.348 8.629 41.309 8.695 c 41.27 8.762 41.289
 8.852 41.359 8.891 c 41.422 8.93 41.512 8.91 41.551 8.844 c 41.59 8.773
 41.57 8.688 41.504 8.648 c f
0 g
q 1 0 0 -1 0 0 cm
40.945 -8.477 m 35.762 -5.367 l S Q
35.762 8.059 m 35.371 8.059 35.051 8.379 35.051 8.77 c 35.051 9.16 35.371
 9.477 35.762 9.477 c 36.152 9.477 36.469 9.16 36.469 8.77 c 36.469 8.379
 36.152 8.059 35.762 8.059 c f
1 g
35.762 8.629 m 35.684 8.629 35.621 8.691 35.621 8.77 c 35.621 8.848 35.684
 8.91 35.762 8.91 c 35.84 8.91 35.902 8.848 35.902 8.77 c 35.902 8.691 35.84
 8.629 35.762 8.629 c f
0 g
q 1 0 0 -1 0 0 cm
35.195 -8.77 m 30.09 -8.77 l S Q
0.850361 w
q 1 0 0 -1 0 0 cm
27.258 -15.855 m 27.258 -1.684 l S Q
1.70071 w
q 1 0 0 -1 0 0 cm
30.09 -13.02 m 30.09 -4.516 l S Q
0.567043 w
q 1 0 0 -1 0 0 cm
21.586 -59.793 m 24.422 -59.793 l 25.484 -57.668 l 27.613 -61.918 l 29.738
 -57.668 l 31.863 -61.918 l 33.988 -57.668 l 36.113 -61.918 l 38.242 -57.668
 l 40.367 -61.918 l 41.43 -59.793 l 44.266 -59.793 l S Q
13.082 65.461 m 13.082 99.477 l 109.461 99.477 l 109.461 31.445 l 112.297
 31.445 l 112.297 102.312 l 10.25 102.312 l 10.25 31.445 l 13.082 31.445
 l f
1 g
72.609 27.191 m 72.609 34.281 l 78.281 34.281 l 78.281 20.105 l 72.609 
20.105 l f
0 g
0.425176 w
q 1 0 0 -1 0 0 cm
72.609 -31.445 m 72.609 -22.941 l S Q
q 1 0 0 -1 0 0 cm
78.281 -31.445 m 78.281 -22.941 l S Q
3.9689 w
q 1 0 0 -1 0 0 cm
75.445 -90.973 m 75.445 -17.273 l S Q
1 g
2.83481 w
q 1 0 0 -1 0 0 cm
75.445 -90.973 m 75.445 -17.273 l S Q
0 g
0.567043 w
q 1 0 0 -1 0 0 cm
73.461 -90.973 m 77.43 -90.973 l S Q
1 g
52.77 85.305 m 52.77 88.137 l 73.461 88.137 l 73.461 82.469 l 52.77 82.469
 l f
0 g
q 1 0 0 -1 0 0 cm
52.77 -85.305 m 52.77 -88.137 l 73.461 -88.137 l 73.461 -82.469 l 52.77
 -82.469 l h
52.77 -85.305 m S Q
1 g
77.43 85.305 m 77.43 88.137 l 98.125 88.137 l 98.125 82.469 l 77.43 82.469
 l f
0 g
q 1 0 0 -1 0 0 cm
77.43 -85.305 m 77.43 -88.137 l 98.125 -88.137 l 98.125 -82.469 l 77.43
 -82.469 l h
77.43 -85.305 m S Q
1 g
52.77 73.965 m 52.77 76.801 l 73.461 76.801 l 73.461 71.133 l 52.77 71.133
 l f
0 g
q 1 0 0 -1 0 0 cm
52.77 -73.965 m 52.77 -76.801 l 73.461 -76.801 l 73.461 -71.133 l 52.77
 -71.133 l h
52.77 -73.965 m S Q
1 g
77.43 73.965 m 77.43 76.801 l 98.125 76.801 l 98.125 71.133 l 77.43 71.133
 l f
0 g
q 1 0 0 -1 0 0 cm
77.43 -73.965 m 77.43 -76.801 l 98.125 -76.801 l 98.125 -71.133 l 77.43
 -71.133 l h
77.43 -73.965 m S Q
1 g
52.77 62.629 m 52.77 65.461 l 73.461 65.461 l 73.461 59.793 l 52.77 59.793
 l f
0 g
q 1 0 0 -1 0 0 cm
52.77 -62.629 m 52.77 -65.461 l 73.461 -65.461 l 73.461 -59.793 l 52.77
 -59.793 l h
52.77 -62.629 m S Q
1 g
77.43 62.629 m 77.43 65.461 l 98.125 65.461 l 98.125 59.793 l 77.43 59.793
 l f
0 g
q 1 0 0 -1 0 0 cm
77.43 -62.629 m 77.43 -65.461 l 98.125 -65.461 l 98.125 -59.793 l 77.43
 -59.793 l h
77.43 -62.629 m S Q
1 g
52.77 51.289 m 52.77 54.125 l 73.461 54.125 l 73.461 48.453 l 52.77 48.453
 l f
0 g
q 1 0 0 -1 0 0 cm
52.77 -51.289 m 52.77 -54.125 l 73.461 -54.125 l 73.461 -48.453 l 52.77
 -48.453 l h
52.77 -51.289 m S Q
1 g
77.43 51.289 m 77.43 54.125 l 98.125 54.125 l 98.125 48.453 l 77.43 48.453
 l f
0 g
q 1 0 0 -1 0 0 cm
77.43 -51.289 m 77.43 -54.125 l 98.125 -54.125 l 98.125 -48.453 l 77.43
 -48.453 l h
77.43 -51.289 m S Q
q 1 0 0 -1 0 0 cm
64.109 -12.312 m 64.109 -17.273 l 86.785 -17.273 l 86.785 -7.352 l 64.109
 -7.352 l h
64.109 -12.312 m S Q
1.13366 w
1 J
q 1 0 0 -1 0 0 cm
63.539 -10.152 m 63.637 -10.148 l S Q
0 J
q 1 0 0 -1 0 0 cm
63.539 -10.152 m 73.176 -9.621 l 132.137 -9.621 l S Q
1 J
q 1 0 0 -1 0 0 cm
87.352 -11.637 m 87.254 -11.641 l S Q
q 1 0 0 -1 0 0 cm
63.539 -12.988 m 63.637 -12.984 l S Q
0 J
q 1 0 0 -1 0 0 cm
87.352 -11.637 m 63.539 -12.988 l S Q
1 J
q 1 0 0 -1 0 0 cm
87.352 -14.469 m 87.254 -14.477 l S Q
q 1 0 0 -1 0 0 cm
63.539 -15.824 m 63.637 -15.816 l S Q
0 J
q 1 0 0 -1 0 0 cm
87.352 -14.469 m 63.539 -15.824 l S Q
q 1 0 0 -1 0 0 cm
138.375 -13.02 m 138.375 -39.949 l S Q
1 g
139.223 15.855 m 139.223 11.941 136.051 8.77 132.137 8.77 c 128.223 8.77
 125.051 11.941 125.051 15.855 c 125.051 19.77 128.223 22.941 132.137 22.941
 c 136.051 22.941 139.223 19.77 139.223 15.855 c f
0 g
0.567043 w
q 1 0 0 -1 0 0 cm
139.223 -15.855 m 139.223 -11.941 136.051 -8.77 132.137 -8.77 c 128.223
 -8.77 125.051 -11.941 125.051 -15.855 c 125.051 -19.77 128.223 -22.941 
132.137 -22.941 c 136.051 -22.941 139.223 -19.77 139.223 -15.855 c h
139.223 -15.855 m S Q
132.738 15.832 m 132.738 15.52 132.484 15.266 132.172 15.266 c 131.859 
15.266 131.605 15.52 131.605 15.832 c 131.605 16.145 131.859 16.398 132.172
 16.398 c 132.484 16.398 132.738 16.145 132.738 15.832 c f
q 1 0 0 -1 0 0 cm
131.996 -47.035 m 132.707 -39.949 l 144.043 -39.949 l 145.461 -54.125 l
 131.289 -54.125 l h
131.996 -47.035 m S Q
141.273 48.156 m 141.148 48.062 l 140.961 48.297 140.633 48.734 140.445
 48.734 c 140.367 48.734 140.32 48.688 140.32 48.578 c 140.32 48.484 140.398
 48.266 140.445 48.094 c 140.445 48.094 140.977 46.141 140.977 46.094 c 
141.039 45.906 141.07 45.719 141.07 45.594 c 141.07 45.141 140.789 44.984
 140.57 44.984 c 139.836 44.984 139.008 45.953 138.43 46.984 c 138.43 46.984
 138.758 45.938 138.758 45.578 c 138.758 45.344 138.664 44.984 138.242 44.984
 c 137.414 44.984 136.383 46.578 136.164 46.984 c 136.695 44.984 l 136.695
 44.984 135.477 45.219 135.211 45.234 c 135.211 45.391 l 135.539 45.391 
135.805 45.359 135.805 45.719 c 135.805 45.891 135.727 46.172 135.648 46.453
 c 135.648 46.453 134.93 48.844 134.883 49.078 c 135.57 49.078 l 135.727
 48.484 l 136.242 46.547 137.492 45.484 137.836 45.484 c 137.977 45.484 
138.07 45.531 138.07 45.734 c 138.07 45.875 137.961 46.281 137.898 46.547
 c 137.898 46.547 137.273 48.766 137.195 49.078 c 137.867 49.078 l 138.023
 48.484 l 138.57 46.469 139.789 45.484 140.148 45.484 c 140.273 45.484 140.367
 45.578 140.367 45.719 c 140.367 45.812 140.273 46.219 140.18 46.547 c 139.82
 47.891 l 139.727 48.219 139.648 48.625 139.648 48.766 c 139.648 49 139.773
 49.188 139.977 49.188 c 140.43 49.188 140.914 48.672 141.273 48.156 c h
141.273 48.156 m f
160.539 45.047 m 160.539 45.172 l 160.836 45.234 160.93 45.297 160.93 45.453
 c 160.93 45.594 160.883 45.797 160.773 46.047 c 159.977 48.031 l 159.211
 46.031 l 159.07 45.609 159.07 45.609 159.07 45.5 c 159.07 45.297 159.164
 45.234 159.586 45.172 c 159.586 45.047 l 157.758 45.047 l 157.758 45.172
 l 158.102 45.219 158.211 45.312 158.383 45.797 c 158.43 45.922 158.508 
46.141 158.555 46.297 c 157.742 48.078 l 156.852 45.734 l 156.82 45.656 
156.805 45.562 156.805 45.469 c 156.805 45.281 156.898 45.219 157.211 45.172
 c 157.211 45.047 l 155.602 45.047 l 155.602 45.172 l 155.805 45.188 155.883
 45.281 156.07 45.734 c 157.289 48.812 l 157.398 49.094 157.461 49.203 157.523
 49.203 c 157.57 49.203 157.633 49.094 157.742 48.859 c 158.758 46.703 l
 159.57 48.812 l 159.695 49.156 159.727 49.203 159.789 49.203 c 159.852 
49.203 159.883 49.125 160.039 48.766 c 161.273 45.656 l 161.43 45.281 161.461
 45.234 161.633 45.172 c 161.633 45.047 l h
160.539 45.047 m f
165.551 47.609 m 165.129 48.281 164.738 48.547 164.16 48.547 c 163.66 48.547
 163.27 48.281 163.004 47.781 c 162.848 47.438 162.785 47.156 162.77 46.594
 c 165.52 46.594 l 165.457 46.016 165.363 45.75 165.145 45.469 c 164.879
 45.141 164.457 44.953 163.988 44.953 c 163.551 44.953 163.129 45.109 162.785
 45.422 c 162.363 45.781 162.113 46.422 162.113 47.156 c 162.113 48.391 
162.77 49.172 163.801 49.172 c 164.645 49.172 165.316 48.641 165.691 47.672
 c h
162.785 46.312 m 162.879 45.609 163.191 45.281 163.738 45.281 c 164.285
 45.281 164.488 45.531 164.613 46.312 c h
162.785 46.312 m f
165.996 49.078 m 168.121 49.078 l 168.121 48.938 l 167.527 48.906 167.465
 48.812 167.465 48.156 c 167.465 44.984 l 167.418 44.953 l 166.027 45.453
 l 166.027 45.578 l 166.105 45.578 l 166.215 45.547 166.324 45.547 166.418
 45.547 c 166.621 45.547 166.715 45.688 166.715 46.078 c 166.715 48.156 
l 166.684 48.828 166.605 48.922 165.996 48.938 c h
166.996 42.953 m 166.762 42.953 166.559 43.156 166.559 43.406 c 166.559
 43.672 166.746 43.875 166.996 43.875 c 167.277 43.875 167.465 43.672 167.465
 43.406 c 167.465 43.156 167.262 42.953 166.996 42.953 c h
166.996 42.953 m f
172.594 45.594 m 172.594 45.25 l 171.906 45.25 l 171.719 45.25 171.578 
45.219 171.406 45.156 c 171.203 45.094 l 170.969 45 170.719 44.953 170.484
 44.953 c 169.656 44.953 169 45.594 169 46.422 c 169 46.984 169.234 47.312
 169.828 47.609 c 169.594 47.828 l 169.406 48.016 169.297 48.109 169.266
 48.141 c 169.078 48.344 169.031 48.438 169.031 48.594 c 169.031 48.797 
169.125 48.891 169.5 49.062 c 168.859 49.531 168.625 49.828 168.625 50.156
 c 168.625 50.641 169.312 51.031 170.172 51.031 c 170.844 51.031 171.547
 50.797 172.016 50.422 c 172.359 50.141 172.516 49.859 172.516 49.516 c 
172.516 48.969 172.094 48.594 171.422 48.562 c 170.266 48.5 l 169.781 48.484
 169.562 48.406 169.562 48.266 c 169.562 48.078 169.859 47.766 170.109 47.703
 c 170.422 47.719 170.594 47.734 170.625 47.734 c 170.953 47.734 171.312
 47.609 171.578 47.359 c 171.875 47.109 172.016 46.797 172.016 46.359 c 
172.016 46.094 171.969 45.891 171.844 45.594 c h
169.688 49.094 m 170 49.156 170.703 49.219 171.156 49.219 c 171.969 49.219
 172.266 49.328 172.266 49.656 c 172.266 50.172 171.578 50.516 170.562 50.516
 c 169.766 50.516 169.25 50.266 169.25 49.875 c 169.25 49.656 169.328 49.531
 169.688 49.094 c h
169.734 46.047 m 169.734 45.516 169.984 45.203 170.406 45.203 c 170.688
 45.203 170.906 45.359 171.062 45.625 c 171.234 45.938 171.328 46.344 171.328
 46.703 c 171.328 47.203 171.078 47.516 170.656 47.516 c 170.109 47.516 
169.734 46.938 169.734 46.078 c h
169.734 46.047 m f
177.191 48.938 m 176.707 48.859 176.66 48.797 176.645 48.156 c 176.645 
46.375 l 176.645 45.438 176.285 44.953 175.535 44.953 c 175.02 44.953 174.645
 45.172 174.223 45.703 c 174.223 42.984 l 174.176 42.953 l 173.863 43.062
 173.645 43.125 173.145 43.281 c 172.91 43.344 l 172.91 43.484 l 172.941
 43.484 172.957 43.484 173.02 43.484 c 173.395 43.484 173.473 43.547 173.473
 43.938 c 173.473 48.156 l 173.457 48.812 173.41 48.875 172.895 48.938 c
 172.895 49.078 l 174.832 49.078 l 174.832 48.938 l 174.316 48.906 174.238
 48.797 174.223 48.156 c 174.223 46 l 174.598 45.594 174.863 45.438 175.223
 45.438 c 175.676 45.438 175.895 45.766 175.895 46.391 c 175.895 48.156 
l 175.879 48.797 175.801 48.906 175.285 48.938 c 175.285 49.078 l 177.191
 49.078 l h
177.191 48.938 m f
179.535 45.047 m 178.629 45.047 l 178.629 44 l 178.629 43.906 178.613 43.891
 178.566 43.891 c 178.051 44.641 177.785 44.938 177.52 45.094 c 177.426 
45.156 177.363 45.219 177.363 45.266 c 177.363 45.297 177.379 45.312 177.41
 45.328 c 177.879 45.328 l 177.879 48.031 l 177.879 48.781 178.145 49.172
 178.676 49.172 c 179.113 49.172 179.457 48.953 179.754 48.484 c 179.645
 48.391 l 179.441 48.625 179.301 48.703 179.098 48.703 c 178.77 48.703 178.629
 48.453 178.629 47.891 c 178.629 45.328 l 179.535 45.328 l h
179.535 45.047 m f
q 1 0 0 -1 0 0 cm
146.312 -56.957 m 140.641 -54.125 l 151.98 -54.125 l 151.98 -59.793 l h
146.312 -56.957 m S Q
q 1 0 0 -1 0 0 cm
146.312 -105.145 m 140.641 -102.312 l 151.98 -102.312 l 151.98 -107.98 
l h
146.312 -105.145 m S Q
158.242 104.016 m 158.211 102.781 l 158.102 102.781 l 158.055 102.859 158.008
 102.875 157.961 102.875 c 157.914 102.875 157.82 102.859 157.727 102.812
 c 157.508 102.75 157.305 102.703 157.086 102.703 c 156.383 102.703 155.867
 103.172 155.867 103.812 c 155.867 104.312 156.164 104.672 156.914 105.109
 c 157.445 105.406 l 157.758 105.578 157.914 105.797 157.914 106.078 c 157.914
 106.469 157.617 106.719 157.164 106.719 c 156.539 106.719 156.227 106.375
 156.023 105.469 c 155.883 105.469 l 155.883 106.859 l 155.992 106.859 l
 156.055 106.781 156.102 106.75 156.211 106.75 c 156.305 106.75 156.414 
106.781 156.617 106.828 c 156.852 106.875 157.086 106.922 157.273 106.922
 c 157.977 106.922 158.539 106.391 158.539 105.766 c 158.539 105.328 158.32
 105.031 157.789 104.703 c 156.82 104.125 l 156.555 103.969 156.43 103.766
 156.43 103.516 c 156.43 103.156 156.711 102.906 157.117 102.906 c 157.633
 102.906 157.898 103.203 158.102 104.016 c h
158.242 104.016 m f
161.176 102.797 m 160.27 102.797 l 160.27 101.75 l 160.27 101.656 160.254
 101.641 160.207 101.641 c 159.691 102.391 159.426 102.688 159.16 102.844
 c 159.066 102.906 159.004 102.969 159.004 103.016 c 159.004 103.047 159.02
 103.062 159.051 103.078 c 159.52 103.078 l 159.52 105.781 l 159.52 106.531
 159.785 106.922 160.316 106.922 c 160.754 106.922 161.098 106.703 161.395
 106.234 c 161.285 106.141 l 161.082 106.375 160.941 106.453 160.738 106.453
 c 160.41 106.453 160.27 106.203 160.27 105.641 c 160.27 103.078 l 161.176
 103.078 l h
161.176 102.797 m f
163.664 102.703 m 162.477 102.703 161.68 103.562 161.68 104.797 c 161.68
 106.016 162.508 106.922 163.633 106.922 c 164.773 106.922 165.633 105.969
 165.633 104.734 c 165.633 103.547 164.805 102.703 163.664 102.703 c h
163.539 102.953 m 164.289 102.953 164.82 103.812 164.82 105.047 c 164.82
 106.062 164.414 106.672 163.742 106.672 c 163.398 106.672 163.07 106.453
 162.883 106.094 c 162.617 105.625 162.477 105 162.477 104.359 c 162.477
 103.516 162.898 102.953 163.539 102.953 c h
163.539 102.953 m f
165.902 108.781 m 168.074 108.781 l 168.074 108.609 l 167.402 108.609 167.293
 108.516 167.277 107.938 c 167.277 106.531 l 167.605 106.828 167.809 106.922
 168.184 106.922 c 169.262 106.922 170.074 105.906 170.074 104.609 c 170.074
 103.5 169.449 102.703 168.574 102.703 c 168.074 102.703 167.684 102.922
 167.277 103.406 c 167.277 102.719 l 167.23 102.703 l 166.746 102.891 166.434
 103 165.934 103.156 c 165.934 103.297 l 166.012 103.297 166.074 103.297
 166.168 103.297 c 166.465 103.297 166.527 103.391 166.527 103.812 c 166.527
 108 l 166.527 108.484 166.434 108.562 165.902 108.625 c h
167.277 103.828 m 167.277 103.562 167.777 103.234 168.199 103.234 c 168.855
 103.234 169.293 103.922 169.293 104.969 c 169.293 105.953 168.855 106.625
 168.215 106.625 c 167.793 106.625 167.277 106.312 167.277 106.031 c h
167.277 103.828 m f
Q Q
showpage
%%Trailer
end
%%EOF
