<?xml version="1.0" encoding="UTF-8" standalone="no"?>
<svg
   xmlns:dc="http://purl.org/dc/elements/1.1/"
   xmlns:cc="http://creativecommons.org/ns#"
   xmlns:rdf="http://www.w3.org/1999/02/22-rdf-syntax-ns#"
   xmlns:svg="http://www.w3.org/2000/svg"
   xmlns="http://www.w3.org/2000/svg"
   viewBox="0 0 51.46523 51.465224"
   height="38.598919pt"
   width="38.598923pt"
   xml:space="preserve"
   id="svg2"
   version="1.1"><title
     id="title1056">BK-2021-07-1 logo</title><metadata
     id="metadata8"><rdf:RDF><cc:Work
         rdf:about=""><dc:format>image/svg+xml</dc:format><dc:type
           rdf:resource="http://purl.org/dc/dcmitype/StillImage" /><dc:title>BK-2021-07-1 logo</dc:title><dc:date>2021-05-27</dc:date><dc:creator><cc:Agent><dc:title>Sandoval, Steven Baltakatei</dc:title></cc:Agent></dc:creator><cc:license
           rdf:resource="http://creativecommons.org/licenses/by-sa/4.0/" /><dc:source>https://gitlab.com/baltakatei/bk-2021-07-1</dc:source><dc:description>Logo for the BK-2021-07-1 (DeVoe thermo textbook TeXmacs retypeset) git repository</dc:description><dc:rights><cc:Agent><dc:title>&quot;BK-2021-07-1 logo&quot; by Steven Baltakatei Sandoval is licensed under CC BY-SA 4.0.</dc:title></cc:Agent></dc:rights></cc:Work><cc:License
         rdf:about="http://creativecommons.org/licenses/by-sa/4.0/"><cc:permits
           rdf:resource="http://creativecommons.org/ns#Reproduction" /><cc:permits
           rdf:resource="http://creativecommons.org/ns#Distribution" /><cc:requires
           rdf:resource="http://creativecommons.org/ns#Notice" /><cc:requires
           rdf:resource="http://creativecommons.org/ns#Attribution" /><cc:permits
           rdf:resource="http://creativecommons.org/ns#DerivativeWorks" /><cc:requires
           rdf:resource="http://creativecommons.org/ns#ShareAlike" /></cc:License></rdf:RDF></metadata><defs
     id="defs6"><clipPath
       id="clipPath20"
       clipPathUnits="userSpaceOnUse"><path
         id="path18"
         d="M 0,0 H 5101 V 6601 H 0 Z" /></clipPath></defs><g
     style="display:inline"
     transform="matrix(1.3333333,0,0,-1.3333333,171.7525,576.61446)"
     id="g10">



<text
   transform="scale(1,-1)"
   id="text1781-3"
   style="font-style:italic;font-variant:normal;font-weight:normal;font-stretch:normal;font-size:14.00001144px;font-family:'TeX Gyre Termes';-inkscape-font-specification:TeXGyreTermes-Italic;writing-mode:lr-tb;fill:#000000;fill-opacity:1;fill-rule:nonzero;stroke:none;stroke-width:0.305085"
   x="-126.76438"
   y="-409.59131"><tspan
     id="tspan1779-6"
     y="-409.59131"
     x="-126.76438"
     style="stroke-width:0.305085">p</tspan></text>

<text
   transform="scale(1,-1)"
   id="text1785-7"
   style="font-variant:normal;font-weight:normal;font-stretch:normal;font-size:14.00001144px;font-family:'TeX Gyre Termes Math';-inkscape-font-specification:TeXGyreTermesMath-Regular;writing-mode:lr-tb;fill:#000000;fill-opacity:1;fill-rule:nonzero;stroke:none;stroke-width:0.305085"
   x="-117.61182"
   y="-409.59131"><tspan
     id="tspan1783-5"
     y="-409.59131"
     x="-117.61182"
     style="stroke-width:0.305085">=</tspan></text>

<text
   transform="scale(1,-1)"
   id="text1793-3"
   style="font-style:italic;font-variant:normal;font-weight:normal;font-stretch:normal;font-size:10.00000858px;font-family:'TeX Gyre Termes';-inkscape-font-specification:TeXGyreTermes-Italic;writing-mode:lr-tb;fill:#000000;fill-opacity:1;fill-rule:nonzero;stroke:none;stroke-width:0.305085"
   x="-105.10334"
   y="-416.91336"><tspan
     id="tspan1787-5"
     y="-416.91336"
     x="-105.10334"
     style="stroke-width:0.305085">R</tspan><tspan
     id="tspan1789-6"
     y="-416.91336"
     x="-97.781296"
     style="stroke-width:0.305085">T</tspan><tspan
     id="tspan1791-2"
     y="-404.09979"
     x="-104.49316"
     style="stroke-width:0.305085">V</tspan></text>

<text
   transform="scale(1,-1)"
   id="text1797-9"
   style="font-variant:normal;font-weight:normal;font-stretch:normal;font-size:7.00000572px;font-family:'TeX Gyre Termes';-inkscape-font-specification:TeXGyreTermes-Regular;writing-mode:lr-tb;fill:#000000;fill-opacity:1;fill-rule:nonzero;stroke:none;stroke-width:0.305085"
   x="-99.00164"
   y="-402.87946"><tspan
     id="tspan1795-1"
     y="-402.87946"
     x="-99.00164"
     style="stroke-width:0.305085">m</tspan></text>

<path
   id="path1799-2"
   style="fill:none;stroke:#000000;stroke-width:0.91525501;stroke-linecap:round;stroke-linejoin:round;stroke-miterlimit:10;stroke-dasharray:none;stroke-opacity:1"
   d="m -106.01859,412.94728 h 14.338991" /></g></svg>