%!PS-Adobe-3.0 EPSF-3.0
%%Creator: cairo 1.17.4 (https://cairographics.org)
%%CreationDate: Thu Feb 24 10:47:56 2022
%%Pages: 1
%%DocumentData: Clean7Bit
%%LanguageLevel: 2
%%BoundingBox: 0 0 207 119
%%EndComments
%%BeginProlog
50 dict begin
/q { gsave } bind def
/Q { grestore } bind def
/cm { 6 array astore concat } bind def
/w { setlinewidth } bind def
/J { setlinecap } bind def
/j { setlinejoin } bind def
/M { setmiterlimit } bind def
/d { setdash } bind def
/m { moveto } bind def
/l { lineto } bind def
/c { curveto } bind def
/h { closepath } bind def
/re { exch dup neg 3 1 roll 5 3 roll moveto 0 rlineto
      0 exch rlineto 0 rlineto closepath } bind def
/S { stroke } bind def
/f { fill } bind def
/f* { eofill } bind def
/n { newpath } bind def
/W { clip } bind def
/W* { eoclip } bind def
/BT { } bind def
/ET { } bind def
/BDC { mark 3 1 roll /BDC pdfmark } bind def
/EMC { mark /EMC pdfmark } bind def
/cairo_store_point { /cairo_point_y exch def /cairo_point_x exch def } def
/Tj { show currentpoint cairo_store_point } bind def
/TJ {
  {
    dup
    type /stringtype eq
    { show } { -0.001 mul 0 cairo_font_matrix dtransform rmoveto } ifelse
  } forall
  currentpoint cairo_store_point
} bind def
/cairo_selectfont { cairo_font_matrix aload pop pop pop 0 0 6 array astore
    cairo_font exch selectfont cairo_point_x cairo_point_y moveto } bind def
/Tf { pop /cairo_font exch def /cairo_font_matrix where
      { pop cairo_selectfont } if } bind def
/Td { matrix translate cairo_font_matrix matrix concatmatrix dup
      /cairo_font_matrix exch def dup 4 get exch 5 get cairo_store_point
      /cairo_font where { pop cairo_selectfont } if } bind def
/Tm { 2 copy 8 2 roll 6 array astore /cairo_font_matrix exch def
      cairo_store_point /cairo_font where { pop cairo_selectfont } if } bind def
/g { setgray } bind def
/rg { setrgbcolor } bind def
/d1 { setcachedevice } bind def
/cairo_data_source {
  CairoDataIndex CairoData length lt
    { CairoData CairoDataIndex get /CairoDataIndex CairoDataIndex 1 add def }
    { () } ifelse
} def
/cairo_flush_ascii85_file { cairo_ascii85_file status { cairo_ascii85_file flushfile } if } def
/cairo_image { image cairo_flush_ascii85_file } def
/cairo_imagemask { imagemask cairo_flush_ascii85_file } def
%%EndProlog
%%BeginSetup
%%EndSetup
%%Page: 1 1
%%BeginPageSetup
%%PageBoundingBox: 0 0 207 119
%%EndPageSetup
q 0 0 207 119 rectclip
1 0 0 -1 0 119 cm q
0 g
1.13366 w
0 J
0 j
[] 0.0 d
10 M q 1 0 0 -1 0 0 cm
12.355 -93.754 m 12.355 -93.754 49.59 -91.012 69.039 -88.094 c 70.012 -87.953
 70.914 -87.746 71.855 -87.539 c 72.859 -87.289 73.766 -87.047 74.703 -86.699
 c 75.711 -86.316 76.613 -85.938 77.551 -85.414 c 78.594 -84.828 79.461 
-84.203 80.363 -83.434 c 81.441 -82.535 82.309 -81.633 83.211 -80.555 c 
84.289 -79.27 85.156 -77.984 86.023 -76.559 c 87.137 -74.824 87.969 -73.152
 88.875 -71.312 c 89.949 -69.164 90.785 -67.184 91.723 -64.992 c 92.73 -62.562
 93.598 -60.34 94.535 -57.91 c 95.543 -55.375 96.375 -53.078 97.383 -50.547
 c 98.355 -48.078 99.188 -45.855 100.23 -43.461 c 101.133 -41.238 102.004
 -39.258 103.043 -37.133 c 103.949 -35.258 104.816 -33.625 105.895 -31.895
 c 106.762 -30.434 107.629 -29.18 108.707 -27.895 c 109.609 -26.82 110.477
 -25.879 111.555 -24.977 c 112.457 -24.215 113.359 -23.594 114.402 -22.996
 c 115.305 -22.48 116.211 -22.098 117.215 -21.711 c 118.188 -21.367 119.059
 -21.156 120.066 -20.914 c 121.035 -20.676 121.906 -20.5 122.879 -20.328
 c 123.852 -20.184 124.754 -20.051 125.727 -19.91 c 145.246 -17.48 182.41
 -14.25 182.41 -14.25 c S Q
13.66 12.406 m 12.34 8.719 l 11.016 12.406 l 12.34 10.949 l f
178.73 109.25 m 182.418 107.914 l 178.73 106.621 l 180.199 107.914 l f
0.567042 w
q 1 0 0 -1 0 0 cm
12.355 -10.922 m 12.355 -107.922 l 180.219 -107.922 l S Q
188.922 106.434 m 188.25 106.434 l 188.547 105.355 l 188.406 105.355 l 
187.984 105.98 187.484 106.402 186.875 106.543 c 186.828 106.73 l 187.5 
106.73 l 186.766 109.434 l 186.734 109.621 186.625 109.98 186.625 110.121
 c 186.625 110.465 186.875 110.559 187.047 110.559 c 187.438 110.559 187.859
 110.262 188.328 109.512 c 188.203 109.449 l 187.969 109.715 187.688 110.121
 187.469 110.121 c 187.344 110.121 187.312 110.043 187.312 109.98 c 187.312
 109.918 187.328 109.871 187.359 109.73 c 188.172 106.73 l 188.875 106.73
 l h
188.922 106.434 m f
15.16 0 m 10.145 0 l 9.723 1.531 l 9.895 1.531 l 10.27 0.547 10.738 0.328
 11.52 0.328 c 11.52 0.328 12.035 0.328 12.145 0.328 c 10.848 5 l 10.598
 5.906 10.285 5.891 9.926 5.891 c 9.91 6.047 l 12.27 6.047 l 12.301 5.891
 l 11.957 5.891 11.613 5.906 11.613 5.453 c 11.613 5.328 11.645 5.188 11.691
 5 c 12.973 0.328 l 13.723 0.328 l 14.16 0.328 14.629 0.391 14.629 1.016
 c 14.629 1.156 14.613 1.312 14.566 1.531 c 14.738 1.531 l h
15.16 0 m f
q 1 0 0 -1 0 0 cm
12.363 -88.082 m 16.613 -88.082 l S Q
5.438 83.961 m 0.422 83.961 l 0 85.492 l 0.172 85.492 l 0.547 84.508 1.016
 84.289 1.797 84.289 c 1.797 84.289 2.312 84.289 2.422 84.289 c 1.125 88.961
 l 0.875 89.867 0.562 89.852 0.203 89.852 c 0.188 90.008 l 2.547 90.008 
l 2.578 89.852 l 2.234 89.852 1.891 89.867 1.891 89.414 c 1.891 89.289 1.922
 89.148 1.969 88.961 c 3.25 84.289 l 4 84.289 l 4.438 84.289 4.906 84.352
 4.906 84.977 c 4.906 85.117 4.891 85.273 4.844 85.492 c 5.016 85.492 l 
h
5.438 83.961 m f
7.582 92.168 m 7.582 91.98 l 7.051 91.98 6.879 91.98 6.879 91.137 c 6.879
 91.121 6.879 87.465 6.879 87.465 c 6.707 87.465 l 5.363 88.043 l 5.441 
88.23 l 5.754 88.105 5.816 88.09 5.91 88.09 c 6.113 88.09 6.129 88.262 6.129
 88.465 c 6.129 91.137 l 6.129 91.98 5.973 91.965 5.441 91.98 c 5.441 92.168
 l h
7.582 92.168 m f
q 1 0 0 -1 0 0 cm
69.027 -107.922 m 69.027 -103.684 l S Q
68.059 112.434 m 67.387 112.434 l 67.684 111.355 l 67.543 111.355 l 67.121
 111.98 66.621 112.402 66.012 112.543 c 65.965 112.73 l 66.637 112.73 l 
65.902 115.434 l 65.871 115.621 65.762 115.98 65.762 116.121 c 65.762 116.465
 66.012 116.559 66.184 116.559 c 66.574 116.559 66.996 116.262 67.465 115.512
 c 67.34 115.449 l 67.105 115.715 66.824 116.121 66.605 116.121 c 66.48 
116.121 66.449 116.043 66.449 115.98 c 66.449 115.918 66.465 115.871 66.496
 115.73 c 67.309 112.73 l 68.012 112.73 l h
68.059 112.434 m f
71.23 118.609 m 71.23 118.422 l 70.699 118.422 70.527 118.422 70.527 117.578
 c 70.527 117.562 70.527 113.906 70.527 113.906 c 70.355 113.906 l 69.012
 114.484 l 69.09 114.672 l 69.402 114.547 69.465 114.531 69.559 114.531 
c 69.762 114.531 69.777 114.703 69.777 114.906 c 69.777 117.578 l 69.777
 118.422 69.621 118.406 69.09 118.422 c 69.09 118.609 l h
71.23 118.609 m f
0.567044 w
q 1 0 0 -1 0 0 cm
12.332 -19.918 m 16.598 -19.918 l S Q
5.438 15.781 m 0.422 15.781 l 0 17.312 l 0.172 17.312 l 0.547 16.328 1.016
 16.109 1.797 16.109 c 1.797 16.109 2.312 16.109 2.422 16.109 c 1.125 20.781
 l 0.875 21.688 0.562 21.672 0.203 21.672 c 0.188 21.828 l 2.547 21.828 
l 2.578 21.672 l 2.234 21.672 1.891 21.688 1.891 21.234 c 1.891 21.109 1.922
 20.969 1.969 20.781 c 3.25 16.109 l 4 16.109 l 4.438 16.109 4.906 16.172
 4.906 16.797 c 4.906 16.938 4.891 17.094 4.844 17.312 c 5.016 17.312 l 
h
5.438 15.781 m f
8.238 23.02 m 8.02 22.988 l 7.785 23.348 7.598 23.41 7.254 23.41 c 5.598
 23.41 l 6.785 22.426 7.848 21.535 7.848 20.566 c 7.848 19.832 7.145 19.316
 6.379 19.316 c 5.613 19.316 5.004 19.676 4.77 20.691 c 5.02 20.691 l 5.238
 20.301 5.52 19.91 6.098 19.91 c 6.738 19.91 7.098 20.332 7.098 20.832 c
 7.098 21.566 6.207 22.629 4.691 23.816 c 4.691 23.988 l 7.785 23.988 l 
h
8.238 23.02 m f
0.567042 w
q 1 0 0 -1 0 0 cm
125.738 -107.922 m 125.738 -103.684 l S Q
124.762 112.434 m 124.09 112.434 l 124.387 111.355 l 124.246 111.355 l 
123.824 111.98 123.324 112.402 122.715 112.543 c 122.668 112.73 l 123.34
 112.73 l 122.605 115.434 l 122.574 115.621 122.465 115.98 122.465 116.121
 c 122.465 116.465 122.715 116.559 122.887 116.559 c 123.277 116.559 123.699
 116.262 124.168 115.512 c 124.043 115.449 l 123.809 115.715 123.527 116.121
 123.309 116.121 c 123.184 116.121 123.152 116.043 123.152 115.98 c 123.152
 115.918 123.168 115.871 123.199 115.73 c 124.012 112.73 l 124.715 112.73
 l h
124.762 112.434 m f
128.59 117.641 m 128.371 117.609 l 128.137 117.969 127.949 118.031 127.605
 118.031 c 125.949 118.031 l 127.137 117.047 128.199 116.156 128.199 115.188
 c 128.199 114.453 127.496 113.938 126.73 113.938 c 125.965 113.938 125.355
 114.297 125.121 115.312 c 125.371 115.312 l 125.59 114.922 125.871 114.531
 126.449 114.531 c 127.09 114.531 127.449 114.953 127.449 115.453 c 127.449
 116.188 126.559 117.25 125.043 118.438 c 125.043 118.609 l 128.137 118.609
 l h
128.59 117.641 m f
0.283298 w
q 1 0 0 -1 0 0 cm
69.027 -88.074 m 71.961 -87.781 l 73.914 -87.586 m 76.848 -87.293 l 78.801
 -87.098 m 81.734 -86.805 l 83.688 -86.609 m 86.621 -86.316 l 88.578 -86.121
 m 91.508 -85.828 l 93.465 -85.633 m 96.398 -85.34 l 98.352 -85.148 m 101.285
 -84.855 l 103.238 -84.66 m 106.172 -84.367 l 108.125 -84.172 m 111.059 
-83.879 l 113.016 -83.684 m 115.945 -83.391 l 117.902 -83.195 m 120.832 
-82.902 l 122.789 -82.707 m 125.719 -82.414 l S Q
1 g
70.863 88.039 m 70.863 87.02 70.035 86.191 69.016 86.191 c 67.996 86.191
 67.168 87.02 67.168 88.039 c 67.168 89.059 67.996 89.887 69.016 89.887 
c 70.035 89.887 70.863 89.059 70.863 88.039 c f
0 g
70.863 88.039 m 70.863 87.02 70.035 86.191 69.016 86.191 c 67.996 86.191
 67.168 87.02 67.168 88.039 c 67.168 89.059 67.996 89.887 69.016 89.887 
c 70.035 89.887 70.863 89.059 70.863 88.039 c h
70.863 88.039 m 70.676 88.039 l 70.676 87.121 69.934 86.379 69.016 86.379
 c 68.098 86.379 67.355 87.121 67.355 88.039 c 67.355 88.957 68.098 89.699
 69.016 89.699 c 69.934 89.699 70.676 88.957 70.676 88.039 c f
1 g
127.562 19.938 m 127.562 18.918 126.734 18.09 125.715 18.09 c 124.695 18.09
 123.867 18.918 123.867 19.938 c 123.867 20.957 124.695 21.785 125.715 21.785
 c 126.734 21.785 127.562 20.957 127.562 19.938 c f
0 g
127.562 19.938 m 127.562 18.918 126.734 18.09 125.715 18.09 c 124.695 18.09
 123.867 18.918 123.867 19.938 c 123.867 20.957 124.695 21.785 125.715 21.785
 c 126.734 21.785 127.562 20.957 127.562 19.938 c h
127.562 19.938 m 127.375 19.938 l 127.375 19.02 126.633 18.277 125.715 
18.277 c 124.797 18.277 124.055 19.02 124.055 19.938 c 124.055 20.855 124.797
 21.598 125.715 21.598 c 126.633 21.598 127.375 20.855 127.375 19.938 c f
124.41 78.727 m 125.75 82.402 l 127.055 78.727 l 125.75 80.207 l f
127.047 23.594 m 125.727 19.918 l 124.41 23.594 l 125.727 22.141 l f
0.567042 w
q 1 0 0 -1 0 0 cm
125.727 -80.215 m 125.727 -22.121 l S Q
135.387 47.23 m 130.371 47.23 l 129.949 48.762 l 130.121 48.762 l 130.496
 47.777 130.965 47.559 131.746 47.559 c 131.746 47.559 132.262 47.559 132.371
 47.559 c 131.074 52.23 l 130.824 53.137 130.512 53.121 130.152 53.121 c
 130.137 53.277 l 132.496 53.277 l 132.527 53.121 l 132.184 53.121 131.84
 53.137 131.84 52.684 c 131.84 52.559 131.871 52.418 131.918 52.23 c 133.199
 47.559 l 133.949 47.559 l 134.387 47.559 134.855 47.621 134.855 48.246 
c 134.855 48.387 134.84 48.543 134.793 48.762 c 134.965 48.762 l h
135.387 47.23 m f
138.188 54.59 m 137.969 54.559 l 137.734 54.918 137.547 54.98 137.203 54.98
 c 135.547 54.98 l 136.734 53.996 137.797 53.105 137.797 52.137 c 137.797
 51.402 137.094 50.887 136.328 50.887 c 135.562 50.887 134.953 51.246 134.719
 52.262 c 134.969 52.262 l 135.188 51.871 135.469 51.48 136.047 51.48 c 
136.688 51.48 137.047 51.902 137.047 52.402 c 137.047 53.137 136.156 54.199
 134.641 55.387 c 134.641 55.559 l 137.734 55.559 l h
138.188 54.59 m f
141.355 50.793 5.484 0.453 re f
155.547 47.23 m 150.531 47.23 l 150.109 48.762 l 150.281 48.762 l 150.656
 47.777 151.125 47.559 151.906 47.559 c 151.906 47.559 152.422 47.559 152.531
 47.559 c 151.234 52.23 l 150.984 53.137 150.672 53.121 150.312 53.121 c
 150.297 53.277 l 152.656 53.277 l 152.688 53.121 l 152.344 53.121 152 53.137
 152 52.684 c 152 52.559 152.031 52.418 152.078 52.23 c 153.359 47.559 l
 154.109 47.559 l 154.547 47.559 155.016 47.621 155.016 48.246 c 155.016
 48.387 155 48.543 154.953 48.762 c 155.125 48.762 l h
155.547 47.23 m f
157.691 55.559 m 157.691 55.371 l 157.16 55.371 156.988 55.371 156.988 
54.527 c 156.988 54.512 156.988 50.855 156.988 50.855 c 156.816 50.855 l
 155.473 51.434 l 155.551 51.621 l 155.863 51.496 155.926 51.48 156.02 51.48
 c 156.223 51.48 156.238 51.652 156.238 51.855 c 156.238 54.527 l 156.238
 55.371 156.082 55.355 155.551 55.371 c 155.551 55.559 l h
157.691 55.559 m f
161.637 50.793 5.484 0.453 re f
173.297 49.637 m 173.297 49.355 173.078 49.184 172.891 49.184 c 172.188
 49.184 171.484 50.652 171.203 51.277 c 171.203 51.293 171.781 49.184 171.781
 49.184 c 171.781 49.184 170.547 49.418 170.297 49.434 c 170.297 49.59 l
 170.625 49.59 170.891 49.559 170.891 49.918 c 170.891 50.09 170.781 50.418
 170.719 50.652 c 170.047 53.277 l 170.719 53.277 l 170.938 52.355 171.938
 49.809 172.406 49.809 c 172.641 49.809 172.484 50.184 172.844 50.184 c 
173.094 50.184 173.297 49.965 173.297 49.637 c h
173.297 49.637 m f
178.738 55.199 m 178.738 55.043 l 177.645 54.402 177.145 53.137 177.145
 51.012 c 177.145 48.902 177.645 47.668 178.738 46.996 c 178.738 46.84 l
 177.191 47.637 176.285 49.168 176.285 51.012 c 176.285 52.887 177.16 54.34
 178.738 55.199 c h
178.738 55.199 m f
181.52 49.262 m 180.848 49.262 l 181.145 48.184 l 181.004 48.184 l 180.582
 48.809 180.082 49.23 179.473 49.371 c 179.426 49.559 l 180.098 49.559 l
 179.363 52.262 l 179.332 52.449 179.223 52.809 179.223 52.949 c 179.223
 53.293 179.473 53.387 179.645 53.387 c 180.035 53.387 180.457 53.09 180.926
 52.34 c 180.801 52.277 l 180.566 52.543 180.285 52.949 180.066 52.949 c
 179.941 52.949 179.91 52.871 179.91 52.809 c 179.91 52.746 179.926 52.699
 179.957 52.559 c 180.77 49.559 l 181.473 49.559 l h
181.52 49.262 m f
185.348 54.59 m 185.129 54.559 l 184.895 54.918 184.707 54.98 184.363 54.98
 c 182.707 54.98 l 183.895 53.996 184.957 53.105 184.957 52.137 c 184.957
 51.402 184.254 50.887 183.488 50.887 c 182.723 50.887 182.113 51.246 181.879
 52.262 c 182.129 52.262 l 182.348 51.871 182.629 51.48 183.207 51.48 c 
183.848 51.48 184.207 51.902 184.207 52.402 c 184.207 53.137 183.316 54.199
 181.801 55.387 c 181.801 55.559 l 184.895 55.559 l h
185.348 54.59 m f
188.516 50.793 5.484 0.453 re f
199.16 49.262 m 198.488 49.262 l 198.785 48.184 l 198.645 48.184 l 198.223
 48.809 197.723 49.23 197.113 49.371 c 197.066 49.559 l 197.738 49.559 l
 197.004 52.262 l 196.973 52.449 196.863 52.809 196.863 52.949 c 196.863
 53.293 197.113 53.387 197.285 53.387 c 197.676 53.387 198.098 53.09 198.566
 52.34 c 198.441 52.277 l 198.207 52.543 197.926 52.949 197.707 52.949 c
 197.582 52.949 197.551 52.871 197.551 52.809 c 197.551 52.746 197.566 52.699
 197.598 52.559 c 198.41 49.559 l 199.113 49.559 l h
199.16 49.262 m f
202.332 55.559 m 202.332 55.371 l 201.801 55.371 201.629 55.371 201.629
 54.527 c 201.629 54.512 201.629 50.855 201.629 50.855 c 201.457 50.855 
l 200.113 51.434 l 200.191 51.621 l 200.504 51.496 200.566 51.48 200.66 
51.48 c 200.863 51.48 200.879 51.652 200.879 51.855 c 200.879 54.527 l 200.879
 55.371 200.723 55.355 200.191 55.371 c 200.191 55.559 l h
202.332 55.559 m f
206.328 51.027 m 206.328 49.168 205.453 47.715 203.875 46.84 c 203.875 
47.012 l 204.969 47.652 205.469 48.902 205.469 51.027 c 205.469 53.137 204.969
 54.387 203.875 55.043 c 203.875 55.199 l 205.422 54.418 206.328 52.887 
206.328 51.027 c h
206.328 51.027 m f
Q Q
showpage
%%Trailer
end
%%EOF
