%!PS-Adobe-3.0 EPSF-3.0
%%Creator: cairo 1.17.4 (https://cairographics.org)
%%CreationDate: Thu Feb 24 10:47:57 2022
%%Pages: 1
%%DocumentData: Clean7Bit
%%LanguageLevel: 2
%%BoundingBox: 0 0 235 226
%%EndComments
%%BeginProlog
50 dict begin
/q { gsave } bind def
/Q { grestore } bind def
/cm { 6 array astore concat } bind def
/w { setlinewidth } bind def
/J { setlinecap } bind def
/j { setlinejoin } bind def
/M { setmiterlimit } bind def
/d { setdash } bind def
/m { moveto } bind def
/l { lineto } bind def
/c { curveto } bind def
/h { closepath } bind def
/re { exch dup neg 3 1 roll 5 3 roll moveto 0 rlineto
      0 exch rlineto 0 rlineto closepath } bind def
/S { stroke } bind def
/f { fill } bind def
/f* { eofill } bind def
/n { newpath } bind def
/W { clip } bind def
/W* { eoclip } bind def
/BT { } bind def
/ET { } bind def
/BDC { mark 3 1 roll /BDC pdfmark } bind def
/EMC { mark /EMC pdfmark } bind def
/cairo_store_point { /cairo_point_y exch def /cairo_point_x exch def } def
/Tj { show currentpoint cairo_store_point } bind def
/TJ {
  {
    dup
    type /stringtype eq
    { show } { -0.001 mul 0 cairo_font_matrix dtransform rmoveto } ifelse
  } forall
  currentpoint cairo_store_point
} bind def
/cairo_selectfont { cairo_font_matrix aload pop pop pop 0 0 6 array astore
    cairo_font exch selectfont cairo_point_x cairo_point_y moveto } bind def
/Tf { pop /cairo_font exch def /cairo_font_matrix where
      { pop cairo_selectfont } if } bind def
/Td { matrix translate cairo_font_matrix matrix concatmatrix dup
      /cairo_font_matrix exch def dup 4 get exch 5 get cairo_store_point
      /cairo_font where { pop cairo_selectfont } if } bind def
/Tm { 2 copy 8 2 roll 6 array astore /cairo_font_matrix exch def
      cairo_store_point /cairo_font where { pop cairo_selectfont } if } bind def
/g { setgray } bind def
/rg { setrgbcolor } bind def
/d1 { setcachedevice } bind def
/cairo_data_source {
  CairoDataIndex CairoData length lt
    { CairoData CairoDataIndex get /CairoDataIndex CairoDataIndex 1 add def }
    { () } ifelse
} def
/cairo_flush_ascii85_file { cairo_ascii85_file status { cairo_ascii85_file flushfile } if } def
/cairo_image { image cairo_flush_ascii85_file } def
/cairo_imagemask { imagemask cairo_flush_ascii85_file } def
%%EndProlog
%%BeginSetup
%%EndSetup
%%Page: 1 1
%%BeginPageSetup
%%PageBoundingBox: 0 0 235 226
%%EndPageSetup
q 0 0 235 226 rectclip
1 0 0 -1 0 226 cm q
0 g
1.13366 w
0 J
0 j
[] 0.0 d
10 M q 1 0 0 -1 0 0 cm
58.398 -101.977 m 59.535 -101.711 l 60.668 -101.438 l 61.801 -101.168 l
 62.934 -100.891 l 64.066 -100.617 l 65.203 -100.34 l 66.336 -100.066 l 
68.602 -99.512 l 69.738 -99.234 l 70.871 -98.949 l 72.004 -98.672 l 73.137
 -98.387 l 74.27 -98.105 l 75.406 -97.824 l 77.672 -97.254 l 78.805 -96.965
 l 79.938 -96.684 l 81.074 -96.395 l 83.34 -95.816 l 84.473 -95.523 l 85.609
 -95.23 l 86.742 -94.941 l 87.875 -94.648 l 89.008 -94.352 l 90.145 -94.059
 l 91.277 -93.758 l 92.41 -93.461 l 94.676 -92.859 l 95.812 -92.559 l 96.945
 -92.262 l 98.078 -91.961 l 99.211 -91.652 l 100.344 -91.348 l 101.48 -91.043
 l 102.613 -90.734 l 103.746 -90.43 l 104.879 -90.117 l 106.016 -89.812 
l 108.281 -89.188 l 109.414 -88.871 l 110.547 -88.559 l 111.684 -88.242 
l 112.816 -87.922 l 115.082 -87.289 l 116.215 -86.965 l 117.352 -86.648 
l 118.484 -86.324 l 119.617 -85.996 l 120.75 -85.672 l 121.887 -85.348 l
 124.152 -84.691 l 125.285 -84.355 l 126.422 -84.027 l 127.555 -83.691 l
 128.688 -83.359 l 129.82 -83.023 l 130.953 -82.691 l 132.09 -82.352 l 133.223
 -82.016 l 134.355 -81.676 l 135.488 -81.328 l S Q
91.246 88.816 m 90.965 89.457 90.902 89.582 90.777 89.613 c 90.699 89.629
 90.637 89.582 90.621 89.504 c 90.605 89.441 90.59 89.285 90.59 88.988 c
 90.59 87.285 l 90.59 87.129 90.559 86.941 90.543 86.832 c 90.465 86.551
 90.199 86.426 89.902 86.504 c 89.402 86.645 89.059 87.238 88.59 88.676 
c 88.668 86.863 l 88.621 86.863 l 88.246 87.066 88.09 87.145 87.449 87.441
 c 87.48 87.566 l 87.871 87.473 87.996 87.488 88.027 87.645 c 88.043 87.691
 88.059 87.723 88.059 87.77 c 88.059 90.66 l 88.621 90.504 l 88.668 89.191
 88.684 88.988 88.887 88.41 c 89.137 87.551 89.434 87.051 89.715 86.973 
c 89.84 86.941 89.918 87.02 89.949 87.16 c 89.98 87.238 90.012 87.52 90.027
 87.77 c 90.027 89.129 l 90.043 89.551 90.043 89.66 90.059 89.738 c 90.137
 90.02 90.277 90.129 90.527 90.066 c 90.871 89.973 91.027 89.738 91.371 
88.895 c h
91.246 88.816 m f
91.52 87.598 m 91.66 88.082 l 93.551 87.566 l 93.41 87.082 l h
91.52 87.598 m f
98.016 87.785 m 97.594 87.832 97.531 87.801 97.375 87.254 c 96.953 85.723
 l 96.734 84.91 96.312 84.582 95.672 84.754 c 95.234 84.879 94.953 85.16
 94.719 85.723 c 94.078 83.379 l 94.047 83.363 l 93.797 83.535 93.609 83.66
 93.219 83.895 c 93.047 84.02 l 93.078 84.129 l 93.109 84.113 93.125 84.113
 93.172 84.098 c 93.5 84.004 93.578 84.051 93.672 84.379 c 94.656 88.004
 l 94.797 88.566 94.781 88.629 94.359 88.801 c 94.391 88.926 l 96.047 88.473
 l 96.016 88.348 l 95.547 88.426 95.469 88.379 95.297 87.832 c 94.797 85.973
 l 95 85.535 95.219 85.332 95.516 85.254 c 95.891 85.145 96.172 85.379 96.312
 85.91 c 96.734 87.441 l 96.875 87.988 96.812 88.082 96.391 88.238 c 96.422
 88.363 l 98.047 87.91 l h
98.016 87.785 m f
100.93 85.77 m 100.711 86.457 100.445 86.77 99.945 86.91 c 99.508 87.02
 99.117 86.895 98.773 86.52 c 98.555 86.27 98.43 86.035 98.289 85.566 c 
100.68 84.91 l 100.461 84.426 100.32 84.238 100.055 84.02 c 99.758 83.816
 99.367 83.738 98.961 83.848 c 98.586 83.957 98.242 84.207 98.023 84.551
 c 97.758 84.973 97.711 85.566 97.883 86.207 c 98.18 87.254 98.883 87.77
 99.773 87.52 c 100.508 87.316 100.961 86.707 101.055 85.801 c h
98.227 85.316 m 98.164 84.691 98.336 84.348 98.82 84.207 c 99.289 84.082
 99.523 84.238 99.805 84.879 c h
98.227 85.316 m f
103.512 86.41 m 105.043 85.988 l 105.012 85.863 l 104.777 85.941 104.59
 85.863 104.262 85.582 c 102.855 84.363 l 103.262 83.254 l 103.34 83.02 
103.527 82.832 103.777 82.738 c 103.746 82.629 l 102.527 82.973 l 102.559
 83.082 l 102.793 83.035 102.887 83.051 102.918 83.16 c 102.949 83.238 102.902
 83.457 102.777 83.738 c 102.746 83.801 102.684 83.973 102.621 84.16 c 102.543
 84.082 l 102.387 83.926 102.277 83.832 102.262 83.816 c 102.043 83.629 
101.965 83.504 101.949 83.441 c 101.918 83.332 101.996 83.254 102.23 83.176
 c 102.199 83.066 l 100.605 83.504 l 100.637 83.613 l 100.699 83.582 l 100.934
 83.535 101.09 83.598 101.418 83.895 c 102.449 84.785 l 101.918 86.301 l
 101.793 86.676 101.715 86.754 101.48 86.848 c 101.512 86.973 l 102.621 
86.66 l 102.59 86.535 l 102.371 86.598 102.262 86.598 102.23 86.504 c 102.23
 86.457 102.246 86.332 102.293 86.129 c 102.652 85.035 l 103.637 85.91 l
 103.684 85.941 103.715 85.988 103.73 86.035 c 103.762 86.16 103.73 86.207
 103.48 86.285 c h
103.512 86.41 m f
108.441 84.5 m 108.348 84.641 108.27 84.719 108.16 84.75 c 107.973 84.797
 107.895 84.703 107.801 84.359 c 107.379 82.859 l 107.27 82.453 107.176 
82.266 107.004 82.094 c 106.754 81.875 106.395 81.812 105.941 81.938 c 105.223
 82.125 104.754 82.672 104.895 83.156 c 104.941 83.328 105.129 83.453 105.301
 83.406 c 105.504 83.344 105.598 83.156 105.551 82.984 c 105.551 82.953 
105.535 82.922 105.504 82.875 c 105.473 82.797 105.457 82.734 105.441 82.688
 c 105.379 82.484 105.582 82.25 105.895 82.156 c 106.27 82.062 106.535 82.203
 106.645 82.625 c 106.77 83.094 l 105.738 83.891 105.613 84 105.363 84.375
 c 105.238 84.578 105.191 84.875 105.27 85.141 c 105.395 85.625 105.832 
85.859 106.285 85.734 c 106.645 85.641 106.91 85.375 107.285 84.859 c 107.426
 85.25 107.598 85.375 107.926 85.281 c 108.176 85.219 108.332 85.078 108.504
 84.719 c h
107.129 84.391 m 107.207 84.641 107.191 84.734 107.035 84.859 c 106.879
 85.016 106.707 85.156 106.551 85.203 c 106.27 85.266 105.988 85.062 105.895
 84.719 c 105.879 84.688 l 105.77 84.234 106.02 83.844 106.832 83.281 c 
h
107.129 84.391 m f
108.688 84.996 m 110.312 84.543 l 110.281 84.418 l 109.906 84.512 109.75
 84.449 109.672 84.168 c 109.078 82.012 l 109.344 81.559 109.484 81.402 
109.734 81.34 c 110.109 81.23 110.359 81.434 110.5 81.949 c 110.953 83.559
 l 111.062 84.059 111.016 84.199 110.641 84.324 c 110.672 84.449 l 112.266
 84.012 l 112.234 83.887 l 111.844 83.949 111.75 83.887 111.625 83.512 c
 111.141 81.762 l 110.938 81.027 110.5 80.684 109.922 80.84 c 109.578 80.934
 109.375 81.137 108.984 81.777 c 108.812 81.152 l 108.766 81.152 l 108.391
 81.418 108.172 81.59 107.797 81.809 c 107.828 81.934 l 107.891 81.887 107.938
 81.871 108.031 81.84 c 108.25 81.777 108.359 81.887 108.453 82.262 c 108.984
 84.168 l 109.094 84.621 109.047 84.746 108.656 84.871 c h
108.688 84.996 m f
115.16 81.855 m 114.941 82.543 114.676 82.855 114.176 82.996 c 113.738 
83.105 113.348 82.98 113.004 82.605 c 112.785 82.355 112.66 82.121 112.52
 81.652 c 114.91 80.996 l 114.691 80.512 114.551 80.324 114.285 80.105 c
 113.988 79.902 113.598 79.824 113.191 79.934 c 112.816 80.043 112.473 80.293
 112.254 80.637 c 111.988 81.059 111.941 81.652 112.113 82.293 c 112.41 
83.34 113.113 83.855 114.004 83.605 c 114.738 83.402 115.191 82.793 115.285
 81.887 c h
112.457 81.402 m 112.395 80.777 112.566 80.434 113.051 80.293 c 113.52 
80.168 113.754 80.324 114.035 80.965 c h
112.457 81.402 m f
116.562 77.227 m 116.094 77.758 115.922 78.023 115.734 78.445 c 115.359
 79.289 115.297 80.133 115.547 81.023 c 115.812 82.008 116.297 82.68 117.203
 83.273 c 117.625 83.555 117.875 83.664 118.344 83.789 c 118.391 83.648 
l 117.641 83.336 117.344 83.117 116.984 82.602 c 116.656 82.133 116.422 
81.586 116.219 80.82 c 115.984 80.008 115.906 79.336 116 78.805 c 116.062
 78.273 116.234 77.945 116.656 77.336 c h
116.562 77.227 m f
118.438 82.309 m 120.234 81.809 l 120.203 81.684 l 119.719 81.809 119.609
 81.762 119.5 81.324 c 118.234 76.73 l 118.203 76.73 l 117.844 76.965 117.562
 77.121 117.078 77.402 c 117.109 77.512 l 117.156 77.512 l 117.219 77.48
 117.297 77.449 117.375 77.418 c 117.609 77.355 117.719 77.449 117.828 77.809
 c 118.828 81.496 l 118.922 81.902 118.844 82.027 118.406 82.184 c h
118.438 82.309 m f
121.004 83.066 m 121.473 82.535 121.645 82.285 121.848 81.848 c 122.191
 81.035 122.254 80.191 122.02 79.301 c 121.738 78.316 121.238 77.645 120.363
 77.02 c 119.957 76.754 119.691 76.66 119.238 76.488 c 119.176 76.645 l 
119.926 76.973 120.207 77.176 120.582 77.707 c 120.91 78.176 121.129 78.707
 121.348 79.488 c 121.566 80.301 121.66 80.957 121.582 81.488 c 121.504 
82.02 121.348 82.363 120.91 82.957 c h
121.004 83.066 m f
q 1 0 0 -1 0 0 cm
58.398 -116.484 m 59.535 -116.574 l 60.668 -116.656 l 61.801 -116.734 l
 64.066 -116.867 l 65.203 -116.922 l 66.336 -116.973 l 67.469 -117.02 l 
68.602 -117.051 l 69.738 -117.082 l 72.004 -117.121 l 73.137 -117.133 l 
74.27 -117.133 l 75.406 -117.125 l 76.539 -117.113 l 77.672 -117.098 l 78.805
 -117.07 l 79.938 -117.035 l 81.074 -116.996 l 82.207 -116.949 l 83.34 -116.895
 l 84.473 -116.832 l 85.609 -116.762 l 86.742 -116.688 l 87.875 -116.605
 l 89.008 -116.512 l 90.145 -116.418 l 91.277 -116.316 l 92.41 -116.203 
l 93.543 -116.082 l 94.676 -115.953 l 95.812 -115.824 l 98.078 -115.527 
l 99.211 -115.367 l 100.344 -115.203 l 101.48 -115.035 l 102.613 -114.852
 l 103.746 -114.664 l 104.879 -114.473 l 106.016 -114.27 l 107.148 -114.059
 l 108.281 -113.836 l 109.414 -113.609 l 110.547 -113.379 l 111.684 -113.133
 l 112.816 -112.887 l 113.949 -112.629 l 115.082 -112.363 l 116.215 -112.086
 l 117.352 -111.809 l 118.484 -111.52 l 119.617 -111.219 l 120.75 -110.914
 l 121.887 -110.594 l 123.02 -110.27 l 124.152 -109.941 l 125.285 -109.602
 l 126.422 -109.258 l 127.555 -108.898 l 128.688 -108.531 l 129.82 -108.156
 l 130.953 -107.777 l 132.09 -107.387 l 133.223 -106.988 l 134.355 -106.582
 l 135.488 -106.16 l 136.621 -105.734 l 137.758 -105.305 l 138.891 -104.855
 l 140.023 -104.41 l 141.156 -103.945 l 142.289 -103.473 l 143.426 -102.996
 l 144.559 -102.512 l 145.691 -102.012 l 146.824 -101.508 l 147.961 -100.984
 l 149.094 -100.465 l 150.227 -99.926 l 151.359 -99.383 l 152.492 -98.832
 l 153.629 -98.266 l 154.762 -97.691 l 157.027 -96.52 l 158.16 -95.918 l
 159.297 -95.305 l 160.43 -94.68 l 161.562 -94.047 l 162.695 -93.406 l 163.828
 -92.754 l 164.965 -92.09 l 166.098 -91.414 l 167.23 -90.73 l 168.363 -90.039
 l S Q
88.09 125.766 m 90.262 125.359 l 90.246 125.234 l 89.637 125.344 89.48 
125.297 89.387 124.922 c 88.512 120.219 l 88.465 120.219 l 87.199 121.203
 l 87.215 121.312 l 87.48 121.125 87.684 121.047 87.73 121.031 c 87.902 
121 87.996 121.094 88.043 121.359 c 88.699 124.906 l 88.777 125.391 88.668
 125.531 88.074 125.641 c h
88.09 125.766 m f
91 123.137 m 91.094 123.637 l 93.016 123.293 l 92.922 122.793 l h
91 123.137 m f
94.02 126.418 m 95.91 126.074 l 95.879 125.918 l 95.301 126.027 95.207 
125.965 95.098 125.465 c 94.863 124.23 l 95.176 124.449 95.379 124.496 95.723
 124.434 c 96.645 124.262 97.191 123.246 96.988 122.105 c 96.801 121.137
 96.129 120.543 95.363 120.684 c 94.926 120.762 94.613 121.027 94.363 121.512
 c 94.238 120.902 l 94.191 120.902 l 93.785 121.152 93.535 121.309 93.145
 121.512 c 93.16 121.637 l 93.223 121.605 93.27 121.605 93.348 121.59 c 
93.613 121.543 93.676 121.605 93.754 121.98 c 94.426 125.652 l 94.504 126.059
 94.441 126.152 94.004 126.277 c h
94.426 121.887 m 94.379 121.637 94.77 121.277 95.129 121.215 c 95.707 121.105
 96.207 121.637 96.379 122.543 c 96.535 123.418 96.254 124.074 95.691 124.184
 c 95.316 124.246 94.832 124.043 94.785 123.809 c h
94.426 121.887 m f
97.598 123.992 m 99.473 123.648 l 99.457 123.523 l 98.91 123.602 98.785
 123.523 98.691 123.07 c 98.363 121.305 l 98.316 121.055 98.551 120.602 
98.77 120.57 c 98.816 120.555 98.895 120.57 99.004 120.633 c 99.145 120.742
 99.238 120.758 99.332 120.727 c 99.52 120.695 99.629 120.555 99.582 120.336
 c 99.535 120.086 99.332 119.945 99.082 119.992 c 98.738 120.055 98.551 
120.273 98.285 120.898 c 98.145 120.18 l 98.098 120.18 l 97.676 120.445 
97.426 120.602 97.02 120.805 c 97.051 120.93 l 97.145 120.898 97.207 120.867
 97.301 120.852 c 97.488 120.82 97.598 120.93 97.66 121.289 c 98.02 123.242
 l 98.082 123.648 98.051 123.711 97.582 123.867 c h
97.598 123.992 m f
101.43 119.555 m 100.414 119.742 99.852 120.617 100.055 121.711 c 100.258
 122.773 101.117 123.43 102.102 123.242 c 103.102 123.055 103.695 122.102
 103.492 121.008 c 103.305 119.961 102.445 119.367 101.43 119.555 c h
101.383 119.805 m 102.039 119.68 102.648 120.352 102.852 121.43 c 103.008
 122.32 102.742 122.898 102.164 123.008 c 101.852 123.055 101.523 122.93
 101.305 122.648 c 101.023 122.273 100.789 121.758 100.68 121.195 c 100.539
 120.445 100.82 119.914 101.383 119.805 c h
101.383 119.805 m f
104.402 124.488 m 106.293 124.145 l 106.262 123.988 l 105.684 124.098 105.59
 124.035 105.48 123.535 c 105.246 122.301 l 105.559 122.52 105.762 122.566
 106.105 122.504 c 107.027 122.332 107.574 121.316 107.371 120.176 c 107.184
 119.207 106.512 118.613 105.746 118.754 c 105.309 118.832 104.996 119.098
 104.746 119.582 c 104.621 118.973 l 104.574 118.973 l 104.168 119.223 103.918
 119.379 103.527 119.582 c 103.543 119.707 l 103.605 119.676 103.652 119.676
 103.73 119.66 c 103.996 119.613 104.059 119.676 104.137 120.051 c 104.809
 123.723 l 104.887 124.129 104.824 124.223 104.387 124.348 c h
104.809 119.957 m 104.762 119.707 105.152 119.348 105.512 119.285 c 106.09
 119.176 106.59 119.707 106.762 120.613 c 106.918 121.488 106.637 122.145
 106.074 122.254 c 105.699 122.316 105.215 122.113 105.168 121.879 c h
104.809 119.957 m f
111.293 120.922 m 111.184 121.031 111.105 121.094 110.996 121.125 c 110.809
 121.156 110.73 121.078 110.668 120.719 c 110.387 119.203 l 110.309 118.781
 110.23 118.562 110.059 118.391 c 109.84 118.156 109.48 118.062 109.012 
118.141 c 108.277 118.281 107.793 118.781 107.887 119.281 c 107.918 119.453
 108.059 119.578 108.246 119.547 c 108.449 119.5 108.59 119.328 108.559 
119.156 c 108.543 119.125 108.543 119.078 108.512 119.031 c 108.48 118.953
 108.48 118.891 108.465 118.844 c 108.418 118.641 108.637 118.422 108.949
 118.359 c 109.34 118.297 109.59 118.469 109.668 118.891 c 109.762 119.375
 l 108.637 120.078 108.512 120.172 108.23 120.531 c 108.105 120.703 108.043
 121.016 108.09 121.281 c 108.184 121.766 108.574 122.047 109.059 121.953
 c 109.402 121.891 109.699 121.656 110.105 121.172 c 110.199 121.578 110.387
 121.703 110.715 121.641 c 110.98 121.594 111.121 121.469 111.324 121.125
 c h
109.996 120.688 m 110.043 120.938 110.027 121.031 109.871 121.156 c 109.699
 121.281 109.512 121.391 109.34 121.422 c 109.074 121.484 108.793 121.25
 108.73 120.906 c 108.73 120.875 l 108.637 120.422 108.949 120.047 109.793
 119.547 c h
109.996 120.688 m f
111.496 121.41 m 113.152 121.113 l 113.137 120.988 l 112.73 121.035 112.605
 120.957 112.559 120.691 c 112.152 118.488 l 112.434 118.051 112.59 117.91
 112.855 117.863 c 113.23 117.801 113.465 118.004 113.559 118.535 c 113.871
 120.176 l 113.949 120.691 113.871 120.832 113.512 120.91 c 113.527 121.035
 l 115.152 120.738 l 115.137 120.613 l 114.73 120.645 114.637 120.566 114.559
 120.207 c 114.215 118.41 l 114.074 117.66 113.668 117.285 113.074 117.379
 c 112.73 117.457 112.512 117.645 112.074 118.238 c 111.949 117.613 l 111.902
 117.613 l 111.512 117.832 111.262 117.988 110.871 118.176 c 110.902 118.301
 l 110.965 118.254 111.027 118.238 111.121 118.223 c 111.324 118.176 111.418
 118.301 111.496 118.691 c 111.855 120.629 l 111.918 121.082 111.855 121.207
 111.48 121.285 c h
111.496 121.41 m f
116.531 116.75 m 115.516 116.938 114.953 117.812 115.156 118.906 c 115.359
 119.969 116.219 120.625 117.203 120.438 c 118.203 120.25 118.797 119.297
 118.594 118.203 c 118.406 117.156 117.547 116.562 116.531 116.75 c h
116.484 117 m 117.141 116.875 117.75 117.547 117.953 118.625 c 118.109 
119.516 117.844 120.094 117.266 120.203 c 116.953 120.25 116.625 120.125
 116.406 119.844 c 116.125 119.469 115.891 118.953 115.781 118.391 c 115.641
 117.641 115.922 117.109 116.484 117 c h
116.484 117 m f
119.316 119.961 m 121.16 119.617 l 121.145 119.492 l 120.629 119.57 120.52
 119.508 120.441 119.07 c 119.582 114.398 l 119.535 114.383 l 119.176 114.586
 118.895 114.727 118.363 114.945 c 118.395 115.07 l 118.441 115.07 l 118.52
 115.055 118.613 115.023 118.691 115.008 c 118.926 114.961 119.02 115.055
 119.082 115.43 c 119.785 119.18 l 119.848 119.586 119.754 119.711 119.301
 119.836 c h
119.316 119.961 m f
122.578 113.879 m 122.094 114.348 121.875 114.598 121.672 115.02 c 121.219
 115.801 121.109 116.645 121.266 117.551 c 121.453 118.566 121.875 119.254
 122.734 119.926 c 123.125 120.254 123.359 120.395 123.797 120.551 c 123.875
 120.426 l 123.156 120.035 122.891 119.801 122.578 119.254 c 122.297 118.77
 122.094 118.191 121.938 117.41 c 121.781 116.582 121.781 115.91 121.906
 115.395 c 122.016 114.863 122.203 114.535 122.672 113.988 c h
122.578 113.879 m f
124.035 119.086 m 125.879 118.742 l 125.863 118.617 l 125.348 118.695 125.238
 118.633 125.16 118.195 c 124.301 113.523 l 124.254 113.508 l 123.895 113.711
 123.613 113.852 123.082 114.07 c 123.113 114.195 l 123.16 114.195 l 123.238
 114.18 123.332 114.148 123.41 114.133 c 123.645 114.086 123.738 114.18 
123.801 114.555 c 124.504 118.305 l 124.566 118.711 124.473 118.836 124.02
 118.961 c h
124.035 119.086 m f
126.531 120.051 m 127.047 119.566 127.25 119.332 127.453 118.91 c 127.891
 118.129 128.031 117.301 127.859 116.379 c 127.672 115.379 127.234 114.66
 126.406 113.988 c 126.016 113.676 125.766 113.551 125.328 113.363 c 125.25
 113.504 l 125.969 113.895 126.234 114.113 126.578 114.676 c 126.844 115.16
 127.031 115.738 127.172 116.535 c 127.328 117.348 127.359 118.004 127.234
 118.52 c 127.109 119.051 126.938 119.379 126.453 119.941 c h
126.531 120.051 m f
q 1 0 0 -1 0 0 cm
30.059 -164.891 m 58.398 -163.188 l 58.398 -177.59 l S Q
32.012 160.18 m 34.215 160.055 l 34.199 159.898 l 33.605 159.883 33.512
 159.805 33.48 159.227 c 33.371 157.586 l 35.777 157.43 l 35.871 158.992
 l 35.918 159.664 35.84 159.773 35.215 159.836 c 35.23 159.992 l 37.434 
159.867 l 37.418 159.711 l 36.824 159.695 36.73 159.602 36.684 159.023 c
 36.465 155.508 l 36.449 154.93 36.527 154.852 37.121 154.758 c 37.121 154.602
 l 34.918 154.727 l 34.918 154.883 l 35.559 154.898 35.637 154.961 35.668
 155.555 c 35.762 157.086 l 33.355 157.242 l 33.262 155.711 l 33.23 155.133
 33.309 155.039 33.902 154.945 c 33.902 154.789 l 31.699 154.914 l 31.699
 155.07 l 32.324 155.086 32.402 155.164 32.449 155.758 c 32.652 159.195 
l 32.684 159.867 32.605 159.961 31.996 160.023 c h
32.012 160.18 m f
41.387 160.824 m 41.262 160.809 l 41.043 161.152 40.855 161.23 40.465 161.246
 c 38.684 161.355 l 39.855 160.355 40.918 159.418 40.871 158.465 c 40.824
 157.809 40.105 157.387 39.355 157.434 c 38.605 157.48 38.027 157.84 37.855
 158.746 c 38.027 158.73 l 38.23 158.355 38.496 157.965 39.105 157.934 c
 39.777 157.887 40.184 158.293 40.215 158.793 c 40.246 159.48 39.418 160.559
 37.965 161.777 c 37.965 161.871 l 41.027 161.684 l h
41.387 160.824 m f
44.586 154.039 m 43.07 154.133 42.055 155.32 42.148 156.93 c 42.195 157.68
 42.508 158.398 42.945 158.82 c 43.445 159.305 44.164 159.57 44.867 159.523
 c 46.43 159.43 47.445 158.258 47.352 156.648 c 47.305 155.867 47.023 155.195
 46.57 154.773 c 46.039 154.242 45.352 153.992 44.586 154.039 c h
44.602 154.336 m 44.977 154.32 45.352 154.43 45.648 154.664 c 46.102 155.008
 46.383 155.742 46.445 156.695 c 46.477 157.164 46.414 157.727 46.289 158.148
 c 46.211 158.352 46.102 158.555 45.93 158.758 c 45.664 159.055 45.305 159.211
 44.883 159.242 c 44.523 159.258 44.164 159.148 43.852 158.914 c 43.414 
158.555 43.102 157.789 43.055 156.898 c 43.008 156.086 43.195 155.305 43.492
 154.914 c 43.789 154.555 44.164 154.367 44.602 154.336 c h
44.602 154.336 m f
49.805 153.727 m 49.258 154.148 49.023 154.367 48.758 154.742 c 48.227 
155.461 47.992 156.289 48.039 157.211 c 48.102 158.242 48.445 158.977 49.195
 159.758 c 49.555 160.117 49.758 160.289 50.195 160.508 c 50.289 160.383
 l 49.617 159.914 49.383 159.648 49.133 159.07 c 48.914 158.555 48.773 157.945
 48.727 157.148 c 48.68 156.305 48.742 155.648 48.945 155.148 c 49.133 154.648
 49.352 154.352 49.898 153.852 c h
49.805 153.727 m f
52.781 156.426 m 52.688 155.332 l 52.594 155.348 l 52.547 155.41 52.531
 155.441 52.484 155.441 c 52.438 155.441 52.359 155.441 52.25 155.395 c 
52.062 155.348 51.891 155.316 51.688 155.316 c 51.062 155.363 50.641 155.801
 50.672 156.379 c 50.688 156.816 50.969 157.129 51.672 157.473 c 52.141 
157.707 l 52.438 157.848 52.578 158.02 52.594 158.27 c 52.625 158.629 52.375
 158.879 51.969 158.895 c 51.422 158.926 51.125 158.645 50.891 157.832 c
 50.766 157.832 l 50.844 159.082 l 50.938 159.082 l 51 159.004 51.031 158.988
 51.125 158.973 c 51.203 158.973 51.312 158.988 51.484 159.02 c 51.703 159.051
 51.906 159.066 52.078 159.066 c 52.688 159.02 53.172 158.535 53.125 157.973
 c 53.109 157.566 52.906 157.316 52.422 157.066 c 51.531 156.598 l 51.281
 156.488 51.172 156.316 51.156 156.098 c 51.125 155.77 51.359 155.535 51.734
 155.504 c 52.188 155.473 52.438 155.738 52.656 156.441 c h
52.781 156.426 m f
53.914 160.285 m 54.492 159.863 54.711 159.66 54.992 159.27 c 55.508 158.535
 55.742 157.723 55.68 156.785 c 55.633 155.77 55.289 155.004 54.539 154.254
 c 54.195 153.895 53.961 153.738 53.539 153.504 c 53.461 153.629 l 54.133
 154.113 54.352 154.363 54.617 154.941 c 54.836 155.457 54.945 156.051 55.008
 156.863 c 55.055 157.691 54.992 158.348 54.805 158.848 c 54.617 159.363
 54.398 159.676 53.852 160.16 c h
53.914 160.285 m f
q 1 0 0 -1 0 0 cm
58.398 -177.59 m 58.398 -177.59 62.035 -174.121 64.066 -172.43 c 65.957
 -170.859 67.727 -169.535 69.738 -168.121 c 71.645 -166.777 73.414 -165.648
 75.406 -164.438 c 77.328 -163.266 79.09 -162.266 81.074 -161.203 c 83.004
 -160.172 84.77 -159.316 86.742 -158.371 c 88.684 -157.438 90.438 -156.629
 92.41 -155.762 c 94.352 -154.906 96.109 -154.176 98.078 -153.383 c 100.023
 -152.594 101.785 -151.914 103.746 -151.168 c 105.695 -150.43 107.449 -149.77
 109.414 -149.074 c 111.363 -148.383 113.121 -147.797 115.082 -147.145 c
 118.984 -145.848 122.496 -144.695 126.422 -143.461 c 130.32 -142.23 133.832
 -141.16 137.758 -140 c 141.656 -138.852 145.18 -137.875 149.094 -136.77
 c 153.004 -135.664 156.512 -134.672 160.43 -133.594 c 164.191 -132.559 
171.348 -130.648 171.348 -130.648 c S Q
94.215 149.82 m 96.293 149.055 l 96.246 148.914 l 95.652 149.07 95.527 
149.008 95.34 148.461 c 94.762 146.93 l 97.027 146.086 l 97.574 147.555 
l 97.809 148.18 97.762 148.305 97.199 148.555 c 97.246 148.695 l 99.324 
147.93 l 99.277 147.789 l 98.684 147.945 98.559 147.883 98.371 147.336 c
 97.137 144.039 l 96.934 143.492 96.996 143.383 97.543 143.117 c 97.496 
142.977 l 95.418 143.742 l 95.465 143.883 l 96.059 143.711 96.168 143.758
 96.371 144.32 c 96.902 145.758 l 94.637 146.602 l 94.105 145.164 l 93.902
 144.617 93.965 144.508 94.512 144.242 c 94.465 144.102 l 92.387 144.867
 l 92.434 145.008 l 93.027 144.836 93.137 144.883 93.355 145.445 c 94.559
 148.68 l 94.777 149.305 94.73 149.43 94.168 149.68 c h
94.215 149.82 m f
103.355 147.703 m 103.246 147.734 l 103.137 148.125 102.98 148.25 102.621
 148.391 c 100.949 149 l 101.762 147.703 102.527 146.5 102.199 145.609 c
 101.965 144.984 101.137 144.766 100.434 145.031 c 99.73 145.297 99.293 
145.828 99.402 146.734 c 99.559 146.672 l 99.637 146.266 99.777 145.812 
100.355 145.594 c 100.98 145.359 101.48 145.641 101.652 146.109 c 101.887
 146.75 101.418 148.031 100.371 149.609 c 100.402 149.703 l 103.277 148.641
 l h
103.355 147.703 m f
104.469 140.266 m 103.047 140.797 102.422 142.25 102.969 143.766 c 103.234
 144.469 103.734 145.062 104.281 145.344 c 104.891 145.641 105.672 145.703
 106.328 145.453 c 107.797 144.906 108.438 143.484 107.875 141.969 c 107.609
 141.234 107.141 140.672 106.578 140.391 c 105.922 140.047 105.188 140 104.469
 140.266 c h
104.578 140.547 m 104.922 140.422 105.312 140.438 105.672 140.578 c 106.203
 140.781 106.703 141.391 107.031 142.281 c 107.188 142.734 107.297 143.266
 107.281 143.734 c 107.266 143.938 107.234 144.172 107.109 144.406 c 106.953
 144.766 106.656 145.031 106.266 145.172 c 105.922 145.297 105.531 145.281
 105.188 145.156 c 104.656 144.953 104.125 144.297 103.828 143.453 c 103.547
 142.703 103.5 141.906 103.672 141.422 c 103.859 141.016 104.156 140.703
 104.578 140.547 c h
104.578 140.547 m f
109.371 138.457 m 108.965 139.035 108.793 139.301 108.652 139.754 c 108.355
 140.598 108.387 141.457 108.699 142.316 c 109.059 143.285 109.59 143.895
 110.543 144.41 c 110.98 144.66 111.23 144.754 111.715 144.832 c 111.746
 144.691 l 110.98 144.441 110.684 144.254 110.277 143.77 c 109.902 143.332
 109.621 142.801 109.34 142.051 c 109.043 141.254 108.918 140.613 108.949
 140.082 c 108.996 139.535 109.105 139.191 109.48 138.551 c h
109.371 138.457 m f
111.676 143.352 m 113.441 142.711 l 113.395 142.586 l 112.926 142.758 112.801
 142.711 112.645 142.289 c 111.004 137.836 l 110.957 137.82 l 110.629 138.07
 110.379 138.258 109.895 138.586 c 109.941 138.711 l 109.988 138.68 l 110.066
 138.664 110.145 138.617 110.207 138.586 c 110.441 138.492 110.566 138.57
 110.691 138.93 c 112.02 142.508 l 112.145 142.898 112.082 143.039 111.629
 143.227 c h
111.676 143.352 m f
114.309 143.867 m 114.73 143.305 114.887 143.055 115.027 142.586 c 115.324
 141.758 115.309 140.914 114.98 140.039 c 114.637 139.086 114.074 138.445
 113.152 137.93 c 112.715 137.695 112.449 137.602 111.98 137.492 c 111.934
 137.648 l 112.715 137.914 112.996 138.086 113.434 138.57 c 113.793 139.008
 114.074 139.539 114.355 140.305 c 114.637 141.07 114.777 141.727 114.746
 142.258 c 114.715 142.805 114.59 143.164 114.199 143.789 c h
114.309 143.867 m f
q 1 0 0 -1 0 0 cm
171.348 -130.648 m 171.348 -9.496 l S Q
Q q
155 0 80 50.613 re W n
q
155 0 80 51 re W n
  q
0 g
1.13366 w
0 J
0 j
[] 0.0 d
10 M q 1 0 0 -1 0 0 cm
171.348 -9.496 m 171.348 -9.496 189.992 -18.934 200.105 -23.27 c 209.723
 -27.391 228.449 -34.043 228.449 -34.043 c S Q
  Q
Q
0 g
190.27 12.652 m 192.301 13.527 l 192.363 13.387 l 191.832 13.105 191.785
 12.98 192.004 12.449 c 192.66 10.934 l 194.879 11.887 l 194.254 13.324 
l 193.988 13.934 193.879 13.996 193.285 13.777 c 193.223 13.918 l 195.27
 14.793 l 195.332 14.652 l 194.801 14.371 194.754 14.262 194.973 13.73 c
 196.363 10.48 l 196.598 9.949 196.707 9.902 197.301 10.09 c 197.348 9.934
 l 195.301 9.059 l 195.254 9.215 l 195.801 9.496 195.848 9.605 195.613 10.152
 c 195.004 11.574 l 192.785 10.621 l 193.395 9.199 l 193.629 8.668 193.738
 8.621 194.332 8.824 c 194.379 8.668 l 192.348 7.793 l 192.301 7.949 l 192.832
 8.215 192.879 8.324 192.66 8.887 c 191.301 12.059 l 191.02 12.652 190.91
 12.715 190.332 12.512 c h
190.27 12.652 m f
198.352 17.426 m 198.242 17.348 l 197.898 17.582 197.711 17.551 197.352
 17.395 c 195.711 16.691 l 197.211 16.316 198.57 15.973 198.945 15.098 c
 199.211 14.488 198.758 13.785 198.07 13.488 c 197.383 13.191 196.695 13.254
 196.133 13.988 c 196.289 14.051 l 196.633 13.816 197.07 13.582 197.633 
13.832 c 198.242 14.098 198.414 14.629 198.211 15.082 c 197.945 15.723 196.727
 16.316 194.867 16.738 c 194.836 16.832 l 197.648 18.035 l h
198.352 17.426 m f
204.266 12.805 m 202.875 12.195 201.422 12.82 200.797 14.305 c 200.5 14.992
 200.438 15.758 200.656 16.352 c 200.891 16.992 201.406 17.555 202.047 17.82
 c 203.5 18.445 204.922 17.867 205.562 16.398 c 205.875 15.68 205.938 14.945
 205.719 14.352 c 205.484 13.648 204.969 13.102 204.266 12.805 c h
204.156 13.086 m 204.5 13.227 204.766 13.492 204.938 13.82 c 205.172 14.352
 205.109 15.164 204.734 16.039 c 204.547 16.461 204.25 16.914 203.938 17.242
 c 203.781 17.383 203.594 17.523 203.344 17.617 c 202.969 17.773 202.578
 17.758 202.188 17.586 c 201.859 17.445 201.594 17.18 201.406 16.836 c 201.203
 16.32 201.266 15.492 201.609 14.68 c 201.938 13.93 202.453 13.32 202.906
 13.102 c 203.312 12.914 203.75 12.914 204.156 13.086 c h
204.156 13.086 m f
209.074 14.859 m 208.387 15 208.074 15.078 207.684 15.297 c 206.871 15.719
 206.293 16.328 205.934 17.172 c 205.527 18.125 205.512 18.953 205.824 19.984
 c 205.965 20.469 206.09 20.703 206.371 21.109 c 206.512 21.016 l 206.121
 20.312 206.027 19.953 206.059 19.328 c 206.105 18.766 206.246 18.172 206.559
 17.453 c 206.902 16.672 207.262 16.109 207.668 15.75 c 208.059 15.375 208.371
 15.219 209.09 15 c h
209.074 14.859 m f
211.875 18.574 m 212 18.293 l 211.438 18.043 l 211.297 17.98 211.188 17.918
 211.062 17.793 c 210.938 17.668 l 210.781 17.512 210.594 17.387 210.391
 17.293 c 209.719 17.012 208.938 17.309 208.656 17.98 c 208.453 18.449 208.516
 18.793 208.922 19.262 c 208.641 19.34 l 208.438 19.418 208.328 19.465 208.281
 19.48 c 208.062 19.574 207.969 19.652 207.922 19.762 c 207.844 19.934 207.906
 20.043 208.141 20.309 c 207.469 20.48 207.156 20.652 207.047 20.918 c 206.875
 21.309 207.312 21.855 208.016 22.168 c 208.562 22.402 209.203 22.449 209.719
 22.309 c 210.094 22.199 210.328 22.012 210.438 21.746 c 210.641 21.293 
210.422 20.824 209.891 20.559 c 208.969 20.137 l 208.562 19.949 208.422 
19.809 208.469 19.699 c 208.547 19.543 208.891 19.402 209.109 19.402 c 209.359
 19.543 209.5 19.621 209.516 19.621 c 209.781 19.746 210.125 19.762 210.438
 19.668 c 210.766 19.559 210.984 19.355 211.141 18.996 c 211.234 18.777 
211.281 18.59 211.266 18.309 c h
208.297 20.418 m 208.516 20.574 209.062 20.855 209.438 21.012 c 210.094
 21.309 210.297 21.496 210.188 21.762 c 210.016 22.184 209.328 22.23 208.5
 21.871 c 207.859 21.59 207.531 21.215 207.656 20.887 c 207.734 20.715 207.859
 20.637 208.297 20.418 c h
209.406 17.949 m 209.594 17.512 209.906 17.34 210.234 17.48 c 210.453 17.59
 210.594 17.777 210.609 18.059 c 210.641 18.371 210.594 18.73 210.453 19.027
 c 210.281 19.434 209.969 19.605 209.625 19.449 c 209.172 19.262 209.094
 18.668 209.406 17.965 c h
209.406 17.949 m f
210.559 22.922 m 211.262 22.797 211.559 22.703 211.996 22.484 c 212.777
 22.062 213.34 21.438 213.715 20.578 c 214.105 19.656 214.152 18.828 213.84
 17.797 c 213.684 17.328 213.559 17.094 213.277 16.672 c 213.152 16.75 l
 213.527 17.484 213.605 17.797 213.59 18.453 c 213.559 19.016 213.402 19.594
 213.074 20.344 c 212.746 21.109 212.387 21.672 211.996 22.031 c 211.621
 22.391 211.277 22.594 210.574 22.766 c h
210.559 22.922 m f
Q q
110 0 125 55.613 re W n
q
110 0 125 56 re W n
  q
0 g
1.13366 w
0 J
0 j
[] 0.0 d
10 M q 1 0 0 -1 0 0 cm
126.629 -2.973 m 126.629 -2.973 127.988 -3.586 128.703 -3.902 c 129.422
 -4.223 130.066 -4.508 130.781 -4.824 c 131.5 -5.141 132.145 -5.422 132.859
 -5.734 c 133.578 -6.047 134.223 -6.324 134.938 -6.633 c 135.656 -6.941 
136.301 -7.219 137.016 -7.523 c 137.734 -7.832 138.379 -8.105 139.094 -8.406
 c 139.812 -8.711 140.453 -8.98 141.172 -9.277 c 141.891 -9.578 142.531 
-9.844 143.25 -10.141 c 143.969 -10.438 144.609 -10.703 145.328 -10.996 
c 146.047 -11.289 146.688 -11.551 147.406 -11.84 c 148.121 -12.129 148.766
 -12.387 149.484 -12.676 c 150.203 -12.961 150.844 -13.219 151.562 -13.504
 c 152.281 -13.785 152.922 -14.039 153.641 -14.32 c 154.355 -14.602 155 
-14.852 155.719 -15.133 c 156.438 -15.41 157.078 -15.66 157.797 -15.934 
c 158.516 -16.211 159.156 -16.457 159.875 -16.727 c 160.59 -17 161.234 -17.246
 161.953 -17.516 c 162.672 -17.785 163.312 -18.023 164.031 -18.293 c 164.746
 -18.559 165.391 -18.801 166.109 -19.062 c 166.824 -19.328 167.469 -19.562
 168.188 -19.828 c 168.902 -20.09 169.547 -20.324 170.266 -20.582 c 170.98
 -20.84 171.625 -21.074 172.344 -21.328 c 173.059 -21.586 173.703 -21.816
 174.422 -22.07 c 175.137 -22.324 175.781 -22.551 176.5 -22.805 c 177.215
 -23.055 177.859 -23.281 178.578 -23.531 c 179.293 -23.777 179.938 -24.004
 180.656 -24.25 c 181.371 -24.496 182.016 -24.719 182.734 -24.961 c 183.449
 -25.207 184.094 -25.426 184.812 -25.668 c 185.527 -25.91 186.172 -26.125
 186.891 -26.367 c 187.605 -26.605 188.25 -26.82 188.969 -27.059 c 189.684
 -27.297 190.328 -27.508 191.047 -27.746 c 191.762 -27.98 192.406 -28.191
 193.121 -28.426 c 193.84 -28.66 194.484 -28.867 195.199 -29.098 c 195.918
 -29.328 196.562 -29.535 197.277 -29.766 c 197.996 -29.992 198.641 -30.199
 199.355 -30.426 c 200.074 -30.652 200.719 -30.855 201.434 -31.082 c 202.152
 -31.305 202.797 -31.508 203.512 -31.73 c 204.23 -31.953 204.871 -32.148
 205.59 -32.371 c 206.309 -32.594 206.953 -32.789 207.668 -33.008 c 208.387
 -33.227 209.027 -33.422 209.746 -33.641 c 210.465 -33.855 211.105 -34.051
 211.824 -34.266 c 212.543 -34.48 213.188 -34.672 213.902 -34.887 c 214.621
 -35.098 215.262 -35.289 215.98 -35.5 c 216.699 -35.711 217.34 -35.898 218.059
 -36.109 c 218.777 -36.316 219.422 -36.504 220.137 -36.711 c 220.855 -36.922
 221.496 -37.105 222.215 -37.312 c 222.934 -37.516 223.574 -37.699 224.293
 -37.902 c 225.012 -38.109 225.652 -38.289 226.371 -38.492 c 227.09 -38.695
 228.449 -39.074 228.449 -39.074 c S Q
  Q
Q
0 g
133.176 14.809 m 134.941 15.512 l 134.988 15.402 l 134.504 15.168 134.488
 15.074 134.676 14.543 c 135.738 11.918 l 135.723 11.871 l 134.41 11.824
 l 134.363 11.934 l 134.426 11.949 l 134.52 11.965 134.629 11.996 134.707
 12.027 c 134.879 12.09 134.895 12.246 134.754 12.574 c 134.066 14.293 l
 133.832 14.824 133.738 14.887 133.223 14.699 c h
136.02 10.09 m 135.832 10.012 135.598 10.105 135.52 10.324 c 135.426 10.527
 135.52 10.762 135.723 10.84 c 135.957 10.934 136.176 10.824 136.27 10.621
 c 136.348 10.402 136.238 10.184 136.02 10.09 c h
136.02 10.09 m f
138.867 16.578 m 138.789 16.562 138.742 16.547 138.711 16.531 c 138.445
 16.422 138.414 16.312 138.555 15.969 c 140.227 11.781 l 140.195 11.75 l
 139.789 11.734 139.508 11.703 138.977 11.641 c 138.93 11.766 l 138.992 
11.781 139.023 11.797 139.086 11.828 c 139.367 11.938 139.398 12.016 139.273
 12.328 c 138.82 13.469 l 138.633 13.125 138.461 12.969 138.164 12.859 c
 137.32 12.516 136.305 13.078 135.883 14.125 c 135.492 15.078 135.789 15.938
 136.602 16.266 c 137.023 16.438 137.367 16.391 137.758 16.141 c 137.57 
16.625 l 137.57 16.656 l 138.82 16.719 l h
137.883 15.812 m 137.867 15.859 137.789 15.938 137.68 15.984 c 137.492 
16.078 137.273 16.094 137.055 16.016 c 136.43 15.766 136.273 15 136.633 
14.094 c 136.977 13.25 137.555 12.859 138.102 13.078 c 138.508 13.234 138.727
 13.719 138.57 14.109 c h
137.883 15.812 m f
142.25 17.02 m 141.688 17.441 141.266 17.535 140.797 17.348 c 140.375 17.176
 140.141 16.832 140.078 16.316 c 140.078 16.004 140.109 15.738 140.266 15.27
 c 142.562 16.191 l 142.703 15.676 142.703 15.441 142.641 15.129 c 142.5
 14.77 142.234 14.473 141.828 14.316 c 141.469 14.176 141.078 14.176 140.672
 14.316 c 140.219 14.473 139.812 14.926 139.562 15.535 c 139.156 16.551 
139.422 17.395 140.281 17.738 c 141 18.02 141.719 17.801 142.359 17.129 
c h
140.391 15.035 m 140.703 14.504 141.062 14.316 141.516 14.504 c 141.969
 14.691 142.062 14.957 141.922 15.645 c h
140.391 15.035 m f
145.449 19.141 m 145.277 19.203 145.184 19.203 145.059 19.156 c 144.887
 19.094 144.902 18.969 145.027 18.641 c 145.605 17.203 l 145.762 16.812 
145.793 16.594 145.746 16.359 c 145.699 16.031 145.434 15.75 144.996 15.578
 c 144.293 15.312 143.621 15.453 143.434 15.938 c 143.371 16.094 143.434
 16.281 143.605 16.359 c 143.793 16.422 144.012 16.344 144.074 16.188 c 
144.074 16.156 144.105 16.109 144.105 16.062 c 144.121 15.984 144.137 15.922
 144.152 15.875 c 144.23 15.672 144.527 15.609 144.824 15.734 c 145.184 
15.875 145.309 16.156 145.152 16.562 c 144.965 17.016 l 143.652 17 143.496
 17.031 143.059 17.188 c 142.84 17.266 142.652 17.484 142.543 17.734 c 142.355
 18.188 142.543 18.641 142.996 18.828 c 143.324 18.953 143.699 18.906 144.293
 18.719 c 144.168 19.109 144.262 19.328 144.559 19.453 c 144.809 19.547 
144.996 19.516 145.355 19.344 c h
144.465 18.266 m 144.371 18.484 144.324 18.547 144.105 18.578 c 143.887
 18.609 143.668 18.609 143.512 18.547 c 143.246 18.438 143.152 18.094 143.277
 17.781 c 143.293 17.75 l 143.465 17.312 143.918 17.141 144.902 17.188 c
 h
144.465 18.266 m f
145.367 19.684 m 147.117 20.387 l 147.164 20.277 l 146.695 20.074 146.633
 19.965 146.805 19.543 c 148.57 15.137 l 148.539 15.105 l 148.117 15.059
 147.82 15.027 147.242 14.949 c 147.195 15.074 l 147.242 15.09 l 147.32 
15.121 147.398 15.137 147.477 15.168 c 147.711 15.262 147.742 15.387 147.602
 15.746 c 146.18 19.277 l 146.008 19.652 145.883 19.73 145.414 19.574 c 
h
145.367 19.684 m f
153.973 19.785 m 154.082 19.504 l 153.504 19.27 l 153.348 19.223 153.254
 19.16 153.129 19.035 c 152.973 18.91 l 152.816 18.77 152.629 18.645 152.426
 18.566 c 151.754 18.285 150.988 18.598 150.707 19.285 c 150.52 19.754 150.613
 20.098 151.02 20.551 c 150.738 20.645 l 150.551 20.723 150.41 20.785 150.379
 20.801 c 150.16 20.895 150.066 20.973 150.02 21.082 c 149.957 21.254 150.02
 21.363 150.254 21.629 c 149.582 21.801 149.285 21.973 149.176 22.254 c 
149.02 22.645 149.473 23.191 150.191 23.473 c 150.738 23.691 151.395 23.738
 151.895 23.582 c 152.254 23.473 152.488 23.27 152.598 22.988 c 152.785 
22.535 152.551 22.082 152.02 21.832 c 151.082 21.41 l 150.691 21.238 150.535
 21.113 150.582 20.988 c 150.645 20.832 150.988 20.691 151.207 20.691 c 
151.488 20.832 151.598 20.895 151.613 20.895 c 151.895 21.004 152.238 21.02
 152.551 20.926 c 152.879 20.801 153.082 20.582 153.238 20.223 c 153.316
 20.004 153.363 19.816 153.348 19.535 c h
150.426 21.723 m 150.629 21.879 151.207 22.145 151.582 22.301 c 152.238
 22.566 152.457 22.754 152.348 23.035 c 152.176 23.457 151.504 23.52 150.66
 23.176 c 150.004 22.91 149.66 22.535 149.785 22.223 c 149.863 22.051 149.988
 21.941 150.426 21.723 c h
151.457 19.223 m 151.629 18.785 151.941 18.613 152.285 18.754 c 152.52 
18.848 152.66 19.02 152.676 19.301 c 152.707 19.629 152.676 19.973 152.551
 20.285 c 152.395 20.691 152.082 20.863 151.738 20.723 c 151.27 20.535 151.16
 19.957 151.457 19.238 c h
151.457 19.223 m f
156.48 23.551 m 156.309 23.613 156.215 23.613 156.09 23.566 c 155.918 23.504
 155.934 23.379 156.059 23.051 c 156.637 21.613 l 156.793 21.223 156.824
 21.004 156.777 20.77 c 156.73 20.441 156.465 20.16 156.027 19.988 c 155.324
 19.723 154.652 19.863 154.465 20.348 c 154.402 20.504 154.465 20.691 154.637
 20.77 c 154.824 20.832 155.043 20.754 155.105 20.598 c 155.105 20.566 155.137
 20.52 155.137 20.473 c 155.152 20.395 155.168 20.332 155.184 20.285 c 155.262
 20.082 155.559 20.02 155.855 20.145 c 156.215 20.285 156.34 20.566 156.184
 20.973 c 155.996 21.426 l 154.684 21.41 154.527 21.441 154.09 21.598 c 
153.871 21.676 153.684 21.895 153.574 22.145 c 153.387 22.598 153.574 23.051
 154.027 23.238 c 154.355 23.363 154.73 23.316 155.324 23.129 c 155.199 
23.52 155.293 23.738 155.59 23.863 c 155.84 23.957 156.027 23.926 156.387
 23.754 c h
155.496 22.676 m 155.402 22.895 155.355 22.957 155.137 22.988 c 154.918
 23.02 154.699 23.02 154.543 22.957 c 154.277 22.848 154.184 22.504 154.309
 22.191 c 154.324 22.16 l 154.496 21.723 154.949 21.551 155.934 21.598 c
 h
155.496 22.676 m f
159.492 22.641 m 159.883 21.609 l 159.789 21.578 l 159.727 21.625 159.68
 21.641 159.648 21.625 c 159.602 21.609 159.539 21.562 159.477 21.484 c 
159.305 21.359 159.164 21.25 158.977 21.172 c 158.398 20.938 157.82 21.172
 157.617 21.703 c 157.445 22.109 157.555 22.516 158.055 23.109 c 158.383
 23.531 l 158.57 23.766 158.648 24 158.555 24.234 c 158.414 24.562 158.086
 24.656 157.711 24.516 c 157.195 24.312 157.055 23.938 157.195 23.109 c 
157.086 23.062 l 156.617 24.219 l 156.711 24.25 l 156.789 24.203 156.82 
24.188 156.914 24.234 c 156.977 24.266 157.086 24.312 157.227 24.422 c 157.414
 24.547 157.586 24.656 157.742 24.719 c 158.32 24.953 158.945 24.719 159.148
 24.188 c 159.305 23.812 159.227 23.484 158.898 23.062 c 158.289 22.266 
l 158.117 22.062 158.102 21.844 158.18 21.641 c 158.305 21.344 158.602 21.219
 158.945 21.359 c 159.367 21.531 159.492 21.859 159.383 22.594 c h
159.492 22.641 m f
Q q
0 g
0.567043 w
0 J
0 j
[] 0.0 d
10 M q 1 0 0 -1 0 0 cm
30.059 -173.055 m 228.449 -173.055 l S Q
q 1 0 0 -1 0 0 cm
30.082 -3.07 198.387 -198.422 re S Q
0.398506 w
q 1 0 0 -1 0 0 cm
30.082 -201.492 m 30.082 -197.242 l S Q
q 1 0 0 -1 0 0 cm
58.422 -201.492 m 58.422 -197.242 l S Q
q 1 0 0 -1 0 0 cm
86.762 -201.492 m 86.762 -197.242 l S Q
q 1 0 0 -1 0 0 cm
115.105 -201.492 m 115.105 -197.242 l S Q
q 1 0 0 -1 0 0 cm
143.445 -201.492 m 143.445 -197.242 l S Q
q 1 0 0 -1 0 0 cm
171.785 -201.492 m 171.785 -197.242 l S Q
q 1 0 0 -1 0 0 cm
200.129 -201.492 m 200.129 -197.242 l S Q
q 1 0 0 -1 0 0 cm
228.469 -201.492 m 228.469 -197.242 l S Q
q 1 0 0 -1 0 0 cm
30.082 -201.492 m 30.082 -197.242 l S Q
q 1 0 0 -1 0 0 cm
30.082 -201.492 m 34.332 -201.492 l S Q
q 1 0 0 -1 0 0 cm
30.082 -173.148 m 34.332 -173.148 l S Q
q 1 0 0 -1 0 0 cm
30.082 -144.801 m 34.332 -144.801 l S Q
q 1 0 0 -1 0 0 cm
30.082 -116.453 m 34.332 -116.453 l S Q
q 1 0 0 -1 0 0 cm
30.082 -88.105 m 34.332 -88.105 l S Q
q 1 0 0 -1 0 0 cm
30.082 -59.762 m 34.332 -59.762 l S Q
q 1 0 0 -1 0 0 cm
30.082 -31.414 m 34.332 -31.414 l S Q
q 1 0 0 -1 0 0 cm
30.082 -3.066 m 34.332 -3.066 l S Q
q 1 0 0 -1 0 0 cm
30.082 -201.492 m 34.332 -201.492 l S Q
q 1 0 0 -1 0 0 cm
30.082 -3.066 m 30.082 -7.32 l S Q
q 1 0 0 -1 0 0 cm
58.422 -3.066 m 58.422 -7.32 l S Q
q 1 0 0 -1 0 0 cm
86.762 -3.066 m 86.762 -7.32 l S Q
q 1 0 0 -1 0 0 cm
115.105 -3.066 m 115.105 -7.32 l S Q
q 1 0 0 -1 0 0 cm
143.445 -3.066 m 143.445 -7.32 l S Q
q 1 0 0 -1 0 0 cm
171.785 -3.066 m 171.785 -7.32 l S Q
q 1 0 0 -1 0 0 cm
200.129 -3.066 m 200.129 -7.32 l S Q
q 1 0 0 -1 0 0 cm
228.469 -3.066 m 228.469 -7.32 l S Q
q 1 0 0 -1 0 0 cm
30.082 -3.066 m 30.082 -7.32 l S Q
q 1 0 0 -1 0 0 cm
228.469 -201.492 m 224.219 -201.492 l S Q
q 1 0 0 -1 0 0 cm
228.469 -173.148 m 224.219 -173.148 l S Q
q 1 0 0 -1 0 0 cm
228.469 -144.801 m 224.219 -144.801 l S Q
q 1 0 0 -1 0 0 cm
228.469 -116.453 m 224.219 -116.453 l S Q
q 1 0 0 -1 0 0 cm
228.469 -88.105 m 224.219 -88.105 l S Q
q 1 0 0 -1 0 0 cm
228.469 -59.762 m 224.219 -59.762 l S Q
q 1 0 0 -1 0 0 cm
228.469 -31.414 m 224.219 -31.414 l S Q
q 1 0 0 -1 0 0 cm
228.469 -3.066 m 224.219 -3.066 l S Q
q 1 0 0 -1 0 0 cm
228.469 -201.492 m 224.219 -201.492 l S Q
22.898 208.371 5.484 0.453 re f
33.145 209.699 m 32.988 209.668 l 32.723 210.121 32.504 210.199 32.066 
210.199 c 30.004 210.199 l 31.426 208.902 32.723 207.73 32.723 206.418 c
 32.723 205.496 31.926 204.84 31.051 204.84 c 30.191 204.84 29.504 205.309
 29.238 206.527 c 29.441 206.527 l 29.691 206.027 30.035 205.512 30.723 
205.512 c 31.504 205.512 31.941 206.105 31.941 206.777 c 31.941 207.746 
30.91 209.168 29.145 210.715 c 29.145 210.855 l 32.676 210.855 l h
33.145 209.699 m f
37.492 204.934 m 35.023 204.934 l 33.914 207.48 l 34.055 207.449 34.195
 207.418 34.367 207.418 c 35.32 207.418 36.617 207.918 36.617 209.09 c 36.617
 209.996 35.961 210.574 35.336 210.574 c 34.789 210.574 34.586 210.074 34.07
 210.074 c 33.82 210.074 33.742 210.293 33.742 210.402 c 33.742 210.715 
34.18 210.965 34.805 210.965 c 36.148 210.965 37.211 209.98 37.211 208.777
 c 37.211 207.355 36.086 206.871 34.867 206.84 c 34.758 206.84 34.633 206.855
 34.523 206.871 c 35.086 205.605 l 37.18 205.59 l h
37.492 204.934 m f
60.473 207.902 m 60.473 206.293 59.738 204.84 58.488 204.84 c 57.223 204.84
 56.488 206.293 56.488 207.902 c 56.488 209.527 57.176 210.965 58.488 210.965
 c 59.691 210.965 60.473 209.527 60.473 207.902 c h
59.613 207.902 m 59.613 209.199 59.488 210.715 58.488 210.715 c 57.535 
210.715 57.348 209.199 57.348 207.902 c 57.348 206.824 57.473 205.074 58.488
 205.074 c 59.488 205.074 59.613 206.824 59.613 207.902 c h
59.613 207.902 m f
86.547 209.699 m 86.391 209.668 l 86.125 210.121 85.906 210.199 85.469 
210.199 c 83.406 210.199 l 84.828 208.902 86.125 207.73 86.125 206.418 c
 86.125 205.496 85.328 204.84 84.453 204.84 c 83.594 204.84 82.906 205.309
 82.641 206.527 c 82.844 206.527 l 83.094 206.027 83.438 205.512 84.125 
205.512 c 84.906 205.512 85.344 206.105 85.344 206.777 c 85.344 207.746 
84.312 209.168 82.547 210.715 c 82.547 210.855 l 86.078 210.855 l h
86.547 209.699 m f
90.891 204.934 m 88.422 204.934 l 87.312 207.48 l 87.453 207.449 87.594
 207.418 87.766 207.418 c 88.719 207.418 90.016 207.918 90.016 209.09 c 
90.016 209.996 89.359 210.574 88.734 210.574 c 88.188 210.574 87.984 210.074
 87.469 210.074 c 87.219 210.074 87.141 210.293 87.141 210.402 c 87.141 
210.715 87.578 210.965 88.203 210.965 c 89.547 210.965 90.609 209.98 90.609
 208.777 c 90.609 207.355 89.484 206.871 88.266 206.84 c 88.156 206.84 88.031
 206.855 87.922 206.871 c 88.484 205.605 l 90.578 205.59 l h
90.891 204.934 m f
114.773 204.934 m 112.305 204.934 l 111.195 207.48 l 111.336 207.449 111.477
 207.418 111.648 207.418 c 112.602 207.418 113.898 207.918 113.898 209.09
 c 113.898 209.996 113.242 210.574 112.617 210.574 c 112.07 210.574 111.867
 210.074 111.352 210.074 c 111.102 210.074 111.023 210.293 111.023 210.402
 c 111.023 210.715 111.461 210.965 112.086 210.965 c 113.43 210.965 114.492
 209.98 114.492 208.777 c 114.492 207.355 113.367 206.871 112.148 206.84
 c 112.039 206.84 111.914 206.855 111.805 206.871 c 112.367 205.605 l 114.461
 205.59 l h
114.773 204.934 m f
119.273 207.902 m 119.273 206.293 118.539 204.84 117.289 204.84 c 116.023
 204.84 115.289 206.293 115.289 207.902 c 115.289 209.527 115.977 210.965
 117.289 210.965 c 118.492 210.965 119.273 209.527 119.273 207.902 c h
118.414 207.902 m 118.414 209.199 118.289 210.715 117.289 210.715 c 116.336
 210.715 116.148 209.199 116.148 207.902 c 116.148 206.824 116.273 205.074
 117.289 205.074 c 118.289 205.074 118.414 206.824 118.414 207.902 c h
118.414 207.902 m f
143.148 204.934 m 139.867 204.934 l 139.32 206.262 l 139.477 206.262 l 
139.789 205.777 140.023 205.605 140.539 205.605 c 142.43 205.605 l 140.633
 210.965 l 141.18 210.965 l h
143.148 204.934 m f
147.652 204.934 m 145.184 204.934 l 144.074 207.48 l 144.215 207.449 144.355
 207.418 144.527 207.418 c 145.48 207.418 146.777 207.918 146.777 209.09
 c 146.777 209.996 146.121 210.574 145.496 210.574 c 144.949 210.574 144.746
 210.074 144.23 210.074 c 143.98 210.074 143.902 210.293 143.902 210.402
 c 143.902 210.715 144.34 210.965 144.965 210.965 c 146.309 210.965 147.371
 209.98 147.371 208.777 c 147.371 207.355 146.246 206.871 145.027 206.84
 c 144.918 206.84 144.793 206.855 144.684 206.871 c 145.246 205.605 l 147.34
 205.59 l h
147.652 204.934 m f
168.562 210.855 m 168.562 210.715 l 167.969 210.715 167.75 210.73 167.75
 209.559 c 167.75 209.543 167.75 204.809 167.75 204.809 c 167.625 204.809
 l 166.094 205.543 l 166.141 205.684 l 166.469 205.543 166.547 205.512 166.672
 205.512 c 166.938 205.512 166.984 205.746 166.984 206.059 c 166.984 209.559
 l 166.984 210.73 166.766 210.699 166.172 210.715 c 166.172 210.855 l h
168.562 210.855 m f
173.754 207.902 m 173.754 206.293 173.02 204.84 171.77 204.84 c 170.504
 204.84 169.77 206.293 169.77 207.902 c 169.77 209.527 170.457 210.965 171.77
 210.965 c 172.973 210.965 173.754 209.527 173.754 207.902 c h
172.895 207.902 m 172.895 209.199 172.77 210.715 171.77 210.715 c 170.816
 210.715 170.629 209.199 170.629 207.902 c 170.629 206.824 170.754 205.074
 171.77 205.074 c 172.77 205.074 172.895 206.824 172.895 207.902 c h
172.895 207.902 m f
178.195 207.902 m 178.195 206.293 177.461 204.84 176.211 204.84 c 174.945
 204.84 174.211 206.293 174.211 207.902 c 174.211 209.527 174.898 210.965
 176.211 210.965 c 177.414 210.965 178.195 209.527 178.195 207.902 c h
177.336 207.902 m 177.336 209.199 177.211 210.715 176.211 210.715 c 175.258
 210.715 175.07 209.199 175.07 207.902 c 175.07 206.824 175.195 205.074 
176.211 205.074 c 177.211 205.074 177.336 206.824 177.336 207.902 c h
177.336 207.902 m f
196.883 210.855 m 196.883 210.715 l 196.289 210.715 196.07 210.73 196.07
 209.559 c 196.07 209.543 196.07 204.809 196.07 204.809 c 195.945 204.809
 l 194.414 205.543 l 194.461 205.684 l 194.789 205.543 194.867 205.512 194.992
 205.512 c 195.258 205.512 195.305 205.746 195.305 206.059 c 195.305 209.559
 l 195.305 210.73 195.086 210.699 194.492 210.715 c 194.492 210.855 l h
196.883 210.855 m f
202.105 209.699 m 201.949 209.668 l 201.684 210.121 201.465 210.199 201.027
 210.199 c 198.965 210.199 l 200.387 208.902 201.684 207.73 201.684 206.418
 c 201.684 205.496 200.887 204.84 200.012 204.84 c 199.152 204.84 198.465
 205.309 198.199 206.527 c 198.402 206.527 l 198.652 206.027 198.996 205.512
 199.684 205.512 c 200.465 205.512 200.902 206.105 200.902 206.777 c 200.902
 207.746 199.871 209.168 198.105 210.715 c 198.105 210.855 l 201.637 210.855
 l h
202.105 209.699 m f
206.449 204.934 m 203.98 204.934 l 202.871 207.48 l 203.012 207.449 203.152
 207.418 203.324 207.418 c 204.277 207.418 205.574 207.918 205.574 209.09
 c 205.574 209.996 204.918 210.574 204.293 210.574 c 203.746 210.574 203.543
 210.074 203.027 210.074 c 202.777 210.074 202.699 210.293 202.699 210.402
 c 202.699 210.715 203.137 210.965 203.762 210.965 c 205.105 210.965 206.168
 209.98 206.168 208.777 c 206.168 207.355 205.043 206.871 203.824 206.84
 c 203.715 206.84 203.59 206.855 203.48 206.871 c 204.043 205.605 l 206.137
 205.59 l h
206.449 204.934 m f
225.203 210.855 m 225.203 210.715 l 224.609 210.715 224.391 210.73 224.391
 209.559 c 224.391 209.543 224.391 204.809 224.391 204.809 c 224.266 204.809
 l 222.734 205.543 l 222.781 205.684 l 223.109 205.543 223.188 205.512 223.312
 205.512 c 223.578 205.512 223.625 205.746 223.625 206.059 c 223.625 209.559
 l 223.625 210.73 223.406 210.699 222.812 210.715 c 222.812 210.855 l h
225.203 210.855 m f
230.332 204.934 m 227.863 204.934 l 226.754 207.48 l 226.895 207.449 227.035
 207.418 227.207 207.418 c 228.16 207.418 229.457 207.918 229.457 209.09
 c 229.457 209.996 228.801 210.574 228.176 210.574 c 227.629 210.574 227.426
 210.074 226.91 210.074 c 226.66 210.074 226.582 210.293 226.582 210.402
 c 226.582 210.715 227.02 210.965 227.645 210.965 c 228.988 210.965 230.051
 209.98 230.051 208.777 c 230.051 207.355 228.926 206.871 227.707 206.84
 c 227.598 206.84 227.473 206.855 227.363 206.871 c 227.926 205.605 l 230.02
 205.59 l h
230.332 204.934 m f
234.832 207.902 m 234.832 206.293 234.098 204.84 232.848 204.84 c 231.582
 204.84 230.848 206.293 230.848 207.902 c 230.848 209.527 231.535 210.965
 232.848 210.965 c 234.051 210.965 234.832 209.527 234.832 207.902 c h
233.973 207.902 m 233.973 209.199 233.848 210.715 232.848 210.715 c 231.895
 210.715 231.707 209.199 231.707 207.902 c 231.707 206.824 231.832 205.074
 232.848 205.074 c 233.848 205.074 233.973 206.824 233.973 207.902 c h
233.973 207.902 m f
9.34 202.012 5.484 0.453 re f
19.555 201.543 m 19.555 199.934 18.82 198.48 17.57 198.48 c 16.305 198.48
 15.57 199.934 15.57 201.543 c 15.57 203.168 16.258 204.605 17.57 204.605
 c 18.773 204.605 19.555 203.168 19.555 201.543 c h
18.695 201.543 m 18.695 202.84 18.57 204.355 17.57 204.355 c 16.617 204.355
 16.43 202.84 16.43 201.543 c 16.43 200.465 16.555 198.715 17.57 198.715
 c 18.57 198.715 18.695 200.465 18.695 201.543 c h
18.695 201.543 m f
21.48 204.121 m 21.48 203.84 21.262 203.621 20.98 203.621 c 20.699 203.621
 20.48 203.84 20.48 204.121 c 20.48 204.402 20.699 204.621 20.98 204.621
 c 21.262 204.621 21.48 204.402 21.48 204.121 c h
21.48 204.121 m f
26.332 198.574 m 23.863 198.574 l 22.754 201.121 l 22.895 201.09 23.035
 201.059 23.207 201.059 c 24.16 201.059 25.457 201.559 25.457 202.73 c 25.457
 203.637 24.801 204.215 24.176 204.215 c 23.629 204.215 23.426 203.715 22.91
 203.715 c 22.66 203.715 22.582 203.934 22.582 204.043 c 22.582 204.355 
23.02 204.605 23.645 204.605 c 24.988 204.605 26.051 203.621 26.051 202.418
 c 26.051 200.996 24.926 200.512 23.707 200.48 c 23.598 200.48 23.473 200.496
 23.363 200.512 c 23.926 199.246 l 26.02 199.23 l h
26.332 198.574 m f
26.395 173.223 m 26.395 171.613 25.66 170.16 24.41 170.16 c 23.145 170.16
 22.41 171.613 22.41 173.223 c 22.41 174.848 23.098 176.285 24.41 176.285
 c 25.613 176.285 26.395 174.848 26.395 173.223 c h
25.535 173.223 m 25.535 174.52 25.41 176.035 24.41 176.035 c 23.457 176.035
 23.27 174.52 23.27 173.223 c 23.27 172.145 23.395 170.395 24.41 170.395
 c 25.41 170.395 25.535 172.145 25.535 173.223 c h
25.535 173.223 m f
19.555 144.781 m 19.555 143.172 18.82 141.719 17.57 141.719 c 16.305 141.719
 15.57 143.172 15.57 144.781 c 15.57 146.406 16.258 147.844 17.57 147.844
 c 18.773 147.844 19.555 146.406 19.555 144.781 c h
18.695 144.781 m 18.695 146.078 18.57 147.594 17.57 147.594 c 16.617 147.594
 16.43 146.078 16.43 144.781 c 16.43 143.703 16.555 141.953 17.57 141.953
 c 18.57 141.953 18.695 143.703 18.695 144.781 c h
18.695 144.781 m f
21.48 147.359 m 21.48 147.078 21.262 146.859 20.98 146.859 c 20.699 146.859
 20.48 147.078 20.48 147.359 c 20.48 147.641 20.699 147.859 20.98 147.859
 c 21.262 147.859 21.48 147.641 21.48 147.359 c h
21.48 147.359 m f
26.332 141.812 m 23.863 141.812 l 22.754 144.359 l 22.895 144.328 23.035
 144.297 23.207 144.297 c 24.16 144.297 25.457 144.797 25.457 145.969 c 
25.457 146.875 24.801 147.453 24.176 147.453 c 23.629 147.453 23.426 146.953
 22.91 146.953 c 22.66 146.953 22.582 147.172 22.582 147.281 c 22.582 147.594
 23.02 147.844 23.645 147.844 c 24.988 147.844 26.051 146.859 26.051 145.656
 c 26.051 144.234 24.926 143.75 23.707 143.719 c 23.598 143.719 23.473 143.734
 23.363 143.75 c 23.926 142.484 l 26.02 142.469 l h
26.332 141.812 m f
18.805 119.414 m 18.805 119.273 l 18.211 119.273 17.992 119.289 17.992 
118.117 c 17.992 118.102 17.992 113.367 17.992 113.367 c 17.867 113.367 
l 16.336 114.102 l 16.383 114.242 l 16.711 114.102 16.789 114.07 16.914 
114.07 c 17.18 114.07 17.227 114.305 17.227 114.617 c 17.227 118.117 l 17.227
 119.289 17.008 119.258 16.414 119.273 c 16.414 119.414 l h
18.805 119.414 m f
21.48 119.039 m 21.48 118.758 21.262 118.539 20.98 118.539 c 20.699 118.539
 20.48 118.758 20.48 119.039 c 20.48 119.32 20.699 119.539 20.98 119.539
 c 21.262 119.539 21.48 119.32 21.48 119.039 c h
21.48 119.039 m f
26.395 116.461 m 26.395 114.852 25.66 113.398 24.41 113.398 c 23.145 113.398
 22.41 114.852 22.41 116.461 c 22.41 118.086 23.098 119.523 24.41 119.523
 c 25.613 119.523 26.395 118.086 26.395 116.461 c h
25.535 116.461 m 25.535 117.758 25.41 119.273 24.41 119.273 c 23.457 119.273
 23.27 117.758 23.27 116.461 c 23.27 115.383 23.395 113.633 24.41 113.633
 c 25.41 113.633 25.535 115.383 25.535 116.461 c h
25.535 116.461 m f
18.805 91.094 m 18.805 90.953 l 18.211 90.953 17.992 90.969 17.992 89.797
 c 17.992 89.781 17.992 85.047 17.992 85.047 c 17.867 85.047 l 16.336 85.781
 l 16.383 85.922 l 16.711 85.781 16.789 85.75 16.914 85.75 c 17.18 85.75
 17.227 85.984 17.227 86.297 c 17.227 89.797 l 17.227 90.969 17.008 90.938
 16.414 90.953 c 16.414 91.094 l h
18.805 91.094 m f
21.48 90.719 m 21.48 90.438 21.262 90.219 20.98 90.219 c 20.699 90.219 
20.48 90.438 20.48 90.719 c 20.48 91 20.699 91.219 20.98 91.219 c 21.262
 91.219 21.48 91 21.48 90.719 c h
21.48 90.719 m f
26.332 85.172 m 23.863 85.172 l 22.754 87.719 l 22.895 87.688 23.035 87.656
 23.207 87.656 c 24.16 87.656 25.457 88.156 25.457 89.328 c 25.457 90.234
 24.801 90.812 24.176 90.812 c 23.629 90.812 23.426 90.312 22.91 90.312 
c 22.66 90.312 22.582 90.531 22.582 90.641 c 22.582 90.953 23.02 91.203 
23.645 91.203 c 24.988 91.203 26.051 90.219 26.051 89.016 c 26.051 87.594
 24.926 87.109 23.707 87.078 c 23.598 87.078 23.473 87.094 23.363 87.109
 c 23.926 85.844 l 26.02 85.828 l h
26.332 85.172 m f
19.227 61.621 m 19.07 61.59 l 18.805 62.043 18.586 62.121 18.148 62.121
 c 16.086 62.121 l 17.508 60.824 18.805 59.652 18.805 58.34 c 18.805 57.418
 18.008 56.762 17.133 56.762 c 16.273 56.762 15.586 57.23 15.32 58.449 c
 15.523 58.449 l 15.773 57.949 16.117 57.434 16.805 57.434 c 17.586 57.434
 18.023 58.027 18.023 58.699 c 18.023 59.668 16.992 61.09 15.227 62.637 
c 15.227 62.777 l 18.758 62.777 l h
19.227 61.621 m f
21.48 62.402 m 21.48 62.121 21.262 61.902 20.98 61.902 c 20.699 61.902 
20.48 62.121 20.48 62.402 c 20.48 62.684 20.699 62.902 20.98 62.902 c 21.262
 62.902 21.48 62.684 21.48 62.402 c h
21.48 62.402 m f
26.395 59.824 m 26.395 58.215 25.66 56.762 24.41 56.762 c 23.145 56.762
 22.41 58.215 22.41 59.824 c 22.41 61.449 23.098 62.887 24.41 62.887 c 25.613
 62.887 26.395 61.449 26.395 59.824 c h
25.535 59.824 m 25.535 61.121 25.41 62.637 24.41 62.637 c 23.457 62.637
 23.27 61.121 23.27 59.824 c 23.27 58.746 23.395 56.996 24.41 56.996 c 25.41
 56.996 25.535 58.746 25.535 59.824 c h
25.535 59.824 m f
19.227 33.18 m 19.07 33.148 l 18.805 33.602 18.586 33.68 18.148 33.68 c
 16.086 33.68 l 17.508 32.383 18.805 31.211 18.805 29.898 c 18.805 28.977
 18.008 28.32 17.133 28.32 c 16.273 28.32 15.586 28.789 15.32 30.008 c 15.523
 30.008 l 15.773 29.508 16.117 28.992 16.805 28.992 c 17.586 28.992 18.023
 29.586 18.023 30.258 c 18.023 31.227 16.992 32.648 15.227 34.195 c 15.227
 34.336 l 18.758 34.336 l h
19.227 33.18 m f
21.48 33.961 m 21.48 33.68 21.262 33.461 20.98 33.461 c 20.699 33.461 20.48
 33.68 20.48 33.961 c 20.48 34.242 20.699 34.461 20.98 34.461 c 21.262 34.461
 21.48 34.242 21.48 33.961 c h
21.48 33.961 m f
26.332 28.414 m 23.863 28.414 l 22.754 30.961 l 22.895 30.93 23.035 30.898
 23.207 30.898 c 24.16 30.898 25.457 31.398 25.457 32.57 c 25.457 33.477
 24.801 34.055 24.176 34.055 c 23.629 34.055 23.426 33.555 22.91 33.555 
c 22.66 33.555 22.582 33.773 22.582 33.883 c 22.582 34.195 23.02 34.445 
23.645 34.445 c 24.988 34.445 26.051 33.461 26.051 32.258 c 26.051 30.836
 24.926 30.352 23.707 30.32 c 23.598 30.32 23.473 30.336 23.363 30.352 c
 23.926 29.086 l 26.02 29.07 l h
26.332 28.414 m f
19.211 4.078 m 19.211 3.141 18.664 2.734 18.133 2.516 c 18.711 2.078 18.898
 1.672 18.898 1.188 c 18.898 0.672 18.477 0 17.508 0 c 16.805 0 16.133 0.391
 15.836 1.359 c 15.977 1.391 l 16.164 1.031 16.523 0.578 17.18 0.578 c 17.82
 0.578 18.195 1.016 18.195 1.516 c 18.195 2.219 17.648 2.719 16.836 2.906
 c 16.82 3.094 l 18.211 3.031 18.555 3.938 18.555 4.5 c 18.555 5.172 18.07
 5.781 17.43 5.781 c 16.852 5.781 16.602 5.281 16.117 5.281 c 15.961 5.281
 15.773 5.438 15.773 5.641 c 15.773 6.016 16.336 6.125 16.742 6.125 c 18.164
 6.125 19.211 5.312 19.211 4.078 c h
19.211 4.078 m f
21.48 5.641 m 21.48 5.359 21.262 5.141 20.98 5.141 c 20.699 5.141 20.48
 5.359 20.48 5.641 c 20.48 5.922 20.699 6.141 20.98 6.141 c 21.262 6.141
 21.48 5.922 21.48 5.641 c h
21.48 5.641 m f
26.395 3.062 m 26.395 1.453 25.66 0 24.41 0 c 23.145 0 22.41 1.453 22.41
 3.062 c 22.41 4.688 23.098 6.125 24.41 6.125 c 25.613 6.125 26.395 4.688
 26.395 3.062 c h
25.535 3.062 m 25.535 4.359 25.41 5.875 24.41 5.875 c 23.457 5.875 23.27
 4.359 23.27 3.062 c 23.27 1.984 23.395 0.234 24.41 0.234 c 25.41 0.234 
25.535 1.984 25.535 3.062 c h
25.535 3.062 m f
122.758 219.348 m 122.086 219.348 l 122.383 218.27 l 122.242 218.27 l 121.82
 218.895 121.32 219.316 120.711 219.457 c 120.664 219.645 l 121.336 219.645
 l 120.602 222.348 l 120.57 222.535 120.461 222.895 120.461 223.035 c 120.461
 223.379 120.711 223.473 120.883 223.473 c 121.273 223.473 121.695 223.176
 122.164 222.426 c 122.039 222.363 l 121.805 222.629 121.523 223.035 121.305
 223.035 c 121.18 223.035 121.148 222.957 121.148 222.895 c 121.148 222.832
 121.164 222.785 121.195 222.645 c 122.008 219.645 l 122.711 219.645 l h
122.758 219.348 m f
127.52 216.926 m 127.082 216.926 l 123.973 225.285 l 124.426 225.285 l 
h
127.52 216.926 m f
131.445 217.984 m 131.445 217.188 130.789 216.531 129.961 216.531 c 129.133
 216.531 128.477 217.188 128.477 217.984 c 128.477 218.766 129.133 219.422
 129.961 219.422 c 130.789 219.422 131.445 218.766 131.445 217.984 c h
130.977 217.984 m 130.977 218.516 130.508 218.969 129.961 218.969 c 129.414
 218.969 128.961 218.516 128.961 217.984 c 128.961 217.453 129.414 217 129.961
 217 c 130.508 217 130.977 217.453 130.977 217.984 c h
130.977 217.984 m f
138.055 219.316 m 137.977 217.301 l 137.789 217.301 l 137.727 217.488 137.586
 217.598 137.414 217.598 c 137.32 217.598 137.195 217.566 137.055 217.52
 c 136.617 217.379 136.164 217.301 135.742 217.301 c 135.008 217.301 134.273
 217.582 133.711 218.066 c 133.086 218.629 132.742 219.457 132.742 220.441
 c 132.742 222.27 133.93 223.488 135.727 223.488 c 136.742 223.488 137.633
 223.082 138.164 222.348 c 138.008 222.191 l 137.352 222.832 136.758 223.098
 136.008 223.098 c 135.445 223.098 134.945 222.91 134.555 222.566 c 134.055
 222.129 133.789 221.332 133.789 220.316 c 133.789 218.707 134.617 217.66
 135.914 217.66 c 136.43 217.66 136.898 217.848 137.258 218.191 c 137.539
 218.488 137.68 218.738 137.852 219.316 c h
138.055 219.316 m f
1 g
0.945 101.66 m 0.68 101.66 0.445 101.879 0.445 102.16 c 0.445 102.426 0.68
 102.645 0.93 102.645 c 1.211 102.645 1.445 102.441 1.445 102.16 c 1.445
 101.895 1.211 101.66 0.945 101.66 c h
0.945 101.66 m f
0 g
3.848 120.52 m 3.988 121.191 l 5.02 121.426 5.629 121.863 5.723 121.926
 c 4.707 121.988 3.848 122.395 3.848 123.301 c 3.848 124.223 5.004 125.238
 6.473 125.238 c 7.41 125.238 8.051 124.707 8.051 123.988 c 8.051 123.301
 7.379 122.582 7.16 122.379 c 7.801 122.285 8.02 122.051 8.02 121.707 c 
8.02 121.426 7.832 121.191 7.566 121.02 c 7.316 120.848 7.051 120.754 7.051
 120.895 c 7.051 120.973 7.223 121.066 7.395 121.191 c 7.551 121.301 7.676
 121.426 7.676 121.566 c 7.676 121.91 6.738 121.848 6.629 121.863 c 6.254
 121.582 5.363 120.848 3.848 120.52 c h
6.441 122.426 m 6.91 122.785 7.566 123.27 7.566 123.863 c 7.566 124.426
 6.566 124.441 6.41 124.441 c 5.27 124.441 4.113 123.941 4.113 123.207 c
 4.113 122.41 5.848 122.457 6.441 122.426 c h
6.441 122.426 m f
1.504 116.164 m 1.504 116.602 l 9.863 119.711 l 9.863 119.258 l h
1.504 116.164 m f
7.941 112.746 m 7.801 112.746 l 7.801 113.34 7.816 113.559 6.645 113.559
 c 6.629 113.559 1.895 113.559 1.895 113.559 c 1.895 113.684 l 2.629 115.215
 l 2.77 115.168 l 2.629 114.84 2.598 114.762 2.598 114.637 c 2.598 114.371
 2.832 114.324 3.145 114.324 c 6.645 114.324 l 7.816 114.324 7.785 114.543
 7.801 115.137 c 7.941 115.137 l h
7.941 112.746 m f
4.988 107.555 m 3.379 107.555 1.926 108.289 1.926 109.539 c 1.926 110.805
 3.379 111.539 4.988 111.539 c 6.613 111.539 8.051 110.852 8.051 109.539
 c 8.051 108.336 6.613 107.555 4.988 107.555 c h
4.988 108.414 m 6.285 108.414 7.801 108.539 7.801 109.539 c 7.801 110.492
 6.285 110.68 4.988 110.68 c 3.91 110.68 2.16 110.555 2.16 109.539 c 2.16
 108.539 3.91 108.414 4.988 108.414 c h
4.988 108.414 m f
2.469 102.223 0.438 4.703 re f
3.172 98.281 m 2.453 98.281 2.141 98.703 1.969 99.156 c 1.641 98.688 1.328
 98.531 0.953 98.531 c 0.547 98.531 0 98.906 0 99.766 c 0 100.391 0.297 
100.984 1.109 101.25 c 1.156 101.047 l 0.875 100.891 0.531 100.578 0.531
 100.047 c 0.531 99.531 0.844 99.234 1.203 99.234 c 1.719 99.234 2.094 99.688
 2.25 100.375 c 2.453 100.406 l 2.406 99.203 3.094 98.922 3.5 98.922 c 3.984
 98.922 4.438 99.312 4.438 99.828 c 4.438 100.328 4.047 100.547 4.047 100.953
 c 4.047 101.125 4.188 101.297 4.375 101.297 c 4.672 101.297 4.781 100.797
 4.781 100.422 c 4.781 99.188 4.125 98.281 3.172 98.281 c h
3.172 98.281 m f
2.176 91.887 m 2.207 91.34 2.238 91.277 2.457 91.277 c 2.645 91.277 2.926
 91.48 3.379 91.98 c 4.816 93.559 l 2.988 93.559 l 2.316 93.559 2.223 93.465
 2.176 92.73 c 2.004 92.73 l 2.004 95.277 l 2.176 95.277 l 2.223 94.59 2.332
 94.496 2.988 94.48 c 6.863 94.48 l 7.629 94.48 7.723 94.59 7.77 95.277 
c 7.941 95.277 l 7.941 92.762 l 7.77 92.762 l 7.723 93.449 7.629 93.559 
6.957 93.559 c 5.285 93.559 l 5.098 93.324 l 6.035 92.387 l 6.738 91.684
 7.348 91.215 7.566 91.215 c 7.707 91.215 7.754 91.324 7.77 91.59 c 7.77
 91.637 7.77 91.73 7.77 91.84 c 7.941 91.84 l 7.941 89.105 l 7.77 89.105
 l 7.77 89.574 7.676 89.699 6.801 90.512 c 4.566 92.605 l 2.879 90.902 l
 2.285 90.293 2.223 90.152 2.176 89.543 c 2.004 89.543 l 2.004 91.887 l 
h
2.176 91.887 m f
2.469 83.984 0.438 4.703 re f
4.703 80.434 m 4.516 80.434 l 4.516 80.965 4.516 81.137 3.672 81.137 c 
3.656 81.137 0 81.137 0 81.137 c 0 81.309 l 0.578 82.652 l 0.766 82.574 
l 0.641 82.262 0.625 82.199 0.625 82.105 c 0.625 81.902 0.797 81.887 1 81.887
 c 3.672 81.887 l 4.516 81.887 4.5 82.043 4.516 82.574 c 4.703 82.574 l 
h
4.703 80.434 m f
Q Q
showpage
%%Trailer
end
%%EOF
