<?xml version="1.0" encoding="UTF-8" standalone="no"?>
<svg
   width="210.7pt"
   height="197.4pt"
   viewBox="0 0 210.7 197.4"
   version="1.2"
   id="svg547"
   xmlns:xlink="http://www.w3.org/1999/xlink"
   xmlns="http://www.w3.org/2000/svg"
   xmlns:svg="http://www.w3.org/2000/svg">
  <defs
     id="defs142">
    <g
       id="g131">
      <symbol
         overflow="visible"
         id="glyph0-0">
        <path
           style="stroke:none;"
           d=""
           id="path2" />
      </symbol>
      <symbol
         overflow="visible"
         id="glyph0-1">
        <path
           style="stroke:none;"
           d="M 5.640625 -5.28125 L 3.765625 -5.28125 L 3.765625 -5.125 C 4.40625 -5.078125 4.5 -4.953125 4.53125 -4.109375 L 4.53125 -1.421875 L 1.453125 -5.28125 L 0.09375 -5.28125 L 0.09375 -5.125 C 0.4375 -5.125 0.546875 -5.0625 0.875 -4.6875 L 0.875 -1.171875 C 0.859375 -0.328125 0.75 -0.1875 0.09375 -0.15625 L 0.09375 0 L 1.96875 0 L 1.96875 -0.15625 C 1.359375 -0.1875 1.234375 -0.34375 1.21875 -1.171875 L 1.21875 -4.296875 L 4.734375 0.09375 L 4.875 0.09375 L 4.875 -4.109375 C 4.90625 -4.9375 5 -5.0625 5.640625 -5.125 Z M 5.640625 -5.28125 "
           id="path5" />
      </symbol>
      <symbol
         overflow="visible"
         id="glyph0-2">
        <path
           style="stroke:none;"
           d="M 2.34375 -5.390625 C 1.765625 -5 1.515625 -4.796875 1.234375 -4.4375 C 0.65625 -3.734375 0.375 -2.9375 0.375 -2.015625 C 0.375 -0.984375 0.671875 -0.21875 1.375 0.59375 C 1.703125 0.984375 1.90625 1.15625 2.328125 1.40625 L 2.421875 1.28125 C 1.78125 0.78125 1.5625 0.5 1.34375 -0.09375 C 1.15625 -0.625 1.0625 -1.234375 1.0625 -2.03125 C 1.0625 -2.875 1.171875 -3.53125 1.390625 -4.015625 C 1.609375 -4.515625 1.84375 -4.796875 2.421875 -5.265625 Z M 2.34375 -5.390625 "
           id="path8" />
      </symbol>
      <symbol
         overflow="visible"
         id="glyph0-3">
        <path
           style="stroke:none;"
           d="M 2.515625 -2.5 L 2.484375 -3.59375 L 2.390625 -3.59375 C 2.34375 -3.53125 2.3125 -3.5 2.265625 -3.5 C 2.21875 -3.5 2.140625 -3.515625 2.046875 -3.5625 C 1.859375 -3.625 1.6875 -3.671875 1.484375 -3.671875 C 0.859375 -3.671875 0.40625 -3.25 0.40625 -2.671875 C 0.40625 -2.234375 0.65625 -1.90625 1.34375 -1.53125 L 1.796875 -1.265625 C 2.078125 -1.109375 2.21875 -0.921875 2.21875 -0.671875 C 2.21875 -0.3125 1.953125 -0.09375 1.546875 -0.09375 C 1 -0.09375 0.71875 -0.390625 0.546875 -1.21875 L 0.421875 -1.21875 L 0.421875 0.03125 L 0.515625 0.03125 C 0.578125 -0.046875 0.609375 -0.0625 0.703125 -0.0625 C 0.78125 -0.0625 0.890625 -0.046875 1.0625 0 C 1.28125 0.046875 1.484375 0.078125 1.65625 0.078125 C 2.265625 0.078125 2.765625 -0.375 2.765625 -0.9375 C 2.765625 -1.34375 2.578125 -1.609375 2.109375 -1.890625 L 1.25 -2.40625 C 1.015625 -2.53125 0.90625 -2.71875 0.90625 -2.9375 C 0.90625 -3.265625 1.140625 -3.484375 1.515625 -3.484375 C 1.96875 -3.484375 2.203125 -3.21875 2.390625 -2.5 Z M 2.515625 -2.5 "
           id="path11" />
      </symbol>
      <symbol
         overflow="visible"
         id="glyph0-4">
        <path
           style="stroke:none;"
           d="M 0.296875 1.40625 C 0.890625 1.015625 1.125 0.828125 1.421875 0.453125 C 1.984375 -0.234375 2.265625 -1.03125 2.265625 -1.96875 C 2.265625 -2.984375 1.96875 -3.765625 1.28125 -4.578125 C 0.953125 -4.953125 0.734375 -5.125 0.328125 -5.390625 L 0.234375 -5.265625 C 0.875 -4.75 1.078125 -4.484375 1.3125 -3.875 C 1.5 -3.34375 1.578125 -2.75 1.578125 -1.9375 C 1.578125 -1.109375 1.484375 -0.453125 1.265625 0.03125 C 1.046875 0.53125 0.8125 0.828125 0.234375 1.28125 Z M 0.296875 1.40625 "
           id="path14" />
      </symbol>
      <symbol
         overflow="visible"
         id="glyph0-5">
        <path
           style="stroke:none;"
           d="M 0.171875 0 L 2.046875 0 L 2.046875 -0.125 C 1.546875 -0.140625 1.453125 -0.21875 1.453125 -0.671875 L 1.453125 -5.421875 L 1.421875 -5.4375 C 1.015625 -5.3125 0.71875 -5.234375 0.15625 -5.09375 L 0.15625 -4.96875 L 0.203125 -4.96875 C 0.28125 -4.96875 0.375 -4.984375 0.453125 -4.984375 C 0.703125 -4.984375 0.78125 -4.875 0.78125 -4.5 L 0.78125 -0.6875 C 0.765625 -0.265625 0.65625 -0.15625 0.171875 -0.125 Z M 0.171875 0 "
           id="path17" />
      </symbol>
      <symbol
         overflow="visible"
         id="glyph0-6">
        <path
           style="stroke:none;"
           d="M 3.75 -3.09375 L 3.75 -3.40625 L 3.125 -3.40625 C 2.96875 -3.40625 2.859375 -3.421875 2.6875 -3.484375 L 2.515625 -3.546875 C 2.3125 -3.625 2.09375 -3.671875 1.875 -3.671875 C 1.140625 -3.671875 0.546875 -3.09375 0.546875 -2.359375 C 0.546875 -1.859375 0.75 -1.5625 1.296875 -1.296875 L 1.078125 -1.109375 C 0.921875 -0.953125 0.828125 -0.859375 0.796875 -0.828125 C 0.625 -0.65625 0.578125 -0.5625 0.578125 -0.4375 C 0.578125 -0.25 0.671875 -0.171875 1 -0.015625 C 0.4375 0.40625 0.21875 0.671875 0.21875 0.96875 C 0.21875 1.390625 0.84375 1.734375 1.609375 1.734375 C 2.203125 1.734375 2.828125 1.53125 3.234375 1.1875 C 3.53125 0.953125 3.671875 0.6875 3.671875 0.390625 C 3.671875 -0.109375 3.296875 -0.4375 2.703125 -0.46875 L 1.6875 -0.515625 C 1.25 -0.53125 1.0625 -0.59375 1.0625 -0.71875 C 1.0625 -0.890625 1.328125 -1.15625 1.53125 -1.234375 C 1.828125 -1.203125 1.96875 -1.1875 1.984375 -1.1875 C 2.28125 -1.1875 2.609375 -1.3125 2.859375 -1.515625 C 3.109375 -1.75 3.234375 -2.03125 3.234375 -2.421875 C 3.234375 -2.65625 3.203125 -2.84375 3.078125 -3.09375 Z M 1.171875 0.015625 C 1.4375 0.078125 2.0625 0.125 2.46875 0.125 C 3.1875 0.125 3.453125 0.21875 3.453125 0.515625 C 3.453125 0.96875 2.84375 1.28125 1.9375 1.28125 C 1.234375 1.28125 0.78125 1.046875 0.78125 0.703125 C 0.78125 0.515625 0.859375 0.390625 1.171875 0.015625 Z M 1.21875 -2.6875 C 1.21875 -3.15625 1.4375 -3.4375 1.796875 -3.4375 C 2.046875 -3.4375 2.25 -3.3125 2.375 -3.0625 C 2.53125 -2.78125 2.625 -2.4375 2.625 -2.109375 C 2.625 -1.671875 2.40625 -1.390625 2.03125 -1.390625 C 1.53125 -1.390625 1.21875 -1.90625 1.21875 -2.671875 Z M 1.21875 -2.6875 "
           id="path20" />
      </symbol>
      <symbol
         overflow="visible"
         id="glyph0-7">
        <path
           style="stroke:none;"
           d="M 0.15625 0 L 2.359375 0 L 2.359375 -0.15625 C 1.765625 -0.203125 1.671875 -0.296875 1.671875 -0.875 L 1.671875 -2.515625 L 4.078125 -2.515625 L 4.078125 -0.953125 C 4.078125 -0.28125 4 -0.1875 3.375 -0.15625 L 3.375 0 L 5.59375 0 L 5.59375 -0.15625 C 5 -0.203125 4.90625 -0.296875 4.890625 -0.875 L 4.890625 -4.40625 C 4.90625 -4.984375 4.984375 -5.0625 5.59375 -5.125 L 5.59375 -5.28125 L 3.375 -5.28125 L 3.375 -5.125 C 4 -5.078125 4.078125 -5 4.078125 -4.40625 L 4.078125 -2.859375 L 1.671875 -2.859375 L 1.671875 -4.40625 C 1.671875 -4.984375 1.75 -5.0625 2.359375 -5.125 L 2.359375 -5.28125 L 0.15625 -5.28125 L 0.15625 -5.125 C 0.765625 -5.078125 0.84375 -5 0.859375 -4.40625 L 0.859375 -0.953125 C 0.84375 -0.28125 0.765625 -0.1875 0.15625 -0.15625 Z M 0.15625 0 "
           id="path23" />
      </symbol>
      <symbol
         overflow="visible"
         id="glyph0-8">
        <path
           style="stroke:none;"
           d="M 2.875 -5.390625 C 1.359375 -5.390625 0.265625 -4.25 0.265625 -2.640625 C 0.265625 -1.890625 0.53125 -1.15625 0.953125 -0.703125 C 1.421875 -0.203125 2.125 0.109375 2.828125 0.109375 C 4.40625 0.109375 5.484375 -1 5.484375 -2.609375 C 5.484375 -3.390625 5.25 -4.078125 4.8125 -4.546875 C 4.3125 -5.09375 3.640625 -5.390625 2.875 -5.390625 Z M 2.875 -5.09375 C 3.25 -5.09375 3.609375 -4.953125 3.890625 -4.703125 C 4.328125 -4.3125 4.578125 -3.5625 4.578125 -2.609375 C 4.578125 -2.140625 4.484375 -1.59375 4.3125 -1.171875 C 4.234375 -0.984375 4.109375 -0.78125 3.921875 -0.59375 C 3.640625 -0.3125 3.28125 -0.171875 2.859375 -0.171875 C 2.5 -0.171875 2.140625 -0.3125 1.84375 -0.5625 C 1.4375 -0.9375 1.171875 -1.734375 1.171875 -2.625 C 1.171875 -3.4375 1.40625 -4.203125 1.734375 -4.578125 C 2.046875 -4.921875 2.4375 -5.09375 2.875 -5.09375 Z M 2.875 -5.09375 "
           id="path26" />
      </symbol>
      <symbol
         overflow="visible"
         id="glyph0-9">
        <path
           style="stroke:none;"
           d="M 4.9375 -3.59375 L 4.875 -5.390625 L 4.703125 -5.390625 C 4.65625 -5.21875 4.53125 -5.125 4.359375 -5.125 C 4.296875 -5.125 4.171875 -5.140625 4.0625 -5.1875 C 3.671875 -5.328125 3.265625 -5.390625 2.890625 -5.390625 C 2.234375 -5.390625 1.578125 -5.140625 1.078125 -4.703125 C 0.53125 -4.203125 0.21875 -3.46875 0.21875 -2.59375 C 0.21875 -0.96875 1.28125 0.109375 2.875 0.109375 C 3.765625 0.109375 4.5625 -0.25 5.046875 -0.90625 L 4.90625 -1.046875 C 4.3125 -0.484375 3.78125 -0.234375 3.125 -0.234375 C 2.625 -0.234375 2.171875 -0.390625 1.828125 -0.703125 C 1.390625 -1.09375 1.140625 -1.8125 1.140625 -2.703125 C 1.140625 -4.140625 1.890625 -5.0625 3.046875 -5.0625 C 3.5 -5.0625 3.90625 -4.90625 4.234375 -4.59375 C 4.484375 -4.328125 4.609375 -4.109375 4.75 -3.59375 Z M 4.9375 -3.59375 "
           id="path29" />
      </symbol>
      <symbol
         overflow="visible"
         id="glyph1-0">
        <path
           style="stroke:none;"
           d=""
           id="path32" />
      </symbol>
      <symbol
         overflow="visible"
         id="glyph1-1">
        <path
           style="stroke:none;"
           d="M 3.703125 -0.84375 L 3.578125 -0.859375 C 3.34375 -0.53125 3.15625 -0.46875 2.765625 -0.46875 L 0.984375 -0.46875 C 2.203125 -1.40625 3.328125 -2.265625 3.328125 -3.21875 C 3.328125 -3.875 2.640625 -4.359375 1.890625 -4.359375 C 1.140625 -4.359375 0.53125 -4.015625 0.3125 -3.125 L 0.484375 -3.125 C 0.703125 -3.484375 1 -3.859375 1.609375 -3.859375 C 2.28125 -3.859375 2.65625 -3.4375 2.65625 -2.9375 C 2.65625 -2.25 1.765625 -1.21875 0.234375 -0.09375 L 0.234375 0 L 3.296875 0 Z M 3.703125 -0.84375 "
           id="path35" />
      </symbol>
      <symbol
         overflow="visible"
         id="glyph2-0">
        <path
           style="stroke:none;"
           d=""
           id="path38" />
      </symbol>
      <symbol
         overflow="visible"
         id="glyph2-1">
        <path
           style="stroke:none;"
           d="M 4.234375 -2.953125 C 4.234375 -4.5625 3.5 -6.015625 2.25 -6.015625 C 0.984375 -6.015625 0.25 -4.5625 0.25 -2.953125 C 0.25 -1.328125 0.9375 0.109375 2.25 0.109375 C 3.453125 0.109375 4.234375 -1.328125 4.234375 -2.953125 Z M 3.375 -2.953125 C 3.375 -1.65625 3.25 -0.140625 2.25 -0.140625 C 1.296875 -0.140625 1.109375 -1.65625 1.109375 -2.953125 C 1.109375 -4.03125 1.234375 -5.78125 2.25 -5.78125 C 3.25 -5.78125 3.375 -4.03125 3.375 -2.953125 Z M 3.375 -2.953125 "
           id="path41" />
      </symbol>
      <symbol
         overflow="visible"
         id="glyph2-2">
        <path
           style="stroke:none;"
           d="M 3.484375 0 L 3.484375 -0.140625 C 2.890625 -0.140625 2.671875 -0.125 2.671875 -1.296875 C 2.671875 -1.3125 2.671875 -6.046875 2.671875 -6.046875 L 2.546875 -6.046875 L 1.015625 -5.3125 L 1.0625 -5.171875 C 1.390625 -5.3125 1.46875 -5.34375 1.59375 -5.34375 C 1.859375 -5.34375 1.90625 -5.109375 1.90625 -4.796875 L 1.90625 -1.296875 C 1.90625 -0.125 1.6875 -0.15625 1.09375 -0.140625 L 1.09375 0 Z M 3.484375 0 "
           id="path44" />
      </symbol>
      <symbol
         overflow="visible"
         id="glyph2-3">
        <path
           style="stroke:none;"
           d="M 4.265625 -1.15625 L 4.109375 -1.1875 C 3.84375 -0.734375 3.625 -0.65625 3.1875 -0.65625 L 1.125 -0.65625 C 2.546875 -1.953125 3.84375 -3.125 3.84375 -4.4375 C 3.84375 -5.359375 3.046875 -6.015625 2.171875 -6.015625 C 1.3125 -6.015625 0.625 -5.546875 0.359375 -4.328125 L 0.5625 -4.328125 C 0.8125 -4.828125 1.15625 -5.34375 1.84375 -5.34375 C 2.625 -5.34375 3.0625 -4.75 3.0625 -4.078125 C 3.0625 -3.109375 2.03125 -1.6875 0.265625 -0.140625 L 0.265625 0 L 3.796875 0 Z M 4.265625 -1.15625 "
           id="path47" />
      </symbol>
      <symbol
         overflow="visible"
         id="glyph2-4">
        <path
           style="stroke:none;"
           d="M 3.890625 -1.9375 C 3.890625 -2.875 3.34375 -3.28125 2.8125 -3.5 C 3.390625 -3.9375 3.578125 -4.34375 3.578125 -4.828125 C 3.578125 -5.34375 3.15625 -6.015625 2.1875 -6.015625 C 1.484375 -6.015625 0.8125 -5.625 0.515625 -4.65625 L 0.65625 -4.625 C 0.84375 -4.984375 1.203125 -5.4375 1.859375 -5.4375 C 2.5 -5.4375 2.875 -5 2.875 -4.5 C 2.875 -3.796875 2.328125 -3.296875 1.515625 -3.109375 L 1.5 -2.921875 C 2.890625 -2.984375 3.234375 -2.078125 3.234375 -1.515625 C 3.234375 -0.84375 2.75 -0.234375 2.109375 -0.234375 C 1.53125 -0.234375 1.28125 -0.734375 0.796875 -0.734375 C 0.640625 -0.734375 0.453125 -0.578125 0.453125 -0.375 C 0.453125 0 1.015625 0.109375 1.421875 0.109375 C 2.84375 0.109375 3.890625 -0.703125 3.890625 -1.9375 Z M 3.890625 -1.9375 "
           id="path50" />
      </symbol>
      <symbol
         overflow="visible"
         id="glyph2-5">
        <path
           style="stroke:none;"
           d="M 4.25 -1.484375 L 4.25 -2.09375 L 3.375 -2.09375 L 3.375 -6.015625 L 2.9375 -6.015625 L 0.34375 -2.109375 L 0.34375 -1.484375 L 2.640625 -1.484375 L 2.640625 0 L 3.375 0 L 3.375 -1.484375 Z M 2.640625 -2.09375 L 0.703125 -2.09375 L 2.625 -5.078125 L 2.640625 -5.078125 Z M 2.640625 -2.09375 "
           id="path53" />
      </symbol>
      <symbol
         overflow="visible"
         id="glyph2-6">
        <path
           style="stroke:none;"
           d="M 4.171875 -5.921875 L 1.703125 -5.921875 L 0.59375 -3.375 C 0.734375 -3.40625 0.875 -3.4375 1.046875 -3.4375 C 2 -3.4375 3.296875 -2.9375 3.296875 -1.765625 C 3.296875 -0.859375 2.640625 -0.28125 2.015625 -0.28125 C 1.46875 -0.28125 1.265625 -0.78125 0.75 -0.78125 C 0.5 -0.78125 0.421875 -0.5625 0.421875 -0.453125 C 0.421875 -0.140625 0.859375 0.109375 1.484375 0.109375 C 2.828125 0.109375 3.890625 -0.875 3.890625 -2.078125 C 3.890625 -3.5 2.765625 -3.984375 1.546875 -4.015625 C 1.4375 -4.015625 1.3125 -4 1.203125 -3.984375 L 1.765625 -5.25 L 3.859375 -5.265625 Z M 4.171875 -5.921875 "
           id="path56" />
      </symbol>
      <symbol
         overflow="visible"
         id="glyph2-7">
        <path
           style="stroke:none;"
           d="M 4.1875 -2.015625 C 4.1875 -3 3.484375 -3.734375 2.59375 -3.734375 C 2.140625 -3.734375 1.765625 -3.59375 1.375 -3.28125 C 1.765625 -4.875 2.9375 -5.875 4.0625 -5.890625 L 4.0625 -6.046875 C 1.296875 -6.046875 0.421875 -3.703125 0.421875 -2.375 C 0.421875 -0.953125 1.25 0.109375 2.359375 0.109375 C 3.375 0.109375 4.1875 -0.84375 4.1875 -2.015625 Z M 3.421875 -1.5625 C 3.421875 -0.734375 3.046875 -0.15625 2.453125 -0.15625 C 1.53125 -0.15625 1.25 -1.5 1.25 -2.21875 C 1.25 -2.453125 1.28125 -2.703125 1.328125 -3 C 1.71875 -3.25 2.03125 -3.359375 2.34375 -3.359375 C 3.25 -3.359375 3.421875 -2.3125 3.421875 -1.5625 Z M 3.421875 -1.5625 "
           id="path59" />
      </symbol>
      <symbol
         overflow="visible"
         id="glyph2-8">
        <path
           style="stroke:none;"
           d="M 3.96875 -1.375 C 3.96875 -2.015625 3.6875 -2.5 2.59375 -3.3125 C 3.28125 -3.6875 3.8125 -4.109375 3.8125 -4.765625 C 3.8125 -5.453125 3.171875 -6.046875 2.21875 -6.046875 C 1.375 -6.046875 0.578125 -5.5 0.578125 -4.65625 C 0.578125 -4 0.921875 -3.609375 1.6875 -3 C 0.828125 -2.34375 0.515625 -2.015625 0.515625 -1.34375 C 0.515625 -0.59375 1.1875 0.109375 2.234375 0.109375 C 3.453125 0.109375 3.96875 -0.71875 3.96875 -1.375 Z M 3.203125 -4.78125 C 3.203125 -4.140625 2.828125 -3.796875 2.34375 -3.46875 C 1.75 -3.890625 1.234375 -4.359375 1.234375 -4.875 C 1.234375 -5.359375 1.578125 -5.78125 2.1875 -5.78125 C 2.859375 -5.78125 3.203125 -5.359375 3.203125 -4.78125 Z M 3.328125 -1.125 C 3.328125 -0.546875 2.890625 -0.15625 2.3125 -0.15625 C 1.625 -0.15625 1.1875 -0.703125 1.1875 -1.4375 C 1.1875 -2.109375 1.515625 -2.5 1.921875 -2.84375 C 2.90625 -2.09375 3.328125 -1.71875 3.328125 -1.125 Z M 3.328125 -1.125 "
           id="path62" />
      </symbol>
      <symbol
         overflow="visible"
         id="glyph2-9">
        <path
           style="stroke:none;"
           d="M 6.171875 -6.046875 L 1.15625 -6.046875 L 0.734375 -4.515625 L 0.90625 -4.515625 C 1.28125 -5.5 1.75 -5.71875 2.53125 -5.71875 C 2.53125 -5.71875 3.046875 -5.71875 3.15625 -5.71875 L 1.859375 -1.046875 C 1.609375 -0.140625 1.296875 -0.15625 0.9375 -0.15625 L 0.921875 0 L 3.28125 0 L 3.3125 -0.15625 C 2.96875 -0.15625 2.625 -0.140625 2.625 -0.59375 C 2.625 -0.71875 2.65625 -0.859375 2.703125 -1.046875 L 3.984375 -5.71875 L 4.734375 -5.71875 C 5.171875 -5.71875 5.640625 -5.65625 5.640625 -5.03125 C 5.640625 -4.890625 5.625 -4.734375 5.578125 -4.515625 L 5.75 -4.515625 Z M 6.171875 -6.046875 "
           id="path65" />
      </symbol>
      <symbol
         overflow="visible"
         id="glyph2-10">
        <path
           style="stroke:none;"
           d="M 3.90625 -6.4375 L 3.46875 -6.4375 L 0.359375 1.921875 L 0.8125 1.921875 Z M 3.90625 -6.4375 "
           id="path68" />
      </symbol>
      <symbol
         overflow="visible"
         id="glyph3-0">
        <path
           style="stroke:none;"
           d=""
           id="path71" />
      </symbol>
      <symbol
         overflow="visible"
         id="glyph3-1">
        <path
           style="stroke:none;"
           d="M 3.703125 -5.765625 C 4.25 -5.734375 4.3125 -5.703125 4.3125 -5.484375 C 4.3125 -5.296875 4.109375 -5.015625 3.609375 -4.5625 L 2.03125 -3.125 L 2.03125 -4.953125 C 2.03125 -5.625 2.125 -5.71875 2.859375 -5.765625 L 2.859375 -5.9375 L 0.3125 -5.9375 L 0.3125 -5.765625 C 1 -5.71875 1.09375 -5.609375 1.109375 -4.953125 L 1.109375 -1.078125 C 1.109375 -0.3125 1 -0.21875 0.3125 -0.171875 L 0.3125 0 L 2.828125 0 L 2.828125 -0.171875 C 2.140625 -0.21875 2.03125 -0.3125 2.03125 -0.984375 L 2.03125 -2.65625 L 2.265625 -2.84375 L 3.203125 -1.90625 C 3.90625 -1.203125 4.375 -0.59375 4.375 -0.375 C 4.375 -0.234375 4.265625 -0.1875 4 -0.171875 C 3.953125 -0.171875 3.859375 -0.171875 3.75 -0.171875 L 3.75 0 L 6.484375 0 L 6.484375 -0.171875 C 6.015625 -0.171875 5.890625 -0.265625 5.078125 -1.140625 L 2.984375 -3.375 L 4.6875 -5.0625 C 5.296875 -5.65625 5.4375 -5.71875 6.046875 -5.765625 L 6.046875 -5.9375 L 3.703125 -5.9375 Z M 3.703125 -5.765625 "
           id="path74" />
      </symbol>
      <symbol
         overflow="visible"
         id="glyph3-2">
        <path
           style="stroke:none;"
           d="M 1.125 -0.890625 C 0.859375 -0.890625 0.625 -0.671875 0.625 -0.390625 C 0.625 -0.125 0.859375 0.09375 1.109375 0.09375 C 1.390625 0.09375 1.625 -0.109375 1.625 -0.390625 C 1.625 -0.65625 1.390625 -0.890625 1.125 -0.890625 Z M 1.125 -0.890625 "
           id="path77" />
      </symbol>
      <symbol
         overflow="visible"
         id="glyph4-0">
        <path
           style="stroke:none;"
           d=""
           id="path80" />
      </symbol>
      <symbol
         overflow="visible"
         id="glyph4-1">
        <path
           style="stroke:none;"
           d="M -6.171875 -6.328125 L -6.171875 -6.140625 C -6.078125 -6.078125 -5.9375 -5.984375 -5.9375 -5.78125 C -5.9375 -5.5625 -6.1875 -4.984375 -6.1875 -4.375 C -6.1875 -2.40625 -4.28125 -0.5625 -2.34375 -0.5625 C -0.765625 -0.5625 0.140625 -1.71875 0.140625 -3 C 0.140625 -4.140625 -0.5625 -5.140625 -1.359375 -5.59375 L -1.359375 -5.34375 C -0.828125 -4.921875 -0.265625 -4.234375 -0.265625 -3.3125 C -0.265625 -2.328125 -0.953125 -1.671875 -2.25 -1.671875 C -3.828125 -1.671875 -5.890625 -2.71875 -5.890625 -4.453125 C -5.890625 -5.390625 -5.25 -5.78125 -4.296875 -5.78125 L -4.296875 -5.9375 Z M -6.171875 -6.328125 "
           id="path83" />
      </symbol>
      <symbol
         overflow="visible"
         id="glyph4-2">
        <path
           style="stroke:none;"
           d="M -6.4375 -3.90625 L -6.4375 -3.46875 L 1.921875 -0.359375 L 1.921875 -0.8125 Z M -6.4375 -3.90625 "
           id="path86" />
      </symbol>
      <symbol
         overflow="visible"
         id="glyph5-0">
        <path
           style="stroke:none;"
           d=""
           id="path89" />
      </symbol>
      <symbol
         overflow="visible"
         id="glyph5-1">
        <path
           style="stroke:none;"
           d="M -2.40625 -4.640625 C -2.984375 -4.640625 -3.40625 -4.359375 -3.40625 -3.75 C -3.40625 -3.3125 -3.171875 -2.953125 -2.8125 -2.640625 L -3.421875 -2.84375 C -3.421875 -2.84375 -3.234375 -1.734375 -3.21875 -1.484375 L -3 -1.484375 C -3 -1.78125 -3.046875 -2 -2.796875 -2 C -2.671875 -2 -2.375 -1.890625 -2.203125 -1.84375 L 0.671875 -0.9375 C 0.90625 -0.859375 1.09375 -0.734375 1.09375 -0.34375 L 1.296875 -0.3125 L 1.296875 -2.078125 L 1.09375 -2.125 C 1.09375 -1.8125 1.09375 -1.578125 0.9375 -1.578125 C 0.875 -1.578125 0.8125 -1.578125 0.6875 -1.609375 L -0.0625 -1.875 C 0.046875 -2.015625 0.09375 -2.1875 0.09375 -2.390625 C 0.09375 -3.34375 -1.21875 -4.640625 -2.40625 -4.640625 Z M -2.328125 -3.90625 C -1.421875 -3.90625 -0.15625 -3.0625 -0.15625 -2.390625 C -0.15625 -2.234375 -0.203125 -2.078125 -0.296875 -1.9375 C -1.265625 -2.234375 -2.984375 -2.5625 -2.984375 -3.53125 C -2.984375 -3.90625 -2.484375 -3.90625 -2.328125 -3.90625 Z M -2.328125 -3.90625 "
           id="path92" />
      </symbol>
      <symbol
         overflow="visible"
         id="glyph5-2">
        <path
           style="stroke:none;"
           d="M 1.140625 -0.609375 C 1.09375 -0.8125 1.046875 -0.90625 0.9375 -1.09375 C 0.71875 -1.421875 0.40625 -1.65625 -0.140625 -1.65625 C -0.671875 -1.65625 -0.90625 -1.40625 -0.90625 -1.078125 C -0.90625 -0.78125 -0.71875 -0.59375 -0.4375 -0.59375 C -0.171875 -0.59375 0 -0.78125 0 -1.03125 C 0 -1.109375 -0.015625 -1.1875 -0.0625 -1.265625 C -0.078125 -1.296875 -0.078125 -1.296875 -0.078125 -1.3125 C -0.078125 -1.34375 -0.015625 -1.359375 0.0625 -1.359375 C 0.140625 -1.359375 0.640625 -1.359375 0.921875 -0.609375 Z M 1.140625 -0.609375 "
           id="path95" />
      </symbol>
      <symbol
         overflow="visible"
         id="glyph5-3">
        <path
           style="stroke:none;"
           d="M 0 -3.15625 L -0.1875 -3.15625 C -0.1875 -2.625 -0.1875 -2.453125 -1.03125 -2.453125 C -1.046875 -2.453125 -4.703125 -2.453125 -4.703125 -2.453125 L -4.703125 -2.28125 L -4.125 -0.9375 L -3.9375 -1.015625 C -4.0625 -1.328125 -4.078125 -1.390625 -4.078125 -1.484375 C -4.078125 -1.6875 -3.90625 -1.703125 -3.703125 -1.703125 L -1.03125 -1.703125 C -0.1875 -1.703125 -0.203125 -1.546875 -0.1875 -1.015625 L 0 -1.015625 Z M 0 -3.15625 "
           id="path98" />
      </symbol>
      <symbol
         overflow="visible"
         id="glyph6-0">
        <path
           style="stroke:none;"
           d=""
           id="path101" />
      </symbol>
      <symbol
         overflow="visible"
         id="glyph6-1">
        <path
           style="stroke:none;"
           d="M 0 -0.109375 L 0 -1.65625 L -0.109375 -1.65625 C -0.109375 -1.296875 -0.1875 -1.1875 -0.46875 -1.1875 L -2.4375 -1.1875 C -2.453125 -1.1875 -2.515625 -1.234375 -2.5625 -1.296875 C -2.71875 -1.46875 -2.84375 -1.765625 -2.84375 -2 C -2.84375 -2.3125 -2.59375 -2.46875 -2.109375 -2.46875 L -0.59375 -2.46875 C -0.203125 -2.453125 -0.125 -2.390625 -0.109375 -2 L 0 -2 L 0 -3.546875 L -0.109375 -3.546875 C -0.109375 -3.15625 -0.21875 -3.0625 -0.65625 -3.046875 L -2.421875 -3.046875 C -2.71875 -3.265625 -2.84375 -3.484375 -2.84375 -3.8125 C -2.84375 -4.203125 -2.65625 -4.328125 -2.078125 -4.328125 L -0.609375 -4.328125 C -0.1875 -4.328125 -0.140625 -4.28125 -0.109375 -3.875 L 0 -3.875 L 0 -5.40625 L -0.109375 -5.40625 L -0.125 -5.21875 C -0.15625 -5 -0.265625 -4.921875 -0.53125 -4.921875 L -1.96875 -4.921875 C -2.78125 -4.921875 -3.203125 -4.640625 -3.203125 -4.109375 C -3.203125 -3.703125 -3.03125 -3.359375 -2.625 -2.96875 C -3.015625 -2.84375 -3.203125 -2.609375 -3.203125 -2.234375 C -3.203125 -1.921875 -3.109375 -1.734375 -2.671875 -1.15625 L -3.1875 -1.15625 L -3.203125 -1.109375 C -3.078125 -0.734375 -3 -0.5 -2.890625 -0.125 L -2.78125 -0.125 C -2.796875 -0.21875 -2.796875 -0.28125 -2.796875 -0.359375 C -2.796875 -0.53125 -2.6875 -0.59375 -2.359375 -0.59375 L -0.59375 -0.59375 C -0.203125 -0.578125 -0.109375 -0.5 -0.109375 -0.109375 Z M 0 -0.109375 "
           id="path104" />
      </symbol>
      <symbol
         overflow="visible"
         id="glyph7-0">
        <path
           style="stroke:none;"
           d=""
           id="path107" />
      </symbol>
      <symbol
         overflow="visible"
         id="glyph7-1">
        <path
           style="stroke:none;"
           d="M -5.9375 -3.3125 L -5.9375 -0.75 L -5.765625 -0.75 C -5.71875 -1.46875 -5.625 -1.5625 -4.953125 -1.578125 L -0.8125 -1.578125 C -0.40625 -1.578125 -0.21875 -1.46875 -0.21875 -1.234375 C -0.21875 -1.109375 -0.28125 -1.0625 -0.515625 -1 C -0.828125 -0.90625 -0.96875 -0.765625 -0.96875 -0.53125 C -0.96875 -0.28125 -0.765625 -0.09375 -0.515625 -0.09375 C -0.140625 -0.09375 0.125 -0.453125 0.125 -0.984375 C 0.125 -1.953125 -0.515625 -2.5 -1.640625 -2.5 L -4.953125 -2.5 C -5.625 -2.515625 -5.71875 -2.59375 -5.765625 -3.3125 Z M -5.9375 -3.3125 "
           id="path110" />
      </symbol>
      <symbol
         overflow="visible"
         id="glyph7-2">
        <path
           style="stroke:none;"
           d="M -5.765625 -3.703125 C -5.734375 -4.25 -5.703125 -4.3125 -5.484375 -4.3125 C -5.296875 -4.3125 -5.015625 -4.109375 -4.5625 -3.609375 L -3.125 -2.03125 L -4.953125 -2.03125 C -5.625 -2.03125 -5.71875 -2.125 -5.765625 -2.859375 L -5.9375 -2.859375 L -5.9375 -0.3125 L -5.765625 -0.3125 C -5.71875 -1 -5.609375 -1.09375 -4.953125 -1.109375 L -1.078125 -1.109375 C -0.3125 -1.109375 -0.21875 -1 -0.171875 -0.3125 L 0 -0.3125 L 0 -2.828125 L -0.171875 -2.828125 C -0.21875 -2.140625 -0.3125 -2.03125 -0.984375 -2.03125 L -2.65625 -2.03125 L -2.84375 -2.265625 L -1.90625 -3.203125 C -1.203125 -3.90625 -0.59375 -4.375 -0.375 -4.375 C -0.234375 -4.375 -0.1875 -4.265625 -0.171875 -4 C -0.171875 -3.953125 -0.171875 -3.859375 -0.171875 -3.75 L 0 -3.75 L 0 -6.484375 L -0.171875 -6.484375 C -0.171875 -6.015625 -0.265625 -5.890625 -1.140625 -5.078125 L -3.375 -2.984375 L -5.0625 -4.6875 C -5.65625 -5.296875 -5.71875 -5.4375 -5.765625 -6.046875 L -5.9375 -6.046875 L -5.9375 -3.703125 Z M -5.765625 -3.703125 "
           id="path113" />
      </symbol>
      <symbol
         overflow="visible"
         id="glyph7-3">
        <path
           style="stroke:none;"
           d="M 0 -0.140625 L 0 -2.140625 L -0.140625 -2.140625 C -0.140625 -1.671875 -0.234375 -1.53125 -0.59375 -1.53125 L -3.125 -1.53125 C -3.140625 -1.53125 -3.234375 -1.59375 -3.296875 -1.65625 C -3.5 -1.890625 -3.65625 -2.265625 -3.65625 -2.578125 C -3.65625 -2.984375 -3.34375 -3.171875 -2.71875 -3.171875 L -0.765625 -3.171875 C -0.265625 -3.15625 -0.15625 -3.0625 -0.140625 -2.5625 L 0 -2.5625 L 0 -4.578125 L -0.140625 -4.578125 C -0.140625 -4.078125 -0.28125 -3.953125 -0.859375 -3.921875 L -3.109375 -3.921875 C -3.5 -4.203125 -3.65625 -4.484375 -3.65625 -4.90625 C -3.65625 -5.421875 -3.421875 -5.578125 -2.671875 -5.578125 L -0.78125 -5.578125 C -0.25 -5.5625 -0.1875 -5.5 -0.140625 -4.984375 L 0 -4.984375 L 0 -6.953125 L -0.140625 -6.953125 L -0.15625 -6.71875 C -0.203125 -6.4375 -0.328125 -6.328125 -0.6875 -6.328125 L -2.53125 -6.328125 C -3.59375 -6.328125 -4.125 -5.984375 -4.125 -5.296875 C -4.125 -4.765625 -3.890625 -4.3125 -3.375 -3.828125 C -3.890625 -3.671875 -4.125 -3.359375 -4.125 -2.875 C -4.125 -2.46875 -4.015625 -2.234375 -3.4375 -1.484375 L -4.109375 -1.484375 L -4.125 -1.421875 C -3.953125 -0.953125 -3.859375 -0.640625 -3.71875 -0.171875 L -3.5625 -0.171875 C -3.59375 -0.28125 -3.609375 -0.359375 -3.609375 -0.453125 C -3.609375 -0.6875 -3.46875 -0.765625 -3.03125 -0.765625 L -0.765625 -0.765625 C -0.265625 -0.75 -0.140625 -0.640625 -0.140625 -0.140625 Z M 0 -0.140625 "
           id="path116" />
      </symbol>
      <symbol
         overflow="visible"
         id="glyph7-4">
        <path
           style="stroke:none;"
           d="M -4.125 -2.25 C -4.125 -1.0625 -3.265625 -0.265625 -2.03125 -0.265625 C -0.8125 -0.265625 0.09375 -1.09375 0.09375 -2.21875 C 0.09375 -3.359375 -0.859375 -4.21875 -2.09375 -4.21875 C -3.28125 -4.21875 -4.125 -3.390625 -4.125 -2.25 Z M -3.875 -2.125 C -3.875 -2.875 -3.015625 -3.40625 -1.78125 -3.40625 C -0.765625 -3.40625 -0.15625 -3 -0.15625 -2.328125 C -0.15625 -1.984375 -0.375 -1.65625 -0.734375 -1.46875 C -1.203125 -1.203125 -1.828125 -1.0625 -2.46875 -1.0625 C -3.3125 -1.0625 -3.875 -1.484375 -3.875 -2.125 Z M -3.875 -2.125 "
           id="path119" />
      </symbol>
      <symbol
         overflow="visible"
         id="glyph7-5">
        <path
           style="stroke:none;"
           d="M 0 -0.1875 L 0 -2.3125 L -0.140625 -2.3125 C -0.15625 -1.734375 -0.25 -1.640625 -0.75 -1.625 L -6.109375 -1.625 L -6.125 -1.59375 C -5.984375 -1.140625 -5.890625 -0.8125 -5.734375 -0.171875 L -5.59375 -0.171875 L -5.59375 -0.21875 C -5.59375 -0.328125 -5.609375 -0.4375 -5.609375 -0.5 C -5.609375 -0.796875 -5.484375 -0.875 -5.0625 -0.875 L -0.78125 -0.875 C -0.296875 -0.875 -0.171875 -0.75 -0.140625 -0.1875 Z M 0 -0.1875 "
           id="path122" />
      </symbol>
      <symbol
         overflow="visible"
         id="glyph8-0">
        <path
           style="stroke:none;"
           d=""
           id="path125" />
      </symbol>
      <symbol
         overflow="visible"
         id="glyph8-1">
        <path
           style="stroke:none;"
           d="M -1.796875 -5.125 L -2.234375 -5.125 L -2.234375 -0.421875 L -1.796875 -0.421875 Z M -1.796875 -5.125 "
           id="path128" />
      </symbol>
    </g>
    <clipPath
       id="clip1">
      <path
         d="M 13 39 L 210.699219 39 L 210.699219 190 L 13 190 Z M 13 39 "
         id="path133" />
    </clipPath>
    <clipPath
       id="clip2">
      <path
         d="M 13 121 L 210.699219 121 L 210.699219 190 L 13 190 Z M 13 121 "
         id="path136" />
    </clipPath>
    <clipPath
       id="clip3">
      <path
         d="M 13 0 L 210.699219 0 L 210.699219 190 L 13 190 Z M 13 0 "
         id="path139" />
    </clipPath>
  </defs>
  <g
     id="surface1">
    <g
       clip-path="url(#clip1)"
       clip-rule="nonzero"
       id="g146">
      <path
         style="fill:none;stroke-width:11.3366;stroke-linecap:butt;stroke-linejoin:miter;stroke:rgb(0%,0%,0%);stroke-opacity:1;stroke-miterlimit:10;"
         d="M 295.820312 239.585938 L 298.632812 239.664062 L 301.445312 240.289062 L 304.296875 241.929688 L 307.148438 245.09375 L 309.960938 250.367188 L 312.8125 258.179688 L 315.625 269.078125 L 318.476562 283.648438 L 321.289062 302.28125 L 324.140625 325.5625 L 326.953125 354.039062 L 329.804688 388.179688 L 332.617188 428.53125 L 335.46875 475.523438 L 338.28125 529.820312 L 341.132812 566.773438 L 343.945312 601.96875 L 346.796875 635.40625 L 349.648438 667.125 L 352.460938 697.242188 L 355.273438 725.757812 L 358.125 752.789062 L 360.976562 778.335938 L 363.789062 802.476562 L 366.640625 825.25 L 369.453125 846.734375 L 372.304688 866.96875 L 375.117188 886.03125 L 377.96875 903.960938 L 380.78125 920.835938 L 383.632812 936.65625 L 386.445312 951.539062 L 389.296875 965.523438 L 392.109375 978.648438 L 394.960938 990.992188 L 397.773438 1002.59375 L 400.625 1013.492188 L 403.4375 1023.804688 L 406.289062 1033.53125 L 409.101562 1042.75 L 411.953125 1051.5 L 414.804688 1059.859375 L 417.617188 1067.867188 L 420.429688 1075.601562 L 423.28125 1083.101562 L 426.132812 1090.445312 L 428.945312 1097.632812 L 431.796875 1104.78125 L 434.609375 1111.890625 L 437.460938 1119.078125 L 440.273438 1126.382812 L 443.125 1133.804688 L 445.9375 1141.5 L 448.789062 1149.429688 L 451.601562 1157.671875 L 454.453125 1166.34375 L 457.265625 1175.445312 L 460.117188 1185.015625 L 462.929688 1195.171875 L 465.78125 1205.914062 L 468.59375 1217.359375 L 471.445312 1229.507812 L 474.296875 1242.4375 L 474.296875 1421.617188 L 513.945312 1421.617188 L 513.945312 859 L 522.421875 858.960938 L 550.78125 858.804688 L 579.101562 858.648438 L 607.421875 858.53125 L 635.78125 858.414062 L 692.421875 858.179688 L 749.0625 858.023438 L 777.421875 857.945312 L 834.0625 857.867188 L 919.0625 857.867188 L 975.703125 857.945312 L 1004.023438 858.023438 L 1032.382812 858.140625 L 1089.023438 858.375 L 1117.34375 858.53125 L 1145.703125 858.6875 L 1174.023438 858.921875 L 1202.34375 859.117188 L 1230.664062 859.390625 L 1259.023438 859.664062 L 1287.34375 859.976562 L 1343.984375 860.679688 L 1372.34375 861.070312 L 1400.664062 861.5 L 1457.304688 862.4375 L 1485.664062 862.945312 L 1570.625 864.703125 L 1598.984375 865.367188 L 1627.304688 866.070312 L 1683.945312 867.554688 L 1712.304688 868.375 L 1768.945312 870.09375 L 1797.265625 871.03125 L 1825.625 872.007812 L 1853.945312 873.023438 L 1882.265625 874.078125 L 1910.585938 875.171875 L 1938.945312 876.304688 L 1995.585938 878.726562 "
         transform="matrix(0.1,0,0,-0.1,0,197.4)"
         id="path144" />
    </g>
    <g
       clip-path="url(#clip2)"
       clip-rule="nonzero"
       id="g150">
      <path
         style="fill:none;stroke-width:11.3366;stroke-linecap:butt;stroke-linejoin:miter;stroke:rgb(0%,0%,0%);stroke-opacity:1;stroke-miterlimit:10;"
         d="M 295.820312 239.585938 L 309.960938 239.585938 L 324.140625 239.625 L 338.28125 239.703125 L 352.460938 239.898438 L 366.640625 240.132812 L 380.78125 240.523438 L 394.960938 241.109375 L 409.101562 241.8125 L 423.28125 242.75 L 437.460938 243.921875 L 451.601562 245.367188 L 465.78125 247.085938 L 479.960938 249.117188 L 494.101562 251.460938 L 508.28125 254.195312 L 522.421875 257.320312 L 536.601562 260.875 L 550.78125 264.859375 L 564.921875 269.3125 L 579.101562 274.234375 L 607.421875 281.539062 L 635.78125 288.882812 L 692.421875 303.648438 L 720.742188 311.070312 L 749.0625 318.453125 L 777.421875 325.875 L 862.382812 348.140625 L 890.742188 355.5625 L 975.703125 377.710938 L 1004.023438 385.054688 L 1032.382812 392.359375 L 1060.703125 399.664062 L 1089.023438 406.890625 L 1117.34375 414.15625 L 1145.703125 421.304688 L 1174.023438 428.453125 L 1202.34375 435.523438 L 1230.664062 442.554688 L 1259.023438 449.546875 L 1287.34375 456.460938 L 1315.664062 463.296875 L 1343.984375 470.09375 L 1372.34375 476.8125 L 1400.664062 483.453125 L 1428.984375 490.015625 L 1457.304688 496.539062 L 1485.664062 502.945312 L 1513.984375 509.234375 L 1542.304688 515.445312 L 1570.625 521.617188 L 1598.984375 527.632812 L 1627.304688 533.570312 L 1655.625 539.351562 L 1683.945312 545.054688 L 1712.304688 550.640625 L 1740.625 556.148438 L 1768.945312 561.460938 L 1797.265625 566.695312 L 1825.625 571.8125 L 1853.945312 576.773438 L 1882.265625 581.617188 L 1910.585938 586.304688 L 1938.945312 590.835938 L 1967.265625 595.25 L 1995.585938 599.507812 "
         transform="matrix(0.1,0,0,-0.1,0,197.4)"
         id="path148" />
    </g>
    <g
       clip-path="url(#clip3)"
       clip-rule="nonzero"
       id="g154">
      <path
         style="fill:none;stroke-width:11.3366;stroke-linecap:butt;stroke-linejoin:miter;stroke:rgb(0%,0%,0%);stroke-opacity:1;stroke-miterlimit:10;"
         d="M 295.820312 239.585938 L 309.960938 240.015625 L 324.140625 245.328125 L 338.28125 260.875 L 352.460938 281.695312 L 366.640625 305.71875 L 380.78125 326.773438 L 394.960938 349.078125 L 409.101562 369.703125 L 423.28125 389.039062 L 437.460938 407.554688 L 465.78125 443.882812 L 494.101562 478.960938 L 522.421875 512.125 L 550.78125 545.289062 L 579.101562 576.148438 L 607.421875 605.679688 L 635.78125 632.671875 L 664.101562 658.609375 L 692.421875 682.203125 L 720.742188 706.226562 L 749.0625 731.539062 L 777.421875 757.671875 L 805.742188 784.039062 L 834.0625 810.171875 L 862.382812 837.398438 L 890.742188 866.539062 L 919.0625 894.820312 L 947.382812 922.242188 L 975.703125 949.859375 L 1004.023438 977.515625 L 1032.382812 1005.5625 L 1060.703125 1033.84375 L 1069.648438 1042.789062 L 1069.648438 1855.054688 L 1089.023438 1849.742188 L 1117.34375 1843.609375 L 1145.703125 1840.015625 L 1202.34375 1839.3125 L 1259.023438 1843.492188 L 1315.664062 1850.796875 L 1351.875 1856.34375 L 1351.875 1022.046875 L 1423.75 1005.132812 L 1494.570312 997.90625 L 1565.390625 995.5625 L 1636.210938 995.992188 L 1707.03125 998.335938 L 1777.851562 1001.734375 L 1848.710938 1005.992188 L 1919.53125 1010.445312 L 1995.585938 1015.992188 "
         transform="matrix(0.1,0,0,-0.1,0,197.4)"
         id="path152" />
    </g>
    <g
       style="fill:rgb(0%,0%,0%);fill-opacity:1;"
       id="g158">
      <use
         xlink:href="#glyph0-1"
         x="38.1262"
         y="129.3559"
         id="use156" />
    </g>
    <g
       style="fill:rgb(0%,0%,0%);fill-opacity:1;"
       id="g162">
      <use
         xlink:href="#glyph1-1"
         x="43.88597"
         y="131.39574"
         id="use160" />
    </g>
    <g
       style="fill:rgb(0%,0%,0%);fill-opacity:1;"
       id="g166">
      <use
         xlink:href="#glyph0-2"
         x="48.3262"
         y="129.3559"
         id="use164" />
    </g>
    <g
       style="fill:rgb(0%,0%,0%);fill-opacity:1;"
       id="g170">
      <use
         xlink:href="#glyph0-3"
         x="50.966044"
         y="129.3559"
         id="use168" />
    </g>
    <g
       style="fill:rgb(0%,0%,0%);fill-opacity:1;"
       id="g174">
      <use
         xlink:href="#glyph0-4"
         x="54.085966"
         y="129.3559"
         id="use172" />
    </g>
    <g
       style="fill:rgb(0%,0%,0%);fill-opacity:1;"
       id="g178">
      <use
         xlink:href="#glyph0-1"
         x="40.6512"
         y="50.4403"
         id="use176" />
    </g>
    <g
       style="fill:rgb(0%,0%,0%);fill-opacity:1;"
       id="g182">
      <use
         xlink:href="#glyph1-1"
         x="46.41097"
         y="52.48053"
         id="use180" />
    </g>
    <g
       style="fill:rgb(0%,0%,0%);fill-opacity:1;"
       id="g186">
      <use
         xlink:href="#glyph0-2"
         x="50.73089"
         y="50.4403"
         id="use184" />
    </g>
    <g
       style="fill:rgb(0%,0%,0%);fill-opacity:1;"
       id="g190">
      <use
         xlink:href="#glyph0-5"
         x="53.370734"
         y="50.4403"
         id="use188" />
    </g>
    <g
       style="fill:rgb(0%,0%,0%);fill-opacity:1;"
       id="g194">
      <use
         xlink:href="#glyph0-4"
         x="55.530888"
         y="50.4403"
         id="use192" />
    </g>
    <g
       style="fill:rgb(0%,0%,0%);fill-opacity:1;"
       id="g198">
      <use
         xlink:href="#glyph0-1"
         x="116.18209"
         y="119.6438"
         id="use196" />
    </g>
    <g
       style="fill:rgb(0%,0%,0%);fill-opacity:1;"
       id="g202">
      <use
         xlink:href="#glyph1-1"
         x="121.94225"
         y="121.68403"
         id="use200" />
    </g>
    <g
       style="fill:rgb(0%,0%,0%);fill-opacity:1;"
       id="g206">
      <use
         xlink:href="#glyph0-2"
         x="126.38209"
         y="119.6438"
         id="use204" />
    </g>
    <g
       style="fill:rgb(0%,0%,0%);fill-opacity:1;"
       id="g210">
      <use
         xlink:href="#glyph0-6"
         x="129.02194"
         y="119.6438"
         id="use208" />
    </g>
    <g
       style="fill:rgb(0%,0%,0%);fill-opacity:1;"
       id="g214">
      <use
         xlink:href="#glyph0-4"
         x="132.982093"
         y="119.6438"
         id="use212" />
    </g>
    <g
       style="fill:rgb(0%,0%,0%);fill-opacity:1;"
       id="g218">
      <use
         xlink:href="#glyph0-7"
         x="62.25359"
         y="143.2317"
         id="use216" />
    </g>
    <g
       style="fill:rgb(0%,0%,0%);fill-opacity:1;"
       id="g222">
      <use
         xlink:href="#glyph1-1"
         x="68.01375"
         y="145.27154"
         id="use220" />
    </g>
    <g
       style="fill:rgb(0%,0%,0%);fill-opacity:1;"
       id="g226">
      <use
         xlink:href="#glyph0-8"
         x="72.33367"
         y="143.2317"
         id="use224" />
    </g>
    <g
       style="fill:rgb(0%,0%,0%);fill-opacity:1;"
       id="g230">
      <use
         xlink:href="#glyph0-2"
         x="78.093827"
         y="143.2317"
         id="use228" />
    </g>
    <g
       style="fill:rgb(0%,0%,0%);fill-opacity:1;"
       id="g234">
      <use
         xlink:href="#glyph0-3"
         x="80.73367"
         y="143.2317"
         id="use232" />
    </g>
    <g
       style="fill:rgb(0%,0%,0%);fill-opacity:1;"
       id="g238">
      <use
         xlink:href="#glyph0-4"
         x="83.853593"
         y="143.2317"
         id="use236" />
    </g>
    <g
       style="fill:rgb(0%,0%,0%);fill-opacity:1;"
       id="g242">
      <use
         xlink:href="#glyph0-7"
         x="109.44617"
         y="21.8527"
         id="use240" />
    </g>
    <g
       style="fill:rgb(0%,0%,0%);fill-opacity:1;"
       id="g246">
      <use
         xlink:href="#glyph1-1"
         x="115.20594"
         y="23.89254"
         id="use244" />
    </g>
    <g
       style="fill:rgb(0%,0%,0%);fill-opacity:1;"
       id="g250">
      <use
         xlink:href="#glyph0-8"
         x="119.52625"
         y="21.8527"
         id="use248" />
    </g>
    <g
       style="fill:rgb(0%,0%,0%);fill-opacity:1;"
       id="g254">
      <use
         xlink:href="#glyph0-2"
         x="125.286407"
         y="21.8527"
         id="use252" />
    </g>
    <g
       style="fill:rgb(0%,0%,0%);fill-opacity:1;"
       id="g258">
      <use
         xlink:href="#glyph0-5"
         x="127.926257"
         y="21.8527"
         id="use256" />
    </g>
    <g
       style="fill:rgb(0%,0%,0%);fill-opacity:1;"
       id="g262">
      <use
         xlink:href="#glyph0-4"
         x="130.086417"
         y="21.8527"
         id="use260" />
    </g>
    <g
       style="fill:rgb(0%,0%,0%);fill-opacity:1;"
       id="g266">
      <use
         xlink:href="#glyph0-7"
         x="154.66415"
         y="92.9582"
         id="use264" />
    </g>
    <g
       style="fill:rgb(0%,0%,0%);fill-opacity:1;"
       id="g270">
      <use
         xlink:href="#glyph1-1"
         x="160.42392"
         y="94.99804"
         id="use268" />
    </g>
    <g
       style="fill:rgb(0%,0%,0%);fill-opacity:1;"
       id="g274">
      <use
         xlink:href="#glyph0-8"
         x="164.86415"
         y="92.9582"
         id="use272" />
    </g>
    <g
       style="fill:rgb(0%,0%,0%);fill-opacity:1;"
       id="g278">
      <use
         xlink:href="#glyph0-2"
         x="170.624307"
         y="92.9582"
         id="use276" />
    </g>
    <g
       style="fill:rgb(0%,0%,0%);fill-opacity:1;"
       id="g282">
      <use
         xlink:href="#glyph0-6"
         x="173.264157"
         y="92.9582"
         id="use280" />
    </g>
    <g
       style="fill:rgb(0%,0%,0%);fill-opacity:1;"
       id="g286">
      <use
         xlink:href="#glyph0-4"
         x="177.224309"
         y="92.9582"
         id="use284" />
    </g>
    <g
       style="fill:rgb(0%,0%,0%);fill-opacity:1;"
       id="g290">
      <use
         xlink:href="#glyph0-9"
         x="136.06025"
         y="144.1543"
         id="use288" />
    </g>
    <g
       style="fill:rgb(0%,0%,0%);fill-opacity:1;"
       id="g294">
      <use
         xlink:href="#glyph0-2"
         x="141.340327"
         y="144.1543"
         id="use292" />
    </g>
    <g
       style="fill:rgb(0%,0%,0%);fill-opacity:1;"
       id="g298">
      <use
         xlink:href="#glyph0-3"
         x="143.980177"
         y="144.1543"
         id="use296" />
    </g>
    <g
       style="fill:rgb(0%,0%,0%);fill-opacity:1;"
       id="g302">
      <use
         xlink:href="#glyph0-4"
         x="147.100093"
         y="144.1543"
         id="use300" />
    </g>
    <path
       style="fill:none;stroke-width:5.67043;stroke-linecap:butt;stroke-linejoin:miter;stroke:rgb(0%,0%,0%);stroke-opacity:1;stroke-miterlimit:10;"
       d="M 295.820312 239.585938 L 1995.585938 239.585938 L 1995.585938 1940.328125 L 295.820312 1940.328125 Z M 295.820312 239.585938 "
       transform="matrix(0.1,0,0,-0.1,0,197.4)"
       id="path304" />
    <path
       style="fill:none;stroke-width:3.98506;stroke-linecap:butt;stroke-linejoin:miter;stroke:rgb(0%,0%,0%);stroke-opacity:1;stroke-miterlimit:10;"
       d="M 295.820312 239.585938 L 295.820312 282.125 "
       transform="matrix(0.1,0,0,-0.1,0,197.4)"
       id="path306" />
    <path
       style="fill:none;stroke-width:3.98506;stroke-linecap:butt;stroke-linejoin:miter;stroke:rgb(0%,0%,0%);stroke-opacity:1;stroke-miterlimit:10;"
       d="M 579.101562 239.585938 L 579.101562 282.125 "
       transform="matrix(0.1,0,0,-0.1,0,197.4)"
       id="path308" />
    <path
       style="fill:none;stroke-width:3.98506;stroke-linecap:butt;stroke-linejoin:miter;stroke:rgb(0%,0%,0%);stroke-opacity:1;stroke-miterlimit:10;"
       d="M 862.382812 239.585938 L 862.382812 282.125 "
       transform="matrix(0.1,0,0,-0.1,0,197.4)"
       id="path310" />
    <path
       style="fill:none;stroke-width:3.98506;stroke-linecap:butt;stroke-linejoin:miter;stroke:rgb(0%,0%,0%);stroke-opacity:1;stroke-miterlimit:10;"
       d="M 1145.703125 239.585938 L 1145.703125 282.125 "
       transform="matrix(0.1,0,0,-0.1,0,197.4)"
       id="path312" />
    <path
       style="fill:none;stroke-width:3.98506;stroke-linecap:butt;stroke-linejoin:miter;stroke:rgb(0%,0%,0%);stroke-opacity:1;stroke-miterlimit:10;"
       d="M 1428.984375 239.585938 L 1428.984375 282.125 "
       transform="matrix(0.1,0,0,-0.1,0,197.4)"
       id="path314" />
    <path
       style="fill:none;stroke-width:3.98506;stroke-linecap:butt;stroke-linejoin:miter;stroke:rgb(0%,0%,0%);stroke-opacity:1;stroke-miterlimit:10;"
       d="M 1712.304688 239.585938 L 1712.304688 282.125 "
       transform="matrix(0.1,0,0,-0.1,0,197.4)"
       id="path316" />
    <path
       style="fill:none;stroke-width:3.98506;stroke-linecap:butt;stroke-linejoin:miter;stroke:rgb(0%,0%,0%);stroke-opacity:1;stroke-miterlimit:10;"
       d="M 1995.585938 239.585938 L 1995.585938 282.125 "
       transform="matrix(0.1,0,0,-0.1,0,197.4)"
       id="path318" />
    <path
       style="fill:none;stroke-width:3.98506;stroke-linecap:butt;stroke-linejoin:miter;stroke:rgb(0%,0%,0%);stroke-opacity:1;stroke-miterlimit:10;"
       d="M 295.820312 239.585938 L 295.820312 282.125 "
       transform="matrix(0.1,0,0,-0.1,0,197.4)"
       id="path320" />
    <path
       style="fill:none;stroke-width:3.98506;stroke-linecap:butt;stroke-linejoin:miter;stroke:rgb(0%,0%,0%);stroke-opacity:1;stroke-miterlimit:10;"
       d="M 295.820312 239.585938 L 338.320312 239.585938 "
       transform="matrix(0.1,0,0,-0.1,0,197.4)"
       id="path322" />
    <path
       style="fill:none;stroke-width:3.98506;stroke-linecap:butt;stroke-linejoin:miter;stroke:rgb(0%,0%,0%);stroke-opacity:1;stroke-miterlimit:10;"
       d="M 295.820312 664.78125 L 338.320312 664.78125 "
       transform="matrix(0.1,0,0,-0.1,0,197.4)"
       id="path324" />
    <path
       style="fill:none;stroke-width:3.98506;stroke-linecap:butt;stroke-linejoin:miter;stroke:rgb(0%,0%,0%);stroke-opacity:1;stroke-miterlimit:10;"
       d="M 295.820312 1089.976562 L 338.320312 1089.976562 "
       transform="matrix(0.1,0,0,-0.1,0,197.4)"
       id="path326" />
    <path
       style="fill:none;stroke-width:3.98506;stroke-linecap:butt;stroke-linejoin:miter;stroke:rgb(0%,0%,0%);stroke-opacity:1;stroke-miterlimit:10;"
       d="M 295.820312 1515.132812 L 338.320312 1515.132812 "
       transform="matrix(0.1,0,0,-0.1,0,197.4)"
       id="path328" />
    <path
       style="fill:none;stroke-width:3.98506;stroke-linecap:butt;stroke-linejoin:miter;stroke:rgb(0%,0%,0%);stroke-opacity:1;stroke-miterlimit:10;"
       d="M 295.820312 1940.328125 L 338.320312 1940.328125 "
       transform="matrix(0.1,0,0,-0.1,0,197.4)"
       id="path330" />
    <path
       style="fill:none;stroke-width:3.98506;stroke-linecap:butt;stroke-linejoin:miter;stroke:rgb(0%,0%,0%);stroke-opacity:1;stroke-miterlimit:10;"
       d="M 295.820312 239.585938 L 338.320312 239.585938 "
       transform="matrix(0.1,0,0,-0.1,0,197.4)"
       id="path332" />
    <path
       style="fill:none;stroke-width:3.98506;stroke-linecap:butt;stroke-linejoin:miter;stroke:rgb(0%,0%,0%);stroke-opacity:1;stroke-miterlimit:10;"
       d="M 295.820312 1940.328125 L 295.820312 1897.789062 "
       transform="matrix(0.1,0,0,-0.1,0,197.4)"
       id="path334" />
    <path
       style="fill:none;stroke-width:3.98506;stroke-linecap:butt;stroke-linejoin:miter;stroke:rgb(0%,0%,0%);stroke-opacity:1;stroke-miterlimit:10;"
       d="M 579.101562 1940.328125 L 579.101562 1897.789062 "
       transform="matrix(0.1,0,0,-0.1,0,197.4)"
       id="path336" />
    <path
       style="fill:none;stroke-width:3.98506;stroke-linecap:butt;stroke-linejoin:miter;stroke:rgb(0%,0%,0%);stroke-opacity:1;stroke-miterlimit:10;"
       d="M 862.382812 1940.328125 L 862.382812 1897.789062 "
       transform="matrix(0.1,0,0,-0.1,0,197.4)"
       id="path338" />
    <path
       style="fill:none;stroke-width:3.98506;stroke-linecap:butt;stroke-linejoin:miter;stroke:rgb(0%,0%,0%);stroke-opacity:1;stroke-miterlimit:10;"
       d="M 1145.703125 1940.328125 L 1145.703125 1897.789062 "
       transform="matrix(0.1,0,0,-0.1,0,197.4)"
       id="path340" />
    <path
       style="fill:none;stroke-width:3.98506;stroke-linecap:butt;stroke-linejoin:miter;stroke:rgb(0%,0%,0%);stroke-opacity:1;stroke-miterlimit:10;"
       d="M 1428.984375 1940.328125 L 1428.984375 1897.789062 "
       transform="matrix(0.1,0,0,-0.1,0,197.4)"
       id="path342" />
    <path
       style="fill:none;stroke-width:3.98506;stroke-linecap:butt;stroke-linejoin:miter;stroke:rgb(0%,0%,0%);stroke-opacity:1;stroke-miterlimit:10;"
       d="M 1712.304688 1940.328125 L 1712.304688 1897.789062 "
       transform="matrix(0.1,0,0,-0.1,0,197.4)"
       id="path344" />
    <path
       style="fill:none;stroke-width:3.98506;stroke-linecap:butt;stroke-linejoin:miter;stroke:rgb(0%,0%,0%);stroke-opacity:1;stroke-miterlimit:10;"
       d="M 1995.585938 1940.328125 L 1995.585938 1897.789062 "
       transform="matrix(0.1,0,0,-0.1,0,197.4)"
       id="path346" />
    <path
       style="fill:none;stroke-width:3.98506;stroke-linecap:butt;stroke-linejoin:miter;stroke:rgb(0%,0%,0%);stroke-opacity:1;stroke-miterlimit:10;"
       d="M 295.820312 1940.328125 L 295.820312 1897.789062 "
       transform="matrix(0.1,0,0,-0.1,0,197.4)"
       id="path348" />
    <path
       style="fill:none;stroke-width:3.98506;stroke-linecap:butt;stroke-linejoin:miter;stroke:rgb(0%,0%,0%);stroke-opacity:1;stroke-miterlimit:10;"
       d="M 1995.585938 239.585938 L 1953.085938 239.585938 "
       transform="matrix(0.1,0,0,-0.1,0,197.4)"
       id="path350" />
    <path
       style="fill:none;stroke-width:3.98506;stroke-linecap:butt;stroke-linejoin:miter;stroke:rgb(0%,0%,0%);stroke-opacity:1;stroke-miterlimit:10;"
       d="M 1995.585938 664.78125 L 1953.085938 664.78125 "
       transform="matrix(0.1,0,0,-0.1,0,197.4)"
       id="path352" />
    <path
       style="fill:none;stroke-width:3.98506;stroke-linecap:butt;stroke-linejoin:miter;stroke:rgb(0%,0%,0%);stroke-opacity:1;stroke-miterlimit:10;"
       d="M 1995.585938 1089.976562 L 1953.085938 1089.976562 "
       transform="matrix(0.1,0,0,-0.1,0,197.4)"
       id="path354" />
    <path
       style="fill:none;stroke-width:3.98506;stroke-linecap:butt;stroke-linejoin:miter;stroke:rgb(0%,0%,0%);stroke-opacity:1;stroke-miterlimit:10;"
       d="M 1995.585938 1515.132812 L 1953.085938 1515.132812 "
       transform="matrix(0.1,0,0,-0.1,0,197.4)"
       id="path356" />
    <path
       style="fill:none;stroke-width:3.98506;stroke-linecap:butt;stroke-linejoin:miter;stroke:rgb(0%,0%,0%);stroke-opacity:1;stroke-miterlimit:10;"
       d="M 1995.585938 1940.328125 L 1953.085938 1940.328125 "
       transform="matrix(0.1,0,0,-0.1,0,197.4)"
       id="path358" />
    <path
       style="fill:none;stroke-width:3.98506;stroke-linecap:butt;stroke-linejoin:miter;stroke:rgb(0%,0%,0%);stroke-opacity:1;stroke-miterlimit:10;"
       d="M 1995.585938 239.585938 L 1953.085938 239.585938 "
       transform="matrix(0.1,0,0,-0.1,0,197.4)"
       id="path360" />
    <g
       style="fill:rgb(0%,0%,0%);fill-opacity:1;"
       id="g364">
      <use
         xlink:href="#glyph2-1"
         x="27.3"
         y="182.9199"
         id="use362" />
    </g>
    <g
       style="fill:rgb(0%,0%,0%);fill-opacity:1;"
       id="g368">
      <use
         xlink:href="#glyph2-2"
         x="51.18007"
         y="182.9199"
         id="use366" />
    </g>
    <g
       style="fill:rgb(0%,0%,0%);fill-opacity:1;"
       id="g372">
      <use
         xlink:href="#glyph2-1"
         x="55.619913"
         y="182.9199"
         id="use370" />
    </g>
    <g
       style="fill:rgb(0%,0%,0%);fill-opacity:1;"
       id="g376">
      <use
         xlink:href="#glyph2-1"
         x="60.059756"
         y="182.9199"
         id="use374" />
    </g>
    <g
       style="fill:rgb(0%,0%,0%);fill-opacity:1;"
       id="g380">
      <use
         xlink:href="#glyph2-3"
         x="79.499585"
         y="182.9199"
         id="use378" />
    </g>
    <g
       style="fill:rgb(0%,0%,0%);fill-opacity:1;"
       id="g384">
      <use
         xlink:href="#glyph2-1"
         x="83.939428"
         y="182.9199"
         id="use382" />
    </g>
    <g
       style="fill:rgb(0%,0%,0%);fill-opacity:1;"
       id="g388">
      <use
         xlink:href="#glyph2-1"
         x="88.379271"
         y="182.9199"
         id="use386" />
    </g>
    <g
       style="fill:rgb(0%,0%,0%);fill-opacity:1;"
       id="g392">
      <use
         xlink:href="#glyph2-4"
         x="107.8191"
         y="182.9199"
         id="use390" />
    </g>
    <g
       style="fill:rgb(0%,0%,0%);fill-opacity:1;"
       id="g396">
      <use
         xlink:href="#glyph2-1"
         x="112.258943"
         y="182.9199"
         id="use394" />
    </g>
    <g
       style="fill:rgb(0%,0%,0%);fill-opacity:1;"
       id="g400">
      <use
         xlink:href="#glyph2-1"
         x="116.698786"
         y="182.9199"
         id="use398" />
    </g>
    <g
       style="fill:rgb(0%,0%,0%);fill-opacity:1;"
       id="g404">
      <use
         xlink:href="#glyph2-5"
         x="136.258585"
         y="182.9199"
         id="use402" />
    </g>
    <g
       style="fill:rgb(0%,0%,0%);fill-opacity:1;"
       id="g408">
      <use
         xlink:href="#glyph2-1"
         x="140.698428"
         y="182.9199"
         id="use406" />
    </g>
    <g
       style="fill:rgb(0%,0%,0%);fill-opacity:1;"
       id="g412">
      <use
         xlink:href="#glyph2-1"
         x="145.138271"
         y="182.9199"
         id="use410" />
    </g>
    <g
       style="fill:rgb(0%,0%,0%);fill-opacity:1;"
       id="g416">
      <use
         xlink:href="#glyph2-6"
         x="164.5781"
         y="182.9199"
         id="use414" />
    </g>
    <g
       style="fill:rgb(0%,0%,0%);fill-opacity:1;"
       id="g420">
      <use
         xlink:href="#glyph2-1"
         x="169.017943"
         y="182.9199"
         id="use418" />
    </g>
    <g
       style="fill:rgb(0%,0%,0%);fill-opacity:1;"
       id="g424">
      <use
         xlink:href="#glyph2-1"
         x="173.457785"
         y="182.9199"
         id="use422" />
    </g>
    <g
       style="fill:rgb(0%,0%,0%);fill-opacity:1;"
       id="g428">
      <use
         xlink:href="#glyph2-7"
         x="192.897615"
         y="182.9199"
         id="use426" />
    </g>
    <g
       style="fill:rgb(0%,0%,0%);fill-opacity:1;"
       id="g432">
      <use
         xlink:href="#glyph2-1"
         x="197.337457"
         y="182.9199"
         id="use430" />
    </g>
    <g
       style="fill:rgb(0%,0%,0%);fill-opacity:1;"
       id="g436">
      <use
         xlink:href="#glyph2-1"
         x="201.7773"
         y="182.9199"
         id="use434" />
    </g>
    <g
       style="fill:rgb(0%,0%,0%);fill-opacity:1;"
       id="g440">
      <use
         xlink:href="#glyph2-1"
         x="21.66016"
         y="176.43982"
         id="use438" />
    </g>
    <g
       style="fill:rgb(0%,0%,0%);fill-opacity:1;"
       id="g444">
      <use
         xlink:href="#glyph2-3"
         x="17.21993"
         y="133.95972"
         id="use442" />
    </g>
    <g
       style="fill:rgb(0%,0%,0%);fill-opacity:1;"
       id="g448">
      <use
         xlink:href="#glyph2-1"
         x="21.659774"
         y="133.95972"
         id="use446" />
    </g>
    <g
       style="fill:rgb(0%,0%,0%);fill-opacity:1;"
       id="g452">
      <use
         xlink:href="#glyph2-5"
         x="17.21993"
         y="91.48002"
         id="use450" />
    </g>
    <g
       style="fill:rgb(0%,0%,0%);fill-opacity:1;"
       id="g456">
      <use
         xlink:href="#glyph2-1"
         x="21.659774"
         y="91.48002"
         id="use454" />
    </g>
    <g
       style="fill:rgb(0%,0%,0%);fill-opacity:1;"
       id="g460">
      <use
         xlink:href="#glyph2-7"
         x="17.21993"
         y="48.99992"
         id="use458" />
    </g>
    <g
       style="fill:rgb(0%,0%,0%);fill-opacity:1;"
       id="g464">
      <use
         xlink:href="#glyph2-1"
         x="21.659774"
         y="48.99992"
         id="use462" />
    </g>
    <g
       style="fill:rgb(0%,0%,0%);fill-opacity:1;"
       id="g468">
      <use
         xlink:href="#glyph2-8"
         x="17.21993"
         y="6.39992"
         id="use466" />
    </g>
    <g
       style="fill:rgb(0%,0%,0%);fill-opacity:1;"
       id="g472">
      <use
         xlink:href="#glyph2-1"
         x="21.659774"
         y="6.39992"
         id="use470" />
    </g>
    <g
       style="fill:rgb(0%,0%,0%);fill-opacity:1;"
       id="g476">
      <use
         xlink:href="#glyph2-9"
         x="105.93013"
         y="194.91992"
         id="use474" />
    </g>
    <g
       style="fill:rgb(0%,0%,0%);fill-opacity:1;"
       id="g480">
      <use
         xlink:href="#glyph2-10"
         x="112.169977"
         y="194.91992"
         id="use478" />
    </g>
    <g
       style="fill:rgb(0%,0%,0%);fill-opacity:1;"
       id="g484">
      <use
         xlink:href="#glyph3-1"
         x="116.60983"
         y="194.91992"
         id="use482" />
    </g>
    <g
       style="fill:rgb(100%,100%,100%);fill-opacity:1;"
       id="g488">
      <use
         xlink:href="#glyph3-2"
         x="1.86016"
         y="88.764"
         id="use486" />
    </g>
    <g
       style="fill:rgb(0%,0%,0%);fill-opacity:1;"
       id="g492">
      <use
         xlink:href="#glyph4-1"
         x="10.0211"
         y="123.4441"
         id="use490" />
    </g>
    <g
       style="fill:rgb(0%,0%,0%);fill-opacity:1;"
       id="g496">
      <use
         xlink:href="#glyph5-1"
         x="12.30118"
         y="118.0441"
         id="use494" />
    </g>
    <g
       style="fill:rgb(0%,0%,0%);fill-opacity:1;"
       id="g500">
      <use
         xlink:href="#glyph5-2"
         x="12.30118"
         y="113.004254"
         id="use498" />
    </g>
    <g
       style="fill:rgb(0%,0%,0%);fill-opacity:1;"
       id="g504">
      <use
         xlink:href="#glyph6-1"
         x="12.30118"
         y="110.72418"
         id="use502" />
    </g>
    <g
       style="fill:rgb(0%,0%,0%);fill-opacity:1;"
       id="g508">
      <use
         xlink:href="#glyph4-2"
         x="10.0211"
         y="104.96441"
         id="use506" />
    </g>
    <g
       style="fill:rgb(0%,0%,0%);fill-opacity:1;"
       id="g512">
      <use
         xlink:href="#glyph7-1"
         x="10.0211"
         y="100.52457"
         id="use510" />
    </g>
    <g
       style="fill:rgb(0%,0%,0%);fill-opacity:1;"
       id="g516">
      <use
         xlink:href="#glyph7-2"
         x="10.0211"
         y="95.484729"
         id="use514" />
    </g>
    <g
       style="fill:rgb(0%,0%,0%);fill-opacity:1;"
       id="g520">
      <use
         xlink:href="#glyph8-1"
         x="6.78126"
         y="89.00427"
         id="use518" />
    </g>
    <g
       style="fill:rgb(0%,0%,0%);fill-opacity:1;"
       id="g524">
      <use
         xlink:href="#glyph5-3"
         x="6.78126"
         y="83.48435"
         id="use522" />
    </g>
    <g
       style="fill:rgb(0%,0%,0%);fill-opacity:1;"
       id="g528">
      <use
         xlink:href="#glyph7-3"
         x="10.0211"
         y="77.36443"
         id="use526" />
    </g>
    <g
       style="fill:rgb(0%,0%,0%);fill-opacity:1;"
       id="g532">
      <use
         xlink:href="#glyph7-4"
         x="10.0211"
         y="70.404272"
         id="use530" />
    </g>
    <g
       style="fill:rgb(0%,0%,0%);fill-opacity:1;"
       id="g536">
      <use
         xlink:href="#glyph7-5"
         x="10.0211"
         y="65.96443"
         id="use534" />
    </g>
    <g
       style="fill:rgb(0%,0%,0%);fill-opacity:1;"
       id="g540">
      <use
         xlink:href="#glyph8-1"
         x="6.78126"
         y="63.44413"
         id="use538" />
    </g>
    <g
       style="fill:rgb(0%,0%,0%);fill-opacity:1;"
       id="g544">
      <use
         xlink:href="#glyph5-3"
         x="6.78126"
         y="57.92421"
         id="use542" />
    </g>
  </g>
</svg>
