%!PS-Adobe-3.0 EPSF-3.0
%%Creator: cairo 1.17.4 (https://cairographics.org)
%%CreationDate: Thu Feb 24 10:47:58 2022
%%Pages: 1
%%DocumentData: Clean7Bit
%%LanguageLevel: 2
%%BoundingBox: 0 0 204 197
%%EndComments
%%BeginProlog
50 dict begin
/q { gsave } bind def
/Q { grestore } bind def
/cm { 6 array astore concat } bind def
/w { setlinewidth } bind def
/J { setlinecap } bind def
/j { setlinejoin } bind def
/M { setmiterlimit } bind def
/d { setdash } bind def
/m { moveto } bind def
/l { lineto } bind def
/c { curveto } bind def
/h { closepath } bind def
/re { exch dup neg 3 1 roll 5 3 roll moveto 0 rlineto
      0 exch rlineto 0 rlineto closepath } bind def
/S { stroke } bind def
/f { fill } bind def
/f* { eofill } bind def
/n { newpath } bind def
/W { clip } bind def
/W* { eoclip } bind def
/BT { } bind def
/ET { } bind def
/BDC { mark 3 1 roll /BDC pdfmark } bind def
/EMC { mark /EMC pdfmark } bind def
/cairo_store_point { /cairo_point_y exch def /cairo_point_x exch def } def
/Tj { show currentpoint cairo_store_point } bind def
/TJ {
  {
    dup
    type /stringtype eq
    { show } { -0.001 mul 0 cairo_font_matrix dtransform rmoveto } ifelse
  } forall
  currentpoint cairo_store_point
} bind def
/cairo_selectfont { cairo_font_matrix aload pop pop pop 0 0 6 array astore
    cairo_font exch selectfont cairo_point_x cairo_point_y moveto } bind def
/Tf { pop /cairo_font exch def /cairo_font_matrix where
      { pop cairo_selectfont } if } bind def
/Td { matrix translate cairo_font_matrix matrix concatmatrix dup
      /cairo_font_matrix exch def dup 4 get exch 5 get cairo_store_point
      /cairo_font where { pop cairo_selectfont } if } bind def
/Tm { 2 copy 8 2 roll 6 array astore /cairo_font_matrix exch def
      cairo_store_point /cairo_font where { pop cairo_selectfont } if } bind def
/g { setgray } bind def
/rg { setrgbcolor } bind def
/d1 { setcachedevice } bind def
/cairo_data_source {
  CairoDataIndex CairoData length lt
    { CairoData CairoDataIndex get /CairoDataIndex CairoDataIndex 1 add def }
    { () } ifelse
} def
/cairo_flush_ascii85_file { cairo_ascii85_file status { cairo_ascii85_file flushfile } if } def
/cairo_image { image cairo_flush_ascii85_file } def
/cairo_imagemask { imagemask cairo_flush_ascii85_file } def
%%EndProlog
%%BeginSetup
%%EndSetup
%%Page: 1 1
%%BeginPageSetup
%%PageBoundingBox: 0 0 204 197
%%EndPageSetup
q 0 0 204 197 rectclip
1 0 0 -1 0 197 cm q
Q q
10.922 38.648 193.078 151 re W n
q
10 38 194 152 re W n
  q
0 g
1.13366 w
0 J
0 j
[] 0.0 d
10 M q 1 0 0 -1 0 0 cm
27.504 -173.09 m 27.785 -173.082 l 28.066 -173.02 l 28.352 -172.855 l 28.637
 -172.539 l 28.918 -172.012 l 29.203 -171.23 l 29.484 -170.141 l 29.77 -168.684
 l 30.051 -166.82 l 30.336 -164.492 l 30.617 -161.645 l 30.902 -158.23 l
 31.184 -154.195 l 31.469 -149.496 l 31.75 -144.066 l 32.035 -140.371 l 
32.316 -136.852 l 32.602 -133.508 l 32.887 -130.336 l 33.168 -127.324 l 
33.449 -124.473 l 33.734 -121.77 l 34.02 -119.215 l 34.301 -116.801 l 34.586
 -114.523 l 34.867 -112.375 l 35.152 -110.352 l 35.434 -108.445 l 35.719
 -106.652 l 36 -104.965 l 36.285 -103.383 l 36.566 -101.895 l 36.852 -100.496
 l 37.133 -99.184 l 37.418 -97.949 l 37.699 -96.789 l 37.984 -95.699 l 38.266
 -94.668 l 38.551 -93.695 l 38.832 -92.773 l 39.117 -91.898 l 39.402 -91.062
 l 39.684 -90.262 l 39.965 -89.488 l 40.25 -88.738 l 40.535 -88.004 l 40.816
 -87.285 l 41.102 -86.57 l 41.383 -85.859 l 41.668 -85.141 l 41.949 -84.41
 l 42.234 -83.668 l 42.516 -82.898 l 42.801 -82.105 l 43.082 -81.281 l 43.367
 -80.414 l 43.648 -79.504 l 43.934 -78.547 l 44.215 -77.531 l 44.5 -76.457
 l 44.781 -75.312 l 45.066 -74.098 l 45.352 -72.805 l 45.352 -54.887 l 49.316
 -54.887 l 49.316 -111.148 l 50.164 -111.152 l 53 -111.168 l 55.832 -111.184
 l 58.664 -111.195 l 61.5 -111.207 l 67.164 -111.23 l 72.828 -111.246 l 
75.664 -111.254 l 81.328 -111.262 l 89.828 -111.262 l 95.492 -111.254 l 
98.324 -111.246 l 101.16 -111.234 l 106.824 -111.211 l 109.656 -111.195 
l 112.492 -111.18 l 115.324 -111.156 l 118.156 -111.137 l 120.988 -111.109
 l 123.824 -111.082 l 126.656 -111.051 l 132.32 -110.98 l 135.156 -110.941
 l 137.988 -110.898 l 143.652 -110.805 l 146.488 -110.754 l 154.984 -110.578
 l 157.82 -110.512 l 160.652 -110.441 l 166.316 -110.293 l 169.152 -110.211
 l 174.816 -110.039 l 177.648 -109.945 l 180.484 -109.848 l 183.316 -109.746
 l 186.148 -109.641 l 188.98 -109.531 l 191.816 -109.418 l 197.48 -109.176
 l S Q
  Q
Q
Q q
10.922 120.648 193.078 69 re W n
q
10 120 194 70 re W n
  q
0 g
1.13366 w
0 J
0 j
[] 0.0 d
10 M q 1 0 0 -1 0 0 cm
27.504 -173.09 m 28.918 -173.09 l 30.336 -173.086 l 31.75 -173.078 l 33.168
 -173.059 l 34.586 -173.035 l 36 -172.996 l 37.418 -172.938 l 38.832 -172.867
 l 40.25 -172.773 l 41.668 -172.656 l 43.082 -172.512 l 44.5 -172.34 l 45.918
 -172.137 l 47.332 -171.902 l 48.75 -171.629 l 50.164 -171.316 l 51.582 
-170.961 l 53 -170.562 l 54.414 -170.117 l 55.832 -169.625 l 58.664 -168.895
 l 61.5 -168.16 l 67.164 -166.684 l 69.996 -165.941 l 72.828 -165.203 l 
75.664 -164.461 l 84.16 -162.234 l 86.996 -161.492 l 95.492 -159.277 l 98.324
 -158.543 l 101.16 -157.812 l 103.992 -157.082 l 106.824 -156.359 l 109.656
 -155.633 l 112.492 -154.918 l 115.324 -154.203 l 118.156 -153.496 l 120.988
 -152.793 l 123.824 -152.094 l 126.656 -151.402 l 129.488 -150.719 l 132.32
 -150.039 l 135.156 -149.367 l 137.988 -148.703 l 140.82 -148.047 l 143.652
 -147.395 l 146.488 -146.754 l 149.32 -146.125 l 152.152 -145.504 l 154.984
 -144.887 l 157.82 -144.285 l 160.652 -143.691 l 163.484 -143.113 l 166.316
 -142.543 l 169.152 -141.984 l 171.984 -141.434 l 174.816 -140.902 l 177.648
 -140.379 l 180.484 -139.867 l 183.316 -139.371 l 186.148 -138.887 l 188.98
 -138.418 l 191.816 -137.965 l 194.648 -137.523 l 197.48 -137.098 l S Q
  Q
Q
Q q
10.922 0 193.078 189.648 re W n
q
10 0 194 190 re W n
  q
0 g
1.13366 w
0 J
0 j
[] 0.0 d
10 M q 1 0 0 -1 0 0 cm
27.504 -173.09 m 28.918 -173.047 l 30.336 -172.516 l 31.75 -170.961 l 33.168
 -168.879 l 34.586 -166.477 l 36 -164.371 l 37.418 -162.141 l 38.832 -160.078
 l 40.25 -158.145 l 41.668 -156.293 l 44.5 -152.66 l 47.332 -149.152 l 50.164
 -145.836 l 53 -142.52 l 55.832 -139.434 l 58.664 -136.48 l 61.5 -133.781
 l 64.332 -131.188 l 67.164 -128.828 l 69.996 -126.426 l 72.828 -123.895
 l 75.664 -121.281 l 78.496 -118.645 l 81.328 -116.031 l 84.16 -113.309 
l 86.996 -110.395 l 89.828 -107.566 l 92.66 -104.824 l 95.492 -102.062 l
 98.324 -99.297 l 101.16 -96.492 l 103.992 -93.664 l 104.887 -92.77 l 104.887
 -11.543 l 106.824 -12.074 l 109.656 -12.688 l 112.492 -13.047 l 118.156
 -13.117 l 123.824 -12.699 l 129.488 -11.969 l 133.109 -11.414 l 133.109
 -94.844 l 140.297 -96.535 l 147.379 -97.258 l 154.461 -97.492 l 161.543
 -97.449 l 168.625 -97.215 l 175.707 -96.875 l 182.793 -96.449 l 189.875
 -96.004 l 197.48 -95.449 l S Q
  Q
Q
0 g
41.688 123.723 m 39.812 123.723 l 39.812 123.879 l 40.453 123.926 40.547
 124.051 40.578 124.895 c 40.578 127.582 l 37.5 123.723 l 36.141 123.723
 l 36.141 123.879 l 36.484 123.879 36.594 123.941 36.922 124.316 c 36.922
 127.832 l 36.906 128.676 36.797 128.816 36.141 128.848 c 36.141 129.004
 l 38.016 129.004 l 38.016 128.848 l 37.406 128.816 37.281 128.66 37.266
 127.832 c 37.266 124.707 l 40.781 129.098 l 40.922 129.098 l 40.922 124.895
 l 40.953 124.066 41.047 123.941 41.688 123.879 c h
41.688 123.723 m f
45.512 130.199 m 45.387 130.184 l 45.152 130.512 44.965 130.574 44.574 
130.574 c 42.793 130.574 l 44.012 129.637 45.137 128.777 45.137 127.824 
c 45.137 127.168 44.449 126.684 43.699 126.684 c 42.949 126.684 42.34 127.027
 42.121 127.918 c 42.293 127.918 l 42.512 127.559 42.809 127.184 43.418 
127.184 c 44.09 127.184 44.465 127.605 44.465 128.105 c 44.465 128.793 43.574
 129.824 42.043 130.949 c 42.043 131.043 l 45.105 131.043 l h
45.512 130.199 m f
48.594 123.613 m 48.016 124.004 47.766 124.207 47.484 124.566 c 46.906 
125.27 46.625 126.066 46.625 126.988 c 46.625 128.02 46.922 128.785 47.625
 129.598 c 47.953 129.988 48.156 130.16 48.578 130.41 c 48.672 130.285 l
 48.031 129.785 47.812 129.504 47.594 128.91 c 47.406 128.379 47.312 127.77
 47.312 126.973 c 47.312 126.129 47.422 125.473 47.641 124.988 c 47.859 
124.488 48.094 124.207 48.672 123.738 c h
48.594 123.613 m f
51.402 126.504 m 51.371 125.41 l 51.277 125.41 l 51.23 125.473 51.199 125.504
 51.152 125.504 c 51.105 125.504 51.027 125.488 50.934 125.441 c 50.746 
125.379 50.574 125.332 50.371 125.332 c 49.746 125.332 49.293 125.754 49.293
 126.332 c 49.293 126.77 49.543 127.098 50.23 127.473 c 50.684 127.738 l
 50.965 127.895 51.105 128.082 51.105 128.332 c 51.105 128.691 50.84 128.91
 50.434 128.91 c 49.887 128.91 49.605 128.613 49.434 127.785 c 49.309 127.785
 l 49.309 129.035 l 49.402 129.035 l 49.465 128.957 49.496 128.941 49.59
 128.941 c 49.668 128.941 49.777 128.957 49.949 129.004 c 50.168 129.051
 50.371 129.082 50.543 129.082 c 51.152 129.082 51.652 128.629 51.652 128.066
 c 51.652 127.66 51.465 127.395 50.996 127.113 c 50.137 126.598 l 49.902
 126.473 49.793 126.285 49.793 126.066 c 49.793 125.738 50.027 125.52 50.402
 125.52 c 50.855 125.52 51.09 125.785 51.277 126.504 c h
51.402 126.504 m f
52.305 130.41 m 52.898 130.02 53.133 129.832 53.43 129.457 c 53.992 128.77
 54.273 127.973 54.273 127.035 c 54.273 126.02 53.977 125.238 53.289 124.426
 c 52.961 124.051 52.742 123.879 52.336 123.613 c 52.242 123.738 l 52.883
 124.254 53.086 124.52 53.32 125.129 c 53.508 125.66 53.586 126.254 53.586
 127.066 c 53.586 127.895 53.492 128.551 53.273 129.035 c 53.055 129.535
 52.82 129.832 52.242 130.285 c h
52.305 130.41 m f
44.215 44.805 m 42.34 44.805 l 42.34 44.961 l 42.98 45.008 43.074 45.133
 43.105 45.977 c 43.105 48.664 l 40.027 44.805 l 38.668 44.805 l 38.668 
44.961 l 39.012 44.961 39.121 45.023 39.449 45.398 c 39.449 48.914 l 39.434
 49.758 39.324 49.898 38.668 49.93 c 38.668 50.086 l 40.543 50.086 l 40.543
 49.93 l 39.934 49.898 39.809 49.742 39.793 48.914 c 39.793 45.789 l 43.309
 50.18 l 43.449 50.18 l 43.449 45.977 l 43.48 45.148 43.574 45.023 44.215
 44.961 c h
44.215 44.805 m f
48.035 51.285 m 47.91 51.27 l 47.676 51.598 47.488 51.66 47.098 51.66 c
 45.316 51.66 l 46.535 50.723 47.66 49.863 47.66 48.91 c 47.66 48.254 46.973
 47.77 46.223 47.77 c 45.473 47.77 44.863 48.113 44.645 49.004 c 44.816 
49.004 l 45.035 48.645 45.332 48.27 45.941 48.27 c 46.613 48.27 46.988 48.691
 46.988 49.191 c 46.988 49.879 46.098 50.91 44.566 52.035 c 44.566 52.129
 l 47.629 52.129 l h
48.035 51.285 m f
50.996 44.695 m 50.418 45.086 50.168 45.289 49.887 45.648 c 49.309 46.352
 49.027 47.148 49.027 48.07 c 49.027 49.102 49.324 49.867 50.027 50.68 c
 50.355 51.07 50.559 51.242 50.98 51.492 c 51.074 51.367 l 50.434 50.867
 50.215 50.586 49.996 49.992 c 49.809 49.461 49.715 48.852 49.715 48.055
 c 49.715 47.211 49.824 46.555 50.043 46.07 c 50.262 45.57 50.496 45.289
 51.074 44.82 c h
50.996 44.695 m f
51.465 50.086 m 53.34 50.086 l 53.34 49.961 l 52.84 49.945 52.746 49.867
 52.746 49.414 c 52.746 44.664 l 52.715 44.648 l 52.309 44.773 52.012 44.852
 51.449 44.992 c 51.449 45.117 l 51.496 45.117 l 51.574 45.117 51.668 45.102
 51.746 45.102 c 51.996 45.102 52.074 45.211 52.074 45.586 c 52.074 49.398
 l 52.059 49.82 51.949 49.93 51.465 49.961 c h
51.465 50.086 m f
53.75 51.492 m 54.344 51.102 54.578 50.914 54.875 50.539 c 55.438 49.852
 55.719 49.055 55.719 48.117 c 55.719 47.102 55.422 46.32 54.734 45.508 
c 54.406 45.133 54.188 44.961 53.781 44.695 c 53.688 44.82 l 54.328 45.336
 54.531 45.602 54.766 46.211 c 54.953 46.742 55.031 47.336 55.031 48.148
 c 55.031 48.977 54.938 49.633 54.719 50.117 c 54.5 50.617 54.266 50.914
 53.688 51.367 c h
53.75 51.492 m f
119.746 114.008 m 117.871 114.008 l 117.871 114.164 l 118.512 114.211 118.605
 114.336 118.637 115.18 c 118.637 117.867 l 115.559 114.008 l 114.199 114.008
 l 114.199 114.164 l 114.543 114.164 114.652 114.227 114.98 114.602 c 114.98
 118.117 l 114.965 118.961 114.855 119.102 114.199 119.133 c 114.199 119.289
 l 116.074 119.289 l 116.074 119.133 l 115.465 119.102 115.34 118.945 115.324
 118.117 c 115.324 114.992 l 118.84 119.383 l 118.98 119.383 l 118.98 115.18
 l 119.012 114.352 119.105 114.227 119.746 114.164 c h
119.746 114.008 m f
123.566 120.488 m 123.441 120.473 l 123.207 120.801 123.02 120.863 122.629
 120.863 c 120.848 120.863 l 122.066 119.926 123.191 119.066 123.191 118.113
 c 123.191 117.457 122.504 116.973 121.754 116.973 c 121.004 116.973 120.395
 117.316 120.176 118.207 c 120.348 118.207 l 120.566 117.848 120.863 117.473
 121.473 117.473 c 122.145 117.473 122.52 117.895 122.52 118.395 c 122.52
 119.082 121.629 120.113 120.098 121.238 c 120.098 121.332 l 123.16 121.332
 l h
123.566 120.488 m f
126.648 113.898 m 126.07 114.289 125.82 114.492 125.539 114.852 c 124.961
 115.555 124.68 116.352 124.68 117.273 c 124.68 118.305 124.977 119.07 125.68
 119.883 c 126.008 120.273 126.211 120.445 126.633 120.695 c 126.727 120.57
 l 126.086 120.07 125.867 119.789 125.648 119.195 c 125.461 118.664 125.367
 118.055 125.367 117.258 c 125.367 116.414 125.477 115.758 125.695 115.273
 c 125.914 114.773 126.148 114.492 126.727 114.023 c h
126.648 113.898 m f
130.695 116.195 m 130.695 115.883 l 130.07 115.883 l 129.914 115.883 129.805
 115.867 129.633 115.805 c 129.461 115.742 l 129.258 115.664 129.039 115.617
 128.82 115.617 c 128.086 115.617 127.492 116.195 127.492 116.93 c 127.492
 117.43 127.695 117.727 128.242 117.992 c 128.023 118.18 l 127.867 118.336
 127.773 118.43 127.742 118.461 c 127.57 118.633 127.523 118.727 127.523
 118.852 c 127.523 119.039 127.617 119.117 127.945 119.273 c 127.383 119.695
 127.164 119.961 127.164 120.258 c 127.164 120.68 127.789 121.023 128.555
 121.023 c 129.148 121.023 129.773 120.82 130.18 120.477 c 130.477 120.242
 130.617 119.977 130.617 119.68 c 130.617 119.18 130.242 118.852 129.648
 118.82 c 128.633 118.773 l 128.195 118.758 128.008 118.695 128.008 118.57
 c 128.008 118.398 128.273 118.133 128.477 118.055 c 128.773 118.086 128.914
 118.102 128.93 118.102 c 129.227 118.102 129.555 117.977 129.805 117.773
 c 130.055 117.539 130.18 117.258 130.18 116.867 c 130.18 116.633 130.148
 116.445 130.023 116.195 c h
128.117 119.305 m 128.383 119.367 129.008 119.414 129.414 119.414 c 130.133
 119.414 130.398 119.508 130.398 119.805 c 130.398 120.258 129.789 120.57
 128.883 120.57 c 128.18 120.57 127.727 120.336 127.727 119.992 c 127.727
 119.805 127.805 119.68 128.117 119.305 c h
128.164 116.602 m 128.164 116.133 128.383 115.852 128.742 115.852 c 128.992
 115.852 129.195 115.977 129.32 116.227 c 129.477 116.508 129.57 116.852
 129.57 117.18 c 129.57 117.617 129.352 117.898 128.977 117.898 c 128.477
 117.898 128.164 117.383 128.164 116.617 c h
128.164 116.602 m f
131.199 120.695 m 131.793 120.305 132.027 120.117 132.324 119.742 c 132.887
 119.055 133.168 118.258 133.168 117.32 c 133.168 116.305 132.871 115.523
 132.184 114.711 c 131.855 114.336 131.637 114.164 131.23 113.898 c 131.137
 114.023 l 131.777 114.539 131.98 114.805 132.215 115.414 c 132.402 115.945
 132.48 116.539 132.48 117.352 c 132.48 118.18 132.387 118.836 132.168 119.32
 c 131.949 119.82 131.715 120.117 131.137 120.57 c h
131.199 120.695 m f
60.332 142.879 m 62.535 142.879 l 62.535 142.723 l 61.941 142.676 61.848
 142.582 61.848 142.004 c 61.848 140.363 l 64.254 140.363 l 64.254 141.926
 l 64.254 142.598 64.176 142.691 63.551 142.723 c 63.551 142.879 l 65.77
 142.879 l 65.77 142.723 l 65.176 142.676 65.082 142.582 65.066 142.004 
c 65.066 138.473 l 65.082 137.895 65.16 137.816 65.77 137.754 c 65.77 137.598
 l 63.551 137.598 l 63.551 137.754 l 64.176 137.801 64.254 137.879 64.254
 138.473 c 64.254 140.02 l 61.848 140.02 l 61.848 138.473 l 61.848 137.895
 61.926 137.816 62.535 137.754 c 62.535 137.598 l 60.332 137.598 l 60.332
 137.754 l 60.941 137.801 61.02 137.879 61.035 138.473 c 61.035 141.926 
l 61.02 142.598 60.941 142.691 60.332 142.723 c h
60.332 142.879 m f
69.641 144.074 m 69.516 144.059 l 69.281 144.387 69.094 144.449 68.703 
144.449 c 66.922 144.449 l 68.141 143.512 69.266 142.652 69.266 141.699 
c 69.266 141.043 68.578 140.559 67.828 140.559 c 67.078 140.559 66.469 140.902
 66.25 141.793 c 66.422 141.793 l 66.641 141.434 66.938 141.059 67.547 141.059
 c 68.219 141.059 68.594 141.48 68.594 141.98 c 68.594 142.668 67.703 143.699
 66.172 144.824 c 66.172 144.918 l 69.234 144.918 l h
69.641 144.074 m f
73.129 137.488 m 71.613 137.488 70.52 138.629 70.52 140.238 c 70.52 140.988
 70.785 141.723 71.207 142.176 c 71.676 142.676 72.379 142.988 73.082 142.988
 c 74.66 142.988 75.738 141.879 75.738 140.27 c 75.738 139.488 75.504 138.801
 75.066 138.332 c 74.566 137.785 73.895 137.488 73.129 137.488 c h
73.129 137.785 m 73.504 137.785 73.863 137.926 74.145 138.176 c 74.582 
138.566 74.832 139.316 74.832 140.27 c 74.832 140.738 74.738 141.285 74.566
 141.707 c 74.488 141.895 74.363 142.098 74.176 142.285 c 73.895 142.566
 73.535 142.707 73.113 142.707 c 72.754 142.707 72.395 142.566 72.098 142.316
 c 71.691 141.941 71.426 141.145 71.426 140.254 c 71.426 139.441 71.66 138.676
 71.988 138.301 c 72.301 137.957 72.691 137.785 73.129 137.785 c h
73.129 137.785 m f
78.359 137.488 m 77.781 137.879 77.531 138.082 77.25 138.441 c 76.672 139.145
 76.391 139.941 76.391 140.863 c 76.391 141.895 76.688 142.66 77.391 143.473
 c 77.719 143.863 77.922 144.035 78.344 144.285 c 78.438 144.16 l 77.797
 143.66 77.578 143.379 77.359 142.785 c 77.172 142.254 77.078 141.645 77.078
 140.848 c 77.078 140.004 77.188 139.348 77.406 138.863 c 77.625 138.363
 77.859 138.082 78.438 137.613 c h
78.359 137.488 m f
81.172 140.379 m 81.141 139.285 l 81.047 139.285 l 81 139.348 80.969 139.379
 80.922 139.379 c 80.875 139.379 80.797 139.363 80.703 139.316 c 80.516 
139.254 80.344 139.207 80.141 139.207 c 79.516 139.207 79.062 139.629 79.062
 140.207 c 79.062 140.645 79.312 140.973 80 141.348 c 80.453 141.613 l 80.734
 141.77 80.875 141.957 80.875 142.207 c 80.875 142.566 80.609 142.785 80.203
 142.785 c 79.656 142.785 79.375 142.488 79.203 141.66 c 79.078 141.66 l
 79.078 142.91 l 79.172 142.91 l 79.234 142.832 79.266 142.816 79.359 142.816
 c 79.438 142.816 79.547 142.832 79.719 142.879 c 79.938 142.926 80.141 
142.957 80.312 142.957 c 80.922 142.957 81.422 142.504 81.422 141.941 c 
81.422 141.535 81.234 141.27 80.766 140.988 c 79.906 140.473 l 79.672 140.348
 79.562 140.16 79.562 139.941 c 79.562 139.613 79.797 139.395 80.172 139.395
 c 80.625 139.395 80.859 139.66 81.047 140.379 c h
81.172 140.379 m f
82.074 144.285 m 82.668 143.895 82.902 143.707 83.199 143.332 c 83.762 
142.645 84.043 141.848 84.043 140.91 c 84.043 139.895 83.746 139.113 83.059
 138.301 c 82.73 137.926 82.512 137.754 82.105 137.488 c 82.012 137.613 
l 82.652 138.129 82.855 138.395 83.09 139.004 c 83.277 139.535 83.355 140.129
 83.355 140.941 c 83.355 141.77 83.262 142.426 83.043 142.91 c 82.824 143.41
 82.59 143.707 82.012 144.16 c h
82.074 144.285 m f
107.523 21.5 m 109.727 21.5 l 109.727 21.344 l 109.133 21.297 109.039 21.203
 109.039 20.625 c 109.039 18.984 l 111.445 18.984 l 111.445 20.547 l 111.445
 21.219 111.367 21.312 110.742 21.344 c 110.742 21.5 l 112.961 21.5 l 112.961
 21.344 l 112.367 21.297 112.273 21.203 112.258 20.625 c 112.258 17.094 
l 112.273 16.516 112.352 16.438 112.961 16.375 c 112.961 16.219 l 110.742
 16.219 l 110.742 16.375 l 111.367 16.422 111.445 16.5 111.445 17.094 c 
111.445 18.641 l 109.039 18.641 l 109.039 17.094 l 109.039 16.516 109.117
 16.438 109.727 16.375 c 109.727 16.219 l 107.523 16.219 l 107.523 16.375
 l 108.133 16.422 108.211 16.5 108.227 17.094 c 108.227 20.547 l 108.211
 21.219 108.133 21.312 107.523 21.344 c h
107.523 21.5 m f
116.832 22.695 m 116.707 22.68 l 116.473 23.008 116.285 23.07 115.895 23.07
 c 114.113 23.07 l 115.332 22.133 116.457 21.273 116.457 20.32 c 116.457
 19.664 115.77 19.18 115.02 19.18 c 114.27 19.18 113.66 19.523 113.441 20.414
 c 113.613 20.414 l 113.832 20.055 114.129 19.68 114.738 19.68 c 115.41 
19.68 115.785 20.102 115.785 20.602 c 115.785 21.289 114.895 22.32 113.363
 23.445 c 113.363 23.539 l 116.426 23.539 l h
116.832 22.695 m f
120.324 16.109 m 118.809 16.109 117.715 17.25 117.715 18.859 c 117.715 
19.609 117.98 20.344 118.402 20.797 c 118.871 21.297 119.574 21.609 120.277
 21.609 c 121.855 21.609 122.934 20.5 122.934 18.891 c 122.934 18.109 122.699
 17.422 122.262 16.953 c 121.762 16.406 121.09 16.109 120.324 16.109 c h
120.324 16.406 m 120.699 16.406 121.059 16.547 121.34 16.797 c 121.777 
17.188 122.027 17.938 122.027 18.891 c 122.027 19.359 121.934 19.906 121.762
 20.328 c 121.684 20.516 121.559 20.719 121.371 20.906 c 121.09 21.188 120.73
 21.328 120.309 21.328 c 119.949 21.328 119.59 21.188 119.293 20.938 c 118.887
 20.562 118.621 19.766 118.621 18.875 c 118.621 18.062 118.855 17.297 119.184
 16.922 c 119.496 16.578 119.887 16.406 120.324 16.406 c h
120.324 16.406 m f
125.551 16.109 m 124.973 16.5 124.723 16.703 124.441 17.062 c 123.863 17.766
 123.582 18.562 123.582 19.484 c 123.582 20.516 123.879 21.281 124.582 22.094
 c 124.91 22.484 125.113 22.656 125.535 22.906 c 125.629 22.781 l 124.988
 22.281 124.77 22 124.551 21.406 c 124.363 20.875 124.27 20.266 124.27 19.469
 c 124.27 18.625 124.379 17.969 124.598 17.484 c 124.816 16.984 125.051 
16.703 125.629 16.234 c h
125.551 16.109 m f
126.02 21.5 m 127.895 21.5 l 127.895 21.375 l 127.395 21.359 127.301 21.281
 127.301 20.828 c 127.301 16.078 l 127.27 16.062 l 126.863 16.188 126.566
 16.266 126.004 16.406 c 126.004 16.531 l 126.051 16.531 l 126.129 16.531
 126.223 16.516 126.301 16.516 c 126.551 16.516 126.629 16.625 126.629 17
 c 126.629 20.812 l 126.613 21.234 126.504 21.344 126.02 21.375 c h
126.02 21.5 m f
128.305 22.906 m 128.898 22.516 129.133 22.328 129.43 21.953 c 129.992 
21.266 130.273 20.469 130.273 19.531 c 130.273 18.516 129.977 17.734 129.289
 16.922 c 128.961 16.547 128.742 16.375 128.336 16.109 c 128.242 16.234 
l 128.883 16.75 129.086 17.016 129.32 17.625 c 129.508 18.156 129.586 18.75
 129.586 19.562 c 129.586 20.391 129.492 21.047 129.273 21.531 c 129.055
 22.031 128.82 22.328 128.242 22.781 c h
128.305 22.906 m f
152.742 92.605 m 154.945 92.605 l 154.945 92.449 l 154.352 92.402 154.258
 92.309 154.258 91.73 c 154.258 90.09 l 156.664 90.09 l 156.664 91.652 l
 156.664 92.324 156.586 92.418 155.961 92.449 c 155.961 92.605 l 158.18 
92.605 l 158.18 92.449 l 157.586 92.402 157.492 92.309 157.477 91.73 c 157.477
 88.199 l 157.492 87.621 157.57 87.543 158.18 87.48 c 158.18 87.324 l 155.961
 87.324 l 155.961 87.48 l 156.586 87.527 156.664 87.605 156.664 88.199 c
 156.664 89.746 l 154.258 89.746 l 154.258 88.199 l 154.258 87.621 154.336
 87.543 154.945 87.48 c 154.945 87.324 l 152.742 87.324 l 152.742 87.48 
l 153.352 87.527 153.43 87.605 153.445 88.199 c 153.445 91.652 l 153.43 
92.324 153.352 92.418 152.742 92.449 c h
152.742 92.605 m f
162.051 93.801 m 161.926 93.785 l 161.691 94.113 161.504 94.176 161.113
 94.176 c 159.332 94.176 l 160.551 93.238 161.676 92.379 161.676 91.426 
c 161.676 90.77 160.988 90.285 160.238 90.285 c 159.488 90.285 158.879 90.629
 158.66 91.52 c 158.832 91.52 l 159.051 91.16 159.348 90.785 159.957 90.785
 c 160.629 90.785 161.004 91.207 161.004 91.707 c 161.004 92.395 160.113
 93.426 158.582 94.551 c 158.582 94.645 l 161.645 94.645 l h
162.051 93.801 m f
165.66 87.215 m 164.145 87.215 163.051 88.355 163.051 89.965 c 163.051 
90.715 163.316 91.449 163.738 91.902 c 164.207 92.402 164.91 92.715 165.613
 92.715 c 167.191 92.715 168.27 91.605 168.27 89.996 c 168.27 89.215 168.035
 88.527 167.598 88.059 c 167.098 87.512 166.426 87.215 165.66 87.215 c h
165.66 87.512 m 166.035 87.512 166.395 87.652 166.676 87.902 c 167.113 
88.293 167.363 89.043 167.363 89.996 c 167.363 90.465 167.27 91.012 167.098
 91.434 c 167.02 91.621 166.895 91.824 166.707 92.012 c 166.426 92.293 166.066
 92.434 165.645 92.434 c 165.285 92.434 164.926 92.293 164.629 92.043 c 
164.223 91.668 163.957 90.871 163.957 89.98 c 163.957 89.168 164.191 88.402
 164.52 88.027 c 164.832 87.684 165.223 87.512 165.66 87.512 c h
165.66 87.512 m f
170.891 87.215 m 170.312 87.605 170.062 87.809 169.781 88.168 c 169.203
 88.871 168.922 89.668 168.922 90.59 c 168.922 91.621 169.219 92.387 169.922
 93.199 c 170.25 93.59 170.453 93.762 170.875 94.012 c 170.969 93.887 l 
170.328 93.387 170.109 93.105 169.891 92.512 c 169.703 91.98 169.609 91.371
 169.609 90.574 c 169.609 89.73 169.719 89.074 169.938 88.59 c 170.156 88.09
 170.391 87.809 170.969 87.34 c h
170.891 87.215 m f
174.938 89.512 m 174.938 89.199 l 174.312 89.199 l 174.156 89.199 174.047
 89.184 173.875 89.121 c 173.703 89.059 l 173.5 88.98 173.281 88.934 173.062
 88.934 c 172.328 88.934 171.734 89.512 171.734 90.246 c 171.734 90.746 
171.938 91.043 172.484 91.309 c 172.266 91.496 l 172.109 91.652 172.016 
91.746 171.984 91.777 c 171.812 91.949 171.766 92.043 171.766 92.168 c 171.766
 92.355 171.859 92.434 172.188 92.59 c 171.625 93.012 171.406 93.277 171.406
 93.574 c 171.406 93.996 172.031 94.34 172.797 94.34 c 173.391 94.34 174.016
 94.137 174.422 93.793 c 174.719 93.559 174.859 93.293 174.859 92.996 c 
174.859 92.496 174.484 92.168 173.891 92.137 c 172.875 92.09 l 172.438 92.074
 172.25 92.012 172.25 91.887 c 172.25 91.715 172.516 91.449 172.719 91.371
 c 173.016 91.402 173.156 91.418 173.172 91.418 c 173.469 91.418 173.797
 91.293 174.047 91.09 c 174.297 90.855 174.422 90.574 174.422 90.184 c 174.422
 89.949 174.391 89.762 174.266 89.512 c h
172.359 92.621 m 172.625 92.684 173.25 92.73 173.656 92.73 c 174.375 92.73
 174.641 92.824 174.641 93.121 c 174.641 93.574 174.031 93.887 173.125 93.887
 c 172.422 93.887 171.969 93.652 171.969 93.309 c 171.969 93.121 172.047
 92.996 172.359 92.621 c h
172.406 89.918 m 172.406 89.449 172.625 89.168 172.984 89.168 c 173.234
 89.168 173.438 89.293 173.562 89.543 c 173.719 89.824 173.812 90.168 173.812
 90.496 c 173.812 90.934 173.594 91.215 173.219 91.215 c 172.719 91.215 
172.406 90.699 172.406 89.934 c h
172.406 89.918 m f
175.441 94.012 m 176.035 93.621 176.27 93.434 176.566 93.059 c 177.129 
92.371 177.41 91.574 177.41 90.637 c 177.41 89.621 177.113 88.84 176.426
 88.027 c 176.098 87.652 175.879 87.48 175.473 87.215 c 175.379 87.34 l 
176.02 87.855 176.223 88.121 176.457 88.73 c 176.645 89.262 176.723 89.855
 176.723 90.668 c 176.723 91.496 176.629 92.152 176.41 92.637 c 176.191 
93.137 175.957 93.434 175.379 93.887 c h
175.441 94.012 m f
138.918 140.207 m 138.855 138.41 l 138.684 138.41 l 138.637 138.582 138.512
 138.676 138.34 138.676 c 138.277 138.676 138.152 138.66 138.043 138.613
 c 137.652 138.473 137.246 138.41 136.871 138.41 c 136.215 138.41 135.559
 138.66 135.059 139.098 c 134.512 139.598 134.199 140.332 134.199 141.207
 c 134.199 142.832 135.262 143.91 136.855 143.91 c 137.746 143.91 138.543
 143.551 139.027 142.895 c 138.887 142.754 l 138.293 143.316 137.762 143.566
 137.105 143.566 c 136.605 143.566 136.152 143.41 135.809 143.098 c 135.371
 142.707 135.121 141.988 135.121 141.098 c 135.121 139.66 135.871 138.738
 137.027 138.738 c 137.48 138.738 137.887 138.895 138.215 139.207 c 138.465
 139.473 138.59 139.691 138.73 140.207 c h
138.918 140.207 m f
141.605 138.41 m 141.027 138.801 140.777 139.004 140.496 139.363 c 139.918
 140.066 139.637 140.863 139.637 141.785 c 139.637 142.816 139.934 143.582
 140.637 144.395 c 140.965 144.785 141.168 144.957 141.59 145.207 c 141.684
 145.082 l 141.043 144.582 140.824 144.301 140.605 143.707 c 140.418 143.176
 140.324 142.566 140.324 141.77 c 140.324 140.926 140.434 140.27 140.652
 139.785 c 140.871 139.285 141.105 139.004 141.684 138.535 c h
141.605 138.41 m f
144.418 141.301 m 144.387 140.207 l 144.293 140.207 l 144.246 140.27 144.215
 140.301 144.168 140.301 c 144.121 140.301 144.043 140.285 143.949 140.238
 c 143.762 140.176 143.59 140.129 143.387 140.129 c 142.762 140.129 142.309
 140.551 142.309 141.129 c 142.309 141.566 142.559 141.895 143.246 142.27
 c 143.699 142.535 l 143.98 142.691 144.121 142.879 144.121 143.129 c 144.121
 143.488 143.855 143.707 143.449 143.707 c 142.902 143.707 142.621 143.41
 142.449 142.582 c 142.324 142.582 l 142.324 143.832 l 142.418 143.832 l
 142.48 143.754 142.512 143.738 142.605 143.738 c 142.684 143.738 142.793
 143.754 142.965 143.801 c 143.184 143.848 143.387 143.879 143.559 143.879
 c 144.168 143.879 144.668 143.426 144.668 142.863 c 144.668 142.457 144.48
 142.191 144.012 141.91 c 143.152 141.395 l 142.918 141.27 142.809 141.082
 142.809 140.863 c 142.809 140.535 143.043 140.316 143.418 140.316 c 143.871
 140.316 144.105 140.582 144.293 141.301 c h
144.418 141.301 m f
145.32 145.207 m 145.914 144.816 146.148 144.629 146.445 144.254 c 147.008
 143.566 147.289 142.77 147.289 141.832 c 147.289 140.816 146.992 140.035
 146.305 139.223 c 145.977 138.848 145.758 138.676 145.352 138.41 c 145.258
 138.535 l 145.898 139.051 146.102 139.316 146.336 139.926 c 146.523 140.457
 146.602 141.051 146.602 141.863 c 146.602 142.691 146.508 143.348 146.289
 143.832 c 146.07 144.332 145.836 144.629 145.258 145.082 c h
145.32 145.207 m f
0.567043 w
0 J
0 j
[] 0.0 d
10 M q 1 0 0 -1 0 0 cm
27.504 -3.016 169.977 -170.074 re S Q
0.398506 w
q 1 0 0 -1 0 0 cm
27.504 -173.09 m 27.504 -168.836 l S Q
q 1 0 0 -1 0 0 cm
55.832 -173.09 m 55.832 -168.836 l S Q
q 1 0 0 -1 0 0 cm
84.16 -173.09 m 84.16 -168.836 l S Q
q 1 0 0 -1 0 0 cm
112.492 -173.09 m 112.492 -168.836 l S Q
q 1 0 0 -1 0 0 cm
140.82 -173.09 m 140.82 -168.836 l S Q
q 1 0 0 -1 0 0 cm
169.152 -173.09 m 169.152 -168.836 l S Q
q 1 0 0 -1 0 0 cm
197.48 -173.09 m 197.48 -168.836 l S Q
q 1 0 0 -1 0 0 cm
27.504 -173.09 m 27.504 -168.836 l S Q
q 1 0 0 -1 0 0 cm
27.504 -173.09 m 31.754 -173.09 l S Q
q 1 0 0 -1 0 0 cm
27.504 -130.57 m 31.754 -130.57 l S Q
q 1 0 0 -1 0 0 cm
27.504 -88.051 m 31.754 -88.051 l S Q
q 1 0 0 -1 0 0 cm
27.504 -45.535 m 31.754 -45.535 l S Q
q 1 0 0 -1 0 0 cm
27.504 -3.016 m 31.754 -3.016 l S Q
q 1 0 0 -1 0 0 cm
27.504 -173.09 m 31.754 -173.09 l S Q
q 1 0 0 -1 0 0 cm
27.504 -3.016 m 27.504 -7.27 l S Q
q 1 0 0 -1 0 0 cm
55.832 -3.016 m 55.832 -7.27 l S Q
q 1 0 0 -1 0 0 cm
84.16 -3.016 m 84.16 -7.27 l S Q
q 1 0 0 -1 0 0 cm
112.492 -3.016 m 112.492 -7.27 l S Q
q 1 0 0 -1 0 0 cm
140.82 -3.016 m 140.82 -7.27 l S Q
q 1 0 0 -1 0 0 cm
169.152 -3.016 m 169.152 -7.27 l S Q
q 1 0 0 -1 0 0 cm
197.48 -3.016 m 197.48 -7.27 l S Q
q 1 0 0 -1 0 0 cm
27.504 -3.016 m 27.504 -7.27 l S Q
q 1 0 0 -1 0 0 cm
197.48 -173.09 m 193.23 -173.09 l S Q
q 1 0 0 -1 0 0 cm
197.48 -130.57 m 193.23 -130.57 l S Q
q 1 0 0 -1 0 0 cm
197.48 -88.051 m 193.23 -88.051 l S Q
q 1 0 0 -1 0 0 cm
197.48 -45.535 m 193.23 -45.535 l S Q
q 1 0 0 -1 0 0 cm
197.48 -3.016 m 193.23 -3.016 l S Q
q 1 0 0 -1 0 0 cm
197.48 -173.09 m 193.23 -173.09 l S Q
29.457 179.613 m 29.457 178.004 28.723 176.551 27.473 176.551 c 26.207 
176.551 25.473 178.004 25.473 179.613 c 25.473 181.238 26.16 182.676 27.473
 182.676 c 28.676 182.676 29.457 181.238 29.457 179.613 c h
28.598 179.613 m 28.598 180.91 28.473 182.426 27.473 182.426 c 26.52 182.426
 26.332 180.91 26.332 179.613 c 26.332 178.535 26.457 176.785 27.473 176.785
 c 28.473 176.785 28.598 178.535 28.598 179.613 c h
28.598 179.613 m f
52.586 182.566 m 52.586 182.426 l 51.992 182.426 51.773 182.441 51.773 
181.27 c 51.773 181.254 51.773 176.52 51.773 176.52 c 51.648 176.52 l 50.117
 177.254 l 50.164 177.395 l 50.492 177.254 50.57 177.223 50.695 177.223 
c 50.961 177.223 51.008 177.457 51.008 177.77 c 51.008 181.27 l 51.008 182.441
 50.789 182.41 50.195 182.426 c 50.195 182.566 l h
52.586 182.566 m f
57.777 179.613 m 57.777 178.004 57.043 176.551 55.793 176.551 c 54.527 
176.551 53.793 178.004 53.793 179.613 c 53.793 181.238 54.48 182.676 55.793
 182.676 c 56.996 182.676 57.777 181.238 57.777 179.613 c h
56.918 179.613 m 56.918 180.91 56.793 182.426 55.793 182.426 c 54.84 182.426
 54.652 180.91 54.652 179.613 c 54.652 178.535 54.777 176.785 55.793 176.785
 c 56.793 176.785 56.918 178.535 56.918 179.613 c h
56.918 179.613 m f
62.215 179.613 m 62.215 178.004 61.48 176.551 60.23 176.551 c 58.965 176.551
 58.23 178.004 58.23 179.613 c 58.23 181.238 58.918 182.676 60.23 182.676
 c 61.434 182.676 62.215 181.238 62.215 179.613 c h
61.355 179.613 m 61.355 180.91 61.23 182.426 60.23 182.426 c 59.277 182.426
 59.09 180.91 59.09 179.613 c 59.09 178.535 59.215 176.785 60.23 176.785
 c 61.23 176.785 61.355 178.535 61.355 179.613 c h
61.355 179.613 m f
81.688 181.41 m 81.531 181.379 l 81.266 181.832 81.047 181.91 80.609 181.91
 c 78.547 181.91 l 79.969 180.613 81.266 179.441 81.266 178.129 c 81.266
 177.207 80.469 176.551 79.594 176.551 c 78.734 176.551 78.047 177.02 77.781
 178.238 c 77.984 178.238 l 78.234 177.738 78.578 177.223 79.266 177.223
 c 80.047 177.223 80.484 177.816 80.484 178.488 c 80.484 179.457 79.453 
180.879 77.688 182.426 c 77.688 182.566 l 81.219 182.566 l h
81.688 181.41 m f
86.094 179.613 m 86.094 178.004 85.359 176.551 84.109 176.551 c 82.844 
176.551 82.109 178.004 82.109 179.613 c 82.109 181.238 82.797 182.676 84.109
 182.676 c 85.312 182.676 86.094 181.238 86.094 179.613 c h
85.234 179.613 m 85.234 180.91 85.109 182.426 84.109 182.426 c 83.156 182.426
 82.969 180.91 82.969 179.613 c 82.969 178.535 83.094 176.785 84.109 176.785
 c 85.109 176.785 85.234 178.535 85.234 179.613 c h
85.234 179.613 m f
90.535 179.613 m 90.535 178.004 89.801 176.551 88.551 176.551 c 87.285 
176.551 86.551 178.004 86.551 179.613 c 86.551 181.238 87.238 182.676 88.551
 182.676 c 89.754 182.676 90.535 181.238 90.535 179.613 c h
89.676 179.613 m 89.676 180.91 89.551 182.426 88.551 182.426 c 87.598 182.426
 87.41 180.91 87.41 179.613 c 87.41 178.535 87.535 176.785 88.551 176.785
 c 89.551 176.785 89.676 178.535 89.676 179.613 c h
89.676 179.613 m f
109.633 180.629 m 109.633 179.691 109.086 179.285 108.555 179.066 c 109.133
 178.629 109.32 178.223 109.32 177.738 c 109.32 177.223 108.898 176.551 
107.93 176.551 c 107.227 176.551 106.555 176.941 106.258 177.91 c 106.398
 177.941 l 106.586 177.582 106.945 177.129 107.602 177.129 c 108.242 177.129
 108.617 177.566 108.617 178.066 c 108.617 178.77 108.07 179.27 107.258 
179.457 c 107.242 179.645 l 108.633 179.582 108.977 180.488 108.977 181.051
 c 108.977 181.723 108.492 182.332 107.852 182.332 c 107.273 182.332 107.023
 181.832 106.539 181.832 c 106.383 181.832 106.195 181.988 106.195 182.191
 c 106.195 182.566 106.758 182.676 107.164 182.676 c 108.586 182.676 109.633
 181.863 109.633 180.629 c h
109.633 180.629 m f
114.414 179.613 m 114.414 178.004 113.68 176.551 112.43 176.551 c 111.164
 176.551 110.43 178.004 110.43 179.613 c 110.43 181.238 111.117 182.676 
112.43 182.676 c 113.633 182.676 114.414 181.238 114.414 179.613 c h
113.555 179.613 m 113.555 180.91 113.43 182.426 112.43 182.426 c 111.477
 182.426 111.289 180.91 111.289 179.613 c 111.289 178.535 111.414 176.785
 112.43 176.785 c 113.43 176.785 113.555 178.535 113.555 179.613 c h
113.555 179.613 m f
118.855 179.613 m 118.855 178.004 118.121 176.551 116.871 176.551 c 115.605
 176.551 114.871 178.004 114.871 179.613 c 114.871 181.238 115.559 182.676
 116.871 182.676 c 118.074 182.676 118.855 181.238 118.855 179.613 c h
117.996 179.613 m 117.996 180.91 117.871 182.426 116.871 182.426 c 115.918
 182.426 115.73 180.91 115.73 179.613 c 115.73 178.535 115.855 176.785 116.871
 176.785 c 117.871 176.785 117.996 178.535 117.996 179.613 c h
117.996 179.613 m f
138.43 181.082 m 138.43 180.473 l 137.555 180.473 l 137.555 176.551 l 137.117
 176.551 l 134.523 180.457 l 134.523 181.082 l 136.82 181.082 l 136.82 182.566
 l 137.555 182.566 l 137.555 181.082 l h
136.82 180.473 m 134.883 180.473 l 136.805 177.488 l 136.82 177.488 l h
136.82 180.473 m f
142.855 179.613 m 142.855 178.004 142.121 176.551 140.871 176.551 c 139.605
 176.551 138.871 178.004 138.871 179.613 c 138.871 181.238 139.559 182.676
 140.871 182.676 c 142.074 182.676 142.855 181.238 142.855 179.613 c h
141.996 179.613 m 141.996 180.91 141.871 182.426 140.871 182.426 c 139.918
 182.426 139.73 180.91 139.73 179.613 c 139.73 178.535 139.855 176.785 140.871
 176.785 c 141.871 176.785 141.996 178.535 141.996 179.613 c h
141.996 179.613 m f
147.293 179.613 m 147.293 178.004 146.559 176.551 145.309 176.551 c 144.043
 176.551 143.309 178.004 143.309 179.613 c 143.309 181.238 143.996 182.676
 145.309 182.676 c 146.512 182.676 147.293 181.238 147.293 179.613 c h
146.434 179.613 m 146.434 180.91 146.309 182.426 145.309 182.426 c 144.355
 182.426 144.168 180.91 144.168 179.613 c 144.168 178.535 144.293 176.785
 145.309 176.785 c 146.309 176.785 146.434 178.535 146.434 179.613 c h
146.434 179.613 m f
166.672 176.645 m 164.203 176.645 l 163.094 179.191 l 163.234 179.16 163.375
 179.129 163.547 179.129 c 164.5 179.129 165.797 179.629 165.797 180.801
 c 165.797 181.707 165.141 182.285 164.516 182.285 c 163.969 182.285 163.766
 181.785 163.25 181.785 c 163 181.785 162.922 182.004 162.922 182.113 c 
162.922 182.426 163.359 182.676 163.984 182.676 c 165.328 182.676 166.391
 181.691 166.391 180.488 c 166.391 179.066 165.266 178.582 164.047 178.551
 c 163.938 178.551 163.812 178.566 163.703 178.582 c 164.266 177.316 l 166.359
 177.301 l h
166.672 176.645 m f
171.176 179.613 m 171.176 178.004 170.441 176.551 169.191 176.551 c 167.926
 176.551 167.191 178.004 167.191 179.613 c 167.191 181.238 167.879 182.676
 169.191 182.676 c 170.395 182.676 171.176 181.238 171.176 179.613 c h
170.316 179.613 m 170.316 180.91 170.191 182.426 169.191 182.426 c 168.238
 182.426 168.051 180.91 168.051 179.613 c 168.051 178.535 168.176 176.785
 169.191 176.785 c 170.191 176.785 170.316 178.535 170.316 179.613 c h
170.316 179.613 m f
175.613 179.613 m 175.613 178.004 174.879 176.551 173.629 176.551 c 172.363
 176.551 171.629 178.004 171.629 179.613 c 171.629 181.238 172.316 182.676
 173.629 182.676 c 174.832 182.676 175.613 181.238 175.613 179.613 c h
174.754 179.613 m 174.754 180.91 174.629 182.426 173.629 182.426 c 172.676
 182.426 172.488 180.91 172.488 179.613 c 172.488 178.535 172.613 176.785
 173.629 176.785 c 174.629 176.785 174.754 178.535 174.754 179.613 c h
174.754 179.613 m f
195.008 180.551 m 195.008 179.566 194.305 178.832 193.414 178.832 c 192.961
 178.832 192.586 178.973 192.195 179.285 c 192.586 177.691 193.758 176.691
 194.883 176.676 c 194.883 176.52 l 192.117 176.52 191.242 178.863 191.242
 180.191 c 191.242 181.613 192.07 182.676 193.18 182.676 c 194.195 182.676
 195.008 181.723 195.008 180.551 c h
194.242 181.004 m 194.242 181.832 193.867 182.41 193.273 182.41 c 192.352
 182.41 192.07 181.066 192.07 180.348 c 192.07 180.113 192.102 179.863 192.148
 179.566 c 192.539 179.316 192.852 179.207 193.164 179.207 c 194.07 179.207
 194.242 180.254 194.242 181.004 c h
194.242 181.004 m f
199.492 179.613 m 199.492 178.004 198.758 176.551 197.508 176.551 c 196.242
 176.551 195.508 178.004 195.508 179.613 c 195.508 181.238 196.195 182.676
 197.508 182.676 c 198.711 182.676 199.492 181.238 199.492 179.613 c h
198.633 179.613 m 198.633 180.91 198.508 182.426 197.508 182.426 c 196.555
 182.426 196.367 180.91 196.367 179.613 c 196.367 178.535 196.492 176.785
 197.508 176.785 c 198.508 176.785 198.633 178.535 198.633 179.613 c h
198.633 179.613 m f
203.934 179.613 m 203.934 178.004 203.199 176.551 201.949 176.551 c 200.684
 176.551 199.949 178.004 199.949 179.613 c 199.949 181.238 200.637 182.676
 201.949 182.676 c 203.152 182.676 203.934 181.238 203.934 179.613 c h
203.074 179.613 m 203.074 180.91 202.949 182.426 201.949 182.426 c 200.996
 182.426 200.809 180.91 200.809 179.613 c 200.809 178.535 200.934 176.785
 201.949 176.785 c 202.949 176.785 203.074 178.535 203.074 179.613 c h
203.074 179.613 m f
23.816 173.133 m 23.816 171.523 23.082 170.07 21.832 170.07 c 20.566 170.07
 19.832 171.523 19.832 173.133 c 19.832 174.758 20.52 176.195 21.832 176.195
 c 23.035 176.195 23.816 174.758 23.816 173.133 c h
22.957 173.133 m 22.957 174.43 22.832 175.945 21.832 175.945 c 20.879 175.945
 20.691 174.43 20.691 173.133 c 20.691 172.055 20.816 170.305 21.832 170.305
 c 22.832 170.305 22.957 172.055 22.957 173.133 c h
22.957 173.133 m f
19.406 132.449 m 19.25 132.418 l 18.984 132.871 18.766 132.949 18.328 132.949
 c 16.266 132.949 l 17.688 131.652 18.984 130.48 18.984 129.168 c 18.984
 128.246 18.188 127.59 17.312 127.59 c 16.453 127.59 15.766 128.059 15.5
 129.277 c 15.703 129.277 l 15.953 128.777 16.297 128.262 16.984 128.262
 c 17.766 128.262 18.203 128.855 18.203 129.527 c 18.203 130.496 17.172 
131.918 15.406 133.465 c 15.406 133.605 l 18.938 133.605 l h
19.406 132.449 m f
23.816 130.652 m 23.816 129.043 23.082 127.59 21.832 127.59 c 20.566 127.59
 19.832 129.043 19.832 130.652 c 19.832 132.277 20.52 133.715 21.832 133.715
 c 23.035 133.715 23.816 132.277 23.816 130.652 c h
22.957 130.652 m 22.957 131.949 22.832 133.465 21.832 133.465 c 20.879 
133.465 20.691 131.949 20.691 130.652 c 20.691 129.574 20.816 127.824 21.832
 127.824 c 22.832 127.824 22.957 129.574 22.957 130.652 c h
22.957 130.652 m f
19.391 89.645 m 19.391 89.035 l 18.516 89.035 l 18.516 85.113 l 18.078 
85.113 l 15.484 89.02 l 15.484 89.645 l 17.781 89.645 l 17.781 91.129 l 
18.516 91.129 l 18.516 89.645 l h
17.781 89.035 m 15.844 89.035 l 17.766 86.051 l 17.781 86.051 l h
17.781 89.035 m f
23.816 88.176 m 23.816 86.566 23.082 85.113 21.832 85.113 c 20.566 85.113
 19.832 86.566 19.832 88.176 c 19.832 89.801 20.52 91.238 21.832 91.238 
c 23.035 91.238 23.816 89.801 23.816 88.176 c h
22.957 88.176 m 22.957 89.473 22.832 90.988 21.832 90.988 c 20.879 90.988
 20.691 89.473 20.691 88.176 c 20.691 87.098 20.816 85.348 21.832 85.348
 c 22.832 85.348 22.957 87.098 22.957 88.176 c h
22.957 88.176 m f
19.328 46.633 m 19.328 45.648 18.625 44.914 17.734 44.914 c 17.281 44.914
 16.906 45.055 16.516 45.367 c 16.906 43.773 18.078 42.773 19.203 42.758
 c 19.203 42.602 l 16.438 42.602 15.562 44.945 15.562 46.273 c 15.562 47.695
 16.391 48.758 17.5 48.758 c 18.516 48.758 19.328 47.805 19.328 46.633 c
 h
18.562 47.086 m 18.562 47.914 18.188 48.492 17.594 48.492 c 16.672 48.492
 16.391 47.148 16.391 46.43 c 16.391 46.195 16.422 45.945 16.469 45.648 
c 16.859 45.398 17.172 45.289 17.484 45.289 c 18.391 45.289 18.562 46.336
 18.562 47.086 c h
18.562 47.086 m f
23.816 45.695 m 23.816 44.086 23.082 42.633 21.832 42.633 c 20.566 42.633
 19.832 44.086 19.832 45.695 c 19.832 47.32 20.52 48.758 21.832 48.758 c
 23.035 48.758 23.816 47.32 23.816 45.695 c h
22.957 45.695 m 22.957 46.992 22.832 48.508 21.832 48.508 c 20.879 48.508
 20.691 46.992 20.691 45.695 c 20.691 44.617 20.816 42.867 21.832 42.867
 c 22.832 42.867 22.957 44.617 22.957 45.695 c h
22.957 45.695 m f
19.109 4.672 m 19.109 4.031 18.828 3.547 17.734 2.734 c 18.422 2.359 18.953
 1.938 18.953 1.281 c 18.953 0.594 18.312 0 17.359 0 c 16.516 0 15.719 0.547
 15.719 1.391 c 15.719 2.047 16.062 2.438 16.828 3.047 c 15.969 3.703 15.656
 4.031 15.656 4.703 c 15.656 5.453 16.328 6.156 17.375 6.156 c 18.594 6.156
 19.109 5.328 19.109 4.672 c h
18.344 1.266 m 18.344 1.906 17.969 2.25 17.484 2.578 c 16.891 2.156 16.375
 1.688 16.375 1.172 c 16.375 0.688 16.719 0.266 17.328 0.266 c 18 0.266 
18.344 0.688 18.344 1.266 c h
18.469 4.922 m 18.469 5.5 18.031 5.891 17.453 5.891 c 16.766 5.891 16.328
 5.344 16.328 4.609 c 16.328 3.938 16.656 3.547 17.062 3.203 c 18.047 3.953
 18.469 4.328 18.469 4.922 c h
18.469 4.922 m f
23.816 3.094 m 23.816 1.484 23.082 0.031 21.832 0.031 c 20.566 0.031 19.832
 1.484 19.832 3.094 c 19.832 4.719 20.52 6.156 21.832 6.156 c 23.035 6.156
 23.816 4.719 23.816 3.094 c h
22.957 3.094 m 22.957 4.391 22.832 5.906 21.832 5.906 c 20.879 5.906 20.691
 4.391 20.691 3.094 c 20.691 2.016 20.816 0.266 21.832 0.266 c 22.832 0.266
 22.957 2.016 22.957 3.094 c h
22.957 3.094 m f
Q q
0 g
110.023 188.52 m 105.008 188.52 l 104.586 190.051 l 104.758 190.051 l 105.133
 189.066 105.602 188.848 106.383 188.848 c 106.383 188.848 106.898 188.848
 107.008 188.848 c 105.711 193.52 l 105.461 194.426 105.148 194.41 104.789
 194.41 c 104.773 194.566 l 107.133 194.566 l 107.164 194.41 l 106.82 194.41
 106.477 194.426 106.477 193.973 c 106.477 193.848 106.508 193.707 106.555
 193.52 c 107.836 188.848 l 108.586 188.848 l 109.023 188.848 109.492 188.91
 109.492 189.535 c 109.492 189.676 109.477 189.832 109.43 190.051 c 109.602
 190.051 l h
110.023 188.52 m f
114 188.129 m 113.562 188.129 l 110.453 196.488 l 110.906 196.488 l h
114 188.129 m f
118.234 188.801 m 118.781 188.832 118.844 188.863 118.844 189.082 c 118.844
 189.27 118.641 189.551 118.141 190.004 c 116.562 191.441 l 116.562 189.613
 l 116.562 188.941 116.656 188.848 117.391 188.801 c 117.391 188.629 l 114.844
 188.629 l 114.844 188.801 l 115.531 188.848 115.625 188.957 115.641 189.613
 c 115.641 193.488 l 115.641 194.254 115.531 194.348 114.844 194.395 c 114.844
 194.566 l 117.359 194.566 l 117.359 194.395 l 116.672 194.348 116.562 194.254
 116.562 193.582 c 116.562 191.91 l 116.797 191.723 l 117.734 192.66 l 118.438
 193.363 118.906 193.973 118.906 194.191 c 118.906 194.332 118.797 194.379
 118.531 194.395 c 118.484 194.395 118.391 194.395 118.281 194.395 c 118.281
 194.566 l 121.016 194.566 l 121.016 194.395 l 120.547 194.395 120.422 194.301
 119.609 193.426 c 117.516 191.191 l 119.219 189.504 l 119.828 188.91 119.969
 188.848 120.578 188.801 c 120.578 188.629 l 118.234 188.629 l h
118.234 188.801 m f
1 g
0.906 87.52 m 0.641 87.52 0.406 87.738 0.406 88.02 c 0.406 88.285 0.641
 88.504 0.891 88.504 c 1.172 88.504 1.406 88.301 1.406 88.02 c 1.406 87.754
 1.172 87.52 0.906 87.52 c h
0.906 87.52 m f
0 g
1.77 116.762 m 1.77 116.949 l 1.863 117.012 2.004 117.105 2.004 117.309
 c 2.004 117.527 1.754 118.105 1.754 118.715 c 1.754 120.684 3.66 122.527
 5.598 122.527 c 7.176 122.527 8.082 121.371 8.082 120.09 c 8.082 118.949
 7.379 117.949 6.582 117.496 c 6.582 117.746 l 7.113 118.168 7.676 118.855
 7.676 119.777 c 7.676 120.762 6.988 121.418 5.691 121.418 c 4.113 121.418
 2.051 120.371 2.051 118.637 c 2.051 117.699 2.691 117.309 3.645 117.309
 c 3.645 117.152 l h
1.77 116.762 m f
7.816 113.051 m 7.238 113.051 6.816 113.332 6.816 113.941 c 6.816 114.379
 7.051 114.738 7.41 115.051 c 6.801 114.848 l 6.801 114.848 6.988 115.957
 7.004 116.207 c 7.223 116.207 l 7.223 115.91 7.176 115.691 7.426 115.691
 c 7.551 115.691 7.848 115.801 8.02 115.848 c 10.895 116.754 l 11.129 116.832
 11.316 116.957 11.316 117.348 c 11.52 117.379 l 11.52 115.613 l 11.316 
115.566 l 11.316 115.879 11.316 116.113 11.16 116.113 c 11.098 116.113 11.035
 116.113 10.91 116.082 c 10.16 115.816 l 10.27 115.676 10.316 115.504 10.316
 115.301 c 10.316 114.348 9.004 113.051 7.816 113.051 c h
7.895 113.785 m 8.801 113.785 10.066 114.629 10.066 115.301 c 10.066 115.457
 10.02 115.613 9.926 115.754 c 8.957 115.457 7.238 115.129 7.238 114.16 
c 7.238 113.785 7.738 113.785 7.895 113.785 c h
7.895 113.785 m f
11.363 112.043 m 11.316 111.84 11.27 111.746 11.16 111.559 c 10.941 111.23
 10.629 110.996 10.082 110.996 c 9.551 110.996 9.316 111.246 9.316 111.574
 c 9.316 111.871 9.504 112.059 9.785 112.059 c 10.051 112.059 10.223 111.871
 10.223 111.621 c 10.223 111.543 10.207 111.465 10.16 111.387 c 10.145 111.355
 10.145 111.355 10.145 111.34 c 10.145 111.309 10.207 111.293 10.285 111.293
 c 10.363 111.293 10.863 111.293 11.145 112.043 c h
11.363 112.043 m f
10.223 110.262 m 10.223 108.715 l 10.113 108.715 l 10.113 109.074 10.035
 109.184 9.754 109.184 c 7.785 109.184 l 7.77 109.184 7.707 109.137 7.66
 109.074 c 7.504 108.902 7.379 108.605 7.379 108.371 c 7.379 108.059 7.629
 107.902 8.113 107.902 c 9.629 107.902 l 10.02 107.918 10.098 107.98 10.113
 108.371 c 10.223 108.371 l 10.223 106.824 l 10.113 106.824 l 10.113 107.215
 10.004 107.309 9.566 107.324 c 7.801 107.324 l 7.504 107.105 7.379 106.887
 7.379 106.559 c 7.379 106.168 7.566 106.043 8.145 106.043 c 9.613 106.043
 l 10.035 106.043 10.082 106.09 10.113 106.496 c 10.223 106.496 l 10.223
 104.965 l 10.113 104.965 l 10.098 105.152 l 10.066 105.371 9.957 105.449
 9.691 105.449 c 8.254 105.449 l 7.441 105.449 7.02 105.73 7.02 106.262 
c 7.02 106.668 7.191 107.012 7.598 107.402 c 7.207 107.527 7.02 107.762 
7.02 108.137 c 7.02 108.449 7.113 108.637 7.551 109.215 c 7.035 109.215 
l 7.02 109.262 l 7.145 109.637 7.223 109.871 7.332 110.246 c 7.441 110.246
 l 7.426 110.152 7.426 110.09 7.426 110.012 c 7.426 109.84 7.535 109.777
 7.863 109.777 c 9.629 109.777 l 10.02 109.793 10.113 109.871 10.113 110.262
 c h
10.223 110.262 m f
1.504 100.707 m 1.504 101.145 l 9.863 104.254 l 9.863 103.801 l h
1.504 100.707 m f
2.004 96.859 m 2.004 99.422 l 2.176 99.422 l 2.223 98.703 2.316 98.609 
2.988 98.594 c 7.129 98.594 l 7.535 98.594 7.723 98.703 7.723 98.938 c 7.723
 99.062 7.66 99.109 7.426 99.172 c 7.113 99.266 6.973 99.406 6.973 99.641
 c 6.973 99.891 7.176 100.078 7.426 100.078 c 7.801 100.078 8.066 99.719
 8.066 99.188 c 8.066 98.219 7.426 97.672 6.301 97.672 c 2.988 97.672 l 
2.316 97.656 2.223 97.578 2.176 96.859 c h
2.004 96.859 m f
2.176 91.43 m 2.207 90.883 2.238 90.82 2.457 90.82 c 2.645 90.82 2.926 
91.023 3.379 91.523 c 4.816 93.102 l 2.988 93.102 l 2.316 93.102 2.223 93.008
 2.176 92.273 c 2.004 92.273 l 2.004 94.82 l 2.176 94.82 l 2.223 94.133 
2.332 94.039 2.988 94.023 c 6.863 94.023 l 7.629 94.023 7.723 94.133 7.77
 94.82 c 7.941 94.82 l 7.941 92.305 l 7.77 92.305 l 7.723 92.992 7.629 93.102
 6.957 93.102 c 5.285 93.102 l 5.098 92.867 l 6.035 91.93 l 6.738 91.227
 7.348 90.758 7.566 90.758 c 7.707 90.758 7.754 90.867 7.77 91.133 c 7.77
 91.18 7.77 91.273 7.77 91.383 c 7.941 91.383 l 7.941 88.648 l 7.77 88.648
 l 7.77 89.117 7.676 89.242 6.801 90.055 c 4.566 92.148 l 2.879 90.445 l
 2.285 89.836 2.223 89.695 2.176 89.086 c 2.004 89.086 l 2.004 91.43 l h
2.176 91.43 m f
2.469 83.527 0.438 4.703 re f
4.703 79.977 m 4.516 79.977 l 4.516 80.508 4.516 80.68 3.672 80.68 c 3.656
 80.68 0 80.68 0 80.68 c 0 80.852 l 0.578 82.195 l 0.766 82.117 l 0.641 
81.805 0.625 81.742 0.625 81.648 c 0.625 81.445 0.797 81.43 1 81.43 c 3.672
 81.43 l 4.516 81.43 4.5 81.586 4.516 82.117 c 4.703 82.117 l h
4.703 79.977 m f
7.941 76.871 m 7.941 74.871 l 7.801 74.871 l 7.801 75.34 7.707 75.48 7.348
 75.48 c 4.816 75.48 l 4.801 75.48 4.707 75.418 4.645 75.355 c 4.441 75.121
 4.285 74.746 4.285 74.434 c 4.285 74.027 4.598 73.84 5.223 73.84 c 7.176
 73.84 l 7.676 73.855 7.785 73.949 7.801 74.449 c 7.941 74.449 l 7.941 72.434
 l 7.801 72.434 l 7.801 72.934 7.66 73.059 7.082 73.09 c 4.832 73.09 l 4.441
 72.809 4.285 72.527 4.285 72.105 c 4.285 71.59 4.52 71.434 5.27 71.434 
c 7.16 71.434 l 7.691 71.449 7.754 71.512 7.801 72.027 c 7.941 72.027 l 
7.941 70.059 l 7.801 70.059 l 7.785 70.293 l 7.738 70.574 7.613 70.684 7.254
 70.684 c 5.41 70.684 l 4.348 70.684 3.816 71.027 3.816 71.715 c 3.816 72.246
 4.051 72.699 4.566 73.184 c 4.051 73.34 3.816 73.652 3.816 74.137 c 3.816
 74.543 3.926 74.777 4.504 75.527 c 3.832 75.527 l 3.816 75.59 l 3.988 76.059
 4.082 76.371 4.223 76.84 c 4.379 76.84 l 4.348 76.73 4.332 76.652 4.332
 76.559 c 4.332 76.324 4.473 76.246 4.91 76.246 c 7.176 76.246 l 7.676 76.262
 7.801 76.371 7.801 76.871 c h
7.941 76.871 m f
3.816 67.801 m 3.816 68.988 4.676 69.785 5.91 69.785 c 7.129 69.785 8.035
 68.957 8.035 67.832 c 8.035 66.691 7.082 65.832 5.848 65.832 c 4.66 65.832
 3.816 66.66 3.816 67.801 c h
4.066 67.926 m 4.066 67.176 4.926 66.645 6.16 66.645 c 7.176 66.645 7.785
 67.051 7.785 67.723 c 7.785 68.066 7.566 68.395 7.207 68.582 c 6.738 68.848
 6.113 68.988 5.473 68.988 c 4.629 68.988 4.066 68.566 4.066 67.926 c h
4.066 67.926 m f
7.941 65.426 m 7.941 63.301 l 7.801 63.301 l 7.785 63.879 7.691 63.973 
7.191 63.988 c 1.832 63.988 l 1.816 64.02 l 1.957 64.473 2.051 64.801 2.207
 65.441 c 2.348 65.441 l 2.348 65.395 l 2.348 65.285 2.332 65.176 2.332 
65.113 c 2.332 64.816 2.457 64.738 2.879 64.738 c 7.16 64.738 l 7.645 64.738
 7.77 64.863 7.801 65.426 c h
7.941 65.426 m f
2.469 57.965 0.438 4.703 re f
4.703 54.414 m 4.516 54.414 l 4.516 54.945 4.516 55.117 3.672 55.117 c 
3.656 55.117 0 55.117 0 55.117 c 0 55.289 l 0.578 56.633 l 0.766 56.555 
l 0.641 56.242 0.625 56.18 0.625 56.086 c 0.625 55.883 0.797 55.867 1 55.867
 c 3.672 55.867 l 4.516 55.867 4.5 56.023 4.516 56.555 c 4.703 56.555 l 
h
4.703 54.414 m f
Q Q
showpage
%%Trailer
end
%%EOF
