%!PS-Adobe-3.0 EPSF-3.0
%%Creator: cairo 1.17.4 (https://cairographics.org)
%%CreationDate: Thu Feb 24 10:48:02 2022
%%Pages: 1
%%DocumentData: Clean7Bit
%%LanguageLevel: 2
%%BoundingBox: 0 0 204 195
%%EndComments
%%BeginProlog
50 dict begin
/q { gsave } bind def
/Q { grestore } bind def
/cm { 6 array astore concat } bind def
/w { setlinewidth } bind def
/J { setlinecap } bind def
/j { setlinejoin } bind def
/M { setmiterlimit } bind def
/d { setdash } bind def
/m { moveto } bind def
/l { lineto } bind def
/c { curveto } bind def
/h { closepath } bind def
/re { exch dup neg 3 1 roll 5 3 roll moveto 0 rlineto
      0 exch rlineto 0 rlineto closepath } bind def
/S { stroke } bind def
/f { fill } bind def
/f* { eofill } bind def
/n { newpath } bind def
/W { clip } bind def
/W* { eoclip } bind def
/BT { } bind def
/ET { } bind def
/BDC { mark 3 1 roll /BDC pdfmark } bind def
/EMC { mark /EMC pdfmark } bind def
/cairo_store_point { /cairo_point_y exch def /cairo_point_x exch def } def
/Tj { show currentpoint cairo_store_point } bind def
/TJ {
  {
    dup
    type /stringtype eq
    { show } { -0.001 mul 0 cairo_font_matrix dtransform rmoveto } ifelse
  } forall
  currentpoint cairo_store_point
} bind def
/cairo_selectfont { cairo_font_matrix aload pop pop pop 0 0 6 array astore
    cairo_font exch selectfont cairo_point_x cairo_point_y moveto } bind def
/Tf { pop /cairo_font exch def /cairo_font_matrix where
      { pop cairo_selectfont } if } bind def
/Td { matrix translate cairo_font_matrix matrix concatmatrix dup
      /cairo_font_matrix exch def dup 4 get exch 5 get cairo_store_point
      /cairo_font where { pop cairo_selectfont } if } bind def
/Tm { 2 copy 8 2 roll 6 array astore /cairo_font_matrix exch def
      cairo_store_point /cairo_font where { pop cairo_selectfont } if } bind def
/g { setgray } bind def
/rg { setrgbcolor } bind def
/d1 { setcachedevice } bind def
/cairo_data_source {
  CairoDataIndex CairoData length lt
    { CairoData CairoDataIndex get /CairoDataIndex CairoDataIndex 1 add def }
    { () } ifelse
} def
/cairo_flush_ascii85_file { cairo_ascii85_file status { cairo_ascii85_file flushfile } if } def
/cairo_image { image cairo_flush_ascii85_file } def
/cairo_imagemask { imagemask cairo_flush_ascii85_file } def
%%EndProlog
%%BeginSetup
%%EndSetup
%%Page: 1 1
%%BeginPageSetup
%%PageBoundingBox: 0 0 204 195
%%EndPageSetup
q 0 0 204 195 rectclip
1 0 0 -1 0 195 cm q
0 g
1.13366 w
0 J
0 j
[] 0.0 d
10 M q 1 0 0 -1 0 0 cm
61.516 -84.504 m 62.879 -83.781 l 64.238 -83.059 l 65.598 -82.344 l 66.961
 -81.625 l 68.32 -80.906 l 69.684 -80.188 l 72.402 -78.75 l 73.766 -78.035
 l 76.484 -76.59 l 77.848 -75.867 l 79.207 -75.145 l 80.566 -74.414 l 81.93
 -73.684 l 83.289 -72.953 l 84.648 -72.215 l 86.012 -71.477 l 87.371 -70.734
 l 88.73 -69.984 l 90.094 -69.234 l 91.453 -68.477 l 92.812 -67.715 l 94.176
 -66.945 l 95.535 -66.172 l 96.895 -65.395 l 98.258 -64.609 l 99.617 -63.816
 l 100.977 -63.02 l 102.34 -62.215 l 103.699 -61.402 l 105.062 -60.582 l
 106.422 -59.754 l 107.781 -58.914 l 109.145 -58.07 l 110.504 -57.215 l 
111.863 -56.352 l 113.227 -55.477 l 114.586 -54.594 l 115.945 -53.699 l 
117.309 -52.797 l 118.668 -51.883 l 120.027 -50.957 l 121.391 -50.02 l 122.75
 -49.07 l 124.109 -48.109 l 125.473 -47.137 l 126.832 -46.148 l 128.191 
-45.152 l 129.555 -44.137 l 130.914 -43.113 l 132.273 -42.074 l 133.637 
-41.02 l 134.996 -39.953 l 136.355 -38.871 l 137.719 -37.773 l 139.078 -36.66
 l 140.441 -35.531 l 141.801 -34.387 l 143.16 -33.227 l 144.523 -32.051 
l 145.883 -30.855 l 147.242 -29.645 l 148.605 -28.418 l 149.965 -27.172 
l 151.324 -25.906 l 152.688 -24.625 l 154.047 -23.324 l 155.406 -22.004 
l 156.77 -20.664 l 158.129 -19.305 l 159.488 -17.926 l 160.852 -16.527 l
 162.211 -15.109 l 163.57 -13.668 l 164.934 -12.207 l 166.293 -10.723 l 
167.656 -9.219 l 169.016 -7.695 l 170.375 -6.145 l S Q
105.09 64.035 m 105.027 64.035 l 104.84 64.316 104.684 64.473 104.418 64.785
 c 104.293 64.973 l 104.355 65.066 l 104.387 65.035 104.402 65.035 104.449
 64.988 c 104.73 64.816 104.809 64.848 104.996 65.129 c 107.277 68.566 l
 107.418 68.77 108.137 68.613 108.668 68.254 c 109.559 67.66 109.746 66.504
 109.105 65.551 c 108.559 64.723 107.652 64.426 106.98 64.879 c 106.574 
65.145 106.34 65.629 106.434 66.066 c h
106.668 66.41 m 106.496 66.16 106.652 65.723 106.996 65.488 c 107.184 65.363
 107.402 65.316 107.605 65.332 c 107.965 65.41 108.418 65.77 108.746 66.254
 c 109.23 66.973 109.184 67.613 108.637 67.988 c 108.293 68.207 107.902 
68.27 107.777 68.082 c h
106.668 66.41 m f
112.34 64.141 m 112.371 64.859 112.215 65.234 111.777 65.531 c 111.402 
65.781 110.996 65.781 110.543 65.516 c 110.277 65.359 110.074 65.156 109.793
 64.781 c 111.84 63.406 l 111.496 63.016 111.293 62.875 110.996 62.75 c 
110.637 62.641 110.246 62.703 109.887 62.938 c 109.559 63.156 109.324 63.5
 109.23 63.891 c 109.09 64.359 109.23 64.953 109.605 65.5 c 110.199 66.422
 111.059 66.672 111.824 66.156 c 112.465 65.734 112.684 65.016 112.496 64.109
 c h
109.668 64.531 m 109.402 63.984 109.449 63.594 109.855 63.312 c 110.262
 63.047 110.543 63.125 111.027 63.625 c h
109.668 64.531 m f
113.379 65.027 m 114.785 64.09 l 114.723 63.98 l 114.395 64.199 114.223
 64.168 114.066 63.934 c 112.832 62.074 l 112.941 61.559 113.02 61.387 113.238
 61.246 c 113.566 61.027 113.863 61.121 114.16 61.559 c 115.082 62.949 l
 115.363 63.402 115.348 63.559 115.035 63.777 c 115.098 63.887 l 116.488
 62.965 l 116.426 62.855 l 116.066 63.059 115.957 63.027 115.723 62.699 
c 114.723 61.168 l 114.301 60.543 113.77 60.371 113.27 60.699 c 112.973 
60.887 112.832 61.152 112.66 61.887 c 112.301 61.355 l 112.27 61.355 l 111.988
 61.73 111.832 61.965 111.551 62.277 c 111.629 62.402 l 111.66 62.324 111.707
 62.293 111.785 62.246 c 111.973 62.121 112.098 62.184 112.316 62.512 c 
113.41 64.152 l 113.645 64.559 113.645 64.699 113.316 64.918 c h
113.379 65.027 m f
118.738 60.176 m 118.613 60.223 l 118.895 60.926 118.879 61.066 118.254
 61.52 c 117.332 62.129 l 117.332 58.238 l 117.27 58.145 l 114.957 59.676
 l 115.441 60.473 l 115.566 60.395 l 115.301 59.879 115.332 59.738 115.754
 59.441 c 116.66 58.848 l 116.691 62.676 l 116.754 62.785 l 119.254 61.129
 l h
118.738 60.176 m f
121.434 58.094 m 121.465 58.812 121.309 59.188 120.871 59.484 c 120.496
 59.734 120.09 59.734 119.637 59.469 c 119.371 59.312 119.168 59.109 118.887
 58.734 c 120.934 57.359 l 120.59 56.969 120.387 56.828 120.09 56.703 c 
119.73 56.594 119.34 56.656 118.98 56.891 c 118.652 57.109 118.418 57.453
 118.324 57.844 c 118.184 58.312 118.324 58.906 118.699 59.453 c 119.293
 60.375 120.152 60.625 120.918 60.109 c 121.559 59.688 121.777 58.969 121.59
 58.062 c h
118.762 58.484 m 118.496 57.938 118.543 57.547 118.949 57.266 c 119.355
 57 119.637 57.078 120.121 57.578 c h
118.762 58.484 m f
122.473 58.98 m 123.879 58.043 l 123.816 57.934 l 123.488 58.152 123.316
 58.121 123.16 57.887 c 121.926 56.027 l 122.035 55.512 122.113 55.34 122.332
 55.199 c 122.66 54.98 122.957 55.074 123.254 55.512 c 124.176 56.902 l 
124.457 57.355 124.441 57.512 124.129 57.73 c 124.191 57.84 l 125.582 56.918
 l 125.52 56.809 l 125.16 57.012 125.051 56.98 124.816 56.652 c 123.816 
55.121 l 123.395 54.496 122.863 54.324 122.363 54.652 c 122.066 54.84 121.926
 55.105 121.754 55.84 c 121.395 55.309 l 121.363 55.309 l 121.082 55.684
 120.926 55.918 120.645 56.23 c 120.723 56.355 l 120.754 56.277 120.801 
56.246 120.879 56.199 c 121.066 56.074 121.191 56.137 121.41 56.465 c 122.504
 58.105 l 122.738 58.512 122.738 58.652 122.41 58.871 c h
122.473 58.98 m f
127.629 53.977 m 127.66 54.695 127.504 55.07 127.066 55.367 c 126.691 55.617
 126.285 55.617 125.832 55.352 c 125.566 55.195 125.363 54.992 125.082 54.617
 c 127.129 53.242 l 126.785 52.852 126.582 52.711 126.285 52.586 c 125.926
 52.477 125.535 52.539 125.176 52.773 c 124.848 52.992 124.613 53.336 124.52
 53.727 c 124.379 54.195 124.52 54.789 124.895 55.336 c 125.488 56.258 126.348
 56.508 127.113 55.992 c 127.754 55.57 127.973 54.852 127.785 53.945 c h
124.957 54.367 m 124.691 53.82 124.738 53.43 125.145 53.148 c 125.551 52.883
 125.832 52.961 126.316 53.461 c h
124.957 54.367 m f
127.527 49.16 m 127.262 49.801 127.168 50.098 127.137 50.551 c 127.043 
51.473 127.246 52.285 127.762 53.066 c 128.324 53.926 128.996 54.379 130.027
 54.676 c 130.527 54.816 130.793 54.848 131.277 54.832 c 131.277 54.66 l
 130.48 54.613 130.137 54.504 129.637 54.113 c 129.184 53.785 128.762 53.316
 128.324 52.66 c 127.855 51.957 127.574 51.348 127.496 50.832 c 127.402 
50.285 127.434 49.926 127.652 49.207 c h
127.527 49.16 m f
130.898 53.383 m 132.461 52.336 l 132.398 52.227 l 131.961 52.508 131.836
 52.492 131.586 52.117 c 128.961 48.164 l 128.93 48.164 l 128.664 48.492
 128.461 48.727 128.07 49.148 c 128.133 49.242 l 128.18 49.227 l 128.242
 49.18 128.305 49.117 128.367 49.07 c 128.57 48.93 128.711 48.977 128.93
 49.289 c 131.039 52.461 l 131.258 52.836 131.211 52.992 130.836 53.273 
c h
130.898 53.383 m f
133.59 53.281 m 133.855 52.625 133.949 52.344 133.996 51.875 c 134.09 51
 133.871 50.172 133.355 49.391 c 132.793 48.547 132.121 48.047 131.09 47.766
 c 130.621 47.625 130.324 47.609 129.84 47.609 c 129.824 47.766 l 130.668
 47.844 130.965 47.953 131.512 48.312 c 131.965 48.672 132.355 49.109 132.793
 49.797 c 133.262 50.484 133.543 51.078 133.621 51.609 c 133.73 52.141 133.684
 52.516 133.449 53.219 c h
133.59 53.281 m f
q 1 0 0 -1 0 0 cm
61.516 -65.508 m 62.879 -64.84 l 64.238 -64.172 l 65.598 -63.5 l 66.961
 -62.824 l 68.32 -62.148 l 69.684 -61.469 l 72.402 -60.102 l 73.766 -59.41
 l 75.125 -58.719 l 76.484 -58.02 l 77.848 -57.32 l 79.207 -56.613 l 80.566
 -55.902 l 81.93 -55.188 l 83.289 -54.465 l 84.648 -53.738 l 86.012 -53.004
 l 87.371 -52.266 l 88.73 -51.52 l 90.094 -50.77 l 91.453 -50.012 l 92.812
 -49.246 l 94.176 -48.473 l 95.535 -47.695 l 96.895 -46.906 l 98.258 -46.109
 l 99.617 -45.305 l 100.977 -44.492 l 102.34 -43.668 l 103.699 -42.836 l
 105.062 -41.996 l 106.422 -41.148 l 107.781 -40.289 l 109.145 -39.418 l
 110.504 -38.535 l 111.863 -37.645 l 113.227 -36.742 l 114.586 -35.832 l
 115.945 -34.906 l 117.309 -33.969 l 118.668 -33.023 l 120.027 -32.062 l
 121.391 -31.09 l 122.75 -30.105 l 124.109 -29.109 l 125.473 -28.098 l 126.832
 -27.074 l 128.191 -26.035 l 129.555 -24.984 l 130.914 -23.918 l 132.273
 -22.836 l 133.637 -21.742 l 134.996 -20.629 l 136.355 -19.504 l 137.719
 -18.367 l 139.078 -17.207 l 140.441 -16.039 l 141.801 -14.848 l 143.16 
-13.645 l 144.523 -12.422 l 145.883 -11.184 l 147.242 -9.93 l 148.605 -8.656
 l 149.965 -7.367 l 151.324 -6.059 l 152.688 -4.73 l 154.047 -3.387 l 155.406
 -2.02 l 156.77 -0.637 l S Q
110.344 46.895 m 110.391 47.613 110.234 47.988 109.812 48.285 c 109.438
 48.535 109.016 48.551 108.578 48.301 c 108.281 48.129 108.094 47.957 107.797
 47.566 c 109.844 46.176 l 109.469 45.785 109.281 45.629 108.969 45.52 c
 108.609 45.426 108.219 45.488 107.875 45.738 c 107.547 45.957 107.328 46.301
 107.219 46.707 c 107.109 47.176 107.25 47.77 107.625 48.301 c 108.25 49.207
 109.094 49.441 109.859 48.926 c 110.484 48.488 110.719 47.754 110.5 46.879
 c h
107.656 47.348 m 107.391 46.785 107.453 46.395 107.859 46.098 c 108.266
 45.832 108.531 45.91 109.016 46.41 c h
107.656 47.348 m f
110.93 43.734 m 110.273 44.188 l 109.742 43.422 l 109.695 43.359 109.68
 43.359 109.648 43.375 c 109.633 44.188 109.602 44.547 109.477 44.797 c 
109.445 44.875 109.43 44.953 109.461 44.984 c 109.477 45.016 109.492 45.031
 109.508 45.031 c 109.867 44.797 l 111.227 46.766 l 111.602 47.312 111.992
 47.453 112.383 47.188 c 112.695 46.969 112.836 46.641 112.82 46.141 c 112.695
 46.141 l 112.648 46.422 112.602 46.547 112.445 46.641 c 112.211 46.812 
111.992 46.688 111.711 46.281 c 110.414 44.406 l 111.07 43.953 l h
110.93 43.734 m f
116.176 44.305 m 115.801 44.508 115.738 44.477 115.426 44.008 c 114.52 
42.695 l 114.051 42.008 113.52 41.836 112.988 42.211 c 112.598 42.477 112.441
 42.836 112.395 43.445 c 111.02 41.445 l 110.988 41.445 l 110.801 41.68 
110.676 41.852 110.395 42.195 c 110.238 42.367 l 110.316 42.477 l 110.348
 42.461 110.363 42.445 110.395 42.43 c 110.676 42.227 110.754 42.242 110.941
 42.523 c 113.082 45.617 l 113.395 46.117 113.41 46.18 113.051 46.461 c 
113.129 46.57 l 114.551 45.602 l 114.473 45.492 l 114.066 45.742 113.973
 45.695 113.645 45.242 c 112.551 43.664 l 112.613 43.18 112.738 42.914 113.004
 42.727 c 113.316 42.508 113.645 42.633 113.957 43.102 c 114.863 44.398 
l 115.16 44.867 115.145 44.992 114.785 45.273 c 114.863 45.383 l 116.254
 44.414 l h
116.176 44.305 m f
118.922 41.938 m 118.891 42.109 118.828 42.188 118.719 42.266 c 118.562
 42.375 118.469 42.297 118.266 42.016 c 117.391 40.734 l 117.156 40.391 
116.984 40.234 116.781 40.141 c 116.469 40.016 116.109 40.062 115.719 40.328
 c 115.094 40.766 114.844 41.422 115.141 41.844 c 115.234 41.984 115.438
 42.016 115.594 41.922 c 115.766 41.797 115.797 41.594 115.703 41.453 c 
115.688 41.438 115.656 41.391 115.609 41.359 c 115.547 41.297 115.516 41.25
 115.484 41.219 c 115.359 41.031 115.484 40.75 115.75 40.562 c 116.078 40.344
 116.359 40.406 116.609 40.766 c 116.891 41.156 l 116.156 42.25 116.094 
42.406 115.969 42.844 c 115.906 43.062 116 43.359 116.141 43.578 c 116.422
 43.984 116.906 44.078 117.297 43.797 c 117.594 43.594 117.781 43.266 117.938
 42.672 c 118.203 43 118.422 43.031 118.688 42.844 c 118.906 42.688 118.984
 42.516 119.047 42.125 c h
117.641 42.266 m 117.781 42.469 117.812 42.547 117.734 42.734 c 117.625
 42.938 117.484 43.109 117.344 43.219 c 117.109 43.375 116.781 43.266 116.594
 42.984 c 116.578 42.969 l 116.312 42.578 116.422 42.109 116.984 41.312 
c h
117.641 42.266 m f
119.305 42.324 m 120.695 41.371 l 120.617 41.262 l 120.305 41.48 120.133
 41.449 119.977 41.215 c 118.711 39.371 l 118.82 38.871 118.898 38.684 119.117
 38.527 c 119.445 38.309 119.742 38.418 120.039 38.855 c 120.992 40.23 l
 121.258 40.652 121.258 40.824 120.93 41.043 c 121.008 41.152 l 122.367 
40.215 l 122.289 40.105 l 121.961 40.309 121.852 40.277 121.617 39.965 c
 120.57 38.465 l 120.148 37.84 119.617 37.652 119.133 37.996 c 118.836 38.199
 118.695 38.465 118.555 39.199 c 118.18 38.668 l 118.133 38.668 l 117.867
 39.059 117.711 39.277 117.43 39.59 c 117.508 39.715 l 117.539 39.652 117.586
 39.621 117.664 39.574 c 117.852 39.449 117.977 39.512 118.195 39.824 c 
119.32 41.449 l 119.57 41.84 119.57 41.98 119.227 42.215 c h
119.305 42.324 m f
122.02 36 m 121.16 36.578 121.004 37.625 121.629 38.531 c 122.238 39.422
 123.301 39.672 124.129 39.109 c 124.957 38.531 125.129 37.406 124.504 36.5
 c 123.895 35.625 122.863 35.422 122.02 36 c h
122.066 36.25 m 122.613 35.875 123.441 36.234 124.066 37.141 c 124.582 
37.891 124.582 38.531 124.098 38.875 c 123.832 39.047 123.473 39.062 123.145
 38.875 c 122.738 38.672 122.316 38.266 122.004 37.812 c 121.566 37.172 
121.582 36.578 122.066 36.25 c h
122.066 36.25 m f
125.859 37.816 m 127.406 36.754 l 127.328 36.645 l 126.922 36.926 126.797
 36.895 126.547 36.535 c 123.844 32.613 l 123.812 32.613 l 123.547 32.957
 123.344 33.191 122.953 33.613 c 123.031 33.723 l 123.078 33.707 l 123.141
 33.66 123.203 33.582 123.266 33.551 c 123.469 33.395 123.594 33.457 123.812
 33.77 c 125.969 36.91 l 126.188 37.254 126.172 37.41 125.781 37.707 c h
125.859 37.816 m f
126.375 30.918 m 126.125 31.559 126.031 31.871 126 32.324 c 125.922 33.23
 126.141 34.043 126.672 34.809 c 127.25 35.652 127.922 36.121 128.969 36.387
 c 129.469 36.527 129.719 36.559 130.219 36.527 c 130.219 36.371 l 129.406
 36.309 129.062 36.199 128.562 35.84 c 128.094 35.512 127.672 35.059 127.219
 34.402 c 126.75 33.699 126.469 33.105 126.359 32.59 c 126.266 32.059 126.297
 31.684 126.516 30.965 c h
126.375 30.918 m f
129.816 35.094 m 131.363 34.031 l 131.285 33.922 l 130.879 34.203 130.754
 34.172 130.504 33.812 c 127.801 29.891 l 127.77 29.891 l 127.504 30.234
 127.301 30.469 126.91 30.891 c 126.988 31 l 127.035 30.984 l 127.098 30.938
 127.16 30.859 127.223 30.828 c 127.426 30.672 127.551 30.734 127.77 31.047
 c 129.926 34.188 l 130.145 34.531 130.129 34.688 129.738 34.984 c h
129.816 35.094 m f
132.5 34.949 m 132.766 34.309 132.844 34.012 132.875 33.527 c 132.953 32.652
 132.734 31.84 132.203 31.059 c 131.625 30.23 130.938 29.746 129.922 29.48
 c 129.422 29.34 129.156 29.324 128.656 29.34 c 128.656 29.48 l 129.484 
29.559 129.797 29.668 130.328 30.027 c 130.797 30.371 131.188 30.809 131.656
 31.48 c 132.125 32.168 132.422 32.746 132.516 33.277 c 132.609 33.809 132.594
 34.199 132.359 34.887 c h
132.5 34.949 m f
q 1 0 0 -1 0 0 cm
27.496 -157.395 m 61.516 -156.969 l 61.516 -116.277 l S Q
32.367 152.754 m 34.57 152.723 l 34.57 152.566 l 33.977 152.535 33.883 
152.441 33.867 151.863 c 33.852 150.223 l 36.258 150.191 l 36.273 151.754
 l 36.289 152.426 36.211 152.52 35.586 152.551 c 35.586 152.707 l 37.805
 152.691 l 37.805 152.535 l 37.211 152.488 37.117 152.395 37.086 151.816
 c 37.039 148.285 l 37.055 147.707 37.133 147.629 37.742 147.566 c 37.742
 147.41 l 35.523 147.426 l 35.523 147.582 l 36.148 147.629 36.227 147.707
 36.227 148.301 c 36.258 149.848 l 33.852 149.879 l 33.82 148.332 l 33.82
 147.754 33.898 147.676 34.508 147.598 c 34.508 147.441 l 32.305 147.473
 l 32.305 147.629 l 32.914 147.66 32.992 147.738 33.008 148.332 c 33.055
 151.785 l 33.055 152.457 32.977 152.551 32.367 152.598 c h
32.367 152.754 m f
41.684 153.832 m 41.559 153.816 l 41.34 154.145 41.152 154.207 40.762 154.223
 c 38.98 154.238 l 40.184 153.285 41.293 152.41 41.277 151.457 c 41.277 
150.801 40.59 150.332 39.84 150.332 c 39.09 150.348 38.48 150.707 38.277
 151.598 c 38.449 151.598 l 38.652 151.223 38.949 150.848 39.559 150.848
 c 40.23 150.832 40.605 151.254 40.621 151.754 c 40.621 152.441 39.746 153.488
 38.23 154.629 c 38.23 154.723 l 41.293 154.676 l h
41.684 153.832 m f
45.223 147.207 m 43.707 147.223 42.629 148.379 42.645 149.988 c 42.645 
150.738 42.926 151.473 43.348 151.91 c 43.832 152.41 44.535 152.707 45.238
 152.707 c 46.816 152.676 47.879 151.566 47.863 149.957 c 47.848 149.176
 47.613 148.488 47.16 148.02 c 46.66 147.488 45.988 147.191 45.223 147.207
 c h
45.223 147.504 m 45.598 147.488 45.957 147.629 46.238 147.879 c 46.691 
148.27 46.941 149.004 46.957 149.957 c 46.957 150.426 46.879 150.973 46.707
 151.41 c 46.629 151.598 46.504 151.801 46.332 151.988 c 46.051 152.27 45.691
 152.41 45.27 152.426 c 44.91 152.426 44.551 152.285 44.254 152.051 c 43.832
 151.676 43.566 150.879 43.551 149.988 c 43.535 149.176 43.77 148.41 44.082
 148.035 c 44.395 147.676 44.785 147.504 45.223 147.504 c h
45.223 147.504 m f
50.453 147.137 m 49.875 147.543 49.625 147.746 49.344 148.105 c 48.781 
148.809 48.516 149.621 48.516 150.543 c 48.531 151.574 48.844 152.324 49.547
 153.137 c 49.891 153.527 50.094 153.684 50.516 153.934 c 50.609 153.809
 l 49.969 153.324 49.734 153.043 49.516 152.449 c 49.328 151.918 49.219 
151.309 49.203 150.512 c 49.203 149.668 49.297 149.012 49.516 148.527 c 
49.719 148.027 49.953 147.746 50.531 147.262 c h
50.453 147.137 m f
53.297 149.992 m 53.25 148.898 l 53.156 148.898 l 53.109 148.961 53.078
 148.992 53.031 148.992 c 52.984 148.992 52.906 148.977 52.812 148.93 c 
52.625 148.883 52.453 148.836 52.25 148.836 c 51.625 148.836 51.172 149.273
 51.188 149.852 c 51.188 150.289 51.438 150.602 52.141 150.977 c 52.594 
151.242 l 52.875 151.383 53.016 151.57 53.016 151.82 c 53.031 152.18 52.766
 152.398 52.359 152.414 c 51.812 152.414 51.531 152.117 51.344 151.305 c
 51.219 151.305 l 51.234 152.555 l 51.328 152.555 l 51.391 152.477 51.422
 152.461 51.516 152.445 c 51.594 152.445 51.703 152.461 51.875 152.508 c
 52.094 152.555 52.297 152.586 52.469 152.586 c 53.078 152.57 53.578 152.117
 53.562 151.555 c 53.562 151.148 53.375 150.883 52.891 150.602 c 52.031 
150.102 l 51.797 149.977 51.688 149.789 51.688 149.57 c 51.672 149.242 51.906
 149.023 52.281 149.023 c 52.734 149.008 52.969 149.273 53.172 149.992 c
 h
53.297 149.992 m f
54.242 153.891 m 54.836 153.484 55.07 153.297 55.352 152.922 c 55.914 152.219
 56.18 151.422 56.164 150.484 c 56.164 149.469 55.852 148.688 55.148 147.891
 c 54.82 147.516 54.602 147.344 54.195 147.094 c 54.102 147.219 l 54.742
 147.719 54.945 147.984 55.195 148.594 c 55.383 149.125 55.477 149.719 55.477
 150.531 c 55.492 151.359 55.414 152.016 55.195 152.5 c 54.977 153 54.758
 153.297 54.18 153.766 c h
54.242 153.891 m f
Q q
44.957 100.023 159.043 40 re W n
q
44 100 160 41 re W n
  q
0 g
1.13366 w
0 J
0 j
[] 0.0 d
10 M q 1 0 0 -1 0 0 cm
61.516 -116.277 m 61.516 -116.277 65.957 -117.531 68.32 -118.098 c 70.656
 -118.656 72.766 -119.094 75.125 -119.543 c 77.465 -119.988 79.574 -120.336
 81.93 -120.688 c 84.27 -121.043 86.379 -121.309 88.73 -121.582 c 91.074
 -121.855 93.184 -122.059 95.535 -122.262 c 97.879 -122.469 99.988 -122.625
 102.34 -122.773 c 104.688 -122.922 106.793 -123.027 109.145 -123.125 c 
111.488 -123.223 113.598 -123.285 115.945 -123.336 c 118.293 -123.391 120.402
 -123.418 122.75 -123.434 c 125.098 -123.445 127.207 -123.438 129.555 -123.41
 c 131.902 -123.387 134.012 -123.344 136.359 -123.285 c 138.707 -123.223
 140.812 -123.152 143.16 -123.059 c 145.512 -122.969 147.617 -122.875 149.965
 -122.754 c 152.312 -122.629 154.422 -122.508 156.77 -122.359 c 159.117 
-122.207 161.227 -122.059 163.574 -121.879 c 165.922 -121.699 168.031 -121.527
 170.379 -121.316 c 172.727 -121.109 174.836 -120.906 177.18 -120.668 c 
179.527 -120.434 181.637 -120.207 183.984 -119.945 c 186.332 -119.684 188.441
 -119.441 190.785 -119.148 c 192.965 -118.879 197.09 -118.32 197.09 -118.32
 c S Q
  Q
Q
0 g
121.27 118.988 m 123.473 118.941 l 123.473 118.785 l 122.879 118.754 122.785
 118.66 122.77 118.082 c 122.738 116.441 l 125.145 116.395 l 125.176 117.957
 l 125.191 118.629 125.113 118.723 124.488 118.77 c 124.488 118.926 l 126.707
 118.879 l 126.707 118.723 l 126.113 118.691 126.02 118.598 125.988 118.02
 c 125.926 114.488 l 125.926 113.91 126.004 113.832 126.613 113.754 c 126.613
 113.598 l 124.395 113.645 l 124.395 113.801 l 125.02 113.832 125.098 113.91
 125.113 114.504 c 125.145 116.051 l 122.738 116.098 l 122.707 114.551 l
 122.691 113.973 122.77 113.895 123.379 113.816 c 123.379 113.66 l 121.176
 113.707 l 121.176 113.863 l 121.785 113.895 121.863 113.973 121.895 114.566
 c 121.957 118.02 l 121.957 118.691 121.879 118.785 121.27 118.832 c h
121.27 118.988 m f
130.598 120.016 m 130.473 120 l 130.238 120.328 130.051 120.391 129.66 
120.406 c 127.879 120.438 l 129.082 119.469 130.191 118.594 130.176 117.641
 c 130.16 116.984 129.473 116.516 128.723 116.531 c 127.973 116.547 127.363
 116.891 127.16 117.797 c 127.332 117.781 l 127.551 117.422 127.832 117.047
 128.441 117.031 c 129.113 117.016 129.504 117.438 129.504 117.938 c 129.52
 118.625 128.66 119.672 127.145 120.828 c 127.145 120.922 l 130.207 120.859
 l h
130.598 120.016 m f
134.094 113.359 m 132.578 113.375 131.5 114.547 131.531 116.156 c 131.547
 116.906 131.828 117.625 132.25 118.078 c 132.734 118.562 133.438 118.859
 134.141 118.859 c 135.719 118.828 136.781 117.688 136.75 116.078 c 136.734
 115.297 136.484 114.625 136.047 114.156 c 135.531 113.625 134.859 113.344
 134.094 113.359 c h
134.094 113.656 m 134.469 113.641 134.828 113.781 135.109 114.016 c 135.562
 114.406 135.828 115.156 135.844 116.109 c 135.844 116.578 135.766 117.125
 135.609 117.547 c 135.531 117.734 135.406 117.938 135.219 118.125 c 134.953
 118.422 134.594 118.562 134.172 118.578 c 133.812 118.578 133.453 118.438
 133.141 118.203 c 132.734 117.828 132.453 117.047 132.438 116.156 c 132.422
 115.344 132.641 114.562 132.969 114.188 c 133.266 113.844 133.656 113.656
 134.094 113.656 c h
134.094 113.656 m f
139.32 113.254 m 138.742 113.66 138.492 113.863 138.227 114.238 c 137.664
 114.941 137.383 115.754 137.414 116.676 c 137.43 117.707 137.742 118.457
 138.461 119.254 c 138.789 119.645 138.992 119.816 139.43 120.051 c 139.523
 119.926 l 138.867 119.441 138.648 119.16 138.414 118.566 c 138.211 118.051
 138.117 117.441 138.102 116.645 c 138.086 115.801 138.18 115.145 138.383
 114.645 c 138.602 114.145 138.82 113.863 139.398 113.379 c h
139.32 113.254 m f
139.883 118.641 m 141.758 118.609 l 141.758 118.484 l 141.258 118.469 141.164
 118.391 141.148 117.938 c 141.07 113.188 l 141.023 113.172 l 140.633 113.312
 140.336 113.391 139.773 113.547 c 139.773 113.672 l 139.82 113.672 l 139.898
 113.672 139.992 113.656 140.07 113.641 c 140.32 113.641 140.398 113.75 
140.414 114.125 c 140.477 117.938 l 140.477 118.359 140.367 118.469 139.883
 118.516 c h
139.883 118.641 m f
142.199 120.008 m 142.777 119.602 143.012 119.414 143.309 119.023 c 143.855
 118.336 144.121 117.523 144.105 116.586 c 144.074 115.57 143.762 114.805
 143.074 113.992 c 142.73 113.633 142.512 113.461 142.105 113.211 c 142.012
 113.336 l 142.652 113.836 142.871 114.102 143.105 114.695 c 143.309 115.227
 143.402 115.82 143.418 116.633 c 143.434 117.461 143.34 118.117 143.137
 118.602 c 142.934 119.117 142.699 119.414 142.137 119.883 c h
142.199 120.008 m f
Q q
0 g
0.567043 w
0 J
0 j
[] 0.0 d
10 M q 1 0 0 -1 0 0 cm
27.438 -0.285 170.094 -170.078 re S Q
0.398506 w
q 1 0 0 -1 0 0 cm
27.438 -170.363 m 27.438 -166.113 l S Q
q 1 0 0 -1 0 0 cm
61.453 -170.363 m 61.453 -166.113 l S Q
q 1 0 0 -1 0 0 cm
95.473 -170.363 m 95.473 -166.113 l S Q
q 1 0 0 -1 0 0 cm
129.492 -170.363 m 129.492 -166.113 l S Q
q 1 0 0 -1 0 0 cm
163.512 -170.363 m 163.512 -166.113 l S Q
q 1 0 0 -1 0 0 cm
197.531 -170.363 m 197.531 -166.113 l S Q
q 1 0 0 -1 0 0 cm
27.438 -170.363 m 27.438 -166.113 l S Q
q 1 0 0 -1 0 0 cm
27.438 -170.363 m 31.688 -170.363 l S Q
q 1 0 0 -1 0 0 cm
27.438 -117.215 m 31.688 -117.215 l S Q
q 1 0 0 -1 0 0 cm
27.438 -64.062 m 31.688 -64.062 l S Q
q 1 0 0 -1 0 0 cm
27.438 -10.914 m 31.688 -10.914 l S Q
q 1 0 0 -1 0 0 cm
27.438 -170.363 m 31.688 -170.363 l S Q
q 1 0 0 -1 0 0 cm
27.438 -0.285 m 27.438 -4.535 l S Q
q 1 0 0 -1 0 0 cm
61.453 -0.285 m 61.453 -4.535 l S Q
q 1 0 0 -1 0 0 cm
95.473 -0.285 m 95.473 -4.535 l S Q
q 1 0 0 -1 0 0 cm
129.492 -0.285 m 129.492 -4.535 l S Q
q 1 0 0 -1 0 0 cm
163.512 -0.285 m 163.512 -4.535 l S Q
q 1 0 0 -1 0 0 cm
197.531 -0.285 m 197.531 -4.535 l S Q
q 1 0 0 -1 0 0 cm
27.438 -0.285 m 27.438 -4.535 l S Q
q 1 0 0 -1 0 0 cm
197.531 -170.363 m 193.277 -170.363 l S Q
q 1 0 0 -1 0 0 cm
197.531 -117.215 m 193.277 -117.215 l S Q
q 1 0 0 -1 0 0 cm
197.531 -64.062 m 193.277 -64.062 l S Q
q 1 0 0 -1 0 0 cm
197.531 -10.914 m 193.277 -10.914 l S Q
q 1 0 0 -1 0 0 cm
197.531 -170.363 m 193.277 -170.363 l S Q
20.258 177.355 5.484 0.453 re f
30.504 178.684 m 30.348 178.652 l 30.082 179.105 29.863 179.184 29.426 
179.184 c 27.363 179.184 l 28.785 177.887 30.082 176.715 30.082 175.402 
c 30.082 174.48 29.285 173.824 28.41 173.824 c 27.551 173.824 26.863 174.293
 26.598 175.512 c 26.801 175.512 l 27.051 175.012 27.395 174.496 28.082 
174.496 c 28.863 174.496 29.301 175.09 29.301 175.762 c 29.301 176.73 28.27
 178.152 26.504 179.699 c 26.504 179.84 l 30.035 179.84 l h
30.504 178.684 m f
34.848 173.918 m 32.379 173.918 l 31.27 176.465 l 31.41 176.434 31.551 
176.402 31.723 176.402 c 32.676 176.402 33.973 176.902 33.973 178.074 c 
33.973 178.98 33.316 179.559 32.691 179.559 c 32.145 179.559 31.941 179.059
 31.426 179.059 c 31.176 179.059 31.098 179.277 31.098 179.387 c 31.098 
179.699 31.535 179.949 32.16 179.949 c 33.504 179.949 34.566 178.965 34.566
 177.762 c 34.566 176.34 33.441 175.855 32.223 175.824 c 32.113 175.824 
31.988 175.84 31.879 175.855 c 32.441 174.59 l 34.535 174.574 l h
34.848 173.918 m f
63.473 176.887 m 63.473 175.277 62.738 173.824 61.488 173.824 c 60.223 
173.824 59.488 175.277 59.488 176.887 c 59.488 178.512 60.176 179.949 61.488
 179.949 c 62.691 179.949 63.473 178.512 63.473 176.887 c h
62.613 176.887 m 62.613 178.184 62.488 179.699 61.488 179.699 c 60.535 
179.699 60.348 178.184 60.348 176.887 c 60.348 175.809 60.473 174.059 61.488
 174.059 c 62.488 174.059 62.613 175.809 62.613 176.887 c h
62.613 176.887 m f
95.305 178.684 m 95.148 178.652 l 94.883 179.105 94.664 179.184 94.227 
179.184 c 92.164 179.184 l 93.586 177.887 94.883 176.715 94.883 175.402 
c 94.883 174.48 94.086 173.824 93.211 173.824 c 92.352 173.824 91.664 174.293
 91.398 175.512 c 91.602 175.512 l 91.852 175.012 92.195 174.496 92.883 
174.496 c 93.664 174.496 94.102 175.09 94.102 175.762 c 94.102 176.73 93.07
 178.152 91.305 179.699 c 91.305 179.84 l 94.836 179.84 l h
95.305 178.684 m f
99.648 173.918 m 97.18 173.918 l 96.07 176.465 l 96.211 176.434 96.352 
176.402 96.523 176.402 c 97.477 176.402 98.773 176.902 98.773 178.074 c 
98.773 178.98 98.117 179.559 97.492 179.559 c 96.945 179.559 96.742 179.059
 96.227 179.059 c 95.977 179.059 95.898 179.277 95.898 179.387 c 95.898 
179.699 96.336 179.949 96.961 179.949 c 98.305 179.949 99.367 178.965 99.367
 177.762 c 99.367 176.34 98.242 175.855 97.023 175.824 c 96.914 175.824 
96.789 175.84 96.68 175.855 c 97.242 174.59 l 99.336 174.574 l h
99.648 173.918 m f
129.168 173.918 m 126.699 173.918 l 125.59 176.465 l 125.73 176.434 125.871
 176.402 126.043 176.402 c 126.996 176.402 128.293 176.902 128.293 178.074
 c 128.293 178.98 127.637 179.559 127.012 179.559 c 126.465 179.559 126.262
 179.059 125.746 179.059 c 125.496 179.059 125.418 179.277 125.418 179.387
 c 125.418 179.699 125.855 179.949 126.48 179.949 c 127.824 179.949 128.887
 178.965 128.887 177.762 c 128.887 176.34 127.762 175.855 126.543 175.824
 c 126.434 175.824 126.309 175.84 126.199 175.855 c 126.762 174.59 l 128.855
 174.574 l h
129.168 173.918 m f
133.672 176.887 m 133.672 175.277 132.938 173.824 131.688 173.824 c 130.422
 173.824 129.688 175.277 129.688 176.887 c 129.688 178.512 130.375 179.949
 131.688 179.949 c 132.891 179.949 133.672 178.512 133.672 176.887 c h
132.812 176.887 m 132.812 178.184 132.688 179.699 131.688 179.699 c 130.734
 179.699 130.547 178.184 130.547 176.887 c 130.547 175.809 130.672 174.059
 131.688 174.059 c 132.688 174.059 132.812 175.809 132.812 176.887 c h
132.812 176.887 m f
163.188 173.918 m 159.906 173.918 l 159.359 175.246 l 159.516 175.246 l
 159.828 174.762 160.062 174.59 160.578 174.59 c 162.469 174.59 l 160.672
 179.949 l 161.219 179.949 l h
163.188 173.918 m f
167.691 173.918 m 165.223 173.918 l 164.113 176.465 l 164.254 176.434 164.395
 176.402 164.566 176.402 c 165.52 176.402 166.816 176.902 166.816 178.074
 c 166.816 178.98 166.16 179.559 165.535 179.559 c 164.988 179.559 164.785
 179.059 164.27 179.059 c 164.02 179.059 163.941 179.277 163.941 179.387
 c 163.941 179.699 164.379 179.949 165.004 179.949 c 166.348 179.949 167.41
 178.965 167.41 177.762 c 167.41 176.34 166.285 175.855 165.066 175.824 
c 164.957 175.824 164.832 175.84 164.723 175.855 c 165.285 174.59 l 167.379
 174.574 l h
167.691 173.918 m f
194.363 179.84 m 194.363 179.699 l 193.77 179.699 193.551 179.715 193.551
 178.543 c 193.551 178.527 193.551 173.793 193.551 173.793 c 193.426 173.793
 l 191.895 174.527 l 191.941 174.668 l 192.27 174.527 192.348 174.496 192.473
 174.496 c 192.738 174.496 192.785 174.73 192.785 175.043 c 192.785 178.543
 l 192.785 179.715 192.566 179.684 191.973 179.699 c 191.973 179.84 l h
194.363 179.84 m f
199.551 176.887 m 199.551 175.277 198.816 173.824 197.566 173.824 c 196.301
 173.824 195.566 175.277 195.566 176.887 c 195.566 178.512 196.254 179.949
 197.566 179.949 c 198.77 179.949 199.551 178.512 199.551 176.887 c h
198.691 176.887 m 198.691 178.184 198.566 179.699 197.566 179.699 c 196.613
 179.699 196.426 178.184 196.426 176.887 c 196.426 175.809 196.551 174.059
 197.566 174.059 c 198.566 174.059 198.691 175.809 198.691 176.887 c h
198.691 176.887 m f
203.992 176.887 m 203.992 175.277 203.258 173.824 202.008 173.824 c 200.742
 173.824 200.008 175.277 200.008 176.887 c 200.008 178.512 200.695 179.949
 202.008 179.949 c 203.211 179.949 203.992 178.512 203.992 176.887 c h
203.133 176.887 m 203.133 178.184 203.008 179.699 202.008 179.699 c 201.055
 179.699 200.867 178.184 200.867 176.887 c 200.867 175.809 200.992 174.059
 202.008 174.059 c 203.008 174.059 203.133 175.809 203.133 176.887 c h
203.133 176.887 m f
23.754 170.527 m 23.754 168.918 23.02 167.465 21.77 167.465 c 20.504 167.465
 19.77 168.918 19.77 170.527 c 19.77 172.152 20.457 173.59 21.77 173.59 
c 22.973 173.59 23.754 172.152 23.754 170.527 c h
22.895 170.527 m 22.895 171.824 22.77 173.34 21.77 173.34 c 20.816 173.34
 20.629 171.824 20.629 170.527 c 20.629 169.449 20.754 167.699 21.77 167.699
 c 22.77 167.699 22.895 169.449 22.895 170.527 c h
22.895 170.527 m f
23.691 114.398 m 21.223 114.398 l 20.113 116.945 l 20.254 116.914 20.395
 116.883 20.566 116.883 c 21.52 116.883 22.816 117.383 22.816 118.555 c 
22.816 119.461 22.16 120.039 21.535 120.039 c 20.988 120.039 20.785 119.539
 20.27 119.539 c 20.02 119.539 19.941 119.758 19.941 119.867 c 19.941 120.18
 20.379 120.43 21.004 120.43 c 22.348 120.43 23.41 119.445 23.41 118.242
 c 23.41 116.82 22.285 116.336 21.066 116.305 c 20.957 116.305 20.832 116.32
 20.723 116.336 c 21.285 115.07 l 23.379 115.055 l h
23.691 114.398 m f
18.562 67.16 m 18.562 67.02 l 17.969 67.02 17.75 67.035 17.75 65.863 c 
17.75 65.848 17.75 61.113 17.75 61.113 c 17.625 61.113 l 16.094 61.848 l
 16.141 61.988 l 16.469 61.848 16.547 61.816 16.672 61.816 c 16.938 61.816
 16.984 62.051 16.984 62.363 c 16.984 65.863 l 16.984 67.035 16.766 67.004
 16.172 67.02 c 16.172 67.16 l h
18.562 67.16 m f
23.754 64.207 m 23.754 62.598 23.02 61.145 21.77 61.145 c 20.504 61.145
 19.77 62.598 19.77 64.207 c 19.77 65.832 20.457 67.27 21.77 67.27 c 22.973
 67.27 23.754 65.832 23.754 64.207 c h
22.895 64.207 m 22.895 65.504 22.77 67.02 21.77 67.02 c 20.816 67.02 20.629
 65.504 20.629 64.207 c 20.629 63.129 20.754 61.379 21.77 61.379 c 22.77
 61.379 22.895 63.129 22.895 64.207 c h
22.895 64.207 m f
18.562 14 m 18.562 13.859 l 17.969 13.859 17.75 13.875 17.75 12.703 c 17.75
 12.688 17.75 7.953 17.75 7.953 c 17.625 7.953 l 16.094 8.688 l 16.141 8.828
 l 16.469 8.688 16.547 8.656 16.672 8.656 c 16.938 8.656 16.984 8.891 16.984
 9.203 c 16.984 12.703 l 16.984 13.875 16.766 13.844 16.172 13.859 c 16.172
 14 l h
18.562 14 m f
23.691 8.078 m 21.223 8.078 l 20.113 10.625 l 20.254 10.594 20.395 10.562
 20.566 10.562 c 21.52 10.562 22.816 11.062 22.816 12.234 c 22.816 13.141
 22.16 13.719 21.535 13.719 c 20.988 13.719 20.785 13.219 20.27 13.219 c
 20.02 13.219 19.941 13.438 19.941 13.547 c 19.941 13.859 20.379 14.109 
21.004 14.109 c 22.348 14.109 23.41 13.125 23.41 11.922 c 23.41 10.5 22.285
 10.016 21.066 9.984 c 20.957 9.984 20.832 10 20.723 10.016 c 21.285 8.75
 l 23.379 8.734 l h
23.691 8.078 m f
106.051 188.188 m 105.379 188.188 l 105.676 187.109 l 105.535 187.109 l
 105.113 187.734 104.613 188.156 104.004 188.297 c 103.957 188.484 l 104.629
 188.484 l 103.895 191.188 l 103.863 191.375 103.754 191.734 103.754 191.875
 c 103.754 192.219 104.004 192.312 104.176 192.312 c 104.566 192.312 104.988
 192.016 105.457 191.266 c 105.332 191.203 l 105.098 191.469 104.816 191.875
 104.598 191.875 c 104.473 191.875 104.441 191.797 104.441 191.734 c 104.441
 191.672 104.457 191.625 104.488 191.484 c 105.301 188.484 l 106.004 188.484
 l h
106.051 188.188 m f
110.812 185.766 m 110.375 185.766 l 107.266 194.125 l 107.719 194.125 l
 h
110.812 185.766 m f
114.734 186.945 m 114.734 186.148 114.078 185.492 113.25 185.492 c 112.422
 185.492 111.766 186.148 111.766 186.945 c 111.766 187.727 112.422 188.383
 113.25 188.383 c 114.078 188.383 114.734 187.727 114.734 186.945 c h
114.266 186.945 m 114.266 187.477 113.797 187.93 113.25 187.93 c 112.703
 187.93 112.25 187.477 112.25 186.945 c 112.25 186.414 112.703 185.961 113.25
 185.961 c 113.797 185.961 114.266 186.414 114.266 186.945 c h
114.266 186.945 m f
121.227 188.156 m 121.148 186.141 l 120.961 186.141 l 120.898 186.328 120.758
 186.438 120.586 186.438 c 120.492 186.438 120.367 186.406 120.227 186.359
 c 119.789 186.219 119.336 186.141 118.914 186.141 c 118.18 186.141 117.445
 186.422 116.883 186.906 c 116.258 187.469 115.914 188.297 115.914 189.281
 c 115.914 191.109 117.102 192.328 118.898 192.328 c 119.914 192.328 120.805
 191.922 121.336 191.188 c 121.18 191.031 l 120.523 191.672 119.93 191.938
 119.18 191.938 c 118.617 191.938 118.117 191.75 117.727 191.406 c 117.227
 190.969 116.961 190.172 116.961 189.156 c 116.961 187.547 117.789 186.5
 119.086 186.5 c 119.602 186.5 120.07 186.688 120.43 187.031 c 120.711 187.328
 120.852 187.578 121.023 188.156 c h
121.227 188.156 m f
1 g
0.785 156.543 m 0.52 156.543 0.285 156.762 0.285 157.043 c 0.285 157.309
 0.52 157.527 0.77 157.527 c 1.051 157.527 1.285 157.324 1.285 157.043 c
 1.285 156.777 1.051 156.543 0.785 156.543 c h
0.785 156.543 m f
0 g
4.098 109.465 m 4.004 109.465 3.848 109.512 3.848 109.746 c 3.848 110.324
 4.535 110.887 4.754 111.074 c 5.191 111.449 5.801 111.871 5.801 112.465
 c 3.848 111.996 l 3.848 112.637 l 7.941 113.621 l 7.941 112.98 l 6.113 
112.543 l 6.113 112.527 6.113 112.34 6.098 112.293 c 7.441 111.73 l 7.895
 111.543 8.02 111.309 8.02 111.059 c 8.02 110.621 7.504 110.137 7.238 109.918
 c 7.238 110.027 l 7.363 110.184 7.535 110.465 7.535 110.652 c 7.535 110.871
 7.285 111.027 7.113 111.105 c 5.801 111.59 l 5.316 111.012 4.504 110.652
 4.301 110.137 c 4.395 110.105 4.52 110.074 4.52 109.855 c 4.52 109.621 
4.316 109.465 4.098 109.465 c h
4.098 109.465 m f
5.191 103.934 m 5.191 108.324 l 6.551 108.715 l 6.551 108.48 l 5.738 108.152
 5.566 107.762 5.566 107.121 c 5.566 107.121 5.566 106.809 5.566 106.652
 c 9.301 107.73 l 10.004 107.934 10.004 108.184 10.004 108.512 c 10.223 
108.559 l 10.223 106.434 l 10.004 106.402 l 10.004 106.715 10.02 106.996
 9.676 106.996 c 9.582 106.996 9.473 106.965 9.332 106.934 c 5.566 105.855
 l 5.566 105.246 l 5.566 104.887 5.598 104.496 6.066 104.496 c 6.176 104.496
 6.301 104.512 6.551 104.574 c 6.551 104.34 l h
5.191 103.934 m f
1.504 99.055 m 1.504 99.492 l 9.863 102.602 l 9.863 102.148 l h
1.504 99.055 m f
7.941 95.637 m 7.801 95.637 l 7.801 96.23 7.816 96.449 6.645 96.449 c 6.629
 96.449 1.895 96.449 1.895 96.449 c 1.895 96.574 l 2.629 98.105 l 2.77 98.059
 l 2.629 97.73 2.598 97.652 2.598 97.527 c 2.598 97.262 2.832 97.215 3.145
 97.215 c 6.645 97.215 l 7.816 97.215 7.785 97.434 7.801 98.027 c 7.941 
98.027 l h
7.941 95.637 m f
4.988 90.449 m 3.379 90.449 1.926 91.184 1.926 92.434 c 1.926 93.699 3.379
 94.434 4.988 94.434 c 6.613 94.434 8.051 93.746 8.051 92.434 c 8.051 91.23
 6.613 90.449 4.988 90.449 c h
4.988 91.309 m 6.285 91.309 7.801 91.434 7.801 92.434 c 7.801 93.387 6.285
 93.574 4.988 93.574 c 3.91 93.574 2.16 93.449 2.16 92.434 c 2.16 91.434
 3.91 91.309 4.988 91.309 c h
4.988 91.309 m f
2.469 85.117 0.438 4.703 re f
0.062 81.02 m 0.062 83.238 l 2.125 84.223 l 2.078 84.035 2.062 83.91 2.062
 83.77 c 2.062 82.988 2.438 81.895 3.297 81.895 c 3.969 81.895 4.406 82.426
 4.406 82.941 c 4.406 83.426 4.016 83.582 4.016 84.02 c 4.016 84.27 4.219
 84.348 4.312 84.348 c 4.578 84.348 4.781 83.957 4.781 83.395 c 4.781 82.207
 4 81.301 3.078 81.301 c 1.953 81.301 1.547 82.27 1.531 83.348 c 1.531 83.41
 1.547 83.488 1.547 83.551 c 0.672 83.129 l 0.688 81.363 l h
0.062 81.02 m f
1.832 77.109 m 1.816 77.156 l 1.941 77.531 2.02 77.766 2.145 78.203 c 2.207
 78.453 l 2.348 78.453 l 2.348 78.406 2.348 78.375 2.348 78.312 c 2.348 
77.953 2.426 77.859 2.801 77.859 c 7.457 77.859 l 7.738 77.859 8.035 77.109
 8.035 76.391 c 8.035 75.203 7.051 74.281 5.77 74.281 c 4.645 74.281 3.816
 74.969 3.816 75.859 c 3.816 76.406 4.129 76.938 4.582 77.109 c h
5.051 77.109 m 4.707 77.109 4.379 76.688 4.379 76.219 c 4.379 75.969 4.473
 75.75 4.645 75.562 c 4.926 75.281 5.535 75.078 6.176 75.078 c 7.176 75.078
 7.738 75.5 7.738 76.234 c 7.738 76.703 7.551 77.109 7.316 77.109 c h
5.051 77.109 m f
7.348 70.074 m 7.473 70.23 7.52 70.34 7.52 70.48 c 7.52 70.684 7.395 70.746
 7.004 70.746 c 5.254 70.746 l 4.785 70.746 4.52 70.793 4.316 70.918 c 3.988
 71.121 3.816 71.512 3.816 72.027 c 3.816 72.871 4.254 73.543 4.816 73.543
 c 5.02 73.543 5.207 73.371 5.207 73.152 c 5.207 72.934 5.02 72.746 4.832
 72.746 c 4.801 72.746 4.754 72.762 4.691 72.762 c 4.598 72.793 4.535 72.793
 4.473 72.793 c 4.223 72.793 4.035 72.512 4.035 72.152 c 4.035 71.715 4.285
 71.465 4.77 71.465 c 5.316 71.465 l 5.863 72.84 5.957 72.996 6.285 73.387
 c 6.473 73.59 6.77 73.715 7.066 73.715 c 7.629 73.715 8.035 73.324 8.035
 72.762 c 8.035 72.371 7.848 72.012 7.379 71.465 c 7.848 71.418 8.035 71.246
 8.035 70.887 c 8.035 70.574 7.926 70.387 7.582 70.074 c h
6.832 71.465 m 7.113 71.465 7.207 71.512 7.316 71.699 c 7.441 71.934 7.504
 72.168 7.504 72.355 c 7.504 72.668 7.207 72.918 6.816 72.918 c 6.785 72.918
 l 6.254 72.918 5.91 72.512 5.535 71.465 c h
6.832 71.465 m f
7.941 70.035 m 7.941 67.879 l 7.801 67.879 l 7.785 68.488 7.66 68.629 7.129
 68.645 c 5.113 68.645 l 4.832 68.645 4.379 68.27 4.379 68.02 c 4.379 67.973
 4.426 67.879 4.52 67.785 c 4.645 67.645 4.691 67.551 4.691 67.426 c 4.691
 67.207 4.535 67.082 4.285 67.082 c 3.988 67.082 3.816 67.27 3.816 67.566
 c 3.816 67.941 4.02 68.191 4.66 68.645 c 3.832 68.645 l 3.816 68.691 l 
4.02 69.191 4.145 69.52 4.301 70.02 c 4.441 70.02 l 4.41 69.895 4.41 69.816
 4.41 69.707 c 4.41 69.488 4.551 69.395 4.941 69.395 c 7.191 69.395 l 7.66
 69.426 7.707 69.473 7.801 70.035 c h
7.941 70.035 m f
2.469 61.957 0.438 4.703 re f
4.703 58.406 m 4.516 58.406 l 4.516 58.938 4.516 59.109 3.672 59.109 c 
3.656 59.109 0 59.109 0 59.109 c 0 59.281 l 0.578 60.625 l 0.766 60.547 
l 0.641 60.234 0.625 60.172 0.625 60.078 c 0.625 59.875 0.797 59.859 1 59.859
 c 3.672 59.859 l 4.516 59.859 4.5 60.016 4.516 60.547 c 4.703 60.547 l 
h
4.703 58.406 m f
Q Q
showpage
%%Trailer
end
%%EOF
